3c19
0000
0000
0116
cafe
2019
0000
0000
011b
cafe
2419
0000
0000
0121
cafe
2819
0000
0000
011c
cafe
2c19
0000
0000
0120
cafe
3019
0000
0000
011c
cafe
3419
0000
0000
011d
cafe
3819
0000
0000
011d
cafe
3c19
0000
0000
011d
cafe
2019
0000
0000
0114
cafe
2419
0000
0000
0116
cafe
2819
0000
0000
011a
cafe
2c19
0000
0000
011c
cafe
3019
0000
0000
0118
cafe
3419
0000
0000
0118
cafe
3819
0000
0000
011d
cafe
3c19
0000
0000
011d
cafe
2019
0000
0000
011f
cafe
2419
0000
0000
011a
cafe
2819
0000
0000
011e
cafe
2c19
0000
0000
0114
cafe
3019
0000
0000
010b
cafe
3419
0000
0000
010f
cafe
3819
0000
0000
0116
cafe
3c19
0000
0000
0114
cafe
2019
0000
0000
0114
cafe
2419
0000
0000
010f
cafe
2819
0000
0000
0107
cafe
2c19
0000
0000
0109
cafe
3019
0000
0000
010c
cafe
3419
0000
0000
010e
cafe
3819
0000
0000
0112
cafe
3c19
0000
0000
010d
cafe
2019
0000
0000
0111
cafe
2419
0000
0000
0118
cafe
2819
0000
0000
0118
cafe
2c19
0000
0000
0116
cafe
3019
0000
0000
0112
cafe
3419
0000
0000
0110
cafe
3819
0000
0000
0118
cafe
3c19
0000
0000
0112
cafe
2019
0000
0000
0117
cafe
2419
0000
0000
0119
cafe
2819
0000
0000
0113
cafe
2c19
0000
0000
0118
cafe
3019
0000
0000
0115
cafe
3419
0000
0000
0115
cafe
3819
0000
0000
0110
cafe
3c19
0000
0000
0111
cafe
2019
0000
0000
0110
cafe
2419
0000
0000
010e
cafe
2819
-
0000
0000
010e
cafe
2c19
0000
0000
0107
cafe
3019
0000
0000
010f
cafe
3419
0000
0000
011c
cafe
3819
0000
0000
0115
cafe
3c19
0000
0000
011a
cafe
2019
0000
0000
0121
cafe
2419
0000
0000
0114
cafe
2819
0000
0000
0117
cafe
2c19
0000
0000
010e
cafe
3019
0000
0000
0110
cafe
3419
0000
0000
010f
cafe
3819
0000
0000
010d
cafe
3c19
0000
0000
010f
cafe
2019
0000
0000
010b
cafe
2419
0000
0000
010f
cafe
2819
0000
0000
0113
cafe
2c19
0000
0000
011a
cafe
3019
0000
0000
0113
cafe
3419
0000
0000
0109
cafe
3819
0000
0000
0107
cafe
3c19
0000
0000
0104
cafe
2019
0000
0000
010b
cafe
2419
0000
0000
0106
cafe
2819
0000
0000
0104
cafe
2c19
0000
0000
010a
cafe
3019
0000
0000
010f
cafe
3419
0000
0000
0114
cafe
3819
0000
0000
0111
cafe
3c19
0000
0000
011a
cafe
2019
0000
0000
0114
cafe
2419
0000
0000
010e
cafe
2819
0000
0000
010b
cafe
2c19
0000
0000
010c
cafe
3019
0000
0000
010a
cafe
3419
0000
0000
010f
cafe
3819
0000
0000
0115
cafe
3c19
0000
0000
0119
cafe
2019
0000
0000
010c
cafe
2419
0000
0000
010e
cafe
2819
0000
0000
010e
cafe
2c19
0000
0000
010d
cafe
3019
0000
0000
0112
cafe
3419
0000
0000
0118
cafe
3819
0000
0000
011b
cafe
3c19
0000
0000
0127
cafe
2019
0000
0000
011d
cafe
2419
0000
0000
0121
cafe
2819
0000
0000
0120
cafe
2c19
0000
0000
0119
cafe
3019
0000
0000
010c
cafe
3419
0000
-
0000
0110
cafe
3819
0000
0000
0112
cafe
3c19
0000
0000
0119
cafe
2019
0000
0000
011d
cafe
2419
0000
0000
011e
cafe
2819
0000
0000
0119
cafe
2c19
0000
0000
0117
cafe
3019
0000
0000
011f
cafe
3419
0000
0000
011d
cafe
3819
0000
0000
0110
cafe
3c19
0000
0000
0116
cafe
2019
0000
0000
0118
cafe
2419
0000
0000
0112
cafe
2819
0000
0000
0111
cafe
2c19
0000
0000
0115
cafe
3019
0000
0000
0118
cafe
3419
0000
0000
011d
cafe
3819
0000
0000
0115
cafe
3c19
0000
0000
010f
cafe
2019
0000
0000
0112
cafe
2419
0000
0000
0116
cafe
2819
0000
0000
0114
cafe
2c19
0000
0000
010e
cafe
3019
0000
0000
0114
cafe
3419
0000
0000
010c
cafe
3819
0000
0000
010b
cafe
3c19
0000
0000
010c
cafe
2019
0000
0000
0108
cafe
2419
0000
0000
0111
cafe
2819
0000
0000
010c
cafe
2c19
0000
0000
0111
cafe
3019
0000
0000
0105
cafe
3419
0000
0000
010e
cafe
3819
0000
0000
010c
cafe
3c19
0000
0000
010b
cafe
2019
0000
0000
010a
cafe
2419
0000
0000
0109
cafe
2819
0000
0000
0108
cafe
2c19
0000
0000
0107
cafe
3019
0000
0000
0112
cafe
3419
0000
0000
010f
cafe
3819
0000
0000
0100
cafe
3c19
0000
0000
010a
cafe
2019
0000
0000
010c
cafe
2419
0000
0000
010c
cafe
2819
0000
0000
0118
cafe
2c19
0000
0000
0117
cafe
3019
0000
0000
0110
cafe
3419
0000
0000
0106
cafe
3819
0000
0000
0112
cafe
3c19
0000
0000
0112
cafe
2019
0000
0000
-
0119
cafe
2419
0000
0000
011d
cafe
2819
0000
0000
0119
cafe
2c19
0000
0000
011a
cafe
3019
0000
0000
0122
cafe
3419
0000
0000
0118
cafe
3819
0000
0000
0118
cafe
3c19
0000
0000
0119
cafe
2019
0000
0000
0111
cafe
2419
0000
0000
0110
cafe
2819
0000
0000
0114
cafe
2c19
0000
0000
0113
cafe
3019
0000
0000
0111
cafe
3419
0000
0000
0112
cafe
3819
0000
0000
010f
cafe
3c19
0000
0000
0112
cafe
2019
0000
0000
0114
cafe
2419
0000
0000
0116
cafe
2819
0000
0000
0113
cafe
2c19
0000
0000
0114
cafe
3019
0000
0000
011c
cafe
3419
0000
0000
011a
cafe
3819
0000
0000
010b
cafe
3c19
0000
0000
0108
cafe
2019
0000
0000
010f
cafe
2419
0000
0000
0111
cafe
2819
0000
0000
0114
cafe
2c19
0000
0000
0114
cafe
3019
0000
0000
0118
cafe
3419
0000
0000
0115
cafe
3819
0000
0000
0112
cafe
3c19
0000
0000
0116
cafe
2019
0000
0000
0115
cafe
2419
0000
0000
0117
cafe
2819
0000
0000
0115
cafe
2c19
0000
0000
0111
cafe
3019
0000
0000
0114
cafe
3419
0000
0000
010f
cafe
3819
0000
0000
010e
cafe
3c19
0000
0000
010a
cafe
2019
0000
0000
0110
cafe
2419
0000
0000
0114
cafe
2819
0000
0000
0112
cafe
2c19
0000
0000
0110
cafe
3019
0000
0000
0113
cafe
3419
0000
0000
0115
cafe
3819
0000
0000
0114
cafe
3c19
0000
0000
0112
cafe
2019
0000
0000
010d
cafe
2419
0000
0000
010d
cafe
2819
0000
0000
010b
cafe
2c19
0000
0000
010e
-
cafe
3019
0000
0000
010c
cafe
3419
0000
0000
0111
cafe
3819
0000
0000
0108
cafe
3c19
0000
0000
0118
cafe
2019
0000
0000
0114
cafe
2419
0000
0000
0110
cafe
2819
0000
0000
0112
cafe
2c19
0000
0000
010c
cafe
3019
0000
0000
010c
cafe
3419
0000
0000
0115
cafe
3819
0000
0000
011a
cafe
3c19
0000
0000
011b
cafe
2019
0000
0000
0120
cafe
2419
0000
0000
0111
cafe
2819
0000
0000
010e
cafe
2c19
0000
0000
010f
cafe
3019
0000
0000
0113
cafe
3419
0000
0000
0112
cafe
3819
0000
0000
0112
cafe
3c19
0000
0000
0112
cafe
2019
0000
0000
0116
cafe
2419
0000
0000
0114
cafe
2819
0000
0000
0115
cafe
2c19
0000
0000
0115
cafe
3019
0000
0000
0116
cafe
3419
0000
0000
0113
cafe
3819
0000
0000
0114
cafe
3c19
0000
0000
0112
cafe
2019
0000
0000
0115
cafe
2419
0000
0000
0113
cafe
2819
0000
0000
0115
cafe
2c19
0000
0000
0117
cafe
3019
0000
0000
0117
cafe
3419
0000
0000
0114
cafe
3819
0000
0000
0114
cafe
3c19
0000
0000
0116
cafe
2019
0000
0000
0109
cafe
2419
0000
0000
0110
cafe
2819
0000
0000
010e
cafe
2c19
0000
0000
0117
cafe
3019
0000
0000
0116
cafe
3419
0000
0000
0115
cafe
3819
0000
0000
0109
cafe
3c19
0000
0000
0117
cafe
2019
0000
0000
011a
cafe
2419
0000
0000
011e
cafe
2819
0000
0000
0120
cafe
2c19
0000
0000
011e
cafe
3019
0000
0000
011f
cafe
3419
0000
0000
011b
cafe
3819
0000
0000
0115
cafe
-
3c19
0000
0000
0119
cafe
2019
0000
0000
011a
cafe
2419
0000
0000
0118
cafe
2819
0000
0000
011c
cafe
2c19
0000
0000
0116
cafe
3019
0000
0000
0118
cafe
3419
0000
0000
010d
cafe
3819
0000
0000
011a
cafe
3c19
0000
0000
0114
cafe
2019
0000
0000
0114
cafe
2419
0000
0000
0110
cafe
2819
0000
0000
0110
cafe
2c19
0000
0000
0111
cafe
3019
0000
0000
0112
cafe
3419
0000
0000
0113
cafe
3819
0000
0000
0119
cafe
3c19
0000
0000
0122
cafe
2019
0000
0000
011b
cafe
2419
0000
0000
0115
cafe
2819
0000
0000
0119
cafe
2c19
0000
0000
010d
cafe
3019
0000
0000
010e
cafe
3419
0000
0000
0111
cafe
3819
0000
0000
010c
cafe
3c19
0000
0000
010b
cafe
2019
0000
0000
0113
cafe
2419
0000
0000
010e
cafe
2819
0000
0000
0115
cafe
2c19
0000
0000
011b
cafe
3019
0000
0000
0123
cafe
3419
0000
0000
0116
cafe
3819
0000
0000
0116
cafe
3c19
0000
0000
0119
cafe
2019
0000
0000
011c
cafe
2419
0000
0000
0111
cafe
2819
0000
0000
011a
cafe
2c19
0000
0000
011b
cafe
3019
0000
0000
011f
cafe
3419
0000
0000
0112
cafe
3819
0000
0000
011d
cafe
3c19
0000
0000
0118
cafe
2019
0000
0000
011f
cafe
2419
0000
0000
0121
cafe
2819
0000
0000
011b
cafe
2c19
0000
0000
0116
cafe
3019
0000
0000
0110
cafe
3419
0000
0000
0110
cafe
3819
0000
0000
0115
cafe
3c19
0000
0000
0116
cafe
2019
0000
0000
010d
cafe
2419
0000
0000
0109
cafe
2819
-
0000
0000
0112
cafe
2c19
0000
0000
0114
cafe
3019
0000
0000
0116
cafe
3419
0000
0000
0114
cafe
3819
0000
0000
010e
cafe
3c19
0000
0000
0109
cafe
2019
0000
0000
010f
cafe
2419
0000
0000
010c
cafe
2819
0000
0000
010d
cafe
2c19
0000
0000
0104
cafe
3019
0000
0000
010a
cafe
3419
0000
0000
010d
cafe
3819
0000
0000
010f
cafe
3c19
0000
0000
0114
cafe
2019
0000
0000
010f
cafe
2419
0000
0000
0108
cafe
2819
0000
0000
010e
cafe
2c19
0000
0000
0117
cafe
3019
0000
0000
011b
cafe
3419
0000
0000
0114
cafe
3819
0000
0000
0115
cafe
3c19
0000
0000
0114
cafe
2019
0000
0000
011a
cafe
2419
0000
0000
011d
cafe
2819
0000
0000
011c
cafe
2c19
0000
0000
0117
cafe
3019
0000
0000
0118
cafe
3419
0000
0000
0117
cafe
3819
0000
0000
0115
cafe
3c19
0000
0000
0119
cafe
2019
0000
0000
0119
cafe
2419
0000
0000
010e
cafe
2819
0000
0000
0110
cafe
2c19
0000
0000
0118
cafe
3019
0000
0000
0118
cafe
3419
0000
0000
0118
cafe
3819
0000
0000
0116
cafe
3c19
0000
0000
011b
cafe
2019
0000
0000
0110
cafe
2419
0000
0000
0114
cafe
2819
0000
0000
0115
cafe
2c19
0000
0000
011c
cafe
3019
0000
0000
011a
cafe
3419
0000
0000
011a
cafe
3819
0000
0000
0113
cafe
3c19
0000
0000
010d
cafe
2019
0000
0000
010b
cafe
2419
0000
0000
010a
cafe
2819
0000
0000
0118
cafe
2c19
0000
0000
010e
cafe
3019
0000
0000
0114
cafe
3419
0000
-
0000
0110
cafe
3819
0000
0000
010d
cafe
3c19
0000
0000
0110
cafe
2019
0000
0000
010a
cafe
2419
0000
0000
0106
cafe
2819
0000
0000
0107
cafe
2c19
0000
0000
010a
cafe
3019
0000
0000
010c
cafe
3419
0000
0000
0117
cafe
3819
0000
0000
0118
cafe
3c19
0000
0000
0113
cafe
2019
0000
0000
010c
cafe
2419
0000
0000
0111
cafe
2819
0000
0000
010f
cafe
2c19
0000
0000
0115
cafe
3019
0000
0000
0111
cafe
3419
0000
0000
010e
cafe
3819
0000
0000
010d
cafe
3c19
0000
0000
0112
cafe
2019
0000
0000
011a
cafe
2419
0000
0000
010f
cafe
2819
0000
0000
0114
cafe
2c19
0000
0000
0115
cafe
3019
0000
0000
0116
cafe
3419
0000
0000
011d
cafe
3819
0000
0000
0117
cafe
3c19
0000
0000
0116
cafe
2019
0000
0000
011b
cafe
2419
0000
0000
0114
cafe
2819
0000
0000
0115
cafe
2c19
0000
0000
010d
cafe
3019
0000
0000
0114
cafe
3419
0000
0000
0111
cafe
3819
0000
0000
0112
cafe
3c19
0000
0000
010b
cafe
2019
0000
0000
010a
cafe
2419
0000
0000
0111
cafe
2819
0000
0000
0118
cafe
2c19
0000
0000
0119
cafe
3019
0000
0000
011a
cafe
3419
0000
0000
0118
cafe
3819
0000
0000
0112
cafe
3c19
0000
0000
010f
cafe
2019
0000
0000
010d
cafe
2419
0000
0000
010f
cafe
2819
0000
0000
0116
cafe
2c19
0000
0000
0110
cafe
3019
0000
0000
0112
cafe
3419
0000
0000
0117
cafe
3819
0000
0000
0113
cafe
3c19
0000
0000
0114
cafe
2019
0000
0000
-
011c
cafe
2419
0000
0000
0112
cafe
2819
0000
0000
0114
cafe
2c19
0000
0000
0118
cafe
3019
0000
0000
0118
cafe
3419
0000
0000
0118
cafe
3819
0000
0000
011f
cafe
3c19
0000
0000
0120
cafe
2019
0000
0000
011c
cafe
2419
0000
0000
0112
cafe
2819
0000
0000
010c
cafe
2c19
0000
0000
010c
cafe
3019
0000
0000
0116
cafe
3419
0000
0000
0113
cafe
3819
0000
0000
0116
cafe
3c19
0000
0000
0119
cafe
2019
0000
0000
0113
cafe
2419
0000
0000
010d
cafe
2819
0000
0000
010b
cafe
2c19
0000
0000
0111
cafe
3019
0000
0000
010e
cafe
3419
0000
0000
0112
cafe
3819
0000
0000
0110
cafe
3c19
0000
0000
010c
cafe
2019
0000
0000
0110
cafe
2419
0000
0000
0113
cafe
2819
0000
0000
0113
cafe
2c19
0000
0000
0117
cafe
3019
0000
0000
0110
cafe
3419
0000
0000
010c
cafe
3819
0000
0000
0112
cafe
3c19
0000
0000
010e
cafe
2019
0000
0000
010d
cafe
2419
0000
0000
010e
cafe
2819
0000
0000
0111
cafe
2c19
0000
0000
0114
cafe
3019
0000
0000
0114
cafe
3419
0000
0000
0118
cafe
3819
0000
0000
0117
cafe
3c19
0000
0000
0118
cafe
2019
0000
0000
0119
cafe
2419
0000
0000
011c
cafe
2819
0000
0000
011d
cafe
2c19
0000
0000
0118
cafe
3019
0000
0000
011d
cafe
3419
0000
0000
0117
cafe
3819
0000
0000
0120
cafe
3c19
0000
0000
0121
cafe
2019
0000
0000
011f
cafe
2419
0000
0000
0121
cafe
2819
0000
0000
0125
cafe
2c19
0000
0000
0121
-
cafe
3019
0000
0000
011e
cafe
3419
0000
0000
0118
cafe
3819
0000
0000
0113
cafe
3c19
0000
0000
0115
cafe
2019
0000
0000
0116
cafe
2419
0000
0000
0114
cafe
2819
0000
0000
0114
cafe
2c19
0000
0000
010f
cafe
3019
0000
0000
011c
cafe
3419
0000
0000
0110
cafe
3819
0000
0000
0113
cafe
3c19
0000
0000
0119
cafe
2019
0000
0000
0119
cafe
2419
0000
0000
0114
cafe
2819
0000
0000
010d
cafe
2c19
0000
0000
010b
cafe
3019
0000
0000
0116
cafe
3419
0000
0000
0117
cafe
3819
0000
0000
0110
cafe
3c19
0000
0000
0113
cafe
2019
0000
0000
0115
cafe
2419
0000
0000
011c
cafe
2819
0000
0000
011c
cafe
2c19
0000
0000
011c
cafe
3019
0000
0000
0119
cafe
3419
0000
0000
011b
cafe
3819
0000
0000
011e
cafe
3c19
0000
0000
0115
cafe
2019
0000
0000
0119
cafe
2419
0000
0000
010e
cafe
2819
0000
0000
010d
cafe
2c19
0000
0000
0113
cafe
3019
0000
0000
011a
cafe
3419
0000
0000
011b
cafe
3819
0000
0000
0113
cafe
3c19
0000
0000
0116
cafe
2019
0000
0000
0116
cafe
2419
0000
0000
0114
cafe
2819
0000
0000
010c
cafe
2c19
0000
0000
0101
cafe
3019
0000
0000
0100
cafe
3419
0000
0000
0104
cafe
3819
0000
0000
0105
cafe
3c19
0000
0000
010b
cafe
2019
0000
0000
010f
cafe
2419
0000
0000
0109
cafe
2819
0000
0000
0109
cafe
2c19
0000
0000
0109
cafe
3019
0000
0000
0112
cafe
3419
0000
0000
0112
cafe
3819
0000
0000
0102
cafe
-
3c19
0000
0000
0105
cafe
2019
0000
0000
00ff
cafe
2419
0000
0000
0103
cafe
2819
0000
0000
0109
cafe
2c19
0000
0000
010b
cafe
3019
0000
0000
0112
cafe
3419
0000
0000
0111
cafe
3819
0000
0000
0110
cafe
3c19
0000
0000
0108
cafe
2019
0000
0000
0101
cafe
2419
0000
0000
0105
cafe
2819
0000
0000
0108
cafe
2c19
0000
0000
010b
cafe
3019
0000
0000
010b
cafe
3419
0000
0000
0113
cafe
3819
0000
0000
0111
cafe
3c19
0000
0000
0117
cafe
2019
0000
0000
0115
cafe
2419
0000
0000
0115
cafe
2819
0000
0000
011b
cafe
2c19
0000
0000
0118
cafe
3019
0000
0000
011a
cafe
3419
0000
0000
011e
cafe
3819
0000
0000
011e
cafe
3c19
0000
0000
011c
cafe
2019
0000
0000
0117
cafe
2419
0000
0000
0116
cafe
2819
0000
0000
011e
cafe
2c19
0000
0000
0116
cafe
3019
0000
0000
010d
cafe
3419
0000
0000
0106
cafe
3819
0000
0000
0110
cafe
3c19
0000
0000
010f
cafe
2019
0000
0000
0117
cafe
2419
0000
0000
011e
cafe
2819
0000
0000
011f
cafe
2c19
0000
0000
0115
cafe
3019
0000
0000
0118
cafe
3419
0000
0000
0118
cafe
3819
0000
0000
011a
cafe
3c19
0000
0000
011a
cafe
2019
0000
0000
0115
cafe
2419
0000
0000
0110
cafe
2819
0000
0000
0114
cafe
2c19
0000
0000
0114
cafe
3019
0000
0000
0116
cafe
3419
0000
0000
010e
cafe
3819
0000
0000
0110
cafe
3c19
0000
0000
0114
cafe
2019
0000
0000
011a
cafe
2419
0000
0000
0115
cafe
2819
-
0000
0000
0118
cafe
2c19
0000
0000
011c
cafe
3019
0000
0000
011c
cafe
3419
0000
0000
0119
cafe
3819
0000
0000
0118
cafe
3c19
0000
0000
011b
cafe
2019
0000
0000
011b
cafe
2419
0000
0000
011e
cafe
2819
0000
0000
011f
cafe
2c19
0000
0000
011e
cafe
3019
0000
0000
011c
cafe
3419
0000
0000
011b
cafe
3819
0000
0000
0119
cafe
3c19
0000
0000
011e
cafe
2019
0000
0000
0119
cafe
2419
0000
0000
0111
cafe
2819
0000
0000
0110
cafe
2c19
0000
0000
0112
cafe
3019
0000
0000
010e
cafe
3419
0000
0000
0115
cafe
3819
0000
0000
0116
cafe
3c19
0000
0000
010a
cafe
2019
0000
0000
0115
cafe
2419
0000
0000
010c
cafe
2819
0000
0000
010c
cafe
2c19
0000
0000
0108
cafe
3019
0000
0000
0105
cafe
3419
0000
0000
0103
cafe
3819
0000
0000
010d
cafe
3c19
0000
0000
0105
cafe
2019
0000
0000
0102
cafe
2419
0000
0000
0101
cafe
2819
0000
0000
0106
cafe
2c19
0000
0000
0111
cafe
3019
0000
0000
010f
cafe
3419
0000
0000
0117
cafe
3819
0000
0000
0116
cafe
3c19
0000
0000
010b
cafe
2019
0000
0000
0112
cafe
2419
0000
0000
0114
cafe
2819
0000
0000
0115
cafe
2c19
0000
0000
0116
cafe
3019
0000
0000
010b
cafe
3419
0000
0000
0110
cafe
3819
0000
0000
010c
cafe
3c19
0000
0000
010d
cafe
2019
0000
0000
0107
cafe
2419
0000
0000
0109
cafe
2819
0000
0000
010a
cafe
2c19
0000
0000
010a
cafe
3019
0000
0000
0109
cafe
3419
0000
-
0000
010c
cafe
3819
0000
0000
010f
cafe
3c19
0000
0000
0111
cafe
2019
0000
0000
010e
cafe
2419
0000
0000
0114
cafe
2819
0000
0000
0112
cafe
2c19
0000
0000
0117
cafe
3019
0000
0000
0117
cafe
3419
0000
0000
0114
cafe
3819
0000
0000
0114
cafe
3c19
0000
0000
011f
cafe
2019
0000
0000
0122
cafe
2419
0000
0000
0122
cafe
2819
0000
0000
0127
cafe
2c19
0000
0000
011e
cafe
3019
0000
0000
0117
cafe
3419
0000
0000
0114
cafe
3819
0000
0000
0108
cafe
3c19
0000
0000
0105
cafe
2019
0000
0000
0108
cafe
2419
0000
0000
010c
cafe
2819
0000
0000
010f
cafe
2c19
0000
0000
0113
cafe
3019
0000
0000
0112
cafe
3419
0000
0000
0111
cafe
3819
0000
0000
010c
cafe
3c19
0000
0000
010a
cafe
2019
0000
0000
0105
cafe
2419
0000
0000
0109
cafe
2819
0000
0000
010c
cafe
2c19
0000
0000
0113
cafe
3019
0000
0000
0119
cafe
3419
0000
0000
0114
cafe
3819
0000
0000
0115
cafe
3c19
0000
0000
011a
cafe
2019
0000
0000
0118
cafe
2419
0000
0000
0111
cafe
2819
0000
0000
0118
cafe
2c19
0000
0000
011b
cafe
3019
0000
0000
011c
cafe
3419
0000
0000
0119
cafe
3819
0000
0000
0110
cafe
3c19
0000
0000
0110
cafe
2019
0000
0000
0113
cafe
2419
0000
0000
011e
cafe
2819
0000
0000
0125
cafe
2c19
0000
0000
0122
cafe
3019
0000
0000
0126
cafe
3419
0000
0000
011c
cafe
3819
0000
0000
011b
cafe
3c19
0000
0000
011e
cafe
2019
0000
0000
-
0117
cafe
2419
0000
0000
0118
cafe
2819
0000
0000
0117
cafe
2c19
0000
0000
0117
cafe
3019
0000
0000
011e
cafe
3419
0000
0000
0124
cafe
3819
0000
0000
011e
cafe
3c19
0000
0000
012b
cafe
2019
0000
0000
011f
cafe
2419
0000
0000
011d
cafe
2819
0000
0000
011c
cafe
2c19
0000
0000
0116
cafe
3019
0000
0000
0114
cafe
3419
0000
0000
011c
cafe
3819
0000
0000
011d
cafe
3c19
0000
0000
0124
cafe
2019
0000
0000
0120
cafe
2419
0000
0000
0118
cafe
2819
0000
0000
0117
cafe
2c19
0000
0000
011b
cafe
3019
0000
0000
0126
cafe
3419
0000
0000
0119
cafe
3819
0000
0000
0118
cafe
3c19
0000
0000
0116
cafe
2019
0000
0000
0116
cafe
2419
0000
0000
0122
cafe
2819
0000
0000
0124
cafe
2c19
0000
0000
011c
cafe
3019
0000
0000
0114
cafe
3419
0000
0000
0111
cafe
3819
0000
0000
0116
cafe
3c19
0000
0000
0119
cafe
2019
0000
0000
0114
cafe
2419
0000
0000
0115
cafe
2819
0000
0000
0113
cafe
2c19
0000
0000
0112
cafe
3019
0000
0000
0112
cafe
3419
0000
0000
0110
cafe
3819
0000
0000
010e
cafe
3c19
0000
0000
010d
cafe
2019
0000
0000
0106
cafe
2419
0000
0000
010d
cafe
2819
0000
0000
010f
cafe
2c19
0000
0000
0115
cafe
3019
0000
0000
0115
cafe
3419
0000
0000
0110
cafe
3819
0000
0000
0114
cafe
3c19
0000
0000
011c
cafe
2019
0000
0000
0115
cafe
2419
0000
0000
0117
cafe
2819
0000
0000
010c
cafe
2c19
0000
0000
0108
-
cafe
3019
0000
0000
0105
cafe
3419
0000
0000
010a
cafe
3819
0000
0000
0110
cafe
3c19
0000
0000
010e
cafe
2019
0000
0000
0108
cafe
2419
0000
0000
010e
cafe
2819
0000
0000
010c
cafe
2c19
0000
0000
010d
cafe
3019
0000
0000
0102
cafe
3419
0000
0000
00fa
cafe
3819
0000
0000
0103
cafe
3c19
0000
0000
0110
cafe
2019
0000
0000
0118
cafe
2419
0000
0000
0112
cafe
2819
0000
0000
010d
cafe
2c19
0000
0000
0105
cafe
3019
0000
0000
00ff
cafe
3419
0000
0000
010a
cafe
3819
0000
0000
010f
cafe
3c19
0000
0000
0106
cafe
2019
0000
0000
0104
cafe
2419
0000
0000
0103
cafe
2819
0000
0000
0116
cafe
2c19
0000
0000
0114
cafe
3019
0000
0000
0110
cafe
3419
0000
0000
0111
cafe
3819
0000
0000
0108
cafe
3c19
0000
0000
0103
cafe
2019
0000
0000
0108
cafe
2419
0000
0000
0109
cafe
2819
0000
0000
010d
cafe
2c19
0000
0000
0113
cafe
3019
0000
0000
0110
cafe
3419
0000
0000
010f
cafe
3819
0000
0000
0113
cafe
3c19
0000
0000
011d
cafe
2019
0000
0000
011a
cafe
2419
0000
0000
0111
cafe
2819
0000
0000
0110
cafe
2c19
0000
0000
010f
cafe
3019
0000
0000
010f
cafe
3419
0000
0000
010a
cafe
3819
0000
0000
0107
cafe
3c19
0000
0000
010e
cafe
2019
0000
0000
010e
cafe
2419
0000
0000
0117
cafe
2819
0000
0000
011d
cafe
2c19
0000
0000
0118
cafe
3019
0000
0000
0114
cafe
3419
0000
0000
010f
cafe
3819
0000
0000
010e
cafe
-
3c19
0000
0000
0112
cafe
2019
0000
0000
0115
cafe
2419
0000
0000
0115
cafe
2819
0000
0000
0111
cafe
2c19
0000
0000
010d
cafe
3019
0000
0000
0111
cafe
3419
0000
0000
010b
cafe
3819
0000
0000
010b
cafe
3c19
0000
0000
010e
cafe
2019
0000
0000
0108
cafe
2419
0000
0000
010c
cafe
2819
0000
0000
010b
cafe
2c19
0000
0000
0114
cafe
3019
0000
0000
0115
cafe
3419
0000
0000
010f
cafe
3819
0000
0000
010b
cafe
3c19
0000
0000
0112
cafe
2019
0000
0000
0119
cafe
2419
0000
0000
0111
cafe
2819
0000
0000
011a
cafe
2c19
0000
0000
0115
cafe
3019
0000
0000
011b
cafe
3419
0000
0000
011e
cafe
3819
0000
0000
011b
cafe
3c19
0000
0000
0122
cafe
2019
0000
0000
011e
cafe
2419
0000
0000
011b
cafe
2819
0000
0000
011b
cafe
2c19
0000
0000
0116
cafe
3019
0000
0000
0116
cafe
3419
0000
0000
011c
cafe
3819
0000
0000
0119
cafe
3c19
0000
0000
0114
cafe
2019
0000
0000
0113
cafe
2419
0000
0000
010e
cafe
2819
0000
0000
0111
cafe
2c19
0000
0000
0110
cafe
3019
0000
0000
0115
cafe
3419
0000
0000
011b
cafe
3819
0000
0000
0118
cafe
3c19
0000
0000
011b
cafe
2019
0000
0000
010e
cafe
2419
0000
0000
010c
cafe
2819
0000
0000
0110
cafe
2c19
0000
0000
010d
cafe
3019
0000
0000
010e
cafe
3419
0000
0000
010a
cafe
3819
0000
0000
010c
cafe
3c19
0000
0000
010f
cafe
2019
0000
0000
010e
cafe
2419
0000
0000
010a
cafe
2819
-
0000
0000
00fb
cafe
2c19
0000
0000
00fc
cafe
3019
0000
0000
0103
cafe
3419
0000
0000
0107
cafe
3819
0000
0000
010c
cafe
3c19
0000
0000
010b
cafe
2019
0000
0000
010e
cafe
2419
0000
0000
010f
cafe
2819
0000
0000
010e
cafe
2c19
0000
0000
010b
cafe
3019
0000
0000
010a
cafe
3419
0000
0000
0111
cafe
3819
0000
0000
010f
cafe
3c19
0000
0000
0110
cafe
2019
0000
0000
0118
cafe
2419
0000
0000
0117
cafe
2819
0000
0000
0117
cafe
2c19
0000
0000
0119
cafe
3019
0000
0000
0116
cafe
3419
0000
0000
0121
cafe
3819
0000
0000
011e
cafe
3c19
0000
0000
0116
cafe
2019
0000
0000
0118
cafe
2419
0000
0000
0113
cafe
2819
0000
0000
0117
cafe
2c19
0000
0000
0118
cafe
3019
0000
0000
010c
cafe
3419
0000
0000
0110
cafe
3819
0000
0000
0114
cafe
3c19
0000
0000
0108
cafe
2019
0000
0000
0112
cafe
2419
0000
0000
0112
cafe
2819
0000
0000
0114
cafe
2c19
0000
0000
011c
cafe
3019
0000
0000
011d
cafe
3419
0000
0000
011f
cafe
3819
0000
0000
0119
cafe
3c19
0000
0000
0114
cafe
2019
0000
0000
0117
cafe
2419
0000
0000
0115
cafe
2819
0000
0000
0118
cafe
2c19
0000
0000
011b
cafe
3019
0000
0000
0113
cafe
3419
0000
0000
0117
cafe
3819
0000
0000
0116
cafe
3c19
0000
0000
0111
cafe
2019
0000
0000
010f
cafe
2419
0000
0000
010f
cafe
2819
0000
0000
0116
cafe
2c19
0000
0000
011c
cafe
3019
0000
0000
0117
cafe
3419
0000
-
0000
0110
cafe
3819
0000
0000
0111
cafe
3c19
0000
0000
0114
cafe
2019
0000
0000
0111
cafe
2419
0000
0000
0115
cafe
2819
0000
0000
0120
cafe
2c19
0000
0000
0119
cafe
3019
0000
0000
0123
cafe
3419
0000
0000
0120
cafe
3819
0000
0000
0127
cafe
3c19
0000
0000
0123
cafe
2019
0000
0000
011d
cafe
2419
0000
0000
0119
cafe
2819
0000
0000
0120
cafe
2c19
0000
0000
0119
cafe
3019
0000
0000
0114
cafe
3419
0000
0000
0110
cafe
3819
0000
0000
0113
cafe
3c19
0000
0000
0117
cafe
2019
0000
0000
0119
cafe
2419
0000
0000
011e
cafe
2819
0000
0000
011b
cafe
2c19
0000
0000
0114
cafe
3019
0000
0000
010e
cafe
3419
0000
0000
010d
cafe
3819
0000
0000
0114
cafe
3c19
0000
0000
0119
cafe
2019
0000
0000
0117
cafe
2419
0000
0000
0119
cafe
2819
0000
0000
0116
cafe
2c19
0000
0000
011a
cafe
3019
0000
0000
0119
cafe
3419
0000
0000
0113
cafe
3819
0000
0000
010a
cafe
3c19
0000
0000
0109
cafe
2019
0000
0000
0113
cafe
2419
0000
0000
0110
cafe
2819
0000
0000
0110
cafe
2c19
0000
0000
010b
cafe
3019
0000
0000
0117
cafe
3419
0000
0000
0118
cafe
3819
0000
0000
011a
cafe
3c19
0000
0000
011f
cafe
2019
0000
0000
0115
cafe
2419
0000
0000
0114
cafe
2819
0000
0000
0116
cafe
2c19
0000
0000
010e
cafe
3019
0000
0000
010f
cafe
3419
0000
0000
0113
cafe
3819
0000
0000
0111
cafe
3c19
0000
0000
0112
cafe
2019
0000
0000
-
0108
cafe
2419
0000
0000
010a
cafe
2819
0000
0000
010e
cafe
2c19
0000
0000
0113
cafe
3019
0000
0000
0115
cafe
3419
0000
0000
010f
cafe
3819
0000
0000
0114
cafe
3c19
0000
0000
0113
cafe
2019
0000
0000
0111
cafe
2419
0000
0000
010b
cafe
2819
0000
0000
0112
cafe
2c19
0000
0000
010d
cafe
3019
0000
0000
010e
cafe
3419
0000
0000
010d
cafe
3819
0000
0000
0106
cafe
3c19
0000
0000
0102
cafe
2019
0000
0000
010c
cafe
2419
0000
0000
0111
cafe
2819
0000
0000
010e
cafe
2c19
0000
0000
0112
cafe
3019
0000
0000
0113
cafe
3419
0000
0000
011e
cafe
3819
0000
0000
0118
cafe
3c19
0000
0000
0119
cafe
2019
0000
0000
0122
cafe
2419
0000
0000
0121
cafe
2819
0000
0000
0121
cafe
2c19
0000
0000
0120
cafe
3019
0000
0000
0114
cafe
3419
0000
0000
010f
cafe
3819
0000
0000
0114
cafe
3c19
0000
0000
010b
cafe
2019
0000
0000
0117
cafe
2419
0000
0000
011a
cafe
2819
0000
0000
0113
cafe
2c19
0000
0000
0113
cafe
3019
0000
0000
0114
cafe
3419
0000
0000
0112
cafe
3819
0000
0000
0114
cafe
3c19
0000
0000
010e
cafe
2019
0000
0000
010d
cafe
2419
0000
0000
0107
cafe
2819
0000
0000
0109
cafe
2c19
0000
0000
0109
cafe
3019
0000
0000
0112
cafe
3419
0000
0000
0119
cafe
3819
0000
0000
0119
cafe
3c19
0000
0000
0119
cafe
2019
0000
0000
0119
cafe
2419
0000
0000
0110
cafe
2819
0000
0000
0110
cafe
2c19
0000
0000
0117
-
cafe
3019
0000
0000
011a
cafe
3419
0000
0000
0111
cafe
3819
0000
0000
0112
cafe
3c19
0000
0000
0116
cafe
2019
0000
0000
010f
cafe
2419
0000
0000
010c
cafe
2819
0000
0000
010e
cafe
2c19
0000
0000
0118
cafe
3019
0000
0000
011d
cafe
3419
0000
0000
0116
cafe
3819
0000
0000
0112
cafe
3c19
0000
0000
010d
cafe
2019
0000
0000
0111
cafe
2419
0000
0000
0109
cafe
2819
0000
0000
0106
cafe
2c19
0000
0000
0105
cafe
3019
0000
0000
0111
cafe
3419
0000
0000
010d
cafe
3819
0000
0000
0110
cafe
3c19
0000
0000
0116
cafe
2019
0000
0000
0116
cafe
2419
0000
0000
0115
cafe
2819
0000
0000
0114
cafe
2c19
0000
0000
010f
cafe
3019
0000
0000
010a
cafe
3419
0000
0000
0109
cafe
3819
0000
0000
0108
cafe
3c19
0000
0000
0106
cafe
2019
0000
0000
010b
cafe
2419
0000
0000
0107
cafe
2819
0000
0000
0111
cafe
2c19
0000
0000
0114
cafe
3019
0000
0000
0116
cafe
3419
0000
0000
0118
cafe
3819
0000
0000
0110
cafe
3c19
0000
0000
010e
cafe
2019
0000
0000
0109
cafe
2419
0000
0000
0111
cafe
2819
0000
0000
0105
cafe
2c19
0000
0000
0107
cafe
3019
0000
0000
0104
cafe
3419
0000
0000
010a
cafe
3819
0000
0000
010d
cafe
3c19
0000
0000
0111
cafe
2019
0000
0000
0119
cafe
2419
0000
0000
0118
cafe
2819
0000
0000
0122
cafe
2c19
0000
0000
011a
cafe
3019
0000
0000
0112
cafe
3419
0000
0000
0117
cafe
3819
0000
0000
0113
cafe
-
3c19
0000
0000
010e
cafe
2019
0000
0000
010f
cafe
2419
0000
0000
0109
cafe
2819
0000
0000
010c
cafe
2c19
0000
0000
010a
cafe
3019
0000
0000
0107
cafe
3419
0000
0000
0109
cafe
3819
0000
0000
010f
cafe
3c19
0000
0000
0112
cafe
2019
0000
0000
010d
cafe
2419
0000
0000
0113
cafe
2819
0000
0000
0112
cafe
2c19
0000
0000
0119
cafe
3019
0000
0000
011c
cafe
3419
0000
0000
011e
cafe
3819
0000
0000
0120
cafe
3c19
0000
0000
0115
cafe
2019
0000
0000
0110
cafe
2419
0000
0000
0117
cafe
2819
0000
0000
0114
cafe
2c19
0000
0000
011c
cafe
3019
0000
0000
011d
cafe
3419
0000
0000
0121
cafe
3819
0000
0000
0126
cafe
3c19
0000
0000
011f
cafe
2019
0000
0000
011e
cafe
2419
0000
0000
0118
cafe
2819
0000
0000
0113
cafe
2c19
0000
0000
0118
cafe
3019
0000
0000
0116
cafe
3419
0000
0000
0115
cafe
3819
0000
0000
010f
cafe
3c19
0000
0000
0113
cafe
2019
0000
0000
0117
cafe
2419
0000
0000
011a
cafe
2819
0000
0000
011b
cafe
2c19
0000
0000
0117
cafe
3019
0000
0000
0119
cafe
3419
0000
0000
011b
cafe
3819
0000
0000
0116
cafe
3c19
0000
0000
010f
cafe
2019
0000
0000
0113
cafe
2419
0000
0000
0110
cafe
2819
0000
0000
0116
cafe
2c19
0000
0000
0113
cafe
3019
0000
0000
0115
cafe
3419
0000
0000
0117
cafe
3819
0000
0000
0117
cafe
3c19
0000
0000
011a
cafe
2019
0000
0000
0117
cafe
2419
0000
0000
011b
cafe
2819
-
0000
0000
0114
cafe
2c19
0000
0000
0110
cafe
3019
0000
0000
0111
cafe
3419
0000
0000
010d
cafe
3819
0000
0000
0110
cafe
3c19
0000
0000
010e
cafe
2019
0000
0000
010a
cafe
2419
0000
0000
010b
cafe
2819
0000
0000
010f
cafe
2c19
0000
0000
0108
cafe
3019
0000
0000
0114
cafe
3419
0000
0000
010d
cafe
3819
0000
0000
0116
cafe
3c19
0000
0000
011e
cafe
2019
0000
0000
0118
cafe
2419
0000
0000
010c
cafe
2819
0000
0000
010c
cafe
2c19
0000
0000
0114
cafe
3019
0000
0000
011e
cafe
3419
0000
0000
011f
cafe
3819
0000
0000
011c
cafe
3c19
0000
0000
011a
cafe
2019
0000
0000
0115
cafe
2419
0000
0000
0108
cafe
2819
0000
0000
0117
cafe
2c19
0000
0000
0122
cafe
3019
0000
0000
0124
cafe
3419
0000
0000
011a
cafe
3819
0000
0000
011b
cafe
3c19
0000
0000
0113
cafe
2019
0000
0000
0114
cafe
2419
0000
0000
0118
cafe
2819
0000
0000
010d
cafe
2c19
0000
0000
010d
cafe
3019
0000
0000
0112
cafe
3419
0000
0000
010e
cafe
3819
0000
0000
010e
cafe
3c19
0000
0000
0110
cafe
2019
0000
0000
010e
cafe
2419
0000
0000
0112
cafe
2819
0000
0000
0111
cafe
2c19
0000
0000
0108
cafe
3019
0000
0000
010c
cafe
3419
0000
0000
0113
cafe
3819
0000
0000
0113
cafe
3c19
0000
0000
010b
cafe
2019
0000
0000
0112
cafe
2419
0000
0000
010e
cafe
2819
0000
0000
0115
cafe
2c19
0000
0000
0119
cafe
3019
0000
0000
0112
cafe
3419
0000
-
0000
010d
cafe
3819
0000
0000
0112
cafe
3c19
0000
0000
011f
cafe
2019
0000
0000
011a
cafe
2419
0000
0000
0114
cafe
2819
0000
0000
0112
cafe
2c19
0000
0000
0111
cafe
3019
0000
0000
0110
cafe
3419
0000
0000
010e
cafe
3819
0000
0000
010f
cafe
3c19
0000
0000
0113
cafe
2019
0000
0000
0119
cafe
2419
0000
0000
0113
cafe
2819
0000
0000
0115
cafe
2c19
0000
0000
010e
cafe
3019
0000
0000
010f
cafe
3419
0000
0000
0110
cafe
3819
0000
0000
0117
cafe
3c19
0000
0000
0116
cafe
2019
0000
0000
0116
cafe
2419
0000
0000
0116
cafe
2819
0000
0000
0118
cafe
2c19
0000
0000
011e
cafe
3019
0000
0000
011b
cafe
3419
0000
0000
0112
cafe
3819
0000
0000
010c
cafe
3c19
0000
0000
0115
cafe
2019
0000
0000
0114
cafe
2419
0000
0000
010c
cafe
2819
0000
0000
0104
cafe
2c19
0000
0000
0107
cafe
3019
0000
0000
0110
cafe
3419
0000
0000
0115
cafe
3819
0000
0000
010e
cafe
3c19
0000
0000
010d
cafe
2019
0000
0000
010c
cafe
2419
0000
0000
0106
cafe
2819
0000
0000
010b
cafe
2c19
0000
0000
0115
cafe
3019
0000
0000
0111
cafe
3419
0000
0000
0117
cafe
3819
0000
0000
0116
cafe
3c19
0000
0000
0114
cafe
2019
0000
0000
010a
cafe
2419
0000
0000
0109
cafe
2819
0000
0000
0111
cafe
2c19
0000
0000
010e
cafe
3019
0000
0000
0117
cafe
3419
0000
0000
0119
cafe
3819
0000
0000
0116
cafe
3c19
0000
0000
0116
cafe
2019
0000
0000
-
0112
cafe
2419
0000
0000
0117
cafe
2819
0000
0000
0113
cafe
2c19
0000
0000
0114
cafe
3019
0000
0000
0111
cafe
3419
0000
0000
010e
cafe
3819
0000
0000
0107
cafe
3c19
0000
0000
0110
cafe
2019
0000
0000
011a
cafe
2419
0000
0000
0116
cafe
2819
0000
0000
010f
cafe
2c19
0000
0000
0115
cafe
3019
0000
0000
0107
cafe
3419
0000
0000
0106
cafe
3819
0000
0000
010c
cafe
3c19
0000
0000
0112
cafe
2019
0000
0000
0105
cafe
2419
0000
0000
0111
cafe
2819
0000
0000
010e
cafe
2c19
0000
0000
010f
cafe
3019
0000
0000
0117
cafe
3419
0000
0000
011a
cafe
3819
0000
0000
0116
cafe
3c19
0000
0000
0116
cafe
2019
0000
0000
0116
cafe
2419
0000
0000
011a
cafe
2819
0000
0000
011f
cafe
2c19
0000
0000
0118
cafe
3019
0000
0000
0116
cafe
3419
0000
0000
0114
cafe
3819
0000
0000
0118
cafe
3c19
0000
0000
011e
cafe
2019
0000
0000
011d
cafe
2419
0000
0000
0117
cafe
2819
0000
0000
0112
cafe
2c19
0000
0000
0112
cafe
3019
0000
0000
010c
cafe
3419
0000
0000
010f
cafe
3819
0000
0000
011a
cafe
3c19
0000
0000
011e
cafe
2019
0000
0000
011d
cafe
2419
0000
0000
0114
cafe
2819
0000
0000
0116
cafe
2c19
0000
0000
0113
cafe
3019
0000
0000
0118
cafe
3419
0000
0000
011a
cafe
3819
0000
0000
0118
cafe
3c19
0000
0000
0113
cafe
2019
0000
0000
0110
cafe
2419
0000
0000
0113
cafe
2819
0000
0000
0117
cafe
2c19
0000
0000
0117
-
cafe
3019
0000
0000
0118
cafe
3419
0000
0000
0119
cafe
3819
0000
0000
0114
cafe
3c19
0000
0000
0117
cafe
2019
0000
0000
0111
cafe
2419
0000
0000
0116
cafe
2819
0000
0000
0120
cafe
2c19
0000
0000
0123
cafe
3019
0000
0000
0124
cafe
3419
0000
0000
011c
cafe
3819
0000
0000
0117
cafe
3c19
0000
0000
0114
cafe
2019
0000
0000
011c
cafe
2419
0000
0000
010e
cafe
2819
0000
0000
010f
cafe
2c19
0000
0000
0115
cafe
3019
0000
0000
010e
cafe
3419
0000
0000
0114
cafe
3819
0000
0000
010c
cafe
3c19
0000
0000
010a
cafe
2019
0000
0000
0109
cafe
2419
0000
0000
0112
cafe
2819
0000
0000
0115
cafe
2c19
0000
0000
0116
cafe
3019
0000
0000
0116
cafe
3419
0000
0000
010a
cafe
3819
0000
0000
0107
cafe
3c19
0000
0000
0109
cafe
2019
0000
0000
0106
cafe
2419
0000
0000
0108
cafe
2819
0000
0000
0106
cafe
2c19
0000
0000
0107
cafe
3019
0000
0000
0113
cafe
3419
0000
0000
0113
cafe
3819
0000
0000
0117
cafe
3c19
0000
0000
0110
cafe
2019
0000
0000
0114
cafe
2419
0000
0000
0116
cafe
2819
0000
0000
0112
cafe
2c19
0000
0000
0116
cafe
3019
0000
0000
011b
cafe
3419
0000
0000
0120
cafe
3819
0000
0000
011f
cafe
3c19
0000
0000
011a
cafe
2019
0000
0000
011d
cafe
2419
0000
0000
0120
cafe
2819
0000
0000
0121
cafe
2c19
0000
0000
011b
cafe
3019
0000
0000
010e
cafe
3419
0000
0000
0108
cafe
3819
0000
0000
010e
cafe
-
3c19
0000
0000
0115
cafe
2019
0000
0000
010a
cafe
2419
0000
0000
0111
cafe
2819
0000
0000
0110
cafe
2c19
0000
0000
010f
cafe
3019
0000
0000
010c
cafe
3419
0000
0000
010f
cafe
3819
0000
0000
0107
cafe
3c19
0000
0000
010c
cafe
2019
0000
0000
0108
cafe
2419
0000
0000
0107
cafe
2819
0000
0000
0109
cafe
2c19
0000
0000
0109
cafe
3019
0000
0000
0110
cafe
3419
0000
0000
0112
cafe
3819
0000
0000
0116
cafe
3c19
0000
0000
0118
cafe
2019
0000
0000
0116
cafe
2419
0000
0000
0113
cafe
2819
0000
0000
0111
cafe
2c19
0000
0000
0117
cafe
3019
0000
0000
0110
cafe
3419
0000
0000
011a
cafe
3819
0000
0000
0115
cafe
3c19
0000
0000
0113
cafe
2019
0000
0000
0114
cafe
2419
0000
0000
0117
cafe
2819
0000
0000
0119
cafe
2c19
0000
0000
0115
cafe
3019
0000
0000
0116
cafe
3419
0000
0000
0110
cafe
3819
0000
0000
0116
cafe
3c19
0000
0000
0116
cafe
2019
0000
0000
0116
cafe
2419
0000
0000
0118
cafe
2819
0000
0000
0117
cafe
2c19
0000
0000
0113
cafe
3019
0000
0000
011b
cafe
3419
0000
0000
0119
cafe
3819
0000
0000
0116
cafe
3c19
0000
0000
011b
cafe
2019
0000
0000
0119
cafe
2419
0000
0000
011b
cafe
2819
0000
0000
0118
cafe
2c19
0000
0000
010c
cafe
3019
0000
0000
0113
cafe
3419
0000
0000
0115
cafe
3819
0000
0000
0118
cafe
3c19
0000
0000
0117
cafe
2019
0000
0000
0119
cafe
2419
0000
0000
0115
cafe
2819
-
0000
0000
0111
cafe
2c19
0000
0000
0118
cafe
3019
0000
0000
0115
cafe
3419
0000
0000
0116
cafe
3819
0000
0000
0115
cafe
3c19
0000
0000
010e
cafe
2019
0000
0000
0113
cafe
2419
0000
0000
0110
cafe
2819
0000
0000
0111
cafe
2c19
0000
0000
010b
cafe
3019
0000
0000
010f
cafe
3419
0000
0000
010c
cafe
3819
0000
0000
0108
cafe
3c19
0000
0000
0108
cafe
2019
0000
0000
0105
cafe
2419
0000
0000
010d
cafe
2819
0000
0000
0115
cafe
2c19
0000
0000
0111
cafe
3019
0000
0000
0112
cafe
3419
0000
0000
0116
cafe
3819
0000
0000
0114
cafe
3c19
0000
0000
0115
cafe
2019
0000
0000
0107
cafe
2419
0000
0000
0108
cafe
2819
0000
0000
0107
cafe
2c19
0000
0000
010b
cafe
3019
0000
0000
0106
cafe
3419
0000
0000
00ff
cafe
3819
0000
0000
0106
cafe
3c19
0000
0000
0111
cafe
2019
0000
0000
0117
cafe
2419
0000
0000
0111
cafe
2819
0000
0000
0114
cafe
2c19
0000
0000
0115
cafe
3019
0000
0000
0120
cafe
3419
0000
0000
0120
cafe
3819
0000
0000
0120
cafe
3c19
0000
0000
0117
cafe
2019
0000
0000
0118
cafe
2419
0000
0000
0116
cafe
2819
0000
0000
010c
cafe
2c19
0000
0000
010f
cafe
3019
0000
0000
0110
cafe
3419
0000
0000
0116
cafe
3819
0000
0000
010d
cafe
3c19
0000
0000
0111
cafe
2019
0000
0000
010a
cafe
2419
0000
0000
010d
cafe
2819
0000
0000
0113
cafe
2c19
0000
0000
0118
cafe
3019
0000
0000
0116
cafe
3419
0000
-
0000
0111
cafe
3819
0000
0000
010e
cafe
3c19
0000
0000
0104
cafe
2019
0000
0000
010d
cafe
2419
0000
0000
0105
cafe
2819
0000
0000
0108
cafe
2c19
0000
0000
010b
cafe
3019
0000
0000
0112
cafe
3419
0000
0000
0114
cafe
3819
0000
0000
0114
cafe
3c19
0000
0000
0113
cafe
2019
0000
0000
0110
cafe
2419
0000
0000
0110
cafe
2819
0000
0000
010f
cafe
2c19
0000
0000
010f
cafe
3019
0000
0000
010c
cafe
3419
0000
0000
010d
cafe
3819
0000
0000
0112
cafe
3c19
0000
0000
011a
cafe
2019
0000
0000
0110
cafe
2419
0000
0000
0119
cafe
2819
0000
0000
011d
cafe
2c19
0000
0000
0116
cafe
3019
0000
0000
0111
cafe
3419
0000
0000
010f
cafe
3819
0000
0000
0115
cafe
3c19
0000
0000
011a
cafe
2019
0000
0000
0119
cafe
2419
0000
0000
011a
cafe
2819
0000
0000
011b
cafe
2c19
0000
0000
0111
cafe
3019
0000
0000
0113
cafe
3419
0000
0000
0110
cafe
3819
0000
0000
0114
cafe
3c19
0000
0000
0115
cafe
2019
0000
0000
0119
cafe
2419
0000
0000
0117
cafe
2819
0000
0000
0119
cafe
2c19
0000
0000
011d
cafe
3019
0000
0000
011d
cafe
3419
0000
0000
011a
cafe
3819
0000
0000
0118
cafe
3c19
0000
0000
011e
cafe
2019
0000
0000
0118
cafe
2419
0000
0000
010f
cafe
2819
0000
0000
010c
cafe
2c19
0000
0000
0110
cafe
3019
0000
0000
0111
cafe
3419
0000
0000
010a
cafe
3819
0000
0000
010a
cafe
3c19
0000
0000
010d
cafe
2019
0000
0000
-
0108
cafe
2419
0000
0000
0105
cafe
2819
0000
0000
0114
cafe
2c19
0000
0000
0110
cafe
3019
0000
0000
011a
cafe
3419
0000
0000
010d
cafe
3819
0000
0000
0106
cafe
3c19
0000
0000
010d
cafe
2019
0000
0000
0106
cafe
2419
0000
0000
010b
cafe
2819
0000
0000
010d
cafe
2c19
0000
0000
0109
cafe
3019
0000
0000
0110
cafe
3419
0000
0000
0117
cafe
3819
0000
0000
0111
cafe
3c19
0000
0000
0114
cafe
2019
0000
0000
0116
cafe
2419
0000
0000
0119
cafe
2819
0000
0000
0111
cafe
2c19
0000
0000
0118
cafe
3019
0000
0000
0116
cafe
3419
0000
0000
0112
cafe
3819
0000
0000
0117
cafe
3c19
0000
0000
0116
cafe
2019
0000
0000
010e
cafe
2419
0000
0000
010d
cafe
2819
0000
0000
010a
cafe
2c19
0000
0000
0106
cafe
3019
0000
0000
010b
cafe
3419
0000
0000
010d
cafe
3819
0000
0000
011a
cafe
3c19
0000
0000
0121
cafe
2019
0000
0000
0119
cafe
2419
0000
0000
011c
cafe
2819
0000
0000
0121
cafe
2c19
0000
0000
0122
cafe
3019
0000
0000
011a
cafe
3419
0000
0000
010e
cafe
3819
0000
0000
010f
cafe
3c19
0000
0000
0107
cafe
2019
0000
0000
010a
cafe
2419
0000
0000
0110
cafe
2819
0000
0000
0108
cafe
2c19
0000
0000
0110
cafe
3019
0000
0000
010e
cafe
3419
0000
0000
0112
cafe
3819
0000
0000
0118
cafe
3c19
0000
0000
011d
cafe
2019
0000
0000
0116
cafe
2419
0000
0000
0119
cafe
2819
0000
0000
011e
cafe
2c19
0000
0000
0116
-
cafe
3019
0000
0000
0113
cafe
3419
0000
0000
010c
cafe
3819
0000
0000
010e
cafe
3c19
0000
0000
010f
cafe
2019
0000
0000
0111
cafe
2419
0000
0000
0109
cafe
2819
0000
0000
010e
cafe
2c19
0000
0000
0113
cafe
3019
0000
0000
0116
cafe
3419
0000
0000
0117
cafe
3819
0000
0000
0112
cafe
3c19
0000
0000
010a
cafe
2019
0000
0000
0105
cafe
2419
0000
0000
010b
cafe
2819
0000
0000
0114
cafe
2c19
0000
0000
0111
cafe
3019
0000
0000
010c
cafe
3419
0000
0000
0111
cafe
3819
0000
0000
0110
cafe
3c19
0000
0000
0112
cafe
2019
0000
0000
0117
cafe
2419
0000
0000
0118
cafe
2819
0000
0000
011a
cafe
2c19
0000
0000
011a
cafe
3019
0000
0000
0116
cafe
3419
0000
0000
011c
cafe
3819
0000
0000
011f
cafe
3c19
0000
0000
0119
cafe
2019
0000
0000
0110
cafe
2419
0000
0000
010b
cafe
2819
0000
0000
0110
cafe
2c19
0000
0000
010e
cafe
3019
0000
0000
0106
cafe
3419
0000
0000
0106
cafe
3819
0000
0000
0109
cafe
3c19
0000
0000
0110
cafe
2019
0000
0000
0110
cafe
2419
0000
0000
0114
cafe
2819
0000
0000
011e
cafe
2c19
0000
0000
011c
cafe
3019
0000
0000
011a
cafe
3419
0000
0000
011d
cafe
3819
0000
0000
0117
cafe
3c19
0000
0000
0114
cafe
2019
0000
0000
0116
cafe
2419
0000
0000
0112
cafe
2819
0000
0000
0113
cafe
2c19
0000
0000
0110
cafe
3019
0000
0000
0111
cafe
3419
0000
0000
0118
cafe
3819
0000
0000
0116
cafe
-
3c19
0000
0000
010d
cafe
2019
0000
0000
0112
cafe
2419
0000
0000
010c
cafe
2819
0000
0000
0102
cafe
2c19
0000
0000
0107
cafe
3019
0000
0000
010c
cafe
3419
0000
0000
0112
cafe
3819
0000
0000
010e
cafe
3c19
0000
0000
010c
cafe
2019
0000
0000
0114
cafe
2419
0000
0000
0118
cafe
2819
0000
0000
011c
cafe
2c19
0000
0000
011b
cafe
3019
0000
0000
0120
cafe
3419
0000
0000
011f
cafe
3819
0000
0000
0125
cafe
3c19
0000
0000
0114
cafe
2019
0000
0000
011a
cafe
2419
0000
0000
0114
cafe
2819
0000
0000
0118
cafe
2c19
0000
0000
011d
cafe
3019
0000
0000
0115
cafe
3419
0000
0000
0114
cafe
3819
0000
0000
0116
cafe
3c19
0000
0000
011a
cafe
2019
0000
0000
011b
cafe
2419
0000
0000
011f
cafe
2819
0000
0000
0125
cafe
2c19
0000
0000
011f
cafe
3019
0000
0000
0119
cafe
3419
0000
0000
0119
cafe
3819
0000
0000
0119
cafe
3c19
0000
0000
011c
cafe
2019
0000
0000
011a
cafe
2419
0000
0000
011d
cafe
2819
0000
0000
0119
cafe
2c19
0000
0000
010c
cafe
3019
0000
0000
010f
cafe
3419
0000
0000
010c
cafe
3819
0000
0000
0111
cafe
3c19
0000
0000
0113
cafe
2019
0000
0000
0111
cafe
2419
0000
0000
010e
cafe
2819
0000
0000
0110
cafe
2c19
0000
0000
010d
cafe
3019
0000
0000
010a
cafe
3419
0000
0000
010e
cafe
3819
0000
0000
0113
cafe
3c19
0000
0000
010b
cafe
2019
0000
0000
010c
cafe
2419
0000
0000
0102
cafe
2819
-
0000
0000
0108
cafe
2c19
0000
0000
0108
cafe
3019
0000
0000
010d
cafe
3419
0000
0000
0113
cafe
3819
0000
0000
0117
cafe
3c19
0000
0000
011a
cafe
2019
0000
0000
011d
cafe
2419
0000
0000
0120
cafe
2819
0000
0000
0120
cafe
2c19
0000
0000
011b
cafe
3019
0000
0000
0112
cafe
3419
0000
0000
0116
cafe
3819
0000
0000
0110
cafe
3c19
0000
0000
011b
cafe
2019
0000
0000
010f
cafe
2419
0000
0000
0105
cafe
2819
0000
0000
010a
cafe
2c19
0000
0000
0110
cafe
3019
0000
0000
0108
cafe
3419
0000
0000
010c
cafe
3819
0000
0000
0102
cafe
3c19
0000
0000
0107
cafe
2019
0000
0000
010a
cafe
2419
0000
0000
010d
cafe
2819
0000
0000
0107
cafe
2c19
0000
0000
010d
cafe
3019
0000
0000
010c
cafe
3419
0000
0000
0112
cafe
3819
0000
0000
0117
cafe
3c19
0000
0000
011a
cafe
2019
0000
0000
0120
cafe
2419
0000
0000
0120
cafe
2819
0000
0000
0118
cafe
2c19
0000
0000
0116
cafe
3019
0000
0000
0113
cafe
3419
0000
0000
0112
cafe
3819
0000
0000
011f
cafe
3c19
0000
0000
011f
cafe
2019
0000
0000
011f
cafe
2419
0000
0000
011b
cafe
2819
0000
0000
0117
cafe
2c19
0000
0000
011b
cafe
3019
0000
0000
0119
cafe
3419
0000
0000
011e
cafe
3819
0000
0000
011a
cafe
3c19
0000
0000
0118
cafe
2019
0000
0000
0112
cafe
2419
0000
0000
0110
cafe
2819
0000
0000
0110
cafe
2c19
0000
0000
0110
cafe
3019
0000
0000
010f
cafe
3419
0000
-
0000
0112
cafe
3819
0000
0000
0119
cafe
3c19
0000
0000
0111
cafe
2019
0000
0000
0113
cafe
2419
0000
0000
0110
cafe
2819
0000
0000
0118
cafe
2c19
0000
0000
0117
cafe
3019
0000
0000
0110
cafe
3419
0000
0000
0117
cafe
3819
0000
0000
0119
cafe
3c19
0000
0000
011b
cafe
2019
0000
0000
0118
cafe
2419
0000
0000
0117
cafe
2819
0000
0000
0112
cafe
2c19
0000
0000
0119
cafe
3019
0000
0000
011c
cafe
3419
0000
0000
0118
cafe
3819
0000
0000
0119
cafe
3c19
0000
0000
0116
cafe
2019
0000
0000
011b
cafe
2419
0000
0000
0112
cafe
2819
0000
0000
0118
cafe
2c19
0000
0000
011c
cafe
3019
0000
0000
0115
cafe
3419
0000
0000
0114
cafe
3819
0000
0000
0111
cafe
3c19
0000
0000
010a
cafe
2019
0000
0000
0113
cafe
2419
0000
0000
0113
cafe
2819
0000
0000
011c
cafe
2c19
0000
0000
011a
cafe
3019
0000
0000
011c
cafe
3419
0000
0000
011a
cafe
3819
0000
0000
0117
cafe
3c19
0000
0000
0111
cafe
2019
0000
0000
010c
cafe
2419
0000
0000
010b
cafe
2819
0000
0000
010b
cafe
2c19
0000
0000
0107
cafe
3019
0000
0000
0114
cafe
3419
0000
0000
011b
cafe
3819
0000
0000
0112
cafe
3c19
0000
0000
0113
cafe
2019
0000
0000
0112
cafe
2419
0000
0000
010e
cafe
2819
0000
0000
0111
cafe
2c19
0000
0000
0117
cafe
3019
0000
0000
0116
cafe
3419
0000
0000
0116
cafe
3819
0000
0000
010f
cafe
3c19
0000
0000
0116
cafe
2019
0000
0000
-
0116
cafe
2419
0000
0000
0115
cafe
2819
0000
0000
0112
cafe
2c19
0000
0000
0114
cafe
3019
0000
0000
0106
cafe
3419
0000
0000
0104
cafe
3819
0000
0000
0115
cafe
3c19
0000
0000
0114
cafe
2019
0000
0000
0114
cafe
2419
0000
0000
0113
cafe
2819
0000
0000
010f
cafe
2c19
0000
0000
0112
cafe
3019
0000
0000
010c
cafe
3419
0000
0000
0112
cafe
3819
0000
0000
010e
cafe
3c19
0000
0000
0115
cafe
2019
0000
0000
0114
cafe
2419
0000
0000
0118
cafe
2819
0000
0000
011b
cafe
2c19
0000
0000
011d
cafe
3019
0000
0000
0114
cafe
3419
0000
0000
0119
cafe
3819
0000
0000
011c
cafe
3c19
0000
0000
011b
cafe
2019
0000
0000
0115
cafe
2419
0000
0000
010f
cafe
2819
0000
0000
010d
cafe
2c19
0000
0000
010e
cafe
3019
0000
0000
0116
cafe
3419
0000
0000
0113
cafe
3819
0000
0000
0111
cafe
3c19
0000
0000
010c
cafe
2019
0000
0000
010c
cafe
2419
0000
0000
0111
cafe
2819
0000
0000
010c
cafe
2c19
0000
0000
0114
cafe
3019
0000
0000
0110
cafe
3419
0000
0000
0110
cafe
3819
0000
0000
010e
cafe
3c19
0000
0000
0108
cafe
2019
0000
0000
0106
cafe
2419
0000
0000
010a
cafe
2819
0000
0000
0111
cafe
2c19
0000
0000
0113
cafe
3019
0000
0000
010f
cafe
3419
0000
0000
0113
cafe
3819
0000
0000
0116
cafe
3c19
0000
0000
0121
cafe
2019
0000
0000
0118
cafe
2419
0000
0000
0111
cafe
2819
0000
0000
011a
cafe
2c19
0000
0000
011b
-
cafe
3019
0000
0000
011a
cafe
3419
0000
0000
011b
cafe
3819
0000
0000
010e
cafe
3c19
0000
0000
0110
cafe
2019
0000
0000
010e
cafe
2419
0000
0000
0106
cafe
2819
0000
0000
010b
cafe
2c19
0000
0000
010b
cafe
3019
0000
0000
010b
cafe
3419
0000
0000
010d
cafe
3819
0000
0000
0102
cafe
3c19
0000
0000
0102
cafe
2019
0000
0000
00fd
cafe
2419
0000
0000
0103
cafe
2819
0000
0000
010c
cafe
2c19
0000
0000
0109
cafe
3019
0000
0000
010c
cafe
3419
0000
0000
010b
cafe
3819
0000
0000
0105
cafe
3c19
0000
0000
010f
cafe
2019
0000
0000
010c
cafe
2419
0000
0000
010a
cafe
2819
0000
0000
0116
cafe
2c19
0000
0000
0113
cafe
3019
0000
0000
0114
cafe
3419
0000
0000
0110
cafe
3819
0000
0000
0119
cafe
3c19
0000
0000
011f
cafe
2019
0000
0000
010f
cafe
2419
0000
0000
011d
cafe
2819
0000
0000
0119
cafe
2c19
0000
0000
010f
cafe
3019
0000
0000
010e
cafe
3419
0000
0000
0118
cafe
3819
0000
0000
0122
cafe
3c19
0000
0000
0118
cafe
2019
0000
0000
0122
cafe
2419
0000
0000
0116
cafe
2819
0000
0000
0113
cafe
2c19
0000
0000
0111
cafe
3019
0000
0000
0119
cafe
3419
0000
0000
011a
cafe
3819
0000
0000
0114
cafe
3c19
0000
0000
010d
cafe
2019
0000
0000
0108
cafe
2419
0000
0000
0109
cafe
2819
0000
0000
0108
cafe
2c19
0000
0000
010c
cafe
3019
0000
0000
010f
cafe
3419
0000
0000
0117
cafe
3819
0000
0000
0118
cafe
-
3c19
0000
0000
0116
cafe
2019
0000
0000
0113
cafe
2419
0000
0000
010e
cafe
2819
0000
0000
0112
cafe
2c19
0000
0000
0113
cafe
3019
0000
0000
0113
cafe
3419
0000
0000
0118
cafe
3819
0000
0000
011b
cafe
3c19
0000
0000
0111
cafe
2019
0000
0000
0118
cafe
2419
0000
0000
0114
cafe
2819
0000
0000
0114
cafe
2c19
0000
0000
010e
cafe
3019
0000
0000
0112
cafe
3419
0000
0000
0110
cafe
3819
0000
0000
0110
cafe
3c19
0000
0000
0110
cafe
2019
0000
0000
0114
cafe
2419
0000
0000
0114
cafe
2819
0000
0000
0116
cafe
2c19
0000
0000
0114
cafe
3019
0000
0000
011b
cafe
3419
0000
0000
0119
cafe
3819
0000
0000
0111
cafe
3c19
0000
0000
0115
cafe
2019
0000
0000
0111
cafe
2419
0000
0000
0113
cafe
2819
0000
0000
0105
cafe
2c19
0000
0000
010c
cafe
3019
0000
0000
010c
cafe
3419
0000
0000
0107
cafe
3819
0000
0000
010f
cafe
3c19
0000
0000
0111
cafe
2019
0000
0000
0113
cafe
2419
0000
0000
010c
cafe
2819
0000
0000
010c
cafe
2c19
0000
0000
010a
cafe
3019
0000
0000
0114
cafe
3419
0000
0000
0116
cafe
3819
0000
0000
0118
cafe
3c19
0000
0000
0111
cafe
2019
0000
0000
0111
cafe
2419
0000
0000
0118
cafe
2819
0000
0000
0113
cafe
2c19
0000
0000
010a
cafe
3019
0000
0000
010c
cafe
3419
0000
0000
010e
cafe
3819
0000
0000
0113
cafe
3c19
0000
0000
010a
cafe
2019
0000
0000
0115
cafe
2419
0000
0000
0117
cafe
2819
-
0000
0000
0116
cafe
2c19
0000
0000
011a
cafe
3019
0000
0000
010e
cafe
3419
0000
0000
011a
cafe
3819
0000
0000
011d
cafe
3c19
0000
0000
0121
cafe
2019
0000
0000
011e
cafe
2419
0000
0000
0120
cafe
2819
0000
0000
0118
cafe
2c19
0000
0000
011b
cafe
3019
0000
0000
0115
cafe
3419
0000
0000
011c
cafe
3819
0000
0000
0115
cafe
3c19
0000
0000
011c
cafe
2019
0000
0000
0113
cafe
2419
0000
0000
0119
cafe
2819
0000
0000
011b
cafe
2c19
0000
0000
011b
cafe
3019
0000
0000
0120
cafe
3419
0000
0000
011b
cafe
3819
0000
0000
011d
cafe
3c19
0000
0000
011c
cafe
2019
0000
0000
011f
cafe
2419
0000
0000
0113
cafe
2819
0000
0000
0115
cafe
2c19
0000
0000
010c
cafe
3019
0000
0000
010e
cafe
3419
0000
0000
0109
cafe
3819
0000
0000
010b
cafe
3c19
0000
0000
0109
cafe
2019
0000
0000
0109
cafe
2419
0000
0000
0112
cafe
2819
0000
0000
0112
cafe
2c19
0000
0000
0113
cafe
3019
0000
0000
010e
cafe
3419
0000
0000
010f
cafe
3819
0000
0000
010c
cafe
3c19
0000
0000
010a
cafe
2019
0000
0000
010d
cafe
2419
0000
0000
011a
cafe
2819
0000
0000
011d
cafe
2c19
0000
0000
011d
cafe
3019
0000
0000
0116
cafe
3419
0000
0000
011a
cafe
3819
0000
0000
011b
cafe
3c19
0000
0000
011d
cafe
2019
0000
0000
0112
cafe
2419
0000
0000
0118
cafe
2819
0000
0000
011c
cafe
2c19
0000
0000
011f
cafe
3019
0000
0000
0116
cafe
3419
0000
-
0000
0118
cafe
3819
0000
0000
0110
cafe
3c19
0000
0000
010c
cafe
2019
0000
0000
0109
cafe
2419
0000
0000
0108
cafe
2819
0000
0000
0101
cafe
2c19
0000
0000
00ff
cafe
3019
0000
0000
00fb
cafe
3419
0000
0000
0107
cafe
3819
0000
0000
0107
cafe
3c19
0000
0000
0109
cafe
2019
0000
0000
010c
cafe
2419
0000
0000
010b
cafe
2819
0000
0000
010c
cafe
2c19
0000
0000
0110
cafe
3019
0000
0000
0112
cafe
3419
0000
0000
0112
cafe
3819
0000
0000
010a
cafe
3c19
0000
0000
0108
cafe
2019
0000
0000
010a
cafe
2419
0000
0000
0108
cafe
2819
0000
0000
010c
cafe
2c19
0000
0000
010c
cafe
3019
0000
0000
010e
cafe
3419
0000
0000
0109
cafe
3819
0000
0000
010a
cafe
3c19
0000
0000
010f
cafe
2019
0000
0000
010c
cafe
2419
0000
0000
010d
cafe
2819
0000
0000
010d
cafe
2c19
0000
0000
0115
cafe
3019
0000
0000
0117
cafe
3419
0000
0000
0119
cafe
3819
0000
0000
0117
cafe
3c19
0000
0000
0115
cafe
2019
0000
0000
0118
cafe
2419
0000
0000
0111
cafe
2819
0000
0000
0116
cafe
2c19
0000
0000
0115
cafe
3019
0000
0000
0111
cafe
3419
0000
0000
0105
cafe
3819
0000
0000
00ff
cafe
3c19
0000
0000
00f9
cafe
2019
0000
0000
0101
cafe
2419
0000
0000
0105
cafe
2819
0000
0000
0107
cafe
2c19
0000
0000
0109
cafe
3019
0000
0000
010a
cafe
3419
0000
0000
0107
cafe
3819
0000
0000
010f
cafe
3c19
0000
0000
0114
cafe
2019
0000
0000
-
0115
cafe
2419
0000
0000
0110
cafe
2819
0000
0000
0118
cafe
2c19
0000
0000
0114
cafe
3019
0000
0000
011e
cafe
3419
0000
0000
0119
cafe
3819
0000
0000
0116
cafe
3c19
0000
0000
011a
cafe
2019
0000
0000
0115
cafe
2419
0000
0000
0116
cafe
2819
0000
0000
0119
cafe
2c19
0000
0000
0121
cafe
3019
0000
0000
011b
cafe
3419
0000
0000
011f
cafe
3819
0000
0000
0121
cafe
3c19
0000
0000
0124
cafe
2019
0000
0000
0117
cafe
2419
0000
0000
0110
cafe
2819
0000
0000
0112
cafe
2c19
0000
0000
010e
cafe
3019
0000
0000
010e
cafe
3419
0000
0000
010f
cafe
3819
0000
0000
010c
cafe
3c19
0000
0000
0112
cafe
2019
0000
0000
0115
cafe
2419
0000
0000
0118
cafe
2819
0000
0000
0115
cafe
2c19
0000
0000
0114
cafe
3019
0000
0000
010f
cafe
3419
0000
0000
010c
cafe
3819
0000
0000
0111
cafe
3c19
0000
0000
011b
cafe
2019
0000
0000
011c
cafe
2419
0000
0000
0116
cafe
2819
0000
0000
0111
cafe
2c19
0000
0000
0111
cafe
3019
0000
0000
0112
cafe
3419
0000
0000
0114
cafe
3819
0000
0000
0119
cafe
3c19
0000
0000
011d
cafe
2019
0000
0000
011a
cafe
2419
0000
0000
0118
cafe
2819
0000
0000
0115
cafe
2c19
0000
0000
0117
cafe
3019
0000
0000
011b
cafe
3419
0000
0000
0123
cafe
3819
0000
0000
0124
cafe
3c19
0000
0000
011e
cafe
2019
0000
0000
0118
cafe
2419
0000
0000
011d
cafe
2819
0000
0000
0120
cafe
2c19
0000
0000
011a
-
cafe
3019
0000
0000
011e
cafe
3419
0000
0000
0120
cafe
3819
0000
0000
0122
cafe
3c19
0000
0000
0115
cafe
2019
0000
0000
011e
cafe
2419
0000
0000
0124
cafe
2819
0000
0000
011a
cafe
2c19
0000
0000
011d
cafe
3019
0000
0000
011c
cafe
3419
0000
0000
0115
cafe
3819
0000
0000
011a
cafe
3c19
0000
0000
0118
cafe
2019
0000
0000
0114
cafe
2419
0000
0000
011b
cafe
2819
0000
0000
011c
cafe
2c19
0000
0000
011a
cafe
3019
0000
0000
0117
cafe
3419
0000
0000
0112
cafe
3819
0000
0000
0118
cafe
3c19
0000
0000
0117
cafe
2019
0000
0000
0117
cafe
2419
0000
0000
0117
cafe
2819
0000
0000
0114
cafe
2c19
0000
0000
0111
cafe
3019
0000
0000
0118
cafe
3419
0000
0000
011c
cafe
3819
0000
0000
010a
cafe
3c19
0000
0000
010f
cafe
2019
0000
0000
0113
cafe
2419
0000
0000
0109
cafe
2819
0000
0000
010a
cafe
2c19
0000
0000
010d
cafe
3019
0000
0000
010f
cafe
3419
0000
0000
0109
cafe
3819
0000
0000
010c
cafe
3c19
0000
0000
0115
cafe
2019
0000
0000
010d
cafe
2419
0000
0000
010f
cafe
2819
0000
0000
010d
cafe
2c19
0000
0000
0108
cafe
3019
0000
0000
0109
cafe
3419
0000
0000
0102
cafe
3819
0000
0000
0106
cafe
3c19
0000
0000
010e
cafe
2019
0000
0000
0107
cafe
2419
0000
0000
0110
cafe
2819
0000
0000
0110
cafe
2c19
0000
0000
010a
cafe
3019
0000
0000
0107
cafe
3419
0000
0000
0101
cafe
3819
0000
0000
0104
cafe
-
3c19
0000
0000
0108
cafe
2019
0000
0000
0113
cafe
2419
0000
0000
0114
cafe
2819
0000
0000
010d
cafe
2c19
0000
0000
010f
cafe
3019
0000
0000
010a
cafe
3419
0000
0000
0109
cafe
3819
0000
0000
0111
cafe
3c19
0000
0000
0116
cafe
2019
0000
0000
0116
cafe
2419
0000
0000
0114
cafe
2819
0000
0000
0112
cafe
2c19
0000
0000
0112
cafe
3019
0000
0000
010e
cafe
3419
0000
0000
0109
cafe
3819
0000
0000
0110
cafe
3c19
0000
0000
0116
cafe
2019
0000
0000
0111
cafe
2419
0000
0000
0113
cafe
2819
0000
0000
0117
cafe
2c19
0000
0000
0113
cafe
3019
0000
0000
0111
cafe
3419
0000
0000
0111
cafe
3819
0000
0000
0114
cafe
3c19
0000
0000
011f
cafe
2019
0000
0000
0119
cafe
2419
0000
0000
0111
cafe
2819
0000
0000
010f
cafe
2c19
0000
0000
0111
cafe
3019
0000
0000
0113
cafe
3419
0000
0000
0115
cafe
3819
0000
0000
011e
cafe
3c19
0000
0000
0114
cafe
2019
0000
0000
0121
cafe
2419
0000
0000
0124
cafe
2819
0000
0000
011d
cafe
2c19
0000
0000
0116
cafe
3019
0000
0000
0118
cafe
3419
0000
0000
0117
cafe
3819
0000
0000
0112
cafe
3c19
0000
0000
011a
cafe
2019
0000
0000
0115
cafe
2419
0000
0000
0111
cafe
2819
0000
0000
0114
cafe
2c19
0000
0000
0116
cafe
3019
0000
0000
011d
cafe
3419
0000
0000
0118
cafe
3819
0000
0000
0115
cafe
3c19
0000
0000
0114
cafe
2019
0000
0000
0110
cafe
2419
0000
0000
010d
cafe
2819
-
0000
0000
0110
cafe
2c19
0000
0000
0112
cafe
3019
0000
0000
0117
cafe
3419
0000
0000
0114
cafe
3819
0000
0000
010b
cafe
3c19
0000
0000
010f
cafe
2019
0000
0000
010e
cafe
2419
0000
0000
0116
cafe
2819
0000
0000
0114
cafe
2c19
0000
0000
0119
cafe
3019
0000
0000
011b
cafe
3419
0000
0000
0117
cafe
3819
0000
0000
011e
cafe
3c19
0000
0000
0116
cafe
2019
0000
0000
0118
cafe
2419
0000
0000
0112
cafe
2819
0000
0000
0110
cafe
2c19
0000
0000
0113
cafe
3019
0000
0000
010c
cafe
3419
0000
0000
0113
cafe
3819
0000
0000
010d
cafe
3c19
0000
0000
010f
cafe
2019
0000
0000
0116
cafe
2419
0000
0000
0116
cafe
2819
0000
0000
0114
cafe
2c19
0000
0000
010c
cafe
3019
0000
0000
0119
cafe
3419
0000
0000
0118
cafe
3819
0000
0000
011b
cafe
3c19
0000
0000
0117
cafe
2019
0000
0000
0114
cafe
2419
0000
0000
010f
cafe
2819
0000
0000
0112
cafe
2c19
0000
0000
0113
cafe
3019
0000
0000
0124
cafe
3419
0000
0000
0120
cafe
3819
0000
0000
0124
cafe
3c19
0000
0000
0120
cafe
2019
0000
0000
011e
cafe
2419
0000
0000
0123
cafe
2819
0000
0000
0121
cafe
2c19
0000
0000
011c
cafe
3019
0000
0000
011e
cafe
3419
0000
0000
0123
cafe
3819
0000
0000
0128
cafe
3c19
0000
0000
0122
cafe
2019
0000
0000
0126
cafe
2419
0000
0000
0118
cafe
2819
0000
0000
0119
cafe
2c19
0000
0000
0116
cafe
3019
0000
0000
0112
cafe
3419
0000
-
0000
010c
cafe
3819
0000
0000
010a
cafe
3c19
0000
0000
010c
cafe
2019
0000
0000
0107
cafe
2419
0000
0000
010b
cafe
2819
0000
0000
010b
cafe
2c19
0000
0000
010d
cafe
3019
0000
0000
010b
cafe
3419
0000
0000
0112
cafe
3819
0000
0000
0112
cafe
3c19
0000
0000
0117
cafe
2019
0000
0000
0114
cafe
2419
0000
0000
010e
cafe
2819
0000
0000
0109
cafe
2c19
0000
0000
0107
cafe
3019
0000
0000
0114
cafe
3419
0000
0000
0113
cafe
3819
0000
0000
010a
cafe
3c19
0000
0000
0113
cafe
2019
0000
0000
0112
cafe
2419
0000
0000
010d
cafe
2819
0000
0000
010d
cafe
2c19
0000
0000
0114
cafe
3019
0000
0000
010d
cafe
3419
0000
0000
0114
cafe
3819
0000
0000
011d
cafe
3c19
0000
0000
0118
cafe
2019
0000
0000
0115
cafe
2419
0000
0000
0122
cafe
2819
0000
0000
0118
cafe
2c19
0000
0000
011c
cafe
3019
0000
0000
0116
cafe
3419
0000
0000
0116
cafe
3819
0000
0000
0114
cafe
3c19
0000
0000
010e
cafe
2019
0000
0000
010f
cafe
2419
0000
0000
0113
cafe
2819
0000
0000
0113
cafe
2c19
0000
0000
0110
cafe
3019
0000
0000
0115
cafe
3419
0000
0000
010f
cafe
3819
0000
0000
0112
cafe
3c19
0000
0000
0114
cafe
2019
0000
0000
0118
cafe
2419
0000
0000
0121
cafe
2819
0000
0000
0113
cafe
2c19
0000
0000
010d
cafe
3019
0000
0000
010d
cafe
3419
0000
0000
0114
cafe
3819
0000
0000
011a
cafe
3c19
0000
0000
011c
cafe
2019
0000
0000
-
011b
cafe
2419
0000
0000
011e
cafe
2819
0000
0000
0116
cafe
2c19
0000
0000
0121
cafe
3019
0000
0000
011d
cafe
3419
0000
0000
011a
cafe
3819
0000
0000
011b
cafe
3c19
0000
0000
0114
cafe
2019
0000
0000
010e
cafe
2419
0000
0000
010e
cafe
2819
0000
0000
010a
cafe
2c19
0000
0000
0119
cafe
3019
0000
0000
0115
cafe
3419
0000
0000
010a
cafe
3819
0000
0000
0107
cafe
3c19
0000
0000
0107
cafe
2019
0000
0000
0109
cafe
2419
0000
0000
0102
cafe
2819
0000
0000
010c
cafe
2c19
0000
0000
0103
cafe
3019
0000
0000
0109
cafe
3419
0000
0000
0108
cafe
3819
0000
0000
010e
cafe
3c19
0000
0000
0114
cafe
2019
0000
0000
0111
cafe
2419
0000
0000
010e
cafe
2819
0000
0000
010d
cafe
2c19
0000
0000
010f
cafe
3019
0000
0000
0108
cafe
3419
0000
0000
0102
cafe
3819
0000
0000
0109
cafe
3c19
0000
0000
010c
cafe
2019
0000
0000
010e
cafe
2419
0000
0000
0112
cafe
2819
0000
0000
010d
cafe
2c19
0000
0000
0114
cafe
3019
0000
0000
0112
cafe
3419
0000
0000
011c
cafe
3819
0000
0000
0116
cafe
3c19
0000
0000
0116
cafe
2019
0000
0000
0114
cafe
2419
0000
0000
0116
cafe
2819
0000
0000
0111
cafe
2c19
0000
0000
0112
cafe
3019
0000
0000
0110
cafe
3419
0000
0000
0112
cafe
3819
0000
0000
0114
cafe
3c19
0000
0000
0119
cafe
2019
0000
0000
011a
cafe
2419
0000
0000
0119
cafe
2819
0000
0000
011f
cafe
2c19
0000
0000
011b
-
