280e
5555
f900
07f5
cafe
2c1e
5555
f900
07f2
cafe
3006
5555
f900
07f6
cafe
3416
5555
f904
07fa
cafe
380f
5555
f904
07f6
cafe
3c1f
5555
f904
07f2
cafe
2007
5555
f904
07f6
cafe
2417
5555
f908
07fa
cafe
2808
5555
f908
07f5
cafe
2c18
5555
f908
07f2
cafe
3000
5555
f908
07f7
cafe
3410
5555
f90c
07fa
cafe
3809
5555
f90c
07f6
cafe
3c19
5555
f90c
07f2
cafe
2001
5555
f90c
07f7
cafe
2411
5555
f910
07fa
cafe
280a
5555
f910
07f5
cafe
2c1a
5555
f910
07f2
cafe
3002
5555
f910
07f7
cafe
3412
5555
f914
07fa
cafe
380b
5555
f914
07f6
cafe
3c1b
5555
f914
07f3
cafe
2003
5555
f914
07f6
cafe
2413
5555
f918
07fa
cafe
280c
5555
f918
07f6
cafe
2c1c
5555
f918
07f2
cafe
3004
5555
f918
07f7
cafe
3414
5555
f91c
07fa
cafe
380d
5555
f91c
07f5
cafe
3c1d
5555
f91c
07f3
cafe
2005
5555
f91c
07f7
cafe
2415
5555
f920
07fa
cafe
280e
5555
f920
07f5
cafe
2c1e
5555
f920
07f3
cafe
3006
5555
f920
07f7
cafe
3416
5555
f924
07fa
cafe
380f
5555
f924
07f6
cafe
3c1f
5555
f924
07f2
cafe
2007
5555
f924
07f6
cafe
2417
5555
f928
07fa
cafe
2808
5555
f928
07f6
cafe
2c18
5555
f928
07f2
cafe
3000
5555
f928
07f7
cafe
3410
5555
f92c
07fa
cafe
3809
5555
f92c
07f5
cafe
3c19
5555
f92c
07f2
cafe
2001
5555
f92c
07f7
cafe
2411
5555
f930
07fa
cafe
280a
5555
f930
07f6
cafe
2c1a
5555
f930
07f2
cafe
3002
5555
f930
07f6
cafe
3412
-
5555
f934
07fa
cafe
380b
5555
f934
07f5
cafe
3c1b
5555
f934
07f2
cafe
2003
5555
f934
07f7
cafe
2413
5555
f938
07fa
cafe
280c
5555
f938
07f5
cafe
2c1c
5555
f938
07f2
cafe
3004
5555
f938
07f6
cafe
3414
5555
f93c
07fa
cafe
380d
5555
f93c
07f6
cafe
3c1d
5555
f93c
07f2
cafe
2005
5555
f93c
07f7
cafe
2415
5555
f940
07fa
cafe
280e
5555
f940
07f5
cafe
2c1e
5555
f940
07f2
cafe
3006
5555
f940
07f7
cafe
3416
5555
f944
07fa
cafe
380f
5555
f944
07f5
cafe
3c1f
5555
f944
07f2
cafe
2007
5555
f944
07f7
cafe
2417
5555
f948
07fb
cafe
2808
5555
f948
07f6
cafe
2c18
5555
f948
07f2
cafe
3000
5555
f948
07f7
cafe
3410
5555
f94c
07fa
cafe
3809
5555
f94c
07f6
cafe
3c19
5555
f94c
07f2
cafe
2001
5555
f94c
07f7
cafe
2411
5555
f950
07fb
cafe
280a
5555
f950
07f6
cafe
2c1a
5555
f950
07f2
cafe
3002
5555
f950
07f6
cafe
3412
5555
f954
07fa
cafe
380b
5555
f954
07f6
cafe
3c1b
5555
f954
07f2
cafe
2003
5555
f954
07f6
cafe
2413
5555
f958
07fa
cafe
280c
5555
f958
07f6
cafe
2c1c
5555
f958
07f2
cafe
3004
5555
f958
07f7
cafe
3414
5555
f95c
07fa
cafe
380d
5555
f95c
07f6
cafe
3c1d
5555
f95c
07f2
cafe
2005
5555
f95c
07f7
cafe
2415
5555
f960
07fa
cafe
280e
5555
f960
07f5
cafe
2c1e
5555
f960
07f2
cafe
3006
5555
f960
07f7
cafe
3416
5555
f964
07fa
cafe
380f
5555
f964
07f5
cafe
3c1f
5555
f964
07f2
cafe
2007
5555
-
f964
07f7
cafe
2417
5555
f968
07fa
cafe
2808
5555
f968
07f6
cafe
2c18
5555
f968
07f2
cafe
3000
5555
f968
07f7
cafe
3410
5555
f96c
07fb
cafe
3809
5555
f96c
07f5
cafe
3c19
5555
f96c
07f2
cafe
2001
5555
f96c
07f6
cafe
2411
5555
f970
07fa
cafe
280a
5555
f970
07f6
cafe
2c1a
5555
f970
07f3
cafe
3002
5555
f970
07f7
cafe
3412
5555
f974
07fa
cafe
380b
5555
f974
07f6
cafe
3c1b
5555
f974
07f3
cafe
2003
5555
f974
07f7
cafe
2413
5555
f978
07fa
cafe
280c
5555
f978
07f6
cafe
2c1c
5555
f978
07f2
cafe
3004
5555
f978
07f7
cafe
3414
5555
f97c
07fa
cafe
380d
5555
f97c
07f5
cafe
3c1d
5555
f97c
07f2
cafe
2005
5555
f97c
07f6
cafe
2415
5555
f980
07fa
cafe
280e
5555
f980
07f5
cafe
2c1e
5555
f980
07f3
cafe
3006
5555
f980
07f6
cafe
3416
5555
f984
07fa
cafe
380f
5555
f984
07f6
cafe
3c1f
5555
f984
07f2
cafe
2007
5555
f984
07f6
cafe
2417
5555
f988
07fa
cafe
2808
5555
f988
07f6
cafe
2c18
5555
f988
07f3
cafe
3000
5555
f988
07f7
cafe
3410
5555
f98c
07fa
cafe
3809
5555
f98c
07f5
cafe
3c19
5555
f98c
07f2
cafe
2001
5555
f98c
07f7
cafe
2411
5555
f990
07fa
cafe
280a
5555
f990
07f6
cafe
2c1a
5555
f990
07f2
cafe
3002
5555
f990
07f6
cafe
3412
5555
f994
07fa
cafe
380b
5555
f994
07f6
cafe
3c1b
5555
f994
07f2
cafe
2003
5555
f994
07f7
cafe
2413
5555
f998
07fa
cafe
280c
5555
f998
07f6
cafe
2c1c
5555
f998
-
07f2
cafe
3004
5555
f998
07f7
cafe
3414
5555
f99c
07fa
cafe
380d
5555
f99c
07f6
cafe
3c1d
5555
f99c
07f2
cafe
2005
5555
f99c
07f6
cafe
2415
5555
f9a0
07fa
cafe
280e
5555
f9a0
07f6
cafe
2c1e
5555
f9a0
07f2
cafe
3006
5555
f9a0
07f6
cafe
3416
5555
f9a4
07fb
cafe
380f
5555
f9a4
07f6
cafe
3c1f
5555
f9a4
07f2
cafe
2007
5555
f9a4
07f7
cafe
2417
5555
f9a8
07fa
cafe
2808
5555
f9a8
07f6
cafe
2c18
5555
f9a8
07f2
cafe
3000
5555
f9a8
07f6
cafe
3410
5555
f9ac
07fa
cafe
3809
5555
f9ac
07f5
cafe
3c19
5555
f9ac
07f2
cafe
2001
5555
f9ac
07f7
cafe
2411
5555
f9b0
07fa
cafe
280a
5555
f9b0
07f6
cafe
2c1a
5555
f9b0
07f2
cafe
3002
5555
f9b0
07f6
cafe
3412
5555
f9b4
07fa
cafe
380b
5555
f9b4
07f5
cafe
3c1b
5555
f9b4
07f2
cafe
2003
5555
f9b4
07f6
cafe
2413
5555
f9b8
07fa
cafe
280c
5555
f9b8
07f6
cafe
2c1c
5555
f9b8
07f2
cafe
3004
5555
f9b8
07f7
cafe
3414
5555
f9bc
07fa
cafe
380d
5555
f9bc
07f5
cafe
3c1d
5555
f9bc
07f3
cafe
2005
5555
f9bc
07f7
cafe
2415
5555
f9c0
07fa
cafe
280e
5555
f9c0
07f6
cafe
2c1e
5555
f9c0
07f2
cafe
3006
5555
f9c0
07f6
cafe
3416
5555
f9c4
07fa
cafe
380f
5555
f9c4
07f6
cafe
3c1f
5555
f9c4
07f2
cafe
2007
5555
f9c4
07f7
cafe
2417
5555
f9c8
07fa
cafe
2808
5555
f9c8
07f6
cafe
2c18
5555
f9c8
07f2
cafe
3000
5555
f9c8
07f7
cafe
3410
5555
f9cc
07fa
cafe
3809
5555
f9cc
07f5
-
cafe
3c19
5555
f9cc
07f2
cafe
2001
5555
f9cc
07f7
cafe
2411
5555
f9d0
07fa
cafe
280a
5555
f9d0
07f5
cafe
2c1a
5555
f9d0
07f2
cafe
3002
5555
f9d0
07f7
cafe
3412
5555
f9d4
07fa
cafe
380b
5555
f9d4
07f5
cafe
3c1b
5555
f9d4
07f2
cafe
2003
5555
f9d4
07f6
cafe
2413
5555
f9d8
07fb
cafe
280c
5555
f9d8
07f6
cafe
2c1c
5555
f9d8
07f3
cafe
3004
5555
f9d8
07f7
cafe
3414
5555
f9dc
07fa
cafe
380d
5555
f9dc
07f5
cafe
3c1d
5555
f9dc
07f3
cafe
2005
5555
f9dc
07f7
cafe
2415
5555
f9e0
07fa
cafe
280e
5555
f9e0
07f5
cafe
2c1e
5555
f9e0
07f2
cafe
3006
5555
f9e0
07f7
cafe
3416
5555
f9e4
07fa
cafe
380f
5555
f9e4
07f6
cafe
3c1f
5555
f9e4
07f2
cafe
2007
5555
f9e4
07f6
cafe
2417
5555
f9e8
07fa
cafe
2808
5555
f9e8
07f5
cafe
2c18
5555
f9e8
07f2
cafe
3000
5555
f9e8
07f7
cafe
3410
5555
f9ec
07fa
cafe
3809
5555
f9ec
07f6
cafe
3c19
5555
f9ec
07f3
cafe
2001
5555
f9ec
07f7
cafe
2411
5555
f9f0
07fa
cafe
280a
5555
f9f0
07f6
cafe
2c1a
5555
f9f0
07f3
cafe
3002
5555
f9f0
07f7
cafe
3412
5555
f9f4
07fa
cafe
380b
5555
f9f4
07f6
cafe
3c1b
5555
f9f4
07f2
cafe
2003
5555
f9f4
07f7
cafe
2413
5555
f9f8
07fa
cafe
280c
5555
f9f8
07f5
cafe
2c1c
5555
f9f8
07f2
cafe
3004
5555
f9f8
07f6
cafe
3414
5555
f9fc
07fa
cafe
380d
5555
f9fc
07f6
cafe
3c1d
5555
f9fc
07f2
cafe
2005
5555
f9fc
07f6
cafe
2415
5555
fa00
07fa
cafe
-
280e
5555
fa00
07f5
cafe
2c1e
5555
fa00
07f2
cafe
3006
5555
fa00
07f7
cafe
3416
5555
fa04
07fb
cafe
380f
5555
fa04
07f5
cafe
3c1f
5555
fa04
07f2
cafe
2007
5555
fa04
07f7
cafe
2417
5555
fa08
07fa
cafe
2808
5555
fa08
07f6
cafe
2c18
5555
fa08
07f2
cafe
3000
5555
fa08
07f7
cafe
3410
5555
fa0c
07fa
cafe
3809
5555
fa0c
07f6
cafe
3c19
5555
fa0c
07f2
cafe
2001
5555
fa0c
07f7
cafe
2411
5555
fa10
07fa
cafe
280a
5555
fa10
07f5
cafe
2c1a
5555
fa10
07f2
cafe
3002
5555
fa10
07f7
cafe
3412
5555
fa14
07fa
cafe
380b
5555
fa14
07f6
cafe
3c1b
5555
fa14
07f2
cafe
2003
5555
fa14
07f7
cafe
2413
5555
fa18
07fa
cafe
280c
5555
fa18
07f6
cafe
2c1c
5555
fa18
07f2
cafe
3004
5555
fa18
07f7
cafe
3414
5555
fa1c
07fa
cafe
380d
5555
fa1c
07f6
cafe
3c1d
5555
fa1c
07f2
cafe
2005
5555
fa1c
07f7
cafe
2415
5555
fa20
07fa
cafe
280e
5555
fa20
07f5
cafe
2c1e
5555
fa20
07f2
cafe
3006
5555
fa20
07f6
cafe
3416
5555
fa24
07fa
cafe
380f
5555
fa24
07f5
cafe
3c1f
5555
fa24
07f2
cafe
2007
5555
fa24
07f6
cafe
2417
5555
fa28
07fa
cafe
2808
5555
fa28
07f6
cafe
2c18
5555
fa28
07f2
cafe
3000
5555
fa28
07f7
cafe
3410
5555
fa2c
07fa
cafe
3809
5555
fa2c
07f5
cafe
3c19
5555
fa2c
07f3
cafe
2001
5555
fa2c
07f6
cafe
2411
5555
fa30
07fa
cafe
280a
5555
fa30
07f5
cafe
2c1a
5555
fa30
07f2
cafe
3002
5555
fa30
07f7
cafe
3412
-
5555
fa34
07fa
cafe
380b
5555
fa34
07f6
cafe
3c1b
5555
fa34
07f2
cafe
2003
5555
fa34
07f7
cafe
2413
5555
fa38
07fa
cafe
280c
5555
fa38
07f6
cafe
2c1c
5555
fa38
07f2
cafe
3004
5555
fa38
07f6
cafe
3414
5555
fa3c
07fa
cafe
380d
5555
fa3c
07f6
cafe
3c1d
5555
fa3c
07f2
cafe
2005
5555
fa3c
07f7
cafe
2415
5555
fa40
07fa
cafe
280e
5555
fa40
07f6
cafe
2c1e
5555
fa40
07f2
cafe
3006
5555
fa40
07f7
cafe
3416
5555
fa44
07fb
cafe
380f
5555
fa44
07f5
cafe
3c1f
5555
fa44
07f2
cafe
2007
5555
fa44
07f7
cafe
2417
5555
fa48
07fa
cafe
2808
5555
fa48
07f5
cafe
2c18
5555
fa48
07f2
cafe
3000
5555
fa48
07f6
cafe
3410
5555
fa4c
07fa
cafe
3809
5555
fa4c
07f6
cafe
3c19
5555
fa4c
07f2
cafe
2001
5555
fa4c
07f7
cafe
2411
5555
fa50
07fa
cafe
280a
5555
fa50
07f6
cafe
2c1a
5555
fa50
07f2
cafe
3002
5555
fa50
07f7
cafe
3412
5555
fa54
07fb
cafe
380b
5555
fa54
07f6
cafe
3c1b
5555
fa54
07f2
cafe
2003
5555
fa54
07f6
cafe
2413
5555
fa58
07fa
cafe
280c
5555
fa58
07f6
cafe
2c1c
5555
fa58
07f2
cafe
3004
5555
fa58
07f7
cafe
3414
5555
fa5c
07fa
cafe
380d
5555
fa5c
07f6
cafe
3c1d
5555
fa5c
07f2
cafe
2005
5555
fa5c
07f7
cafe
2415
5555
fa60
07fa
cafe
280e
5555
fa60
07f6
cafe
2c1e
5555
fa60
07f2
cafe
3006
5555
fa60
07f6
cafe
3416
5555
fa64
07fa
cafe
380f
5555
fa64
07f6
cafe
3c1f
5555
fa64
07f2
cafe
2007
5555
-
fa64
07f7
cafe
2417
5555
fa68
07fa
cafe
2808
5555
fa68
07f5
cafe
2c18
5555
fa68
07f2
cafe
3000
5555
fa68
07f7
cafe
3410
5555
fa6c
07fa
cafe
3809
5555
fa6c
07f5
cafe
3c19
5555
fa6c
07f2
cafe
2001
5555
fa6c
07f6
cafe
2411
5555
fa70
07fa
cafe
280a
5555
fa70
07f5
cafe
2c1a
5555
fa70
07f2
cafe
3002
5555
fa70
07f7
cafe
3412
5555
fa74
07fa
cafe
380b
5555
fa74
07f5
cafe
3c1b
5555
fa74
07f2
cafe
2003
5555
fa74
07f7
cafe
2413
5555
fa78
07fa
cafe
280c
5555
fa78
07f5
cafe
2c1c
5555
fa78
07f2
cafe
3004
5555
fa78
07f7
cafe
3414
5555
fa7c
07fa
cafe
380d
5555
fa7c
07f6
cafe
3c1d
5555
fa7c
07f2
cafe
2005
5555
fa7c
07f6
cafe
2415
5555
fa80
07fb
cafe
280e
5555
fa80
07f6
cafe
2c1e
5555
fa80
07f2
cafe
3006
5555
fa80
07f7
cafe
3416
5555
fa84
07fa
cafe
380f
5555
fa84
07f5
cafe
3c1f
5555
fa84
07f2
cafe
2007
5555
fa84
07f7
cafe
2417
5555
fa88
07fa
cafe
2808
5555
fa88
07f5
cafe
2c18
5555
fa88
07f2
cafe
3000
5555
fa88
07f7
cafe
3410
5555
fa8c
07fa
cafe
3809
5555
fa8c
07f5
cafe
3c19
5555
fa8c
07f2
cafe
2001
5555
fa8c
07f7
cafe
2411
5555
fa90
07fa
cafe
280a
5555
fa90
07f5
cafe
2c1a
5555
fa90
07f2
cafe
3002
5555
fa90
07f6
cafe
3412
5555
fa94
07fa
cafe
380b
5555
fa94
07f5
cafe
3c1b
5555
fa94
07f2
cafe
2003
5555
fa94
07f6
cafe
2413
5555
fa98
07fa
cafe
280c
5555
fa98
07f6
cafe
2c1c
5555
fa98
-
07f2
cafe
3004
5555
fa98
07f7
cafe
3414
5555
fa9c
07fa
cafe
380d
5555
fa9c
07f6
cafe
3c1d
5555
fa9c
07f3
cafe
2005
5555
fa9c
07f6
cafe
2415
5555
faa0
07fa
cafe
280e
5555
faa0
07f6
cafe
2c1e
5555
faa0
07f2
cafe
3006
5555
faa0
07f6
cafe
3416
5555
faa4
07fa
cafe
380f
5555
faa4
07f5
cafe
3c1f
5555
faa4
07f2
cafe
2007
5555
faa4
07f6
cafe
2417
5555
faa8
07fa
cafe
2808
5555
faa8
07f5
cafe
2c18
5555
faa8
07f2
cafe
3000
5555
faa8
07f6
cafe
3410
5555
faac
07fa
cafe
3809
5555
faac
07f5
cafe
3c19
5555
faac
07f2
cafe
2001
5555
faac
07f7
cafe
2411
5555
fab0
07fb
cafe
280a
5555
fab0
07f6
cafe
2c1a
5555
fab0
07f2
cafe
3002
5555
fab0
07f6
cafe
3412
5555
fab4
07fa
cafe
380b
5555
fab4
07f6
cafe
3c1b
5555
fab4
07f2
cafe
2003
5555
fab4
07f7
cafe
2413
5555
fab8
07fb
cafe
280c
5555
fab8
07f5
cafe
2c1c
5555
fab8
07f2
cafe
3004
5555
fab8
07f7
cafe
3414
5555
fabc
07fb
cafe
380d
5555
fabc
07f6
cafe
3c1d
5555
fabc
07f2
cafe
2005
5555
fabc
07f7
cafe
2415
5555
fac0
07fa
cafe
280e
5555
fac0
07f5
cafe
2c1e
5555
fac0
07f3
cafe
3006
5555
fac0
07f7
cafe
3416
5555
fac4
07fa
cafe
380f
5555
fac4
07f5
cafe
3c1f
5555
fac4
07f2
cafe
2007
5555
fac4
07f7
cafe
2417
5555
fac8
07fa
cafe
2808
5555
fac8
07f6
cafe
2c18
5555
fac8
07f3
cafe
3000
5555
fac8
07f7
cafe
3410
5555
facc
07fa
cafe
3809
5555
facc
07f5
-
cafe
3c19
5555
facc
07f2
cafe
2001
5555
facc
07f6
cafe
2411
5555
fad0
07fa
cafe
280a
5555
fad0
07f5
cafe
2c1a
5555
fad0
07f2
cafe
3002
5555
fad0
07f7
cafe
3412
5555
fad4
07fa
cafe
380b
5555
fad4
07f5
cafe
3c1b
5555
fad4
07f2
cafe
2003
5555
fad4
07f7
cafe
2413
5555
fad8
07fa
cafe
280c
5555
fad8
07f5
cafe
2c1c
5555
fad8
07f3
cafe
3004
5555
fad8
07f6
cafe
3414
5555
fadc
07fa
cafe
380d
5555
fadc
07f6
cafe
3c1d
5555
fadc
07f2
cafe
2005
5555
fadc
07f7
cafe
2415
5555
fae0
07fa
cafe
280e
5555
fae0
07f6
cafe
2c1e
5555
fae0
07f2
cafe
3006
5555
fae0
07f7
cafe
3416
5555
fae4
07fa
cafe
380f
5555
fae4
07f6
cafe
3c1f
5555
fae4
07f3
cafe
2007
5555
fae4
07f7
cafe
2417
5555
fae8
07fa
cafe
2808
5555
fae8
07f5
cafe
2c18
5555
fae8
07f2
cafe
3000
5555
fae8
07f7
cafe
3410
5555
faec
07fa
cafe
3809
5555
faec
07f5
cafe
3c19
5555
faec
07f2
cafe
2001
5555
faec
07f7
cafe
2411
5555
faf0
07fa
cafe
280a
5555
faf0
07f5
cafe
2c1a
5555
faf0
07f2
cafe
3002
5555
faf0
07f7
cafe
3412
5555
faf4
07fa
cafe
380b
5555
faf4
07f6
cafe
3c1b
5555
faf4
07f2
cafe
2003
5555
faf4
07f7
cafe
2413
5555
faf8
07fa
cafe
280c
5555
faf8
07f5
cafe
2c1c
5555
faf8
07f2
cafe
3004
5555
faf8
07f6
cafe
3414
5555
fafc
07fa
cafe
380d
5555
fafc
07f6
cafe
3c1d
5555
fafc
07f2
cafe
2005
5555
fafc
07f7
cafe
2415
5555
fb00
07fb
cafe
-
280e
5555
fb00
07f6
cafe
2c1e
5555
fb00
07f2
cafe
3006
5555
fb00
07f6
cafe
3416
5555
fb04
07fa
cafe
380f
5555
fb04
07f5
cafe
3c1f
5555
fb04
07f3
cafe
2007
5555
fb04
07f7
cafe
2417
5555
fb08
07fa
cafe
2808
5555
fb08
07f6
cafe
2c18
5555
fb08
07f2
cafe
3000
5555
fb08
07f6
cafe
3410
5555
fb0c
07fa
cafe
3809
5555
fb0c
07f5
cafe
3c19
5555
fb0c
07f3
cafe
2001
5555
fb0c
07f7
cafe
2411
5555
fb10
07fa
cafe
280a
5555
fb10
07f5
cafe
2c1a
5555
fb10
07f2
cafe
3002
5555
fb10
07f7
cafe
3412
5555
fb14
07fa
cafe
380b
5555
fb14
07f6
cafe
3c1b
5555
fb14
07f2
cafe
2003
5555
fb14
07f6
cafe
2413
5555
fb18
07fa
cafe
280c
5555
fb18
07f6
cafe
2c1c
5555
fb18
07f2
cafe
3004
5555
fb18
07f7
cafe
3414
5555
fb1c
07fa
cafe
380d
5555
fb1c
07f6
cafe
3c1d
5555
fb1c
07f2
cafe
2005
5555
fb1c
07f7
cafe
2415
5555
fb20
07fa
cafe
280e
5555
fb20
07f5
cafe
2c1e
5555
fb20
07f2
cafe
3006
5555
fb20
07f6
cafe
3416
5555
fb24
07fa
cafe
380f
5555
fb24
07f6
cafe
3c1f
5555
fb24
07f2
cafe
2007
5555
fb24
07f7
cafe
2417
5555
fb28
07fa
cafe
2808
5555
fb28
07f6
cafe
2c18
5555
fb28
07f2
cafe
3000
5555
fb28
07f6
cafe
3410
5555
fb2c
07fa
cafe
3809
5555
fb2c
07f6
cafe
3c19
5555
fb2c
07f2
cafe
2001
5555
fb2c
07f7
cafe
2411
5555
fb30
07fa
cafe
280a
5555
fb30
07f5
cafe
2c1a
5555
fb30
07f3
cafe
3002
5555
fb30
07f7
cafe
3412
-
5555
fb34
07fa
cafe
380b
5555
fb34
07f6
cafe
3c1b
5555
fb34
07f2
cafe
2003
5555
fb34
07f7
cafe
2413
5555
fb38
07fa
cafe
280c
5555
fb38
07f6
cafe
2c1c
5555
fb38
07f2
cafe
3004
5555
fb38
07f6
cafe
3414
5555
fb3c
07fa
cafe
380d
5555
fb3c
07f6
cafe
3c1d
5555
fb3c
07f3
cafe
2005
5555
fb3c
07f7
cafe
2415
5555
fb40
07fa
cafe
280e
5555
fb40
07f6
cafe
2c1e
5555
fb40
07f2
cafe
3006
5555
fb40
07f7
cafe
3416
5555
fb44
07fa
cafe
380f
5555
fb44
07f5
cafe
3c1f
5555
fb44
07f2
cafe
2007
5555
fb44
07f7
cafe
2417
5555
fb48
07fa
cafe
2808
5555
fb48
07f6
cafe
2c18
5555
fb48
07f2
cafe
3000
5555
fb48
07f7
cafe
3410
5555
fb4c
07fa
cafe
3809
5555
fb4c
07f5
cafe
3c19
5555
fb4c
07f2
cafe
2001
5555
fb4c
07f7
cafe
2411
5555
fb50
07fa
cafe
280a
5555
fb50
07f5
cafe
2c1a
5555
fb50
07f3
cafe
3002
5555
fb50
07f7
cafe
3412
5555
fb54
07fa
cafe
380b
5555
fb54
07f5
cafe
3c1b
5555
fb54
07f2
cafe
2003
5555
fb54
07f6
cafe
2413
5555
fb58
07fa
cafe
280c
5555
fb58
07f6
cafe
2c1c
5555
fb58
07f3
cafe
3004
5555
fb58
07f7
cafe
3414
5555
fb5c
07fa
cafe
380d
5555
fb5c
07f6
cafe
3c1d
5555
fb5c
07f2
cafe
2005
5555
fb5c
07f7
cafe
2415
5555
fb60
07fa
cafe
280e
5555
fb60
07f6
cafe
2c1e
5555
fb60
07f2
cafe
3006
5555
fb60
07f6
cafe
3416
5555
fb64
07fa
cafe
380f
5555
fb64
07f6
cafe
3c1f
5555
fb64
07f2
cafe
2007
5555
-
fb64
07f7
cafe
2417
5555
fb68
07fa
cafe
2808
5555
fb68
07f6
cafe
2c18
5555
fb68
07f2
cafe
3000
5555
fb68
07f7
cafe
3410
5555
fb6c
07fa
cafe
3809
5555
fb6c
07f6
cafe
3c19
5555
fb6c
07f2
cafe
2001
5555
fb6c
07f7
cafe
2411
5555
fb70
07fa
cafe
280a
5555
fb70
07f6
cafe
2c1a
5555
fb70
07f2
cafe
3002
5555
fb70
07f6
cafe
3412
5555
fb74
07fa
cafe
380b
5555
fb74
07f5
cafe
3c1b
5555
fb74
07f2
cafe
2003
5555
fb74
07f7
cafe
2413
5555
fb78
07fa
cafe
280c
5555
fb78
07f6
cafe
2c1c
5555
fb78
07f2
cafe
3004
5555
fb78
07f7
cafe
3414
5555
fb7c
07fa
cafe
380d
5555
fb7c
07f5
cafe
3c1d
5555
fb7c
07f2
cafe
2005
5555
fb7c
07f6
cafe
2415
5555
fb80
07fa
cafe
280e
5555
fb80
07f5
cafe
2c1e
5555
fb80
07f2
cafe
3006
5555
fb80
07f6
cafe
3416
5555
fb84
07fa
cafe
380f
5555
fb84
07f5
cafe
3c1f
5555
fb84
07f2
cafe
2007
5555
fb84
07f6
cafe
2417
5555
fb88
07fa
cafe
2808
5555
fb88
07f5
cafe
2c18
5555
fb88
07f2
cafe
3000
5555
fb88
07f6
cafe
3410
5555
fb8c
07fa
cafe
3809
5555
fb8c
07f6
cafe
3c19
5555
fb8c
07f2
cafe
2001
5555
fb8c
07f6
cafe
2411
5555
fb90
07fa
cafe
280a
5555
fb90
07f6
cafe
2c1a
5555
fb90
07f2
cafe
3002
5555
fb90
07f7
cafe
3412
5555
fb94
07fa
cafe
380b
5555
fb94
07f6
cafe
3c1b
5555
fb94
07f2
cafe
2003
5555
fb94
07f7
cafe
2413
5555
fb98
07fa
cafe
280c
5555
fb98
07f6
cafe
2c1c
5555
fb98
-
07f2
cafe
3004
5555
fb98
07f7
cafe
3414
5555
fb9c
07fa
cafe
380d
5555
fb9c
07f6
cafe
3c1d
5555
fb9c
07f2
cafe
2005
5555
fb9c
07f7
cafe
2415
5555
fba0
07fa
cafe
280e
5555
fba0
07f5
cafe
2c1e
5555
fba0
07f2
cafe
3006
5555
fba0
07f7
cafe
3416
5555
fba4
07fb
cafe
380f
5555
fba4
07f6
cafe
3c1f
5555
fba4
07f2
cafe
2007
5555
fba4
07f7
cafe
2417
5555
fba8
07fa
cafe
2808
5555
fba8
07f5
cafe
2c18
5555
fba8
07f2
cafe
3000
5555
fba8
07f6
cafe
3410
5555
fbac
07fa
cafe
3809
5555
fbac
07f5
cafe
3c19
5555
fbac
07f2
cafe
2001
5555
fbac
07f6
cafe
2411
5555
fbb0
07fa
cafe
280a
5555
fbb0
07f5
cafe
2c1a
5555
fbb0
07f2
cafe
3002
5555
fbb0
07f6
cafe
3412
5555
fbb4
07fa
cafe
380b
5555
fbb4
07f6
cafe
3c1b
5555
fbb4
07f2
cafe
2003
5555
fbb4
07f6
cafe
2413
5555
fbb8
07fb
cafe
280c
5555
fbb8
07f5
cafe
2c1c
5555
fbb8
07f3
cafe
3004
5555
fbb8
07f6
cafe
3414
5555
fbbc
07fa
cafe
380d
5555
fbbc
07f5
cafe
3c1d
5555
fbbc
07f2
cafe
2005
5555
fbbc
07f7
cafe
2415
5555
fbc0
07fa
cafe
280e
5555
fbc0
07f6
cafe
2c1e
5555
fbc0
07f2
cafe
3006
5555
fbc0
07f6
cafe
3416
5555
fbc4
07fa
cafe
380f
5555
fbc4
07f6
cafe
3c1f
5555
fbc4
07f2
cafe
2007
5555
fbc4
07f6
cafe
2417
5555
fbc8
07fa
cafe
2808
5555
fbc8
07f6
cafe
2c18
5555
fbc8
07f2
cafe
3000
5555
fbc8
07f6
cafe
3410
5555
fbcc
07fa
cafe
3809
5555
fbcc
07f5
-
cafe
3c19
5555
fbcc
07f2
cafe
2001
5555
fbcc
07f7
cafe
2411
5555
fbd0
07fa
cafe
280a
5555
fbd0
07f6
cafe
2c1a
5555
fbd0
07f2
cafe
3002
5555
fbd0
07f7
cafe
3412
5555
fbd4
07fa
cafe
380b
5555
fbd4
07f6
cafe
3c1b
5555
fbd4
07f2
cafe
2003
5555
fbd4
07f7
cafe
2413
5555
fbd8
07fa
cafe
280c
5555
fbd8
07f6
cafe
2c1c
5555
fbd8
07f2
cafe
3004
5555
fbd8
07f7
cafe
3414
5555
fbdc
07fa
cafe
380d
5555
fbdc
07f5
cafe
3c1d
5555
fbdc
07f2
cafe
2005
5555
fbdc
07f7
cafe
2415
5555
fbe0
07fa
cafe
280e
5555
fbe0
07f6
cafe
2c1e
5555
fbe0
07f2
cafe
3006
5555
fbe0
07f7
cafe
3416
5555
fbe4
07fb
cafe
380f
5555
fbe4
07f6
cafe
3c1f
5555
fbe4
07f2
cafe
2007
5555
fbe4
07f6
cafe
2417
5555
fbe8
07fa
cafe
2808
5555
fbe8
07f5
cafe
2c18
5555
fbe8
07f2
cafe
3000
5555
fbe8
07f7
cafe
3410
5555
fbec
07fa
cafe
3809
5555
fbec
07f6
cafe
3c19
5555
fbec
07f2
cafe
2001
5555
fbec
07f7
cafe
2411
5555
fbf0
07fa
cafe
280a
5555
fbf0
07f6
cafe
2c1a
5555
fbf0
07f2
cafe
3002
5555
fbf0
07f7
cafe
3412
5555
fbf4
07fa
cafe
380b
5555
fbf4
07f6
cafe
3c1b
5555
fbf4
07f3
cafe
2003
5555
fbf4
07f7
cafe
2413
5555
fbf8
07fa
cafe
280c
5555
fbf8
07f5
cafe
2c1c
5555
fbf8
07f2
cafe
3004
5555
fbf8
07f7
cafe
3414
5555
fbfc
07fa
cafe
380d
5555
fbfc
07f6
cafe
3c1d
5555
fbfc
07f2
cafe
2005
5555
fbfc
07f7
cafe
2415
5555
fc00
07fa
cafe
-
280e
5555
fc00
07f5
cafe
2c1e
5555
fc00
07f2
cafe
3006
5555
fc00
07f7
cafe
3416
5555
fc04
07fa
cafe
380f
5555
fc04
07f5
cafe
3c1f
5555
fc04
07f2
cafe
2007
5555
fc04
07f7
cafe
2417
5555
fc08
07fa
cafe
2808
5555
fc08
07f6
cafe
2c18
5555
fc08
07f2
cafe
3000
5555
fc08
07f7
cafe
3410
5555
fc0c
07fa
cafe
3809
5555
fc0c
07f6
cafe
3c19
5555
fc0c
07f2
cafe
2001
5555
fc0c
07f6
cafe
2411
5555
fc10
07fa
cafe
280a
5555
fc10
07f5
cafe
2c1a
5555
fc10
07f2
cafe
3002
5555
fc10
07f6
cafe
3412
5555
fc14
07fa
cafe
380b
5555
fc14
07f6
cafe
3c1b
5555
fc14
07f3
cafe
2003
5555
fc14
07f6
cafe
2413
5555
fc18
07fa
cafe
280c
5555
fc18
07f5
cafe
2c1c
5555
fc18
07f3
cafe
3004
5555
fc18
07f6
cafe
3414
5555
fc1c
07fa
cafe
380d
5555
fc1c
07f6
cafe
3c1d
5555
fc1c
07f2
cafe
2005
5555
fc1c
07f7
cafe
2415
5555
fc20
07fa
cafe
280e
5555
fc20
07f5
cafe
2c1e
5555
fc20
07f2
cafe
3006
5555
fc20
07f6
cafe
3416
5555
fc24
07fa
cafe
380f
5555
fc24
07f5
cafe
3c1f
5555
fc24
07f2
cafe
2007
5555
fc24
07f7
cafe
2417
5555
fc28
07fa
cafe
2808
5555
fc28
07f6
cafe
2c18
5555
fc28
07f2
cafe
3000
5555
fc28
07f7
cafe
3410
5555
fc2c
07fa
cafe
3809
5555
fc2c
07f6
cafe
3c19
5555
fc2c
07f2
cafe
2001
5555
fc2c
07f6
cafe
2411
5555
fc30
07fa
cafe
280a
5555
fc30
07f6
cafe
2c1a
5555
fc30
07f2
cafe
3002
5555
fc30
07f7
cafe
3412
-
5555
fc34
07fa
cafe
380b
5555
fc34
07f5
cafe
3c1b
5555
fc34
07f2
cafe
2003
5555
fc34
07f6
cafe
2413
5555
fc38
07fa
cafe
280c
5555
fc38
07f6
cafe
2c1c
5555
fc38
07f2
cafe
3004
5555
fc38
07f7
cafe
3414
5555
fc3c
07fa
cafe
380d
5555
fc3c
07f5
cafe
3c1d
5555
fc3c
07f2
cafe
2005
5555
fc3c
07f7
cafe
2415
5555
fc40
07fa
cafe
280e
5555
fc40
07f5
cafe
2c1e
5555
fc40
07f2
cafe
3006
5555
fc40
07f7
cafe
3416
5555
fc44
07fa
cafe
380f
5555
fc44
07f5
cafe
3c1f
5555
fc44
07f2
cafe
2007
5555
fc44
07f7
cafe
2417
5555
fc48
07fa
cafe
2808
5555
fc48
07f6
cafe
2c18
5555
fc48
07f3
cafe
3000
5555
fc48
07f7
cafe
3410
5555
fc4c
07fa
cafe
3809
5555
fc4c
07f6
cafe
3c19
5555
fc4c
07f2
cafe
2001
5555
fc4c
07f6
cafe
2411
5555
fc50
07fa
cafe
280a
5555
fc50
07f6
cafe
2c1a
5555
fc50
07f2
cafe
3002
5555
fc50
07f7
cafe
3412
5555
fc54
07fa
cafe
380b
5555
fc54
07f6
cafe
3c1b
5555
fc54
07f2
cafe
2003
5555
fc54
07f7
cafe
2413
5555
fc58
07fa
cafe
280c
5555
fc58
07f6
cafe
2c1c
5555
fc58
07f2
cafe
3004
5555
fc58
07f7
cafe
3414
5555
fc5c
07fb
cafe
380d
5555
fc5c
07f6
cafe
3c1d
5555
fc5c
07f2
cafe
2005
5555
fc5c
07f7
cafe
2415
5555
fc60
07fa
cafe
280e
5555
fc60
07f6
cafe
2c1e
5555
fc60
07f2
cafe
3006
5555
fc60
07f6
cafe
3416
5555
fc64
07fa
cafe
380f
5555
fc64
07f6
cafe
3c1f
5555
fc64
07f2
cafe
2007
5555
-
fc64
07f6
cafe
2417
5555
fc68
07fa
cafe
2808
5555
fc68
07f6
cafe
2c18
5555
fc68
07f2
cafe
3000
5555
fc68
07f7
cafe
3410
5555
fc6c
07fa
cafe
3809
5555
fc6c
07f6
cafe
3c19
5555
fc6c
07f2
cafe
2001
5555
fc6c
07f6
cafe
2411
5555
fc70
07fa
cafe
280a
5555
fc70
07f5
cafe
2c1a
5555
fc70
07f2
cafe
3002
5555
fc70
07f6
cafe
3412
5555
fc74
07fa
cafe
380b
5555
fc74
07f5
cafe
3c1b
5555
fc74
07f2
cafe
2003
5555
fc74
07f6
cafe
2413
5555
fc78
07fa
cafe
280c
5555
fc78
07f6
cafe
2c1c
5555
fc78
07f2
cafe
3004
5555
fc78
07f7
cafe
3414
5555
fc7c
07fa
cafe
380d
5555
fc7c
07f5
cafe
3c1d
5555
fc7c
07f2
cafe
2005
5555
fc7c
07f6
cafe
2415
5555
fc80
07fa
cafe
280e
5555
fc80
07f5
cafe
2c1e
5555
fc80
07f2
cafe
3006
5555
fc80
07f6
cafe
3416
5555
fc84
07fa
cafe
380f
5555
fc84
07f5
cafe
3c1f
5555
fc84
07f2
cafe
2007
5555
fc84
07f7
cafe
2417
5555
fc88
07fa
cafe
2808
5555
fc88
07f5
cafe
2c18
5555
fc88
07f2
cafe
3000
5555
fc88
07f6
cafe
3410
5555
fc8c
07fa
cafe
3809
5555
fc8c
07f5
cafe
3c19
5555
fc8c
07f2
cafe
2001
5555
fc8c
07f7
cafe
2411
5555
fc90
07fa
cafe
280a
5555
fc90
07f5
cafe
2c1a
5555
fc90
07f2
cafe
3002
5555
fc90
07f6
cafe
3412
5555
fc94
07fa
cafe
380b
5555
fc94
07f5
cafe
3c1b
5555
fc94
07f2
cafe
2003
5555
fc94
07f7
cafe
2413
5555
fc98
07fa
cafe
280c
5555
fc98
07f5
cafe
2c1c
5555
fc98
-
07f2
cafe
3004
5555
fc98
07f7
cafe
3414
5555
fc9c
07fa
cafe
380d
5555
fc9c
07f6
cafe
3c1d
5555
fc9c
07f2
cafe
2005
5555
fc9c
07f7
cafe
2415
5555
fca0
07fa
cafe
280e
5555
fca0
07f6
cafe
2c1e
5555
fca0
07f2
cafe
3006
5555
fca0
07f7
cafe
3416
5555
fca4
07fb
cafe
380f
5555
fca4
07f5
cafe
3c1f
5555
fca4
07f2
cafe
2007
5555
fca4
07f6
cafe
2417
5555
fca8
07fa
cafe
2808
5555
fca8
07f6
cafe
2c18
5555
fca8
07f2
cafe
3000
5555
fca8
07f6
cafe
3410
5555
fcac
07fa
cafe
3809
5555
fcac
07f6
cafe
3c19
5555
fcac
07f2
cafe
2001
5555
fcac
07f6
cafe
2411
5555
fcb0
07fa
cafe
280a
5555
fcb0
07f5
cafe
2c1a
5555
fcb0
07f2
cafe
3002
5555
fcb0
07f7
cafe
3412
5555
fcb4
07fa
cafe
380b
5555
fcb4
07f5
cafe
3c1b
5555
fcb4
07f2
cafe
2003
5555
fcb4
07f7
cafe
2413
5555
fcb8
07fa
cafe
280c
5555
fcb8
07f5
cafe
2c1c
5555
fcb8
07f2
cafe
3004
5555
fcb8
07f6
cafe
3414
5555
fcbc
07fa
cafe
380d
5555
fcbc
07f6
cafe
3c1d
5555
fcbc
07f2
cafe
2005
5555
fcbc
07f6
cafe
2415
5555
fcc0
07fa
cafe
280e
5555
fcc0
07f6
cafe
2c1e
5555
fcc0
07f2
cafe
3006
5555
fcc0
07f6
cafe
3416
5555
fcc4
07fa
cafe
380f
5555
fcc4
07f5
cafe
3c1f
5555
fcc4
07f2
cafe
2007
5555
fcc4
07f7
cafe
2417
5555
fcc8
07fa
cafe
2808
5555
fcc8
07f5
cafe
2c18
5555
fcc8
07f2
cafe
3000
5555
fcc8
07f6
cafe
3410
5555
fccc
07fa
cafe
3809
5555
fccc
07f5
-
cafe
3c19
5555
fccc
07f3
cafe
2001
5555
fccc
07f7
cafe
2411
5555
fcd0
07fa
cafe
280a
5555
fcd0
07f6
cafe
2c1a
5555
fcd0
07f2
cafe
3002
5555
fcd0
07f6
cafe
3412
5555
fcd4
07fa
cafe
380b
5555
fcd4
07f6
cafe
3c1b
5555
fcd4
07f2
cafe
2003
5555
fcd4
07f7
cafe
2413
5555
fcd8
07fa
cafe
280c
5555
fcd8
07f6
cafe
2c1c
5555
fcd8
07f2
cafe
3004
5555
fcd8
07f7
cafe
3414
5555
fcdc
07fa
cafe
380d
5555
fcdc
07f6
cafe
3c1d
5555
fcdc
07f2
cafe
2005
5555
fcdc
07f6
cafe
2415
5555
fce0
07fa
cafe
280e
5555
fce0
07f6
cafe
2c1e
5555
fce0
07f2
cafe
3006
5555
fce0
07f6
cafe
3416
5555
fce4
07fa
cafe
380f
5555
fce4
07f5
cafe
3c1f
5555
fce4
07f2
cafe
2007
5555
fce4
07f7
cafe
2417
5555
fce8
07fa
cafe
2808
5555
fce8
07f6
cafe
2c18
5555
fce8
07f2
cafe
3000
5555
fce8
07f7
cafe
3410
5555
fcec
07fa
cafe
3809
5555
fcec
07f5
cafe
3c19
5555
fcec
07f2
cafe
2001
5555
fcec
07f7
cafe
2411
5555
fcf0
07fa
cafe
280a
5555
fcf0
07f6
cafe
2c1a
5555
fcf0
07f2
cafe
3002
5555
fcf0
07f7
cafe
3412
5555
fcf4
07fa
cafe
380b
5555
fcf4
07f5
cafe
3c1b
5555
fcf4
07f2
cafe
2003
5555
fcf4
07f7
cafe
2413
5555
fcf8
07fa
cafe
280c
5555
fcf8
07f6
cafe
2c1c
5555
fcf8
07f2
cafe
3004
5555
fcf8
07f7
cafe
3414
5555
fcfc
07fa
cafe
380d
5555
fcfc
07f6
cafe
3c1d
5555
fcfc
07f2
cafe
2005
5555
fcfc
07f6
cafe
2415
5555
fd00
07fa
cafe
-
280e
5555
fd00
07f6
cafe
2c1e
5555
fd00
07f2
cafe
3006
5555
fd00
07f7
cafe
3416
5555
fd04
07fa
cafe
380f
5555
fd04
07f6
cafe
3c1f
5555
fd04
07f2
cafe
2007
5555
fd04
07f7
cafe
2417
5555
fd08
07fa
cafe
2808
5555
fd08
07f5
cafe
2c18
5555
fd08
07f2
cafe
3000
5555
fd08
07f7
cafe
3410
5555
fd0c
07fa
cafe
3809
5555
fd0c
07f5
cafe
3c19
5555
fd0c
07f3
cafe
2001
5555
fd0c
07f6
cafe
2411
5555
fd10
07fa
cafe
280a
5555
fd10
07f6
cafe
2c1a
5555
fd10
07f3
cafe
3002
5555
fd10
07f7
cafe
3412
5555
fd14
07fa
cafe
380b
5555
fd14
07f5
cafe
3c1b
5555
fd14
07f2
cafe
2003
5555
fd14
07f6
cafe
2413
5555
fd18
07fa
cafe
280c
5555
fd18
07f6
cafe
2c1c
5555
fd18
07f2
cafe
3004
5555
fd18
07f7
cafe
3414
5555
fd1c
07fb
cafe
380d
5555
fd1c
07f6
cafe
3c1d
5555
fd1c
07f2
cafe
2005
5555
fd1c
07f7
cafe
2415
5555
fd20
07fa
cafe
280e
5555
fd20
07f6
cafe
2c1e
5555
fd20
07f2
cafe
3006
5555
fd20
07f6
cafe
3416
5555
fd24
07fa
cafe
380f
5555
fd24
07f6
cafe
3c1f
5555
fd24
07f3
cafe
2007
5555
fd24
07f6
cafe
2417
5555
fd28
07fa
cafe
2808
5555
fd28
07f6
cafe
2c18
5555
fd28
07f2
cafe
3000
5555
fd28
07f7
cafe
3410
5555
fd2c
07fb
cafe
3809
5555
fd2c
07f5
cafe
3c19
5555
fd2c
07f2
cafe
2001
5555
fd2c
07f7
cafe
2411
5555
fd30
07fa
cafe
280a
5555
fd30
07f6
cafe
2c1a
5555
fd30
07f3
cafe
3002
5555
fd30
07f7
cafe
3412
-
5555
fd34
07fa
cafe
380b
5555
fd34
07f5
cafe
3c1b
5555
fd34
07f2
cafe
2003
5555
fd34
07f7
cafe
2413
5555
fd38
07fa
cafe
280c
5555
fd38
07f5
cafe
2c1c
5555
fd38
07f2
cafe
3004
5555
fd38
07f7
cafe
3414
5555
fd3c
07fa
cafe
380d
5555
fd3c
07f5
cafe
3c1d
5555
fd3c
07f2
cafe
2005
5555
fd3c
07f7
cafe
2415
5555
fd40
07fa
cafe
280e
5555
fd40
07f6
cafe
2c1e
5555
fd40
07f2
cafe
3006
5555
fd40
07f6
cafe
3416
5555
fd44
07fa
cafe
380f
5555
fd44
07f5
cafe
3c1f
5555
fd44
07f2
cafe
2007
5555
fd44
07f6
cafe
2417
5555
fd48
07fa
cafe
2808
5555
fd48
07f5
cafe
2c18
5555
fd48
07f2
cafe
3000
5555
fd48
07f6
cafe
3410
5555
fd4c
07fa
cafe
3809
5555
fd4c
07f5
cafe
3c19
5555
fd4c
07f2
cafe
2001
5555
fd4c
07f6
cafe
2411
5555
fd50
07fa
cafe
280a
5555
fd50
07f5
cafe
2c1a
5555
fd50
07f2
cafe
3002
5555
fd50
07f7
cafe
3412
5555
fd54
07fa
cafe
380b
5555
fd54
07f6
cafe
3c1b
5555
fd54
07f2
cafe
2003
5555
fd54
07f7
cafe
2413
5555
fd58
07fa
cafe
280c
5555
fd58
07f6
cafe
2c1c
5555
fd58
07f2
cafe
3004
5555
fd58
07f7
cafe
3414
5555
fd5c
07fa
cafe
380d
5555
fd5c
07f5
cafe
3c1d
5555
fd5c
07f2
cafe
2005
5555
fd5c
07f7
cafe
2415
5555
fd60
07fa
cafe
280e
5555
fd60
07f6
cafe
2c1e
5555
fd60
07f2
cafe
3006
5555
fd60
07f7
cafe
3416
5555
fd64
07fa
cafe
380f
5555
fd64
07f5
cafe
3c1f
5555
fd64
07f2
cafe
2007
5555
-
fd64
07f7
cafe
2417
5555
fd68
07fa
cafe
2808
5555
fd68
07f6
cafe
2c18
5555
fd68
07f2
cafe
3000
5555
fd68
07f7
cafe
3410
5555
fd6c
07fa
cafe
3809
5555
fd6c
07f6
cafe
3c19
5555
fd6c
07f2
cafe
2001
5555
fd6c
07f7
cafe
2411
5555
fd70
07fa
cafe
280a
5555
fd70
07f6
cafe
2c1a
5555
fd70
07f2
cafe
3002
5555
fd70
07f6
cafe
3412
5555
fd74
07fa
cafe
380b
5555
fd74
07f6
cafe
3c1b
5555
fd74
07f2
cafe
2003
5555
fd74
07f7
cafe
2413
5555
fd78
07fa
cafe
280c
5555
fd78
07f5
cafe
2c1c
5555
fd78
07f3
cafe
3004
5555
fd78
07f7
cafe
3414
5555
fd7c
07fa
cafe
380d
5555
fd7c
07f5
cafe
3c1d
5555
fd7c
07f2
cafe
2005
5555
fd7c
07f7
cafe
2415
5555
fd80
07fa
cafe
280e
5555
fd80
07f6
cafe
2c1e
5555
fd80
07f2
cafe
3006
5555
fd80
07f6
cafe
3416
5555
fd84
07fa
cafe
380f
5555
fd84
07f6
cafe
3c1f
5555
fd84
07f2
cafe
2007
5555
fd84
07f7
cafe
2417
5555
fd88
07fa
cafe
2808
5555
fd88
07f5
cafe
2c18
5555
fd88
07f2
cafe
3000
5555
fd88
07f6
cafe
3410
5555
fd8c
07fa
cafe
3809
5555
fd8c
07f5
cafe
3c19
5555
fd8c
07f3
cafe
2001
5555
fd8c
07f7
cafe
2411
5555
fd90
07fa
cafe
280a
5555
fd90
07f6
cafe
2c1a
5555
fd90
07f2
cafe
3002
5555
fd90
07f6
cafe
3412
5555
fd94
07fa
cafe
380b
5555
fd94
07f6
cafe
3c1b
5555
fd94
07f2
cafe
2003
5555
fd94
07f6
cafe
2413
5555
fd98
07fa
cafe
280c
5555
fd98
07f6
cafe
2c1c
5555
fd98
-
07f2
cafe
3004
5555
fd98
07f7
cafe
3414
5555
fd9c
07fa
cafe
380d
5555
fd9c
07f5
cafe
3c1d
5555
fd9c
07f2
cafe
2005
5555
fd9c
07f7
cafe
2415
5555
fda0
07fa
cafe
280e
5555
fda0
07f5
cafe
2c1e
5555
fda0
07f3
cafe
3006
5555
fda0
07f7
cafe
3416
5555
fda4
07fa
cafe
380f
5555
fda4
07f6
cafe
3c1f
5555
fda4
07f2
cafe
2007
5555
fda4
07f7
cafe
2417
5555
fda8
07fa
cafe
2808
5555
fda8
07f6
cafe
2c18
5555
fda8
07f2
cafe
3000
5555
fda8
07f7
cafe
3410
5555
fdac
07fa
cafe
3809
5555
fdac
07f6
cafe
3c19
5555
fdac
07f2
cafe
2001
5555
fdac
07f7
cafe
2411
5555
fdb0
07fa
cafe
280a
5555
fdb0
07f6
cafe
2c1a
5555
fdb0
07f2
cafe
3002
5555
fdb0
07f7
cafe
3412
5555
fdb4
07fa
cafe
380b
5555
fdb4
07f6
cafe
3c1b
5555
fdb4
07f2
cafe
2003
5555
fdb4
07f6
cafe
2413
5555
fdb8
07fa
cafe
280c
5555
fdb8
07f5
cafe
2c1c
5555
fdb8
07f2
cafe
3004
5555
fdb8
07f7
cafe
3414
5555
fdbc
07fa
cafe
380d
5555
fdbc
07f5
cafe
3c1d
5555
fdbc
07f2
cafe
2005
5555
fdbc
07f7
cafe
2415
5555
fdc0
07fa
cafe
280e
5555
fdc0
07f5
cafe
2c1e
5555
fdc0
07f2
cafe
3006
5555
fdc0
07f6
cafe
3416
5555
fdc4
07fa
cafe
380f
5555
fdc4
07f6
cafe
3c1f
5555
fdc4
07f2
cafe
2007
5555
fdc4
07f6
cafe
2417
5555
fdc8
07fa
cafe
2808
5555
fdc8
07f5
cafe
2c18
5555
fdc8
07f2
cafe
3000
5555
fdc8
07f6
cafe
3410
5555
fdcc
07fa
cafe
3809
5555
fdcc
07f6
-
cafe
3c19
5555
fdcc
07f2
cafe
2001
5555
fdcc
07f6
cafe
2411
5555
fdd0
07fa
cafe
280a
5555
fdd0
07f5
cafe
2c1a
5555
fdd0
07f2
cafe
3002
5555
fdd0
07f7
cafe
3412
5555
fdd4
07fa
cafe
380b
5555
fdd4
07f5
cafe
3c1b
5555
fdd4
07f2
cafe
2003
5555
fdd4
07f7
cafe
2413
5555
fdd8
07fa
cafe
280c
5555
fdd8
07f6
cafe
2c1c
5555
fdd8
07f2
cafe
3004
5555
fdd8
07f6
cafe
3414
5555
fddc
07fa
cafe
380d
5555
fddc
07f5
cafe
3c1d
5555
fddc
07f2
cafe
2005
5555
fddc
07f7
cafe
2415
5555
fde0
07fa
cafe
280e
5555
fde0
07f6
cafe
2c1e
5555
fde0
07f2
cafe
3006
5555
fde0
07f6
cafe
3416
5555
fde4
07fa
cafe
380f
5555
fde4
07f5
cafe
3c1f
5555
fde4
07f2
cafe
2007
5555
fde4
07f7
cafe
2417
5555
fde8
07fa
cafe
2808
5555
fde8
07f6
cafe
2c18
5555
fde8
07f2
cafe
3000
5555
fde8
07f6
cafe
3410
5555
fdec
07fa
cafe
3809
5555
fdec
07f6
cafe
3c19
5555
fdec
07f2
cafe
2001
5555
fdec
07f7
cafe
2411
5555
fdf0
07fa
cafe
280a
5555
fdf0
07f6
cafe
2c1a
5555
fdf0
07f2
cafe
3002
5555
fdf0
07f7
cafe
3412
5555
fdf4
07fa
cafe
380b
5555
fdf4
07f5
cafe
3c1b
5555
fdf4
07f2
cafe
2003
5555
fdf4
07f7
cafe
2413
5555
fdf8
07fa
cafe
280c
5555
fdf8
07f6
cafe
2c1c
5555
fdf8
07f2
cafe
3004
5555
fdf8
07f6
cafe
3414
5555
fdfc
07fa
cafe
380d
5555
fdfc
07f6
cafe
3c1d
5555
fdfc
07f2
cafe
2005
5555
fdfc
07f7
cafe
2415
5555
fe00
07fa
cafe
-
280e
5555
fe00
07f6
cafe
2c1e
5555
fe00
07f2
cafe
3006
5555
fe00
07f7
cafe
3416
5555
fe04
07fa
cafe
380f
5555
fe04
07f5
cafe
3c1f
5555
fe04
07f2
cafe
2007
5555
fe04
07f7
cafe
2417
5555
fe08
07fa
cafe
2808
5555
fe08
07f6
cafe
2c18
5555
fe08
07f2
cafe
3000
5555
fe08
07f7
cafe
3410
5555
fe0c
07fa
cafe
3809
5555
fe0c
07f6
cafe
3c19
5555
fe0c
07f2
cafe
2001
5555
fe0c
07f7
cafe
2411
5555
fe10
07fa
cafe
280a
5555
fe10
07f5
cafe
2c1a
5555
fe10
07f2
cafe
3002
5555
fe10
07f6
cafe
3412
5555
fe14
07fa
cafe
380b
5555
fe14
07f6
cafe
3c1b
5555
fe14
07f2
cafe
2003
5555
fe14
07f7
cafe
2413
5555
fe18
07fa
cafe
280c
5555
fe18
07f5
cafe
2c1c
5555
fe18
07f2
cafe
3004
5555
fe18
07f6
cafe
3414
5555
fe1c
07fa
cafe
380d
5555
fe1c
07f6
cafe
3c1d
5555
fe1c
07f2
cafe
2005
5555
fe1c
07f6
cafe
2415
5555
fe20
07fa
cafe
280e
5555
fe20
07f5
cafe
2c1e
5555
fe20
07f2
cafe
3006
5555
fe20
07f7
cafe
3416
5555
fe24
07fa
cafe
380f
5555
fe24
07f6
cafe
3c1f
5555
fe24
07f3
cafe
2007
5555
fe24
07f6
cafe
2417
5555
fe28
07fa
cafe
2808
5555
fe28
07f5
cafe
2c18
5555
fe28
07f2
cafe
3000
5555
fe28
07f7
cafe
3410
5555
fe2c
07fa
cafe
3809
5555
fe2c
07f6
cafe
3c19
5555
fe2c
07f2
cafe
2001
5555
fe2c
07f6
cafe
2411
5555
fe30
07fa
cafe
280a
5555
fe30
07f5
cafe
2c1a
5555
fe30
07f2
cafe
3002
5555
fe30
07f7
cafe
3412
-
5555
fe34
07fa
cafe
380b
5555
fe34
07f5
cafe
3c1b
5555
fe34
07f2
cafe
2003
5555
fe34
07f6
cafe
2413
5555
fe38
07fa
cafe
280c
5555
fe38
07f6
cafe
2c1c
5555
fe38
07f2
cafe
3004
5555
fe38
07f6
cafe
3414
5555
fe3c
07fa
cafe
380d
5555
fe3c
07f6
cafe
3c1d
5555
fe3c
07f2
cafe
2005
5555
fe3c
07f6
cafe
2415
5555
fe40
07fa
cafe
280e
5555
fe40
07f6
cafe
2c1e
5555
fe40
07f2
cafe
3006
5555
fe40
07f6
cafe
3416
5555
fe44
07fa
cafe
380f
5555
fe44
07f6
cafe
3c1f
5555
fe44
07f2
cafe
2007
5555
fe44
07f7
cafe
2417
5555
fe48
07fa
cafe
2808
5555
fe48
07f6
cafe
2c18
5555
fe48
07f2
cafe
3000
5555
fe48
07f6
cafe
3410
5555
fe4c
07fa
cafe
3809
5555
fe4c
07f5
cafe
3c19
5555
fe4c
07f3
cafe
2001
5555
fe4c
07f7
cafe
2411
5555
fe50
07fa
cafe
280a
5555
fe50
07f6
cafe
2c1a
5555
fe50
07f2
cafe
3002
5555
fe50
07f6
cafe
3412
5555
fe54
07fa
cafe
380b
5555
fe54
07f6
cafe
3c1b
5555
fe54
07f2
cafe
2003
5555
fe54
07f7
cafe
2413
5555
fe58
07fa
cafe
280c
5555
fe58
07f5
cafe
2c1c
5555
fe58
07f2
cafe
3004
5555
fe58
07f6
cafe
3414
5555
fe5c
07fa
cafe
380d
5555
fe5c
07f5
cafe
3c1d
5555
fe5c
07f2
cafe
2005
5555
fe5c
07f7
cafe
2415
5555
fe60
07fa
cafe
280e
5555
fe60
07f5
cafe
2c1e
5555
fe60
07f2
cafe
3006
5555
fe60
07f6
cafe
3416
5555
fe64
07fa
cafe
380f
5555
fe64
07f5
cafe
3c1f
5555
fe64
07f2
cafe
2007
5555
-
fe64
07f7
cafe
2417
5555
fe68
07fa
cafe
2808
5555
fe68
07f6
cafe
2c18
5555
fe68
07f2
cafe
3000
5555
fe68
07f6
cafe
3410
5555
fe6c
07fa
cafe
3809
5555
fe6c
07f6
cafe
3c19
5555
fe6c
07f2
cafe
2001
5555
fe6c
07f7
cafe
2411
5555
fe70
07fa
cafe
280a
5555
fe70
07f6
cafe
2c1a
5555
fe70
07f2
cafe
3002
5555
fe70
07f7
cafe
3412
5555
fe74
07fa
cafe
380b
5555
fe74
07f6
cafe
3c1b
5555
fe74
07f2
cafe
2003
5555
fe74
07f6
cafe
2413
5555
fe78
07fa
cafe
280c
5555
fe78
07f5
cafe
2c1c
5555
fe78
07f2
cafe
3004
5555
fe78
07f7
cafe
3414
5555
fe7c
07fa
cafe
380d
5555
fe7c
07f6
cafe
3c1d
5555
fe7c
07f3
cafe
2005
5555
fe7c
07f7
cafe
2415
5555
fe80
07fa
cafe
280e
5555
fe80
07f5
cafe
2c1e
5555
fe80
07f3
cafe
3006
5555
fe80
07f7
cafe
3416
5555
fe84
07fa
cafe
380f
5555
fe84
07f6
cafe
3c1f
5555
fe84
07f2
cafe
2007
5555
fe84
07f7
cafe
2417
5555
fe88
07fa
cafe
2808
5555
fe88
07f6
cafe
2c18
5555
fe88
07f2
cafe
3000
5555
fe88
07f7
cafe
3410
5555
fe8c
07fa
cafe
3809
5555
fe8c
07f6
cafe
3c19
5555
fe8c
07f2
cafe
2001
5555
fe8c
07f7
cafe
2411
5555
fe90
07fa
cafe
280a
5555
fe90
07f6
cafe
2c1a
5555
fe90
07f2
cafe
3002
5555
fe90
07f7
cafe
3412
5555
fe94
07fa
cafe
380b
5555
fe94
07f6
cafe
3c1b
5555
fe94
07f2
cafe
2003
5555
fe94
07f7
cafe
2413
5555
fe98
07fa
cafe
280c
5555
fe98
07f5
cafe
2c1c
5555
fe98
-
07f2
cafe
3004
5555
fe98
07f6
cafe
3414
5555
fe9c
07fa
cafe
380d
5555
fe9c
07f5
cafe
3c1d
5555
fe9c
07f2
cafe
2005
5555
fe9c
07f6
cafe
2415
5555
fea0
07fa
cafe
280e
5555
fea0
07f5
cafe
2c1e
5555
fea0
07f2
cafe
3006
5555
fea0
07f7
cafe
3416
5555
fea4
07fa
cafe
380f
5555
fea4
07f6
cafe
3c1f
5555
fea4
07f2
cafe
2007
5555
fea4
07f7
cafe
2417
5555
fea8
07fa
cafe
2808
5555
fea8
07f5
cafe
2c18
5555
fea8
07f2
cafe
3000
5555
fea8
07f7
cafe
3410
5555
feac
07fa
cafe
3809
5555
feac
07f6
cafe
3c19
5555
feac
07f2
cafe
2001
5555
feac
07f6
cafe
2411
5555
feb0
07fa
cafe
280a
5555
feb0
07f6
cafe
2c1a
5555
feb0
07f2
cafe
3002
5555
feb0
07f6
cafe
3412
5555
feb4
07fa
cafe
380b
5555
feb4
07f5
cafe
3c1b
5555
feb4
07f2
cafe
2003
5555
feb4
07f6
cafe
2413
5555
feb8
07fa
cafe
280c
5555
feb8
07f6
cafe
2c1c
5555
feb8
07f2
cafe
3004
5555
feb8
07f7
cafe
3414
5555
febc
07fa
cafe
380d
5555
febc
07f6
cafe
3c1d
5555
febc
07f2
cafe
2005
5555
febc
07f6
cafe
2415
5555
fec0
07fa
cafe
280e
5555
fec0
07f5
cafe
2c1e
5555
fec0
07f2
cafe
3006
5555
fec0
07f7
cafe
3416
5555
fec4
07fa
cafe
380f
5555
fec4
07f6
cafe
3c1f
5555
fec4
07f2
cafe
2007
5555
fec4
07f6
cafe
2417
5555
fec8
07fa
cafe
2808
5555
fec8
07f6
cafe
2c18
5555
fec8
07f2
cafe
3000
5555
fec8
07f6
cafe
3410
5555
fecc
07fa
cafe
3809
5555
fecc
07f6
-
cafe
3c19
5555
fecc
07f3
cafe
2001
5555
fecc
07f7
cafe
2411
5555
fed0
07fa
cafe
280a
5555
fed0
07f5
cafe
2c1a
5555
fed0
07f2
cafe
3002
5555
fed0
07f7
cafe
3412
5555
fed4
07fa
cafe
380b
5555
fed4
07f6
cafe
3c1b
5555
fed4
07f2
cafe
2003
5555
fed4
07f6
cafe
2413
5555
fed8
07fa
cafe
280c
5555
fed8
07f6
cafe
2c1c
5555
fed8
07f2
cafe
3004
5555
fed8
07f6
cafe
3414
5555
fedc
07fa
cafe
380d
5555
fedc
07f6
cafe
3c1d
5555
fedc
07f2
cafe
2005
5555
fedc
07f6
cafe
2415
5555
fee0
07fa
cafe
280e
5555
fee0
07f5
cafe
2c1e
5555
fee0
07f2
cafe
3006
5555
fee0
07f6
cafe
3416
5555
fee4
07fa
cafe
380f
5555
fee4
07f6
cafe
3c1f
5555
fee4
07f2
cafe
2007
5555
fee4
07f7
cafe
2417
5555
fee8
07fa
cafe
2808
5555
fee8
07f5
cafe
2c18
5555
fee8
07f2
cafe
3000
5555
fee8
07f7
cafe
3410
5555
feec
07fa
cafe
3809
5555
feec
07f6
cafe
3c19
5555
feec
07f2
cafe
2001
5555
feec
07f7
cafe
2411
5555
fef0
07fa
cafe
280a
5555
fef0
07f5
cafe
2c1a
5555
fef0
07f2
cafe
3002
5555
fef0
07f7
cafe
3412
5555
fef4
07fa
cafe
380b
5555
fef4
07f6
cafe
3c1b
5555
fef4
07f2
cafe
2003
5555
fef4
07f7
cafe
2413
5555
fef8
07fa
cafe
280c
5555
fef8
07f6
cafe
2c1c
5555
fef8
07f2
cafe
3004
5555
fef8
07f7
cafe
3414
5555
fefc
07fa
cafe
380d
5555
fefc
07f6
cafe
3c1d
5555
fefc
07f2
cafe
2005
5555
fefc
07f6
cafe
2415
5555
ff00
07fa
cafe
-
280e
5555
ff00
07f5
cafe
2c1e
5555
ff00
07f2
cafe
3006
5555
ff00
07f7
cafe
3416
5555
ff04
07fa
cafe
380f
5555
ff04
07f6
cafe
3c1f
5555
ff04
07f2
cafe
2007
5555
ff04
07f6
cafe
2417
5555
ff08
07f9
cafe
2808
5555
ff08
07f6
cafe
2c18
5555
ff08
07f2
cafe
3000
5555
ff08
07f7
cafe
3410
5555
ff0c
07fa
cafe
3809
5555
ff0c
07f5
cafe
3c19
5555
ff0c
07f2
cafe
2001
5555
ff0c
07f6
cafe
2411
5555
ff10
07fa
cafe
280a
5555
ff10
07f6
cafe
2c1a
5555
ff10
07f2
cafe
3002
5555
ff10
07f7
cafe
3412
5555
ff14
07fa
cafe
380b
5555
ff14
07f5
cafe
3c1b
5555
ff14
07f2
cafe
2003
5555
ff14
07f7
cafe
2413
5555
ff18
07fa
cafe
280c
5555
ff18
07f6
cafe
2c1c
5555
ff18
07f2
cafe
3004
5555
ff18
07f6
cafe
3414
5555
ff1c
07f9
cafe
380d
5555
ff1c
07f5
cafe
3c1d
5555
ff1c
07f2
cafe
2005
5555
ff1c
07f6
cafe
2415
5555
ff20
07fa
cafe
280e
5555
ff20
07f6
cafe
2c1e
5555
ff20
07f2
cafe
3006
5555
ff20
07f6
cafe
3416
5555
ff24
07fa
cafe
380f
5555
ff24
07f6
cafe
3c1f
5555
ff24
07f2
cafe
2007
5555
ff24
07f6
cafe
2417
5555
ff28
07fa
cafe
2808
5555
ff28
07f6
cafe
2c18
5555
ff28
07f2
cafe
3000
5555
ff28
07f6
cafe
3410
5555
ff2c
07fa
cafe
3809
5555
ff2c
07f6
cafe
3c19
5555
ff2c
07f2
cafe
2001
5555
ff2c
07f6
cafe
2411
5555
ff30
07fa
cafe
280a
5555
ff30
07f6
cafe
2c1a
5555
ff30
07f2
cafe
3002
5555
ff30
07f6
cafe
3412
-
5555
ff34
07fa
cafe
380b
5555
ff34
07f6
cafe
3c1b
5555
ff34
07f2
cafe
2003
5555
ff34
07f7
cafe
2413
5555
ff38
07fa
cafe
280c
5555
ff38
07f6
cafe
2c1c
5555
ff38
07f2
cafe
3004
5555
ff38
07f7
cafe
3414
5555
ff3c
07fa
cafe
380d
5555
ff3c
07f6
cafe
3c1d
5555
ff3c
07f2
cafe
2005
5555
ff3c
07f7
cafe
2415
5555
ff40
07fa
cafe
280e
5555
ff40
07f5
cafe
2c1e
5555
ff40
07f2
cafe
3006
5555
ff40
07f7
cafe
3416
5555
ff44
07fa
cafe
380f
5555
ff44
07f6
cafe
3c1f
5555
ff44
07f2
cafe
2007
5555
ff44
07f6
cafe
2417
5555
ff48
07fa
cafe
2808
5555
ff48
07f6
cafe
2c18
5555
ff48
07f2
cafe
3000
5555
ff48
07f7
cafe
3410
5555
ff4c
07fa
cafe
3809
5555
ff4c
07f6
cafe
3c19
5555
ff4c
07f2
cafe
2001
5555
ff4c
07f7
cafe
2411
5555
ff50
07fa
cafe
280a
5555
ff50
07f6
cafe
2c1a
5555
ff50
07f2
cafe
3002
5555
ff50
07f7
cafe
3412
5555
ff54
07fa
cafe
380b
5555
ff54
07f5
cafe
3c1b
5555
ff54
07f2
cafe
2003
5555
ff54
07f6
cafe
2413
5555
ff58
07fa
cafe
280c
5555
ff58
07f6
cafe
2c1c
5555
ff58
07f2
cafe
3004
5555
ff58
07f7
cafe
3414
5555
ff5c
07fa
cafe
380d
5555
ff5c
07f5
cafe
3c1d
5555
ff5c
07f2
cafe
2005
5555
ff5c
07f7
cafe
2415
5555
ff60
07fa
cafe
280e
5555
ff60
07f5
cafe
2c1e
5555
ff60
07f2
cafe
3006
5555
ff60
07f7
cafe
3416
5555
ff64
07fa
cafe
380f
5555
ff64
07f6
cafe
3c1f
5555
ff64
07f2
cafe
2007
5555
-
ff64
07f7
cafe
2417
5555
ff68
07fa
cafe
2808
5555
ff68
07f6
cafe
2c18
5555
ff68
07f2
cafe
3000
5555
ff68
07f6
cafe
3410
5555
ff6c
07fa
cafe
3809
5555
ff6c
07f6
cafe
3c19
5555
ff6c
07f2
cafe
2001
5555
ff6c
07f7
cafe
2411
5555
ff70
07fa
cafe
280a
5555
ff70
07f6
cafe
2c1a
5555
ff70
07f2
cafe
3002
5555
ff70
07f7
cafe
3412
5555
ff74
07fa
cafe
380b
5555
ff74
07f6
cafe
3c1b
5555
ff74
07f2
cafe
2003
5555
ff74
07f7
cafe
2413
5555
ff78
07fa
cafe
280c
5555
ff78
07f5
cafe
2c1c
5555
ff78
07f2
cafe
3004
5555
ff78
07f7
cafe
3414
5555
ff7c
07fa
cafe
380d
5555
ff7c
07f5
cafe
3c1d
5555
ff7c
07f2
cafe
2005
5555
ff7c
07f7
cafe
2415
5555
ff80
07fa
cafe
280e
5555
ff80
07f6
cafe
2c1e
5555
ff80
07f2
cafe
3006
5555
ff80
07f6
cafe
3416
5555
ff84
07fa
cafe
380f
5555
ff84
07f6
cafe
3c1f
5555
ff84
07f2
cafe
2007
5555
ff84
07f7
cafe
2417
5555
ff88
07fa
cafe
2808
5555
ff88
07f5
cafe
2c18
5555
ff88
07f2
cafe
3000
5555
ff88
07f6
cafe
3410
5555
ff8c
07fa
cafe
3809
5555
ff8c
07f5
cafe
3c19
5555
ff8c
07f2
cafe
2001
5555
ff8c
07f6
cafe
2411
5555
ff90
07fa
cafe
280a
5555
ff90
07f6
cafe
2c1a
5555
ff90
07f2
cafe
3002
5555
ff90
07f7
cafe
3412
5555
ff94
07fa
cafe
380b
5555
ff94
07f5
cafe
3c1b
5555
ff94
07f2
cafe
2003
5555
ff94
07f6
cafe
2413
5555
ff98
07fa
cafe
280c
5555
ff98
07f5
cafe
2c1c
5555
ff98
-
07f2
cafe
3004
5555
ff98
07f6
cafe
3414
5555
ff9c
07fa
cafe
380d
5555
ff9c
07f6
cafe
3c1d
5555
ff9c
07f2
cafe
2005
5555
ff9c
07f6
cafe
2415
5555
ffa0
07fa
cafe
280e
5555
ffa0
07f5
cafe
2c1e
5555
ffa0
07f2
cafe
3006
5555
ffa0
07f7
cafe
3416
5555
ffa4
07fa
cafe
380f
5555
ffa4
07f5
cafe
3c1f
5555
ffa4
07f2
cafe
2007
5555
ffa4
07f7
cafe
2417
5555
ffa8
07fa
cafe
2808
5555
ffa8
07f6
cafe
2c18
5555
ffa8
07f2
cafe
3000
5555
ffa8
07f7
cafe
3410
5555
ffac
07fa
cafe
3809
5555
ffac
07f5
cafe
3c19
5555
ffac
07f2
cafe
2001
5555
ffac
07f7
cafe
2411
5555
ffb0
07fa
cafe
280a
5555
ffb0
07f6
cafe
2c1a
5555
ffb0
07f3
cafe
3002
5555
ffb0
07f7
cafe
3412
5555
ffb4
07fa
cafe
380b
5555
ffb4
07f5
cafe
3c1b
5555
ffb4
07f3
cafe
2003
5555
ffb4
07f6
cafe
2413
5555
ffb8
07fa
cafe
280c
5555
ffb8
07f5
cafe
2c1c
5555
ffb8
07f2
cafe
3004
5555
ffb8
07f6
cafe
3414
5555
ffbc
07fa
cafe
380d
5555
ffbc
07f6
cafe
3c1d
5555
ffbc
07f2
cafe
2005
5555
ffbc
07f6
cafe
2415
5555
ffc0
07fa
cafe
280e
5555
ffc0
07f5
cafe
2c1e
5555
ffc0
07f2
cafe
3006
5555
ffc0
07f6
cafe
3416
5555
ffc4
07fa
cafe
380f
5555
ffc4
07f5
cafe
3c1f
5555
ffc4
07f2
cafe
2007
5555
ffc4
07f7
cafe
2417
5555
ffc8
07fa
cafe
2808
5555
ffc8
07f5
cafe
2c18
5555
ffc8
07f2
cafe
3000
5555
ffc8
07f7
cafe
3410
5555
ffcc
07fa
cafe
3809
5555
ffcc
07f6
-
cafe
3c19
5555
ffcc
07f2
cafe
2001
5555
ffcc
07f6
cafe
2411
5555
ffd0
07fa
cafe
280a
5555
ffd0
07f6
cafe
2c1a
5555
ffd0
07f3
cafe
3002
5555
ffd0
07f6
cafe
3412
5555
ffd4
07fa
cafe
380b
5555
ffd4
07f6
cafe
3c1b
5555
ffd4
07f2
cafe
2003
5555
ffd4
07f6
cafe
2413
5555
ffd8
07fa
cafe
280c
5555
ffd8
07f5
cafe
2c1c
5555
ffd8
07f2
cafe
3004
5555
ffd8
07f7
cafe
3414
5555
ffdc
07fa
cafe
380d
5555
ffdc
07f6
cafe
3c1d
5555
ffdc
07f2
cafe
2005
5555
ffdc
07f7
cafe
2415
5555
ffe0
07fa
cafe
280e
5555
ffe0
07f6
cafe
2c1e
5555
ffe0
07f2
cafe
3006
5555
ffe0
07f6
cafe
3416
5555
ffe4
07fa
cafe
380f
5555
ffe4
07f6
cafe
3c1f
5555
ffe4
07f2
cafe
2007
5555
ffe4
07f7
cafe
2417
5555
ffe8
07fa
cafe
2808
5555
ffe8
07f5
cafe
2c18
5555
ffe8
07f2
cafe
3000
5555
ffe8
07f6
cafe
3410
5555
ffec
07fa
cafe
3809
5555
ffec
07f6
cafe
3c19
5555
ffec
07f2
cafe
2001
5555
ffec
07f7
cafe
2411
5555
fff0
07fa
cafe
280a
5555
fff0
07f5
cafe
2c1a
5555
fff0
07f2
cafe
3002
5555
fff0
07f7
cafe
3412
5555
fff4
07fa
cafe
380b
5555
fff4
07f5
cafe
3c1b
5555
fff4
07f2
cafe
2003
5555
fff4
07f6
cafe
2413
5555
fff8
07fa
cafe
280c
5555
fff8
07f6
cafe
2c1c
5555
fff8
07f2
cafe
3004
5555
fff8
07f6
cafe
3414
5555
fffc
07fa
cafe
380d
5555
fffc
07f6
cafe
3c1d
5555
fffc
07f3
cafe
2005
5555
fffc
07f6
cafe
2415
5556
0000
07fa
cafe
-
280e
5556
0000
07f6
cafe
2c1e
5556
0000
07f3
cafe
3006
5556
0000
07f7
cafe
3416
5556
0004
07fa
cafe
380f
5556
0004
07f6
cafe
3c1f
5556
0004
07f2
cafe
2007
5556
0004
07f6
cafe
2417
5556
0008
07fa
cafe
2808
5556
0008
07f6
cafe
2c18
5556
0008
07f2
cafe
3000
5556
0008
07f7
cafe
3410
5556
000c
07fa
cafe
3809
5556
000c
07f6
cafe
3c19
5556
000c
07f2
cafe
2001
5556
000c
07f6
cafe
2411
5556
0010
07fa
cafe
280a
5556
0010
07f6
cafe
2c1a
5556
0010
07f2
cafe
3002
5556
0010
07f6
cafe
3412
5556
0014
07fa
cafe
380b
5556
0014
07f6
cafe
3c1b
5556
0014
07f2
cafe
2003
5556
0014
07f7
cafe
2413
5556
0018
07fa
cafe
280c
5556
0018
07f6
cafe
2c1c
5556
0018
07f2
cafe
3004
5556
0018
07f6
cafe
3414
5556
001c
07fa
cafe
380d
5556
001c
07f5
cafe
3c1d
5556
001c
07f2
cafe
2005
5556
001c
07f7
cafe
2415
5556
0020
07fa
cafe
280e
5556
0020
07f5
cafe
2c1e
5556
0020
07f2
cafe
3006
5556
0020
07f6
cafe
3416
5556
0024
07fa
cafe
380f
5556
0024
07f6
cafe
3c1f
5556
0024
07f2
cafe
2007
5556
0024
07f6
cafe
2417
5556
0028
07fa
cafe
2808
5556
0028
07f5
cafe
2c18
5556
0028
07f2
cafe
3000
5556
0028
07f7
cafe
3410
5556
002c
07fa
cafe
3809
5556
002c
07f6
cafe
3c19
5556
002c
07f2
cafe
2001
5556
002c
07f6
cafe
2411
5556
0030
07fa
cafe
280a
5556
0030
07f5
cafe
2c1a
5556
0030
07f2
cafe
3002
5556
0030
07f7
cafe
3412
-
5556
0034
07fb
cafe
380b
5556
0034
07f5
cafe
3c1b
5556
0034
07f2
cafe
2003
5556
0034
07f6
cafe
2413
5556
0038
07fa
cafe
280c
5556
0038
07f6
cafe
2c1c
5556
0038
07f2
cafe
3004
5556
0038
07f7
cafe
3414
5556
003c
07fa
cafe
380d
5556
003c
07f5
cafe
3c1d
5556
003c
07f2
cafe
2005
5556
003c
07f7
cafe
2415
5556
0040
07fa
cafe
280e
5556
0040
07f6
cafe
2c1e
5556
0040
07f2
cafe
3006
5556
0040
07f7
cafe
3416
5556
0044
07fa
cafe
380f
5556
0044
07f6
cafe
3c1f
5556
0044
07f2
cafe
2007
5556
0044
07f6
cafe
2417
5556
0048
07fa
cafe
2808
5556
0048
07f5
cafe
2c18
5556
0048
07f3
cafe
3000
5556
0048
07f6
cafe
3410
5556
004c
07fa
cafe
3809
5556
004c
07f5
cafe
3c19
5556
004c
07f3
cafe
2001
5556
004c
07f7
cafe
2411
5556
0050
07fa
cafe
280a
5556
0050
07f6
cafe
2c1a
5556
0050
07f2
cafe
3002
5556
0050
07f6
cafe
3412
5556
0054
07fa
cafe
380b
5556
0054
07f5
cafe
3c1b
5556
0054
07f2
cafe
2003
5556
0054
07f7
cafe
2413
5556
0058
07fa
cafe
280c
5556
0058
07f6
cafe
2c1c
5556
0058
07f2
cafe
3004
5556
0058
07f6
cafe
3414
5556
005c
07fa
cafe
380d
5556
005c
07f6
cafe
3c1d
5556
005c
07f2
cafe
2005
5556
005c
07f7
cafe
2415
5556
0060
07fa
cafe
280e
5556
0060
07f5
cafe
2c1e
5556
0060
07f2
cafe
3006
5556
0060
07f6
cafe
3416
5556
0064
07fa
cafe
380f
5556
0064
07f5
cafe
3c1f
5556
0064
07f3
cafe
2007
5556
-
0064
07f7
cafe
2417
5556
0068
07fa
cafe
2808
5556
0068
07f6
cafe
2c18
5556
0068
07f2
cafe
3000
5556
0068
07f6
cafe
3410
5556
006c
07fa
cafe
3809
5556
006c
07f6
cafe
3c19
5556
006c
07f3
cafe
2001
5556
006c
07f7
cafe
2411
5556
0070
07fa
cafe
280a
5556
0070
07f5
cafe
2c1a
5556
0070
07f2
cafe
3002
5556
0070
07f6
cafe
3412
5556
0074
07fa
cafe
380b
5556
0074
07f5
cafe
3c1b
5556
0074
07f2
cafe
2003
5556
0074
07f7
cafe
2413
5556
0078
07fa
cafe
280c
5556
0078
07f6
cafe
2c1c
5556
0078
07f2
cafe
3004
5556
0078
07f6
cafe
3414
5556
007c
07fa
cafe
380d
5556
007c
07f5
cafe
3c1d
5556
007c
07f2
cafe
2005
5556
007c
07f6
cafe
2415
5556
0080
07fa
cafe
280e
5556
0080
07f5
cafe
2c1e
5556
0080
07f2
cafe
3006
5556
0080
07f6
cafe
3416
5556
0084
07fa
cafe
380f
5556
0084
07f6
cafe
3c1f
5556
0084
07f2
cafe
2007
5556
0084
07f7
cafe
2417
5556
0088
07fa
cafe
2808
5556
0088
07f5
cafe
2c18
5556
0088
07f2
cafe
3000
5556
0088
07f7
cafe
3410
5556
008c
07fa
cafe
3809
5556
008c
07f6
cafe
3c19
5556
008c
07f2
cafe
2001
5556
008c
07f6
cafe
2411
5556
0090
07fa
cafe
280a
5556
0090
07f5
cafe
2c1a
5556
0090
07f2
cafe
3002
5556
0090
07f6
cafe
3412
5556
0094
07fa
cafe
380b
5556
0094
07f6
cafe
3c1b
5556
0094
07f2
cafe
2003
5556
0094
07f7
cafe
2413
5556
0098
07fa
cafe
280c
5556
0098
07f6
cafe
2c1c
5556
0098
-
07f2
cafe
3004
5556
0098
07f6
cafe
3414
5556
009c
07fa
cafe
380d
5556
009c
07f5
cafe
3c1d
5556
009c
07f2
cafe
2005
5556
009c
07f7
cafe
2415
5556
00a0
07fa
cafe
280e
5556
00a0
07f6
cafe
2c1e
5556
00a0
07f2
cafe
3006
5556
00a0
07f7
cafe
3416
5556
00a4
07fa
cafe
380f
5556
00a4
07f5
cafe
3c1f
5556
00a4
07f2
cafe
2007
5556
00a4
07f7
cafe
2417
5556
00a8
07fa
cafe
2808
5556
00a8
07f5
cafe
2c18
5556
00a8
07f2
cafe
3000
5556
00a8
07f7
cafe
3410
5556
00ac
07fa
cafe
3809
5556
00ac
07f5
cafe
3c19
5556
00ac
07f2
cafe
2001
5556
00ac
07f6
cafe
2411
5556
00b0
07fa
cafe
280a
5556
00b0
07f5
cafe
2c1a
5556
00b0
07f2
cafe
3002
5556
00b0
07f6
cafe
3412
5556
00b4
07fa
cafe
380b
5556
00b4
07f5
cafe
3c1b
5556
00b4
07f2
cafe
2003
5556
00b4
07f6
cafe
2413
5556
00b8
07fa
cafe
280c
5556
00b8
07f6
cafe
2c1c
5556
00b8
07f2
cafe
3004
5556
00b8
07f7
cafe
3414
5556
00bc
07fa
cafe
380d
5556
00bc
07f6
cafe
3c1d
5556
00bc
07f2
cafe
2005
5556
00bc
07f6
cafe
2415
5556
00c0
07fa
cafe
280e
5556
00c0
07f5
cafe
2c1e
5556
00c0
07f2
cafe
3006
5556
00c0
07f7
cafe
3416
5556
00c4
07fa
cafe
380f
5556
00c4
07f5
cafe
3c1f
5556
00c4
07f2
cafe
2007
5556
00c4
07f6
cafe
2417
5556
00c8
07fa
cafe
2808
5556
00c8
07f6
cafe
2c18
5556
00c8
07f2
cafe
3000
5556
00c8
07f7
cafe
3410
5556
00cc
07fb
cafe
3809
5556
00cc
07f6
-
cafe
3c19
5556
00cc
07f2
cafe
2001
5556
00cc
07f7
cafe
2411
5556
00d0
07fa
cafe
280a
5556
00d0
07f6
cafe
2c1a
5556
00d0
07f2
cafe
3002
5556
00d0
07f6
cafe
3412
5556
00d4
07fa
cafe
380b
5556
00d4
07f6
cafe
3c1b
5556
00d4
07f2
cafe
2003
5556
00d4
07f7
cafe
2413
5556
00d8
07fa
cafe
280c
5556
00d8
07f5
cafe
2c1c
5556
00d8
07f2
cafe
3004
5556
00d8
07f6
cafe
3414
5556
00dc
07fa
cafe
380d
5556
00dc
07f5
cafe
3c1d
5556
00dc
07f2
cafe
2005
5556
00dc
07f7
cafe
2415
5556
00e0
07fa
cafe
280e
5556
00e0
07f5
cafe
2c1e
5556
00e0
07f2
cafe
3006
5556
00e0
07f7
cafe
3416
5556
00e4
07fa
cafe
380f
5556
00e4
07f5
cafe
3c1f
5556
00e4
07f2
cafe
2007
5556
00e4
07f7
cafe
2417
5556
00e8
07fa
cafe
2808
5556
00e8
07f6
cafe
2c18
5556
00e8
07f2
cafe
3000
5556
00e8
07f7
cafe
3410
5556
00ec
07fa
cafe
3809
5556
00ec
07f6
cafe
3c19
5556
00ec
07f2
cafe
2001
5556
00ec
07f6
cafe
2411
5556
00f0
07fa
cafe
280a
5556
00f0
07f6
cafe
2c1a
5556
00f0
07f2
cafe
3002
5556
00f0
07f7
cafe
3412
5556
00f4
07fa
cafe
380b
5556
00f4
07f5
cafe
3c1b
5556
00f4
07f2
cafe
2003
5556
00f4
07f6
cafe
2413
5556
00f8
07fa
cafe
280c
5556
00f8
07f6
cafe
2c1c
5556
00f8
07f2
cafe
3004
5556
00f8
07f6
cafe
3414
5556
00fc
07fa
cafe
380d
5556
00fc
07f6
cafe
3c1d
5556
00fc
07f2
cafe
2005
5556
00fc
07f7
cafe
2415
5556
0100
07fa
cafe
-
