2c0a
5564
e7d0
07f5
cafe
301a
5564
e7d0
07f2
cafe
3402
5564
e7d0
07f7
cafe
3812
5564
e7d4
07fa
cafe
3c0b
5564
e7d4
07f5
cafe
201b
5564
e7d4
07f2
cafe
2403
5564
e7d4
07f6
cafe
2813
5564
e7d8
07fa
cafe
2c0c
5564
e7d8
07f5
cafe
301c
5564
e7d8
07f2
cafe
3404
5564
e7d8
07f7
cafe
3814
5564
e7dc
07fa
cafe
3c0d
5564
e7dc
07f5
cafe
201d
5564
e7dc
07f2
cafe
2405
5564
e7dc
07f7
cafe
2815
5564
e7e0
07fa
cafe
2c0e
5564
e7e0
07f5
cafe
301e
5564
e7e0
07f2
cafe
3406
5564
e7e0
07f7
cafe
3816
5564
e7e4
07fa
cafe
3c0f
5564
e7e4
07f5
cafe
201f
5564
e7e4
07f2
cafe
2407
5564
e7e4
07f7
cafe
2817
5564
e7e8
07fa
cafe
2c08
5564
e7e8
07f6
cafe
3018
5564
e7e8
07f3
cafe
3400
5564
e7e8
07f7
cafe
3810
5564
e7ec
07fa
cafe
3c09
5564
e7ec
07f6
cafe
2019
5564
e7ec
07f2
cafe
2401
5564
e7ec
07f7
cafe
2811
5564
e7f0
07fa
cafe
2c0a
5564
e7f0
07f5
cafe
301a
5564
e7f0
07f2
cafe
3402
5564
e7f0
07f7
cafe
3812
5564
e7f4
07fa
cafe
3c0b
5564
e7f4
07f5
cafe
201b
5564
e7f4
07f2
cafe
2403
5564
e7f4
07f7
cafe
2813
5564
e7f8
07fa
cafe
2c0c
5564
e7f8
07f6
cafe
301c
5564
e7f8
07f2
cafe
3404
5564
e7f8
07f7
cafe
3814
5564
e7fc
07fa
cafe
3c0d
5564
e7fc
07f6
cafe
201d
5564
e7fc
07f3
cafe
2405
5564
e7fc
07f6
cafe
2815
5564
e800
07fa
cafe
2c0e
5564
e800
07f5
cafe
301e
5564
e800
07f3
cafe
3406
5564
e800
07f7
cafe
3816
-
5564
e804
07fa
cafe
3c0f
5564
e804
07f5
cafe
201f
5564
e804
07f2
cafe
2407
5564
e804
07f7
cafe
2817
5564
e808
07fa
cafe
2c08
5564
e808
07f6
cafe
3018
5564
e808
07f3
cafe
3400
5564
e808
07f7
cafe
3810
5564
e80c
07fa
cafe
3c09
5564
e80c
07f6
cafe
2019
5564
e80c
07f2
cafe
2401
5564
e80c
07f7
cafe
2811
5564
e810
07fa
cafe
2c0a
5564
e810
07f5
cafe
301a
5564
e810
07f2
cafe
3402
5564
e810
07f7
cafe
3812
5564
e814
07fa
cafe
3c0b
5564
e814
07f5
cafe
201b
5564
e814
07f3
cafe
2403
5564
e814
07f7
cafe
2813
5564
e818
07fa
cafe
2c0c
5564
e818
07f6
cafe
301c
5564
e818
07f2
cafe
3404
5564
e818
07f7
cafe
3814
5564
e81c
07fa
cafe
3c0d
5564
e81c
07f5
cafe
201d
5564
e81c
07f2
cafe
2405
5564
e81c
07f7
cafe
2815
5564
e820
07fb
cafe
2c0e
5564
e820
07f5
cafe
301e
5564
e820
07f2
cafe
3406
5564
e820
07f7
cafe
3816
5564
e824
07fa
cafe
3c0f
5564
e824
07f5
cafe
201f
5564
e824
07f2
cafe
2407
5564
e824
07f7
cafe
2817
5564
e828
07fa
cafe
2c08
5564
e828
07f5
cafe
3018
5564
e828
07f2
cafe
3400
5564
e828
07f7
cafe
3810
5564
e82c
07fb
cafe
3c09
5564
e82c
07f5
cafe
2019
5564
e82c
07f2
cafe
2401
5564
e82c
07f6
cafe
2811
5564
e830
07fa
cafe
2c0a
5564
e830
07f5
cafe
301a
5564
e830
07f2
cafe
3402
5564
e830
07f7
cafe
3812
5564
e834
07fa
cafe
3c0b
5564
e834
07f6
cafe
201b
5564
e834
07f2
cafe
2403
5564
-
e834
07f7
cafe
2813
5564
e838
07fa
cafe
2c0c
5564
e838
07f5
cafe
301c
5564
e838
07f2
cafe
3404
5564
e838
07f7
cafe
3814
5564
e83c
07fa
cafe
3c0d
5564
e83c
07f5
cafe
201d
5564
e83c
07f2
cafe
2405
5564
e83c
07f7
cafe
2815
5564
e840
07fa
cafe
2c0e
5564
e840
07f6
cafe
301e
5564
e840
07f2
cafe
3406
5564
e840
07f6
cafe
3816
5564
e844
07fa
cafe
3c0f
5564
e844
07f5
cafe
201f
5564
e844
07f2
cafe
2407
5564
e844
07f6
cafe
2817
5564
e848
07fa
cafe
2c08
5564
e848
07f5
cafe
3018
5564
e848
07f2
cafe
3400
5564
e848
07f7
cafe
3810
5564
e84c
07fa
cafe
3c09
5564
e84c
07f5
cafe
2019
5564
e84c
07f3
cafe
2401
5564
e84c
07f7
cafe
2811
5564
e850
07fa
cafe
2c0a
5564
e850
07f6
cafe
301a
5564
e850
07f2
cafe
3402
5564
e850
07f7
cafe
3812
5564
e854
07fa
cafe
3c0b
5564
e854
07f5
cafe
201b
5564
e854
07f2
cafe
2403
5564
e854
07f7
cafe
2813
5564
e858
07fa
cafe
2c0c
5564
e858
07f6
cafe
301c
5564
e858
07f2
cafe
3404
5564
e858
07f7
cafe
3814
5564
e85c
07fa
cafe
3c0d
5564
e85c
07f5
cafe
201d
5564
e85c
07f2
cafe
2405
5564
e85c
07f7
cafe
2815
5564
e860
07fa
cafe
2c0e
5564
e860
07f5
cafe
301e
5564
e860
07f2
cafe
3406
5564
e860
07f7
cafe
3816
5564
e864
07fa
cafe
3c0f
5564
e864
07f5
cafe
201f
5564
e864
07f2
cafe
2407
5564
e864
07f7
cafe
2817
5564
e868
07fa
cafe
2c08
5564
e868
07f6
cafe
3018
5564
e868
-
07f2
cafe
3400
5564
e868
07f7
cafe
3810
5564
e86c
07fa
cafe
3c09
5564
e86c
07f5
cafe
2019
5564
e86c
07f2
cafe
2401
5564
e86c
07f6
cafe
2811
5564
e870
07fa
cafe
2c0a
5564
e870
07f5
cafe
301a
5564
e870
07f2
cafe
3402
5564
e870
07f7
cafe
3812
5564
e874
07fb
cafe
3c0b
5564
e874
07f5
cafe
201b
5564
e874
07f2
cafe
2403
5564
e874
07f7
cafe
2813
5564
e878
07fa
cafe
2c0c
5564
e878
07f5
cafe
301c
5564
e878
07f2
cafe
3404
5564
e878
07f7
cafe
3814
5564
e87c
07fa
cafe
3c0d
5564
e87c
07f6
cafe
201d
5564
e87c
07f2
cafe
2405
5564
e87c
07f7
cafe
2815
5564
e880
07fa
cafe
2c0e
5564
e880
07f5
cafe
301e
5564
e880
07f2
cafe
3406
5564
e880
07f7
cafe
3816
5564
e884
07fa
cafe
3c0f
5564
e884
07f6
cafe
201f
5564
e884
07f2
cafe
2407
5564
e884
07f6
cafe
2817
5564
e888
07fa
cafe
2c08
5564
e888
07f6
cafe
3018
5564
e888
07f2
cafe
3400
5564
e888
07f7
cafe
3810
5564
e88c
07fa
cafe
3c09
5564
e88c
07f5
cafe
2019
5564
e88c
07f2
cafe
2401
5564
e88c
07f7
cafe
2811
5564
e890
07fa
cafe
2c0a
5564
e890
07f6
cafe
301a
5564
e890
07f2
cafe
3402
5564
e890
07f7
cafe
3812
5564
e894
07fa
cafe
3c0b
5564
e894
07f5
cafe
201b
5564
e894
07f2
cafe
2403
5564
e894
07f7
cafe
2813
5564
e898
07fb
cafe
2c0c
5564
e898
07f5
cafe
301c
5564
e898
07f2
cafe
3404
5564
e898
07f7
cafe
3814
5564
e89c
07fa
cafe
3c0d
5564
e89c
07f5
-
cafe
201d
5564
e89c
07f2
cafe
2405
5564
e89c
07f7
cafe
2815
5564
e8a0
07fa
cafe
2c0e
5564
e8a0
07f6
cafe
301e
5564
e8a0
07f2
cafe
3406
5564
e8a0
07f7
cafe
3816
5564
e8a4
07fa
cafe
3c0f
5564
e8a4
07f5
cafe
201f
5564
e8a4
07f3
cafe
2407
5564
e8a4
07f7
cafe
2817
5564
e8a8
07fa
cafe
2c08
5564
e8a8
07f5
cafe
3018
5564
e8a8
07f2
cafe
3400
5564
e8a8
07f7
cafe
3810
5564
e8ac
07fa
cafe
3c09
5564
e8ac
07f6
cafe
2019
5564
e8ac
07f2
cafe
2401
5564
e8ac
07f7
cafe
2811
5564
e8b0
07fa
cafe
2c0a
5564
e8b0
07f6
cafe
301a
5564
e8b0
07f2
cafe
3402
5564
e8b0
07f7
cafe
3812
5564
e8b4
07fa
cafe
3c0b
5564
e8b4
07f6
cafe
201b
5564
e8b4
07f2
cafe
2403
5564
e8b4
07f7
cafe
2813
5564
e8b8
07fa
cafe
2c0c
5564
e8b8
07f5
cafe
301c
5564
e8b8
07f2
cafe
3404
5564
e8b8
07f7
cafe
3814
5564
e8bc
07fa
cafe
3c0d
5564
e8bc
07f6
cafe
201d
5564
e8bc
07f2
cafe
2405
5564
e8bc
07f7
cafe
2815
5564
e8c0
07fa
cafe
2c0e
5564
e8c0
07f6
cafe
301e
5564
e8c0
07f2
cafe
3406
5564
e8c0
07f7
cafe
3816
5564
e8c4
07fa
cafe
3c0f
5564
e8c4
07f5
cafe
201f
5564
e8c4
07f2
cafe
2407
5564
e8c4
07f6
cafe
2817
5564
e8c8
07fa
cafe
2c08
5564
e8c8
07f5
cafe
3018
5564
e8c8
07f2
cafe
3400
5564
e8c8
07f7
cafe
3810
5564
e8cc
07fa
cafe
3c09
5564
e8cc
07f6
cafe
2019
5564
e8cc
07f2
cafe
2401
5564
e8cc
07f6
cafe
2811
5564
e8d0
07fa
cafe
-
2c0a
5564
e8d0
07f5
cafe
301a
5564
e8d0
07f2
cafe
3402
5564
e8d0
07f7
cafe
3812
5564
e8d4
07fa
cafe
3c0b
5564
e8d4
07f5
cafe
201b
5564
e8d4
07f2
cafe
2403
5564
e8d4
07f7
cafe
2813
5564
e8d8
07fb
cafe
2c0c
5564
e8d8
07f5
cafe
301c
5564
e8d8
07f3
cafe
3404
5564
e8d8
07f7
cafe
3814
5564
e8dc
07fa
cafe
3c0d
5564
e8dc
07f5
cafe
201d
5564
e8dc
07f2
cafe
2405
5564
e8dc
07f7
cafe
2815
5564
e8e0
07fa
cafe
2c0e
5564
e8e0
07f5
cafe
301e
5564
e8e0
07f2
cafe
3406
5564
e8e0
07f7
cafe
3816
5564
e8e4
07fa
cafe
3c0f
5564
e8e4
07f5
cafe
201f
5564
e8e4
07f2
cafe
2407
5564
e8e4
07f7
cafe
2817
5564
e8e8
07fa
cafe
2c08
5564
e8e8
07f6
cafe
3018
5564
e8e8
07f2
cafe
3400
5564
e8e8
07f7
cafe
3810
5564
e8ec
07fa
cafe
3c09
5564
e8ec
07f5
cafe
2019
5564
e8ec
07f2
cafe
2401
5564
e8ec
07f7
cafe
2811
5564
e8f0
07fa
cafe
2c0a
5564
e8f0
07f5
cafe
301a
5564
e8f0
07f2
cafe
3402
5564
e8f0
07f7
cafe
3812
5564
e8f4
07fa
cafe
3c0b
5564
e8f4
07f5
cafe
201b
5564
e8f4
07f2
cafe
2403
5564
e8f4
07f7
cafe
2813
5564
e8f8
07fa
cafe
2c0c
5564
e8f8
07f5
cafe
301c
5564
e8f8
07f3
cafe
3404
5564
e8f8
07f7
cafe
3814
5564
e8fc
07fa
cafe
3c0d
5564
e8fc
07f5
cafe
201d
5564
e8fc
07f2
cafe
2405
5564
e8fc
07f7
cafe
2815
5564
e900
07fa
cafe
2c0e
5564
e900
07f5
cafe
301e
5564
e900
07f2
cafe
3406
5564
e900
07f7
cafe
3816
-
5564
e904
07fa
cafe
3c0f
5564
e904
07f6
cafe
201f
5564
e904
07f2
cafe
2407
5564
e904
07f6
cafe
2817
5564
e908
07fa
cafe
2c08
5564
e908
07f6
cafe
3018
5564
e908
07f2
cafe
3400
5564
e908
07f6
cafe
3810
5564
e90c
07fb
cafe
3c09
5564
e90c
07f5
cafe
2019
5564
e90c
07f2
cafe
2401
5564
e90c
07f6
cafe
2811
5564
e910
07fa
cafe
2c0a
5564
e910
07f6
cafe
301a
5564
e910
07f2
cafe
3402
5564
e910
07f6
cafe
3812
5564
e914
07fa
cafe
3c0b
5564
e914
07f5
cafe
201b
5564
e914
07f2
cafe
2403
5564
e914
07f6
cafe
2813
5564
e918
07fa
cafe
2c0c
5564
e918
07f5
cafe
301c
5564
e918
07f2
cafe
3404
5564
e918
07f7
cafe
3814
5564
e91c
07fa
cafe
3c0d
5564
e91c
07f6
cafe
201d
5564
e91c
07f2
cafe
2405
5564
e91c
07f7
cafe
2815
5564
e920
07fa
cafe
2c0e
5564
e920
07f5
cafe
301e
5564
e920
07f2
cafe
3406
5564
e920
07f7
cafe
3816
5564
e924
07fa
cafe
3c0f
5564
e924
07f5
cafe
201f
5564
e924
07f2
cafe
2407
5564
e924
07f7
cafe
2817
5564
e928
07fa
cafe
2c08
5564
e928
07f6
cafe
3018
5564
e928
07f2
cafe
3400
5564
e928
07f7
cafe
3810
5564
e92c
07fa
cafe
3c09
5564
e92c
07f6
cafe
2019
5564
e92c
07f2
cafe
2401
5564
e92c
07f7
cafe
2811
5564
e930
07fa
cafe
2c0a
5564
e930
07f5
cafe
301a
5564
e930
07f2
cafe
3402
5564
e930
07f7
cafe
3812
5564
e934
07fa
cafe
3c0b
5564
e934
07f6
cafe
201b
5564
e934
07f2
cafe
2403
5564
-
e934
07f7
cafe
2813
5564
e938
07fa
cafe
2c0c
5564
e938
07f5
cafe
301c
5564
e938
07f2
cafe
3404
5564
e938
07f7
cafe
3814
5564
e93c
07fa
cafe
3c0d
5564
e93c
07f6
cafe
201d
5564
e93c
07f2
cafe
2405
5564
e93c
07f7
cafe
2815
5564
e940
07fa
cafe
2c0e
5564
e940
07f5
cafe
301e
5564
e940
07f2
cafe
3406
5564
e940
07f7
cafe
3816
5564
e944
07fa
cafe
3c0f
5564
e944
07f5
cafe
201f
5564
e944
07f2
cafe
2407
5564
e944
07f7
cafe
2817
5564
e948
07fa
cafe
2c08
5564
e948
07f6
cafe
3018
5564
e948
07f2
cafe
3400
5564
e948
07f6
cafe
3810
5564
e94c
07fa
cafe
3c09
5564
e94c
07f6
cafe
2019
5564
e94c
07f2
cafe
2401
5564
e94c
07f7
cafe
2811
5564
e950
07fa
cafe
2c0a
5564
e950
07f6
cafe
301a
5564
e950
07f2
cafe
3402
5564
e950
07f7
cafe
3812
5564
e954
07fa
cafe
3c0b
5564
e954
07f5
cafe
201b
5564
e954
07f3
cafe
2403
5564
e954
07f7
cafe
2813
5564
e958
07fa
cafe
2c0c
5564
e958
07f5
cafe
301c
5564
e958
07f2
cafe
3404
5564
e958
07f7
cafe
3814
5564
e95c
07fa
cafe
3c0d
5564
e95c
07f6
cafe
201d
5564
e95c
07f2
cafe
2405
5564
e95c
07f6
cafe
2815
5564
e960
07fa
cafe
2c0e
5564
e960
07f6
cafe
301e
5564
e960
07f2
cafe
3406
5564
e960
07f7
cafe
3816
5564
e964
07fa
cafe
3c0f
5564
e964
07f6
cafe
201f
5564
e964
07f2
cafe
2407
5564
e964
07f7
cafe
2817
5564
e968
07fa
cafe
2c08
5564
e968
07f5
cafe
3018
5564
e968
-
07f2
cafe
3400
5564
e968
07f7
cafe
3810
5564
e96c
07fa
cafe
3c09
5564
e96c
07f6
cafe
2019
5564
e96c
07f2
cafe
2401
5564
e96c
07f7
cafe
2811
5564
e970
07fa
cafe
2c0a
5564
e970
07f6
cafe
301a
5564
e970
07f3
cafe
3402
5564
e970
07f7
cafe
3812
5564
e974
07fa
cafe
3c0b
5564
e974
07f5
cafe
201b
5564
e974
07f2
cafe
2403
5564
e974
07f7
cafe
2813
5564
e978
07fa
cafe
2c0c
5564
e978
07f5
cafe
301c
5564
e978
07f3
cafe
3404
5564
e978
07f7
cafe
3814
5564
e97c
07fa
cafe
3c0d
5564
e97c
07f5
cafe
201d
5564
e97c
07f2
cafe
2405
5564
e97c
07f7
cafe
2815
5564
e980
07fa
cafe
2c0e
5564
e980
07f6
cafe
301e
5564
e980
07f3
cafe
3406
5564
e980
07f7
cafe
3816
5564
e984
07fa
cafe
3c0f
5564
e984
07f5
cafe
201f
5564
e984
07f3
cafe
2407
5564
e984
07f7
cafe
2817
5564
e988
07fa
cafe
2c08
5564
e988
07f5
cafe
3018
5564
e988
07f2
cafe
3400
5564
e988
07f7
cafe
3810
5564
e98c
07fa
cafe
3c09
5564
e98c
07f6
cafe
2019
5564
e98c
07f2
cafe
2401
5564
e98c
07f6
cafe
2811
5564
e990
07fa
cafe
2c0a
5564
e990
07f6
cafe
301a
5564
e990
07f2
cafe
3402
5564
e990
07f7
cafe
3812
5564
e994
07fa
cafe
3c0b
5564
e994
07f5
cafe
201b
5564
e994
07f2
cafe
2403
5564
e994
07f7
cafe
2813
5564
e998
07fa
cafe
2c0c
5564
e998
07f5
cafe
301c
5564
e998
07f2
cafe
3404
5564
e998
07f7
cafe
3814
5564
e99c
07fa
cafe
3c0d
5564
e99c
07f6
-
cafe
201d
5564
e99c
07f3
cafe
2405
5564
e99c
07f7
cafe
2815
5564
e9a0
07fa
cafe
2c0e
5564
e9a0
07f5
cafe
301e
5564
e9a0
07f2
cafe
3406
5564
e9a0
07f7
cafe
3816
5564
e9a4
07fa
cafe
3c0f
5564
e9a4
07f5
cafe
201f
5564
e9a4
07f2
cafe
2407
5564
e9a4
07f7
cafe
2817
5564
e9a8
07fa
cafe
2c08
5564
e9a8
07f6
cafe
3018
5564
e9a8
07f2
cafe
3400
5564
e9a8
07f7
cafe
3810
5564
e9ac
07fa
cafe
3c09
5564
e9ac
07f5
cafe
2019
5564
e9ac
07f2
cafe
2401
5564
e9ac
07f7
cafe
2811
5564
e9b0
07fa
cafe
2c0a
5564
e9b0
07f5
cafe
301a
5564
e9b0
07f2
cafe
3402
5564
e9b0
07f7
cafe
3812
5564
e9b4
07fa
cafe
3c0b
5564
e9b4
07f6
cafe
201b
5564
e9b4
07f2
cafe
2403
5564
e9b4
07f6
cafe
2813
5564
e9b8
07fa
cafe
2c0c
5564
e9b8
07f6
cafe
301c
5564
e9b8
07f2
cafe
3404
5564
e9b8
07f7
cafe
3814
5564
e9bc
07fa
cafe
3c0d
5564
e9bc
07f6
cafe
201d
5564
e9bc
07f2
cafe
2405
5564
e9bc
07f7
cafe
2815
5564
e9c0
07fa
cafe
2c0e
5564
e9c0
07f6
cafe
301e
5564
e9c0
07f2
cafe
3406
5564
e9c0
07f7
cafe
3816
5564
e9c4
07fa
cafe
3c0f
5564
e9c4
07f5
cafe
201f
5564
e9c4
07f2
cafe
2407
5564
e9c4
07f7
cafe
2817
5564
e9c8
07fa
cafe
2c08
5564
e9c8
07f6
cafe
3018
5564
e9c8
07f2
cafe
3400
5564
e9c8
07f7
cafe
3810
5564
e9cc
07fb
cafe
3c09
5564
e9cc
07f5
cafe
2019
5564
e9cc
07f2
cafe
2401
5564
e9cc
07f7
cafe
2811
5564
e9d0
07fa
cafe
-
2c0a
5564
e9d0
07f6
cafe
301a
5564
e9d0
07f2
cafe
3402
5564
e9d0
07f7
cafe
3812
5564
e9d4
07fa
cafe
3c0b
5564
e9d4
07f5
cafe
201b
5564
e9d4
07f2
cafe
2403
5564
e9d4
07f7
cafe
2813
5564
e9d8
07fa
cafe
2c0c
5564
e9d8
07f6
cafe
301c
5564
e9d8
07f2
cafe
3404
5564
e9d8
07f7
cafe
3814
5564
e9dc
07fa
cafe
3c0d
5564
e9dc
07f5
cafe
201d
5564
e9dc
07f2
cafe
2405
5564
e9dc
07f7
cafe
2815
5564
e9e0
07fa
cafe
2c0e
5564
e9e0
07f5
cafe
301e
5564
e9e0
07f2
cafe
3406
5564
e9e0
07f7
cafe
3816
5564
e9e4
07fa
cafe
3c0f
5564
e9e4
07f6
cafe
201f
5564
e9e4
07f2
cafe
2407
5564
e9e4
07f7
cafe
2817
5564
e9e8
07fa
cafe
2c08
5564
e9e8
07f6
cafe
3018
5564
e9e8
07f2
cafe
3400
5564
e9e8
07f7
cafe
3810
5564
e9ec
07fa
cafe
3c09
5564
e9ec
07f6
cafe
2019
5564
e9ec
07f2
cafe
2401
5564
e9ec
07f7
cafe
2811
5564
e9f0
07fa
cafe
2c0a
5564
e9f0
07f6
cafe
301a
5564
e9f0
07f2
cafe
3402
5564
e9f0
07f7
cafe
3812
5564
e9f4
07fa
cafe
3c0b
5564
e9f4
07f6
cafe
201b
5564
e9f4
07f2
cafe
2403
5564
e9f4
07f6
cafe
2813
5564
e9f8
07fa
cafe
2c0c
5564
e9f8
07f6
cafe
301c
5564
e9f8
07f2
cafe
3404
5564
e9f8
07f6
cafe
3814
5564
e9fc
07fa
cafe
3c0d
5564
e9fc
07f5
cafe
201d
5564
e9fc
07f3
cafe
2405
5564
e9fc
07f7
cafe
2815
5564
ea00
07fa
cafe
2c0e
5564
ea00
07f6
cafe
301e
5564
ea00
07f2
cafe
3406
5564
ea00
07f7
cafe
3816
-
5564
ea04
07fa
cafe
3c0f
5564
ea04
07f6
cafe
201f
5564
ea04
07f2
cafe
2407
5564
ea04
07f7
cafe
2817
5564
ea08
07fa
cafe
2c08
5564
ea08
07f6
cafe
3018
5564
ea08
07f3
cafe
3400
5564
ea08
07f6
cafe
3810
5564
ea0c
07fb
cafe
3c09
5564
ea0c
07f5
cafe
2019
5564
ea0c
07f2
cafe
2401
5564
ea0c
07f7
cafe
2811
5564
ea10
07fa
cafe
2c0a
5564
ea10
07f6
cafe
301a
5564
ea10
07f2
cafe
3402
5564
ea10
07f7
cafe
3812
5564
ea14
07fa
cafe
3c0b
5564
ea14
07f5
cafe
201b
5564
ea14
07f2
cafe
2403
5564
ea14
07f7
cafe
2813
5564
ea18
07fa
cafe
2c0c
5564
ea18
07f6
cafe
301c
5564
ea18
07f2
cafe
3404
5564
ea18
07f7
cafe
3814
5564
ea1c
07fa
cafe
3c0d
5564
ea1c
07f5
cafe
201d
5564
ea1c
07f2
cafe
2405
5564
ea1c
07f7
cafe
2815
5564
ea20
07fa
cafe
2c0e
5564
ea20
07f5
cafe
301e
5564
ea20
07f3
cafe
3406
5564
ea20
07f7
cafe
3816
5564
ea24
07fa
cafe
3c0f
5564
ea24
07f6
cafe
201f
5564
ea24
07f2
cafe
2407
5564
ea24
07f7
cafe
2817
5564
ea28
07fa
cafe
2c08
5564
ea28
07f6
cafe
3018
5564
ea28
07f2
cafe
3400
5564
ea28
07f7
cafe
3810
5564
ea2c
07fa
cafe
3c09
5564
ea2c
07f6
cafe
2019
5564
ea2c
07f2
cafe
2401
5564
ea2c
07f7
cafe
2811
5564
ea30
07fa
cafe
2c0a
5564
ea30
07f5
cafe
301a
5564
ea30
07f2
cafe
3402
5564
ea30
07f6
cafe
3812
5564
ea34
07fa
cafe
3c0b
5564
ea34
07f6
cafe
201b
5564
ea34
07f3
cafe
2403
5564
-
ea34
07f7
cafe
2813
5564
ea38
07fa
cafe
2c0c
5564
ea38
07f5
cafe
301c
5564
ea38
07f2
cafe
3404
5564
ea38
07f7
cafe
3814
5564
ea3c
07fa
cafe
3c0d
5564
ea3c
07f6
cafe
201d
5564
ea3c
07f2
cafe
2405
5564
ea3c
07f7
cafe
2815
5564
ea40
07fa
cafe
2c0e
5564
ea40
07f6
cafe
301e
5564
ea40
07f2
cafe
3406
5564
ea40
07f7
cafe
3816
5564
ea44
07fa
cafe
3c0f
5564
ea44
07f5
cafe
201f
5564
ea44
07f2
cafe
2407
5564
ea44
07f7
cafe
2817
5564
ea48
07fa
cafe
2c08
5564
ea48
07f6
cafe
3018
5564
ea48
07f2
cafe
3400
5564
ea48
07f6
cafe
3810
5564
ea4c
07fa
cafe
3c09
5564
ea4c
07f5
cafe
2019
5564
ea4c
07f2
cafe
2401
5564
ea4c
07f7
cafe
2811
5564
ea50
07fa
cafe
2c0a
5564
ea50
07f5
cafe
301a
5564
ea50
07f2
cafe
3402
5564
ea50
07f7
cafe
3812
5564
ea54
07fa
cafe
3c0b
5564
ea54
07f5
cafe
201b
5564
ea54
07f2
cafe
2403
5564
ea54
07f7
cafe
2813
5564
ea58
07fa
cafe
2c0c
5564
ea58
07f6
cafe
301c
5564
ea58
07f2
cafe
3404
5564
ea58
07f7
cafe
3814
5564
ea5c
07fa
cafe
3c0d
5564
ea5c
07f5
cafe
201d
5564
ea5c
07f2
cafe
2405
5564
ea5c
07f7
cafe
2815
5564
ea60
07fa
cafe
2c0e
5564
ea60
07f6
cafe
301e
5564
ea60
07f2
cafe
3406
5564
ea60
07f6
cafe
3816
5564
ea64
07fa
cafe
3c0f
5564
ea64
07f5
cafe
201f
5564
ea64
07f2
cafe
2407
5564
ea64
07f6
cafe
2817
5564
ea68
07fa
cafe
2c08
5564
ea68
07f5
cafe
3018
5564
ea68
-
07f2
cafe
3400
5564
ea68
07f7
cafe
3810
5564
ea6c
07fa
cafe
3c09
5564
ea6c
07f5
cafe
2019
5564
ea6c
07f2
cafe
2401
5564
ea6c
07f6
cafe
2811
5564
ea70
07fa
cafe
2c0a
5564
ea70
07f5
cafe
301a
5564
ea70
07f2
cafe
3402
5564
ea70
07f7
cafe
3812
5564
ea74
07fa
cafe
3c0b
5564
ea74
07f5
cafe
201b
5564
ea74
07f2
cafe
2403
5564
ea74
07f7
cafe
2813
5564
ea78
07fa
cafe
2c0c
5564
ea78
07f5
cafe
301c
5564
ea78
07f2
cafe
3404
5564
ea78
07f7
cafe
3814
5564
ea7c
07fa
cafe
3c0d
5564
ea7c
07f6
cafe
201d
5564
ea7c
07f2
cafe
2405
5564
ea7c
07f7
cafe
2815
5564
ea80
07fa
cafe
2c0e
5564
ea80
07f5
cafe
301e
5564
ea80
07f2
cafe
3406
5564
ea80
07f6
cafe
3816
5564
ea84
07fa
cafe
3c0f
5564
ea84
07f6
cafe
201f
5564
ea84
07f2
cafe
2407
5564
ea84
07f7
cafe
2817
5564
ea88
07fa
cafe
2c08
5564
ea88
07f5
cafe
3018
5564
ea88
07f2
cafe
3400
5564
ea88
07f7
cafe
3810
5564
ea8c
07f9
cafe
3c09
5564
ea8c
07f6
cafe
2019
5564
ea8c
07f2
cafe
2401
5564
ea8c
07f7
cafe
2811
5564
ea90
07fa
cafe
2c0a
5564
ea90
07f6
cafe
301a
5564
ea90
07f2
cafe
3402
5564
ea90
07f7
cafe
3812
5564
ea94
07fa
cafe
3c0b
5564
ea94
07f6
cafe
201b
5564
ea94
07f2
cafe
2403
5564
ea94
07f7
cafe
2813
5564
ea98
07fa
cafe
2c0c
5564
ea98
07f5
cafe
301c
5564
ea98
07f2
cafe
3404
5564
ea98
07f7
cafe
3814
5564
ea9c
07fa
cafe
3c0d
5564
ea9c
07f6
-
cafe
201d
5564
ea9c
07f2
cafe
2405
5564
ea9c
07f7
cafe
2815
5564
eaa0
07fa
cafe
2c0e
5564
eaa0
07f6
cafe
301e
5564
eaa0
07f2
cafe
3406
5564
eaa0
07f6
cafe
3816
5564
eaa4
07fb
cafe
3c0f
5564
eaa4
07f5
cafe
201f
5564
eaa4
07f3
cafe
2407
5564
eaa4
07f6
cafe
2817
5564
eaa8
07fa
cafe
2c08
5564
eaa8
07f6
cafe
3018
5564
eaa8
07f2
cafe
3400
5564
eaa8
07f7
cafe
3810
5564
eaac
07fa
cafe
3c09
5564
eaac
07f5
cafe
2019
5564
eaac
07f2
cafe
2401
5564
eaac
07f6
cafe
2811
5564
eab0
07fa
cafe
2c0a
5564
eab0
07f6
cafe
301a
5564
eab0
07f2
cafe
3402
5564
eab0
07f6
cafe
3812
5564
eab4
07fa
cafe
3c0b
5564
eab4
07f6
cafe
201b
5564
eab4
07f2
cafe
2403
5564
eab4
07f7
cafe
2813
5564
eab8
07fa
cafe
2c0c
5564
eab8
07f5
cafe
301c
5564
eab8
07f2
cafe
3404
5564
eab8
07f7
cafe
3814
5564
eabc
07fa
cafe
3c0d
5564
eabc
07f5
cafe
201d
5564
eabc
07f2
cafe
2405
5564
eabc
07f6
cafe
2815
5564
eac0
07fa
cafe
2c0e
5564
eac0
07f5
cafe
301e
5564
eac0
07f2
cafe
3406
5564
eac0
07f6
cafe
3816
5564
eac4
07fa
cafe
3c0f
5564
eac4
07f6
cafe
201f
5564
eac4
07f2
cafe
2407
5564
eac4
07f6
cafe
2817
5564
eac8
07fa
cafe
2c08
5564
eac8
07f5
cafe
3018
5564
eac8
07f2
cafe
3400
5564
eac8
07f7
cafe
3810
5564
eacc
07fa
cafe
3c09
5564
eacc
07f5
cafe
2019
5564
eacc
07f2
cafe
2401
5564
eacc
07f7
cafe
2811
5564
ead0
07fa
cafe
-
2c0a
5564
ead0
07f5
cafe
301a
5564
ead0
07f3
cafe
3402
5564
ead0
07f7
cafe
3812
5564
ead4
07fa
cafe
3c0b
5564
ead4
07f6
cafe
201b
5564
ead4
07f2
cafe
2403
5564
ead4
07f7
cafe
2813
5564
ead8
07fa
cafe
2c0c
5564
ead8
07f5
cafe
301c
5564
ead8
07f2
cafe
3404
5564
ead8
07f7
cafe
3814
5564
eadc
07fa
cafe
3c0d
5564
eadc
07f5
cafe
201d
5564
eadc
07f2
cafe
2405
5564
eadc
07f7
cafe
2815
5564
eae0
07fa
cafe
2c0e
5564
eae0
07f6
cafe
301e
5564
eae0
07f2
cafe
3406
5564
eae0
07f7
cafe
3816
5564
eae4
07fa
cafe
3c0f
5564
eae4
07f6
cafe
201f
5564
eae4
07f2
cafe
2407
5564
eae4
07f7
cafe
2817
5564
eae8
07fa
cafe
2c08
5564
eae8
07f6
cafe
3018
5564
eae8
07f2
cafe
3400
5564
eae8
07f7
cafe
3810
5564
eaec
07fa
cafe
3c09
5564
eaec
07f5
cafe
2019
5564
eaec
07f2
cafe
2401
5564
eaec
07f7
cafe
2811
5564
eaf0
07fa
cafe
2c0a
5564
eaf0
07f5
cafe
301a
5564
eaf0
07f2
cafe
3402
5564
eaf0
07f6
cafe
3812
5564
eaf4
07fa
cafe
3c0b
5564
eaf4
07f6
cafe
201b
5564
eaf4
07f2
cafe
2403
5564
eaf4
07f7
cafe
2813
5564
eaf8
07fa
cafe
2c0c
5564
eaf8
07f6
cafe
301c
5564
eaf8
07f2
cafe
3404
5564
eaf8
07f7
cafe
3814
5564
eafc
07fa
cafe
3c0d
5564
eafc
07f5
cafe
201d
5564
eafc
07f2
cafe
2405
5564
eafc
07f7
cafe
2815
5564
eb00
07fa
cafe
2c0e
5564
eb00
07f5
cafe
301e
5564
eb00
07f2
cafe
3406
5564
eb00
07f7
cafe
3816
-
5564
eb04
07fa
cafe
3c0f
5564
eb04
07f5
cafe
201f
5564
eb04
07f2
cafe
2407
5564
eb04
07f7
cafe
2817
5564
eb08
07fa
cafe
2c08
5564
eb08
07f6
cafe
3018
5564
eb08
07f2
cafe
3400
5564
eb08
07f7
cafe
3810
5564
eb0c
07fa
cafe
3c09
5564
eb0c
07f5
cafe
2019
5564
eb0c
07f2
cafe
2401
5564
eb0c
07f7
cafe
2811
5564
eb10
07fa
cafe
2c0a
5564
eb10
07f6
cafe
301a
5564
eb10
07f2
cafe
3402
5564
eb10
07f7
cafe
3812
5564
eb14
07fa
cafe
3c0b
5564
eb14
07f6
cafe
201b
5564
eb14
07f2
cafe
2403
5564
eb14
07f7
cafe
2813
5564
eb18
07fa
cafe
2c0c
5564
eb18
07f5
cafe
301c
5564
eb18
07f2
cafe
3404
5564
eb18
07f7
cafe
3814
5564
eb1c
07fa
cafe
3c0d
5564
eb1c
07f5
cafe
201d
5564
eb1c
07f3
cafe
2405
5564
eb1c
07f6
cafe
2815
5564
eb20
07fa
cafe
2c0e
5564
eb20
07f5
cafe
301e
5564
eb20
07f2
cafe
3406
5564
eb20
07f6
cafe
3816
5564
eb24
07fa
cafe
3c0f
5564
eb24
07f5
cafe
201f
5564
eb24
07f2
cafe
2407
5564
eb24
07f7
cafe
2817
5564
eb28
07fa
cafe
2c08
5564
eb28
07f6
cafe
3018
5564
eb28
07f2
cafe
3400
5564
eb28
07f7
cafe
3810
5564
eb2c
07fa
cafe
3c09
5564
eb2c
07f5
cafe
2019
5564
eb2c
07f2
cafe
2401
5564
eb2c
07f7
cafe
2811
5564
eb30
07fa
cafe
2c0a
5564
eb30
07f6
cafe
301a
5564
eb30
07f2
cafe
3402
5564
eb30
07f7
cafe
3812
5564
eb34
07fa
cafe
3c0b
5564
eb34
07f5
cafe
201b
5564
eb34
07f2
cafe
2403
5564
-
eb34
07f7
cafe
2813
5564
eb38
07fa
cafe
2c0c
5564
eb38
07f5
cafe
301c
5564
eb38
07f2
cafe
3404
5564
eb38
07f7
cafe
3814
5564
eb3c
07fa
cafe
3c0d
5564
eb3c
07f6
cafe
201d
5564
eb3c
07f2
cafe
2405
5564
eb3c
07f7
cafe
2815
5564
eb40
07fa
cafe
2c0e
5564
eb40
07f6
cafe
301e
5564
eb40
07f3
cafe
3406
5564
eb40
07f7
cafe
3816
5564
eb44
07fa
cafe
3c0f
5564
eb44
07f6
cafe
201f
5564
eb44
07f2
cafe
2407
5564
eb44
07f7
cafe
2817
5564
eb48
07fa
cafe
2c08
5564
eb48
07f6
cafe
3018
5564
eb48
07f2
cafe
3400
5564
eb48
07f7
cafe
3810
5564
eb4c
07fa
cafe
3c09
5564
eb4c
07f6
cafe
2019
5564
eb4c
07f2
cafe
2401
5564
eb4c
07f6
cafe
2811
5564
eb50
07fa
cafe
2c0a
5564
eb50
07f6
cafe
301a
5564
eb50
07f2
cafe
3402
5564
eb50
07f7
cafe
3812
5564
eb54
07fa
cafe
3c0b
5564
eb54
07f6
cafe
201b
5564
eb54
07f2
cafe
2403
5564
eb54
07f7
cafe
2813
5564
eb58
07fa
cafe
2c0c
5564
eb58
07f6
cafe
301c
5564
eb58
07f2
cafe
3404
5564
eb58
07f7
cafe
3814
5564
eb5c
07fa
cafe
3c0d
5564
eb5c
07f5
cafe
201d
5564
eb5c
07f2
cafe
2405
5564
eb5c
07f7
cafe
2815
5564
eb60
07fa
cafe
2c0e
5564
eb60
07f5
cafe
301e
5564
eb60
07f2
cafe
3406
5564
eb60
07f7
cafe
3816
5564
eb64
07fa
cafe
3c0f
5564
eb64
07f6
cafe
201f
5564
eb64
07f3
cafe
2407
5564
eb64
07f7
cafe
2817
5564
eb68
07fa
cafe
2c08
5564
eb68
07f5
cafe
3018
5564
eb68
-
07f2
cafe
3400
5564
eb68
07f7
cafe
3810
5564
eb6c
07fa
cafe
3c09
5564
eb6c
07f6
cafe
2019
5564
eb6c
07f2
cafe
2401
5564
eb6c
07f7
cafe
2811
5564
eb70
07fb
cafe
2c0a
5564
eb70
07f5
cafe
301a
5564
eb70
07f2
cafe
3402
5564
eb70
07f7
cafe
3812
5564
eb74
07fa
cafe
3c0b
5564
eb74
07f6
cafe
201b
5564
eb74
07f2
cafe
2403
5564
eb74
07f7
cafe
2813
5564
eb78
07fa
cafe
2c0c
5564
eb78
07f5
cafe
301c
5564
eb78
07f2
cafe
3404
5564
eb78
07f7
cafe
3814
5564
eb7c
07fa
cafe
3c0d
5564
eb7c
07f5
cafe
201d
5564
eb7c
07f2
cafe
2405
5564
eb7c
07f7
cafe
2815
5564
eb80
07fa
cafe
2c0e
5564
eb80
07f6
cafe
301e
5564
eb80
07f2
cafe
3406
5564
eb80
07f7
cafe
3816
5564
eb84
07fa
cafe
3c0f
5564
eb84
07f6
cafe
201f
5564
eb84
07f2
cafe
2407
5564
eb84
07f6
cafe
2817
5564
eb88
07fa
cafe
2c08
5564
eb88
07f5
cafe
3018
5564
eb88
07f2
cafe
3400
5564
eb88
07f6
cafe
3810
5564
eb8c
07fa
cafe
3c09
5564
eb8c
07f6
cafe
2019
5564
eb8c
07f2
cafe
2401
5564
eb8c
07f6
cafe
2811
5564
eb90
07fa
cafe
2c0a
5564
eb90
07f6
cafe
301a
5564
eb90
07f2
cafe
3402
5564
eb90
07f7
cafe
3812
5564
eb94
07fa
cafe
3c0b
5564
eb94
07f6
cafe
201b
5564
eb94
07f2
cafe
2403
5564
eb94
07f6
cafe
2813
5564
eb98
07fa
cafe
2c0c
5564
eb98
07f6
cafe
301c
5564
eb98
07f2
cafe
3404
5564
eb98
07f7
cafe
3814
5564
eb9c
07fa
cafe
3c0d
5564
eb9c
07f5
-
cafe
201d
5564
eb9c
07f3
cafe
2405
5564
eb9c
07f7
cafe
2815
5564
eba0
07fa
cafe
2c0e
5564
eba0
07f6
cafe
301e
5564
eba0
07f2
cafe
3406
5564
eba0
07f7
cafe
3816
5564
eba4
07fa
cafe
3c0f
5564
eba4
07f6
cafe
201f
5564
eba4
07f2
cafe
2407
5564
eba4
07f7
cafe
2817
5564
eba8
07fb
cafe
2c08
5564
eba8
07f5
cafe
3018
5564
eba8
07f2
cafe
3400
5564
eba8
07f7
cafe
3810
5564
ebac
07fa
cafe
3c09
5564
ebac
07f6
cafe
2019
5564
ebac
07f2
cafe
2401
5564
ebac
07f7
cafe
2811
5564
ebb0
07fa
cafe
2c0a
5564
ebb0
07f6
cafe
301a
5564
ebb0
07f2
cafe
3402
5564
ebb0
07f7
cafe
3812
5564
ebb4
07fa
cafe
3c0b
5564
ebb4
07f5
cafe
201b
5564
ebb4
07f2
cafe
2403
5564
ebb4
07f6
cafe
2813
5564
ebb8
07fa
cafe
2c0c
5564
ebb8
07f5
cafe
301c
5564
ebb8
07f3
cafe
3404
5564
ebb8
07f7
cafe
3814
5564
ebbc
07fa
cafe
3c0d
5564
ebbc
07f5
cafe
201d
5564
ebbc
07f2
cafe
2405
5564
ebbc
07f7
cafe
2815
5564
ebc0
07fa
cafe
2c0e
5564
ebc0
07f5
cafe
301e
5564
ebc0
07f2
cafe
3406
5564
ebc0
07f7
cafe
3816
5564
ebc4
07fa
cafe
3c0f
5564
ebc4
07f5
cafe
201f
5564
ebc4
07f2
cafe
2407
5564
ebc4
07f7
cafe
2817
5564
ebc8
07fa
cafe
2c08
5564
ebc8
07f5
cafe
3018
5564
ebc8
07f2
cafe
3400
5564
ebc8
07f7
cafe
3810
5564
ebcc
07fa
cafe
3c09
5564
ebcc
07f6
cafe
2019
5564
ebcc
07f2
cafe
2401
5564
ebcc
07f7
cafe
2811
5564
ebd0
07fa
cafe
-
2c0a
5564
ebd0
07f6
cafe
301a
5564
ebd0
07f2
cafe
3402
5564
ebd0
07f7
cafe
3812
5564
ebd4
07fa
cafe
3c0b
5564
ebd4
07f5
cafe
201b
5564
ebd4
07f2
cafe
2403
5564
ebd4
07f7
cafe
2813
5564
ebd8
07fa
cafe
2c0c
5564
ebd8
07f6
cafe
301c
5564
ebd8
07f2
cafe
3404
5564
ebd8
07f7
cafe
3814
5564
ebdc
07fa
cafe
3c0d
5564
ebdc
07f5
cafe
201d
5564
ebdc
07f2
cafe
2405
5564
ebdc
07f7
cafe
2815
5564
ebe0
07fa
cafe
2c0e
5564
ebe0
07f6
cafe
301e
5564
ebe0
07f2
cafe
3406
5564
ebe0
07f7
cafe
3816
5564
ebe4
07fa
cafe
3c0f
5564
ebe4
07f6
cafe
201f
5564
ebe4
07f2
cafe
2407
5564
ebe4
07f7
cafe
2817
5564
ebe8
07fa
cafe
2c08
5564
ebe8
07f6
cafe
3018
5564
ebe8
07f2
cafe
3400
5564
ebe8
07f7
cafe
3810
5564
ebec
07fa
cafe
3c09
5564
ebec
07f5
cafe
2019
5564
ebec
07f2
cafe
2401
5564
ebec
07f6
cafe
2811
5564
ebf0
07fa
cafe
2c0a
5564
ebf0
07f5
cafe
301a
5564
ebf0
07f2
cafe
3402
5564
ebf0
07f7
cafe
3812
5564
ebf4
07fa
cafe
3c0b
5564
ebf4
07f6
cafe
201b
5564
ebf4
07f3
cafe
2403
5564
ebf4
07f7
cafe
2813
5564
ebf8
07fa
cafe
2c0c
5564
ebf8
07f5
cafe
301c
5564
ebf8
07f2
cafe
3404
5564
ebf8
07f7
cafe
3814
5564
ebfc
07fa
cafe
3c0d
5564
ebfc
07f5
cafe
201d
5564
ebfc
07f2
cafe
2405
5564
ebfc
07f6
cafe
2815
5564
ec00
07fa
cafe
2c0e
5564
ec00
07f5
cafe
301e
5564
ec00
07f2
cafe
3406
5564
ec00
07f6
cafe
3816
-
5564
ec04
07fa
cafe
3c0f
5564
ec04
07f6
cafe
201f
5564
ec04
07f2
cafe
2407
5564
ec04
07f7
cafe
2817
5564
ec08
07fa
cafe
2c08
5564
ec08
07f5
cafe
3018
5564
ec08
07f2
cafe
3400
5564
ec08
07f6
cafe
3810
5564
ec0c
07fa
cafe
3c09
5564
ec0c
07f5
cafe
2019
5564
ec0c
07f2
cafe
2401
5564
ec0c
07f6
cafe
2811
5564
ec10
07fa
cafe
2c0a
5564
ec10
07f6
cafe
301a
5564
ec10
07f2
cafe
3402
5564
ec10
07f7
cafe
3812
5564
ec14
07fa
cafe
3c0b
5564
ec14
07f6
cafe
201b
5564
ec14
07f2
cafe
2403
5564
ec14
07f7
cafe
2813
5564
ec18
07fa
cafe
2c0c
5564
ec18
07f6
cafe
301c
5564
ec18
07f2
cafe
3404
5564
ec18
07f7
cafe
3814
5564
ec1c
07fa
cafe
3c0d
5564
ec1c
07f5
cafe
201d
5564
ec1c
07f2
cafe
2405
5564
ec1c
07f7
cafe
2815
5564
ec20
07fa
cafe
2c0e
5564
ec20
07f5
cafe
301e
5564
ec20
07f2
cafe
3406
5564
ec20
07f7
cafe
3816
5564
ec24
07fa
cafe
3c0f
5564
ec24
07f5
cafe
201f
5564
ec24
07f2
cafe
2407
5564
ec24
07f7
cafe
2817
5564
ec28
07fa
cafe
2c08
5564
ec28
07f6
cafe
3018
5564
ec28
07f3
cafe
3400
5564
ec28
07f7
cafe
3810
5564
ec2c
07fa
cafe
3c09
5564
ec2c
07f6
cafe
2019
5564
ec2c
07f2
cafe
2401
5564
ec2c
07f7
cafe
2811
5564
ec30
07fa
cafe
2c0a
5564
ec30
07f5
cafe
301a
5564
ec30
07f2
cafe
3402
5564
ec30
07f7
cafe
3812
5564
ec34
07fa
cafe
3c0b
5564
ec34
07f5
cafe
201b
5564
ec34
07f2
cafe
2403
5564
-
ec34
07f7
cafe
2813
5564
ec38
07fa
cafe
2c0c
5564
ec38
07f5
cafe
301c
5564
ec38
07f2
cafe
3404
5564
ec38
07f7
cafe
3814
5564
ec3c
07fa
cafe
3c0d
5564
ec3c
07f5
cafe
201d
5564
ec3c
07f2
cafe
2405
5564
ec3c
07f7
cafe
2815
5564
ec40
07fa
cafe
2c0e
5564
ec40
07f5
cafe
301e
5564
ec40
07f2
cafe
3406
5564
ec40
07f7
cafe
3816
5564
ec44
07fa
cafe
3c0f
5564
ec44
07f6
cafe
201f
5564
ec44
07f2
cafe
2407
5564
ec44
07f7
cafe
2817
5564
ec48
07fa
cafe
2c08
5564
ec48
07f5
cafe
3018
5564
ec48
07f3
cafe
3400
5564
ec48
07f7
cafe
3810
5564
ec4c
07fa
cafe
3c09
5564
ec4c
07f6
cafe
2019
5564
ec4c
07f3
cafe
2401
5564
ec4c
07f7
cafe
2811
5564
ec50
07fa
cafe
2c0a
5564
ec50
07f6
cafe
301a
5564
ec50
07f2
cafe
3402
5564
ec50
07f6
cafe
3812
5564
ec54
07fa
cafe
3c0b
5564
ec54
07f5
cafe
201b
5564
ec54
07f2
cafe
2403
5564
ec54
07f7
cafe
2813
5564
ec58
07fa
cafe
2c0c
5564
ec58
07f5
cafe
301c
5564
ec58
07f2
cafe
3404
5564
ec58
07f7
cafe
3814
5564
ec5c
07fa
cafe
3c0d
5564
ec5c
07f6
cafe
201d
5564
ec5c
07f2
cafe
2405
5564
ec5c
07f7
cafe
2815
5564
ec60
07fa
cafe
2c0e
5564
ec60
07f5
cafe
301e
5564
ec60
07f2
cafe
3406
5564
ec60
07f7
cafe
3816
5564
ec64
07fa
cafe
3c0f
5564
ec64
07f5
cafe
201f
5564
ec64
07f2
cafe
2407
5564
ec64
07f6
cafe
2817
5564
ec68
07fa
cafe
2c08
5564
ec68
07f5
cafe
3018
5564
ec68
-
07f2
cafe
3400
5564
ec68
07f7
cafe
3810
5564
ec6c
07fa
cafe
3c09
5564
ec6c
07f6
cafe
2019
5564
ec6c
07f2
cafe
2401
5564
ec6c
07f7
cafe
2811
5564
ec70
07fa
cafe
2c0a
5564
ec70
07f6
cafe
301a
5564
ec70
07f2
cafe
3402
5564
ec70
07f6
cafe
3812
5564
ec74
07fa
cafe
3c0b
5564
ec74
07f5
cafe
201b
5564
ec74
07f2
cafe
2403
5564
ec74
07f7
cafe
2813
5564
ec78
07fa
cafe
2c0c
5564
ec78
07f6
cafe
301c
5564
ec78
07f2
cafe
3404
5564
ec78
07f7
cafe
3814
5564
ec7c
07fa
cafe
3c0d
5564
ec7c
07f5
cafe
201d
5564
ec7c
07f2
cafe
2405
5564
ec7c
07f7
cafe
2815
5564
ec80
07fa
cafe
2c0e
5564
ec80
07f6
cafe
301e
5564
ec80
07f2
cafe
3406
5564
ec80
07f7
cafe
3816
5564
ec84
07fa
cafe
3c0f
5564
ec84
07f5
cafe
201f
5564
ec84
07f2
cafe
2407
5564
ec84
07f7
cafe
2817
5564
ec88
07fa
cafe
2c08
5564
ec88
07f5
cafe
3018
5564
ec88
07f2
cafe
3400
5564
ec88
07f7
cafe
3810
5564
ec8c
07fa
cafe
3c09
5564
ec8c
07f6
cafe
2019
5564
ec8c
07f2
cafe
2401
5564
ec8c
07f7
cafe
2811
5564
ec90
07fa
cafe
2c0a
5564
ec90
07f5
cafe
301a
5564
ec90
07f2
cafe
3402
5564
ec90
07f7
cafe
3812
5564
ec94
07fa
cafe
3c0b
5564
ec94
07f6
cafe
201b
5564
ec94
07f3
cafe
2403
5564
ec94
07f7
cafe
2813
5564
ec98
07fa
cafe
2c0c
5564
ec98
07f5
cafe
301c
5564
ec98
07f2
cafe
3404
5564
ec98
07f7
cafe
3814
5564
ec9c
07fa
cafe
3c0d
5564
ec9c
07f5
-
cafe
201d
5564
ec9c
07f2
cafe
2405
5564
ec9c
07f7
cafe
2815
5564
eca0
07fa
cafe
2c0e
5564
eca0
07f6
cafe
301e
5564
eca0
07f2
cafe
3406
5564
eca0
07f7
cafe
3816
5564
eca4
07fa
cafe
3c0f
5564
eca4
07f5
cafe
201f
5564
eca4
07f2
cafe
2407
5564
eca4
07f6
cafe
2817
5564
eca8
07fa
cafe
2c08
5564
eca8
07f6
cafe
3018
5564
eca8
07f2
cafe
3400
5564
eca8
07f7
cafe
3810
5564
ecac
07fa
cafe
3c09
5564
ecac
07f5
cafe
2019
5564
ecac
07f2
cafe
2401
5564
ecac
07f7
cafe
2811
5564
ecb0
07fa
cafe
2c0a
5564
ecb0
07f5
cafe
301a
5564
ecb0
07f2
cafe
3402
5564
ecb0
07f7
cafe
3812
5564
ecb4
07fa
cafe
3c0b
5564
ecb4
07f6
cafe
201b
5564
ecb4
07f2
cafe
2403
5564
ecb4
07f7
cafe
2813
5564
ecb8
07fa
cafe
2c0c
5564
ecb8
07f5
cafe
301c
5564
ecb8
07f2
cafe
3404
5564
ecb8
07f6
cafe
3814
5564
ecbc
07fa
cafe
3c0d
5564
ecbc
07f6
cafe
201d
5564
ecbc
07f2
cafe
2405
5564
ecbc
07f7
cafe
2815
5564
ecc0
07fa
cafe
2c0e
5564
ecc0
07f6
cafe
301e
5564
ecc0
07f2
cafe
3406
5564
ecc0
07f6
cafe
3816
5564
ecc4
07fa
cafe
3c0f
5564
ecc4
07f6
cafe
201f
5564
ecc4
07f2
cafe
2407
5564
ecc4
07f7
cafe
2817
5564
ecc8
07fa
cafe
2c08
5564
ecc8
07f5
cafe
3018
5564
ecc8
07f2
cafe
3400
5564
ecc8
07f7
cafe
3810
5564
eccc
07fa
cafe
3c09
5564
eccc
07f5
cafe
2019
5564
eccc
07f2
cafe
2401
5564
eccc
07f7
cafe
2811
5564
ecd0
07fa
cafe
-
2c0a
5564
ecd0
07f5
cafe
301a
5564
ecd0
07f2
cafe
3402
5564
ecd0
07f7
cafe
3812
5564
ecd4
07fa
cafe
3c0b
5564
ecd4
07f5
cafe
201b
5564
ecd4
07f2
cafe
2403
5564
ecd4
07f7
cafe
2813
5564
ecd8
07fa
cafe
2c0c
5564
ecd8
07f5
cafe
301c
5564
ecd8
07f2
cafe
3404
5564
ecd8
07f6
cafe
3814
5564
ecdc
07fa
cafe
3c0d
5564
ecdc
07f5
cafe
201d
5564
ecdc
07f2
cafe
2405
5564
ecdc
07f7
cafe
2815
5564
ece0
07fa
cafe
2c0e
5564
ece0
07f5
cafe
301e
5564
ece0
07f2
cafe
3406
5564
ece0
07f7
cafe
3816
5564
ece4
07fa
cafe
3c0f
5564
ece4
07f5
cafe
201f
5564
ece4
07f2
cafe
2407
5564
ece4
07f7
cafe
2817
5564
ece8
07fa
cafe
2c08
5564
ece8
07f5
cafe
3018
5564
ece8
07f2
cafe
3400
5564
ece8
07f7
cafe
3810
5564
ecec
07fa
cafe
3c09
5564
ecec
07f6
cafe
2019
5564
ecec
07f2
cafe
2401
5564
ecec
07f7
cafe
2811
5564
ecf0
07fa
cafe
2c0a
5564
ecf0
07f5
cafe
301a
5564
ecf0
07f2
cafe
3402
5564
ecf0
07f7
cafe
3812
5564
ecf4
07fa
cafe
3c0b
5564
ecf4
07f5
cafe
201b
5564
ecf4
07f2
cafe
2403
5564
ecf4
07f7
cafe
2813
5564
ecf8
07fa
cafe
2c0c
5564
ecf8
07f6
cafe
301c
5564
ecf8
07f2
cafe
3404
5564
ecf8
07f7
cafe
3814
5564
ecfc
07fa
cafe
3c0d
5564
ecfc
07f5
cafe
201d
5564
ecfc
07f2
cafe
2405
5564
ecfc
07f7
cafe
2815
5564
ed00
07fb
cafe
2c0e
5564
ed00
07f6
cafe
301e
5564
ed00
07f3
cafe
3406
5564
ed00
07f7
cafe
3816
-
5564
ed04
07fa
cafe
3c0f
5564
ed04
07f5
cafe
201f
5564
ed04
07f2
cafe
2407
5564
ed04
07f7
cafe
2817
5564
ed08
07fa
cafe
2c08
5564
ed08
07f6
cafe
3018
5564
ed08
07f2
cafe
3400
5564
ed08
07f7
cafe
3810
5564
ed0c
07fa
cafe
3c09
5564
ed0c
07f5
cafe
2019
5564
ed0c
07f2
cafe
2401
5564
ed0c
07f7
cafe
2811
5564
ed10
07fa
cafe
2c0a
5564
ed10
07f6
cafe
301a
5564
ed10
07f2
cafe
3402
5564
ed10
07f7
cafe
3812
5564
ed14
07fa
cafe
3c0b
5564
ed14
07f6
cafe
201b
5564
ed14
07f2
cafe
2403
5564
ed14
07f6
cafe
2813
5564
ed18
07fa
cafe
2c0c
5564
ed18
07f5
cafe
301c
5564
ed18
07f2
cafe
3404
5564
ed18
07f6
cafe
3814
5564
ed1c
07fa
cafe
3c0d
5564
ed1c
07f5
cafe
201d
5564
ed1c
07f2
cafe
2405
5564
ed1c
07f6
cafe
2815
5564
ed20
07fa
cafe
2c0e
5564
ed20
07f6
cafe
301e
5564
ed20
07f3
cafe
3406
5564
ed20
07f6
cafe
3816
5564
ed24
07fb
cafe
3c0f
5564
ed24
07f5
cafe
201f
5564
ed24
07f2
cafe
2407
5564
ed24
07f7
cafe
2817
5564
ed28
07fa
cafe
2c08
5564
ed28
07f5
cafe
3018
5564
ed28
07f2
cafe
3400
5564
ed28
07f7
cafe
3810
5564
ed2c
07fa
cafe
3c09
5564
ed2c
07f5
cafe
2019
5564
ed2c
07f2
cafe
2401
5564
ed2c
07f7
cafe
2811
5564
ed30
07fa
cafe
2c0a
5564
ed30
07f5
cafe
301a
5564
ed30
07f2
cafe
3402
5564
ed30
07f7
cafe
3812
5564
ed34
07fa
cafe
3c0b
5564
ed34
07f6
cafe
201b
5564
ed34
07f3
cafe
2403
5564
-
ed34
07f7
cafe
2813
5564
ed38
07fa
cafe
2c0c
5564
ed38
07f6
cafe
301c
5564
ed38
07f2
cafe
3404
5564
ed38
07f7
cafe
3814
5564
ed3c
07fa
cafe
3c0d
5564
ed3c
07f6
cafe
201d
5564
ed3c
07f2
cafe
2405
5564
ed3c
07f7
cafe
2815
5564
ed40
07fa
cafe
2c0e
5564
ed40
07f6
cafe
301e
5564
ed40
07f2
cafe
3406
5564
ed40
07f7
cafe
3816
5564
ed44
07fa
cafe
3c0f
5564
ed44
07f6
cafe
201f
5564
ed44
07f2
cafe
2407
5564
ed44
07f6
cafe
2817
5564
ed48
07fa
cafe
2c08
5564
ed48
07f5
cafe
3018
5564
ed48
07f2
cafe
3400
5564
ed48
07f7
cafe
3810
5564
ed4c
07fa
cafe
3c09
5564
ed4c
07f5
cafe
2019
5564
ed4c
07f2
cafe
2401
5564
ed4c
07f7
cafe
2811
5564
ed50
07fa
cafe
2c0a
5564
ed50
07f6
cafe
301a
5564
ed50
07f2
cafe
3402
5564
ed50
07f7
cafe
3812
5564
ed54
07fa
cafe
3c0b
5564
ed54
07f5
cafe
201b
5564
ed54
07f2
cafe
2403
5564
ed54
07f6
cafe
2813
5564
ed58
07fa
cafe
2c0c
5564
ed58
07f5
cafe
301c
5564
ed58
07f2
cafe
3404
5564
ed58
07f7
cafe
3814
5564
ed5c
07fa
cafe
3c0d
5564
ed5c
07f5
cafe
201d
5564
ed5c
07f2
cafe
2405
5564
ed5c
07f7
cafe
2815
5564
ed60
07fa
cafe
2c0e
5564
ed60
07f6
cafe
301e
5564
ed60
07f2
cafe
3406
5564
ed60
07f6
cafe
3816
5564
ed64
07fa
cafe
3c0f
5564
ed64
07f6
cafe
201f
5564
ed64
07f2
cafe
2407
5564
ed64
07f6
cafe
2817
5564
ed68
07fa
cafe
2c08
5564
ed68
07f5
cafe
3018
5564
ed68
-
07f2
cafe
3400
5564
ed68
07f7
cafe
3810
5564
ed6c
07fa
cafe
3c09
5564
ed6c
07f5
cafe
2019
5564
ed6c
07f2
cafe
2401
5564
ed6c
07f7
cafe
2811
5564
ed70
07fa
cafe
2c0a
5564
ed70
07f5
cafe
301a
5564
ed70
07f2
cafe
3402
5564
ed70
07f6
cafe
3812
5564
ed74
07fa
cafe
3c0b
5564
ed74
07f5
cafe
201b
5564
ed74
07f2
cafe
2403
5564
ed74
07f7
cafe
2813
5564
ed78
07fa
cafe
2c0c
5564
ed78
07f5
cafe
301c
5564
ed78
07f2
cafe
3404
5564
ed78
07f7
cafe
3814
5564
ed7c
07fa
cafe
3c0d
5564
ed7c
07f6
cafe
201d
5564
ed7c
07f2
cafe
2405
5564
ed7c
07f7
cafe
2815
5564
ed80
07fa
cafe
2c0e
5564
ed80
07f6
cafe
301e
5564
ed80
07f2
cafe
3406
5564
ed80
07f7
cafe
3816
5564
ed84
07fa
cafe
3c0f
5564
ed84
07f5
cafe
201f
5564
ed84
07f2
cafe
2407
5564
ed84
07f7
cafe
2817
5564
ed88
07fa
cafe
2c08
5564
ed88
07f5
cafe
3018
5564
ed88
07f2
cafe
3400
5564
ed88
07f7
cafe
3810
5564
ed8c
07fa
cafe
3c09
5564
ed8c
07f5
cafe
2019
5564
ed8c
07f2
cafe
2401
5564
ed8c
07f7
cafe
2811
5564
ed90
07fa
cafe
2c0a
5564
ed90
07f5
cafe
301a
5564
ed90
07f2
cafe
3402
5564
ed90
07f7
cafe
3812
5564
ed94
07fa
cafe
3c0b
5564
ed94
07f5
cafe
201b
5564
ed94
07f2
cafe
2403
5564
ed94
07f7
cafe
2813
5564
ed98
07fa
cafe
2c0c
5564
ed98
07f6
cafe
301c
5564
ed98
07f2
cafe
3404
5564
ed98
07f7
cafe
3814
5564
ed9c
07fa
cafe
3c0d
5564
ed9c
07f6
-
cafe
201d
5564
ed9c
07f2
cafe
2405
5564
ed9c
07f7
cafe
2815
5564
eda0
07fa
cafe
2c0e
5564
eda0
07f5
cafe
301e
5564
eda0
07f2
cafe
3406
5564
eda0
07f7
cafe
3816
5564
eda4
07fa
cafe
3c0f
5564
eda4
07f5
cafe
201f
5564
eda4
07f2
cafe
2407
5564
eda4
07f7
cafe
2817
5564
eda8
07fa
cafe
2c08
5564
eda8
07f6
cafe
3018
5564
eda8
07f2
cafe
3400
5564
eda8
07f6
cafe
3810
5564
edac
07fa
cafe
3c09
5564
edac
07f5
cafe
2019
5564
edac
07f2
cafe
2401
5564
edac
07f7
cafe
2811
5564
edb0
07fa
cafe
2c0a
5564
edb0
07f5
cafe
301a
5564
edb0
07f2
cafe
3402
5564
edb0
07f6
cafe
3812
5564
edb4
07fa
cafe
3c0b
5564
edb4
07f5
cafe
201b
5564
edb4
07f2
cafe
2403
5564
edb4
07f7
cafe
2813
5564
edb8
07fa
cafe
2c0c
5564
edb8
07f5
cafe
301c
5564
edb8
07f2
cafe
3404
5564
edb8
07f7
cafe
3814
5564
edbc
07fb
cafe
3c0d
5564
edbc
07f5
cafe
201d
5564
edbc
07f2
cafe
2405
5564
edbc
07f7
cafe
2815
5564
edc0
07fa
cafe
2c0e
5564
edc0
07f6
cafe
301e
5564
edc0
07f3
cafe
3406
5564
edc0
07f7
cafe
3816
5564
edc4
07fa
cafe
3c0f
5564
edc4
07f5
cafe
201f
5564
edc4
07f2
cafe
2407
5564
edc4
07f7
cafe
2817
5564
edc8
07fa
cafe
2c08
5564
edc8
07f6
cafe
3018
5564
edc8
07f2
cafe
3400
5564
edc8
07f7
cafe
3810
5564
edcc
07fb
cafe
3c09
5564
edcc
07f5
cafe
2019
5564
edcc
07f2
cafe
2401
5564
edcc
07f7
cafe
2811
5564
edd0
07fa
cafe
-
2c0a
5564
edd0
07f6
cafe
301a
5564
edd0
07f2
cafe
3402
5564
edd0
07f7
cafe
3812
5564
edd4
07fa
cafe
3c0b
5564
edd4
07f5
cafe
201b
5564
edd4
07f3
cafe
2403
5564
edd4
07f7
cafe
2813
5564
edd8
07fa
cafe
2c0c
5564
edd8
07f6
cafe
301c
5564
edd8
07f2
cafe
3404
5564
edd8
07f7
cafe
3814
5564
eddc
07fa
cafe
3c0d
5564
eddc
07f6
cafe
201d
5564
eddc
07f2
cafe
2405
5564
eddc
07f7
cafe
2815
5564
ede0
07fa
cafe
2c0e
5564
ede0
07f5
cafe
301e
5564
ede0
07f2
cafe
3406
5564
ede0
07f6
cafe
3816
5564
ede4
07fa
cafe
3c0f
5564
ede4
07f6
cafe
201f
5564
ede4
07f2
cafe
2407
5564
ede4
07f7
cafe
2817
5564
ede8
07fa
cafe
2c08
5564
ede8
07f5
cafe
3018
5564
ede8
07f2
cafe
3400
5564
ede8
07f7
cafe
3810
5564
edec
07fa
cafe
3c09
5564
edec
07f6
cafe
2019
5564
edec
07f2
cafe
2401
5564
edec
07f7
cafe
2811
5564
edf0
07fa
cafe
2c0a
5564
edf0
07f6
cafe
301a
5564
edf0
07f2
cafe
3402
5564
edf0
07f6
cafe
3812
5564
edf4
07fa
cafe
3c0b
5564
edf4
07f6
cafe
201b
5564
edf4
07f2
cafe
2403
5564
edf4
07f6
cafe
2813
5564
edf8
07fa
cafe
2c0c
5564
edf8
07f5
cafe
301c
5564
edf8
07f2
cafe
3404
5564
edf8
07f7
cafe
3814
5564
edfc
07fa
cafe
3c0d
5564
edfc
07f5
cafe
201d
5564
edfc
07f2
cafe
2405
5564
edfc
07f7
cafe
2815
5564
ee00
07fa
cafe
2c0e
5564
ee00
07f6
cafe
301e
5564
ee00
07f2
cafe
3406
5564
ee00
07f7
cafe
3816
-
5564
ee04
07fa
cafe
3c0f
5564
ee04
07f5
cafe
201f
5564
ee04
07f3
cafe
2407
5564
ee04
07f7
cafe
2817
5564
ee08
07fa
cafe
2c08
5564
ee08
07f6
cafe
3018
5564
ee08
07f2
cafe
3400
5564
ee08
07f7
cafe
3810
5564
ee0c
07fa
cafe
3c09
5564
ee0c
07f5
cafe
2019
5564
ee0c
07f2
cafe
2401
5564
ee0c
07f6
cafe
2811
5564
ee10
07fa
cafe
2c0a
5564
ee10
07f6
cafe
301a
5564
ee10
07f2
cafe
3402
5564
ee10
07f7
cafe
3812
5564
ee14
07fa
cafe
3c0b
5564
ee14
07f5
cafe
201b
5564
ee14
07f2
cafe
2403
5564
ee14
07f7
cafe
2813
5564
ee18
07fa
cafe
2c0c
5564
ee18
07f5
cafe
301c
5564
ee18
07f2
cafe
3404
5564
ee18
07f6
cafe
3814
5564
ee1c
07fa
cafe
3c0d
5564
ee1c
07f5
cafe
201d
5564
ee1c
07f2
cafe
2405
5564
ee1c
07f7
cafe
2815
5564
ee20
07fa
cafe
2c0e
5564
ee20
07f6
cafe
301e
5564
ee20
07f2
cafe
3406
5564
ee20
07f6
cafe
3816
5564
ee24
07fa
cafe
3c0f
5564
ee24
07f5
cafe
201f
5564
ee24
07f2
cafe
2407
5564
ee24
07f7
cafe
2817
5564
ee28
07fa
cafe
2c08
5564
ee28
07f6
cafe
3018
5564
ee28
07f2
cafe
3400
5564
ee28
07f7
cafe
3810
5564
ee2c
07fa
cafe
3c09
5564
ee2c
07f5
cafe
2019
5564
ee2c
07f2
cafe
2401
5564
ee2c
07f6
cafe
2811
5564
ee30
07fa
cafe
2c0a
5564
ee30
07f6
cafe
301a
5564
ee30
07f2
cafe
3402
5564
ee30
07f7
cafe
3812
5564
ee34
07fa
cafe
3c0b
5564
ee34
07f6
cafe
201b
5564
ee34
07f2
cafe
2403
5564
-
ee34
07f7
cafe
2813
5564
ee38
07fa
cafe
2c0c
5564
ee38
07f5
cafe
301c
5564
ee38
07f2
cafe
3404
5564
ee38
07f7
cafe
3814
5564
ee3c
07fa
cafe
3c0d
5564
ee3c
07f5
cafe
201d
5564
ee3c
07f2
cafe
2405
5564
ee3c
07f7
cafe
2815
5564
ee40
07fa
cafe
2c0e
5564
ee40
07f6
cafe
301e
5564
ee40
07f2
cafe
3406
5564
ee40
07f7
cafe
3816
5564
ee44
07fb
cafe
3c0f
5564
ee44
07f6
cafe
201f
5564
ee44
07f2
cafe
2407
5564
ee44
07f7
cafe
2817
5564
ee48
07fa
cafe
2c08
5564
ee48
07f6
cafe
3018
5564
ee48
07f2
cafe
3400
5564
ee48
07f7
cafe
3810
5564
ee4c
07fa
cafe
3c09
5564
ee4c
07f5
cafe
2019
5564
ee4c
07f3
cafe
2401
5564
ee4c
07f7
cafe
2811
5564
ee50
07fa
cafe
2c0a
5564
ee50
07f6
cafe
301a
5564
ee50
07f2
cafe
3402
5564
ee50
07f7
cafe
3812
5564
ee54
07fa
cafe
3c0b
5564
ee54
07f5
cafe
201b
5564
ee54
07f2
cafe
2403
5564
ee54
07f7
cafe
2813
5564
ee58
07fa
cafe
2c0c
5564
ee58
07f5
cafe
301c
5564
ee58
07f2
cafe
3404
5564
ee58
07f7
cafe
3814
5564
ee5c
07fa
cafe
3c0d
5564
ee5c
07f5
cafe
201d
5564
ee5c
07f2
cafe
2405
5564
ee5c
07f7
cafe
2815
5564
ee60
07fa
cafe
2c0e
5564
ee60
07f5
cafe
301e
5564
ee60
07f2
cafe
3406
5564
ee60
07f7
cafe
3816
5564
ee64
07fa
cafe
3c0f
5564
ee64
07f5
cafe
201f
5564
ee64
07f3
cafe
2407
5564
ee64
07f7
cafe
2817
5564
ee68
07fa
cafe
2c08
5564
ee68
07f6
cafe
3018
5564
ee68
-
07f2
cafe
3400
5564
ee68
07f7
cafe
3810
5564
ee6c
07fa
cafe
3c09
5564
ee6c
07f5
cafe
2019
5564
ee6c
07f2
cafe
2401
5564
ee6c
07f7
cafe
2811
5564
ee70
07fb
cafe
2c0a
5564
ee70
07f6
cafe
301a
5564
ee70
07f2
cafe
3402
5564
ee70
07f7
cafe
3812
5564
ee74
07fa
cafe
3c0b
5564
ee74
07f6
cafe
201b
5564
ee74
07f2
cafe
2403
5564
ee74
07f7
cafe
2813
5564
ee78
07fa
cafe
2c0c
5564
ee78
07f5
cafe
301c
5564
ee78
07f2
cafe
3404
5564
ee78
07f7
cafe
3814
5564
ee7c
07fa
cafe
3c0d
5564
ee7c
07f5
cafe
201d
5564
ee7c
07f2
cafe
2405
5564
ee7c
07f7
cafe
2815
5564
ee80
07fa
cafe
2c0e
5564
ee80
07f5
cafe
301e
5564
ee80
07f2
cafe
3406
5564
ee80
07f7
cafe
3816
5564
ee84
07fa
cafe
3c0f
5564
ee84
07f6
cafe
201f
5564
ee84
07f3
cafe
2407
5564
ee84
07f7
cafe
2817
5564
ee88
07fa
cafe
2c08
5564
ee88
07f5
cafe
3018
5564
ee88
07f2
cafe
3400
5564
ee88
07f6
cafe
3810
5564
ee8c
07fb
cafe
3c09
5564
ee8c
07f6
cafe
2019
5564
ee8c
07f2
cafe
2401
5564
ee8c
07f7
cafe
2811
5564
ee90
07fa
cafe
2c0a
5564
ee90
07f5
cafe
301a
5564
ee90
07f2
cafe
3402
5564
ee90
07f7
cafe
3812
5564
ee94
07fa
cafe
3c0b
5564
ee94
07f5
cafe
201b
5564
ee94
07f2
cafe
2403
5564
ee94
07f7
cafe
2813
5564
ee98
07fa
cafe
2c0c
5564
ee98
07f5
cafe
301c
5564
ee98
07f2
cafe
3404
5564
ee98
07f7
cafe
3814
5564
ee9c
07fa
cafe
3c0d
5564
ee9c
07f6
-
cafe
201d
5564
ee9c
07f2
cafe
2405
5564
ee9c
07f7
cafe
2815
5564
eea0
07fa
cafe
2c0e
5564
eea0
07f5
cafe
301e
5564
eea0
07f2
cafe
3406
5564
eea0
07f7
cafe
3816
5564
eea4
07fa
cafe
3c0f
5564
eea4
07f6
cafe
201f
5564
eea4
07f2
cafe
2407
5564
eea4
07f6
cafe
2817
5564
eea8
07fa
cafe
2c08
5564
eea8
07f5
cafe
3018
5564
eea8
07f2
cafe
3400
5564
eea8
07f7
cafe
3810
5564
eeac
07fa
cafe
3c09
5564
eeac
07f6
cafe
2019
5564
eeac
07f2
cafe
2401
5564
eeac
07f7
cafe
2811
5564
eeb0
07fb
cafe
2c0a
5564
eeb0
07f5
cafe
301a
5564
eeb0
07f2
cafe
3402
5564
eeb0
07f6
cafe
3812
5564
eeb4
07fa
cafe
3c0b
5564
eeb4
07f5
cafe
201b
5564
eeb4
07f3
cafe
2403
5564
eeb4
07f7
cafe
2813
5564
eeb8
07fa
cafe
2c0c
5564
eeb8
07f5
cafe
301c
5564
eeb8
07f2
cafe
3404
5564
eeb8
07f6
cafe
3814
5564
eebc
07fa
cafe
3c0d
5564
eebc
07f5
cafe
201d
5564
eebc
07f2
cafe
2405
5564
eebc
07f6
cafe
2815
5564
eec0
07fa
cafe
2c0e
5564
eec0
07f5
cafe
301e
5564
eec0
07f3
cafe
3406
5564
eec0
07f7
cafe
3816
5564
eec4
07fa
cafe
3c0f
5564
eec4
07f5
cafe
201f
5564
eec4
07f2
cafe
2407
5564
eec4
07f7
cafe
2817
5564
eec8
07fa
cafe
2c08
5564
eec8
07f5
cafe
3018
5564
eec8
07f2
cafe
3400
5564
eec8
07f7
cafe
3810
5564
eecc
07fa
cafe
3c09
5564
eecc
07f6
cafe
2019
5564
eecc
07f2
cafe
2401
5564
eecc
07f7
cafe
2811
5564
eed0
07fa
cafe
-
2c0a
5564
eed0
07f5
cafe
301a
5564
eed0
07f2
cafe
3402
5564
eed0
07f7
cafe
3812
5564
eed4
07fa
cafe
3c0b
5564
eed4
07f5
cafe
201b
5564
eed4
07f3
cafe
2403
5564
eed4
07f7
cafe
2813
5564
eed8
07fa
cafe
2c0c
5564
eed8
07f5
cafe
301c
5564
eed8
07f2
cafe
3404
5564
eed8
07f6
cafe
3814
5564
eedc
07fa
cafe
3c0d
5564
eedc
07f5
cafe
201d
5564
eedc
07f2
cafe
2405
5564
eedc
07f7
cafe
2815
5564
eee0
07fa
cafe
2c0e
5564
eee0
07f5
cafe
301e
5564
eee0
07f3
cafe
3406
5564
eee0
07f7
cafe
3816
5564
eee4
07fa
cafe
3c0f
5564
eee4
07f5
cafe
201f
5564
eee4
07f2
cafe
2407
5564
eee4
07f7
cafe
2817
5564
eee8
07fa
cafe
2c08
5564
eee8
07f5
cafe
3018
5564
eee8
07f2
cafe
3400
5564
eee8
07f7
cafe
3810
5564
eeec
07fa
cafe
3c09
5564
eeec
07f6
cafe
2019
5564
eeec
07f2
cafe
2401
5564
eeec
07f7
cafe
2811
5564
eef0
07fa
cafe
2c0a
5564
eef0
07f6
cafe
301a
5564
eef0
07f2
cafe
3402
5564
eef0
07f7
cafe
3812
5564
eef4
07fa
cafe
3c0b
5564
eef4
07f6
cafe
201b
5564
eef4
07f2
cafe
2403
5564
eef4
07f7
cafe
2813
5564
eef8
07fa
cafe
2c0c
5564
eef8
07f5
cafe
301c
5564
eef8
07f2
cafe
3404
5564
eef8
07f7
cafe
3814
5564
eefc
07fa
cafe
3c0d
5564
eefc
07f6
cafe
201d
5564
eefc
07f2
cafe
2405
5564
eefc
07f7
cafe
2815
5564
ef00
07fa
cafe
2c0e
5564
ef00
07f6
cafe
301e
5564
ef00
07f2
cafe
3406
5564
ef00
07f6
cafe
3816
-
5564
ef04
07fa
cafe
3c0f
5564
ef04
07f6
cafe
201f
5564
ef04
07f2
cafe
2407
5564
ef04
07f7
cafe
2817
5564
ef08
07fa
cafe
2c08
5564
ef08
07f5
cafe
3018
5564
ef08
07f2
cafe
3400
5564
ef08
07f6
cafe
3810
5564
ef0c
07fa
cafe
3c09
5564
ef0c
07f5
cafe
2019
5564
ef0c
07f2
cafe
2401
5564
ef0c
07f7
cafe
2811
5564
ef10
07fa
cafe
2c0a
5564
ef10
07f5
cafe
301a
5564
ef10
07f2
cafe
3402
5564
ef10
07f7
cafe
3812
5564
ef14
07fa
cafe
3c0b
5564
ef14
07f5
cafe
201b
5564
ef14
07f2
cafe
2403
5564
ef14
07f7
cafe
2813
5564
ef18
07fa
cafe
2c0c
5564
ef18
07f5
cafe
301c
5564
ef18
07f2
cafe
3404
5564
ef18
07f7
cafe
3814
5564
ef1c
07fb
cafe
3c0d
5564
ef1c
07f5
cafe
201d
5564
ef1c
07f2
cafe
2405
5564
ef1c
07f7
cafe
2815
5564
ef20
07fa
cafe
2c0e
5564
ef20
07f6
cafe
301e
5564
ef20
07f3
cafe
3406
5564
ef20
07f7
cafe
3816
5564
ef24
07fa
cafe
3c0f
5564
ef24
07f6
cafe
201f
5564
ef24
07f2
cafe
2407
5564
ef24
07f7
cafe
2817
5564
ef28
07fa
cafe
2c08
5564
ef28
07f5
cafe
3018
5564
ef28
07f2
cafe
3400
5564
ef28
07f7
cafe
3810
5564
ef2c
07fa
cafe
3c09
5564
ef2c
07f6
cafe
2019
5564
ef2c
07f2
cafe
2401
5564
ef2c
07f7
cafe
2811
5564
ef30
07fa
cafe
2c0a
5564
ef30
07f6
cafe
301a
5564
ef30
07f2
cafe
3402
5564
ef30
07f7
cafe
3812
5564
ef34
07fa
cafe
3c0b
5564
ef34
07f6
cafe
201b
5564
ef34
07f2
cafe
2403
5564
-
ef34
07f7
cafe
2813
5564
ef38
07fa
cafe
2c0c
5564
ef38
07f6
cafe
301c
5564
ef38
07f3
cafe
3404
5564
ef38
07f7
cafe
3814
5564
ef3c
07fa
cafe
3c0d
5564
ef3c
07f6
cafe
201d
5564
ef3c
07f2
cafe
2405
5564
ef3c
07f7
cafe
2815
5564
ef40
07fa
cafe
2c0e
5564
ef40
07f5
cafe
301e
5564
ef40
07f2
cafe
3406
5564
ef40
07f7
cafe
3816
5564
ef44
07fa
cafe
3c0f
5564
ef44
07f6
cafe
201f
5564
ef44
07f2
cafe
2407
5564
ef44
07f7
cafe
2817
5564
ef48
07fa
cafe
2c08
5564
ef48
07f5
cafe
3018
5564
ef48
07f2
cafe
3400
5564
ef48
07f7
cafe
3810
5564
ef4c
07fa
cafe
3c09
5564
ef4c
07f5
cafe
2019
5564
ef4c
07f2
cafe
2401
5564
ef4c
07f7
cafe
2811
5564
ef50
07fa
cafe
2c0a
5564
ef50
07f6
cafe
301a
5564
ef50
07f2
cafe
3402
5564
ef50
07f7
cafe
3812
5564
ef54
07fa
cafe
3c0b
5564
ef54
07f5
cafe
201b
5564
ef54
07f2
cafe
2403
5564
ef54
07f7
cafe
2813
5564
ef58
07fa
cafe
2c0c
5564
ef58
07f5
cafe
301c
5564
ef58
07f2
cafe
3404
5564
ef58
07f7
cafe
3814
5564
ef5c
07fb
cafe
3c0d
5564
ef5c
07f5
cafe
201d
5564
ef5c
07f2
cafe
2405
5564
ef5c
07f7
cafe
2815
5564
ef60
07fa
cafe
2c0e
5564
ef60
07f6
cafe
301e
5564
ef60
07f2
cafe
3406
5564
ef60
07f7
cafe
3816
5564
ef64
07fa
cafe
3c0f
5564
ef64
07f5
cafe
201f
5564
ef64
07f3
cafe
2407
5564
ef64
07f7
cafe
2817
5564
ef68
07fa
cafe
2c08
5564
ef68
07f6
cafe
3018
5564
ef68
-
07f2
cafe
3400
5564
ef68
07f6
cafe
3810
5564
ef6c
07fa
cafe
3c09
5564
ef6c
07f6
cafe
2019
5564
ef6c
07f2
cafe
2401
5564
ef6c
07f7
cafe
2811
5564
ef70
07fb
cafe
2c0a
5564
ef70
07f5
cafe
301a
5564
ef70
07f2
cafe
3402
5564
ef70
07f7
cafe
3812
5564
ef74
07fa
cafe
3c0b
5564
ef74
07f5
cafe
201b
5564
ef74
07f2
cafe
2403
5564
ef74
07f7
cafe
2813
5564
ef78
07fa
cafe
2c0c
5564
ef78
07f5
cafe
301c
5564
ef78
07f3
cafe
3404
5564
ef78
07f7
cafe
3814
5564
ef7c
07fa
cafe
3c0d
5564
ef7c
07f6
cafe
201d
5564
ef7c
07f2
cafe
2405
5564
ef7c
07f7
cafe
2815
5564
ef80
07fa
cafe
2c0e
5564
ef80
07f5
cafe
301e
5564
ef80
07f2
cafe
3406
5564
ef80
07f7
cafe
3816
5564
ef84
07fa
cafe
3c0f
5564
ef84
07f6
cafe
201f
5564
ef84
07f2
cafe
2407
5564
ef84
07f7
cafe
2817
5564
ef88
07fa
cafe
2c08
5564
ef88
07f5
cafe
3018
5564
ef88
07f2
cafe
3400
5564
ef88
07f7
cafe
3810
5564
ef8c
07fa
cafe
3c09
5564
ef8c
07f5
cafe
2019
5564
ef8c
07f2
cafe
2401
5564
ef8c
07f7
cafe
2811
5564
ef90
07fa
cafe
2c0a
5564
ef90
07f6
cafe
301a
5564
ef90
07f3
cafe
3402
5564
ef90
07f6
cafe
3812
5564
ef94
07fa
cafe
3c0b
5564
ef94
07f6
cafe
201b
5564
ef94
07f3
cafe
2403
5564
ef94
07f7
cafe
2813
5564
ef98
07fa
cafe
2c0c
5564
ef98
07f5
cafe
301c
5564
ef98
07f2
cafe
3404
5564
ef98
07f7
cafe
3814
5564
ef9c
07fa
cafe
3c0d
5564
ef9c
07f5
-
cafe
201d
5564
ef9c
07f2
cafe
2405
5564
ef9c
07f7
cafe
2815
5564
efa0
07fa
cafe
2c0e
5564
efa0
07f5
cafe
301e
5564
efa0
07f2
cafe
3406
5564
efa0
07f7
cafe
3816
5564
efa4
07fa
cafe
3c0f
5564
efa4
07f5
cafe
201f
5564
efa4
07f3
cafe
2407
5564
efa4
07f7
cafe
2817
5564
efa8
07fa
cafe
2c08
5564
efa8
07f5
cafe
3018
5564
efa8
07f2
cafe
3400
5564
efa8
07f7
cafe
3810
5564
efac
07fa
cafe
3c09
5564
efac
07f6
cafe
2019
5564
efac
07f2
cafe
2401
5564
efac
07f7
cafe
2811
5564
efb0
07fa
cafe
2c0a
5564
efb0
07f5
cafe
301a
5564
efb0
07f2
cafe
3402
5564
efb0
07f7
cafe
3812
5564
efb4
07fa
cafe
3c0b
5564
efb4
07f6
cafe
201b
5564
efb4
07f2
cafe
2403
5564
efb4
07f7
cafe
2813
5564
efb8
07fa
cafe
2c0c
5564
efb8
07f5
cafe
301c
5564
efb8
07f2
cafe
3404
5564
efb8
07f6
cafe
3814
5564
efbc
07fa
cafe
3c0d
5564
efbc
07f6
cafe
201d
5564
efbc
07f2
cafe
2405
5564
efbc
07f7
cafe
2815
5564
efc0
07fa
cafe
2c0e
5564
efc0
07f6
cafe
301e
5564
efc0
07f2
cafe
3406
5564
efc0
07f7
cafe
3816
5564
efc4
07fa
cafe
3c0f
5564
efc4
07f6
cafe
201f
5564
efc4
07f3
cafe
2407
5564
efc4
07f7
cafe
2817
5564
efc8
07fa
cafe
2c08
5564
efc8
07f5
cafe
3018
5564
efc8
07f2
cafe
3400
5564
efc8
07f7
cafe
3810
5564
efcc
07fa
cafe
3c09
5564
efcc
07f5
cafe
2019
5564
efcc
07f2
cafe
2401
5564
efcc
07f7
cafe
2811
5564
efd0
07fa
cafe
-
