340b
5556
0b34
015b
cafe
381b
5556
0b34
01c7
cafe
3c03
5556
0b34
01b0
cafe
2013
5556
0b38
01eb
cafe
240c
5556
0b38
01a6
cafe
281c
5556
0b38
01bb
cafe
2c04
5556
0b38
0196
cafe
3014
5556
0b3c
01c2
cafe
340d
5556
0b3c
01eb
cafe
381d
5556
0b3c
0126
cafe
3c05
5556
0b3c
01f4
cafe
2015
5556
0b40
00a7
cafe
240e
5556
0b40
01fd
cafe
281e
5556
0b40
021e
cafe
2c06
5556
0b40
016d
cafe
3016
5556
0b44
017b
cafe
340f
5556
0b44
017b
cafe
381f
5556
0b44
0198
cafe
3c07
5556
0b44
01da
cafe
2017
5556
0b48
0136
cafe
2408
5556
0b48
017a
cafe
2818
5556
0b48
01b8
cafe
2c00
5556
0b48
01b5
cafe
3010
5556
0b4c
01ef
cafe
3409
5556
0b4c
018d
cafe
3819
5556
0b4c
016b
cafe
3c01
5556
0b4c
01b5
cafe
2011
5556
0b50
01d7
cafe
240a
5556
0b50
00f6
cafe
281a
5556
0b50
0184
cafe
2c02
5556
0b50
01b0
cafe
3012
5556
0b54
0170
cafe
340b
5556
0b54
0158
cafe
381b
5556
0b54
01bf
cafe
3c03
5556
0b54
01ad
cafe
2013
5556
0b58
01ed
cafe
240c
5556
0b58
01a6
cafe
281c
5556
0b58
01bc
cafe
2c04
5556
0b58
0197
cafe
3014
5556
0b5c
01bb
cafe
340d
5556
0b5c
01ea
cafe
381d
5556
0b5c
0123
cafe
3c05
5556
0b5c
01f1
cafe
2015
5556
0b60
00af
cafe
240e
5556
0b60
01fe
cafe
281e
5556
0b60
021b
cafe
2c06
5556
0b60
0172
cafe
3016
5556
0b64
0179
cafe
340f
5556
0b64
017f
cafe
381f
5556
0b64
0198
cafe
3c07
5556
0b64
01d6
cafe
2017
-
5556
0b68
0133
cafe
2408
5556
0b68
017b
cafe
2818
5556
0b68
01b6
cafe
2c00
5556
0b68
01b8
cafe
3010
5556
0b6c
01eb
cafe
3409
5556
0b6c
018f
cafe
3819
5556
0b6c
016f
cafe
3c01
5556
0b6c
01b5
cafe
2011
5556
0b70
01d6
cafe
240a
5556
0b70
00f3
cafe
281a
5556
0b70
0185
cafe
2c02
5556
0b70
01ad
cafe
3012
5556
0b74
016e
cafe
340b
5556
0b74
0157
cafe
381b
5556
0b74
01c9
cafe
3c03
5556
0b74
01ad
cafe
2013
5556
0b78
01ed
cafe
240c
5556
0b78
019a
cafe
281c
5556
0b78
01bf
cafe
2c04
5556
0b78
0196
cafe
3014
5556
0b7c
01b7
cafe
340d
5556
0b7c
01ec
cafe
381d
5556
0b7c
0122
cafe
3c05
5556
0b7c
01f6
cafe
2015
5556
0b80
00b0
cafe
240e
5556
0b80
01fc
cafe
281e
5556
0b80
0219
cafe
2c06
5556
0b80
0173
cafe
3016
5556
0b84
0174
cafe
340f
5556
0b84
0185
cafe
381f
5556
0b84
0196
cafe
3c07
5556
0b84
01d4
cafe
2017
5556
0b88
0133
cafe
2408
5556
0b88
0179
cafe
2818
5556
0b88
01b5
cafe
2c00
5556
0b88
01b5
cafe
3010
5556
0b8c
01ef
cafe
3409
5556
0b8c
0191
cafe
3819
5556
0b8c
016e
cafe
3c01
5556
0b8c
01b3
cafe
2011
5556
0b90
01d3
cafe
240a
5556
0b90
00f9
cafe
281a
5556
0b90
0180
cafe
2c02
5556
0b90
01a9
cafe
3012
5556
0b94
0169
cafe
340b
5556
0b94
0155
cafe
381b
5556
0b94
01cf
cafe
3c03
5556
0b94
01ac
cafe
2013
5556
0b98
01f0
cafe
240c
5556
0b98
019c
cafe
281c
5556
0b98
01c2
cafe
2c04
5556
-
0b98
0197
cafe
3014
5556
0b9c
01b9
cafe
340d
5556
0b9c
01ed
cafe
381d
5556
0b9c
0122
cafe
3c05
5556
0b9c
01f6
cafe
2015
5556
0ba0
00b2
cafe
240e
5556
0ba0
01fb
cafe
281e
5556
0ba0
0215
cafe
2c06
5556
0ba0
016a
cafe
3016
5556
0ba4
017a
cafe
340f
5556
0ba4
0181
cafe
381f
5556
0ba4
0199
cafe
3c07
5556
0ba4
01da
cafe
2017
5556
0ba8
0134
cafe
2408
5556
0ba8
0175
cafe
2818
5556
0ba8
01b6
cafe
2c00
5556
0ba8
01b7
cafe
3010
5556
0bac
01f0
cafe
3409
5556
0bac
0196
cafe
3819
5556
0bac
0173
cafe
3c01
5556
0bac
01b4
cafe
2011
5556
0bb0
01d9
cafe
240a
5556
0bb0
00fb
cafe
281a
5556
0bb0
017c
cafe
2c02
5556
0bb0
01aa
cafe
3012
5556
0bb4
0164
cafe
340b
5556
0bb4
0156
cafe
381b
5556
0bb4
01c9
cafe
3c03
5556
0bb4
01b5
cafe
2013
5556
0bb8
01f2
cafe
240c
5556
0bb8
019c
cafe
281c
5556
0bb8
01bf
cafe
2c04
5556
0bb8
019b
cafe
3014
5556
0bbc
01be
cafe
340d
5556
0bbc
01ec
cafe
381d
5556
0bbc
0126
cafe
3c05
5556
0bbc
01f8
cafe
2015
5556
0bc0
00b4
cafe
240e
5556
0bc0
01fa
cafe
281e
5556
0bc0
0218
cafe
2c06
5556
0bc0
016c
cafe
3016
5556
0bc4
017a
cafe
340f
5556
0bc4
017a
cafe
381f
5556
0bc4
0199
cafe
3c07
5556
0bc4
01d3
cafe
2017
5556
0bc8
0136
cafe
2408
5556
0bc8
017a
cafe
2818
5556
0bc8
01b1
cafe
2c00
5556
0bc8
01b6
cafe
3010
5556
0bcc
01ef
cafe
3409
5556
0bcc
018d
cafe
3819
5556
0bcc
-
0173
cafe
3c01
5556
0bcc
01b9
cafe
2011
5556
0bd0
01d8
cafe
240a
5556
0bd0
00f9
cafe
281a
5556
0bd0
0179
cafe
2c02
5556
0bd0
01a9
cafe
3012
5556
0bd4
0168
cafe
340b
5556
0bd4
0157
cafe
381b
5556
0bd4
01d0
cafe
3c03
5556
0bd4
01b2
cafe
2013
5556
0bd8
01f2
cafe
240c
5556
0bd8
019e
cafe
281c
5556
0bd8
01bb
cafe
2c04
5556
0bd8
019a
cafe
3014
5556
0bdc
01c0
cafe
340d
5556
0bdc
01ea
cafe
381d
5556
0bdc
0121
cafe
3c05
5556
0bdc
01f9
cafe
2015
5556
0be0
00b1
cafe
240e
5556
0be0
01fc
cafe
281e
5556
0be0
0219
cafe
2c06
5556
0be0
0174
cafe
3016
5556
0be4
0177
cafe
340f
5556
0be4
017a
cafe
381f
5556
0be4
019b
cafe
3c07
5556
0be4
01d4
cafe
2017
5556
0be8
0132
cafe
2408
5556
0be8
0179
cafe
2818
5556
0be8
01b3
cafe
2c00
5556
0be8
01ad
cafe
3010
5556
0bec
01f1
cafe
3409
5556
0bec
018f
cafe
3819
5556
0bec
016b
cafe
3c01
5556
0bec
01bc
cafe
2011
5556
0bf0
01d8
cafe
240a
5556
0bf0
00f9
cafe
281a
5556
0bf0
017b
cafe
2c02
5556
0bf0
01a5
cafe
3012
5556
0bf4
016a
cafe
340b
5556
0bf4
015a
cafe
381b
5556
0bf4
01d0
cafe
3c03
5556
0bf4
01b5
cafe
2013
5556
0bf8
01f0
cafe
240c
5556
0bf8
01a0
cafe
281c
5556
0bf8
01c0
cafe
2c04
5556
0bf8
0198
cafe
3014
5556
0bfc
01c1
cafe
340d
5556
0bfc
01ec
cafe
381d
5556
0bfc
011c
cafe
3c05
5556
0bfc
01f9
cafe
2015
5556
0c00
00b9
cafe
240e
5556
0c00
01f8
-
cafe
281e
5556
0c00
0219
cafe
2c06
5556
0c00
016f
cafe
3016
5556
0c04
0177
cafe
340f
5556
0c04
0177
cafe
381f
5556
0c04
019a
cafe
3c07
5556
0c04
01d5
cafe
2017
5556
0c08
012e
cafe
2408
5556
0c08
0183
cafe
2818
5556
0c08
01b1
cafe
2c00
5556
0c08
01ab
cafe
3010
5556
0c0c
01f5
cafe
3409
5556
0c0c
0190
cafe
3819
5556
0c0c
016d
cafe
3c01
5556
0c0c
01bb
cafe
2011
5556
0c10
01d7
cafe
240a
5556
0c10
00f9
cafe
281a
5556
0c10
017e
cafe
2c02
5556
0c10
01a8
cafe
3012
5556
0c14
0167
cafe
340b
5556
0c14
0153
cafe
381b
5556
0c14
01d1
cafe
3c03
5556
0c14
01b2
cafe
2013
5556
0c18
01ef
cafe
240c
5556
0c18
01a3
cafe
281c
5556
0c18
01c1
cafe
2c04
5556
0c18
019c
cafe
3014
5556
0c1c
01b8
cafe
340d
5556
0c1c
01e7
cafe
381d
5556
0c1c
0119
cafe
3c05
5556
0c1c
01fa
cafe
2015
5556
0c20
00b8
cafe
240e
5556
0c20
01fd
cafe
281e
5556
0c20
0214
cafe
2c06
5556
0c20
016a
cafe
3016
5556
0c24
0175
cafe
340f
5556
0c24
0179
cafe
381f
5556
0c24
019c
cafe
3c07
5556
0c24
01d7
cafe
2017
5556
0c28
0135
cafe
2408
5556
0c28
017d
cafe
2818
5556
0c28
01b2
cafe
2c00
5556
0c28
01ae
cafe
3010
5556
0c2c
01f9
cafe
3409
5556
0c2c
0193
cafe
3819
5556
0c2c
016e
cafe
3c01
5556
0c2c
01b8
cafe
2011
5556
0c30
01d4
cafe
240a
5556
0c30
00fd
cafe
281a
5556
0c30
0183
cafe
2c02
5556
0c30
01a9
cafe
3012
5556
0c34
0164
cafe
-
340b
5556
0c34
014d
cafe
381b
5556
0c34
01d0
cafe
3c03
5556
0c34
01b8
cafe
2013
5556
0c38
01f1
cafe
240c
5556
0c38
019f
cafe
281c
5556
0c38
01bf
cafe
2c04
5556
0c38
01a1
cafe
3014
5556
0c3c
01bc
cafe
340d
5556
0c3c
01e1
cafe
381d
5556
0c3c
011c
cafe
3c05
5556
0c3c
01f8
cafe
2015
5556
0c40
00af
cafe
240e
5556
0c40
01fb
cafe
281e
5556
0c40
021c
cafe
2c06
5556
0c40
0168
cafe
3016
5556
0c44
0175
cafe
340f
5556
0c44
017a
cafe
381f
5556
0c44
0199
cafe
3c07
5556
0c44
01d8
cafe
2017
5556
0c48
0138
cafe
2408
5556
0c48
017c
cafe
2818
5556
0c48
01ae
cafe
2c00
5556
0c48
01b1
cafe
3010
5556
0c4c
01fb
cafe
3409
5556
0c4c
0193
cafe
3819
5556
0c4c
016f
cafe
3c01
5556
0c4c
01ba
cafe
2011
5556
0c50
01d7
cafe
240a
5556
0c50
00ff
cafe
281a
5556
0c50
0184
cafe
2c02
5556
0c50
01a7
cafe
3012
5556
0c54
016e
cafe
340b
5556
0c54
014f
cafe
381b
5556
0c54
01ce
cafe
3c03
5556
0c54
01b7
cafe
2013
5556
0c58
01f0
cafe
240c
5556
0c58
01a5
cafe
281c
5556
0c58
01bd
cafe
2c04
5556
0c58
01a3
cafe
3014
5556
0c5c
01be
cafe
340d
5556
0c5c
01e0
cafe
381d
5556
0c5c
011c
cafe
3c05
5556
0c5c
01f7
cafe
2015
5556
0c60
00ac
cafe
240e
5556
0c60
01f8
cafe
281e
5556
0c60
021d
cafe
2c06
5556
0c60
016f
cafe
3016
5556
0c64
0173
cafe
340f
5556
0c64
017e
cafe
381f
5556
0c64
0199
cafe
3c07
5556
0c64
01d3
cafe
2017
-
5556
0c68
0136
cafe
2408
5556
0c68
017b
cafe
2818
5556
0c68
01b1
cafe
2c00
5556
0c68
01b0
cafe
3010
5556
0c6c
01f8
cafe
3409
5556
0c6c
0193
cafe
3819
5556
0c6c
0170
cafe
3c01
5556
0c6c
01bc
cafe
2011
5556
0c70
01dc
cafe
240a
5556
0c70
0101
cafe
281a
5556
0c70
017e
cafe
2c02
5556
0c70
01aa
cafe
3012
5556
0c74
0171
cafe
340b
5556
0c74
0151
cafe
381b
5556
0c74
01cc
cafe
3c03
5556
0c74
01b4
cafe
2013
5556
0c78
01f0
cafe
240c
5556
0c78
01a1
cafe
281c
5556
0c78
01be
cafe
2c04
5556
0c78
01a6
cafe
3014
5556
0c7c
01c5
cafe
340d
5556
0c7c
01e0
cafe
381d
5556
0c7c
011f
cafe
3c05
5556
0c7c
01fd
cafe
2015
5556
0c80
00aa
cafe
240e
5556
0c80
01f7
cafe
281e
5556
0c80
021d
cafe
2c06
5556
0c80
0169
cafe
3016
5556
0c84
0177
cafe
340f
5556
0c84
017d
cafe
381f
5556
0c84
0192
cafe
3c07
5556
0c84
01d4
cafe
2017
5556
0c88
012f
cafe
2408
5556
0c88
0175
cafe
2818
5556
0c88
01ac
cafe
2c00
5556
0c88
01a9
cafe
3010
5556
0c8c
01f8
cafe
3409
5556
0c8c
0198
cafe
3819
5556
0c8c
0175
cafe
3c01
5556
0c8c
01bf
cafe
2011
5556
0c90
01e1
cafe
240a
5556
0c90
00fd
cafe
281a
5556
0c90
0183
cafe
2c02
5556
0c90
01aa
cafe
3012
5556
0c94
016f
cafe
340b
5556
0c94
0155
cafe
381b
5556
0c94
01ca
cafe
3c03
5556
0c94
01af
cafe
2013
5556
0c98
01ee
cafe
240c
5556
0c98
01a5
cafe
281c
5556
0c98
01c2
cafe
2c04
5556
-
0c98
01a4
cafe
3014
5556
0c9c
01c6
cafe
340d
5556
0c9c
01de
cafe
381d
5556
0c9c
0122
cafe
3c05
5556
0c9c
0204
cafe
2015
5556
0ca0
00aa
cafe
240e
5556
0ca0
01fb
cafe
281e
5556
0ca0
021d
cafe
2c06
5556
0ca0
0165
cafe
3016
5556
0ca4
0175
cafe
340f
5556
0ca4
017a
cafe
381f
5556
0ca4
0192
cafe
3c07
5556
0ca4
01d4
cafe
2017
5556
0ca8
012f
cafe
2408
5556
0ca8
0176
cafe
2818
5556
0ca8
01aa
cafe
2c00
5556
0ca8
01a6
cafe
3010
5556
0cac
01f6
cafe
3409
5556
0cac
0194
cafe
3819
5556
0cac
0177
cafe
3c01
5556
0cac
01bd
cafe
2011
5556
0cb0
01d9
cafe
240a
5556
0cb0
00f6
cafe
281a
5556
0cb0
017d
cafe
2c02
5556
0cb0
01af
cafe
3012
5556
0cb4
016c
cafe
340b
5556
0cb4
0160
cafe
381b
5556
0cb4
01cb
cafe
3c03
5556
0cb4
01a8
cafe
2013
5556
0cb8
01ef
cafe
240c
5556
0cb8
01a3
cafe
281c
5556
0cb8
01b9
cafe
2c04
5556
0cb8
01a6
cafe
3014
5556
0cbc
01c8
cafe
340d
5556
0cbc
01de
cafe
381d
5556
0cbc
0128
cafe
3c05
5556
0cbc
01ff
cafe
2015
5556
0cc0
00a8
cafe
240e
5556
0cc0
01fa
cafe
281e
5556
0cc0
021b
cafe
2c06
5556
0cc0
0165
cafe
3016
5556
0cc4
0177
cafe
340f
5556
0cc4
017a
cafe
381f
5556
0cc4
0197
cafe
3c07
5556
0cc4
01d3
cafe
2017
5556
0cc8
0129
cafe
2408
5556
0cc8
0174
cafe
2818
5556
0cc8
01ad
cafe
2c00
5556
0cc8
01a4
cafe
3010
5556
0ccc
01f5
cafe
3409
5556
0ccc
0192
cafe
3819
5556
0ccc
-
017c
cafe
3c01
5556
0ccc
01bf
cafe
2011
5556
0cd0
01dd
cafe
240a
5556
0cd0
00f6
cafe
281a
5556
0cd0
0181
cafe
2c02
5556
0cd0
01b3
cafe
3012
5556
0cd4
016f
cafe
340b
5556
0cd4
0162
cafe
381b
5556
0cd4
01c8
cafe
3c03
5556
0cd4
01a7
cafe
2013
5556
0cd8
01f0
cafe
240c
5556
0cd8
01a5
cafe
281c
5556
0cd8
01bd
cafe
2c04
5556
0cd8
01a5
cafe
3014
5556
0cdc
01bf
cafe
340d
5556
0cdc
01e0
cafe
381d
5556
0cdc
0124
cafe
3c05
5556
0cdc
01f9
cafe
2015
5556
0ce0
00a8
cafe
240e
5556
0ce0
01fe
cafe
281e
5556
0ce0
0221
cafe
2c06
5556
0ce0
015f
cafe
3016
5556
0ce4
0177
cafe
340f
5556
0ce4
0174
cafe
381f
5556
0ce4
0194
cafe
3c07
5556
0ce4
01d6
cafe
2017
5556
0ce8
012c
cafe
2408
5556
0ce8
0174
cafe
2818
5556
0ce8
01ae
cafe
2c00
5556
0ce8
01a5
cafe
3010
5556
0cec
01f3
cafe
3409
5556
0cec
0197
cafe
3819
5556
0cec
0177
cafe
3c01
5556
0cec
01b8
cafe
2011
5556
0cf0
01de
cafe
240a
5556
0cf0
00f5
cafe
281a
5556
0cf0
0184
cafe
2c02
5556
0cf0
01b4
cafe
3012
5556
0cf4
016e
cafe
340b
5556
0cf4
0161
cafe
381b
5556
0cf4
01c8
cafe
3c03
5556
0cf4
01ab
cafe
2013
5556
0cf8
01ee
cafe
240c
5556
0cf8
01a2
cafe
281c
5556
0cf8
01bf
cafe
2c04
5556
0cf8
01a2
cafe
3014
5556
0cfc
01c5
cafe
340d
5556
0cfc
01e7
cafe
381d
5556
0cfc
011f
cafe
3c05
5556
0cfc
01f7
cafe
2015
5556
0d00
00a7
cafe
240e
5556
0d00
01fe
-
cafe
281e
5556
0d00
0220
cafe
2c06
5556
0d00
015a
cafe
3016
5556
0d04
017b
cafe
340f
5556
0d04
017b
cafe
381f
5556
0d04
0197
cafe
3c07
5556
0d04
01de
cafe
2017
5556
0d08
0130
cafe
2408
5556
0d08
0175
cafe
2818
5556
0d08
01ae
cafe
2c00
5556
0d08
01aa
cafe
3010
5556
0d0c
01ed
cafe
3409
5556
0d0c
0197
cafe
3819
5556
0d0c
0176
cafe
3c01
5556
0d0c
01be
cafe
2011
5556
0d10
01e3
cafe
240a
5556
0d10
00f9
cafe
281a
5556
0d10
0184
cafe
2c02
5556
0d10
01b6
cafe
3012
5556
0d14
016d
cafe
340b
5556
0d14
0162
cafe
381b
5556
0d14
01c6
cafe
3c03
5556
0d14
01a9
cafe
2013
5556
0d18
01ec
cafe
240c
5556
0d18
01a0
cafe
281c
5556
0d18
01be
cafe
2c04
5556
0d18
01a0
cafe
3014
5556
0d1c
01bf
cafe
340d
5556
0d1c
01e2
cafe
381d
5556
0d1c
011c
cafe
3c05
5556
0d1c
01fd
cafe
2015
5556
0d20
00ac
cafe
240e
5556
0d20
01f8
cafe
281e
5556
0d20
021f
cafe
2c06
5556
0d20
0159
cafe
3016
5556
0d24
0173
cafe
340f
5556
0d24
017d
cafe
381f
5556
0d24
0196
cafe
3c07
5556
0d24
01df
cafe
2017
5556
0d28
0134
cafe
2408
5556
0d28
0173
cafe
2818
5556
0d28
01ac
cafe
2c00
5556
0d28
01ac
cafe
3010
5556
0d2c
01ef
cafe
3409
5556
0d2c
0194
cafe
3819
5556
0d2c
0173
cafe
3c01
5556
0d2c
01bf
cafe
2011
5556
0d30
01ed
cafe
240a
5556
0d30
00f5
cafe
281a
5556
0d30
0185
cafe
2c02
5556
0d30
01b2
cafe
3012
5556
0d34
016a
cafe
-
340b
5556
0d34
0160
cafe
381b
5556
0d34
01c5
cafe
3c03
5556
0d34
01aa
cafe
2013
5556
0d38
01ea
cafe
240c
5556
0d38
01ad
cafe
281c
5556
0d38
01c0
cafe
2c04
5556
0d38
019e
cafe
3014
5556
0d3c
01bb
cafe
340d
5556
0d3c
01e6
cafe
381d
5556
0d3c
011c
cafe
3c05
5556
0d3c
01fe
cafe
2015
5556
0d40
00b4
cafe
240e
5556
0d40
01f5
cafe
281e
5556
0d40
022b
cafe
2c06
5556
0d40
0162
cafe
3016
5556
0d44
0173
cafe
340f
5556
0d44
017d
cafe
381f
5556
0d44
0190
cafe
3c07
5556
0d44
01dc
cafe
2017
5556
0d48
0138
cafe
2408
5556
0d48
016e
cafe
2818
5556
0d48
01aa
cafe
2c00
5556
0d48
01a2
cafe
3010
5556
0d4c
01e6
cafe
3409
5556
0d4c
0196
cafe
3819
5556
0d4c
016d
cafe
3c01
5556
0d4c
01c0
cafe
2011
5556
0d50
01f0
cafe
240a
5556
0d50
00f0
cafe
281a
5556
0d50
0182
cafe
2c02
5556
0d50
01b2
cafe
3012
5556
0d54
016c
cafe
340b
5556
0d54
015d
cafe
381b
5556
0d54
01ca
cafe
3c03
5556
0d54
01aa
cafe
2013
5556
0d58
01e4
cafe
240c
5556
0d58
01b0
cafe
281c
5556
0d58
01bf
cafe
2c04
5556
0d58
019a
cafe
3014
5556
0d5c
01b4
cafe
340d
5556
0d5c
01e4
cafe
381d
5556
0d5c
011d
cafe
3c05
5556
0d5c
01fd
cafe
2015
5556
0d60
00b9
cafe
240e
5556
0d60
0230
cafe
281e
5556
0d60
0261
cafe
2c06
5556
0d60
0199
cafe
3016
5556
0d64
01aa
cafe
340f
5556
0d64
024d
cafe
381f
5556
0d64
025f
cafe
3c07
5556
0d64
02a6
cafe
2017
-
5556
0d68
0203
cafe
2408
5556
0d68
02d3
cafe
2818
5556
0d68
0310
cafe
2c00
5556
0d68
0308
cafe
3010
5556
0d6c
0348
cafe
3409
5556
0d6c
037f
cafe
3819
5556
0d6c
0355
cafe
3c01
5556
0d6c
03a9
cafe
2011
5556
0d70
03d9
cafe
240a
5556
0d70
0360
cafe
281a
5556
0d70
03e7
cafe
2c02
5556
0d70
0414
cafe
3012
5556
0d74
03dc
cafe
340b
5556
0d74
043d
cafe
381b
5556
0d74
0499
cafe
3c03
5556
0d74
046e
cafe
2013
5556
0d78
04b8
cafe
240c
5556
0d78
04f1
cafe
281c
5556
0d78
04ec
cafe
2c04
5556
0d78
04cf
cafe
3014
5556
0d7c
04ee
cafe
340d
5556
0d7c
057d
cafe
381d
5556
0d7c
04a4
cafe
3c05
5556
0d7c
057c
cafe
2015
5556
0d80
0449
cafe
240e
5556
0d80
05e5
cafe
281e
5556
0d80
0603
cafe
2c06
5556
0d80
054a
cafe
3016
5556
0d84
0554
cafe
340f
5556
0d84
05b9
cafe
381f
5556
0d84
05bc
cafe
3c07
5556
0d84
05fc
cafe
2017
5556
0d88
0564
cafe
2408
5556
0d88
05ea
cafe
2818
5556
0d88
0619
cafe
2c00
5556
0d88
0619
cafe
3010
5556
0d8c
065c
cafe
3409
5556
0d8c
063c
cafe
3819
5556
0d8c
0615
cafe
3c01
5556
0d8c
0666
cafe
2011
5556
0d90
0698
cafe
240a
5556
0d90
05e0
cafe
281a
5556
0d90
0661
cafe
2c02
5556
0d90
068b
cafe
3012
5556
0d94
0666
cafe
340b
5556
0d94
0683
cafe
381b
5556
0d94
06d2
cafe
3c03
5556
0d94
06a4
cafe
2013
5556
0d98
0700
cafe
240c
5556
0d98
06fe
cafe
281c
5556
0d98
06ec
cafe
2c04
5556
-
0d98
06d4
cafe
3014
5556
0d9c
06f9
cafe
340d
5556
0d9c
074e
cafe
381d
5556
0d9c
066e
cafe
3c05
5556
0d9c
074e
cafe
2015
5556
0da0
0614
cafe
240e
5556
0da0
0791
cafe
281e
5556
0da0
07a9
cafe
2c06
5556
0da0
06ef
cafe
3016
5556
0da4
06f9
cafe
340f
5556
0da4
072a
cafe
381f
5556
0da4
0738
cafe
3c07
5556
0da4
076a
cafe
2017
5556
0da8
06d6
cafe
2408
5556
0da8
0738
cafe
2818
5556
0da8
0767
cafe
2c00
5556
0da8
0767
cafe
3010
5556
0dac
07af
cafe
3409
5556
0dac
0761
cafe
3819
5556
0dac
073b
cafe
3c01
5556
0dac
078e
cafe
2011
5556
0db0
07c2
cafe
240a
5556
0db0
06ea
cafe
281a
5556
0db0
0764
cafe
2c02
5556
0db0
0785
cafe
3012
5556
0db4
076e
cafe
340b
5556
0db4
0766
cafe
381b
5556
0db4
07b8
cafe
3c03
5556
0db4
0789
cafe
2013
5556
0db8
07e8
cafe
240c
5556
0db8
07cc
cafe
281c
5556
0db8
07b4
cafe
2c04
5556
0db8
079c
cafe
3014
5556
0dbc
07c6
cafe
340d
5556
0dbc
07f6
cafe
381d
5556
0dbc
071d
cafe
3c05
5556
0dbc
0801
cafe
2015
5556
0dc0
06bf
cafe
240e
5556
0dc0
082b
cafe
281e
5556
0dc0
0844
cafe
2c06
5556
0dc0
077c
cafe
3016
5556
0dc4
078e
cafe
340f
5556
0dc4
07a1
cafe
381f
5556
0dc4
07b7
cafe
3c07
5556
0dc4
07ec
cafe
2017
5556
0dc8
075a
cafe
2408
5556
0dc8
07a7
cafe
2818
5556
0dc8
07d0
cafe
2c00
5556
0dc8
07d8
cafe
3010
5556
0dcc
081e
cafe
3409
5556
0dcc
07b0
cafe
3819
5556
0dcc
-
078c
cafe
3c01
5556
0dcc
07e3
cafe
2011
5556
0dd0
081a
cafe
240a
5556
0dd0
0730
cafe
281a
5556
0dd0
07ad
cafe
2c02
5556
0dd0
07d1
cafe
3012
5556
0dd4
07b1
cafe
340b
5556
0dd4
079d
cafe
381b
5556
0dd4
07ef
cafe
3c03
5556
0dd4
07bb
cafe
2013
5556
0dd8
0827
cafe
240c
5556
0dd8
07f5
cafe
281c
5556
0dd8
07df
cafe
2c04
5556
0dd8
07c8
cafe
3014
5556
0ddc
07f6
cafe
340d
5556
0ddc
0817
cafe
381d
5556
0ddc
073b
cafe
3c05
5556
0ddc
0827
cafe
2015
5556
0de0
06d5
cafe
240e
5556
0de0
083f
cafe
281e
5556
0de0
0863
cafe
2c06
5556
0de0
078a
cafe
3016
5556
0de4
079d
cafe
340f
5556
0de4
079f
cafe
381f
5556
0de4
07bc
cafe
3c07
5556
0de4
07ee
cafe
2017
5556
0de8
075d
cafe
2408
5556
0de8
07ab
cafe
2818
5556
0de8
07cd
cafe
2c00
5556
0de8
07da
cafe
3010
5556
0dec
0823
cafe
3409
5556
0dec
07a4
cafe
3819
5556
0dec
0781
cafe
3c01
5556
0dec
07d6
cafe
2011
5556
0df0
080c
cafe
240a
5556
0df0
0717
cafe
281a
5556
0df0
078f
cafe
2c02
5556
0df0
07be
cafe
3012
5556
0df4
0799
cafe
340b
5556
0df4
077e
cafe
381b
5556
0df4
07d3
cafe
3c03
5556
0df4
0798
cafe
2013
5556
0df8
080e
cafe
240c
5556
0df8
07d2
cafe
281c
5556
0df8
07bd
cafe
2c04
5556
0df8
07a7
cafe
3014
5556
0dfc
07da
cafe
340d
5556
0dfc
07ed
cafe
381d
5556
0dfc
0715
cafe
3c05
5556
0dfc
07fe
cafe
2015
5556
0e00
06ac
cafe
240e
5556
0e00
0819
-
cafe
281e
5556
0e00
0839
cafe
2c06
5556
0e00
0762
cafe
3016
5556
0e04
076d
cafe
340f
5556
0e04
076b
cafe
381f
5556
0e04
0788
cafe
3c07
5556
0e04
07bc
cafe
2017
5556
0e08
072c
cafe
2408
5556
0e08
0773
cafe
2818
5556
0e08
0794
cafe
2c00
5556
0e08
07a2
cafe
3010
5556
0e0c
07fe
cafe
3409
5556
0e0c
0769
cafe
3819
5556
0e0c
0746
cafe
3c01
5556
0e0c
0796
cafe
2011
5556
0e10
07c8
cafe
240a
5556
0e10
06d7
cafe
281a
5556
0e10
074a
cafe
2c02
5556
0e10
0783
cafe
3012
5556
0e14
075f
cafe
340b
5556
0e14
0734
cafe
381b
5556
0e14
0792
cafe
3c03
5556
0e14
0753
cafe
2013
5556
0e18
07cb
cafe
240c
5556
0e18
078e
cafe
281c
5556
0e18
077b
cafe
2c04
5556
0e18
075c
cafe
3014
5556
0e1c
0799
cafe
340d
5556
0e1c
07a0
cafe
381d
5556
0e1c
06cd
cafe
3c05
5556
0e1c
07b8
cafe
2015
5556
0e20
065e
cafe
240e
5556
0e20
07db
cafe
281e
5556
0e20
07ee
cafe
2c06
5556
0e20
0717
cafe
3016
5556
0e24
0725
cafe
340f
5556
0e24
071c
cafe
381f
5556
0e24
0737
cafe
3c07
5556
0e24
0776
cafe
2017
5556
0e28
06db
cafe
2408
5556
0e28
0728
cafe
2818
5556
0e28
0746
cafe
2c00
5556
0e28
074e
cafe
3010
5556
0e2c
07b9
cafe
3409
5556
0e2c
071d
cafe
3819
5556
0e2c
06fb
cafe
3c01
5556
0e2c
0739
cafe
2011
5556
0e30
0778
cafe
240a
5556
0e30
0688
cafe
281a
5556
0e30
06f3
cafe
2c02
5556
0e30
072c
cafe
3012
5556
0e34
0709
cafe
-
340b
5556
0e34
06dd
cafe
381b
5556
0e34
073e
cafe
3c03
5556
0e34
06fe
cafe
2013
5556
0e38
077a
cafe
240c
5556
0e38
073a
cafe
281c
5556
0e38
072b
cafe
2c04
5556
0e38
0703
cafe
3014
5556
0e3c
074c
cafe
340d
5556
0e3c
0743
cafe
381d
5556
0e3c
0672
cafe
3c05
5556
0e3c
0765
cafe
2015
5556
0e40
05fd
cafe
240e
5556
0e40
0784
cafe
281e
5556
0e40
0798
cafe
2c06
5556
0e40
06c2
cafe
3016
5556
0e44
06d1
cafe
340f
5556
0e44
06c4
cafe
381f
5556
0e44
06e3
cafe
3c07
5556
0e44
0717
cafe
2017
5556
0e48
067f
cafe
2408
5556
0e48
06cd
cafe
2818
5556
0e48
06f1
cafe
2c00
5556
0e48
06fa
cafe
3010
5556
0e4c
0768
cafe
3409
5556
0e4c
06c4
cafe
3819
5556
0e4c
06a1
cafe
3c01
5556
0e4c
06da
cafe
2011
5556
0e50
0717
cafe
240a
5556
0e50
0630
cafe
281a
5556
0e50
0696
cafe
2c02
5556
0e50
06d2
cafe
3012
5556
0e54
06b4
cafe
340b
5556
0e54
0681
cafe
381b
5556
0e54
06e7
cafe
3c03
5556
0e54
06a1
cafe
2013
5556
0e58
071d
cafe
240c
5556
0e58
06de
cafe
281c
5556
0e58
06c9
cafe
2c04
5556
0e58
06a9
cafe
3014
5556
0e5c
06fc
cafe
340d
5556
0e5c
06ed
cafe
381d
5556
0e5c
0616
cafe
3c05
5556
0e5c
0710
cafe
2015
5556
0e60
05a2
cafe
240e
5556
0e60
072f
cafe
281e
5556
0e60
074a
cafe
2c06
5556
0e60
0669
cafe
3016
5556
0e64
0675
cafe
340f
5556
0e64
0668
cafe
381f
5556
0e64
0688
cafe
3c07
5556
0e64
06c6
cafe
2017
-
5556
0e68
062b
cafe
2408
5556
0e68
066e
cafe
2818
5556
0e68
069d
cafe
2c00
5556
0e68
0698
cafe
3010
5556
0e6c
0713
cafe
3409
5556
0e6c
066b
cafe
3819
5556
0e6c
0649
cafe
3c01
5556
0e6c
0685
cafe
2011
5556
0e70
06b9
cafe
240a
5556
0e70
05d0
cafe
281a
5556
0e70
063e
cafe
2c02
5556
0e70
0675
cafe
3012
5556
0e74
065a
cafe
340b
5556
0e74
062a
cafe
381b
5556
0e74
0688
cafe
3c03
5556
0e74
0649
cafe
2013
5556
0e78
06cb
cafe
240c
5556
0e78
0686
cafe
281c
5556
0e78
066b
cafe
2c04
5556
0e78
064f
cafe
3014
5556
0e7c
06a1
cafe
340d
5556
0e7c
0691
cafe
381d
5556
0e7c
05bd
cafe
3c05
5556
0e7c
06bd
cafe
2015
5556
0e80
0547
cafe
240e
5556
0e80
06d7
cafe
281e
5556
0e80
06ea
cafe
2c06
5556
0e80
0610
cafe
3016
5556
0e84
061e
cafe
340f
5556
0e84
0612
cafe
381f
5556
0e84
0634
cafe
3c07
5556
0e84
066e
cafe
2017
5556
0e88
05d8
cafe
2408
5556
0e88
0611
cafe
2818
5556
0e88
0644
cafe
2c00
5556
0e88
063d
cafe
3010
5556
0e8c
06c2
cafe
3409
5556
0e8c
0612
cafe
3819
5556
0e8c
05f4
cafe
3c01
5556
0e8c
062e
cafe
2011
5556
0e90
0664
cafe
240a
5556
0e90
0572
cafe
281a
5556
0e90
05e3
cafe
2c02
5556
0e90
0626
cafe
3012
5556
0e94
0607
cafe
340b
5556
0e94
05d6
cafe
381b
5556
0e94
0630
cafe
3c03
5556
0e94
05f2
cafe
2013
5556
0e98
0677
cafe
240c
5556
0e98
062d
cafe
281c
5556
0e98
061b
cafe
2c04
5556
-
0e98
05f6
cafe
3014
5556
0e9c
064e
cafe
340d
5556
0e9c
063c
cafe
381d
5556
0e9c
056f
cafe
3c05
5556
0e9c
0669
cafe
2015
5556
0ea0
04ea
cafe
240e
5556
0ea0
067e
cafe
281e
5556
0ea0
068e
cafe
2c06
5556
0ea0
05c2
cafe
3016
5556
0ea4
05cf
cafe
340f
5556
0ea4
05c1
cafe
381f
5556
0ea4
05db
cafe
3c07
5556
0ea4
0618
cafe
2017
5556
0ea8
0581
cafe
2408
5556
0ea8
05bc
cafe
2818
5556
0ea8
05f5
cafe
2c00
5556
0ea8
05e3
cafe
3010
5556
0eac
0672
cafe
3409
5556
0eac
05bd
cafe
3819
5556
0eac
05a3
cafe
3c01
5556
0eac
05e4
cafe
2011
5556
0eb0
0617
cafe
240a
5556
0eb0
051a
cafe
281a
5556
0eb0
058a
cafe
2c02
5556
0eb0
05cf
cafe
3012
5556
0eb4
05b0
cafe
340b
5556
0eb4
0583
cafe
381b
5556
0eb4
05dc
cafe
3c03
5556
0eb4
05a1
cafe
2013
5556
0eb8
0621
cafe
240c
5556
0eb8
05d5
cafe
281c
5556
0eb8
05c9
cafe
2c04
5556
0eb8
05a4
cafe
3014
5556
0ebc
05fd
cafe
340d
5556
0ebc
05e6
cafe
381d
5556
0ebc
051d
cafe
3c05
5556
0ebc
0613
cafe
2015
5556
0ec0
0493
cafe
240e
5556
0ec0
061b
cafe
281e
5556
0ec0
0639
cafe
2c06
5556
0ec0
056a
cafe
3016
5556
0ec4
0575
cafe
340f
5556
0ec4
056b
cafe
381f
5556
0ec4
0586
cafe
3c07
5556
0ec4
05c6
cafe
2017
5556
0ec8
052d
cafe
2408
5556
0ec8
0566
cafe
2818
5556
0ec8
05a2
cafe
2c00
5556
0ec8
0593
cafe
3010
5556
0ecc
061d
cafe
3409
5556
0ecc
0568
cafe
3819
5556
0ecc
-
0550
cafe
3c01
5556
0ecc
058f
cafe
2011
5556
0ed0
05bd
cafe
240a
5556
0ed0
04cd
cafe
281a
5556
0ed0
053a
cafe
2c02
5556
0ed0
057e
cafe
3012
5556
0ed4
0560
cafe
340b
5556
0ed4
052d
cafe
381b
5556
0ed4
058c
cafe
3c03
5556
0ed4
0551
cafe
2013
5556
0ed8
05ce
cafe
240c
5556
0ed8
057d
cafe
281c
5556
0ed8
057b
cafe
2c04
5556
0ed8
0551
cafe
3014
5556
0edc
05b0
cafe
340d
5556
0edc
0593
cafe
381d
5556
0edc
04cd
cafe
3c05
5556
0edc
05c7
cafe
2015
5556
0ee0
0443
cafe
240e
5556
0ee0
05d2
cafe
281e
5556
0ee0
05f0
cafe
2c06
5556
0ee0
0523
cafe
3016
5556
0ee4
0529
cafe
340f
5556
0ee4
0527
cafe
381f
5556
0ee4
0539
cafe
3c07
5556
0ee4
057c
cafe
2017
5556
0ee8
04dc
cafe
2408
5556
0ee8
0519
cafe
2818
5556
0ee8
055f
cafe
2c00
5556
0ee8
053e
cafe
3010
5556
0eec
05d9
cafe
3409
5556
0eec
0520
cafe
3819
5556
0eec
0503
cafe
3c01
5556
0eec
0544
cafe
2011
5556
0ef0
0570
cafe
240a
5556
0ef0
0487
cafe
281a
5556
0ef0
04f0
cafe
2c02
5556
0ef0
0530
cafe
3012
5556
0ef4
0514
cafe
340b
5556
0ef4
04e8
cafe
381b
5556
0ef4
0548
cafe
3c03
5556
0ef4
0503
cafe
2013
5556
0ef8
0589
cafe
240c
5556
0ef8
0534
cafe
281c
5556
0ef8
0535
cafe
2c04
5556
0ef8
050c
cafe
3014
5556
0efc
0564
cafe
340d
5556
0efc
054f
cafe
381d
5556
0efc
0489
cafe
3c05
5556
0efc
057a
cafe
2015
5556
0f00
03fb
cafe
240e
5556
0f00
0588
-
cafe
281e
5556
0f00
05a5
cafe
2c06
5556
0f00
04d4
cafe
3016
5556
0f04
04e9
cafe
340f
5556
0f04
04de
cafe
381f
5556
0f04
04ee
cafe
3c07
5556
0f04
0534
cafe
2017
5556
0f08
0494
cafe
2408
5556
0f08
04d4
cafe
2818
5556
0f08
051c
cafe
2c00
5556
0f08
04f4
cafe
3010
5556
0f0c
0593
cafe
3409
5556
0f0c
04d2
cafe
3819
5556
0f0c
04bf
cafe
3c01
5556
0f0c
04fc
cafe
2011
5556
0f10
052f
cafe
240a
5556
0f10
0442
cafe
281a
5556
0f10
04a4
cafe
2c02
5556
0f10
04e9
cafe
3012
5556
0f14
04d1
cafe
340b
5556
0f14
04a5
cafe
381b
5556
0f14
0501
cafe
3c03
5556
0f14
04c0
cafe
2013
5556
0f18
0549
cafe
240c
5556
0f18
04f2
cafe
281c
5556
0f18
04f6
cafe
2c04
5556
0f18
04d4
cafe
3014
5556
0f1c
0525
cafe
340d
5556
0f1c
050f
cafe
381d
5556
0f1c
0445
cafe
3c05
5556
0f1c
053d
cafe
2015
5556
0f20
03b9
cafe
240e
5556
0f20
054d
cafe
281e
5556
0f20
0561
cafe
2c06
5556
0f20
0493
cafe
3016
5556
0f24
04a9
cafe
340f
5556
0f24
04a0
cafe
381f
5556
0f24
04a6
cafe
3c07
5556
0f24
04f4
cafe
2017
5556
0f28
0455
cafe
2408
5556
0f28
0495
cafe
2818
5556
0f28
04db
cafe
2c00
5556
0f28
04b4
cafe
3010
5556
0f2c
0553
cafe
3409
5556
0f2c
048e
cafe
3819
5556
0f2c
047f
cafe
3c01
5556
0f2c
04ba
cafe
2011
5556
0f30
04ea
cafe
240a
5556
0f30
0401
cafe
281a
5556
0f30
0465
cafe
2c02
5556
0f30
04a4
cafe
3012
5556
0f34
0487
cafe
-
340b
5556
0f34
045d
cafe
381b
5556
0f34
04be
cafe
3c03
5556
0f34
047b
cafe
2013
5556
0f38
050e
cafe
240c
5556
0f38
04b2
cafe
281c
5556
0f38
04b8
cafe
2c04
5556
0f38
0490
cafe
3014
5556
0f3c
04ea
cafe
340d
5556
0f3c
04cc
cafe
381d
5556
0f3c
0406
cafe
3c05
5556
0f3c
04fb
cafe
2015
5556
0f40
0379
cafe
240e
5556
0f40
0511
cafe
281e
5556
0f40
0524
cafe
2c06
5556
0f40
0453
cafe
3016
5556
0f44
0468
cafe
340f
5556
0f44
0462
cafe
381f
5556
0f44
046b
cafe
3c07
5556
0f44
04b4
cafe
2017
5556
0f48
0418
cafe
2408
5556
0f48
045c
cafe
2818
5556
0f48
049a
cafe
2c00
5556
0f48
0479
cafe
3010
5556
0f4c
0519
cafe
3409
5556
0f4c
0458
cafe
3819
5556
0f4c
0440
cafe
3c01
5556
0f4c
047e
cafe
2011
5556
0f50
04ad
cafe
240a
5556
0f50
03cb
cafe
281a
5556
0f50
042c
cafe
2c02
5556
0f50
046a
cafe
3012
5556
0f54
044a
cafe
340b
5556
0f54
0424
cafe
381b
5556
0f54
0488
cafe
3c03
5556
0f54
0444
cafe
2013
5556
0f58
04d2
cafe
240c
5556
0f58
0472
cafe
281c
5556
0f58
0481
cafe
2c04
5556
0f58
0458
cafe
3014
5556
0f5c
04b3
cafe
340d
5556
0f5c
0492
cafe
381d
5556
0f5c
03c9
cafe
3c05
5556
0f5c
04be
cafe
2015
5556
0f60
0341
cafe
240e
5556
0f60
04d8
cafe
281e
5556
0f60
04e8
cafe
2c06
5556
0f60
041d
cafe
3016
5556
0f64
0430
cafe
340f
5556
0f64
042e
cafe
381f
5556
0f64
042f
cafe
3c07
5556
0f64
0478
cafe
2017
-
5556
0f68
03d7
cafe
2408
5556
0f68
0424
cafe
2818
5556
0f68
045b
cafe
2c00
5556
0f68
0440
cafe
3010
5556
0f6c
04e0
cafe
3409
5556
0f6c
0416
cafe
3819
5556
0f6c
0405
cafe
3c01
5556
0f6c
0444
cafe
2011
5556
0f70
0471
cafe
240a
5556
0f70
0390
cafe
281a
5556
0f70
03f5
cafe
2c02
5556
0f70
0437
cafe
3012
5556
0f74
041b
cafe
340b
5556
0f74
03ed
cafe
381b
5556
0f74
044d
cafe
3c03
5556
0f74
040f
cafe
2013
5556
0f78
0497
cafe
240c
5556
0f78
0439
cafe
281c
5556
0f78
0446
cafe
2c04
5556
0f78
0419
cafe
3014
5556
0f7c
047a
cafe
340d
5556
0f7c
0462
cafe
381d
5556
0f7c
038e
cafe
3c05
5556
0f7c
0481
cafe
2015
5556
0f80
030d
cafe
240e
5556
0f80
04a1
cafe
281e
5556
0f80
04af
cafe
2c06
5556
0f80
03e6
cafe
3016
5556
0f84
03fc
cafe
340f
5556
0f84
03ef
cafe
381f
5556
0f84
03fc
cafe
3c07
5556
0f84
0448
cafe
2017
5556
0f88
03a1
cafe
2408
5556
0f88
03e5
cafe
2818
5556
0f88
042b
cafe
2c00
5556
0f88
040d
cafe
3010
5556
0f8c
04ac
cafe
3409
5556
0f8c
03e4
cafe
3819
5556
0f8c
03c7
cafe
3c01
5556
0f8c
0410
cafe
2011
5556
0f90
043d
cafe
240a
5556
0f90
0359
cafe
281a
5556
0f90
03c8
cafe
2c02
5556
0f90
0406
cafe
3012
5556
0f94
03e8
cafe
340b
5556
0f94
03ba
cafe
381b
5556
0f94
0418
cafe
3c03
5556
0f94
03db
cafe
2013
5556
0f98
045f
cafe
240c
5556
0f98
0408
cafe
281c
5556
0f98
040d
cafe
2c04
5556
-
0f98
03ea
cafe
3014
5556
0f9c
0445
cafe
340d
5556
0f9c
0434
cafe
381d
5556
0f9c
035c
cafe
3c05
5556
0f9c
0451
cafe
2015
5556
0fa0
02d9
cafe
240e
5556
0fa0
046c
cafe
281e
5556
0fa0
0474
cafe
2c06
5556
0fa0
03b0
cafe
3016
5556
0fa4
03c1
cafe
340f
5556
0fa4
03b3
cafe
381f
5556
0fa4
03c9
cafe
3c07
5556
0fa4
040e
cafe
2017
5556
0fa8
0379
cafe
2408
5556
0fa8
03b1
cafe
2818
5556
0fa8
03f2
cafe
2c00
5556
0fa8
03d8
cafe
3010
5556
0fac
0477
cafe
3409
5556
0fac
03b8
cafe
3819
5556
0fac
0399
cafe
3c01
5556
0fac
03dd
cafe
2011
5556
0fb0
040e
cafe
240a
5556
0fb0
0329
cafe
281a
5556
0fb0
039f
cafe
2c02
5556
0fb0
03d9
cafe
3012
5556
0fb4
03b2
cafe
340b
5556
0fb4
037f
cafe
381b
5556
0fb4
03e7
cafe
3c03
5556
0fb4
03aa
cafe
2013
5556
0fb8
042f
cafe
240c
5556
0fb8
03d5
cafe
281c
5556
0fb8
03df
cafe
2c04
5556
0fb8
03b8
cafe
3014
5556
0fbc
0412
cafe
340d
5556
0fbc
0405
cafe
381d
5556
0fbc
0324
cafe
3c05
5556
0fbc
0424
cafe
2015
5556
0fc0
02ad
cafe
240e
5556
0fc0
0439
cafe
281e
5556
0fc0
043f
cafe
2c06
5556
0fc0
0385
cafe
3016
5556
0fc4
038b
cafe
340f
5556
0fc4
0384
cafe
381f
5556
0fc4
039a
cafe
3c07
5556
0fc4
03db
cafe
2017
5556
0fc8
034d
cafe
2408
5556
0fc8
037d
cafe
2818
5556
0fc8
03c2
cafe
2c00
5556
0fc8
03aa
cafe
3010
5556
0fcc
0445
cafe
3409
5556
0fcc
038b
cafe
3819
5556
0fcc
-
0368
cafe
3c01
5556
0fcc
03b3
cafe
2011
5556
0fd0
03e0
cafe
240a
5556
0fd0
02fb
cafe
281a
5556
0fd0
0375
cafe
2c02
5556
0fd0
03a4
cafe
3012
5556
0fd4
037d
cafe
340b
5556
0fd4
034c
cafe
381b
5556
0fd4
03b9
cafe
3c03
5556
0fd4
037b
cafe
2013
5556
0fd8
0406
cafe
240c
5556
0fd8
03a7
cafe
281c
5556
0fd8
03ac
cafe
2c04
5556
0fd8
038c
cafe
3014
5556
0fdc
03ec
cafe
340d
5556
0fdc
03dc
cafe
381d
5556
0fdc
02f4
cafe
3c05
5556
0fdc
03ff
cafe
2015
5556
0fe0
0284
cafe
240e
5556
0fe0
0409
cafe
281e
5556
0fe0
040f
cafe
2c06
5556
0fe0
035d
cafe
3016
5556
0fe4
035d
cafe
340f
5556
0fe4
035a
cafe
381f
5556
0fe4
0370
cafe
3c07
5556
0fe4
03b0
cafe
2017
5556
0fe8
031f
cafe
2408
5556
0fe8
0359
cafe
2818
5556
0fe8
039a
cafe
2c00
5556
0fe8
0382
cafe
3010
5556
0fec
0414
cafe
3409
5556
0fec
035f
cafe
3819
5556
0fec
0345
cafe
3c01
5556
0fec
0381
cafe
2011
5556
0ff0
03b9
cafe
240a
5556
0ff0
02c9
cafe
281a
5556
0ff0
034a
cafe
2c02
5556
0ff0
037a
cafe
3012
5556
0ff4
0356
cafe
340b
5556
0ff4
0327
cafe
381b
5556
0ff4
0391
cafe
3c03
5556
0ff4
0355
cafe
2013
5556
0ff8
03d2
cafe
240c
5556
0ff8
037e
cafe
281c
5556
0ff8
0383
cafe
2c04
5556
0ff8
0362
cafe
3014
5556
0ffc
03c2
cafe
340d
5556
0ffc
03af
cafe
381d
5556
0ffc
02cb
cafe
3c05
5556
0ffc
03cf
cafe
2015
5556
1000
0258
cafe
240e
5556
1000
03e7
-
cafe
281e
5556
1000
03e9
cafe
2c06
5556
1000
032e
cafe
3016
5556
1004
0334
cafe
340f
5556
1004
032f
cafe
381f
5556
1004
0343
cafe
3c07
5556
1004
038b
cafe
2017
5556
1008
02f5
cafe
2408
5556
1008
0332
cafe
2818
5556
1008
0371
cafe
2c00
5556
1008
0358
cafe
3010
5556
100c
03eb
cafe
3409
5556
100c
0333
cafe
3819
5556
100c
031f
cafe
3c01
5556
100c
035c
cafe
2011
5556
1010
038b
cafe
240a
5556
1010
02a4
cafe
281a
5556
1010
0325
cafe
2c02
5556
1010
0358
cafe
3012
5556
1014
0329
cafe
340b
5556
1014
02ff
cafe
381b
5556
1014
036f
cafe
3c03
5556
1014
032c
cafe
2013
5556
1018
03ae
cafe
240c
5556
1018
0353
cafe
281c
5556
1018
035d
cafe
2c04
5556
1018
033b
cafe
3014
5556
101c
039a
cafe
340d
5556
101c
038c
cafe
381d
5556
101c
02a7
cafe
3c05
5556
101c
03ad
cafe
2015
5556
1020
0234
cafe
240e
5556
1020
03c3
cafe
281e
5556
1020
03c6
cafe
2c06
5556
1020
0307
cafe
3016
5556
1024
0310
cafe
340f
5556
1024
030d
cafe
381f
5556
1024
031a
cafe
3c07
5556
1024
036a
cafe
2017
5556
1028
02cf
cafe
2408
5556
1028
030b
cafe
2818
5556
1028
034c
cafe
2c00
5556
1028
032f
cafe
3010
5556
102c
03c4
cafe
3409
5556
102c
030f
cafe
3819
5556
102c
02fd
cafe
3c01
5556
102c
0338
cafe
2011
5556
1030
0364
cafe
240a
5556
1030
0281
cafe
281a
5556
1030
02f9
cafe
2c02
5556
1030
0330
cafe
3012
5556
1034
0306
cafe
-
340b
5556
1034
02e3
cafe
381b
5556
1034
034f
cafe
3c03
5556
1034
0309
cafe
2013
5556
1038
038c
cafe
240c
5556
1038
0331
cafe
281c
5556
1038
0332
cafe
2c04
5556
1038
0313
cafe
3014
5556
103c
0378
cafe
340d
5556
103c
0366
cafe
381d
5556
103c
0285
cafe
3c05
5556
103c
0390
cafe
2015
5556
1040
0210
cafe
240e
5556
1040
0397
cafe
281e
5556
1040
03a3
cafe
2c06
5556
1040
02e6
cafe
3016
5556
1044
02ec
cafe
340f
5556
1044
02ea
cafe
381f
5556
1044
02fd
cafe
3c07
5556
1044
034a
cafe
2017
5556
1048
02a9
cafe
2408
5556
1048
02ea
cafe
2818
5556
1048
032b
cafe
2c00
5556
1048
0312
cafe
3010
5556
104c
039b
cafe
3409
5556
104c
02eb
cafe
3819
5556
104c
02df
cafe
3c01
5556
104c
0313
cafe
2011
5556
1050
0348
cafe
240a
5556
1050
025f
cafe
281a
5556
1050
02d5
cafe
2c02
5556
1050
030f
cafe
3012
5556
1054
02e5
cafe
340b
5556
1054
02ba
cafe
381b
5556
1054
032e
cafe
3c03
5556
1054
02e6
cafe
2013
5556
1058
0366
cafe
240c
5556
1058
0311
cafe
281c
5556
1058
030d
cafe
2c04
5556
1058
02f1
cafe
3014
5556
105c
0353
cafe
340d
5556
105c
0344
cafe
381d
5556
105c
0267
cafe
3c05
5556
105c
0370
cafe
2015
5556
1060
01f3
cafe
240e
5556
1060
0376
cafe
281e
5556
1060
0382
cafe
2c06
5556
1060
02c3
cafe
3016
5556
1064
02c7
cafe
340f
5556
1064
02ca
cafe
381f
5556
1064
02d8
cafe
3c07
5556
1064
032a
cafe
2017
-
5556
1068
0289
cafe
2408
5556
1068
02ca
cafe
2818
5556
1068
02ff
cafe
2c00
5556
1068
02f1
cafe
3010
5556
106c
0379
cafe
3409
5556
106c
02cd
cafe
3819
5556
106c
02c1
cafe
3c01
5556
106c
02f3
cafe
2011
5556
1070
0323
cafe
240a
5556
1070
023d
cafe
281a
5556
1070
02ba
cafe
2c02
5556
1070
02f1
cafe
3012
5556
1074
02c7
cafe
340b
5556
1074
029e
cafe
381b
5556
1074
030f
cafe
3c03
5556
1074
02cb
cafe
2013
5556
1078
0341
cafe
240c
5556
1078
02f0
cafe
281c
5556
1078
02f4
cafe
2c04
5556
1078
02d6
cafe
3014
5556
107c
0333
cafe
340d
5556
107c
0327
cafe
381d
5556
107c
0245
cafe
3c05
5556
107c
0351
cafe
2015
5556
1080
01d7
cafe
240e
5556
1080
0355
cafe
281e
5556
1080
0360
cafe
2c06
5556
1080
02a6
cafe
3016
5556
1084
02ae
cafe
340f
5556
1084
02b3
cafe
381f
5556
1084
02b9
cafe
3c07
5556
1084
030b
cafe
2017
5556
1088
0275
cafe
2408
5556
1088
02ad
cafe
2818
5556
1088
02e5
cafe
2c00
5556
1088
02d5
cafe
3010
5556
108c
0362
cafe
3409
5556
108c
02b2
cafe
3819
5556
108c
02a4
cafe
3c01
5556
108c
02d5
cafe
2011
5556
1090
0306
cafe
240a
5556
1090
0224
cafe
281a
5556
1090
029e
cafe
2c02
5556
1090
02d4
cafe
3012
5556
1094
02ab
cafe
340b
5556
1094
027b
cafe
381b
5556
1094
02f1
cafe
3c03
5556
1094
02b5
cafe
2013
5556
1098
0326
cafe
240c
5556
1098
02d5
cafe
281c
5556
1098
02dc
cafe
2c04
5556
-
1098
02bf
cafe
3014
5556
109c
0311
cafe
340d
5556
109c
0309
cafe
381d
5556
109c
0229
cafe
3c05
5556
109c
032b
cafe
2015
5556
10a0
01b3
cafe
240e
5556
10a0
0338
cafe
281e
5556
10a0
0346
cafe
2c06
5556
10a0
0286
cafe
3016
5556
10a4
0296
cafe
340f
5556
10a4
0296
cafe
381f
5556
10a4
02a1
cafe
3c07
5556
10a4
02f2
cafe
2017
5556
10a8
0259
cafe
2408
5556
10a8
028b
cafe
2818
5556
10a8
02c8
cafe
2c00
5556
10a8
02ba
cafe
3010
5556
10ac
033f
cafe
3409
5556
10ac
0296
cafe
3819
5556
10ac
0282
cafe
3c01
5556
10ac
02bb
cafe
2011
5556
10b0
02f2
cafe
240a
5556
10b0
0216
cafe
281a
5556
10b0
0286
cafe
2c02
5556
10b0
02b8
cafe
3012
5556
10b4
0297
cafe
340b
5556
10b4
0263
cafe
381b
5556
10b4
02d4
cafe
3c03
5556
10b4
0298
cafe
2013
5556
10b8
0307
cafe
240c
5556
10b8
02ba
cafe
281c
5556
10b8
02c6
cafe
2c04
5556
10b8
02a7
cafe
3014
5556
10bc
02f3
cafe
340d
5556
10bc
02ea
cafe
381d
5556
10bc
0210
cafe
3c05
5556
10bc
030e
cafe
2015
5556
10c0
019b
cafe
240e
5556
10c0
031f
cafe
281e
5556
10c0
0325
cafe
2c06
5556
10c0
026e
cafe
3016
5556
10c4
0278
cafe
340f
5556
10c4
0276
cafe
381f
5556
10c4
028e
cafe
3c07
5556
10c4
02dc
cafe
2017
5556
10c8
0240
cafe
2408
5556
10c8
0271
cafe
2818
5556
10c8
02bb
cafe
2c00
5556
10c8
029d
cafe
3010
5556
10cc
031f
cafe
3409
5556
10cc
027f
cafe
3819
5556
10cc
-
0262
cafe
3c01
5556
10cc
02ab
cafe
2011
5556
10d0
02dc
cafe
240a
5556
10d0
0202
cafe
281a
5556
10d0
026c
cafe
2c02
5556
10d0
02a1
cafe
3012
5556
10d4
0281
cafe
340b
5556
10d4
024c
cafe
381b
5556
10d4
02bd
cafe
3c03
5556
10d4
027d
cafe
2013
5556
10d8
02f0
cafe
240c
5556
10d8
02ab
cafe
281c
5556
10d8
02a8
cafe
2c04
5556
10d8
028a
cafe
3014
5556
10dc
02de
cafe
340d
5556
10dc
02d2
cafe
381d
5556
10dc
01fa
cafe
3c05
5556
10dc
02f8
cafe
2015
5556
10e0
0183
cafe
240e
5556
10e0
0303
cafe
281e
5556
10e0
030f
cafe
2c06
5556
10e0
0251
cafe
3016
5556
10e4
025e
cafe
340f
5556
10e4
025c
cafe
381f
5556
10e4
0278
cafe
3c07
5556
10e4
02cc
cafe
2017
5556
10e8
022b
cafe
2408
5556
10e8
025e
cafe
2818
5556
10e8
02a3
cafe
2c00
5556
10e8
0280
cafe
3010
5556
10ec
0307
cafe
3409
5556
10ec
0266
cafe
3819
5556
10ec
024d
cafe
3c01
5556
10ec
0298
cafe
2011
5556
10f0
02c3
cafe
240a
5556
10f0
01e9
cafe
281a
5556
10f0
0251
cafe
2c02
5556
10f0
0286
cafe
3012
5556
10f4
026d
cafe
340b
5556
10f4
0237
cafe
381b
5556
10f4
02a4
cafe
3c03
5556
10f4
026a
cafe
2013
5556
10f8
02da
cafe
240c
5556
10f8
0294
cafe
281c
5556
10f8
0295
cafe
2c04
5556
10f8
026c
cafe
3014
5556
10fc
02c6
cafe
340d
5556
10fc
02bb
cafe
381d
5556
10fc
01e1
cafe
3c05
5556
10fc
02e6
cafe
2015
5556
1100
016a
cafe
240e
5556
1100
02f0
-
cafe
281e
5556
1100
02f6
cafe
2c06
5556
1100
0240
cafe
3016
5556
1104
0246
cafe
340f
5556
1104
0249
cafe
381f
5556
1104
0264
cafe
3c07
5556
1104
02b8
cafe
2017
5556
1108
0214
cafe
2408
5556
1108
024a
cafe
2818
5556
1108
028e
cafe
2c00
5556
1108
0268
cafe
3010
5556
110c
02f3
cafe
3409
5556
110c
0251
cafe
3819
5556
110c
0239
cafe
3c01
5556
110c
0280
cafe
2011
5556
1110
02aa
cafe
240a
5556
1110
01cc
cafe
281a
5556
1110
023e
cafe
2c02
5556
1110
0271
cafe
3012
5556
1114
0250
cafe
340b
5556
1114
0222
cafe
381b
5556
1114
0289
cafe
3c03
5556
1114
025b
cafe
2013
5556
1118
02c8
cafe
240c
5556
1118
0280
cafe
281c
5556
1118
027f
cafe
2c04
5556
1118
025b
cafe
3014
5556
111c
02b1
cafe
340d
5556
111c
02a8
cafe
381d
5556
111c
01d1
cafe
3c05
5556
111c
02d5
cafe
2015
5556
1120
0157
cafe
240e
5556
1120
02df
cafe
281e
5556
1120
02e0
cafe
2c06
5556
1120
022c
cafe
3016
5556
1124
0237
cafe
340f
5556
1124
0237
cafe
381f
5556
1124
024d
cafe
3c07
5556
1124
02ac
cafe
2017
5556
1128
01f6
cafe
2408
5556
1128
0238
cafe
2818
5556
1128
027a
cafe
2c00
5556
1128
0254
cafe
3010
5556
112c
02db
cafe
3409
5556
112c
023e
cafe
3819
5556
112c
0225
cafe
3c01
5556
112c
026b
cafe
2011
5556
1130
0295
cafe
240a
5556
1130
01af
cafe
281a
5556
1130
022b
cafe
2c02
5556
1130
025e
cafe
3012
5556
1134
0236
cafe
-
340b
5556
1134
0214
cafe
381b
5556
1134
0278
cafe
3c03
5556
1134
0248
cafe
2013
5556
1138
02bb
cafe
240c
5556
1138
026d
cafe
281c
5556
1138
026f
cafe
2c04
5556
1138
024a
cafe
3014
5556
113c
029c
cafe
340d
5556
113c
0296
cafe
381d
5556
113c
01b8
cafe
3c05
5556
113c
02c7
cafe
2015
5556
1140
0145
cafe
240e
5556
1140
02ca
cafe
281e
5556
1140
02c8
cafe
2c06
5556
1140
0216
cafe
3016
5556
1144
0229
cafe
340f
5556
1144
0228
cafe
381f
5556
1144
023e
cafe
3c07
5556
1144
029d
cafe
2017
5556
1148
01e7
cafe
2408
5556
1148
0228
cafe
2818
5556
1148
0267
cafe
2c00
5556
1148
0244
cafe
3010
5556
114c
02c7
cafe
3409
5556
114c
022c
cafe
3819
5556
114c
0212
cafe
3c01
5556
114c
025b
cafe
2011
5556
1150
0282
cafe
240a
5556
1150
019d
cafe
281a
5556
1150
021f
cafe
2c02
5556
1150
0247
cafe
3012
5556
1154
021f
cafe
340b
5556
1154
0207
cafe
381b
5556
1154
0269
cafe
3c03
5556
1154
0239
cafe
2013
5556
1158
02af
cafe
240c
5556
1158
0256
cafe
281c
5556
1158
025e
cafe
2c04
5556
1158
0239
cafe
3014
5556
115c
0283
cafe
340d
5556
115c
028a
cafe
381d
5556
115c
01ab
cafe
3c05
5556
115c
02b3
cafe
2015
5556
1160
013b
cafe
240e
5556
1160
02ba
cafe
281e
5556
1160
02b9
cafe
2c06
5556
1160
0204
cafe
3016
5556
1164
0219
cafe
340f
5556
1164
0213
cafe
381f
5556
1164
0230
cafe
3c07
5556
1164
0282
cafe
2017
-
5556
1168
01df
cafe
2408
5556
1168
0215
cafe
2818
5556
1168
0250
cafe
2c00
5556
1168
0236
cafe
3010
5556
116c
02b1
cafe
3409
5556
116c
021d
cafe
3819
5556
116c
0206
cafe
3c01
5556
116c
0252
cafe
2011
5556
1170
0273
cafe
240a
5556
1170
018f
cafe
281a
5556
1170
0211
cafe
2c02
5556
1170
023b
cafe
3012
5556
1174
020e
cafe
340b
5556
1174
01f3
cafe
381b
5556
1174
0259
cafe
3c03
5556
1174
0229
cafe
2013
5556
1178
0299
cafe
240c
5556
1178
0245
cafe
281c
5556
1178
024c
cafe
2c04
5556
1178
0229
cafe
3014
5556
117c
026e
cafe
340d
5556
117c
027c
cafe
381d
5556
117c
019a
cafe
3c05
5556
117c
029e
cafe
2015
5556
1180
012c
cafe
240e
5556
1180
02a9
cafe
281e
5556
1180
02ac
cafe
2c06
5556
1180
01f6
cafe
3016
5556
1184
0209
cafe
340f
5556
1184
0205
cafe
381f
5556
1184
0223
cafe
3c07
5556
1184
026b
cafe
2017
5556
1188
01c5
cafe
2408
5556
1188
0205
cafe
2818
5556
1188
0247
cafe
2c00
5556
1188
0228
cafe
3010
5556
118c
02a0
cafe
3409
5556
118c
0214
cafe
3819
5556
118c
01f6
cafe
3c01
5556
118c
0240
cafe
2011
5556
1190
0264
cafe
240a
5556
1190
0181
cafe
281a
5556
1190
0204
cafe
2c02
5556
1190
022b
cafe
3012
5556
1194
0201
cafe
340b
5556
1194
01e4
cafe
381b
5556
1194
024a
cafe
3c03
5556
1194
021a
cafe
2013
5556
1198
0286
cafe
240c
5556
1198
0235
cafe
281c
5556
1198
023b
cafe
2c04
5556
-
1198
0218
cafe
3014
5556
119c
0263
cafe
340d
5556
119c
0274
cafe
381d
5556
119c
0190
cafe
3c05
5556
119c
0293
cafe
2015
5556
11a0
011f
cafe
240e
5556
11a0
0298
cafe
281e
5556
11a0
02a0
cafe
2c06
5556
11a0
01e9
cafe
3016
5556
11a4
01f9
cafe
340f
5556
11a4
01fd
cafe
381f
5556
11a4
0214
cafe
3c07
5556
11a4
0261
cafe
2017
5556
11a8
01b6
cafe
2408
5556
11a8
01fa
cafe
2818
5556
11a8
0236
cafe
2c00
5556
11a8
0218
cafe
3010
5556
11ac
0287
cafe
3409
5556
11ac
0205
cafe
3819
5556
11ac
01e8
cafe
3c01
5556
11ac
0230
cafe
2011
5556
11b0
0257
cafe
240a
5556
11b0
0173
cafe
281a
5556
11b0
01f5
cafe
2c02
5556
11b0
021a
cafe
3012
5556
11b4
01f6
cafe
340b
5556
11b4
01d1
cafe
381b
5556
11b4
0237
cafe
3c03
5556
11b4
020d
cafe
2013
5556
11b8
0279
cafe
240c
5556
11b8
0226
cafe
281c
5556
11b8
022c
cafe
2c04
5556
11b8
020c
cafe
3014
5556
11bc
024c
cafe
340d
5556
11bc
0264
cafe
381d
5556
11bc
0184
cafe
3c05
5556
11bc
0280
cafe
2015
5556
11c0
0113
cafe
240e
5556
11c0
0284
cafe
281e
5556
11c0
0292
cafe
2c06
5556
11c0
01e0
cafe
3016
5556
11c4
01ea
cafe
340f
5556
11c4
01f3
cafe
381f
5556
11c4
0209
cafe
3c07
5556
11c4
024e
cafe
2017
5556
11c8
01aa
cafe
2408
5556
11c8
01ec
cafe
2818
5556
11c8
0227
cafe
2c00
5556
11c8
020a
cafe
3010
5556
11cc
0282
cafe
3409
5556
11cc
01f9
cafe
3819
5556
11cc
-
01de
cafe
3c01
5556
11cc
0225
cafe
2011
5556
11d0
024d
cafe
240a
5556
11d0
0164
cafe
281a
5556
11d0
01e4
cafe
2c02
5556
11d0
0212
cafe
3012
5556
11d4
01e6
cafe
340b
5556
11d4
01c5
cafe
381b
5556
11d4
022e
cafe
3c03
5556
11d4
01ff
cafe
2013
5556
11d8
0266
cafe
240c
5556
11d8
0215
cafe
281c
5556
11d8
0222
cafe
2c04
5556
11d8
0205
cafe
3014
5556
11dc
023c
cafe
340d
5556
11dc
025a
cafe
381d
5556
11dc
0178
cafe
3c05
5556
11dc
0271
cafe
2015
5556
11e0
010b
cafe
240e
5556
11e0
0276
cafe
281e
5556
11e0
0283
cafe
2c06
5556
11e0
01d9
cafe
3016
5556
11e4
01e1
cafe
340f
5556
11e4
01f0
cafe
381f
5556
11e4
01fa
cafe
3c07
5556
11e4
0239
cafe
2017
5556
11e8
0195
cafe
2408
5556
11e8
01de
cafe
2818
5556
11e8
021e
cafe
2c00
5556
11e8
01fc
cafe
3010
5556
11ec
0275
cafe
3409
5556
11ec
01f2
cafe
3819
5556
11ec
01ce
cafe
3c01
5556
11ec
0219
cafe
2011
5556
11f0
0241
cafe
240a
5556
11f0
0154
cafe
281a
5556
11f0
01d3
cafe
2c02
5556
11f0
0206
cafe
3012
5556
11f4
01dc
cafe
340b
5556
11f4
01bc
cafe
381b
5556
11f4
0221
cafe
3c03
5556
11f4
01f8
cafe
2013
5556
11f8
025b
cafe
240c
5556
11f8
0205
cafe
281c
5556
11f8
021a
cafe
2c04
5556
11f8
01fb
cafe
3014
5556
11fc
0233
cafe
340d
5556
11fc
0246
cafe
381d
5556
11fc
0166
cafe
3c05
5556
11fc
0263
cafe
2015
5556
1200
00f8
cafe
240e
5556
1200
0267
-
cafe
281e
5556
1200
027d
cafe
2c06
5556
1200
01d0
cafe
3016
5556
1204
01d9
cafe
340f
5556
1204
01ea
cafe
381f
5556
1204
01ed
cafe
3c07
5556
1204
022c
cafe
2017
5556
1208
0186
cafe
2408
5556
1208
01d1
cafe
2818
5556
1208
0214
cafe
2c00
5556
1208
01f3
cafe
3010
5556
120c
0268
cafe
3409
5556
120c
01e8
cafe
3819
5556
120c
01c2
cafe
3c01
5556
120c
0216
cafe
2011
5556
1210
0236
cafe
240a
5556
1210
014e
cafe
281a
5556
1210
01c9
cafe
2c02
5556
1210
01f4
cafe
3012
5556
1214
01d8
cafe
340b
5556
1214
01b3
cafe
381b
5556
1214
0219
cafe
3c03
5556
1214
01f0
cafe
2013
5556
1218
0251
cafe
240c
5556
1218
0202
cafe
281c
5556
1218
0210
cafe
2c04
5556
1218
01ed
cafe
3014
5556
121c
0227
cafe
340d
5556
121c
0238
cafe
381d
5556
121c
0161
cafe
3c05
5556
121c
0258
cafe
2015
5556
1220
00f7
cafe
240e
5556
1220
0258
cafe
281e
5556
1220
0272
cafe
2c06
5556
1220
01bf
cafe
3016
5556
1224
01d0
cafe
340f
5556
1224
01e4
cafe
381f
5556
1224
01dd
cafe
3c07
5556
1224
0226
cafe
2017
5556
1228
017d
cafe
2408
5556
1228
01c7
cafe
2818
5556
1228
0202
cafe
2c00
5556
1228
01e6
cafe
3010
5556
122c
0254
cafe
3409
5556
122c
01de
cafe
3819
5556
122c
01b7
cafe
3c01
5556
122c
020d
cafe
2011
5556
1230
0230
cafe
240a
5556
1230
0145
cafe
281a
5556
1230
01c0
cafe
2c02
5556
1230
01ea
cafe
3012
5556
1234
01c5
cafe
-
340b
5556
1234
01a3
cafe
381b
5556
1234
020e
cafe
3c03
5556
1234
01ed
cafe
2013
5556
1238
024d
cafe
240c
5556
1238
01f2
cafe
281c
5556
1238
0201
cafe
2c04
5556
1238
01e4
cafe
3014
5556
123c
021c
cafe
340d
5556
123c
022d
cafe
381d
5556
123c
0159
cafe
3c05
5556
123c
0249
cafe
2015
5556
1240
00ed
cafe
240e
5556
1240
024e
cafe
281e
5556
1240
0266
cafe
2c06
5556
1240
01b4
cafe
3016
5556
1244
01c6
cafe
340f
5556
1244
01d9
cafe
381f
5556
1244
01d1
cafe
3c07
5556
1244
021b
cafe
2017
5556
1248
0176
cafe
2408
5556
1248
01ba
cafe
2818
5556
1248
01ff
cafe
2c00
5556
1248
01e1
cafe
3010
5556
124c
024e
cafe
3409
5556
124c
01dc
cafe
3819
5556
124c
01ab
cafe
3c01
5556
124c
0204
cafe
2011
5556
1250
0227
cafe
240a
5556
1250
013c
cafe
281a
5556
1250
01ba
cafe
2c02
5556
1250
01de
cafe
3012
5556
1254
01b4
cafe
340b
5556
1254
0196
cafe
381b
5556
1254
0202
cafe
3c03
5556
1254
01e9
cafe
2013
5556
1258
0245
cafe
240c
5556
1258
01ee
cafe
281c
5556
1258
01fc
cafe
2c04
5556
1258
01de
cafe
3014
5556
125c
020f
cafe
340d
5556
125c
0228
cafe
381d
5556
125c
0151
cafe
3c05
5556
125c
0244
cafe
2015
5556
1260
00e8
cafe
240e
5556
1260
0243
cafe
281e
5556
1260
0260
cafe
2c06
5556
1260
01aa
cafe
3016
5556
1264
01c0
cafe
340f
5556
1264
01ce
cafe
381f
5556
1264
01c6
cafe
3c07
5556
1264
0213
cafe
2017
-
5556
1268
0174
cafe
2408
5556
1268
01b7
cafe
2818
5556
1268
01f5
cafe
2c00
5556
1268
01d6
cafe
3010
5556
126c
0247
cafe
3409
5556
126c
01d0
cafe
3819
5556
126c
01a3
cafe
3c01
5556
126c
01f6
cafe
2011
5556
1270
021e
cafe
240a
5556
1270
0133
cafe
281a
5556
1270
01b0
cafe
2c02
5556
1270
01dc
cafe
3012
5556
1274
01ab
cafe
340b
5556
1274
0190
cafe
381b
5556
1274
01fc
cafe
3c03
5556
1274
01dd
cafe
2013
5556
1278
0237
cafe
240c
5556
1278
01e3
cafe
281c
5556
1278
01f2
cafe
2c04
5556
1278
01d6
cafe
3014
5556
127c
0207
cafe
340d
5556
127c
021f
cafe
381d
5556
127c
014a
cafe
3c05
5556
127c
023b
cafe
2015
5556
1280
00e2
cafe
240e
5556
1280
0237
cafe
281e
5556
1280
0258
cafe
2c06
5556
1280
01a0
cafe
3016
5556
1284
01b2
cafe
340f
5556
1284
01c7
cafe
381f
5556
1284
01bd
cafe
3c07
5556
1284
0208
cafe
2017
5556
1288
0170
cafe
2408
5556
1288
01b1
cafe
2818
5556
1288
01e8
cafe
2c00
5556
1288
01d1
cafe
3010
5556
128c
0244
cafe
3409
5556
128c
01c7
cafe
3819
5556
128c
019b
cafe
3c01
5556
128c
01f2
cafe
2011
5556
1290
021a
cafe
240a
5556
1290
012d
cafe
281a
5556
1290
01a9
cafe
2c02
5556
1290
01dd
cafe
3012
5556
1294
01a9
cafe
340b
5556
1294
018e
cafe
381b
5556
1294
01f3
cafe
3c03
5556
1294
01d0
cafe
2013
5556
1298
0227
cafe
240c
5556
1298
01dc
cafe
281c
5556
1298
01e4
cafe
2c04
5556
-
1298
01d6
cafe
3014
5556
129c
020a
cafe
340d
5556
129c
021f
cafe
381d
5556
129c
0144
cafe
3c05
5556
129c
022c
cafe
2015
5556
12a0
00cf
cafe
240e
5556
12a0
022b
cafe
281e
5556
12a0
024a
cafe
2c06
5556
12a0
019c
cafe
3016
5556
12a4
01ac
cafe
340f
5556
12a4
01b8
cafe
381f
5556
12a4
01bc
cafe
3c07
5556
12a4
0203
cafe
2017
5556
12a8
016b
cafe
2408
5556
12a8
01ab
cafe
2818
5556
12a8
01e1
cafe
2c00
5556
12a8
01c8
cafe
3010
5556
12ac
023d
cafe
3409
5556
12ac
01bf
cafe
3819
5556
12ac
018b
cafe
3c01
5556
12ac
01e7
cafe
2011
5556
12b0
0211
cafe
240a
5556
12b0
0119
cafe
281a
5556
12b0
01a4
cafe
2c02
5556
12b0
01d4
cafe
3012
5556
12b4
01a3
cafe
340b
5556
12b4
0185
cafe
381b
5556
12b4
01ec
cafe
3c03
5556
12b4
01ca
cafe
2013
5556
12b8
021d
cafe
240c
5556
12b8
01d4
cafe
281c
5556
12b8
01e0
cafe
2c04
5556
12b8
01d0
cafe
3014
5556
12bc
0201
cafe
340d
5556
12bc
0218
cafe
381d
5556
12bc
013b
cafe
3c05
5556
12bc
0221
cafe
2015
5556
12c0
00c9
cafe
240e
5556
12c0
0220
cafe
281e
5556
12c0
0248
cafe
2c06
5556
12c0
0197
cafe
3016
5556
12c4
01ab
cafe
340f
5556
12c4
01ad
cafe
381f
5556
12c4
01b5
cafe
3c07
5556
12c4
01fb
cafe
2017
5556
12c8
015d
cafe
2408
5556
12c8
01a0
cafe
2818
5556
12c8
01da
cafe
2c00
5556
12c8
01c3
cafe
3010
5556
12cc
022f
cafe
3409
5556
12cc
01b6
cafe
3819
5556
12cc
-
0188
cafe
3c01
5556
12cc
01d6
cafe
2011
5556
12d0
020a
cafe
240a
5556
12d0
010f
cafe
281a
5556
12d0
019c
cafe
2c02
5556
12d0
01ce
cafe
3012
5556
12d4
0198
cafe
340b
5556
12d4
0185
cafe
381b
5556
12d4
01ea
cafe
3c03
5556
12d4
01c6
cafe
2013
5556
12d8
0220
cafe
240c
5556
12d8
01cc
cafe
281c
5556
12d8
01d8
cafe
2c04
5556
12d8
01c5
cafe
3014
5556
12dc
0200
cafe
340d
5556
12dc
0214
cafe
381d
5556
12dc
0135
cafe
3c05
5556
12dc
021c
cafe
2015
5556
12e0
00c5
cafe
240e
5556
12e0
0213
cafe
281e
5556
12e0
0241
cafe
2c06
5556
12e0
0193
cafe
3016
5556
12e4
01a3
cafe
340f
5556
12e4
01aa
cafe
381f
5556
12e4
01aa
cafe
3c07
5556
12e4
01f6
cafe
2017
5556
12e8
0156
cafe
2408
5556
12e8
0199
cafe
2818
5556
12e8
01d0
cafe
2c00
5556
12e8
01bd
cafe
3010
5556
12ec
022a
cafe
3409
5556
12ec
01b1
cafe
3819
5556
12ec
017f
cafe
3c01
5556
12ec
01c7
cafe
2011
5556
12f0
0203
cafe
240a
5556
12f0
010c
cafe
281a
5556
12f0
0196
cafe
2c02
5556
12f0
01c2
cafe
3012
5556
12f4
0190
cafe
340b
5556
12f4
017b
cafe
381b
5556
12f4
01ea
cafe
3c03
5556
12f4
01c5
cafe
2013
5556
12f8
0218
cafe
240c
5556
12f8
01c3
cafe
281c
5556
12f8
01d3
cafe
2c04
5556
12f8
01bc
cafe
3014
5556
12fc
01f7
cafe
340d
5556
12fc
020f
cafe
381d
5556
12fc
0131
cafe
3c05
5556
12fc
0221
cafe
2015
5556
1300
00c2
cafe
240e
5556
1300
0211
-
cafe
281e
5556
1300
0234
cafe
2c06
5556
1300
0188
cafe
3016
5556
1304
0199
cafe
340f
5556
1304
01a6
cafe
381f
5556
1304
01a8
cafe
3c07
5556
1304
01f6
cafe
2017
5556
1308
014d
cafe
2408
5556
1308
0195
cafe
2818
5556
1308
01c2
cafe
2c00
5556
1308
01b7
cafe
3010
5556
130c
0226
cafe
3409
5556
130c
01a8
cafe
3819
5556
130c
0182
cafe
3c01
5556
130c
01c4
cafe
2011
5556
1310
01f7
cafe
240a
5556
1310
0105
cafe
281a
5556
1310
0193
cafe
2c02
5556
1310
01b5
cafe
3012
5556
1314
018b
cafe
340b
5556
1314
0176
cafe
381b
5556
1314
01e6
cafe
3c03
5556
1314
01b7
cafe
2013
5556
1318
020c
cafe
240c
5556
1318
01b9
cafe
281c
5556
1318
01cb
cafe
2c04
5556
1318
01b4
cafe
3014
5556
131c
01e9
cafe
340d
5556
131c
0202
cafe
381d
5556
131c
012c
cafe
3c05
5556
131c
0219
cafe
2015
5556
1320
00bf
cafe
240e
5556
1320
0212
cafe
281e
5556
1320
022e
cafe
2c06
5556
1320
017f
cafe
3016
5556
1324
0193
cafe
340f
5556
1324
019f
cafe
381f
5556
1324
019f
cafe
3c07
5556
1324
01f0
cafe
2017
5556
1328
0146
cafe
2408
5556
1328
0192
cafe
2818
5556
1328
01c5
cafe
2c00
5556
1328
01b1
cafe
3010
5556
132c
021d
cafe
3409
5556
132c
01a0
cafe
3819
5556
132c
0182
cafe
3c01
5556
132c
01be
cafe
2011
5556
1330
01f0
cafe
240a
5556
1330
0103
cafe
281a
5556
1330
018c
cafe
2c02
5556
1330
01ad
cafe
3012
5556
1334
0188
cafe
-
