2c06
0000
0000
0028
cafe
3006
0000
0000
002a
cafe
3406
0000
0000
0027
cafe
3806
0000
0000
002b
cafe
3c06
0000
0000
002b
cafe
2006
0000
0000
002d
cafe
2406
0000
0000
002c
cafe
2806
0000
0000
002d
cafe
2c06
0000
0000
002e
cafe
3006
0000
0000
002d
cafe
3406
0000
0000
0031
cafe
3806
0000
0000
0030
cafe
3c06
0000
0000
0030
cafe
2006
0000
0000
002e
cafe
2406
0000
0000
0031
cafe
2806
0000
0000
002b
cafe
2c06
0000
0000
002a
cafe
3006
0000
0000
002b
cafe
3406
0000
0000
0028
cafe
3806
0000
0000
002b
cafe
3c06
0000
0000
0029
cafe
2006
0000
0000
0028
cafe
2406
0000
0000
0027
cafe
2806
0000
0000
0025
cafe
2c06
0000
0000
002b
cafe
3006
0000
0000
002e
cafe
3406
0000
0000
002b
cafe
3806
0000
0000
002a
cafe
3c06
0000
0000
002b
cafe
2006
0000
0000
002a
cafe
2406
0000
0000
002c
cafe
2806
0000
0000
0026
cafe
2c06
0000
0000
0028
cafe
3006
0000
0000
002b
cafe
3406
0000
0000
0025
cafe
3806
0000
0000
002a
cafe
3c06
0000
0000
002a
cafe
2006
0000
0000
002a
cafe
2406
0000
0000
002b
cafe
2806
0000
0000
002a
cafe
2c06
0000
0000
002b
cafe
3006
0000
0000
002c
cafe
3406
0000
0000
002a
cafe
3806
0000
0000
002b
cafe
3c06
0000
0000
002d
cafe
2006
0000
0000
0030
cafe
2406
0000
0000
002f
cafe
2806
0000
0000
0028
cafe
2c06
0000
0000
0030
cafe
3006
0000
0000
0031
cafe
3406
0000
0000
002c
cafe
3806
-
0000
0000
002b
cafe
3c06
0000
0000
002f
cafe
2006
0000
0000
002a
cafe
2406
0000
0000
002b
cafe
2806
0000
0000
002d
cafe
2c06
0000
0000
002f
cafe
3006
0000
0000
002b
cafe
3406
0000
0000
002c
cafe
3806
0000
0000
0031
cafe
3c06
0000
0000
002e
cafe
2006
0000
0000
002e
cafe
2406
0000
0000
002b
cafe
2806
0000
0000
002a
cafe
2c06
0000
0000
002d
cafe
3006
0000
0000
002d
cafe
3406
0000
0000
002d
cafe
3806
0000
0000
002b
cafe
3c06
0000
0000
002b
cafe
2006
0000
0000
002c
cafe
2406
0000
0000
002d
cafe
2806
0000
0000
002c
cafe
2c06
0000
0000
002d
cafe
3006
0000
0000
002b
cafe
3406
0000
0000
0028
cafe
3806
0000
0000
002c
cafe
3c06
0000
0000
002d
cafe
2006
0000
0000
002d
cafe
2406
0000
0000
002c
cafe
2806
0000
0000
002d
cafe
2c06
0000
0000
0030
cafe
3006
0000
0000
0028
cafe
3406
0000
0000
0029
cafe
3806
0000
0000
0025
cafe
3c06
0000
0000
002c
cafe
2006
0000
0000
002d
cafe
2406
0000
0000
002b
cafe
2806
0000
0000
002c
cafe
2c06
0000
0000
002d
cafe
3006
0000
0000
002d
cafe
3406
0000
0000
0030
cafe
3806
0000
0000
002a
cafe
3c06
0000
0000
002a
cafe
2006
0000
0000
002c
cafe
2406
0000
0000
0028
cafe
2806
0000
0000
002e
cafe
2c06
0000
0000
0030
cafe
3006
0000
0000
002d
cafe
3406
0000
0000
002a
cafe
3806
0000
0000
002d
cafe
3c06
0000
0000
0031
cafe
2006
0000
0000
002c
cafe
2406
0000
-
0000
0027
cafe
2806
0000
0000
0028
cafe
2c06
0000
0000
0028
cafe
3006
0000
0000
0026
cafe
3406
0000
0000
0025
cafe
3806
0000
0000
0026
cafe
3c06
0000
0000
0029
cafe
2006
0000
0000
002a
cafe
2406
0000
0000
002c
cafe
2806
0000
0000
0026
cafe
2c06
0000
0000
0027
cafe
3006
0000
0000
0025
cafe
3406
0000
0000
002a
cafe
3806
0000
0000
002a
cafe
3c06
0000
0000
0024
cafe
2006
0000
0000
0029
cafe
2406
0000
0000
002a
cafe
2806
0000
0000
0028
cafe
2c06
0000
0000
002a
cafe
3006
0000
0000
002c
cafe
3406
0000
0000
002d
cafe
3806
0000
0000
0027
cafe
3c06
0000
0000
002b
cafe
2006
0000
0000
002c
cafe
2406
0000
0000
002b
cafe
2806
0000
0000
0027
cafe
2c06
0000
0000
0030
cafe
3006
0000
0000
002d
cafe
3406
0000
0000
002d
cafe
3806
0000
0000
002c
cafe
3c06
0000
0000
002b
cafe
2006
0000
0000
002d
cafe
2406
0000
0000
0030
cafe
2806
0000
0000
002b
cafe
2c06
0000
0000
002f
cafe
3006
0000
0000
0025
cafe
3406
0000
0000
0025
cafe
3806
0000
0000
002c
cafe
3c06
0000
0000
002b
cafe
2006
0000
0000
002b
cafe
2406
0000
0000
0029
cafe
2806
0000
0000
0027
cafe
2c06
0000
0000
0029
cafe
3006
0000
0000
0029
cafe
3406
0000
0000
0025
cafe
3806
0000
0000
0026
cafe
3c06
0000
0000
0027
cafe
2006
0000
0000
002d
cafe
2406
0000
0000
0025
cafe
2806
0000
0000
0025
cafe
2c06
0000
0000
0024
cafe
3006
0000
0000
-
0024
cafe
3406
0000
0000
0023
cafe
3806
0000
0000
002a
cafe
3c06
0000
0000
002c
cafe
2006
0000
0000
002b
cafe
2406
0000
0000
002a
cafe
2806
0000
0000
002a
cafe
2c06
0000
0000
0027
cafe
3006
0000
0000
0028
cafe
3406
0000
0000
002a
cafe
3806
0000
0000
0026
cafe
3c06
0000
0000
002a
cafe
2006
0000
0000
002a
cafe
2406
0000
0000
0028
cafe
2806
0000
0000
0028
cafe
2c06
0000
0000
0028
cafe
3006
0000
0000
0027
cafe
3406
0000
0000
0026
cafe
3806
0000
0000
002a
cafe
3c06
0000
0000
0028
cafe
2006
0000
0000
0026
cafe
2406
0000
0000
002c
cafe
2806
0000
0000
002c
cafe
2c06
0000
0000
002a
cafe
3006
0000
0000
002c
cafe
3406
0000
0000
002c
cafe
3806
0000
0000
002a
cafe
3c06
0000
0000
0028
cafe
2006
0000
0000
0026
cafe
2406
0000
0000
0029
cafe
2806
0000
0000
002b
cafe
2c06
0000
0000
0027
cafe
3006
0000
0000
0027
cafe
3406
0000
0000
0027
cafe
3806
0000
0000
002c
cafe
3c06
0000
0000
002c
cafe
2006
0000
0000
0030
cafe
2406
0000
0000
0030
cafe
2806
0000
0000
002d
cafe
2c06
0000
0000
002c
cafe
3006
0000
0000
002a
cafe
3406
0000
0000
002a
cafe
3806
0000
0000
0035
cafe
3c06
0000
0000
002b
cafe
2006
0000
0000
002b
cafe
2406
0000
0000
0027
cafe
2806
0000
0000
002b
cafe
2c06
0000
0000
0028
cafe
3006
0000
0000
002c
cafe
3406
0000
0000
002a
cafe
3806
0000
0000
002c
cafe
3c06
0000
0000
002c
-
cafe
2006
0000
0000
002d
cafe
2406
0000
0000
002a
cafe
2806
0000
0000
0024
cafe
2c06
0000
0000
002b
cafe
3006
0000
0000
002b
cafe
3406
0000
0000
0027
cafe
3806
0000
0000
002e
cafe
3c06
0000
0000
0028
cafe
2006
0000
0000
002e
cafe
2406
0000
0000
002e
cafe
2806
0000
0000
0030
cafe
2c06
0000
0000
002e
cafe
3006
0000
0000
002a
cafe
3406
0000
0000
0029
cafe
3806
0000
0000
0030
cafe
3c06
0000
0000
002c
cafe
2006
0000
0000
0030
cafe
2406
0000
0000
002c
cafe
2806
0000
0000
002d
cafe
2c06
0000
0000
002e
cafe
3006
0000
0000
002f
cafe
3406
0000
0000
002f
cafe
3806
0000
0000
002f
cafe
3c06
0000
0000
002e
cafe
2006
0000
0000
002c
cafe
2406
0000
0000
002e
cafe
2806
0000
0000
0029
cafe
2c06
0000
0000
002b
cafe
3006
0000
0000
0028
cafe
3406
0000
0000
0029
cafe
3806
0000
0000
002d
cafe
3c06
0000
0000
002b
cafe
2006
0000
0000
002e
cafe
2406
0000
0000
002a
cafe
2806
0000
0000
0028
cafe
2c06
0000
0000
0028
cafe
3006
0000
0000
0024
cafe
3406
0000
0000
0029
cafe
3806
0000
0000
002a
cafe
3c06
0000
0000
002b
cafe
2006
0000
0000
002c
cafe
2406
0000
0000
002e
cafe
2806
0000
0000
002c
cafe
2c06
0000
0000
0030
cafe
3006
0000
0000
0029
cafe
3406
0000
0000
0031
cafe
3806
0000
0000
002a
cafe
3c06
0000
0000
0027
cafe
2006
0000
0000
002a
cafe
2406
0000
0000
002a
cafe
2806
0000
0000
0027
cafe
-
2c06
0000
0000
0029
cafe
3006
0000
0000
0027
cafe
3406
0000
0000
0024
cafe
3806
0000
0000
0027
cafe
3c06
0000
0000
0026
cafe
2006
0000
0000
0028
cafe
2406
0000
0000
0028
cafe
2806
0000
0000
0025
cafe
2c06
0000
0000
0025
cafe
3006
0000
0000
0027
cafe
3406
0000
0000
0025
cafe
3806
0000
0000
0022
cafe
3c06
0000
0000
0021
cafe
2006
0000
0000
0022
cafe
2406
0000
0000
0023
cafe
2806
0000
0000
0025
cafe
2c06
0000
0000
0027
cafe
3006
0000
0000
0023
cafe
3406
0000
0000
0023
cafe
3806
0000
0000
002b
cafe
3c06
0000
0000
0028
cafe
2006
0000
0000
002a
cafe
2406
0000
0000
0029
cafe
2806
0000
0000
002e
cafe
2c06
0000
0000
0025
cafe
3006
0000
0000
002e
cafe
3406
0000
0000
002d
cafe
3806
0000
0000
002c
cafe
3c06
0000
0000
0029
cafe
2006
0000
0000
002a
cafe
2406
0000
0000
0027
cafe
2806
0000
0000
0024
cafe
2c06
0000
0000
002a
cafe
3006
0000
0000
0028
cafe
3406
0000
0000
002c
cafe
3806
0000
0000
002d
cafe
3c06
0000
0000
002a
cafe
2006
0000
0000
002d
cafe
2406
0000
0000
002c
cafe
2806
0000
0000
0029
cafe
2c06
0000
0000
002a
cafe
3006
0000
0000
0029
cafe
3406
0000
0000
0029
cafe
3806
0000
0000
0027
cafe
3c06
0000
0000
0028
cafe
2006
0000
0000
002c
cafe
2406
0000
0000
0027
cafe
2806
0000
0000
002a
cafe
2c06
0000
0000
0029
cafe
3006
0000
0000
0028
cafe
3406
0000
0000
0021
cafe
3806
-
0000
0000
0023
cafe
3c06
0000
0000
0026
cafe
2006
0000
0000
0026
cafe
2406
0000
0000
0029
cafe
2806
0000
0000
002f
cafe
2c06
0000
0000
002c
cafe
3006
0000
0000
0029
cafe
3406
0000
0000
002a
cafe
3806
0000
0000
0029
cafe
3c06
0000
0000
002a
cafe
2006
0000
0000
0031
cafe
2406
0000
0000
002d
cafe
2806
0000
0000
0024
cafe
2c06
0000
0000
002c
cafe
3006
0000
0000
0030
cafe
3406
0000
0000
0029
cafe
3806
0000
0000
0029
cafe
3c06
0000
0000
002a
cafe
2006
0000
0000
0029
cafe
2406
0000
0000
002a
cafe
2806
0000
0000
002a
cafe
2c06
0000
0000
0028
cafe
3006
0000
0000
002a
cafe
3406
0000
0000
002c
cafe
3806
0000
0000
0029
cafe
3c06
0000
0000
002e
cafe
2006
0000
0000
002a
cafe
2406
0000
0000
0026
cafe
2806
0000
0000
002a
cafe
2c06
0000
0000
0026
cafe
3006
0000
0000
002d
cafe
3406
0000
0000
002d
cafe
3806
0000
0000
002b
cafe
3c06
0000
0000
002e
cafe
2006
0000
0000
002c
cafe
2406
0000
0000
002d
cafe
2806
0000
0000
002c
cafe
2c06
0000
0000
002f
cafe
3006
0000
0000
002c
cafe
3406
0000
0000
0030
cafe
3806
0000
0000
002f
cafe
3c06
0000
0000
002b
cafe
2006
0000
0000
002f
cafe
2406
0000
0000
0029
cafe
2806
0000
0000
0027
cafe
2c06
0000
0000
002a
cafe
3006
0000
0000
002e
cafe
3406
0000
0000
002e
cafe
3806
0000
0000
0030
cafe
3c06
0000
0000
0031
cafe
2006
0000
0000
002e
cafe
2406
0000
-
0000
002d
cafe
2806
0000
0000
0029
cafe
2c06
0000
0000
0029
cafe
3006
0000
0000
002b
cafe
3406
0000
0000
0030
cafe
3806
0000
0000
002f
cafe
3c06
0000
0000
0029
cafe
2006
0000
0000
002a
cafe
2406
0000
0000
0031
cafe
2806
0000
0000
002f
cafe
2c06
0000
0000
002b
cafe
3006
0000
0000
0025
cafe
3406
0000
0000
0029
cafe
3806
0000
0000
002b
cafe
3c06
0000
0000
0030
cafe
2006
0000
0000
002d
cafe
2406
0000
0000
002f
cafe
2806
0000
0000
0031
cafe
2c06
0000
0000
002e
cafe
3006
0000
0000
0028
cafe
3406
0000
0000
0028
cafe
3806
0000
0000
0025
cafe
3c06
0000
0000
0028
cafe
2006
0000
0000
002a
cafe
2406
0000
0000
0029
cafe
2806
0000
0000
002c
cafe
2c06
0000
0000
002e
cafe
3006
0000
0000
0029
cafe
3406
0000
0000
0026
cafe
3806
0000
0000
0024
cafe
3c06
0000
0000
0029
cafe
2006
0000
0000
002c
cafe
2406
0000
0000
002d
cafe
2806
0000
0000
002b
cafe
2c06
0000
0000
002e
cafe
3006
0000
0000
002b
cafe
3406
0000
0000
002d
cafe
3806
0000
0000
0029
cafe
3c06
0000
0000
0028
cafe
2006
0000
0000
002a
cafe
2406
0000
0000
002e
cafe
2806
0000
0000
0031
cafe
2c06
0000
0000
0032
cafe
3006
0000
0000
0028
cafe
3406
0000
0000
002e
cafe
3806
0000
0000
0031
cafe
3c06
0000
0000
0030
cafe
2006
0000
0000
002c
cafe
2406
0000
0000
0028
cafe
2806
0000
0000
0026
cafe
2c06
0000
0000
0029
cafe
3006
0000
0000
-
002d
cafe
3406
0000
0000
0029
cafe
3806
0000
0000
002b
cafe
3c06
0000
0000
002b
cafe
2006
0000
0000
002b
cafe
2406
0000
0000
002a
cafe
2806
0000
0000
002d
cafe
2c06
0000
0000
0029
cafe
3006
0000
0000
002b
cafe
3406
0000
0000
002b
cafe
3806
0000
0000
002b
cafe
3c06
0000
0000
002e
cafe
2006
0000
0000
0029
cafe
2406
0000
0000
002a
cafe
2806
0000
0000
0029
cafe
2c06
0000
0000
002b
cafe
3006
0000
0000
002d
cafe
3406
0000
0000
0027
cafe
3806
0000
0000
002e
cafe
3c06
0000
0000
002a
cafe
2006
0000
0000
002e
cafe
2406
0000
0000
002b
cafe
2806
0000
0000
002a
cafe
2c06
0000
0000
002b
cafe
3006
0000
0000
002f
cafe
3406
0000
0000
002e
cafe
3806
0000
0000
002d
cafe
3c06
0000
0000
0028
cafe
2006
0000
0000
002c
cafe
2406
0000
0000
002e
cafe
2806
0000
0000
0028
cafe
2c06
0000
0000
0027
cafe
3006
0000
0000
0024
cafe
3406
0000
0000
0022
cafe
3806
0000
0000
0025
cafe
3c06
0000
0000
0026
cafe
2006
0000
0000
0023
cafe
2406
0000
0000
0024
cafe
2806
0000
0000
0024
cafe
2c06
0000
0000
0028
cafe
3006
0000
0000
002a
cafe
3406
0000
0000
0028
cafe
3806
0000
0000
0026
cafe
3c06
0000
0000
0029
cafe
2006
0000
0000
002a
cafe
2406
0000
0000
002d
cafe
2806
0000
0000
002f
cafe
2c06
0000
0000
002c
cafe
3006
0000
0000
002a
cafe
3406
0000
0000
002e
cafe
3806
0000
0000
002c
cafe
3c06
0000
0000
002b
-
cafe
2006
0000
0000
002d
cafe
2406
0000
0000
002d
cafe
2806
0000
0000
0032
cafe
2c06
0000
0000
002f
cafe
3006
0000
0000
002c
cafe
3406
0000
0000
002d
cafe
3806
0000
0000
002d
cafe
3c06
0000
0000
0031
cafe
2006
0000
0000
0031
cafe
2406
0000
0000
0033
cafe
2806
0000
0000
0033
cafe
2c06
0000
0000
002f
cafe
3006
0000
0000
0032
cafe
3406
0000
0000
002f
cafe
3806
0000
0000
0031
cafe
3c06
0000
0000
002f
cafe
2006
0000
0000
0029
cafe
2406
0000
0000
002d
cafe
2806
0000
0000
0031
cafe
2c06
0000
0000
002e
cafe
3006
0000
0000
002d
cafe
3406
0000
0000
0030
cafe
3806
0000
0000
0029
cafe
3c06
0000
0000
002a
cafe
2006
0000
0000
0030
cafe
2406
0000
0000
002c
cafe
2806
0000
0000
002e
cafe
2c06
0000
0000
002e
cafe
3006
0000
0000
002c
cafe
3406
0000
0000
002b
cafe
3806
0000
0000
002b
cafe
3c06
0000
0000
002b
cafe
2006
0000
0000
002d
cafe
2406
0000
0000
0030
cafe
2806
0000
0000
002f
cafe
2c06
0000
0000
002a
cafe
3006
0000
0000
002b
cafe
3406
0000
0000
0029
cafe
3806
0000
0000
002b
cafe
3c06
0000
0000
0027
cafe
2006
0000
0000
002b
cafe
2406
0000
0000
002b
cafe
2806
0000
0000
002e
cafe
2c06
0000
0000
0026
cafe
3006
0000
0000
0027
cafe
3406
0000
0000
002a
cafe
3806
0000
0000
0023
cafe
3c06
0000
0000
0025
cafe
2006
0000
0000
0026
cafe
2406
0000
0000
0023
cafe
2806
0000
0000
0023
cafe
-
2c06
0000
0000
0029
cafe
3006
0000
0000
002a
cafe
3406
0000
0000
002b
cafe
3806
0000
0000
002b
cafe
3c06
0000
0000
002f
cafe
2006
0000
0000
002d
cafe
2406
0000
0000
0031
cafe
2806
0000
0000
0030
cafe
2c06
0000
0000
002c
cafe
3006
0000
0000
002c
cafe
3406
0000
0000
002e
cafe
3806
0000
0000
002c
cafe
3c06
0000
0000
0027
cafe
2006
0000
0000
0026
cafe
2406
0000
0000
0028
cafe
2806
0000
0000
0023
cafe
2c06
0000
0000
0024
cafe
3006
0000
0000
0021
cafe
3406
0000
0000
0027
cafe
3806
0000
0000
0027
cafe
3c06
0000
0000
0027
cafe
2006
0000
0000
0027
cafe
2406
0000
0000
0027
cafe
2806
0000
0000
002c
cafe
2c06
0000
0000
002e
cafe
3006
0000
0000
002b
cafe
3406
0000
0000
002c
cafe
3806
0000
0000
002f
cafe
3c06
0000
0000
002d
cafe
2006
0000
0000
0029
cafe
2406
0000
0000
0029
cafe
2806
0000
0000
002a
cafe
2c06
0000
0000
0029
cafe
3006
0000
0000
0030
cafe
3406
0000
0000
0027
cafe
3806
0000
0000
002e
cafe
3c06
0000
0000
002d
cafe
2006
0000
0000
002d
cafe
2406
0000
0000
0031
cafe
2806
0000
0000
002c
cafe
2c06
0000
0000
0031
cafe
3006
0000
0000
002b
cafe
3406
0000
0000
002a
cafe
3806
0000
0000
002a
cafe
3c06
0000
0000
0028
cafe
2006
0000
0000
0029
cafe
2406
0000
0000
002b
cafe
2806
0000
0000
0027
cafe
2c06
0000
0000
002c
cafe
3006
0000
0000
0025
cafe
3406
0000
0000
002a
cafe
3806
-
0000
0000
002a
cafe
3c06
0000
0000
0029
cafe
2006
0000
0000
002d
cafe
2406
0000
0000
002c
cafe
2806
0000
0000
0027
cafe
2c06
0000
0000
0032
cafe
3006
0000
0000
002d
cafe
3406
0000
0000
002a
cafe
3806
0000
0000
0033
cafe
3c06
0000
0000
002e
cafe
2006
0000
0000
0031
cafe
2406
0000
0000
002a
cafe
2806
0000
0000
002c
cafe
2c06
0000
0000
0027
cafe
3006
0000
0000
002b
cafe
3406
0000
0000
002b
cafe
3806
0000
0000
002b
cafe
3c06
0000
0000
002d
cafe
2006
0000
0000
002a
cafe
2406
0000
0000
002f
cafe
2806
0000
0000
002d
cafe
2c06
0000
0000
002b
cafe
3006
0000
0000
0030
cafe
3406
0000
0000
002a
cafe
3806
0000
0000
0029
cafe
3c06
0000
0000
0026
cafe
2006
0000
0000
002b
cafe
2406
0000
0000
002e
cafe
2806
0000
0000
0027
cafe
2c06
0000
0000
002b
cafe
3006
0000
0000
002b
cafe
3406
0000
0000
0027
cafe
3806
0000
0000
0028
cafe
3c06
0000
0000
0024
cafe
2006
0000
0000
0024
cafe
2406
0000
0000
0024
cafe
2806
0000
0000
0028
cafe
2c06
0000
0000
0029
cafe
3006
0000
0000
0025
cafe
3406
0000
0000
0028
cafe
3806
0000
0000
0026
cafe
3c06
0000
0000
0027
cafe
2006
0000
0000
0028
cafe
2406
0000
0000
0025
cafe
2806
0000
0000
002a
cafe
2c06
0000
0000
002a
cafe
3006
0000
0000
002f
cafe
3406
0000
0000
002f
cafe
3806
0000
0000
002d
cafe
3c06
0000
0000
0031
cafe
2006
0000
0000
0030
cafe
2406
0000
-
0000
002f
cafe
2806
0000
0000
002c
cafe
2c06
0000
0000
002f
cafe
3006
0000
0000
002f
cafe
3406
0000
0000
0033
cafe
3806
0000
0000
002a
cafe
3c06
0000
0000
0031
cafe
2006
0000
0000
0033
cafe
2406
0000
0000
002f
cafe
2806
0000
0000
002d
cafe
2c06
0000
0000
002b
cafe
3006
0000
0000
0027
cafe
3406
0000
0000
0025
cafe
3806
0000
0000
0026
cafe
3c06
0000
0000
0028
cafe
2006
0000
0000
0027
cafe
2406
0000
0000
002c
cafe
2806
0000
0000
002a
cafe
2c06
0000
0000
0029
cafe
3006
0000
0000
0028
cafe
3406
0000
0000
002e
cafe
3806
0000
0000
0030
cafe
3c06
0000
0000
002f
cafe
2006
0000
0000
002d
cafe
2406
0000
0000
0029
cafe
2806
0000
0000
002a
cafe
2c06
0000
0000
002b
cafe
3006
0000
0000
002b
cafe
3406
0000
0000
002e
cafe
3806
0000
0000
002b
cafe
3c06
0000
0000
0027
cafe
2006
0000
0000
002a
cafe
2406
0000
0000
002c
cafe
2806
0000
0000
002c
cafe
2c06
0000
0000
002b
cafe
3006
0000
0000
0027
cafe
3406
0000
0000
0028
cafe
3806
0000
0000
002a
cafe
3c06
0000
0000
002c
cafe
2006
0000
0000
002a
cafe
2406
0000
0000
002d
cafe
2806
0000
0000
002b
cafe
2c06
0000
0000
0026
cafe
3006
0000
0000
0026
cafe
3406
0000
0000
002c
cafe
3806
0000
0000
002b
cafe
3c06
0000
0000
0027
cafe
2006
0000
0000
0026
cafe
2406
0000
0000
002b
cafe
2806
0000
0000
0027
cafe
2c06
0000
0000
002c
cafe
3006
0000
0000
-
0032
cafe
3406
0000
0000
002c
cafe
3806
0000
0000
0030
cafe
3c06
0000
0000
002d
cafe
2006
0000
0000
002d
cafe
2406
0000
0000
002c
cafe
2806
0000
0000
0032
cafe
2c06
0000
0000
002b
cafe
3006
0000
0000
0029
cafe
3406
0000
0000
002d
cafe
3806
0000
0000
0029
cafe
3c06
0000
0000
002b
cafe
2006
0000
0000
002d
cafe
2406
0000
0000
002e
cafe
2806
0000
0000
0035
cafe
2c06
0000
0000
0030
cafe
3006
0000
0000
0031
cafe
3406
0000
0000
0032
cafe
3806
0000
0000
002f
cafe
3c06
0000
0000
002f
cafe
2006
0000
0000
002d
cafe
2406
0000
0000
002a
cafe
2806
0000
0000
002c
cafe
2c06
0000
0000
0030
cafe
3006
0000
0000
002d
cafe
3406
0000
0000
002e
cafe
3806
0000
0000
002e
cafe
3c06
0000
0000
002a
cafe
2006
0000
0000
0027
cafe
2406
0000
0000
002c
cafe
2806
0000
0000
002c
cafe
2c06
0000
0000
0026
cafe
3006
0000
0000
002a
cafe
3406
0000
0000
0028
cafe
3806
0000
0000
0025
cafe
3c06
0000
0000
0028
cafe
2006
0000
0000
0026
cafe
2406
0000
0000
002b
cafe
2806
0000
0000
002c
cafe
2c06
0000
0000
002b
cafe
3006
0000
0000
0028
cafe
3406
0000
0000
002b
cafe
3806
0000
0000
002a
cafe
3c06
0000
0000
0021
cafe
2006
0000
0000
0029
cafe
2406
0000
0000
0028
cafe
2806
0000
0000
0027
cafe
2c06
0000
0000
0025
cafe
3006
0000
0000
0027
cafe
3406
0000
0000
0028
cafe
3806
0000
0000
0026
cafe
3c06
0000
0000
0029
-
cafe
2006
0000
0000
0026
cafe
2406
0000
0000
0026
cafe
2806
0000
0000
0027
cafe
2c06
0000
0000
0025
cafe
3006
0000
0000
002a
cafe
3406
0000
0000
002a
cafe
3806
0000
0000
0030
cafe
3c06
0000
0000
002f
cafe
2006
0000
0000
0030
cafe
2406
0000
0000
0032
cafe
2806
0000
0000
002c
cafe
2c06
0000
0000
0023
cafe
3006
0000
0000
0029
cafe
3406
0000
0000
0029
cafe
3806
0000
0000
0023
cafe
3c06
0000
0000
0028
cafe
2006
0000
0000
002d
cafe
2406
0000
0000
002c
cafe
2806
0000
0000
002c
cafe
2c06
0000
0000
0026
cafe
3006
0000
0000
0027
cafe
3406
0000
0000
0028
cafe
3806
0000
0000
002a
cafe
3c06
0000
0000
0026
cafe
2006
0000
0000
0029
cafe
2406
0000
0000
002a
cafe
2806
0000
0000
0029
cafe
2c06
0000
0000
0028
cafe
3006
0000
0000
0030
cafe
3406
0000
0000
002a
cafe
3806
0000
0000
0029
cafe
3c06
0000
0000
002e
cafe
2006
0000
0000
002c
cafe
2406
0000
0000
0029
cafe
2806
0000
0000
002b
cafe
2c06
0000
0000
002c
cafe
3006
0000
0000
002e
cafe
3406
0000
0000
002d
cafe
3806
0000
0000
002a
cafe
3c06
0000
0000
0027
cafe
2006
0000
0000
002d
cafe
2406
0000
0000
002f
cafe
2806
0000
0000
0030
cafe
2c06
0000
0000
002a
cafe
3006
0000
0000
002a
cafe
3406
0000
0000
0032
cafe
3806
0000
0000
0030
cafe
3c06
0000
0000
002a
cafe
2006
0000
0000
0027
cafe
2406
0000
0000
0029
cafe
2806
0000
0000
0026
cafe
-
2c06
0000
0000
002d
cafe
3006
0000
0000
002b
cafe
3406
0000
0000
002a
cafe
3806
0000
0000
002a
cafe
3c06
0000
0000
002b
cafe
2006
0000
0000
0028
cafe
2406
0000
0000
002a
cafe
2806
0000
0000
0025
cafe
2c06
0000
0000
0027
cafe
3006
0000
0000
002f
cafe
3406
0000
0000
002a
cafe
3806
0000
0000
0026
cafe
3c06
0000
0000
002b
cafe
2006
0000
0000
002d
cafe
2406
0000
0000
0029
cafe
2806
0000
0000
0029
cafe
2c06
0000
0000
002a
cafe
3006
0000
0000
0025
cafe
3406
0000
0000
0027
cafe
3806
0000
0000
0028
cafe
3c06
0000
0000
002b
cafe
2006
0000
0000
002c
cafe
2406
0000
0000
002b
cafe
2806
0000
0000
0026
cafe
2c06
0000
0000
002b
cafe
3006
0000
0000
002c
cafe
3406
0000
0000
002c
cafe
3806
0000
0000
002e
cafe
3c06
0000
0000
0026
cafe
2006
0000
0000
0028
cafe
2406
0000
0000
0029
cafe
2806
0000
0000
0029
cafe
2c06
0000
0000
0023
cafe
3006
0000
0000
0025
cafe
3406
0000
0000
0024
cafe
3806
0000
0000
0021
cafe
3c06
0000
0000
0023
cafe
2006
0000
0000
0028
cafe
2406
0000
0000
0027
cafe
2806
0000
0000
0026
cafe
2c06
0000
0000
002a
cafe
3006
0000
0000
002d
cafe
3406
0000
0000
0029
cafe
3806
0000
0000
0027
cafe
3c06
0000
0000
0028
cafe
2006
0000
0000
0023
cafe
2406
0000
0000
0025
cafe
2806
0000
0000
0025
cafe
2c06
0000
0000
002b
cafe
3006
0000
0000
002c
cafe
3406
0000
0000
002a
cafe
3806
-
0000
0000
0028
cafe
3c06
0000
0000
002c
cafe
2006
0000
0000
0028
cafe
2406
0000
0000
0027
cafe
2806
0000
0000
002c
cafe
2c06
0000
0000
0026
cafe
3006
0000
0000
0029
cafe
3406
0000
0000
002e
cafe
3806
0000
0000
0029
cafe
3c06
0000
0000
0029
cafe
2006
0000
0000
0028
cafe
2406
0000
0000
0026
cafe
2806
0000
0000
0025
cafe
2c06
0000
0000
0028
cafe
3006
0000
0000
0028
cafe
3406
0000
0000
0029
cafe
3806
0000
0000
0031
cafe
3c06
0000
0000
0029
cafe
2006
0000
0000
0027
cafe
2406
0000
0000
002c
cafe
2806
0000
0000
002a
cafe
2c06
0000
0000
002d
cafe
3006
0000
0000
002c
cafe
3406
0000
0000
002c
cafe
3806
0000
0000
002b
cafe
3c06
0000
0000
0028
cafe
2006
0000
0000
0032
cafe
2406
0000
0000
002e
cafe
2806
0000
0000
002f
cafe
2c06
0000
0000
002f
cafe
3006
0000
0000
0033
cafe
3406
0000
0000
002b
cafe
3806
0000
0000
0030
cafe
3c06
0000
0000
0032
cafe
2006
0000
0000
0035
cafe
2406
0000
0000
0031
cafe
2806
0000
0000
002d
cafe
2c06
0000
0000
0035
cafe
3006
0000
0000
0033
cafe
3406
0000
0000
002e
cafe
3806
0000
0000
002b
cafe
3c06
0000
0000
002b
cafe
2006
0000
0000
002e
cafe
2406
0000
0000
0030
cafe
2806
0000
0000
002d
cafe
2c06
0000
0000
002a
cafe
3006
0000
0000
0030
cafe
3406
0000
0000
002e
cafe
3806
0000
0000
002d
cafe
3c06
0000
0000
002d
cafe
2006
0000
0000
0032
cafe
2406
0000
-
0000
0030
cafe
2806
0000
0000
002d
cafe
2c06
0000
0000
0031
cafe
3006
0000
0000
002f
cafe
3406
0000
0000
002b
cafe
3806
0000
0000
0027
cafe
3c06
0000
0000
0028
cafe
2006
0000
0000
002a
cafe
2406
0000
0000
002b
cafe
2806
0000
0000
002c
cafe
2c06
0000
0000
002b
cafe
3006
0000
0000
0032
cafe
3406
0000
0000
0033
cafe
3806
0000
0000
0033
cafe
3c06
0000
0000
0034
cafe
2006
0000
0000
002e
cafe
2406
0000
0000
002d
cafe
2806
0000
0000
002a
cafe
2c06
0000
0000
0028
cafe
3006
0000
0000
002d
cafe
3406
0000
0000
002b
cafe
3806
0000
0000
0024
cafe
3c06
0000
0000
002a
cafe
2006
0000
0000
0030
cafe
2406
0000
0000
002f
cafe
2806
0000
0000
0031
cafe
2c06
0000
0000
002d
cafe
3006
0000
0000
002c
cafe
3406
0000
0000
002b
cafe
3806
0000
0000
002d
cafe
3c06
0000
0000
002d
cafe
2006
0000
0000
002c
cafe
2406
0000
0000
0033
cafe
2806
0000
0000
0031
cafe
2c06
0000
0000
0030
cafe
3006
0000
0000
002f
cafe
3406
0000
0000
002f
cafe
3806
0000
0000
0034
cafe
3c06
0000
0000
0032
cafe
2006
0000
0000
0030
cafe
2406
0000
0000
0033
cafe
2806
0000
0000
0031
cafe
2c06
0000
0000
0031
cafe
3006
0000
0000
002e
cafe
3406
0000
0000
0032
cafe
3806
0000
0000
002d
cafe
3c06
0000
0000
0032
cafe
2006
0000
0000
0031
cafe
2406
0000
0000
002f
cafe
2806
0000
0000
0034
cafe
2c06
0000
0000
002d
cafe
3006
0000
0000
-
002d
cafe
3406
0000
0000
002e
cafe
3806
0000
0000
002f
cafe
3c06
0000
0000
002e
cafe
2006
0000
0000
002d
cafe
2406
0000
0000
0027
cafe
2806
0000
0000
0027
cafe
2c06
0000
0000
0027
cafe
3006
0000
0000
0024
cafe
3406
0000
0000
0028
cafe
3806
0000
0000
0022
cafe
3c06
0000
0000
0025
cafe
2006
0000
0000
0028
cafe
2406
0000
0000
002b
cafe
2806
0000
0000
002c
cafe
2c06
0000
0000
002c
cafe
3006
0000
0000
002d
cafe
3406
0000
0000
002c
cafe
3806
0000
0000
0029
cafe
3c06
0000
0000
0026
cafe
2006
0000
0000
0029
cafe
2406
0000
0000
0029
cafe
2806
0000
0000
002b
cafe
2c06
0000
0000
0025
cafe
3006
0000
0000
0023
cafe
3406
0000
0000
0022
cafe
3806
0000
0000
0026
cafe
3c06
0000
0000
0029
cafe
2006
0000
0000
002d
cafe
2406
0000
0000
002c
cafe
2806
0000
0000
002e
cafe
2c06
0000
0000
0029
cafe
3006
0000
0000
002b
cafe
3406
0000
0000
002d
cafe
3806
0000
0000
0025
cafe
3c06
0000
0000
0025
cafe
2006
0000
0000
002b
cafe
2406
0000
0000
002a
cafe
2806
0000
0000
0027
cafe
2c06
0000
0000
002b
cafe
3006
0000
0000
0029
cafe
3406
0000
0000
002e
cafe
3806
0000
0000
0028
cafe
3c06
0000
0000
0024
cafe
2006
0000
0000
002a
cafe
2406
0000
0000
0029
cafe
2806
0000
0000
002b
cafe
2c06
0000
0000
0029
cafe
3006
0000
0000
0025
cafe
3406
0000
0000
0025
cafe
3806
0000
0000
0028
cafe
3c06
0000
0000
0028
-
cafe
2006
0000
0000
0028
cafe
2406
0000
0000
002b
cafe
2806
0000
0000
002c
cafe
2c06
0000
0000
002e
cafe
3006
0000
0000
002f
cafe
3406
0000
0000
002f
cafe
3806
0000
0000
002c
cafe
3c06
0000
0000
0028
cafe
2006
0000
0000
002b
cafe
2406
0000
0000
002e
cafe
2806
0000
0000
0027
cafe
2c06
0000
0000
0027
cafe
3006
0000
0000
002a
cafe
3406
0000
0000
0027
cafe
3806
0000
0000
002c
cafe
3c06
0000
0000
002c
cafe
2006
0000
0000
002c
cafe
2406
0000
0000
002b
cafe
2806
0000
0000
0027
cafe
2c06
0000
0000
002d
cafe
3006
0000
0000
002e
cafe
3406
0000
0000
0030
cafe
3806
0000
0000
002b
cafe
3c06
0000
0000
002d
cafe
2006
0000
0000
002b
cafe
2406
0000
0000
002b
cafe
2806
0000
0000
002c
cafe
2c06
0000
0000
0028
cafe
3006
0000
0000
002d
cafe
3406
0000
0000
002c
cafe
3806
0000
0000
002b
cafe
3c06
0000
0000
0033
cafe
2006
0000
0000
0031
cafe
2406
0000
0000
002f
cafe
2806
0000
0000
0034
cafe
2c06
0000
0000
002c
cafe
3006
0000
0000
0030
cafe
3406
0000
0000
002b
cafe
3806
0000
0000
0028
cafe
3c06
0000
0000
0028
cafe
2006
0000
0000
002f
cafe
2406
0000
0000
0026
cafe
2806
0000
0000
002c
cafe
2c06
0000
0000
0028
cafe
3006
0000
0000
002b
cafe
3406
0000
0000
002b
cafe
3806
0000
0000
0032
cafe
3c06
0000
0000
002c
cafe
2006
0000
0000
002c
cafe
2406
0000
0000
0028
cafe
2806
0000
0000
0026
cafe
-
2c06
0000
0000
0028
cafe
3006
0000
0000
002b
cafe
3406
0000
0000
002b
cafe
3806
0000
0000
0026
cafe
3c06
0000
0000
002c
cafe
2006
0000
0000
002e
cafe
2406
0000
0000
002d
cafe
2806
0000
0000
002b
cafe
2c06
0000
0000
002d
cafe
3006
0000
0000
0026
cafe
3406
0000
0000
0027
cafe
3806
0000
0000
0027
cafe
3c06
0000
0000
0027
cafe
2006
0000
0000
0028
cafe
2406
0000
0000
0028
cafe
2806
0000
0000
0028
cafe
2c06
0000
0000
002a
cafe
3006
0000
0000
002f
cafe
3406
0000
0000
002c
cafe
3806
0000
0000
002c
cafe
3c06
0000
0000
0026
cafe
2006
0000
0000
0029
cafe
2406
0000
0000
0029
cafe
2806
0000
0000
002c
cafe
2c06
0000
0000
002a
cafe
3006
0000
0000
0030
cafe
3406
0000
0000
002d
cafe
3806
0000
0000
0028
cafe
3c06
0000
0000
002b
cafe
2006
0000
0000
002e
cafe
2406
0000
0000
002c
cafe
2806
0000
0000
002a
cafe
2c06
0000
0000
002b
cafe
3006
0000
0000
002e
cafe
3406
0000
0000
002a
cafe
3806
0000
0000
0029
cafe
3c06
0000
0000
002a
cafe
2006
0000
0000
0028
cafe
2406
0000
0000
002e
cafe
2806
0000
0000
002d
cafe
2c06
0000
0000
0032
cafe
3006
0000
0000
0030
cafe
3406
0000
0000
002e
cafe
3806
0000
0000
002a
cafe
3c06
0000
0000
0027
cafe
2006
0000
0000
0027
cafe
2406
0000
0000
0029
cafe
2806
0000
0000
0027
cafe
2c06
0000
0000
002c
cafe
3006
0000
0000
0028
cafe
3406
0000
0000
002a
cafe
3806
-
0000
0000
0029
cafe
3c06
0000
0000
002b
cafe
2006
0000
0000
0030
cafe
2406
0000
0000
0026
cafe
2806
0000
0000
002c
cafe
2c06
0000
0000
0030
cafe
3006
0000
0000
002f
cafe
3406
0000
0000
002e
cafe
3806
0000
0000
002b
cafe
3c06
0000
0000
002c
cafe
2006
0000
0000
0028
cafe
2406
0000
0000
0029
cafe
2806
0000
0000
002a
cafe
2c06
0000
0000
0029
cafe
3006
0000
0000
0028
cafe
3406
0000
0000
0028
cafe
3806
0000
0000
002b
cafe
3c06
0000
0000
002d
cafe
2006
0000
0000
002b
cafe
2406
0000
0000
0026
cafe
2806
0000
0000
0029
cafe
2c06
0000
0000
0029
cafe
3006
0000
0000
002c
cafe
3406
0000
0000
002c
cafe
3806
0000
0000
0027
cafe
3c06
0000
0000
002c
cafe
2006
0000
0000
002d
cafe
2406
0000
0000
002a
cafe
2806
0000
0000
002d
cafe
2c06
0000
0000
002c
cafe
3006
0000
0000
0030
cafe
3406
0000
0000
002e
cafe
3806
0000
0000
002f
cafe
3c06
0000
0000
0033
cafe
2006
0000
0000
002f
cafe
2406
0000
0000
002d
cafe
2806
0000
0000
002b
cafe
2c06
0000
0000
0031
cafe
3006
0000
0000
002e
cafe
3406
0000
0000
002f
cafe
3806
0000
0000
002b
cafe
3c06
0000
0000
002b
cafe
2006
0000
0000
002c
cafe
2406
0000
0000
0030
cafe
2806
0000
0000
002b
cafe
2c06
0000
0000
002e
cafe
3006
0000
0000
0027
cafe
3406
0000
0000
0029
cafe
3806
0000
0000
0025
cafe
3c06
0000
0000
002e
cafe
2006
0000
0000
002e
cafe
2406
0000
-
0000
002b
cafe
2806
0000
0000
0031
cafe
2c06
0000
0000
002f
cafe
3006
0000
0000
002c
cafe
3406
0000
0000
002f
cafe
3806
0000
0000
002a
cafe
3c06
0000
0000
002a
cafe
2006
0000
0000
002a
cafe
2406
0000
0000
002c
cafe
2806
0000
0000
0027
cafe
2c06
0000
0000
0029
cafe
3006
0000
0000
0026
cafe
3406
0000
0000
0028
cafe
3806
0000
0000
0026
cafe
3c06
0000
0000
0025
cafe
2006
0000
0000
0028
cafe
2406
0000
0000
002c
cafe
2806
0000
0000
0029
cafe
2c06
0000
0000
002a
cafe
3006
0000
0000
002c
cafe
3406
0000
0000
002d
cafe
3806
0000
0000
0029
cafe
3c06
0000
0000
0029
cafe
2006
0000
0000
002c
cafe
2406
0000
0000
002d
cafe
2806
0000
0000
0029
cafe
2c06
0000
0000
0027
cafe
3006
0000
0000
0027
cafe
3406
0000
0000
002b
cafe
3806
0000
0000
0027
cafe
3c06
0000
0000
0028
cafe
2006
0000
0000
002c
cafe
2406
0000
0000
0029
cafe
2806
0000
0000
002e
cafe
2c06
0000
0000
002a
cafe
3006
0000
0000
0026
cafe
3406
0000
0000
0029
cafe
3806
0000
0000
002b
cafe
3c06
0000
0000
002c
cafe
2006
0000
0000
002b
cafe
2406
0000
0000
002c
cafe
2806
0000
0000
002f
cafe
2c06
0000
0000
0031
cafe
3006
0000
0000
0029
cafe
3406
0000
0000
0033
cafe
3806
0000
0000
0030
cafe
3c06
0000
0000
002a
cafe
2006
0000
0000
0028
cafe
2406
0000
0000
0028
cafe
2806
0000
0000
0027
cafe
2c06
0000
0000
0029
cafe
3006
0000
0000
-
002b
cafe
3406
0000
0000
0029
cafe
3806
0000
0000
002e
cafe
3c06
0000
0000
0030
cafe
2006
0000
0000
0030
cafe
2406
0000
0000
002e
cafe
2806
0000
0000
002d
cafe
2c06
0000
0000
002c
cafe
3006
0000
0000
002e
cafe
3406
0000
0000
002d
cafe
3806
0000
0000
0029
cafe
3c06
0000
0000
0029
cafe
2006
0000
0000
002a
cafe
2406
0000
0000
0026
cafe
2806
0000
0000
0029
cafe
2c06
0000
0000
002a
cafe
3006
0000
0000
002a
cafe
3406
0000
0000
002c
cafe
3806
0000
0000
002c
cafe
3c06
0000
0000
0027
cafe
2006
0000
0000
002b
cafe
2406
0000
0000
0027
cafe
2806
0000
0000
002e
cafe
2c06
0000
0000
002b
cafe
3006
0000
0000
002e
cafe
3406
0000
0000
0030
cafe
3806
0000
0000
002f
cafe
3c06
0000
0000
0028
cafe
2006
0000
0000
002d
cafe
2406
0000
0000
002f
cafe
2806
0000
0000
0030
cafe
2c06
0000
0000
0030
cafe
3006
0000
0000
0031
cafe
3406
0000
0000
002f
cafe
3806
0000
0000
002f
cafe
3c06
0000
0000
0030
cafe
2006
0000
0000
0033
cafe
2406
0000
0000
002b
cafe
2806
0000
0000
002c
cafe
2c06
0000
0000
002d
cafe
3006
0000
0000
0028
cafe
3406
0000
0000
0029
cafe
3806
0000
0000
002a
cafe
3c06
0000
0000
0027
cafe
2006
0000
0000
002f
cafe
2406
0000
0000
002d
cafe
2806
0000
0000
002a
cafe
2c06
0000
0000
002b
cafe
3006
0000
0000
002b
cafe
3406
0000
0000
0027
cafe
3806
0000
0000
0027
cafe
3c06
0000
0000
0029
-
cafe
2006
0000
0000
0028
cafe
2406
0000
0000
0028
cafe
2806
0000
0000
002b
cafe
2c06
0000
0000
0026
cafe
3006
0000
0000
0023
cafe
3406
0000
0000
0029
cafe
3806
0000
0000
002a
cafe
3c06
0000
0000
002d
cafe
2006
0000
0000
002c
cafe
2406
0000
0000
0030
cafe
2806
0000
0000
002b
cafe
2c06
0000
0000
002a
cafe
3006
0000
0000
002a
cafe
3406
0000
0000
002a
cafe
3806
0000
0000
002d
cafe
3c06
0000
0000
002f
cafe
2006
0000
0000
002e
cafe
2406
0000
0000
0031
cafe
2806
0000
0000
002e
cafe
2c06
0000
0000
0031
cafe
3006
0000
0000
002c
cafe
3406
0000
0000
002d
cafe
3806
0000
0000
002d
cafe
3c06
0000
0000
0027
cafe
2006
0000
0000
0028
cafe
2406
0000
0000
0028
cafe
2806
0000
0000
002c
cafe
2c06
0000
0000
002a
cafe
3006
0000
0000
002a
cafe
3406
0000
0000
002d
cafe
3806
0000
0000
002a
cafe
3c06
0000
0000
0028
cafe
2006
0000
0000
0029
cafe
2406
0000
0000
0029
cafe
2806
0000
0000
002a
cafe
2c06
0000
0000
0030
cafe
3006
0000
0000
002c
cafe
3406
0000
0000
002c
cafe
3806
0000
0000
002c
cafe
3c06
0000
0000
002a
cafe
2006
0000
0000
002a
cafe
2406
0000
0000
0026
cafe
2806
0000
0000
0027
cafe
2c06
0000
0000
0026
cafe
3006
0000
0000
002b
cafe
3406
0000
0000
002f
cafe
3806
0000
0000
0029
cafe
3c06
0000
0000
0029
cafe
2006
0000
0000
002d
cafe
2406
0000
0000
0026
cafe
2806
0000
0000
0021
cafe
-
2c06
0000
0000
002d
cafe
3006
0000
0000
0028
cafe
3406
0000
0000
0027
cafe
3806
0000
0000
0026
cafe
3c06
0000
0000
0026
cafe
2006
0000
0000
0029
cafe
2406
0000
0000
002c
cafe
2806
0000
0000
0029
cafe
2c06
0000
0000
0029
cafe
3006
0000
0000
0028
cafe
3406
0000
0000
002f
cafe
3806
0000
0000
002e
cafe
3c06
0000
0000
002f
cafe
2006
0000
0000
002d
cafe
2406
0000
0000
002a
cafe
2806
0000
0000
002b
cafe
2c06
0000
0000
002f
cafe
3006
0000
0000
002d
cafe
3406
0000
0000
002d
cafe
3806
0000
0000
002e
cafe
3c06
0000
0000
0029
cafe
2006
0000
0000
0030
cafe
2406
0000
0000
002a
cafe
2806
0000
0000
002d
cafe
2c06
0000
0000
0028
cafe
3006
0000
0000
002e
cafe
3406
0000
0000
002d
cafe
3806
0000
0000
0031
cafe
3c06
0000
0000
0034
cafe
2006
0000
0000
002f
cafe
2406
0000
0000
002d
cafe
2806
0000
0000
002b
cafe
2c06
0000
0000
002b
cafe
3006
0000
0000
002d
cafe
3406
0000
0000
002c
cafe
3806
0000
0000
002f
cafe
3c06
0000
0000
0030
cafe
2006
0000
0000
002f
cafe
2406
0000
0000
0027
cafe
2806
0000
0000
0028
cafe
2c06
0000
0000
0026
cafe
3006
0000
0000
0029
cafe
3406
0000
0000
002c
cafe
3806
0000
0000
0027
cafe
3c06
0000
0000
0029
cafe
2006
0000
0000
0027
cafe
2406
0000
0000
0028
cafe
2806
0000
0000
0024
cafe
2c06
0000
0000
0023
cafe
3006
0000
0000
0025
cafe
3406
0000
0000
0027
cafe
3806
-
0000
0000
002a
cafe
3c06
0000
0000
0029
cafe
2006
0000
0000
0028
cafe
2406
0000
0000
002b
cafe
2806
0000
0000
002a
cafe
2c06
0000
0000
0028
cafe
3006
0000
0000
002b
cafe
3406
0000
0000
002a
cafe
3806
0000
0000
002b
cafe
3c06
0000
0000
002d
cafe
2006
0000
0000
002e
cafe
2406
0000
0000
002c
cafe
2806
0000
0000
002e
cafe
2c06
0000
0000
0024
cafe
3006
0000
0000
0023
cafe
3406
0000
0000
0028
cafe
3806
0000
0000
002b
cafe
3c06
0000
0000
002d
cafe
2006
0000
0000
002a
cafe
2406
0000
0000
002a
cafe
2806
0000
0000
002a
cafe
2c06
0000
0000
002a
cafe
3006
0000
0000
0027
cafe
3406
0000
0000
0024
cafe
3806
0000
0000
0028
cafe
3c06
0000
0000
0029
cafe
2006
0000
0000
0028
cafe
2406
0000
0000
0029
cafe
2806
0000
0000
002f
cafe
2c06
0000
0000
002a
cafe
3006
0000
0000
002b
cafe
3406
0000
0000
0031
cafe
3806
0000
0000
002e
cafe
3c06
0000
0000
002e
cafe
2006
0000
0000
002d
cafe
2406
0000
0000
002d
cafe
2806
0000
0000
002d
cafe
2c06
0000
0000
0029
cafe
3006
0000
0000
002b
cafe
3406
0000
0000
002d
cafe
3806
0000
0000
002a
cafe
3c06
0000
0000
002d
cafe
2006
0000
0000
002f
cafe
2406
0000
0000
002c
cafe
2806
0000
0000
002a
cafe
2c06
0000
0000
0031
cafe
3006
0000
0000
002b
cafe
3406
0000
0000
002c
cafe
3806
0000
0000
002b
cafe
3c06
0000
0000
002d
cafe
2006
0000
0000
0024
cafe
2406
0000
-
0000
002b
cafe
2806
0000
0000
002b
cafe
2c06
0000
0000
002d
cafe
3006
0000
0000
0029
cafe
3406
0000
0000
0028
cafe
3806
0000
0000
0023
cafe
3c06
0000
0000
0026
cafe
2006
0000
0000
0029
cafe
2406
0000
0000
002e
cafe
2806
0000
0000
0029
cafe
2c06
0000
0000
0029
cafe
3006
0000
0000
0026
cafe
3406
0000
0000
002c
cafe
3806
0000
0000
0029
cafe
3c06
0000
0000
0027
cafe
2006
0000
0000
002f
cafe
2406
0000
0000
002b
cafe
2806
0000
0000
002d
cafe
2c06
0000
0000
002b
cafe
3006
0000
0000
002a
cafe
3406
0000
0000
002b
cafe
3806
0000
0000
002b
cafe
3c06
0000
0000
002f
cafe
2006
0000
0000
002c
cafe
2406
0000
0000
002d
cafe
2806
0000
0000
0029
cafe
2c06
0000
0000
0028
cafe
3006
0000
0000
0025
cafe
3406
0000
0000
0026
cafe
3806
0000
0000
0028
cafe
3c06
0000
0000
0026
cafe
2006
0000
0000
0027
cafe
2406
0000
0000
002a
cafe
2806
0000
0000
002b
cafe
2c06
0000
0000
0027
cafe
3006
0000
0000
0031
cafe
3406
0000
0000
002e
cafe
3806
0000
0000
002d
cafe
3c06
0000
0000
002a
cafe
2006
0000
0000
0030
cafe
2406
0000
0000
002f
cafe
2806
0000
0000
0031
cafe
2c06
0000
0000
0030
cafe
3006
0000
0000
002c
cafe
3406
0000
0000
002e
cafe
3806
0000
0000
002b
cafe
3c06
0000
0000
0032
cafe
2006
0000
0000
002c
cafe
2406
0000
0000
002b
cafe
2806
0000
0000
002c
cafe
2c06
0000
0000
002b
cafe
3006
0000
0000
-
002a
cafe
3406
0000
0000
002a
cafe
3806
0000
0000
002a
cafe
3c06
0000
0000
0028
cafe
2006
0000
0000
0025
cafe
2406
0000
0000
0028
cafe
2806
0000
0000
0026
cafe
2c06
0000
0000
002e
cafe
3006
0000
0000
002b
cafe
3406
0000
0000
002e
cafe
3806
0000
0000
0028
cafe
3c06
0000
0000
002c
cafe
2006
0000
0000
002c
cafe
2406
0000
0000
0033
cafe
2806
0000
0000
0035
cafe
2c06
0000
0000
0033
cafe
3006
0000
0000
0033
cafe
3406
0000
0000
002f
cafe
3806
0000
0000
002c
cafe
3c06
0000
0000
002a
cafe
2006
0000
0000
002b
cafe
2406
0000
0000
002e
cafe
2806
0000
0000
002c
cafe
2c06
0000
0000
002d
cafe
3006
0000
0000
002a
cafe
3406
0000
0000
002b
cafe
3806
0000
0000
002b
cafe
3c06
0000
0000
002e
cafe
2006
0000
0000
002f
cafe
2406
0000
0000
002e
cafe
2806
0000
0000
0031
cafe
2c06
0000
0000
002a
cafe
3006
0000
0000
002c
cafe
3406
0000
0000
0027
cafe
3806
0000
0000
002a
cafe
3c06
0000
0000
002e
cafe
2006
0000
0000
002c
cafe
2406
0000
0000
0026
cafe
2806
0000
0000
0027
cafe
2c06
0000
0000
0025
cafe
3006
0000
0000
0029
cafe
3406
0000
0000
002b
cafe
3806
0000
0000
002f
cafe
3c06
0000
0000
002c
cafe
2006
0000
0000
0029
cafe
2406
0000
0000
002a
cafe
2806
0000
0000
002a
cafe
2c06
0000
0000
0028
cafe
3006
0000
0000
002a
cafe
3406
0000
0000
0028
cafe
3806
0000
0000
0027
cafe
3c06
0000
0000
002c
-
cafe
2006
0000
0000
0028
cafe
2406
0000
0000
0024
cafe
2806
0000
0000
0028
cafe
2c06
0000
0000
0029
cafe
3006
0000
0000
002b
cafe
3406
0000
0000
0025
cafe
3806
0000
0000
0027
cafe
3c06
0000
0000
002a
cafe
2006
0000
0000
002b
cafe
2406
0000
0000
002c
cafe
2806
0000
0000
002b
cafe
2c06
0000
0000
0028
cafe
3006
0000
0000
002b
cafe
3406
0000
0000
002a
cafe
3806
0000
0000
0027
cafe
3c06
0000
0000
0025
cafe
2006
0000
0000
0029
cafe
2406
0000
0000
002f
cafe
2806
0000
0000
002b
cafe
2c06
0000
0000
0026
cafe
3006
0000
0000
0028
cafe
3406
0000
0000
0028
cafe
3806
0000
0000
002a
cafe
3c06
0000
0000
0029
cafe
2006
0000
0000
0026
cafe
2406
0000
0000
0028
cafe
2806
0000
0000
0028
cafe
2c06
0000
0000
0026
cafe
3006
0000
0000
0029
cafe
3406
0000
0000
0027
cafe
3806
0000
0000
0027
cafe
3c06
0000
0000
0024
cafe
2006
0000
0000
0028
cafe
2406
0000
0000
002a
cafe
2806
0000
0000
0026
cafe
2c06
0000
0000
0029
cafe
3006
0000
0000
0027
cafe
3406
0000
0000
002c
cafe
3806
0000
0000
002b
cafe
3c06
0000
0000
002c
cafe
2006
0000
0000
002f
cafe
2406
0000
0000
002a
cafe
2806
0000
0000
0029
cafe
2c06
0000
0000
0028
cafe
3006
0000
0000
002f
cafe
3406
0000
0000
002c
cafe
3806
0000
0000
002b
cafe
3c06
0000
0000
002d
cafe
2006
0000
0000
0028
cafe
2406
0000
0000
0027
cafe
2806
0000
0000
002c
cafe
-
2c06
0000
0000
002f
cafe
3006
0000
0000
0030
cafe
3406
0000
0000
002e
cafe
3806
0000
0000
0026
cafe
3c06
0000
0000
0029
cafe
2006
0000
0000
0024
cafe
2406
0000
0000
002b
cafe
2806
0000
0000
002d
cafe
2c06
0000
0000
002a
cafe
3006
0000
0000
002b
cafe
3406
0000
0000
002e
cafe
3806
0000
0000
002f
cafe
3c06
0000
0000
0033
cafe
2006
0000
0000
0036
cafe
2406
0000
0000
0031
cafe
2806
0000
0000
002b
cafe
2c06
0000
0000
002c
cafe
3006
0000
0000
002b
cafe
3406
0000
0000
0027
cafe
3806
0000
0000
0028
cafe
3c06
0000
0000
002b
cafe
2006
0000
0000
0029
cafe
2406
0000
0000
0029
cafe
2806
0000
0000
002a
cafe
2c06
0000
0000
002a
cafe
3006
0000
0000
0027
cafe
3406
0000
0000
0028
cafe
3806
0000
0000
002d
cafe
3c06
0000
0000
0029
cafe
2006
0000
0000
002e
cafe
2406
0000
0000
002c
cafe
2806
0000
0000
002a
cafe
2c06
0000
0000
0029
cafe
3006
0000
0000
0026
cafe
3406
0000
0000
002c
cafe
3806
0000
0000
002c
cafe
3c06
0000
0000
002c
cafe
2006
0000
0000
002c
cafe
2406
0000
0000
002d
cafe
2806
0000
0000
002c
cafe
2c06
0000
0000
002f
cafe
3006
0000
0000
002e
cafe
3406
0000
0000
0029
cafe
3806
0000
0000
002d
cafe
3c06
0000
0000
002f
cafe
2006
0000
0000
002c
cafe
2406
0000
0000
002e
cafe
2806
0000
0000
002b
cafe
2c06
0000
0000
0027
cafe
3006
0000
0000
002c
cafe
3406
0000
0000
002c
cafe
3806
-
0000
0000
002a
cafe
3c06
0000
0000
0031
cafe
2006
0000
0000
0031
cafe
2406
0000
0000
002a
cafe
2806
0000
0000
002a
cafe
2c06
0000
0000
002a
cafe
3006
0000
0000
0029
cafe
3406
0000
0000
0029
cafe
3806
0000
0000
0029
cafe
3c06
0000
0000
002c
cafe
2006
0000
0000
002e
cafe
2406
0000
0000
002f
cafe
2806
0000
0000
002c
cafe
2c06
0000
0000
0032
cafe
3006
0000
0000
0034
cafe
3406
0000
0000
002f
cafe
3806
0000
0000
0032
cafe
3c06
0000
0000
002d
cafe
2006
0000
0000
002c
cafe
2406
0000
0000
002a
cafe
2806
0000
0000
002b
cafe
2c06
0000
0000
002d
cafe
3006
0000
0000
0030
cafe
3406
0000
0000
0030
cafe
3806
0000
0000
002a
cafe
3c06
0000
0000
002d
cafe
2006
0000
0000
002e
cafe
2406
0000
0000
002d
cafe
2806
0000
0000
002f
cafe
2c06
0000
0000
0032
cafe
3006
0000
0000
0032
cafe
3406
0000
0000
0032
cafe
3806
0000
0000
0031
cafe
3c06
0000
0000
0032
cafe
2006
0000
0000
002f
cafe
2406
0000
0000
0028
cafe
2806
0000
0000
0029
cafe
2c06
0000
0000
002d
cafe
3006
0000
0000
002a
cafe
3406
0000
0000
002f
cafe
3806
0000
0000
0029
cafe
3c06
0000
0000
0026
cafe
2006
0000
0000
002a
cafe
2406
0000
0000
002e
cafe
2806
0000
0000
002f
cafe
2c06
0000
0000
0031
cafe
3006
0000
0000
002f
cafe
3406
0000
0000
002c
cafe
3806
0000
0000
002b
cafe
3c06
0000
0000
002b
cafe
2006
0000
0000
0029
cafe
2406
0000
-
0000
002b
cafe
2806
0000
0000
002d
cafe
2c06
0000
0000
0027
cafe
3006
0000
0000
0028
cafe
3406
0000
0000
002b
cafe
3806
0000
0000
0029
cafe
3c06
0000
0000
002e
cafe
2006
0000
0000
0029
cafe
2406
0000
0000
0029
cafe
2806
0000
0000
002b
cafe
2c06
0000
0000
0028
cafe
3006
0000
0000
002b
cafe
3406
0000
0000
0027
cafe
3806
0000
0000
002c
cafe
3c06
0000
0000
0030
cafe
2006
0000
0000
002f
cafe
2406
0000
0000
0029
cafe
2806
0000
0000
002c
cafe
2c06
0000
0000
002c
cafe
3006
0000
0000
002a
cafe
3406
0000
0000
002a
cafe
3806
0000
0000
002a
cafe
3c06
0000
0000
0029
cafe
2006
0000
0000
002f
cafe
2406
0000
0000
002d
cafe
2806
0000
0000
002f
cafe
2c06
0000
0000
002b
cafe
3006
0000
0000
0031
cafe
3406
0000
0000
002c
cafe
3806
0000
0000
002a
cafe
3c06
0000
0000
002c
cafe
2006
0000
0000
002d
cafe
2406
0000
0000
002e
cafe
2806
0000
0000
0028
cafe
2c06
0000
0000
002a
cafe
3006
0000
0000
002a
cafe
3406
0000
0000
0028
cafe
3806
0000
0000
0022
cafe
3c06
0000
0000
0029
cafe
2006
0000
0000
0027
cafe
2406
0000
0000
0028
cafe
2806
0000
0000
0026
cafe
2c06
0000
0000
0028
cafe
3006
0000
0000
0026
cafe
3406
0000
0000
0028
cafe
3806
0000
0000
0022
cafe
3c06
0000
0000
0026
cafe
2006
0000
0000
002a
cafe
2406
0000
0000
002f
cafe
2806
0000
0000
0031
cafe
2c06
0000
0000
002e
cafe
3006
0000
0000
-
002c
cafe
3406
0000
0000
0034
cafe
3806
0000
0000
0034
cafe
3c06
0000
0000
0031
cafe
2006
0000
0000
002d
cafe
2406
0000
0000
002e
cafe
2806
0000
0000
002f
cafe
2c06
0000
0000
0030
cafe
3006
0000
0000
002f
cafe
3406
0000
0000
002f
cafe
3806
0000
0000
002e
cafe
3c06
0000
0000
0031
cafe
2006
0000
0000
002b
cafe
2406
0000
0000
002c
cafe
2806
0000
0000
002c
cafe
2c06
0000
0000
002c
cafe
3006
0000
0000
002a
cafe
3406
0000
0000
0024
cafe
3806
0000
0000
0023
cafe
3c06
0000
0000
0025
cafe
2006
0000
0000
001d
cafe
2406
0000
0000
001e
cafe
2806
0000
0000
002b
cafe
2c06
0000
0000
0029
cafe
3006
0000
0000
0029
cafe
3406
0000
0000
0023
cafe
3806
0000
0000
0028
cafe
3c06
0000
0000
0028
cafe
2006
0000
0000
0029
cafe
2406
0000
0000
0026
cafe
2806
0000
0000
002a
cafe
2c06
0000
0000
0026
cafe
3006
0000
0000
002b
cafe
3406
0000
0000
002d
cafe
3806
0000
0000
002b
cafe
3c06
0000
0000
002c
cafe
2006
0000
0000
002c
cafe
2406
0000
0000
002b
cafe
2806
0000
0000
002c
cafe
2c06
0000
0000
002f
cafe
3006
0000
0000
002c
cafe
3406
0000
0000
002e
cafe
3806
0000
0000
002f
cafe
3c06
0000
0000
002a
cafe
2006
0000
0000
0030
cafe
2406
0000
0000
002b
cafe
2806
0000
0000
0029
cafe
2c06
0000
0000
0022
cafe
3006
0000
0000
001e
cafe
3406
0000
0000
0022
cafe
3806
0000
0000
0027
cafe
3c06
0000
0000
0027
-
cafe
2006
0000
0000
0028
cafe
2406
0000
0000
0027
cafe
2806
0000
0000
0023
cafe
2c06
0000
0000
0025
cafe
3006
0000
0000
002c
cafe
3406
0000
0000
002e
cafe
3806
0000
0000
002b
cafe
3c06
0000
0000
002c
cafe
2006
0000
0000
002c
cafe
2406
0000
0000
002a
cafe
2806
0000
0000
002f
cafe
2c06
0000
0000
002c
cafe
3006
0000
0000
0030
cafe
3406
0000
0000
002c
cafe
3806
0000
0000
002c
cafe
3c06
0000
0000
002c
cafe
2006
0000
0000
0029
cafe
2406
0000
0000
0026
cafe
2806
0000
0000
0029
cafe
2c06
0000
0000
002b
cafe
3006
0000
0000
002c
cafe
3406
0000
0000
002a
cafe
3806
0000
0000
002c
cafe
3c06
0000
0000
002e
cafe
2006
0000
0000
002d
cafe
2406
0000
0000
002a
cafe
2806
0000
0000
002a
cafe
2c06
0000
0000
0027
cafe
3006
0000
0000
0026
cafe
3406
0000
0000
002d
cafe
3806
0000
0000
0029
cafe
3c06
0000
0000
002d
cafe
2006
0000
0000
002b
cafe
2406
0000
0000
002e
cafe
2806
0000
0000
002e
cafe
2c06
0000
0000
002e
cafe
3006
0000
0000
002b
cafe
3406
0000
0000
002b
cafe
3806
0000
0000
002d
cafe
3c06
0000
0000
002f
cafe
2006
0000
0000
002d
cafe
2406
0000
0000
0032
cafe
2806
0000
0000
002e
cafe
2c06
0000
0000
0031
cafe
3006
0000
0000
0031
cafe
3406
0000
0000
002d
cafe
3806
0000
0000
002c
cafe
3c06
0000
0000
002a
cafe
2006
0000
0000
0029
cafe
2406
0000
0000
0029
cafe
2806
0000
0000
0023
cafe
-
2c06
0000
0000
002b
cafe
3006
0000
0000
0028
cafe
3406
0000
0000
0026
cafe
3806
0000
0000
0025
cafe
3c06
0000
0000
0029
cafe
2006
0000
0000
0027
cafe
2406
0000
0000
0029
cafe
2806
0000
0000
002e
cafe
2c06
0000
0000
0027
cafe
3006
0000
0000
002a
cafe
3406
0000
0000
0029
cafe
3806
0000
0000
002a
cafe
3c06
0000
0000
002d
cafe
2006
0000
0000
002a
cafe
2406
0000
0000
0027
cafe
2806
0000
0000
002b
cafe
2c06
0000
0000
002a
cafe
3006
0000
0000
002e
cafe
3406
0000
0000
0030
cafe
3806
0000
0000
002e
cafe
3c06
0000
0000
0031
cafe
2006
0000
0000
0030
cafe
2406
0000
0000
0031
cafe
2806
0000
0000
002e
cafe
2c06
0000
0000
0030
cafe
3006
0000
0000
002f
cafe
3406
0000
0000
002e
cafe
3806
0000
0000
002e
cafe
3c06
0000
0000
002f
cafe
2006
0000
0000
002f
cafe
2406
0000
0000
002c
cafe
2806
0000
0000
002b
cafe
2c06
0000
0000
002a
cafe
3006
0000
0000
002f
cafe
3406
0000
0000
002b
cafe
3806
0000
0000
002f
cafe
3c06
0000
0000
0030
cafe
2006
0000
0000
0032
cafe
2406
0000
0000
002f
cafe
2806
0000
0000
002c
cafe
2c06
0000
0000
002f
cafe
3006
0000
0000
002b
cafe
3406
0000
0000
002b
cafe
3806
0000
0000
002e
cafe
3c06
0000
0000
0030
cafe
2006
0000
0000
002e
cafe
2406
0000
0000
002f
cafe
2806
0000
0000
002e
cafe
2c06
0000
0000
002d
cafe
3006
0000
0000
002c
cafe
3406
0000
0000
0028
cafe
3806
-
0000
0000
0029
cafe
3c06
0000
0000
002b
cafe
2006
0000
0000
002f
cafe
2406
0000
0000
002e
cafe
2806
0000
0000
002c
cafe
2c06
0000
0000
002c
cafe
3006
0000
0000
002f
cafe
3406
0000
0000
002a
cafe
3806
0000
0000
002b
cafe
3c06
0000
0000
002f
cafe
2006
0000
0000
002d
cafe
2406
0000
0000
0030
cafe
2806
0000
0000
002f
cafe
2c06
0000
0000
002b
cafe
3006
0000
0000
002d
cafe
3406
0000
0000
002e
cafe
3806
0000
0000
002c
cafe
3c06
0000
0000
002e
cafe
2006
0000
0000
0031
cafe
2406
0000
0000
0031
cafe
2806
0000
0000
002b
cafe
2c06
0000
0000
0028
cafe
3006
0000
0000
002a
cafe
3406
0000
0000
002e
cafe
3806
0000
0000
0026
cafe
3c06
0000
0000
0024
cafe
2006
0000
0000
0029
cafe
2406
0000
0000
002f
cafe
2806
0000
0000
002d
cafe
2c06
0000
0000
002c
cafe
3006
0000
0000
002d
cafe
3406
0000
0000
002b
cafe
3806
0000
0000
002c
cafe
3c06
0000
0000
0033
cafe
2006
0000
0000
002f
cafe
2406
0000
0000
0030
cafe
2806
0000
0000
002d
cafe
2c06
0000
0000
002f
cafe
3006
0000
0000
0029
cafe
3406
0000
0000
002d
cafe
3806
0000
0000
0030
cafe
3c06
0000
0000
002d
cafe
2006
0000
0000
002f
cafe
2406
0000
0000
0025
cafe
2806
0000
0000
0028
cafe
2c06
0000
0000
002e
cafe
3006
0000
0000
002c
cafe
3406
0000
0000
0029
cafe
3806
0000
0000
0029
cafe
3c06
0000
0000
0029
cafe
2006
0000
0000
0030
cafe
2406
0000
-
0000
0030
cafe
2806
0000
0000
0028
cafe
2c06
0000
0000
0020
cafe
3006
0000
0000
0029
cafe
3406
0000
0000
002a
cafe
3806
0000
0000
002a
cafe
3c06
0000
0000
0029
cafe
2006
0000
0000
0030
cafe
2406
0000
0000
002a
cafe
2806
0000
0000
002f
cafe
2c06
0000
0000
0028
cafe
3006
0000
0000
002d
cafe
3406
0000
0000
002c
cafe
3806
0000
0000
0029
cafe
3c06
0000
0000
0029
cafe
2006
0000
0000
0029
cafe
2406
0000
0000
0027
cafe
2806
0000
0000
002b
cafe
2c06
0000
0000
0025
cafe
3006
0000
0000
0026
cafe
3406
0000
0000
0028
cafe
3806
0000
0000
002a
cafe
3c06
0000
0000
002a
cafe
2006
0000
0000
002a
cafe
2406
0000
0000
002d
cafe
2806
0000
0000
002a
cafe
2c06
0000
0000
002c
cafe
3006
0000
0000
002e
cafe
3406
0000
0000
002d
cafe
3806
0000
0000
0029
cafe
3c06
0000
0000
002d
cafe
2006
0000
0000
002b
cafe
2406
0000
0000
0027
cafe
2806
0000
0000
002b
cafe
2c06
0000
0000
0029
cafe
3006
0000
0000
0031
cafe
3406
0000
0000
0027
cafe
3806
0000
0000
002c
cafe
3c06
0000
0000
002c
cafe
2006
0000
0000
0032
cafe
2406
0000
0000
002e
cafe
2806
0000
0000
002d
cafe
2c06
0000
0000
0030
cafe
3006
0000
0000
002e
cafe
3406
0000
0000
002a
cafe
3806
0000
0000
0029
cafe
3c06
0000
0000
0029
cafe
2006
0000
0000
002e
cafe
2406
0000
0000
002d
cafe
2806
0000
0000
002e
cafe
2c06
0000
0000
0029
cafe
3006
0000
0000
-
002d
cafe
3406
0000
0000
002c
cafe
3806
0000
0000
002b
cafe
3c06
0000
0000
002b
cafe
2006
0000
0000
002b
cafe
2406
0000
0000
002f
cafe
2806
0000
0000
002e
cafe
2c06
0000
0000
002e
cafe
3006
0000
0000
002c
cafe
3406
0000
0000
0030
cafe
3806
0000
0000
0028
cafe
3c06
0000
0000
002a
cafe
2006
0000
0000
002b
cafe
2406
0000
0000
002c
cafe
2806
0000
0000
002d
cafe
2c06
0000
0000
0031
cafe
3006
0000
0000
0031
cafe
3406
0000
0000
002d
cafe
3806
0000
0000
0027
cafe
3c06
0000
0000
002b
cafe
2006
0000
0000
002c
cafe
2406
0000
0000
002a
cafe
2806
0000
0000
002c
cafe
2c06
0000
0000
0030
cafe
3006
0000
0000
002e
cafe
3406
0000
0000
002b
cafe
3806
0000
0000
002b
cafe
3c06
0000
0000
0022
cafe
2006
0000
0000
0027
cafe
2406
0000
0000
0021
cafe
2806
0000
0000
0023
cafe
2c06
0000
0000
0027
cafe
3006
0000
0000
0021
cafe
3406
0000
0000
0025
cafe
3806
0000
0000
0024
cafe
3c06
0000
0000
0026
cafe
2006
0000
0000
0026
cafe
2406
0000
0000
002a
cafe
2806
0000
0000
0027
cafe
2c06
0000
0000
0026
cafe
3006
0000
0000
002a
cafe
3406
0000
0000
0027
cafe
3806
0000
0000
0025
cafe
3c06
0000
0000
0027
cafe
2006
0000
0000
002c
cafe
2406
0000
0000
0026
cafe
2806
0000
0000
002f
cafe
2c06
0000
0000
002d
cafe
3006
0000
0000
002b
cafe
3406
0000
0000
002d
cafe
3806
0000
0000
002f
cafe
3c06
0000
0000
0027
-
cafe
2006
0000
0000
002a
cafe
2406
0000
0000
0027
cafe
2806
0000
0000
0029
cafe
2c06
0000
0000
002b
cafe
3006
0000
0000
002d
cafe
3406
0000
0000
002f
cafe
3806
0000
0000
0032
cafe
3c06
0000
0000
002b
cafe
2006
0000
0000
002b
cafe
2406
0000
0000
002d
cafe
2806
0000
0000
0030
cafe
2c06
0000
0000
002e
cafe
3006
0000
0000
002d
cafe
3406
0000
0000
0029
cafe
3806
0000
0000
002a
cafe
3c06
0000
0000
002b
cafe
2006
0000
0000
002f
cafe
2406
0000
0000
002c
cafe
2806
0000
0000
002f
cafe
2c06
0000
0000
002c
cafe
3006
0000
0000
002e
cafe
3406
0000
0000
002a
cafe
3806
0000
0000
0027
cafe
3c06
0000
0000
002e
cafe
2006
0000
0000
0030
cafe
2406
0000
0000
002d
cafe
2806
0000
0000
0029
cafe
2c06
0000
0000
002b
cafe
3006
0000
0000
002e
cafe
3406
0000
0000
002e
cafe
3806
0000
0000
002d
cafe
3c06
0000
0000
002c
cafe
2006
0000
0000
002b
cafe
2406
0000
0000
002c
cafe
2806
0000
0000
0028
cafe
2c06
0000
0000
0028
cafe
3006
0000
0000
002d
cafe
3406
0000
0000
0029
cafe
3806
0000
0000
002d
cafe
3c06
0000
0000
002a
cafe
2006
0000
0000
002c
cafe
2406
0000
0000
002a
cafe
2806
0000
0000
002c
cafe
2c06
0000
0000
002c
cafe
3006
0000
0000
002c
cafe
3406
0000
0000
002c
cafe
3806
0000
0000
002a
cafe
3c06
0000
0000
002b
cafe
2006
0000
0000
002b
cafe
2406
0000
0000
002e
cafe
2806
0000
0000
002c
cafe
-
2c06
0000
0000
002b
cafe
3006
0000
0000
002e
cafe
3406
0000
0000
002c
cafe
3806
0000
0000
002d
cafe
3c06
0000
0000
0033
cafe
2006
0000
0000
002b
cafe
2406
0000
0000
002e
cafe
2806
0000
0000
002e
cafe
2c06
0000
0000
0032
cafe
3006
0000
0000
002a
cafe
3406
0000
0000
002a
cafe
3806
0000
0000
002e
cafe
3c06
0000
0000
0031
cafe
2006
0000
0000
0028
cafe
2406
0000
0000
002c
cafe
2806
0000
0000
002b
cafe
2c06
0000
0000
002d
cafe
3006
0000
0000
0026
cafe
3406
0000
0000
002d
cafe
3806
0000
0000
0029
cafe
3c06
0000
0000
002c
cafe
2006
0000
0000
002c
cafe
2406
0000
0000
002f
cafe
2806
0000
0000
0030
cafe
2c06
0000
0000
0031
cafe
3006
0000
0000
0034
cafe
3406
0000
0000
0031
cafe
3806
0000
0000
0033
cafe
3c06
0000
0000
002d
cafe
2006
0000
0000
0030
cafe
2406
0000
0000
0032
cafe
2806
0000
0000
002f
cafe
2c06
0000
0000
0032
cafe
3006
0000
0000
0032
cafe
3406
0000
0000
0031
cafe
3806
0000
0000
002d
cafe
3c06
0000
0000
002e
cafe
2006
0000
0000
002f
cafe
2406
0000
0000
002b
cafe
2806
0000
0000
002e
cafe
2c06
0000
0000
002e
cafe
3006
0000
0000
0031
cafe
3406
0000
0000
002d
cafe
3806
0000
0000
002d
cafe
3c06
0000
0000
0031
cafe
2006
0000
0000
002a
cafe
2406
0000
0000
002a
cafe
2806
0000
0000
002d
cafe
2c06
0000
0000
002c
cafe
3006
0000
0000
0026
cafe
3406
0000
0000
0028
cafe
3806
-
0000
0000
0028
cafe
3c06
0000
0000
0024
cafe
2006
0000
0000
0029
cafe
2406
0000
0000
0026
cafe
2806
0000
0000
0026
cafe
2c06
0000
0000
0027
cafe
3006
0000
0000
002c
cafe
3406
0000
0000
0028
cafe
3806
0000
0000
0028
cafe
3c06
0000
0000
0029
cafe
2006
0000
0000
002b
cafe
2406
0000
0000
002e
cafe
2806
0000
0000
002a
cafe
2c06
0000
0000
002d
cafe
3006
0000
0000
002d
cafe
3406
0000
0000
002e
cafe
3806
0000
0000
0028
cafe
3c06
0000
0000
002d
cafe
2006
0000
0000
002c
cafe
2406
0000
0000
0027
cafe
2806
0000
0000
002b
cafe
2c06
0000
0000
002a
cafe
3006
0000
0000
0027
cafe
3406
0000
0000
0025
cafe
3806
0000
0000
0027
cafe
3c06
0000
0000
0027
cafe
2006
0000
0000
002c
cafe
2406
0000
0000
0025
cafe
2806
0000
0000
0024
cafe
2c06
0000
0000
0026
cafe
3006
0000
0000
0025
cafe
3406
0000
0000
002b
cafe
3806
0000
0000
0026
cafe
3c06
0000
0000
0023
cafe
2006
0000
0000
0022
cafe
2406
0000
0000
0029
cafe
2806
0000
0000
0029
cafe
2c06
0000
0000
002a
cafe
3006
0000
0000
002b
cafe
3406
0000
0000
002a
cafe
3806
0000
0000
002c
cafe
3c06
0000
0000
002e
cafe
2006
0000
0000
002e
cafe
2406
0000
0000
0034
cafe
2806
0000
0000
0032
cafe
2c06
0000
0000
0033
cafe
3006
0000
0000
002f
cafe
3406
0000
0000
002f
cafe
3806
0000
0000
0031
cafe
3c06
0000
0000
002e
cafe
2006
0000
0000
002f
cafe
2406
0000
-
0000
0031
cafe
2806
0000
0000
0031
cafe
2c06
0000
0000
002e
cafe
3006
0000
0000
002b
cafe
3406
0000
0000
002d
cafe
3806
0000
0000
002d
cafe
3c06
0000
0000
002e
cafe
2006
0000
0000
002a
cafe
2406
0000
0000
002c
cafe
2806
0000
0000
002c
cafe
2c06
0000
0000
002a
cafe
3006
0000
0000
002c
cafe
3406
0000
0000
002b
cafe
3806
0000
0000
002b
cafe
3c06
0000
0000
002b
cafe
2006
0000
0000
0029
cafe
2406
0000
0000
002b
cafe
2806
0000
0000
002c
cafe
2c06
0000
0000
002d
cafe
3006
0000
0000
0030
cafe
3406
0000
0000
002d
cafe
3806
0000
0000
002f
cafe
3c06
0000
0000
002c
cafe
2006
0000
0000
002d
cafe
2406
0000
0000
002a
cafe
2806
0000
0000
002f
cafe
2c06
0000
0000
0031
cafe
3006
0000
0000
0031
cafe
3406
0000
0000
002f
cafe
3806
0000
0000
002c
cafe
3c06
0000
0000
002c
cafe
2006
0000
0000
002f
cafe
2406
0000
0000
002d
cafe
2806
0000
0000
002b
cafe
2c06
0000
0000
0030
cafe
3006
0000
0000
0030
cafe
3406
0000
0000
002c
cafe
3806
0000
0000
0033
cafe
3c06
0000
0000
002c
cafe
2006
0000
0000
002b
cafe
2406
0000
0000
002e
cafe
2806
0000
0000
002f
cafe
2c06
0000
0000
002c
cafe
3006
0000
0000
002c
cafe
3406
0000
0000
0032
cafe
3806
0000
0000
002e
cafe
3c06
0000
0000
002f
cafe
2006
0000
0000
002d
cafe
2406
0000
0000
0029
cafe
2806
0000
0000
002a
cafe
2c06
0000
0000
0027
cafe
3006
0000
0000
-
002e
cafe
3406
0000
0000
002e
cafe
3806
0000
0000
002a
cafe
3c06
0000
0000
002c
cafe
2006
0000
0000
0029
cafe
2406
0000
0000
0028
cafe
2806
0000
0000
002c
cafe
2c06
0000
0000
002b
cafe
3006
0000
0000
002a
cafe
3406
0000
0000
0025
cafe
3806
0000
0000
0025
cafe
3c06
0000
0000
0028
cafe
2006
0000
0000
0029
cafe
2406
0000
0000
0028
cafe
2806
0000
0000
002a
cafe
2c06
0000
0000
0028
cafe
3006
0000
0000
002c
cafe
3406
0000
0000
002a
cafe
3806
0000
0000
0029
cafe
3c06
0000
0000
0028
cafe
2006
0000
0000
002f
cafe
2406
0000
0000
002e
cafe
2806
0000
0000
0029
cafe
2c06
0000
0000
002c
cafe
3006
0000
0000
002b
cafe
3406
0000
0000
002f
cafe
3806
0000
0000
002b
cafe
3c06
0000
0000
0033
cafe
2006
0000
0000
0027
cafe
2406
0000
0000
0028
cafe
2806
0000
0000
002b
cafe
2c06
0000
0000
0030
cafe
3006
0000
0000
002b
cafe
3406
0000
0000
002f
cafe
3806
0000
0000
002d
cafe
3c06
0000
0000
0031
cafe
2006
0000
0000
0030
cafe
2406
0000
0000
002f
cafe
2806
0000
0000
0030
cafe
2c06
0000
0000
002e
cafe
3006
0000
0000
002b
cafe
3406
0000
0000
0025
cafe
3806
0000
0000
002c
cafe
3c06
0000
0000
0028
cafe
2006
0000
0000
0027
cafe
2406
0000
0000
002b
cafe
2806
0000
0000
002c
cafe
2c06
0000
0000
002b
cafe
3006
0000
0000
0031
cafe
3406
0000
0000
002a
cafe
3806
0000
0000
002b
cafe
3c06
0000
0000
002e
-
