3415
0000
0000
0140
cafe
3815
0000
0000
0142
cafe
3c15
0000
0000
0140
cafe
2015
0000
0000
013e
cafe
2415
0000
0000
013c
cafe
2815
0000
0000
0140
cafe
2c15
0000
0000
013e
cafe
3015
0000
0000
0143
cafe
3415
0000
0000
013b
cafe
3815
0000
0000
0141
cafe
3c15
0000
0000
0144
cafe
2015
0000
0000
0142
cafe
2415
0000
0000
0141
cafe
2815
0000
0000
013d
cafe
2c15
0000
0000
013d
cafe
3015
0000
0000
013e
cafe
3415
0000
0000
013e
cafe
3815
0000
0000
0141
cafe
3c15
0000
0000
013a
cafe
2015
0000
0000
0141
cafe
2415
0000
0000
0141
cafe
2815
0000
0000
013b
cafe
2c15
0000
0000
013f
cafe
3015
0000
0000
0141
cafe
3415
0000
0000
013e
cafe
3815
0000
0000
013b
cafe
3c15
0000
0000
013f
cafe
2015
0000
0000
0140
cafe
2415
0000
0000
013b
cafe
2815
0000
0000
013b
cafe
2c15
0000
0000
0142
cafe
3015
0000
0000
013f
cafe
3415
0000
0000
0141
cafe
3815
0000
0000
0143
cafe
3c15
0000
0000
013e
cafe
2015
0000
0000
0144
cafe
2415
0000
0000
0146
cafe
2815
0000
0000
0144
cafe
2c15
0000
0000
0146
cafe
3015
0000
0000
0143
cafe
3415
0000
0000
0145
cafe
3815
0000
0000
0145
cafe
3c15
0000
0000
0144
cafe
2015
0000
0000
0143
cafe
2415
0000
0000
0144
cafe
2815
0000
0000
0142
cafe
2c15
0000
0000
013f
cafe
3015
0000
0000
0140
cafe
3415
0000
0000
013b
cafe
3815
0000
0000
013a
cafe
3c15
0000
0000
0141
cafe
2015
-
0000
0000
0141
cafe
2415
0000
0000
0141
cafe
2815
0000
0000
0145
cafe
2c15
0000
0000
0144
cafe
3015
0000
0000
0144
cafe
3415
0000
0000
0144
cafe
3815
0000
0000
0147
cafe
3c15
0000
0000
0146
cafe
2015
0000
0000
0145
cafe
2415
0000
0000
0143
cafe
2815
0000
0000
013f
cafe
2c15
0000
0000
0141
cafe
3015
0000
0000
0145
cafe
3415
0000
0000
013e
cafe
3815
0000
0000
0141
cafe
3c15
0000
0000
0142
cafe
2015
0000
0000
0145
cafe
2415
0000
0000
0142
cafe
2815
0000
0000
013c
cafe
2c15
0000
0000
0141
cafe
3015
0000
0000
013c
cafe
3415
0000
0000
013b
cafe
3815
0000
0000
0141
cafe
3c15
0000
0000
0142
cafe
2015
0000
0000
013f
cafe
2415
0000
0000
013c
cafe
2815
0000
0000
013f
cafe
2c15
0000
0000
0141
cafe
3015
0000
0000
013e
cafe
3415
0000
0000
0142
cafe
3815
0000
0000
0140
cafe
3c15
0000
0000
013c
cafe
2015
0000
0000
0139
cafe
2415
0000
0000
0137
cafe
2815
0000
0000
013b
cafe
2c15
0000
0000
0136
cafe
3015
0000
0000
0139
cafe
3415
0000
0000
013e
cafe
3815
0000
0000
013c
cafe
3c15
0000
0000
013d
cafe
2015
0000
0000
013f
cafe
2415
0000
0000
013e
cafe
2815
0000
0000
0141
cafe
2c15
0000
0000
0145
cafe
3015
0000
0000
0140
cafe
3415
0000
0000
013c
cafe
3815
0000
0000
013a
cafe
3c15
0000
0000
0141
cafe
2015
0000
0000
0145
cafe
2415
0000
0000
0141
cafe
2815
0000
0000
013d
cafe
2c15
0000
-
0000
013d
cafe
3015
0000
0000
013e
cafe
3415
0000
0000
0141
cafe
3815
0000
0000
0142
cafe
3c15
0000
0000
0143
cafe
2015
0000
0000
0141
cafe
2415
0000
0000
0143
cafe
2815
0000
0000
0143
cafe
2c15
0000
0000
013e
cafe
3015
0000
0000
0144
cafe
3415
0000
0000
013f
cafe
3815
0000
0000
0143
cafe
3c15
0000
0000
0141
cafe
2015
0000
0000
0143
cafe
2415
0000
0000
013a
cafe
2815
0000
0000
0141
cafe
2c15
0000
0000
0140
cafe
3015
0000
0000
0145
cafe
3415
0000
0000
0142
cafe
3815
0000
0000
0141
cafe
3c15
0000
0000
0140
cafe
2015
0000
0000
013e
cafe
2415
0000
0000
0141
cafe
2815
0000
0000
0143
cafe
2c15
0000
0000
0141
cafe
3015
0000
0000
0140
cafe
3415
0000
0000
0141
cafe
3815
0000
0000
0147
cafe
3c15
0000
0000
0145
cafe
2015
0000
0000
0140
cafe
2415
0000
0000
013f
cafe
2815
0000
0000
0143
cafe
2c15
0000
0000
0143
cafe
3015
0000
0000
0147
cafe
3415
0000
0000
0142
cafe
3815
0000
0000
013e
cafe
3c15
0000
0000
0140
cafe
2015
0000
0000
0143
cafe
2415
0000
0000
013e
cafe
2815
0000
0000
013e
cafe
2c15
0000
0000
013f
cafe
3015
0000
0000
013f
cafe
3415
0000
0000
013f
cafe
3815
0000
0000
013f
cafe
3c15
0000
0000
013b
cafe
2015
0000
0000
0138
cafe
2415
0000
0000
013b
cafe
2815
0000
0000
013e
cafe
2c15
0000
0000
013c
cafe
3015
0000
0000
013f
cafe
3415
0000
0000
0141
cafe
3815
0000
0000
-
013e
cafe
3c15
0000
0000
013e
cafe
2015
0000
0000
0140
cafe
2415
0000
0000
013b
cafe
2815
0000
0000
013c
cafe
2c15
0000
0000
013f
cafe
3015
0000
0000
0143
cafe
3415
0000
0000
013b
cafe
3815
0000
0000
013e
cafe
3c15
0000
0000
013f
cafe
2015
0000
0000
013f
cafe
2415
0000
0000
013a
cafe
2815
0000
0000
013d
cafe
2c15
0000
0000
0141
cafe
3015
0000
0000
013d
cafe
3415
0000
0000
013d
cafe
3815
0000
0000
0142
cafe
3c15
0000
0000
0144
cafe
2015
0000
0000
0143
cafe
2415
0000
0000
0144
cafe
2815
0000
0000
014b
cafe
2c15
0000
0000
0140
cafe
3015
0000
0000
0143
cafe
3415
0000
0000
0142
cafe
3815
0000
0000
0142
cafe
3c15
0000
0000
0142
cafe
2015
0000
0000
0142
cafe
2415
0000
0000
0145
cafe
2815
0000
0000
0146
cafe
2c15
0000
0000
0147
cafe
3015
0000
0000
0141
cafe
3415
0000
0000
0140
cafe
3815
0000
0000
0142
cafe
3c15
0000
0000
013f
cafe
2015
0000
0000
0143
cafe
2415
0000
0000
0142
cafe
2815
0000
0000
013d
cafe
2c15
0000
0000
013d
cafe
3015
0000
0000
013d
cafe
3415
0000
0000
0141
cafe
3815
0000
0000
0141
cafe
3c15
0000
0000
013e
cafe
2015
0000
0000
013c
cafe
2415
0000
0000
0140
cafe
2815
0000
0000
0144
cafe
2c15
0000
0000
013d
cafe
3015
0000
0000
013f
cafe
3415
0000
0000
013a
cafe
3815
0000
0000
013c
cafe
3c15
0000
0000
0140
cafe
2015
0000
0000
013c
cafe
2415
0000
0000
013d
-
cafe
2815
0000
0000
013e
cafe
2c15
0000
0000
013b
cafe
3015
0000
0000
0141
cafe
3415
0000
0000
013f
cafe
3815
0000
0000
013e
cafe
3c15
0000
0000
013e
cafe
2015
0000
0000
013b
cafe
2415
0000
0000
013b
cafe
2815
0000
0000
013f
cafe
2c15
0000
0000
013a
cafe
3015
0000
0000
013b
cafe
3415
0000
0000
0139
cafe
3815
0000
0000
013c
cafe
3c15
0000
0000
013f
cafe
2015
0000
0000
013b
cafe
2415
0000
0000
0136
cafe
2815
0000
0000
013a
cafe
2c15
0000
0000
013c
cafe
3015
0000
0000
013d
cafe
3415
0000
0000
013b
cafe
3815
0000
0000
0138
cafe
3c15
0000
0000
013d
cafe
2015
0000
0000
0143
cafe
2415
0000
0000
0142
cafe
2815
0000
0000
0143
cafe
2c15
0000
0000
0145
cafe
3015
0000
0000
0142
cafe
3415
0000
0000
013e
cafe
3815
0000
0000
013e
cafe
3c15
0000
0000
013c
cafe
2015
0000
0000
0143
cafe
2415
0000
0000
0143
cafe
2815
0000
0000
013b
cafe
2c15
0000
0000
013d
cafe
3015
0000
0000
0141
cafe
3415
0000
0000
013c
cafe
3815
0000
0000
013a
cafe
3c15
0000
0000
013e
cafe
2015
0000
0000
013d
cafe
2415
0000
0000
0141
cafe
2815
0000
0000
0140
cafe
2c15
0000
0000
013b
cafe
3015
0000
0000
0141
cafe
3415
0000
0000
0140
cafe
3815
0000
0000
0142
cafe
3c15
0000
0000
013f
cafe
2015
0000
0000
013d
cafe
2415
0000
0000
013e
cafe
2815
0000
0000
013e
cafe
2c15
0000
0000
013f
cafe
3015
0000
0000
013c
cafe
-
3415
0000
0000
013c
cafe
3815
0000
0000
0140
cafe
3c15
0000
0000
0139
cafe
2015
0000
0000
013b
cafe
2415
0000
0000
0139
cafe
2815
0000
0000
0138
cafe
2c15
0000
0000
013d
cafe
3015
0000
0000
013a
cafe
3415
0000
0000
0141
cafe
3815
0000
0000
013d
cafe
3c15
0000
0000
013e
cafe
2015
0000
0000
0139
cafe
2415
0000
0000
0140
cafe
2815
0000
0000
013a
cafe
2c15
0000
0000
013b
cafe
3015
0000
0000
0138
cafe
3415
0000
0000
0139
cafe
3815
0000
0000
0139
cafe
3c15
0000
0000
013a
cafe
2015
0000
0000
0139
cafe
2415
0000
0000
0139
cafe
2815
0000
0000
013c
cafe
2c15
0000
0000
013d
cafe
3015
0000
0000
013e
cafe
3415
0000
0000
013c
cafe
3815
0000
0000
013f
cafe
3c15
0000
0000
0141
cafe
2015
0000
0000
0141
cafe
2415
0000
0000
0141
cafe
2815
0000
0000
013f
cafe
2c15
0000
0000
013f
cafe
3015
0000
0000
013a
cafe
3415
0000
0000
0138
cafe
3815
0000
0000
0139
cafe
3c15
0000
0000
013e
cafe
2015
0000
0000
013c
cafe
2415
0000
0000
013a
cafe
2815
0000
0000
013e
cafe
2c15
0000
0000
0142
cafe
3015
0000
0000
013f
cafe
3415
0000
0000
013e
cafe
3815
0000
0000
0140
cafe
3c15
0000
0000
013d
cafe
2015
0000
0000
0140
cafe
2415
0000
0000
013d
cafe
2815
0000
0000
013d
cafe
2c15
0000
0000
0140
cafe
3015
0000
0000
013f
cafe
3415
0000
0000
013e
cafe
3815
0000
0000
0146
cafe
3c15
0000
0000
0140
cafe
2015
-
0000
0000
013b
cafe
2415
0000
0000
013f
cafe
2815
0000
0000
013e
cafe
2c15
0000
0000
013f
cafe
3015
0000
0000
0142
cafe
3415
0000
0000
0140
cafe
3815
0000
0000
013f
cafe
3c15
0000
0000
013d
cafe
2015
0000
0000
0144
cafe
2415
0000
0000
0142
cafe
2815
0000
0000
0142
cafe
2c15
0000
0000
0141
cafe
3015
0000
0000
0141
cafe
3415
0000
0000
0140
cafe
3815
0000
0000
013d
cafe
3c15
0000
0000
0140
cafe
2015
0000
0000
0143
cafe
2415
0000
0000
0142
cafe
2815
0000
0000
0143
cafe
2c15
0000
0000
0145
cafe
3015
0000
0000
0145
cafe
3415
0000
0000
0141
cafe
3815
0000
0000
013e
cafe
3c15
0000
0000
0141
cafe
2015
0000
0000
013e
cafe
2415
0000
0000
0143
cafe
2815
0000
0000
0142
cafe
2c15
0000
0000
013e
cafe
3015
0000
0000
0140
cafe
3415
0000
0000
013b
cafe
3815
0000
0000
0141
cafe
3c15
0000
0000
0141
cafe
2015
0000
0000
0144
cafe
2415
0000
0000
013c
cafe
2815
0000
0000
013e
cafe
2c15
0000
0000
0143
cafe
3015
0000
0000
0148
cafe
3415
0000
0000
0145
cafe
3815
0000
0000
0144
cafe
3c15
0000
0000
0140
cafe
2015
0000
0000
013d
cafe
2415
0000
0000
0144
cafe
2815
0000
0000
0145
cafe
2c15
0000
0000
013d
cafe
3015
0000
0000
013a
cafe
3415
0000
0000
013d
cafe
3815
0000
0000
013d
cafe
3c15
0000
0000
0141
cafe
2015
0000
0000
013e
cafe
2415
0000
0000
013a
cafe
2815
0000
0000
013c
cafe
2c15
0000
-
0000
013c
cafe
3015
0000
0000
013b
cafe
3415
0000
0000
013e
cafe
3815
0000
0000
013a
cafe
3c15
0000
0000
0138
cafe
2015
0000
0000
0141
cafe
2415
0000
0000
013f
cafe
2815
0000
0000
013d
cafe
2c15
0000
0000
013c
cafe
3015
0000
0000
013b
cafe
3415
0000
0000
013d
cafe
3815
0000
0000
013b
cafe
3c15
0000
0000
0140
cafe
2015
0000
0000
0140
cafe
2415
0000
0000
0141
cafe
2815
0000
0000
0140
cafe
2c15
0000
0000
0140
cafe
3015
0000
0000
0147
cafe
3415
0000
0000
0143
cafe
3815
0000
0000
0140
cafe
3c15
0000
0000
0141
cafe
2015
0000
0000
013e
cafe
2415
0000
0000
0145
cafe
2815
0000
0000
0142
cafe
2c15
0000
0000
0140
cafe
3015
0000
0000
0143
cafe
3415
0000
0000
0141
cafe
3815
0000
0000
0143
cafe
3c15
0000
0000
013f
cafe
2015
0000
0000
013c
cafe
2415
0000
0000
013c
cafe
2815
0000
0000
0140
cafe
2c15
0000
0000
013e
cafe
3015
0000
0000
013b
cafe
3415
0000
0000
0141
cafe
3815
0000
0000
0141
cafe
3c15
0000
0000
0144
cafe
2015
0000
0000
0140
cafe
2415
0000
0000
013e
cafe
2815
0000
0000
013b
cafe
2c15
0000
0000
013a
cafe
3015
0000
0000
013b
cafe
3415
0000
0000
013e
cafe
3815
0000
0000
013b
cafe
3c15
0000
0000
013f
cafe
2015
0000
0000
013d
cafe
2415
0000
0000
0145
cafe
2815
0000
0000
0140
cafe
2c15
0000
0000
0139
cafe
3015
0000
0000
013f
cafe
3415
0000
0000
0140
cafe
3815
0000
0000
-
013d
cafe
3c15
0000
0000
013c
cafe
2015
0000
0000
0139
cafe
2415
0000
0000
013d
cafe
2815
0000
0000
0141
cafe
2c15
0000
0000
013e
cafe
3015
0000
0000
013f
cafe
3415
0000
0000
013e
cafe
3815
0000
0000
013f
cafe
3c15
0000
0000
0142
cafe
2015
0000
0000
013f
cafe
2415
0000
0000
0140
cafe
2815
0000
0000
0141
cafe
2c15
0000
0000
0144
cafe
3015
0000
0000
0141
cafe
3415
0000
0000
0141
cafe
3815
0000
0000
0145
cafe
3c15
0000
0000
013e
cafe
2015
0000
0000
0146
cafe
2415
0000
0000
0143
cafe
2815
0000
0000
013e
cafe
2c15
0000
0000
013e
cafe
3015
0000
0000
0141
cafe
3415
0000
0000
0144
cafe
3815
0000
0000
0142
cafe
3c15
0000
0000
0148
cafe
2015
0000
0000
0146
cafe
2415
0000
0000
0143
cafe
2815
0000
0000
0141
cafe
2c15
0000
0000
013e
cafe
3015
0000
0000
0142
cafe
3415
0000
0000
0140
cafe
3815
0000
0000
013f
cafe
3c15
0000
0000
013c
cafe
2015
0000
0000
0139
cafe
2415
0000
0000
013e
cafe
2815
0000
0000
013e
cafe
2c15
0000
0000
013c
cafe
3015
0000
0000
0138
cafe
3415
0000
0000
013e
cafe
3815
0000
0000
013f
cafe
3c15
0000
0000
013b
cafe
2015
0000
0000
013c
cafe
2415
0000
0000
0140
cafe
2815
0000
0000
0145
cafe
2c15
0000
0000
0143
cafe
3015
0000
0000
0142
cafe
3415
0000
0000
0144
cafe
3815
0000
0000
0142
cafe
3c15
0000
0000
0145
cafe
2015
0000
0000
013f
cafe
2415
0000
0000
013d
-
cafe
2815
0000
0000
013b
cafe
2c15
0000
0000
0144
cafe
3015
0000
0000
0143
cafe
3415
0000
0000
0143
cafe
3815
0000
0000
0143
cafe
3c15
0000
0000
0148
cafe
2015
0000
0000
0143
cafe
2415
0000
0000
0144
cafe
2815
0000
0000
0140
cafe
2c15
0000
0000
0140
cafe
3015
0000
0000
0141
cafe
3415
0000
0000
0143
cafe
3815
0000
0000
0141
cafe
3c15
0000
0000
0144
cafe
2015
0000
0000
013f
cafe
2415
0000
0000
0140
cafe
2815
0000
0000
0142
cafe
2c15
0000
0000
013f
cafe
3015
0000
0000
0141
cafe
3415
0000
0000
0142
cafe
3815
0000
0000
0143
cafe
3c15
0000
0000
0142
cafe
2015
0000
0000
0143
cafe
2415
0000
0000
0147
cafe
2815
0000
0000
0142
cafe
2c15
0000
0000
013e
cafe
3015
0000
0000
0141
cafe
3415
0000
0000
013e
cafe
3815
0000
0000
013e
cafe
3c15
0000
0000
013a
cafe
2015
0000
0000
013c
cafe
2415
0000
0000
0141
cafe
2815
0000
0000
0141
cafe
2c15
0000
0000
0141
cafe
3015
0000
0000
0143
cafe
3415
0000
0000
0146
cafe
3815
0000
0000
0143
cafe
3c15
0000
0000
0143
cafe
2015
0000
0000
013f
cafe
2415
0000
0000
013f
cafe
2815
0000
0000
013f
cafe
2c15
0000
0000
0141
cafe
3015
0000
0000
013f
cafe
3415
0000
0000
013d
cafe
3815
0000
0000
0140
cafe
3c15
0000
0000
0140
cafe
2015
0000
0000
0141
cafe
2415
0000
0000
0139
cafe
2815
0000
0000
0140
cafe
2c15
0000
0000
013e
cafe
3015
0000
0000
013b
cafe
-
3415
0000
0000
0142
cafe
3815
0000
0000
013d
cafe
3c15
0000
0000
0141
cafe
2015
0000
0000
0145
cafe
2415
0000
0000
0142
cafe
2815
0000
0000
0140
cafe
2c15
0000
0000
013f
cafe
3015
0000
0000
013e
cafe
3415
0000
0000
013d
cafe
3815
0000
0000
0141
cafe
3c15
0000
0000
013c
cafe
2015
0000
0000
0137
cafe
2415
0000
0000
013b
cafe
2815
0000
0000
013a
cafe
2c15
0000
0000
0138
cafe
3015
0000
0000
013c
cafe
3415
0000
0000
013e
cafe
3815
0000
0000
0142
cafe
3c15
0000
0000
0140
cafe
2015
0000
0000
0142
cafe
2415
0000
0000
0141
cafe
2815
0000
0000
0142
cafe
2c15
0000
0000
0146
cafe
3015
0000
0000
0146
cafe
3415
0000
0000
0140
cafe
3815
0000
0000
013f
cafe
3c15
0000
0000
013a
cafe
2015
0000
0000
013d
cafe
2415
0000
0000
0142
cafe
2815
0000
0000
0142
cafe
2c15
0000
0000
013f
cafe
3015
0000
0000
013e
cafe
3415
0000
0000
0145
cafe
3815
0000
0000
0143
cafe
3c15
0000
0000
0142
cafe
2015
0000
0000
0140
cafe
2415
0000
0000
013c
cafe
2815
0000
0000
013f
cafe
2c15
0000
0000
013b
cafe
3015
0000
0000
013d
cafe
3415
0000
0000
0144
cafe
3815
0000
0000
0140
cafe
3c15
0000
0000
013e
cafe
2015
0000
0000
013f
cafe
2415
0000
0000
0141
cafe
2815
0000
0000
0143
cafe
2c15
0000
0000
013e
cafe
3015
0000
0000
013b
cafe
3415
0000
0000
013a
cafe
3815
0000
0000
0138
cafe
3c15
0000
0000
0142
cafe
2015
-
0000
0000
0142
cafe
2415
0000
0000
0140
cafe
2815
0000
0000
0143
cafe
2c15
0000
0000
0146
cafe
3015
0000
0000
0145
cafe
3415
0000
0000
0143
cafe
3815
0000
0000
0146
cafe
3c15
0000
0000
013f
cafe
2015
0000
0000
013d
cafe
2415
0000
0000
0140
cafe
2815
0000
0000
0140
cafe
2c15
0000
0000
013b
cafe
3015
0000
0000
0142
cafe
3415
0000
0000
0144
cafe
3815
0000
0000
013c
cafe
3c15
0000
0000
0141
cafe
2015
0000
0000
0145
cafe
2415
0000
0000
0142
cafe
2815
0000
0000
0143
cafe
2c15
0000
0000
0142
cafe
3015
0000
0000
013f
cafe
3415
0000
0000
0140
cafe
3815
0000
0000
0143
cafe
3c15
0000
0000
0144
cafe
2015
0000
0000
013e
cafe
2415
0000
0000
0146
cafe
2815
0000
0000
0140
cafe
2c15
0000
0000
0143
cafe
3015
0000
0000
013c
cafe
3415
0000
0000
0144
cafe
3815
0000
0000
013d
cafe
3c15
0000
0000
0139
cafe
2015
0000
0000
013d
cafe
2415
0000
0000
013d
cafe
2815
0000
0000
013b
cafe
2c15
0000
0000
013c
cafe
3015
0000
0000
0138
cafe
3415
0000
0000
013a
cafe
3815
0000
0000
013c
cafe
3c15
0000
0000
013c
cafe
2015
0000
0000
013d
cafe
2415
0000
0000
0140
cafe
2815
0000
0000
013f
cafe
2c15
0000
0000
013f
cafe
3015
0000
0000
0141
cafe
3415
0000
0000
0142
cafe
3815
0000
0000
0140
cafe
3c15
0000
0000
013f
cafe
2015
0000
0000
013c
cafe
2415
0000
0000
013e
cafe
2815
0000
0000
013f
cafe
2c15
0000
-
0000
013f
cafe
3015
0000
0000
0142
cafe
3415
0000
0000
0146
cafe
3815
0000
0000
0143
cafe
3c15
0000
0000
0142
cafe
2015
0000
0000
0143
cafe
2415
0000
0000
0144
cafe
2815
0000
0000
013c
cafe
2c15
0000
0000
013f
cafe
3015
0000
0000
0141
cafe
3415
0000
0000
0141
cafe
3815
0000
0000
0143
cafe
3c15
0000
0000
0142
cafe
2015
0000
0000
013b
cafe
2415
0000
0000
013f
cafe
2815
0000
0000
0141
cafe
2c15
0000
0000
0145
cafe
3015
0000
0000
0141
cafe
3415
0000
0000
013d
cafe
3815
0000
0000
0141
cafe
3c15
0000
0000
0140
cafe
2015
0000
0000
0142
cafe
2415
0000
0000
013d
cafe
2815
0000
0000
0142
cafe
2c15
0000
0000
013e
cafe
3015
0000
0000
0141
cafe
3415
0000
0000
0145
cafe
3815
0000
0000
0140
cafe
3c15
0000
0000
0140
cafe
2015
0000
0000
013c
cafe
2415
0000
0000
0140
cafe
2815
0000
0000
013f
cafe
2c15
0000
0000
013c
cafe
3015
0000
0000
0138
cafe
3415
0000
0000
013c
cafe
3815
0000
0000
013c
cafe
3c15
0000
0000
013c
cafe
2015
0000
0000
013e
cafe
2415
0000
0000
013c
cafe
2815
0000
0000
013c
cafe
2c15
0000
0000
013e
cafe
3015
0000
0000
013a
cafe
3415
0000
0000
0141
cafe
3815
0000
0000
0140
cafe
3c15
0000
0000
013d
cafe
2015
0000
0000
013c
cafe
2415
0000
0000
0138
cafe
2815
0000
0000
0142
cafe
2c15
0000
0000
013e
cafe
3015
0000
0000
0141
cafe
3415
0000
0000
013f
cafe
3815
0000
0000
-
0140
cafe
3c15
0000
0000
0142
cafe
2015
0000
0000
0140
cafe
2415
0000
0000
013c
cafe
2815
0000
0000
013c
cafe
2c15
0000
0000
013d
cafe
3015
0000
0000
0141
cafe
3415
0000
0000
013a
cafe
3815
0000
0000
013d
cafe
3c15
0000
0000
013f
cafe
2015
0000
0000
0142
cafe
2415
0000
0000
0142
cafe
2815
0000
0000
013f
cafe
2c15
0000
0000
013d
cafe
3015
0000
0000
0141
cafe
3415
0000
0000
0146
cafe
3815
0000
0000
0141
cafe
3c15
0000
0000
0144
cafe
2015
0000
0000
0140
cafe
2415
0000
0000
013a
cafe
2815
0000
0000
0140
cafe
2c15
0000
0000
0142
cafe
3015
0000
0000
0140
cafe
3415
0000
0000
013e
cafe
3815
0000
0000
013f
cafe
3c15
0000
0000
0140
cafe
2015
0000
0000
013b
cafe
2415
0000
0000
0141
cafe
2815
0000
0000
013f
cafe
2c15
0000
0000
0145
cafe
3015
0000
0000
013e
cafe
3415
0000
0000
0143
cafe
3815
0000
0000
013a
cafe
3c15
0000
0000
013b
cafe
2015
0000
0000
013a
cafe
2415
0000
0000
0139
cafe
2815
0000
0000
013b
cafe
2c15
0000
0000
0138
cafe
3015
0000
0000
013b
cafe
3415
0000
0000
0140
cafe
3815
0000
0000
0141
cafe
3c15
0000
0000
013e
cafe
2015
0000
0000
013e
cafe
2415
0000
0000
013e
cafe
2815
0000
0000
0140
cafe
2c15
0000
0000
013e
cafe
3015
0000
0000
013f
cafe
3415
0000
0000
0140
cafe
3815
0000
0000
0138
cafe
3c15
0000
0000
013e
cafe
2015
0000
0000
013d
cafe
2415
0000
0000
013c
-
cafe
2815
0000
0000
0140
cafe
2c15
0000
0000
013f
cafe
3015
0000
0000
013b
cafe
3415
0000
0000
013a
cafe
3815
0000
0000
013c
cafe
3c15
0000
0000
0140
cafe
2015
0000
0000
013f
cafe
2415
0000
0000
013f
cafe
2815
0000
0000
013f
cafe
2c15
0000
0000
0142
cafe
3015
0000
0000
0141
cafe
3415
0000
0000
013f
cafe
3815
0000
0000
0144
cafe
3c15
0000
0000
0144
cafe
2015
0000
0000
0143
cafe
2415
0000
0000
0142
cafe
2815
0000
0000
013d
cafe
2c15
0000
0000
0140
cafe
3015
0000
0000
0144
cafe
3415
0000
0000
0140
cafe
3815
0000
0000
013d
cafe
3c15
0000
0000
0143
cafe
2015
0000
0000
013e
cafe
2415
0000
0000
0144
cafe
2815
0000
0000
0142
cafe
2c15
0000
0000
013d
cafe
3015
0000
0000
013a
cafe
3415
0000
0000
013c
cafe
3815
0000
0000
013c
cafe
3c15
0000
0000
0142
cafe
2015
0000
0000
013d
cafe
2415
0000
0000
0141
cafe
2815
0000
0000
0139
cafe
2c15
0000
0000
013b
cafe
3015
0000
0000
013d
cafe
3415
0000
0000
0136
cafe
3815
0000
0000
013c
cafe
3c15
0000
0000
013a
cafe
2015
0000
0000
0135
cafe
2415
0000
0000
0131
cafe
2815
0000
0000
0138
cafe
2c15
0000
0000
013c
cafe
3015
0000
0000
013b
cafe
3415
0000
0000
0139
cafe
3815
0000
0000
013d
cafe
3c15
0000
0000
0136
cafe
2015
0000
0000
0137
cafe
2415
0000
0000
0138
cafe
2815
0000
0000
013e
cafe
2c15
0000
0000
013d
cafe
3015
0000
0000
013c
cafe
-
3415
0000
0000
0140
cafe
3815
0000
0000
013f
cafe
3c15
0000
0000
013f
cafe
2015
0000
0000
013d
cafe
2415
0000
0000
013e
cafe
2815
0000
0000
0143
cafe
2c15
0000
0000
0141
cafe
3015
0000
0000
0141
cafe
3415
0000
0000
0139
cafe
3815
0000
0000
013c
cafe
3c15
0000
0000
013f
cafe
2015
0000
0000
013e
cafe
2415
0000
0000
013f
cafe
2815
0000
0000
0140
cafe
2c15
0000
0000
013f
cafe
3015
0000
0000
0142
cafe
3415
0000
0000
0142
cafe
3815
0000
0000
0141
cafe
3c15
0000
0000
0140
cafe
2015
0000
0000
0142
cafe
2415
0000
0000
0143
cafe
2815
0000
0000
013d
cafe
2c15
0000
0000
013b
cafe
3015
0000
0000
0141
cafe
3415
0000
0000
0140
cafe
3815
0000
0000
013d
cafe
3c15
0000
0000
0140
cafe
2015
0000
0000
013e
cafe
2415
0000
0000
013a
cafe
2815
0000
0000
013f
cafe
2c15
0000
0000
013a
cafe
3015
0000
0000
013d
cafe
3415
0000
0000
013d
cafe
3815
0000
0000
013c
cafe
3c15
0000
0000
013d
cafe
2015
0000
0000
013e
cafe
2415
0000
0000
013d
cafe
2815
0000
0000
013f
cafe
2c15
0000
0000
0141
cafe
3015
0000
0000
013e
cafe
3415
0000
0000
013f
cafe
3815
0000
0000
013d
cafe
3c15
0000
0000
013a
cafe
2015
0000
0000
013c
cafe
2415
0000
0000
013b
cafe
2815
0000
0000
013e
cafe
2c15
0000
0000
013a
cafe
3015
0000
0000
013f
cafe
3415
0000
0000
013c
cafe
3815
0000
0000
013d
cafe
3c15
0000
0000
0140
cafe
2015
-
0000
0000
013c
cafe
2415
0000
0000
013b
cafe
2815
0000
0000
0139
cafe
2c15
0000
0000
013d
cafe
3015
0000
0000
013b
cafe
3415
0000
0000
0142
cafe
3815
0000
0000
0142
cafe
3c15
0000
0000
013d
cafe
2015
0000
0000
013e
cafe
2415
0000
0000
0140
cafe
2815
0000
0000
0140
cafe
2c15
0000
0000
013d
cafe
3015
0000
0000
013e
cafe
3415
0000
0000
0141
cafe
3815
0000
0000
0140
cafe
3c15
0000
0000
013f
cafe
2015
0000
0000
0143
cafe
2415
0000
0000
013f
cafe
2815
0000
0000
013f
cafe
2c15
0000
0000
0146
cafe
3015
0000
0000
0142
cafe
3415
0000
0000
013b
cafe
3815
0000
0000
0140
cafe
3c15
0000
0000
0144
cafe
2015
0000
0000
013d
cafe
2415
0000
0000
013e
cafe
2815
0000
0000
0140
cafe
2c15
0000
0000
013a
cafe
3015
0000
0000
0139
cafe
3415
0000
0000
013b
cafe
3815
0000
0000
013c
cafe
3c15
0000
0000
0143
cafe
2015
0000
0000
0141
cafe
2415
0000
0000
013f
cafe
2815
0000
0000
0140
cafe
2c15
0000
0000
0143
cafe
3015
0000
0000
013f
cafe
3415
0000
0000
013e
cafe
3815
0000
0000
013f
cafe
3c15
0000
0000
0143
cafe
2015
0000
0000
0144
cafe
2415
0000
0000
013f
cafe
2815
0000
0000
013a
cafe
2c15
0000
0000
0143
cafe
3015
0000
0000
013f
cafe
3415
0000
0000
0144
cafe
3815
0000
0000
0147
cafe
3c15
0000
0000
0145
cafe
2015
0000
0000
0141
cafe
2415
0000
0000
0141
cafe
2815
0000
0000
0141
cafe
2c15
0000
-
0000
0139
cafe
3015
0000
0000
013e
cafe
3415
0000
0000
0141
cafe
3815
0000
0000
013e
cafe
3c15
0000
0000
013c
cafe
2015
0000
0000
013c
cafe
2415
0000
0000
0139
cafe
2815
0000
0000
013b
cafe
2c15
0000
0000
013b
cafe
3015
0000
0000
013e
cafe
3415
0000
0000
013d
cafe
3815
0000
0000
013d
cafe
3c15
0000
0000
013d
cafe
2015
0000
0000
013f
cafe
2415
0000
0000
0137
cafe
2815
0000
0000
0138
cafe
2c15
0000
0000
0138
cafe
3015
0000
0000
013c
cafe
3415
0000
0000
013e
cafe
3815
0000
0000
013f
cafe
3c15
0000
0000
013d
cafe
2015
0000
0000
0139
cafe
2415
0000
0000
0139
cafe
2815
0000
0000
013c
cafe
2c15
0000
0000
013e
cafe
3015
0000
0000
013e
cafe
3415
0000
0000
013c
cafe
3815
0000
0000
013a
cafe
3c15
0000
0000
0140
cafe
2015
0000
0000
0140
cafe
2415
0000
0000
0142
cafe
2815
0000
0000
0141
cafe
2c15
0000
0000
013d
cafe
3015
0000
0000
0145
cafe
3415
0000
0000
0140
cafe
3815
0000
0000
0142
cafe
3c15
0000
0000
0145
cafe
2015
0000
0000
0143
cafe
2415
0000
0000
0144
cafe
2815
0000
0000
013e
cafe
2c15
0000
0000
0141
cafe
3015
0000
0000
013f
cafe
3415
0000
0000
013d
cafe
3815
0000
0000
013b
cafe
3c15
0000
0000
0145
cafe
2015
0000
0000
013d
cafe
2415
0000
0000
0145
cafe
2815
0000
0000
0141
cafe
2c15
0000
0000
0141
cafe
3015
0000
0000
0144
cafe
3415
0000
0000
0141
cafe
3815
0000
0000
-
0140
cafe
3c15
0000
0000
0148
cafe
2015
0000
0000
0142
cafe
2415
0000
0000
0140
cafe
2815
0000
0000
0140
cafe
2c15
0000
0000
0140
cafe
3015
0000
0000
0140
cafe
3415
0000
0000
013e
cafe
3815
0000
0000
0140
cafe
3c15
0000
0000
013b
cafe
2015
0000
0000
0140
cafe
2415
0000
0000
0143
cafe
2815
0000
0000
0143
cafe
2c15
0000
0000
0141
cafe
3015
0000
0000
013d
cafe
3415
0000
0000
013f
cafe
3815
0000
0000
013d
cafe
3c15
0000
0000
013d
cafe
2015
0000
0000
013e
cafe
2415
0000
0000
0140
cafe
2815
0000
0000
013e
cafe
2c15
0000
0000
0144
cafe
3015
0000
0000
013b
cafe
3415
0000
0000
0142
cafe
3815
0000
0000
0142
cafe
3c15
0000
0000
0142
cafe
2015
0000
0000
013f
cafe
2415
0000
0000
013e
cafe
2815
0000
0000
013f
cafe
2c15
0000
0000
013b
cafe
3015
0000
0000
0140
cafe
3415
0000
0000
013d
cafe
3815
0000
0000
013e
cafe
3c15
0000
0000
0142
cafe
2015
0000
0000
013c
cafe
2415
0000
0000
013e
cafe
2815
0000
0000
013f
cafe
2c15
0000
0000
0143
cafe
3015
0000
0000
0142
cafe
3415
0000
0000
0139
cafe
3815
0000
0000
013f
cafe
3c15
0000
0000
0143
cafe
2015
0000
0000
0143
cafe
2415
0000
0000
013e
cafe
2815
0000
0000
0140
cafe
2c15
0000
0000
013e
cafe
3015
0000
0000
013e
cafe
3415
0000
0000
013f
cafe
3815
0000
0000
0142
cafe
3c15
0000
0000
0140
cafe
2015
0000
0000
0140
cafe
2415
0000
0000
0142
-
cafe
2815
0000
0000
0142
cafe
2c15
0000
0000
013d
cafe
3015
0000
0000
0142
cafe
3415
0000
0000
013c
cafe
3815
0000
0000
013f
cafe
3c15
0000
0000
013e
cafe
2015
0000
0000
013f
cafe
2415
0000
0000
013d
cafe
2815
0000
0000
0140
cafe
2c15
0000
0000
0140
cafe
3015
0000
0000
013e
cafe
3415
0000
0000
013d
cafe
3815
0000
0000
0140
cafe
3c15
0000
0000
0144
cafe
2015
0000
0000
013e
cafe
2415
0000
0000
013f
cafe
2815
0000
0000
013e
cafe
2c15
0000
0000
013f
cafe
3015
0000
0000
013d
cafe
3415
0000
0000
013f
cafe
3815
0000
0000
0141
cafe
3c15
0000
0000
0140
cafe
2015
0000
0000
013c
cafe
2415
0000
0000
013c
cafe
2815
0000
0000
013b
cafe
2c15
0000
0000
0140
cafe
3015
0000
0000
013b
cafe
3415
0000
0000
0139
cafe
3815
0000
0000
013f
cafe
3c15
0000
0000
0138
cafe
2015
0000
0000
0138
cafe
2415
0000
0000
0137
cafe
2815
0000
0000
0136
cafe
2c15
0000
0000
0136
cafe
3015
0000
0000
013a
cafe
3415
0000
0000
013c
cafe
3815
0000
0000
013e
cafe
3c15
0000
0000
0141
cafe
2015
0000
0000
013e
cafe
2415
0000
0000
013f
cafe
2815
0000
0000
0139
cafe
2c15
0000
0000
0135
cafe
3015
0000
0000
0139
cafe
3415
0000
0000
0139
cafe
3815
0000
0000
0136
cafe
3c15
0000
0000
0133
cafe
2015
0000
0000
0139
cafe
2415
0000
0000
0139
cafe
2815
0000
0000
013e
cafe
2c15
0000
0000
013e
cafe
3015
0000
0000
013d
cafe
-
3415
0000
0000
013e
cafe
3815
0000
0000
0138
cafe
3c15
0000
0000
013b
cafe
2015
0000
0000
013a
cafe
2415
0000
0000
0140
cafe
2815
0000
0000
013e
cafe
2c15
0000
0000
0144
cafe
3015
0000
0000
0141
cafe
3415
0000
0000
0143
cafe
3815
0000
0000
0143
cafe
3c15
0000
0000
0141
cafe
2015
0000
0000
0141
cafe
2415
0000
0000
0140
cafe
2815
0000
0000
013f
cafe
2c15
0000
0000
0142
cafe
3015
0000
0000
0144
cafe
3415
0000
0000
013f
cafe
3815
0000
0000
013a
cafe
3c15
0000
0000
0140
cafe
2015
0000
0000
013f
cafe
2415
0000
0000
0140
cafe
2815
0000
0000
013b
cafe
2c15
0000
0000
013c
cafe
3015
0000
0000
013b
cafe
3415
0000
0000
013a
cafe
3815
0000
0000
013e
cafe
3c15
0000
0000
013d
cafe
2015
0000
0000
0137
cafe
2415
0000
0000
013a
cafe
2815
0000
0000
013f
cafe
2c15
0000
0000
0142
cafe
3015
0000
0000
013c
cafe
3415
0000
0000
013e
cafe
3815
0000
0000
0143
cafe
3c15
0000
0000
013b
cafe
2015
0000
0000
013a
cafe
2415
0000
0000
0140
cafe
2815
0000
0000
0141
cafe
2c15
0000
0000
0140
cafe
3015
0000
0000
0140
cafe
3415
0000
0000
013e
cafe
3815
0000
0000
0138
cafe
3c15
0000
0000
0138
cafe
2015
0000
0000
013d
cafe
2415
0000
0000
013f
cafe
2815
0000
0000
013b
cafe
2c15
0000
0000
013c
cafe
3015
0000
0000
0136
cafe
3415
0000
0000
013d
cafe
3815
0000
0000
013f
cafe
3c15
0000
0000
013b
cafe
2015
-
0000
0000
0141
cafe
2415
0000
0000
0140
cafe
2815
0000
0000
013c
cafe
2c15
0000
0000
0142
cafe
3015
0000
0000
013b
cafe
3415
0000
0000
0138
cafe
3815
0000
0000
0135
cafe
3c15
0000
0000
0137
cafe
2015
0000
0000
0137
cafe
2415
0000
0000
0138
cafe
2815
0000
0000
0139
cafe
2c15
0000
0000
0137
cafe
3015
0000
0000
0137
cafe
3415
0000
0000
013a
cafe
3815
0000
0000
013e
cafe
3c15
0000
0000
013d
cafe
2015
0000
0000
013e
cafe
2415
0000
0000
0139
cafe
2815
0000
0000
0139
cafe
2c15
0000
0000
013f
cafe
3015
0000
0000
013f
cafe
3415
0000
0000
013e
cafe
3815
0000
0000
013d
cafe
3c15
0000
0000
013c
cafe
2015
0000
0000
013e
cafe
2415
0000
0000
013e
cafe
2815
0000
0000
0140
cafe
2c15
0000
0000
013d
cafe
3015
0000
0000
0142
cafe
3415
0000
0000
0143
cafe
3815
0000
0000
0141
cafe
3c15
0000
0000
0144
cafe
2015
0000
0000
0140
cafe
2415
0000
0000
013f
cafe
2815
0000
0000
0140
cafe
2c15
0000
0000
0141
cafe
3015
0000
0000
0144
cafe
3415
0000
0000
013f
cafe
3815
0000
0000
013e
cafe
3c15
0000
0000
0139
cafe
2015
0000
0000
013c
cafe
2415
0000
0000
0140
cafe
2815
0000
0000
013d
cafe
2c15
0000
0000
013e
cafe
3015
0000
0000
0138
cafe
3415
0000
0000
0139
cafe
3815
0000
0000
0137
cafe
3c15
0000
0000
013b
cafe
2015
0000
0000
013f
cafe
2415
0000
0000
0140
cafe
2815
0000
0000
0140
cafe
2c15
0000
-
0000
0141
cafe
3015
0000
0000
013d
cafe
3415
0000
0000
0140
cafe
3815
0000
0000
013e
cafe
3c15
0000
0000
013f
cafe
2015
0000
0000
0140
cafe
2415
0000
0000
013b
cafe
2815
0000
0000
013b
cafe
2c15
0000
0000
0138
cafe
3015
0000
0000
0139
cafe
3415
0000
0000
013c
cafe
3815
0000
0000
013e
cafe
3c15
0000
0000
013e
cafe
2015
0000
0000
0140
cafe
2415
0000
0000
0142
cafe
2815
0000
0000
0141
cafe
2c15
0000
0000
0146
cafe
3015
0000
0000
0143
cafe
3415
0000
0000
013f
cafe
3815
0000
0000
0142
cafe
3c15
0000
0000
0141
cafe
2015
0000
0000
0141
cafe
2415
0000
0000
0144
cafe
2815
0000
0000
0146
cafe
2c15
0000
0000
013d
cafe
3015
0000
0000
013c
cafe
3415
0000
0000
0146
cafe
3815
0000
0000
013d
cafe
3c15
0000
0000
013d
cafe
2015
0000
0000
013b
cafe
2415
0000
0000
0142
cafe
2815
0000
0000
0143
cafe
2c15
0000
0000
0141
cafe
3015
0000
0000
0144
cafe
3415
0000
0000
0144
cafe
3815
0000
0000
013f
cafe
3c15
0000
0000
013e
cafe
2015
0000
0000
0138
cafe
2415
0000
0000
013d
cafe
2815
0000
0000
013e
cafe
2c15
0000
0000
0141
cafe
3015
0000
0000
0141
cafe
3415
0000
0000
0141
cafe
3815
0000
0000
0142
cafe
3c15
0000
0000
0141
cafe
2015
0000
0000
0141
cafe
2415
0000
0000
013e
cafe
2815
0000
0000
0139
cafe
2c15
0000
0000
0140
cafe
3015
0000
0000
0140
cafe
3415
0000
0000
013f
cafe
3815
0000
0000
-
0143
cafe
3c15
0000
0000
0144
cafe
2015
0000
0000
013f
cafe
2415
0000
0000
0143
cafe
2815
0000
0000
0141
cafe
2c15
0000
0000
0141
cafe
3015
0000
0000
0144
cafe
3415
0000
0000
0144
cafe
3815
0000
0000
0140
cafe
3c15
0000
0000
0147
cafe
2015
0000
0000
0140
cafe
2415
0000
0000
0141
cafe
2815
0000
0000
013c
cafe
2c15
0000
0000
013d
cafe
3015
0000
0000
0139
cafe
3415
0000
0000
013a
cafe
3815
0000
0000
013b
cafe
3c15
0000
0000
013a
cafe
2015
0000
0000
013c
cafe
2415
0000
0000
0143
cafe
2815
0000
0000
013b
cafe
2c15
0000
0000
013d
cafe
3015
0000
0000
0140
cafe
3415
0000
0000
013f
cafe
3815
0000
0000
0140
cafe
3c15
0000
0000
0140
cafe
2015
0000
0000
013d
cafe
2415
0000
0000
013a
cafe
2815
0000
0000
013b
cafe
2c15
0000
0000
0138
cafe
3015
0000
0000
0135
cafe
3415
0000
0000
0138
cafe
3815
0000
0000
013b
cafe
3c15
0000
0000
0138
cafe
2015
0000
0000
0137
cafe
2415
0000
0000
013f
cafe
2815
0000
0000
013d
cafe
2c15
0000
0000
013e
cafe
3015
0000
0000
013e
cafe
3415
0000
0000
013d
cafe
3815
0000
0000
013f
cafe
3c15
0000
0000
0136
cafe
2015
0000
0000
013f
cafe
2415
0000
0000
0141
cafe
2815
0000
0000
013d
cafe
2c15
0000
0000
0139
cafe
3015
0000
0000
0136
cafe
3415
0000
0000
013d
cafe
3815
0000
0000
0141
cafe
3c15
0000
0000
0141
cafe
2015
0000
0000
0145
cafe
2415
0000
0000
013d
-
cafe
2815
0000
0000
013f
cafe
2c15
0000
0000
0140
cafe
3015
0000
0000
0140
cafe
3415
0000
0000
0140
cafe
3815
0000
0000
013f
cafe
3c15
0000
0000
013e
cafe
2015
0000
0000
013b
cafe
2415
0000
0000
013c
cafe
2815
0000
0000
013d
cafe
2c15
0000
0000
0141
cafe
3015
0000
0000
0143
cafe
3415
0000
0000
013c
cafe
3815
0000
0000
013b
cafe
3c15
0000
0000
013d
cafe
2015
0000
0000
013e
cafe
2415
0000
0000
0140
cafe
2815
0000
0000
0139
cafe
2c15
0000
0000
013c
cafe
3015
0000
0000
013b
cafe
3415
0000
0000
013d
cafe
3815
0000
0000
013d
cafe
3c15
0000
0000
013f
cafe
2015
0000
0000
0140
cafe
2415
0000
0000
0144
cafe
2815
0000
0000
013e
cafe
2c15
0000
0000
013c
cafe
3015
0000
0000
013b
cafe
3415
0000
0000
013b
cafe
3815
0000
0000
0143
cafe
3c15
0000
0000
013f
cafe
2015
0000
0000
013e
cafe
2415
0000
0000
013d
cafe
2815
0000
0000
013b
cafe
2c15
0000
0000
013a
cafe
3015
0000
0000
013a
cafe
3415
0000
0000
013f
cafe
3815
0000
0000
0140
cafe
3c15
0000
0000
013e
cafe
2015
0000
0000
0140
cafe
2415
0000
0000
013f
cafe
2815
0000
0000
013e
cafe
2c15
0000
0000
0144
cafe
3015
0000
0000
0144
cafe
3415
0000
0000
013d
cafe
3815
0000
0000
013f
cafe
3c15
0000
0000
013a
cafe
2015
0000
0000
013d
cafe
2415
0000
0000
013e
cafe
2815
0000
0000
013c
cafe
2c15
0000
0000
013c
cafe
3015
0000
0000
0142
cafe
-
3415
0000
0000
013e
cafe
3815
0000
0000
013c
cafe
3c15
0000
0000
013c
cafe
2015
0000
0000
013b
cafe
2415
0000
0000
013a
cafe
2815
0000
0000
0137
cafe
2c15
0000
0000
013a
cafe
3015
0000
0000
0138
cafe
3415
0000
0000
0139
cafe
3815
0000
0000
013b
cafe
3c15
0000
0000
013c
cafe
2015
0000
0000
013d
cafe
2415
0000
0000
0141
cafe
2815
0000
0000
013d
cafe
2c15
0000
0000
013d
cafe
3015
0000
0000
013a
cafe
3415
0000
0000
013c
cafe
3815
0000
0000
013f
cafe
3c15
0000
0000
013a
cafe
2015
0000
0000
013c
cafe
2415
0000
0000
013c
cafe
2815
0000
0000
013d
cafe
2c15
0000
0000
013b
cafe
3015
0000
0000
013b
cafe
3415
0000
0000
0139
cafe
3815
0000
0000
0139
cafe
3c15
0000
0000
013e
cafe
2015
0000
0000
0134
cafe
2415
0000
0000
013c
cafe
2815
0000
0000
013d
cafe
2c15
0000
0000
0140
cafe
3015
0000
0000
0138
cafe
3415
0000
0000
013f
cafe
3815
0000
0000
013c
cafe
3c15
0000
0000
013e
cafe
2015
0000
0000
0143
cafe
2415
0000
0000
013e
cafe
2815
0000
0000
013b
cafe
2c15
0000
0000
013a
cafe
3015
0000
0000
013e
cafe
3415
0000
0000
0140
cafe
3815
0000
0000
013d
cafe
3c15
0000
0000
013d
cafe
2015
0000
0000
0144
cafe
2415
0000
0000
0140
cafe
2815
0000
0000
0144
cafe
2c15
0000
0000
0142
cafe
3015
0000
0000
0141
cafe
3415
0000
0000
0143
cafe
3815
0000
0000
0144
cafe
3c15
0000
0000
0145
cafe
2015
-
0000
0000
0143
cafe
2415
0000
0000
0141
cafe
2815
0000
0000
013e
cafe
2c15
0000
0000
0141
cafe
3015
0000
0000
0143
cafe
3415
0000
0000
013f
cafe
3815
0000
0000
013f
cafe
3c15
0000
0000
013a
cafe
2015
0000
0000
013b
cafe
2415
0000
0000
0141
cafe
2815
0000
0000
0145
cafe
2c15
0000
0000
0141
cafe
3015
0000
0000
0141
cafe
3415
0000
0000
0140
cafe
3815
0000
0000
013c
cafe
3c15
0000
0000
0142
cafe
2015
0000
0000
0142
cafe
2415
0000
0000
0146
cafe
2815
0000
0000
0148
cafe
2c15
0000
0000
0142
cafe
3015
0000
0000
013b
cafe
3415
0000
0000
013b
cafe
3815
0000
0000
013e
cafe
3c15
0000
0000
013a
cafe
2015
0000
0000
0136
cafe
2415
0000
0000
0136
cafe
2815
0000
0000
013f
cafe
2c15
0000
0000
0140
cafe
3015
0000
0000
013d
cafe
3415
0000
0000
0134
cafe
3815
0000
0000
0138
cafe
3c15
0000
0000
013b
cafe
2015
0000
0000
0138
cafe
2415
0000
0000
013c
cafe
2815
0000
0000
013d
cafe
2c15
0000
0000
013c
cafe
3015
0000
0000
013a
cafe
3415
0000
0000
013a
cafe
3815
0000
0000
013f
cafe
3c15
0000
0000
0142
cafe
2015
0000
0000
0142
cafe
2415
0000
0000
0142
cafe
2815
0000
0000
014a
cafe
2c15
0000
0000
0146
cafe
3015
0000
0000
0145
cafe
3415
0000
0000
0141
cafe
3815
0000
0000
013d
cafe
3c15
0000
0000
013f
cafe
2015
0000
0000
013e
cafe
2415
0000
0000
0140
cafe
2815
0000
0000
013c
cafe
2c15
0000
-
0000
013d
cafe
3015
0000
0000
013e
cafe
3415
0000
0000
013c
cafe
3815
0000
0000
013a
cafe
3c15
0000
0000
013d
cafe
2015
0000
0000
013d
cafe
2415
0000
0000
013a
cafe
2815
0000
0000
0138
cafe
2c15
0000
0000
013d
cafe
3015
0000
0000
0142
cafe
3415
0000
0000
0140
cafe
3815
0000
0000
013a
cafe
3c15
0000
0000
013e
cafe
2015
0000
0000
0141
cafe
2415
0000
0000
0139
cafe
2815
0000
0000
0141
cafe
2c15
0000
0000
0143
cafe
3015
0000
0000
0142
cafe
3415
0000
0000
0143
cafe
3815
0000
0000
0141
cafe
3c15
0000
0000
013f
cafe
2015
0000
0000
0141
cafe
2415
0000
0000
013d
cafe
2815
0000
0000
013d
cafe
2c15
0000
0000
013d
cafe
3015
0000
0000
0142
cafe
3415
0000
0000
013c
cafe
3815
0000
0000
013f
cafe
3c15
0000
0000
0141
cafe
2015
0000
0000
013c
cafe
2415
0000
0000
013f
cafe
2815
0000
0000
0142
cafe
2c15
0000
0000
013f
cafe
3015
0000
0000
0142
cafe
3415
0000
0000
0143
cafe
3815
0000
0000
0140
cafe
3c15
0000
0000
013f
cafe
2015
0000
0000
0143
cafe
2415
0000
0000
013e
cafe
2815
0000
0000
013d
cafe
2c15
0000
0000
013b
cafe
3015
0000
0000
013f
cafe
3415
0000
0000
013d
cafe
3815
0000
0000
013e
cafe
3c15
0000
0000
013f
cafe
2015
0000
0000
0144
cafe
2415
0000
0000
013e
cafe
2815
0000
0000
013e
cafe
2c15
0000
0000
0140
cafe
3015
0000
0000
013c
cafe
3415
0000
0000
013d
cafe
3815
0000
0000
-
013d
cafe
3c15
0000
0000
013a
cafe
2015
0000
0000
013f
cafe
2415
0000
0000
013e
cafe
2815
0000
0000
013d
cafe
2c15
0000
0000
0140
cafe
3015
0000
0000
013e
cafe
3415
0000
0000
013b
cafe
3815
0000
0000
0141
cafe
3c15
0000
0000
013f
cafe
2015
0000
0000
013f
cafe
2415
0000
0000
013f
cafe
2815
0000
0000
0140
cafe
2c15
0000
0000
013f
cafe
3015
0000
0000
0141
cafe
3415
0000
0000
0145
cafe
3815
0000
0000
0146
cafe
3c15
0000
0000
0140
cafe
2015
0000
0000
013f
cafe
2415
0000
0000
013d
cafe
2815
0000
0000
013f
cafe
2c15
0000
0000
0138
cafe
3015
0000
0000
0139
cafe
3415
0000
0000
013e
cafe
3815
0000
0000
013f
cafe
3c15
0000
0000
0141
cafe
2015
0000
0000
0140
cafe
2415
0000
0000
0143
cafe
2815
0000
0000
013b
cafe
2c15
0000
0000
013d
cafe
3015
0000
0000
013d
cafe
3415
0000
0000
013d
cafe
3815
0000
0000
013c
cafe
3c15
0000
0000
013e
cafe
2015
0000
0000
013a
cafe
2415
0000
0000
013e
cafe
2815
0000
0000
0145
cafe
2c15
0000
0000
013c
cafe
3015
0000
0000
0142
cafe
3415
0000
0000
0143
cafe
3815
0000
0000
0145
cafe
3c15
0000
0000
013e
cafe
2015
0000
0000
0141
cafe
2415
0000
0000
013e
cafe
2815
0000
0000
0141
cafe
2c15
0000
0000
013f
cafe
3015
0000
0000
0142
cafe
3415
0000
0000
0143
cafe
3815
0000
0000
0141
cafe
3c15
0000
0000
013e
cafe
2015
0000
0000
0139
cafe
2415
0000
0000
013a
-
cafe
2815
0000
0000
013f
cafe
2c15
0000
0000
0139
cafe
3015
0000
0000
0139
cafe
3415
0000
0000
013b
cafe
3815
0000
0000
013b
cafe
3c15
0000
0000
013e
cafe
2015
0000
0000
013e
cafe
2415
0000
0000
0142
cafe
2815
0000
0000
013e
cafe
2c15
0000
0000
013d
cafe
3015
0000
0000
013c
cafe
3415
0000
0000
013b
cafe
3815
0000
0000
013c
cafe
3c15
0000
0000
013b
cafe
2015
0000
0000
013a
cafe
2415
0000
0000
0139
cafe
2815
0000
0000
0139
cafe
2c15
0000
0000
0140
cafe
3015
0000
0000
013d
cafe
3415
0000
0000
013f
cafe
3815
0000
0000
013e
cafe
3c15
0000
0000
0140
cafe
2015
0000
0000
0141
cafe
2415
0000
0000
013f
cafe
2815
0000
0000
013d
cafe
2c15
0000
0000
0140
cafe
3015
0000
0000
0143
cafe
3415
0000
0000
013f
cafe
3815
0000
0000
0140
cafe
3c15
0000
0000
0140
cafe
2015
0000
0000
013f
cafe
2415
0000
0000
0140
cafe
2815
0000
0000
0140
cafe
2c15
0000
0000
013d
cafe
3015
0000
0000
013c
cafe
3415
0000
0000
013d
cafe
3815
0000
0000
013a
cafe
3c15
0000
0000
013e
cafe
2015
0000
0000
013b
cafe
2415
0000
0000
013b
cafe
2815
0000
0000
013e
cafe
2c15
0000
0000
013c
cafe
3015
0000
0000
013f
cafe
3415
0000
0000
013e
cafe
3815
0000
0000
013c
cafe
3c15
0000
0000
013d
cafe
2015
0000
0000
013f
cafe
2415
0000
0000
013b
cafe
2815
0000
0000
0140
cafe
2c15
0000
0000
0145
cafe
3015
0000
0000
0143
cafe
-
3415
0000
0000
0140
cafe
3815
0000
0000
013c
cafe
3c15
0000
0000
013f
cafe
2015
0000
0000
013d
cafe
2415
0000
0000
0140
cafe
2815
0000
0000
013e
cafe
2c15
0000
0000
013e
cafe
3015
0000
0000
0140
cafe
3415
0000
0000
013d
cafe
3815
0000
0000
0140
cafe
3c15
0000
0000
013d
cafe
2015
0000
0000
0140
cafe
2415
0000
0000
0140
cafe
2815
0000
0000
013d
cafe
2c15
0000
0000
013d
cafe
3015
0000
0000
013d
cafe
3415
0000
0000
013a
cafe
3815
0000
0000
013b
cafe
3c15
0000
0000
013a
cafe
2015
0000
0000
0137
cafe
2415
0000
0000
0139
cafe
2815
0000
0000
013a
cafe
2c15
0000
0000
013d
cafe
3015
0000
0000
013c
cafe
3415
0000
0000
013e
cafe
3815
0000
0000
013c
cafe
3c15
0000
0000
0140
cafe
2015
0000
0000
013a
cafe
2415
0000
0000
013b
cafe
2815
0000
0000
013e
cafe
2c15
0000
0000
013d
cafe
3015
0000
0000
013a
cafe
3415
0000
0000
013d
cafe
3815
0000
0000
013c
cafe
3c15
0000
0000
013a
cafe
2015
0000
0000
013c
cafe
2415
0000
0000
013a
cafe
2815
0000
0000
013c
cafe
2c15
0000
0000
013b
cafe
3015
0000
0000
013c
cafe
3415
0000
0000
013e
cafe
3815
0000
0000
013c
cafe
3c15
0000
0000
013b
cafe
2015
0000
0000
013a
cafe
2415
0000
0000
0138
cafe
2815
0000
0000
013a
cafe
2c15
0000
0000
0138
cafe
3015
0000
0000
0138
cafe
3415
0000
0000
013b
cafe
3815
0000
0000
013b
cafe
3c15
0000
0000
013a
cafe
2015
-
0000
0000
0140
cafe
2415
0000
0000
0143
cafe
2815
0000
0000
013e
cafe
2c15
0000
0000
0146
cafe
3015
0000
0000
0143
cafe
3415
0000
0000
013a
cafe
3815
0000
0000
013b
cafe
3c15
0000
0000
0143
cafe
2015
0000
0000
013d
cafe
2415
0000
0000
0143
cafe
2815
0000
0000
0142
cafe
2c15
0000
0000
0140
cafe
3015
0000
0000
013b
cafe
3415
0000
0000
013d
cafe
3815
0000
0000
013f
cafe
3c15
0000
0000
0142
cafe
2015
0000
0000
0143
cafe
2415
0000
0000
0146
cafe
2815
0000
0000
0144
cafe
2c15
0000
0000
0140
cafe
3015
0000
0000
0147
cafe
3415
0000
0000
0146
cafe
3815
0000
0000
0146
cafe
3c15
0000
0000
0140
cafe
2015
0000
0000
013e
cafe
2415
0000
0000
0145
cafe
2815
0000
0000
0141
cafe
2c15
0000
0000
013d
cafe
3015
0000
0000
013e
cafe
3415
0000
0000
0143
cafe
3815
0000
0000
0140
cafe
3c15
0000
0000
013f
cafe
2015
0000
0000
013f
cafe
2415
0000
0000
0139
cafe
2815
0000
0000
013f
cafe
2c15
0000
0000
0141
cafe
3015
0000
0000
013f
cafe
3415
0000
0000
013f
cafe
3815
0000
0000
0141
cafe
3c15
0000
0000
0141
cafe
2015
0000
0000
0141
cafe
2415
0000
0000
0141
cafe
2815
0000
0000
0144
cafe
2c15
0000
0000
0141
cafe
3015
0000
0000
013f
cafe
3415
0000
0000
013c
cafe
3815
0000
0000
0141
cafe
3c15
0000
0000
0146
cafe
2015
0000
0000
013c
cafe
2415
0000
0000
013f
cafe
2815
0000
0000
013c
cafe
2c15
0000
-
0000
0142
cafe
3015
0000
0000
0140
cafe
3415
0000
0000
013f
cafe
3815
0000
0000
0141
cafe
3c15
0000
0000
013b
cafe
2015
0000
0000
013b
cafe
2415
0000
0000
013f
cafe
2815
0000
0000
013e
cafe
2c15
0000
0000
013d
cafe
3015
0000
0000
013c
cafe
3415
0000
0000
013e
cafe
3815
0000
0000
013f
cafe
3c15
0000
0000
0140
cafe
2015
0000
0000
013c
cafe
2415
0000
0000
013d
cafe
2815
0000
0000
013e
cafe
2c15
0000
0000
013b
cafe
3015
0000
0000
013f
cafe
3415
0000
0000
0141
cafe
3815
0000
0000
013b
cafe
3c15
0000
0000
013b
cafe
2015
0000
0000
013d
cafe
2415
0000
0000
013b
cafe
2815
0000
0000
013c
cafe
2c15
0000
0000
013c
cafe
3015
0000
0000
013e
cafe
3415
0000
0000
013f
cafe
3815
0000
0000
013e
cafe
3c15
0000
0000
013c
cafe
2015
0000
0000
013b
cafe
2415
0000
0000
0139
cafe
2815
0000
0000
0139
cafe
2c15
0000
0000
013a
cafe
3015
0000
0000
013c
cafe
3415
0000
0000
0139
cafe
3815
0000
0000
0141
cafe
3c15
0000
0000
013d
cafe
2015
0000
0000
013b
cafe
2415
0000
0000
013c
cafe
2815
0000
0000
013b
cafe
2c15
0000
0000
013c
cafe
3015
0000
0000
0137
cafe
3415
0000
0000
013d
cafe
3815
0000
0000
013c
cafe
3c15
0000
0000
013e
cafe
2015
0000
0000
0140
cafe
2415
0000
0000
013f
cafe
2815
0000
0000
013e
cafe
2c15
0000
0000
0145
cafe
3015
0000
0000
0142
cafe
3415
0000
0000
013e
cafe
3815
0000
0000
-
013a
cafe
3c15
0000
0000
0139
cafe
2015
0000
0000
013c
cafe
2415
0000
0000
013a
cafe
2815
0000
0000
013d
cafe
2c15
0000
0000
013f
cafe
3015
0000
0000
013a
cafe
3415
0000
0000
013f
cafe
3815
0000
0000
0141
cafe
3c15
0000
0000
0143
cafe
2015
0000
0000
0141
cafe
2415
0000
0000
013c
cafe
2815
0000
0000
0141
cafe
2c15
0000
0000
0143
cafe
3015
0000
0000
013f
cafe
3415
0000
0000
0141
cafe
3815
0000
0000
013e
cafe
3c15
0000
0000
0141
cafe
2015
0000
0000
0142
cafe
2415
0000
0000
0146
cafe
2815
0000
0000
0145
cafe
2c15
0000
0000
0142
cafe
3015
0000
0000
013b
cafe
3415
0000
0000
0140
cafe
3815
0000
0000
013f
cafe
3c15
0000
0000
0144
cafe
2015
0000
0000
0141
cafe
2415
0000
0000
0143
cafe
2815
0000
0000
0140
cafe
2c15
0000
0000
0144
cafe
3015
0000
0000
0142
cafe
3415
0000
0000
013e
cafe
3815
0000
0000
013e
cafe
3c15
0000
0000
013c
cafe
2015
0000
0000
013d
cafe
2415
0000
0000
0137
cafe
2815
0000
0000
013c
cafe
2c15
0000
0000
0142
cafe
3015
0000
0000
013e
cafe
3415
0000
0000
0140
cafe
3815
0000
0000
013a
cafe
3c15
0000
0000
013e
cafe
2015
0000
0000
0144
cafe
2415
0000
0000
0144
cafe
2815
0000
0000
0143
cafe
2c15
0000
0000
0145
cafe
3015
0000
0000
0146
cafe
3415
0000
0000
0142
cafe
3815
0000
0000
0144
cafe
3c15
0000
0000
0141
cafe
2015
0000
0000
0144
cafe
2415
0000
0000
013e
-
cafe
2815
0000
0000
013d
cafe
2c15
0000
0000
013e
cafe
3015
0000
0000
013e
cafe
3415
0000
0000
013d
cafe
3815
0000
0000
013b
cafe
3c15
0000
0000
0140
cafe
2015
0000
0000
013c
cafe
2415
0000
0000
0140
cafe
2815
0000
0000
0142
cafe
2c15
0000
0000
0141
cafe
3015
0000
0000
013f
cafe
3415
0000
0000
013f
cafe
3815
0000
0000
0140
cafe
3c15
0000
0000
013b
cafe
2015
0000
0000
013d
cafe
2415
0000
0000
013d
cafe
2815
0000
0000
0139
cafe
2c15
0000
0000
0139
cafe
3015
0000
0000
013a
cafe
3415
0000
0000
013c
cafe
3815
0000
0000
013a
cafe
3c15
0000
0000
0135
cafe
2015
0000
0000
0134
cafe
2415
0000
0000
013b
cafe
2815
0000
0000
013f
cafe
2c15
0000
0000
013a
cafe
3015
0000
0000
013d
cafe
3415
0000
0000
013e
cafe
3815
0000
0000
013f
cafe
3c15
0000
0000
013e
cafe
2015
0000
0000
013b
cafe
2415
0000
0000
013c
cafe
2815
0000
0000
013e
cafe
2c15
0000
0000
013f
cafe
3015
0000
0000
013c
cafe
3415
0000
0000
0143
cafe
3815
0000
0000
0140
cafe
3c15
0000
0000
013d
cafe
2015
0000
0000
0139
cafe
2415
0000
0000
013d
cafe
2815
0000
0000
013f
cafe
2c15
0000
0000
0141
cafe
3015
0000
0000
0139
cafe
3415
0000
0000
013c
cafe
3815
0000
0000
013a
cafe
3c15
0000
0000
013a
cafe
2015
0000
0000
013c
cafe
2415
0000
0000
0139
cafe
2815
0000
0000
013a
cafe
2c15
0000
0000
013a
cafe
3015
0000
0000
013f
cafe
-
3415
0000
0000
013e
cafe
3815
0000
0000
013d
cafe
3c15
0000
0000
0139
cafe
2015
0000
0000
013b
cafe
2415
0000
0000
013b
cafe
2815
0000
0000
013b
cafe
2c15
0000
0000
0143
cafe
3015
0000
0000
013f
cafe
3415
0000
0000
0143
cafe
3815
0000
0000
0139
cafe
3c15
0000
0000
013c
cafe
2015
0000
0000
013c
cafe
2415
0000
0000
013a
cafe
2815
0000
0000
013d
cafe
2c15
0000
0000
013d
cafe
3015
0000
0000
0138
cafe
3415
0000
0000
013b
cafe
3815
0000
0000
013b
cafe
3c15
0000
0000
0141
cafe
2015
0000
0000
013b
cafe
2415
0000
0000
013c
cafe
2815
0000
0000
013d
cafe
2c15
0000
0000
013d
cafe
3015
0000
0000
0138
cafe
3415
0000
0000
0137
cafe
3815
0000
0000
013d
cafe
3c15
0000
0000
013c
cafe
2015
0000
0000
013b
cafe
2415
0000
0000
013d
cafe
2815
0000
0000
013d
cafe
2c15
0000
0000
013c
cafe
3015
0000
0000
013a
cafe
3415
0000
0000
013d
cafe
3815
0000
0000
013f
cafe
3c15
0000
0000
0141
cafe
2015
0000
0000
013d
cafe
2415
0000
0000
013f
cafe
2815
0000
0000
0140
cafe
2c15
0000
0000
0142
cafe
3015
0000
0000
013f
cafe
3415
0000
0000
0140
cafe
3815
0000
0000
013c
cafe
3c15
0000
0000
013b
cafe
2015
0000
0000
013d
cafe
2415
0000
0000
0143
cafe
2815
0000
0000
0138
cafe
2c15
0000
0000
013e
cafe
3015
0000
0000
013c
cafe
3415
0000
0000
0140
cafe
3815
0000
0000
0141
cafe
3c15
0000
0000
013f
cafe
2015
-
0000
0000
0141
cafe
2415
0000
0000
0142
cafe
2815
0000
0000
0142
cafe
2c15
0000
0000
0143
cafe
3015
0000
0000
0142
cafe
3415
0000
0000
0142
cafe
3815
0000
0000
0142
cafe
3c15
0000
0000
013e
cafe
2015
0000
0000
013e
cafe
2415
0000
0000
013a
cafe
2815
0000
0000
013b
cafe
2c15
0000
0000
013d
cafe
3015
0000
0000
013e
cafe
3415
0000
0000
013c
cafe
3815
0000
0000
013d
cafe
3c15
0000
0000
013f
cafe
2015
0000
0000
0142
cafe
2415
0000
0000
0143
cafe
2815
0000
0000
013e
cafe
2c15
0000
0000
0140
cafe
3015
0000
0000
0143
cafe
3415
0000
0000
0143
cafe
3815
0000
0000
0140
cafe
3c15
0000
0000
0140
cafe
2015
0000
0000
0140
cafe
2415
0000
0000
0147
cafe
2815
0000
0000
013f
cafe
2c15
0000
0000
0144
cafe
3015
0000
0000
0144
cafe
3415
0000
0000
0141
cafe
3815
0000
0000
0142
cafe
3c15
0000
0000
0143
cafe
2015
0000
0000
013d
cafe
2415
0000
0000
013d
cafe
2815
0000
0000
013d
cafe
2c15
0000
0000
0140
cafe
3015
0000
0000
013e
cafe
3415
0000
0000
013a
cafe
3815
0000
0000
0141
cafe
3c15
0000
0000
0140
cafe
2015
0000
0000
0142
cafe
2415
0000
0000
013c
cafe
2815
0000
0000
013d
cafe
2c15
0000
0000
013d
cafe
3015
0000
0000
013c
cafe
3415
0000
0000
013a
cafe
3815
0000
0000
0139
cafe
3c15
0000
0000
013c
cafe
2015
0000
0000
0139
cafe
2415
0000
0000
013d
cafe
2815
0000
0000
013f
cafe
2c15
0000
-
0000
0140
cafe
3015
0000
0000
013e
cafe
3415
0000
0000
013d
cafe
3815
0000
0000
013d
cafe
3c15
0000
0000
0137
cafe
2015
0000
0000
013f
cafe
2415
0000
0000
013e
cafe
2815
0000
0000
0141
cafe
2c15
0000
0000
013f
cafe
3015
0000
0000
013f
cafe
3415
0000
0000
013e
cafe
3815
0000
0000
0144
cafe
3c15
0000
0000
0143
cafe
2015
0000
0000
0144
cafe
2415
0000
0000
0142
cafe
2815
0000
0000
0140
cafe
2c15
0000
0000
013e
cafe
3015
0000
0000
013e
cafe
3415
0000
0000
0140
cafe
3815
0000
0000
013f
cafe
3c15
0000
0000
0141
cafe
2015
0000
0000
013e
cafe
2415
0000
0000
013d
cafe
2815
0000
0000
013b
cafe
2c15
0000
0000
013d
cafe
3015
0000
0000
013a
cafe
3415
0000
0000
0137
cafe
3815
0000
0000
0139
cafe
3c15
0000
0000
0135
cafe
2015
0000
0000
0138
cafe
2415
0000
0000
0138
cafe
2815
0000
0000
013a
cafe
2c15
0000
0000
013a
cafe
3015
0000
0000
0138
cafe
3415
0000
0000
013c
cafe
3815
0000
0000
0138
cafe
3c15
0000
0000
013d
cafe
2015
0000
0000
013f
cafe
2415
0000
0000
013d
cafe
2815
0000
0000
013c
cafe
2c15
0000
0000
013c
cafe
3015
0000
0000
013b
cafe
3415
0000
0000
013b
cafe
3815
0000
0000
013d
cafe
3c15
0000
0000
0140
cafe
2015
0000
0000
013e
cafe
2415
0000
0000
013f
cafe
2815
0000
0000
0140
cafe
2c15
0000
0000
0142
cafe
3015
0000
0000
0140
cafe
3415
0000
0000
0140
cafe
3815
0000
0000
-
013f
cafe
3c15
0000
0000
0142
cafe
2015
0000
0000
013c
cafe
2415
0000
0000
0142
cafe
2815
0000
0000
0143
cafe
2c15
0000
0000
0144
cafe
3015
0000
0000
0141
cafe
3415
0000
0000
013d
cafe
3815
0000
0000
0144
cafe
3c15
0000
0000
0140
cafe
2015
0000
0000
0149
cafe
2415
0000
0000
0140
cafe
2815
0000
0000
013b
cafe
2c15
0000
0000
013e
cafe
3015
0000
0000
013b
cafe
3415
0000
0000
0140
cafe
3815
0000
0000
0142
cafe
3c15
0000
0000
013d
cafe
2015
0000
0000
0141
cafe
2415
0000
0000
013e
cafe
2815
0000
0000
013e
cafe
2c15
0000
0000
013b
cafe
3015
0000
0000
013c
cafe
3415
0000
0000
013b
cafe
3815
0000
0000
013e
cafe
3c15
0000
0000
013e
cafe
2015
0000
0000
0139
cafe
2415
0000
0000
0140
cafe
2815
0000
0000
013f
cafe
2c15
0000
0000
0142
cafe
3015
0000
0000
0143
cafe
3415
0000
0000
013e
cafe
3815
0000
0000
0143
cafe
3c15
0000
0000
0145
cafe
2015
0000
0000
0141
cafe
2415
0000
0000
013f
cafe
2815
0000
0000
0141
cafe
2c15
0000
0000
013f
cafe
3015
0000
0000
013b
cafe
3415
0000
0000
0138
cafe
3815
0000
0000
0141
cafe
3c15
0000
0000
013f
cafe
2015
0000
0000
0139
cafe
2415
0000
0000
0138
cafe
2815
0000
0000
013d
cafe
2c15
0000
0000
013c
cafe
3015
0000
0000
013b
cafe
3415
0000
0000
013c
cafe
3815
0000
0000
0139
cafe
3c15
0000
0000
013b
cafe
2015
0000
0000
013f
cafe
2415
0000
0000
013d
-
cafe
2815
0000
0000
013b
cafe
2c15
0000
0000
013e
cafe
3015
0000
0000
013e
cafe
3415
0000
0000
0144
cafe
3815
0000
0000
013f
cafe
3c15
0000
0000
013f
cafe
2015
0000
0000
013f
cafe
2415
0000
0000
0140
cafe
2815
0000
0000
0140
cafe
2c15
0000
0000
0142
cafe
3015
0000
0000
013e
cafe
3415
0000
0000
013f
cafe
3815
0000
0000
0140
cafe
3c15
0000
0000
0140
cafe
2015
0000
0000
0147
cafe
2415
0000
0000
0142
cafe
2815
0000
0000
0145
cafe
2c15
0000
0000
0142
cafe
3015
0000
0000
013f
cafe
3415
0000
0000
013c
cafe
3815
0000
0000
0141
cafe
3c15
0000
0000
0143
cafe
2015
0000
0000
0141
cafe
2415
0000
0000
0142
cafe
2815
0000
0000
0141
cafe
2c15
0000
0000
013d
cafe
3015
0000
0000
013b
cafe
3415
0000
0000
013c
cafe
3815
0000
0000
013b
cafe
3c15
0000
0000
0141
cafe
2015
0000
0000
0141
cafe
2415
0000
0000
013f
cafe
2815
0000
0000
0143
cafe
2c15
0000
0000
0140
cafe
3015
0000
0000
0140
cafe
3415
0000
0000
013e
cafe
3815
0000
0000
013e
cafe
3c15
0000
0000
013e
cafe
2015
0000
0000
013f
cafe
2415
0000
0000
0142
cafe
2815
0000
0000
0147
cafe
2c15
0000
0000
0145
cafe
3015
0000
0000
0140
cafe
3415
0000
0000
0140
cafe
3815
0000
0000
0140
cafe
3c15
0000
0000
0143
cafe
2015
0000
0000
013c
cafe
2415
0000
0000
013b
cafe
2815
0000
0000
013a
cafe
2c15
0000
0000
0138
cafe
3015
0000
0000
013b
cafe
-
3415
0000
0000
013d
cafe
3815
0000
0000
0142
cafe
3c15
0000
0000
0142
cafe
2015
0000
0000
013d
cafe
2415
0000
0000
013c
cafe
2815
0000
0000
013b
cafe
2c15
0000
0000
013d
cafe
3015
0000
0000
013c
cafe
3415
0000
0000
013e
cafe
3815
0000
0000
0141
cafe
3c15
0000
0000
013d
cafe
2015
0000
0000
013d
cafe
2415
0000
0000
013e
cafe
2815
0000
0000
013d
cafe
2c15
0000
0000
013d
cafe
3015
0000
0000
013d
cafe
3415
0000
0000
013d
cafe
3815
0000
0000
013d
cafe
3c15
0000
0000
013f
cafe
2015
0000
0000
0140
cafe
2415
0000
0000
013c
cafe
2815
0000
0000
013c
cafe
2c15
0000
0000
0140
cafe
3015
0000
0000
0140
cafe
3415
0000
0000
013f
cafe
3815
0000
0000
013b
cafe
3c15
0000
0000
0140
cafe
2015
0000
0000
013d
cafe
2415
0000
0000
013e
cafe
2815
0000
0000
0138
cafe
2c15
0000
0000
0141
cafe
3015
0000
0000
0141
cafe
3415
0000
0000
013e
cafe
3815
0000
0000
013e
cafe
3c15
0000
0000
013f
cafe
2015
0000
0000
013e
cafe
2415
0000
0000
013c
cafe
2815
0000
0000
013b
cafe
2c15
0000
0000
0139
cafe
3015
0000
0000
013d
cafe
3415
0000
0000
0142
cafe
3815
0000
0000
013e
cafe
3c15
0000
0000
0141
cafe
2015
0000
0000
013e
cafe
2415
0000
0000
013e
cafe
2815
0000
0000
013c
cafe
2c15
0000
0000
013e
cafe
3015
0000
0000
0141
cafe
3415
0000
0000
013d
cafe
3815
0000
0000
013a
cafe
3c15
0000
0000
013e
cafe
2015
-
0000
0000
0140
cafe
2415
0000
0000
0140
cafe
2815
0000
0000
0148
cafe
2c15
0000
0000
0140
cafe
3015
0000
0000
0144
cafe
3415
0000
0000
0141
cafe
3815
0000
0000
013e
cafe
3c15
0000
0000
0140
cafe
2015
0000
0000
0143
cafe
2415
0000
0000
013f
cafe
2815
0000
0000
0142
cafe
2c15
0000
0000
0140
cafe
3015
0000
0000
0143
cafe
3415
0000
0000
0142
cafe
3815
0000
0000
0143
cafe
3c15
0000
0000
013e
cafe
2015
0000
0000
013f
cafe
2415
0000
0000
013d
cafe
2815
0000
0000
013d
cafe
2c15
0000
0000
0140
cafe
3015
0000
0000
013f
cafe
3415
0000
0000
0143
cafe
3815
0000
0000
013d
cafe
3c15
0000
0000
013b
cafe
2015
0000
0000
013a
cafe
2415
0000
0000
0141
cafe
2815
0000
0000
013c
cafe
2c15
0000
0000
013a
cafe
3015
0000
0000
013b
cafe
3415
0000
0000
013d
cafe
3815
0000
0000
013f
cafe
3c15
0000
0000
0141
cafe
2015
0000
0000
0145
cafe
2415
0000
0000
013c
cafe
2815
0000
0000
013e
cafe
2c15
0000
0000
013b
cafe
3015
0000
0000
013d
cafe
3415
0000
0000
0141
cafe
3815
0000
0000
013f
cafe
3c15
0000
0000
013b
cafe
2015
0000
0000
013d
cafe
2415
0000
0000
013a
cafe
2815
0000
0000
0140
cafe
2c15
0000
0000
0141
cafe
3015
0000
0000
013c
cafe
3415
0000
0000
013e
cafe
3815
0000
0000
013e
cafe
3c15
0000
0000
013e
cafe
2015
0000
0000
013f
cafe
2415
0000
0000
013d
cafe
2815
0000
0000
013d
cafe
2c15
0000
-
0000
013b
cafe
3015
0000
0000
013e
cafe
3415
0000
0000
013f
cafe
3815
0000
0000
0139
cafe
3c15
0000
0000
013e
cafe
2015
0000
0000
013e
cafe
2415
0000
0000
0140
cafe
2815
0000
0000
013e
cafe
2c15
0000
0000
013b
cafe
3015
0000
0000
013a
cafe
3415
0000
0000
013c
cafe
3815
0000
0000
013a
cafe
3c15
0000
0000
013b
cafe
2015
0000
0000
0141
cafe
2415
0000
0000
013e
cafe
2815
0000
0000
013b
cafe
2c15
0000
0000
013e
cafe
3015
0000
0000
013c
cafe
3415
0000
0000
0141
cafe
3815
0000
0000
013d
cafe
3c15
0000
0000
013c
cafe
2015
0000
0000
013d
cafe
2415
0000
0000
013c
cafe
2815
0000
0000
013b
cafe
2c15
0000
0000
013c
cafe
3015
0000
0000
013c
cafe
3415
0000
0000
013e
cafe
3815
0000
0000
0136
cafe
3c15
0000
0000
013a
cafe
2015
0000
0000
0138
cafe
2415
0000
0000
013b
cafe
2815
0000
0000
013e
cafe
2c15
0000
0000
013d
cafe
3015
0000
0000
013d
cafe
3415
0000
0000
0143
cafe
3815
0000
0000
013f
cafe
3c15
0000
0000
0140
cafe
2015
0000
0000
013e
cafe
2415
0000
0000
013d
cafe
2815
0000
0000
013a
cafe
2c15
0000
0000
0140
cafe
3015
0000
0000
013a
cafe
3415
0000
0000
013e
cafe
3815
0000
0000
013f
cafe
3c15
0000
0000
0138
cafe
2015
0000
0000
013e
cafe
2415
0000
0000
013f
cafe
2815
0000
0000
0141
cafe
2c15
0000
0000
013c
cafe
3015
0000
0000
013d
cafe
3415
0000
0000
0140
cafe
3815
0000
0000
-
013f
cafe
3c15
0000
0000
013f
cafe
2015
0000
0000
013f
cafe
2415
0000
0000
013f
cafe
2815
0000
0000
0141
cafe
2c15
0000
0000
013f
cafe
3015
0000
0000
0142
cafe
3415
0000
0000
0144
cafe
3815
0000
0000
0141
cafe
3c15
0000
0000
0141
cafe
2015
0000
0000
0142
cafe
2415
0000
0000
013f
cafe
2815
0000
0000
013f
cafe
2c15
0000
0000
013e
cafe
3015
0000
0000
0143
cafe
3415
0000
0000
013f
cafe
3815
0000
0000
013d
cafe
3c15
0000
0000
013e
cafe
2015
0000
0000
013e
cafe
2415
0000
0000
0142
cafe
2815
0000
0000
0141
cafe
2c15
0000
0000
0141
cafe
3015
0000
0000
013e
cafe
3415
0000
0000
013d
cafe
3815
0000
0000
013e
cafe
3c15
0000
0000
0141
cafe
2015
0000
0000
0142
cafe
2415
0000
0000
0141
cafe
2815
0000
0000
0144
cafe
2c15
0000
0000
0140
cafe
3015
0000
0000
013c
cafe
3415
0000
0000
013d
cafe
3815
0000
0000
0143
cafe
3c15
0000
0000
013d
cafe
2015
0000
0000
013e
cafe
2415
0000
0000
013b
cafe
2815
0000
0000
0142
cafe
2c15
0000
0000
013c
cafe
3015
0000
0000
013f
cafe
3415
0000
0000
013f
cafe
3815
0000
0000
0142
cafe
3c15
0000
0000
0142
cafe
2015
0000
0000
013e
cafe
2415
0000
0000
013c
cafe
2815
0000
0000
013d
cafe
2c15
0000
0000
0137
cafe
3015
0000
0000
0139
cafe
3415
0000
0000
013d
cafe
3815
0000
0000
0139
cafe
3c15
0000
0000
013d
cafe
2015
0000
0000
013c
cafe
2415
0000
0000
013e
-
