241f
0000
0000
0143
cafe
281f
0000
0000
013d
cafe
2c1f
0000
0000
0134
cafe
301f
0000
0000
0139
cafe
341f
0000
0000
012f
cafe
381f
0000
0000
013f
cafe
3c1f
0000
0000
012e
cafe
201f
0000
0000
0130
cafe
241f
0000
0000
0138
cafe
281f
0000
0000
013a
cafe
2c1f
0000
0000
013d
cafe
301f
0000
0000
0136
cafe
341f
0000
0000
0130
cafe
381f
0000
0000
0130
cafe
3c1f
0000
0000
012e
cafe
201f
0000
0000
0128
cafe
241f
0000
0000
0121
cafe
281f
0000
0000
015f
cafe
2c1f
0000
0000
0164
cafe
301f
0000
0000
0153
cafe
341f
0000
0000
014f
cafe
381f
0000
0000
0156
cafe
3c1f
0000
0000
014b
cafe
201f
0000
0000
014f
cafe
241f
0000
0000
0155
cafe
281f
0000
0000
015b
cafe
2c1f
0000
0000
015b
cafe
301f
0000
0000
0158
cafe
341f
0000
0000
0164
cafe
381f
0000
0000
015a
cafe
3c1f
0000
0000
0165
cafe
201f
0000
0000
0163
cafe
241f
0000
0000
0160
cafe
281f
0000
0000
0158
cafe
2c1f
0000
0000
015c
cafe
301f
0000
0000
0163
cafe
341f
0000
0000
015f
cafe
381f
0000
0000
0160
cafe
3c1f
0000
0000
0159
cafe
201f
0000
0000
014d
cafe
241f
0000
0000
014f
cafe
281f
0000
0000
0151
cafe
2c1f
0000
0000
0149
cafe
301f
0000
0000
013d
cafe
341f
0000
0000
013b
cafe
381f
0000
0000
0140
cafe
3c1f
0000
0000
013a
cafe
201f
0000
0000
0134
cafe
241f
0000
0000
012f
cafe
281f
0000
0000
012b
cafe
2c1f
0000
0000
011c
cafe
301f
-
0000
0000
0122
cafe
341f
0000
0000
0116
cafe
381f
0000
0000
0112
cafe
3c1f
0000
0000
010b
cafe
201f
0000
0000
010a
cafe
241f
0000
0000
0109
cafe
281f
0000
0000
010c
cafe
2c1f
0000
0000
010e
cafe
301f
0000
0000
011d
cafe
341f
0000
0000
0128
cafe
381f
0000
0000
0128
cafe
3c1f
0000
0000
012d
cafe
201f
0000
0000
013d
cafe
241f
0000
0000
0144
cafe
281f
0000
0000
0144
cafe
2c1f
0000
0000
0145
cafe
301f
0000
0000
014f
cafe
341f
0000
0000
014f
cafe
381f
0000
0000
0153
cafe
3c1f
0000
0000
0155
cafe
201f
0000
0000
0147
cafe
241f
0000
0000
0146
cafe
281f
0000
0000
013f
cafe
2c1f
0000
0000
0142
cafe
301f
0000
0000
0137
cafe
341f
0000
0000
013a
cafe
381f
0000
0000
013d
cafe
3c1f
0000
0000
0136
cafe
201f
0000
0000
012e
cafe
241f
0000
0000
012a
cafe
281f
0000
0000
0129
cafe
2c1f
0000
0000
0124
cafe
301f
0000
0000
0115
cafe
341f
0000
0000
0110
cafe
381f
0000
0000
0109
cafe
3c1f
0000
0000
010b
cafe
201f
0000
0000
0110
cafe
241f
0000
0000
0114
cafe
281f
0000
0000
011d
cafe
2c1f
0000
0000
012a
cafe
301f
0000
0000
0128
cafe
341f
0000
0000
0134
cafe
381f
0000
0000
0133
cafe
3c1f
0000
0000
0132
cafe
201f
0000
0000
0136
cafe
241f
0000
0000
0145
cafe
281f
0000
0000
013f
cafe
2c1f
0000
0000
014e
cafe
301f
0000
0000
013f
cafe
341f
0000
0000
0153
cafe
381f
0000
0000
0153
cafe
3c1f
0000
-
0000
0151
cafe
201f
0000
0000
0142
cafe
241f
0000
0000
013f
cafe
281f
0000
0000
0138
cafe
2c1f
0000
0000
0133
cafe
301f
0000
0000
012e
cafe
341f
0000
0000
011f
cafe
381f
0000
0000
0124
cafe
3c1f
0000
0000
011f
cafe
201f
0000
0000
011c
cafe
241f
0000
0000
0115
cafe
281f
0000
0000
010d
cafe
2c1f
0000
0000
0109
cafe
301f
0000
0000
010c
cafe
341f
0000
0000
011d
cafe
381f
0000
0000
011b
cafe
3c1f
0000
0000
011c
cafe
201f
0000
0000
011c
cafe
241f
0000
0000
0120
cafe
281f
0000
0000
0125
cafe
2c1f
0000
0000
0128
cafe
301f
0000
0000
0137
cafe
341f
0000
0000
0138
cafe
381f
0000
0000
013e
cafe
3c1f
0000
0000
014c
cafe
201f
0000
0000
014e
cafe
241f
0000
0000
0157
cafe
281f
0000
0000
015f
cafe
2c1f
0000
0000
0157
cafe
301f
0000
0000
0154
cafe
341f
0000
0000
0149
cafe
381f
0000
0000
014d
cafe
3c1f
0000
0000
014b
cafe
201f
0000
0000
013d
cafe
241f
0000
0000
0138
cafe
281f
0000
0000
012c
cafe
2c1f
0000
0000
012f
cafe
301f
0000
0000
0128
cafe
341f
0000
0000
0133
cafe
381f
0000
0000
0132
cafe
3c1f
0000
0000
012d
cafe
201f
0000
0000
012e
cafe
241f
0000
0000
0121
cafe
281f
0000
0000
0131
cafe
2c1f
0000
0000
0127
cafe
301f
0000
0000
012f
cafe
341f
0000
0000
012e
cafe
381f
0000
0000
0128
cafe
3c1f
0000
0000
012b
cafe
201f
0000
0000
0128
cafe
241f
0000
0000
0139
cafe
281f
0000
0000
-
0139
cafe
2c1f
0000
0000
013f
cafe
301f
0000
0000
0141
cafe
341f
0000
0000
0140
cafe
381f
0000
0000
013a
cafe
3c1f
0000
0000
0140
cafe
201f
0000
0000
013b
cafe
241f
0000
0000
013b
cafe
281f
0000
0000
0133
cafe
2c1f
0000
0000
0140
cafe
301f
0000
0000
0144
cafe
341f
0000
0000
013f
cafe
381f
0000
0000
013c
cafe
3c1f
0000
0000
0137
cafe
201f
0000
0000
0134
cafe
241f
0000
0000
013e
cafe
281f
0000
0000
0131
cafe
2c1f
0000
0000
0124
cafe
301f
0000
0000
011f
cafe
341f
0000
0000
011f
cafe
381f
0000
0000
0121
cafe
3c1f
0000
0000
0127
cafe
201f
0000
0000
0127
cafe
241f
0000
0000
0122
cafe
281f
0000
0000
0122
cafe
2c1f
0000
0000
0124
cafe
301f
0000
0000
0120
cafe
341f
0000
0000
011d
cafe
381f
0000
0000
0122
cafe
3c1f
0000
0000
0120
cafe
201f
0000
0000
0127
cafe
241f
0000
0000
0135
cafe
281f
0000
0000
013b
cafe
2c1f
0000
0000
0141
cafe
301f
0000
0000
013e
cafe
341f
0000
0000
0138
cafe
381f
0000
0000
0141
cafe
3c1f
0000
0000
013a
cafe
201f
0000
0000
013b
cafe
241f
0000
0000
013d
cafe
281f
0000
0000
013c
cafe
2c1f
0000
0000
0149
cafe
301f
0000
0000
0140
cafe
341f
0000
0000
0147
cafe
381f
0000
0000
0140
cafe
3c1f
0000
0000
0138
cafe
201f
0000
0000
0133
cafe
241f
0000
0000
0127
cafe
281f
0000
0000
0126
cafe
2c1f
0000
0000
0119
cafe
301f
0000
0000
0123
cafe
341f
0000
0000
0121
-
cafe
381f
0000
0000
0119
cafe
3c1f
0000
0000
0122
cafe
201f
0000
0000
012a
cafe
241f
0000
0000
0131
cafe
281f
0000
0000
012e
cafe
2c1f
0000
0000
0132
cafe
301f
0000
0000
0129
cafe
341f
0000
0000
0129
cafe
381f
0000
0000
0132
cafe
3c1f
0000
0000
0131
cafe
201f
0000
0000
013a
cafe
241f
0000
0000
014a
cafe
281f
0000
0000
014b
cafe
2c1f
0000
0000
014a
cafe
301f
0000
0000
014d
cafe
341f
0000
0000
014a
cafe
381f
0000
0000
0145
cafe
3c1f
0000
0000
014b
cafe
201f
0000
0000
0146
cafe
241f
0000
0000
014e
cafe
281f
0000
0000
0148
cafe
2c1f
0000
0000
0154
cafe
301f
0000
0000
014e
cafe
341f
0000
0000
0148
cafe
381f
0000
0000
0148
cafe
3c1f
0000
0000
0141
cafe
201f
0000
0000
0135
cafe
241f
0000
0000
0133
cafe
281f
0000
0000
0129
cafe
2c1f
0000
0000
0126
cafe
301f
0000
0000
0125
cafe
341f
0000
0000
011d
cafe
381f
0000
0000
011a
cafe
3c1f
0000
0000
011a
cafe
201f
0000
0000
0125
cafe
241f
0000
0000
011d
cafe
281f
0000
0000
0120
cafe
2c1f
0000
0000
0121
cafe
301f
0000
0000
0124
cafe
341f
0000
0000
0123
cafe
381f
0000
0000
0128
cafe
3c1f
0000
0000
0125
cafe
201f
0000
0000
011f
cafe
241f
0000
0000
0129
cafe
281f
0000
0000
013d
cafe
2c1f
0000
0000
013b
cafe
301f
0000
0000
013b
cafe
341f
0000
0000
013d
cafe
381f
0000
0000
013f
cafe
3c1f
0000
0000
0144
cafe
201f
0000
0000
0142
cafe
-
241f
0000
0000
0145
cafe
281f
0000
0000
0142
cafe
2c1f
0000
0000
013b
cafe
301f
0000
0000
0140
cafe
341f
0000
0000
013c
cafe
381f
0000
0000
0147
cafe
3c1f
0000
0000
0141
cafe
201f
0000
0000
012d
cafe
241f
0000
0000
0122
cafe
281f
0000
0000
0123
cafe
2c1f
0000
0000
0120
cafe
301f
0000
0000
0120
cafe
341f
0000
0000
0110
cafe
381f
0000
0000
0119
cafe
3c1f
0000
0000
0116
cafe
201f
0000
0000
0111
cafe
241f
0000
0000
0101
cafe
281f
0000
0000
0106
cafe
2c1f
0000
0000
0107
cafe
301f
0000
0000
0104
cafe
341f
0000
0000
010b
cafe
381f
0000
0000
010a
cafe
3c1f
0000
0000
0114
cafe
201f
0000
0000
0114
cafe
241f
0000
0000
011c
cafe
281f
0000
0000
0133
cafe
2c1f
0000
0000
0135
cafe
301f
0000
0000
0140
cafe
341f
0000
0000
014c
cafe
381f
0000
0000
014c
cafe
3c1f
0000
0000
0148
cafe
201f
0000
0000
0148
cafe
241f
0000
0000
0142
cafe
281f
0000
0000
0141
cafe
2c1f
0000
0000
0147
cafe
301f
0000
0000
0139
cafe
341f
0000
0000
0138
cafe
381f
0000
0000
012b
cafe
3c1f
0000
0000
012b
cafe
201f
0000
0000
0126
cafe
241f
0000
0000
011f
cafe
281f
0000
0000
0128
cafe
2c1f
0000
0000
0124
cafe
301f
0000
0000
0123
cafe
341f
0000
0000
011b
cafe
381f
0000
0000
011c
cafe
3c1f
0000
0000
0121
cafe
201f
0000
0000
0128
cafe
241f
0000
0000
0124
cafe
281f
0000
0000
0129
cafe
2c1f
0000
0000
012d
cafe
301f
-
0000
0000
0137
cafe
341f
0000
0000
0139
cafe
381f
0000
0000
0130
cafe
3c1f
0000
0000
013a
cafe
201f
0000
0000
0134
cafe
241f
0000
0000
013b
cafe
281f
0000
0000
0141
cafe
2c1f
0000
0000
013e
cafe
301f
0000
0000
0145
cafe
341f
0000
0000
0148
cafe
381f
0000
0000
0151
cafe
3c1f
0000
0000
0146
cafe
201f
0000
0000
0154
cafe
241f
0000
0000
014c
cafe
281f
0000
0000
0145
cafe
2c1f
0000
0000
0139
cafe
301f
0000
0000
0144
cafe
341f
0000
0000
0143
cafe
381f
0000
0000
0146
cafe
3c1f
0000
0000
014a
cafe
201f
0000
0000
013d
cafe
241f
0000
0000
013a
cafe
281f
0000
0000
0135
cafe
2c1f
0000
0000
013a
cafe
301f
0000
0000
0138
cafe
341f
0000
0000
013a
cafe
381f
0000
0000
0133
cafe
3c1f
0000
0000
0137
cafe
201f
0000
0000
0139
cafe
241f
0000
0000
0135
cafe
281f
0000
0000
0137
cafe
2c1f
0000
0000
0144
cafe
301f
0000
0000
013d
cafe
341f
0000
0000
0138
cafe
381f
0000
0000
0135
cafe
3c1f
0000
0000
0133
cafe
201f
0000
0000
012d
cafe
241f
0000
0000
0127
cafe
281f
0000
0000
0130
cafe
2c1f
0000
0000
0132
cafe
301f
0000
0000
013a
cafe
341f
0000
0000
013a
cafe
381f
0000
0000
0138
cafe
3c1f
0000
0000
0136
cafe
201f
0000
0000
012b
cafe
241f
0000
0000
0133
cafe
281f
0000
0000
012c
cafe
2c1f
0000
0000
0136
cafe
301f
0000
0000
0133
cafe
341f
0000
0000
0139
cafe
381f
0000
0000
0135
cafe
3c1f
0000
-
0000
0132
cafe
201f
0000
0000
012c
cafe
241f
0000
0000
0124
cafe
281f
0000
0000
0122
cafe
2c1f
0000
0000
0113
cafe
301f
0000
0000
0116
cafe
341f
0000
0000
0110
cafe
381f
0000
0000
011a
cafe
3c1f
0000
0000
0119
cafe
201f
0000
0000
0120
cafe
241f
0000
0000
0121
cafe
281f
0000
0000
0125
cafe
2c1f
0000
0000
0128
cafe
301f
0000
0000
012b
cafe
341f
0000
0000
012b
cafe
381f
0000
0000
012c
cafe
3c1f
0000
0000
012a
cafe
201f
0000
0000
011c
cafe
241f
0000
0000
0125
cafe
281f
0000
0000
0139
cafe
2c1f
0000
0000
013f
cafe
301f
0000
0000
0146
cafe
341f
0000
0000
014b
cafe
381f
0000
0000
0153
cafe
3c1f
0000
0000
0156
cafe
201f
0000
0000
0146
cafe
241f
0000
0000
014b
cafe
281f
0000
0000
0149
cafe
2c1f
0000
0000
0145
cafe
301f
0000
0000
0146
cafe
341f
0000
0000
014f
cafe
381f
0000
0000
0155
cafe
3c1f
0000
0000
0154
cafe
201f
0000
0000
014e
cafe
241f
0000
0000
013e
cafe
281f
0000
0000
0146
cafe
2c1f
0000
0000
013c
cafe
301f
0000
0000
0138
cafe
341f
0000
0000
0132
cafe
381f
0000
0000
0130
cafe
3c1f
0000
0000
0128
cafe
201f
0000
0000
012c
cafe
241f
0000
0000
0126
cafe
281f
0000
0000
011f
cafe
2c1f
0000
0000
011f
cafe
301f
0000
0000
0122
cafe
341f
0000
0000
0127
cafe
381f
0000
0000
011c
cafe
3c1f
0000
0000
0112
cafe
201f
0000
0000
0118
cafe
241f
0000
0000
0112
cafe
281f
0000
0000
-
0122
cafe
2c1f
0000
0000
012d
cafe
301f
0000
0000
0132
cafe
341f
0000
0000
013d
cafe
381f
0000
0000
013f
cafe
3c1f
0000
0000
0140
cafe
201f
0000
0000
0137
cafe
241f
0000
0000
0142
cafe
281f
0000
0000
013f
cafe
2c1f
0000
0000
013f
cafe
301f
0000
0000
014b
cafe
341f
0000
0000
014d
cafe
381f
0000
0000
0147
cafe
3c1f
0000
0000
0137
cafe
201f
0000
0000
013f
cafe
241f
0000
0000
012f
cafe
281f
0000
0000
012f
cafe
2c1f
0000
0000
0130
cafe
301f
0000
0000
012e
cafe
341f
0000
0000
0130
cafe
381f
0000
0000
0133
cafe
3c1f
0000
0000
012f
cafe
201f
0000
0000
0129
cafe
241f
0000
0000
0123
cafe
281f
0000
0000
011a
cafe
2c1f
0000
0000
0128
cafe
301f
0000
0000
0126
cafe
341f
0000
0000
011e
cafe
381f
0000
0000
012a
cafe
3c1f
0000
0000
012a
cafe
201f
0000
0000
0123
cafe
241f
0000
0000
0131
cafe
281f
0000
0000
0134
cafe
2c1f
0000
0000
0136
cafe
301f
0000
0000
013b
cafe
341f
0000
0000
0131
cafe
381f
0000
0000
013b
cafe
3c1f
0000
0000
0133
cafe
201f
0000
0000
0137
cafe
241f
0000
0000
012b
cafe
281f
0000
0000
0138
cafe
2c1f
0000
0000
013c
cafe
301f
0000
0000
0134
cafe
341f
0000
0000
0132
cafe
381f
0000
0000
0136
cafe
3c1f
0000
0000
0134
cafe
201f
0000
0000
0133
cafe
241f
0000
0000
011f
cafe
281f
0000
0000
0126
cafe
2c1f
0000
0000
0121
cafe
301f
0000
0000
011e
cafe
341f
0000
0000
0126
-
cafe
381f
0000
0000
0121
cafe
3c1f
0000
0000
0126
cafe
201f
0000
0000
011c
cafe
241f
0000
0000
0116
cafe
281f
0000
0000
0113
cafe
2c1f
0000
0000
0111
cafe
301f
0000
0000
011b
cafe
341f
0000
0000
0113
cafe
381f
0000
0000
0112
cafe
3c1f
0000
0000
011f
cafe
201f
0000
0000
0123
cafe
241f
0000
0000
0123
cafe
281f
0000
0000
012b
cafe
2c1f
0000
0000
012e
cafe
301f
0000
0000
0134
cafe
341f
0000
0000
013a
cafe
381f
0000
0000
0141
cafe
3c1f
0000
0000
0144
cafe
201f
0000
0000
0144
cafe
241f
0000
0000
0144
cafe
281f
0000
0000
0144
cafe
2c1f
0000
0000
014d
cafe
301f
0000
0000
014f
cafe
341f
0000
0000
0157
cafe
381f
0000
0000
0157
cafe
3c1f
0000
0000
015f
cafe
201f
0000
0000
0156
cafe
241f
0000
0000
0151
cafe
281f
0000
0000
0152
cafe
2c1f
0000
0000
0144
cafe
301f
0000
0000
013f
cafe
341f
0000
0000
0142
cafe
381f
0000
0000
0142
cafe
3c1f
0000
0000
0145
cafe
201f
0000
0000
013a
cafe
241f
0000
0000
013f
cafe
281f
0000
0000
0144
cafe
2c1f
0000
0000
0140
cafe
301f
0000
0000
0136
cafe
341f
0000
0000
0130
cafe
381f
0000
0000
0125
cafe
3c1f
0000
0000
0123
cafe
201f
0000
0000
0110
cafe
241f
0000
0000
0112
cafe
281f
0000
0000
0123
cafe
2c1f
0000
0000
012e
cafe
301f
0000
0000
012a
cafe
341f
0000
0000
0138
cafe
381f
0000
0000
0141
cafe
3c1f
0000
0000
0146
cafe
201f
0000
0000
0144
cafe
-
241f
0000
0000
0144
cafe
281f
0000
0000
0147
cafe
2c1f
0000
0000
014a
cafe
301f
0000
0000
015d
cafe
341f
0000
0000
014b
cafe
381f
0000
0000
0148
cafe
3c1f
0000
0000
0145
cafe
201f
0000
0000
0139
cafe
241f
0000
0000
0132
cafe
281f
0000
0000
012e
cafe
2c1f
0000
0000
0126
cafe
301f
0000
0000
0122
cafe
341f
0000
0000
0119
cafe
381f
0000
0000
0110
cafe
3c1f
0000
0000
0108
cafe
201f
0000
0000
0116
cafe
241f
0000
0000
011b
cafe
281f
0000
0000
0110
cafe
2c1f
0000
0000
0113
cafe
301f
0000
0000
011d
cafe
341f
0000
0000
011a
cafe
381f
0000
0000
011c
cafe
3c1f
0000
0000
0125
cafe
201f
0000
0000
011d
cafe
241f
0000
0000
011c
cafe
281f
0000
0000
012d
cafe
2c1f
0000
0000
0136
cafe
301f
0000
0000
0147
cafe
341f
0000
0000
014f
cafe
381f
0000
0000
0152
cafe
3c1f
0000
0000
0153
cafe
201f
0000
0000
0155
cafe
241f
0000
0000
0157
cafe
281f
0000
0000
0155
cafe
2c1f
0000
0000
0153
cafe
301f
0000
0000
0160
cafe
341f
0000
0000
015c
cafe
381f
0000
0000
0156
cafe
3c1f
0000
0000
016a
cafe
201f
0000
0000
015c
cafe
241f
0000
0000
014a
cafe
281f
0000
0000
0138
cafe
2c1f
0000
0000
0135
cafe
301f
0000
0000
0123
cafe
341f
0000
0000
011f
cafe
381f
0000
0000
011d
cafe
3c1f
0000
0000
011e
cafe
201f
0000
0000
011a
cafe
241f
0000
0000
0118
cafe
281f
0000
0000
0112
cafe
2c1f
0000
0000
0114
cafe
301f
-
0000
0000
011f
cafe
341f
0000
0000
0116
cafe
381f
0000
0000
0117
cafe
3c1f
0000
0000
011f
cafe
201f
0000
0000
0121
cafe
241f
0000
0000
0127
cafe
281f
0000
0000
0126
cafe
2c1f
0000
0000
0133
cafe
301f
0000
0000
0130
cafe
341f
0000
0000
012f
cafe
381f
0000
0000
0145
cafe
3c1f
0000
0000
0139
cafe
201f
0000
0000
0145
cafe
241f
0000
0000
0147
cafe
281f
0000
0000
0149
cafe
2c1f
0000
0000
0151
cafe
301f
0000
0000
014e
cafe
341f
0000
0000
0157
cafe
381f
0000
0000
0150
cafe
3c1f
0000
0000
014e
cafe
201f
0000
0000
0154
cafe
241f
0000
0000
0148
cafe
281f
0000
0000
013e
cafe
2c1f
0000
0000
0143
cafe
301f
0000
0000
013f
cafe
341f
0000
0000
0143
cafe
381f
0000
0000
013d
cafe
3c1f
0000
0000
0130
cafe
201f
0000
0000
0127
cafe
241f
0000
0000
011e
cafe
281f
0000
0000
011d
cafe
2c1f
0000
0000
0113
cafe
301f
0000
0000
010a
cafe
341f
0000
0000
0111
cafe
381f
0000
0000
0105
cafe
3c1f
0000
0000
0110
cafe
201f
0000
0000
010f
cafe
241f
0000
0000
0110
cafe
281f
0000
0000
0116
cafe
2c1f
0000
0000
0125
cafe
301f
0000
0000
012a
cafe
341f
0000
0000
012e
cafe
381f
0000
0000
013c
cafe
3c1f
0000
0000
0138
cafe
201f
0000
0000
0136
cafe
241f
0000
0000
0141
cafe
281f
0000
0000
0148
cafe
2c1f
0000
0000
013b
cafe
301f
0000
0000
0139
cafe
341f
0000
0000
013e
cafe
381f
0000
0000
0142
cafe
3c1f
0000
-
0000
0134
cafe
201f
0000
0000
0137
cafe
241f
0000
0000
0131
cafe
281f
0000
0000
0122
cafe
2c1f
0000
0000
011e
cafe
301f
0000
0000
0120
cafe
341f
0000
0000
012c
cafe
381f
0000
0000
012c
cafe
3c1f
0000
0000
012f
cafe
201f
0000
0000
012d
cafe
241f
0000
0000
0130
cafe
281f
0000
0000
012c
cafe
2c1f
0000
0000
012e
cafe
301f
0000
0000
0121
cafe
341f
0000
0000
0125
cafe
381f
0000
0000
0127
cafe
3c1f
0000
0000
011c
cafe
201f
0000
0000
0118
cafe
241f
0000
0000
0117
cafe
281f
0000
0000
011b
cafe
2c1f
0000
0000
012f
cafe
301f
0000
0000
013e
cafe
341f
0000
0000
0141
cafe
381f
0000
0000
0142
cafe
3c1f
0000
0000
0144
cafe
201f
0000
0000
0145
cafe
241f
0000
0000
0149
cafe
281f
0000
0000
0416
cafe
2c1f
0000
0000
03ec
cafe
301f
0000
0000
03be
cafe
341f
0000
0000
0399
cafe
381f
0000
0000
036e
cafe
3c1f
0000
0000
033a
cafe
201f
0000
0000
0315
cafe
241f
0000
0000
02ea
cafe
281f
0000
0000
02bf
cafe
2c1f
0000
0000
029a
cafe
301f
0000
0000
0272
cafe
341f
0000
0000
024e
cafe
381f
0000
0000
022e
cafe
3c1f
0000
0000
0215
cafe
201f
0000
0000
01fa
cafe
241f
0000
0000
01d7
cafe
281f
0000
0000
01c8
cafe
2c1f
0000
0000
01b1
cafe
301f
0000
0000
019a
cafe
341f
0000
0000
018a
cafe
381f
0000
0000
0180
cafe
3c1f
0000
0000
0177
cafe
201f
0000
0000
0169
cafe
241f
0000
0000
015b
cafe
281f
0000
0000
-
0163
cafe
2c1f
0000
0000
0167
cafe
301f
0000
0000
016b
cafe
341f
0000
0000
016a
cafe
381f
0000
0000
016a
cafe
3c1f
0000
0000
0165
cafe
201f
0000
0000
0167
cafe
241f
0000
0000
015f
cafe
281f
0000
0000
0163
cafe
2c1f
0000
0000
015d
cafe
301f
0000
0000
015b
cafe
341f
0000
0000
014c
cafe
381f
0000
0000
0148
cafe
3c1f
0000
0000
0142
cafe
201f
0000
0000
013b
cafe
241f
0000
0000
0137
cafe
281f
0000
0000
0131
cafe
2c1f
0000
0000
0128
cafe
301f
0000
0000
011c
cafe
341f
0000
0000
011e
cafe
381f
0000
0000
0121
cafe
3c1f
0000
0000
0121
cafe
201f
0000
0000
011c
cafe
241f
0000
0000
0114
cafe
281f
0000
0000
011a
cafe
2c1f
0000
0000
0112
cafe
301f
0000
0000
0117
cafe
341f
0000
0000
010d
cafe
381f
0000
0000
0113
cafe
3c1f
0000
0000
0119
cafe
201f
0000
0000
0122
cafe
241f
0000
0000
0114
cafe
281f
0000
0000
0114
cafe
2c1f
0000
0000
011c
cafe
301f
0000
0000
011e
cafe
341f
0000
0000
011e
cafe
381f
0000
0000
0127
cafe
3c1f
0000
0000
0128
cafe
201f
0000
0000
0132
cafe
241f
0000
0000
0138
cafe
281f
0000
0000
012d
cafe
2c1f
0000
0000
0136
cafe
301f
0000
0000
013a
cafe
341f
0000
0000
0136
cafe
381f
0000
0000
0133
cafe
3c1f
0000
0000
012f
cafe
201f
0000
0000
0131
cafe
241f
0000
0000
0127
cafe
281f
0000
0000
0119
cafe
2c1f
0000
0000
0114
cafe
301f
0000
0000
010b
cafe
341f
0000
0000
010c
-
cafe
381f
0000
0000
0102
cafe
3c1f
0000
0000
00f7
cafe
201f
0000
0000
00f4
cafe
241f
0000
0000
00fc
cafe
281f
0000
0000
00ed
cafe
2c1f
0000
0000
00f4
cafe
301f
0000
0000
00f7
cafe
341f
0000
0000
00fc
cafe
381f
0000
0000
00fd
cafe
3c1f
0000
0000
00fe
cafe
201f
0000
0000
0101
cafe
241f
0000
0000
00fb
cafe
281f
0000
0000
00f7
cafe
2c1f
0000
0000
0100
cafe
301f
0000
0000
0106
cafe
341f
0000
0000
010c
cafe
381f
0000
0000
010b
cafe
3c1f
0000
0000
0104
cafe
201f
0000
0000
010f
cafe
241f
0000
0000
011f
cafe
281f
0000
0000
0119
cafe
2c1f
0000
0000
0112
cafe
301f
0000
0000
010e
cafe
341f
0000
0000
0118
cafe
381f
0000
0000
0119
cafe
3c1f
0000
0000
0123
cafe
201f
0000
0000
0127
cafe
241f
0000
0000
0126
cafe
281f
0000
0000
0122
cafe
2c1f
0000
0000
011e
cafe
301f
0000
0000
0119
cafe
341f
0000
0000
0118
cafe
381f
0000
0000
0113
cafe
3c1f
0000
0000
0116
cafe
201f
0000
0000
0115
cafe
241f
0000
0000
011b
cafe
281f
0000
0000
0117
cafe
2c1f
0000
0000
0112
cafe
301f
0000
0000
010b
cafe
341f
0000
0000
0109
cafe
381f
0000
0000
0106
cafe
3c1f
0000
0000
0105
cafe
201f
0000
0000
00fe
cafe
241f
0000
0000
00fa
cafe
281f
0000
0000
0107
cafe
2c1f
0000
0000
010e
cafe
301f
0000
0000
010d
cafe
341f
0000
0000
0111
cafe
381f
0000
0000
010e
cafe
3c1f
0000
0000
0115
cafe
201f
0000
0000
0118
cafe
-
241f
0000
0000
0127
cafe
281f
0000
0000
0127
cafe
2c1f
0000
0000
0132
cafe
301f
0000
0000
0133
cafe
341f
0000
0000
0135
cafe
381f
0000
0000
013b
cafe
3c1f
0000
0000
0137
cafe
201f
0000
0000
012e
cafe
241f
0000
0000
0133
cafe
281f
0000
0000
0125
cafe
2c1f
0000
0000
0121
cafe
301f
0000
0000
011b
cafe
341f
0000
0000
0113
cafe
381f
0000
0000
0111
cafe
3c1f
0000
0000
0113
cafe
201f
0000
0000
0108
cafe
241f
0000
0000
0107
cafe
281f
0000
0000
0107
cafe
2c1f
0000
0000
00fc
cafe
301f
0000
0000
00fe
cafe
341f
0000
0000
00f5
cafe
381f
0000
0000
00ef
cafe
3c1f
0000
0000
00f0
cafe
201f
0000
0000
00e5
cafe
241f
0000
0000
00e9
cafe
281f
0000
0000
00e3
cafe
2c1f
0000
0000
00f1
cafe
301f
0000
0000
00f9
cafe
341f
0000
0000
0105
cafe
381f
0000
0000
010e
cafe
3c1f
0000
0000
0114
cafe
201f
0000
0000
0122
cafe
241f
0000
0000
0127
cafe
281f
0000
0000
012b
cafe
2c1f
0000
0000
0124
cafe
301f
0000
0000
0125
cafe
341f
0000
0000
0127
cafe
381f
0000
0000
012c
cafe
3c1f
0000
0000
0129
cafe
201f
0000
0000
012e
cafe
241f
0000
0000
012c
cafe
281f
0000
0000
012f
cafe
2c1f
0000
0000
0123
cafe
301f
0000
0000
0116
cafe
341f
0000
0000
0114
cafe
381f
0000
0000
010f
cafe
3c1f
0000
0000
010d
cafe
201f
0000
0000
010c
cafe
241f
0000
0000
0101
cafe
281f
0000
0000
0108
cafe
2c1f
0000
0000
0105
cafe
301f
-
0000
0000
00fe
cafe
341f
0000
0000
00fb
cafe
381f
0000
0000
0101
cafe
3c1f
0000
0000
0106
cafe
201f
0000
0000
0100
cafe
241f
0000
0000
0101
cafe
281f
0000
0000
00ff
cafe
2c1f
0000
0000
00fb
cafe
301f
0000
0000
010c
cafe
341f
0000
0000
0108
cafe
381f
0000
0000
0112
cafe
3c1f
0000
0000
011b
cafe
201f
0000
0000
0125
cafe
241f
0000
0000
0125
cafe
281f
0000
0000
0131
cafe
2c1f
0000
0000
0133
cafe
301f
0000
0000
0134
cafe
341f
0000
0000
0135
cafe
381f
0000
0000
0136
cafe
3c1f
0000
0000
013a
cafe
201f
0000
0000
014c
cafe
241f
0000
0000
0148
cafe
281f
0000
0000
013a
cafe
2c1f
0000
0000
012e
cafe
301f
0000
0000
012c
cafe
341f
0000
0000
012a
cafe
381f
0000
0000
0123
cafe
3c1f
0000
0000
011a
cafe
201f
0000
0000
0112
cafe
241f
0000
0000
0110
cafe
281f
0000
0000
0112
cafe
2c1f
0000
0000
010d
cafe
301f
0000
0000
010c
cafe
341f
0000
0000
010d
cafe
381f
0000
0000
0102
cafe
3c1f
0000
0000
010e
cafe
201f
0000
0000
0116
cafe
241f
0000
0000
010b
cafe
281f
0000
0000
0101
cafe
2c1f
0000
0000
0106
cafe
301f
0000
0000
010f
cafe
341f
0000
0000
0115
cafe
381f
0000
0000
0117
cafe
3c1f
0000
0000
0123
cafe
201f
0000
0000
011f
cafe
241f
0000
0000
011e
cafe
281f
0000
0000
0127
cafe
2c1f
0000
0000
0126
cafe
301f
0000
0000
012e
cafe
341f
0000
0000
012e
cafe
381f
0000
0000
013a
cafe
3c1f
0000
-
0000
0138
cafe
201f
0000
0000
0149
cafe
241f
0000
0000
013d
cafe
281f
0000
0000
013f
cafe
2c1f
0000
0000
0131
cafe
301f
0000
0000
0139
cafe
341f
0000
0000
012d
cafe
381f
0000
0000
0126
cafe
3c1f
0000
0000
0120
cafe
201f
0000
0000
0117
cafe
241f
0000
0000
0113
cafe
281f
0000
0000
010e
cafe
2c1f
0000
0000
0110
cafe
301f
0000
0000
0108
cafe
341f
0000
0000
0103
cafe
381f
0000
0000
0106
cafe
3c1f
0000
0000
0108
cafe
201f
0000
0000
0104
cafe
241f
0000
0000
0106
cafe
281f
0000
0000
010e
cafe
2c1f
0000
0000
0115
cafe
301f
0000
0000
011f
cafe
341f
0000
0000
0132
cafe
381f
0000
0000
0138
cafe
3c1f
0000
0000
0147
cafe
201f
0000
0000
0146
cafe
241f
0000
0000
0147
cafe
281f
0000
0000
014a
cafe
2c1f
0000
0000
0148
cafe
301f
0000
0000
013f
cafe
341f
0000
0000
0145
cafe
381f
0000
0000
0143
cafe
3c1f
0000
0000
013e
cafe
201f
0000
0000
0135
cafe
241f
0000
0000
0134
cafe
281f
0000
0000
0136
cafe
2c1f
0000
0000
012e
cafe
301f
0000
0000
0124
cafe
341f
0000
0000
0125
cafe
381f
0000
0000
0122
cafe
3c1f
0000
0000
0120
cafe
201f
0000
0000
0127
cafe
241f
0000
0000
011e
cafe
281f
0000
0000
0123
cafe
2c1f
0000
0000
0119
cafe
301f
0000
0000
0117
cafe
341f
0000
0000
011c
cafe
381f
0000
0000
010e
cafe
3c1f
0000
0000
010b
cafe
201f
0000
0000
0108
cafe
241f
0000
0000
010e
cafe
281f
0000
0000
-
010f
cafe
2c1f
0000
0000
0112
cafe
301f
0000
0000
011a
cafe
341f
0000
0000
0122
cafe
381f
0000
0000
012a
cafe
3c1f
0000
0000
013a
cafe
201f
0000
0000
0134
cafe
241f
0000
0000
0139
cafe
281f
0000
0000
0138
cafe
2c1f
0000
0000
013e
cafe
301f
0000
0000
0149
cafe
341f
0000
0000
014a
cafe
381f
0000
0000
014a
cafe
3c1f
0000
0000
0148
cafe
201f
0000
0000
0141
cafe
241f
0000
0000
013f
cafe
281f
0000
0000
013b
cafe
2c1f
0000
0000
0136
cafe
301f
0000
0000
012d
cafe
341f
0000
0000
012e
cafe
381f
0000
0000
012e
cafe
3c1f
0000
0000
012a
cafe
201f
0000
0000
0120
cafe
241f
0000
0000
0120
cafe
281f
0000
0000
0119
cafe
2c1f
0000
0000
011f
cafe
301f
0000
0000
011d
cafe
341f
0000
0000
0117
cafe
381f
0000
0000
0115
cafe
3c1f
0000
0000
0110
cafe
201f
0000
0000
0116
cafe
241f
0000
0000
010a
cafe
281f
0000
0000
0110
cafe
2c1f
0000
0000
0117
cafe
301f
0000
0000
011d
cafe
341f
0000
0000
0127
cafe
381f
0000
0000
0128
cafe
3c1f
0000
0000
0130
cafe
201f
0000
0000
0137
cafe
241f
0000
0000
013e
cafe
281f
0000
0000
013c
cafe
2c1f
0000
0000
013d
cafe
301f
0000
0000
0134
cafe
341f
0000
0000
0130
cafe
381f
0000
0000
012d
cafe
3c1f
0000
0000
0125
cafe
201f
0000
0000
0133
cafe
241f
0000
0000
0132
cafe
281f
0000
0000
0134
cafe
2c1f
0000
0000
012c
cafe
301f
0000
0000
011e
cafe
341f
0000
0000
0123
-
cafe
381f
0000
0000
0123
cafe
3c1f
0000
0000
011b
cafe
201f
0000
0000
011d
cafe
241f
0000
0000
0120
cafe
281f
0000
0000
011f
cafe
2c1f
0000
0000
011e
cafe
301f
0000
0000
0113
cafe
341f
0000
0000
010e
cafe
381f
0000
0000
010c
cafe
3c1f
0000
0000
010f
cafe
201f
0000
0000
010c
cafe
241f
0000
0000
0106
cafe
281f
0000
0000
0108
cafe
2c1f
0000
0000
0115
cafe
301f
0000
0000
0111
cafe
341f
0000
0000
011e
cafe
381f
0000
0000
0121
cafe
3c1f
0000
0000
012c
cafe
201f
0000
0000
0127
cafe
241f
0000
0000
012f
cafe
281f
0000
0000
013d
cafe
2c1f
0000
0000
013e
cafe
301f
0000
0000
013c
cafe
341f
0000
0000
0139
cafe
381f
0000
0000
013e
cafe
3c1f
0000
0000
0144
cafe
201f
0000
0000
0143
cafe
241f
0000
0000
0147
cafe
281f
0000
0000
014c
cafe
2c1f
0000
0000
0152
cafe
301f
0000
0000
0141
cafe
341f
0000
0000
014a
cafe
381f
0000
0000
014f
cafe
3c1f
0000
0000
0147
cafe
201f
0000
0000
014b
cafe
241f
0000
0000
013e
cafe
281f
0000
0000
0140
cafe
2c1f
0000
0000
012e
cafe
301f
0000
0000
012d
cafe
341f
0000
0000
0127
cafe
381f
0000
0000
012a
cafe
3c1f
0000
0000
0124
cafe
201f
0000
0000
011c
cafe
241f
0000
0000
0119
cafe
281f
0000
0000
0116
cafe
2c1f
0000
0000
0112
cafe
301f
0000
0000
011a
cafe
341f
0000
0000
0121
cafe
381f
0000
0000
0123
cafe
3c1f
0000
0000
0120
cafe
201f
0000
0000
0120
cafe
-
241f
0000
0000
011f
cafe
281f
0000
0000
011d
cafe
2c1f
0000
0000
011c
cafe
301f
0000
0000
0123
cafe
341f
0000
0000
011d
cafe
381f
0000
0000
0122
cafe
3c1f
0000
0000
0125
cafe
201f
0000
0000
0127
cafe
241f
0000
0000
012c
cafe
281f
0000
0000
013b
cafe
2c1f
0000
0000
0133
cafe
301f
0000
0000
0135
cafe
341f
0000
0000
012e
cafe
381f
0000
0000
0132
cafe
3c1f
0000
0000
0138
cafe
201f
0000
0000
0128
cafe
241f
0000
0000
0124
cafe
281f
0000
0000
00e0
cafe
2c1f
0000
0000
00e2
cafe
301f
0000
0000
00eb
cafe
341f
0000
0000
00f4
cafe
381f
0000
0000
00f6
cafe
3c1f
0000
0000
0100
cafe
201f
0000
0000
010c
cafe
241f
0000
0000
010b
cafe
281f
0000
0000
0110
cafe
2c1f
0000
0000
0118
cafe
301f
0000
0000
0117
cafe
341f
0000
0000
011b
cafe
381f
0000
0000
011b
cafe
3c1f
0000
0000
0123
cafe
201f
0000
0000
0121
cafe
241f
0000
0000
0120
cafe
281f
0000
0000
0119
cafe
2c1f
0000
0000
0124
cafe
301f
0000
0000
012c
cafe
341f
0000
0000
0130
cafe
381f
0000
0000
013b
cafe
3c1f
0000
0000
0146
cafe
201f
0000
0000
014d
cafe
241f
0000
0000
014f
cafe
281f
0000
0000
0155
cafe
2c1f
0000
0000
014d
cafe
301f
0000
0000
0146
cafe
341f
0000
0000
013d
cafe
381f
0000
0000
0137
cafe
3c1f
0000
0000
0132
cafe
201f
0000
0000
0134
cafe
241f
0000
0000
0129
cafe
281f
0000
0000
012a
cafe
2c1f
0000
0000
0135
cafe
301f
-
0000
0000
0130
cafe
341f
0000
0000
0135
cafe
381f
0000
0000
0130
cafe
3c1f
0000
0000
012f
cafe
201f
0000
0000
0134
cafe
241f
0000
0000
0129
cafe
281f
0000
0000
012c
cafe
2c1f
0000
0000
0128
cafe
301f
0000
0000
0123
cafe
341f
0000
0000
0127
cafe
381f
0000
0000
0134
cafe
3c1f
0000
0000
0131
cafe
201f
0000
0000
0130
cafe
241f
0000
0000
0134
cafe
281f
0000
0000
0134
cafe
2c1f
0000
0000
0141
cafe
301f
0000
0000
0138
cafe
341f
0000
0000
013a
cafe
381f
0000
0000
0137
cafe
3c1f
0000
0000
013a
cafe
201f
0000
0000
013c
cafe
241f
0000
0000
014b
cafe
281f
0000
0000
0143
cafe
2c1f
0000
0000
014b
cafe
301f
0000
0000
0144
cafe
341f
0000
0000
013e
cafe
381f
0000
0000
0144
cafe
3c1f
0000
0000
0134
cafe
201f
0000
0000
0138
cafe
241f
0000
0000
012e
cafe
281f
0000
0000
012e
cafe
2c1f
0000
0000
011c
cafe
301f
0000
0000
0112
cafe
341f
0000
0000
010c
cafe
381f
0000
0000
0113
cafe
3c1f
0000
0000
0116
cafe
201f
0000
0000
011a
cafe
241f
0000
0000
0116
cafe
281f
0000
0000
0116
cafe
2c1f
0000
0000
0118
cafe
301f
0000
0000
0119
cafe
341f
0000
0000
0119
cafe
381f
0000
0000
0125
cafe
3c1f
0000
0000
013b
cafe
201f
0000
0000
0140
cafe
241f
0000
0000
0145
cafe
281f
0000
0000
0150
cafe
2c1f
0000
0000
0152
cafe
301f
0000
0000
0154
cafe
341f
0000
0000
0160
cafe
381f
0000
0000
0159
cafe
3c1f
0000
-
0000
0159
cafe
201f
0000
0000
0153
cafe
241f
0000
0000
015c
cafe
281f
0000
0000
0153
cafe
2c1f
0000
0000
015c
cafe
301f
0000
0000
014c
cafe
341f
0000
0000
0145
cafe
381f
0000
0000
0137
cafe
3c1f
0000
0000
0132
cafe
201f
0000
0000
012e
cafe
241f
0000
0000
0127
cafe
281f
0000
0000
0121
cafe
2c1f
0000
0000
0118
cafe
301f
0000
0000
0116
cafe
341f
0000
0000
0118
cafe
381f
0000
0000
011d
cafe
3c1f
0000
0000
0117
cafe
201f
0000
0000
011b
cafe
241f
0000
0000
0117
cafe
281f
0000
0000
011c
cafe
2c1f
0000
0000
0125
cafe
301f
0000
0000
011f
cafe
341f
0000
0000
0128
cafe
381f
0000
0000
0128
cafe
3c1f
0000
0000
0131
cafe
201f
0000
0000
012f
cafe
241f
0000
0000
013b
cafe
281f
0000
0000
0138
cafe
2c1f
0000
0000
013d
cafe
301f
0000
0000
0143
cafe
341f
0000
0000
0131
cafe
381f
0000
0000
0146
cafe
3c1f
0000
0000
0147
cafe
201f
0000
0000
0155
cafe
241f
0000
0000
015c
cafe
281f
0000
0000
0152
cafe
2c1f
0000
0000
015a
cafe
301f
0000
0000
015f
cafe
341f
0000
0000
0148
cafe
381f
0000
0000
0147
cafe
3c1f
0000
0000
0146
cafe
201f
0000
0000
0144
cafe
241f
0000
0000
013c
cafe
281f
0000
0000
0130
cafe
2c1f
0000
0000
0123
cafe
301f
0000
0000
011d
cafe
341f
0000
0000
011d
cafe
381f
0000
0000
011c
cafe
3c1f
0000
0000
011b
cafe
201f
0000
0000
0117
cafe
241f
0000
0000
011a
cafe
281f
0000
0000
-
0118
cafe
2c1f
0000
0000
0113
cafe
301f
0000
0000
0114
cafe
341f
0000
0000
011a
cafe
381f
0000
0000
011c
cafe
3c1f
0000
0000
012b
cafe
201f
0000
0000
0125
cafe
241f
0000
0000
0122
cafe
281f
0000
0000
011d
cafe
2c1f
0000
0000
012e
cafe
301f
0000
0000
0131
cafe
341f
0000
0000
0130
cafe
381f
0000
0000
012d
cafe
3c1f
0000
0000
0135
cafe
201f
0000
0000
0139
cafe
241f
0000
0000
013d
cafe
281f
0000
0000
013c
cafe
2c1f
0000
0000
0140
cafe
301f
0000
0000
013f
cafe
341f
0000
0000
012f
cafe
381f
0000
0000
0137
cafe
3c1f
0000
0000
013a
cafe
201f
0000
0000
0136
cafe
241f
0000
0000
0133
cafe
281f
0000
0000
0132
cafe
2c1f
0000
0000
0137
cafe
301f
0000
0000
013c
cafe
341f
0000
0000
012e
cafe
381f
0000
0000
012a
cafe
3c1f
0000
0000
012d
cafe
201f
0000
0000
0126
cafe
241f
0000
0000
011d
cafe
281f
0000
0000
011d
cafe
2c1f
0000
0000
011f
cafe
301f
0000
0000
011e
cafe
341f
0000
0000
011a
cafe
381f
0000
0000
0124
cafe
3c1f
0000
0000
0129
cafe
201f
0000
0000
0135
cafe
241f
0000
0000
0136
cafe
281f
0000
0000
013d
cafe
2c1f
0000
0000
013c
cafe
301f
0000
0000
0138
cafe
341f
0000
0000
013c
cafe
381f
0000
0000
013d
cafe
3c1f
0000
0000
0138
cafe
201f
0000
0000
0137
cafe
241f
0000
0000
013c
cafe
281f
0000
0000
013f
cafe
2c1f
0000
0000
0142
cafe
301f
0000
0000
0140
cafe
341f
0000
0000
0139
-
cafe
381f
0000
0000
0131
cafe
3c1f
0000
0000
0128
cafe
201f
0000
0000
0128
cafe
241f
0000
0000
0127
cafe
281f
0000
0000
0127
cafe
2c1f
0000
0000
0128
cafe
301f
0000
0000
012a
cafe
341f
0000
0000
0127
cafe
381f
0000
0000
0127
cafe
3c1f
0000
0000
0121
cafe
201f
0000
0000
0124
cafe
241f
0000
0000
0122
cafe
281f
0000
0000
0000
cafe
2c1f
0000
0000
0000
cafe
301f
0000
0000
0000
cafe
341f
0000
0000
0000
cafe
381f
0000
0000
0000
cafe
3c1f
0000
0000
0000
cafe
201f
0000
0000
0000
cafe
241f
0000
0000
0011
cafe
281f
0000
0000
0034
cafe
2c1f
0000
0000
005c
cafe
301f
0000
0000
0070
cafe
341f
0000
0000
0093
cafe
381f
0000
0000
00a2
cafe
3c1f
0000
0000
00bd
cafe
201f
0000
0000
00d4
cafe
241f
0000
0000
00db
cafe
281f
0000
0000
00f0
cafe
2c1f
0000
0000
0102
cafe
301f
0000
0000
0110
cafe
341f
0000
0000
011d
cafe
381f
0000
0000
011f
cafe
3c1f
0000
0000
0120
cafe
201f
0000
0000
0128
cafe
241f
0000
0000
012b
cafe
281f
0000
0000
012e
cafe
2c1f
0000
0000
0132
cafe
301f
0000
0000
013a
cafe
341f
0000
0000
013d
cafe
381f
0000
0000
0144
cafe
3c1f
0000
0000
0142
cafe
201f
0000
0000
0157
cafe
241f
0000
0000
0158
cafe
281f
0000
0000
015b
cafe
2c1f
0000
0000
0165
cafe
301f
0000
0000
016b
cafe
341f
0000
0000
0167
cafe
381f
0000
0000
016c
cafe
3c1f
0000
0000
0178
cafe
201f
0000
0000
017f
cafe
-
241f
0000
0000
0179
cafe
281f
0000
0000
0184
cafe
2c1f
0000
0000
0180
cafe
301f
0000
0000
0180
cafe
341f
0000
0000
0182
cafe
381f
0000
0000
0188
cafe
3c1f
0000
0000
018d
cafe
201f
0000
0000
018d
cafe
241f
0000
0000
018c
cafe
281f
0000
0000
018c
cafe
2c1f
0000
0000
0194
cafe
301f
0000
0000
0196
cafe
341f
0000
0000
0187
cafe
381f
0000
0000
017c
cafe
3c1f
0000
0000
0173
cafe
201f
0000
0000
0168
cafe
241f
0000
0000
0166
cafe
281f
0000
0000
0157
cafe
2c1f
0000
0000
0159
cafe
301f
0000
0000
015b
cafe
341f
0000
0000
0158
cafe
381f
0000
0000
0150
cafe
3c1f
0000
0000
0160
cafe
201f
0000
0000
015a
cafe
241f
0000
0000
015a
cafe
281f
0000
0000
0166
cafe
2c1f
0000
0000
016c
cafe
301f
0000
0000
0164
cafe
341f
0000
0000
0157
cafe
381f
0000
0000
0155
cafe
3c1f
0000
0000
0161
cafe
201f
0000
0000
0167
cafe
241f
0000
0000
0161
cafe
281f
0000
0000
0162
cafe
2c1f
0000
0000
0160
cafe
301f
0000
0000
015f
cafe
341f
0000
0000
015d
cafe
381f
0000
0000
015c
cafe
3c1f
0000
0000
0159
cafe
201f
0000
0000
0161
cafe
241f
0000
0000
0159
cafe
281f
0000
0000
015e
cafe
2c1f
0000
0000
015f
cafe
301f
0000
0000
0167
cafe
341f
0000
0000
0161
cafe
381f
0000
0000
015a
cafe
3c1f
0000
0000
0150
cafe
201f
0000
0000
014c
cafe
241f
0000
0000
0143
cafe
281f
0000
0000
013f
cafe
2c1f
0000
0000
013f
cafe
301f
-
0000
0000
013f
cafe
341f
0000
0000
0137
cafe
381f
0000
0000
013f
cafe
3c1f
0000
0000
0146
cafe
201f
0000
0000
0149
cafe
241f
0000
0000
0146
cafe
281f
0000
0000
014e
cafe
2c1f
0000
0000
0152
cafe
301f
0000
0000
0158
cafe
341f
0000
0000
0157
cafe
381f
0000
0000
0150
cafe
3c1f
0000
0000
015d
cafe
201f
0000
0000
015e
cafe
241f
0000
0000
0159
cafe
281f
0000
0000
0155
cafe
2c1f
0000
0000
0154
cafe
301f
0000
0000
0152
cafe
341f
0000
0000
014a
cafe
381f
0000
0000
0151
cafe
3c1f
0000
0000
014d
cafe
201f
0000
0000
0143
cafe
241f
0000
0000
0142
cafe
281f
0000
0000
014a
cafe
2c1f
0000
0000
0144
cafe
301f
0000
0000
014a
cafe
341f
0000
0000
0143
cafe
381f
0000
0000
0139
cafe
3c1f
0000
0000
013b
cafe
201f
0000
0000
012e
cafe
241f
0000
0000
0135
cafe
281f
0000
0000
012a
cafe
2c1f
0000
0000
012d
cafe
301f
0000
0000
0124
cafe
341f
0000
0000
012f
cafe
381f
0000
0000
0125
cafe
3c1f
0000
0000
0128
cafe
201f
0000
0000
0128
cafe
241f
0000
0000
0125
cafe
281f
0000
0000
0120
cafe
2c1f
0000
0000
0122
cafe
301f
0000
0000
0128
cafe
341f
0000
0000
012a
cafe
381f
0000
0000
011c
cafe
3c1f
0000
0000
0126
cafe
201f
0000
0000
0143
cafe
241f
0000
0000
014e
cafe
281f
0000
0000
0154
cafe
2c1f
0000
0000
0154
cafe
301f
0000
0000
0152
cafe
341f
0000
0000
0157
cafe
381f
0000
0000
0156
cafe
3c1f
0000
-
0000
015b
cafe
201f
0000
0000
0166
cafe
241f
0000
0000
0167
cafe
281f
0000
0000
0160
cafe
2c1f
0000
0000
0160
cafe
301f
0000
0000
0161
cafe
341f
0000
0000
0156
cafe
381f
0000
0000
0154
cafe
3c1f
0000
0000
013b
cafe
201f
0000
0000
0144
cafe
241f
0000
0000
0143
cafe
281f
0000
0000
013f
cafe
2c1f
0000
0000
0141
cafe
301f
0000
0000
0148
cafe
341f
0000
0000
013d
cafe
381f
0000
0000
0142
cafe
3c1f
0000
0000
0142
cafe
201f
0000
0000
012b
cafe
241f
0000
0000
012a
cafe
281f
0000
0000
0126
cafe
2c1f
0000
0000
0123
cafe
301f
0000
0000
012a
cafe
341f
0000
0000
0121
cafe
381f
0000
0000
011a
cafe
3c1f
0000
0000
012c
cafe
201f
0000
0000
0134
cafe
241f
0000
0000
0139
cafe
281f
0000
0000
013f
cafe
2c1f
0000
0000
0143
cafe
301f
0000
0000
0145
cafe
341f
0000
0000
014c
cafe
381f
0000
0000
0152
cafe
3c1f
0000
0000
0159
cafe
201f
0000
0000
0156
cafe
241f
0000
0000
0159
cafe
281f
0000
0000
015a
cafe
2c1f
0000
0000
016d
cafe
301f
0000
0000
0161
cafe
341f
0000
0000
0161
cafe
381f
0000
0000
015b
cafe
3c1f
0000
0000
0158
cafe
201f
0000
0000
015b
cafe
241f
0000
0000
0151
cafe
281f
0000
0000
014c
cafe
2c1f
0000
0000
014c
cafe
301f
0000
0000
0141
cafe
341f
0000
0000
0145
cafe
381f
0000
0000
013d
cafe
3c1f
0000
0000
0130
cafe
201f
0000
0000
012b
cafe
241f
0000
0000
0128
cafe
281f
0000
0000
-
0124
cafe
2c1f
0000
0000
0122
cafe
301f
0000
0000
0125
cafe
341f
0000
0000
0126
cafe
381f
0000
0000
0128
cafe
3c1f
0000
0000
012f
cafe
201f
0000
0000
0136
cafe
241f
0000
0000
013f
cafe
281f
0000
0000
0147
cafe
2c1f
0000
0000
014e
cafe
301f
0000
0000
014f
cafe
341f
0000
0000
0159
cafe
381f
0000
0000
015b
cafe
3c1f
0000
0000
0154
cafe
201f
0000
0000
0154
cafe
241f
0000
0000
0157
cafe
281f
0000
0000
0154
cafe
2c1f
0000
0000
014d
cafe
301f
0000
0000
014e
cafe
341f
0000
0000
0156
cafe
381f
0000
0000
015c
cafe
3c1f
0000
0000
0145
cafe
201f
0000
0000
013b
cafe
241f
0000
0000
0136
cafe
281f
0000
0000
0139
cafe
2c1f
0000
0000
013f
cafe
301f
0000
0000
012d
cafe
341f
0000
0000
012b
cafe
381f
0000
0000
011f
cafe
3c1f
0000
0000
011f
cafe
201f
0000
0000
0118
cafe
241f
0000
0000
0123
cafe
281f
0000
0000
0122
cafe
2c1f
0000
0000
0126
cafe
301f
0000
0000
0125
cafe
341f
0000
0000
0126
cafe
381f
0000
0000
011d
cafe
3c1f
0000
0000
011f
cafe
201f
0000
0000
0130
cafe
241f
0000
0000
0134
cafe
281f
0000
0000
0136
cafe
2c1f
0000
0000
013a
cafe
301f
0000
0000
0147
cafe
341f
0000
0000
0140
cafe
381f
0000
0000
0145
cafe
3c1f
0000
0000
014a
cafe
201f
0000
0000
014d
cafe
241f
0000
0000
014b
cafe
281f
0000
0000
014e
cafe
2c1f
0000
0000
0152
cafe
301f
0000
0000
014b
cafe
341f
0000
0000
0150
-
cafe
381f
0000
0000
0150
cafe
3c1f
0000
0000
013c
cafe
201f
0000
0000
013b
cafe
241f
0000
0000
0139
cafe
281f
0000
0000
012e
cafe
2c1f
0000
0000
012f
cafe
301f
0000
0000
012a
cafe
341f
0000
0000
012d
cafe
381f
0000
0000
012c
cafe
3c1f
0000
0000
0127
cafe
201f
0000
0000
0128
cafe
241f
0000
0000
011c
cafe
281f
0000
0000
011f
cafe
2c1f
0000
0000
0129
cafe
301f
0000
0000
012c
cafe
341f
0000
0000
012c
cafe
381f
0000
0000
0131
cafe
3c1f
0000
0000
012e
cafe
201f
0000
0000
013b
cafe
241f
0000
0000
0140
cafe
281f
0000
0000
014d
cafe
2c1f
0000
0000
015a
cafe
301f
0000
0000
0156
cafe
341f
0000
0000
0152
cafe
381f
0000
0000
0152
cafe
3c1f
0000
0000
0150
cafe
201f
0000
0000
014e
cafe
241f
0000
0000
0146
cafe
281f
0000
0000
014b
cafe
2c1f
0000
0000
0152
cafe
301f
0000
0000
0145
cafe
341f
0000
0000
013f
cafe
381f
0000
0000
0143
cafe
3c1f
0000
0000
0131
cafe
201f
0000
0000
0122
cafe
241f
0000
0000
0125
cafe
281f
0000
0000
0116
cafe
2c1f
0000
0000
011a
cafe
301f
0000
0000
011c
cafe
341f
0000
0000
0120
cafe
381f
0000
0000
012c
cafe
3c1f
0000
0000
0122
cafe
201f
0000
0000
0123
cafe
241f
0000
0000
0129
cafe
281f
0000
0000
012a
cafe
2c1f
0000
0000
012c
cafe
301f
0000
0000
0128
cafe
341f
0000
0000
012c
cafe
381f
0000
0000
0130
cafe
3c1f
0000
0000
0130
cafe
201f
0000
0000
012f
cafe
-
241f
0000
0000
013f
cafe
281f
0000
0000
0141
cafe
2c1f
0000
0000
0146
cafe
301f
0000
0000
014c
cafe
341f
0000
0000
0148
cafe
381f
0000
0000
0147
cafe
3c1f
0000
0000
0142
cafe
201f
0000
0000
013d
cafe
241f
0000
0000
0136
cafe
281f
0000
0000
0135
cafe
2c1f
0000
0000
0138
cafe
301f
0000
0000
013a
cafe
341f
0000
0000
0143
cafe
381f
0000
0000
0146
cafe
3c1f
0000
0000
013d
cafe
201f
0000
0000
0140
cafe
241f
0000
0000
013b
cafe
281f
0000
0000
0134
cafe
2c1f
0000
0000
0136
cafe
301f
0000
0000
0132
cafe
341f
0000
0000
013f
cafe
381f
0000
0000
0130
cafe
3c1f
0000
0000
012f
cafe
201f
0000
0000
012a
cafe
241f
0000
0000
0127
cafe
281f
0000
0000
0120
cafe
2c1f
0000
0000
0123
cafe
301f
0000
0000
0124
cafe
341f
0000
0000
0117
cafe
381f
0000
0000
011b
cafe
3c1f
0000
0000
0119
cafe
201f
0000
0000
010a
cafe
241f
0000
0000
0116
cafe
281f
0000
0000
0126
cafe
2c1f
0000
0000
0124
cafe
301f
0000
0000
0128
cafe
341f
0000
0000
012c
cafe
381f
0000
0000
0132
cafe
3c1f
0000
0000
0137
cafe
201f
0000
0000
0141
cafe
241f
0000
0000
0144
cafe
281f
0000
0000
0145
cafe
2c1f
0000
0000
0149
cafe
301f
0000
0000
014d
cafe
341f
0000
0000
014f
cafe
381f
0000
0000
0155
cafe
3c1f
0000
0000
0152
cafe
201f
0000
0000
014c
cafe
241f
0000
0000
0141
cafe
281f
0000
0000
0139
cafe
2c1f
0000
0000
013c
cafe
301f
-
0000
0000
0132
cafe
341f
0000
0000
012a
cafe
381f
0000
0000
012b
cafe
3c1f
0000
0000
011e
cafe
201f
0000
0000
0125
cafe
241f
0000
0000
0118
cafe
281f
0000
0000
0112
cafe
2c1f
0000
0000
011f
cafe
301f
0000
0000
011c
cafe
341f
0000
0000
0125
cafe
381f
0000
0000
012a
cafe
3c1f
0000
0000
012b
cafe
201f
0000
0000
012b
cafe
241f
0000
0000
0127
cafe
281f
0000
0000
0136
cafe
2c1f
0000
0000
013c
cafe
301f
0000
0000
013d
cafe
341f
0000
0000
0146
cafe
381f
0000
0000
0142
cafe
3c1f
0000
0000
0141
cafe
201f
0000
0000
013c
cafe
241f
0000
0000
0143
cafe
281f
0000
0000
013e
cafe
2c1f
0000
0000
013e
cafe
301f
0000
0000
0139
cafe
341f
0000
0000
0141
cafe
381f
0000
0000
013c
cafe
3c1f
0000
0000
014e
cafe
201f
0000
0000
0137
cafe
241f
0000
0000
013e
cafe
281f
0000
0000
013a
cafe
2c1f
0000
0000
0135
cafe
301f
0000
0000
012f
cafe
341f
0000
0000
0128
cafe
381f
0000
0000
0128
cafe
3c1f
0000
0000
0128
cafe
201f
0000
0000
011b
cafe
241f
0000
0000
011d
cafe
281f
0000
0000
011c
cafe
2c1f
0000
0000
0117
cafe
301f
0000
0000
0122
cafe
341f
0000
0000
0126
cafe
381f
0000
0000
0123
cafe
3c1f
0000
0000
0125
cafe
201f
0000
0000
0132
cafe
241f
0000
0000
0132
cafe
281f
0000
0000
0141
cafe
2c1f
0000
0000
0148
cafe
301f
0000
0000
0150
cafe
341f
0000
0000
014c
cafe
381f
0000
0000
014f
cafe
3c1f
0000
-
0000
0156
cafe
201f
0000
0000
014b
cafe
241f
0000
0000
0154
cafe
281f
0000
0000
0154
cafe
2c1f
0000
0000
0158
cafe
301f
0000
0000
0159
cafe
341f
0000
0000
0158
cafe
381f
0000
0000
0156
cafe
3c1f
0000
0000
014c
cafe
201f
0000
0000
0147
cafe
241f
0000
0000
0135
cafe
281f
0000
0000
013b
cafe
2c1f
0000
0000
0131
cafe
301f
0000
0000
0129
cafe
341f
0000
0000
0124
cafe
381f
0000
0000
0127
cafe
3c1f
0000
0000
0129
cafe
201f
0000
0000
0125
cafe
241f
0000
0000
0128
cafe
281f
0000
0000
012d
cafe
2c1f
0000
0000
0138
cafe
301f
0000
0000
0135
cafe
341f
0000
0000
0137
cafe
381f
0000
0000
0136
cafe
3c1f
0000
0000
013d
cafe
201f
0000
0000
013d
cafe
241f
0000
0000
0137
cafe
281f
0000
0000
0135
cafe
2c1f
0000
0000
013e
cafe
301f
0000
0000
013e
cafe
341f
0000
0000
0137
cafe
381f
0000
0000
013a
cafe
3c1f
0000
0000
013f
cafe
201f
0000
0000
012e
cafe
241f
0000
0000
013e
cafe
281f
0000
0000
0134
cafe
2c1f
0000
0000
013d
cafe
301f
0000
0000
013c
cafe
341f
0000
0000
013a
cafe
381f
0000
0000
013a
cafe
3c1f
0000
0000
013d
cafe
201f
0000
0000
013e
cafe
241f
0000
0000
0135
cafe
281f
0000
0000
0132
cafe
2c1f
0000
0000
012e
cafe
301f
0000
0000
012d
cafe
341f
0000
0000
012b
cafe
381f
0000
0000
0131
cafe
3c1f
0000
0000
0131
cafe
201f
0000
0000
012f
cafe
241f
0000
0000
012e
cafe
281f
0000
0000
-
0122
cafe
2c1f
0000
0000
0123
cafe
301f
0000
0000
0117
cafe
341f
0000
0000
0113
cafe
381f
0000
0000
0112
cafe
3c1f
0000
0000
0117
cafe
201f
0000
0000
011e
cafe
241f
0000
0000
0112
cafe
281f
0000
0000
0115
cafe
2c1f
0000
0000
011b
cafe
301f
0000
0000
0129
cafe
341f
0000
0000
012d
cafe
381f
0000
0000
0134
cafe
3c1f
0000
0000
0130
cafe
201f
0000
0000
0133
cafe
241f
0000
0000
0139
cafe
281f
0000
0000
0141
cafe
2c1f
0000
0000
013a
cafe
301f
0000
0000
014d
cafe
341f
0000
0000
014e
cafe
381f
0000
0000
0153
cafe
3c1f
0000
0000
0158
cafe
201f
0000
0000
0159
cafe
241f
0000
0000
0149
cafe
281f
0000
0000
0141
cafe
2c1f
0000
0000
0138
cafe
301f
0000
0000
013a
cafe
341f
0000
0000
0131
cafe
381f
0000
0000
012a
cafe
3c1f
0000
0000
0126
cafe
201f
0000
0000
0124
cafe
241f
0000
0000
0120
cafe
281f
0000
0000
0128
cafe
2c1f
0000
0000
0125
cafe
301f
0000
0000
011b
cafe
341f
0000
0000
0127
cafe
381f
0000
0000
0120
cafe
3c1f
0000
0000
0120
cafe
201f
0000
0000
0127
cafe
241f
0000
0000
0128
cafe
281f
0000
0000
0131
cafe
2c1f
0000
0000
0145
cafe
301f
0000
0000
0141
cafe
341f
0000
0000
013a
cafe
381f
0000
0000
0140
cafe
3c1f
0000
0000
0148
cafe
201f
0000
0000
0148
cafe
241f
0000
0000
014a
cafe
281f
0000
0000
0147
cafe
2c1f
0000
0000
0142
cafe
301f
0000
0000
0137
cafe
341f
0000
0000
013a
-
cafe
381f
0000
0000
0138
cafe
3c1f
0000
0000
0136
cafe
201f
0000
0000
0136
cafe
241f
0000
0000
0138
cafe
281f
0000
0000
012d
cafe
2c1f
0000
0000
012a
cafe
301f
0000
0000
012e
cafe
341f
0000
0000
0127
cafe
381f
0000
0000
012a
cafe
3c1f
0000
0000
0128
cafe
201f
0000
0000
0122
cafe
241f
0000
0000
0124
cafe
281f
0000
0000
0126
cafe
2c1f
0000
0000
0125
cafe
301f
0000
0000
0128
cafe
341f
0000
0000
0121
cafe
381f
0000
0000
0125
cafe
3c1f
0000
0000
0121
cafe
201f
0000
0000
011c
cafe
241f
0000
0000
011f
cafe
281f
0000
0000
0120
cafe
2c1f
0000
0000
0124
cafe
301f
0000
0000
0132
cafe
341f
0000
0000
013a
cafe
381f
0000
0000
014c
cafe
3c1f
0000
0000
0148
cafe
201f
0000
0000
0150
cafe
241f
0000
0000
014c
cafe
281f
0000
0000
0153
cafe
2c1f
0000
0000
014e
cafe
301f
0000
0000
014f
cafe
341f
0000
0000
014b
cafe
381f
0000
0000
014a
cafe
3c1f
0000
0000
0148
cafe
201f
0000
0000
014d
cafe
241f
0000
0000
014a
cafe
281f
0000
0000
013c
cafe
2c1f
0000
0000
0130
cafe
301f
0000
0000
0128
cafe
341f
0000
0000
012d
cafe
381f
0000
0000
0128
cafe
3c1f
0000
0000
012b
cafe
201f
0000
0000
0124
cafe
241f
0000
0000
0129
cafe
281f
0000
0000
0122
cafe
2c1f
0000
0000
0120
cafe
301f
0000
0000
012d
cafe
341f
0000
0000
0123
cafe
381f
0000
0000
0119
cafe
3c1f
0000
0000
0121
cafe
201f
0000
0000
0123
cafe
-
241f
0000
0000
011c
cafe
281f
0000
0000
011a
cafe
2c1f
0000
0000
0123
cafe
301f
0000
0000
0130
cafe
341f
0000
0000
012e
cafe
381f
0000
0000
0130
cafe
3c1f
0000
0000
012e
cafe
201f
0000
0000
0140
cafe
241f
0000
0000
0138
cafe
281f
0000
0000
0138
cafe
2c1f
0000
0000
013e
cafe
301f
0000
0000
0144
cafe
341f
0000
0000
014a
cafe
381f
0000
0000
014d
cafe
3c1f
0000
0000
0157
cafe
201f
0000
0000
0158
cafe
241f
0000
0000
0164
cafe
281f
0000
0000
0159
cafe
2c1f
0000
0000
0157
cafe
301f
0000
0000
0153
cafe
341f
0000
0000
0150
cafe
381f
0000
0000
0148
cafe
3c1f
0000
0000
0145
cafe
201f
0000
0000
013b
cafe
241f
0000
0000
0131
cafe
281f
0000
0000
012c
cafe
2c1f
0000
0000
011c
cafe
301f
0000
0000
0119
cafe
341f
0000
0000
0119
cafe
381f
0000
0000
0111
cafe
3c1f
0000
0000
0124
cafe
201f
0000
0000
0120
cafe
241f
0000
0000
0114
cafe
281f
0000
0000
011a
cafe
2c1f
0000
0000
0126
cafe
301f
0000
0000
0134
cafe
341f
0000
0000
0138
cafe
381f
0000
0000
013a
cafe
3c1f
0000
0000
013c
cafe
201f
0000
0000
013b
cafe
241f
0000
0000
013b
cafe
281f
0000
0000
0140
cafe
2c1f
0000
0000
0141
cafe
301f
0000
0000
014d
cafe
341f
0000
0000
0147
cafe
381f
0000
0000
0148
cafe
3c1f
0000
0000
0145
cafe
201f
0000
0000
0150
cafe
241f
0000
0000
0152
cafe
281f
0000
0000
014b
cafe
2c1f
0000
0000
0139
cafe
301f
-
0000
0000
012f
cafe
341f
0000
0000
0134
cafe
381f
0000
0000
0130
cafe
3c1f
0000
0000
012b
cafe
201f
0000
0000
012e
cafe
241f
0000
0000
012d
cafe
281f
0000
0000
0134
cafe
2c1f
0000
0000
0130
cafe
301f
0000
0000
0125
cafe
341f
0000
0000
0125
cafe
381f
0000
0000
0122
cafe
3c1f
0000
0000
011c
cafe
201f
0000
0000
0121
cafe
241f
0000
0000
0117
cafe
281f
0000
0000
011d
cafe
2c1f
0000
0000
011b
cafe
301f
0000
0000
0121
cafe
341f
0000
0000
012a
cafe
381f
0000
0000
0128
cafe
3c1f
0000
0000
012f
cafe
201f
0000
0000
0139
cafe
241f
0000
0000
0141
cafe
281f
0000
0000
0145
cafe
2c1f
0000
0000
013f
cafe
301f
0000
0000
0149
cafe
341f
0000
0000
013a
cafe
381f
0000
0000
013e
cafe
3c1f
0000
0000
014c
cafe
201f
0000
0000
0146
cafe
241f
0000
0000
014d
cafe
281f
0000
0000
014e
cafe
2c1f
0000
0000
0145
cafe
301f
0000
0000
0146
cafe
341f
0000
0000
013e
cafe
381f
0000
0000
013c
cafe
3c1f
0000
0000
0138
cafe
201f
0000
0000
0133
cafe
241f
0000
0000
0131
cafe
281f
0000
0000
0123
cafe
2c1f
0000
0000
0114
cafe
301f
0000
0000
0126
cafe
341f
0000
0000
0121
cafe
381f
0000
0000
011a
cafe
3c1f
0000
0000
0114
cafe
201f
0000
0000
0114
cafe
241f
0000
0000
0114
cafe
281f
0000
0000
010e
cafe
2c1f
0000
0000
010e
cafe
301f
0000
0000
010e
cafe
341f
0000
0000
011b
cafe
381f
0000
0000
012f
cafe
3c1f
0000
-
0000
0126
cafe
201f
0000
0000
012e
cafe
241f
0000
0000
0126
cafe
281f
0000
0000
0125
cafe
2c1f
0000
0000
012f
cafe
301f
0000
0000
0138
cafe
341f
0000
0000
0136
cafe
381f
0000
0000
0130
cafe
3c1f
0000
0000
012b
cafe
201f
0000
0000
013c
cafe
241f
0000
0000
012c
cafe
281f
0000
0000
012d
cafe
2c1f
0000
0000
0127
cafe
301f
0000
0000
012e
cafe
341f
0000
0000
0130
cafe
381f
0000
0000
013b
cafe
3c1f
0000
0000
0136
cafe
201f
0000
0000
0133
cafe
241f
0000
0000
012b
cafe
281f
0000
0000
0130
cafe
2c1f
0000
0000
0131
cafe
301f
0000
0000
0138
cafe
341f
0000
0000
012f
cafe
381f
0000
0000
012f
cafe
3c1f
0000
0000
012e
cafe
201f
0000
0000
0130
cafe
241f
0000
0000
012f
cafe
281f
0000
0000
012d
cafe
2c1f
0000
0000
012e
cafe
301f
0000
0000
0127
cafe
341f
0000
0000
012e
cafe
381f
0000
0000
013e
cafe
3c1f
0000
0000
0132
cafe
201f
0000
0000
0137
cafe
241f
0000
0000
013d
cafe
281f
0000
0000
013e
cafe
2c1f
0000
0000
013a
cafe
301f
0000
0000
0141
cafe
341f
0000
0000
0140
cafe
381f
0000
0000
0146
cafe
3c1f
0000
0000
0146
cafe
201f
0000
0000
0142
cafe
241f
0000
0000
013f
cafe
281f
0000
0000
0139
cafe
2c1f
0000
0000
0140
cafe
301f
0000
0000
012c
cafe
341f
0000
0000
012a
cafe
381f
0000
0000
012d
cafe
3c1f
0000
0000
012a
cafe
201f
0000
0000
012b
cafe
241f
0000
0000
012d
cafe
281f
0000
0000
-
0124
cafe
2c1f
0000
0000
0125
cafe
301f
0000
0000
011d
cafe
341f
0000
0000
011f
cafe
381f
0000
0000
012b
cafe
3c1f
0000
0000
0123
cafe
201f
0000
0000
012e
cafe
241f
0000
0000
0131
cafe
281f
0000
0000
0133
cafe
2c1f
0000
0000
013c
cafe
301f
0000
0000
013a
cafe
341f
0000
0000
013e
cafe
381f
0000
0000
0143
cafe
3c1f
0000
0000
0147
cafe
201f
0000
0000
013f
cafe
241f
0000
0000
013f
cafe
281f
0000
0000
0146
cafe
2c1f
0000
0000
013b
cafe
301f
0000
0000
013a
cafe
341f
0000
0000
0138
cafe
381f
0000
0000
0146
cafe
3c1f
0000
0000
0145
cafe
201f
0000
0000
0146
cafe
241f
0000
0000
0147
cafe
281f
0000
0000
0146
cafe
2c1f
0000
0000
014b
cafe
301f
0000
0000
0142
cafe
341f
0000
0000
013e
cafe
381f
0000
0000
0135
cafe
3c1f
0000
0000
0135
cafe
201f
0000
0000
0132
cafe
241f
0000
0000
0135
cafe
281f
0000
0000
0129
cafe
2c1f
0000
0000
0130
cafe
301f
0000
0000
0131
cafe
341f
0000
0000
0132
cafe
381f
0000
0000
0127
cafe
3c1f
0000
0000
0123
cafe
201f
0000
0000
0127
cafe
241f
0000
0000
012a
cafe
281f
0000
0000
012b
cafe
2c1f
0000
0000
0130
cafe
301f
0000
0000
012b
cafe
341f
0000
0000
0134
cafe
381f
0000
0000
0138
cafe
3c1f
0000
0000
0137
cafe
201f
0000
0000
0131
cafe
241f
0000
0000
0139
cafe
281f
0000
0000
0140
cafe
2c1f
0000
0000
013b
cafe
301f
0000
0000
0142
cafe
341f
0000
0000
0144
-
cafe
381f
0000
0000
0137
cafe
3c1f
0000
0000
0138
cafe
201f
0000
0000
014a
cafe
241f
0000
0000
014b
cafe
281f
0000
0000
014a
cafe
2c1f
0000
0000
014c
cafe
301f
0000
0000
0144
cafe
341f
0000
0000
013b
cafe
381f
0000
0000
012e
cafe
3c1f
0000
0000
0127
cafe
201f
0000
0000
0129
cafe
241f
0000
0000
012e
cafe
281f
0000
0000
0126
cafe
2c1f
0000
0000
011f
cafe
301f
0000
0000
011c
cafe
341f
0000
0000
0118
cafe
381f
0000
0000
0114
cafe
3c1f
0000
0000
0111
cafe
201f
0000
0000
0117
cafe
241f
0000
0000
0119
cafe
281f
0000
0000
011a
cafe
2c1f
0000
0000
0126
cafe
301f
0000
0000
0116
cafe
341f
0000
0000
011c
cafe
381f
0000
0000
0128
cafe
3c1f
0000
0000
0133
cafe
201f
0000
0000
0131
cafe
241f
0000
0000
013f
cafe
281f
0000
0000
013f
cafe
2c1f
0000
0000
0143
cafe
301f
0000
0000
013f
cafe
341f
0000
0000
0142
cafe
381f
0000
0000
0146
cafe
3c1f
0000
0000
014d
cafe
201f
0000
0000
014f
cafe
241f
0000
0000
0152
cafe
281f
0000
0000
0158
cafe
2c1f
0000
0000
0152
cafe
301f
0000
0000
0150
cafe
341f
0000
0000
014e
cafe
381f
0000
0000
013b
cafe
3c1f
0000
0000
0136
cafe
201f
0000
0000
012c
cafe
241f
0000
0000
012c
cafe
281f
0000
0000
012a
cafe
2c1f
0000
0000
0120
cafe
301f
0000
0000
0125
cafe
341f
0000
0000
012b
cafe
381f
0000
0000
012d
cafe
3c1f
0000
0000
0125
cafe
201f
0000
0000
0123
cafe
-
241f
0000
0000
0126
cafe
281f
0000
0000
011b
cafe
2c1f
0000
0000
011b
cafe
301f
0000
0000
011b
cafe
341f
0000
0000
0116
cafe
381f
0000
0000
0123
cafe
3c1f
0000
0000
012d
cafe
201f
0000
0000
0132
cafe
241f
0000
0000
0137
cafe
281f
0000
0000
013a
cafe
2c1f
0000
0000
0144
cafe
301f
0000
0000
0148
cafe
341f
0000
0000
0145
cafe
381f
0000
0000
013e
cafe
3c1f
0000
0000
0143
cafe
201f
0000
0000
0140
cafe
241f
0000
0000
0146
cafe
281f
0000
0000
0148
cafe
2c1f
0000
0000
014b
cafe
301f
0000
0000
014d
cafe
341f
0000
0000
0149
cafe
381f
0000
0000
0142
cafe
3c1f
0000
0000
0142
cafe
201f
0000
0000
0136
cafe
241f
0000
0000
0131
cafe
281f
0000
0000
0136
cafe
2c1f
0000
0000
0132
cafe
301f
0000
0000
0128
cafe
341f
0000
0000
0123
cafe
381f
0000
0000
0125
cafe
3c1f
0000
0000
012b
cafe
201f
0000
0000
0130
cafe
241f
0000
0000
0125
cafe
281f
0000
0000
012b
cafe
2c1f
0000
0000
012d
cafe
301f
0000
0000
0132
cafe
341f
0000
0000
0132
cafe
381f
0000
0000
0122
cafe
3c1f
0000
0000
0127
cafe
201f
0000
0000
0130
cafe
241f
0000
0000
0134
cafe
281f
0000
0000
013c
cafe
2c1f
0000
0000
013f
cafe
301f
0000
0000
0146
cafe
341f
0000
0000
0148
cafe
381f
0000
0000
014c
cafe
3c1f
0000
0000
014a
cafe
201f
0000
0000
0146
cafe
241f
0000
0000
0150
cafe
281f
0000
0000
0151
cafe
2c1f
0000
0000
0158
cafe
301f
-
0000
0000
0152
cafe
341f
0000
0000
0150
cafe
381f
0000
0000
013e
cafe
3c1f
0000
0000
013f
cafe
201f
0000
0000
0143
cafe
241f
0000
0000
013a
cafe
281f
0000
0000
0139
cafe
2c1f
0000
0000
0132
cafe
301f
0000
0000
0132
cafe
341f
0000
0000
0126
cafe
381f
0000
0000
0121
cafe
3c1f
0000
0000
011e
cafe
201f
0000
0000
0122
cafe
241f
0000
0000
0120
cafe
281f
0000
0000
0117
cafe
2c1f
0000
0000
0121
cafe
301f
0000
0000
0129
cafe
341f
0000
0000
0125
cafe
381f
0000
0000
012d
cafe
3c1f
0000
0000
0136
cafe
201f
0000
0000
013e
cafe
241f
0000
0000
0145
cafe
281f
0000
0000
0140
cafe
2c1f
0000
0000
0148
cafe
301f
0000
0000
0147
cafe
341f
0000
0000
0154
cafe
381f
0000
0000
0150
cafe
3c1f
0000
0000
0140
cafe
201f
0000
0000
0145
cafe
241f
0000
0000
014e
cafe
281f
0000
0000
0146
cafe
2c1f
0000
0000
0144
cafe
301f
0000
0000
013d
cafe
341f
0000
0000
013d
cafe
381f
0000
0000
012f
cafe
3c1f
0000
0000
0125
cafe
201f
0000
0000
012d
cafe
241f
0000
0000
012c
cafe
281f
0000
0000
0128
cafe
2c1f
0000
0000
012d
cafe
301f
0000
0000
0129
cafe
341f
0000
0000
012f
cafe
381f
0000
0000
0133
cafe
3c1f
0000
0000
0130
cafe
201f
0000
0000
012e
cafe
241f
0000
0000
0129
cafe
281f
0000
0000
0128
cafe
2c1f
0000
0000
0123
cafe
301f
0000
0000
011c
cafe
341f
0000
0000
011c
cafe
381f
0000
0000
0113
cafe
3c1f
0000
-
0000
0117
cafe
201f
0000
0000
0114
cafe
241f
0000
0000
011c
cafe
281f
0000
0000
011f
cafe
2c1f
0000
0000
012d
cafe
301f
0000
0000
013a
cafe
341f
0000
0000
013d
cafe
381f
0000
0000
0148
cafe
3c1f
0000
0000
0147
cafe
201f
0000
0000
0150
cafe
241f
0000
0000
0158
cafe
281f
0000
0000
0153
cafe
2c1f
0000
0000
014c
cafe
301f
0000
0000
0147
cafe
341f
0000
0000
014e
cafe
381f
0000
0000
0151
cafe
3c1f
0000
0000
0140
cafe
201f
0000
0000
013d
cafe
241f
0000
0000
0133
cafe
281f
0000
0000
0139
cafe
2c1f
0000
0000
0138
cafe
301f
0000
0000
012d
cafe
341f
0000
0000
0127
cafe
381f
0000
0000
012b
cafe
3c1f
0000
0000
011f
cafe
201f
0000
0000
010f
cafe
241f
0000
0000
0117
cafe
281f
0000
0000
0114
cafe
2c1f
0000
0000
0115
cafe
301f
0000
0000
010c
cafe
341f
0000
0000
010e
cafe
381f
0000
0000
0110
cafe
3c1f
0000
0000
0117
cafe
201f
0000
0000
0113
cafe
241f
0000
0000
011d
cafe
281f
0000
0000
0123
cafe
2c1f
0000
0000
012e
cafe
301f
0000
0000
0129
cafe
341f
0000
0000
0133
cafe
381f
0000
0000
0135
cafe
3c1f
0000
0000
0135
cafe
201f
0000
0000
0137
cafe
241f
0000
0000
0135
cafe
281f
0000
0000
0136
cafe
2c1f
0000
0000
0140
cafe
301f
0000
0000
0140
cafe
341f
0000
0000
0146
cafe
381f
0000
0000
0145
cafe
3c1f
0000
0000
013a
cafe
201f
0000
0000
0133
cafe
241f
0000
0000
013b
cafe
281f
0000
0000
-
0135
cafe
2c1f
0000
0000
0133
cafe
301f
0000
0000
0122
cafe
341f
0000
0000
012d
cafe
381f
0000
0000
012a
cafe
3c1f
0000
0000
0122
cafe
201f
0000
0000
011e
cafe
241f
0000
0000
0122
cafe
281f
0000
0000
0121
cafe
2c1f
0000
0000
011f
cafe
301f
0000
0000
0123
cafe
341f
0000
0000
0126
cafe
381f
0000
0000
0125
cafe
3c1f
0000
0000
0125
cafe
201f
0000
0000
0125
cafe
241f
0000
0000
0134
cafe
281f
0000
0000
013f
cafe
2c1f
0000
0000
013f
cafe
301f
0000
0000
0140
cafe
341f
0000
0000
013b
cafe
381f
0000
0000
0140
cafe
3c1f
0000
0000
0148
cafe
201f
0000
0000
0145
cafe
241f
0000
0000
0147
cafe
281f
0000
0000
013a
cafe
2c1f
0000
0000
0140
cafe
301f
0000
0000
014c
cafe
341f
0000
0000
014d
cafe
381f
0000
0000
0142
cafe
3c1f
0000
0000
013f
cafe
201f
0000
0000
012c
cafe
241f
0000
0000
012c
cafe
281f
0000
0000
012c
cafe
2c1f
0000
0000
0125
cafe
301f
0000
0000
011e
cafe
341f
0000
0000
0121
cafe
381f
0000
0000
011f
cafe
3c1f
0000
0000
0123
cafe
201f
0000
0000
0122
cafe
241f
0000
0000
0125
cafe
281f
0000
0000
0123
cafe
2c1f
0000
0000
0122
cafe
301f
0000
0000
0129
cafe
341f
0000
0000
011d
cafe
381f
0000
0000
0118
cafe
3c1f
0000
0000
011d
cafe
201f
0000
0000
0116
cafe
241f
0000
0000
011f
cafe
281f
0000
0000
0125
cafe
2c1f
0000
0000
0131
cafe
301f
0000
0000
0130
cafe
341f
0000
0000
012e
-
