2c13
0000
0000
0152
cafe
300c
0000
0000
0132
cafe
341c
0000
0000
00f3
cafe
3804
0000
0000
00e8
cafe
3c14
0000
0000
0158
cafe
200d
0000
0000
0175
cafe
241d
0000
0000
0104
cafe
2805
0000
0000
006e
cafe
2c15
0000
0000
0119
cafe
300e
0000
0000
0086
cafe
341e
0000
0000
011d
cafe
3806
0000
0000
0083
cafe
3c16
0000
0000
0124
cafe
200f
0000
0000
012b
cafe
241f
0000
0000
00cd
cafe
2807
0000
0000
0103
cafe
2c17
0000
0000
00d7
cafe
3008
0000
0000
011c
cafe
3418
0000
0000
0166
cafe
3800
0000
0000
016c
cafe
3c10
0000
0000
0123
cafe
2009
0000
0000
00e0
cafe
2419
0000
0000
012f
cafe
2801
0000
0000
014d
cafe
2c11
0000
0000
00ae
cafe
300a
0000
0000
00c0
cafe
341a
0000
0000
011b
cafe
3802
0000
0000
0096
cafe
3c12
0000
0000
0119
cafe
200b
0000
0000
00e1
cafe
241b
0000
0000
00ff
cafe
2803
0000
0000
015e
cafe
2c13
0000
0000
0123
cafe
300c
0000
0000
0171
cafe
341c
0000
0000
0100
cafe
3804
0000
0000
010d
cafe
3c14
0000
0000
0177
cafe
200d
0000
0000
0167
cafe
241d
0000
0000
0101
cafe
2805
0000
0000
0074
cafe
2c15
0000
0000
011f
cafe
300e
0000
0000
006b
cafe
341e
0000
0000
0113
cafe
3806
0000
0000
0071
cafe
3c16
0000
0000
0104
cafe
200f
0000
0000
014e
cafe
241f
0000
0000
00d7
cafe
2807
0000
0000
0101
cafe
2c17
0000
0000
00f1
cafe
3008
0000
0000
0131
cafe
3418
0000
0000
0185
cafe
3800
-
0000
0000
0158
cafe
3c10
0000
0000
0146
cafe
2009
0000
0000
00c7
cafe
2419
0000
0000
0112
cafe
2801
0000
0000
0166
cafe
2c11
0000
0000
0082
cafe
300a
0000
0000
00d1
cafe
341a
0000
0000
0105
cafe
3802
0000
0000
008b
cafe
3c12
0000
0000
011c
cafe
200b
0000
0000
0101
cafe
241b
0000
0000
00fb
cafe
2803
0000
0000
0172
cafe
2c13
0000
0000
0143
cafe
300c
0000
0000
0154
cafe
341c
0000
0000
00fd
cafe
3804
0000
0000
00fc
cafe
3c14
0000
0000
016b
cafe
200d
0000
0000
0152
cafe
241d
0000
0000
0104
cafe
2805
0000
0000
0069
cafe
2c15
0000
0000
010b
cafe
300e
0000
0000
009b
cafe
341e
0000
0000
012f
cafe
3806
0000
0000
0091
cafe
3c16
0000
0000
0122
cafe
200f
0000
0000
0156
cafe
241f
0000
0000
00bf
cafe
2807
0000
0000
00f3
cafe
2c17
0000
0000
00e3
cafe
3008
0000
0000
0106
cafe
3418
0000
0000
0156
cafe
3800
0000
0000
014d
cafe
3c10
0000
0000
010a
cafe
2009
0000
0000
00de
cafe
2419
0000
0000
0132
cafe
2801
0000
0000
015b
cafe
2c11
0000
0000
00a6
cafe
300a
0000
0000
00d9
cafe
341a
0000
0000
0113
cafe
3802
0000
0000
0083
cafe
3c12
0000
0000
0125
cafe
200b
0000
0000
00db
cafe
241b
0000
0000
010a
cafe
2803
0000
0000
0175
cafe
2c13
0000
0000
0113
cafe
300c
0000
0000
014a
cafe
341c
0000
0000
00fe
cafe
3804
0000
0000
0102
cafe
3c14
0000
0000
0170
cafe
200d
0000
0000
0180
cafe
241d
0000
-
0000
0106
cafe
2805
0000
0000
0086
cafe
2c15
0000
0000
012f
cafe
300e
0000
0000
006b
cafe
341e
0000
0000
0124
cafe
3806
0000
0000
007e
cafe
3c16
0000
0000
0116
cafe
200f
0000
0000
0141
cafe
241f
0000
0000
00c2
cafe
2807
0000
0000
00eb
cafe
2c17
0000
0000
00cb
cafe
3008
0000
0000
013f
cafe
3418
0000
0000
017e
cafe
3800
0000
0000
016a
cafe
3c10
0000
0000
0147
cafe
2009
0000
0000
00d1
cafe
2419
0000
0000
0127
cafe
2801
0000
0000
0161
cafe
2c11
0000
0000
0089
cafe
300a
0000
0000
00a5
cafe
341a
0000
0000
00ff
cafe
3802
0000
0000
009e
cafe
3c12
0000
0000
010e
cafe
200b
0000
0000
00f8
cafe
241b
0000
0000
0105
cafe
2803
0000
0000
016d
cafe
2c13
0000
0000
0147
cafe
300c
0000
0000
015a
cafe
341c
0000
0000
0108
cafe
3804
0000
0000
0103
cafe
3c14
0000
0000
016e
cafe
200d
0000
0000
0143
cafe
241d
0000
0000
0102
cafe
2805
0000
0000
005f
cafe
2c15
0000
0000
0102
cafe
300e
0000
0000
0087
cafe
341e
0000
0000
012a
cafe
3806
0000
0000
008b
cafe
3c16
0000
0000
011e
cafe
200f
0000
0000
015c
cafe
241f
0000
0000
00c0
cafe
2807
0000
0000
00f4
cafe
2c17
0000
0000
00e1
cafe
3008
0000
0000
010e
cafe
3418
0000
0000
0170
cafe
3800
0000
0000
0160
cafe
3c10
0000
0000
0113
cafe
2009
0000
0000
00d2
cafe
2419
0000
0000
0126
cafe
2801
0000
0000
0155
cafe
2c11
0000
0000
0096
cafe
300a
0000
0000
-
00ea
cafe
341a
0000
0000
010b
cafe
3802
0000
0000
00a1
cafe
3c12
0000
0000
013d
cafe
200b
0000
0000
010b
cafe
241b
0000
0000
00fb
cafe
2803
0000
0000
0167
cafe
2c13
0000
0000
013b
cafe
300c
0000
0000
013d
cafe
341c
0000
0000
00f9
cafe
3804
0000
0000
00fc
cafe
3c14
0000
0000
0143
cafe
200d
0000
0000
017a
cafe
241d
0000
0000
0103
cafe
2805
0000
0000
0086
cafe
2c15
0000
0000
0135
cafe
300e
0000
0000
0078
cafe
341e
0000
0000
011f
cafe
3806
0000
0000
0081
cafe
3c16
0000
0000
0121
cafe
200f
0000
0000
0138
cafe
241f
0000
0000
00b8
cafe
2807
0000
0000
00e3
cafe
2c17
0000
0000
00d6
cafe
3008
0000
0000
0131
cafe
3418
0000
0000
017b
cafe
3800
0000
0000
016a
cafe
3c10
0000
0000
012f
cafe
2009
0000
0000
00dd
cafe
2419
0000
0000
0130
cafe
2801
0000
0000
0157
cafe
2c11
0000
0000
00ae
cafe
300a
0000
0000
00bb
cafe
341a
0000
0000
00f9
cafe
3802
0000
0000
0096
cafe
3c12
0000
0000
0118
cafe
200b
0000
0000
00ea
cafe
241b
0000
0000
0105
cafe
2803
0000
0000
015e
cafe
2c13
0000
0000
0136
cafe
300c
0000
0000
0166
cafe
341c
0000
0000
00f6
cafe
3804
0000
0000
0118
cafe
3c14
0000
0000
0174
cafe
200d
0000
0000
015c
cafe
241d
0000
0000
010e
cafe
2805
0000
0000
007c
cafe
2c15
0000
0000
011c
cafe
300e
0000
0000
0063
cafe
341e
0000
0000
0123
cafe
3806
0000
0000
006c
cafe
3c16
0000
0000
0117
-
cafe
200f
0000
0000
015e
cafe
241f
0000
0000
00ca
cafe
2807
0000
0000
010e
cafe
2c17
0000
0000
00f0
cafe
3008
0000
0000
012b
cafe
3418
0000
0000
0179
cafe
3800
0000
0000
016f
cafe
3c10
0000
0000
0138
cafe
2009
0000
0000
00ad
cafe
2419
0000
0000
011b
cafe
2801
0000
0000
0160
cafe
2c11
0000
0000
006f
cafe
300a
0000
0000
00e6
cafe
341a
0000
0000
0107
cafe
3802
0000
0000
0095
cafe
3c12
0000
0000
0124
cafe
200b
0000
0000
00f5
cafe
241b
0000
0000
0107
cafe
2803
0000
0000
016a
cafe
2c13
0000
0000
0143
cafe
300c
0000
0000
0131
cafe
341c
0000
0000
00f5
cafe
3804
0000
0000
00eb
cafe
3c14
0000
0000
0141
cafe
200d
0000
0000
0159
cafe
241d
0000
0000
010d
cafe
2805
0000
0000
0069
cafe
2c15
0000
0000
011e
cafe
300e
0000
0000
0091
cafe
341e
0000
0000
0124
cafe
3806
0000
0000
0092
cafe
3c16
0000
0000
013f
cafe
200f
0000
0000
014e
cafe
241f
0000
0000
00d7
cafe
2807
0000
0000
00ee
cafe
2c17
0000
0000
00ce
cafe
3008
0000
0000
0111
cafe
3418
0000
0000
0177
cafe
3800
0000
0000
0169
cafe
3c10
0000
0000
0123
cafe
2009
0000
0000
00ee
cafe
2419
0000
0000
0125
cafe
2801
0000
0000
015b
cafe
2c11
0000
0000
00a2
cafe
300a
0000
0000
00d4
cafe
341a
0000
0000
0104
cafe
3802
0000
0000
00a1
cafe
3c12
0000
0000
0115
cafe
200b
0000
0000
00d7
cafe
241b
0000
0000
0105
cafe
2803
0000
0000
015a
cafe
-
2c13
0000
0000
0121
cafe
300c
0000
0000
0162
cafe
341c
0000
0000
00fb
cafe
3804
0000
0000
010e
cafe
3c14
0000
0000
016d
cafe
200d
0000
0000
016d
cafe
241d
0000
0000
0105
cafe
2805
0000
0000
0072
cafe
2c15
0000
0000
013e
cafe
300e
0000
0000
005d
cafe
341e
0000
0000
0116
cafe
3806
0000
0000
006a
cafe
3c16
0000
0000
0123
cafe
200f
0000
0000
0159
cafe
241f
0000
0000
00d8
cafe
2807
0000
0000
00e5
cafe
2c17
0000
0000
00d5
cafe
3008
0000
0000
0129
cafe
3418
0000
0000
0172
cafe
3800
0000
0000
0170
cafe
3c10
0000
0000
0137
cafe
2009
0000
0000
00d5
cafe
2419
0000
0000
0127
cafe
2801
0000
0000
0158
cafe
2c11
0000
0000
0074
cafe
300a
0000
0000
00c7
cafe
341a
0000
0000
0101
cafe
3802
0000
0000
00b3
cafe
3c12
0000
0000
0105
cafe
200b
0000
0000
010a
cafe
241b
0000
0000
00f7
cafe
2803
0000
0000
0171
cafe
2c13
0000
0000
0145
cafe
300c
0000
0000
015b
cafe
341c
0000
0000
0106
cafe
3804
0000
0000
0107
cafe
3c14
0000
0000
0163
cafe
200d
0000
0000
014e
cafe
241d
0000
0000
0100
cafe
2805
0000
0000
005f
cafe
2c15
0000
0000
011b
cafe
300e
0000
0000
0092
cafe
341e
0000
0000
0119
cafe
3806
0000
0000
008c
cafe
3c16
0000
0000
013b
cafe
200f
0000
0000
0158
cafe
241f
0000
0000
00df
cafe
2807
0000
0000
0100
cafe
2c17
0000
0000
00ff
cafe
3008
0000
0000
0111
cafe
3418
0000
0000
0165
cafe
3800
-
0000
0000
016d
cafe
3c10
0000
0000
0107
cafe
2009
0000
0000
00de
cafe
2419
0000
0000
011b
cafe
2801
0000
0000
015d
cafe
2c11
0000
0000
0090
cafe
300a
0000
0000
00d1
cafe
341a
0000
0000
010a
cafe
3802
0000
0000
009e
cafe
3c12
0000
0000
012f
cafe
200b
0000
0000
00d8
cafe
241b
0000
0000
00fb
cafe
2803
0000
0000
0162
cafe
2c13
0000
0000
012f
cafe
300c
0000
0000
014c
cafe
341c
0000
0000
00ef
cafe
3804
0000
0000
00f8
cafe
3c14
0000
0000
0165
cafe
200d
0000
0000
016d
cafe
241d
0000
0000
0109
cafe
2805
0000
0000
008b
cafe
2c15
0000
0000
013a
cafe
300e
0000
0000
0076
cafe
341e
0000
0000
012b
cafe
3806
0000
0000
0079
cafe
3c16
0000
0000
0113
cafe
200f
0000
0000
0138
cafe
241f
0000
0000
00cb
cafe
2807
0000
0000
00f3
cafe
2c17
0000
0000
00ea
cafe
3008
0000
0000
012b
cafe
3418
0000
0000
017b
cafe
3800
0000
0000
0167
cafe
3c10
0000
0000
0134
cafe
2009
0000
0000
00dd
cafe
2419
0000
0000
0119
cafe
2801
0000
0000
0161
cafe
2c11
0000
0000
0095
cafe
300a
0000
0000
00ae
cafe
341a
0000
0000
010e
cafe
3802
0000
0000
00a1
cafe
3c12
0000
0000
0106
cafe
200b
0000
0000
00dd
cafe
241b
0000
0000
00fa
cafe
2803
0000
0000
0159
cafe
2c13
0000
0000
0141
cafe
300c
0000
0000
0161
cafe
341c
0000
0000
00f6
cafe
3804
0000
0000
0103
cafe
3c14
0000
0000
016f
cafe
200d
0000
0000
015e
cafe
241d
0000
-
0000
00fd
cafe
2805
0000
0000
0063
cafe
2c15
0000
0000
0117
cafe
300e
0000
0000
0078
cafe
341e
0000
0000
011d
cafe
3806
0000
0000
0080
cafe
3c16
0000
0000
011a
cafe
200f
0000
0000
0170
cafe
241f
0000
0000
00c6
cafe
2807
0000
0000
0109
cafe
2c17
0000
0000
010d
cafe
3008
0000
0000
011b
cafe
3418
0000
0000
0162
cafe
3800
0000
0000
015d
cafe
3c10
0000
0000
0128
cafe
2009
0000
0000
00d1
cafe
2419
0000
0000
010c
cafe
2801
0000
0000
0157
cafe
2c11
0000
0000
0085
cafe
300a
0000
0000
00c2
cafe
341a
0000
0000
0108
cafe
3802
0000
0000
0099
cafe
3c12
0000
0000
0124
cafe
200b
0000
0000
00ef
cafe
241b
0000
0000
00f3
cafe
2803
0000
0000
0165
cafe
2c13
0000
0000
0130
cafe
300c
0000
0000
0141
cafe
341c
0000
0000
00fa
cafe
3804
0000
0000
00f2
cafe
3c14
0000
0000
0156
cafe
200d
0000
0000
014f
cafe
241d
0000
0000
0110
cafe
2805
0000
0000
006a
cafe
2c15
0000
0000
0121
cafe
300e
0000
0000
0094
cafe
341e
0000
0000
012e
cafe
3806
0000
0000
007f
cafe
3c16
0000
0000
0122
cafe
200f
0000
0000
0142
cafe
241f
0000
0000
00ca
cafe
2807
0000
0000
00f4
cafe
2c17
0000
0000
00d4
cafe
3008
0000
0000
010f
cafe
3418
0000
0000
015a
cafe
3800
0000
0000
0155
cafe
3c10
0000
0000
00ff
cafe
2009
0000
0000
00e2
cafe
2419
0000
0000
011f
cafe
2801
0000
0000
0168
cafe
2c11
0000
0000
0088
cafe
300a
0000
0000
-
00aa
cafe
341a
0000
0000
00e8
cafe
3802
0000
0000
008c
cafe
3c12
0000
0000
00fc
cafe
200b
0000
0000
00e2
cafe
241b
0000
0000
0109
cafe
2803
0000
0000
0162
cafe
2c13
0000
0000
011a
cafe
300c
0000
0000
015a
cafe
341c
0000
0000
00fc
cafe
3804
0000
0000
0101
cafe
3c14
0000
0000
0171
cafe
200d
0000
0000
0165
cafe
241d
0000
0000
0101
cafe
2805
0000
0000
006b
cafe
2c15
0000
0000
0125
cafe
300e
0000
0000
0077
cafe
341e
0000
0000
011e
cafe
3806
0000
0000
0070
cafe
3c16
0000
0000
0115
cafe
200f
0000
0000
0173
cafe
241f
0000
0000
00db
cafe
2807
0000
0000
010d
cafe
2c17
0000
0000
00f5
cafe
3008
0000
0000
0135
cafe
3418
0000
0000
016a
cafe
3800
0000
0000
0155
cafe
3c10
0000
0000
011f
cafe
2009
0000
0000
00c7
cafe
2419
0000
0000
0111
cafe
2801
0000
0000
0161
cafe
2c11
0000
0000
007b
cafe
300a
0000
0000
00dc
cafe
341a
0000
0000
00fc
cafe
3802
0000
0000
00a7
cafe
3c12
0000
0000
0136
cafe
200b
0000
0000
00f0
cafe
241b
0000
0000
0103
cafe
2803
0000
0000
0162
cafe
2c13
0000
0000
0140
cafe
300c
0000
0000
0131
cafe
341c
0000
0000
00fb
cafe
3804
0000
0000
00db
cafe
3c14
0000
0000
0155
cafe
200d
0000
0000
0162
cafe
241d
0000
0000
0111
cafe
2805
0000
0000
006b
cafe
2c15
0000
0000
0113
cafe
300e
0000
0000
009f
cafe
341e
0000
0000
010d
cafe
3806
0000
0000
007d
cafe
3c16
0000
0000
0139
-
cafe
200f
0000
0000
0147
cafe
241f
0000
0000
00d0
cafe
2807
0000
0000
00ee
cafe
2c17
0000
0000
00d5
cafe
3008
0000
0000
010f
cafe
3418
0000
0000
0173
cafe
3800
0000
0000
0158
cafe
3c10
0000
0000
011a
cafe
2009
0000
0000
00f9
cafe
2419
0000
0000
011f
cafe
2801
0000
0000
015a
cafe
2c11
0000
0000
00b5
cafe
300a
0000
0000
00de
cafe
341a
0000
0000
0112
cafe
3802
0000
0000
00af
cafe
3c12
0000
0000
012d
cafe
200b
0000
0000
00cf
cafe
241b
0000
0000
0106
cafe
2803
0000
0000
0161
cafe
2c13
0000
0000
0122
cafe
300c
0000
0000
0159
cafe
341c
0000
0000
00ff
cafe
3804
0000
0000
00fc
cafe
3c14
0000
0000
0168
cafe
200d
0000
0000
0171
cafe
241d
0000
0000
0109
cafe
2805
0000
0000
0070
cafe
2c15
0000
0000
012d
cafe
300e
0000
0000
006a
cafe
341e
0000
0000
011d
cafe
3806
0000
0000
0067
cafe
3c16
0000
0000
010b
cafe
200f
0000
0000
0157
cafe
241f
0000
0000
00d9
cafe
2807
0000
0000
00f9
cafe
2c17
0000
0000
00eb
cafe
3008
0000
0000
0140
cafe
3418
0000
0000
0173
cafe
3800
0000
0000
0166
cafe
3c10
0000
0000
0138
cafe
2009
0000
0000
00df
cafe
2419
0000
0000
010e
cafe
2801
0000
0000
015f
cafe
2c11
0000
0000
0099
cafe
300a
0000
0000
00ba
cafe
341a
0000
0000
011b
cafe
3802
0000
0000
009c
cafe
3c12
0000
0000
0114
cafe
200b
0000
0000
00ed
cafe
241b
0000
0000
0103
cafe
2803
0000
0000
015b
cafe
-
2c13
0000
0000
014b
cafe
300c
0000
0000
013e
cafe
341c
0000
0000
00f5
cafe
3804
0000
0000
00f3
cafe
3c14
0000
0000
0164
cafe
200d
0000
0000
0158
cafe
241d
0000
0000
010c
cafe
2805
0000
0000
006a
cafe
2c15
0000
0000
011c
cafe
300e
0000
0000
0084
cafe
341e
0000
0000
0117
cafe
3806
0000
0000
0087
cafe
3c16
0000
0000
0121
cafe
200f
0000
0000
0160
cafe
241f
0000
0000
00d9
cafe
2807
0000
0000
00f9
cafe
2c17
0000
0000
00f3
cafe
3008
0000
0000
0119
cafe
3418
0000
0000
0168
cafe
3800
0000
0000
0159
cafe
3c10
0000
0000
011a
cafe
2009
0000
0000
00d9
cafe
2419
0000
0000
012f
cafe
2801
0000
0000
0160
cafe
2c11
0000
0000
0092
cafe
300a
0000
0000
00e2
cafe
341a
0000
0000
010e
cafe
3802
0000
0000
00a4
cafe
3c12
0000
0000
012d
cafe
200b
0000
0000
00d3
cafe
241b
0000
0000
00f0
cafe
2803
0000
0000
016c
cafe
2c13
0000
0000
0126
cafe
300c
0000
0000
0135
cafe
341c
0000
0000
0107
cafe
3804
0000
0000
00fb
cafe
3c14
0000
0000
015c
cafe
200d
0000
0000
0182
cafe
241d
0000
0000
00fb
cafe
2805
0000
0000
0074
cafe
2c15
0000
0000
013c
cafe
300e
0000
0000
006f
cafe
341e
0000
0000
0117
cafe
3806
0000
0000
0083
cafe
3c16
0000
0000
0117
cafe
200f
0000
0000
040f
cafe
241f
0000
0000
03b9
cafe
2807
0000
0000
03a6
cafe
2c17
0000
0000
03b5
cafe
3008
0000
0000
07ba
cafe
3418
0000
0000
081c
cafe
3800
-
0000
0000
07e2
cafe
3c10
0000
0000
07dd
cafe
2009
0000
0000
08af
cafe
2419
0000
0000
08e5
cafe
2801
0000
0000
0900
cafe
2c11
0000
0000
0859
cafe
300a
0000
0000
08be
cafe
341a
0000
0000
08e1
cafe
3802
0000
0000
0868
cafe
3c12
0000
0000
090e
cafe
200b
0000
0000
08f9
cafe
241b
0000
0000
08c0
cafe
2803
0000
0000
093d
cafe
2c13
0000
0000
0965
cafe
300c
0000
0000
0979
cafe
341c
0000
0000
08d1
cafe
3804
0000
0000
08e7
cafe
3c14
0000
0000
0992
cafe
200d
0000
0000
096e
cafe
241d
0000
0000
08ad
cafe
2805
0000
0000
0828
cafe
2c15
0000
0000
092c
cafe
300e
0000
0000
0844
cafe
341e
0000
0000
08b8
cafe
3806
0000
0000
083b
cafe
3c16
0000
0000
08e7
cafe
200f
0000
0000
097c
cafe
241f
0000
0000
086a
cafe
2807
0000
0000
08c1
cafe
2c17
0000
0000
08af
cafe
3008
0000
0000
08fd
cafe
3418
0000
0000
0936
cafe
3800
0000
0000
08c5
cafe
3c10
0000
0000
093c
cafe
2009
0000
0000
08a9
cafe
2419
0000
0000
08cb
cafe
2801
0000
0000
08b9
cafe
2c11
0000
0000
0885
cafe
300a
0000
0000
0862
cafe
341a
0000
0000
087e
cafe
3802
0000
0000
07e7
cafe
3c12
0000
0000
08c3
cafe
200b
0000
0000
0886
cafe
241b
0000
0000
084d
cafe
2803
0000
0000
08db
cafe
2c13
0000
0000
08e0
cafe
300c
0000
0000
091b
cafe
341c
0000
0000
085d
cafe
3804
0000
0000
087b
cafe
3c14
0000
0000
0915
cafe
200d
0000
0000
0929
cafe
241d
0000
-
0000
0838
cafe
2805
0000
0000
07ce
cafe
2c15
0000
0000
08d8
cafe
300e
0000
0000
07d5
cafe
341e
0000
0000
083f
cafe
3806
0000
0000
07bd
cafe
3c16
0000
0000
0864
cafe
200f
0000
0000
089e
cafe
241f
0000
0000
07ed
cafe
2807
0000
0000
080d
cafe
2c17
0000
0000
07fd
cafe
3008
0000
0000
0864
cafe
3418
0000
0000
089b
cafe
3800
0000
0000
0845
cafe
3c10
0000
0000
0895
cafe
2009
0000
0000
0836
cafe
2419
0000
0000
0854
cafe
2801
0000
0000
0850
cafe
2c11
0000
0000
081d
cafe
300a
0000
0000
07f2
cafe
341a
0000
0000
0802
cafe
3802
0000
0000
077d
cafe
3c12
0000
0000
0847
cafe
200b
0000
0000
07e7
cafe
241b
0000
0000
07ce
cafe
2803
0000
0000
084d
cafe
2c13
0000
0000
083a
cafe
300c
0000
0000
0891
cafe
341c
0000
0000
07d7
cafe
3804
0000
0000
07f3
cafe
3c14
0000
0000
0898
cafe
200d
0000
0000
089c
cafe
241d
0000
0000
07d4
cafe
2805
0000
0000
073c
cafe
2c15
0000
0000
0850
cafe
300e
0000
0000
0771
cafe
341e
0000
0000
07c0
cafe
3806
0000
0000
0751
cafe
3c16
0000
0000
0804
cafe
200f
0000
0000
0840
cafe
241f
0000
0000
0787
cafe
2807
0000
0000
07a0
cafe
2c17
0000
0000
0791
cafe
3008
0000
0000
07fa
cafe
3418
0000
0000
082d
cafe
3800
0000
0000
07e5
cafe
3c10
0000
0000
0830
cafe
2009
0000
0000
07aa
cafe
2419
0000
0000
07e9
cafe
2801
0000
0000
07e5
cafe
2c11
0000
0000
07b2
cafe
300a
0000
0000
-
07ac
cafe
341a
0000
0000
079d
cafe
3802
0000
0000
0705
cafe
3c12
0000
0000
07fc
cafe
200b
0000
0000
077c
cafe
241b
0000
0000
075e
cafe
2803
0000
0000
07e2
cafe
2c13
0000
0000
07c4
cafe
300c
0000
0000
07fa
cafe
341c
0000
0000
0769
cafe
3804
0000
0000
0782
cafe
3c14
0000
0000
07fc
cafe
200d
0000
0000
0835
cafe
241d
0000
0000
0764
cafe
2805
0000
0000
06ca
cafe
2c15
0000
0000
07e3
cafe
300e
0000
0000
0703
cafe
341e
0000
0000
074a
cafe
3806
0000
0000
06f2
cafe
3c16
0000
0000
079f
cafe
200f
0000
0000
07d3
cafe
241f
0000
0000
0711
cafe
2807
0000
0000
0734
cafe
2c17
0000
0000
0725
cafe
3008
0000
0000
0766
cafe
3418
0000
0000
07c2
cafe
3800
0000
0000
076b
cafe
3c10
0000
0000
0789
cafe
2009
0000
0000
073c
cafe
2419
0000
0000
0767
cafe
2801
0000
0000
076d
cafe
2c11
0000
0000
0743
cafe
300a
0000
0000
0748
cafe
341a
0000
0000
0726
cafe
3802
0000
0000
06a7
cafe
3c12
0000
0000
079c
cafe
200b
0000
0000
0714
cafe
241b
0000
0000
06fc
cafe
2803
0000
0000
0763
cafe
2c13
0000
0000
077f
cafe
300c
0000
0000
076e
cafe
341c
0000
0000
06e9
cafe
3804
0000
0000
0707
cafe
3c14
0000
0000
0786
cafe
200d
0000
0000
07b2
cafe
241d
0000
0000
06f6
cafe
2805
0000
0000
0654
cafe
2c15
0000
0000
0777
cafe
300e
0000
0000
06b5
cafe
341e
0000
0000
06e7
cafe
3806
0000
0000
068b
cafe
3c16
0000
0000
0741
-
cafe
200f
0000
0000
077f
cafe
241f
0000
0000
06ab
cafe
2807
0000
0000
06c7
cafe
2c17
0000
0000
06ba
cafe
3008
0000
0000
06e5
cafe
3418
0000
0000
0754
cafe
3800
0000
0000
06ff
cafe
3c10
0000
0000
0703
cafe
2009
0000
0000
06c7
cafe
2419
0000
0000
06ee
cafe
2801
0000
0000
0715
cafe
2c11
0000
0000
06b8
cafe
300a
0000
0000
06d2
cafe
341a
0000
0000
06b5
cafe
3802
0000
0000
0649
cafe
3c12
0000
0000
0742
cafe
200b
0000
0000
06c4
cafe
241b
0000
0000
06a2
cafe
2803
0000
0000
0715
cafe
2c13
0000
0000
0719
cafe
300c
0000
0000
06ed
cafe
341c
0000
0000
0687
cafe
3804
0000
0000
0697
cafe
3c14
0000
0000
0720
cafe
200d
0000
0000
074d
cafe
241d
0000
0000
0693
cafe
2805
0000
0000
05f9
cafe
2c15
0000
0000
0701
cafe
300e
0000
0000
0642
cafe
341e
0000
0000
0685
cafe
3806
0000
0000
0628
cafe
3c16
0000
0000
06ec
cafe
200f
0000
0000
073e
cafe
241f
0000
0000
0639
cafe
2807
0000
0000
0689
cafe
2c17
0000
0000
065e
cafe
3008
0000
0000
067f
cafe
3418
0000
0000
06ec
cafe
3800
0000
0000
06a1
cafe
3c10
0000
0000
06bf
cafe
2009
0000
0000
064b
cafe
2419
0000
0000
0698
cafe
2801
0000
0000
06a2
cafe
2c11
0000
0000
0638
cafe
300a
0000
0000
0681
cafe
341a
0000
0000
065e
cafe
3802
0000
0000
05ec
cafe
3c12
0000
0000
06dd
cafe
200b
0000
0000
067c
cafe
241b
0000
0000
063b
cafe
2803
0000
0000
06c1
cafe
-
2c13
0000
0000
06dc
cafe
300c
0000
0000
0698
cafe
341c
0000
0000
0633
cafe
3804
0000
0000
0645
cafe
3c14
0000
0000
06c9
cafe
200d
0000
0000
06cc
cafe
241d
0000
0000
0642
cafe
2805
0000
0000
0577
cafe
2c15
0000
0000
0672
cafe
300e
0000
0000
05e3
cafe
341e
0000
0000
0615
cafe
3806
0000
0000
05c4
cafe
3c16
0000
0000
068b
cafe
200f
0000
0000
06fe
cafe
241f
0000
0000
05db
cafe
2807
0000
0000
061a
cafe
2c17
0000
0000
0619
cafe
3008
0000
0000
0631
cafe
3418
0000
0000
0697
cafe
3800
0000
0000
0642
cafe
3c10
0000
0000
0668
cafe
2009
0000
0000
05d3
cafe
2419
0000
0000
0629
cafe
2801
0000
0000
064f
cafe
2c11
0000
0000
05bd
cafe
300a
0000
0000
05fd
cafe
341a
0000
0000
05f9
cafe
3802
0000
0000
058f
cafe
3c12
0000
0000
0660
cafe
200b
0000
0000
0632
cafe
241b
0000
0000
05d4
cafe
2803
0000
0000
0651
cafe
2c13
0000
0000
0679
cafe
300c
0000
0000
063d
cafe
341c
0000
0000
05d2
cafe
3804
0000
0000
05e0
cafe
3c14
0000
0000
0679
cafe
200d
0000
0000
065d
cafe
241d
0000
0000
05e5
cafe
2805
0000
0000
0502
cafe
2c15
0000
0000
060b
cafe
300e
0000
0000
057c
cafe
341e
0000
0000
05bc
cafe
3806
0000
0000
0558
cafe
3c16
0000
0000
061d
cafe
200f
0000
0000
06ab
cafe
241f
0000
0000
0583
cafe
2807
0000
0000
05c8
cafe
2c17
0000
0000
05bd
cafe
3008
0000
0000
05f3
cafe
3418
0000
0000
063f
cafe
3800
-
0000
0000
060a
cafe
3c10
0000
0000
062b
cafe
2009
0000
0000
0582
cafe
2419
0000
0000
05c5
cafe
2801
0000
0000
05f2
cafe
2c11
0000
0000
055d
cafe
300a
0000
0000
059e
cafe
341a
0000
0000
05a3
cafe
3802
0000
0000
0523
cafe
3c12
0000
0000
05f8
cafe
200b
0000
0000
05db
cafe
241b
0000
0000
058b
cafe
2803
0000
0000
0616
cafe
2c13
0000
0000
0625
cafe
300c
0000
0000
061c
cafe
341c
0000
0000
0589
cafe
3804
0000
0000
059a
cafe
3c14
0000
0000
062f
cafe
200d
0000
0000
0608
cafe
241d
0000
0000
0581
cafe
2805
0000
0000
04b8
cafe
2c15
0000
0000
05bf
cafe
300e
0000
0000
04e7
cafe
341e
0000
0000
056e
cafe
3806
0000
0000
04d7
cafe
3c16
0000
0000
05b0
cafe
200f
0000
0000
063e
cafe
241f
0000
0000
0527
cafe
2807
0000
0000
0577
cafe
2c17
0000
0000
055a
cafe
3008
0000
0000
05a5
cafe
3418
0000
0000
05fe
cafe
3800
0000
0000
05ab
cafe
3c10
0000
0000
05e9
cafe
2009
0000
0000
053a
cafe
2419
0000
0000
0570
cafe
2801
0000
0000
05a3
cafe
2c11
0000
0000
052b
cafe
300a
0000
0000
0519
cafe
341a
0000
0000
0546
cafe
3802
0000
0000
04d2
cafe
3c12
0000
0000
0587
cafe
200b
0000
0000
0579
cafe
241b
0000
0000
053e
cafe
2803
0000
0000
05ba
cafe
2c13
0000
0000
05cb
cafe
300c
0000
0000
05e4
cafe
341c
0000
0000
0534
cafe
3804
0000
0000
0551
cafe
3c14
0000
0000
05f4
cafe
200d
0000
0000
05cb
cafe
241d
0000
-
0000
0539
cafe
2805
0000
0000
0480
cafe
2c15
0000
0000
0581
cafe
300e
0000
0000
0488
cafe
341e
0000
0000
0526
cafe
3806
0000
0000
0492
cafe
3c16
0000
0000
054b
cafe
200f
0000
0000
05d6
cafe
241f
0000
0000
04d4
cafe
2807
0000
0000
0515
cafe
2c17
0000
0000
0507
cafe
3008
0000
0000
0550
cafe
3418
0000
0000
05be
cafe
3800
0000
0000
053f
cafe
3c10
0000
0000
059f
cafe
2009
0000
0000
0501
cafe
2419
0000
0000
0532
cafe
2801
0000
0000
0551
cafe
2c11
0000
0000
04fe
cafe
300a
0000
0000
04e1
cafe
341a
0000
0000
04e7
cafe
3802
0000
0000
0479
cafe
3c12
0000
0000
0524
cafe
200b
0000
0000
0517
cafe
241b
0000
0000
04ea
cafe
2803
0000
0000
0576
cafe
2c13
0000
0000
0570
cafe
300c
0000
0000
0594
cafe
341c
0000
0000
04e6
cafe
3804
0000
0000
04fd
cafe
3c14
0000
0000
05b8
cafe
200d
0000
0000
05b0
cafe
241d
0000
0000
04f6
cafe
2805
0000
0000
043b
cafe
2c15
0000
0000
0546
cafe
300e
0000
0000
0451
cafe
341e
0000
0000
04bb
cafe
3806
0000
0000
0434
cafe
3c16
0000
0000
04fa
cafe
200f
0000
0000
053f
cafe
241f
0000
0000
0492
cafe
2807
0000
0000
04b8
cafe
2c17
0000
0000
04ab
cafe
3008
0000
0000
050b
cafe
3418
0000
0000
055c
cafe
3800
0000
0000
050d
cafe
3c10
0000
0000
0546
cafe
2009
0000
0000
04c9
cafe
2419
0000
0000
04f7
cafe
2801
0000
0000
051b
cafe
2c11
0000
0000
04d4
cafe
300a
0000
0000
-
04ad
cafe
341a
0000
0000
04b0
cafe
3802
0000
0000
042b
cafe
3c12
0000
0000
04fb
cafe
200b
0000
0000
0493
cafe
241b
0000
0000
04a7
cafe
2803
0000
0000
051c
cafe
2c13
0000
0000
04f9
cafe
300c
0000
0000
053f
cafe
341c
0000
0000
049d
cafe
3804
0000
0000
04c5
cafe
3c14
0000
0000
056c
cafe
200d
0000
0000
0576
cafe
241d
0000
0000
0497
cafe
2805
0000
0000
03f2
cafe
2c15
0000
0000
0512
cafe
300e
0000
0000
041d
cafe
341e
0000
0000
0477
cafe
3806
0000
0000
040f
cafe
3c16
0000
0000
04d1
cafe
200f
0000
0000
04ee
cafe
241f
0000
0000
043b
cafe
2807
0000
0000
0459
cafe
2c17
0000
0000
044e
cafe
3008
0000
0000
04b2
cafe
3418
0000
0000
050c
cafe
3800
0000
0000
04c1
cafe
3c10
0000
0000
04d6
cafe
2009
0000
0000
0484
cafe
2419
0000
0000
04cf
cafe
2801
0000
0000
04d6
cafe
2c11
0000
0000
049d
cafe
300a
0000
0000
0477
cafe
341a
0000
0000
046e
cafe
3802
0000
0000
03f7
cafe
3c12
0000
0000
04d7
cafe
200b
0000
0000
0464
cafe
241b
0000
0000
0461
cafe
2803
0000
0000
04dc
cafe
2c13
0000
0000
04bf
cafe
300c
0000
0000
04c9
cafe
341c
0000
0000
0459
cafe
3804
0000
0000
046a
cafe
3c14
0000
0000
04eb
cafe
200d
0000
0000
0520
cafe
241d
0000
0000
0463
cafe
2805
0000
0000
03b2
cafe
2c15
0000
0000
04de
cafe
300e
0000
0000
03fc
cafe
341e
0000
0000
0440
cafe
3806
0000
0000
03e5
cafe
3c16
0000
0000
04a2
-
cafe
200f
0000
0000
04cf
cafe
241f
0000
0000
0407
cafe
2807
0000
0000
0440
cafe
2c17
0000
0000
041a
cafe
3008
0000
0000
0450
cafe
3418
0000
0000
04af
cafe
3800
0000
0000
0480
cafe
3c10
0000
0000
046d
cafe
2009
0000
0000
042c
cafe
2419
0000
0000
047f
cafe
2801
0000
0000
0490
cafe
2c11
0000
0000
0430
cafe
300a
0000
0000
0450
cafe
341a
0000
0000
042d
cafe
3802
0000
0000
03bf
cafe
3c12
0000
0000
04b4
cafe
200b
0000
0000
0426
cafe
241b
0000
0000
0423
cafe
2803
0000
0000
04a0
cafe
2c13
0000
0000
047e
cafe
300c
0000
0000
0467
cafe
341c
0000
0000
041c
cafe
3804
0000
0000
041a
cafe
3c14
0000
0000
048f
cafe
200d
0000
0000
04c1
cafe
241d
0000
0000
0422
cafe
2805
0000
0000
035e
cafe
2c15
0000
0000
0469
cafe
300e
0000
0000
03a4
cafe
341e
0000
0000
0408
cafe
3806
0000
0000
039e
cafe
3c16
0000
0000
045e
cafe
200f
0000
0000
0491
cafe
241f
0000
0000
03c4
cafe
2807
0000
0000
0404
cafe
2c17
0000
0000
03f2
cafe
3008
0000
0000
03ed
cafe
3418
0000
0000
0477
cafe
3800
0000
0000
0441
cafe
3c10
0000
0000
041f
cafe
2009
0000
0000
03da
cafe
2419
0000
0000
0415
cafe
2801
0000
0000
044d
cafe
2c11
0000
0000
03cf
cafe
300a
0000
0000
03f9
cafe
341a
0000
0000
03fc
cafe
3802
0000
0000
0381
cafe
3c12
0000
0000
0476
cafe
200b
0000
0000
0416
cafe
241b
0000
0000
03e5
cafe
2803
0000
0000
046a
cafe
-
2c13
0000
0000
0468
cafe
300c
0000
0000
043f
cafe
341c
0000
0000
03df
cafe
3804
0000
0000
03c6
cafe
3c14
0000
0000
0457
cafe
200d
0000
0000
047b
cafe
241d
0000
0000
03e8
cafe
2805
0000
0000
0321
cafe
2c15
0000
0000
0423
cafe
300e
0000
0000
039b
cafe
341e
0000
0000
03d0
cafe
3806
0000
0000
0384
cafe
3c16
0000
0000
0430
cafe
200f
0000
0000
048f
cafe
241f
0000
0000
038f
cafe
2807
0000
0000
03c8
cafe
2c17
0000
0000
03c1
cafe
3008
0000
0000
03e3
cafe
3418
0000
0000
0445
cafe
3800
0000
0000
0411
cafe
3c10
0000
0000
03fd
cafe
2009
0000
0000
0381
cafe
2419
0000
0000
03e1
cafe
2801
0000
0000
0408
cafe
2c11
0000
0000
0373
cafe
300a
0000
0000
03cd
cafe
341a
0000
0000
03c7
cafe
3802
0000
0000
0339
cafe
3c12
0000
0000
0454
cafe
200b
0000
0000
03dd
cafe
241b
0000
0000
03b1
cafe
2803
0000
0000
0427
cafe
2c13
0000
0000
0438
cafe
300c
0000
0000
0430
cafe
341c
0000
0000
03a1
cafe
3804
0000
0000
03b3
cafe
3c14
0000
0000
043b
cafe
200d
0000
0000
0419
cafe
241d
0000
0000
03b5
cafe
2805
0000
0000
02db
cafe
2c15
0000
0000
03c9
cafe
300e
0000
0000
0326
cafe
341e
0000
0000
0396
cafe
3806
0000
0000
0325
cafe
3c16
0000
0000
03db
cafe
200f
0000
0000
0444
cafe
241f
0000
0000
0355
cafe
2807
0000
0000
03a6
cafe
2c17
0000
0000
03b0
cafe
3008
0000
0000
03cd
cafe
3418
0000
0000
040f
cafe
3800
-
0000
0000
03e5
cafe
3c10
0000
0000
03ee
cafe
2009
0000
0000
0357
cafe
2419
0000
0000
03a9
cafe
2801
0000
0000
03d9
cafe
2c11
0000
0000
033a
cafe
300a
0000
0000
0375
cafe
341a
0000
0000
0383
cafe
3802
0000
0000
02f7
cafe
3c12
0000
0000
03f0
cafe
200b
0000
0000
03ad
cafe
241b
0000
0000
037c
cafe
2803
0000
0000
0405
cafe
2c13
0000
0000
041f
cafe
300c
0000
0000
0415
cafe
341c
0000
0000
0370
cafe
3804
0000
0000
0389
cafe
3c14
0000
0000
0418
cafe
200d
0000
0000
03fd
cafe
241d
0000
0000
0384
cafe
2805
0000
0000
02b1
cafe
2c15
0000
0000
0392
cafe
300e
0000
0000
02e1
cafe
341e
0000
0000
036b
cafe
3806
0000
0000
02db
cafe
3c16
0000
0000
03a7
cafe
200f
0000
0000
0427
cafe
241f
0000
0000
0322
cafe
2807
0000
0000
038e
cafe
2c17
0000
0000
0364
cafe
3008
0000
0000
03a1
cafe
3418
0000
0000
03f1
cafe
3800
0000
0000
039f
cafe
3c10
0000
0000
03cb
cafe
2009
0000
0000
0336
cafe
2419
0000
0000
0382
cafe
2801
0000
0000
03ab
cafe
2c11
0000
0000
0320
cafe
300a
0000
0000
031c
cafe
341a
0000
0000
036b
cafe
3802
0000
0000
02c3
cafe
3c12
0000
0000
038b
cafe
200b
0000
0000
0361
cafe
241b
0000
0000
0352
cafe
2803
0000
0000
03cf
cafe
2c13
0000
0000
03d0
cafe
300c
0000
0000
03f5
cafe
341c
0000
0000
0337
cafe
3804
0000
0000
0364
cafe
3c14
0000
0000
03f9
cafe
200d
0000
0000
03d4
cafe
241d
0000
-
0000
0362
cafe
2805
0000
0000
02a0
cafe
2c15
0000
0000
0390
cafe
300e
0000
0000
028a
cafe
341e
0000
0000
033d
cafe
3806
0000
0000
02a6
cafe
3c16
0000
0000
035d
cafe
200f
0000
0000
03c8
cafe
241f
0000
0000
02ed
cafe
2807
0000
0000
033d
cafe
2c17
0000
0000
0325
cafe
3008
0000
0000
037b
cafe
3418
0000
0000
03cb
cafe
3800
0000
0000
036e
cafe
3c10
0000
0000
03a8
cafe
2009
0000
0000
032f
cafe
2419
0000
0000
035b
cafe
2801
0000
0000
038e
cafe
2c11
0000
0000
031f
cafe
300a
0000
0000
02f2
cafe
341a
0000
0000
0338
cafe
3802
0000
0000
02a8
cafe
3c12
0000
0000
0371
cafe
200b
0000
0000
0305
cafe
241b
0000
0000
031e
cafe
2803
0000
0000
0391
cafe
2c13
0000
0000
0378
cafe
300c
0000
0000
03ca
cafe
341c
0000
0000
031b
cafe
3804
0000
0000
032d
cafe
3c14
0000
0000
03d2
cafe
200d
0000
0000
03e6
cafe
241d
0000
0000
0329
cafe
2805
0000
0000
0283
cafe
2c15
0000
0000
0383
cafe
300e
0000
0000
0274
cafe
341e
0000
0000
0310
cafe
3806
0000
0000
028e
cafe
3c16
0000
0000
0350
cafe
200f
0000
0000
036c
cafe
241f
0000
0000
02d5
cafe
2807
0000
0000
02df
cafe
2c17
0000
0000
02db
cafe
3008
0000
0000
0345
cafe
3418
0000
0000
0399
cafe
3800
0000
0000
0348
cafe
3c10
0000
0000
0371
cafe
2009
0000
0000
02fe
cafe
2419
0000
0000
0332
cafe
2801
0000
0000
0359
cafe
2c11
0000
0000
02fa
cafe
300a
0000
0000
-
02ef
cafe
341a
0000
0000
030c
cafe
3802
0000
0000
028f
cafe
3c12
0000
0000
0359
cafe
200b
0000
0000
02cf
cafe
241b
0000
0000
02e5
cafe
2803
0000
0000
0366
cafe
2c13
0000
0000
032d
cafe
300c
0000
0000
0363
cafe
341c
0000
0000
02f2
cafe
3804
0000
0000
0303
cafe
3c14
0000
0000
037e
cafe
200d
0000
0000
03b6
cafe
241d
0000
0000
02fa
cafe
2805
0000
0000
0258
cafe
2c15
0000
0000
035b
cafe
300e
0000
0000
0275
cafe
341e
0000
0000
02ef
cafe
3806
0000
0000
0263
cafe
3c16
0000
0000
0347
cafe
200f
0000
0000
0370
cafe
241f
0000
0000
02a5
cafe
2807
0000
0000
02bb
cafe
2c17
0000
0000
02ae
cafe
3008
0000
0000
0305
cafe
3418
0000
0000
0368
cafe
3800
0000
0000
0326
cafe
3c10
0000
0000
0316
cafe
2009
0000
0000
02dd
cafe
2419
0000
0000
030d
cafe
2801
0000
0000
0333
cafe
2c11
0000
0000
02d1
cafe
300a
0000
0000
0301
cafe
341a
0000
0000
02e1
cafe
3802
0000
0000
0272
cafe
3c12
0000
0000
035d
cafe
200b
0000
0000
02d4
cafe
241b
0000
0000
02d0
cafe
2803
0000
0000
0347
cafe
2c13
0000
0000
0340
cafe
300c
0000
0000
0315
cafe
341c
0000
0000
02bc
cafe
3804
0000
0000
02cf
cafe
3c14
0000
0000
033f
cafe
200d
0000
0000
0352
cafe
241d
0000
0000
02d1
cafe
2805
0000
0000
01ff
cafe
2c15
0000
0000
030d
cafe
300e
0000
0000
024c
cafe
341e
0000
0000
02be
cafe
3806
0000
0000
024e
cafe
3c16
0000
0000
032c
-
cafe
200f
0000
0000
0353
cafe
241f
0000
0000
0285
cafe
2807
0000
0000
02a8
cafe
2c17
0000
0000
0298
cafe
3008
0000
0000
02d5
cafe
3418
0000
0000
0329
cafe
3800
0000
0000
02e8
cafe
3c10
0000
0000
02d1
cafe
2009
0000
0000
028c
cafe
2419
0000
0000
02e5
cafe
2801
0000
0000
031a
cafe
2c11
0000
0000
0280
cafe
300a
0000
0000
02ce
cafe
341a
0000
0000
02c7
cafe
3802
0000
0000
025b
cafe
3c12
0000
0000
0318
cafe
200b
0000
0000
02ba
cafe
241b
0000
0000
02b0
cafe
2803
0000
0000
031c
cafe
2c13
0000
0000
0324
cafe
300c
0000
0000
02e9
cafe
341c
0000
0000
02a2
cafe
3804
0000
0000
02a6
cafe
3c14
0000
0000
0322
cafe
200d
0000
0000
031a
cafe
241d
0000
0000
02ae
cafe
2805
0000
0000
01e6
cafe
2c15
0000
0000
02cd
cafe
300e
0000
0000
023a
cafe
341e
0000
0000
028a
cafe
3806
0000
0000
0246
cafe
3c16
0000
0000
02f5
cafe
200f
0000
0000
0346
cafe
241f
0000
0000
0274
cafe
2807
0000
0000
02b1
cafe
2c17
0000
0000
0297
cafe
3008
0000
0000
02bb
cafe
3418
0000
0000
031d
cafe
3800
0000
0000
02ca
cafe
3c10
0000
0000
02d1
cafe
2009
0000
0000
0242
cafe
2419
0000
0000
02a5
cafe
2801
0000
0000
02f1
cafe
2c11
0000
0000
0235
cafe
300a
0000
0000
029d
cafe
341a
0000
0000
029a
cafe
3802
0000
0000
020c
cafe
3c12
0000
0000
02e1
cafe
200b
0000
0000
02b2
cafe
241b
0000
0000
0288
cafe
2803
0000
0000
031d
cafe
-
2c13
0000
0000
0325
cafe
300c
0000
0000
02f7
cafe
341c
0000
0000
0274
cafe
3804
0000
0000
029b
cafe
3c14
0000
0000
0315
cafe
200d
0000
0000
02e2
cafe
241d
0000
0000
0289
cafe
2805
0000
0000
01c4
cafe
2c15
0000
0000
029f
cafe
300e
0000
0000
01f1
cafe
341e
0000
0000
0283
cafe
3806
0000
0000
01f4
cafe
3c16
0000
0000
02c1
cafe
200f
0000
0000
0321
cafe
241f
0000
0000
0233
cafe
2807
0000
0000
028c
cafe
2c17
0000
0000
027a
cafe
3008
0000
0000
02ab
cafe
3418
0000
0000
0307
cafe
3800
0000
0000
0299
cafe
3c10
0000
0000
02e4
cafe
2009
0000
0000
0222
cafe
2419
0000
0000
0285
cafe
2801
0000
0000
02de
cafe
2c11
0000
0000
0212
cafe
300a
0000
0000
023a
cafe
341a
0000
0000
027f
cafe
3802
0000
0000
01f7
cafe
3c12
0000
0000
029d
cafe
200b
0000
0000
028d
cafe
241b
0000
0000
025b
cafe
2803
0000
0000
02ea
cafe
2c13
0000
0000
02f0
cafe
300c
0000
0000
0300
cafe
341c
0000
0000
0268
cafe
3804
0000
0000
0266
cafe
3c14
0000
0000
0322
cafe
200d
0000
0000
02d6
cafe
241d
0000
0000
026d
cafe
2805
0000
0000
01b0
cafe
2c15
0000
0000
0292
cafe
300e
0000
0000
01a5
cafe
341e
0000
0000
025b
cafe
3806
0000
0000
01c3
cafe
3c16
0000
0000
027e
cafe
200f
0000
0000
02f9
cafe
241f
0000
0000
0227
cafe
2807
0000
0000
025c
cafe
2c17
0000
0000
0256
cafe
3008
0000
0000
02ab
cafe
3418
0000
0000
02f5
cafe
3800
-
0000
0000
0284
cafe
3c10
0000
0000
02ce
cafe
2009
0000
0000
0223
cafe
2419
0000
0000
0281
cafe
2801
0000
0000
02b5
cafe
2c11
0000
0000
0221
cafe
300a
0000
0000
0225
cafe
341a
0000
0000
025b
cafe
3802
0000
0000
01d3
cafe
3c12
0000
0000
0271
cafe
200b
0000
0000
0252
cafe
241b
0000
0000
023e
cafe
2803
0000
0000
02c4
cafe
2c13
0000
0000
02a9
cafe
300c
0000
0000
02e8
cafe
341c
0000
0000
0244
cafe
3804
0000
0000
0256
cafe
3c14
0000
0000
0301
cafe
200d
0000
0000
02de
cafe
241d
0000
0000
0251
cafe
2805
0000
0000
01a9
cafe
2c15
0000
0000
0290
cafe
300e
0000
0000
0188
cafe
341e
0000
0000
0257
cafe
3806
0000
0000
0199
cafe
3c16
0000
0000
0264
cafe
200f
0000
0000
029b
cafe
241f
0000
0000
020e
cafe
2807
0000
0000
021d
cafe
2c17
0000
0000
020f
cafe
3008
0000
0000
0277
cafe
3418
0000
0000
02ca
cafe
3800
0000
0000
0262
cafe
3c10
0000
0000
029e
cafe
2009
0000
0000
0236
cafe
2419
0000
0000
0279
cafe
2801
0000
0000
029e
cafe
2c11
0000
0000
022f
cafe
300a
0000
0000
0232
cafe
341a
0000
0000
0243
cafe
3802
0000
0000
01b7
cafe
3c12
0000
0000
0284
cafe
200b
0000
0000
01f3
cafe
241b
0000
0000
0219
cafe
2803
0000
0000
02a4
cafe
2c13
0000
0000
025b
cafe
300c
0000
0000
02a5
cafe
341c
0000
0000
023c
cafe
3804
0000
0000
022c
cafe
3c14
0000
0000
02cc
cafe
200d
0000
0000
02d9
cafe
241d
0000
-
0000
0238
cafe
2805
0000
0000
0191
cafe
2c15
0000
0000
027d
cafe
300e
0000
0000
01a3
cafe
341e
0000
0000
021f
cafe
3806
0000
0000
01aa
cafe
3c16
0000
0000
0260
cafe
200f
0000
0000
0283
cafe
241f
0000
0000
01f5
cafe
2807
0000
0000
01f5
cafe
2c17
0000
0000
01de
cafe
3008
0000
0000
0247
cafe
3418
0000
0000
02a8
cafe
3800
0000
0000
0256
cafe
3c10
0000
0000
0269
cafe
2009
0000
0000
01f9
cafe
2419
0000
0000
0255
cafe
2801
0000
0000
027f
cafe
2c11
0000
0000
01ed
cafe
300a
0000
0000
01ff
cafe
341a
0000
0000
0229
cafe
3802
0000
0000
01b5
cafe
3c12
0000
0000
0275
cafe
200b
0000
0000
01e4
cafe
241b
0000
0000
020d
cafe
2803
0000
0000
0282
cafe
2c13
0000
0000
0241
cafe
300c
0000
0000
0272
cafe
341c
0000
0000
020e
cafe
3804
0000
0000
0201
cafe
3c14
0000
0000
0299
cafe
200d
0000
0000
02c0
cafe
241d
0000
0000
021f
cafe
2805
0000
0000
017b
cafe
2c15
0000
0000
0272
cafe
300e
0000
0000
019f
cafe
341e
0000
0000
0214
cafe
3806
0000
0000
0192
cafe
3c16
0000
0000
024f
cafe
200f
0000
0000
026d
cafe
241f
0000
0000
01c2
cafe
2807
0000
0000
01e7
cafe
2c17
0000
0000
01cb
cafe
3008
0000
0000
022c
cafe
3418
0000
0000
0287
cafe
3800
0000
0000
0239
cafe
3c10
0000
0000
023c
cafe
2009
0000
0000
0207
cafe
2419
0000
0000
023d
cafe
2801
0000
0000
0273
cafe
2c11
0000
0000
01eb
cafe
300a
0000
0000
-
0213
cafe
341a
0000
0000
0219
cafe
3802
0000
0000
019d
cafe
3c12
0000
0000
026f
cafe
200b
0000
0000
01fa
cafe
241b
0000
0000
01ff
cafe
2803
0000
0000
0284
cafe
2c13
0000
0000
0250
cafe
300c
0000
0000
0234
cafe
341c
0000
0000
01fb
cafe
3804
0000
0000
01dd
cafe
3c14
0000
0000
026c
cafe
200d
0000
0000
027f
cafe
241d
0000
0000
020e
cafe
2805
0000
0000
0161
cafe
2c15
0000
0000
0250
cafe
300e
0000
0000
01ac
cafe
341e
0000
0000
01ee
cafe
3806
0000
0000
01a0
cafe
3c16
0000
0000
023b
cafe
200f
0000
0000
027b
cafe
241f
0000
0000
01b6
cafe
2807
0000
0000
01e0
cafe
2c17
0000
0000
01e0
cafe
3008
0000
0000
01f5
cafe
3418
0000
0000
026f
cafe
3800
0000
0000
0225
cafe
3c10
0000
0000
01fa
cafe
2009
0000
0000
01c4
cafe
2419
0000
0000
01fd
cafe
2801
0000
0000
0253
cafe
2c11
0000
0000
01b2
cafe
300a
0000
0000
0205
cafe
341a
0000
0000
0204
cafe
3802
0000
0000
0193
cafe
3c12
0000
0000
0265
cafe
200b
0000
0000
020c
cafe
241b
0000
0000
01e2
cafe
2803
0000
0000
026e
cafe
2c13
0000
0000
0263
cafe
300c
0000
0000
0236
cafe
341c
0000
0000
01e4
cafe
3804
0000
0000
01d4
cafe
3c14
0000
0000
0256
cafe
200d
0000
0000
0242
cafe
241d
0000
0000
01ff
cafe
2805
0000
0000
0126
cafe
2c15
0000
0000
021e
cafe
300e
0000
0000
016b
cafe
341e
0000
0000
01e2
cafe
3806
0000
0000
016a
cafe
3c16
0000
0000
0233
-
cafe
200f
0000
0000
0279
cafe
241f
0000
0000
0193
cafe
2807
0000
0000
01ef
cafe
2c17
0000
0000
01e5
cafe
3008
0000
0000
0204
cafe
3418
0000
0000
0275
cafe
3800
0000
0000
021c
cafe
3c10
0000
0000
0210
cafe
2009
0000
0000
019e
cafe
2419
0000
0000
01dc
cafe
2801
0000
0000
022e
cafe
2c11
0000
0000
017a
cafe
300a
0000
0000
01de
cafe
341a
0000
0000
01df
cafe
3802
0000
0000
0179
cafe
3c12
0000
0000
0232
cafe
200b
0000
0000
01f1
cafe
241b
0000
0000
01dd
cafe
2803
0000
0000
0254
cafe
2c13
0000
0000
0253
cafe
300c
0000
0000
0248
cafe
341c
0000
0000
01e4
cafe
3804
0000
0000
01ed
cafe
3c14
0000
0000
025a
cafe
200d
0000
0000
0213
cafe
241d
0000
0000
01dd
cafe
2805
0000
0000
0107
cafe
2c15
0000
0000
01f2
cafe
300e
0000
0000
0146
cafe
341e
0000
0000
01c9
cafe
3806
0000
0000
0141
cafe
3c16
0000
0000
0206
cafe
200f
0000
0000
026c
cafe
241f
0000
0000
0184
cafe
2807
0000
0000
01de
cafe
2c17
0000
0000
01c9
cafe
3008
0000
0000
0203
cafe
3418
0000
0000
0266
cafe
3800
0000
0000
020d
cafe
3c10
0000
0000
0235
cafe
2009
0000
0000
0197
cafe
2419
0000
0000
01c1
cafe
2801
0000
0000
0223
cafe
2c11
0000
0000
0157
cafe
300a
0000
0000
0197
cafe
341a
0000
0000
01be
cafe
3802
0000
0000
0147
cafe
3c12
0000
0000
01ee
cafe
200b
0000
0000
01db
cafe
241b
0000
0000
01cd
cafe
2803
0000
0000
0241
cafe
-
2c13
0000
0000
022d
cafe
300c
0000
0000
024b
cafe
341c
0000
0000
01be
cafe
3804
0000
0000
01c1
cafe
3c14
0000
0000
0270
cafe
200d
0000
0000
0229
cafe
241d
0000
0000
01ce
cafe
2805
0000
0000
0116
cafe
2c15
0000
0000
01d9
cafe
300e
0000
0000
00fe
cafe
341e
0000
0000
01ae
cafe
3806
0000
0000
0109
cafe
3c16
0000
0000
01d7
cafe
200f
0000
0000
0227
cafe
241f
0000
0000
0181
cafe
2807
0000
0000
01c2
cafe
2c17
0000
0000
01a7
cafe
3008
0000
0000
01f8
cafe
3418
0000
0000
024f
cafe
3800
0000
0000
01f5
cafe
3c10
0000
0000
0231
cafe
2009
0000
0000
019e
cafe
2419
0000
0000
01cd
cafe
2801
0000
0000
0215
cafe
2c11
0000
0000
017b
cafe
300a
0000
0000
0176
cafe
341a
0000
0000
01cc
cafe
3802
0000
0000
013c
cafe
3c12
0000
0000
01d3
cafe
200b
0000
0000
0194
cafe
241b
0000
0000
01b1
cafe
2803
0000
0000
0229
cafe
2c13
0000
0000
01ff
cafe
300c
0000
0000
0241
cafe
341c
0000
0000
01ac
cafe
3804
0000
0000
01ca
cafe
3c14
0000
0000
0257
cafe
200d
0000
0000
0241
cafe
241d
0000
0000
01b7
cafe
2805
0000
0000
010b
cafe
2c15
0000
0000
01f7
cafe
300e
0000
0000
010a
cafe
341e
0000
0000
01b5
cafe
3806
0000
0000
010d
cafe
3c16
0000
0000
01c0
cafe
200f
0000
0000
01f8
cafe
241f
0000
0000
015a
cafe
2807
0000
0000
0199
cafe
2c17
0000
0000
0173
cafe
3008
0000
0000
01ef
cafe
3418
0000
0000
0249
cafe
3800
-
0000
0000
01de
cafe
3c10
0000
0000
020b
cafe
2009
0000
0000
01ac
cafe
2419
0000
0000
01d6
cafe
2801
0000
0000
01fd
cafe
2c11
0000
0000
018e
cafe
300a
0000
0000
017f
cafe
341a
0000
0000
01a8
cafe
3802
0000
0000
0146
cafe
3c12
0000
0000
01d5
cafe
200b
0000
0000
0172
cafe
241b
0000
0000
01a3
cafe
2803
0000
0000
0214
cafe
2c13
0000
0000
01e5
cafe
300c
0000
0000
021d
cafe
341c
0000
0000
019f
cafe
3804
0000
0000
01b3
cafe
3c14
0000
0000
021e
cafe
200d
0000
0000
024e
cafe
241d
0000
0000
019e
cafe
2805
0000
0000
0101
cafe
2c15
0000
0000
01f4
cafe
300e
0000
0000
0141
cafe
341e
0000
0000
01a6
cafe
3806
0000
0000
011f
cafe
3c16
0000
0000
01e3
cafe
200f
0000
0000
01ec
cafe
241f
0000
0000
015b
cafe
2807
0000
0000
0181
cafe
2c17
0000
0000
016d
cafe
3008
0000
0000
01b0
cafe
3418
0000
0000
0214
cafe
3800
0000
0000
01cb
cafe
3c10
0000
0000
01aa
cafe
2009
0000
0000
0186
cafe
2419
0000
0000
01bc
cafe
2801
0000
0000
01f1
cafe
2c11
0000
0000
0161
cafe
300a
0000
0000
019e
cafe
341a
0000
0000
01a6
cafe
3802
0000
0000
012f
cafe
3c12
0000
0000
01eb
cafe
200b
0000
0000
016e
cafe
241b
0000
0000
0182
cafe
2803
0000
0000
01ff
cafe
2c13
0000
0000
01ce
cafe
300c
0000
0000
01c7
cafe
341c
0000
0000
0183
cafe
3804
0000
0000
0177
cafe
3c14
0000
0000
01eb
cafe
200d
0000
0000
021e
cafe
241d
0000
-
0000
018f
cafe
2805
0000
0000
00eb
cafe
2c15
0000
0000
01df
cafe
300e
0000
0000
0138
cafe
341e
0000
0000
01a3
cafe
3806
0000
0000
0127
cafe
3c16
0000
0000
01d4
cafe
200f
0000
0000
01fe
cafe
241f
0000
0000
0149
cafe
2807
0000
0000
0185
cafe
2c17
0000
0000
0179
cafe
3008
0000
0000
0183
cafe
3418
0000
0000
0202
cafe
3800
0000
0000
01b2
cafe
3c10
0000
0000
018d
cafe
2009
0000
0000
0167
cafe
2419
0000
0000
019b
cafe
2801
0000
0000
01f3
cafe
2c11
0000
0000
013e
cafe
300a
0000
0000
018f
cafe
341a
0000
0000
0193
cafe
3802
0000
0000
012e
cafe
3c12
0000
0000
01ec
cafe
200b
0000
0000
018d
cafe
241b
0000
0000
0185
cafe
2803
0000
0000
01e8
cafe
2c13
0000
0000
01ec
cafe
300c
0000
0000
01c5
cafe
341c
0000
0000
018d
cafe
3804
0000
0000
0176
cafe
3c14
0000
0000
01e0
cafe
200d
0000
0000
01e2
cafe
241d
0000
0000
017d
cafe
2805
0000
0000
00cf
cafe
2c15
0000
0000
0195
cafe
300e
0000
0000
0113
cafe
341e
0000
0000
018c
cafe
3806
0000
0000
0116
cafe
3c16
0000
0000
01da
cafe
200f
0000
0000
020b
cafe
241f
0000
0000
0136
cafe
2807
0000
0000
017d
cafe
2c17
0000
0000
0179
cafe
3008
0000
0000
019c
cafe
3418
0000
0000
01ff
cafe
3800
0000
0000
01c1
cafe
3c10
0000
0000
0199
cafe
2009
0000
0000
013f
cafe
2419
0000
0000
0181
cafe
2801
0000
0000
01dd
cafe
2c11
0000
0000
010d
cafe
300a
0000
0000
-
016f
cafe
341a
0000
0000
0189
cafe
3802
0000
0000
0115
cafe
3c12
0000
0000
01c6
cafe
200b
0000
0000
018c
cafe
241b
0000
0000
0174
cafe
2803
0000
0000
01f2
cafe
2c13
0000
0000
01fb
cafe
300c
0000
0000
01d3
cafe
341c
0000
0000
016e
cafe
3804
0000
0000
017c
cafe
3c14
0000
0000
01e5
cafe
200d
0000
0000
01ba
cafe
241d
0000
0000
0185
cafe
2805
0000
0000
00a7
cafe
2c15
0000
0000
0179
cafe
300e
0000
0000
00e8
cafe
341e
0000
0000
018a
cafe
3806
0000
0000
00f6
cafe
3c16
0000
0000
0199
cafe
200f
0000
0000
01fb
cafe
241f
0000
0000
0133
cafe
2807
0000
0000
0168
cafe
2c17
0000
0000
017a
cafe
3008
0000
0000
01af
cafe
3418
0000
0000
01ff
cafe
3800
0000
0000
01bb
cafe
3c10
0000
0000
01b7
cafe
2009
0000
0000
0126
cafe
2419
0000
0000
0172
cafe
2801
0000
0000
01c1
cafe
2c11
0000
0000
00ff
cafe
300a
0000
0000
0144
cafe
341a
0000
0000
0180
cafe
3802
0000
0000
0103
cafe
3c12
0000
0000
0184
cafe
200b
0000
0000
018b
cafe
241b
0000
0000
0172
cafe
2803
0000
0000
01e4
cafe
2c13
0000
0000
01de
cafe
300c
0000
0000
01dd
cafe
341c
0000
0000
0165
cafe
3804
0000
0000
0171
cafe
3c14
0000
0000
01f3
cafe
200d
0000
0000
01d3
cafe
241d
0000
0000
0167
cafe
2805
0000
0000
00b1
cafe
2c15
0000
0000
0185
cafe
300e
0000
0000
00bf
cafe
341e
0000
0000
0171
cafe
3806
0000
0000
00c2
cafe
3c16
0000
0000
017b
-
cafe
200f
0000
0000
01e1
cafe
241f
0000
0000
0115
cafe
2807
0000
0000
0164
cafe
2c17
0000
0000
0166
cafe
3008
0000
0000
01ba
cafe
3418
0000
0000
01f5
cafe
3800
0000
0000
01b3
cafe
3c10
0000
0000
01e4
cafe
2009
0000
0000
0140
cafe
2419
0000
0000
0184
cafe
2801
0000
0000
01be
cafe
2c11
0000
0000
010e
cafe
300a
0000
0000
011b
cafe
341a
0000
0000
0167
cafe
3802
0000
0000
00e9
cafe
3c12
0000
0000
016e
cafe
200b
0000
0000
014c
cafe
241b
0000
0000
0158
cafe
2803
0000
0000
01d4
cafe
2c13
0000
0000
01c1
cafe
300c
0000
0000
01ed
cafe
341c
0000
0000
015e
cafe
3804
0000
0000
0175
cafe
3c14
0000
0000
0201
cafe
200d
0000
0000
01f4
cafe
241d
0000
0000
0162
cafe
2805
0000
0000
00cb
cafe
2c15
0000
0000
0198
cafe
300e
0000
0000
00b9
cafe
341e
0000
0000
0168
cafe
3806
0000
0000
00b3
cafe
3c16
0000
0000
015d
cafe
200f
0000
0000
019e
cafe
241f
0000
0000
0105
cafe
2807
0000
0000
0143
cafe
2c17
0000
0000
013a
cafe
3008
0000
0000
01a8
cafe
3418
0000
0000
01ed
cafe
3800
0000
0000
01b5
cafe
3c10
0000
0000
01c3
cafe
2009
0000
0000
016d
cafe
2419
0000
0000
0197
cafe
2801
0000
0000
01b9
cafe
2c11
0000
0000
0130
cafe
300a
0000
0000
0136
cafe
341a
0000
0000
015c
cafe
3802
0000
0000
00f7
cafe
3c12
0000
0000
0180
cafe
200b
0000
0000
0113
cafe
241b
0000
0000
0157
cafe
2803
0000
0000
01b3
cafe
-
2c13
0000
0000
0181
cafe
300c
0000
0000
01b3
cafe
341c
0000
0000
014f
cafe
3804
0000
0000
015d
cafe
3c14
0000
0000
01ce
cafe
200d
0000
0000
01e1
cafe
241d
0000
0000
015d
cafe
2805
0000
0000
00b7
cafe
2c15
0000
0000
01a1
cafe
300e
0000
0000
00ba
cafe
341e
0000
0000
015a
cafe
3806
0000
0000
00b4
cafe
3c16
0000
0000
015f
cafe
200f
0000
0000
0182
cafe
241f
0000
0000
010c
cafe
2807
0000
0000
0132
cafe
2c17
0000
0000
012f
cafe
3008
0000
0000
0182
cafe
3418
0000
0000
01ca
cafe
3800
0000
0000
019a
cafe
3c10
0000
0000
018f
cafe
2009
0000
0000
0153
cafe
2419
0000
0000
018c
cafe
2801
0000
0000
01a8
cafe
2c11
0000
0000
0142
cafe
300a
0000
0000
012f
cafe
341a
0000
0000
0158
cafe
3802
0000
0000
00ec
cafe
3c12
0000
0000
0175
cafe
200b
0000
0000
0113
cafe
241b
0000
0000
014e
cafe
2803
0000
0000
019f
cafe
2c13
0000
0000
0165
cafe
300c
0000
0000
0199
cafe
341c
0000
0000
0153
cafe
3804
0000
0000
0155
cafe
3c14
0000
0000
01b3
cafe
200d
0000
0000
01e2
cafe
241d
0000
0000
0152
cafe
2805
0000
0000
00b7
cafe
2c15
0000
0000
019f
cafe
300e
0000
0000
00e5
cafe
341e
0000
0000
0145
cafe
3806
0000
0000
00c2
cafe
3c16
0000
0000
0175
cafe
200f
0000
0000
01a2
cafe
241f
0000
0000
0110
cafe
2807
0000
0000
0132
cafe
2c17
0000
0000
0132
cafe
3008
0000
0000
0155
cafe
3418
0000
0000
01a7
cafe
3800
-
0000
0000
0192
cafe
3c10
0000
0000
0152
cafe
2009
0000
0000
0147
cafe
2419
0000
0000
0176
cafe
2801
0000
0000
01a1
cafe
2c11
0000
0000
0102
cafe
300a
0000
0000
0139
cafe
341a
0000
0000
0156
cafe
3802
0000
0000
00e0
cafe
3c12
0000
0000
0190
cafe
200b
0000
0000
013d
cafe
241b
0000
0000
0140
cafe
2803
0000
0000
0197
cafe
2c13
0000
0000
0183
cafe
300c
0000
0000
016d
cafe
341c
0000
0000
0140
cafe
3804
0000
0000
0120
cafe
3c14
0000
0000
018e
cafe
200d
0000
0000
01d3
cafe
241d
0000
0000
014c
cafe
2805
0000
0000
00af
cafe
2c15
0000
0000
0182
cafe
300e
0000
0000
00ee
cafe
341e
0000
0000
0155
cafe
3806
0000
0000
00bc
cafe
3c16
0000
0000
0170
cafe
200f
0000
0000
01a3
cafe
241f
0000
0000
00fb
cafe
2807
0000
0000
014b
cafe
2c17
0000
0000
0139
cafe
3008
0000
0000
014e
cafe
3418
0000
0000
01ac
cafe
3800
0000
0000
0193
cafe
3c10
0000
0000
0143
cafe
2009
0000
0000
010d
cafe
2419
0000
0000
015f
cafe
2801
0000
0000
018d
cafe
2c11
0000
0000
00d7
cafe
300a
0000
0000
0140
cafe
341a
0000
0000
014e
cafe
3802
0000
0000
00ea
cafe
3c12
0000
0000
0190
cafe
200b
0000
0000
0133
cafe
241b
0000
0000
0137
cafe
2803
0000
0000
019b
cafe
2c13
0000
0000
0187
cafe
300c
0000
0000
017d
cafe
341c
0000
0000
0134
cafe
3804
0000
0000
0132
cafe
3c14
0000
0000
0194
cafe
200d
0000
0000
018c
cafe
241d
0000
-
0000
0138
cafe
2805
0000
0000
0083
cafe
2c15
0000
0000
015d
cafe
300e
0000
0000
00e1
cafe
341e
0000
0000
0158
cafe
3806
0000
0000
00bf
cafe
3c16
0000
0000
0179
cafe
200f
0000
0000
01d4
cafe
241f
0000
0000
00ef
cafe
2807
0000
0000
0140
cafe
2c17
0000
0000
013e
cafe
3008
0000
0000
015a
cafe
3418
0000
0000
01ab
cafe
3800
0000
0000
018a
cafe
3c10
0000
0000
0152
cafe
2009
0000
0000
00f8
cafe
2419
0000
0000
0150
cafe
2801
0000
0000
017f
cafe
2c11
0000
0000
00bb
cafe
300a
0000
0000
0117
cafe
341a
0000
0000
0131
cafe
3802
0000
0000
00db
cafe
3c12
0000
0000
0166
cafe
200b
0000
0000
0151
cafe
241b
0000
0000
0130
cafe
2803
0000
0000
01af
cafe
2c13
0000
0000
0191
cafe
300c
0000
0000
01a1
cafe
341c
0000
0000
0121
cafe
3804
0000
0000
0146
cafe
3c14
0000
0000
01ae
cafe
200d
0000
0000
0189
cafe
241d
0000
0000
0139
cafe
2805
0000
0000
007f
cafe
2c15
0000
0000
014d
cafe
300e
0000
0000
00a6
cafe
341e
0000
0000
0155
cafe
3806
0000
0000
009f
cafe
3c16
0000
0000
0153
cafe
200f
0000
0000
01bf
cafe
241f
0000
0000
00ee
cafe
2807
0000
0000
013a
cafe
2c17
0000
0000
012f
cafe
3008
0000
0000
015d
cafe
3418
0000
0000
01ad
cafe
3800
0000
0000
017f
cafe
3c10
0000
0000
0185
cafe
2009
0000
0000
0108
cafe
2419
0000
0000
013d
cafe
2801
0000
0000
0186
cafe
2c11
0000
0000
00a5
cafe
300a
0000
0000
-
00df
cafe
341a
0000
0000
0127
cafe
3802
0000
0000
00bc
cafe
3c12
0000
0000
013d
cafe
200b
0000
0000
012c
cafe
241b
0000
0000
012d
cafe
2803
0000
0000
019d
cafe
2c13
0000
0000
0187
cafe
300c
0000
0000
01a3
cafe
341c
0000
0000
0122
cafe
3804
0000
0000
013f
cafe
3c14
0000
0000
01b9
cafe
200d
0000
0000
01ad
cafe
241d
0000
0000
012e
cafe
2805
0000
0000
008b
cafe
2c15
0000
0000
015c
cafe
300e
0000
0000
0082
cafe
341e
0000
0000
0143
cafe
3806
0000
0000
0077
cafe
3c16
0000
0000
0135
cafe
200f
0000
0000
0198
cafe
241f
0000
0000
00e4
cafe
2807
0000
0000
012d
cafe
2c17
0000
0000
0124
cafe
3008
0000
0000
016f
cafe
3418
0000
0000
01c3
cafe
3800
0000
0000
0173
cafe
3c10
0000
0000
0198
cafe
2009
0000
0000
010b
cafe
2419
0000
0000
0149
cafe
2801
0000
0000
017f
cafe
2c11
0000
0000
00e0
cafe
300a
0000
0000
00cd
cafe
341a
0000
0000
0128
cafe
3802
0000
0000
00b4
cafe
3c12
0000
0000
0136
cafe
200b
0000
0000
010f
cafe
241b
0000
0000
0122
cafe
2803
0000
0000
0179
cafe
2c13
0000
0000
0155
cafe
300c
0000
0000
01a6
cafe
341c
0000
0000
0121
cafe
3804
0000
0000
0145
cafe
3c14
0000
0000
01b6
cafe
200d
0000
0000
01cb
cafe
241d
0000
0000
0120
cafe
2805
0000
0000
0085
cafe
2c15
0000
0000
0173
cafe
300e
0000
0000
0092
cafe
341e
0000
0000
0132
cafe
3806
0000
0000
008b
cafe
3c16
0000
0000
0139
-
cafe
200f
0000
0000
0163
cafe
241f
0000
0000
00e3
cafe
2807
0000
0000
0108
cafe
2c17
0000
0000
00ff
cafe
3008
0000
0000
015f
cafe
3418
0000
0000
01ad
cafe
3800
0000
0000
017e
cafe
3c10
0000
0000
0172
cafe
2009
0000
0000
0123
cafe
2419
0000
0000
014d
cafe
2801
0000
0000
0193
cafe
2c11
0000
0000
00ea
cafe
300a
0000
0000
0104
cafe
341a
0000
0000
0126
cafe
3802
0000
0000
00b2
cafe
3c12
0000
0000
0169
cafe
200b
0000
0000
00ef
cafe
241b
0000
0000
011e
cafe
2803
0000
0000
017d
cafe
2c13
0000
0000
012b
cafe
300c
0000
0000
0148
cafe
341c
0000
0000
0115
cafe
3804
0000
0000
0119
cafe
3c14
0000
0000
0177
cafe
200d
0000
0000
01c1
cafe
241d
0000
0000
011f
cafe
2805
0000
0000
0080
cafe
2c15
0000
0000
0171
cafe
300e
0000
0000
00c3
cafe
341e
0000
0000
0138
cafe
3806
0000
0000
00a1
cafe
3c16
0000
0000
014c
cafe
200f
0000
0000
0159
cafe
241f
0000
0000
00df
cafe
2807
0000
0000
00fc
cafe
2c17
0000
0000
00f7
cafe
3008
0000
0000
011d
cafe
3418
0000
0000
019a
cafe
3800
0000
0000
0165
cafe
3c10
0000
0000
0128
cafe
2009
0000
0000
0120
cafe
2419
0000
0000
0149
cafe
2801
0000
0000
017e
cafe
2c11
0000
0000
00e7
cafe
300a
0000
0000
0112
cafe
341a
0000
0000
0121
cafe
3802
0000
0000
00ab
cafe
3c12
0000
0000
0157
cafe
200b
0000
0000
0105
cafe
241b
0000
0000
0119
cafe
2803
0000
0000
0186
cafe
-
