200a
5555
e910
01b7
cafe
241a
5555
e910
0194
cafe
2802
5555
e910
024f
cafe
2c12
5555
e914
0132
cafe
300b
5555
e914
01d7
cafe
341b
5555
e914
0197
cafe
3803
5555
e914
01e1
cafe
3c13
5555
e918
012c
cafe
200c
5555
e918
014c
cafe
241c
5555
e918
01b6
cafe
2804
5555
e918
011b
cafe
2c14
5555
e91c
0179
cafe
300d
5555
e91c
01b0
cafe
341d
5555
e91c
01a6
cafe
3805
5555
e91c
020c
cafe
3c15
5555
e920
018b
cafe
200e
5555
e920
01a4
cafe
241e
5555
e920
0229
cafe
2806
5555
e920
0152
cafe
2c16
5555
e924
01b9
cafe
300f
5555
e924
0197
cafe
341f
5555
e924
01d0
cafe
3807
5555
e924
01d7
cafe
3c17
5555
e928
0139
cafe
2008
5555
e928
0153
cafe
2418
5555
e928
0168
cafe
2800
5555
e928
017a
cafe
2c10
5555
e92c
0162
cafe
3009
5555
e92c
0146
cafe
3419
5555
e92c
01ac
cafe
3801
5555
e92c
0187
cafe
3c11
5555
e930
0176
cafe
200a
5555
e930
01b9
cafe
241a
5555
e930
0191
cafe
2802
5555
e930
024f
cafe
2c12
5555
e934
012d
cafe
300b
5555
e934
01d8
cafe
341b
5555
e934
0197
cafe
3803
5555
e934
01e3
cafe
3c13
5555
e938
0130
cafe
200c
5555
e938
014c
cafe
241c
5555
e938
01bd
cafe
2804
5555
e938
011c
cafe
2c14
5555
e93c
0178
cafe
300d
5555
e93c
01ba
cafe
341d
5555
e93c
01a7
cafe
3805
5555
e93c
020b
cafe
3c15
5555
e940
018e
cafe
200e
5555
e940
019c
cafe
241e
5555
e940
022c
cafe
2806
5555
e940
0157
cafe
2c16
-
5555
e944
01b9
cafe
300f
5555
e944
0197
cafe
341f
5555
e944
01d4
cafe
3807
5555
e944
01d8
cafe
3c17
5555
e948
0141
cafe
2008
5555
e948
0157
cafe
2418
5555
e948
0166
cafe
2800
5555
e948
0178
cafe
2c10
5555
e94c
0166
cafe
3009
5555
e94c
014c
cafe
3419
5555
e94c
01af
cafe
3801
5555
e94c
0186
cafe
3c11
5555
e950
0176
cafe
200a
5555
e950
01af
cafe
241a
5555
e950
0197
cafe
2802
5555
e950
0254
cafe
2c12
5555
e954
0134
cafe
300b
5555
e954
01d8
cafe
341b
5555
e954
019f
cafe
3803
5555
e954
01de
cafe
3c13
5555
e958
0134
cafe
200c
5555
e958
0152
cafe
241c
5555
e958
01bf
cafe
2804
5555
e958
011a
cafe
2c14
5555
e95c
0177
cafe
300d
5555
e95c
01b6
cafe
341d
5555
e95c
019e
cafe
3805
5555
e95c
020e
cafe
3c15
5555
e960
018f
cafe
200e
5555
e960
019f
cafe
241e
5555
e960
0227
cafe
2806
5555
e960
015e
cafe
2c16
5555
e964
01b2
cafe
300f
5555
e964
019f
cafe
341f
5555
e964
01d7
cafe
3807
5555
e964
01cd
cafe
3c17
5555
e968
014a
cafe
2008
5555
e968
0156
cafe
2418
5555
e968
0160
cafe
2800
5555
e968
016e
cafe
2c10
5555
e96c
0165
cafe
3009
5555
e96c
0148
cafe
3419
5555
e96c
01ab
cafe
3801
5555
e96c
018c
cafe
3c11
5555
e970
016c
cafe
200a
5555
e970
01b3
cafe
241a
5555
e970
019c
cafe
2802
5555
e970
025a
cafe
2c12
5555
e974
0136
cafe
300b
5555
e974
01e0
cafe
341b
5555
e974
019c
cafe
3803
5555
-
e974
01e4
cafe
3c13
5555
e978
012f
cafe
200c
5555
e978
0149
cafe
241c
5555
e978
01c0
cafe
2804
5555
e978
0127
cafe
2c14
5555
e97c
016f
cafe
300d
5555
e97c
01b4
cafe
341d
5555
e97c
01aa
cafe
3805
5555
e97c
0208
cafe
3c15
5555
e980
018b
cafe
200e
5555
e980
01a2
cafe
241e
5555
e980
0227
cafe
2806
5555
e980
0167
cafe
2c16
5555
e984
01bd
cafe
300f
5555
e984
019f
cafe
341f
5555
e984
01d6
cafe
3807
5555
e984
01cf
cafe
3c17
5555
e988
0148
cafe
2008
5555
e988
014e
cafe
2418
5555
e988
0160
cafe
2800
5555
e988
0171
cafe
2c10
5555
e98c
0162
cafe
3009
5555
e98c
0142
cafe
3419
5555
e98c
01ac
cafe
3801
5555
e98c
0189
cafe
3c11
5555
e990
016b
cafe
200a
5555
e990
01b9
cafe
241a
5555
e990
0199
cafe
2802
5555
e990
0255
cafe
2c12
5555
e994
013e
cafe
300b
5555
e994
01e2
cafe
341b
5555
e994
019f
cafe
3803
5555
e994
01da
cafe
3c13
5555
e998
0134
cafe
200c
5555
e998
0150
cafe
241c
5555
e998
01c3
cafe
2804
5555
e998
0127
cafe
2c14
5555
e99c
0173
cafe
300d
5555
e99c
01aa
cafe
341d
5555
e99c
01aa
cafe
3805
5555
e99c
020b
cafe
3c15
5555
e9a0
018c
cafe
200e
5555
e9a0
01ad
cafe
241e
5555
e9a0
0226
cafe
2806
5555
e9a0
015c
cafe
2c16
5555
e9a4
01c3
cafe
300f
5555
e9a4
01a1
cafe
341f
5555
e9a4
01d4
cafe
3807
5555
e9a4
01ce
cafe
3c17
5555
e9a8
0144
cafe
2008
5555
e9a8
0155
cafe
2418
5555
e9a8
-
0165
cafe
2800
5555
e9a8
0175
cafe
2c10
5555
e9ac
0163
cafe
3009
5555
e9ac
013c
cafe
3419
5555
e9ac
01ab
cafe
3801
5555
e9ac
0188
cafe
3c11
5555
e9b0
0166
cafe
200a
5555
e9b0
01b6
cafe
241a
5555
e9b0
0198
cafe
2802
5555
e9b0
025d
cafe
2c12
5555
e9b4
013b
cafe
300b
5555
e9b4
01e7
cafe
341b
5555
e9b4
019f
cafe
3803
5555
e9b4
01df
cafe
3c13
5555
e9b8
0133
cafe
200c
5555
e9b8
0156
cafe
241c
5555
e9b8
01c4
cafe
2804
5555
e9b8
0125
cafe
2c14
5555
e9bc
017a
cafe
300d
5555
e9bc
01aa
cafe
341d
5555
e9bc
01aa
cafe
3805
5555
e9bc
0206
cafe
3c15
5555
e9c0
0189
cafe
200e
5555
e9c0
01ac
cafe
241e
5555
e9c0
0222
cafe
2806
5555
e9c0
015d
cafe
2c16
5555
e9c4
01bf
cafe
300f
5555
e9c4
01a3
cafe
341f
5555
e9c4
01d1
cafe
3807
5555
e9c4
01d3
cafe
3c17
5555
e9c8
0146
cafe
2008
5555
e9c8
0153
cafe
2418
5555
e9c8
0165
cafe
2800
5555
e9c8
0179
cafe
2c10
5555
e9cc
016b
cafe
3009
5555
e9cc
0143
cafe
3419
5555
e9cc
01a9
cafe
3801
5555
e9cc
018f
cafe
3c11
5555
e9d0
0165
cafe
200a
5555
e9d0
01bb
cafe
241a
5555
e9d0
0199
cafe
2802
5555
e9d0
025e
cafe
2c12
5555
e9d4
0139
cafe
300b
5555
e9d4
01e6
cafe
341b
5555
e9d4
01a0
cafe
3803
5555
e9d4
01e2
cafe
3c13
5555
e9d8
013e
cafe
200c
5555
e9d8
015f
cafe
241c
5555
e9d8
01c7
cafe
2804
5555
e9d8
0126
cafe
2c14
5555
e9dc
0173
cafe
300d
5555
e9dc
01a8
-
cafe
341d
5555
e9dc
01ac
cafe
3805
5555
e9dc
0211
cafe
3c15
5555
e9e0
018a
cafe
200e
5555
e9e0
01ac
cafe
241e
5555
e9e0
0224
cafe
2806
5555
e9e0
0163
cafe
2c16
5555
e9e4
01bc
cafe
300f
5555
e9e4
019e
cafe
341f
5555
e9e4
01cd
cafe
3807
5555
e9e4
01ca
cafe
3c17
5555
e9e8
014e
cafe
2008
5555
e9e8
0156
cafe
2418
5555
e9e8
016d
cafe
2800
5555
e9e8
017e
cafe
2c10
5555
e9ec
0163
cafe
3009
5555
e9ec
013f
cafe
3419
5555
e9ec
01a9
cafe
3801
5555
e9ec
018e
cafe
3c11
5555
e9f0
016f
cafe
200a
5555
e9f0
01ba
cafe
241a
5555
e9f0
018a
cafe
2802
5555
e9f0
025c
cafe
2c12
5555
e9f4
013b
cafe
300b
5555
e9f4
01e7
cafe
341b
5555
e9f4
01a0
cafe
3803
5555
e9f4
01de
cafe
3c13
5555
e9f8
0143
cafe
200c
5555
e9f8
015f
cafe
241c
5555
e9f8
01cd
cafe
2804
5555
e9f8
0124
cafe
2c14
5555
e9fc
017e
cafe
300d
5555
e9fc
01aa
cafe
341d
5555
e9fc
01ae
cafe
3805
5555
e9fc
020f
cafe
3c15
5555
ea00
0186
cafe
200e
5555
ea00
01a9
cafe
241e
5555
ea00
0227
cafe
2806
5555
ea00
016b
cafe
2c16
5555
ea04
01b8
cafe
300f
5555
ea04
019e
cafe
341f
5555
ea04
01cd
cafe
3807
5555
ea04
01c9
cafe
3c17
5555
ea08
014c
cafe
2008
5555
ea08
0155
cafe
2418
5555
ea08
016a
cafe
2800
5555
ea08
017c
cafe
2c10
5555
ea0c
0165
cafe
3009
5555
ea0c
013f
cafe
3419
5555
ea0c
01ae
cafe
3801
5555
ea0c
0197
cafe
3c11
5555
ea10
0175
cafe
-
200a
5555
ea10
01c2
cafe
241a
5555
ea10
018d
cafe
2802
5555
ea10
0260
cafe
2c12
5555
ea14
013f
cafe
300b
5555
ea14
01e8
cafe
341b
5555
ea14
01a1
cafe
3803
5555
ea14
01e4
cafe
3c13
5555
ea18
0145
cafe
200c
5555
ea18
015f
cafe
241c
5555
ea18
01cf
cafe
2804
5555
ea18
0123
cafe
2c14
5555
ea1c
0181
cafe
300d
5555
ea1c
01a1
cafe
341d
5555
ea1c
01b2
cafe
3805
5555
ea1c
020a
cafe
3c15
5555
ea20
0185
cafe
200e
5555
ea20
01a7
cafe
241e
5555
ea20
0229
cafe
2806
5555
ea20
016e
cafe
2c16
5555
ea24
01c0
cafe
300f
5555
ea24
019a
cafe
341f
5555
ea24
01c7
cafe
3807
5555
ea24
01d4
cafe
3c17
5555
ea28
0146
cafe
2008
5555
ea28
0153
cafe
2418
5555
ea28
0168
cafe
2800
5555
ea28
0176
cafe
2c10
5555
ea2c
0162
cafe
3009
5555
ea2c
013e
cafe
3419
5555
ea2c
01a8
cafe
3801
5555
ea2c
0191
cafe
3c11
5555
ea30
017a
cafe
200a
5555
ea30
01be
cafe
241a
5555
ea30
0196
cafe
2802
5555
ea30
0253
cafe
2c12
5555
ea34
0137
cafe
300b
5555
ea34
01eb
cafe
341b
5555
ea34
019f
cafe
3803
5555
ea34
01e2
cafe
3c13
5555
ea38
013f
cafe
200c
5555
ea38
0155
cafe
241c
5555
ea38
01ca
cafe
2804
5555
ea38
012e
cafe
2c14
5555
ea3c
0179
cafe
300d
5555
ea3c
01aa
cafe
341d
5555
ea3c
01af
cafe
3805
5555
ea3c
020b
cafe
3c15
5555
ea40
018b
cafe
200e
5555
ea40
01a1
cafe
241e
5555
ea40
0227
cafe
2806
5555
ea40
0162
cafe
2c16
-
5555
ea44
01c0
cafe
300f
5555
ea44
019a
cafe
341f
5555
ea44
01bf
cafe
3807
5555
ea44
01cf
cafe
3c17
5555
ea48
0145
cafe
2008
5555
ea48
0150
cafe
2418
5555
ea48
016d
cafe
2800
5555
ea48
0174
cafe
2c10
5555
ea4c
0162
cafe
3009
5555
ea4c
0135
cafe
3419
5555
ea4c
019d
cafe
3801
5555
ea4c
0193
cafe
3c11
5555
ea50
0174
cafe
200a
5555
ea50
01be
cafe
241a
5555
ea50
019a
cafe
2802
5555
ea50
024d
cafe
2c12
5555
ea54
0132
cafe
300b
5555
ea54
01e2
cafe
341b
5555
ea54
019c
cafe
3803
5555
ea54
01e4
cafe
3c13
5555
ea58
0137
cafe
200c
5555
ea58
014c
cafe
241c
5555
ea58
01c3
cafe
2804
5555
ea58
0129
cafe
2c14
5555
ea5c
017a
cafe
300d
5555
ea5c
01b1
cafe
341d
5555
ea5c
01a6
cafe
3805
5555
ea5c
0205
cafe
3c15
5555
ea60
018c
cafe
200e
5555
ea60
0197
cafe
241e
5555
ea60
0225
cafe
2806
5555
ea60
0161
cafe
2c16
5555
ea64
01c0
cafe
300f
5555
ea64
019a
cafe
341f
5555
ea64
01c6
cafe
3807
5555
ea64
01c8
cafe
3c17
5555
ea68
0143
cafe
2008
5555
ea68
014e
cafe
2418
5555
ea68
0164
cafe
2800
5555
ea68
0167
cafe
2c10
5555
ea6c
0164
cafe
3009
5555
ea6c
0135
cafe
3419
5555
ea6c
019e
cafe
3801
5555
ea6c
0197
cafe
3c11
5555
ea70
0175
cafe
200a
5555
ea70
01ba
cafe
241a
5555
ea70
0198
cafe
2802
5555
ea70
0255
cafe
2c12
5555
ea74
012f
cafe
300b
5555
ea74
01e3
cafe
341b
5555
ea74
019d
cafe
3803
5555
-
ea74
01e7
cafe
3c13
5555
ea78
013b
cafe
200c
5555
ea78
0153
cafe
241c
5555
ea78
01be
cafe
2804
5555
ea78
0123
cafe
2c14
5555
ea7c
0177
cafe
300d
5555
ea7c
01ac
cafe
341d
5555
ea7c
01a6
cafe
3805
5555
ea7c
0202
cafe
3c15
5555
ea80
018e
cafe
200e
5555
ea80
01a2
cafe
241e
5555
ea80
0228
cafe
2806
5555
ea80
0161
cafe
2c16
5555
ea84
01c6
cafe
300f
5555
ea84
0196
cafe
341f
5555
ea84
01cc
cafe
3807
5555
ea84
01ce
cafe
3c17
5555
ea88
0141
cafe
2008
5555
ea88
014f
cafe
2418
5555
ea88
0166
cafe
2800
5555
ea88
0162
cafe
2c10
5555
ea8c
016b
cafe
3009
5555
ea8c
013f
cafe
3419
5555
ea8c
01a4
cafe
3801
5555
ea8c
0194
cafe
3c11
5555
ea90
0174
cafe
200a
5555
ea90
01b9
cafe
241a
5555
ea90
0191
cafe
2802
5555
ea90
025d
cafe
2c12
5555
ea94
0130
cafe
300b
5555
ea94
01db
cafe
341b
5555
ea94
019a
cafe
3803
5555
ea94
01e3
cafe
3c13
5555
ea98
0138
cafe
200c
5555
ea98
014e
cafe
241c
5555
ea98
01c0
cafe
2804
5555
ea98
011d
cafe
2c14
5555
ea9c
0178
cafe
300d
5555
ea9c
01ac
cafe
341d
5555
ea9c
01ad
cafe
3805
5555
ea9c
01f7
cafe
3c15
5555
eaa0
0186
cafe
200e
5555
eaa0
01a4
cafe
241e
5555
eaa0
0223
cafe
2806
5555
eaa0
0162
cafe
2c16
5555
eaa4
01c3
cafe
300f
5555
eaa4
0195
cafe
341f
5555
eaa4
01d0
cafe
3807
5555
eaa4
01d0
cafe
3c17
5555
eaa8
0143
cafe
2008
5555
eaa8
014a
cafe
2418
5555
eaa8
-
0164
cafe
2800
5555
eaa8
016d
cafe
2c10
5555
eaac
0162
cafe
3009
5555
eaac
0144
cafe
3419
5555
eaac
01af
cafe
3801
5555
eaac
0196
cafe
3c11
5555
eab0
017b
cafe
200a
5555
eab0
01bb
cafe
241a
5555
eab0
0193
cafe
2802
5555
eab0
0259
cafe
2c12
5555
eab4
0135
cafe
300b
5555
eab4
01de
cafe
341b
5555
eab4
01a2
cafe
3803
5555
eab4
01ec
cafe
3c13
5555
eab8
0131
cafe
200c
5555
eab8
0153
cafe
241c
5555
eab8
01c1
cafe
2804
5555
eab8
0124
cafe
2c14
5555
eabc
017c
cafe
300d
5555
eabc
01ae
cafe
341d
5555
eabc
01ad
cafe
3805
5555
eabc
01fd
cafe
3c15
5555
eac0
0188
cafe
200e
5555
eac0
01a1
cafe
241e
5555
eac0
0220
cafe
2806
5555
eac0
0164
cafe
2c16
5555
eac4
01c1
cafe
300f
5555
eac4
0194
cafe
341f
5555
eac4
01c8
cafe
3807
5555
eac4
01d1
cafe
3c17
5555
eac8
0144
cafe
2008
5555
eac8
014e
cafe
2418
5555
eac8
015c
cafe
2800
5555
eac8
016b
cafe
2c10
5555
eacc
0163
cafe
3009
5555
eacc
0143
cafe
3419
5555
eacc
01ae
cafe
3801
5555
eacc
0190
cafe
3c11
5555
ead0
0179
cafe
200a
5555
ead0
01bb
cafe
241a
5555
ead0
0190
cafe
2802
5555
ead0
025a
cafe
2c12
5555
ead4
013c
cafe
300b
5555
ead4
01db
cafe
341b
5555
ead4
019d
cafe
3803
5555
ead4
01de
cafe
3c13
5555
ead8
0131
cafe
200c
5555
ead8
014d
cafe
241c
5555
ead8
01c4
cafe
2804
5555
ead8
0126
cafe
2c14
5555
eadc
0176
cafe
300d
5555
eadc
01b4
-
cafe
341d
5555
eadc
01ad
cafe
3805
5555
eadc
0203
cafe
3c15
5555
eae0
0187
cafe
200e
5555
eae0
0199
cafe
241e
5555
eae0
0222
cafe
2806
5555
eae0
0174
cafe
2c16
5555
eae4
01c0
cafe
300f
5555
eae4
0197
cafe
341f
5555
eae4
01c9
cafe
3807
5555
eae4
01d0
cafe
3c17
5555
eae8
013f
cafe
2008
5555
eae8
014a
cafe
2418
5555
eae8
015f
cafe
2800
5555
eae8
0176
cafe
2c10
5555
eaec
0168
cafe
3009
5555
eaec
013d
cafe
3419
5555
eaec
01ab
cafe
3801
5555
eaec
018c
cafe
3c11
5555
eaf0
0176
cafe
200a
5555
eaf0
01bd
cafe
241a
5555
eaf0
019a
cafe
2802
5555
eaf0
0259
cafe
2c12
5555
eaf4
013d
cafe
300b
5555
eaf4
01db
cafe
341b
5555
eaf4
01a0
cafe
3803
5555
eaf4
01d8
cafe
3c13
5555
eaf8
0135
cafe
200c
5555
eaf8
014b
cafe
241c
5555
eaf8
01c4
cafe
2804
5555
eaf8
0122
cafe
2c14
5555
eafc
017f
cafe
300d
5555
eafc
01b3
cafe
341d
5555
eafc
01ac
cafe
3805
5555
eafc
0208
cafe
3c15
5555
eb00
018c
cafe
200e
5555
eb00
0197
cafe
241e
5555
eb00
0222
cafe
2806
5555
eb00
016c
cafe
2c16
5555
eb04
01bc
cafe
300f
5555
eb04
0198
cafe
341f
5555
eb04
01cc
cafe
3807
5555
eb04
01cc
cafe
3c17
5555
eb08
013a
cafe
2008
5555
eb08
014f
cafe
2418
5555
eb08
0161
cafe
2800
5555
eb08
0177
cafe
2c10
5555
eb0c
016b
cafe
3009
5555
eb0c
013e
cafe
3419
5555
eb0c
01a9
cafe
3801
5555
eb0c
0192
cafe
3c11
5555
eb10
017a
cafe
-
200a
5555
eb10
01ba
cafe
241a
5555
eb10
0193
cafe
2802
5555
eb10
025b
cafe
2c12
5555
eb14
013f
cafe
300b
5555
eb14
01dd
cafe
341b
5555
eb14
01a5
cafe
3803
5555
eb14
01d9
cafe
3c13
5555
eb18
0135
cafe
200c
5555
eb18
014a
cafe
241c
5555
eb18
01bf
cafe
2804
5555
eb18
0124
cafe
2c14
5555
eb1c
0180
cafe
300d
5555
eb1c
01af
cafe
341d
5555
eb1c
01af
cafe
3805
5555
eb1c
020b
cafe
3c15
5555
eb20
0189
cafe
200e
5555
eb20
01a4
cafe
241e
5555
eb20
0224
cafe
2806
5555
eb20
0169
cafe
2c16
5555
eb24
01c1
cafe
300f
5555
eb24
0196
cafe
341f
5555
eb24
01c9
cafe
3807
5555
eb24
01d5
cafe
3c17
5555
eb28
013e
cafe
2008
5555
eb28
014c
cafe
2418
5555
eb28
015c
cafe
2800
5555
eb28
017c
cafe
2c10
5555
eb2c
0167
cafe
3009
5555
eb2c
013c
cafe
3419
5555
eb2c
01ad
cafe
3801
5555
eb2c
0192
cafe
3c11
5555
eb30
0181
cafe
200a
5555
eb30
01bc
cafe
241a
5555
eb30
0193
cafe
2802
5555
eb30
024b
cafe
2c12
5555
eb34
013a
cafe
300b
5555
eb34
01df
cafe
341b
5555
eb34
01ac
cafe
3803
5555
eb34
01e0
cafe
3c13
5555
eb38
0137
cafe
200c
5555
eb38
0155
cafe
241c
5555
eb38
01c8
cafe
2804
5555
eb38
012a
cafe
2c14
5555
eb3c
0180
cafe
300d
5555
eb3c
0217
cafe
341d
5555
eb3c
0221
cafe
3805
5555
eb3c
0283
cafe
3c15
5555
eb40
01f9
cafe
200e
5555
eb40
0312
cafe
241e
5555
eb40
0398
cafe
2806
5555
eb40
02e1
cafe
2c16
-
5555
eb44
033b
cafe
300f
5555
eb44
03f4
cafe
341f
5555
eb44
0417
cafe
3807
5555
eb44
043b
cafe
3c17
5555
eb48
039c
cafe
2008
5555
eb48
047f
cafe
2418
5555
eb48
0483
cafe
2800
5555
eb48
04bd
cafe
2c10
5555
eb4c
04a3
cafe
3009
5555
eb4c
050d
cafe
3419
5555
eb4c
0578
cafe
3801
5555
eb4c
0571
cafe
3c11
5555
eb50
055b
cafe
200a
5555
eb50
0631
cafe
241a
5555
eb50
05e8
cafe
2802
5555
eb50
06bf
cafe
2c12
5555
eb54
05ae
cafe
300b
5555
eb54
06ba
cafe
341b
5555
eb54
067f
cafe
3803
5555
eb54
06ca
cafe
3c13
5555
eb58
0619
cafe
200c
5555
eb58
0696
cafe
241c
5555
eb58
070e
cafe
2804
5555
eb58
0673
cafe
2c14
5555
eb5c
06cd
cafe
300d
5555
eb5c
0744
cafe
341d
5555
eb5c
073c
cafe
3805
5555
eb5c
07c3
cafe
3c15
5555
eb60
072d
cafe
200e
5555
eb60
077f
cafe
241e
5555
eb60
0807
cafe
2806
5555
eb60
0756
cafe
2c16
5555
eb64
07b7
cafe
300f
5555
eb64
07af
cafe
341f
5555
eb64
07e3
cafe
3807
5555
eb64
080b
cafe
3c17
5555
eb68
076d
cafe
2008
5555
eb68
07b4
cafe
2418
5555
eb68
07b4
cafe
2800
5555
eb68
07fa
cafe
2c10
5555
eb6c
07df
cafe
3009
5555
eb6c
07c2
cafe
3419
5555
eb6c
0834
cafe
3801
5555
eb6c
0820
cafe
3c11
5555
eb70
0815
cafe
200a
5555
eb70
086a
cafe
241a
5555
eb70
0834
cafe
2802
5555
eb70
090a
cafe
2c12
5555
eb74
07f4
cafe
300b
5555
eb74
08a0
cafe
341b
5555
eb74
0868
cafe
3803
5555
-
eb74
08a6
cafe
3c13
5555
eb78
0802
cafe
200c
5555
eb78
0825
cafe
241c
5555
eb78
089c
cafe
2804
5555
eb78
0804
cafe
2c14
5555
eb7c
0868
cafe
300d
5555
eb7c
0895
cafe
341d
5555
eb7c
0896
cafe
3805
5555
eb7c
0915
cafe
3c15
5555
eb80
087e
cafe
200e
5555
eb80
088a
cafe
241e
5555
eb80
092e
cafe
2806
5555
eb80
0867
cafe
2c16
5555
eb84
08d2
cafe
300f
5555
eb84
0891
cafe
341f
5555
eb84
08ca
cafe
3807
5555
eb84
08dd
cafe
3c17
5555
eb88
0850
cafe
2008
5555
eb88
0864
cafe
2418
5555
eb88
0873
cafe
2800
5555
eb88
08ac
cafe
2c10
5555
eb8c
08a0
cafe
3009
5555
eb8c
0853
cafe
3419
5555
eb8c
08c1
cafe
3801
5555
eb8c
08ac
cafe
3c11
5555
eb90
08ac
cafe
200a
5555
eb90
08dc
cafe
241a
5555
eb90
08aa
cafe
2802
5555
eb90
0983
cafe
2c12
5555
eb94
0866
cafe
300b
5555
eb94
08f4
cafe
341b
5555
eb94
08c4
cafe
3803
5555
eb94
08f6
cafe
3c13
5555
eb98
0854
cafe
200c
5555
eb98
0861
cafe
241c
5555
eb98
08e7
cafe
2804
5555
eb98
083e
cafe
2c14
5555
eb9c
08ab
cafe
300d
5555
eb9c
08b8
cafe
341d
5555
eb9c
08c3
cafe
3805
5555
eb9c
0937
cafe
3c15
5555
eba0
08a8
cafe
200e
5555
eba0
08ad
cafe
241e
5555
eba0
0950
cafe
2806
5555
eba0
087a
cafe
2c16
5555
eba4
08f5
cafe
300f
5555
eba4
08a2
cafe
341f
5555
eba4
08de
cafe
3807
5555
eba4
08e2
cafe
3c17
5555
eba8
085b
cafe
2008
5555
eba8
0868
cafe
2418
5555
eba8
-
087a
cafe
2800
5555
eba8
08a6
cafe
2c10
5555
ebac
08a3
cafe
3009
5555
ebac
084b
cafe
3419
5555
ebac
08b8
cafe
3801
5555
ebac
089c
cafe
3c11
5555
ebb0
08a0
cafe
200a
5555
ebb0
08cd
cafe
241a
5555
ebb0
0894
cafe
2802
5555
ebb0
0966
cafe
2c12
5555
ebb4
0853
cafe
300b
5555
ebb4
08d1
cafe
341b
5555
ebb4
08a7
cafe
3803
5555
ebb4
08d8
cafe
3c13
5555
ebb8
0835
cafe
200c
5555
ebb8
083d
cafe
241c
5555
ebb8
08c4
cafe
2804
5555
ebb8
0811
cafe
2c14
5555
ebbc
088e
cafe
300d
5555
ebbc
088e
cafe
341d
5555
ebbc
089f
cafe
3805
5555
ebbc
0910
cafe
3c15
5555
ebc0
087f
cafe
200e
5555
ebc0
0889
cafe
241e
5555
ebc0
092d
cafe
2806
5555
ebc0
0859
cafe
2c16
5555
ebc4
08d2
cafe
300f
5555
ebc4
0877
cafe
341f
5555
ebc4
08b8
cafe
3807
5555
ebc4
08b7
cafe
3c17
5555
ebc8
0831
cafe
2008
5555
ebc8
0837
cafe
2418
5555
ebc8
084f
cafe
2800
5555
ebc8
087a
cafe
2c10
5555
ebcc
0876
cafe
3009
5555
ebcc
0813
cafe
3419
5555
ebcc
088f
cafe
3801
5555
ebcc
0869
cafe
3c11
5555
ebd0
086a
cafe
200a
5555
ebd0
0896
cafe
241a
5555
ebd0
0860
cafe
2802
5555
ebd0
092d
cafe
2c12
5555
ebd4
0821
cafe
300b
5555
ebd4
08a4
cafe
341b
5555
ebd4
0877
cafe
3803
5555
ebd4
089d
cafe
3c13
5555
ebd8
0802
cafe
200c
5555
ebd8
0806
cafe
241c
5555
ebd8
088d
cafe
2804
5555
ebd8
07d3
cafe
2c14
5555
ebdc
0859
cafe
300d
5555
ebdc
0851
-
cafe
341d
5555
ebdc
086c
cafe
3805
5555
ebdc
08d9
cafe
3c15
5555
ebe0
0848
cafe
200e
5555
ebe0
0846
cafe
241e
5555
ebe0
08ee
cafe
2806
5555
ebe0
0815
cafe
2c16
5555
ebe4
0893
cafe
300f
5555
ebe4
0844
cafe
341f
5555
ebe4
087d
cafe
3807
5555
ebe4
0875
cafe
3c17
5555
ebe8
07f4
cafe
2008
5555
ebe8
07f8
cafe
2418
5555
ebe8
0818
cafe
2800
5555
ebe8
083d
cafe
2c10
5555
ebec
083c
cafe
3009
5555
ebec
07e4
cafe
3419
5555
ebec
0854
cafe
3801
5555
ebec
0833
cafe
3c11
5555
ebf0
0830
cafe
200a
5555
ebf0
085f
cafe
241a
5555
ebf0
0826
cafe
2802
5555
ebf0
08f0
cafe
2c12
5555
ebf4
07e9
cafe
300b
5555
ebf4
0863
cafe
341b
5555
ebf4
0842
cafe
3803
5555
ebf4
0869
cafe
3c13
5555
ebf8
07bd
cafe
200c
5555
ebf8
07c7
cafe
241c
5555
ebf8
084d
cafe
2804
5555
ebf8
078c
cafe
2c14
5555
ebfc
0824
cafe
300d
5555
ebfc
0819
cafe
341d
5555
ebfc
082f
cafe
3805
5555
ebfc
089d
cafe
3c15
5555
ec00
080a
cafe
200e
5555
ec00
0807
cafe
241e
5555
ec00
08ae
cafe
2806
5555
ec00
07d9
cafe
2c16
5555
ec04
0850
cafe
300f
5555
ec04
0801
cafe
341f
5555
ec04
0838
cafe
3807
5555
ec04
083a
cafe
3c17
5555
ec08
07b4
cafe
2008
5555
ec08
07ba
cafe
2418
5555
ec08
07da
cafe
2800
5555
ec08
07f3
cafe
2c10
5555
ec0c
07fd
cafe
3009
5555
ec0c
07a7
cafe
3419
5555
ec0c
081b
cafe
3801
5555
ec0c
07f9
cafe
3c11
5555
ec10
07ec
cafe
-
200a
5555
ec10
081d
cafe
241a
5555
ec10
07e6
cafe
2802
5555
ec10
08b1
cafe
2c12
5555
ec14
079f
cafe
300b
5555
ec14
0818
cafe
341b
5555
ec14
07fe
cafe
3803
5555
ec14
081e
cafe
3c13
5555
ec18
077b
cafe
200c
5555
ec18
077b
cafe
241c
5555
ec18
080f
cafe
2804
5555
ec18
0742
cafe
2c14
5555
ec1c
07d8
cafe
300d
5555
ec1c
07dd
cafe
341d
5555
ec1c
07ee
cafe
3805
5555
ec1c
0858
cafe
3c15
5555
ec20
07c7
cafe
200e
5555
ec20
07bf
cafe
241e
5555
ec20
086d
cafe
2806
5555
ec20
078c
cafe
2c16
5555
ec24
0816
cafe
300f
5555
ec24
07c7
cafe
341f
5555
ec24
07ed
cafe
3807
5555
ec24
07fa
cafe
3c17
5555
ec28
077c
cafe
2008
5555
ec28
0775
cafe
2418
5555
ec28
0791
cafe
2800
5555
ec28
07ab
cafe
2c10
5555
ec2c
07b6
cafe
3009
5555
ec2c
0762
cafe
3419
5555
ec2c
07ca
cafe
3801
5555
ec2c
07a5
cafe
3c11
5555
ec30
07b0
cafe
200a
5555
ec30
07da
cafe
241a
5555
ec30
07a2
cafe
2802
5555
ec30
0870
cafe
2c12
5555
ec34
075a
cafe
300b
5555
ec34
07e0
cafe
341b
5555
ec34
07ba
cafe
3803
5555
ec34
07d8
cafe
3c13
5555
ec38
0736
cafe
200c
5555
ec38
0737
cafe
241c
5555
ec38
07c9
cafe
2804
5555
ec38
06fb
cafe
2c14
5555
ec3c
0797
cafe
300d
5555
ec3c
0797
cafe
341d
5555
ec3c
07a8
cafe
3805
5555
ec3c
0813
cafe
3c15
5555
ec40
0780
cafe
200e
5555
ec40
077f
cafe
241e
5555
ec40
082c
cafe
2806
5555
ec40
0749
cafe
2c16
-
5555
ec44
07d4
cafe
300f
5555
ec44
077f
cafe
341f
5555
ec44
07a1
cafe
3807
5555
ec44
07bd
cafe
3c17
5555
ec48
073c
cafe
2008
5555
ec48
0736
cafe
2418
5555
ec48
0755
cafe
2800
5555
ec48
076a
cafe
2c10
5555
ec4c
0779
cafe
3009
5555
ec4c
071f
cafe
3419
5555
ec4c
0790
cafe
3801
5555
ec4c
0762
cafe
3c11
5555
ec50
076c
cafe
200a
5555
ec50
0795
cafe
241a
5555
ec50
075e
cafe
2802
5555
ec50
0826
cafe
2c12
5555
ec54
071b
cafe
300b
5555
ec54
07a5
cafe
341b
5555
ec54
077b
cafe
3803
5555
ec54
0794
cafe
3c13
5555
ec58
06fc
cafe
200c
5555
ec58
06f9
cafe
241c
5555
ec58
0789
cafe
2804
5555
ec58
06bd
cafe
2c14
5555
ec5c
0751
cafe
300d
5555
ec5c
0757
cafe
341d
5555
ec5c
0769
cafe
3805
5555
ec5c
07d3
cafe
3c15
5555
ec60
0740
cafe
200e
5555
ec60
0745
cafe
241e
5555
ec60
07e9
cafe
2806
5555
ec60
070e
cafe
2c16
5555
ec64
0792
cafe
300f
5555
ec64
073b
cafe
341f
5555
ec64
0769
cafe
3807
5555
ec64
077f
cafe
3c17
5555
ec68
06f5
cafe
2008
5555
ec68
06f7
cafe
2418
5555
ec68
0710
cafe
2800
5555
ec68
0728
cafe
2c10
5555
ec6c
073e
cafe
3009
5555
ec6c
06dd
cafe
3419
5555
ec6c
0759
cafe
3801
5555
ec6c
071c
cafe
3c11
5555
ec70
0728
cafe
200a
5555
ec70
0755
cafe
241a
5555
ec70
0726
cafe
2802
5555
ec70
07ec
cafe
2c12
5555
ec74
06de
cafe
300b
5555
ec74
076f
cafe
341b
5555
ec74
073f
cafe
3803
5555
-
ec74
0753
cafe
3c13
5555
ec78
06ba
cafe
200c
5555
ec78
06bb
cafe
241c
5555
ec78
074d
cafe
2804
5555
ec78
067d
cafe
2c14
5555
ec7c
071a
cafe
300d
5555
ec7c
071d
cafe
341d
5555
ec7c
0727
cafe
3805
5555
ec7c
0796
cafe
3c15
5555
ec80
0704
cafe
200e
5555
ec80
070a
cafe
241e
5555
ec80
07b5
cafe
2806
5555
ec80
06cd
cafe
2c16
5555
ec84
0757
cafe
300f
5555
ec84
0701
cafe
341f
5555
ec84
072a
cafe
3807
5555
ec84
0748
cafe
3c17
5555
ec88
06c4
cafe
2008
5555
ec88
06bb
cafe
2418
5555
ec88
06d3
cafe
2800
5555
ec88
06eb
cafe
2c10
5555
ec8c
0702
cafe
3009
5555
ec8c
06a3
cafe
3419
5555
ec8c
0722
cafe
3801
5555
ec8c
06e5
cafe
3c11
5555
ec90
06ef
cafe
200a
5555
ec90
0718
cafe
241a
5555
ec90
06ea
cafe
2802
5555
ec90
07b3
cafe
2c12
5555
ec94
06a0
cafe
300b
5555
ec94
072e
cafe
341b
5555
ec94
0707
cafe
3803
5555
ec94
071f
cafe
3c13
5555
ec98
067d
cafe
200c
5555
ec98
067f
cafe
241c
5555
ec98
0714
cafe
2804
5555
ec98
063f
cafe
2c14
5555
ec9c
06df
cafe
300d
5555
ec9c
06e8
cafe
341d
5555
ec9c
06e4
cafe
3805
5555
ec9c
075f
cafe
3c15
5555
eca0
06ce
cafe
200e
5555
eca0
06d6
cafe
241e
5555
eca0
0772
cafe
2806
5555
eca0
068f
cafe
2c16
5555
eca4
0720
cafe
300f
5555
eca4
06c7
cafe
341f
5555
eca4
06f2
cafe
3807
5555
eca4
0703
cafe
3c17
5555
eca8
0683
cafe
2008
5555
eca8
067d
cafe
2418
5555
eca8
-
069a
cafe
2800
5555
eca8
06ab
cafe
2c10
5555
ecac
06cf
cafe
3009
5555
ecac
067b
cafe
3419
5555
ecac
06ea
cafe
3801
5555
ecac
06ae
cafe
3c11
5555
ecb0
06bf
cafe
200a
5555
ecb0
06e2
cafe
241a
5555
ecb0
06ab
cafe
2802
5555
ecb0
0777
cafe
2c12
5555
ecb4
066b
cafe
300b
5555
ecb4
06f6
cafe
341b
5555
ecb4
06d4
cafe
3803
5555
ecb4
06e1
cafe
3c13
5555
ecb8
063e
cafe
200c
5555
ecb8
063f
cafe
241c
5555
ecb8
06db
cafe
2804
5555
ecb8
060b
cafe
2c14
5555
ecbc
06a4
cafe
300d
5555
ecbc
06b1
cafe
341d
5555
ecbc
06ac
cafe
3805
5555
ecbc
0722
cafe
3c15
5555
ecc0
0699
cafe
200e
5555
ecc0
069c
cafe
241e
5555
ecc0
0731
cafe
2806
5555
ecc0
0652
cafe
2c16
5555
ecc4
06e8
cafe
300f
5555
ecc4
0693
cafe
341f
5555
ecc4
06b5
cafe
3807
5555
ecc4
06c7
cafe
3c17
5555
ecc8
0645
cafe
2008
5555
ecc8
0643
cafe
2418
5555
ecc8
0663
cafe
2800
5555
ecc8
0670
cafe
2c10
5555
eccc
068c
cafe
3009
5555
eccc
0644
cafe
3419
5555
eccc
06b1
cafe
3801
5555
eccc
066c
cafe
3c11
5555
ecd0
068a
cafe
200a
5555
ecd0
06a7
cafe
241a
5555
ecd0
0670
cafe
2802
5555
ecd0
0746
cafe
2c12
5555
ecd4
062b
cafe
300b
5555
ecd4
06c6
cafe
341b
5555
ecd4
069b
cafe
3803
5555
ecd4
06a2
cafe
3c13
5555
ecd8
0602
cafe
200c
5555
ecd8
060c
cafe
241c
5555
ecd8
069c
cafe
2804
5555
ecd8
05d3
cafe
2c14
5555
ecdc
0668
cafe
300d
5555
ecdc
0678
-
cafe
341d
5555
ecdc
066f
cafe
3805
5555
ecdc
06db
cafe
3c15
5555
ece0
0665
cafe
200e
5555
ece0
0661
cafe
241e
5555
ece0
0704
cafe
2806
5555
ece0
061c
cafe
2c16
5555
ece4
06b0
cafe
300f
5555
ece4
065d
cafe
341f
5555
ece4
067d
cafe
3807
5555
ece4
068a
cafe
3c17
5555
ece8
060d
cafe
2008
5555
ece8
0609
cafe
2418
5555
ece8
062c
cafe
2800
5555
ece8
0633
cafe
2c10
5555
ecec
0657
cafe
3009
5555
ecec
060e
cafe
3419
5555
ecec
067c
cafe
3801
5555
ecec
0633
cafe
3c11
5555
ecf0
065b
cafe
200a
5555
ecf0
0671
cafe
241a
5555
ecf0
063f
cafe
2802
5555
ecf0
070a
cafe
2c12
5555
ecf4
05ec
cafe
300b
5555
ecf4
068b
cafe
341b
5555
ecf4
0663
cafe
3803
5555
ecf4
0667
cafe
3c13
5555
ecf8
05c4
cafe
200c
5555
ecf8
05e1
cafe
241c
5555
ecf8
0668
cafe
2804
5555
ecf8
059c
cafe
2c14
5555
ecfc
0638
cafe
300d
5555
ecfc
0644
cafe
341d
5555
ecfc
063a
cafe
3805
5555
ecfc
06ad
cafe
3c15
5555
ed00
0631
cafe
200e
5555
ed00
062a
cafe
241e
5555
ed00
06cc
cafe
2806
5555
ed00
05e9
cafe
2c16
5555
ed04
0682
cafe
300f
5555
ed04
062c
cafe
341f
5555
ed04
064a
cafe
3807
5555
ed04
065c
cafe
3c17
5555
ed08
05db
cafe
2008
5555
ed08
05da
cafe
2418
5555
ed08
05f8
cafe
2800
5555
ed08
0608
cafe
2c10
5555
ed0c
0629
cafe
3009
5555
ed0c
05d6
cafe
3419
5555
ed0c
064f
cafe
3801
5555
ed0c
0603
cafe
3c11
5555
ed10
0621
cafe
-
200a
5555
ed10
0647
cafe
241a
5555
ed10
060b
cafe
2802
5555
ed10
06d4
cafe
2c12
5555
ed14
05c0
cafe
300b
5555
ed14
065f
cafe
341b
5555
ed14
062c
cafe
3803
5555
ed14
062e
cafe
3c13
5555
ed18
058d
cafe
200c
5555
ed18
05ab
cafe
241c
5555
ed18
0633
cafe
2804
5555
ed18
0561
cafe
2c14
5555
ed1c
05fb
cafe
300d
5555
ed1c
0614
cafe
341d
5555
ed1c
0606
cafe
3805
5555
ed1c
0683
cafe
3c15
5555
ed20
05ff
cafe
200e
5555
ed20
05f5
cafe
241e
5555
ed20
069d
cafe
2806
5555
ed20
05b3
cafe
2c16
5555
ed24
0652
cafe
300f
5555
ed24
05fc
cafe
341f
5555
ed24
0616
cafe
3807
5555
ed24
0632
cafe
3c17
5555
ed28
05a8
cafe
2008
5555
ed28
05a8
cafe
2418
5555
ed28
05c5
cafe
2800
5555
ed28
05d7
cafe
2c10
5555
ed2c
05ff
cafe
3009
5555
ed2c
05a6
cafe
3419
5555
ed2c
061f
cafe
3801
5555
ed2c
05d9
cafe
3c11
5555
ed30
05f3
cafe
200a
5555
ed30
0610
cafe
241a
5555
ed30
05d9
cafe
2802
5555
ed30
06a6
cafe
2c12
5555
ed34
058b
cafe
300b
5555
ed34
0632
cafe
341b
5555
ed34
05f8
cafe
3803
5555
ed34
05fc
cafe
3c13
5555
ed38
0560
cafe
200c
5555
ed38
0574
cafe
241c
5555
ed38
0609
cafe
2804
5555
ed38
0533
cafe
2c14
5555
ed3c
05ce
cafe
300d
5555
ed3c
05e5
cafe
341d
5555
ed3c
05d0
cafe
3805
5555
ed3c
065c
cafe
3c15
5555
ed40
05c6
cafe
200e
5555
ed40
05c6
cafe
241e
5555
ed40
066a
cafe
2806
5555
ed40
057d
cafe
2c16
-
5555
ed44
0622
cafe
300f
5555
ed44
05cf
cafe
341f
5555
ed44
05e5
cafe
3807
5555
ed44
0601
cafe
3c17
5555
ed48
0572
cafe
2008
5555
ed48
057b
cafe
2418
5555
ed48
0599
cafe
2800
5555
ed48
05a1
cafe
2c10
5555
ed4c
05cf
cafe
3009
5555
ed4c
0573
cafe
3419
5555
ed4c
05eb
cafe
3801
5555
ed4c
05a6
cafe
3c11
5555
ed50
05bb
cafe
200a
5555
ed50
05d5
cafe
241a
5555
ed50
05b2
cafe
2802
5555
ed50
0666
cafe
2c12
5555
ed54
0564
cafe
300b
5555
ed54
0604
cafe
341b
5555
ed54
05c8
cafe
3803
5555
ed54
05cd
cafe
3c13
5555
ed58
052f
cafe
200c
5555
ed58
053e
cafe
241c
5555
ed58
05d6
cafe
2804
5555
ed58
0504
cafe
2c14
5555
ed5c
05a7
cafe
300d
5555
ed5c
05b8
cafe
341d
5555
ed5c
05a2
cafe
3805
5555
ed5c
0628
cafe
3c15
5555
ed60
058f
cafe
200e
5555
ed60
0591
cafe
241e
5555
ed60
063a
cafe
2806
5555
ed60
054f
cafe
2c16
5555
ed64
05f3
cafe
300f
5555
ed64
05a2
cafe
341f
5555
ed64
05b3
cafe
3807
5555
ed64
05c8
cafe
3c17
5555
ed68
0548
cafe
2008
5555
ed68
0547
cafe
2418
5555
ed68
056b
cafe
2800
5555
ed68
0562
cafe
2c10
5555
ed6c
059a
cafe
3009
5555
ed6c
0546
cafe
3419
5555
ed6c
05ae
cafe
3801
5555
ed6c
0573
cafe
3c11
5555
ed70
0591
cafe
200a
5555
ed70
05ad
cafe
241a
5555
ed70
0584
cafe
2802
5555
ed70
063b
cafe
2c12
5555
ed74
0532
cafe
300b
5555
ed74
05cd
cafe
341b
5555
ed74
0594
cafe
3803
5555
-
ed74
059b
cafe
3c13
5555
ed78
04ff
cafe
200c
5555
ed78
0505
cafe
241c
5555
ed78
05a6
cafe
2804
5555
ed78
04d1
cafe
2c14
5555
ed7c
0575
cafe
300d
5555
ed7c
0588
cafe
341d
5555
ed7c
0577
cafe
3805
5555
ed7c
05f7
cafe
3c15
5555
ed80
055f
cafe
200e
5555
ed80
0565
cafe
241e
5555
ed80
060b
cafe
2806
5555
ed80
051c
cafe
2c16
5555
ed84
05c6
cafe
300f
5555
ed84
0575
cafe
341f
5555
ed84
0588
cafe
3807
5555
ed84
0598
cafe
3c17
5555
ed88
0519
cafe
2008
5555
ed88
0521
cafe
2418
5555
ed88
0537
cafe
2800
5555
ed88
0527
cafe
2c10
5555
ed8c
056b
cafe
3009
5555
ed8c
051c
cafe
3419
5555
ed8c
0584
cafe
3801
5555
ed8c
0545
cafe
3c11
5555
ed90
0562
cafe
200a
5555
ed90
057c
cafe
241a
5555
ed90
0551
cafe
2802
5555
ed90
060f
cafe
2c12
5555
ed94
0502
cafe
300b
5555
ed94
05a0
cafe
341b
5555
ed94
0570
cafe
3803
5555
ed94
0578
cafe
3c13
5555
ed98
04d7
cafe
200c
5555
ed98
04da
cafe
241c
5555
ed98
057c
cafe
2804
5555
ed98
04a4
cafe
2c14
5555
ed9c
0546
cafe
300d
5555
ed9c
0554
cafe
341d
5555
ed9c
054b
cafe
3805
5555
ed9c
05ce
cafe
3c15
5555
eda0
052a
cafe
200e
5555
eda0
0538
cafe
241e
5555
eda0
05d7
cafe
2806
5555
eda0
04f1
cafe
2c16
5555
eda4
059f
cafe
300f
5555
eda4
054f
cafe
341f
5555
eda4
055e
cafe
3807
5555
eda4
056b
cafe
3c17
5555
eda8
04e9
cafe
2008
5555
eda8
04ed
cafe
2418
5555
eda8
-
050a
cafe
2800
5555
eda8
04fc
cafe
2c10
5555
edac
0545
cafe
3009
5555
edac
04f3
cafe
3419
5555
edac
0564
cafe
3801
5555
edac
0520
cafe
3c11
5555
edb0
0537
cafe
200a
5555
edb0
055a
cafe
241a
5555
edb0
0520
cafe
2802
5555
edb0
05e9
cafe
2c12
5555
edb4
04d7
cafe
300b
5555
edb4
0577
cafe
341b
5555
edb4
0548
cafe
3803
5555
edb4
0545
cafe
3c13
5555
edb8
04ac
cafe
200c
5555
edb8
04ba
cafe
241c
5555
edb8
054e
cafe
2804
5555
edb8
047a
cafe
2c14
5555
edbc
0525
cafe
300d
5555
edbc
0531
cafe
341d
5555
edbc
0528
cafe
3805
5555
edbc
05a8
cafe
3c15
5555
edc0
050f
cafe
200e
5555
edc0
050c
cafe
241e
5555
edc0
05ab
cafe
2806
5555
edc0
04ce
cafe
2c16
5555
edc4
0573
cafe
300f
5555
edc4
0527
cafe
341f
5555
edc4
053a
cafe
3807
5555
edc4
0548
cafe
3c17
5555
edc8
04b8
cafe
2008
5555
edc8
04c8
cafe
2418
5555
edc8
04de
cafe
2800
5555
edc8
04dc
cafe
2c10
5555
edcc
051d
cafe
3009
5555
edcc
04ca
cafe
3419
5555
edcc
053c
cafe
3801
5555
edcc
04fd
cafe
3c11
5555
edd0
0510
cafe
200a
5555
edd0
0534
cafe
241a
5555
edd0
04f7
cafe
2802
5555
edd0
05c8
cafe
2c12
5555
edd4
04b1
cafe
300b
5555
edd4
0552
cafe
341b
5555
edd4
0528
cafe
3803
5555
edd4
0516
cafe
3c13
5555
edd8
047c
cafe
200c
5555
edd8
0486
cafe
241c
5555
edd8
0528
cafe
2804
5555
edd8
0457
cafe
2c14
5555
eddc
04fd
cafe
300d
5555
eddc
0505
-
cafe
341d
5555
eddc
04f4
cafe
3805
5555
eddc
0576
cafe
3c15
5555
ede0
04e9
cafe
200e
5555
ede0
04e8
cafe
241e
5555
ede0
058a
cafe
2806
5555
ede0
04aa
cafe
2c16
5555
ede4
054a
cafe
300f
5555
ede4
0506
cafe
341f
5555
ede4
050c
cafe
3807
5555
ede4
051a
cafe
3c17
5555
ede8
048f
cafe
2008
5555
ede8
049c
cafe
2418
5555
ede8
04bb
cafe
2800
5555
ede8
04b7
cafe
2c10
5555
edec
04f2
cafe
3009
5555
edec
049e
cafe
3419
5555
edec
0513
cafe
3801
5555
edec
04d5
cafe
3c11
5555
edf0
04e8
cafe
200a
5555
edf0
050f
cafe
241a
5555
edf0
04ca
cafe
2802
5555
edf0
059f
cafe
2c12
5555
edf4
048c
cafe
300b
5555
edf4
0528
cafe
341b
5555
edf4
0502
cafe
3803
5555
edf4
04eb
cafe
3c13
5555
edf8
044c
cafe
200c
5555
edf8
046e
cafe
241c
5555
edf8
0503
cafe
2804
5555
edf8
0429
cafe
2c14
5555
edfc
04d4
cafe
300d
5555
edfc
04da
cafe
341d
5555
edfc
04cd
cafe
3805
5555
edfc
0551
cafe
3c15
5555
ee00
04bf
cafe
200e
5555
ee00
04b5
cafe
241e
5555
ee00
055a
cafe
2806
5555
ee00
0474
cafe
2c16
5555
ee04
0523
cafe
300f
5555
ee04
04d8
cafe
341f
5555
ee04
04de
cafe
3807
5555
ee04
04f4
cafe
3c17
5555
ee08
0469
cafe
2008
5555
ee08
0471
cafe
2418
5555
ee08
048a
cafe
2800
5555
ee08
048b
cafe
2c10
5555
ee0c
04bd
cafe
3009
5555
ee0c
047b
cafe
3419
5555
ee0c
04e7
cafe
3801
5555
ee0c
0495
cafe
3c11
5555
ee10
04c5
cafe
-
200a
5555
ee10
04e3
cafe
241a
5555
ee10
04a0
cafe
2802
5555
ee10
056c
cafe
2c12
5555
ee14
045c
cafe
300b
5555
ee14
0500
cafe
341b
5555
ee14
04ce
cafe
3803
5555
ee14
04cc
cafe
3c13
5555
ee18
042a
cafe
200c
5555
ee18
043b
cafe
241c
5555
ee18
04d6
cafe
2804
5555
ee18
03fa
cafe
2c14
5555
ee1c
04a8
cafe
300d
5555
ee1c
04b1
cafe
341d
5555
ee1c
04a6
cafe
3805
5555
ee1c
0523
cafe
3c15
5555
ee20
049c
cafe
200e
5555
ee20
0497
cafe
241e
5555
ee20
053a
cafe
2806
5555
ee20
0448
cafe
2c16
5555
ee24
04fe
cafe
300f
5555
ee24
04b4
cafe
341f
5555
ee24
04b8
cafe
3807
5555
ee24
04cf
cafe
3c17
5555
ee28
0441
cafe
2008
5555
ee28
0448
cafe
2418
5555
ee28
0464
cafe
2800
5555
ee28
045c
cafe
2c10
5555
ee2c
0491
cafe
3009
5555
ee2c
0459
cafe
3419
5555
ee2c
04b8
cafe
3801
5555
ee2c
0473
cafe
3c11
5555
ee30
0499
cafe
200a
5555
ee30
04c5
cafe
241a
5555
ee30
0476
cafe
2802
5555
ee30
0541
cafe
2c12
5555
ee34
042d
cafe
300b
5555
ee34
04d0
cafe
341b
5555
ee34
04a5
cafe
3803
5555
ee34
049b
cafe
3c13
5555
ee38
0409
cafe
200c
5555
ee38
0418
cafe
241c
5555
ee38
04b1
cafe
2804
5555
ee38
03d6
cafe
2c14
5555
ee3c
0483
cafe
300d
5555
ee3c
0495
cafe
341d
5555
ee3c
047e
cafe
3805
5555
ee3c
0500
cafe
3c15
5555
ee40
0471
cafe
200e
5555
ee40
0473
cafe
241e
5555
ee40
0515
cafe
2806
5555
ee40
041d
cafe
2c16
-
5555
ee44
04da
cafe
300f
5555
ee44
0498
cafe
341f
5555
ee44
048d
cafe
3807
5555
ee44
04ad
cafe
3c17
5555
ee48
041b
cafe
2008
5555
ee48
0420
cafe
2418
5555
ee48
0439
cafe
2800
5555
ee48
043a
cafe
2c10
5555
ee4c
0471
cafe
3009
5555
ee4c
0433
cafe
3419
5555
ee4c
049f
cafe
3801
5555
ee4c
044d
cafe
3c11
5555
ee50
0469
cafe
200a
5555
ee50
0499
cafe
241a
5555
ee50
0451
cafe
2802
5555
ee50
0521
cafe
2c12
5555
ee54
0408
cafe
300b
5555
ee54
04b1
cafe
341b
5555
ee54
0488
cafe
3803
5555
ee54
0476
cafe
3c13
5555
ee58
03e8
cafe
200c
5555
ee58
03f6
cafe
241c
5555
ee58
048b
cafe
2804
5555
ee58
03ba
cafe
2c14
5555
ee5c
045b
cafe
300d
5555
ee5c
0473
cafe
341d
5555
ee5c
045f
cafe
3805
5555
ee5c
04da
cafe
3c15
5555
ee60
044c
cafe
200e
5555
ee60
044b
cafe
241e
5555
ee60
04f8
cafe
2806
5555
ee60
03f8
cafe
2c16
5555
ee64
04b8
cafe
300f
5555
ee64
0471
cafe
341f
5555
ee64
046b
cafe
3807
5555
ee64
048d
cafe
3c17
5555
ee68
03ef
cafe
2008
5555
ee68
0407
cafe
2418
5555
ee68
0413
cafe
2800
5555
ee68
0412
cafe
2c10
5555
ee6c
0456
cafe
3009
5555
ee6c
0410
cafe
3419
5555
ee6c
0482
cafe
3801
5555
ee6c
042b
cafe
3c11
5555
ee70
0446
cafe
200a
5555
ee70
047a
cafe
241a
5555
ee70
0432
cafe
2802
5555
ee70
04fc
cafe
2c12
5555
ee74
03e6
cafe
300b
5555
ee74
048f
cafe
341b
5555
ee74
0462
cafe
3803
5555
-
ee74
045c
cafe
3c13
5555
ee78
03c9
cafe
200c
5555
ee78
03d9
cafe
241c
5555
ee78
0473
cafe
2804
5555
ee78
039f
cafe
2c14
5555
ee7c
0441
cafe
300d
5555
ee7c
0454
cafe
341d
5555
ee7c
043f
cafe
3805
5555
ee7c
04ba
cafe
3c15
5555
ee80
0424
cafe
200e
5555
ee80
0430
cafe
241e
5555
ee80
04d4
cafe
2806
5555
ee80
03e1
cafe
2c16
5555
ee84
0497
cafe
300f
5555
ee84
044c
cafe
341f
5555
ee84
0447
cafe
3807
5555
ee84
0467
cafe
3c17
5555
ee88
03cb
cafe
2008
5555
ee88
03eb
cafe
2418
5555
ee88
03ee
cafe
2800
5555
ee88
03ee
cafe
2c10
5555
ee8c
042f
cafe
3009
5555
ee8c
03ed
cafe
3419
5555
ee8c
046a
cafe
3801
5555
ee8c
040f
cafe
3c11
5555
ee90
0427
cafe
200a
5555
ee90
045a
cafe
241a
5555
ee90
0413
cafe
2802
5555
ee90
04dd
cafe
2c12
5555
ee94
03c7
cafe
300b
5555
ee94
046d
cafe
341b
5555
ee94
043b
cafe
3803
5555
ee94
0439
cafe
3c13
5555
ee98
03a9
cafe
200c
5555
ee98
03b6
cafe
241c
5555
ee98
0448
cafe
2804
5555
ee98
037a
cafe
2c14
5555
ee9c
041f
cafe
300d
5555
ee9c
042e
cafe
341d
5555
ee9c
0424
cafe
3805
5555
ee9c
0495
cafe
3c15
5555
eea0
0409
cafe
200e
5555
eea0
040f
cafe
241e
5555
eea0
04b4
cafe
2806
5555
eea0
03c0
cafe
2c16
5555
eea4
046c
cafe
300f
5555
eea4
0428
cafe
341f
5555
eea4
041e
cafe
3807
5555
eea4
0443
cafe
3c17
5555
eea8
03b2
cafe
2008
5555
eea8
03c6
cafe
2418
5555
eea8
-
03cd
cafe
2800
5555
eea8
03c9
cafe
2c10
5555
eeac
040c
cafe
3009
5555
eeac
03c3
cafe
3419
5555
eeac
0441
cafe
3801
5555
eeac
03ea
cafe
3c11
5555
eeb0
0404
cafe
200a
5555
eeb0
043c
cafe
241a
5555
eeb0
03ee
cafe
2802
5555
eeb0
04b8
cafe
2c12
5555
eeb4
03a6
cafe
300b
5555
eeb4
0452
cafe
341b
5555
eeb4
0421
cafe
3803
5555
eeb4
0414
cafe
3c13
5555
eeb8
0382
cafe
200c
5555
eeb8
038e
cafe
241c
5555
eeb8
0428
cafe
2804
5555
eeb8
035a
cafe
2c14
5555
eebc
03f6
cafe
300d
5555
eebc
0404
cafe
341d
5555
eebc
03fe
cafe
3805
5555
eebc
0474
cafe
3c15
5555
eec0
03ef
cafe
200e
5555
eec0
03e8
cafe
241e
5555
eec0
0491
cafe
2806
5555
eec0
039a
cafe
2c16
5555
eec4
0448
cafe
300f
5555
eec4
040c
cafe
341f
5555
eec4
03ff
cafe
3807
5555
eec4
0421
cafe
3c17
5555
eec8
0394
cafe
2008
5555
eec8
03a3
cafe
2418
5555
eec8
03b0
cafe
2800
5555
eec8
03a9
cafe
2c10
5555
eecc
03f0
cafe
3009
5555
eecc
03a5
cafe
3419
5555
eecc
0419
cafe
3801
5555
eecc
03bf
cafe
3c11
5555
eed0
03e7
cafe
200a
5555
eed0
0413
cafe
241a
5555
eed0
03d1
cafe
2802
5555
eed0
049b
cafe
2c12
5555
eed4
0384
cafe
300b
5555
eed4
0430
cafe
341b
5555
eed4
0407
cafe
3803
5555
eed4
03f3
cafe
3c13
5555
eed8
0361
cafe
200c
5555
eed8
0378
cafe
241c
5555
eed8
0400
cafe
2804
5555
eed8
0335
cafe
2c14
5555
eedc
03d4
cafe
300d
5555
eedc
03e5
-
cafe
341d
5555
eedc
03e0
cafe
3805
5555
eedc
0451
cafe
3c15
5555
eee0
03d1
cafe
200e
5555
eee0
03cd
cafe
241e
5555
eee0
0471
cafe
2806
5555
eee0
0379
cafe
2c16
5555
eee4
042c
cafe
300f
5555
eee4
03f0
cafe
341f
5555
eee4
03de
cafe
3807
5555
eee4
0403
cafe
3c17
5555
eee8
0377
cafe
2008
5555
eee8
038f
cafe
2418
5555
eee8
0391
cafe
2800
5555
eee8
038a
cafe
2c10
5555
eeec
03d3
cafe
3009
5555
eeec
0383
cafe
3419
5555
eeec
03f8
cafe
3801
5555
eeec
03a3
cafe
3c11
5555
eef0
03cd
cafe
200a
5555
eef0
03f9
cafe
241a
5555
eef0
03af
cafe
2802
5555
eef0
0484
cafe
2c12
5555
eef4
0362
cafe
300b
5555
eef4
0414
cafe
341b
5555
eef4
03ed
cafe
3803
5555
eef4
03d8
cafe
3c13
5555
eef8
0345
cafe
200c
5555
eef8
0358
cafe
241c
5555
eef8
03ea
cafe
2804
5555
eef8
0314
cafe
2c14
5555
eefc
03b8
cafe
300d
5555
eefc
03ca
cafe
341d
5555
eefc
03c1
cafe
3805
5555
eefc
0435
cafe
3c15
5555
ef00
03b0
cafe
200e
5555
ef00
03b3
cafe
241e
5555
ef00
0452
cafe
2806
5555
ef00
0364
cafe
2c16
5555
ef04
0411
cafe
300f
5555
ef04
03d4
cafe
341f
5555
ef04
03c0
cafe
3807
5555
ef04
03ef
cafe
3c17
5555
ef08
0357
cafe
2008
5555
ef08
036c
cafe
2418
5555
ef08
0377
cafe
2800
5555
ef08
036d
cafe
2c10
5555
ef0c
03b1
cafe
3009
5555
ef0c
036c
cafe
3419
5555
ef0c
03e3
cafe
3801
5555
ef0c
038b
cafe
3c11
5555
ef10
03b4
cafe
-
200a
5555
ef10
03de
cafe
241a
5555
ef10
0392
cafe
2802
5555
ef10
0469
cafe
2c12
5555
ef14
034a
cafe
300b
5555
ef14
03f9
cafe
341b
5555
ef14
03ca
cafe
3803
5555
ef14
03b9
cafe
3c13
5555
ef18
032e
cafe
200c
5555
ef18
033d
cafe
241c
5555
ef18
03cd
cafe
2804
5555
ef18
02ee
cafe
2c14
5555
ef1c
03a6
cafe
300d
5555
ef1c
03b0
cafe
341d
5555
ef1c
03ab
cafe
3805
5555
ef1c
0424
cafe
3c15
5555
ef20
0392
cafe
200e
5555
ef20
0390
cafe
241e
5555
ef20
0434
cafe
2806
5555
ef20
034a
cafe
2c16
5555
ef24
03f9
cafe
300f
5555
ef24
03b8
cafe
341f
5555
ef24
03aa
cafe
3807
5555
ef24
03cf
cafe
3c17
5555
ef28
0336
cafe
2008
5555
ef28
0358
cafe
2418
5555
ef28
0365
cafe
2800
5555
ef28
0355
cafe
2c10
5555
ef2c
0394
cafe
3009
5555
ef2c
0351
cafe
3419
5555
ef2c
03bf
cafe
3801
5555
ef2c
0373
cafe
3c11
5555
ef30
039d
cafe
200a
5555
ef30
03c3
cafe
241a
5555
ef30
037e
cafe
2802
5555
ef30
044d
cafe
2c12
5555
ef34
032e
cafe
300b
5555
ef34
03de
cafe
341b
5555
ef34
03a8
cafe
3803
5555
ef34
039f
cafe
3c13
5555
ef38
031d
cafe
200c
5555
ef38
031e
cafe
241c
5555
ef38
03a4
cafe
2804
5555
ef38
02d1
cafe
2c14
5555
ef3c
038b
cafe
300d
5555
ef3c
0395
cafe
341d
5555
ef3c
038c
cafe
3805
5555
ef3c
0407
cafe
3c15
5555
ef40
037b
cafe
200e
5555
ef40
037d
cafe
241e
5555
ef40
0413
cafe
2806
5555
ef40
0330
cafe
2c16
-
5555
ef44
03e0
cafe
300f
5555
ef44
03a4
cafe
341f
5555
ef44
0398
cafe
3807
5555
ef44
03b0
cafe
3c17
5555
ef48
0321
cafe
2008
5555
ef48
033e
cafe
2418
5555
ef48
0348
cafe
2800
5555
ef48
033c
cafe
2c10
5555
ef4c
0378
cafe
3009
5555
ef4c
0335
cafe
3419
5555
ef4c
03a8
cafe
3801
5555
ef4c
0356
cafe
3c11
5555
ef50
0380
cafe
200a
5555
ef50
03b0
cafe
241a
5555
ef50
0363
cafe
2802
5555
ef50
042e
cafe
2c12
5555
ef54
030e
cafe
300b
5555
ef54
03cc
cafe
341b
5555
ef54
038a
cafe
3803
5555
ef54
0387
cafe
3c13
5555
ef58
0307
cafe
200c
5555
ef58
0308
cafe
241c
5555
ef58
0389
cafe
2804
5555
ef58
02ba
cafe
2c14
5555
ef5c
0372
cafe
300d
5555
ef5c
0376
cafe
341d
5555
ef5c
036f
cafe
3805
5555
ef5c
03e7
cafe
3c15
5555
ef60
035c
cafe
200e
5555
ef60
0362
cafe
241e
5555
ef60
03f6
cafe
2806
5555
ef60
0320
cafe
2c16
5555
ef64
03bc
cafe
300f
5555
ef64
0387
cafe
341f
5555
ef64
0383
cafe
3807
5555
ef64
039a
cafe
3c17
5555
ef68
0308
cafe
2008
5555
ef68
0322
cafe
2418
5555
ef68
0329
cafe
2800
5555
ef68
0322
cafe
2c10
5555
ef6c
035c
cafe
3009
5555
ef6c
0316
cafe
3419
5555
ef6c
0391
cafe
3801
5555
ef6c
033a
cafe
3c11
5555
ef70
0361
cafe
200a
5555
ef70
039b
cafe
241a
5555
ef70
0348
cafe
2802
5555
ef70
0419
cafe
2c12
5555
ef74
02f4
cafe
300b
5555
ef74
03ad
cafe
341b
5555
ef74
036e
cafe
3803
5555
-
ef74
036a
cafe
3c13
5555
ef78
02eb
cafe
200c
5555
ef78
02ed
cafe
241c
5555
ef78
036c
cafe
2804
5555
ef78
02a7
cafe
2c14
5555
ef7c
034e
cafe
300d
5555
ef7c
035b
cafe
341d
5555
ef7c
035a
cafe
3805
5555
ef7c
03d0
cafe
3c15
5555
ef80
034a
cafe
200e
5555
ef80
0350
cafe
241e
5555
ef80
03e5
cafe
2806
5555
ef80
0307
cafe
2c16
5555
ef84
03a9
cafe
300f
5555
ef84
0372
cafe
341f
5555
ef84
0366
cafe
3807
5555
ef84
037e
cafe
3c17
5555
ef88
02eb
cafe
2008
5555
ef88
0306
cafe
2418
5555
ef88
0315
cafe
2800
5555
ef88
030d
cafe
2c10
5555
ef8c
0347
cafe
3009
5555
ef8c
0306
cafe
3419
5555
ef8c
0373
cafe
3801
5555
ef8c
0322
cafe
3c11
5555
ef90
0342
cafe
200a
5555
ef90
0385
cafe
241a
5555
ef90
0326
cafe
2802
5555
ef90
03f9
cafe
2c12
5555
ef94
02d7
cafe
300b
5555
ef94
0390
cafe
341b
5555
ef94
0359
cafe
3803
5555
ef94
034d
cafe
3c13
5555
ef98
02d1
cafe
200c
5555
ef98
02dc
cafe
241c
5555
ef98
0353
cafe
2804
5555
ef98
028f
cafe
2c14
5555
ef9c
033a
cafe
300d
5555
ef9c
033c
cafe
341d
5555
ef9c
0342
cafe
3805
5555
ef9c
03bb
cafe
3c15
5555
efa0
0337
cafe
200e
5555
efa0
0333
cafe
241e
5555
efa0
03c6
cafe
2806
5555
efa0
02eb
cafe
2c16
5555
efa4
0387
cafe
300f
5555
efa4
035f
cafe
341f
5555
efa4
0355
cafe
3807
5555
efa4
036b
cafe
3c17
5555
efa8
02d6
cafe
2008
5555
efa8
02ee
cafe
2418
5555
efa8
-
0304
cafe
2800
5555
efa8
02f8
cafe
2c10
5555
efac
032e
cafe
3009
5555
efac
02f5
cafe
3419
5555
efac
035a
cafe
3801
5555
efac
0308
cafe
3c11
5555
efb0
0333
cafe
200a
5555
efb0
0366
cafe
241a
5555
efb0
0310
cafe
2802
5555
efb0
03e0
cafe
2c12
5555
efb4
02b7
cafe
300b
5555
efb4
0372
cafe
341b
5555
efb4
0344
cafe
3803
5555
efb4
0337
cafe
3c13
5555
efb8
02bc
cafe
200c
5555
efb8
02c0
cafe
241c
5555
efb8
0342
cafe
2804
5555
efb8
0274
cafe
2c14
5555
efbc
0323
cafe
300d
5555
efbc
032e
cafe
341d
5555
efbc
032c
cafe
3805
5555
efbc
0398
cafe
3c15
5555
efc0
0321
cafe
200e
5555
efc0
0327
cafe
241e
5555
efc0
03ab
cafe
2806
5555
efc0
02d7
cafe
2c16
5555
efc4
0377
cafe
300f
5555
efc4
0345
cafe
341f
5555
efc4
0341
cafe
3807
5555
efc4
0350
cafe
3c17
5555
efc8
02b3
cafe
2008
5555
efc8
02dd
cafe
2418
5555
efc8
02ef
cafe
2800
5555
efc8
02e0
cafe
2c10
5555
efcc
0318
cafe
3009
5555
efcc
02d6
cafe
3419
5555
efcc
0345
cafe
3801
5555
efcc
02f3
cafe
3c11
5555
efd0
0313
cafe
200a
5555
efd0
034c
cafe
241a
5555
efd0
02f8
cafe
2802
5555
efd0
03cb
cafe
2c12
5555
efd4
02a6
cafe
300b
5555
efd4
035d
cafe
341b
5555
efd4
0329
cafe
3803
5555
efd4
031c
cafe
3c13
5555
efd8
02a5
cafe
200c
5555
efd8
02ae
cafe
241c
5555
efd8
032a
cafe
2804
5555
efd8
0268
cafe
2c14
5555
efdc
0310
cafe
300d
5555
efdc
031a
-
cafe
341d
5555
efdc
0317
cafe
3805
5555
efdc
037d
cafe
3c15
5555
efe0
0304
cafe
200e
5555
efe0
030f
cafe
241e
5555
efe0
0391
cafe
2806
5555
efe0
02bd
cafe
2c16
5555
efe4
0358
cafe
300f
5555
efe4
032b
cafe
341f
5555
efe4
0329
cafe
3807
5555
efe4
033a
cafe
3c17
5555
efe8
02a3
cafe
2008
5555
efe8
02c0
cafe
2418
5555
efe8
02df
cafe
2800
5555
efe8
02c5
cafe
2c10
5555
efec
0303
cafe
3009
5555
efec
02c0
cafe
3419
5555
efec
0324
cafe
3801
5555
efec
02d9
cafe
3c11
5555
eff0
0303
cafe
200a
5555
eff0
0339
cafe
241a
5555
eff0
02e3
cafe
2802
5555
eff0
03b8
cafe
2c12
5555
eff4
028d
cafe
300b
5555
eff4
034a
cafe
341b
5555
eff4
0318
cafe
3803
5555
eff4
0310
cafe
3c13
5555
eff8
028d
cafe
200c
5555
eff8
029a
cafe
241c
5555
eff8
0313
cafe
2804
5555
eff8
0255
cafe
2c14
5555
effc
0301
cafe
300d
5555
effc
030f
cafe
341d
5555
effc
0303
cafe
3805
5555
effc
0364
cafe
3c15
5555
f000
02f0
cafe
200e
5555
f000
02f8
cafe
241e
5555
f000
0377
cafe
2806
5555
f000
02ad
cafe
2c16
5555
f004
0344
cafe
300f
5555
f004
0312
cafe
341f
5555
f004
0306
cafe
3807
5555
f004
0329
cafe
3c17
5555
f008
0291
cafe
2008
5555
f008
02a9
cafe
2418
5555
f008
02c0
cafe
2800
5555
f008
02b3
cafe
2c10
5555
f00c
02ed
cafe
3009
5555
f00c
02b1
cafe
3419
5555
f00c
0310
cafe
3801
5555
f00c
02c7
cafe
3c11
5555
f010
02f2
cafe
-
200a
5555
f010
0321
cafe
241a
5555
f010
02cd
cafe
2802
5555
f010
03ab
cafe
2c12
5555
f014
0280
cafe
300b
5555
f014
0334
cafe
341b
5555
f014
030f
cafe
3803
5555
f014
02fd
cafe
3c13
5555
f018
027f
cafe
200c
5555
f018
0288
cafe
241c
5555
f018
0303
cafe
2804
5555
f018
0241
cafe
2c14
5555
f01c
02e6
cafe
300d
5555
f01c
02f8
cafe
341d
5555
f01c
02e9
cafe
3805
5555
f01c
0352
cafe
3c15
5555
f020
02db
cafe
200e
5555
f020
02e1
cafe
241e
5555
f020
0362
cafe
2806
5555
f020
0291
cafe
2c16
5555
f024
033b
cafe
300f
5555
f024
02fd
cafe
341f
5555
f024
02f0
cafe
3807
5555
f024
0312
cafe
3c17
5555
f028
027c
cafe
2008
5555
f028
029a
cafe
2418
5555
f028
02aa
cafe
2800
5555
f028
02a1
cafe
2c10
5555
f02c
02de
cafe
3009
5555
f02c
029b
cafe
3419
5555
f02c
02fb
cafe
3801
5555
f02c
02b2
cafe
3c11
5555
f030
02d7
cafe
200a
5555
f030
0311
cafe
241a
5555
f030
02be
cafe
2802
5555
f030
0396
cafe
2c12
5555
f034
0273
cafe
300b
5555
f034
0320
cafe
341b
5555
f034
02fa
cafe
3803
5555
f034
02f1
cafe
3c13
5555
f038
0266
cafe
200c
5555
f038
027c
cafe
241c
5555
f038
02f2
cafe
2804
5555
f038
0229
cafe
2c14
5555
f03c
02d0
cafe
300d
5555
f03c
02e6
cafe
341d
5555
f03c
02d4
cafe
3805
5555
f03c
0340
cafe
3c15
5555
f040
02cb
cafe
200e
5555
f040
02d0
cafe
241e
5555
f040
0347
cafe
2806
5555
f040
0283
cafe
2c16
-
5555
f044
032b
cafe
300f
5555
f044
02ec
cafe
341f
5555
f044
02dc
cafe
3807
5555
f044
0300
cafe
3c17
5555
f048
0260
cafe
2008
5555
f048
0289
cafe
2418
5555
f048
029e
cafe
2800
5555
f048
028b
cafe
2c10
5555
f04c
02d2
cafe
3009
5555
f04c
028a
cafe
3419
5555
f04c
02e6
cafe
3801
5555
f04c
02a3
cafe
3c11
5555
f050
02c1
cafe
200a
5555
f050
02fe
cafe
241a
5555
f050
02a7
cafe
2802
5555
f050
0392
cafe
2c12
5555
f054
0260
cafe
300b
5555
f054
0310
cafe
341b
5555
f054
02e7
cafe
3803
5555
f054
02d6
cafe
3c13
5555
f058
024c
cafe
200c
5555
f058
0271
cafe
241c
5555
f058
02e5
cafe
2804
5555
f058
0218
cafe
2c14
5555
f05c
02bf
cafe
300d
5555
f05c
02d8
cafe
341d
5555
f05c
02c4
cafe
3805
5555
f05c
032c
cafe
3c15
5555
f060
02bd
cafe
200e
5555
f060
02bf
cafe
241e
5555
f060
0332
cafe
2806
5555
f060
0270
cafe
2c16
5555
f064
0314
cafe
300f
5555
f064
02ce
cafe
341f
5555
f064
02d1
cafe
3807
5555
f064
02f1
cafe
3c17
5555
f068
0255
cafe
2008
5555
f068
0274
cafe
2418
5555
f068
0293
cafe
2800
5555
f068
0277
cafe
2c10
5555
f06c
02c0
cafe
3009
5555
f06c
027a
cafe
3419
5555
f06c
02d4
cafe
3801
5555
f06c
029c
cafe
3c11
5555
f070
02b8
cafe
200a
5555
f070
02ef
cafe
241a
5555
f070
0299
cafe
2802
5555
f070
037a
cafe
2c12
5555
f074
0252
cafe
300b
5555
f074
0307
cafe
341b
5555
f074
02d5
cafe
3803
5555
-
f074
02cb
cafe
3c13
5555
f078
0239
cafe
200c
5555
f078
0256
cafe
241c
5555
f078
02d3
cafe
2804
5555
f078
020c
cafe
2c14
5555
f07c
02af
cafe
300d
5555
f07c
02c9
cafe
341d
5555
f07c
02b8
cafe
3805
5555
f07c
031d
cafe
3c15
5555
f080
02af
cafe
200e
5555
f080
02af
cafe
241e
5555
f080
032b
cafe
2806
5555
f080
0264
cafe
2c16
5555
f084
0305
cafe
300f
5555
f084
02bd
cafe
341f
5555
f084
02c1
cafe
3807
5555
f084
02e0
cafe
3c17
5555
f088
0240
cafe
2008
5555
f088
0261
cafe
2418
5555
f088
0282
cafe
2800
5555
f088
0268
cafe
2c10
5555
f08c
02ab
cafe
3009
5555
f08c
026a
cafe
3419
5555
f08c
02c8
cafe
3801
5555
f08c
0287
cafe
3c11
5555
f090
02a8
cafe
200a
5555
f090
02da
cafe
241a
5555
f090
0280
cafe
2802
5555
f090
036b
cafe
2c12
5555
f094
0242
cafe
300b
5555
f094
02f9
cafe
341b
5555
f094
02c0
cafe
3803
5555
f094
02bc
cafe
3c13
5555
f098
022c
cafe
200c
5555
f098
0247
cafe
241c
5555
f098
02bb
cafe
2804
5555
f098
01fd
cafe
2c14
5555
f09c
029b
cafe
300d
5555
f09c
02b8
cafe
341d
5555
f09c
02ad
cafe
3805
5555
f09c
030d
cafe
3c15
5555
f0a0
029f
cafe
200e
5555
f0a0
029f
cafe
241e
5555
f0a0
031c
cafe
2806
5555
f0a0
024b
cafe
2c16
5555
f0a4
02f5
cafe
300f
5555
f0a4
02a8
cafe
341f
5555
f0a4
02b8
cafe
3807
5555
f0a4
02ce
cafe
3c17
5555
f0a8
0233
cafe
2008
5555
f0a8
0257
cafe
2418
5555
f0a8
-
0276
cafe
2800
5555
f0a8
0257
cafe
2c10
5555
f0ac
02a0
cafe
3009
5555
f0ac
0255
cafe
3419
5555
f0ac
02b6
cafe
3801
5555
f0ac
0270
cafe
3c11
5555
f0b0
029b
cafe
200a
5555
f0b0
02c7
cafe
241a
5555
f0b0
0272
cafe
2802
5555
f0b0
0357
cafe
2c12
5555
f0b4
022b
cafe
300b
5555
f0b4
02e6
cafe
341b
5555
f0b4
02ab
cafe
3803
5555
f0b4
02ac
cafe
3c13
5555
f0b8
021e
cafe
200c
5555
f0b8
023a
cafe
241c
5555
f0b8
02ad
cafe
2804
5555
f0b8
01eb
cafe
2c14
5555
f0bc
0294
cafe
300d
5555
f0bc
02a0
cafe
341d
5555
f0bc
0296
cafe
3805
5555
f0bc
0306
cafe
3c15
5555
f0c0
0285
cafe
200e
5555
f0c0
0287
cafe
241e
5555
f0c0
0305
cafe
2806
5555
f0c0
0238
cafe
2c16
5555
f0c4
02d7
cafe
300f
5555
f0c4
029c
cafe
341f
5555
f0c4
02a1
cafe
3807
5555
f0c4
02bb
cafe
3c17
5555
f0c8
0225
cafe
2008
5555
f0c8
0245
cafe
2418
5555
f0c8
0263
cafe
2800
5555
f0c8
0242
cafe
2c10
5555
f0cc
0283
cafe
3009
5555
f0cc
024e
cafe
3419
5555
f0cc
029f
cafe
3801
5555
f0cc
025e
cafe
3c11
5555
f0d0
0289
cafe
200a
5555
f0d0
02b5
cafe
241a
5555
f0d0
0266
cafe
2802
5555
f0d0
033e
cafe
2c12
5555
f0d4
021d
cafe
300b
5555
f0d4
02d4
cafe
341b
5555
f0d4
0293
cafe
3803
5555
f0d4
02a5
cafe
3c13
5555
f0d8
020f
cafe
200c
5555
f0d8
022a
cafe
241c
5555
f0d8
0295
cafe
2804
5555
f0d8
01d6
cafe
2c14
5555
f0dc
0279
cafe
300d
5555
f0dc
028c
-
cafe
341d
5555
f0dc
028b
cafe
3805
5555
f0dc
02f5
cafe
3c15
5555
f0e0
0279
cafe
200e
5555
f0e0
0269
cafe
241e
5555
f0e0
02fa
cafe
2806
5555
f0e0
0226
cafe
2c16
5555
f0e4
02c6
cafe
300f
5555
f0e4
0291
cafe
341f
5555
f0e4
0292
cafe
3807
5555
f0e4
02b0
cafe
3c17
5555
f0e8
021c
cafe
2008
5555
f0e8
023e
cafe
2418
5555
f0e8
0251
cafe
2800
5555
f0e8
0231
cafe
2c10
5555
f0ec
0273
cafe
3009
5555
f0ec
0235
cafe
3419
5555
f0ec
028f
cafe
3801
5555
f0ec
024a
cafe
3c11
5555
f0f0
027b
cafe
200a
5555
f0f0
02af
cafe
241a
5555
f0f0
0255
cafe
2802
5555
f0f0
0335
cafe
2c12
5555
f0f4
0212
cafe
300b
5555
f0f4
02c7
cafe
341b
5555
f0f4
0288
cafe
3803
5555
f0f4
0296
cafe
3c13
5555
f0f8
0202
cafe
200c
5555
f0f8
0222
cafe
241c
5555
f0f8
0285
cafe
2804
5555
f0f8
01c4
cafe
2c14
5555
f0fc
0264
cafe
300d
5555
f0fc
0282
cafe
341d
5555
f0fc
027e
cafe
3805
5555
f0fc
02e3
cafe
3c15
5555
f100
026d
cafe
200e
5555
f100
026c
cafe
241e
5555
f100
02f1
cafe
2806
5555
f100
0221
cafe
2c16
5555
f104
02ba
cafe
300f
5555
f104
0282
cafe
341f
5555
f104
027f
cafe
3807
5555
f104
02a3
cafe
3c17
5555
f108
0208
cafe
2008
5555
f108
0236
cafe
2418
5555
f108
0245
cafe
2800
5555
f108
0225
cafe
2c10
5555
f10c
0268
cafe
3009
5555
f10c
022e
cafe
3419
5555
f10c
0288
cafe
3801
5555
f10c
0248
cafe
3c11
5555
f110
026a
cafe
-
