3c0c
5556
0af8
0169
cafe
201c
5556
0af8
0185
cafe
2404
5556
0af8
0190
cafe
2814
5556
0afc
0161
cafe
2c0d
5556
0afc
0161
cafe
301d
5556
0afc
018b
cafe
3405
5556
0afc
00fb
cafe
3815
5556
0b00
0192
cafe
3c0e
5556
0b00
0149
cafe
201e
5556
0b00
0225
cafe
2406
5556
0b00
0184
cafe
2816
5556
0b04
01ba
cafe
2c0f
5556
0b04
016a
cafe
301f
5556
0b04
01d1
cafe
3407
5556
0b04
01b7
cafe
3817
5556
0b08
01df
cafe
3c08
5556
0b08
00e9
cafe
2018
5556
0b08
019b
cafe
2400
5556
0b08
0166
cafe
2810
5556
0b0c
0155
cafe
2c09
5556
0b0c
0148
cafe
3019
5556
0b0c
019b
cafe
3401
5556
0b0c
0147
cafe
3811
5556
0b10
01a9
cafe
3c0a
5556
0b10
01f8
cafe
201a
5556
0b10
01c2
cafe
2402
5556
0b10
0177
cafe
2812
5556
0b14
0138
cafe
2c0b
5556
0b14
01c7
cafe
301b
5556
0b14
01e0
cafe
3403
5556
0b14
0210
cafe
3813
5556
0b18
01d5
cafe
3c0c
5556
0b18
0165
cafe
201c
5556
0b18
0185
cafe
2404
5556
0b18
018b
cafe
2814
5556
0b1c
0161
cafe
2c0d
5556
0b1c
015d
cafe
301d
5556
0b1c
018e
cafe
3405
5556
0b1c
00f6
cafe
3815
5556
0b20
018f
cafe
3c0e
5556
0b20
014c
cafe
201e
5556
0b20
0221
cafe
2406
5556
0b20
018b
cafe
2816
5556
0b24
01bf
cafe
2c0f
5556
0b24
016a
cafe
301f
5556
0b24
01d5
cafe
3407
5556
0b24
01b4
cafe
3817
5556
0b28
01db
cafe
3c08
5556
0b28
00ea
cafe
2018
5556
0b28
0199
cafe
2400
5556
0b28
0162
cafe
2810
-
5556
0b2c
0156
cafe
2c09
5556
0b2c
0145
cafe
3019
5556
0b2c
0198
cafe
3401
5556
0b2c
0145
cafe
3811
5556
0b30
01a8
cafe
3c0a
5556
0b30
01f8
cafe
201a
5556
0b30
01bf
cafe
2402
5556
0b30
017a
cafe
2812
5556
0b34
0136
cafe
2c0b
5556
0b34
01c6
cafe
301b
5556
0b34
01e1
cafe
3403
5556
0b34
0217
cafe
3813
5556
0b38
01d7
cafe
3c0c
5556
0b38
0164
cafe
201c
5556
0b38
0187
cafe
2404
5556
0b38
0189
cafe
2814
5556
0b3c
015f
cafe
2c0d
5556
0b3c
015e
cafe
301d
5556
0b3c
0189
cafe
3405
5556
0b3c
00f7
cafe
3815
5556
0b40
0195
cafe
3c0e
5556
0b40
0147
cafe
201e
5556
0b40
0222
cafe
2406
5556
0b40
018b
cafe
2816
5556
0b44
01c3
cafe
2c0f
5556
0b44
016f
cafe
301f
5556
0b44
01d3
cafe
3407
5556
0b44
01b2
cafe
3817
5556
0b48
01d9
cafe
3c08
5556
0b48
00e7
cafe
2018
5556
0b48
0198
cafe
2400
5556
0b48
015e
cafe
2810
5556
0b4c
0157
cafe
2c09
5556
0b4c
0147
cafe
3019
5556
0b4c
019d
cafe
3401
5556
0b4c
0149
cafe
3811
5556
0b50
01aa
cafe
3c0a
5556
0b50
01f7
cafe
201a
5556
0b50
01c5
cafe
2402
5556
0b50
0171
cafe
2812
5556
0b54
0136
cafe
2c0b
5556
0b54
01c1
cafe
301b
5556
0b54
01dc
cafe
3403
5556
0b54
021b
cafe
3813
5556
0b58
01d2
cafe
3c0c
5556
0b58
0166
cafe
201c
5556
0b58
018b
cafe
2404
5556
0b58
0190
cafe
2814
5556
0b5c
015f
cafe
2c0d
5556
0b5c
015a
cafe
301d
5556
0b5c
0183
cafe
3405
5556
-
0b5c
00f9
cafe
3815
5556
0b60
0194
cafe
3c0e
5556
0b60
0145
cafe
201e
5556
0b60
0220
cafe
2406
5556
0b60
0189
cafe
2816
5556
0b64
01bf
cafe
2c0f
5556
0b64
016d
cafe
301f
5556
0b64
01d5
cafe
3407
5556
0b64
01b1
cafe
3817
5556
0b68
01d4
cafe
3c08
5556
0b68
00e8
cafe
2018
5556
0b68
0199
cafe
2400
5556
0b68
0162
cafe
2810
5556
0b6c
015c
cafe
2c09
5556
0b6c
014a
cafe
3019
5556
0b6c
019a
cafe
3401
5556
0b6c
0145
cafe
3811
5556
0b70
01ad
cafe
3c0a
5556
0b70
01f6
cafe
201a
5556
0b70
01c4
cafe
2402
5556
0b70
0174
cafe
2812
5556
0b74
0133
cafe
2c0b
5556
0b74
01c2
cafe
301b
5556
0b74
01e2
cafe
3403
5556
0b74
021d
cafe
3813
5556
0b78
01cf
cafe
3c0c
5556
0b78
0165
cafe
201c
5556
0b78
0186
cafe
2404
5556
0b78
0191
cafe
2814
5556
0b7c
0159
cafe
2c0d
5556
0b7c
015b
cafe
301d
5556
0b7c
0183
cafe
3405
5556
0b7c
00f8
cafe
3815
5556
0b80
0197
cafe
3c0e
5556
0b80
0145
cafe
201e
5556
0b80
0220
cafe
2406
5556
0b80
0180
cafe
2816
5556
0b84
01bd
cafe
2c0f
5556
0b84
016e
cafe
301f
5556
0b84
01d7
cafe
3407
5556
0b84
01b2
cafe
3817
5556
0b88
01d1
cafe
3c08
5556
0b88
00e8
cafe
2018
5556
0b88
0197
cafe
2400
5556
0b88
0164
cafe
2810
5556
0b8c
015b
cafe
2c09
5556
0b8c
014c
cafe
3019
5556
0b8c
019d
cafe
3401
5556
0b8c
013d
cafe
3811
5556
0b90
01ac
cafe
3c0a
5556
0b90
01f2
cafe
201a
5556
0b90
-
01c1
cafe
2402
5556
0b90
0172
cafe
2812
5556
0b94
0136
cafe
2c0b
5556
0b94
01c4
cafe
301b
5556
0b94
01e3
cafe
3403
5556
0b94
021c
cafe
3813
5556
0b98
01c9
cafe
3c0c
5556
0b98
0168
cafe
201c
5556
0b98
0185
cafe
2404
5556
0b98
0190
cafe
2814
5556
0b9c
015c
cafe
2c0d
5556
0b9c
0159
cafe
301d
5556
0b9c
0180
cafe
3405
5556
0b9c
00f5
cafe
3815
5556
0ba0
019b
cafe
3c0e
5556
0ba0
0146
cafe
201e
5556
0ba0
021f
cafe
2406
5556
0ba0
0181
cafe
2816
5556
0ba4
01bf
cafe
2c0f
5556
0ba4
0167
cafe
301f
5556
0ba4
01dd
cafe
3407
5556
0ba4
01b0
cafe
3817
5556
0ba8
01d4
cafe
3c08
5556
0ba8
00e4
cafe
2018
5556
0ba8
019a
cafe
2400
5556
0ba8
0164
cafe
2810
5556
0bac
015e
cafe
2c09
5556
0bac
0152
cafe
3019
5556
0bac
0197
cafe
3401
5556
0bac
0142
cafe
3811
5556
0bb0
01b0
cafe
3c0a
5556
0bb0
01f5
cafe
201a
5556
0bb0
01c2
cafe
2402
5556
0bb0
0174
cafe
2812
5556
0bb4
0135
cafe
2c0b
5556
0bb4
01c8
cafe
301b
5556
0bb4
01e2
cafe
3403
5556
0bb4
0215
cafe
3813
5556
0bb8
01c7
cafe
3c0c
5556
0bb8
0168
cafe
201c
5556
0bb8
017f
cafe
2404
5556
0bb8
018d
cafe
2814
5556
0bbc
015b
cafe
2c0d
5556
0bbc
015a
cafe
301d
5556
0bbc
017e
cafe
3405
5556
0bbc
00f5
cafe
3815
5556
0bc0
01a2
cafe
3c0e
5556
0bc0
0146
cafe
201e
5556
0bc0
021d
cafe
2406
5556
0bc0
0182
cafe
2816
5556
0bc4
01ba
cafe
2c0f
5556
0bc4
0163
-
cafe
301f
5556
0bc4
01dd
cafe
3407
5556
0bc4
01aa
cafe
3817
5556
0bc8
01d9
cafe
3c08
5556
0bc8
00de
cafe
2018
5556
0bc8
019a
cafe
2400
5556
0bc8
0160
cafe
2810
5556
0bcc
015a
cafe
2c09
5556
0bcc
014f
cafe
3019
5556
0bcc
019c
cafe
3401
5556
0bcc
013f
cafe
3811
5556
0bd0
01b3
cafe
3c0a
5556
0bd0
01f7
cafe
201a
5556
0bd0
01c1
cafe
2402
5556
0bd0
0176
cafe
2812
5556
0bd4
0134
cafe
2c0b
5556
0bd4
01c8
cafe
301b
5556
0bd4
01e0
cafe
3403
5556
0bd4
0213
cafe
3813
5556
0bd8
01cb
cafe
3c0c
5556
0bd8
0168
cafe
201c
5556
0bd8
0180
cafe
2404
5556
0bd8
018e
cafe
2814
5556
0bdc
0158
cafe
2c0d
5556
0bdc
015c
cafe
301d
5556
0bdc
0182
cafe
3405
5556
0bdc
00fb
cafe
3815
5556
0be0
01a1
cafe
3c0e
5556
0be0
014a
cafe
201e
5556
0be0
0228
cafe
2406
5556
0be0
0184
cafe
2816
5556
0be4
01b8
cafe
2c0f
5556
0be4
0162
cafe
301f
5556
0be4
01de
cafe
3407
5556
0be4
01ae
cafe
3817
5556
0be8
01d8
cafe
3c08
5556
0be8
00da
cafe
2018
5556
0be8
019b
cafe
2400
5556
0be8
0164
cafe
2810
5556
0bec
0160
cafe
2c09
5556
0bec
0153
cafe
3019
5556
0bec
0194
cafe
3401
5556
0bec
013b
cafe
3811
5556
0bf0
01b4
cafe
3c0a
5556
0bf0
01f6
cafe
201a
5556
0bf0
01c6
cafe
2402
5556
0bf0
0172
cafe
2812
5556
0bf4
0137
cafe
2c0b
5556
0bf4
01cb
cafe
301b
5556
0bf4
01dc
cafe
3403
5556
0bf4
0216
cafe
3813
5556
0bf8
01c4
cafe
-
3c0c
5556
0bf8
0169
cafe
201c
5556
0bf8
017b
cafe
2404
5556
0bf8
0196
cafe
2814
5556
0bfc
0157
cafe
2c0d
5556
0bfc
0162
cafe
301d
5556
0bfc
0182
cafe
3405
5556
0bfc
00f7
cafe
3815
5556
0c00
019b
cafe
3c0e
5556
0c00
014b
cafe
201e
5556
0c00
0224
cafe
2406
5556
0c00
0185
cafe
2816
5556
0c04
01be
cafe
2c0f
5556
0c04
0164
cafe
301f
5556
0c04
01e2
cafe
3407
5556
0c04
01ab
cafe
3817
5556
0c08
01d8
cafe
3c08
5556
0c08
00d8
cafe
2018
5556
0c08
019e
cafe
2400
5556
0c08
0169
cafe
2810
5556
0c0c
0160
cafe
2c09
5556
0c0c
0154
cafe
3019
5556
0c0c
019a
cafe
3401
5556
0c0c
0139
cafe
3811
5556
0c10
01b7
cafe
3c0a
5556
0c10
01f5
cafe
201a
5556
0c10
01c3
cafe
2402
5556
0c10
0171
cafe
2812
5556
0c14
0137
cafe
2c0b
5556
0c14
01ca
cafe
301b
5556
0c14
01de
cafe
3403
5556
0c14
0216
cafe
3813
5556
0c18
01cb
cafe
3c0c
5556
0c18
016e
cafe
201c
5556
0c18
017d
cafe
2404
5556
0c18
0196
cafe
2814
5556
0c1c
015b
cafe
2c0d
5556
0c1c
0166
cafe
301d
5556
0c1c
0181
cafe
3405
5556
0c1c
00fa
cafe
3815
5556
0c20
01a0
cafe
3c0e
5556
0c20
0149
cafe
201e
5556
0c20
0229
cafe
2406
5556
0c20
0186
cafe
2816
5556
0c24
01bc
cafe
2c0f
5556
0c24
0166
cafe
301f
5556
0c24
01e2
cafe
3407
5556
0c24
01ac
cafe
3817
5556
0c28
01d9
cafe
3c08
5556
0c28
00db
cafe
2018
5556
0c28
019a
cafe
2400
5556
0c28
016e
cafe
2810
-
5556
0c2c
015b
cafe
2c09
5556
0c2c
0157
cafe
3019
5556
0c2c
019d
cafe
3401
5556
0c2c
0134
cafe
3811
5556
0c30
01b9
cafe
3c0a
5556
0c30
01f1
cafe
201a
5556
0c30
01c5
cafe
2402
5556
0c30
016e
cafe
2812
5556
0c34
0137
cafe
2c0b
5556
0c34
01c6
cafe
301b
5556
0c34
01db
cafe
3403
5556
0c34
0212
cafe
3813
5556
0c38
01ca
cafe
3c0c
5556
0c38
016e
cafe
201c
5556
0c38
017f
cafe
2404
5556
0c38
0198
cafe
2814
5556
0c3c
0160
cafe
2c0d
5556
0c3c
0168
cafe
301d
5556
0c3c
0187
cafe
3405
5556
0c3c
00fc
cafe
3815
5556
0c40
0199
cafe
3c0e
5556
0c40
0143
cafe
201e
5556
0c40
0222
cafe
2406
5556
0c40
0185
cafe
2816
5556
0c44
01c1
cafe
2c0f
5556
0c44
0167
cafe
301f
5556
0c44
01de
cafe
3407
5556
0c44
01ac
cafe
3817
5556
0c48
01d6
cafe
3c08
5556
0c48
00d6
cafe
2018
5556
0c48
0197
cafe
2400
5556
0c48
0172
cafe
2810
5556
0c4c
015a
cafe
2c09
5556
0c4c
0151
cafe
3019
5556
0c4c
019a
cafe
3401
5556
0c4c
012f
cafe
3811
5556
0c50
01b8
cafe
3c0a
5556
0c50
01f1
cafe
201a
5556
0c50
01c7
cafe
2402
5556
0c50
0171
cafe
2812
5556
0c54
0135
cafe
2c0b
5556
0c54
01cc
cafe
301b
5556
0c54
01d8
cafe
3403
5556
0c54
0211
cafe
3813
5556
0c58
01c8
cafe
3c0c
5556
0c58
016f
cafe
201c
5556
0c58
017d
cafe
2404
5556
0c58
0194
cafe
2814
5556
0c5c
0164
cafe
2c0d
5556
0c5c
0162
cafe
301d
5556
0c5c
018c
cafe
3405
5556
-
0c5c
00f8
cafe
3815
5556
0c60
0198
cafe
3c0e
5556
0c60
0141
cafe
201e
5556
0c60
0221
cafe
2406
5556
0c60
0183
cafe
2816
5556
0c64
01bf
cafe
2c0f
5556
0c64
0169
cafe
301f
5556
0c64
01db
cafe
3407
5556
0c64
01b3
cafe
3817
5556
0c68
01d9
cafe
3c08
5556
0c68
00d5
cafe
2018
5556
0c68
0196
cafe
2400
5556
0c68
016d
cafe
2810
5556
0c6c
015e
cafe
2c09
5556
0c6c
014d
cafe
3019
5556
0c6c
019e
cafe
3401
5556
0c6c
012b
cafe
3811
5556
0c70
01b7
cafe
3c0a
5556
0c70
01f7
cafe
201a
5556
0c70
01c8
cafe
2402
5556
0c70
016c
cafe
2812
5556
0c74
0135
cafe
2c0b
5556
0c74
01cd
cafe
301b
5556
0c74
01db
cafe
3403
5556
0c74
0214
cafe
3813
5556
0c78
01ca
cafe
3c0c
5556
0c78
016c
cafe
201c
5556
0c78
0181
cafe
2404
5556
0c78
0194
cafe
2814
5556
0c7c
0167
cafe
2c0d
5556
0c7c
0162
cafe
301d
5556
0c7c
0188
cafe
3405
5556
0c7c
00f8
cafe
3815
5556
0c80
019a
cafe
3c0e
5556
0c80
0144
cafe
201e
5556
0c80
021e
cafe
2406
5556
0c80
0187
cafe
2816
5556
0c84
01b9
cafe
2c0f
5556
0c84
0165
cafe
301f
5556
0c84
01db
cafe
3407
5556
0c84
01ab
cafe
3817
5556
0c88
01db
cafe
3c08
5556
0c88
00da
cafe
2018
5556
0c88
0197
cafe
2400
5556
0c88
016a
cafe
2810
5556
0c8c
0162
cafe
2c09
5556
0c8c
0149
cafe
3019
5556
0c8c
01a2
cafe
3401
5556
0c8c
012f
cafe
3811
5556
0c90
01b1
cafe
3c0a
5556
0c90
01f3
cafe
201a
5556
0c90
-
01c8
cafe
2402
5556
0c90
016a
cafe
2812
5556
0c94
0133
cafe
2c0b
5556
0c94
01cc
cafe
301b
5556
0c94
01dd
cafe
3403
5556
0c94
0210
cafe
3813
5556
0c98
01c5
cafe
3c0c
5556
0c98
016a
cafe
201c
5556
0c98
0180
cafe
2404
5556
0c98
0191
cafe
2814
5556
0c9c
0167
cafe
2c0d
5556
0c9c
0166
cafe
301d
5556
0c9c
0187
cafe
3405
5556
0c9c
00f9
cafe
3815
5556
0ca0
0199
cafe
3c0e
5556
0ca0
0146
cafe
201e
5556
0ca0
0224
cafe
2406
5556
0ca0
0185
cafe
2816
5556
0ca4
01bc
cafe
2c0f
5556
0ca4
0168
cafe
301f
5556
0ca4
01d4
cafe
3407
5556
0ca4
01b0
cafe
3817
5556
0ca8
01dd
cafe
3c08
5556
0ca8
00db
cafe
2018
5556
0ca8
0196
cafe
2400
5556
0ca8
0163
cafe
2810
5556
0cac
015d
cafe
2c09
5556
0cac
014b
cafe
3019
5556
0cac
01a0
cafe
3401
5556
0cac
012b
cafe
3811
5556
0cb0
01b6
cafe
3c0a
5556
0cb0
01f2
cafe
201a
5556
0cb0
01cb
cafe
2402
5556
0cb0
016c
cafe
2812
5556
0cb4
0130
cafe
2c0b
5556
0cb4
01cf
cafe
301b
5556
0cb4
01dd
cafe
3403
5556
0cb4
0212
cafe
3813
5556
0cb8
01c8
cafe
3c0c
5556
0cb8
016b
cafe
201c
5556
0cb8
0182
cafe
2404
5556
0cb8
018d
cafe
2814
5556
0cbc
0163
cafe
2c0d
5556
0cbc
0164
cafe
301d
5556
0cbc
0188
cafe
3405
5556
0cbc
00fd
cafe
3815
5556
0cc0
01a0
cafe
3c0e
5556
0cc0
0149
cafe
201e
5556
0cc0
0224
cafe
2406
5556
0cc0
0181
cafe
2816
5556
0cc4
01bc
cafe
2c0f
5556
0cc4
0165
-
cafe
301f
5556
0cc4
01d3
cafe
3407
5556
0cc4
01ac
cafe
3817
5556
0cc8
01d8
cafe
3c08
5556
0cc8
00d8
cafe
2018
5556
0cc8
0198
cafe
2400
5556
0cc8
0160
cafe
2810
5556
0ccc
015c
cafe
2c09
5556
0ccc
014f
cafe
3019
5556
0ccc
01a2
cafe
3401
5556
0ccc
0129
cafe
3811
5556
0cd0
01b1
cafe
3c0a
5556
0cd0
01f8
cafe
201a
5556
0cd0
01cc
cafe
2402
5556
0cd0
016c
cafe
2812
5556
0cd4
012e
cafe
2c0b
5556
0cd4
01d1
cafe
301b
5556
0cd4
01db
cafe
3403
5556
0cd4
0213
cafe
3813
5556
0cd8
01ca
cafe
3c0c
5556
0cd8
0167
cafe
201c
5556
0cd8
0181
cafe
2404
5556
0cd8
0190
cafe
2814
5556
0cdc
015d
cafe
2c0d
5556
0cdc
0160
cafe
301d
5556
0cdc
0187
cafe
3405
5556
0cdc
00ff
cafe
3815
5556
0ce0
019a
cafe
3c0e
5556
0ce0
0148
cafe
201e
5556
0ce0
0224
cafe
2406
5556
0ce0
0180
cafe
2816
5556
0ce4
01be
cafe
2c0f
5556
0ce4
0169
cafe
301f
5556
0ce4
01d7
cafe
3407
5556
0ce4
01a8
cafe
3817
5556
0ce8
01dc
cafe
3c08
5556
0ce8
00da
cafe
2018
5556
0ce8
0197
cafe
2400
5556
0ce8
015f
cafe
2810
5556
0cec
015c
cafe
2c09
5556
0cec
0153
cafe
3019
5556
0cec
01a2
cafe
3401
5556
0cec
0131
cafe
3811
5556
0cf0
01b4
cafe
3c0a
5556
0cf0
01f8
cafe
201a
5556
0cf0
01cf
cafe
2402
5556
0cf0
0170
cafe
2812
5556
0cf4
0131
cafe
2c0b
5556
0cf4
01d1
cafe
301b
5556
0cf4
01de
cafe
3403
5556
0cf4
0216
cafe
3813
5556
0cf8
01cf
cafe
-
3c0c
5556
0cf8
0168
cafe
201c
5556
0cf8
0181
cafe
2404
5556
0cf8
0193
cafe
2814
5556
0cfc
0160
cafe
2c0d
5556
0cfc
0161
cafe
301d
5556
0cfc
0185
cafe
3405
5556
0cfc
0100
cafe
3815
5556
0d00
0195
cafe
3c0e
5556
0d00
0149
cafe
201e
5556
0d00
0226
cafe
2406
5556
0d00
017e
cafe
2816
5556
0d04
01bd
cafe
2c0f
5556
0d04
0166
cafe
301f
5556
0d04
01d9
cafe
3407
5556
0d04
01ab
cafe
3817
5556
0d08
01df
cafe
3c08
5556
0d08
00d7
cafe
2018
5556
0d08
0192
cafe
2400
5556
0d08
015c
cafe
2810
5556
0d0c
015b
cafe
2c09
5556
0d0c
0153
cafe
3019
5556
0d0c
019c
cafe
3401
5556
0d0c
0133
cafe
3811
5556
0d10
01b2
cafe
3c0a
5556
0d10
01f5
cafe
201a
5556
0d10
01cb
cafe
2402
5556
0d10
016d
cafe
2812
5556
0d14
0131
cafe
2c0b
5556
0d14
01d0
cafe
301b
5556
0d14
01df
cafe
3403
5556
0d14
0215
cafe
3813
5556
0d18
01cc
cafe
3c0c
5556
0d18
0168
cafe
201c
5556
0d18
0183
cafe
2404
5556
0d18
0190
cafe
2814
5556
0d1c
0164
cafe
2c0d
5556
0d1c
0163
cafe
301d
5556
0d1c
0188
cafe
3405
5556
0d1c
0105
cafe
3815
5556
0d20
0191
cafe
3c0e
5556
0d20
014d
cafe
201e
5556
0d20
0225
cafe
2406
5556
0d20
0177
cafe
2816
5556
0d24
01b9
cafe
2c0f
5556
0d24
0195
cafe
301f
5556
0d24
020d
cafe
3407
5556
0d24
01e5
cafe
3817
5556
0d28
0219
cafe
3c08
5556
0d28
01a3
cafe
2018
5556
0d28
0270
cafe
2400
5556
0d28
0222
cafe
2810
-
5556
0d2c
0237
cafe
2c09
5556
0d2c
02a1
cafe
3019
5556
0d2c
02ec
cafe
3401
5556
0d2c
0288
cafe
3811
5556
0d30
0305
cafe
3c0a
5556
0d30
03dd
cafe
201a
5556
0d30
03af
cafe
2402
5556
0d30
0337
cafe
2812
5556
0d34
0311
cafe
2c0b
5556
0d34
0425
cafe
301b
5556
0d34
042f
cafe
3403
5556
0d34
045a
cafe
3813
5556
0d38
0416
cafe
3c0c
5556
0d38
042a
cafe
201c
5556
0d38
0442
cafe
2404
5556
0d38
043c
cafe
2814
5556
0d3c
0429
cafe
2c0d
5556
0d3c
0475
cafe
301d
5556
0d3c
049f
cafe
3405
5556
0d3c
0404
cafe
3815
5556
0d40
04a7
cafe
3c0e
5556
0d40
04bf
cafe
201e
5556
0d40
059b
cafe
2406
5556
0d40
04e2
cafe
2816
5556
0d44
052c
cafe
2c0f
5556
0d44
051a
cafe
301f
5556
0d44
0592
cafe
3407
5556
0d44
0566
cafe
3817
5556
0d48
0594
cafe
3c08
5556
0d48
04e2
cafe
2018
5556
0d48
059d
cafe
2400
5556
0d48
0566
cafe
2810
5556
0d4c
0566
cafe
2c09
5556
0d4c
058c
cafe
3019
5556
0d4c
05da
cafe
3401
5556
0d4c
0574
cafe
3811
5556
0d50
05fc
cafe
3c0a
5556
0d50
067b
cafe
201a
5556
0d50
064f
cafe
2402
5556
0d50
05e2
cafe
2812
5556
0d54
05b2
cafe
2c0b
5556
0d54
0690
cafe
301b
5556
0d54
068c
cafe
3403
5556
0d54
06c4
cafe
3813
5556
0d58
0684
cafe
3c0c
5556
0d58
0650
cafe
201c
5556
0d58
0667
cafe
2404
5556
0d58
066a
cafe
2814
5556
0d5c
0651
cafe
2c0d
5556
0d5c
0677
cafe
301d
5556
0d5c
0690
cafe
3405
5556
-
0d5c
0600
cafe
3815
5556
0d60
06aa
cafe
3c0e
5556
0d60
0684
cafe
201e
5556
0d60
0765
cafe
2406
5556
0d60
06b3
cafe
2816
5556
0d64
06f4
cafe
2c0f
5556
0d64
06c0
cafe
301f
5556
0d64
073e
cafe
3407
5556
0d64
070b
cafe
3817
5556
0d68
0739
cafe
3c08
5556
0d68
065a
cafe
2018
5556
0d68
0711
cafe
2400
5556
0d68
06dc
cafe
2810
5556
0d6c
06d4
cafe
2c09
5556
0d6c
06dc
cafe
3019
5556
0d6c
072f
cafe
3401
5556
0d6c
06be
cafe
3811
5556
0d70
0757
cafe
3c0a
5556
0d70
0799
cafe
201a
5556
0d70
0772
cafe
2402
5556
0d70
0712
cafe
2812
5556
0d74
06d5
cafe
2c0b
5556
0d74
079c
cafe
301b
5556
0d74
0790
cafe
3403
5556
0d74
07d2
cafe
3813
5556
0d78
07a2
cafe
3c0c
5556
0d78
0735
cafe
201c
5556
0d78
074f
cafe
2404
5556
0d78
0759
cafe
2814
5556
0d7c
0735
cafe
2c0d
5556
0d7c
075f
cafe
301d
5556
0d7c
0758
cafe
3405
5556
0d7c
06df
cafe
3815
5556
0d80
07a1
cafe
3c0e
5556
0d80
073c
cafe
201e
5556
0d80
081f
cafe
2406
5556
0d80
078a
cafe
2816
5556
0d84
07af
cafe
2c0f
5556
0d84
0783
cafe
301f
5556
0d84
07f6
cafe
3407
5556
0d84
07c8
cafe
3817
5556
0d88
07fd
cafe
3c08
5556
0d88
0705
cafe
2018
5556
0d88
0799
cafe
2400
5556
0d88
0772
cafe
2810
5556
0d8c
075d
cafe
2c09
5556
0d8c
0784
cafe
3019
5556
0d8c
07d9
cafe
3401
5556
0d8c
073b
cafe
3811
5556
0d90
0807
cafe
3c0a
5556
0d90
07fe
cafe
201a
5556
0d90
-
07d4
cafe
2402
5556
0d90
0796
cafe
2812
5556
0d94
0739
cafe
2c0b
5556
0d94
07f2
cafe
301b
5556
0d94
07e3
cafe
3403
5556
0d94
083a
cafe
3813
5556
0d98
083c
cafe
3c0c
5556
0d98
0779
cafe
201c
5556
0d98
0793
cafe
2404
5556
0d98
07cb
cafe
2814
5556
0d9c
077a
cafe
2c0d
5556
0d9c
07ca
cafe
301d
5556
0d9c
078c
cafe
3405
5556
0d9c
073c
cafe
3815
5556
0da0
0821
cafe
3c0e
5556
0da0
076b
cafe
201e
5556
0da0
084b
cafe
2406
5556
0da0
07e4
cafe
2816
5556
0da4
07d5
cafe
2c0f
5556
0da4
07f4
cafe
301f
5556
0da4
084d
cafe
3407
5556
0da4
0825
cafe
3817
5556
0da8
086c
cafe
3c08
5556
0da8
0750
cafe
2018
5556
0da8
07ab
cafe
2400
5556
0da8
0791
cafe
2810
5556
0dac
076e
cafe
2c09
5556
0dac
07c5
cafe
3019
5556
0dac
0821
cafe
3401
5556
0dac
0747
cafe
3811
5556
0db0
0851
cafe
3c0a
5556
0db0
07ff
cafe
201a
5556
0db0
07d2
cafe
2402
5556
0db0
07af
cafe
2812
5556
0db4
0736
cafe
2c0b
5556
0db4
07e9
cafe
301b
5556
0db4
07e0
cafe
3403
5556
0db4
084e
cafe
3813
5556
0db8
087e
cafe
3c0c
5556
0db8
0765
cafe
201c
5556
0db8
0778
cafe
2404
5556
0db8
07e7
cafe
2814
5556
0dbc
076c
cafe
2c0d
5556
0dbc
07e8
cafe
301d
5556
0dbc
0774
cafe
3405
5556
0dbc
0747
cafe
3815
5556
0dc0
0850
cafe
3c0e
5556
0dc0
074e
cafe
201e
5556
0dc0
082d
cafe
2406
5556
0dc0
07ef
cafe
2816
5556
0dc4
07b3
cafe
2c0f
5556
0dc4
07f3
-
cafe
301f
5556
0dc4
0845
cafe
3407
5556
0dc4
0819
cafe
3817
5556
0dc8
086d
cafe
3c08
5556
0dc8
0741
cafe
2018
5556
0dc8
0784
cafe
2400
5556
0dc8
0766
cafe
2810
5556
0dcc
0744
cafe
2c09
5556
0dcc
07c7
cafe
3019
5556
0dcc
081b
cafe
3401
5556
0dcc
0723
cafe
3811
5556
0dd0
0856
cafe
3c0a
5556
0dd0
07cc
cafe
201a
5556
0dd0
079b
cafe
2402
5556
0dd0
078c
cafe
2812
5556
0dd4
0702
cafe
2c0b
5556
0dd4
07b9
cafe
301b
5556
0dd4
07a6
cafe
3403
5556
0dd4
082b
cafe
3813
5556
0dd8
0866
cafe
3c0c
5556
0dd8
0724
cafe
201c
5556
0dd8
073c
cafe
2404
5556
0dd8
07b7
cafe
2814
5556
0ddc
0733
cafe
2c0d
5556
0ddc
07b7
cafe
301d
5556
0ddc
072a
cafe
3405
5556
0ddc
070e
cafe
3815
5556
0de0
082b
cafe
3c0e
5556
0de0
0710
cafe
201e
5556
0de0
07ed
cafe
2406
5556
0de0
07bf
cafe
2816
5556
0de4
076c
cafe
2c0f
5556
0de4
07c6
cafe
301f
5556
0de4
0818
cafe
3407
5556
0de4
07ee
cafe
3817
5556
0de8
0844
cafe
3c08
5556
0de8
0703
cafe
2018
5556
0de8
0738
cafe
2400
5556
0de8
071d
cafe
2810
5556
0dec
06fd
cafe
2c09
5556
0dec
078a
cafe
3019
5556
0dec
07e0
cafe
3401
5556
0dec
06d4
cafe
3811
5556
0df0
081b
cafe
3c0a
5556
0df0
0782
cafe
201a
5556
0df0
0753
cafe
2402
5556
0df0
0743
cafe
2812
5556
0df4
06b1
cafe
2c0b
5556
0df4
076f
cafe
301b
5556
0df4
075b
cafe
3403
5556
0df4
07eb
cafe
3813
5556
0df8
0825
cafe
-
3c0c
5556
0df8
06d2
cafe
201c
5556
0df8
06e7
cafe
2404
5556
0df8
0774
cafe
2814
5556
0dfc
06de
cafe
2c0d
5556
0dfc
0776
cafe
301d
5556
0dfc
06d3
cafe
3405
5556
0dfc
06c6
cafe
3815
5556
0e00
07e5
cafe
3c0e
5556
0e00
06bd
cafe
201e
5556
0e00
07a2
cafe
2406
5556
0e00
0770
cafe
2816
5556
0e04
071a
cafe
2c0f
5556
0e04
076e
cafe
301f
5556
0e04
07c5
cafe
3407
5556
0e04
079d
cafe
3817
5556
0e08
07f0
cafe
3c08
5556
0e08
06a4
cafe
2018
5556
0e08
06e8
cafe
2400
5556
0e08
06c4
cafe
2810
5556
0e0c
06ab
cafe
2c09
5556
0e0c
0736
cafe
3019
5556
0e0c
0787
cafe
3401
5556
0e0c
0683
cafe
3811
5556
0e10
07c8
cafe
3c0a
5556
0e10
072e
cafe
201a
5556
0e10
06fc
cafe
2402
5556
0e10
06f4
cafe
2812
5556
0e14
0658
cafe
2c0b
5556
0e14
0720
cafe
301b
5556
0e14
0702
cafe
3403
5556
0e14
079b
cafe
3813
5556
0e18
07d2
cafe
3c0c
5556
0e18
067a
cafe
201c
5556
0e18
068c
cafe
2404
5556
0e18
071b
cafe
2814
5556
0e1c
0687
cafe
2c0d
5556
0e1c
0716
cafe
301d
5556
0e1c
0678
cafe
3405
5556
0e1c
0667
cafe
3815
5556
0e20
0787
cafe
3c0e
5556
0e20
0669
cafe
201e
5556
0e20
074b
cafe
2406
5556
0e20
0714
cafe
2816
5556
0e24
06c1
cafe
2c0f
5556
0e24
0720
cafe
301f
5556
0e24
0770
cafe
3407
5556
0e24
0748
cafe
3817
5556
0e28
07a3
cafe
3c08
5556
0e28
0648
cafe
2018
5556
0e28
0694
cafe
2400
5556
0e28
0668
cafe
2810
-
5556
0e2c
0654
cafe
2c09
5556
0e2c
06dd
cafe
3019
5556
0e2c
0727
cafe
3401
5556
0e2c
062a
cafe
3811
5556
0e30
076e
cafe
3c0a
5556
0e30
06d8
cafe
201a
5556
0e30
069e
cafe
2402
5556
0e30
0698
cafe
2812
5556
0e34
0602
cafe
2c0b
5556
0e34
06cc
cafe
301b
5556
0e34
06aa
cafe
3403
5556
0e34
0743
cafe
3813
5556
0e38
0774
cafe
3c0c
5556
0e38
061e
cafe
201c
5556
0e38
062f
cafe
2404
5556
0e38
06c6
cafe
2814
5556
0e3c
062b
cafe
2c0d
5556
0e3c
06c2
cafe
301d
5556
0e3c
061d
cafe
3405
5556
0e3c
060f
cafe
3815
5556
0e40
0737
cafe
3c0e
5556
0e40
0617
cafe
201e
5556
0e40
06f1
cafe
2406
5556
0e40
06be
cafe
2816
5556
0e44
0669
cafe
2c0f
5556
0e44
06b7
cafe
301f
5556
0e44
0715
cafe
3407
5556
0e44
06e7
cafe
3817
5556
0e48
073e
cafe
3c08
5556
0e48
05e2
cafe
2018
5556
0e48
063f
cafe
2400
5556
0e48
060a
cafe
2810
5556
0e4c
05f7
cafe
2c09
5556
0e4c
067f
cafe
3019
5556
0e4c
06c8
cafe
3401
5556
0e4c
05d4
cafe
3811
5556
0e50
0710
cafe
3c0a
5556
0e50
0685
cafe
201a
5556
0e50
0646
cafe
2402
5556
0e50
0648
cafe
2812
5556
0e54
05a9
cafe
2c0b
5556
0e54
0678
cafe
301b
5556
0e54
0651
cafe
3403
5556
0e54
06ef
cafe
3813
5556
0e58
0724
cafe
3c0c
5556
0e58
05d1
cafe
201c
5556
0e58
05d8
cafe
2404
5556
0e58
066b
cafe
2814
5556
0e5c
05d9
cafe
2c0d
5556
0e5c
0663
cafe
301d
5556
0e5c
05c6
cafe
3405
5556
-
0e5c
05b2
cafe
3815
5556
0e60
06cc
cafe
3c0e
5556
0e60
05c0
cafe
201e
5556
0e60
069c
cafe
2406
5556
0e60
0666
cafe
2816
5556
0e64
060b
cafe
2c0f
5556
0e64
0660
cafe
301f
5556
0e64
06bb
cafe
3407
5556
0e64
0690
cafe
3817
5556
0e68
06eb
cafe
3c08
5556
0e68
0589
cafe
2018
5556
0e68
05e6
cafe
2400
5556
0e68
05b4
cafe
2810
5556
0e6c
05a2
cafe
2c09
5556
0e6c
0625
cafe
3019
5556
0e6c
066a
cafe
3401
5556
0e6c
0580
cafe
3811
5556
0e70
06ba
cafe
3c0a
5556
0e70
0631
cafe
201a
5556
0e70
05f6
cafe
2402
5556
0e70
05ec
cafe
2812
5556
0e74
0554
cafe
2c0b
5556
0e74
0628
cafe
301b
5556
0e74
05fc
cafe
3403
5556
0e74
0695
cafe
3813
5556
0e78
06ba
cafe
3c0c
5556
0e78
057d
cafe
201c
5556
0e78
0585
cafe
2404
5556
0e78
0613
cafe
2814
5556
0e7c
0586
cafe
2c0d
5556
0e7c
060f
cafe
301d
5556
0e7c
056f
cafe
3405
5556
0e7c
0568
cafe
3815
5556
0e80
0679
cafe
3c0e
5556
0e80
0570
cafe
201e
5556
0e80
0648
cafe
2406
5556
0e80
060e
cafe
2816
5556
0e84
05b6
cafe
2c0f
5556
0e84
0602
cafe
301f
5556
0e84
0665
cafe
3407
5556
0e84
0639
cafe
3817
5556
0e88
0688
cafe
3c08
5556
0e88
0520
cafe
2018
5556
0e88
059c
cafe
2400
5556
0e88
055c
cafe
2810
5556
0e8c
0555
cafe
2c09
5556
0e8c
05cd
cafe
3019
5556
0e8c
0610
cafe
3401
5556
0e8c
052c
cafe
3811
5556
0e90
0661
cafe
3c0a
5556
0e90
05e2
cafe
201a
5556
0e90
-
05a3
cafe
2402
5556
0e90
059e
cafe
2812
5556
0e94
0504
cafe
2c0b
5556
0e94
05d8
cafe
301b
5556
0e94
05ac
cafe
3403
5556
0e94
064b
cafe
3813
5556
0e98
0666
cafe
3c0c
5556
0e98
0531
cafe
201c
5556
0e98
0538
cafe
2404
5556
0e98
05bb
cafe
2814
5556
0e9c
0538
cafe
2c0d
5556
0e9c
05b3
cafe
301d
5556
0e9c
0521
cafe
3405
5556
0e9c
0510
cafe
3815
5556
0ea0
061c
cafe
3c0e
5556
0ea0
0523
cafe
201e
5556
0ea0
05f6
cafe
2406
5556
0ea0
05b9
cafe
2816
5556
0ea4
056d
cafe
2c0f
5556
0ea4
05b3
cafe
301f
5556
0ea4
0612
cafe
3407
5556
0ea4
05ed
cafe
3817
5556
0ea8
063c
cafe
3c08
5556
0ea8
04d9
cafe
2018
5556
0ea8
054f
cafe
2400
5556
0ea8
0514
cafe
2810
5556
0eac
050a
cafe
2c09
5556
0eac
057d
cafe
3019
5556
0eac
05ba
cafe
3401
5556
0eac
04e0
cafe
3811
5556
0eb0
0610
cafe
3c0a
5556
0eb0
059d
cafe
201a
5556
0eb0
055b
cafe
2402
5556
0eb0
054c
cafe
2812
5556
0eb4
04b9
cafe
2c0b
5556
0eb4
058f
cafe
301b
5556
0eb4
0562
cafe
3403
5556
0eb4
05f4
cafe
3813
5556
0eb8
0610
cafe
3c0c
5556
0eb8
04ec
cafe
201c
5556
0eb8
04ee
cafe
2404
5556
0eb8
056d
cafe
2814
5556
0ebc
04f2
cafe
2c0d
5556
0ebc
056e
cafe
301d
5556
0ebc
04d4
cafe
3405
5556
0ebc
04cf
cafe
3815
5556
0ec0
05d2
cafe
3c0e
5556
0ec0
04d5
cafe
201e
5556
0ec0
05af
cafe
2406
5556
0ec0
056e
cafe
2816
5556
0ec4
052b
cafe
2c0f
5556
0ec4
0566
-
cafe
301f
5556
0ec4
05bf
cafe
3407
5556
0ec4
0590
cafe
3817
5556
0ec8
05e5
cafe
3c08
5556
0ec8
0485
cafe
2018
5556
0ec8
0505
cafe
2400
5556
0ec8
04c9
cafe
2810
5556
0ecc
04cb
cafe
2c09
5556
0ecc
052c
cafe
3019
5556
0ecc
0573
cafe
3401
5556
0ecc
049e
cafe
3811
5556
0ed0
05bf
cafe
3c0a
5556
0ed0
0553
cafe
201a
5556
0ed0
0512
cafe
2402
5556
0ed0
0508
cafe
2812
5556
0ed4
0472
cafe
2c0b
5556
0ed4
054a
cafe
301b
5556
0ed4
051d
cafe
3403
5556
0ed4
05b2
cafe
3813
5556
0ed8
05ca
cafe
3c0c
5556
0ed8
04ab
cafe
201c
5556
0ed8
04b2
cafe
2404
5556
0ed8
0529
cafe
2814
5556
0edc
04ac
cafe
2c0d
5556
0edc
051c
cafe
301d
5556
0edc
048e
cafe
3405
5556
0edc
047f
cafe
3815
5556
0ee0
0575
cafe
3c0e
5556
0ee0
0491
cafe
201e
5556
0ee0
056c
cafe
2406
5556
0ee0
0524
cafe
2816
5556
0ee4
04e9
cafe
2c0f
5556
0ee4
0523
cafe
301f
5556
0ee4
0572
cafe
3407
5556
0ee4
0551
cafe
3817
5556
0ee8
05a0
cafe
3c08
5556
0ee8
044e
cafe
2018
5556
0ee8
04bc
cafe
2400
5556
0ee8
0483
cafe
2810
5556
0eec
048e
cafe
2c09
5556
0eec
04e9
cafe
3019
5556
0eec
0537
cafe
3401
5556
0eec
0460
cafe
3811
5556
0ef0
057d
cafe
3c0a
5556
0ef0
0517
cafe
201a
5556
0ef0
04d5
cafe
2402
5556
0ef0
04c0
cafe
2812
5556
0ef4
0435
cafe
2c0b
5556
0ef4
050b
cafe
301b
5556
0ef4
04e3
cafe
3403
5556
0ef4
056f
cafe
3813
5556
0ef8
0573
cafe
-
3c0c
5556
0ef8
046e
cafe
201c
5556
0ef8
0471
cafe
2404
5556
0ef8
04de
cafe
2814
5556
0efc
0474
cafe
2c0d
5556
0efc
04dc
cafe
301d
5556
0efc
0456
cafe
3405
5556
0efc
0445
cafe
3815
5556
0f00
0537
cafe
3c0e
5556
0f00
0457
cafe
201e
5556
0f00
052a
cafe
2406
5556
0f00
04e2
cafe
2816
5556
0f04
04b6
cafe
2c0f
5556
0f04
04d1
cafe
301f
5556
0f04
052a
cafe
3407
5556
0f04
050c
cafe
3817
5556
0f08
054d
cafe
3c08
5556
0f08
03fd
cafe
2018
5556
0f08
047d
cafe
2400
5556
0f08
0445
cafe
2810
5556
0f0c
0451
cafe
2c09
5556
0f0c
04a2
cafe
3019
5556
0f0c
04e5
cafe
3401
5556
0f0c
0418
cafe
3811
5556
0f10
0531
cafe
3c0a
5556
0f10
04d9
cafe
201a
5556
0f10
0494
cafe
2402
5556
0f10
0485
cafe
2812
5556
0f14
03f9
cafe
2c0b
5556
0f14
04d2
cafe
301b
5556
0f14
04aa
cafe
3403
5556
0f14
0538
cafe
3813
5556
0f18
0536
cafe
3c0c
5556
0f18
0434
cafe
201c
5556
0f18
0430
cafe
2404
5556
0f18
049e
cafe
2814
5556
0f1c
043d
cafe
2c0d
5556
0f1c
048d
cafe
301d
5556
0f1c
041f
cafe
3405
5556
0f1c
03fc
cafe
3815
5556
0f20
04df
cafe
3c0e
5556
0f20
041f
cafe
201e
5556
0f20
04f8
cafe
2406
5556
0f20
0496
cafe
2816
5556
0f24
047b
cafe
2c0f
5556
0f24
048f
cafe
301f
5556
0f24
04ed
cafe
3407
5556
0f24
04cf
cafe
3817
5556
0f28
050b
cafe
3c08
5556
0f28
03c8
cafe
2018
5556
0f28
0446
cafe
2400
5556
0f28
0410
cafe
2810
-
5556
0f2c
0416
cafe
2c09
5556
0f2c
0467
cafe
3019
5556
0f2c
04a3
cafe
3401
5556
0f2c
03e1
cafe
3811
5556
0f30
04f5
cafe
3c0a
5556
0f30
04a3
cafe
201a
5556
0f30
045b
cafe
2402
5556
0f30
044a
cafe
2812
5556
0f34
03c6
cafe
2c0b
5556
0f34
0499
cafe
301b
5556
0f34
0470
cafe
3403
5556
0f34
04f3
cafe
3813
5556
0f38
04eb
cafe
3c0c
5556
0f38
03f8
cafe
201c
5556
0f38
03f8
cafe
2404
5556
0f38
045f
cafe
2814
5556
0f3c
0402
cafe
2c0d
5556
0f3c
0458
cafe
301d
5556
0f3c
03e8
cafe
3405
5556
0f3c
03c5
cafe
3815
5556
0f40
04a9
cafe
3c0e
5556
0f40
03ed
cafe
201e
5556
0f40
04bf
cafe
2406
5556
0f40
0463
cafe
2816
5556
0f44
0446
cafe
2c0f
5556
0f44
0453
cafe
301f
5556
0f44
04b0
cafe
3407
5556
0f44
0494
cafe
3817
5556
0f48
04d3
cafe
3c08
5556
0f48
0388
cafe
2018
5556
0f48
040d
cafe
2400
5556
0f48
03d7
cafe
2810
5556
0f4c
03de
cafe
2c09
5556
0f4c
041d
cafe
3019
5556
0f4c
045a
cafe
3401
5556
0f4c
03a8
cafe
3811
5556
0f50
04a9
cafe
3c0a
5556
0f50
046c
cafe
201a
5556
0f50
042a
cafe
2402
5556
0f50
0411
cafe
2812
5556
0f54
038f
cafe
2c0b
5556
0f54
0466
cafe
301b
5556
0f54
0439
cafe
3403
5556
0f54
04c0
cafe
3813
5556
0f58
04b9
cafe
3c0c
5556
0f58
03c4
cafe
201c
5556
0f58
03c6
cafe
2404
5556
0f58
0434
cafe
2814
5556
0f5c
03ca
cafe
2c0d
5556
0f5c
041e
cafe
301d
5556
0f5c
03b7
cafe
3405
5556
-
0f5c
0388
cafe
3815
5556
0f60
046c
cafe
3c0e
5556
0f60
03bd
cafe
201e
5556
0f60
048d
cafe
2406
5556
0f60
0424
cafe
2816
5556
0f64
0415
cafe
2c0f
5556
0f64
0416
cafe
301f
5556
0f64
046f
cafe
3407
5556
0f64
0458
cafe
3817
5556
0f68
0498
cafe
3c08
5556
0f68
0355
cafe
2018
5556
0f68
03dd
cafe
2400
5556
0f68
03a4
cafe
2810
5556
0f6c
03a8
cafe
2c09
5556
0f6c
03f0
cafe
3019
5556
0f6c
0431
cafe
3401
5556
0f6c
037a
cafe
3811
5556
0f70
047f
cafe
3c0a
5556
0f70
043b
cafe
201a
5556
0f70
03fd
cafe
2402
5556
0f70
03dd
cafe
2812
5556
0f74
0362
cafe
2c0b
5556
0f74
0430
cafe
301b
5556
0f74
040a
cafe
3403
5556
0f74
0488
cafe
3813
5556
0f78
047e
cafe
3c0c
5556
0f78
0392
cafe
201c
5556
0f78
0398
cafe
2404
5556
0f78
03ff
cafe
2814
5556
0f7c
0399
cafe
2c0d
5556
0f7c
03ee
cafe
301d
5556
0f7c
0383
cafe
3405
5556
0f7c
035b
cafe
3815
5556
0f80
0436
cafe
3c0e
5556
0f80
0384
cafe
201e
5556
0f80
0455
cafe
2406
5556
0f80
03f2
cafe
2816
5556
0f84
03e0
cafe
2c0f
5556
0f84
03eb
cafe
301f
5556
0f84
043e
cafe
3407
5556
0f84
0425
cafe
3817
5556
0f88
0460
cafe
3c08
5556
0f88
0318
cafe
2018
5556
0f88
03b1
cafe
2400
5556
0f88
036f
cafe
2810
5556
0f8c
037a
cafe
2c09
5556
0f8c
03b3
cafe
3019
5556
0f8c
03ef
cafe
3401
5556
0f8c
0343
cafe
3811
5556
0f90
043b
cafe
3c0a
5556
0f90
040f
cafe
201a
5556
0f90
-
03ce
cafe
2402
5556
0f90
03af
cafe
2812
5556
0f94
0337
cafe
2c0b
5556
0f94
0401
cafe
301b
5556
0f94
03d7
cafe
3403
5556
0f94
045b
cafe
3813
5556
0f98
044f
cafe
3c0c
5556
0f98
0364
cafe
201c
5556
0f98
036c
cafe
2404
5556
0f98
03da
cafe
2814
5556
0f9c
0369
cafe
2c0d
5556
0f9c
03be
cafe
301d
5556
0f9c
0358
cafe
3405
5556
0f9c
0327
cafe
3815
5556
0fa0
0404
cafe
3c0e
5556
0fa0
0355
cafe
201e
5556
0fa0
0429
cafe
2406
5556
0fa0
03b9
cafe
2816
5556
0fa4
03b6
cafe
2c0f
5556
0fa4
03be
cafe
301f
5556
0fa4
040c
cafe
3407
5556
0fa4
03f2
cafe
3817
5556
0fa8
042b
cafe
3c08
5556
0fa8
02f5
cafe
2018
5556
0fa8
038b
cafe
2400
5556
0fa8
0342
cafe
2810
5556
0fac
034e
cafe
2c09
5556
0fac
038c
cafe
3019
5556
0fac
03c8
cafe
3401
5556
0fac
0319
cafe
3811
5556
0fb0
0416
cafe
3c0a
5556
0fb0
03e7
cafe
201a
5556
0fb0
03a8
cafe
2402
5556
0fb0
0385
cafe
2812
5556
0fb4
030e
cafe
2c0b
5556
0fb4
03d5
cafe
301b
5556
0fb4
03ac
cafe
3403
5556
0fb4
042f
cafe
3813
5556
0fb8
0417
cafe
3c0c
5556
0fb8
033b
cafe
201c
5556
0fb8
0349
cafe
2404
5556
0fb8
03a3
cafe
2814
5556
0fbc
033e
cafe
2c0d
5556
0fbc
0385
cafe
301d
5556
0fbc
032d
cafe
3405
5556
0fbc
02f1
cafe
3815
5556
0fc0
03d3
cafe
3c0e
5556
0fc0
032d
cafe
201e
5556
0fc0
03f8
cafe
2406
5556
0fc0
0393
cafe
2816
5556
0fc4
038f
cafe
2c0f
5556
0fc4
0393
-
cafe
301f
5556
0fc4
03e9
cafe
3407
5556
0fc4
03c7
cafe
3817
5556
0fc8
0400
cafe
3c08
5556
0fc8
02c1
cafe
2018
5556
0fc8
0362
cafe
2400
5556
0fc8
031b
cafe
2810
5556
0fcc
0325
cafe
2c09
5556
0fcc
0355
cafe
3019
5556
0fcc
038a
cafe
3401
5556
0fcc
02ec
cafe
3811
5556
0fd0
03d9
cafe
3c0a
5556
0fd0
03c3
cafe
201a
5556
0fd0
0380
cafe
2402
5556
0fd0
0357
cafe
2812
5556
0fd4
02e7
cafe
2c0b
5556
0fd4
03ae
cafe
301b
5556
0fd4
0389
cafe
3403
5556
0fd4
0400
cafe
3813
5556
0fd8
03f1
cafe
3c0c
5556
0fd8
0314
cafe
201c
5556
0fd8
031a
cafe
2404
5556
0fd8
0384
cafe
2814
5556
0fdc
0318
cafe
2c0d
5556
0fdc
035d
cafe
301d
5556
0fdc
0309
cafe
3405
5556
0fdc
02ce
cafe
3815
5556
0fe0
03af
cafe
3c0e
5556
0fe0
0309
cafe
201e
5556
0fe0
03d4
cafe
2406
5556
0fe0
0364
cafe
2816
5556
0fe4
0367
cafe
2c0f
5556
0fe4
035d
cafe
301f
5556
0fe4
03b9
cafe
3407
5556
0fe4
0395
cafe
3817
5556
0fe8
03d2
cafe
3c08
5556
0fe8
029e
cafe
2018
5556
0fe8
0341
cafe
2400
5556
0fe8
02f9
cafe
2810
5556
0fec
02fa
cafe
2c09
5556
0fec
0333
cafe
3019
5556
0fec
0370
cafe
3401
5556
0fec
02c1
cafe
3811
5556
0ff0
03bc
cafe
3c0a
5556
0ff0
03a4
cafe
201a
5556
0ff0
0359
cafe
2402
5556
0ff0
0331
cafe
2812
5556
0ff4
02c1
cafe
2c0b
5556
0ff4
0387
cafe
301b
5556
0ff4
0363
cafe
3403
5556
0ff4
03d8
cafe
3813
5556
0ff8
03bf
cafe
-
3c0c
5556
0ff8
02ee
cafe
201c
5556
0ff8
02fa
cafe
2404
5556
0ff8
0355
cafe
2814
5556
0ffc
02f3
cafe
2c0d
5556
0ffc
0329
cafe
301d
5556
0ffc
02e6
cafe
3405
5556
0ffc
02a6
cafe
3815
5556
1000
037c
cafe
3c0e
5556
1000
02e6
cafe
201e
5556
1000
03b0
cafe
2406
5556
1000
0341
cafe
2816
5556
1004
0347
cafe
2c0f
5556
1004
033c
cafe
301f
5556
1004
0395
cafe
3407
5556
1004
0372
cafe
3817
5556
1008
03aa
cafe
3c08
5556
1008
0271
cafe
2018
5556
1008
0320
cafe
2400
5556
1008
02d7
cafe
2810
5556
100c
02d3
cafe
2c09
5556
100c
0304
cafe
3019
5556
100c
033d
cafe
3401
5556
100c
029c
cafe
3811
5556
1010
0389
cafe
3c0a
5556
1010
0386
cafe
201a
5556
1010
0336
cafe
2402
5556
1010
0307
cafe
2812
5556
1014
02a3
cafe
2c0b
5556
1014
0369
cafe
301b
5556
1014
0347
cafe
3403
5556
1014
03b5
cafe
3813
5556
1018
039c
cafe
3c0c
5556
1018
02c8
cafe
201c
5556
1018
02d5
cafe
2404
5556
1018
0330
cafe
2814
5556
101c
02d2
cafe
2c0d
5556
101c
030e
cafe
301d
5556
101c
02c5
cafe
3405
5556
101c
0284
cafe
3815
5556
1020
035f
cafe
3c0e
5556
1020
02c1
cafe
201e
5556
1020
038d
cafe
2406
5556
1020
0316
cafe
2816
5556
1024
0328
cafe
2c0f
5556
1024
0313
cafe
301f
5556
1024
0367
cafe
3407
5556
1024
0345
cafe
3817
5556
1028
037a
cafe
3c08
5556
1028
024a
cafe
2018
5556
1028
0303
cafe
2400
5556
1028
02b9
cafe
2810
-
5556
102c
02b7
cafe
2c09
5556
102c
02f0
cafe
3019
5556
102c
0324
cafe
3401
5556
102c
027e
cafe
3811
5556
1030
036d
cafe
3c0a
5556
1030
0360
cafe
201a
5556
1030
0317
cafe
2402
5556
1030
02e9
cafe
2812
5556
1034
0282
cafe
2c0b
5556
1034
0348
cafe
301b
5556
1034
0326
cafe
3403
5556
1034
0390
cafe
3813
5556
1038
0376
cafe
3c0c
5556
1038
02ac
cafe
201c
5556
1038
02b7
cafe
2404
5556
1038
0308
cafe
2814
5556
103c
02b5
cafe
2c0d
5556
103c
02e3
cafe
301d
5556
103c
02a5
cafe
3405
5556
103c
025b
cafe
3815
5556
1040
0332
cafe
3c0e
5556
1040
02a4
cafe
201e
5556
1040
036c
cafe
2406
5556
1040
02f7
cafe
2816
5556
1044
0305
cafe
2c0f
5556
1044
02f0
cafe
301f
5556
1044
0344
cafe
3407
5556
1044
032c
cafe
3817
5556
1048
0361
cafe
3c08
5556
1048
0225
cafe
2018
5556
1048
02e7
cafe
2400
5556
1048
0297
cafe
2810
5556
104c
0296
cafe
2c09
5556
104c
02c2
cafe
3019
5556
104c
02f2
cafe
3401
5556
104c
025f
cafe
3811
5556
1050
033f
cafe
3c0a
5556
1050
0342
cafe
201a
5556
1050
02fa
cafe
2402
5556
1050
02c4
cafe
2812
5556
1054
0267
cafe
2c0b
5556
1054
032f
cafe
301b
5556
1054
0308
cafe
3403
5556
1054
0373
cafe
3813
5556
1058
034e
cafe
3c0c
5556
1058
0290
cafe
201c
5556
1058
029d
cafe
2404
5556
1058
02f2
cafe
2814
5556
105c
0294
cafe
2c0d
5556
105c
02cb
cafe
301d
5556
105c
028a
cafe
3405
5556
-
105c
0246
cafe
3815
5556
1060
0318
cafe
3c0e
5556
1060
0288
cafe
201e
5556
1060
034d
cafe
2406
5556
1060
02dc
cafe
2816
5556
1064
02e5
cafe
2c0f
5556
1064
02c9
cafe
301f
5556
1064
0327
cafe
3407
5556
1064
0300
cafe
3817
5556
1068
0338
cafe
3c08
5556
1068
0204
cafe
2018
5556
1068
02ca
cafe
2400
5556
1068
027a
cafe
2810
5556
106c
0278
cafe
2c09
5556
106c
02aa
cafe
3019
5556
106c
02e0
cafe
3401
5556
106c
0241
cafe
3811
5556
1070
032c
cafe
3c0a
5556
1070
0329
cafe
201a
5556
1070
02df
cafe
2402
5556
1070
02ab
cafe
2812
5556
1074
0249
cafe
2c0b
5556
1074
0311
cafe
301b
5556
1074
02eb
cafe
3403
5556
1074
035b
cafe
3813
5556
1078
0330
cafe
3c0c
5556
1078
0278
cafe
201c
5556
1078
027b
cafe
2404
5556
1078
02cb
cafe
2814
5556
107c
0279
cafe
2c0d
5556
107c
02a3
cafe
301d
5556
107c
026e
cafe
3405
5556
107c
0223
cafe
3815
5556
1080
02f0
cafe
3c0e
5556
1080
026a
cafe
201e
5556
1080
032d
cafe
2406
5556
1080
02c7
cafe
2816
5556
1084
02c6
cafe
2c0f
5556
1084
02b8
cafe
301f
5556
1084
0313
cafe
3407
5556
1084
02f4
cafe
3817
5556
1088
0324
cafe
3c08
5556
1088
01eb
cafe
2018
5556
1088
02b1
cafe
2400
5556
1088
025d
cafe
2810
5556
108c
0261
cafe
2c09
5556
108c
0283
cafe
3019
5556
108c
02c3
cafe
3401
5556
108c
0228
cafe
3811
5556
1090
030b
cafe
3c0a
5556
1090
0313
cafe
201a
5556
1090
-
02c4
cafe
2402
5556
1090
0288
cafe
2812
5556
1094
022e
cafe
2c0b
5556
1094
02f1
cafe
301b
5556
1094
02cc
cafe
3403
5556
1094
0342
cafe
3813
5556
1098
0316
cafe
3c0c
5556
1098
025c
cafe
201c
5556
1098
0263
cafe
2404
5556
1098
02b8
cafe
2814
5556
109c
0264
cafe
2c0d
5556
109c
0297
cafe
301d
5556
109c
0256
cafe
3405
5556
109c
020b
cafe
3815
5556
10a0
02e5
cafe
3c0e
5556
10a0
024d
cafe
201e
5556
10a0
0313
cafe
2406
5556
10a0
02ad
cafe
2816
5556
10a4
02af
cafe
2c0f
5556
10a4
0295
cafe
301f
5556
10a4
02f6
cafe
3407
5556
10a4
02d3
cafe
3817
5556
10a8
0301
cafe
3c08
5556
10a8
01d2
cafe
2018
5556
10a8
029a
cafe
2400
5556
10a8
0243
cafe
2810
5556
10ac
0248
cafe
2c09
5556
10ac
0269
cafe
3019
5556
10ac
02ab
cafe
3401
5556
10ac
0215
cafe
3811
5556
10b0
02f5
cafe
3c0a
5556
10b0
02f7
cafe
201a
5556
10b0
02aa
cafe
2402
5556
10b0
026d
cafe
2812
5556
10b4
0216
cafe
2c0b
5556
10b4
02d6
cafe
301b
5556
10b4
02b7
cafe
3403
5556
10b4
0328
cafe
3813
5556
10b8
02f6
cafe
3c0c
5556
10b8
0248
cafe
201c
5556
10b8
024f
cafe
2404
5556
10b8
0295
cafe
2814
5556
10bc
024f
cafe
2c0d
5556
10bc
026d
cafe
301d
5556
10bc
0243
cafe
3405
5556
10bc
01eb
cafe
3815
5556
10c0
02b7
cafe
3c0e
5556
10c0
0235
cafe
201e
5556
10c0
02fb
cafe
2406
5556
10c0
028a
cafe
2816
5556
10c4
029f
cafe
2c0f
5556
10c4
0282
-
cafe
301f
5556
10c4
02df
cafe
3407
5556
10c4
02c6
cafe
3817
5556
10c8
02e9
cafe
3c08
5556
10c8
01c2
cafe
2018
5556
10c8
0285
cafe
2400
5556
10c8
0237
cafe
2810
5556
10cc
023a
cafe
2c09
5556
10cc
024d
cafe
3019
5556
10cc
028d
cafe
3401
5556
10cc
01ff
cafe
3811
5556
10d0
02cf
cafe
3c0a
5556
10d0
02df
cafe
201a
5556
10d0
0291
cafe
2402
5556
10d0
0253
cafe
2812
5556
10d4
0204
cafe
2c0b
5556
10d4
02bf
cafe
301b
5556
10d4
02a2
cafe
3403
5556
10d4
030f
cafe
3813
5556
10d8
02d7
cafe
3c0c
5556
10d8
0239
cafe
201c
5556
10d8
0237
cafe
2404
5556
10d8
0281
cafe
2814
5556
10dc
0237
cafe
2c0d
5556
10dc
0261
cafe
301d
5556
10dc
0232
cafe
3405
5556
10dc
01de
cafe
3815
5556
10e0
02b0
cafe
3c0e
5556
10e0
0224
cafe
201e
5556
10e0
02e5
cafe
2406
5556
10e0
0272
cafe
2816
5556
10e4
028e
cafe
2c0f
5556
10e4
0260
cafe
301f
5556
10e4
02c1
cafe
3407
5556
10e4
02a9
cafe
3817
5556
10e8
02c8
cafe
3c08
5556
10e8
019d
cafe
2018
5556
10e8
026c
cafe
2400
5556
10e8
0224
cafe
2810
5556
10ec
022a
cafe
2c09
5556
10ec
0237
cafe
3019
5556
10ec
0274
cafe
3401
5556
10ec
01e9
cafe
3811
5556
10f0
02b3
cafe
3c0a
5556
10f0
02c8
cafe
201a
5556
10f0
0282
cafe
2402
5556
10f0
023e
cafe
2812
5556
10f4
01f1
cafe
2c0b
5556
10f4
02ad
cafe
301b
5556
10f4
028d
cafe
3403
5556
10f4
02fb
cafe
3813
5556
10f8
02cc
cafe
-
3c0c
5556
10f8
0225
cafe
201c
5556
10f8
0224
cafe
2404
5556
10f8
0268
cafe
2814
5556
10fc
0224
cafe
2c0d
5556
10fc
0247
cafe
301d
5556
10fc
0226
cafe
3405
5556
10fc
01c5
cafe
3815
5556
1100
0292
cafe
3c0e
5556
1100
020f
cafe
201e
5556
1100
02d5
cafe
2406
5556
1100
0259
cafe
2816
5556
1104
027b
cafe
2c0f
5556
1104
024e
cafe
301f
5556
1104
02ac
cafe
3407
5556
1104
0295
cafe
3817
5556
1108
02b5
cafe
3c08
5556
1108
0195
cafe
2018
5556
1108
0257
cafe
2400
5556
1108
020d
cafe
2810
5556
110c
0217
cafe
2c09
5556
110c
022e
cafe
3019
5556
110c
025f
cafe
3401
5556
110c
01d5
cafe
3811
5556
1110
02a4
cafe
3c0a
5556
1110
02b4
cafe
201a
5556
1110
0271
cafe
2402
5556
1110
0225
cafe
2812
5556
1114
01dd
cafe
2c0b
5556
1114
029d
cafe
301b
5556
1114
027c
cafe
3403
5556
1114
02dc
cafe
3813
5556
1118
02ac
cafe
3c0c
5556
1118
0211
cafe
201c
5556
1118
0213
cafe
2404
5556
1118
0250
cafe
2814
5556
111c
0210
cafe
2c0d
5556
111c
023b
cafe
301d
5556
111c
0210
cafe
3405
5556
111c
01b8
cafe
3815
5556
1120
0283
cafe
3c0e
5556
1120
0200
cafe
201e
5556
1120
02c6
cafe
2406
5556
1120
0248
cafe
2816
5556
1124
0268
cafe
2c0f
5556
1124
0238
cafe
301f
5556
1124
0293
cafe
3407
5556
1124
027d
cafe
3817
5556
1128
029e
cafe
3c08
5556
1128
0175
cafe
2018
5556
1128
0244
cafe
2400
5556
1128
01f7
cafe
2810
-
5556
112c
0201
cafe
2c09
5556
112c
0215
cafe
3019
5556
112c
0244
cafe
3401
5556
112c
01d2
cafe
3811
5556
1130
028f
cafe
3c0a
5556
1130
02a4
cafe
201a
5556
1130
025b
cafe
2402
5556
1130
0217
cafe
2812
5556
1134
01cf
cafe
2c0b
5556
1134
0292
cafe
301b
5556
1134
026d
cafe
3403
5556
1134
02d1
cafe
3813
5556
1138
02a1
cafe
3c0c
5556
1138
0203
cafe
201c
5556
1138
0208
cafe
2404
5556
1138
0241
cafe
2814
5556
113c
0201
cafe
2c0d
5556
113c
0214
cafe
301d
5556
113c
0205
cafe
3405
5556
113c
019d
cafe
3815
5556
1140
0263
cafe
3c0e
5556
1140
01ec
cafe
201e
5556
1140
02b6
cafe
2406
5556
1140
0233
cafe
2816
5556
1144
0257
cafe
2c0f
5556
1144
0222
cafe
301f
5556
1144
027f
cafe
3407
5556
1144
0266
cafe
3817
5556
1148
0284
cafe
3c08
5556
1148
0175
cafe
2018
5556
1148
0231
cafe
2400
5556
1148
01e9
cafe
2810
5556
114c
01ee
cafe
2c09
5556
114c
01ff
cafe
3019
5556
114c
0239
cafe
3401
5556
114c
01b9
cafe
3811
5556
1150
0281
cafe
3c0a
5556
1150
0293
cafe
201a
5556
1150
024c
cafe
2402
5556
1150
0202
cafe
2812
5556
1154
01c6
cafe
2c0b
5556
1154
027f
cafe
301b
5556
1154
0266
cafe
3403
5556
1154
02bd
cafe
3813
5556
1158
0289
cafe
3c0c
5556
1158
01f9
cafe
201c
5556
1158
01f6
cafe
2404
5556
1158
022f
cafe
2814
5556
115c
01f2
cafe
2c0d
5556
115c
020c
cafe
301d
5556
115c
01f9
cafe
3405
5556
-
115c
0192
cafe
3815
5556
1160
025f
cafe
3c0e
5556
1160
01db
cafe
201e
5556
1160
02a2
cafe
2406
5556
1160
022b
cafe
2816
5556
1164
0242
cafe
2c0f
5556
1164
0217
cafe
301f
5556
1164
026d
cafe
3407
5556
1164
0256
cafe
3817
5556
1168
0277
cafe
3c08
5556
1168
015f
cafe
2018
5556
1168
021d
cafe
2400
5556
1168
01da
cafe
2810
5556
116c
01de
cafe
2c09
5556
116c
01ea
cafe
3019
5556
116c
022b
cafe
3401
5556
116c
01ab
cafe
3811
5556
1170
0268
cafe
3c0a
5556
1170
0282
cafe
201a
5556
1170
023c
cafe
2402
5556
1170
01fa
cafe
2812
5556
1174
01b0
cafe
2c0b
5556
1174
0268
cafe
301b
5556
1174
025d
cafe
3403
5556
1174
02b2
cafe
3813
5556
1178
0282
cafe
3c0c
5556
1178
01e2
cafe
201c
5556
1178
01e4
cafe
2404
5556
1178
021b
cafe
2814
5556
117c
01e6
cafe
2c0d
5556
117c
01f8
cafe
301d
5556
117c
01eb
cafe
3405
5556
117c
017c
cafe
3815
5556
1180
023f
cafe
3c0e
5556
1180
01cb
cafe
201e
5556
1180
0293
cafe
2406
5556
1180
0210
cafe
2816
5556
1184
0230
cafe
2c0f
5556
1184
0204
cafe
301f
5556
1184
025c
cafe
3407
5556
1184
0249
cafe
3817
5556
1188
0269
cafe
3c08
5556
1188
015d
cafe
2018
5556
1188
020e
cafe
2400
5556
1188
01c6
cafe
2810
5556
118c
01d2
cafe
2c09
5556
118c
01e0
cafe
3019
5556
118c
0229
cafe
3401
5556
118c
01a0
cafe
3811
5556
1190
0263
cafe
3c0a
5556
1190
0279
cafe
201a
5556
1190
-
0235
cafe
2402
5556
1190
01ef
cafe
2812
5556
1194
019f
cafe
2c0b
5556
1194
025b
cafe
301b
5556
1194
024f
cafe
3403
5556
1194
029d
cafe
3813
5556
1198
026b
cafe
3c0c
5556
1198
01d6
cafe
201c
5556
1198
01d5
cafe
2404
5556
1198
0209
cafe
2814
5556
119c
01da
cafe
2c0d
5556
119c
01f6
cafe
301d
5556
119c
01dc
cafe
3405
5556
119c
0177
cafe
3815
5556
11a0
0238
cafe
3c0e
5556
11a0
01bc
cafe
201e
5556
11a0
0288
cafe
2406
5556
11a0
020a
cafe
2816
5556
11a4
0224
cafe
2c0f
5556
11a4
01f5
cafe
301f
5556
11a4
024f
cafe
3407
5556
11a4
023c
cafe
3817
5556
11a8
0256
cafe
3c08
5556
11a8
0140
cafe
2018
5556
11a8
0207
cafe
2400
5556
11a8
01bb
cafe
2810
5556
11ac
01c1
cafe
2c09
5556
11ac
01cc
cafe
3019
5556
11ac
0214
cafe
3401
5556
11ac
0197
cafe
3811
5556
11b0
0248
cafe
3c0a
5556
11b0
026b
cafe
201a
5556
11b0
022e
cafe
2402
5556
11b0
01e0
cafe
2812
5556
11b4
0195
cafe
2c0b
5556
11b4
024f
cafe
301b
5556
11b4
023e
cafe
3403
5556
11b4
0293
cafe
3813
5556
11b8
0266
cafe
3c0c
5556
11b8
01c9
cafe
201c
5556
11b8
01c3
cafe
2404
5556
11b8
01f9
cafe
2814
5556
11bc
01cc
cafe
2c0d
5556
11bc
01e0
cafe
301d
5556
11bc
01cf
cafe
3405
5556
11bc
016d
cafe
3815
5556
11c0
021f
cafe
3c0e
5556
11c0
01b0
cafe
201e
5556
11c0
027a
cafe
2406
5556
11c0
01f4
cafe
2816
5556
11c4
0219
cafe
2c0f
5556
11c4
01ea
-
cafe
301f
5556
11c4
0245
cafe
3407
5556
11c4
022c
cafe
3817
5556
11c8
024d
cafe
3c08
5556
11c8
013b
cafe
2018
5556
11c8
01fe
cafe
2400
5556
11c8
01b0
cafe
2810
5556
11cc
01be
cafe
2c09
5556
11cc
01c6
cafe
3019
5556
11cc
020b
cafe
3401
5556
11cc
018f
cafe
3811
5556
11d0
023f
cafe
3c0a
5556
11d0
025a
cafe
201a
5556
11d0
0221
cafe
2402
5556
11d0
01d0
cafe
2812
5556
11d4
018c
cafe
2c0b
5556
11d4
0244
cafe
301b
5556
11d4
0230
cafe
3403
5556
11d4
027e
cafe
3813
5556
11d8
0248
cafe
3c0c
5556
11d8
01c1
cafe
201c
5556
11d8
01bc
cafe
2404
5556
11d8
01e6
cafe
2814
5556
11dc
01bd
cafe
2c0d
5556
11dc
01da
cafe
301d
5556
11dc
01c5
cafe
3405
5556
11dc
0164
cafe
3815
5556
11e0
021b
cafe
3c0e
5556
11e0
01a7
cafe
201e
5556
11e0
026c
cafe
2406
5556
11e0
01f2
cafe
2816
5556
11e4
020d
cafe
2c0f
5556
11e4
01e1
cafe
301f
5556
11e4
023c
cafe
3407
5556
11e4
021f
cafe
3817
5556
11e8
0240
cafe
3c08
5556
11e8
0127
cafe
2018
5556
11e8
01f6
cafe
2400
5556
11e8
01a3
cafe
2810
5556
11ec
01b5
cafe
2c09
5556
11ec
01b1
cafe
3019
5556
11ec
01f4
cafe
3401
5556
11ec
017c
cafe
3811
5556
11f0
0224
cafe
3c0a
5556
11f0
024e
cafe
201a
5556
11f0
0216
cafe
2402
5556
11f0
01c3
cafe
2812
5556
11f4
0183
cafe
2c0b
5556
11f4
023c
cafe
301b
5556
11f4
0224
cafe
3403
5556
11f4
0277
cafe
3813
5556
11f8
0248
cafe
-
3c0c
5556
11f8
01b9
cafe
201c
5556
11f8
01b1
cafe
2404
5556
11f8
01de
cafe
2814
5556
11fc
01b2
cafe
2c0d
5556
11fc
01c7
cafe
301d
5556
11fc
01bc
cafe
3405
5556
11fc
015c
cafe
3815
5556
1200
020c
cafe
3c0e
5556
1200
01a0
cafe
201e
5556
1200
0262
cafe
2406
5556
1200
01e4
cafe
2816
5556
1204
0201
cafe
2c0f
5556
1204
01d1
cafe
301f
5556
1204
022d
cafe
3407
5556
1204
0211
cafe
3817
5556
1208
0231
cafe
3c08
5556
1208
0123
cafe
2018
5556
1208
01e6
cafe
2400
5556
1208
0198
cafe
2810
5556
120c
01ac
cafe
2c09
5556
120c
01b9
cafe
3019
5556
120c
01f8
cafe
3401
5556
120c
0176
cafe
3811
5556
1210
0221
cafe
3c0a
5556
1210
0245
cafe
201a
5556
1210
020c
cafe
2402
5556
1210
01b8
cafe
2812
5556
1214
017c
cafe
2c0b
5556
1214
0230
cafe
301b
5556
1214
0222
cafe
3403
5556
1214
0271
cafe
3813
5556
1218
0232
cafe
3c0c
5556
1218
01af
cafe
201c
5556
1218
01aa
cafe
2404
5556
1218
01cc
cafe
2814
5556
121c
01a9
cafe
2c0d
5556
121c
01c2
cafe
301d
5556
121c
01b3
cafe
3405
5556
121c
0155
cafe
3815
5556
1220
0205
cafe
3c0e
5556
1220
0196
cafe
201e
5556
1220
0255
cafe
2406
5556
1220
01e1
cafe
2816
5556
1224
01f8
cafe
2c0f
5556
1224
01d0
cafe
301f
5556
1224
022b
cafe
3407
5556
1224
0214
cafe
3817
5556
1228
0233
cafe
3c08
5556
1228
0117
cafe
2018
5556
1228
01dd
cafe
2400
5556
1228
018b
cafe
2810
-
5556
122c
019f
cafe
2c09
5556
122c
01a6
cafe
3019
5556
122c
01e4
cafe
3401
5556
122c
0165
cafe
3811
5556
1230
0210
cafe
3c0a
5556
1230
023c
cafe
201a
5556
1230
0202
cafe
2402
5556
1230
01a8
cafe
2812
5556
1234
0177
cafe
2c0b
5556
1234
0227
cafe
301b
5556
1234
021c
cafe
3403
5556
1234
026e
cafe
3813
5556
1238
0231
cafe
3c0c
5556
1238
01a5
cafe
201c
5556
1238
01a5
cafe
2404
5556
1238
01cd
cafe
2814
5556
123c
01a3
cafe
2c0d
5556
123c
01c2
cafe
301d
5556
123c
01a5
cafe
3405
5556
123c
014e
cafe
3815
5556
1240
01fe
cafe
3c0e
5556
1240
0194
cafe
201e
5556
1240
024f
cafe
2406
5556
1240
01d6
cafe
2816
5556
1244
01f0
cafe
2c0f
5556
1244
01b9
cafe
301f
5556
1244
0216
cafe
3407
5556
1244
0202
cafe
3817
5556
1248
0223
cafe
3c08
5556
1248
010f
cafe
2018
5556
1248
01d4
cafe
2400
5556
1248
0181
cafe
2810
5556
124c
019b
cafe
2c09
5556
124c
01a4
cafe
3019
5556
124c
01e0
cafe
3401
5556
124c
0165
cafe
3811
5556
1250
020d
cafe
3c0a
5556
1250
0234
cafe
201a
5556
1250
01f5
cafe
2402
5556
1250
01a9
cafe
2812
5556
1254
016c
cafe
2c0b
5556
1254
021d
cafe
301b
5556
1254
0218
cafe
3403
5556
1254
0265
cafe
3813
5556
1258
0223
cafe
3c0c
5556
1258
019f
cafe
201c
5556
1258
019f
cafe
2404
5556
1258
01b9
cafe
2814
5556
125c
0199
cafe
2c0d
5556
125c
01ae
cafe
301d
5556
125c
01a4
cafe
3405
5556
-
125c
013f
cafe
3815
5556
1260
01ee
cafe
3c0e
5556
1260
018f
cafe
201e
5556
1260
0248
cafe
2406
5556
1260
01c8
cafe
2816
5556
1264
01ed
cafe
2c0f
5556
1264
01b8
cafe
301f
5556
1264
0213
cafe
3407
5556
1264
0205
cafe
3817
5556
1268
0224
cafe
3c08
5556
1268
0104
cafe
2018
5556
1268
01cb
cafe
2400
5556
1268
0176
cafe
2810
5556
126c
0194
cafe
2c09
5556
126c
0193
cafe
3019
5556
126c
01cb
cafe
3401
5556
126c
015d
cafe
3811
5556
1270
01f6
cafe
3c0a
5556
1270
022d
cafe
201a
5556
1270
01eb
cafe
2402
5556
1270
01a0
cafe
2812
5556
1274
0164
cafe
2c0b
5556
1274
0210
cafe
301b
5556
1274
020c
cafe
3403
5556
1274
025a
cafe
3813
5556
1278
0218
cafe
3c0c
5556
1278
0194
cafe
201c
5556
1278
019c
cafe
2404
5556
1278
01bf
cafe
2814
5556
127c
0195
cafe
2c0d
5556
127c
01b4
cafe
301d
5556
127c
01a0
cafe
3405
5556
127c
013c
cafe
3815
5556
1280
01eb
cafe
3c0e
5556
1280
018a
cafe
201e
5556
1280
0243
cafe
2406
5556
1280
01c5
cafe
2816
5556
1284
01e4
cafe
2c0f
5556
1284
01aa
cafe
301f
5556
1284
020a
cafe
3407
5556
1284
01f3
cafe
3817
5556
1288
0217
cafe
3c08
5556
1288
00ff
cafe
2018
5556
1288
01c3
cafe
2400
5556
1288
016c
cafe
2810
5556
128c
0190
cafe
2c09
5556
128c
018d
cafe
3019
5556
128c
01cd
cafe
3401
5556
128c
0158
cafe
3811
5556
1290
01f4
cafe
3c0a
5556
1290
0229
cafe
201a
5556
1290
-
01ea
cafe
2402
5556
1290
019f
cafe
2812
5556
1294
015d
cafe
2c0b
5556
1294
0206
cafe
301b
5556
1294
0202
cafe
3403
5556
1294
0256
cafe
3813
5556
1298
0210
cafe
3c0c
5556
1298
018d
cafe
201c
5556
1298
019a
cafe
2404
5556
1298
01b7
cafe
2814
5556
129c
0193
cafe
2c0d
5556
129c
01a4
cafe
301d
5556
129c
0196
cafe
3405
5556
129c
0129
cafe
3815
5556
12a0
01d7
cafe
3c0e
5556
12a0
0184
cafe
201e
5556
12a0
023a
cafe
2406
5556
12a0
01bb
cafe
2816
5556
12a4
01e6
cafe
2c0f
5556
12a4
01a6
cafe
301f
5556
12a4
0203
cafe
3407
5556
12a4
01f0
cafe
3817
5556
12a8
0210
cafe
3c08
5556
12a8
0102
cafe
2018
5556
12a8
01bc
cafe
2400
5556
12a8
016b
cafe
2810
5556
12ac
018c
cafe
2c09
5556
12ac
017e
cafe
3019
5556
12ac
01c1
cafe
3401
5556
12ac
0152
cafe
3811
5556
12b0
01e6
cafe
3c0a
5556
12b0
0221
cafe
201a
5556
12b0
01e7
cafe
2402
5556
12b0
018e
cafe
2812
5556
12b4
0156
cafe
2c0b
5556
12b4
01fc
cafe
301b
5556
12b4
01fd
cafe
3403
5556
12b4
024a
cafe
3813
5556
12b8
01fb
cafe
3c0c
5556
12b8
018c
cafe
201c
5556
12b8
0192
cafe
2404
5556
12b8
01b5
cafe
2814
5556
12bc
018a
cafe
2c0d
5556
12bc
01a4
cafe
301d
5556
12bc
018f
cafe
3405
5556
12bc
0128
cafe
3815
5556
12c0
01dd
cafe
3c0e
5556
12c0
017d
cafe
201e
5556
12c0
0230
cafe
2406
5556
12c0
01b5
cafe
2816
5556
12c4
01e3
cafe
2c0f
5556
12c4
0194
-
cafe
301f
5556
12c4
01fb
cafe
3407
5556
12c4
01e3
cafe
3817
5556
12c8
0200
cafe
3c08
5556
12c8
00f1
cafe
2018
5556
12c8
01b3
cafe
2400
5556
12c8
0165
cafe
2810
5556
12cc
0185
cafe
2c09
5556
12cc
0181
cafe
3019
5556
12cc
01bc
cafe
3401
5556
12cc
0153
cafe
3811
5556
12d0
01e0
cafe
3c0a
5556
12d0
0220
cafe
201a
5556
12d0
01e5
cafe
2402
5556
12d0
0190
cafe
2812
5556
12d4
0152
cafe
2c0b
5556
12d4
01f4
cafe
301b
5556
12d4
01f8
cafe
3403
5556
12d4
0244
cafe
3813
5556
12d8
01ff
cafe
3c0c
5556
12d8
0189
cafe
201c
5556
12d8
018d
cafe
2404
5556
12d8
01b2
cafe
2814
5556
12dc
0180
cafe
2c0d
5556
12dc
018c
cafe
301d
5556
12dc
0188
cafe
3405
5556
12dc
011d
cafe
3815
5556
12e0
01c8
cafe
3c0e
5556
12e0
0174
cafe
201e
5556
12e0
022c
cafe
2406
5556
12e0
01ae
cafe
2816
5556
12e4
01d9
cafe
2c0f
5556
12e4
0194
cafe
301f
5556
12e4
01f5
cafe
3407
5556
12e4
01dd
cafe
3817
5556
12e8
0200
cafe
3c08
5556
12e8
00f7
cafe
2018
5556
12e8
01ac
cafe
2400
5556
12e8
0162
cafe
2810
5556
12ec
017f
cafe
2c09
5556
12ec
017a
cafe
3019
5556
12ec
01c3
cafe
3401
5556
12ec
014f
cafe
3811
5556
12f0
01de
cafe
3c0a
5556
12f0
021c
cafe
201a
5556
12f0
01e2
cafe
2402
5556
12f0
0187
cafe
2812
5556
12f4
014a
cafe
2c0b
5556
12f4
01eb
cafe
301b
5556
12f4
01ec
cafe
3403
5556
12f4
0239
cafe
3813
5556
12f8
01ec
cafe
-
