200c
5556
0af8
01b6
cafe
241c
5556
0af8
0166
cafe
2804
5556
0af8
01d5
cafe
2c14
5556
0afc
0160
cafe
300d
5556
0afc
01c1
cafe
341d
5556
0afc
0194
cafe
3805
5556
0afc
018d
cafe
3c15
5556
0b00
01c5
cafe
200e
5556
0b00
01f5
cafe
241e
5556
0b00
01a4
cafe
2806
5556
0b00
0141
cafe
2c16
5556
0b04
01a8
cafe
300f
5556
0b04
01f3
cafe
341f
5556
0b04
013f
cafe
3807
5556
0b04
01a2
cafe
3c17
5556
0b08
0220
cafe
2008
5556
0b08
0187
cafe
2418
5556
0b08
0201
cafe
2800
5556
0b08
0189
cafe
2c10
5556
0b0c
0170
cafe
3009
5556
0b0c
01b5
cafe
3419
5556
0b0c
01ae
cafe
3801
5556
0b0c
024f
cafe
3c11
5556
0b10
01d9
cafe
200a
5556
0b10
01e9
cafe
241a
5556
0b10
012a
cafe
2802
5556
0b10
0210
cafe
2c12
5556
0b14
018b
cafe
300b
5556
0b14
0196
cafe
341b
5556
0b14
0183
cafe
3803
5556
0b14
013a
cafe
3c13
5556
0b18
01f1
cafe
200c
5556
0b18
01b7
cafe
241c
5556
0b18
0168
cafe
2804
5556
0b18
01d8
cafe
2c14
5556
0b1c
015f
cafe
300d
5556
0b1c
01ca
cafe
341d
5556
0b1c
018c
cafe
3805
5556
0b1c
018e
cafe
3c15
5556
0b20
01cb
cafe
200e
5556
0b20
01f9
cafe
241e
5556
0b20
01a0
cafe
2806
5556
0b20
0142
cafe
2c16
5556
0b24
01aa
cafe
300f
5556
0b24
01fd
cafe
341f
5556
0b24
0144
cafe
3807
5556
0b24
019e
cafe
3c17
5556
0b28
0227
cafe
2008
5556
0b28
018c
cafe
2418
5556
0b28
0205
cafe
2800
5556
0b28
0186
cafe
2c10
-
5556
0b2c
0171
cafe
3009
5556
0b2c
01b0
cafe
3419
5556
0b2c
01ad
cafe
3801
5556
0b2c
0253
cafe
3c11
5556
0b30
01d3
cafe
200a
5556
0b30
01e4
cafe
241a
5556
0b30
0127
cafe
2802
5556
0b30
0212
cafe
2c12
5556
0b34
018a
cafe
300b
5556
0b34
0195
cafe
341b
5556
0b34
017e
cafe
3803
5556
0b34
013e
cafe
3c13
5556
0b38
01ef
cafe
200c
5556
0b38
01b3
cafe
241c
5556
0b38
016b
cafe
2804
5556
0b38
01da
cafe
2c14
5556
0b3c
015e
cafe
300d
5556
0b3c
01c8
cafe
341d
5556
0b3c
0191
cafe
3805
5556
0b3c
0191
cafe
3c15
5556
0b40
01c5
cafe
200e
5556
0b40
01ff
cafe
241e
5556
0b40
01a2
cafe
2806
5556
0b40
013f
cafe
2c16
5556
0b44
01a8
cafe
300f
5556
0b44
01fa
cafe
341f
5556
0b44
0147
cafe
3807
5556
0b44
0199
cafe
3c17
5556
0b48
0228
cafe
2008
5556
0b48
018c
cafe
2418
5556
0b48
0209
cafe
2800
5556
0b48
0184
cafe
2c10
5556
0b4c
0178
cafe
3009
5556
0b4c
01b4
cafe
3419
5556
0b4c
01aa
cafe
3801
5556
0b4c
0252
cafe
3c11
5556
0b50
01d2
cafe
200a
5556
0b50
01ea
cafe
241a
5556
0b50
0127
cafe
2802
5556
0b50
0214
cafe
2c12
5556
0b54
018f
cafe
300b
5556
0b54
0197
cafe
341b
5556
0b54
0183
cafe
3803
5556
0b54
013d
cafe
3c13
5556
0b58
01ec
cafe
200c
5556
0b58
01af
cafe
241c
5556
0b58
016e
cafe
2804
5556
0b58
01e2
cafe
2c14
5556
0b5c
0156
cafe
300d
5556
0b5c
01cb
cafe
341d
5556
0b5c
0191
cafe
3805
5556
-
0b5c
018a
cafe
3c15
5556
0b60
01c3
cafe
200e
5556
0b60
0200
cafe
241e
5556
0b60
019f
cafe
2806
5556
0b60
0141
cafe
2c16
5556
0b64
019e
cafe
300f
5556
0b64
01fb
cafe
341f
5556
0b64
0144
cafe
3807
5556
0b64
0193
cafe
3c17
5556
0b68
0230
cafe
2008
5556
0b68
018b
cafe
2418
5556
0b68
020b
cafe
2800
5556
0b68
0187
cafe
2c10
5556
0b6c
0176
cafe
3009
5556
0b6c
01aa
cafe
3419
5556
0b6c
01ab
cafe
3801
5556
0b6c
0258
cafe
3c11
5556
0b70
01d7
cafe
200a
5556
0b70
01ef
cafe
241a
5556
0b70
012f
cafe
2802
5556
0b70
0211
cafe
2c12
5556
0b74
0192
cafe
300b
5556
0b74
019c
cafe
341b
5556
0b74
017c
cafe
3803
5556
0b74
0137
cafe
3c13
5556
0b78
01ec
cafe
200c
5556
0b78
01af
cafe
241c
5556
0b78
0167
cafe
2804
5556
0b78
01e3
cafe
2c14
5556
0b7c
015a
cafe
300d
5556
0b7c
01d1
cafe
341d
5556
0b7c
0192
cafe
3805
5556
0b7c
018a
cafe
3c15
5556
0b80
01c6
cafe
200e
5556
0b80
01ff
cafe
241e
5556
0b80
01a0
cafe
2806
5556
0b80
0149
cafe
2c16
5556
0b84
019b
cafe
300f
5556
0b84
01fb
cafe
341f
5556
0b84
014d
cafe
3807
5556
0b84
0194
cafe
3c17
5556
0b88
022c
cafe
2008
5556
0b88
0184
cafe
2418
5556
0b88
0208
cafe
2800
5556
0b88
0187
cafe
2c10
5556
0b8c
0175
cafe
3009
5556
0b8c
01a8
cafe
3419
5556
0b8c
01ae
cafe
3801
5556
0b8c
0251
cafe
3c11
5556
0b90
01db
cafe
200a
5556
0b90
01ec
cafe
241a
5556
0b90
-
012e
cafe
2802
5556
0b90
0213
cafe
2c12
5556
0b94
0190
cafe
300b
5556
0b94
019f
cafe
341b
5556
0b94
017d
cafe
3803
5556
0b94
0135
cafe
3c13
5556
0b98
01e9
cafe
200c
5556
0b98
01ab
cafe
241c
5556
0b98
0166
cafe
2804
5556
0b98
01e1
cafe
2c14
5556
0b9c
015c
cafe
300d
5556
0b9c
01cc
cafe
341d
5556
0b9c
0195
cafe
3805
5556
0b9c
0185
cafe
3c15
5556
0ba0
01cc
cafe
200e
5556
0ba0
0200
cafe
241e
5556
0ba0
01a2
cafe
2806
5556
0ba0
014c
cafe
2c16
5556
0ba4
0197
cafe
300f
5556
0ba4
01ff
cafe
341f
5556
0ba4
014f
cafe
3807
5556
0ba4
0199
cafe
3c17
5556
0ba8
022d
cafe
2008
5556
0ba8
0188
cafe
2418
5556
0ba8
0209
cafe
2800
5556
0ba8
0183
cafe
2c10
5556
0bac
0174
cafe
3009
5556
0bac
01a7
cafe
3419
5556
0bac
01af
cafe
3801
5556
0bac
0255
cafe
3c11
5556
0bb0
01da
cafe
200a
5556
0bb0
01ea
cafe
241a
5556
0bb0
0133
cafe
2802
5556
0bb0
0213
cafe
2c12
5556
0bb4
018b
cafe
300b
5556
0bb4
019d
cafe
341b
5556
0bb4
0179
cafe
3803
5556
0bb4
0131
cafe
3c13
5556
0bb8
01e4
cafe
200c
5556
0bb8
01ad
cafe
241c
5556
0bb8
015c
cafe
2804
5556
0bb8
01e3
cafe
2c14
5556
0bbc
0156
cafe
300d
5556
0bbc
01ca
cafe
341d
5556
0bbc
019a
cafe
3805
5556
0bbc
0182
cafe
3c15
5556
0bc0
01ca
cafe
200e
5556
0bc0
0203
cafe
241e
5556
0bc0
01a3
cafe
2806
5556
0bc0
0147
cafe
2c16
5556
0bc4
019b
cafe
300f
5556
0bc4
01fc
-
cafe
341f
5556
0bc4
014f
cafe
3807
5556
0bc4
019b
cafe
3c17
5556
0bc8
022e
cafe
2008
5556
0bc8
0186
cafe
2418
5556
0bc8
020b
cafe
2800
5556
0bc8
0188
cafe
2c10
5556
0bcc
0176
cafe
3009
5556
0bcc
01ac
cafe
3419
5556
0bcc
01af
cafe
3801
5556
0bcc
0251
cafe
3c11
5556
0bd0
01de
cafe
200a
5556
0bd0
01ea
cafe
241a
5556
0bd0
0133
cafe
2802
5556
0bd0
0216
cafe
2c12
5556
0bd4
018f
cafe
300b
5556
0bd4
019f
cafe
341b
5556
0bd4
0177
cafe
3803
5556
0bd4
0133
cafe
3c13
5556
0bd8
01e2
cafe
200c
5556
0bd8
01aa
cafe
241c
5556
0bd8
015a
cafe
2804
5556
0bd8
01e4
cafe
2c14
5556
0bdc
0153
cafe
300d
5556
0bdc
01c7
cafe
341d
5556
0bdc
0198
cafe
3805
5556
0bdc
0181
cafe
3c15
5556
0be0
01c9
cafe
200e
5556
0be0
01ff
cafe
241e
5556
0be0
019f
cafe
2806
5556
0be0
0145
cafe
2c16
5556
0be4
019d
cafe
300f
5556
0be4
01fa
cafe
341f
5556
0be4
014f
cafe
3807
5556
0be4
0196
cafe
3c17
5556
0be8
022f
cafe
2008
5556
0be8
0185
cafe
2418
5556
0be8
0207
cafe
2800
5556
0be8
0186
cafe
2c10
5556
0bec
0170
cafe
3009
5556
0bec
01af
cafe
3419
5556
0bec
01b0
cafe
3801
5556
0bec
0253
cafe
3c11
5556
0bf0
01dc
cafe
200a
5556
0bf0
01ea
cafe
241a
5556
0bf0
0139
cafe
2802
5556
0bf0
021a
cafe
2c12
5556
0bf4
018d
cafe
300b
5556
0bf4
019b
cafe
341b
5556
0bf4
0173
cafe
3803
5556
0bf4
0135
cafe
3c13
5556
0bf8
01e4
cafe
-
200c
5556
0bf8
01b1
cafe
241c
5556
0bf8
0157
cafe
2804
5556
0bf8
01e6
cafe
2c14
5556
0bfc
0157
cafe
300d
5556
0bfc
01c6
cafe
341d
5556
0bfc
019f
cafe
3805
5556
0bfc
017b
cafe
3c15
5556
0c00
01c5
cafe
200e
5556
0c00
01fd
cafe
241e
5556
0c00
01a3
cafe
2806
5556
0c00
0143
cafe
2c16
5556
0c04
01a0
cafe
300f
5556
0c04
01fd
cafe
341f
5556
0c04
014a
cafe
3807
5556
0c04
0194
cafe
3c17
5556
0c08
022c
cafe
2008
5556
0c08
0182
cafe
2418
5556
0c08
020d
cafe
2800
5556
0c08
0186
cafe
2c10
5556
0c0c
0171
cafe
3009
5556
0c0c
01b8
cafe
3419
5556
0c0c
01b0
cafe
3801
5556
0c0c
0256
cafe
3c11
5556
0c10
01de
cafe
200a
5556
0c10
01ec
cafe
241a
5556
0c10
0139
cafe
2802
5556
0c10
021b
cafe
2c12
5556
0c14
0189
cafe
300b
5556
0c14
0196
cafe
341b
5556
0c14
016e
cafe
3803
5556
0c14
0139
cafe
3c13
5556
0c18
01ea
cafe
200c
5556
0c18
01ae
cafe
241c
5556
0c18
0154
cafe
2804
5556
0c18
01ea
cafe
2c14
5556
0c1c
015b
cafe
300d
5556
0c1c
01c9
cafe
341d
5556
0c1c
019e
cafe
3805
5556
0c1c
017e
cafe
3c15
5556
0c20
01cc
cafe
200e
5556
0c20
01fd
cafe
241e
5556
0c20
01a2
cafe
2806
5556
0c20
0143
cafe
2c16
5556
0c24
01a3
cafe
300f
5556
0c24
01fd
cafe
341f
5556
0c24
0151
cafe
3807
5556
0c24
0196
cafe
3c17
5556
0c28
022c
cafe
2008
5556
0c28
0182
cafe
2418
5556
0c28
0212
cafe
2800
5556
0c28
0184
cafe
2c10
-
5556
0c2c
016d
cafe
3009
5556
0c2c
01b9
cafe
3419
5556
0c2c
01b1
cafe
3801
5556
0c2c
0256
cafe
3c11
5556
0c30
01da
cafe
200a
5556
0c30
01f2
cafe
241a
5556
0c30
0136
cafe
2802
5556
0c30
020d
cafe
2c12
5556
0c34
0183
cafe
300b
5556
0c34
019d
cafe
341b
5556
0c34
0171
cafe
3803
5556
0c34
013e
cafe
3c13
5556
0c38
01e8
cafe
200c
5556
0c38
01ae
cafe
241c
5556
0c38
015d
cafe
2804
5556
0c38
01e8
cafe
2c14
5556
0c3c
0160
cafe
300d
5556
0c3c
01c8
cafe
341d
5556
0c3c
0195
cafe
3805
5556
0c3c
0180
cafe
3c15
5556
0c40
01ca
cafe
200e
5556
0c40
01fd
cafe
241e
5556
0c40
01a3
cafe
2806
5556
0c40
013b
cafe
2c16
5556
0c44
019f
cafe
300f
5556
0c44
0203
cafe
341f
5556
0c44
0151
cafe
3807
5556
0c44
019a
cafe
3c17
5556
0c48
0228
cafe
2008
5556
0c48
0180
cafe
2418
5556
0c48
0210
cafe
2800
5556
0c48
0182
cafe
2c10
5556
0c4c
0171
cafe
3009
5556
0c4c
01b9
cafe
3419
5556
0c4c
01b6
cafe
3801
5556
0c4c
0253
cafe
3c11
5556
0c50
01d9
cafe
200a
5556
0c50
01ea
cafe
241a
5556
0c50
0138
cafe
2802
5556
0c50
0208
cafe
2c12
5556
0c54
0180
cafe
300b
5556
0c54
0196
cafe
341b
5556
0c54
0178
cafe
3803
5556
0c54
0148
cafe
3c13
5556
0c58
01e0
cafe
200c
5556
0c58
01b1
cafe
241c
5556
0c58
015b
cafe
2804
5556
0c58
01eb
cafe
2c14
5556
0c5c
015e
cafe
300d
5556
0c5c
01c6
cafe
341d
5556
0c5c
0194
cafe
3805
5556
-
0c5c
017e
cafe
3c15
5556
0c60
01c7
cafe
200e
5556
0c60
01fd
cafe
241e
5556
0c60
019b
cafe
2806
5556
0c60
013b
cafe
2c16
5556
0c64
019d
cafe
300f
5556
0c64
0205
cafe
341f
5556
0c64
0155
cafe
3807
5556
0c64
019f
cafe
3c17
5556
0c68
0227
cafe
2008
5556
0c68
017f
cafe
2418
5556
0c68
0210
cafe
2800
5556
0c68
0180
cafe
2c10
5556
0c6c
0170
cafe
3009
5556
0c6c
01bd
cafe
3419
5556
0c6c
01b2
cafe
3801
5556
0c6c
024a
cafe
3c11
5556
0c70
01d6
cafe
200a
5556
0c70
01ee
cafe
241a
5556
0c70
0138
cafe
2802
5556
0c70
0207
cafe
2c12
5556
0c74
0182
cafe
300b
5556
0c74
0198
cafe
341b
5556
0c74
017d
cafe
3803
5556
0c74
014c
cafe
3c13
5556
0c78
01e4
cafe
200c
5556
0c78
01b4
cafe
241c
5556
0c78
0159
cafe
2804
5556
0c78
01eb
cafe
2c14
5556
0c7c
015f
cafe
300d
5556
0c7c
01c7
cafe
341d
5556
0c7c
0196
cafe
3805
5556
0c7c
0180
cafe
3c15
5556
0c80
01c3
cafe
200e
5556
0c80
01fd
cafe
241e
5556
0c80
0196
cafe
2806
5556
0c80
013a
cafe
2c16
5556
0c84
019c
cafe
300f
5556
0c84
0209
cafe
341f
5556
0c84
0152
cafe
3807
5556
0c84
01a4
cafe
3c17
5556
0c88
0223
cafe
2008
5556
0c88
017c
cafe
2418
5556
0c88
0207
cafe
2800
5556
0c88
017f
cafe
2c10
5556
0c8c
016d
cafe
3009
5556
0c8c
01ba
cafe
3419
5556
0c8c
01b6
cafe
3801
5556
0c8c
0250
cafe
3c11
5556
0c90
01d5
cafe
200a
5556
0c90
01ea
cafe
241a
5556
0c90
-
0130
cafe
2802
5556
0c90
0201
cafe
2c12
5556
0c94
0189
cafe
300b
5556
0c94
019d
cafe
341b
5556
0c94
0181
cafe
3803
5556
0c94
0144
cafe
3c13
5556
0c98
01e6
cafe
200c
5556
0c98
01b3
cafe
241c
5556
0c98
0158
cafe
2804
5556
0c98
01ea
cafe
2c14
5556
0c9c
0163
cafe
300d
5556
0c9c
01c7
cafe
341d
5556
0c9c
0197
cafe
3805
5556
0c9c
0188
cafe
3c15
5556
0ca0
01c3
cafe
200e
5556
0ca0
01fb
cafe
241e
5556
0ca0
0196
cafe
2806
5556
0ca0
0135
cafe
2c16
5556
0ca4
019e
cafe
300f
5556
0ca4
020a
cafe
341f
5556
0ca4
014d
cafe
3807
5556
0ca4
01a4
cafe
3c17
5556
0ca8
0223
cafe
2008
5556
0ca8
017d
cafe
2418
5556
0ca8
020a
cafe
2800
5556
0ca8
0186
cafe
2c10
5556
0cac
016d
cafe
3009
5556
0cac
01ba
cafe
3419
5556
0cac
01b8
cafe
3801
5556
0cac
024d
cafe
3c11
5556
0cb0
01d5
cafe
200a
5556
0cb0
01ea
cafe
241a
5556
0cb0
012c
cafe
2802
5556
0cb0
01fd
cafe
2c12
5556
0cb4
018d
cafe
300b
5556
0cb4
019a
cafe
341b
5556
0cb4
017d
cafe
3803
5556
0cb4
0143
cafe
3c13
5556
0cb8
01e4
cafe
200c
5556
0cb8
01b3
cafe
241c
5556
0cb8
0157
cafe
2804
5556
0cb8
01e6
cafe
2c14
5556
0cbc
015e
cafe
300d
5556
0cbc
01c9
cafe
341d
5556
0cbc
019d
cafe
3805
5556
0cbc
0188
cafe
3c15
5556
0cc0
01c1
cafe
200e
5556
0cc0
01ff
cafe
241e
5556
0cc0
019e
cafe
2806
5556
0cc0
0137
cafe
2c16
5556
0cc4
019d
cafe
300f
5556
0cc4
0204
-
cafe
341f
5556
0cc4
0147
cafe
3807
5556
0cc4
01a5
cafe
3c17
5556
0cc8
0220
cafe
2008
5556
0cc8
017e
cafe
2418
5556
0cc8
020a
cafe
2800
5556
0cc8
0185
cafe
2c10
5556
0ccc
016d
cafe
3009
5556
0ccc
01b3
cafe
3419
5556
0ccc
01b9
cafe
3801
5556
0ccc
024c
cafe
3c11
5556
0cd0
01d6
cafe
200a
5556
0cd0
01e5
cafe
241a
5556
0cd0
012a
cafe
2802
5556
0cd0
0202
cafe
2c12
5556
0cd4
0196
cafe
300b
5556
0cd4
01a3
cafe
341b
5556
0cd4
0180
cafe
3803
5556
0cd4
0146
cafe
3c13
5556
0cd8
01e1
cafe
200c
5556
0cd8
01b0
cafe
241c
5556
0cd8
0158
cafe
2804
5556
0cd8
01e3
cafe
2c14
5556
0cdc
0163
cafe
300d
5556
0cdc
01c9
cafe
341d
5556
0cdc
0192
cafe
3805
5556
0cdc
0189
cafe
3c15
5556
0ce0
01bf
cafe
200e
5556
0ce0
01ff
cafe
241e
5556
0ce0
01a0
cafe
2806
5556
0ce0
013b
cafe
2c16
5556
0ce4
01a0
cafe
300f
5556
0ce4
0201
cafe
341f
5556
0ce4
0145
cafe
3807
5556
0ce4
01a4
cafe
3c17
5556
0ce8
021e
cafe
2008
5556
0ce8
017e
cafe
2418
5556
0ce8
0209
cafe
2800
5556
0ce8
0186
cafe
2c10
5556
0cec
016a
cafe
3009
5556
0cec
01aa
cafe
3419
5556
0cec
01b6
cafe
3801
5556
0cec
024b
cafe
3c11
5556
0cf0
01d7
cafe
200a
5556
0cf0
01de
cafe
241a
5556
0cf0
012b
cafe
2802
5556
0cf0
0202
cafe
2c12
5556
0cf4
0196
cafe
300b
5556
0cf4
01a1
cafe
341b
5556
0cf4
0178
cafe
3803
5556
0cf4
0142
cafe
3c13
5556
0cf8
01e0
cafe
-
200c
5556
0cf8
01b7
cafe
241c
5556
0cf8
015c
cafe
2804
5556
0cf8
01e1
cafe
2c14
5556
0cfc
0161
cafe
300d
5556
0cfc
01cd
cafe
341d
5556
0cfc
0194
cafe
3805
5556
0cfc
018d
cafe
3c15
5556
0d00
01c4
cafe
200e
5556
0d00
01ff
cafe
241e
5556
0d00
01a4
cafe
2806
5556
0d00
013f
cafe
2c16
5556
0d04
01a4
cafe
300f
5556
0d04
0201
cafe
341f
5556
0d04
013f
cafe
3807
5556
0d04
01a3
cafe
3c17
5556
0d08
0220
cafe
2008
5556
0d08
017f
cafe
2418
5556
0d08
0209
cafe
2800
5556
0d08
018a
cafe
2c10
5556
0d0c
0168
cafe
3009
5556
0d0c
01ab
cafe
3419
5556
0d0c
01b0
cafe
3801
5556
0d0c
024c
cafe
3c11
5556
0d10
01d8
cafe
200a
5556
0d10
01e6
cafe
241a
5556
0d10
0125
cafe
2802
5556
0d10
0202
cafe
2c12
5556
0d14
0197
cafe
300b
5556
0d14
019e
cafe
341b
5556
0d14
017b
cafe
3803
5556
0d14
0144
cafe
3c13
5556
0d18
01e9
cafe
200c
5556
0d18
01b5
cafe
241c
5556
0d18
0161
cafe
2804
5556
0d18
01e4
cafe
2c14
5556
0d1c
0161
cafe
300d
5556
0d1c
01cc
cafe
341d
5556
0d1c
0196
cafe
3805
5556
0d1c
018a
cafe
3c15
5556
0d20
01bd
cafe
200e
5556
0d20
01ff
cafe
241e
5556
0d20
01a4
cafe
2806
5556
0d20
013d
cafe
2c16
5556
0d24
01a6
cafe
300f
5556
0d24
0234
cafe
341f
5556
0d24
0174
cafe
3807
5556
0d24
01d6
cafe
3c17
5556
0d28
0255
cafe
2008
5556
0d28
024e
cafe
2418
5556
0d28
02da
cafe
2800
5556
0d28
0258
cafe
2c10
-
5556
0d2c
022e
cafe
3009
5556
0d2c
030c
cafe
3419
5556
0d2c
0309
cafe
3801
5556
0d2c
03a0
cafe
3c11
5556
0d30
033b
cafe
200a
5556
0d30
03ca
cafe
241a
5556
0d30
030b
cafe
2802
5556
0d30
03ea
cafe
2c12
5556
0d34
037c
cafe
300b
5556
0d34
0403
cafe
341b
5556
0d34
03d8
cafe
3803
5556
0d34
0393
cafe
3c13
5556
0d38
044b
cafe
200c
5556
0d38
0492
cafe
241c
5556
0d38
042a
cafe
2804
5556
0d38
04b2
cafe
2c14
5556
0d3c
043f
cafe
300d
5556
0d3c
050c
cafe
341d
5556
0d3c
04ce
cafe
3805
5556
0d3c
04b5
cafe
3c15
5556
0d40
04f7
cafe
200e
5556
0d40
059d
cafe
241e
5556
0d40
0537
cafe
2806
5556
0d40
04d8
cafe
2c16
5556
0d44
0539
cafe
300f
5556
0d44
05e8
cafe
341f
5556
0d44
0524
cafe
3807
5556
0d44
057d
cafe
3c17
5556
0d48
05ff
cafe
2008
5556
0d48
05c2
cafe
2418
5556
0d48
064a
cafe
2800
5556
0d48
05d0
cafe
2c10
5556
0d4c
05a9
cafe
3009
5556
0d4c
0633
cafe
3419
5556
0d4c
0630
cafe
3801
5556
0d4c
06ce
cafe
3c11
5556
0d50
066a
cafe
200a
5556
0d50
06bb
cafe
241a
5556
0d50
05f7
cafe
2802
5556
0d50
06cd
cafe
2c12
5556
0d54
066b
cafe
300b
5556
0d54
06ae
cafe
341b
5556
0d54
0682
cafe
3803
5556
0d54
0634
cafe
3c13
5556
0d58
06ee
cafe
200c
5556
0d58
070d
cafe
241c
5556
0d58
069d
cafe
2804
5556
0d58
0720
cafe
2c14
5556
0d5c
06b8
cafe
300d
5556
0d5c
0749
cafe
341d
5556
0d5c
0711
cafe
3805
5556
-
0d5c
06fb
cafe
3c15
5556
0d60
072e
cafe
200e
5556
0d60
07b1
cafe
241e
5556
0d60
0752
cafe
2806
5556
0d60
06ed
cafe
2c16
5556
0d64
0747
cafe
300f
5556
0d64
07cd
cafe
341f
5556
0d64
0716
cafe
3807
5556
0d64
0764
cafe
3c17
5556
0d68
07eb
cafe
2008
5556
0d68
0781
cafe
2418
5556
0d68
0812
cafe
2800
5556
0d68
0797
cafe
2c10
5556
0d6c
076d
cafe
3009
5556
0d6c
07cf
cafe
3419
5556
0d6c
07cc
cafe
3801
5556
0d6c
086d
cafe
3c11
5556
0d70
0802
cafe
200a
5556
0d70
0837
cafe
241a
5556
0d70
0777
cafe
2802
5556
0d70
0842
cafe
2c12
5556
0d74
07ee
cafe
300b
5556
0d74
0804
cafe
341b
5556
0d74
07db
cafe
3803
5556
0d74
0789
cafe
3c13
5556
0d78
0842
cafe
200c
5556
0d78
084d
cafe
241c
5556
0d78
07de
cafe
2804
5556
0d78
085c
cafe
2c14
5556
0d7c
07f2
cafe
300d
5556
0d7c
0868
cafe
341d
5556
0d7c
0839
cafe
3805
5556
0d7c
081b
cafe
3c15
5556
0d80
0853
cafe
200e
5556
0d80
08be
cafe
241e
5556
0d80
0866
cafe
2806
5556
0d80
07f7
cafe
2c16
5556
0d84
0851
cafe
300f
5556
0d84
08c4
cafe
341f
5556
0d84
0819
cafe
3807
5556
0d84
085a
cafe
3c17
5556
0d88
08e9
cafe
2008
5556
0d88
085f
cafe
2418
5556
0d88
08fc
cafe
2800
5556
0d88
0876
cafe
2c10
5556
0d8c
084e
cafe
3009
5556
0d8c
0896
cafe
3419
5556
0d8c
089b
cafe
3801
5556
0d8c
093c
cafe
3c11
5556
0d90
08ce
cafe
200a
5556
0d90
08ec
cafe
241a
5556
0d90
-
0831
cafe
2802
5556
0d90
08fe
cafe
2c12
5556
0d94
08a7
cafe
300b
5556
0d94
08a8
cafe
341b
5556
0d94
087e
cafe
3803
5556
0d94
0832
cafe
3c13
5556
0d98
08e6
cafe
200c
5556
0d98
08eb
cafe
241c
5556
0d98
087c
cafe
2804
5556
0d98
08f4
cafe
2c14
5556
0d9c
0885
cafe
300d
5556
0d9c
08f9
cafe
341d
5556
0d9c
08cb
cafe
3805
5556
0d9c
08a7
cafe
3c15
5556
0da0
08e0
cafe
200e
5556
0da0
093e
cafe
241e
5556
0da0
08ec
cafe
2806
5556
0da0
0878
cafe
2c16
5556
0da4
08d6
cafe
300f
5556
0da4
093d
cafe
341f
5556
0da4
0894
cafe
3807
5556
0da4
08d4
cafe
3c17
5556
0da8
0960
cafe
2008
5556
0da8
08cf
cafe
2418
5556
0da8
0972
cafe
2800
5556
0da8
08df
cafe
2c10
5556
0dac
08bc
cafe
3009
5556
0dac
08fa
cafe
3419
5556
0dac
0900
cafe
3801
5556
0dac
099d
cafe
3c11
5556
0db0
093b
cafe
200a
5556
0db0
0946
cafe
241a
5556
0db0
0892
cafe
2802
5556
0db0
0953
cafe
2c12
5556
0db4
0900
cafe
300b
5556
0db4
08f4
cafe
341b
5556
0db4
08d1
cafe
3803
5556
0db4
087e
cafe
3c13
5556
0db8
0934
cafe
200c
5556
0db8
092a
cafe
241c
5556
0db8
08bf
cafe
2804
5556
0db8
0935
cafe
2c14
5556
0dbc
08c9
cafe
300d
5556
0dbc
0931
cafe
341d
5556
0dbc
090d
cafe
3805
5556
0dbc
08e3
cafe
3c15
5556
0dc0
091e
cafe
200e
5556
0dc0
096d
cafe
241e
5556
0dc0
0924
cafe
2806
5556
0dc0
08ab
cafe
2c16
5556
0dc4
090c
cafe
300f
5556
0dc4
0968
-
cafe
341f
5556
0dc4
08cc
cafe
3807
5556
0dc4
0906
cafe
3c17
5556
0dc8
098d
cafe
2008
5556
0dc8
08f4
cafe
2418
5556
0dc8
099f
cafe
2800
5556
0dc8
0905
cafe
2c10
5556
0dcc
08e5
cafe
3009
5556
0dcc
0921
cafe
3419
5556
0dcc
092e
cafe
3801
5556
0dcc
09c2
cafe
3c11
5556
0dd0
0966
cafe
200a
5556
0dd0
0971
cafe
241a
5556
0dd0
08b4
cafe
2802
5556
0dd0
0973
cafe
2c12
5556
0dd4
0921
cafe
300b
5556
0dd4
0915
cafe
341b
5556
0dd4
08e9
cafe
3803
5556
0dd4
089c
cafe
3c13
5556
0dd8
0959
cafe
200c
5556
0dd8
094a
cafe
241c
5556
0dd8
08d6
cafe
2804
5556
0dd8
0952
cafe
2c14
5556
0ddc
08e3
cafe
300d
5556
0ddc
094b
cafe
341d
5556
0ddc
0927
cafe
3805
5556
0ddc
08fb
cafe
3c15
5556
0de0
0937
cafe
200e
5556
0de0
0980
cafe
241e
5556
0de0
0932
cafe
2806
5556
0de0
08c1
cafe
2c16
5556
0de4
0923
cafe
300f
5556
0de4
097b
cafe
341f
5556
0de4
08db
cafe
3807
5556
0de4
0914
cafe
3c17
5556
0de8
099c
cafe
2008
5556
0de8
08fe
cafe
2418
5556
0de8
09af
cafe
2800
5556
0de8
0911
cafe
2c10
5556
0dec
08f0
cafe
3009
5556
0dec
0928
cafe
3419
5556
0dec
093c
cafe
3801
5556
0dec
09cb
cafe
3c11
5556
0df0
096c
cafe
200a
5556
0df0
097f
cafe
241a
5556
0df0
08bc
cafe
2802
5556
0df0
0977
cafe
2c12
5556
0df4
092a
cafe
300b
5556
0df4
091f
cafe
341b
5556
0df4
08ea
cafe
3803
5556
0df4
089d
cafe
3c13
5556
0df8
0961
cafe
-
200c
5556
0df8
094c
cafe
241c
5556
0df8
08e1
cafe
2804
5556
0df8
0953
cafe
2c14
5556
0dfc
08ec
cafe
300d
5556
0dfc
094b
cafe
341d
5556
0dfc
0929
cafe
3805
5556
0dfc
0900
cafe
3c15
5556
0e00
0930
cafe
200e
5556
0e00
0979
cafe
241e
5556
0e00
092b
cafe
2806
5556
0e00
08bb
cafe
2c16
5556
0e04
091f
cafe
300f
5556
0e04
097c
cafe
341f
5556
0e04
08d6
cafe
3807
5556
0e04
090c
cafe
3c17
5556
0e08
099a
cafe
2008
5556
0e08
08f0
cafe
2418
5556
0e08
09a8
cafe
2800
5556
0e08
090a
cafe
2c10
5556
0e0c
08e7
cafe
3009
5556
0e0c
0925
cafe
3419
5556
0e0c
0941
cafe
3801
5556
0e0c
09ca
cafe
3c11
5556
0e10
096a
cafe
200a
5556
0e10
0973
cafe
241a
5556
0e10
08b2
cafe
2802
5556
0e10
096f
cafe
2c12
5556
0e14
091f
cafe
300b
5556
0e14
091b
cafe
341b
5556
0e14
08dc
cafe
3803
5556
0e14
0892
cafe
3c13
5556
0e18
095b
cafe
200c
5556
0e18
094a
cafe
241c
5556
0e18
08dc
cafe
2804
5556
0e18
094d
cafe
2c14
5556
0e1c
08dd
cafe
300d
5556
0e1c
093d
cafe
341d
5556
0e1c
091a
cafe
3805
5556
0e1c
08f7
cafe
3c15
5556
0e20
092b
cafe
200e
5556
0e20
0971
cafe
241e
5556
0e20
091e
cafe
2806
5556
0e20
08b6
cafe
2c16
5556
0e24
0912
cafe
300f
5556
0e24
0972
cafe
341f
5556
0e24
08cb
cafe
3807
5556
0e24
08f5
cafe
3c17
5556
0e28
098c
cafe
2008
5556
0e28
08e3
cafe
2418
5556
0e28
099f
cafe
2800
5556
0e28
08fc
cafe
2c10
-
5556
0e2c
08d3
cafe
3009
5556
0e2c
090e
cafe
3419
5556
0e2c
0936
cafe
3801
5556
0e2c
09b6
cafe
3c11
5556
0e30
0953
cafe
200a
5556
0e30
0960
cafe
241a
5556
0e30
089d
cafe
2802
5556
0e30
0963
cafe
2c12
5556
0e34
0907
cafe
300b
5556
0e34
0907
cafe
341b
5556
0e34
08c6
cafe
3803
5556
0e34
0882
cafe
3c13
5556
0e38
0940
cafe
200c
5556
0e38
093a
cafe
241c
5556
0e38
08c9
cafe
2804
5556
0e38
093a
cafe
2c14
5556
0e3c
08c0
cafe
300d
5556
0e3c
0922
cafe
341d
5556
0e3c
0908
cafe
3805
5556
0e3c
08e8
cafe
3c15
5556
0e40
0917
cafe
200e
5556
0e40
095d
cafe
241e
5556
0e40
090d
cafe
2806
5556
0e40
08a9
cafe
2c16
5556
0e44
08fe
cafe
300f
5556
0e44
0961
cafe
341f
5556
0e44
08b3
cafe
3807
5556
0e44
08e4
cafe
3c17
5556
0e48
0981
cafe
2008
5556
0e48
08d0
cafe
2418
5556
0e48
098b
cafe
2800
5556
0e48
08e5
cafe
2c10
5556
0e4c
08c5
cafe
3009
5556
0e4c
0903
cafe
3419
5556
0e4c
0926
cafe
3801
5556
0e4c
09a8
cafe
3c11
5556
0e50
0940
cafe
200a
5556
0e50
094f
cafe
241a
5556
0e50
0888
cafe
2802
5556
0e50
0951
cafe
2c12
5556
0e54
08f2
cafe
300b
5556
0e54
08f5
cafe
341b
5556
0e54
08b7
cafe
3803
5556
0e54
0877
cafe
3c13
5556
0e58
092d
cafe
200c
5556
0e58
0929
cafe
241c
5556
0e58
08b7
cafe
2804
5556
0e58
0924
cafe
2c14
5556
0e5c
08a9
cafe
300d
5556
0e5c
090c
cafe
341d
5556
0e5c
08f4
cafe
3805
5556
-
0e5c
08cb
cafe
3c15
5556
0e60
0901
cafe
200e
5556
0e60
0948
cafe
241e
5556
0e60
08f7
cafe
2806
5556
0e60
088e
cafe
2c16
5556
0e64
08e7
cafe
300f
5556
0e64
0948
cafe
341f
5556
0e64
0896
cafe
3807
5556
0e64
08d1
cafe
3c17
5556
0e68
0970
cafe
2008
5556
0e68
08b9
cafe
2418
5556
0e68
0975
cafe
2800
5556
0e68
08cd
cafe
2c10
5556
0e6c
08b3
cafe
3009
5556
0e6c
08ee
cafe
3419
5556
0e6c
0913
cafe
3801
5556
0e6c
0994
cafe
3c11
5556
0e70
092a
cafe
200a
5556
0e70
093d
cafe
241a
5556
0e70
086c
cafe
2802
5556
0e70
093a
cafe
2c12
5556
0e74
08d9
cafe
300b
5556
0e74
08dd
cafe
341b
5556
0e74
08a4
cafe
3803
5556
0e74
0860
cafe
3c13
5556
0e78
0918
cafe
200c
5556
0e78
0916
cafe
241c
5556
0e78
08aa
cafe
2804
5556
0e78
090d
cafe
2c14
5556
0e7c
0890
cafe
300d
5556
0e7c
08ea
cafe
341d
5556
0e7c
08e1
cafe
3805
5556
0e7c
08b5
cafe
3c15
5556
0e80
08e2
cafe
200e
5556
0e80
092f
cafe
241e
5556
0e80
08de
cafe
2806
5556
0e80
086f
cafe
2c16
5556
0e84
08c6
cafe
300f
5556
0e84
0936
cafe
341f
5556
0e84
087e
cafe
3807
5556
0e84
08bd
cafe
3c17
5556
0e88
095d
cafe
2008
5556
0e88
08a1
cafe
2418
5556
0e88
095f
cafe
2800
5556
0e88
08b7
cafe
2c10
5556
0e8c
089e
cafe
3009
5556
0e8c
08d6
cafe
3419
5556
0e8c
0902
cafe
3801
5556
0e8c
0980
cafe
3c11
5556
0e90
0912
cafe
200a
5556
0e90
092c
cafe
241a
5556
0e90
-
0854
cafe
2802
5556
0e90
0924
cafe
2c12
5556
0e94
08c2
cafe
300b
5556
0e94
08cb
cafe
341b
5556
0e94
0889
cafe
3803
5556
0e94
0846
cafe
3c13
5556
0e98
0900
cafe
200c
5556
0e98
08fc
cafe
241c
5556
0e98
0898
cafe
2804
5556
0e98
08f7
cafe
2c14
5556
0e9c
087f
cafe
300d
5556
0e9c
08d0
cafe
341d
5556
0e9c
08ce
cafe
3805
5556
0e9c
089d
cafe
3c15
5556
0ea0
08cb
cafe
200e
5556
0ea0
0913
cafe
241e
5556
0ea0
08c4
cafe
2806
5556
0ea0
0859
cafe
2c16
5556
0ea4
08af
cafe
300f
5556
0ea4
091e
cafe
341f
5556
0ea4
085e
cafe
3807
5556
0ea4
08a4
cafe
3c17
5556
0ea8
0949
cafe
2008
5556
0ea8
0883
cafe
2418
5556
0ea8
094f
cafe
2800
5556
0ea8
08a2
cafe
2c10
5556
0eac
0885
cafe
3009
5556
0eac
08be
cafe
3419
5556
0eac
08e5
cafe
3801
5556
0eac
0966
cafe
3c11
5556
0eb0
08f4
cafe
200a
5556
0eb0
0914
cafe
241a
5556
0eb0
083e
cafe
2802
5556
0eb0
090e
cafe
2c12
5556
0eb4
08ac
cafe
300b
5556
0eb4
08b4
cafe
341b
5556
0eb4
086f
cafe
3803
5556
0eb4
082e
cafe
3c13
5556
0eb8
08e8
cafe
200c
5556
0eb8
08e8
cafe
241c
5556
0eb8
087c
cafe
2804
5556
0eb8
08e7
cafe
2c14
5556
0ebc
0865
cafe
300d
5556
0ebc
08c4
cafe
341d
5556
0ebc
08b6
cafe
3805
5556
0ebc
088a
cafe
3c15
5556
0ec0
08b5
cafe
200e
5556
0ec0
0903
cafe
241e
5556
0ec0
08ab
cafe
2806
5556
0ec0
0845
cafe
2c16
5556
0ec4
0896
cafe
300f
5556
0ec4
090d
-
cafe
341f
5556
0ec4
0848
cafe
3807
5556
0ec4
088c
cafe
3c17
5556
0ec8
0939
cafe
2008
5556
0ec8
0868
cafe
2418
5556
0ec8
0940
cafe
2800
5556
0ec8
088e
cafe
2c10
5556
0ecc
086b
cafe
3009
5556
0ecc
08a4
cafe
3419
5556
0ecc
08cb
cafe
3801
5556
0ecc
0957
cafe
3c11
5556
0ed0
08de
cafe
200a
5556
0ed0
08f9
cafe
241a
5556
0ed0
081d
cafe
2802
5556
0ed0
08f4
cafe
2c12
5556
0ed4
0894
cafe
300b
5556
0ed4
0899
cafe
341b
5556
0ed4
0851
cafe
3803
5556
0ed4
080e
cafe
3c13
5556
0ed8
08cb
cafe
200c
5556
0ed8
08c5
cafe
241c
5556
0ed8
0862
cafe
2804
5556
0ed8
08cc
cafe
2c14
5556
0edc
083f
cafe
300d
5556
0edc
08a8
cafe
341d
5556
0edc
089e
cafe
3805
5556
0edc
0871
cafe
3c15
5556
0ee0
0895
cafe
200e
5556
0ee0
08e6
cafe
241e
5556
0ee0
0890
cafe
2806
5556
0ee0
0825
cafe
2c16
5556
0ee4
0880
cafe
300f
5556
0ee4
08fa
cafe
341f
5556
0ee4
082c
cafe
3807
5556
0ee4
0875
cafe
3c17
5556
0ee8
0923
cafe
2008
5556
0ee8
0850
cafe
2418
5556
0ee8
092b
cafe
2800
5556
0ee8
0873
cafe
2c10
5556
0eec
085a
cafe
3009
5556
0eec
0893
cafe
3419
5556
0eec
08b7
cafe
3801
5556
0eec
0943
cafe
3c11
5556
0ef0
08cf
cafe
200a
5556
0ef0
08eb
cafe
241a
5556
0ef0
0808
cafe
2802
5556
0ef0
08e1
cafe
2c12
5556
0ef4
0886
cafe
300b
5556
0ef4
0882
cafe
341b
5556
0ef4
0836
cafe
3803
5556
0ef4
07f3
cafe
3c13
5556
0ef8
08b3
cafe
-
200c
5556
0ef8
08a7
cafe
241c
5556
0ef8
084a
cafe
2804
5556
0ef8
08b3
cafe
2c14
5556
0efc
0823
cafe
300d
5556
0efc
088c
cafe
341d
5556
0efc
0882
cafe
3805
5556
0efc
085d
cafe
3c15
5556
0f00
0873
cafe
200e
5556
0f00
08c3
cafe
241e
5556
0f00
087a
cafe
2806
5556
0f00
0807
cafe
2c16
5556
0f04
0864
cafe
300f
5556
0f04
08d1
cafe
341f
5556
0f04
080e
cafe
3807
5556
0f04
0854
cafe
3c17
5556
0f08
0904
cafe
2008
5556
0f08
082e
cafe
2418
5556
0f08
0911
cafe
2800
5556
0f08
0850
cafe
2c10
5556
0f0c
083a
cafe
3009
5556
0f0c
0881
cafe
3419
5556
0f0c
089c
cafe
3801
5556
0f0c
092e
cafe
3c11
5556
0f10
08b5
cafe
200a
5556
0f10
08d4
cafe
241a
5556
0f10
07f4
cafe
2802
5556
0f10
08cb
cafe
2c12
5556
0f14
0871
cafe
300b
5556
0f14
0871
cafe
341b
5556
0f14
081d
cafe
3803
5556
0f14
07dd
cafe
3c13
5556
0f18
0897
cafe
200c
5556
0f18
0894
cafe
241c
5556
0f18
0834
cafe
2804
5556
0f18
08a2
cafe
2c14
5556
0f1c
0812
cafe
300d
5556
0f1c
0880
cafe
341d
5556
0f1c
086b
cafe
3805
5556
0f1c
084a
cafe
3c15
5556
0f20
085e
cafe
200e
5556
0f20
08b3
cafe
241e
5556
0f20
0865
cafe
2806
5556
0f20
07f0
cafe
2c16
5556
0f24
084d
cafe
300f
5556
0f24
08bd
cafe
341f
5556
0f24
07f8
cafe
3807
5556
0f24
0840
cafe
3c17
5556
0f28
08f6
cafe
2008
5556
0f28
080a
cafe
2418
5556
0f28
08f3
cafe
2800
5556
0f28
0838
cafe
2c10
-
5556
0f2c
0827
cafe
3009
5556
0f2c
086c
cafe
3419
5556
0f2c
0889
cafe
3801
5556
0f2c
091c
cafe
3c11
5556
0f30
089e
cafe
200a
5556
0f30
08c1
cafe
241a
5556
0f30
07de
cafe
2802
5556
0f30
08b0
cafe
2c12
5556
0f34
085c
cafe
300b
5556
0f34
0860
cafe
341b
5556
0f34
0803
cafe
3803
5556
0f34
07ca
cafe
3c13
5556
0f38
0885
cafe
200c
5556
0f38
0880
cafe
241c
5556
0f38
081b
cafe
2804
5556
0f38
0893
cafe
2c14
5556
0f3c
0806
cafe
300d
5556
0f3c
086c
cafe
341d
5556
0f3c
084f
cafe
3805
5556
0f3c
082f
cafe
3c15
5556
0f40
0847
cafe
200e
5556
0f40
08a4
cafe
241e
5556
0f40
0851
cafe
2806
5556
0f40
07d6
cafe
2c16
5556
0f44
0834
cafe
300f
5556
0f44
08ae
cafe
341f
5556
0f44
07dc
cafe
3807
5556
0f44
0827
cafe
3c17
5556
0f48
08e2
cafe
2008
5556
0f48
07f2
cafe
2418
5556
0f48
08dd
cafe
2800
5556
0f48
081d
cafe
2c10
5556
0f4c
080d
cafe
3009
5556
0f4c
0859
cafe
3419
5556
0f4c
086d
cafe
3801
5556
0f4c
0905
cafe
3c11
5556
0f50
0882
cafe
200a
5556
0f50
08a6
cafe
241a
5556
0f50
07c6
cafe
2802
5556
0f50
089b
cafe
2c12
5556
0f54
083d
cafe
300b
5556
0f54
0849
cafe
341b
5556
0f54
07e9
cafe
3803
5556
0f54
07ac
cafe
3c13
5556
0f58
0869
cafe
200c
5556
0f58
0862
cafe
241c
5556
0f58
0806
cafe
2804
5556
0f58
087d
cafe
2c14
5556
0f5c
07e9
cafe
300d
5556
0f5c
0857
cafe
341d
5556
0f5c
0837
cafe
3805
5556
-
0f5c
0817
cafe
3c15
5556
0f60
0833
cafe
200e
5556
0f60
088d
cafe
241e
5556
0f60
083a
cafe
2806
5556
0f60
07be
cafe
2c16
5556
0f64
081e
cafe
300f
5556
0f64
089f
cafe
341f
5556
0f64
07c2
cafe
3807
5556
0f64
0815
cafe
3c17
5556
0f68
08d0
cafe
2008
5556
0f68
07dd
cafe
2418
5556
0f68
08cd
cafe
2800
5556
0f68
0800
cafe
2c10
5556
0f6c
07f3
cafe
3009
5556
0f6c
0846
cafe
3419
5556
0f6c
0855
cafe
3801
5556
0f6c
08f6
cafe
3c11
5556
0f70
0870
cafe
200a
5556
0f70
088b
cafe
241a
5556
0f70
07a9
cafe
2802
5556
0f70
0885
cafe
2c12
5556
0f74
0825
cafe
300b
5556
0f74
082b
cafe
341b
5556
0f74
07d5
cafe
3803
5556
0f74
0794
cafe
3c13
5556
0f78
084d
cafe
200c
5556
0f78
084d
cafe
241c
5556
0f78
07f2
cafe
2804
5556
0f78
0863
cafe
2c14
5556
0f7c
07cd
cafe
300d
5556
0f7c
0842
cafe
341d
5556
0f7c
0820
cafe
3805
5556
0f7c
0803
cafe
3c15
5556
0f80
081d
cafe
200e
5556
0f80
087b
cafe
241e
5556
0f80
0820
cafe
2806
5556
0f80
07aa
cafe
2c16
5556
0f84
0808
cafe
300f
5556
0f84
0890
cafe
341f
5556
0f84
07a5
cafe
3807
5556
0f84
0800
cafe
3c17
5556
0f88
08bf
cafe
2008
5556
0f88
07c8
cafe
2418
5556
0f88
08b9
cafe
2800
5556
0f88
07e6
cafe
2c10
5556
0f8c
07dc
cafe
3009
5556
0f8c
082f
cafe
3419
5556
0f8c
083e
cafe
3801
5556
0f8c
08dc
cafe
3c11
5556
0f90
085b
cafe
200a
5556
0f90
0880
cafe
241a
5556
0f90
-
078d
cafe
2802
5556
0f90
086e
cafe
2c12
5556
0f94
0810
cafe
300b
5556
0f94
0811
cafe
341b
5556
0f94
07c2
cafe
3803
5556
0f94
077c
cafe
3c13
5556
0f98
0838
cafe
200c
5556
0f98
0837
cafe
241c
5556
0f98
07d7
cafe
2804
5556
0f98
084f
cafe
2c14
5556
0f9c
07b2
cafe
300d
5556
0f9c
0820
cafe
341d
5556
0f9c
0808
cafe
3805
5556
0f9c
07e8
cafe
3c15
5556
0fa0
0801
cafe
200e
5556
0fa0
0865
cafe
241e
5556
0fa0
080b
cafe
2806
5556
0fa0
078c
cafe
2c16
5556
0fa4
07ef
cafe
300f
5556
0fa4
087d
cafe
341f
5556
0fa4
078f
cafe
3807
5556
0fa4
07e6
cafe
3c17
5556
0fa8
08ab
cafe
2008
5556
0fa8
07b3
cafe
2418
5556
0fa8
08a2
cafe
2800
5556
0fa8
07ca
cafe
2c10
5556
0fac
07c3
cafe
3009
5556
0fac
0818
cafe
3419
5556
0fac
082c
cafe
3801
5556
0fac
08c6
cafe
3c11
5556
0fb0
0849
cafe
200a
5556
0fb0
0871
cafe
241a
5556
0fb0
0779
cafe
2802
5556
0fb0
0859
cafe
2c12
5556
0fb4
07ff
cafe
300b
5556
0fb4
080a
cafe
341b
5556
0fb4
07ad
cafe
3803
5556
0fb4
076d
cafe
3c13
5556
0fb8
0826
cafe
200c
5556
0fb8
0829
cafe
241c
5556
0fb8
07c0
cafe
2804
5556
0fb8
083d
cafe
2c14
5556
0fbc
079e
cafe
300d
5556
0fbc
0804
cafe
341d
5556
0fbc
07ef
cafe
3805
5556
0fbc
07cf
cafe
3c15
5556
0fc0
07e9
cafe
200e
5556
0fc0
0848
cafe
241e
5556
0fc0
07f1
cafe
2806
5556
0fc0
0777
cafe
2c16
5556
0fc4
07d1
cafe
300f
5556
0fc4
085e
-
cafe
341f
5556
0fc4
0774
cafe
3807
5556
0fc4
07c5
cafe
3c17
5556
0fc8
088f
cafe
2008
5556
0fc8
0789
cafe
2418
5556
0fc8
0888
cafe
2800
5556
0fc8
07ab
cafe
2c10
5556
0fcc
0798
cafe
3009
5556
0fcc
07f8
cafe
3419
5556
0fcc
0813
cafe
3801
5556
0fcc
08ae
cafe
3c11
5556
0fd0
0824
cafe
200a
5556
0fd0
0845
cafe
241a
5556
0fd0
0760
cafe
2802
5556
0fd0
083a
cafe
2c12
5556
0fd4
07d6
cafe
300b
5556
0fd4
07e8
cafe
341b
5556
0fd4
078b
cafe
3803
5556
0fd4
0751
cafe
3c13
5556
0fd8
07fb
cafe
200c
5556
0fd8
0808
cafe
241c
5556
0fd8
07a7
cafe
2804
5556
0fd8
0820
cafe
2c14
5556
0fdc
077b
cafe
300d
5556
0fdc
07e2
cafe
341d
5556
0fdc
07d1
cafe
3805
5556
0fdc
07b5
cafe
3c15
5556
0fe0
07c7
cafe
200e
5556
0fe0
082a
cafe
241e
5556
0fe0
07d8
cafe
2806
5556
0fe0
075c
cafe
2c16
5556
0fe4
07b8
cafe
300f
5556
0fe4
0847
cafe
341f
5556
0fe4
075c
cafe
3807
5556
0fe4
07a8
cafe
3c17
5556
0fe8
0872
cafe
2008
5556
0fe8
076f
cafe
2418
5556
0fe8
0878
cafe
2800
5556
0fe8
0798
cafe
2c10
5556
0fec
0787
cafe
3009
5556
0fec
07e5
cafe
3419
5556
0fec
0805
cafe
3801
5556
0fec
0892
cafe
3c11
5556
0ff0
080e
cafe
200a
5556
0ff0
082f
cafe
241a
5556
0ff0
0742
cafe
2802
5556
0ff0
0826
cafe
2c12
5556
0ff4
07c5
cafe
300b
5556
0ff4
07d9
cafe
341b
5556
0ff4
0777
cafe
3803
5556
0ff4
0742
cafe
3c13
5556
0ff8
07e9
cafe
-
200c
5556
0ff8
07fb
cafe
241c
5556
0ff8
0791
cafe
2804
5556
0ff8
0812
cafe
2c14
5556
0ffc
0765
cafe
300d
5556
0ffc
07ce
cafe
341d
5556
0ffc
07bf
cafe
3805
5556
0ffc
079b
cafe
3c15
5556
1000
07ae
cafe
200e
5556
1000
0816
cafe
241e
5556
1000
07c2
cafe
2806
5556
1000
0745
cafe
2c16
5556
1004
07aa
cafe
300f
5556
1004
0834
cafe
341f
5556
1004
0746
cafe
3807
5556
1004
0795
cafe
3c17
5556
1008
085e
cafe
2008
5556
1008
075d
cafe
2418
5556
1008
0861
cafe
2800
5556
1008
077a
cafe
2c10
5556
100c
0778
cafe
3009
5556
100c
07d4
cafe
3419
5556
100c
07ec
cafe
3801
5556
100c
0882
cafe
3c11
5556
1010
07f7
cafe
200a
5556
1010
0818
cafe
241a
5556
1010
0730
cafe
2802
5556
1010
0816
cafe
2c12
5556
1014
07b0
cafe
300b
5556
1014
07ca
cafe
341b
5556
1014
075b
cafe
3803
5556
1014
072d
cafe
3c13
5556
1018
07d9
cafe
200c
5556
1018
07e9
cafe
241c
5556
1018
0779
cafe
2804
5556
1018
07fc
cafe
2c14
5556
101c
0754
cafe
300d
5556
101c
07b3
cafe
341d
5556
101c
07a5
cafe
3805
5556
101c
0786
cafe
3c15
5556
1020
0798
cafe
200e
5556
1020
0802
cafe
241e
5556
1020
07a7
cafe
2806
5556
1020
0737
cafe
2c16
5556
1024
0794
cafe
300f
5556
1024
081c
cafe
341f
5556
1024
072a
cafe
3807
5556
1024
077b
cafe
3c17
5556
1028
084c
cafe
2008
5556
1028
074b
cafe
2418
5556
1028
0854
cafe
2800
5556
1028
0763
cafe
2c10
-
5556
102c
0767
cafe
3009
5556
102c
07c3
cafe
3419
5556
102c
07db
cafe
3801
5556
102c
086a
cafe
3c11
5556
1030
07de
cafe
200a
5556
1030
080c
cafe
241a
5556
1030
071b
cafe
2802
5556
1030
07f9
cafe
2c12
5556
1034
07a0
cafe
300b
5556
1034
07b2
cafe
341b
5556
1034
0746
cafe
3803
5556
1034
0713
cafe
3c13
5556
1038
07c8
cafe
200c
5556
1038
07d3
cafe
241c
5556
1038
075e
cafe
2804
5556
1038
07eb
cafe
2c14
5556
103c
073b
cafe
300d
5556
103c
079a
cafe
341d
5556
103c
0792
cafe
3805
5556
103c
0773
cafe
3c15
5556
1040
0782
cafe
200e
5556
1040
07eb
cafe
241e
5556
1040
078e
cafe
2806
5556
1040
071e
cafe
2c16
5556
1044
077b
cafe
300f
5556
1044
0810
cafe
341f
5556
1044
0712
cafe
3807
5556
1044
0764
cafe
3c17
5556
1048
083d
cafe
2008
5556
1048
0734
cafe
2418
5556
1048
083f
cafe
2800
5556
1048
074e
cafe
2c10
5556
104c
0754
cafe
3009
5556
104c
07b2
cafe
3419
5556
104c
07cb
cafe
3801
5556
104c
084d
cafe
3c11
5556
1050
07c9
cafe
200a
5556
1050
07f6
cafe
241a
5556
1050
06fe
cafe
2802
5556
1050
07e2
cafe
2c12
5556
1054
078d
cafe
300b
5556
1054
07a1
cafe
341b
5556
1054
0730
cafe
3803
5556
1054
0700
cafe
3c13
5556
1058
07b1
cafe
200c
5556
1058
07bd
cafe
241c
5556
1058
074b
cafe
2804
5556
1058
07dd
cafe
2c14
5556
105c
071f
cafe
300d
5556
105c
078c
cafe
341d
5556
105c
077c
cafe
3805
5556
-
105c
075f
cafe
3c15
5556
1060
076f
cafe
200e
5556
1060
07d6
cafe
241e
5556
1060
077c
cafe
2806
5556
1060
06fe
cafe
2c16
5556
1064
0766
cafe
300f
5556
1064
07f4
cafe
341f
5556
1064
06f7
cafe
3807
5556
1064
074d
cafe
3c17
5556
1068
0827
cafe
2008
5556
1068
0719
cafe
2418
5556
1068
0829
cafe
2800
5556
1068
0736
cafe
2c10
5556
106c
0738
cafe
3009
5556
106c
079a
cafe
3419
5556
106c
07ad
cafe
3801
5556
106c
0830
cafe
3c11
5556
1070
07a9
cafe
200a
5556
1070
07db
cafe
241a
5556
1070
06e6
cafe
2802
5556
1070
07c8
cafe
2c12
5556
1074
076f
cafe
300b
5556
1074
0785
cafe
341b
5556
1074
0714
cafe
3803
5556
1074
06eb
cafe
3c13
5556
1078
0792
cafe
200c
5556
1078
07a8
cafe
241c
5556
1078
0736
cafe
2804
5556
1078
07ca
cafe
2c14
5556
107c
070b
cafe
300d
5556
107c
077c
cafe
341d
5556
107c
076b
cafe
3805
5556
107c
0744
cafe
3c15
5556
1080
075f
cafe
200e
5556
1080
07c4
cafe
241e
5556
1080
076c
cafe
2806
5556
1080
06ea
cafe
2c16
5556
1084
0752
cafe
300f
5556
1084
07df
cafe
341f
5556
1084
06e1
cafe
3807
5556
1084
073f
cafe
3c17
5556
1088
0810
cafe
2008
5556
1088
0705
cafe
2418
5556
1088
0819
cafe
2800
5556
1088
071d
cafe
2c10
5556
108c
072b
cafe
3009
5556
108c
0785
cafe
3419
5556
108c
0794
cafe
3801
5556
108c
0819
cafe
3c11
5556
1090
0790
cafe
200a
5556
1090
07c7
cafe
241a
5556
1090
-
06cc
cafe
2802
5556
1090
07b4
cafe
2c12
5556
1094
0757
cafe
300b
5556
1094
0774
cafe
341b
5556
1094
06fc
cafe
3803
5556
1094
06d3
cafe
3c13
5556
1098
077f
cafe
200c
5556
1098
078d
cafe
241c
5556
1098
071a
cafe
2804
5556
1098
07b5
cafe
2c14
5556
109c
06f6
cafe
300d
5556
109c
0763
cafe
341d
5556
109c
0752
cafe
3805
5556
109c
072d
cafe
3c15
5556
10a0
0742
cafe
200e
5556
10a0
07b8
cafe
241e
5556
10a0
0753
cafe
2806
5556
10a0
06da
cafe
2c16
5556
10a4
073e
cafe
300f
5556
10a4
07c6
cafe
341f
5556
10a4
06c9
cafe
3807
5556
10a4
072c
cafe
3c17
5556
10a8
07fa
cafe
2008
5556
10a8
06ef
cafe
2418
5556
10a8
0802
cafe
2800
5556
10a8
0706
cafe
2c10
5556
10ac
0716
cafe
3009
5556
10ac
076c
cafe
3419
5556
10ac
0785
cafe
3801
5556
10ac
0809
cafe
3c11
5556
10b0
077b
cafe
200a
5556
10b0
07ba
cafe
241a
5556
10b0
06bb
cafe
2802
5556
10b0
079a
cafe
2c12
5556
10b4
0743
cafe
300b
5556
10b4
0763
cafe
341b
5556
10b4
06e7
cafe
3803
5556
10b4
06c1
cafe
3c13
5556
10b8
0772
cafe
200c
5556
10b8
0780
cafe
241c
5556
10b8
0705
cafe
2804
5556
10b8
07a1
cafe
2c14
5556
10bc
06e2
cafe
300d
5556
10bc
074f
cafe
341d
5556
10bc
0743
cafe
3805
5556
10bc
0715
cafe
3c15
5556
10c0
072e
cafe
200e
5556
10c0
07a4
cafe
241e
5556
10c0
073c
cafe
2806
5556
10c0
06c9
cafe
2c16
5556
10c4
0728
cafe
300f
5556
10c4
07b4
-
cafe
341f
5556
10c4
06ae
cafe
3807
5556
10c4
0713
cafe
3c17
5556
10c8
07ec
cafe
2008
5556
10c8
06dc
cafe
2418
5556
10c8
07f0
cafe
2800
5556
10c8
06ee
cafe
2c10
5556
10cc
0709
cafe
3009
5556
10cc
0757
cafe
3419
5556
10cc
0775
cafe
3801
5556
10cc
07f7
cafe
3c11
5556
10d0
0766
cafe
200a
5556
10d0
07a8
cafe
241a
5556
10d0
06a4
cafe
2802
5556
10d0
0781
cafe
2c12
5556
10d4
0728
cafe
300b
5556
10d4
074e
cafe
341b
5556
10d4
06d3
cafe
3803
5556
10d4
06b0
cafe
3c13
5556
10d8
0755
cafe
200c
5556
10d8
076a
cafe
241c
5556
10d8
06e7
cafe
2804
5556
10d8
0789
cafe
2c14
5556
10dc
06c7
cafe
300d
5556
10dc
0737
cafe
341d
5556
10dc
0732
cafe
3805
5556
10dc
0702
cafe
3c15
5556
10e0
0717
cafe
200e
5556
10e0
0793
cafe
241e
5556
10e0
0723
cafe
2806
5556
10e0
06b4
cafe
2c16
5556
10e4
070b
cafe
300f
5556
10e4
079c
cafe
341f
5556
10e4
069b
cafe
3807
5556
10e4
06ff
cafe
3c17
5556
10e8
07d5
cafe
2008
5556
10e8
06c9
cafe
2418
5556
10e8
07e1
cafe
2800
5556
10e8
06d1
cafe
2c10
5556
10ec
06f1
cafe
3009
5556
10ec
073f
cafe
3419
5556
10ec
0765
cafe
3801
5556
10ec
07e5
cafe
3c11
5556
10f0
0759
cafe
200a
5556
10f0
079c
cafe
241a
5556
10f0
0693
cafe
2802
5556
10f0
076a
cafe
2c12
5556
10f4
0718
cafe
300b
5556
10f4
073e
cafe
341b
5556
10f4
06b6
cafe
3803
5556
10f4
069c
cafe
3c13
5556
10f8
0740
cafe
-
200c
5556
10f8
0755
cafe
241c
5556
10f8
06d5
cafe
2804
5556
10f8
0770
cafe
2c14
5556
10fc
06b6
cafe
300d
5556
10fc
0728
cafe
341d
5556
10fc
071b
cafe
3805
5556
10fc
06f4
cafe
3c15
5556
1100
0701
cafe
200e
5556
1100
077b
cafe
241e
5556
1100
070f
cafe
2806
5556
1100
069f
cafe
2c16
5556
1104
06f8
cafe
300f
5556
1104
0785
cafe
341f
5556
1104
0683
cafe
3807
5556
1104
06eb
cafe
3c17
5556
1108
07c2
cafe
2008
5556
1108
06b1
cafe
2418
5556
1108
07d1
cafe
2800
5556
1108
06b6
cafe
2c10
5556
110c
06da
cafe
3009
5556
110c
0731
cafe
3419
5556
110c
0750
cafe
3801
5556
110c
07d2
cafe
3c11
5556
1110
0740
cafe
200a
5556
1110
0789
cafe
241a
5556
1110
067e
cafe
2802
5556
1110
0758
cafe
2c12
5556
1114
0707
cafe
300b
5556
1114
072b
cafe
341b
5556
1114
069d
cafe
3803
5556
1114
0684
cafe
3c13
5556
1118
0732
cafe
200c
5556
1118
0741
cafe
241c
5556
1118
06c2
cafe
2804
5556
1118
075f
cafe
2c14
5556
111c
06a7
cafe
300d
5556
111c
0713
cafe
341d
5556
111c
0707
cafe
3805
5556
111c
06e3
cafe
3c15
5556
1120
06ea
cafe
200e
5556
1120
0764
cafe
241e
5556
1120
06f9
cafe
2806
5556
1120
0683
cafe
2c16
5556
1124
06de
cafe
300f
5556
1124
0777
cafe
341f
5556
1124
066a
cafe
3807
5556
1124
06d9
cafe
3c17
5556
1128
07aa
cafe
2008
5556
1128
069b
cafe
2418
5556
1128
07b9
cafe
2800
5556
1128
06a1
cafe
2c10
-
5556
112c
06c1
cafe
3009
5556
112c
071c
cafe
3419
5556
112c
073f
cafe
3801
5556
112c
07be
cafe
3c11
5556
1130
0732
cafe
200a
5556
1130
0771
cafe
241a
5556
1130
066c
cafe
2802
5556
1130
0742
cafe
2c12
5556
1134
06f4
cafe
300b
5556
1134
0719
cafe
341b
5556
1134
0686
cafe
3803
5556
1134
066e
cafe
3c13
5556
1138
0714
cafe
200c
5556
1138
072f
cafe
241c
5556
1138
06af
cafe
2804
5556
1138
0748
cafe
2c14
5556
113c
0692
cafe
300d
5556
113c
06fd
cafe
341d
5556
113c
06ee
cafe
3805
5556
113c
06d0
cafe
3c15
5556
1140
06df
cafe
200e
5556
1140
0750
cafe
241e
5556
1140
06e1
cafe
2806
5556
1140
066f
cafe
2c16
5556
1144
06cc
cafe
300f
5556
1144
0764
cafe
341f
5556
1144
065a
cafe
3807
5556
1144
06c6
cafe
3c17
5556
1148
0793
cafe
2008
5556
1148
0684
cafe
2418
5556
1148
07a1
cafe
2800
5556
1148
0687
cafe
2c10
5556
114c
06a5
cafe
3009
5556
114c
0705
cafe
3419
5556
114c
072c
cafe
3801
5556
114c
07ae
cafe
3c11
5556
1150
071d
cafe
200a
5556
1150
075d
cafe
241a
5556
1150
0654
cafe
2802
5556
1150
072e
cafe
2c12
5556
1154
06de
cafe
300b
5556
1154
06fe
cafe
341b
5556
1154
0672
cafe
3803
5556
1154
065b
cafe
3c13
5556
1158
0701
cafe
200c
5556
1158
071e
cafe
241c
5556
1158
0696
cafe
2804
5556
1158
0732
cafe
2c14
5556
115c
067a
cafe
300d
5556
115c
06e6
cafe
341d
5556
115c
06db
cafe
3805
5556
-
115c
06bd
cafe
3c15
5556
1160
06c9
cafe
200e
5556
1160
073b
cafe
241e
5556
1160
06d1
cafe
2806
5556
1160
065b
cafe
2c16
5556
1164
06b4
cafe
300f
5556
1164
074c
cafe
341f
5556
1164
0640
cafe
3807
5556
1164
06ad
cafe
3c17
5556
1168
0782
cafe
2008
5556
1168
066f
cafe
2418
5556
1168
078f
cafe
2800
5556
1168
066a
cafe
2c10
5556
116c
068d
cafe
3009
5556
116c
06ef
cafe
3419
5556
116c
0715
cafe
3801
5556
116c
079d
cafe
3c11
5556
1170
0708
cafe
200a
5556
1170
0745
cafe
241a
5556
1170
0641
cafe
2802
5556
1170
0715
cafe
2c12
5556
1174
06cb
cafe
300b
5556
1174
06eb
cafe
341b
5556
1174
065c
cafe
3803
5556
1174
0648
cafe
3c13
5556
1178
06e4
cafe
200c
5556
1178
0705
cafe
241c
5556
1178
067e
cafe
2804
5556
1178
0718
cafe
2c14
5556
117c
0663
cafe
300d
5556
117c
06cd
cafe
341d
5556
117c
06c5
cafe
3805
5556
117c
06a4
cafe
3c15
5556
1180
06b4
cafe
200e
5556
1180
072b
cafe
241e
5556
1180
06b8
cafe
2806
5556
1180
0647
cafe
2c16
5556
1184
069b
cafe
300f
5556
1184
073e
cafe
341f
5556
1184
062f
cafe
3807
5556
1184
069c
cafe
3c17
5556
1188
0777
cafe
2008
5556
1188
065e
cafe
2418
5556
1188
0780
cafe
2800
5556
1188
0655
cafe
2c10
5556
118c
067b
cafe
3009
5556
118c
06e1
cafe
3419
5556
118c
0701
cafe
3801
5556
118c
078f
cafe
3c11
5556
1190
06f5
cafe
200a
5556
1190
0739
cafe
241a
5556
1190
-
0628
cafe
2802
5556
1190
0704
cafe
2c12
5556
1194
06c0
cafe
300b
5556
1194
06d7
cafe
341b
5556
1194
0649
cafe
3803
5556
1194
0635
cafe
3c13
5556
1198
06d2
cafe
200c
5556
1198
06f4
cafe
241c
5556
1198
0663
cafe
2804
5556
1198
0703
cafe
2c14
5556
119c
0650
cafe
300d
5556
119c
06b6
cafe
341d
5556
119c
06b0
cafe
3805
5556
119c
0694
cafe
3c15
5556
11a0
06a0
cafe
200e
5556
11a0
071b
cafe
241e
5556
11a0
06a6
cafe
2806
5556
11a0
0630
cafe
2c16
5556
11a4
0686
cafe
300f
5556
11a4
071d
cafe
341f
5556
11a4
0615
cafe
3807
5556
11a4
0680
cafe
3c17
5556
11a8
0761
cafe
2008
5556
11a8
0647
cafe
2418
5556
11a8
076e
cafe
2800
5556
11a8
0642
cafe
2c10
5556
11ac
0667
cafe
3009
5556
11ac
06ce
cafe
3419
5556
11ac
06ed
cafe
3801
5556
11ac
077b
cafe
3c11
5556
11b0
06e5
cafe
200a
5556
11b0
072a
cafe
241a
5556
11b0
060f
cafe
2802
5556
11b0
06ee
cafe
2c12
5556
11b4
06ab
cafe
300b
5556
11b4
06c5
cafe
341b
5556
11b4
0632
cafe
3803
5556
11b4
0623
cafe
3c13
5556
11b8
06c2
cafe
200c
5556
11b8
06e5
cafe
241c
5556
11b8
064e
cafe
2804
5556
11b8
06ef
cafe
2c14
5556
11bc
0640
cafe
300d
5556
11bc
06a8
cafe
341d
5556
11bc
06a1
cafe
3805
5556
11bc
067b
cafe
3c15
5556
11c0
068d
cafe
200e
5556
11c0
0707
cafe
241e
5556
11c0
0696
cafe
2806
5556
11c0
061f
cafe
2c16
5556
11c4
0672
cafe
300f
5556
11c4
070e
-
cafe
341f
5556
11c4
0604
cafe
3807
5556
11c4
0670
cafe
3c17
5556
11c8
074b
cafe
2008
5556
11c8
062e
cafe
2418
5556
11c8
075b
cafe
2800
5556
11c8
062d
cafe
2c10
5556
11cc
0651
cafe
3009
5556
11cc
06b7
cafe
3419
5556
11cc
06db
cafe
3801
5556
11cc
0765
cafe
3c11
5556
11d0
06cb
cafe
200a
5556
11d0
0719
cafe
241a
5556
11d0
05f2
cafe
2802
5556
11d0
06de
cafe
2c12
5556
11d4
0696
cafe
300b
5556
11d4
06b5
cafe
341b
5556
11d4
061f
cafe
3803
5556
11d4
060d
cafe
3c13
5556
11d8
06ad
cafe
200c
5556
11d8
06d2
cafe
241c
5556
11d8
063d
cafe
2804
5556
11d8
06e0
cafe
2c14
5556
11dc
062e
cafe
300d
5556
11dc
0697
cafe
341d
5556
11dc
0690
cafe
3805
5556
11dc
0668
cafe
3c15
5556
11e0
0673
cafe
200e
5556
11e0
06f7
cafe
241e
5556
11e0
0682
cafe
2806
5556
11e0
0608
cafe
2c16
5556
11e4
0659
cafe
300f
5556
11e4
06f7
cafe
341f
5556
11e4
05ec
cafe
3807
5556
11e4
065d
cafe
3c17
5556
11e8
073b
cafe
2008
5556
11e8
0618
cafe
2418
5556
11e8
074b
cafe
2800
5556
11e8
061f
cafe
2c10
5556
11ec
0640
cafe
3009
5556
11ec
06a8
cafe
3419
5556
11ec
06c9
cafe
3801
5556
11ec
0757
cafe
3c11
5556
11f0
06be
cafe
200a
5556
11f0
0700
cafe
241a
5556
11f0
05de
cafe
2802
5556
11f0
06c5
cafe
2c12
5556
11f4
0685
cafe
300b
5556
11f4
06a5
cafe
341b
5556
11f4
060a
cafe
3803
5556
11f4
05fc
cafe
3c13
5556
11f8
0696
cafe
-
200c
5556
11f8
06bf
cafe
241c
5556
11f8
0625
cafe
2804
5556
11f8
06d1
cafe
2c14
5556
11fc
061b
cafe
300d
5556
11fc
0681
cafe
341d
5556
11fc
067d
cafe
3805
5556
11fc
0656
cafe
3c15
5556
1200
065e
cafe
200e
5556
1200
06e7
cafe
241e
5556
1200
0672
cafe
2806
5556
1200
05fb
cafe
2c16
5556
1204
0649
cafe
300f
5556
1204
06e7
cafe
341f
5556
1204
05d2
cafe
3807
5556
1204
0642
cafe
3c17
5556
1208
072c
cafe
2008
5556
1208
05fd
cafe
2418
5556
1208
0733
cafe
2800
5556
1208
0609
cafe
2c10
5556
120c
0627
cafe
3009
5556
120c
0694
cafe
3419
5556
120c
06b8
cafe
3801
5556
120c
073e
cafe
3c11
5556
1210
06a8
cafe
200a
5556
1210
06ef
cafe
241a
5556
1210
05ce
cafe
2802
5556
1210
06b7
cafe
2c12
5556
1214
066f
cafe
300b
5556
1214
0695
cafe
341b
5556
1214
05fb
cafe
3803
5556
1214
05e2
cafe
3c13
5556
1218
0685
cafe
200c
5556
1218
06ab
cafe
241c
5556
1218
061b
cafe
2804
5556
1218
06c0
cafe
2c14
5556
121c
0605
cafe
300d
5556
121c
066d
cafe
341d
5556
121c
0668
cafe
3805
5556
121c
063f
cafe
3c15
5556
1220
0648
cafe
200e
5556
1220
06cd
cafe
241e
5556
1220
0659
cafe
2806
5556
1220
05e5
cafe
2c16
5556
1224
062e
cafe
300f
5556
1224
06d8
cafe
341f
5556
1224
05b8
cafe
3807
5556
1224
0630
cafe
3c17
5556
1228
0719
cafe
2008
5556
1228
05ec
cafe
2418
5556
1228
0729
cafe
2800
5556
1228
05f4
cafe
2c10
-
5556
122c
0611
cafe
3009
5556
122c
0680
cafe
3419
5556
122c
06a6
cafe
3801
5556
122c
0730
cafe
3c11
5556
1230
069c
cafe
200a
5556
1230
06e0
cafe
241a
5556
1230
05c2
cafe
2802
5556
1230
06a4
cafe
2c12
5556
1234
065c
cafe
300b
5556
1234
0681
cafe
341b
5556
1234
05de
cafe
3803
5556
1234
05cf
cafe
3c13
5556
1238
0676
cafe
200c
5556
1238
069c
cafe
241c
5556
1238
0605
cafe
2804
5556
1238
06ad
cafe
2c14
5556
123c
05f3
cafe
300d
5556
123c
0652
cafe
341d
5556
123c
0650
cafe
3805
5556
123c
0629
cafe
3c15
5556
1240
0634
cafe
200e
5556
1240
06ba
cafe
241e
5556
1240
064f
cafe
2806
5556
1240
05cf
cafe
2c16
5556
1244
061d
cafe
300f
5556
1244
06bd
cafe
341f
5556
1244
05a0
cafe
3807
5556
1244
0617
cafe
3c17
5556
1248
06fe
cafe
2008
5556
1248
05de
cafe
2418
5556
1248
0717
cafe
2800
5556
1248
05db
cafe
2c10
5556
124c
05fb
cafe
3009
5556
124c
0668
cafe
3419
5556
124c
0691
cafe
3801
5556
124c
071c
cafe
3c11
5556
1250
0688
cafe
200a
5556
1250
06d0
cafe
241a
5556
1250
05ac
cafe
2802
5556
1250
0692
cafe
2c12
5556
1254
064b
cafe
300b
5556
1254
066d
cafe
341b
5556
1254
05cd
cafe
3803
5556
1254
05b9
cafe
3c13
5556
1258
0666
cafe
200c
5556
1258
068a
cafe
241c
5556
1258
05f2
cafe
2804
5556
1258
069a
cafe
2c14
5556
125c
05e1
cafe
300d
5556
125c
0639
cafe
341d
5556
125c
063a
cafe
3805
5556
-
125c
0616
cafe
3c15
5556
1260
061a
cafe
200e
5556
1260
06a0
cafe
241e
5556
1260
063a
cafe
2806
5556
1260
05bc
cafe
2c16
5556
1264
0606
cafe
300f
5556
1264
06ad
cafe
341f
5556
1264
058b
cafe
3807
5556
1264
05fd
cafe
3c17
5556
1268
06e9
cafe
2008
5556
1268
05c8
cafe
2418
5556
1268
0706
cafe
2800
5556
1268
05cd
cafe
2c10
5556
126c
05e4
cafe
3009
5556
126c
0658
cafe
3419
5556
126c
067a
cafe
3801
5556
126c
0707
cafe
3c11
5556
1270
0674
cafe
200a
5556
1270
06bc
cafe
241a
5556
1270
059b
cafe
2802
5556
1270
0676
cafe
2c12
5556
1274
063a
cafe
300b
5556
1274
0660
cafe
341b
5556
1274
05ba
cafe
3803
5556
1274
05a2
cafe
3c13
5556
1278
0654
cafe
200c
5556
1278
067b
cafe
241c
5556
1278
05e0
cafe
2804
5556
1278
0687
cafe
2c14
5556
127c
05d0
cafe
300d
5556
127c
062f
cafe
341d
5556
127c
0625
cafe
3805
5556
127c
060c
cafe
3c15
5556
1280
060a
cafe
200e
5556
1280
0692
cafe
241e
5556
1280
0627
cafe
2806
5556
1280
05a8
cafe
2c16
5556
1284
05f6
cafe
300f
5556
1284
06a0
cafe
341f
5556
1284
057a
cafe
3807
5556
1284
05f0
cafe
3c17
5556
1288
06d5
cafe
2008
5556
1288
05b9
cafe
2418
5556
1288
06fb
cafe
2800
5556
1288
05be
cafe
2c10
5556
128c
05d6
cafe
3009
5556
128c
0644
cafe
3419
5556
128c
0660
cafe
3801
5556
128c
06f0
cafe
3c11
5556
1290
0660
cafe
200a
5556
1290
06a8
cafe
241a
5556
1290
-
0588
cafe
2802
5556
1290
065b
cafe
2c12
5556
1294
062b
cafe
300b
5556
1294
064b
cafe
341b
5556
1294
05a7
cafe
3803
5556
1294
058e
cafe
3c13
5556
1298
0640
cafe
200c
5556
1298
0667
cafe
241c
5556
1298
05ca
cafe
2804
5556
1298
067a
cafe
2c14
5556
129c
05bb
cafe
300d
5556
129c
061d
cafe
341d
5556
129c
060e
cafe
3805
5556
129c
05f9
cafe
3c15
5556
12a0
05f6
cafe
200e
5556
12a0
067a
cafe
241e
5556
12a0
0613
cafe
2806
5556
12a0
0592
cafe
2c16
5556
12a4
05e6
cafe
300f
5556
12a4
0686
cafe
341f
5556
12a4
056c
cafe
3807
5556
12a4
05db
cafe
3c17
5556
12a8
06c2
cafe
2008
5556
12a8
059d
cafe
2418
5556
12a8
06e4
cafe
2800
5556
12a8
05aa
cafe
2c10
5556
12ac
05bf
cafe
3009
5556
12ac
0637
cafe
3419
5556
12ac
064b
cafe
3801
5556
12ac
06d9
cafe
3c11
5556
12b0
064d
cafe
200a
5556
12b0
0692
cafe
241a
5556
12b0
0572
cafe
2802
5556
12b0
0648
cafe
2c12
5556
12b4
061a
cafe
300b
5556
12b4
0639
cafe
341b
5556
12b4
0594
cafe
3803
5556
12b4
057d
cafe
3c13
5556
12b8
062a
cafe
200c
5556
12b8
065a
cafe
241c
5556
12b8
05b6
cafe
2804
5556
12b8
0669
cafe
2c14
5556
12bc
05a6
cafe
300d
5556
12bc
060a
cafe
341d
5556
12bc
05fb
cafe
3805
5556
12bc
05e1
cafe
3c15
5556
12c0
05e2
cafe
200e
5556
12c0
0666
cafe
241e
5556
12c0
05fa
cafe
2806
5556
12c0
0581
cafe
2c16
5556
12c4
05d7
cafe
300f
5556
12c4
0677
-
cafe
341f
5556
12c4
0557
cafe
3807
5556
12c4
05c9
cafe
3c17
5556
12c8
06b7
cafe
2008
5556
12c8
058d
cafe
2418
5556
12c8
06d6
cafe
2800
5556
12c8
0597
cafe
2c10
5556
12cc
05b0
cafe
3009
5556
12cc
0624
cafe
3419
5556
12cc
063c
cafe
3801
5556
12cc
06c8
cafe
3c11
5556
12d0
063e
cafe
200a
5556
12d0
0681
cafe
241a
5556
12d0
055a
cafe
2802
5556
12d0
063b
cafe
2c12
5556
12d4
0609
cafe
300b
5556
12d4
0629
cafe
341b
5556
12d4
0583
cafe
3803
5556
12d4
056a
cafe
3c13
5556
12d8
061c
cafe
200c
5556
12d8
064d
cafe
241c
5556
12d8
05a9
cafe
2804
5556
12d8
0657
cafe
2c14
5556
12dc
0595
cafe
300d
5556
12dc
05fd
cafe
341d
5556
12dc
05ea
cafe
3805
5556
12dc
05d3
cafe
3c15
5556
12e0
05ca
cafe
200e
5556
12e0
0651
cafe
241e
5556
12e0
05e8
cafe
2806
5556
12e0
0571
cafe
2c16
5556
12e4
05c6
cafe
300f
5556
12e4
0662
cafe
341f
5556
12e4
0540
cafe
3807
5556
12e4
05b9
cafe
3c17
5556
12e8
069f
cafe
2008
5556
12e8
0579
cafe
2418
5556
12e8
06c6
cafe
2800
5556
12e8
057f
cafe
2c10
5556
12ec
0598
cafe
3009
5556
12ec
0610
cafe
3419
5556
12ec
0628
cafe
3801
5556
12ec
06bb
cafe
3c11
5556
12f0
0635
cafe
200a
5556
12f0
0674
cafe
241a
5556
12f0
054a
cafe
2802
5556
12f0
0627
cafe
2c12
5556
12f4
05f7
cafe
300b
5556
12f4
0611
cafe
341b
5556
12f4
056b
cafe
3803
5556
12f4
055a
cafe
3c13
5556
12f8
0603
cafe
-
