380e
5556
13e0
018b
cafe
3c1e
5556
13e0
01e7
cafe
2006
5556
13e0
0155
cafe
2416
5556
13e4
01d6
cafe
280f
5556
13e4
018a
cafe
2c1f
5556
13e4
01f0
cafe
3007
5556
13e4
016f
cafe
3417
5556
13e8
017f
cafe
3808
5556
13e8
022a
cafe
3c18
5556
13e8
018a
cafe
2000
5556
13e8
0186
cafe
2410
5556
13ec
0189
cafe
2809
5556
13ec
0112
cafe
2c19
5556
13ec
01f7
cafe
3001
5556
13ec
01ad
cafe
3411
5556
13f0
0196
cafe
380a
5556
13f0
01bd
cafe
3c1a
5556
13f0
00fb
cafe
2002
5556
13f0
015a
cafe
2412
5556
13f4
01ca
cafe
280b
5556
13f4
019f
cafe
2c1b
5556
13f4
0146
cafe
3003
5556
13f4
018b
cafe
3413
5556
13f8
018e
cafe
380c
5556
13f8
0165
cafe
3c1c
5556
13f8
00f3
cafe
2004
5556
13f8
01a0
cafe
2414
5556
13fc
020f
cafe
280d
5556
13fc
0155
cafe
2c1d
5556
13fc
025c
cafe
3005
5556
13fc
0167
cafe
3415
5556
1400
0091
cafe
380e
5556
1400
0189
cafe
3c1e
5556
1400
01e8
cafe
2006
5556
1400
014d
cafe
2416
5556
1404
01ce
cafe
280f
5556
1404
0187
cafe
2c1f
5556
1404
01f1
cafe
3007
5556
1404
016a
cafe
3417
5556
1408
0180
cafe
3808
5556
1408
0223
cafe
3c18
5556
1408
018c
cafe
2000
5556
1408
0184
cafe
2410
5556
140c
018a
cafe
2809
5556
140c
0116
cafe
2c19
5556
140c
01f8
cafe
3001
5556
140c
01a9
cafe
3411
5556
1410
0199
cafe
380a
5556
1410
01c1
cafe
3c1a
5556
1410
00fe
cafe
2002
5556
1410
015b
cafe
2412
-
5556
1414
01bc
cafe
280b
5556
1414
019d
cafe
2c1b
5556
1414
0143
cafe
3003
5556
1414
018f
cafe
3413
5556
1418
0189
cafe
380c
5556
1418
0164
cafe
3c1c
5556
1418
00f4
cafe
2004
5556
1418
01a0
cafe
2414
5556
141c
020c
cafe
280d
5556
141c
0152
cafe
2c1d
5556
141c
0256
cafe
3005
5556
141c
0163
cafe
3415
5556
1420
0091
cafe
380e
5556
1420
0187
cafe
3c1e
5556
1420
01e8
cafe
2006
5556
1420
0153
cafe
2416
5556
1424
01cf
cafe
280f
5556
1424
018f
cafe
2c1f
5556
1424
01f6
cafe
3007
5556
1424
016a
cafe
3417
5556
1428
0184
cafe
3808
5556
1428
021f
cafe
3c18
5556
1428
0183
cafe
2000
5556
1428
0185
cafe
2410
5556
142c
018d
cafe
2809
5556
142c
0113
cafe
2c19
5556
142c
0203
cafe
3001
5556
142c
01a4
cafe
3411
5556
1430
019b
cafe
380a
5556
1430
01c1
cafe
3c1a
5556
1430
0113
cafe
2002
5556
1430
0159
cafe
2412
5556
1434
01c0
cafe
280b
5556
1434
01a5
cafe
2c1b
5556
1434
0141
cafe
3003
5556
1434
0190
cafe
3413
5556
1438
018b
cafe
380c
5556
1438
0162
cafe
3c1c
5556
1438
00f6
cafe
2004
5556
1438
01a3
cafe
2414
5556
143c
0207
cafe
280d
5556
143c
0149
cafe
2c1d
5556
143c
0254
cafe
3005
5556
143c
0163
cafe
3415
5556
1440
0096
cafe
380e
5556
1440
018b
cafe
3c1e
5556
1440
01e9
cafe
2006
5556
1440
0157
cafe
2416
5556
1444
01c8
cafe
280f
5556
1444
0196
cafe
2c1f
5556
1444
01ea
cafe
3007
5556
-
1444
015b
cafe
3417
5556
1448
0182
cafe
3808
5556
1448
021c
cafe
3c18
5556
1448
0189
cafe
2000
5556
1448
0186
cafe
2410
5556
144c
0197
cafe
2809
5556
144c
0115
cafe
2c19
5556
144c
01fa
cafe
3001
5556
144c
01a0
cafe
3411
5556
1450
0190
cafe
380a
5556
1450
01c2
cafe
3c1a
5556
1450
0109
cafe
2002
5556
1450
0161
cafe
2412
5556
1454
01bd
cafe
280b
5556
1454
01a0
cafe
2c1b
5556
1454
0141
cafe
3003
5556
1454
018d
cafe
3413
5556
1458
0191
cafe
380c
5556
1458
015d
cafe
3c1c
5556
1458
00ed
cafe
2004
5556
1458
01aa
cafe
2414
5556
145c
0209
cafe
280d
5556
145c
0151
cafe
2c1d
5556
145c
0268
cafe
3005
5556
145c
016d
cafe
3415
5556
1460
009e
cafe
380e
5556
1460
0186
cafe
3c1e
5556
1460
01e7
cafe
2006
5556
1460
0145
cafe
2416
5556
1464
01c6
cafe
280f
5556
1464
0197
cafe
2c1f
5556
1464
01f2
cafe
3007
5556
1464
015d
cafe
3417
5556
1468
0185
cafe
3808
5556
1468
022a
cafe
3c18
5556
1468
018b
cafe
2000
5556
1468
018b
cafe
2410
5556
146c
0194
cafe
2809
5556
146c
0113
cafe
2c19
5556
146c
01ff
cafe
3001
5556
146c
01a9
cafe
3411
5556
1470
018f
cafe
380a
5556
1470
01bc
cafe
3c1a
5556
1470
00ff
cafe
2002
5556
1470
015e
cafe
2412
5556
1474
01be
cafe
280b
5556
1474
01a3
cafe
2c1b
5556
1474
013b
cafe
3003
5556
1474
018e
cafe
3413
5556
1478
0184
cafe
380c
5556
1478
0162
cafe
3c1c
5556
1478
-
00eb
cafe
2004
5556
1478
01ad
cafe
2414
5556
147c
0217
cafe
280d
5556
147c
0159
cafe
2c1d
5556
147c
0264
cafe
3005
5556
147c
016e
cafe
3415
5556
1480
0099
cafe
380e
5556
1480
0186
cafe
3c1e
5556
1480
01ec
cafe
2006
5556
1480
0144
cafe
2416
5556
1484
01c8
cafe
280f
5556
1484
018f
cafe
2c1f
5556
1484
01ea
cafe
3007
5556
1484
015a
cafe
3417
5556
1488
0185
cafe
3808
5556
1488
0227
cafe
3c18
5556
1488
018c
cafe
2000
5556
1488
018e
cafe
2410
5556
148c
0196
cafe
2809
5556
148c
010f
cafe
2c19
5556
148c
01fd
cafe
3001
5556
148c
01ab
cafe
3411
5556
1490
0194
cafe
380a
5556
1490
01c2
cafe
3c1a
5556
1490
00ff
cafe
2002
5556
1490
0156
cafe
2412
5556
1494
01c8
cafe
280b
5556
1494
01a5
cafe
2c1b
5556
1494
0148
cafe
3003
5556
1494
0190
cafe
3413
5556
1498
017f
cafe
380c
5556
1498
0157
cafe
3c1c
5556
1498
00ee
cafe
2004
5556
1498
01ad
cafe
2414
5556
149c
0218
cafe
280d
5556
149c
0157
cafe
2c1d
5556
149c
0267
cafe
3005
5556
149c
0167
cafe
3415
5556
14a0
008d
cafe
380e
5556
14a0
018b
cafe
3c1e
5556
14a0
01ee
cafe
2006
5556
14a0
014c
cafe
2416
5556
14a4
01cf
cafe
280f
5556
14a4
0198
cafe
2c1f
5556
14a4
01ec
cafe
3007
5556
14a4
0161
cafe
3417
5556
14a8
017c
cafe
3808
5556
14a8
021e
cafe
3c18
5556
14a8
0195
cafe
2000
5556
14a8
0189
cafe
2410
5556
14ac
019e
cafe
2809
5556
14ac
0112
-
cafe
2c19
5556
14ac
01f9
cafe
3001
5556
14ac
01a7
cafe
3411
5556
14b0
018b
cafe
380a
5556
14b0
01c6
cafe
3c1a
5556
14b0
00fe
cafe
2002
5556
14b0
014f
cafe
2412
5556
14b4
01c6
cafe
280b
5556
14b4
01a0
cafe
2c1b
5556
14b4
014e
cafe
3003
5556
14b4
018f
cafe
3413
5556
14b8
0189
cafe
380c
5556
14b8
0156
cafe
3c1c
5556
14b8
00e8
cafe
2004
5556
14b8
01ad
cafe
2414
5556
14bc
0212
cafe
280d
5556
14bc
014f
cafe
2c1d
5556
14bc
0264
cafe
3005
5556
14bc
016d
cafe
3415
5556
14c0
008c
cafe
380e
5556
14c0
0192
cafe
3c1e
5556
14c0
01e9
cafe
2006
5556
14c0
014e
cafe
2416
5556
14c4
01cf
cafe
280f
5556
14c4
0196
cafe
2c1f
5556
14c4
01f3
cafe
3007
5556
14c4
0156
cafe
3417
5556
14c8
0179
cafe
3808
5556
14c8
021f
cafe
3c18
5556
14c8
0198
cafe
2000
5556
14c8
0189
cafe
2410
5556
14cc
019e
cafe
2809
5556
14cc
011b
cafe
2c19
5556
14cc
01f9
cafe
3001
5556
14cc
019c
cafe
3411
5556
14d0
018d
cafe
380a
5556
14d0
01c4
cafe
3c1a
5556
14d0
0104
cafe
2002
5556
14d0
014c
cafe
2412
5556
14d4
01c7
cafe
280b
5556
14d4
019f
cafe
2c1b
5556
14d4
0144
cafe
3003
5556
14d4
0197
cafe
3413
5556
14d8
0184
cafe
380c
5556
14d8
0159
cafe
3c1c
5556
14d8
00ed
cafe
2004
5556
14d8
01a8
cafe
2414
5556
14dc
020c
cafe
280d
5556
14dc
0152
cafe
2c1d
5556
14dc
0266
cafe
3005
5556
14dc
016b
cafe
3415
5556
14e0
0098
cafe
-
380e
5556
14e0
0195
cafe
3c1e
5556
14e0
01ea
cafe
2006
5556
14e0
014f
cafe
2416
5556
14e4
01d2
cafe
280f
5556
14e4
0191
cafe
2c1f
5556
14e4
01e9
cafe
3007
5556
14e4
0156
cafe
3417
5556
14e8
017c
cafe
3808
5556
14e8
0223
cafe
3c18
5556
14e8
018d
cafe
2000
5556
14e8
018b
cafe
2410
5556
14ec
01a2
cafe
2809
5556
14ec
0125
cafe
2c19
5556
14ec
0202
cafe
3001
5556
14ec
01a5
cafe
3411
5556
14f0
018f
cafe
380a
5556
14f0
01c9
cafe
3c1a
5556
14f0
010a
cafe
2002
5556
14f0
0157
cafe
2412
5556
14f4
01bd
cafe
280b
5556
14f4
01a7
cafe
2c1b
5556
14f4
0149
cafe
3003
5556
14f4
019c
cafe
3413
5556
14f8
0186
cafe
380c
5556
14f8
0158
cafe
3c1c
5556
14f8
00f3
cafe
2004
5556
14f8
019e
cafe
2414
5556
14fc
020c
cafe
280d
5556
14fc
0151
cafe
2c1d
5556
14fc
0265
cafe
3005
5556
14fc
0169
cafe
3415
5556
1500
0096
cafe
380e
5556
1500
018c
cafe
3c1e
5556
1500
01e1
cafe
2006
5556
1500
014f
cafe
2416
5556
1504
01d6
cafe
280f
5556
1504
0196
cafe
2c1f
5556
1504
01ed
cafe
3007
5556
1504
015d
cafe
3417
5556
1508
017f
cafe
3808
5556
1508
021b
cafe
3c18
5556
1508
018a
cafe
2000
5556
1508
0189
cafe
2410
5556
150c
01a3
cafe
2809
5556
150c
012b
cafe
2c19
5556
150c
0204
cafe
3001
5556
150c
01ad
cafe
3411
5556
1510
018a
cafe
380a
5556
1510
01ca
cafe
3c1a
5556
1510
00fd
cafe
2002
5556
1510
0156
cafe
2412
-
5556
1514
01c0
cafe
280b
5556
1514
01a4
cafe
2c1b
5556
1514
0149
cafe
3003
5556
1514
0192
cafe
3413
5556
1518
0189
cafe
380c
5556
1518
015c
cafe
3c1c
5556
1518
00ee
cafe
2004
5556
1518
019f
cafe
2414
5556
151c
0212
cafe
280d
5556
151c
014d
cafe
2c1d
5556
151c
0269
cafe
3005
5556
151c
0163
cafe
3415
5556
1520
008f
cafe
380e
5556
1520
0190
cafe
3c1e
5556
1520
01de
cafe
2006
5556
1520
0150
cafe
2416
5556
1524
01d0
cafe
280f
5556
1524
019a
cafe
2c1f
5556
1524
01f3
cafe
3007
5556
1524
0157
cafe
3417
5556
1528
0181
cafe
3808
5556
1528
022a
cafe
3c18
5556
1528
018b
cafe
2000
5556
1528
018c
cafe
2410
5556
152c
0198
cafe
2809
5556
152c
011e
cafe
2c19
5556
152c
01fd
cafe
3001
5556
152c
01a4
cafe
3411
5556
1530
018b
cafe
380a
5556
1530
01d0
cafe
3c1a
5556
1530
010a
cafe
2002
5556
1530
0162
cafe
2412
5556
1534
01c4
cafe
280b
5556
1534
01a1
cafe
2c1b
5556
1534
013f
cafe
3003
5556
1534
0189
cafe
3413
5556
1538
018a
cafe
380c
5556
1538
015b
cafe
3c1c
5556
1538
00ee
cafe
2004
5556
1538
01a0
cafe
2414
5556
153c
0214
cafe
280d
5556
153c
013c
cafe
2c1d
5556
153c
0262
cafe
3005
5556
153c
0161
cafe
3415
5556
1540
0093
cafe
380e
5556
1540
018c
cafe
3c1e
5556
1540
01dd
cafe
2006
5556
1540
0154
cafe
2416
5556
1544
01d3
cafe
280f
5556
1544
0197
cafe
2c1f
5556
1544
01f6
cafe
3007
5556
-
1544
0157
cafe
3417
5556
1548
0181
cafe
3808
5556
1548
0220
cafe
3c18
5556
1548
0187
cafe
2000
5556
1548
0195
cafe
2410
5556
154c
0198
cafe
2809
5556
154c
0121
cafe
2c19
5556
154c
0203
cafe
3001
5556
154c
01a4
cafe
3411
5556
1550
0190
cafe
380a
5556
1550
01c7
cafe
3c1a
5556
1550
010a
cafe
2002
5556
1550
0159
cafe
2412
5556
1554
01bd
cafe
280b
5556
1554
01a8
cafe
2c1b
5556
1554
0141
cafe
3003
5556
1554
018b
cafe
3413
5556
1558
0191
cafe
380c
5556
1558
015b
cafe
3c1c
5556
1558
00f1
cafe
2004
5556
1558
01a1
cafe
2414
5556
155c
020e
cafe
280d
5556
155c
013d
cafe
2c1d
5556
155c
0263
cafe
3005
5556
155c
0163
cafe
3415
5556
1560
0091
cafe
380e
5556
1560
018f
cafe
3c1e
5556
1560
01d8
cafe
2006
5556
1560
0159
cafe
2416
5556
1564
01ce
cafe
280f
5556
1564
019d
cafe
2c1f
5556
1564
01fc
cafe
3007
5556
1564
015f
cafe
3417
5556
1568
017c
cafe
3808
5556
1568
0226
cafe
3c18
5556
1568
0187
cafe
2000
5556
1568
0189
cafe
2410
5556
156c
0195
cafe
2809
5556
156c
011a
cafe
2c19
5556
156c
01f7
cafe
3001
5556
156c
01b2
cafe
3411
5556
1570
0190
cafe
380a
5556
1570
01cf
cafe
3c1a
5556
1570
010c
cafe
2002
5556
1570
0160
cafe
2412
5556
1574
01be
cafe
280b
5556
1574
01a6
cafe
2c1b
5556
1574
0142
cafe
3003
5556
1574
0186
cafe
3413
5556
1578
018c
cafe
380c
5556
1578
015b
cafe
3c1c
5556
1578
-
00f0
cafe
2004
5556
1578
01aa
cafe
2414
5556
157c
021b
cafe
280d
5556
157c
013c
cafe
2c1d
5556
157c
0269
cafe
3005
5556
157c
015a
cafe
3415
5556
1580
0096
cafe
380e
5556
1580
0186
cafe
3c1e
5556
1580
01dc
cafe
2006
5556
1580
014b
cafe
2416
5556
1584
01c9
cafe
280f
5556
1584
01a0
cafe
2c1f
5556
1584
01f9
cafe
3007
5556
1584
016a
cafe
3417
5556
1588
0182
cafe
3808
5556
1588
0219
cafe
3c18
5556
1588
018b
cafe
2000
5556
1588
018f
cafe
2410
5556
158c
01a0
cafe
2809
5556
158c
0123
cafe
2c19
5556
158c
01f4
cafe
3001
5556
158c
01ac
cafe
3411
5556
1590
0191
cafe
380a
5556
1590
01ce
cafe
3c1a
5556
1590
010b
cafe
2002
5556
1590
0167
cafe
2412
5556
1594
01c1
cafe
280b
5556
1594
01a9
cafe
2c1b
5556
1594
013f
cafe
3003
5556
1594
017f
cafe
3413
5556
1598
018d
cafe
380c
5556
1598
0151
cafe
3c1c
5556
1598
00f9
cafe
2004
5556
1598
01af
cafe
2414
5556
159c
021b
cafe
280d
5556
159c
013d
cafe
2c1d
5556
159c
0263
cafe
3005
5556
159c
0156
cafe
3415
5556
15a0
0091
cafe
380e
5556
15a0
0189
cafe
3c1e
5556
15a0
01e3
cafe
2006
5556
15a0
0149
cafe
2416
5556
15a4
01d0
cafe
280f
5556
15a4
01a4
cafe
2c1f
5556
15a4
01ef
cafe
3007
5556
15a4
0173
cafe
3417
5556
15a8
0183
cafe
3808
5556
15a8
0221
cafe
3c18
5556
15a8
0195
cafe
2000
5556
15a8
0197
cafe
2410
5556
15ac
019e
cafe
2809
5556
15ac
0122
-
cafe
2c19
5556
15ac
01f0
cafe
3001
5556
15ac
01a9
cafe
3411
5556
15b0
0186
cafe
380a
5556
15b0
01c2
cafe
3c1a
5556
15b0
010f
cafe
2002
5556
15b0
0169
cafe
2412
5556
15b4
01bc
cafe
280b
5556
15b4
01ad
cafe
2c1b
5556
15b4
013a
cafe
3003
5556
15b4
017f
cafe
3413
5556
15b8
0192
cafe
380c
5556
15b8
015a
cafe
3c1c
5556
15b8
00ec
cafe
2004
5556
15b8
01aa
cafe
2414
5556
15bc
0211
cafe
280d
5556
15bc
013d
cafe
2c1d
5556
15bc
026b
cafe
3005
5556
15bc
0159
cafe
3415
5556
15c0
008f
cafe
380e
5556
15c0
018c
cafe
3c1e
5556
15c0
01d9
cafe
2006
5556
15c0
0143
cafe
2416
5556
15c4
01d1
cafe
280f
5556
15c4
01a0
cafe
2c1f
5556
15c4
01f7
cafe
3007
5556
15c4
0173
cafe
3417
5556
15c8
017f
cafe
3808
5556
15c8
021a
cafe
3c18
5556
15c8
0193
cafe
2000
5556
15c8
018f
cafe
2410
5556
15cc
019c
cafe
2809
5556
15cc
011a
cafe
2c19
5556
15cc
01fb
cafe
3001
5556
15cc
01a5
cafe
3411
5556
15d0
0191
cafe
380a
5556
15d0
01c0
cafe
3c1a
5556
15d0
0109
cafe
2002
5556
15d0
015d
cafe
2412
5556
15d4
01ba
cafe
280b
5556
15d4
01ab
cafe
2c1b
5556
15d4
0143
cafe
3003
5556
15d4
0187
cafe
3413
5556
15d8
0190
cafe
380c
5556
15d8
015e
cafe
3c1c
5556
15d8
00f0
cafe
2004
5556
15d8
01af
cafe
2414
5556
15dc
0217
cafe
280d
5556
15dc
0141
cafe
2c1d
5556
15dc
025b
cafe
3005
5556
15dc
015b
cafe
3415
5556
15e0
008f
cafe
-
380e
5556
15e0
0192
cafe
3c1e
5556
15e0
01df
cafe
2006
5556
15e0
0147
cafe
2416
5556
15e4
01cd
cafe
280f
5556
15e4
0198
cafe
2c1f
5556
15e4
01fc
cafe
3007
5556
15e4
016e
cafe
3417
5556
15e8
0180
cafe
3808
5556
15e8
0229
cafe
3c18
5556
15e8
018d
cafe
2000
5556
15e8
018f
cafe
2410
5556
15ec
0197
cafe
2809
5556
15ec
0111
cafe
2c19
5556
15ec
01ff
cafe
3001
5556
15ec
01a5
cafe
3411
5556
15f0
0189
cafe
380a
5556
15f0
01c5
cafe
3c1a
5556
15f0
0108
cafe
2002
5556
15f0
015b
cafe
2412
5556
15f4
01c1
cafe
280b
5556
15f4
01aa
cafe
2c1b
5556
15f4
013a
cafe
3003
5556
15f4
0186
cafe
3413
5556
15f8
0191
cafe
380c
5556
15f8
015e
cafe
3c1c
5556
15f8
00f0
cafe
2004
5556
15f8
01ae
cafe
2414
5556
15fc
021c
cafe
280d
5556
15fc
0146
cafe
2c1d
5556
15fc
0257
cafe
3005
5556
15fc
0158
cafe
3415
5556
1600
0084
cafe
380e
5556
1600
0198
cafe
3c1e
5556
1600
01e2
cafe
2006
5556
1600
013f
cafe
2416
5556
1604
01d1
cafe
280f
5556
1604
018e
cafe
2c1f
5556
1604
01f4
cafe
3007
5556
1604
0169
cafe
3417
5556
1608
017e
cafe
3808
5556
1608
022c
cafe
3c18
5556
1608
018e
cafe
2000
5556
1608
0187
cafe
2410
5556
160c
019f
cafe
2809
5556
160c
018b
cafe
2c19
5556
160c
0274
cafe
3001
5556
160c
021d
cafe
3411
5556
1610
01fb
cafe
380a
5556
1610
0362
cafe
3c1a
5556
1610
02ae
cafe
2002
5556
1610
02fb
cafe
2412
-
5556
1614
035d
cafe
280b
5556
1614
0458
cafe
2c1b
5556
1614
03e3
cafe
3003
5556
1614
0426
cafe
3413
5556
1618
042d
cafe
380c
5556
1618
04f0
cafe
3c1c
5556
1618
0478
cafe
2004
5556
1618
0532
cafe
2414
5556
161c
05ad
cafe
280d
5556
161c
0593
cafe
2c1d
5556
161c
069f
cafe
3005
5556
161c
05a9
cafe
3415
5556
1620
04d9
cafe
380e
5556
1620
0686
cafe
3c1e
5556
1620
06b6
cafe
2006
5556
1620
062b
cafe
2416
5556
1624
06be
cafe
280f
5556
1624
0708
cafe
2c1f
5556
1624
074a
cafe
3007
5556
1624
06c7
cafe
3417
5556
1628
06d9
cafe
3808
5556
1628
07fd
cafe
3c18
5556
1628
075b
cafe
2000
5556
1628
0756
cafe
2410
5556
162c
0775
cafe
2809
5556
162c
072a
cafe
2c19
5556
162c
080c
cafe
3001
5556
162c
07b6
cafe
3411
5556
1630
07ad
cafe
380a
5556
1630
0829
cafe
3c1a
5556
1630
0765
cafe
2002
5556
1630
07b2
cafe
2412
5556
1634
0836
cafe
280b
5556
1634
0854
cafe
2c1b
5556
1634
07c5
cafe
3003
5556
1634
07fc
cafe
3413
5556
1638
082a
cafe
380c
5556
1638
082f
cafe
3c1c
5556
1638
07b2
cafe
2004
5556
1638
0871
cafe
2414
5556
163c
08f2
cafe
280d
5556
163c
083e
cafe
2c1d
5556
163c
0944
cafe
3005
5556
163c
0834
cafe
3415
5556
1640
0777
cafe
380e
5556
1640
08a8
cafe
3c1e
5556
1640
08ed
cafe
2006
5556
1640
084b
cafe
2416
5556
1644
08ec
cafe
280f
5556
1644
08be
cafe
2c1f
5556
1644
090e
cafe
3007
5556
-
1644
0882
cafe
3417
5556
1648
0892
cafe
3808
5556
1648
096c
cafe
3c18
5556
1648
08c8
cafe
2000
5556
1648
08c7
cafe
2410
5556
164c
08e1
cafe
2809
5556
164c
0845
cafe
2c19
5556
164c
0930
cafe
3001
5556
164c
08cd
cafe
3411
5556
1650
08dd
cafe
380a
5556
1650
0911
cafe
3c1a
5556
1650
0842
cafe
2002
5556
1650
0894
cafe
2412
5556
1654
091d
cafe
280b
5556
1654
08ff
cafe
2c1b
5556
1654
087b
cafe
3003
5556
1654
08b7
cafe
3413
5556
1658
08df
cafe
380c
5556
1658
08b3
cafe
3c1c
5556
1658
0839
cafe
2004
5556
1658
08eb
cafe
2414
5556
165c
0987
cafe
280d
5556
165c
08a5
cafe
2c1d
5556
165c
09b2
cafe
3005
5556
165c
088d
cafe
3415
5556
1660
07c9
cafe
380e
5556
1660
08ed
cafe
3c1e
5556
1660
093c
cafe
2006
5556
1660
0894
cafe
2416
5556
1664
092e
cafe
280f
5556
1664
08e5
cafe
2c1f
5556
1664
093f
cafe
3007
5556
1664
08a4
cafe
3417
5556
1668
08bc
cafe
3808
5556
1668
0987
cafe
3c18
5556
1668
08da
cafe
2000
5556
1668
08df
cafe
2410
5556
166c
08f3
cafe
2809
5556
166c
084e
cafe
2c19
5556
166c
0945
cafe
3001
5556
166c
08c8
cafe
3411
5556
1670
08dd
cafe
380a
5556
1670
0909
cafe
3c1a
5556
1670
0835
cafe
2002
5556
1670
088d
cafe
2412
5556
1674
091e
cafe
280b
5556
1674
08e4
cafe
2c1b
5556
1674
086b
cafe
3003
5556
1674
08b1
cafe
3413
5556
1678
08ce
cafe
380c
5556
1678
0892
cafe
3c1c
5556
1678
-
0824
cafe
2004
5556
1678
08cc
cafe
2414
5556
167c
0973
cafe
280d
5556
167c
0880
cafe
2c1d
5556
167c
098f
cafe
3005
5556
167c
085a
cafe
3415
5556
1680
0795
cafe
380e
5556
1680
08bf
cafe
3c1e
5556
1680
0918
cafe
2006
5556
1680
086b
cafe
2416
5556
1684
0906
cafe
280f
5556
1684
08b6
cafe
2c1f
5556
1684
0919
cafe
3007
5556
1684
0879
cafe
3417
5556
1688
0894
cafe
3808
5556
1688
095b
cafe
3c18
5556
1688
08a9
cafe
2000
5556
1688
08a5
cafe
2410
5556
168c
08c0
cafe
2809
5556
168c
0821
cafe
2c19
5556
168c
0911
cafe
3001
5556
168c
0895
cafe
3411
5556
1690
08b2
cafe
380a
5556
1690
08cd
cafe
3c1a
5556
1690
07f7
cafe
2002
5556
1690
084f
cafe
2412
5556
1694
08e1
cafe
280b
5556
1694
08aa
cafe
2c1b
5556
1694
0836
cafe
3003
5556
1694
087a
cafe
3413
5556
1698
08a4
cafe
380c
5556
1698
0853
cafe
3c1c
5556
1698
07dd
cafe
2004
5556
1698
0888
cafe
2414
5556
169c
092e
cafe
280d
5556
169c
0838
cafe
2c1d
5556
169c
094f
cafe
3005
5556
169c
081b
cafe
3415
5556
16a0
074c
cafe
380e
5556
16a0
0879
cafe
3c1e
5556
16a0
08d6
cafe
2006
5556
16a0
0819
cafe
2416
5556
16a4
08c8
cafe
280f
5556
16a4
0864
cafe
2c1f
5556
16a4
08d5
cafe
3007
5556
16a4
083d
cafe
3417
5556
16a8
0849
cafe
3808
5556
16a8
0917
cafe
3c18
5556
16a8
0863
cafe
2000
5556
16a8
0858
cafe
2410
5556
16ac
0879
cafe
2809
5556
16ac
07d4
-
cafe
2c19
5556
16ac
08cb
cafe
3001
5556
16ac
0843
cafe
3411
5556
16b0
0866
cafe
380a
5556
16b0
088d
cafe
3c1a
5556
16b0
07a9
cafe
2002
5556
16b0
0809
cafe
2412
5556
16b4
0892
cafe
280b
5556
16b4
0863
cafe
2c1b
5556
16b4
07e5
cafe
3003
5556
16b4
0839
cafe
3413
5556
16b8
0863
cafe
380c
5556
16b8
080c
cafe
3c1c
5556
16b8
078d
cafe
2004
5556
16b8
0841
cafe
2414
5556
16bc
08e6
cafe
280d
5556
16bc
07e8
cafe
2c1d
5556
16bc
0907
cafe
3005
5556
16bc
07cf
cafe
3415
5556
16c0
0702
cafe
380e
5556
16c0
0834
cafe
3c1e
5556
16c0
0890
cafe
2006
5556
16c0
07cc
cafe
2416
5556
16c4
088b
cafe
280f
5556
16c4
0812
cafe
2c1f
5556
16c4
0895
cafe
3007
5556
16c4
07f4
cafe
3417
5556
16c8
07f5
cafe
3808
5556
16c8
08cf
cafe
3c18
5556
16c8
081b
cafe
2000
5556
16c8
081a
cafe
2410
5556
16cc
082d
cafe
2809
5556
16cc
0793
cafe
2c19
5556
16cc
088a
cafe
3001
5556
16cc
07f5
cafe
3411
5556
16d0
081d
cafe
380a
5556
16d0
0846
cafe
3c1a
5556
16d0
0762
cafe
2002
5556
16d0
07bc
cafe
2412
5556
16d4
084b
cafe
280b
5556
16d4
0816
cafe
2c1b
5556
16d4
079f
cafe
3003
5556
16d4
07e4
cafe
3413
5556
16d8
0816
cafe
380c
5556
16d8
07bb
cafe
3c1c
5556
16d8
074d
cafe
2004
5556
16d8
07f3
cafe
2414
5556
16dc
089c
cafe
280d
5556
16dc
07a6
cafe
2c1d
5556
16dc
08bf
cafe
3005
5556
16dc
0788
cafe
3415
5556
16e0
06b4
cafe
-
380e
5556
16e0
07e8
cafe
3c1e
5556
16e0
084e
cafe
2006
5556
16e0
0775
cafe
2416
5556
16e4
083e
cafe
280f
5556
16e4
07d0
cafe
2c1f
5556
16e4
084d
cafe
3007
5556
16e4
07ae
cafe
3417
5556
16e8
07a9
cafe
3808
5556
16e8
0895
cafe
3c18
5556
16e8
07d2
cafe
2000
5556
16e8
07d3
cafe
2410
5556
16ec
07db
cafe
2809
5556
16ec
0746
cafe
2c19
5556
16ec
0848
cafe
3001
5556
16ec
07a8
cafe
3411
5556
16f0
07d9
cafe
380a
5556
16f0
0801
cafe
3c1a
5556
16f0
0718
cafe
2002
5556
16f0
0778
cafe
2412
5556
16f4
0801
cafe
280b
5556
16f4
07cf
cafe
2c1b
5556
16f4
0751
cafe
3003
5556
16f4
079a
cafe
3413
5556
16f8
07d8
cafe
380c
5556
16f8
077a
cafe
3c1c
5556
16f8
06f8
cafe
2004
5556
16f8
07a5
cafe
2414
5556
16fc
0860
cafe
280d
5556
16fc
0763
cafe
2c1d
5556
16fc
0883
cafe
3005
5556
16fc
0738
cafe
3415
5556
1700
066a
cafe
380e
5556
1700
079b
cafe
3c1e
5556
1700
0806
cafe
2006
5556
1700
072f
cafe
2416
5556
1704
0801
cafe
280f
5556
1704
0786
cafe
2c1f
5556
1704
0807
cafe
3007
5556
1704
0761
cafe
3417
5556
1708
0765
cafe
3808
5556
1708
0854
cafe
3c18
5556
1708
0788
cafe
2000
5556
1708
078b
cafe
2410
5556
170c
0795
cafe
2809
5556
170c
0705
cafe
2c19
5556
170c
0805
cafe
3001
5556
170c
0764
cafe
3411
5556
1710
079a
cafe
380a
5556
1710
07b3
cafe
3c1a
5556
1710
06cc
cafe
2002
5556
1710
0732
cafe
2412
-
5556
1714
07b5
cafe
280b
5556
1714
078a
cafe
2c1b
5556
1714
0702
cafe
3003
5556
1714
075a
cafe
3413
5556
1718
078b
cafe
380c
5556
1718
072f
cafe
3c1c
5556
1718
06b5
cafe
2004
5556
1718
0771
cafe
2414
5556
171c
0805
cafe
280d
5556
171c
0719
cafe
2c1d
5556
171c
084a
cafe
3005
5556
171c
06e8
cafe
3415
5556
1720
0620
cafe
380e
5556
1720
0750
cafe
3c1e
5556
1720
07b9
cafe
2006
5556
1720
06ec
cafe
2416
5556
1724
07b9
cafe
280f
5556
1724
0742
cafe
2c1f
5556
1724
07c4
cafe
3007
5556
1724
0711
cafe
3417
5556
1728
0729
cafe
3808
5556
1728
0814
cafe
3c18
5556
1728
074a
cafe
2000
5556
1728
0749
cafe
2410
5556
172c
0750
cafe
2809
5556
172c
06be
cafe
2c19
5556
172c
07cc
cafe
3001
5556
172c
072b
cafe
3411
5556
1730
0759
cafe
380a
5556
1730
0776
cafe
3c1a
5556
1730
0687
cafe
2002
5556
1730
06ee
cafe
2412
5556
1734
0785
cafe
280b
5556
1734
074f
cafe
2c1b
5556
1734
06b7
cafe
3003
5556
1734
0720
cafe
3413
5556
1738
0744
cafe
380c
5556
1738
06ee
cafe
3c1c
5556
1738
066e
cafe
2004
5556
1738
0730
cafe
2414
5556
173c
07cb
cafe
280d
5556
173c
06dc
cafe
2c1d
5556
173c
0808
cafe
3005
5556
173c
06a3
cafe
3415
5556
1740
05d6
cafe
380e
5556
1740
0702
cafe
3c1e
5556
1740
0771
cafe
2006
5556
1740
06a3
cafe
2416
5556
1744
076f
cafe
280f
5556
1744
06f5
cafe
2c1f
5556
1744
078d
cafe
3007
5556
-
1744
06c5
cafe
3417
5556
1748
06e4
cafe
3808
5556
1748
07d6
cafe
3c18
5556
1748
0703
cafe
2000
5556
1748
06f8
cafe
2410
5556
174c
0710
cafe
2809
5556
174c
067f
cafe
2c19
5556
174c
0790
cafe
3001
5556
174c
06e8
cafe
3411
5556
1750
0708
cafe
380a
5556
1750
0736
cafe
3c1a
5556
1750
0643
cafe
2002
5556
1750
06ad
cafe
2412
5556
1754
074c
cafe
280b
5556
1754
070e
cafe
2c1b
5556
1754
0679
cafe
3003
5556
1754
06dd
cafe
3413
5556
1758
0703
cafe
380c
5556
1758
06aa
cafe
3c1c
5556
1758
0620
cafe
2004
5556
1758
06ec
cafe
2414
5556
175c
0786
cafe
280d
5556
175c
06a2
cafe
2c1d
5556
175c
07c8
cafe
3005
5556
175c
065f
cafe
3415
5556
1760
0596
cafe
380e
5556
1760
06c9
cafe
3c1e
5556
1760
073a
cafe
2006
5556
1760
0663
cafe
2416
5556
1764
0739
cafe
280f
5556
1764
06b4
cafe
2c1f
5556
1764
074c
cafe
3007
5556
1764
0682
cafe
3417
5556
1768
06a1
cafe
3808
5556
1768
079c
cafe
3c18
5556
1768
06cb
cafe
2000
5556
1768
06b7
cafe
2410
5556
176c
06cb
cafe
2809
5556
176c
063e
cafe
2c19
5556
176c
0753
cafe
3001
5556
176c
06a3
cafe
3411
5556
1770
06d1
cafe
380a
5556
1770
06fb
cafe
3c1a
5556
1770
0607
cafe
2002
5556
1770
066a
cafe
2412
5556
1774
070d
cafe
280b
5556
1774
06ca
cafe
2c1b
5556
1774
063a
cafe
3003
5556
1774
06ad
cafe
3413
5556
1778
06c9
cafe
380c
5556
1778
0670
cafe
3c1c
5556
1778
-
05e2
cafe
2004
5556
1778
06a4
cafe
2414
5556
177c
0750
cafe
280d
5556
177c
0665
cafe
2c1d
5556
177c
0786
cafe
3005
5556
177c
0621
cafe
3415
5556
1780
0547
cafe
380e
5556
1780
0684
cafe
3c1e
5556
1780
06fd
cafe
2006
5556
1780
0626
cafe
2416
5556
1784
06fb
cafe
280f
5556
1784
0670
cafe
2c1f
5556
1784
070e
cafe
3007
5556
1784
0645
cafe
3417
5556
1788
0663
cafe
3808
5556
1788
075b
cafe
3c18
5556
1788
068d
cafe
2000
5556
1788
0672
cafe
2410
5556
178c
0696
cafe
2809
5556
178c
0602
cafe
2c19
5556
178c
0712
cafe
3001
5556
178c
065d
cafe
3411
5556
1790
0696
cafe
380a
5556
1790
06bb
cafe
3c1a
5556
1790
05ca
cafe
2002
5556
1790
0631
cafe
2412
5556
1794
06c6
cafe
280b
5556
1794
0687
cafe
2c1b
5556
1794
05f8
cafe
3003
5556
1794
0673
cafe
3413
5556
1798
068e
cafe
380c
5556
1798
0631
cafe
3c1c
5556
1798
059b
cafe
2004
5556
1798
065f
cafe
2414
5556
179c
0713
cafe
280d
5556
179c
0630
cafe
2c1d
5556
179c
074c
cafe
3005
5556
179c
05e5
cafe
3415
5556
17a0
050b
cafe
380e
5556
17a0
064a
cafe
3c1e
5556
17a0
06c4
cafe
2006
5556
17a0
05f2
cafe
2416
5556
17a4
06c9
cafe
280f
5556
17a4
063a
cafe
2c1f
5556
17a4
06d0
cafe
3007
5556
17a4
060c
cafe
3417
5556
17a8
0626
cafe
3808
5556
17a8
0729
cafe
3c18
5556
17a8
0651
cafe
2000
5556
17a8
0640
cafe
2410
5556
17ac
0649
cafe
2809
5556
17ac
05c8
-
cafe
2c19
5556
17ac
06d6
cafe
3001
5556
17ac
0621
cafe
3411
5556
17b0
0658
cafe
380a
5556
17b0
068c
cafe
3c1a
5556
17b0
059a
cafe
2002
5556
17b0
05ef
cafe
2412
5556
17b4
069b
cafe
280b
5556
17b4
0654
cafe
2c1b
5556
17b4
05c2
cafe
3003
5556
17b4
0638
cafe
3413
5556
17b8
0664
cafe
380c
5556
17b8
0603
cafe
3c1c
5556
17b8
056f
cafe
2004
5556
17b8
061d
cafe
2414
5556
17bc
06e9
cafe
280d
5556
17bc
0609
cafe
2c1d
5556
17bc
070f
cafe
3005
5556
17bc
05b5
cafe
3415
5556
17c0
04db
cafe
380e
5556
17c0
0618
cafe
3c1e
5556
17c0
068d
cafe
2006
5556
17c0
05c1
cafe
2416
5556
17c4
0693
cafe
280f
5556
17c4
05f9
cafe
2c1f
5556
17c4
0696
cafe
3007
5556
17c4
05d9
cafe
3417
5556
17c8
05ed
cafe
3808
5556
17c8
06fc
cafe
3c18
5556
17c8
0625
cafe
2000
5556
17c8
0605
cafe
2410
5556
17cc
061b
cafe
2809
5556
17cc
058d
cafe
2c19
5556
17cc
06a1
cafe
3001
5556
17cc
05e1
cafe
3411
5556
17d0
061a
cafe
380a
5556
17d0
0648
cafe
3c1a
5556
17d0
054f
cafe
2002
5556
17d0
05b2
cafe
2412
5556
17d4
0658
cafe
280b
5556
17d4
0621
cafe
2c1b
5556
17d4
057f
cafe
3003
5556
17d4
0608
cafe
3413
5556
17d8
0626
cafe
380c
5556
17d8
05b6
cafe
3c1c
5556
17d8
053a
cafe
2004
5556
17d8
05d7
cafe
2414
5556
17dc
06a8
cafe
280d
5556
17dc
05c5
cafe
2c1d
5556
17dc
06d5
cafe
3005
5556
17dc
0570
cafe
3415
5556
17e0
0492
cafe
-
380e
5556
17e0
05dc
cafe
3c1e
5556
17e0
0655
cafe
2006
5556
17e0
057b
cafe
2416
5556
17e4
0657
cafe
280f
5556
17e4
05bd
cafe
2c1f
5556
17e4
0657
cafe
3007
5556
17e4
05a9
cafe
3417
5556
17e8
05a5
cafe
3808
5556
17e8
06bd
cafe
3c18
5556
17e8
05f7
cafe
2000
5556
17e8
05c9
cafe
2410
5556
17ec
05eb
cafe
2809
5556
17ec
055c
cafe
2c19
5556
17ec
0665
cafe
3001
5556
17ec
05af
cafe
3411
5556
17f0
05db
cafe
380a
5556
17f0
0610
cafe
3c1a
5556
17f0
051a
cafe
2002
5556
17f0
0575
cafe
2412
5556
17f4
0620
cafe
280b
5556
17f4
05e9
cafe
2c1b
5556
17f4
054a
cafe
3003
5556
17f4
05cd
cafe
3413
5556
17f8
05f7
cafe
380c
5556
17f8
0591
cafe
3c1c
5556
17f8
04fb
cafe
2004
5556
17f8
05a1
cafe
2414
5556
17fc
066b
cafe
280d
5556
17fc
057e
cafe
2c1d
5556
17fc
06a5
cafe
3005
5556
17fc
0540
cafe
3415
5556
1800
045a
cafe
380e
5556
1800
059e
cafe
3c1e
5556
1800
061f
cafe
2006
5556
1800
0541
cafe
2416
5556
1804
0625
cafe
280f
5556
1804
0582
cafe
2c1f
5556
1804
0620
cafe
3007
5556
1804
056d
cafe
3417
5556
1808
0571
cafe
3808
5556
1808
0689
cafe
3c18
5556
1808
05c5
cafe
2000
5556
1808
0591
cafe
2410
5556
180c
05aa
cafe
2809
5556
180c
051f
cafe
2c19
5556
180c
062c
cafe
3001
5556
180c
057b
cafe
3411
5556
1810
05a5
cafe
380a
5556
1810
05de
cafe
3c1a
5556
1810
04e0
cafe
2002
5556
1810
053d
cafe
2412
-
5556
1814
05e3
cafe
280b
5556
1814
05b3
cafe
2c1b
5556
1814
0517
cafe
3003
5556
1814
059d
cafe
3413
5556
1818
05c3
cafe
380c
5556
1818
0561
cafe
3c1c
5556
1818
04c1
cafe
2004
5556
1818
056e
cafe
2414
5556
181c
0632
cafe
280d
5556
181c
0551
cafe
2c1d
5556
181c
066e
cafe
3005
5556
181c
050d
cafe
3415
5556
1820
0426
cafe
380e
5556
1820
056f
cafe
3c1e
5556
1820
05ef
cafe
2006
5556
1820
0505
cafe
2416
5556
1824
05f1
cafe
280f
5556
1824
0555
cafe
2c1f
5556
1824
05e9
cafe
3007
5556
1824
0544
cafe
3417
5556
1828
0541
cafe
3808
5556
1828
0649
cafe
3c18
5556
1828
0589
cafe
2000
5556
1828
0561
cafe
2410
5556
182c
0577
cafe
2809
5556
182c
04f0
cafe
2c19
5556
182c
0607
cafe
3001
5556
182c
0541
cafe
3411
5556
1830
057a
cafe
380a
5556
1830
05b0
cafe
3c1a
5556
1830
04ac
cafe
2002
5556
1830
0510
cafe
2412
5556
1834
05b4
cafe
280b
5556
1834
0582
cafe
2c1b
5556
1834
04e6
cafe
3003
5556
1834
056d
cafe
3413
5556
1838
0586
cafe
380c
5556
1838
052d
cafe
3c1c
5556
1838
0491
cafe
2004
5556
1838
0545
cafe
2414
5556
183c
05f8
cafe
280d
5556
183c
0523
cafe
2c1d
5556
183c
063b
cafe
3005
5556
183c
04d9
cafe
3415
5556
1840
03f2
cafe
380e
5556
1840
0535
cafe
3c1e
5556
1840
05bd
cafe
2006
5556
1840
04cf
cafe
2416
5556
1844
05cb
cafe
280f
5556
1844
0520
cafe
2c1f
5556
1844
05b4
cafe
3007
5556
-
1844
0507
cafe
3417
5556
1848
050e
cafe
3808
5556
1848
0619
cafe
3c18
5556
1848
055b
cafe
2000
5556
1848
0531
cafe
2410
5556
184c
0545
cafe
2809
5556
184c
04c1
cafe
2c19
5556
184c
05d6
cafe
3001
5556
184c
050e
cafe
3411
5556
1850
0547
cafe
380a
5556
1850
0575
cafe
3c1a
5556
1850
047c
cafe
2002
5556
1850
04df
cafe
2412
5556
1854
0581
cafe
280b
5556
1854
0554
cafe
2c1b
5556
1854
04b9
cafe
3003
5556
1854
053a
cafe
3413
5556
1858
055a
cafe
380c
5556
1858
04f1
cafe
3c1c
5556
1858
045c
cafe
2004
5556
1858
0511
cafe
2414
5556
185c
05c9
cafe
280d
5556
185c
04fb
cafe
2c1d
5556
185c
0613
cafe
3005
5556
185c
04a8
cafe
3415
5556
1860
03c2
cafe
380e
5556
1860
0506
cafe
3c1e
5556
1860
0584
cafe
2006
5556
1860
04ae
cafe
2416
5556
1864
058f
cafe
280f
5556
1864
04f6
cafe
2c1f
5556
1864
058e
cafe
3007
5556
1864
04cd
cafe
3417
5556
1868
04e1
cafe
3808
5556
1868
05eb
cafe
3c18
5556
1868
0524
cafe
2000
5556
1868
0504
cafe
2410
5556
186c
0511
cafe
2809
5556
186c
049b
cafe
2c19
5556
186c
05af
cafe
3001
5556
186c
04de
cafe
3411
5556
1870
0513
cafe
380a
5556
1870
0548
cafe
3c1a
5556
1870
0449
cafe
2002
5556
1870
04b9
cafe
2412
5556
1874
0550
cafe
280b
5556
1874
051b
cafe
2c1b
5556
1874
0487
cafe
3003
5556
1874
0505
cafe
3413
5556
1878
0531
cafe
380c
5556
1878
04c1
cafe
3c1c
5556
1878
-
0434
cafe
2004
5556
1878
04e1
cafe
2414
5556
187c
0597
cafe
280d
5556
187c
04d6
cafe
2c1d
5556
187c
05e3
cafe
3005
5556
187c
046b
cafe
3415
5556
1880
039b
cafe
380e
5556
1880
04d8
cafe
3c1e
5556
1880
0557
cafe
2006
5556
1880
047b
cafe
2416
5556
1884
055a
cafe
280f
5556
1884
04c2
cafe
2c1f
5556
1884
055e
cafe
3007
5556
1884
04a1
cafe
3417
5556
1888
04b2
cafe
3808
5556
1888
05ca
cafe
3c18
5556
1888
04f0
cafe
2000
5556
1888
04e0
cafe
2410
5556
188c
04e2
cafe
2809
5556
188c
0473
cafe
2c19
5556
188c
0582
cafe
3001
5556
188c
04b6
cafe
3411
5556
1890
04e8
cafe
380a
5556
1890
051a
cafe
3c1a
5556
1890
0420
cafe
2002
5556
1890
0487
cafe
2412
5556
1894
052b
cafe
280b
5556
1894
04f2
cafe
2c1b
5556
1894
045b
cafe
3003
5556
1894
04d8
cafe
3413
5556
1898
0500
cafe
380c
5556
1898
0493
cafe
3c1c
5556
1898
03fa
cafe
2004
5556
1898
04bc
cafe
2414
5556
189c
0574
cafe
280d
5556
189c
04a9
cafe
2c1d
5556
189c
05bd
cafe
3005
5556
189c
0443
cafe
3415
5556
18a0
0376
cafe
380e
5556
18a0
04ad
cafe
3c1e
5556
18a0
0531
cafe
2006
5556
18a0
0456
cafe
2416
5556
18a4
052e
cafe
280f
5556
18a4
048f
cafe
2c1f
5556
18a4
0532
cafe
3007
5556
18a4
0475
cafe
3417
5556
18a8
0485
cafe
3808
5556
18a8
059f
cafe
3c18
5556
18a8
04c5
cafe
2000
5556
18a8
04ad
cafe
2410
5556
18ac
04ba
cafe
2809
5556
18ac
0440
-
cafe
2c19
5556
18ac
0553
cafe
3001
5556
18ac
0487
cafe
3411
5556
18b0
04c5
cafe
380a
5556
18b0
04f9
cafe
3c1a
5556
18b0
03ef
cafe
2002
5556
18b0
045c
cafe
2412
5556
18b4
04f5
cafe
280b
5556
18b4
04c9
cafe
2c1b
5556
18b4
043b
cafe
3003
5556
18b4
04b0
cafe
3413
5556
18b8
04db
cafe
380c
5556
18b8
046c
cafe
3c1c
5556
18b8
03d2
cafe
2004
5556
18b8
0491
cafe
2414
5556
18bc
0549
cafe
280d
5556
18bc
0473
cafe
2c1d
5556
18bc
0590
cafe
3005
5556
18bc
041d
cafe
3415
5556
18c0
034d
cafe
380e
5556
18c0
0482
cafe
3c1e
5556
18c0
0505
cafe
2006
5556
18c0
0426
cafe
2416
5556
18c4
04fb
cafe
280f
5556
18c4
0460
cafe
2c1f
5556
18c4
0501
cafe
3007
5556
18c4
044d
cafe
3417
5556
18c8
0464
cafe
3808
5556
18c8
057a
cafe
3c18
5556
18c8
0499
cafe
2000
5556
18c8
0484
cafe
2410
5556
18cc
0492
cafe
2809
5556
18cc
0411
cafe
2c19
5556
18cc
0536
cafe
3001
5556
18cc
045e
cafe
3411
5556
18d0
0497
cafe
380a
5556
18d0
04d1
cafe
3c1a
5556
18d0
03cf
cafe
2002
5556
18d0
0433
cafe
2412
5556
18d4
04ca
cafe
280b
5556
18d4
0496
cafe
2c1b
5556
18d4
040d
cafe
3003
5556
18d4
047f
cafe
3413
5556
18d8
04b0
cafe
380c
5556
18d8
0449
cafe
3c1c
5556
18d8
03a7
cafe
2004
5556
18d8
045c
cafe
2414
5556
18dc
051c
cafe
280d
5556
18dc
044a
cafe
2c1d
5556
18dc
056d
cafe
3005
5556
18dc
040b
cafe
3415
5556
18e0
031f
cafe
-
380e
5556
18e0
045d
cafe
3c1e
5556
18e0
04e1
cafe
2006
5556
18e0
03f8
cafe
2416
5556
18e4
04e3
cafe
280f
5556
18e4
0435
cafe
2c1f
5556
18e4
04d3
cafe
3007
5556
18e4
042d
cafe
3417
5556
18e8
043c
cafe
3808
5556
18e8
0554
cafe
3c18
5556
18e8
046c
cafe
2000
5556
18e8
0461
cafe
2410
5556
18ec
0466
cafe
2809
5556
18ec
03e7
cafe
2c19
5556
18ec
050b
cafe
3001
5556
18ec
043b
cafe
3411
5556
18f0
0475
cafe
380a
5556
18f0
04a5
cafe
3c1a
5556
18f0
03a5
cafe
2002
5556
18f0
040c
cafe
2412
5556
18f4
04af
cafe
280b
5556
18f4
0471
cafe
2c1b
5556
18f4
03df
cafe
3003
5556
18f4
045d
cafe
3413
5556
18f8
047e
cafe
380c
5556
18f8
0426
cafe
3c1c
5556
18f8
038b
cafe
2004
5556
18f8
0433
cafe
2414
5556
18fc
04f4
cafe
280d
5556
18fc
0423
cafe
2c1d
5556
18fc
053a
cafe
3005
5556
18fc
03df
cafe
3415
5556
1900
02e9
cafe
380e
5556
1900
042e
cafe
3c1e
5556
1900
04bd
cafe
2006
5556
1900
03dd
cafe
2416
5556
1904
04bf
cafe
280f
5556
1904
0417
cafe
2c1f
5556
1904
04ad
cafe
3007
5556
1904
0400
cafe
3417
5556
1908
0416
cafe
3808
5556
1908
0531
cafe
3c18
5556
1908
0445
cafe
2000
5556
1908
043c
cafe
2410
5556
190c
0449
cafe
2809
5556
190c
03c1
cafe
2c19
5556
190c
04e9
cafe
3001
5556
190c
040a
cafe
3411
5556
1910
044c
cafe
380a
5556
1910
047b
cafe
3c1a
5556
1910
037a
cafe
2002
5556
1910
03e9
cafe
2412
-
5556
1914
0483
cafe
280b
5556
1914
045e
cafe
2c1b
5556
1914
03bd
cafe
3003
5556
1914
0439
cafe
3413
5556
1918
0462
cafe
380c
5556
1918
0405
cafe
3c1c
5556
1918
0364
cafe
2004
5556
1918
0413
cafe
2414
5556
191c
04d2
cafe
280d
5556
191c
03f7
cafe
2c1d
5556
191c
0521
cafe
3005
5556
191c
03b2
cafe
3415
5556
1920
02c7
cafe
380e
5556
1920
0400
cafe
3c1e
5556
1920
0491
cafe
2006
5556
1920
03b1
cafe
2416
5556
1924
048f
cafe
280f
5556
1924
03f5
cafe
2c1f
5556
1924
048b
cafe
3007
5556
1924
03df
cafe
3417
5556
1928
03f9
cafe
3808
5556
1928
050a
cafe
3c18
5556
1928
041a
cafe
2000
5556
1928
041b
cafe
2410
5556
192c
0412
cafe
2809
5556
192c
039c
cafe
2c19
5556
192c
04c3
cafe
3001
5556
192c
03e5
cafe
3411
5556
1930
0432
cafe
380a
5556
1930
0463
cafe
3c1a
5556
1930
035a
cafe
2002
5556
1930
03d1
cafe
2412
5556
1934
045d
cafe
280b
5556
1934
0429
cafe
2c1b
5556
1934
03a1
cafe
3003
5556
1934
040b
cafe
3413
5556
1938
0442
cafe
380c
5556
1938
03dd
cafe
3c1c
5556
1938
0345
cafe
2004
5556
1938
03e7
cafe
2414
5556
193c
04ac
cafe
280d
5556
193c
03d3
cafe
2c1d
5556
193c
04f2
cafe
3005
5556
193c
0395
cafe
3415
5556
1940
02ab
cafe
380e
5556
1940
03db
cafe
3c1e
5556
1940
045f
cafe
2006
5556
1940
038f
cafe
2416
5556
1944
0466
cafe
280f
5556
1944
03d5
cafe
2c1f
5556
1944
0477
cafe
3007
5556
-
1944
03b9
cafe
3417
5556
1948
03cd
cafe
3808
5556
1948
04d6
cafe
3c18
5556
1948
03f9
cafe
2000
5556
1948
03ec
cafe
2410
5556
194c
03e9
cafe
2809
5556
194c
037b
cafe
2c19
5556
194c
049e
cafe
3001
5556
194c
03ce
cafe
3411
5556
1950
0410
cafe
380a
5556
1950
043b
cafe
3c1a
5556
1950
0338
cafe
2002
5556
1950
03a3
cafe
2412
5556
1954
0433
cafe
280b
5556
1954
040f
cafe
2c1b
5556
1954
0380
cafe
3003
5556
1954
03ef
cafe
3413
5556
1958
0424
cafe
380c
5556
1958
03bb
cafe
3c1c
5556
1958
031c
cafe
2004
5556
1958
03c5
cafe
2414
5556
195c
048e
cafe
280d
5556
195c
03b5
cafe
2c1d
5556
195c
04ce
cafe
3005
5556
195c
037e
cafe
3415
5556
1960
0289
cafe
380e
5556
1960
03b8
cafe
3c1e
5556
1960
043a
cafe
2006
5556
1960
036c
cafe
2416
5556
1964
0443
cafe
280f
5556
1964
03b9
cafe
2c1f
5556
1964
0459
cafe
3007
5556
1964
0393
cafe
3417
5556
1968
03ac
cafe
3808
5556
1968
04bb
cafe
3c18
5556
1968
03dc
cafe
2000
5556
1968
03c7
cafe
2410
5556
196c
03c3
cafe
2809
5556
196c
035e
cafe
2c19
5556
196c
0474
cafe
3001
5556
196c
03af
cafe
3411
5556
1970
03f0
cafe
380a
5556
1970
0413
cafe
3c1a
5556
1970
0319
cafe
2002
5556
1970
037c
cafe
2412
5556
1974
0412
cafe
280b
5556
1974
03e8
cafe
2c1b
5556
1974
0364
cafe
3003
5556
1974
03d4
cafe
3413
5556
1978
0400
cafe
380c
5556
1978
039b
cafe
3c1c
5556
1978
-
0304
cafe
2004
5556
1978
03b2
cafe
2414
5556
197c
046d
cafe
280d
5556
197c
0394
cafe
2c1d
5556
197c
04b0
cafe
3005
5556
197c
035c
cafe
3415
5556
1980
026f
cafe
380e
5556
1980
03a1
cafe
3c1e
5556
1980
0411
cafe
2006
5556
1980
0359
cafe
2416
5556
1984
0421
cafe
280f
5556
1984
038b
cafe
2c1f
5556
1984
043c
cafe
3007
5556
1984
0367
cafe
3417
5556
1988
0392
cafe
3808
5556
1988
049d
cafe
3c18
5556
1988
03c7
cafe
2000
5556
1988
03a5
cafe
2410
5556
198c
03ac
cafe
2809
5556
198c
0335
cafe
2c19
5556
198c
0453
cafe
3001
5556
198c
0391
cafe
3411
5556
1990
03c9
cafe
380a
5556
1990
03fd
cafe
3c1a
5556
1990
02fa
cafe
2002
5556
1990
0360
cafe
2412
5556
1994
03fc
cafe
280b
5556
1994
03cb
cafe
2c1b
5556
1994
033f
cafe
3003
5556
1994
03b7
cafe
3413
5556
1998
03d3
cafe
380c
5556
1998
037a
cafe
3c1c
5556
1998
02e7
cafe
2004
5556
1998
0395
cafe
2414
5556
199c
044a
cafe
280d
5556
199c
036c
cafe
2c1d
5556
199c
048c
cafe
3005
5556
199c
0332
cafe
3415
5556
19a0
024d
cafe
380e
5556
19a0
0381
cafe
3c1e
5556
19a0
03f0
cafe
2006
5556
19a0
0341
cafe
2416
5556
19a4
03fd
cafe
280f
5556
19a4
0372
cafe
2c1f
5556
19a4
041c
cafe
3007
5556
19a4
0349
cafe
3417
5556
19a8
036b
cafe
3808
5556
19a8
0478
cafe
3c18
5556
19a8
03ad
cafe
2000
5556
19a8
0393
cafe
2410
5556
19ac
0397
cafe
2809
5556
19ac
0316
-
cafe
2c19
5556
19ac
0431
cafe
3001
5556
19ac
036f
cafe
3411
5556
19b0
03b2
cafe
380a
5556
19b0
03dc
cafe
3c1a
5556
19b0
02e1
cafe
2002
5556
19b0
0345
cafe
2412
5556
19b4
03df
cafe
280b
5556
19b4
03ad
cafe
2c1b
5556
19b4
031e
cafe
3003
5556
19b4
0394
cafe
3413
5556
19b8
03a9
cafe
380c
5556
19b8
0359
cafe
3c1c
5556
19b8
02ca
cafe
2004
5556
19b8
0375
cafe
2414
5556
19bc
0430
cafe
280d
5556
19bc
034b
cafe
2c1d
5556
19bc
0467
cafe
3005
5556
19bc
0317
cafe
3415
5556
19c0
022b
cafe
380e
5556
19c0
0362
cafe
3c1e
5556
19c0
03d5
cafe
2006
5556
19c0
0322
cafe
2416
5556
19c4
03e9
cafe
280f
5556
19c4
034c
cafe
2c1f
5556
19c4
0401
cafe
3007
5556
19c4
0335
cafe
3417
5556
19c8
033d
cafe
3808
5556
19c8
045a
cafe
3c18
5556
19c8
0380
cafe
2000
5556
19c8
0372
cafe
2410
5556
19cc
0379
cafe
2809
5556
19cc
02ed
cafe
2c19
5556
19cc
0417
cafe
3001
5556
19cc
0357
cafe
3411
5556
19d0
0394
cafe
380a
5556
19d0
03be
cafe
3c1a
5556
19d0
02bf
cafe
2002
5556
19d0
032f
cafe
2412
5556
19d4
03bf
cafe
280b
5556
19d4
038f
cafe
2c1b
5556
19d4
030d
cafe
3003
5556
19d4
0379
cafe
3413
5556
19d8
0389
cafe
380c
5556
19d8
0338
cafe
3c1c
5556
19d8
02b0
cafe
2004
5556
19d8
0353
cafe
2414
5556
19dc
0422
cafe
280d
5556
19dc
0337
cafe
2c1d
5556
19dc
0452
cafe
3005
5556
19dc
02fa
cafe
3415
5556
19e0
0215
cafe
-
380e
5556
19e0
0347
cafe
3c1e
5556
19e0
03c7
cafe
2006
5556
19e0
0304
cafe
2416
5556
19e4
03d2
cafe
280f
5556
19e4
0330
cafe
2c1f
5556
19e4
03d6
cafe
3007
5556
19e4
0319
cafe
3417
5556
19e8
0321
cafe
3808
5556
19e8
043f
cafe
3c18
5556
19e8
0367
cafe
2000
5556
19e8
035b
cafe
2410
5556
19ec
0359
cafe
2809
5556
19ec
02d1
cafe
2c19
5556
19ec
03fb
cafe
3001
5556
19ec
033a
cafe
3411
5556
19f0
0371
cafe
380a
5556
19f0
039c
cafe
3c1a
5556
19f0
02a1
cafe
2002
5556
19f0
030d
cafe
2412
5556
19f4
039e
cafe
280b
5556
19f4
036e
cafe
2c1b
5556
19f4
02ee
cafe
3003
5556
19f4
035a
cafe
3413
5556
19f8
0374
cafe
380c
5556
19f8
032b
cafe
3c1c
5556
19f8
028f
cafe
2004
5556
19f8
0332
cafe
2414
5556
19fc
03fa
cafe
280d
5556
19fc
0313
cafe
2c1d
5556
19fc
043f
cafe
3005
5556
19fc
02e2
cafe
3415
5556
1a00
01fe
cafe
380e
5556
1a00
0326
cafe
3c1e
5556
1a00
03ac
cafe
2006
5556
1a00
02e9
cafe
2416
5556
1a04
03b6
cafe
280f
5556
1a04
031b
cafe
2c1f
5556
1a04
03b3
cafe
3007
5556
1a04
0305
cafe
3417
5556
1a08
030a
cafe
3808
5556
1a08
0425
cafe
3c18
5556
1a08
0352
cafe
2000
5556
1a08
0347
cafe
2410
5556
1a0c
033f
cafe
2809
5556
1a0c
02bd
cafe
2c19
5556
1a0c
03d7
cafe
3001
5556
1a0c
0325
cafe
3411
5556
1a10
035b
cafe
380a
5556
1a10
0381
cafe
3c1a
5556
1a10
028a
cafe
2002
5556
1a10
02f9
cafe
2412
-
5556
1a14
037a
cafe
280b
5556
1a14
0357
cafe
2c1b
5556
1a14
02d4
cafe
3003
5556
1a14
0336
cafe
3413
5556
1a18
0358
cafe
380c
5556
1a18
0316
cafe
3c1c
5556
1a18
0277
cafe
2004
5556
1a18
0317
cafe
2414
5556
1a1c
03e8
cafe
280d
5556
1a1c
02fa
cafe
2c1d
5556
1a1c
0425
cafe
3005
5556
1a1c
02c6
cafe
3415
5556
1a20
01e1
cafe
380e
5556
1a20
030d
cafe
3c1e
5556
1a20
0381
cafe
2006
5556
1a20
02d6
cafe
2416
5556
1a24
03a9
cafe
280f
5556
1a24
0307
cafe
2c1f
5556
1a24
039a
cafe
3007
5556
1a24
02f1
cafe
3417
5556
1a28
02f6
cafe
3808
5556
1a28
0407
cafe
3c18
5556
1a28
033d
cafe
2000
5556
1a28
032a
cafe
2410
5556
1a2c
032b
cafe
2809
5556
1a2c
02a4
cafe
2c19
5556
1a2c
03b8
cafe
3001
5556
1a2c
030a
cafe
3411
5556
1a30
0341
cafe
380a
5556
1a30
036a
cafe
3c1a
5556
1a30
0276
cafe
2002
5556
1a30
02ea
cafe
2412
5556
1a34
0364
cafe
280b
5556
1a34
0338
cafe
2c1b
5556
1a34
02af
cafe
3003
5556
1a34
031d
cafe
3413
5556
1a38
0342
cafe
380c
5556
1a38
0303
cafe
3c1c
5556
1a38
025a
cafe
2004
5556
1a38
02fe
cafe
2414
5556
1a3c
03c6
cafe
280d
5556
1a3c
02d5
cafe
2c1d
5556
1a3c
040c
cafe
3005
5556
1a3c
02b2
cafe
3415
5556
1a40
01c5
cafe
380e
5556
1a40
02fe
cafe
3c1e
5556
1a40
0369
cafe
2006
5556
1a40
02b8
cafe
2416
5556
1a44
0387
cafe
280f
5556
1a44
02e6
cafe
2c1f
5556
1a44
0382
cafe
3007
5556
-
1a44
02d7
cafe
3417
5556
1a48
02de
cafe
3808
5556
1a48
03f5
cafe
3c18
5556
1a48
032f
cafe
2000
5556
1a48
0311
cafe
2410
5556
1a4c
0314
cafe
2809
5556
1a4c
028a
cafe
2c19
5556
1a4c
03a7
cafe
3001
5556
1a4c
02f2
cafe
3411
5556
1a50
031f
cafe
380a
5556
1a50
0355
cafe
3c1a
5556
1a50
0260
cafe
2002
5556
1a50
02c2
cafe
2412
5556
1a54
034c
cafe
280b
5556
1a54
0321
cafe
2c1b
5556
1a54
0298
cafe
3003
5556
1a54
0308
cafe
3413
5556
1a58
0328
cafe
380c
5556
1a58
02f5
cafe
3c1c
5556
1a58
0245
cafe
2004
5556
1a58
02ef
cafe
2414
5556
1a5c
03b5
cafe
280d
5556
1a5c
02be
cafe
2c1d
5556
1a5c
03f2
cafe
3005
5556
1a5c
02a4
cafe
3415
5556
1a60
01b6
cafe
380e
5556
1a60
02ec
cafe
3c1e
5556
1a60
035c
cafe
2006
5556
1a60
029d
cafe
2416
5556
1a64
036f
cafe
280f
5556
1a64
02d2
cafe
2c1f
5556
1a64
0365
cafe
3007
5556
1a64
02be
cafe
3417
5556
1a68
02d6
cafe
3808
5556
1a68
03e1
cafe
3c18
5556
1a68
0308
cafe
2000
5556
1a68
02f4
cafe
2410
5556
1a6c
02f9
cafe
2809
5556
1a6c
026e
cafe
2c19
5556
1a6c
038d
cafe
3001
5556
1a6c
02df
cafe
3411
5556
1a70
0312
cafe
380a
5556
1a70
033b
cafe
3c1a
5556
1a70
0249
cafe
2002
5556
1a70
02aa
cafe
2412
5556
1a74
033b
cafe
280b
5556
1a74
0311
cafe
2c1b
5556
1a74
0279
cafe
3003
5556
1a74
02f9
cafe
3413
5556
1a78
030e
cafe
380c
5556
1a78
02d1
cafe
3c1c
5556
1a78
-
0234
cafe
2004
5556
1a78
02d9
cafe
2414
5556
1a7c
0398
cafe
280d
5556
1a7c
02ad
cafe
2c1d
5556
1a7c
03df
cafe
3005
5556
1a7c
0285
cafe
3415
5556
1a80
01a1
cafe
380e
5556
1a80
02bd
cafe
3c1e
5556
1a80
033f
cafe
2006
5556
1a80
0295
cafe
2416
5556
1a84
035d
cafe
280f
5556
1a84
02c2
cafe
2c1f
5556
1a84
034c
cafe
3007
5556
1a84
029b
cafe
3417
5556
1a88
02b5
cafe
3808
5556
1a88
03bb
cafe
3c18
5556
1a88
02f2
cafe
2000
5556
1a88
02e2
cafe
2410
5556
1a8c
02e8
cafe
2809
5556
1a8c
0261
cafe
2c19
5556
1a8c
037b
cafe
3001
5556
1a8c
02c9
cafe
3411
5556
1a90
02f4
cafe
380a
5556
1a90
0336
cafe
3c1a
5556
1a90
0235
cafe
2002
5556
1a90
0299
cafe
2412
5556
1a94
032b
cafe
280b
5556
1a94
02fc
cafe
2c1b
5556
1a94
0268
cafe
3003
5556
1a94
02e7
cafe
3413
5556
1a98
02ef
cafe
380c
5556
1a98
02bc
cafe
3c1c
5556
1a98
0222
cafe
2004
5556
1a98
02c5
cafe
2414
5556
1a9c
037b
cafe
280d
5556
1a9c
0295
cafe
2c1d
5556
1a9c
03cb
cafe
3005
5556
1a9c
0273
cafe
3415
5556
1aa0
0194
cafe
380e
5556
1aa0
02b0
cafe
3c1e
5556
1aa0
032e
cafe
2006
5556
1aa0
027d
cafe
2416
5556
1aa4
0347
cafe
280f
5556
1aa4
02b5
cafe
2c1f
5556
1aa4
032e
cafe
3007
5556
1aa4
0286
cafe
3417
5556
1aa8
02a9
cafe
3808
5556
1aa8
03a3
cafe
3c18
5556
1aa8
02e3
cafe
2000
5556
1aa8
02c9
cafe
2410
5556
1aac
02c7
cafe
2809
5556
1aac
0246
-
cafe
2c19
5556
1aac
035c
cafe
3001
5556
1aac
02b1
cafe
3411
5556
1ab0
02e0
cafe
380a
5556
1ab0
0322
cafe
3c1a
5556
1ab0
021c
cafe
2002
5556
1ab0
027c
cafe
2412
5556
1ab4
0320
cafe
280b
5556
1ab4
02e6
cafe
2c1b
5556
1ab4
025a
cafe
3003
5556
1ab4
02d1
cafe
3413
5556
1ab8
02d7
cafe
380c
5556
1ab8
02ab
cafe
3c1c
5556
1ab8
0211
cafe
2004
5556
1ab8
02af
cafe
2414
5556
1abc
0369
cafe
280d
5556
1abc
027f
cafe
2c1d
5556
1abc
03b1
cafe
3005
5556
1abc
0260
cafe
3415
5556
1ac0
0184
cafe
380e
5556
1ac0
0297
cafe
3c1e
5556
1ac0
0317
cafe
2006
5556
1ac0
0262
cafe
2416
5556
1ac4
032f
cafe
280f
5556
1ac4
029b
cafe
2c1f
5556
1ac4
031a
cafe
3007
5556
1ac4
0278
cafe
3417
5556
1ac8
0296
cafe
3808
5556
1ac8
0384
cafe
3c18
5556
1ac8
02c6
cafe
2000
5556
1ac8
02b5
cafe
2410
5556
1acc
02c0
cafe
2809
5556
1acc
0249
cafe
2c19
5556
1acc
033f
cafe
3001
5556
1acc
02a8
cafe
3411
5556
1ad0
02c9
cafe
380a
5556
1ad0
02ff
cafe
3c1a
5556
1ad0
0208
cafe
2002
5556
1ad0
026c
cafe
2412
5556
1ad4
0305
cafe
280b
5556
1ad4
02d1
cafe
2c1b
5556
1ad4
024f
cafe
3003
5556
1ad4
02c1
cafe
3413
5556
1ad8
02d1
cafe
380c
5556
1ad8
029b
cafe
3c1c
5556
1ad8
01fb
cafe
2004
5556
1ad8
02a0
cafe
2414
5556
1adc
0355
cafe
280d
5556
1adc
0275
cafe
2c1d
5556
1adc
0390
cafe
3005
5556
1adc
024c
cafe
3415
5556
1ae0
0166
cafe
-
380e
5556
1ae0
0287
cafe
3c1e
5556
1ae0
0307
cafe
2006
5556
1ae0
0251
cafe
2416
5556
1ae4
0324
cafe
280f
5556
1ae4
028a
cafe
2c1f
5556
1ae4
030d
cafe
3007
5556
1ae4
026c
cafe
3417
5556
1ae8
027e
cafe
3808
5556
1ae8
0366
cafe
3c18
5556
1ae8
02b5
cafe
2000
5556
1ae8
02a1
cafe
2410
5556
1aec
02ad
cafe
2809
5556
1aec
023b
cafe
2c19
5556
1aec
0333
cafe
3001
5556
1aec
0296
cafe
3411
5556
1af0
02c0
cafe
380a
5556
1af0
02e8
cafe
3c1a
5556
1af0
01ff
cafe
2002
5556
1af0
0260
cafe
2412
5556
1af4
02fa
cafe
280b
5556
1af4
02b7
cafe
2c1b
5556
1af4
023c
cafe
3003
5556
1af4
02a6
cafe
3413
5556
1af8
02bb
cafe
380c
5556
1af8
0285
cafe
3c1c
5556
1af8
01d9
cafe
2004
5556
1af8
028f
cafe
2414
5556
1afc
0341
cafe
280d
5556
1afc
0263
cafe
2c1d
5556
1afc
0386
cafe
3005
5556
1afc
023d
cafe
3415
5556
1b00
0155
cafe
380e
5556
1b00
0278
cafe
3c1e
5556
1b00
02ea
cafe
2006
5556
1b00
0246
cafe
2416
5556
1b04
030d
cafe
280f
5556
1b04
0279
cafe
2c1f
5556
1b04
0301
cafe
3007
5556
1b04
0255
cafe
3417
5556
1b08
0273
cafe
3808
5556
1b08
035e
cafe
3c18
5556
1b08
02a1
cafe
2000
5556
1b08
0288
cafe
2410
5556
1b0c
0295
cafe
2809
5556
1b0c
0221
cafe
2c19
5556
1b0c
031b
cafe
3001
5556
1b0c
028e
cafe
3411
5556
1b10
02aa
cafe
380a
5556
1b10
02e3
cafe
3c1a
5556
1b10
01f4
cafe
2002
5556
1b10
024a
cafe
2412
-
5556
1b14
02e7
cafe
280b
5556
1b14
02ac
cafe
2c1b
5556
1b14
0232
cafe
3003
5556
1b14
029f
cafe
3413
5556
1b18
02aa
cafe
380c
5556
1b18
0261
cafe
3c1c
5556
1b18
01cb
cafe
2004
5556
1b18
027f
cafe
2414
5556
1b1c
0335
cafe
280d
5556
1b1c
0256
cafe
2c1d
5556
1b1c
0366
cafe
3005
5556
1b1c
0221
cafe
3415
5556
1b20
0144
cafe
380e
5556
1b20
0275
cafe
3c1e
5556
1b20
02de
cafe
2006
5556
1b20
0235
cafe
2416
5556
1b24
02f8
cafe
280f
5556
1b24
0268
cafe
2c1f
5556
1b24
02ef
cafe
3007
5556
1b24
0243
cafe
3417
5556
1b28
025c
cafe
3808
5556
1b28
033e
cafe
3c18
5556
1b28
0291
cafe
2000
5556
1b28
027b
cafe
2410
5556
1b2c
0284
cafe
2809
5556
1b2c
020c
cafe
2c19
5556
1b2c
030e
cafe
3001
5556
1b2c
027d
cafe
3411
5556
1b30
0296
cafe
380a
5556
1b30
02c9
cafe
3c1a
5556
1b30
01e7
cafe
2002
5556
1b30
0237
cafe
2412
5556
1b34
02cc
cafe
280b
5556
1b34
02a1
cafe
2c1b
5556
1b34
021f
cafe
3003
5556
1b34
028b
cafe
3413
5556
1b38
029c
cafe
380c
5556
1b38
0252
cafe
3c1c
5556
1b38
01b2
cafe
2004
5556
1b38
0275
cafe
2414
5556
1b3c
032f
cafe
280d
5556
1b3c
024f
cafe
2c1d
5556
1b3c
0355
cafe
3005
5556
1b3c
0210
cafe
3415
5556
1b40
0133
cafe
380e
5556
1b40
0262
cafe
3c1e
5556
1b40
02d3
cafe
2006
5556
1b40
0219
cafe
2416
5556
1b44
02e6
cafe
280f
5556
1b44
0259
cafe
2c1f
5556
1b44
02d6
cafe
3007
5556
-
1b44
023f
cafe
3417
5556
1b48
0251
cafe
3808
5556
1b48
032f
cafe
3c18
5556
1b48
0288
cafe
2000
5556
1b48
0266
cafe
2410
5556
1b4c
0277
cafe
2809
5556
1b4c
01f7
cafe
2c19
5556
1b4c
02f4
cafe
3001
5556
1b4c
0269
cafe
3411
5556
1b50
0287
cafe
380a
5556
1b50
02be
cafe
3c1a
5556
1b50
01cf
cafe
2002
5556
1b50
022b
cafe
2412
5556
1b54
02c1
cafe
280b
5556
1b54
028e
cafe
2c1b
5556
1b54
0212
cafe
3003
5556
1b54
0281
cafe
3413
5556
1b58
0284
cafe
380c
5556
1b58
0241
cafe
3c1c
5556
1b58
01a0
cafe
2004
5556
1b58
0268
cafe
2414
5556
1b5c
0312
cafe
280d
5556
1b5c
023b
cafe
2c1d
5556
1b5c
0356
cafe
3005
5556
1b5c
01fc
cafe
3415
5556
1b60
012c
cafe
380e
5556
1b60
0250
cafe
3c1e
5556
1b60
02c3
cafe
2006
5556
1b60
0209
cafe
2416
5556
1b64
02d3
cafe
280f
5556
1b64
024a
cafe
2c1f
5556
1b64
02c0
cafe
3007
5556
1b64
0228
cafe
3417
5556
1b68
0247
cafe
3808
5556
1b68
031d
cafe
3c18
5556
1b68
027a
cafe
2000
5556
1b68
0255
cafe
2410
5556
1b6c
026a
cafe
2809
5556
1b6c
01f5
cafe
2c19
5556
1b6c
02ef
cafe
3001
5556
1b6c
0252
cafe
3411
5556
1b70
0277
cafe
380a
5556
1b70
02a2
cafe
3c1a
5556
1b70
01bc
cafe
2002
5556
1b70
0218
cafe
2412
5556
1b74
02a7
cafe
280b
5556
1b74
0276
cafe
2c1b
5556
1b74
01fd
cafe
3003
5556
1b74
0270
cafe
3413
5556
1b78
0277
cafe
380c
5556
1b78
023b
cafe
3c1c
5556
1b78
-
0199
cafe
2004
5556
1b78
0257
cafe
2414
5556
1b7c
02f8
cafe
280d
5556
1b7c
022f
cafe
2c1d
5556
1b7c
0336
cafe
3005
5556
1b7c
01ef
cafe
3415
5556
1b80
011e
cafe
380e
5556
1b80
0242
cafe
3c1e
5556
1b80
02b0
cafe
2006
5556
1b80
01f3
cafe
2416
5556
1b84
02cd
cafe
280f
5556
1b84
023a
cafe
2c1f
5556
1b84
02b5
cafe
3007
5556
1b84
0220
cafe
3417
5556
1b88
0232
cafe
3808
5556
1b88
0317
cafe
3c18
5556
1b88
0264
cafe
2000
5556
1b88
024c
cafe
2410
5556
1b8c
025d
cafe
2809
5556
1b8c
01eb
cafe
2c19
5556
1b8c
02e2
cafe
3001
5556
1b8c
0244
cafe
3411
5556
1b90
0273
cafe
380a
5556
1b90
0292
cafe
3c1a
5556
1b90
01b5
cafe
2002
5556
1b90
020c
cafe
2412
5556
1b94
029d
cafe
280b
5556
1b94
026b
cafe
2c1b
5556
1b94
01ee
cafe
3003
5556
1b94
0256
cafe
3413
5556
1b98
0265
cafe
380c
5556
1b98
0221
cafe
3c1c
5556
1b98
0186
cafe
2004
5556
1b98
024d
cafe
2414
5556
1b9c
02ef
cafe
280d
5556
1b9c
022f
cafe
2c1d
5556
1b9c
0329
cafe
3005
5556
1b9c
01e0
cafe
3415
5556
1ba0
011a
cafe
380e
5556
1ba0
0239
cafe
3c1e
5556
1ba0
02a5
cafe
2006
5556
1ba0
01e7
cafe
2416
5556
1ba4
02b6
cafe
280f
5556
1ba4
022e
cafe
2c1f
5556
1ba4
02a7
cafe
3007
5556
1ba4
0210
cafe
3417
5556
1ba8
0226
cafe
3808
5556
1ba8
0303
cafe
3c18
5556
1ba8
025a
cafe
2000
5556
1ba8
0241
cafe
2410
5556
1bac
0247
cafe
2809
5556
1bac
01e1
-
cafe
2c19
5556
1bac
02d7
cafe
3001
5556
1bac
0239
cafe
3411
5556
1bb0
025c
cafe
380a
5556
1bb0
0285
cafe
3c1a
5556
1bb0
01a1
cafe
2002
5556
1bb0
020b
cafe
2412
5556
1bb4
0295
cafe
280b
5556
1bb4
0258
cafe
2c1b
5556
1bb4
01e1
cafe
3003
5556
1bb4
0243
cafe
3413
5556
1bb8
025b
cafe
380c
5556
1bb8
0215
cafe
3c1c
5556
1bb8
0182
cafe
2004
5556
1bb8
023c
cafe
2414
5556
1bbc
02da
cafe
280d
5556
1bbc
021e
cafe
2c1d
5556
1bbc
031e
cafe
3005
5556
1bbc
01cf
cafe
3415
5556
1bc0
010d
cafe
380e
5556
1bc0
022b
cafe
3c1e
5556
1bc0
0290
cafe
2006
5556
1bc0
01d6
cafe
2416
5556
1bc4
02a6
cafe
280f
5556
1bc4
0221
cafe
2c1f
5556
1bc4
0295
cafe
3007
5556
1bc4
0208
cafe
3417
5556
1bc8
0213
cafe
3808
5556
1bc8
02f0
cafe
3c18
5556
1bc8
0243
cafe
2000
5556
1bc8
0231
cafe
2410
5556
1bcc
023f
cafe
2809
5556
1bcc
01df
cafe
2c19
5556
1bcc
02c5
cafe
3001
5556
1bcc
022b
cafe
3411
5556
1bd0
024d
cafe
380a
5556
1bd0
0279
cafe
3c1a
5556
1bd0
0199
cafe
2002
5556
1bd0
01fb
cafe
2412
5556
1bd4
027e
cafe
280b
5556
1bd4
0258
cafe
2c1b
5556
1bd4
01d7
cafe
3003
5556
1bd4
0235
cafe
3413
5556
1bd8
0251
cafe
380c
5556
1bd8
0209
cafe
3c1c
5556
1bd8
017d
cafe
2004
5556
1bd8
022c
cafe
2414
5556
1bdc
02d4
cafe
280d
5556
1bdc
0209
cafe
2c1d
5556
1bdc
0309
cafe
3005
5556
1bdc
01cf
cafe
3415
5556
1be0
0106
cafe
-
