300a
5555
ef50
00cc
cafe
341a
5555
ef50
0157
cafe
3802
5555
ef50
00e4
cafe
3c12
5555
ef54
0214
cafe
200b
5555
ef54
0186
cafe
241b
5555
ef54
0148
cafe
2803
5555
ef54
016a
cafe
2c13
5555
ef58
01a2
cafe
300c
5555
ef58
01ca
cafe
341c
5555
ef58
01b5
cafe
3804
5555
ef58
01ad
cafe
3c14
5555
ef5c
01a7
cafe
200d
5555
ef5c
0185
cafe
241d
5555
ef5c
015e
cafe
2805
5555
ef5c
01ee
cafe
2c15
5555
ef60
01a6
cafe
300e
5555
ef60
01bc
cafe
341e
5555
ef60
019d
cafe
3806
5555
ef60
014d
cafe
3c16
5555
ef64
0205
cafe
200f
5555
ef64
018d
cafe
241f
5555
ef64
01a9
cafe
2807
5555
ef64
01b6
cafe
2c17
5555
ef68
015c
cafe
3008
5555
ef68
015d
cafe
3418
5555
ef68
01d7
cafe
3800
5555
ef68
01d5
cafe
3c10
5555
ef6c
0172
cafe
2009
5555
ef6c
00e8
cafe
2419
5555
ef6c
0116
cafe
2801
5555
ef6c
01ba
cafe
2c11
5555
ef70
01e9
cafe
300a
5555
ef70
00d1
cafe
341a
5555
ef70
0159
cafe
3802
5555
ef70
00e8
cafe
3c12
5555
ef74
0217
cafe
200b
5555
ef74
0189
cafe
241b
5555
ef74
014c
cafe
2803
5555
ef74
0164
cafe
2c13
5555
ef78
019a
cafe
300c
5555
ef78
01cd
cafe
341c
5555
ef78
01b2
cafe
3804
5555
ef78
01b0
cafe
3c14
5555
ef7c
01a4
cafe
200d
5555
ef7c
0180
cafe
241d
5555
ef7c
0160
cafe
2805
5555
ef7c
01ed
cafe
2c15
5555
ef80
01a5
cafe
300e
5555
ef80
01bb
cafe
341e
5555
ef80
019b
cafe
3806
5555
ef80
0145
cafe
3c16
-
5555
ef84
020a
cafe
200f
5555
ef84
0190
cafe
241f
5555
ef84
01a7
cafe
2807
5555
ef84
01b7
cafe
2c17
5555
ef88
015c
cafe
3008
5555
ef88
015f
cafe
3418
5555
ef88
01d7
cafe
3800
5555
ef88
01d3
cafe
3c10
5555
ef8c
0173
cafe
2009
5555
ef8c
00e5
cafe
2419
5555
ef8c
0117
cafe
2801
5555
ef8c
01be
cafe
2c11
5555
ef90
01e8
cafe
300a
5555
ef90
00d3
cafe
341a
5555
ef90
0156
cafe
3802
5555
ef90
00e7
cafe
3c12
5555
ef94
021c
cafe
200b
5555
ef94
018b
cafe
241b
5555
ef94
014c
cafe
2803
5555
ef94
0162
cafe
2c13
5555
ef98
01a0
cafe
300c
5555
ef98
01c8
cafe
341c
5555
ef98
01b3
cafe
3804
5555
ef98
01b0
cafe
3c14
5555
ef9c
01a4
cafe
200d
5555
ef9c
0180
cafe
241d
5555
ef9c
0161
cafe
2805
5555
ef9c
01e9
cafe
2c15
5555
efa0
01a0
cafe
300e
5555
efa0
01bb
cafe
341e
5555
efa0
019d
cafe
3806
5555
efa0
0145
cafe
3c16
5555
efa4
0207
cafe
200f
5555
efa4
0191
cafe
241f
5555
efa4
01a9
cafe
2807
5555
efa4
01bc
cafe
2c17
5555
efa8
0160
cafe
3008
5555
efa8
0160
cafe
3418
5555
efa8
01d1
cafe
3800
5555
efa8
01d5
cafe
3c10
5555
efac
0174
cafe
2009
5555
efac
00ea
cafe
2419
5555
efac
0118
cafe
2801
5555
efac
01b5
cafe
2c11
5555
efb0
01e6
cafe
300a
5555
efb0
00d4
cafe
341a
5555
efb0
0157
cafe
3802
5555
efb0
00e9
cafe
3c12
5555
efb4
0211
cafe
200b
5555
efb4
018c
cafe
241b
5555
efb4
014e
cafe
2803
5555
-
efb4
0164
cafe
2c13
5555
efb8
01a1
cafe
300c
5555
efb8
01c8
cafe
341c
5555
efb8
01b1
cafe
3804
5555
efb8
01b0
cafe
3c14
5555
efbc
01a1
cafe
200d
5555
efbc
017f
cafe
241d
5555
efbc
0164
cafe
2805
5555
efbc
01e8
cafe
2c15
5555
efc0
01a4
cafe
300e
5555
efc0
01b6
cafe
341e
5555
efc0
019b
cafe
3806
5555
efc0
0145
cafe
3c16
5555
efc4
0207
cafe
200f
5555
efc4
018b
cafe
241f
5555
efc4
01a5
cafe
2807
5555
efc4
01c1
cafe
2c17
5555
efc8
0167
cafe
3008
5555
efc8
015f
cafe
3418
5555
efc8
01d2
cafe
3800
5555
efc8
01d4
cafe
3c10
5555
efcc
0173
cafe
2009
5555
efcc
00e7
cafe
2419
5555
efcc
0117
cafe
2801
5555
efcc
01b6
cafe
2c11
5555
efd0
01e9
cafe
300a
5555
efd0
00d6
cafe
341a
5555
efd0
015b
cafe
3802
5555
efd0
00e9
cafe
3c12
5555
efd4
0211
cafe
200b
5555
efd4
018d
cafe
241b
5555
efd4
014a
cafe
2803
5555
efd4
0163
cafe
2c13
5555
efd8
01a2
cafe
300c
5555
efd8
01cb
cafe
341c
5555
efd8
01ac
cafe
3804
5555
efd8
01a9
cafe
3c14
5555
efdc
01a7
cafe
200d
5555
efdc
0180
cafe
241d
5555
efdc
0167
cafe
2805
5555
efdc
01ed
cafe
2c15
5555
efe0
01a6
cafe
300e
5555
efe0
01bd
cafe
341e
5555
efe0
019a
cafe
3806
5555
efe0
0144
cafe
3c16
5555
efe4
0201
cafe
200f
5555
efe4
0188
cafe
241f
5555
efe4
01a8
cafe
2807
5555
efe4
01bf
cafe
2c17
5555
efe8
0166
cafe
3008
5555
efe8
015e
cafe
3418
5555
efe8
-
01d1
cafe
3800
5555
efe8
01d7
cafe
3c10
5555
efec
0177
cafe
2009
5555
efec
00ed
cafe
2419
5555
efec
0119
cafe
2801
5555
efec
01b6
cafe
2c11
5555
eff0
01ea
cafe
300a
5555
eff0
00d1
cafe
341a
5555
eff0
0159
cafe
3802
5555
eff0
00ed
cafe
3c12
5555
eff4
0211
cafe
200b
5555
eff4
0187
cafe
241b
5555
eff4
014a
cafe
2803
5555
eff4
0162
cafe
2c13
5555
eff8
01a2
cafe
300c
5555
eff8
01cb
cafe
341c
5555
eff8
01ac
cafe
3804
5555
eff8
01a9
cafe
3c14
5555
effc
019d
cafe
200d
5555
effc
0182
cafe
241d
5555
effc
0167
cafe
2805
5555
effc
01e9
cafe
2c15
5555
f000
01ac
cafe
300e
5555
f000
01ba
cafe
341e
5555
f000
0194
cafe
3806
5555
f000
0143
cafe
3c16
5555
f004
01ff
cafe
200f
5555
f004
0189
cafe
241f
5555
f004
01a7
cafe
2807
5555
f004
01be
cafe
2c17
5555
f008
0166
cafe
3008
5555
f008
0165
cafe
3418
5555
f008
01d2
cafe
3800
5555
f008
01d6
cafe
3c10
5555
f00c
0171
cafe
2009
5555
f00c
00f0
cafe
2419
5555
f00c
011d
cafe
2801
5555
f00c
01b5
cafe
2c11
5555
f010
01e6
cafe
300a
5555
f010
00da
cafe
341a
5555
f010
015c
cafe
3802
5555
f010
00ea
cafe
3c12
5555
f014
0212
cafe
200b
5555
f014
017e
cafe
241b
5555
f014
0141
cafe
2803
5555
f014
0167
cafe
2c13
5555
f018
01a4
cafe
300c
5555
f018
01cb
cafe
341c
5555
f018
01b1
cafe
3804
5555
f018
01aa
cafe
3c14
5555
f01c
0199
cafe
200d
5555
f01c
0186
-
cafe
241d
5555
f01c
0165
cafe
2805
5555
f01c
01e7
cafe
2c15
5555
f020
01a9
cafe
300e
5555
f020
01b9
cafe
341e
5555
f020
0196
cafe
3806
5555
f020
013f
cafe
3c16
5555
f024
0203
cafe
200f
5555
f024
0187
cafe
241f
5555
f024
01a2
cafe
2807
5555
f024
01bc
cafe
2c17
5555
f028
0169
cafe
3008
5555
f028
0162
cafe
3418
5555
f028
01d9
cafe
3800
5555
f028
01d5
cafe
3c10
5555
f02c
0176
cafe
2009
5555
f02c
00ee
cafe
2419
5555
f02c
0113
cafe
2801
5555
f02c
01af
cafe
2c11
5555
f030
01e6
cafe
300a
5555
f030
00d9
cafe
341a
5555
f030
0160
cafe
3802
5555
f030
00e7
cafe
3c12
5555
f034
0214
cafe
200b
5555
f034
0182
cafe
241b
5555
f034
013e
cafe
2803
5555
f034
015e
cafe
2c13
5555
f038
01ab
cafe
300c
5555
f038
01d1
cafe
341c
5555
f038
01aa
cafe
3804
5555
f038
01af
cafe
3c14
5555
f03c
019b
cafe
200d
5555
f03c
0182
cafe
241d
5555
f03c
0163
cafe
2805
5555
f03c
01ec
cafe
2c15
5555
f040
01a6
cafe
300e
5555
f040
01bc
cafe
341e
5555
f040
0197
cafe
3806
5555
f040
0143
cafe
3c16
5555
f044
0200
cafe
200f
5555
f044
0184
cafe
241f
5555
f044
01a1
cafe
2807
5555
f044
01bb
cafe
2c17
5555
f048
0167
cafe
3008
5555
f048
0161
cafe
3418
5555
f048
01da
cafe
3800
5555
f048
01d2
cafe
3c10
5555
f04c
0172
cafe
2009
5555
f04c
00eb
cafe
2419
5555
f04c
010e
cafe
2801
5555
f04c
01b3
cafe
2c11
5555
f050
01e6
cafe
-
300a
5555
f050
00d3
cafe
341a
5555
f050
0160
cafe
3802
5555
f050
00ec
cafe
3c12
5555
f054
0215
cafe
200b
5555
f054
0187
cafe
241b
5555
f054
013f
cafe
2803
5555
f054
015b
cafe
2c13
5555
f058
01aa
cafe
300c
5555
f058
01cc
cafe
341c
5555
f058
01a8
cafe
3804
5555
f058
01ad
cafe
3c14
5555
f05c
019b
cafe
200d
5555
f05c
0186
cafe
241d
5555
f05c
0167
cafe
2805
5555
f05c
01ee
cafe
2c15
5555
f060
01a2
cafe
300e
5555
f060
01c4
cafe
341e
5555
f060
0195
cafe
3806
5555
f060
0148
cafe
3c16
5555
f064
0202
cafe
200f
5555
f064
017c
cafe
241f
5555
f064
01a7
cafe
2807
5555
f064
01bb
cafe
2c17
5555
f068
0169
cafe
3008
5555
f068
015a
cafe
3418
5555
f068
01d9
cafe
3800
5555
f068
01cf
cafe
3c10
5555
f06c
0172
cafe
2009
5555
f06c
00ec
cafe
2419
5555
f06c
0110
cafe
2801
5555
f06c
01b3
cafe
2c11
5555
f070
01ec
cafe
300a
5555
f070
00d4
cafe
341a
5555
f070
015e
cafe
3802
5555
f070
00eb
cafe
3c12
5555
f074
0211
cafe
200b
5555
f074
0183
cafe
241b
5555
f074
013b
cafe
2803
5555
f074
0160
cafe
2c13
5555
f078
01a7
cafe
300c
5555
f078
01d3
cafe
341c
5555
f078
01a6
cafe
3804
5555
f078
01b1
cafe
3c14
5555
f07c
019f
cafe
200d
5555
f07c
017f
cafe
241d
5555
f07c
0161
cafe
2805
5555
f07c
01ea
cafe
2c15
5555
f080
01a4
cafe
300e
5555
f080
01c1
cafe
341e
5555
f080
019a
cafe
3806
5555
f080
0141
cafe
3c16
-
5555
f084
0202
cafe
200f
5555
f084
017c
cafe
241f
5555
f084
01ab
cafe
2807
5555
f084
01bd
cafe
2c17
5555
f088
016b
cafe
3008
5555
f088
015d
cafe
3418
5555
f088
01db
cafe
3800
5555
f088
01d1
cafe
3c10
5555
f08c
0171
cafe
2009
5555
f08c
00ea
cafe
2419
5555
f08c
0110
cafe
2801
5555
f08c
01b0
cafe
2c11
5555
f090
01e8
cafe
300a
5555
f090
00d2
cafe
341a
5555
f090
015b
cafe
3802
5555
f090
00f4
cafe
3c12
5555
f094
0209
cafe
200b
5555
f094
0189
cafe
241b
5555
f094
0139
cafe
2803
5555
f094
015c
cafe
2c13
5555
f098
01ac
cafe
300c
5555
f098
01d2
cafe
341c
5555
f098
01a7
cafe
3804
5555
f098
01af
cafe
3c14
5555
f09c
0199
cafe
200d
5555
f09c
0183
cafe
241d
5555
f09c
0161
cafe
2805
5555
f09c
01ec
cafe
2c15
5555
f0a0
01a8
cafe
300e
5555
f0a0
01c1
cafe
341e
5555
f0a0
019b
cafe
3806
5555
f0a0
0142
cafe
3c16
5555
f0a4
0204
cafe
200f
5555
f0a4
0184
cafe
241f
5555
f0a4
01ac
cafe
2807
5555
f0a4
01bb
cafe
2c17
5555
f0a8
016f
cafe
3008
5555
f0a8
0158
cafe
3418
5555
f0a8
01db
cafe
3800
5555
f0a8
01cf
cafe
3c10
5555
f0ac
016a
cafe
2009
5555
f0ac
00eb
cafe
2419
5555
f0ac
0112
cafe
2801
5555
f0ac
01b0
cafe
2c11
5555
f0b0
01ec
cafe
300a
5555
f0b0
00d2
cafe
341a
5555
f0b0
0156
cafe
3802
5555
f0b0
00fb
cafe
3c12
5555
f0b4
0204
cafe
200b
5555
f0b4
018a
cafe
241b
5555
f0b4
013c
cafe
2803
5555
-
f0b4
015b
cafe
2c13
5555
f0b8
01ae
cafe
300c
5555
f0b8
01d7
cafe
341c
5555
f0b8
01a8
cafe
3804
5555
f0b8
01b1
cafe
3c14
5555
f0bc
019d
cafe
200d
5555
f0bc
0184
cafe
241d
5555
f0bc
0162
cafe
2805
5555
f0bc
01e9
cafe
2c15
5555
f0c0
01a3
cafe
300e
5555
f0c0
01c2
cafe
341e
5555
f0c0
019c
cafe
3806
5555
f0c0
0144
cafe
3c16
5555
f0c4
0201
cafe
200f
5555
f0c4
017f
cafe
241f
5555
f0c4
01a8
cafe
2807
5555
f0c4
01ba
cafe
2c17
5555
f0c8
016a
cafe
3008
5555
f0c8
0156
cafe
3418
5555
f0c8
01de
cafe
3800
5555
f0c8
01ca
cafe
3c10
5555
f0cc
0166
cafe
2009
5555
f0cc
00ef
cafe
2419
5555
f0cc
0112
cafe
2801
5555
f0cc
01b5
cafe
2c11
5555
f0d0
01f0
cafe
300a
5555
f0d0
00d6
cafe
341a
5555
f0d0
0153
cafe
3802
5555
f0d0
00f8
cafe
3c12
5555
f0d4
0203
cafe
200b
5555
f0d4
018a
cafe
241b
5555
f0d4
0138
cafe
2803
5555
f0d4
0158
cafe
2c13
5555
f0d8
01b0
cafe
300c
5555
f0d8
01d4
cafe
341c
5555
f0d8
01a7
cafe
3804
5555
f0d8
01b6
cafe
3c14
5555
f0dc
019d
cafe
200d
5555
f0dc
0181
cafe
241d
5555
f0dc
0164
cafe
2805
5555
f0dc
01e6
cafe
2c15
5555
f0e0
01a5
cafe
300e
5555
f0e0
01c4
cafe
341e
5555
f0e0
019c
cafe
3806
5555
f0e0
013e
cafe
3c16
5555
f0e4
0201
cafe
200f
5555
f0e4
017c
cafe
241f
5555
f0e4
01ad
cafe
2807
5555
f0e4
01bf
cafe
2c17
5555
f0e8
016a
cafe
3008
5555
f0e8
0155
cafe
3418
5555
f0e8
-
01e0
cafe
3800
5555
f0e8
01c7
cafe
3c10
5555
f0ec
0161
cafe
2009
5555
f0ec
00f0
cafe
2419
5555
f0ec
010c
cafe
2801
5555
f0ec
01b7
cafe
2c11
5555
f0f0
01ee
cafe
300a
5555
f0f0
00d7
cafe
341a
5555
f0f0
0159
cafe
3802
5555
f0f0
00f7
cafe
3c12
5555
f0f4
0204
cafe
200b
5555
f0f4
018e
cafe
241b
5555
f0f4
013a
cafe
2803
5555
f0f4
015a
cafe
2c13
5555
f0f8
01b1
cafe
300c
5555
f0f8
01cd
cafe
341c
5555
f0f8
01a4
cafe
3804
5555
f0f8
01b7
cafe
3c14
5555
f0fc
01a2
cafe
200d
5555
f0fc
0180
cafe
241d
5555
f0fc
0164
cafe
2805
5555
f0fc
01e2
cafe
2c15
5555
f100
01a0
cafe
300e
5555
f100
01c5
cafe
341e
5555
f100
019c
cafe
3806
5555
f100
0139
cafe
3c16
5555
f104
01fb
cafe
200f
5555
f104
017f
cafe
241f
5555
f104
01a9
cafe
2807
5555
f104
01b6
cafe
2c17
5555
f108
0170
cafe
3008
5555
f108
0156
cafe
3418
5555
f108
01e1
cafe
3800
5555
f108
01ce
cafe
3c10
5555
f10c
0161
cafe
2009
5555
f10c
00ee
cafe
2419
5555
f10c
0110
cafe
2801
5555
f10c
01b2
cafe
2c11
5555
f110
01e8
cafe
300a
5555
f110
00d7
cafe
341a
5555
f110
0158
cafe
3802
5555
f110
00f3
cafe
3c12
5555
f114
0205
cafe
200b
5555
f114
018d
cafe
241b
5555
f114
013d
cafe
2803
5555
f114
015b
cafe
2c13
5555
f118
01b0
cafe
300c
5555
f118
01ca
cafe
341c
5555
f118
019e
cafe
3804
5555
f118
01b1
cafe
3c14
5555
f11c
01a0
cafe
200d
5555
f11c
0183
-
cafe
241d
5555
f11c
0166
cafe
2805
5555
f11c
01e3
cafe
2c15
5555
f120
01a3
cafe
300e
5555
f120
01c7
cafe
341e
5555
f120
019f
cafe
3806
5555
f120
013d
cafe
3c16
5555
f124
01fd
cafe
200f
5555
f124
0184
cafe
241f
5555
f124
01ac
cafe
2807
5555
f124
01b7
cafe
2c17
5555
f128
0172
cafe
3008
5555
f128
0151
cafe
3418
5555
f128
01df
cafe
3800
5555
f128
01cf
cafe
3c10
5555
f12c
0163
cafe
2009
5555
f12c
00f0
cafe
2419
5555
f12c
0112
cafe
2801
5555
f12c
01b1
cafe
2c11
5555
f130
01eb
cafe
300a
5555
f130
00df
cafe
341a
5555
f130
0154
cafe
3802
5555
f130
00ee
cafe
3c12
5555
f134
0204
cafe
200b
5555
f134
018a
cafe
241b
5555
f134
0138
cafe
2803
5555
f134
0158
cafe
2c13
5555
f138
01ad
cafe
300c
5555
f138
01c6
cafe
341c
5555
f138
019d
cafe
3804
5555
f138
01b2
cafe
3c14
5555
f13c
01a0
cafe
200d
5555
f13c
017f
cafe
241d
5555
f13c
0167
cafe
2805
5555
f13c
01e2
cafe
2c15
5555
f140
01a4
cafe
300e
5555
f140
01cb
cafe
341e
5555
f140
01a2
cafe
3806
5555
f140
0140
cafe
3c16
5555
f144
0203
cafe
200f
5555
f144
017f
cafe
241f
5555
f144
01ad
cafe
2807
5555
f144
01ae
cafe
2c17
5555
f148
016c
cafe
3008
5555
f148
0150
cafe
3418
5555
f148
01e1
cafe
3800
5555
f148
01c9
cafe
3c10
5555
f14c
016a
cafe
2009
5555
f14c
00f0
cafe
2419
5555
f14c
0112
cafe
2801
5555
f14c
01b6
cafe
2c11
5555
f150
01e1
cafe
-
300a
5555
f150
00d9
cafe
341a
5555
f150
0156
cafe
3802
5555
f150
00e9
cafe
3c12
5555
f154
0209
cafe
200b
5555
f154
0189
cafe
241b
5555
f154
0131
cafe
2803
5555
f154
015d
cafe
2c13
5555
f158
01b0
cafe
300c
5555
f158
01c4
cafe
341c
5555
f158
01a2
cafe
3804
5555
f158
01ac
cafe
3c14
5555
f15c
019c
cafe
200d
5555
f15c
017f
cafe
241d
5555
f15c
0166
cafe
2805
5555
f15c
01e7
cafe
2c15
5555
f160
01ab
cafe
300e
5555
f160
01ce
cafe
341e
5555
f160
01a6
cafe
3806
5555
f160
0145
cafe
3c16
5555
f164
0202
cafe
200f
5555
f164
017f
cafe
241f
5555
f164
01a8
cafe
2807
5555
f164
01aa
cafe
2c17
5555
f168
016b
cafe
3008
5555
f168
014b
cafe
3418
5555
f168
01e7
cafe
3800
5555
f168
01c9
cafe
3c10
5555
f16c
016d
cafe
2009
5555
f16c
00f7
cafe
2419
5555
f16c
010e
cafe
2801
5555
f16c
01b3
cafe
2c11
5555
f170
01e2
cafe
300a
5555
f170
00d5
cafe
341a
5555
f170
0154
cafe
3802
5555
f170
00e5
cafe
3c12
5555
f174
0204
cafe
200b
5555
f174
018f
cafe
241b
5555
f174
0132
cafe
2803
5555
f174
0164
cafe
2c13
5555
f178
01ab
cafe
300c
5555
f178
01c7
cafe
341c
5555
f178
01a5
cafe
3804
5555
f178
01ac
cafe
3c14
5555
f17c
019b
cafe
200d
5555
f17c
01b7
cafe
241d
5555
f17c
019c
cafe
2805
5555
f17c
021e
cafe
2c15
5555
f180
01dc
cafe
300e
5555
f180
0295
cafe
341e
5555
f180
026b
cafe
3806
5555
f180
020d
cafe
3c16
-
5555
f184
02c8
cafe
200f
5555
f184
02dc
cafe
241f
5555
f184
0304
cafe
2807
5555
f184
0303
cafe
2c17
5555
f188
02c5
cafe
3008
5555
f188
0336
cafe
3418
5555
f188
03cd
cafe
3800
5555
f188
03ae
cafe
3c10
5555
f18c
035a
cafe
2009
5555
f18c
0354
cafe
2419
5555
f18c
036f
cafe
2801
5555
f18c
040c
cafe
2c11
5555
f190
0445
cafe
300a
5555
f190
03af
cafe
341a
5555
f190
042a
cafe
3802
5555
f190
03b4
cafe
3c12
5555
f194
04e1
cafe
200b
5555
f194
04d1
cafe
241b
5555
f194
0465
cafe
2803
5555
f194
0492
cafe
2c13
5555
f198
04e4
cafe
300c
5555
f198
0564
cafe
341c
5555
f198
053a
cafe
3804
5555
f198
054b
cafe
3c14
5555
f19c
053b
cafe
200d
5555
f19c
0576
cafe
241d
5555
f19c
0546
cafe
2805
5555
f19c
05cc
cafe
2c15
5555
f1a0
0591
cafe
300e
5555
f1a0
0619
cafe
341e
5555
f1a0
05e0
cafe
3806
5555
f1a0
0581
cafe
3c16
5555
f1a4
063b
cafe
200f
5555
f1a4
060b
cafe
241f
5555
f1a4
062f
cafe
2807
5555
f1a4
0630
cafe
2c17
5555
f1a8
05e5
cafe
3008
5555
f1a8
0620
cafe
3418
5555
f1a8
06ae
cafe
3800
5555
f1a8
06a0
cafe
3c10
5555
f1ac
0643
cafe
2009
5555
f1ac
05fe
cafe
2419
5555
f1ac
0616
cafe
2801
5555
f1ac
06bb
cafe
2c11
5555
f1b0
06ef
cafe
300a
5555
f1b0
0617
cafe
341a
5555
f1b0
0696
cafe
3802
5555
f1b0
0627
cafe
3c12
5555
f1b4
074f
cafe
200b
5555
f1b4
070f
cafe
241b
5555
f1b4
06a0
cafe
2803
5555
-
f1b4
06cc
cafe
2c13
5555
f1b8
071b
cafe
300c
5555
f1b8
0771
cafe
341c
5555
f1b8
0749
cafe
3804
5555
f1b8
075d
cafe
3c14
5555
f1bc
0746
cafe
200d
5555
f1bc
0757
cafe
241d
5555
f1bc
0722
cafe
2805
5555
f1bc
07b1
cafe
2c15
5555
f1c0
0778
cafe
300e
5555
f1c0
07da
cafe
341e
5555
f1c0
079f
cafe
3806
5555
f1c0
0736
cafe
3c16
5555
f1c4
07f5
cafe
200f
5555
f1c4
07ab
cafe
241f
5555
f1c4
07c8
cafe
2807
5555
f1c4
07cf
cafe
2c17
5555
f1c8
0776
cafe
3008
5555
f1c8
078c
cafe
3418
5555
f1c8
0819
cafe
3800
5555
f1c8
0819
cafe
3c10
5555
f1cc
07b1
cafe
2009
5555
f1cc
0745
cafe
2419
5555
f1cc
076e
cafe
2801
5555
f1cc
0814
cafe
2c11
5555
f1d0
083f
cafe
300a
5555
f1d0
0749
cafe
341a
5555
f1d0
07ce
cafe
3802
5555
f1d0
075c
cafe
3c12
5555
f1d4
088d
cafe
200b
5555
f1d4
0829
cafe
241b
5555
f1d4
07c1
cafe
2803
5555
f1d4
07ea
cafe
2c13
5555
f1d8
082d
cafe
300c
5555
f1d8
086d
cafe
341c
5555
f1d8
084e
cafe
3804
5555
f1d8
0860
cafe
3c14
5555
f1dc
0844
cafe
200d
5555
f1dc
0841
cafe
241d
5555
f1dc
0810
cafe
2805
5555
f1dc
089f
cafe
2c15
5555
f1e0
0860
cafe
300e
5555
f1e0
08b2
cafe
341e
5555
f1e0
087f
cafe
3806
5555
f1e0
080f
cafe
3c16
5555
f1e4
08ce
cafe
200f
5555
f1e4
0878
cafe
241f
5555
f1e4
0890
cafe
2807
5555
f1e4
0897
cafe
2c17
5555
f1e8
083e
cafe
3008
5555
f1e8
0842
cafe
3418
5555
f1e8
-
08cc
cafe
3800
5555
f1e8
08ca
cafe
3c10
5555
f1ec
085f
cafe
2009
5555
f1ec
07e2
cafe
2419
5555
f1ec
080c
cafe
2801
5555
f1ec
08ba
cafe
2c11
5555
f1f0
08db
cafe
300a
5555
f1f0
07d7
cafe
341a
5555
f1f0
0869
cafe
3802
5555
f1f0
07e7
cafe
3c12
5555
f1f4
091c
cafe
200b
5555
f1f4
08af
cafe
241b
5555
f1f4
0847
cafe
2803
5555
f1f4
0871
cafe
2c13
5555
f1f8
08b0
cafe
300c
5555
f1f8
08e8
cafe
341c
5555
f1f8
08c7
cafe
3804
5555
f1f8
08e3
cafe
3c14
5555
f1fc
08bb
cafe
200d
5555
f1fc
08aa
cafe
241d
5555
f1fc
0882
cafe
2805
5555
f1fc
090e
cafe
2c15
5555
f200
08c8
cafe
300e
5555
f200
0908
cafe
341e
5555
f200
08e3
cafe
3806
5555
f200
086d
cafe
3c16
5555
f204
092e
cafe
200f
5555
f204
08ca
cafe
241f
5555
f204
08ee
cafe
2807
5555
f204
08eb
cafe
2c17
5555
f208
0891
cafe
3008
5555
f208
0893
cafe
3418
5555
f208
091d
cafe
3800
5555
f208
0918
cafe
3c10
5555
f20c
08ab
cafe
2009
5555
f20c
0823
cafe
2419
5555
f20c
0852
cafe
2801
5555
f20c
0904
cafe
2c11
5555
f210
0920
cafe
300a
5555
f210
0813
cafe
341a
5555
f210
08ac
cafe
3802
5555
f210
081e
cafe
3c12
5555
f214
0960
cafe
200b
5555
f214
08e5
cafe
241b
5555
f214
0882
cafe
2803
5555
f214
08b0
cafe
2c13
5555
f218
08f4
cafe
300c
5555
f218
0923
cafe
341c
5555
f218
0903
cafe
3804
5555
f218
0914
cafe
3c14
5555
f21c
08f2
cafe
200d
5555
f21c
08da
-
cafe
241d
5555
f21c
08b6
cafe
2805
5555
f21c
0941
cafe
2c15
5555
f220
08f3
cafe
300e
5555
f220
0938
cafe
341e
5555
f220
090b
cafe
3806
5555
f220
0892
cafe
3c16
5555
f224
0954
cafe
200f
5555
f224
08f0
cafe
241f
5555
f224
0914
cafe
2807
5555
f224
090f
cafe
2c17
5555
f228
08b7
cafe
3008
5555
f228
08b3
cafe
3418
5555
f228
0941
cafe
3800
5555
f228
093a
cafe
3c10
5555
f22c
08c7
cafe
2009
5555
f22c
083c
cafe
2419
5555
f22c
0868
cafe
2801
5555
f22c
0917
cafe
2c11
5555
f230
0936
cafe
300a
5555
f230
082b
cafe
341a
5555
f230
08b9
cafe
3802
5555
f230
082e
cafe
3c12
5555
f234
097a
cafe
200b
5555
f234
08f4
cafe
241b
5555
f234
0894
cafe
2803
5555
f234
08c4
cafe
2c13
5555
f238
0907
cafe
300c
5555
f238
0930
cafe
341c
5555
f238
0914
cafe
3804
5555
f238
0924
cafe
3c14
5555
f23c
0901
cafe
200d
5555
f23c
08ed
cafe
241d
5555
f23c
08c0
cafe
2805
5555
f23c
094e
cafe
2c15
5555
f240
08fd
cafe
300e
5555
f240
0943
cafe
341e
5555
f240
0915
cafe
3806
5555
f240
089d
cafe
3c16
5555
f244
0961
cafe
200f
5555
f244
0900
cafe
241f
5555
f244
091f
cafe
2807
5555
f244
091d
cafe
2c17
5555
f248
08c2
cafe
3008
5555
f248
08b8
cafe
3418
5555
f248
0945
cafe
3800
5555
f248
093b
cafe
3c10
5555
f24c
08c6
cafe
2009
5555
f24c
0839
cafe
2419
5555
f24c
0863
cafe
2801
5555
f24c
091d
cafe
2c11
5555
f250
0933
cafe
-
300a
5555
f250
0824
cafe
341a
5555
f250
08b5
cafe
3802
5555
f250
082a
cafe
3c12
5555
f254
0976
cafe
200b
5555
f254
08e9
cafe
241b
5555
f254
0893
cafe
2803
5555
f254
08bc
cafe
2c13
5555
f258
0900
cafe
300c
5555
f258
092a
cafe
341c
5555
f258
090d
cafe
3804
5555
f258
091f
cafe
3c14
5555
f25c
08f9
cafe
200d
5555
f25c
08e2
cafe
241d
5555
f25c
08b8
cafe
2805
5555
f25c
0948
cafe
2c15
5555
f260
08f8
cafe
300e
5555
f260
0935
cafe
341e
5555
f260
090d
cafe
3806
5555
f260
0896
cafe
3c16
5555
f264
095e
cafe
200f
5555
f264
08fe
cafe
241f
5555
f264
091a
cafe
2807
5555
f264
091a
cafe
2c17
5555
f268
08b6
cafe
3008
5555
f268
08af
cafe
3418
5555
f268
0941
cafe
3800
5555
f268
092e
cafe
3c10
5555
f26c
08bf
cafe
2009
5555
f26c
0830
cafe
2419
5555
f26c
0859
cafe
2801
5555
f26c
0912
cafe
2c11
5555
f270
093a
cafe
300a
5555
f270
0817
cafe
341a
5555
f270
08a4
cafe
3802
5555
f270
0820
cafe
3c12
5555
f274
0977
cafe
200b
5555
f274
08d3
cafe
241b
5555
f274
088a
cafe
2803
5555
f274
08ad
cafe
2c13
5555
f278
08ed
cafe
300c
5555
f278
0922
cafe
341c
5555
f278
08fa
cafe
3804
5555
f278
090f
cafe
3c14
5555
f27c
08e9
cafe
200d
5555
f27c
08cf
cafe
241d
5555
f27c
08b3
cafe
2805
5555
f27c
0938
cafe
2c15
5555
f280
08e4
cafe
300e
5555
f280
0927
cafe
341e
5555
f280
08f3
cafe
3806
5555
f280
088b
cafe
3c16
-
5555
f284
0952
cafe
200f
5555
f284
08e8
cafe
241f
5555
f284
090b
cafe
2807
5555
f284
0909
cafe
2c17
5555
f288
08a5
cafe
3008
5555
f288
089d
cafe
3418
5555
f288
0930
cafe
3800
5555
f288
091e
cafe
3c10
5555
f28c
08b0
cafe
2009
5555
f28c
081d
cafe
2419
5555
f28c
084b
cafe
2801
5555
f28c
0904
cafe
2c11
5555
f290
092e
cafe
300a
5555
f290
0807
cafe
341a
5555
f290
0890
cafe
3802
5555
f290
080d
cafe
3c12
5555
f294
096a
cafe
200b
5555
f294
08c4
cafe
241b
5555
f294
087b
cafe
2803
5555
f294
089c
cafe
2c13
5555
f298
08d7
cafe
300c
5555
f298
0918
cafe
341c
5555
f298
08e9
cafe
3804
5555
f298
08ff
cafe
3c14
5555
f29c
08d9
cafe
200d
5555
f29c
08bb
cafe
241d
5555
f29c
089d
cafe
2805
5555
f29c
0922
cafe
2c15
5555
f2a0
08d7
cafe
300e
5555
f2a0
0910
cafe
341e
5555
f2a0
08de
cafe
3806
5555
f2a0
0878
cafe
3c16
5555
f2a4
093f
cafe
200f
5555
f2a4
08d3
cafe
241f
5555
f2a4
08f5
cafe
2807
5555
f2a4
08f1
cafe
2c17
5555
f2a8
0884
cafe
3008
5555
f2a8
0884
cafe
3418
5555
f2a8
0912
cafe
3800
5555
f2a8
0908
cafe
3c10
5555
f2ac
0895
cafe
2009
5555
f2ac
0803
cafe
2419
5555
f2ac
0834
cafe
2801
5555
f2ac
08f3
cafe
2c11
5555
f2b0
091a
cafe
300a
5555
f2b0
07ef
cafe
341a
5555
f2b0
087d
cafe
3802
5555
f2b0
07fb
cafe
3c12
5555
f2b4
0956
cafe
200b
5555
f2b4
08b4
cafe
241b
5555
f2b4
0861
cafe
2803
5555
-
f2b4
0880
cafe
2c13
5555
f2b8
08be
cafe
300c
5555
f2b8
0900
cafe
341c
5555
f2b8
08d9
cafe
3804
5555
f2b8
08ec
cafe
3c14
5555
f2bc
08cb
cafe
200d
5555
f2bc
08a6
cafe
241d
5555
f2bc
0887
cafe
2805
5555
f2bc
090b
cafe
2c15
5555
f2c0
08c1
cafe
300e
5555
f2c0
08fc
cafe
341e
5555
f2c0
08c3
cafe
3806
5555
f2c0
085f
cafe
3c16
5555
f2c4
092e
cafe
200f
5555
f2c4
08be
cafe
241f
5555
f2c4
08d9
cafe
2807
5555
f2c4
08db
cafe
2c17
5555
f2c8
086d
cafe
3008
5555
f2c8
0869
cafe
3418
5555
f2c8
0903
cafe
3800
5555
f2c8
08e7
cafe
3c10
5555
f2cc
0878
cafe
2009
5555
f2cc
07eb
cafe
2419
5555
f2cc
0819
cafe
2801
5555
f2cc
08de
cafe
2c11
5555
f2d0
0903
cafe
300a
5555
f2d0
07d4
cafe
341a
5555
f2d0
0868
cafe
3802
5555
f2d0
07ea
cafe
3c12
5555
f2d4
0944
cafe
200b
5555
f2d4
089a
cafe
241b
5555
f2d4
0848
cafe
2803
5555
f2d4
0861
cafe
2c13
5555
f2d8
08a9
cafe
300c
5555
f2d8
08e7
cafe
341c
5555
f2d8
08c6
cafe
3804
5555
f2d8
08d8
cafe
3c14
5555
f2dc
08b4
cafe
200d
5555
f2dc
0890
cafe
241d
5555
f2dc
0867
cafe
2805
5555
f2dc
08f3
cafe
2c15
5555
f2e0
08ad
cafe
300e
5555
f2e0
08e8
cafe
341e
5555
f2e0
08b0
cafe
3806
5555
f2e0
084b
cafe
3c16
5555
f2e4
0915
cafe
200f
5555
f2e4
08af
cafe
241f
5555
f2e4
08bd
cafe
2807
5555
f2e4
08c2
cafe
2c17
5555
f2e8
085b
cafe
3008
5555
f2e8
0859
cafe
3418
5555
f2e8
-
08ed
cafe
3800
5555
f2e8
08d6
cafe
3c10
5555
f2ec
085f
cafe
2009
5555
f2ec
07cd
cafe
2419
5555
f2ec
0802
cafe
2801
5555
f2ec
08c7
cafe
2c11
5555
f2f0
08e9
cafe
300a
5555
f2f0
07b9
cafe
341a
5555
f2f0
0852
cafe
3802
5555
f2f0
07c7
cafe
3c12
5555
f2f4
0924
cafe
200b
5555
f2f4
0878
cafe
241b
5555
f2f4
082f
cafe
2803
5555
f2f4
084a
cafe
2c13
5555
f2f8
088e
cafe
300c
5555
f2f8
08d1
cafe
341c
5555
f2f8
08b1
cafe
3804
5555
f2f8
08bc
cafe
3c14
5555
f2fc
089b
cafe
200d
5555
f2fc
0878
cafe
241d
5555
f2fc
0849
cafe
2805
5555
f2fc
08dd
cafe
2c15
5555
f300
0892
cafe
300e
5555
f300
08cb
cafe
341e
5555
f300
0892
cafe
3806
5555
f300
082d
cafe
3c16
5555
f304
08f7
cafe
200f
5555
f304
0895
cafe
241f
5555
f304
08a4
cafe
2807
5555
f304
08ad
cafe
2c17
5555
f308
083c
cafe
3008
5555
f308
0847
cafe
3418
5555
f308
08c6
cafe
3800
5555
f308
08c0
cafe
3c10
5555
f30c
084e
cafe
2009
5555
f30c
07b4
cafe
2419
5555
f30c
07ef
cafe
2801
5555
f30c
08b3
cafe
2c11
5555
f310
08d6
cafe
300a
5555
f310
079d
cafe
341a
5555
f310
083f
cafe
3802
5555
f310
07a9
cafe
3c12
5555
f314
090b
cafe
200b
5555
f314
0865
cafe
241b
5555
f314
0820
cafe
2803
5555
f314
0833
cafe
2c13
5555
f318
0875
cafe
300c
5555
f318
08b8
cafe
341c
5555
f318
0899
cafe
3804
5555
f318
08a0
cafe
3c14
5555
f31c
0885
cafe
200d
5555
f31c
085e
-
cafe
241d
5555
f31c
0834
cafe
2805
5555
f31c
08c5
cafe
2c15
5555
f320
0879
cafe
300e
5555
f320
08b5
cafe
341e
5555
f320
0875
cafe
3806
5555
f320
0816
cafe
3c16
5555
f324
08e1
cafe
200f
5555
f324
087c
cafe
241f
5555
f324
0893
cafe
2807
5555
f324
089a
cafe
2c17
5555
f328
0828
cafe
3008
5555
f328
082c
cafe
3418
5555
f328
08a9
cafe
3800
5555
f328
08a8
cafe
3c10
5555
f32c
083d
cafe
2009
5555
f32c
079b
cafe
2419
5555
f32c
07d5
cafe
2801
5555
f32c
089a
cafe
2c11
5555
f330
08bc
cafe
300a
5555
f330
0785
cafe
341a
5555
f330
0825
cafe
3802
5555
f330
078a
cafe
3c12
5555
f334
08f7
cafe
200b
5555
f334
084e
cafe
241b
5555
f334
0809
cafe
2803
5555
f334
0822
cafe
2c13
5555
f338
0855
cafe
300c
5555
f338
08a6
cafe
341c
5555
f338
0877
cafe
3804
5555
f338
088a
cafe
3c14
5555
f33c
0873
cafe
200d
5555
f33c
0849
cafe
241d
5555
f33c
081c
cafe
2805
5555
f33c
08b9
cafe
2c15
5555
f340
085e
cafe
300e
5555
f340
089a
cafe
341e
5555
f340
0858
cafe
3806
5555
f340
07ff
cafe
3c16
5555
f344
08d1
cafe
200f
5555
f344
086a
cafe
241f
5555
f344
087c
cafe
2807
5555
f344
0883
cafe
2c17
5555
f348
080d
cafe
3008
5555
f348
0814
cafe
3418
5555
f348
0888
cafe
3800
5555
f348
088f
cafe
3c10
5555
f34c
0821
cafe
2009
5555
f34c
0785
cafe
2419
5555
f34c
07bb
cafe
2801
5555
f34c
087e
cafe
2c11
5555
f350
08a4
cafe
-
300a
5555
f350
076c
cafe
341a
5555
f350
0809
cafe
3802
5555
f350
0771
cafe
3c12
5555
f354
08dc
cafe
200b
5555
f354
0838
cafe
241b
5555
f354
07f1
cafe
2803
5555
f354
0807
cafe
2c13
5555
f358
083d
cafe
300c
5555
f358
0894
cafe
341c
5555
f358
0865
cafe
3804
5555
f358
0871
cafe
3c14
5555
f35c
085f
cafe
200d
5555
f35c
0834
cafe
241d
5555
f35c
0802
cafe
2805
5555
f35c
08a6
cafe
2c15
5555
f360
0851
cafe
300e
5555
f360
0887
cafe
341e
5555
f360
083b
cafe
3806
5555
f360
07e6
cafe
3c16
5555
f364
08bb
cafe
200f
5555
f364
0851
cafe
241f
5555
f364
086c
cafe
2807
5555
f364
086b
cafe
2c17
5555
f368
07eb
cafe
3008
5555
f368
07f9
cafe
3418
5555
f368
0872
cafe
3800
5555
f368
087a
cafe
3c10
5555
f36c
0807
cafe
2009
5555
f36c
0768
cafe
2419
5555
f36c
07a2
cafe
2801
5555
f36c
0865
cafe
2c11
5555
f370
088b
cafe
300a
5555
f370
074c
cafe
341a
5555
f370
07ee
cafe
3802
5555
f370
0756
cafe
3c12
5555
f374
08c2
cafe
200b
5555
f374
081f
cafe
241b
5555
f374
07d9
cafe
2803
5555
f374
07ee
cafe
2c13
5555
f378
081f
cafe
300c
5555
f378
0880
cafe
341c
5555
f378
084f
cafe
3804
5555
f378
0859
cafe
3c14
5555
f37c
0849
cafe
200d
5555
f37c
081c
cafe
241d
5555
f37c
07e8
cafe
2805
5555
f37c
088d
cafe
2c15
5555
f380
083f
cafe
300e
5555
f380
0872
cafe
341e
5555
f380
0823
cafe
3806
5555
f380
07c7
cafe
3c16
-
5555
f384
08a3
cafe
200f
5555
f384
0838
cafe
241f
5555
f384
0858
cafe
2807
5555
f384
0855
cafe
2c17
5555
f388
07d7
cafe
3008
5555
f388
07df
cafe
3418
5555
f388
085d
cafe
3800
5555
f388
085c
cafe
3c10
5555
f38c
07f1
cafe
2009
5555
f38c
0752
cafe
2419
5555
f38c
078c
cafe
2801
5555
f38c
084c
cafe
2c11
5555
f390
0874
cafe
300a
5555
f390
0734
cafe
341a
5555
f390
07d7
cafe
3802
5555
f390
073a
cafe
3c12
5555
f394
08af
cafe
200b
5555
f394
0805
cafe
241b
5555
f394
07be
cafe
2803
5555
f394
07d8
cafe
2c13
5555
f398
0808
cafe
300c
5555
f398
0871
cafe
341c
5555
f398
0840
cafe
3804
5555
f398
0847
cafe
3c14
5555
f39c
0835
cafe
200d
5555
f39c
0800
cafe
241d
5555
f39c
07cc
cafe
2805
5555
f39c
0877
cafe
2c15
5555
f3a0
0821
cafe
300e
5555
f3a0
0858
cafe
341e
5555
f3a0
0808
cafe
3806
5555
f3a0
07af
cafe
3c16
5555
f3a4
088e
cafe
200f
5555
f3a4
0822
cafe
241f
5555
f3a4
083f
cafe
2807
5555
f3a4
083e
cafe
2c17
5555
f3a8
07b9
cafe
3008
5555
f3a8
07c4
cafe
3418
5555
f3a8
0846
cafe
3800
5555
f3a8
084c
cafe
3c10
5555
f3ac
07d9
cafe
2009
5555
f3ac
073a
cafe
2419
5555
f3ac
0776
cafe
2801
5555
f3ac
082e
cafe
2c11
5555
f3b0
0861
cafe
300a
5555
f3b0
071d
cafe
341a
5555
f3b0
07c1
cafe
3802
5555
f3b0
071b
cafe
3c12
5555
f3b4
089c
cafe
200b
5555
f3b4
07ed
cafe
241b
5555
f3b4
07a5
cafe
2803
5555
-
f3b4
07c2
cafe
2c13
5555
f3b8
07f1
cafe
300c
5555
f3b8
0856
cafe
341c
5555
f3b8
0828
cafe
3804
5555
f3b8
0835
cafe
3c14
5555
f3bc
0822
cafe
200d
5555
f3bc
07e6
cafe
241d
5555
f3bc
07b5
cafe
2805
5555
f3bc
0855
cafe
2c15
5555
f3c0
0805
cafe
300e
5555
f3c0
083c
cafe
341e
5555
f3c0
07ea
cafe
3806
5555
f3c0
0793
cafe
3c16
5555
f3c4
087b
cafe
200f
5555
f3c4
080e
cafe
241f
5555
f3c4
0827
cafe
2807
5555
f3c4
0829
cafe
2c17
5555
f3c8
07a1
cafe
3008
5555
f3c8
07b5
cafe
3418
5555
f3c8
082c
cafe
3800
5555
f3c8
0838
cafe
3c10
5555
f3cc
07bf
cafe
2009
5555
f3cc
0722
cafe
2419
5555
f3cc
0764
cafe
2801
5555
f3cc
081a
cafe
2c11
5555
f3d0
0851
cafe
300a
5555
f3d0
0709
cafe
341a
5555
f3d0
07a9
cafe
3802
5555
f3d0
0703
cafe
3c12
5555
f3d4
0882
cafe
200b
5555
f3d4
07d3
cafe
241b
5555
f3d4
078e
cafe
2803
5555
f3d4
07ab
cafe
2c13
5555
f3d8
07d6
cafe
300c
5555
f3d8
0839
cafe
341c
5555
f3d8
0814
cafe
3804
5555
f3d8
081f
cafe
3c14
5555
f3dc
080e
cafe
200d
5555
f3dc
07d1
cafe
241d
5555
f3dc
079e
cafe
2805
5555
f3dc
083b
cafe
2c15
5555
f3e0
07ef
cafe
300e
5555
f3e0
0825
cafe
341e
5555
f3e0
07d5
cafe
3806
5555
f3e0
077b
cafe
3c16
5555
f3e4
0865
cafe
200f
5555
f3e4
0800
cafe
241f
5555
f3e4
0815
cafe
2807
5555
f3e4
0812
cafe
2c17
5555
f3e8
078a
cafe
3008
5555
f3e8
07a0
cafe
3418
5555
f3e8
-
0820
cafe
3800
5555
f3e8
081e
cafe
3c10
5555
f3ec
07a5
cafe
2009
5555
f3ec
0705
cafe
2419
5555
f3ec
074b
cafe
2801
5555
f3ec
0805
cafe
2c11
5555
f3f0
0838
cafe
300a
5555
f3f0
06f4
cafe
341a
5555
f3f0
0792
cafe
3802
5555
f3f0
06ec
cafe
3c12
5555
f3f4
0870
cafe
200b
5555
f3f4
07b8
cafe
241b
5555
f3f4
0770
cafe
2803
5555
f3f4
078e
cafe
2c13
5555
f3f8
07bf
cafe
300c
5555
f3f8
0822
cafe
341c
5555
f3f8
07fe
cafe
3804
5555
f3f8
0808
cafe
3c14
5555
f3fc
07f4
cafe
200d
5555
f3fc
07bc
cafe
241d
5555
f3fc
0784
cafe
2805
5555
f3fc
0827
cafe
2c15
5555
f400
07dc
cafe
300e
5555
f400
080f
cafe
341e
5555
f400
07be
cafe
3806
5555
f400
0765
cafe
3c16
5555
f404
0849
cafe
200f
5555
f404
07e6
cafe
241f
5555
f404
07f9
cafe
2807
5555
f404
07f5
cafe
2c17
5555
f408
0777
cafe
3008
5555
f408
078a
cafe
3418
5555
f408
0806
cafe
3800
5555
f408
080f
cafe
3c10
5555
f40c
078b
cafe
2009
5555
f40c
06ee
cafe
2419
5555
f40c
0730
cafe
2801
5555
f40c
07ef
cafe
2c11
5555
f410
0823
cafe
300a
5555
f410
06d5
cafe
341a
5555
f410
077e
cafe
3802
5555
f410
06cf
cafe
3c12
5555
f414
085b
cafe
200b
5555
f414
07a1
cafe
241b
5555
f414
0754
cafe
2803
5555
f414
0775
cafe
2c13
5555
f418
07a6
cafe
300c
5555
f418
0808
cafe
341c
5555
f418
07e6
cafe
3804
5555
f418
07e9
cafe
3c14
5555
f41c
07d7
cafe
200d
5555
f41c
079d
-
cafe
241d
5555
f41c
0766
cafe
2805
5555
f41c
0811
cafe
2c15
5555
f420
07c0
cafe
300e
5555
f420
07fe
cafe
341e
5555
f420
07a6
cafe
3806
5555
f420
0757
cafe
3c16
5555
f424
0834
cafe
200f
5555
f424
07df
cafe
241f
5555
f424
07dd
cafe
2807
5555
f424
07e1
cafe
2c17
5555
f428
076b
cafe
3008
5555
f428
0781
cafe
3418
5555
f428
07fb
cafe
3800
5555
f428
07f9
cafe
3c10
5555
f42c
0780
cafe
2009
5555
f42c
06dd
cafe
2419
5555
f42c
071c
cafe
2801
5555
f42c
07e0
cafe
2c11
5555
f430
081a
cafe
300a
5555
f430
06c3
cafe
341a
5555
f430
0769
cafe
3802
5555
f430
06b3
cafe
3c12
5555
f434
084e
cafe
200b
5555
f434
0797
cafe
241b
5555
f434
0747
cafe
2803
5555
f434
0760
cafe
2c13
5555
f438
0797
cafe
300c
5555
f438
07fd
cafe
341c
5555
f438
07d7
cafe
3804
5555
f438
07d8
cafe
3c14
5555
f43c
07cc
cafe
200d
5555
f43c
078f
cafe
241d
5555
f43c
0752
cafe
2805
5555
f43c
07f9
cafe
2c15
5555
f440
07ae
cafe
300e
5555
f440
07df
cafe
341e
5555
f440
078c
cafe
3806
5555
f440
073d
cafe
3c16
5555
f444
081d
cafe
200f
5555
f444
07bb
cafe
241f
5555
f444
07c4
cafe
2807
5555
f444
07bf
cafe
2c17
5555
f448
074b
cafe
3008
5555
f448
075f
cafe
3418
5555
f448
07d9
cafe
3800
5555
f448
07dc
cafe
3c10
5555
f44c
075b
cafe
2009
5555
f44c
06b7
cafe
2419
5555
f44c
06fb
cafe
2801
5555
f44c
07c6
cafe
2c11
5555
f450
07f0
cafe
-
300a
5555
f450
069e
cafe
341a
5555
f450
074c
cafe
3802
5555
f450
069f
cafe
3c12
5555
f454
082d
cafe
200b
5555
f454
077b
cafe
241b
5555
f454
072c
cafe
2803
5555
f454
0743
cafe
2c13
5555
f458
0775
cafe
300c
5555
f458
07e0
cafe
341c
5555
f458
07bc
cafe
3804
5555
f458
07bb
cafe
3c14
5555
f45c
07b8
cafe
200d
5555
f45c
0777
cafe
241d
5555
f45c
073c
cafe
2805
5555
f45c
07e5
cafe
2c15
5555
f460
0798
cafe
300e
5555
f460
07d1
cafe
341e
5555
f460
0775
cafe
3806
5555
f460
072c
cafe
3c16
5555
f464
0806
cafe
200f
5555
f464
07a9
cafe
241f
5555
f464
07b4
cafe
2807
5555
f464
07b0
cafe
2c17
5555
f468
0733
cafe
3008
5555
f468
074f
cafe
3418
5555
f468
07c6
cafe
3800
5555
f468
07c6
cafe
3c10
5555
f46c
074b
cafe
2009
5555
f46c
069f
cafe
2419
5555
f46c
06e8
cafe
2801
5555
f46c
07ab
cafe
2c11
5555
f470
07d9
cafe
300a
5555
f470
0687
cafe
341a
5555
f470
0730
cafe
3802
5555
f470
0687
cafe
3c12
5555
f474
0815
cafe
200b
5555
f474
0764
cafe
241b
5555
f474
0716
cafe
2803
5555
f474
0727
cafe
2c13
5555
f478
0759
cafe
300c
5555
f478
07ca
cafe
341c
5555
f478
07a4
cafe
3804
5555
f478
07a3
cafe
3c14
5555
f47c
079e
cafe
200d
5555
f47c
075e
cafe
241d
5555
f47c
0723
cafe
2805
5555
f47c
07cc
cafe
2c15
5555
f480
0782
cafe
300e
5555
f480
07ba
cafe
341e
5555
f480
075b
cafe
3806
5555
f480
0713
cafe
3c16
-
5555
f484
07f4
cafe
200f
5555
f484
0795
cafe
241f
5555
f484
079b
cafe
2807
5555
f484
079a
cafe
2c17
5555
f488
0720
cafe
3008
5555
f488
073a
cafe
3418
5555
f488
07b3
cafe
3800
5555
f488
07af
cafe
3c10
5555
f48c
0734
cafe
2009
5555
f48c
0688
cafe
2419
5555
f48c
06d0
cafe
2801
5555
f48c
079d
cafe
2c11
5555
f490
07c4
cafe
300a
5555
f490
0670
cafe
341a
5555
f490
0715
cafe
3802
5555
f490
0672
cafe
3c12
5555
f494
0809
cafe
200b
5555
f494
074c
cafe
241b
5555
f494
06fe
cafe
2803
5555
f494
0715
cafe
2c13
5555
f498
0745
cafe
300c
5555
f498
07bf
cafe
341c
5555
f498
078f
cafe
3804
5555
f498
0788
cafe
3c14
5555
f49c
078a
cafe
200d
5555
f49c
0747
cafe
241d
5555
f49c
0707
cafe
2805
5555
f49c
07bb
cafe
2c15
5555
f4a0
0768
cafe
300e
5555
f4a0
079d
cafe
341e
5555
f4a0
0744
cafe
3806
5555
f4a0
06f0
cafe
3c16
5555
f4a4
07e3
cafe
200f
5555
f4a4
077f
cafe
241f
5555
f4a4
0781
cafe
2807
5555
f4a4
0787
cafe
2c17
5555
f4a8
0709
cafe
3008
5555
f4a8
0720
cafe
3418
5555
f4a8
0799
cafe
3800
5555
f4a8
0793
cafe
3c10
5555
f4ac
0717
cafe
2009
5555
f4ac
0673
cafe
2419
5555
f4ac
06b7
cafe
2801
5555
f4ac
0782
cafe
2c11
5555
f4b0
07ac
cafe
300a
5555
f4b0
0656
cafe
341a
5555
f4b0
0703
cafe
3802
5555
f4b0
065f
cafe
3c12
5555
f4b4
07ed
cafe
200b
5555
f4b4
0732
cafe
241b
5555
f4b4
06e6
cafe
2803
5555
-
f4b4
06f7
cafe
2c13
5555
f4b8
072c
cafe
300c
5555
f4b8
07ae
cafe
341c
5555
f4b8
0778
cafe
3804
5555
f4b8
076d
cafe
3c14
5555
f4bc
076e
cafe
200d
5555
f4bc
072a
cafe
241d
5555
f4bc
06f2
cafe
2805
5555
f4bc
07a5
cafe
2c15
5555
f4c0
0757
cafe
300e
5555
f4c0
0788
cafe
341e
5555
f4c0
0730
cafe
3806
5555
f4c0
06d5
cafe
3c16
5555
f4c4
07cc
cafe
200f
5555
f4c4
0769
cafe
241f
5555
f4c4
0770
cafe
2807
5555
f4c4
0774
cafe
2c17
5555
f4c8
06f4
cafe
3008
5555
f4c8
0709
cafe
3418
5555
f4c8
0783
cafe
3800
5555
f4c8
077d
cafe
3c10
5555
f4cc
0705
cafe
2009
5555
f4cc
0662
cafe
2419
5555
f4cc
06a5
cafe
2801
5555
f4cc
0764
cafe
2c11
5555
f4d0
079b
cafe
300a
5555
f4d0
063f
cafe
341a
5555
f4d0
06eb
cafe
3802
5555
f4d0
0648
cafe
3c12
5555
f4d4
07d4
cafe
200b
5555
f4d4
0719
cafe
241b
5555
f4d4
06cd
cafe
2803
5555
f4d4
06df
cafe
2c13
5555
f4d8
0713
cafe
300c
5555
f4d8
079b
cafe
341c
5555
f4d8
075d
cafe
3804
5555
f4d8
0756
cafe
3c14
5555
f4dc
0759
cafe
200d
5555
f4dc
0718
cafe
241d
5555
f4dc
06e0
cafe
2805
5555
f4dc
078b
cafe
2c15
5555
f4e0
0748
cafe
300e
5555
f4e0
0774
cafe
341e
5555
f4e0
071c
cafe
3806
5555
f4e0
06c0
cafe
3c16
5555
f4e4
07b1
cafe
200f
5555
f4e4
0756
cafe
241f
5555
f4e4
075a
cafe
2807
5555
f4e4
075c
cafe
2c17
5555
f4e8
06df
cafe
3008
5555
f4e8
06f7
cafe
3418
5555
f4e8
-
0770
cafe
3800
5555
f4e8
076c
cafe
3c10
5555
f4ec
06f0
cafe
2009
5555
f4ec
0645
cafe
2419
5555
f4ec
0693
cafe
2801
5555
f4ec
0753
cafe
2c11
5555
f4f0
0788
cafe
300a
5555
f4f0
0627
cafe
341a
5555
f4f0
06d6
cafe
3802
5555
f4f0
062c
cafe
3c12
5555
f4f4
07bc
cafe
200b
5555
f4f4
0707
cafe
241b
5555
f4f4
06b1
cafe
2803
5555
f4f4
06c5
cafe
2c13
5555
f4f8
06fe
cafe
300c
5555
f4f8
0784
cafe
341c
5555
f4f8
0743
cafe
3804
5555
f4f8
073c
cafe
3c14
5555
f4fc
0741
cafe
200d
5555
f4fc
0704
cafe
241d
5555
f4fc
06d0
cafe
2805
5555
f4fc
077d
cafe
2c15
5555
f500
0735
cafe
300e
5555
f500
075f
cafe
341e
5555
f500
0703
cafe
3806
5555
f500
06ae
cafe
3c16
5555
f504
079a
cafe
200f
5555
f504
073e
cafe
241f
5555
f504
0745
cafe
2807
5555
f504
0746
cafe
2c17
5555
f508
06c6
cafe
3008
5555
f508
06e3
cafe
3418
5555
f508
0760
cafe
3800
5555
f508
0754
cafe
3c10
5555
f50c
06d9
cafe
2009
5555
f50c
062e
cafe
2419
5555
f50c
0687
cafe
2801
5555
f50c
073a
cafe
2c11
5555
f510
077a
cafe
300a
5555
f510
0615
cafe
341a
5555
f510
06bc
cafe
3802
5555
f510
0614
cafe
3c12
5555
f514
07ae
cafe
200b
5555
f514
0700
cafe
241b
5555
f514
0699
cafe
2803
5555
f514
06b5
cafe
2c13
5555
f518
06e9
cafe
300c
5555
f518
0776
cafe
341c
5555
f518
072c
cafe
3804
5555
f518
0730
cafe
3c14
5555
f51c
0737
cafe
200d
5555
f51c
06e6
-
cafe
241d
5555
f51c
06b6
cafe
2805
5555
f51c
0763
cafe
2c15
5555
f520
0719
cafe
300e
5555
f520
074c
cafe
341e
5555
f520
06ea
cafe
3806
5555
f520
0694
cafe
3c16
5555
f524
077e
cafe
200f
5555
f524
0726
cafe
241f
5555
f524
072f
cafe
2807
5555
f524
0732
cafe
2c17
5555
f528
06af
cafe
3008
5555
f528
06c9
cafe
3418
5555
f528
0746
cafe
3800
5555
f528
0745
cafe
3c10
5555
f52c
06c8
cafe
2009
5555
f52c
060e
cafe
2419
5555
f52c
0673
cafe
2801
5555
f52c
0722
cafe
2c11
5555
f530
0762
cafe
300a
5555
f530
0602
cafe
341a
5555
f530
06ac
cafe
3802
5555
f530
05f7
cafe
3c12
5555
f534
079d
cafe
200b
5555
f534
06e9
cafe
241b
5555
f534
0682
cafe
2803
5555
f534
06a1
cafe
2c13
5555
f538
06d7
cafe
300c
5555
f538
0765
cafe
341c
5555
f538
0713
cafe
3804
5555
f538
071d
cafe
3c14
5555
f53c
0722
cafe
200d
5555
f53c
06ce
cafe
241d
5555
f53c
06a2
cafe
2805
5555
f53c
0752
cafe
2c15
5555
f540
0706
cafe
300e
5555
f540
0739
cafe
341e
5555
f540
06d8
cafe
3806
5555
f540
0684
cafe
3c16
5555
f544
0767
cafe
200f
5555
f544
070f
cafe
241f
5555
f544
071d
cafe
2807
5555
f544
071e
cafe
2c17
5555
f548
069a
cafe
3008
5555
f548
06b4
cafe
3418
5555
f548
0731
cafe
3800
5555
f548
0728
cafe
3c10
5555
f54c
06af
cafe
2009
5555
f54c
05f6
cafe
2419
5555
f54c
065a
cafe
2801
5555
f54c
070d
cafe
2c11
5555
f550
074f
cafe
-
300a
5555
f550
05f0
cafe
341a
5555
f550
0694
cafe
3802
5555
f550
05d9
cafe
3c12
5555
f554
0789
cafe
200b
5555
f554
06d8
cafe
241b
5555
f554
0672
cafe
2803
5555
f554
068f
cafe
2c13
5555
f558
06c2
cafe
300c
5555
f558
0754
cafe
341c
5555
f558
06ff
cafe
3804
5555
f558
070a
cafe
3c14
5555
f55c
070d
cafe
200d
5555
f55c
06c0
cafe
241d
5555
f55c
068e
cafe
2805
5555
f55c
073e
cafe
2c15
5555
f560
06f0
cafe
300e
5555
f560
0722
cafe
341e
5555
f560
06c0
cafe
3806
5555
f560
0673
cafe
3c16
5555
f564
0755
cafe
200f
5555
f564
06ff
cafe
241f
5555
f564
0706
cafe
2807
5555
f564
070a
cafe
2c17
5555
f568
0682
cafe
3008
5555
f568
069b
cafe
3418
5555
f568
071f
cafe
3800
5555
f568
0712
cafe
3c10
5555
f56c
0698
cafe
2009
5555
f56c
05e4
cafe
2419
5555
f56c
0641
cafe
2801
5555
f56c
06f7
cafe
2c11
5555
f570
073c
cafe
300a
5555
f570
05d4
cafe
341a
5555
f570
0681
cafe
3802
5555
f570
05b9
cafe
3c12
5555
f574
0772
cafe
200b
5555
f574
06bb
cafe
241b
5555
f574
065c
cafe
2803
5555
f574
067c
cafe
2c13
5555
f578
06ac
cafe
300c
5555
f578
073b
cafe
341c
5555
f578
06e9
cafe
3804
5555
f578
06f1
cafe
3c14
5555
f57c
06fc
cafe
200d
5555
f57c
06ab
cafe
241d
5555
f57c
0678
cafe
2805
5555
f57c
072d
cafe
2c15
5555
f580
06d5
cafe
300e
5555
f580
0710
cafe
341e
5555
f580
06b1
cafe
3806
5555
f580
065a
cafe
3c16
-
5555
f584
0741
cafe
200f
5555
f584
06ee
cafe
241f
5555
f584
06ee
cafe
2807
5555
f584
06ed
cafe
2c17
5555
f588
066b
cafe
3008
5555
f588
068b
cafe
3418
5555
f588
0705
cafe
3800
5555
f588
06f5
cafe
3c10
5555
f58c
067f
cafe
2009
5555
f58c
05d0
cafe
2419
5555
f58c
0629
cafe
2801
5555
f58c
06eb
cafe
2c11
5555
f590
0725
cafe
300a
5555
f590
05c3
cafe
341a
5555
f590
0671
cafe
3802
5555
f590
05a3
cafe
3c12
5555
f594
0763
cafe
200b
5555
f594
06a1
cafe
241b
5555
f594
0641
cafe
2803
5555
f594
0668
cafe
2c13
5555
f598
0697
cafe
300c
5555
f598
0722
cafe
341c
5555
f598
06cf
cafe
3804
5555
f598
06db
cafe
3c14
5555
f59c
06e5
cafe
200d
5555
f59c
0696
cafe
241d
5555
f59c
0667
cafe
2805
5555
f59c
071a
cafe
2c15
5555
f5a0
06c4
cafe
300e
5555
f5a0
06fe
cafe
341e
5555
f5a0
0695
cafe
3806
5555
f5a0
064a
cafe
3c16
5555
f5a4
072a
cafe
200f
5555
f5a4
06d7
cafe
241f
5555
f5a4
06d7
cafe
2807
5555
f5a4
06d9
cafe
2c17
5555
f5a8
065d
cafe
3008
5555
f5a8
0675
cafe
3418
5555
f5a8
06ee
cafe
3800
5555
f5a8
06e1
cafe
3c10
5555
f5ac
0666
cafe
2009
5555
f5ac
05bc
cafe
2419
5555
f5ac
061d
cafe
2801
5555
f5ac
06d3
cafe
2c11
5555
f5b0
0711
cafe
300a
5555
f5b0
05ae
cafe
341a
5555
f5b0
065a
cafe
3802
5555
f5b0
058e
cafe
3c12
5555
f5b4
074c
cafe
200b
5555
f5b4
068b
cafe
241b
5555
f5b4
062b
cafe
2803
5555
-
f5b4
064f
cafe
2c13
5555
f5b8
0687
cafe
300c
5555
f5b8
070c
cafe
341c
5555
f5b8
06ba
cafe
3804
5555
f5b8
06cb
cafe
3c14
5555
f5bc
06cf
cafe
200d
5555
f5bc
067f
cafe
241d
5555
f5bc
064d
cafe
2805
5555
f5bc
0706
cafe
2c15
5555
f5c0
06b1
cafe
300e
5555
f5c0
06ea
cafe
341e
5555
f5c0
0681
cafe
3806
5555
f5c0
062f
cafe
3c16
5555
f5c4
0713
cafe
200f
5555
f5c4
06c0
cafe
241f
5555
f5c4
06c8
cafe
2807
5555
f5c4
06c8
cafe
2c17
5555
f5c8
064b
cafe
3008
5555
f5c8
065f
cafe
3418
5555
f5c8
06d9
cafe
3800
5555
f5c8
06d6
cafe
3c10
5555
f5cc
0654
cafe
2009
5555
f5cc
05a4
cafe
2419
5555
f5cc
0605
cafe
2801
5555
f5cc
06b7
cafe
2c11
5555
f5d0
06fc
cafe
300a
5555
f5d0
0596
cafe
341a
5555
f5d0
0643
cafe
3802
5555
f5d0
0578
cafe
3c12
5555
f5d4
073f
cafe
200b
5555
f5d4
0675
cafe
241b
5555
f5d4
0616
cafe
2803
5555
f5d4
063a
cafe
2c13
5555
f5d8
0672
cafe
300c
5555
f5d8
06f5
cafe
341c
5555
f5d8
06ab
cafe
3804
5555
f5d8
06b5
cafe
3c14
5555
f5dc
06bb
cafe
200d
5555
f5dc
0668
cafe
241d
5555
f5dc
063a
cafe
2805
5555
f5dc
06f5
cafe
2c15
5555
f5e0
069d
cafe
300e
5555
f5e0
06d8
cafe
341e
5555
f5e0
0664
cafe
3806
5555
f5e0
0619
cafe
3c16
5555
f5e4
06ff
cafe
200f
5555
f5e4
06ad
cafe
241f
5555
f5e4
06b4
cafe
2807
5555
f5e4
06b4
cafe
2c17
5555
f5e8
063d
cafe
3008
5555
f5e8
064e
cafe
3418
5555
f5e8
-
06c7
cafe
3800
5555
f5e8
06c1
cafe
3c10
5555
f5ec
0643
cafe
2009
5555
f5ec
0593
cafe
2419
5555
f5ec
05f2
cafe
2801
5555
f5ec
06a4
cafe
2c11
5555
f5f0
06e7
cafe
300a
5555
f5f0
0581
cafe
341a
5555
f5f0
0630
cafe
3802
5555
f5f0
0561
cafe
3c12
5555
f5f4
072b
cafe
200b
5555
f5f4
0659
cafe
241b
5555
f5f4
0604
cafe
2803
5555
f5f4
0624
cafe
2c13
5555
f5f8
065e
cafe
300c
5555
f5f8
06e0
cafe
341c
5555
f5f8
0695
cafe
3804
5555
f5f8
06a3
cafe
3c14
5555
f5fc
06a0
cafe
200d
5555
f5fc
0658
cafe
241d
5555
f5fc
0625
cafe
2805
5555
f5fc
06e0
cafe
2c15
5555
f600
0689
cafe
300e
5555
f600
06c9
cafe
341e
5555
f600
0648
cafe
3806
5555
f600
0607
cafe
3c16
5555
f604
06ea
cafe
200f
5555
f604
0698
cafe
241f
5555
f604
069f
cafe
2807
5555
f604
06a5
cafe
2c17
5555
f608
0628
cafe
3008
5555
f608
063e
cafe
3418
5555
f608
06b3
cafe
3800
5555
f608
06a7
cafe
3c10
5555
f60c
0632
cafe
2009
5555
f60c
057c
cafe
2419
5555
f60c
05e1
cafe
2801
5555
f60c
068c
cafe
2c11
5555
f610
06d5
cafe
300a
5555
f610
056e
cafe
341a
5555
f610
061b
cafe
3802
5555
f610
0548
cafe
3c12
5555
f614
0716
cafe
200b
5555
f614
0644
cafe
241b
5555
f614
05e7
cafe
2803
5555
f614
060e
cafe
2c13
5555
f618
0649
cafe
300c
5555
f618
06d3
cafe
341c
5555
f618
0683
cafe
3804
5555
f618
068a
cafe
3c14
5555
f61c
0692
cafe
200d
5555
f61c
0644
-
cafe
241d
5555
f61c
0612
cafe
2805
5555
f61c
06cc
cafe
2c15
5555
f620
0675
cafe
300e
5555
f620
06b5
cafe
341e
5555
f620
0635
cafe
3806
5555
f620
05f3
cafe
3c16
5555
f624
06d3
cafe
200f
5555
f624
0684
cafe
241f
5555
f624
068f
cafe
2807
5555
f624
0694
cafe
2c17
5555
f628
0616
cafe
3008
5555
f628
0623
cafe
3418
5555
f628
06a1
cafe
3800
5555
f628
0693
cafe
3c10
5555
f62c
0612
cafe
2009
5555
f62c
0564
cafe
2419
5555
f62c
05c4
cafe
2801
5555
f62c
0677
cafe
2c11
5555
f630
06c1
cafe
300a
5555
f630
0554
cafe
341a
5555
f630
05ff
cafe
3802
5555
f630
052b
cafe
3c12
5555
f634
0703
cafe
200b
5555
f634
062d
cafe
241b
5555
f634
05d9
cafe
2803
5555
f634
05f7
cafe
2c13
5555
f638
0633
cafe
300c
5555
f638
06c1
cafe
341c
5555
f638
066c
cafe
3804
5555
f638
0674
cafe
3c14
5555
f63c
0681
cafe
200d
5555
f63c
0635
cafe
241d
5555
f63c
05fe
cafe
2805
5555
f63c
06b9
cafe
2c15
5555
f640
0663
cafe
300e
5555
f640
06a4
cafe
341e
5555
f640
0622
cafe
3806
5555
f640
05e0
cafe
3c16
5555
f644
06bf
cafe
200f
5555
f644
0677
cafe
241f
5555
f644
0675
cafe
2807
5555
f644
0684
cafe
2c17
5555
f648
060a
cafe
3008
5555
f648
0611
cafe
3418
5555
f648
068e
cafe
3800
5555
f648
0684
cafe
3c10
5555
f64c
0602
cafe
2009
5555
f64c
0549
cafe
2419
5555
f64c
05b4
cafe
2801
5555
f64c
0663
cafe
2c11
5555
f650
06ae
cafe
-
300a
5555
f650
0540
cafe
341a
5555
f650
05ec
cafe
3802
5555
f650
0515
cafe
3c12
5555
f654
06f2
cafe
200b
5555
f654
0619
cafe
241b
5555
f654
05c3
cafe
2803
5555
f654
05e1
cafe
2c13
5555
f658
061f
cafe
300c
5555
f658
06ae
cafe
341c
5555
f658
0657
cafe
3804
5555
f658
065e
cafe
3c14
5555
f65c
0664
cafe
200d
5555
f65c
0628
cafe
241d
5555
f65c
05f0
cafe
2805
5555
f65c
06ac
cafe
2c15
5555
f660
064a
cafe
300e
5555
f660
0691
cafe
341e
5555
f660
0611
cafe
3806
5555
f660
05c6
cafe
3c16
5555
f664
06ab
cafe
200f
5555
f664
065e
cafe
241f
5555
f664
065e
cafe
2807
5555
f664
066c
cafe
2c17
5555
f668
05f1
cafe
3008
5555
f668
0602
cafe
3418
5555
f668
067b
cafe
3800
5555
f668
0676
cafe
3c10
5555
f66c
05ef
cafe
2009
5555
f66c
053a
cafe
2419
5555
f66c
05a0
cafe
2801
5555
f66c
064b
cafe
2c11
5555
f670
069e
cafe
300a
5555
f670
0522
cafe
341a
5555
f670
05d6
cafe
3802
5555
f670
04fd
cafe
3c12
5555
f674
06df
cafe
200b
5555
f674
0609
cafe
241b
5555
f674
05af
cafe
2803
5555
f674
05c9
cafe
2c13
5555
f678
0610
cafe
300c
5555
f678
06a1
cafe
341c
5555
f678
0640
cafe
3804
5555
f678
064a
cafe
3c14
5555
f67c
0659
cafe
200d
5555
f67c
061d
cafe
241d
5555
f67c
05db
cafe
2805
5555
f67c
0699
cafe
2c15
5555
f680
063c
cafe
300e
5555
f680
0684
cafe
341e
5555
f680
05f8
cafe
3806
5555
f680
05b4
cafe
3c16
-
5555
f684
069a
cafe
200f
5555
f684
064d
cafe
241f
5555
f684
064d
cafe
2807
5555
f684
065b
cafe
2c17
5555
f688
05dd
cafe
3008
5555
f688
05e9
cafe
3418
5555
f688
0664
cafe
3800
5555
f688
065d
cafe
3c10
5555
f68c
05db
cafe
2009
5555
f68c
0525
cafe
2419
5555
f68c
058c
cafe
2801
5555
f68c
0633
cafe
2c11
5555
f690
0684
cafe
300a
5555
f690
0510
cafe
341a
5555
f690
05bf
cafe
3802
5555
f690
04ed
cafe
3c12
5555
f694
06c7
cafe
200b
5555
f694
05fa
cafe
241b
5555
f694
059f
cafe
2803
5555
f694
05b5
cafe
2c13
5555
f698
05f8
cafe
300c
5555
f698
068a
cafe
341c
5555
f698
0632
cafe
3804
5555
f698
063a
cafe
3c14
5555
f69c
064a
cafe
200d
5555
f69c
0606
cafe
241d
5555
f69c
05c3
cafe
2805
5555
f69c
0685
cafe
2c15
5555
f6a0
0628
cafe
300e
5555
f6a0
0674
cafe
341e
5555
f6a0
05e9
cafe
3806
5555
f6a0
059e
cafe
3c16
5555
f6a4
0683
cafe
200f
5555
f6a4
063b
cafe
241f
5555
f6a4
063d
cafe
2807
5555
f6a4
064e
cafe
2c17
5555
f6a8
05c8
cafe
3008
5555
f6a8
05d6
cafe
3418
5555
f6a8
064f
cafe
3800
5555
f6a8
064b
cafe
3c10
5555
f6ac
05c4
cafe
2009
5555
f6ac
0510
cafe
2419
5555
f6ac
057b
cafe
2801
5555
f6ac
0620
cafe
2c11
5555
f6b0
066c
cafe
300a
5555
f6b0
04ff
cafe
341a
5555
f6b0
05b4
cafe
3802
5555
f6b0
04d8
cafe
3c12
5555
f6b4
06b7
cafe
200b
5555
f6b4
05e7
cafe
241b
5555
f6b4
058c
cafe
2803
5555
-
f6b4
05a3
cafe
2c13
5555
f6b8
05e7
cafe
300c
5555
f6b8
0674
cafe
341c
5555
f6b8
0622
cafe
3804
5555
f6b8
062b
cafe
3c14
5555
f6bc
0636
cafe
200d
5555
f6bc
05f2
cafe
241d
5555
f6bc
05ab
cafe
2805
5555
f6bc
066f
cafe
2c15
5555
f6c0
0618
cafe
300e
5555
f6c0
0661
cafe
341e
5555
f6c0
05d3
cafe
3806
5555
f6c0
058b
cafe
3c16
5555
f6c4
0672
cafe
200f
5555
f6c4
062b
cafe
241f
5555
f6c4
062b
cafe
2807
5555
f6c4
063a
cafe
2c17
5555
f6c8
05b3
cafe
3008
5555
f6c8
05c2
cafe
3418
5555
f6c8
063a
cafe
3800
5555
f6c8
0639
cafe
3c10
5555
f6cc
05ba
cafe
2009
5555
f6cc
04f7
cafe
2419
5555
f6cc
056a
cafe
2801
5555
f6cc
060b
cafe
2c11
5555
f6d0
0655
cafe
300a
5555
f6d0
04ed
cafe
341a
5555
f6d0
0597
cafe
3802
5555
f6d0
04c0
cafe
3c12
5555
f6d4
06a5
cafe
200b
5555
f6d4
05d4
cafe
241b
5555
f6d4
057e
cafe
2803
5555
f6d4
059d
cafe
2c13
5555
f6d8
05cc
cafe
300c
5555
f6d8
0665
cafe
341c
5555
f6d8
0613
cafe
3804
5555
f6d8
061a
cafe
3c14
5555
f6dc
0622
cafe
200d
5555
f6dc
05d8
cafe
241d
5555
f6dc
0599
cafe
2805
5555
f6dc
065b
cafe
2c15
5555
f6e0
0606
cafe
300e
5555
f6e0
0648
cafe
341e
5555
f6e0
05be
cafe
3806
5555
f6e0
0576
cafe
3c16
5555
f6e4
0660
cafe
200f
5555
f6e4
0617
cafe
241f
5555
f6e4
0615
cafe
2807
5555
f6e4
0623
cafe
2c17
5555
f6e8
059d
cafe
3008
5555
f6e8
05aa
cafe
3418
5555
f6e8
-
061f
cafe
3800
5555
f6e8
061e
cafe
3c10
5555
f6ec
05ab
cafe
2009
5555
f6ec
04e2
cafe
2419
5555
f6ec
055e
cafe
2801
5555
f6ec
0601
cafe
2c11
5555
f6f0
0643
cafe
300a
5555
f6f0
04de
cafe
341a
5555
f6f0
0582
cafe
3802
5555
f6f0
04ad
cafe
3c12
5555
f6f4
0699
cafe
200b
5555
f6f4
05c2
cafe
241b
5555
f6f4
056a
cafe
2803
5555
f6f4
0587
cafe
2c13
5555
f6f8
05b5
cafe
300c
5555
f6f8
0655
cafe
341c
5555
f6f8
0602
cafe
3804
5555
f6f8
0604
cafe
3c14
5555
f6fc
0611
cafe
200d
5555
f6fc
05c4
cafe
241d
5555
f6fc
057c
cafe
2805
5555
f6fc
0641
cafe
2c15
5555
f700
05f6
cafe
300e
5555
f700
0631
cafe
341e
5555
f700
05ac
cafe
3806
5555
f700
0563
cafe
3c16
5555
f704
0652
cafe
200f
5555
f704
0607
cafe
241f
5555
f704
0605
cafe
2807
5555
f704
060e
cafe
2c17
5555
f708
0580
cafe
3008
5555
f708
0599
cafe
3418
5555
f708
060d
cafe
3800
5555
f708
060a
cafe
3c10
5555
f70c
0599
cafe
2009
5555
f70c
04d3
cafe
2419
5555
f70c
054c
cafe
2801
5555
f70c
05ef
cafe
2c11
5555
f710
062b
cafe
300a
5555
f710
04c6
cafe
341a
5555
f710
0574
cafe
3802
5555
f710
0497
cafe
3c12
5555
f714
0683
cafe
200b
5555
f714
05ab
cafe
241b
5555
f714
0551
cafe
2803
5555
f714
0575
cafe
2c13
5555
f718
05a7
cafe
300c
5555
f718
063d
cafe
341c
5555
f718
05ee
cafe
3804
5555
f718
05f2
cafe
3c14
5555
f71c
0602
cafe
200d
5555
f71c
05b5
-
cafe
241d
5555
f71c
056b
cafe
2805
5555
f71c
0630
cafe
2c15
5555
f720
05e4
cafe
300e
5555
f720
0620
cafe
341e
5555
f720
0595
cafe
3806
5555
f720
054b
cafe
3c16
5555
f724
063d
cafe
200f
5555
f724
05fc
cafe
241f
5555
f724
05ec
cafe
2807
5555
f724
0602
cafe
2c17
5555
f728
056b
cafe
3008
5555
f728
0585
cafe
3418
5555
f728
05fd
cafe
3800
5555
f728
05f4
cafe
3c10
5555
f72c
0582
cafe
2009
5555
f72c
04c2
cafe
2419
5555
f72c
0537
cafe
2801
5555
f72c
05de
cafe
2c11
5555
f730
061c
cafe
300a
5555
f730
04b1
cafe
341a
5555
f730
0566
cafe
3802
5555
f730
0480
cafe
3c12
5555
f734
066a
cafe
200b
5555
f734
059a
cafe
241b
5555
f734
053e
cafe
2803
5555
f734
0567
cafe
2c13
5555
f738
059d
cafe
300c
5555
f738
0627
cafe
341c
5555
f738
05e1
cafe
3804
5555
f738
05df
cafe
3c14
5555
f73c
05f9
cafe
200d
5555
f73c
05a6
cafe
241d
5555
f73c
0556
cafe
2805
5555
f73c
0621
cafe
2c15
5555
f740
05d2
cafe
300e
5555
f740
060a
cafe
341e
5555
f740
057f
cafe
3806
5555
f740
0536
cafe
3c16
5555
f744
062b
cafe
200f
5555
f744
05f4
cafe
241f
5555
f744
05d3
cafe
2807
5555
f744
05ed
cafe
2c17
5555
f748
0558
cafe
3008
5555
f748
0570
cafe
3418
5555
f748
05e9
cafe
3800
5555
f748
05dd
cafe
3c10
5555
f74c
0569
cafe
2009
5555
f74c
04ae
cafe
2419
5555
f74c
051e
cafe
2801
5555
f74c
05c7
cafe
2c11
5555
f750
060c
cafe
-
