380d
5555
fedc
0164
cafe
3c1d
5555
fedc
018b
cafe
2005
5555
fedc
0201
cafe
2415
5555
fee0
0193
cafe
280e
5555
fee0
021c
cafe
2c1e
5555
fee0
019a
cafe
3006
5555
fee0
01a8
cafe
3416
5555
fee4
0182
cafe
380f
5555
fee4
0230
cafe
3c1f
5555
fee4
0192
cafe
2007
5555
fee4
0178
cafe
2417
5555
fee8
017f
cafe
2808
5555
fee8
0199
cafe
2c18
5555
fee8
01cb
cafe
3000
5555
fee8
01ba
cafe
3410
5555
feec
01fc
cafe
3809
5555
feec
0126
cafe
3c19
5555
feec
018f
cafe
2001
5555
feec
01af
cafe
2411
5555
fef0
015a
cafe
280a
5555
fef0
0154
cafe
2c1a
5555
fef0
012d
cafe
3002
5555
fef0
0182
cafe
3412
5555
fef4
01cb
cafe
380b
5555
fef4
01b8
cafe
3c1b
5555
fef4
0172
cafe
2003
5555
fef4
0128
cafe
2413
5555
fef8
013e
cafe
280c
5555
fef8
0175
cafe
2c1c
5555
fef8
015b
cafe
3004
5555
fef8
017c
cafe
3414
5555
fefc
0142
cafe
380d
5555
fefc
015e
cafe
3c1d
5555
fefc
0188
cafe
2005
5555
fefc
01fd
cafe
2415
5555
ff00
019b
cafe
280e
5555
ff00
021d
cafe
2c1e
5555
ff00
019d
cafe
3006
5555
ff00
01aa
cafe
3416
5555
ff04
0180
cafe
380f
5555
ff04
0237
cafe
3c1f
5555
ff04
0193
cafe
2007
5555
ff04
0177
cafe
2417
5555
ff08
017f
cafe
2808
5555
ff08
019f
cafe
2c18
5555
ff08
01cd
cafe
3000
5555
ff08
01b3
cafe
3410
5555
ff0c
01f8
cafe
3809
5555
ff0c
0123
cafe
3c19
5555
ff0c
018e
cafe
2001
5555
ff0c
01b2
cafe
2411
-
5555
ff10
0161
cafe
280a
5555
ff10
0152
cafe
2c1a
5555
ff10
0127
cafe
3002
5555
ff10
0183
cafe
3412
5555
ff14
01c8
cafe
380b
5555
ff14
01bb
cafe
3c1b
5555
ff14
0174
cafe
2003
5555
ff14
0125
cafe
2413
5555
ff18
013f
cafe
280c
5555
ff18
0178
cafe
2c1c
5555
ff18
0165
cafe
3004
5555
ff18
018b
cafe
3414
5555
ff1c
0143
cafe
380d
5555
ff1c
015d
cafe
3c1d
5555
ff1c
0189
cafe
2005
5555
ff1c
01ff
cafe
2415
5555
ff20
019f
cafe
280e
5555
ff20
0218
cafe
2c1e
5555
ff20
019b
cafe
3006
5555
ff20
01a4
cafe
3416
5555
ff24
0182
cafe
380f
5555
ff24
0235
cafe
3c1f
5555
ff24
0195
cafe
2007
5555
ff24
0176
cafe
2417
5555
ff28
017e
cafe
2808
5555
ff28
019d
cafe
2c18
5555
ff28
01cc
cafe
3000
5555
ff28
01ae
cafe
3410
5555
ff2c
01fa
cafe
3809
5555
ff2c
0125
cafe
3c19
5555
ff2c
0191
cafe
2001
5555
ff2c
01b1
cafe
2411
5555
ff30
0163
cafe
280a
5555
ff30
0154
cafe
2c1a
5555
ff30
012a
cafe
3002
5555
ff30
017f
cafe
3412
5555
ff34
01c3
cafe
380b
5555
ff34
01ba
cafe
3c1b
5555
ff34
0171
cafe
2003
5555
ff34
012a
cafe
2413
5555
ff38
0144
cafe
280c
5555
ff38
017c
cafe
2c1c
5555
ff38
0161
cafe
3004
5555
ff38
018d
cafe
3414
5555
ff3c
0140
cafe
380d
5555
ff3c
0161
cafe
3c1d
5555
ff3c
0188
cafe
2005
5555
ff3c
01f9
cafe
2415
5555
ff40
01a6
cafe
280e
5555
ff40
0215
cafe
2c1e
5555
ff40
01a1
cafe
3006
5555
-
ff40
01a5
cafe
3416
5555
ff44
017b
cafe
380f
5555
ff44
0238
cafe
3c1f
5555
ff44
0194
cafe
2007
5555
ff44
017c
cafe
2417
5555
ff48
017d
cafe
2808
5555
ff48
019a
cafe
2c18
5555
ff48
01c9
cafe
3000
5555
ff48
01ac
cafe
3410
5555
ff4c
01f8
cafe
3809
5555
ff4c
0127
cafe
3c19
5555
ff4c
0197
cafe
2001
5555
ff4c
01b3
cafe
2411
5555
ff50
0163
cafe
280a
5555
ff50
0158
cafe
2c1a
5555
ff50
012c
cafe
3002
5555
ff50
017e
cafe
3412
5555
ff54
01c4
cafe
380b
5555
ff54
01bc
cafe
3c1b
5555
ff54
0175
cafe
2003
5555
ff54
012c
cafe
2413
5555
ff58
014a
cafe
280c
5555
ff58
0176
cafe
2c1c
5555
ff58
015b
cafe
3004
5555
ff58
018b
cafe
3414
5555
ff5c
0140
cafe
380d
5555
ff5c
015f
cafe
3c1d
5555
ff5c
0189
cafe
2005
5555
ff5c
01f5
cafe
2415
5555
ff60
01a1
cafe
280e
5555
ff60
021a
cafe
2c1e
5555
ff60
01a6
cafe
3006
5555
ff60
01a1
cafe
3416
5555
ff64
017e
cafe
380f
5555
ff64
0236
cafe
3c1f
5555
ff64
0192
cafe
2007
5555
ff64
017b
cafe
2417
5555
ff68
017b
cafe
2808
5555
ff68
019c
cafe
2c18
5555
ff68
01c7
cafe
3000
5555
ff68
01b3
cafe
3410
5555
ff6c
01f4
cafe
3809
5555
ff6c
0128
cafe
3c19
5555
ff6c
0196
cafe
2001
5555
ff6c
01b8
cafe
2411
5555
ff70
0165
cafe
280a
5555
ff70
0156
cafe
2c1a
5555
ff70
012a
cafe
3002
5555
ff70
017d
cafe
3412
5555
ff74
01c5
cafe
380b
5555
ff74
01c1
cafe
3c1b
5555
ff74
-
0175
cafe
2003
5555
ff74
012f
cafe
2413
5555
ff78
014d
cafe
280c
5555
ff78
0175
cafe
2c1c
5555
ff78
015c
cafe
3004
5555
ff78
0192
cafe
3414
5555
ff7c
0140
cafe
380d
5555
ff7c
015f
cafe
3c1d
5555
ff7c
017f
cafe
2005
5555
ff7c
01f7
cafe
2415
5555
ff80
01a1
cafe
280e
5555
ff80
0216
cafe
2c1e
5555
ff80
01a9
cafe
3006
5555
ff80
01a0
cafe
3416
5555
ff84
0187
cafe
380f
5555
ff84
0238
cafe
3c1f
5555
ff84
0192
cafe
2007
5555
ff84
017d
cafe
2417
5555
ff88
017f
cafe
2808
5555
ff88
019a
cafe
2c18
5555
ff88
01c2
cafe
3000
5555
ff88
01ba
cafe
3410
5555
ff8c
01f9
cafe
3809
5555
ff8c
0129
cafe
3c19
5555
ff8c
019a
cafe
2001
5555
ff8c
01b5
cafe
2411
5555
ff90
0164
cafe
280a
5555
ff90
015a
cafe
2c1a
5555
ff90
0129
cafe
3002
5555
ff90
017c
cafe
3412
5555
ff94
01c9
cafe
380b
5555
ff94
01c6
cafe
3c1b
5555
ff94
017b
cafe
2003
5555
ff94
012e
cafe
2413
5555
ff98
0148
cafe
280c
5555
ff98
0177
cafe
2c1c
5555
ff98
0160
cafe
3004
5555
ff98
0192
cafe
3414
5555
ff9c
0139
cafe
380d
5555
ff9c
0163
cafe
3c1d
5555
ff9c
0181
cafe
2005
5555
ff9c
01fa
cafe
2415
5555
ffa0
01a3
cafe
280e
5555
ffa0
0216
cafe
2c1e
5555
ffa0
01a5
cafe
3006
5555
ffa0
01a0
cafe
3416
5555
ffa4
0184
cafe
380f
5555
ffa4
0233
cafe
3c1f
5555
ffa4
0191
cafe
2007
5555
ffa4
017f
cafe
2417
5555
ffa8
0180
cafe
2808
5555
ffa8
019c
-
cafe
2c18
5555
ffa8
01c2
cafe
3000
5555
ffa8
01b9
cafe
3410
5555
ffac
01f5
cafe
3809
5555
ffac
0126
cafe
3c19
5555
ffac
019c
cafe
2001
5555
ffac
01b2
cafe
2411
5555
ffb0
0164
cafe
280a
5555
ffb0
0154
cafe
2c1a
5555
ffb0
0127
cafe
3002
5555
ffb0
017e
cafe
3412
5555
ffb4
01cc
cafe
380b
5555
ffb4
01c5
cafe
3c1b
5555
ffb4
0178
cafe
2003
5555
ffb4
012e
cafe
2413
5555
ffb8
0146
cafe
280c
5555
ffb8
0176
cafe
2c1c
5555
ffb8
0160
cafe
3004
5555
ffb8
0194
cafe
3414
5555
ffbc
013d
cafe
380d
5555
ffbc
0169
cafe
3c1d
5555
ffbc
0182
cafe
2005
5555
ffbc
01f7
cafe
2415
5555
ffc0
01a9
cafe
280e
5555
ffc0
021a
cafe
2c1e
5555
ffc0
01a6
cafe
3006
5555
ffc0
01a7
cafe
3416
5555
ffc4
0183
cafe
380f
5555
ffc4
0231
cafe
3c1f
5555
ffc4
0194
cafe
2007
5555
ffc4
017c
cafe
2417
5555
ffc8
0185
cafe
2808
5555
ffc8
0197
cafe
2c18
5555
ffc8
01c6
cafe
3000
5555
ffc8
01b5
cafe
3410
5555
ffcc
01fb
cafe
3809
5555
ffcc
0122
cafe
3c19
5555
ffcc
019d
cafe
2001
5555
ffcc
01ac
cafe
2411
5555
ffd0
0160
cafe
280a
5555
ffd0
0151
cafe
2c1a
5555
ffd0
0122
cafe
3002
5555
ffd0
017f
cafe
3412
5555
ffd4
01c9
cafe
380b
5555
ffd4
01c6
cafe
3c1b
5555
ffd4
017b
cafe
2003
5555
ffd4
0131
cafe
2413
5555
ffd8
0149
cafe
280c
5555
ffd8
017c
cafe
2c1c
5555
ffd8
015a
cafe
3004
5555
ffd8
0195
cafe
3414
5555
ffdc
0140
cafe
-
380d
5555
ffdc
0167
cafe
3c1d
5555
ffdc
0186
cafe
2005
5555
ffdc
01f3
cafe
2415
5555
ffe0
01a5
cafe
280e
5555
ffe0
021c
cafe
2c1e
5555
ffe0
01a9
cafe
3006
5555
ffe0
01a7
cafe
3416
5555
ffe4
0181
cafe
380f
5555
ffe4
0231
cafe
3c1f
5555
ffe4
0195
cafe
2007
5555
ffe4
0181
cafe
2417
5555
ffe8
0186
cafe
2808
5555
ffe8
0198
cafe
2c18
5555
ffe8
01c9
cafe
3000
5555
ffe8
01b4
cafe
3410
5555
ffec
01fb
cafe
3809
5555
ffec
0123
cafe
3c19
5555
ffec
019d
cafe
2001
5555
ffec
01ab
cafe
2411
5555
fff0
0161
cafe
280a
5555
fff0
014f
cafe
2c1a
5555
fff0
011d
cafe
3002
5555
fff0
017d
cafe
3412
5555
fff4
01c8
cafe
380b
5555
fff4
01c9
cafe
3c1b
5555
fff4
0179
cafe
2003
5555
fff4
0134
cafe
2413
5555
fff8
0145
cafe
280c
5555
fff8
017d
cafe
2c1c
5555
fff8
015b
cafe
3004
5555
fff8
0194
cafe
3414
5555
fffc
0140
cafe
380d
5555
fffc
0165
cafe
3c1d
5555
fffc
0183
cafe
2005
5555
fffc
01f0
cafe
2415
5556
0000
019a
cafe
280e
5556
0000
0215
cafe
2c1e
5556
0000
01ae
cafe
3006
5556
0000
01a2
cafe
3416
5556
0004
0180
cafe
380f
5556
0004
0234
cafe
3c1f
5556
0004
018e
cafe
2007
5556
0004
0183
cafe
2417
5556
0008
0181
cafe
2808
5556
0008
0198
cafe
2c18
5556
0008
01c6
cafe
3000
5556
0008
01b2
cafe
3410
5556
000c
01f6
cafe
3809
5556
000c
0120
cafe
3c19
5556
000c
019a
cafe
2001
5556
000c
01b0
cafe
2411
-
5556
0010
015f
cafe
280a
5556
0010
014e
cafe
2c1a
5556
0010
0121
cafe
3002
5556
0010
0184
cafe
3412
5556
0014
01cc
cafe
380b
5556
0014
01c2
cafe
3c1b
5556
0014
0176
cafe
2003
5556
0014
0130
cafe
2413
5556
0018
014c
cafe
280c
5556
0018
0175
cafe
2c1c
5556
0018
0157
cafe
3004
5556
0018
0195
cafe
3414
5556
001c
0143
cafe
380d
5556
001c
0166
cafe
3c1d
5556
001c
0187
cafe
2005
5556
001c
01ef
cafe
2415
5556
0020
0194
cafe
280e
5556
0020
021c
cafe
2c1e
5556
0020
01ad
cafe
3006
5556
0020
01a5
cafe
3416
5556
0024
017e
cafe
380f
5556
0024
0235
cafe
3c1f
5556
0024
0187
cafe
2007
5556
0024
0181
cafe
2417
5556
0028
017e
cafe
2808
5556
0028
019a
cafe
2c18
5556
0028
01c8
cafe
3000
5556
0028
01ac
cafe
3410
5556
002c
01ed
cafe
3809
5556
002c
011d
cafe
3c19
5556
002c
019c
cafe
2001
5556
002c
01ae
cafe
2411
5556
0030
0165
cafe
280a
5556
0030
014e
cafe
2c1a
5556
0030
011c
cafe
3002
5556
0030
0185
cafe
3412
5556
0034
01cd
cafe
380b
5556
0034
01c1
cafe
3c1b
5556
0034
017b
cafe
2003
5556
0034
0131
cafe
2413
5556
0038
014a
cafe
280c
5556
0038
0177
cafe
2c1c
5556
0038
0153
cafe
3004
5556
0038
0191
cafe
3414
5556
003c
014b
cafe
380d
5556
003c
0165
cafe
3c1d
5556
003c
018e
cafe
2005
5556
003c
01f4
cafe
2415
5556
0040
0197
cafe
280e
5556
0040
0219
cafe
2c1e
5556
0040
01ad
cafe
3006
5556
-
0040
01aa
cafe
3416
5556
0044
017c
cafe
380f
5556
0044
0233
cafe
3c1f
5556
0044
018c
cafe
2007
5556
0044
0175
cafe
2417
5556
0048
017b
cafe
2808
5556
0048
0197
cafe
2c18
5556
0048
01c2
cafe
3000
5556
0048
01ac
cafe
3410
5556
004c
01f2
cafe
3809
5556
004c
011e
cafe
3c19
5556
004c
019d
cafe
2001
5556
004c
01b0
cafe
2411
5556
0050
0165
cafe
280a
5556
0050
0145
cafe
2c1a
5556
0050
0121
cafe
3002
5556
0050
0186
cafe
3412
5556
0054
01ce
cafe
380b
5556
0054
01c3
cafe
3c1b
5556
0054
017b
cafe
2003
5556
0054
0130
cafe
2413
5556
0058
014f
cafe
280c
5556
0058
017c
cafe
2c1c
5556
0058
015b
cafe
3004
5556
0058
018f
cafe
3414
5556
005c
0148
cafe
380d
5556
005c
0168
cafe
3c1d
5556
005c
018b
cafe
2005
5556
005c
01f6
cafe
2415
5556
0060
019d
cafe
280e
5556
0060
0215
cafe
2c1e
5556
0060
01ac
cafe
3006
5556
0060
01af
cafe
3416
5556
0064
017b
cafe
380f
5556
0064
0237
cafe
3c1f
5556
0064
0191
cafe
2007
5556
0064
0176
cafe
2417
5556
0068
017b
cafe
2808
5556
0068
0197
cafe
2c18
5556
0068
01c4
cafe
3000
5556
0068
01a5
cafe
3410
5556
006c
01ed
cafe
3809
5556
006c
0120
cafe
3c19
5556
006c
019f
cafe
2001
5556
006c
01b3
cafe
2411
5556
0070
016b
cafe
280a
5556
0070
0149
cafe
2c1a
5556
0070
0121
cafe
3002
5556
0070
0180
cafe
3412
5556
0074
01c6
cafe
380b
5556
0074
01c3
cafe
3c1b
5556
0074
-
017b
cafe
2003
5556
0074
0133
cafe
2413
5556
0078
014d
cafe
280c
5556
0078
0179
cafe
2c1c
5556
0078
015f
cafe
3004
5556
0078
0195
cafe
3414
5556
007c
0148
cafe
380d
5556
007c
0167
cafe
3c1d
5556
007c
0189
cafe
2005
5556
007c
01f6
cafe
2415
5556
0080
01a0
cafe
280e
5556
0080
0211
cafe
2c1e
5556
0080
01ac
cafe
3006
5556
0080
01ab
cafe
3416
5556
0084
0181
cafe
380f
5556
0084
023f
cafe
3c1f
5556
0084
0195
cafe
2007
5556
0084
0172
cafe
2417
5556
0088
0178
cafe
2808
5556
0088
0198
cafe
2c18
5556
0088
01c2
cafe
3000
5556
0088
01a9
cafe
3410
5556
008c
01e9
cafe
3809
5556
008c
0121
cafe
3c19
5556
008c
019c
cafe
2001
5556
008c
01ad
cafe
2411
5556
0090
0166
cafe
280a
5556
0090
0147
cafe
2c1a
5556
0090
011d
cafe
3002
5556
0090
0179
cafe
3412
5556
0094
01c8
cafe
380b
5556
0094
01bf
cafe
3c1b
5556
0094
017d
cafe
2003
5556
0094
0134
cafe
2413
5556
0098
014f
cafe
280c
5556
0098
0178
cafe
2c1c
5556
0098
015f
cafe
3004
5556
0098
0190
cafe
3414
5556
009c
014a
cafe
380d
5556
009c
0169
cafe
3c1d
5556
009c
0189
cafe
2005
5556
009c
01f6
cafe
2415
5556
00a0
019c
cafe
280e
5556
00a0
0211
cafe
2c1e
5556
00a0
01a9
cafe
3006
5556
00a0
01b1
cafe
3416
5556
00a4
0189
cafe
380f
5556
00a4
023c
cafe
3c1f
5556
00a4
0193
cafe
2007
5556
00a4
0173
cafe
2417
5556
00a8
017b
cafe
2808
5556
00a8
01a2
-
cafe
2c18
5556
00a8
01c3
cafe
3000
5556
00a8
01ab
cafe
3410
5556
00ac
01ec
cafe
3809
5556
00ac
011c
cafe
3c19
5556
00ac
0193
cafe
2001
5556
00ac
01ad
cafe
2411
5556
00b0
0162
cafe
280a
5556
00b0
0147
cafe
2c1a
5556
00b0
011c
cafe
3002
5556
00b0
017c
cafe
3412
5556
00b4
01c4
cafe
380b
5556
00b4
01c1
cafe
3c1b
5556
00b4
0183
cafe
2003
5556
00b4
0134
cafe
2413
5556
00b8
014f
cafe
280c
5556
00b8
0173
cafe
2c1c
5556
00b8
0160
cafe
3004
5556
00b8
0188
cafe
3414
5556
00bc
0147
cafe
380d
5556
00bc
0169
cafe
3c1d
5556
00bc
018c
cafe
2005
5556
00bc
01fb
cafe
2415
5556
00c0
019c
cafe
280e
5556
00c0
020f
cafe
2c1e
5556
00c0
01a3
cafe
3006
5556
00c0
01b1
cafe
3416
5556
00c4
0189
cafe
380f
5556
00c4
0238
cafe
3c1f
5556
00c4
019a
cafe
2007
5556
00c4
0170
cafe
2417
5556
00c8
0177
cafe
2808
5556
00c8
01a2
cafe
2c18
5556
00c8
01c3
cafe
3000
5556
00c8
01b6
cafe
3410
5556
00cc
01e9
cafe
3809
5556
00cc
0119
cafe
3c19
5556
00cc
0192
cafe
2001
5556
00cc
01ad
cafe
2411
5556
00d0
0162
cafe
280a
5556
00d0
014e
cafe
2c1a
5556
00d0
011c
cafe
3002
5556
00d0
017b
cafe
3412
5556
00d4
01c7
cafe
380b
5556
00d4
01c3
cafe
3c1b
5556
00d4
0184
cafe
2003
5556
00d4
0132
cafe
2413
5556
00d8
0152
cafe
280c
5556
00d8
0170
cafe
2c1c
5556
00d8
015d
cafe
3004
5556
00d8
0187
cafe
3414
5556
00dc
0140
cafe
-
380d
5556
00dc
0167
cafe
3c1d
5556
00dc
018f
cafe
2005
5556
00dc
01fb
cafe
2415
5556
00e0
01a2
cafe
280e
5556
00e0
0210
cafe
2c1e
5556
00e0
01a2
cafe
3006
5556
00e0
01ae
cafe
3416
5556
00e4
018a
cafe
380f
5556
00e4
0239
cafe
3c1f
5556
00e4
019d
cafe
2007
5556
00e4
0178
cafe
2417
5556
00e8
017b
cafe
2808
5556
00e8
01a0
cafe
2c18
5556
00e8
01bd
cafe
3000
5556
00e8
01b7
cafe
3410
5556
00ec
01e4
cafe
3809
5556
00ec
0117
cafe
3c19
5556
00ec
0198
cafe
2001
5556
00ec
01ac
cafe
2411
5556
00f0
0160
cafe
280a
5556
00f0
014a
cafe
2c1a
5556
00f0
0119
cafe
3002
5556
00f0
017a
cafe
3412
5556
00f4
01be
cafe
380b
5556
00f4
01c4
cafe
3c1b
5556
00f4
0182
cafe
2003
5556
00f4
012e
cafe
2413
5556
00f8
0156
cafe
280c
5556
00f8
0175
cafe
2c1c
5556
00f8
015a
cafe
3004
5556
00f8
018f
cafe
3414
5556
00fc
0141
cafe
380d
5556
00fc
0169
cafe
3c1d
5556
00fc
018a
cafe
2005
5556
00fc
01fc
cafe
2415
5556
0100
01a7
cafe
280e
5556
0100
0217
cafe
2c1e
5556
0100
01a7
cafe
3006
5556
0100
01ad
cafe
3416
5556
0104
0186
cafe
380f
5556
0104
023a
cafe
3c1f
5556
0104
0195
cafe
2007
5556
0104
016e
cafe
2417
5556
0108
0179
cafe
2808
5556
0108
01df
cafe
2c18
5556
0108
01fa
cafe
3000
5556
0108
01f2
cafe
3410
5556
010c
021e
cafe
3809
5556
010c
01ea
cafe
3c19
5556
010c
026b
cafe
2001
5556
010c
027a
cafe
2411
-
5556
0110
022d
cafe
280a
5556
0110
02b9
cafe
2c1a
5556
0110
0289
cafe
3002
5556
0110
02e1
cafe
3412
5556
0114
032c
cafe
380b
5556
0114
03bd
cafe
3c1b
5556
0114
0377
cafe
2003
5556
0114
031a
cafe
2413
5556
0118
034d
cafe
280c
5556
0118
03f3
cafe
2c1c
5556
0118
03cd
cafe
3004
5556
0118
03fb
cafe
3414
5556
011c
03b4
cafe
380d
5556
011c
0458
cafe
3c1d
5556
011c
0466
cafe
2005
5556
011c
04d5
cafe
2415
5556
0120
0487
cafe
280e
5556
0120
056f
cafe
2c1e
5556
0120
04e8
cafe
3006
5556
0120
04f2
cafe
3416
5556
0124
04c8
cafe
380f
5556
0124
05ec
cafe
3c1f
5556
0124
052f
cafe
2007
5556
0124
0505
cafe
2417
5556
0128
0516
cafe
2808
5556
0128
05a7
cafe
2c18
5556
0128
05bb
cafe
3000
5556
0128
05a6
cafe
3410
5556
012c
05de
cafe
3809
5556
012c
0553
cafe
3c19
5556
012c
05cd
cafe
2001
5556
012c
05dd
cafe
2411
5556
0130
05a0
cafe
280a
5556
0130
05d9
cafe
2c1a
5556
0130
059c
cafe
3002
5556
0130
05e8
cafe
3412
5556
0134
064d
cafe
380b
5556
0134
068d
cafe
3c1b
5556
0134
0637
cafe
2003
5556
0134
05cf
cafe
2413
5556
0138
0613
cafe
280c
5556
0138
0683
cafe
2c1c
5556
0138
064d
cafe
3004
5556
0138
0678
cafe
3414
5556
013c
0633
cafe
380d
5556
013c
06a2
cafe
3c1d
5556
013c
069b
cafe
2005
5556
013c
070c
cafe
2415
5556
0140
06c7
cafe
280e
5556
0140
077b
cafe
2c1e
5556
0140
06f3
cafe
3006
5556
-
0140
06fc
cafe
3416
5556
0144
06cd
cafe
380f
5556
0144
07c6
cafe
3c1f
5556
0144
06fc
cafe
2007
5556
0144
06cc
cafe
2417
5556
0148
06e2
cafe
2808
5556
0148
074c
cafe
2c18
5556
0148
0751
cafe
3000
5556
0148
073b
cafe
3410
5556
014c
077b
cafe
3809
5556
014c
06bc
cafe
3c19
5556
014c
073a
cafe
2001
5556
014c
0751
cafe
2411
5556
0150
0713
cafe
280a
5556
0150
0723
cafe
2c1a
5556
0150
06e2
cafe
3002
5556
0150
072a
cafe
3412
5556
0154
0792
cafe
380b
5556
0154
07a8
cafe
3c1b
5556
0154
0757
cafe
2003
5556
0154
06ed
cafe
2413
5556
0158
0735
cafe
280c
5556
0158
077e
cafe
2c1c
5556
0158
0750
cafe
3004
5556
0158
0779
cafe
3414
5556
015c
0729
cafe
380d
5556
015c
0786
cafe
3c1d
5556
015c
0775
cafe
2005
5556
015c
07e6
cafe
2415
5556
0160
07ab
cafe
280e
5556
0160
0848
cafe
2c1e
5556
0160
07b2
cafe
3006
5556
0160
07bf
cafe
3416
5556
0164
0787
cafe
380f
5556
0164
0878
cafe
3c1f
5556
0164
07a0
cafe
2007
5556
0164
0771
cafe
2417
5556
0168
0786
cafe
2808
5556
0168
07db
cafe
2c18
5556
0168
07df
cafe
3000
5556
0168
07c7
cafe
3410
5556
016c
080d
cafe
3809
5556
016c
072e
cafe
3c19
5556
016c
07b1
cafe
2001
5556
016c
07ce
cafe
2411
5556
0170
0789
cafe
280a
5556
0170
078a
cafe
2c1a
5556
0170
0743
cafe
3002
5556
0170
0790
cafe
3412
5556
0174
07f3
cafe
380b
5556
0174
07fc
cafe
3c1b
5556
0174
-
07ae
cafe
2003
5556
0174
073c
cafe
2413
5556
0178
0791
cafe
280c
5556
0178
07c5
cafe
2c1c
5556
0178
078d
cafe
3004
5556
0178
07bc
cafe
3414
5556
017c
076a
cafe
380d
5556
017c
07b9
cafe
3c1d
5556
017c
07aa
cafe
2005
5556
017c
0817
cafe
2415
5556
0180
07dc
cafe
280e
5556
0180
086f
cafe
2c1e
5556
0180
07d4
cafe
3006
5556
0180
07ea
cafe
3416
5556
0184
07a9
cafe
380f
5556
0184
0896
cafe
3c1f
5556
0184
07bb
cafe
2007
5556
0184
0789
cafe
2417
5556
0188
079b
cafe
2808
5556
0188
07ed
cafe
2c18
5556
0188
07e9
cafe
3000
5556
0188
07d2
cafe
3410
5556
018c
081a
cafe
3809
5556
018c
0730
cafe
3c19
5556
018c
07ac
cafe
2001
5556
018c
07d7
cafe
2411
5556
0190
0784
cafe
280a
5556
0190
077f
cafe
2c1a
5556
0190
073c
cafe
3002
5556
0190
0789
cafe
3412
5556
0194
07ed
cafe
380b
5556
0194
07e6
cafe
3c1b
5556
0194
079a
cafe
2003
5556
0194
0727
cafe
2413
5556
0198
077e
cafe
280c
5556
0198
07b3
cafe
2c1c
5556
0198
076e
cafe
3004
5556
0198
07a5
cafe
3414
5556
019c
0748
cafe
380d
5556
019c
07a0
cafe
3c1d
5556
019c
0788
cafe
2005
5556
019c
07fb
cafe
2415
5556
01a0
07c8
cafe
280e
5556
01a0
084e
cafe
2c1e
5556
01a0
07af
cafe
3006
5556
01a0
07c1
cafe
3416
5556
01a4
0784
cafe
380f
5556
01a4
086d
cafe
3c1f
5556
01a4
0793
cafe
2007
5556
01a4
075b
cafe
2417
5556
01a8
0771
cafe
2808
5556
01a8
07c1
-
cafe
2c18
5556
01a8
07b4
cafe
3000
5556
01a8
07a4
cafe
3410
5556
01ac
07ee
cafe
3809
5556
01ac
06fb
cafe
3c19
5556
01ac
0773
cafe
2001
5556
01ac
07a0
cafe
2411
5556
01b0
074c
cafe
280a
5556
01b0
073a
cafe
2c1a
5556
01b0
06fe
cafe
3002
5556
01b0
074b
cafe
3412
5556
01b4
07ad
cafe
380b
5556
01b4
07a9
cafe
3c1b
5556
01b4
0758
cafe
2003
5556
01b4
06e8
cafe
2413
5556
01b8
073b
cafe
280c
5556
01b8
0771
cafe
2c1c
5556
01b8
072d
cafe
3004
5556
01b8
0762
cafe
3414
5556
01bc
06ff
cafe
380d
5556
01bc
0762
cafe
3c1d
5556
01bc
073c
cafe
2005
5556
01bc
07bd
cafe
2415
5556
01c0
0787
cafe
280e
5556
01c0
080d
cafe
2c1e
5556
01c0
0763
cafe
3006
5556
01c0
077d
cafe
3416
5556
01c4
0744
cafe
380f
5556
01c4
0826
cafe
3c1f
5556
01c4
0742
cafe
2007
5556
01c4
070c
cafe
2417
5556
01c8
0722
cafe
2808
5556
01c8
0773
cafe
2c18
5556
01c8
0763
cafe
3000
5556
01c8
0752
cafe
3410
5556
01cc
07a5
cafe
3809
5556
01cc
06a9
cafe
3c19
5556
01cc
0724
cafe
2001
5556
01cc
075d
cafe
2411
5556
01d0
06fd
cafe
280a
5556
01d0
06e6
cafe
2c1a
5556
01d0
06b1
cafe
3002
5556
01d0
06f7
cafe
3412
5556
01d4
0759
cafe
380b
5556
01d4
0753
cafe
3c1b
5556
01d4
06ff
cafe
2003
5556
01d4
0697
cafe
2413
5556
01d8
06ed
cafe
280c
5556
01d8
0719
cafe
2c1c
5556
01d8
06d5
cafe
3004
5556
01d8
0711
cafe
3414
5556
01dc
06a8
cafe
-
380d
5556
01dc
070e
cafe
3c1d
5556
01dc
06e5
cafe
2005
5556
01dc
0767
cafe
2415
5556
01e0
0734
cafe
280e
5556
01e0
07b6
cafe
2c1e
5556
01e0
0712
cafe
3006
5556
01e0
0724
cafe
3416
5556
01e4
06ef
cafe
380f
5556
01e4
07d2
cafe
3c1f
5556
01e4
06e9
cafe
2007
5556
01e4
06bf
cafe
2417
5556
01e8
06c7
cafe
2808
5556
01e8
071a
cafe
2c18
5556
01e8
070d
cafe
3000
5556
01e8
06f6
cafe
3410
5556
01ec
074b
cafe
3809
5556
01ec
064f
cafe
3c19
5556
01ec
06c5
cafe
2001
5556
01ec
0707
cafe
2411
5556
01f0
06ac
cafe
280a
5556
01f0
0685
cafe
2c1a
5556
01f0
065a
cafe
3002
5556
01f0
0698
cafe
3412
5556
01f4
0707
cafe
380b
5556
01f4
0703
cafe
3c1b
5556
01f4
06a1
cafe
2003
5556
01f4
0648
cafe
2413
5556
01f8
0690
cafe
280c
5556
01f8
06c0
cafe
2c1c
5556
01f8
067d
cafe
3004
5556
01f8
06b6
cafe
3414
5556
01fc
064b
cafe
380d
5556
01fc
06b5
cafe
3c1d
5556
01fc
0689
cafe
2005
5556
01fc
070d
cafe
2415
5556
0200
06de
cafe
280e
5556
0200
0765
cafe
2c1e
5556
0200
06b7
cafe
3006
5556
0200
06cd
cafe
3416
5556
0204
0697
cafe
380f
5556
0204
0774
cafe
3c1f
5556
0204
068b
cafe
2007
5556
0204
066d
cafe
2417
5556
0208
066f
cafe
2808
5556
0208
06bc
cafe
2c18
5556
0208
06b3
cafe
3000
5556
0208
069d
cafe
3410
5556
020c
06ed
cafe
3809
5556
020c
05f3
cafe
3c19
5556
020c
066e
cafe
2001
5556
020c
06af
cafe
2411
-
5556
0210
0654
cafe
280a
5556
0210
0624
cafe
2c1a
5556
0210
0608
cafe
3002
5556
0210
0639
cafe
3412
5556
0214
06ae
cafe
380b
5556
0214
06a7
cafe
3c1b
5556
0214
0645
cafe
2003
5556
0214
05ed
cafe
2413
5556
0218
063a
cafe
280c
5556
0218
066c
cafe
2c1c
5556
0218
061e
cafe
3004
5556
0218
0661
cafe
3414
5556
021c
05eb
cafe
380d
5556
021c
065f
cafe
3c1d
5556
021c
0637
cafe
2005
5556
021c
06b0
cafe
2415
5556
0220
068d
cafe
280e
5556
0220
070b
cafe
2c1e
5556
0220
0659
cafe
3006
5556
0220
067d
cafe
3416
5556
0224
063c
cafe
380f
5556
0224
0720
cafe
3c1f
5556
0224
0631
cafe
2007
5556
0224
0617
cafe
2417
5556
0228
061d
cafe
2808
5556
0228
0669
cafe
2c18
5556
0228
0655
cafe
3000
5556
0228
0641
cafe
3410
5556
022c
0692
cafe
3809
5556
022c
0599
cafe
3c19
5556
022c
0611
cafe
2001
5556
022c
065d
cafe
2411
5556
0230
05f3
cafe
280a
5556
0230
05c2
cafe
2c1a
5556
0230
05aa
cafe
3002
5556
0230
05e3
cafe
3412
5556
0234
0659
cafe
380b
5556
0234
064d
cafe
3c1b
5556
0234
05ed
cafe
2003
5556
0234
0598
cafe
2413
5556
0238
05de
cafe
280c
5556
0238
0618
cafe
2c1c
5556
0238
05c4
cafe
3004
5556
0238
0611
cafe
3414
5556
023c
0591
cafe
380d
5556
023c
060d
cafe
3c1d
5556
023c
05da
cafe
2005
5556
023c
0657
cafe
2415
5556
0240
0635
cafe
280e
5556
0240
06bc
cafe
2c1e
5556
0240
05ff
cafe
3006
5556
-
0240
0626
cafe
3416
5556
0244
05de
cafe
380f
5556
0244
06c8
cafe
3c1f
5556
0244
05d7
cafe
2007
5556
0244
05c1
cafe
2417
5556
0248
05ce
cafe
2808
5556
0248
0612
cafe
2c18
5556
0248
0605
cafe
3000
5556
0248
05ec
cafe
3410
5556
024c
063d
cafe
3809
5556
024c
0547
cafe
3c19
5556
024c
05bb
cafe
2001
5556
024c
060d
cafe
2411
5556
0250
059e
cafe
280a
5556
0250
0573
cafe
2c1a
5556
0250
0551
cafe
3002
5556
0250
0597
cafe
3412
5556
0254
0607
cafe
380b
5556
0254
05f5
cafe
3c1b
5556
0254
0591
cafe
2003
5556
0254
0546
cafe
2413
5556
0258
058d
cafe
280c
5556
0258
05c1
cafe
2c1c
5556
0258
056e
cafe
3004
5556
0258
05bf
cafe
3414
5556
025c
0537
cafe
380d
5556
025c
05ba
cafe
3c1d
5556
025c
057d
cafe
2005
5556
025c
0605
cafe
2415
5556
0260
05e2
cafe
280e
5556
0260
066c
cafe
2c1e
5556
0260
05ac
cafe
3006
5556
0260
05d6
cafe
3416
5556
0264
058a
cafe
380f
5556
0264
0679
cafe
3c1f
5556
0264
0586
cafe
2007
5556
0264
0574
cafe
2417
5556
0268
0587
cafe
2808
5556
0268
05c4
cafe
2c18
5556
0268
05b7
cafe
3000
5556
0268
059f
cafe
3410
5556
026c
05ef
cafe
3809
5556
026c
04f9
cafe
3c19
5556
026c
056b
cafe
2001
5556
026c
05b9
cafe
2411
5556
0270
0553
cafe
280a
5556
0270
0522
cafe
2c1a
5556
0270
0506
cafe
3002
5556
0270
054c
cafe
3412
5556
0274
05b2
cafe
380b
5556
0274
05a5
cafe
3c1b
5556
0274
-
0541
cafe
2003
5556
0274
04f6
cafe
2413
5556
0278
053b
cafe
280c
5556
0278
056e
cafe
2c1c
5556
0278
0522
cafe
3004
5556
0278
056f
cafe
3414
5556
027c
04ea
cafe
380d
5556
027c
056e
cafe
3c1d
5556
027c
0531
cafe
2005
5556
027c
05b4
cafe
2415
5556
0280
0592
cafe
280e
5556
0280
0616
cafe
2c1e
5556
0280
0558
cafe
3006
5556
0280
058f
cafe
3416
5556
0284
0542
cafe
380f
5556
0284
062d
cafe
3c1f
5556
0284
053d
cafe
2007
5556
0284
052b
cafe
2417
5556
0288
0538
cafe
2808
5556
0288
0572
cafe
2c18
5556
0288
0562
cafe
3000
5556
0288
0551
cafe
3410
5556
028c
05a2
cafe
3809
5556
028c
04aa
cafe
3c19
5556
028c
051f
cafe
2001
5556
028c
056d
cafe
2411
5556
0290
0505
cafe
280a
5556
0290
04dd
cafe
2c1a
5556
0290
04ba
cafe
3002
5556
0290
0501
cafe
3412
5556
0294
056b
cafe
380b
5556
0294
0559
cafe
3c1b
5556
0294
04f8
cafe
2003
5556
0294
04ac
cafe
2413
5556
0298
04f5
cafe
280c
5556
0298
0527
cafe
2c1c
5556
0298
04d7
cafe
3004
5556
0298
052d
cafe
3414
5556
029c
04a0
cafe
380d
5556
029c
0525
cafe
3c1d
5556
029c
04e9
cafe
2005
5556
029c
0567
cafe
2415
5556
02a0
054c
cafe
280e
5556
02a0
05d2
cafe
2c1e
5556
02a0
050c
cafe
3006
5556
02a0
0544
cafe
3416
5556
02a4
04fb
cafe
380f
5556
02a4
05e2
cafe
3c1f
5556
02a4
04f7
cafe
2007
5556
02a4
04df
cafe
2417
5556
02a8
04f0
cafe
2808
5556
02a8
052a
-
cafe
2c18
5556
02a8
0519
cafe
3000
5556
02a8
050b
cafe
3410
5556
02ac
055d
cafe
3809
5556
02ac
0463
cafe
3c19
5556
02ac
04d7
cafe
2001
5556
02ac
0522
cafe
2411
5556
02b0
04c1
cafe
280a
5556
02b0
0499
cafe
2c1a
5556
02b0
0470
cafe
3002
5556
02b0
04bf
cafe
3412
5556
02b4
0520
cafe
380b
5556
02b4
0516
cafe
3c1b
5556
02b4
04b2
cafe
2003
5556
02b4
046a
cafe
2413
5556
02b8
04b5
cafe
280c
5556
02b8
04e5
cafe
2c1c
5556
02b8
049b
cafe
3004
5556
02b8
04e5
cafe
3414
5556
02bc
0459
cafe
380d
5556
02bc
04d8
cafe
3c1d
5556
02bc
04a7
cafe
2005
5556
02bc
0526
cafe
2415
5556
02c0
0509
cafe
280e
5556
02c0
0595
cafe
2c1e
5556
02c0
04c4
cafe
3006
5556
02c0
0500
cafe
3416
5556
02c4
04c0
cafe
380f
5556
02c4
059b
cafe
3c1f
5556
02c4
04b1
cafe
2007
5556
02c4
049f
cafe
2417
5556
02c8
04a5
cafe
2808
5556
02c8
04ec
cafe
2c18
5556
02c8
04dd
cafe
3000
5556
02c8
04c6
cafe
3410
5556
02cc
051a
cafe
3809
5556
02cc
041f
cafe
3c19
5556
02cc
0495
cafe
2001
5556
02cc
04e0
cafe
2411
5556
02d0
047d
cafe
280a
5556
02d0
0455
cafe
2c1a
5556
02d0
0431
cafe
3002
5556
02d0
0481
cafe
3412
5556
02d4
04e0
cafe
380b
5556
02d4
04ce
cafe
3c1b
5556
02d4
046c
cafe
2003
5556
02d4
042c
cafe
2413
5556
02d8
0473
cafe
280c
5556
02d8
04aa
cafe
2c1c
5556
02d8
0459
cafe
3004
5556
02d8
049d
cafe
3414
5556
02dc
0413
cafe
-
380d
5556
02dc
0497
cafe
3c1d
5556
02dc
0462
cafe
2005
5556
02dc
04ee
cafe
2415
5556
02e0
04cc
cafe
280e
5556
02e0
055b
cafe
2c1e
5556
02e0
048b
cafe
3006
5556
02e0
04c1
cafe
3416
5556
02e4
047c
cafe
380f
5556
02e4
055d
cafe
3c1f
5556
02e4
0467
cafe
2007
5556
02e4
0462
cafe
2417
5556
02e8
0467
cafe
2808
5556
02e8
04aa
cafe
2c18
5556
02e8
049d
cafe
3000
5556
02e8
0487
cafe
3410
5556
02ec
04db
cafe
3809
5556
02ec
03dd
cafe
3c19
5556
02ec
0456
cafe
2001
5556
02ec
04a0
cafe
2411
5556
02f0
043d
cafe
280a
5556
02f0
0416
cafe
2c1a
5556
02f0
03f4
cafe
3002
5556
02f0
0441
cafe
3412
5556
02f4
04a4
cafe
380b
5556
02f4
0490
cafe
3c1b
5556
02f4
0433
cafe
2003
5556
02f4
03ec
cafe
2413
5556
02f8
0436
cafe
280c
5556
02f8
0466
cafe
2c1c
5556
02f8
0417
cafe
3004
5556
02f8
0461
cafe
3414
5556
02fc
03d1
cafe
380d
5556
02fc
045a
cafe
3c1d
5556
02fc
0427
cafe
2005
5556
02fc
04b4
cafe
2415
5556
0300
048f
cafe
280e
5556
0300
0520
cafe
2c1e
5556
0300
0450
cafe
3006
5556
0300
0488
cafe
3416
5556
0304
0443
cafe
380f
5556
0304
0523
cafe
3c1f
5556
0304
0429
cafe
2007
5556
0304
042c
cafe
2417
5556
0308
042f
cafe
2808
5556
0308
046c
cafe
2c18
5556
0308
045e
cafe
3000
5556
0308
044d
cafe
3410
5556
030c
049d
cafe
3809
5556
030c
03a2
cafe
3c19
5556
030c
041f
cafe
2001
5556
030c
0464
cafe
2411
-
5556
0310
0402
cafe
280a
5556
0310
03db
cafe
2c1a
5556
0310
03ba
cafe
3002
5556
0310
0407
cafe
3412
5556
0314
046d
cafe
380b
5556
0314
045f
cafe
3c1b
5556
0314
03fb
cafe
2003
5556
0314
03b2
cafe
2413
5556
0318
03fa
cafe
280c
5556
0318
042c
cafe
2c1c
5556
0318
03e1
cafe
3004
5556
0318
042b
cafe
3414
5556
031c
0399
cafe
380d
5556
031c
0424
cafe
3c1d
5556
031c
03f4
cafe
2005
5556
031c
0480
cafe
2415
5556
0320
0456
cafe
280e
5556
0320
04e6
cafe
2c1e
5556
0320
0419
cafe
3006
5556
0320
044e
cafe
3416
5556
0324
040d
cafe
380f
5556
0324
04ea
cafe
3c1f
5556
0324
03f1
cafe
2007
5556
0324
03f6
cafe
2417
5556
0328
03fb
cafe
2808
5556
0328
0432
cafe
2c18
5556
0328
0426
cafe
3000
5556
0328
0415
cafe
3410
5556
032c
046d
cafe
3809
5556
032c
036e
cafe
3c19
5556
032c
03ec
cafe
2001
5556
032c
042c
cafe
2411
5556
0330
03c8
cafe
280a
5556
0330
03a5
cafe
2c1a
5556
0330
0382
cafe
3002
5556
0330
03d3
cafe
3412
5556
0334
043e
cafe
380b
5556
0334
0429
cafe
3c1b
5556
0334
03c5
cafe
2003
5556
0334
037e
cafe
2413
5556
0338
03c4
cafe
280c
5556
0338
03f5
cafe
2c1c
5556
0338
03a9
cafe
3004
5556
0338
03f9
cafe
3414
5556
033c
0365
cafe
380d
5556
033c
03ee
cafe
3c1d
5556
033c
03bf
cafe
2005
5556
033c
0445
cafe
2415
5556
0340
0422
cafe
280e
5556
0340
04b1
cafe
2c1e
5556
0340
03e2
cafe
3006
5556
-
0340
0419
cafe
3416
5556
0344
03d8
cafe
380f
5556
0344
04b8
cafe
3c1f
5556
0344
03be
cafe
2007
5556
0344
03c5
cafe
2417
5556
0348
03cc
cafe
2808
5556
0348
03fd
cafe
2c18
5556
0348
03f4
cafe
3000
5556
0348
03e0
cafe
3410
5556
034c
043f
cafe
3809
5556
034c
033c
cafe
3c19
5556
034c
03b4
cafe
2001
5556
034c
03ff
cafe
2411
5556
0350
0393
cafe
280a
5556
0350
0374
cafe
2c1a
5556
0350
034c
cafe
3002
5556
0350
03a1
cafe
3412
5556
0354
040d
cafe
380b
5556
0354
03f9
cafe
3c1b
5556
0354
039b
cafe
2003
5556
0354
0351
cafe
2413
5556
0358
0391
cafe
280c
5556
0358
03c5
cafe
2c1c
5556
0358
036f
cafe
3004
5556
0358
03c3
cafe
3414
5556
035c
0337
cafe
380d
5556
035c
03be
cafe
3c1d
5556
035c
0393
cafe
2005
5556
035c
0418
cafe
2415
5556
0360
03f2
cafe
280e
5556
0360
0478
cafe
2c1e
5556
0360
03b6
cafe
3006
5556
0360
03e3
cafe
3416
5556
0364
03a3
cafe
380f
5556
0364
0485
cafe
3c1f
5556
0364
0393
cafe
2007
5556
0364
0395
cafe
2417
5556
0368
03a4
cafe
2808
5556
0368
03d0
cafe
2c18
5556
0368
03c2
cafe
3000
5556
0368
03b7
cafe
3410
5556
036c
0411
cafe
3809
5556
036c
0313
cafe
3c19
5556
036c
0387
cafe
2001
5556
036c
03cd
cafe
2411
5556
0370
036c
cafe
280a
5556
0370
0349
cafe
2c1a
5556
0370
031e
cafe
3002
5556
0370
0373
cafe
3412
5556
0374
03e1
cafe
380b
5556
0374
03c1
cafe
3c1b
5556
0374
-
036a
cafe
2003
5556
0374
031d
cafe
2413
5556
0378
035e
cafe
280c
5556
0378
0398
cafe
2c1c
5556
0378
0340
cafe
3004
5556
0378
0393
cafe
3414
5556
037c
030d
cafe
380d
5556
037c
0390
cafe
3c1d
5556
037c
036e
cafe
2005
5556
037c
03ed
cafe
2415
5556
0380
03c8
cafe
280e
5556
0380
0445
cafe
2c1e
5556
0380
038b
cafe
3006
5556
0380
03af
cafe
3416
5556
0384
0374
cafe
380f
5556
0384
045c
cafe
3c1f
5556
0384
0369
cafe
2007
5556
0384
0368
cafe
2417
5556
0388
0378
cafe
2808
5556
0388
03a1
cafe
2c18
5556
0388
039e
cafe
3000
5556
0388
0389
cafe
3410
5556
038c
03e0
cafe
3809
5556
038c
02f0
cafe
3c19
5556
038c
035f
cafe
2001
5556
038c
03a5
cafe
2411
5556
0390
0346
cafe
280a
5556
0390
0321
cafe
2c1a
5556
0390
02f2
cafe
3002
5556
0390
0349
cafe
3412
5556
0394
03b1
cafe
380b
5556
0394
0398
cafe
3c1b
5556
0394
0342
cafe
2003
5556
0394
02f6
cafe
2413
5556
0398
0334
cafe
280c
5556
0398
036b
cafe
2c1c
5556
0398
0313
cafe
3004
5556
0398
0371
cafe
3414
5556
039c
02e4
cafe
380d
5556
039c
0366
cafe
3c1d
5556
039c
0343
cafe
2005
5556
039c
03c6
cafe
2415
5556
03a0
039b
cafe
280e
5556
03a0
041a
cafe
2c1e
5556
03a0
0362
cafe
3006
5556
03a0
0385
cafe
3416
5556
03a4
034b
cafe
380f
5556
03a4
042d
cafe
3c1f
5556
03a4
0337
cafe
2007
5556
03a4
0341
cafe
2417
5556
03a8
034f
cafe
2808
5556
03a8
037d
-
cafe
2c18
5556
03a8
0371
cafe
3000
5556
03a8
0360
cafe
3410
5556
03ac
03b7
cafe
3809
5556
03ac
02c5
cafe
3c19
5556
03ac
0338
cafe
2001
5556
03ac
037e
cafe
2411
5556
03b0
0323
cafe
280a
5556
03b0
02f9
cafe
2c1a
5556
03b0
02cb
cafe
3002
5556
03b0
031e
cafe
3412
5556
03b4
0384
cafe
380b
5556
03b4
0372
cafe
3c1b
5556
03b4
031e
cafe
2003
5556
03b4
02d0
cafe
2413
5556
03b8
0308
cafe
280c
5556
03b8
033f
cafe
2c1c
5556
03b8
02ed
cafe
3004
5556
03b8
034d
cafe
3414
5556
03bc
02c3
cafe
380d
5556
03bc
0338
cafe
3c1d
5556
03bc
031b
cafe
2005
5556
03bc
039d
cafe
2415
5556
03c0
0373
cafe
280e
5556
03c0
03ef
cafe
2c1e
5556
03c0
033b
cafe
3006
5556
03c0
035f
cafe
3416
5556
03c4
032a
cafe
380f
5556
03c4
040f
cafe
3c1f
5556
03c4
0312
cafe
2007
5556
03c4
031c
cafe
2417
5556
03c8
0322
cafe
2808
5556
03c8
0351
cafe
2c18
5556
03c8
034c
cafe
3000
5556
03c8
033d
cafe
3410
5556
03cc
0393
cafe
3809
5556
03cc
029f
cafe
3c19
5556
03cc
0311
cafe
2001
5556
03cc
035a
cafe
2411
5556
03d0
02fc
cafe
280a
5556
03d0
02da
cafe
2c1a
5556
03d0
02a5
cafe
3002
5556
03d0
02fe
cafe
3412
5556
03d4
0362
cafe
380b
5556
03d4
034f
cafe
3c1b
5556
03d4
02fb
cafe
2003
5556
03d4
02a6
cafe
2413
5556
03d8
02e6
cafe
280c
5556
03d8
0317
cafe
2c1c
5556
03d8
02ca
cafe
3004
5556
03d8
0320
cafe
3414
5556
03dc
029c
cafe
-
380d
5556
03dc
0311
cafe
3c1d
5556
03dc
02f7
cafe
2005
5556
03dc
0378
cafe
2415
5556
03e0
0350
cafe
280e
5556
03e0
03cc
cafe
2c1e
5556
03e0
0316
cafe
3006
5556
03e0
0338
cafe
3416
5556
03e4
0305
cafe
380f
5556
03e4
03ee
cafe
3c1f
5556
03e4
02f7
cafe
2007
5556
03e4
02fa
cafe
2417
5556
03e8
02ff
cafe
2808
5556
03e8
032d
cafe
2c18
5556
03e8
032f
cafe
3000
5556
03e8
031d
cafe
3410
5556
03ec
036f
cafe
3809
5556
03ec
0280
cafe
3c19
5556
03ec
02ef
cafe
2001
5556
03ec
0334
cafe
2411
5556
03f0
02d5
cafe
280a
5556
03f0
02b9
cafe
2c1a
5556
03f0
028a
cafe
3002
5556
03f0
02de
cafe
3412
5556
03f4
0340
cafe
380b
5556
03f4
032e
cafe
3c1b
5556
03f4
02de
cafe
2003
5556
03f4
0284
cafe
2413
5556
03f8
02c3
cafe
280c
5556
03f8
02f3
cafe
2c1c
5556
03f8
02ab
cafe
3004
5556
03f8
0301
cafe
3414
5556
03fc
027e
cafe
380d
5556
03fc
02f4
cafe
3c1d
5556
03fc
02d6
cafe
2005
5556
03fc
0359
cafe
2415
5556
0400
032e
cafe
280e
5556
0400
03ab
cafe
2c1e
5556
0400
02f3
cafe
3006
5556
0400
0318
cafe
3416
5556
0404
02e7
cafe
380f
5556
0404
03cc
cafe
3c1f
5556
0404
02d4
cafe
2007
5556
0404
02df
cafe
2417
5556
0408
02d9
cafe
2808
5556
0408
030e
cafe
2c18
5556
0408
0308
cafe
3000
5556
0408
02fe
cafe
3410
5556
040c
0348
cafe
3809
5556
040c
025b
cafe
3c19
5556
040c
02d0
cafe
2001
5556
040c
0311
cafe
2411
-
5556
0410
02b6
cafe
280a
5556
0410
0293
cafe
2c1a
5556
0410
0266
cafe
3002
5556
0410
02c4
cafe
3412
5556
0414
031e
cafe
380b
5556
0414
0310
cafe
3c1b
5556
0414
02c1
cafe
2003
5556
0414
0260
cafe
2413
5556
0418
02a8
cafe
280c
5556
0418
02ce
cafe
2c1c
5556
0418
0289
cafe
3004
5556
0418
02df
cafe
3414
5556
041c
0260
cafe
380d
5556
041c
02d6
cafe
3c1d
5556
041c
02b5
cafe
2005
5556
041c
033a
cafe
2415
5556
0420
0311
cafe
280e
5556
0420
0390
cafe
2c1e
5556
0420
02d3
cafe
3006
5556
0420
02fa
cafe
3416
5556
0424
02ce
cafe
380f
5556
0424
03a6
cafe
3c1f
5556
0424
02b5
cafe
2007
5556
0424
02bf
cafe
2417
5556
0428
02ba
cafe
2808
5556
0428
02f3
cafe
2c18
5556
0428
02ea
cafe
3000
5556
0428
02df
cafe
3410
5556
042c
032a
cafe
3809
5556
042c
0244
cafe
3c19
5556
042c
02b2
cafe
2001
5556
042c
02f0
cafe
2411
5556
0430
0293
cafe
280a
5556
0430
0277
cafe
2c1a
5556
0430
0249
cafe
3002
5556
0430
02ab
cafe
3412
5556
0434
0303
cafe
380b
5556
0434
02f5
cafe
3c1b
5556
0434
02a1
cafe
2003
5556
0434
0249
cafe
2413
5556
0438
0292
cafe
280c
5556
0438
02b5
cafe
2c1c
5556
0438
0272
cafe
3004
5556
0438
02cd
cafe
3414
5556
043c
0245
cafe
380d
5556
043c
02b5
cafe
3c1d
5556
043c
029f
cafe
2005
5556
043c
0317
cafe
2415
5556
0440
02f0
cafe
280e
5556
0440
0372
cafe
2c1e
5556
0440
02b8
cafe
3006
5556
-
0440
02de
cafe
3416
5556
0444
02aa
cafe
380f
5556
0444
038a
cafe
3c1f
5556
0444
029a
cafe
2007
5556
0444
029e
cafe
2417
5556
0448
02a4
cafe
2808
5556
0448
02d9
cafe
2c18
5556
0448
02d2
cafe
3000
5556
0448
02c8
cafe
3410
5556
044c
0310
cafe
3809
5556
044c
0225
cafe
3c19
5556
044c
029a
cafe
2001
5556
044c
02d3
cafe
2411
5556
0450
0277
cafe
280a
5556
0450
025b
cafe
2c1a
5556
0450
022b
cafe
3002
5556
0450
028c
cafe
3412
5556
0454
02e1
cafe
380b
5556
0454
02da
cafe
3c1b
5556
0454
0285
cafe
2003
5556
0454
022a
cafe
2413
5556
0458
0275
cafe
280c
5556
0458
0295
cafe
2c1c
5556
0458
0253
cafe
3004
5556
0458
02b5
cafe
3414
5556
045c
0232
cafe
380d
5556
045c
029c
cafe
3c1d
5556
045c
0285
cafe
2005
5556
045c
02fe
cafe
2415
5556
0460
02d2
cafe
280e
5556
0460
035b
cafe
2c1e
5556
0460
02a1
cafe
3006
5556
0460
02bd
cafe
3416
5556
0464
028b
cafe
380f
5556
0464
036f
cafe
3c1f
5556
0464
0284
cafe
2007
5556
0464
0288
cafe
2417
5556
0468
0285
cafe
2808
5556
0468
02bb
cafe
2c18
5556
0468
02c0
cafe
3000
5556
0468
02ac
cafe
3410
5556
046c
02f9
cafe
3809
5556
046c
020e
cafe
3c19
5556
046c
027f
cafe
2001
5556
046c
02be
cafe
2411
5556
0470
025f
cafe
280a
5556
0470
0245
cafe
2c1a
5556
0470
020f
cafe
3002
5556
0470
0272
cafe
3412
5556
0474
02c7
cafe
380b
5556
0474
02bf
cafe
3c1b
5556
0474
-
0275
cafe
2003
5556
0474
0211
cafe
2413
5556
0478
025a
cafe
280c
5556
0478
027b
cafe
2c1c
5556
0478
023f
cafe
3004
5556
0478
0299
cafe
3414
5556
047c
021d
cafe
380d
5556
047c
027e
cafe
3c1d
5556
047c
026e
cafe
2005
5556
047c
02e9
cafe
2415
5556
0480
02b8
cafe
280e
5556
0480
0341
cafe
2c1e
5556
0480
0289
cafe
3006
5556
0480
02a3
cafe
3416
5556
0484
0271
cafe
380f
5556
0484
0353
cafe
3c1f
5556
0484
026e
cafe
2007
5556
0484
0272
cafe
2417
5556
0488
026e
cafe
2808
5556
0488
02a4
cafe
2c18
5556
0488
02ad
cafe
3000
5556
0488
0293
cafe
3410
5556
048c
02e5
cafe
3809
5556
048c
01f9
cafe
3c19
5556
048c
0268
cafe
2001
5556
048c
02aa
cafe
2411
5556
0490
0247
cafe
280a
5556
0490
022e
cafe
2c1a
5556
0490
01fa
cafe
3002
5556
0490
025c
cafe
3412
5556
0494
02b3
cafe
380b
5556
0494
02a8
cafe
3c1b
5556
0494
025b
cafe
2003
5556
0494
01fd
cafe
2413
5556
0498
023f
cafe
280c
5556
0498
025f
cafe
2c1c
5556
0498
022e
cafe
3004
5556
0498
027f
cafe
3414
5556
049c
020b
cafe
380d
5556
049c
0269
cafe
3c1d
5556
049c
024f
cafe
2005
5556
049c
02d6
cafe
2415
5556
04a0
02a4
cafe
280e
5556
04a0
0326
cafe
2c1e
5556
04a0
026c
cafe
3006
5556
04a0
028d
cafe
3416
5556
04a4
025f
cafe
380f
5556
04a4
033f
cafe
3c1f
5556
04a4
025c
cafe
2007
5556
04a4
0258
cafe
2417
5556
04a8
0252
cafe
2808
5556
04a8
0289
-
cafe
2c18
5556
04a8
0292
cafe
3000
5556
04a8
027c
cafe
3410
5556
04ac
02ce
cafe
3809
5556
04ac
01e5
cafe
3c19
5556
04ac
025b
cafe
2001
5556
04ac
0290
cafe
2411
5556
04b0
022f
cafe
280a
5556
04b0
0216
cafe
2c1a
5556
04b0
01e8
cafe
3002
5556
04b0
024f
cafe
3412
5556
04b4
029e
cafe
380b
5556
04b4
0297
cafe
3c1b
5556
04b4
0243
cafe
2003
5556
04b4
01ed
cafe
2413
5556
04b8
0227
cafe
280c
5556
04b8
024d
cafe
2c1c
5556
04b8
021b
cafe
3004
5556
04b8
0267
cafe
3414
5556
04bc
01f5
cafe
380d
5556
04bc
0255
cafe
3c1d
5556
04bc
0239
cafe
2005
5556
04bc
02c1
cafe
2415
5556
04c0
0288
cafe
280e
5556
04c0
030b
cafe
2c1e
5556
04c0
0257
cafe
3006
5556
04c0
0275
cafe
3416
5556
04c4
0244
cafe
380f
5556
04c4
032b
cafe
3c1f
5556
04c4
0246
cafe
2007
5556
04c4
0242
cafe
2417
5556
04c8
023e
cafe
2808
5556
04c8
0273
cafe
2c18
5556
04c8
027a
cafe
3000
5556
04c8
0267
cafe
3410
5556
04cc
02bb
cafe
3809
5556
04cc
01cf
cafe
3c19
5556
04cc
0245
cafe
2001
5556
04cc
027e
cafe
2411
5556
04d0
021f
cafe
280a
5556
04d0
0205
cafe
2c1a
5556
04d0
01d4
cafe
3002
5556
04d0
023f
cafe
3412
5556
04d4
0287
cafe
380b
5556
04d4
0287
cafe
3c1b
5556
04d4
0230
cafe
2003
5556
04d4
01da
cafe
2413
5556
04d8
020f
cafe
280c
5556
04d8
0238
cafe
2c1c
5556
04d8
0208
cafe
3004
5556
04d8
0251
cafe
3414
5556
04dc
01e3
cafe
-
380d
5556
04dc
023c
cafe
3c1d
5556
04dc
0227
cafe
2005
5556
04dc
02aa
cafe
2415
5556
04e0
0271
cafe
280e
5556
04e0
02f4
cafe
2c1e
5556
04e0
0245
cafe
3006
5556
04e0
0262
cafe
3416
5556
04e4
0235
cafe
380f
5556
04e4
0317
cafe
3c1f
5556
04e4
022b
cafe
2007
5556
04e4
0233
cafe
2417
5556
04e8
022d
cafe
2808
5556
04e8
0261
cafe
2c18
5556
04e8
026f
cafe
3000
5556
04e8
0250
cafe
3410
5556
04ec
02a9
cafe
3809
5556
04ec
01c3
cafe
3c19
5556
04ec
0233
cafe
2001
5556
04ec
026d
cafe
2411
5556
04f0
020e
cafe
280a
5556
04f0
01eb
cafe
2c1a
5556
04f0
01c5
cafe
3002
5556
04f0
022e
cafe
3412
5556
04f4
0279
cafe
380b
5556
04f4
0275
cafe
3c1b
5556
04f4
0218
cafe
2003
5556
04f4
01cb
cafe
2413
5556
04f8
01fd
cafe
280c
5556
04f8
0231
cafe
2c1c
5556
04f8
01f6
cafe
3004
5556
04f8
023c
cafe
3414
5556
04fc
01d0
cafe
380d
5556
04fc
022b
cafe
3c1d
5556
04fc
0217
cafe
2005
5556
04fc
029b
cafe
2415
5556
0500
025b
cafe
280e
5556
0500
02dc
cafe
2c1e
5556
0500
0237
cafe
3006
5556
0500
0251
cafe
3416
5556
0504
0222
cafe
380f
5556
0504
0301
cafe
3c1f
5556
0504
021d
cafe
2007
5556
0504
0220
cafe
2417
5556
0508
0220
cafe
2808
5556
0508
024a
cafe
2c18
5556
0508
0262
cafe
3000
5556
0508
023f
cafe
3410
5556
050c
0295
cafe
3809
5556
050c
01b9
cafe
3c19
5556
050c
021f
cafe
2001
5556
050c
025b
cafe
2411
-
5556
0510
01fe
cafe
280a
5556
0510
01da
cafe
2c1a
5556
0510
01b5
cafe
3002
5556
0510
0213
cafe
3412
5556
0514
0269
cafe
380b
5556
0514
0264
cafe
3c1b
5556
0514
0207
cafe
2003
5556
0514
01bd
cafe
2413
5556
0518
01ef
cafe
280c
5556
0518
0221
cafe
2c1c
5556
0518
01e8
cafe
3004
5556
0518
0220
cafe
3414
5556
051c
01c5
cafe
380d
5556
051c
0215
cafe
3c1d
5556
051c
0206
cafe
2005
5556
051c
028a
cafe
2415
5556
0520
0249
cafe
280e
5556
0520
02c9
cafe
2c1e
5556
0520
0229
cafe
3006
5556
0520
0240
cafe
3416
5556
0524
020f
cafe
380f
5556
0524
02eb
cafe
3c1f
5556
0524
020b
cafe
2007
5556
0524
0213
cafe
2417
5556
0528
0215
cafe
2808
5556
0528
0234
cafe
2c18
5556
0528
0253
cafe
3000
5556
0528
0234
cafe
3410
5556
052c
027d
cafe
3809
5556
052c
01a9
cafe
3c19
5556
052c
0210
cafe
2001
5556
052c
024a
cafe
2411
5556
0530
01f5
cafe
280a
5556
0530
01d0
cafe
2c1a
5556
0530
01a7
cafe
3002
5556
0530
0205
cafe
3412
5556
0534
0261
cafe
380b
5556
0534
0256
cafe
3c1b
5556
0534
01fa
cafe
2003
5556
0534
01b8
cafe
2413
5556
0538
01e8
cafe
280c
5556
0538
020d
cafe
2c1c
5556
0538
01e0
cafe
3004
5556
0538
0213
cafe
3414
5556
053c
01ba
cafe
380d
5556
053c
0208
cafe
3c1d
5556
053c
01f7
cafe
2005
5556
053c
027a
cafe
2415
5556
0540
0233
cafe
280e
5556
0540
02b9
cafe
2c1e
5556
0540
021a
cafe
3006
5556
-
0540
0231
cafe
3416
5556
0544
01fd
cafe
380f
5556
0544
02d6
cafe
3c1f
5556
0544
01ff
cafe
2007
5556
0544
01f9
cafe
2417
5556
0548
0206
cafe
2808
5556
0548
0225
cafe
2c18
5556
0548
0241
cafe
3000
5556
0548
0224
cafe
3410
5556
054c
0269
cafe
3809
5556
054c
019a
cafe
3c19
5556
054c
0205
cafe
2001
5556
054c
0237
cafe
2411
5556
0550
01e5
cafe
280a
5556
0550
01c1
cafe
2c1a
5556
0550
019a
cafe
3002
5556
0550
01f2
cafe
3412
5556
0554
024f
cafe
380b
5556
0554
0249
cafe
3c1b
5556
0554
01e7
cafe
2003
5556
0554
01aa
cafe
2413
5556
0558
01db
cafe
280c
5556
0558
01fd
cafe
2c1c
5556
0558
01cd
cafe
3004
5556
0558
020a
cafe
3414
5556
055c
01af
cafe
380d
5556
055c
01f9
cafe
3c1d
5556
055c
01ea
cafe
2005
5556
055c
0271
cafe
2415
5556
0560
022b
cafe
280e
5556
0560
02af
cafe
2c1e
5556
0560
020d
cafe
3006
5556
0560
022a
cafe
3416
5556
0564
01f3
cafe
380f
5556
0564
02c2
cafe
3c1f
5556
0564
01f4
cafe
2007
5556
0564
01e9
cafe
2417
5556
0568
01f6
cafe
2808
5556
0568
021f
cafe
2c18
5556
0568
022b
cafe
3000
5556
0568
0216
cafe
3410
5556
056c
0261
cafe
3809
5556
056c
018b
cafe
3c19
5556
056c
01fb
cafe
2001
5556
056c
0229
cafe
2411
5556
0570
01d9
cafe
280a
5556
0570
01b8
cafe
2c1a
5556
0570
0191
cafe
3002
5556
0570
01ec
cafe
3412
5556
0574
023f
cafe
380b
5556
0574
0235
cafe
3c1b
5556
0574
-
01d8
cafe
2003
5556
0574
0195
cafe
2413
5556
0578
01c9
cafe
280c
5556
0578
01ee
cafe
2c1c
5556
0578
01c0
cafe
3004
5556
0578
01fd
cafe
3414
5556
057c
019f
cafe
380d
5556
057c
01ee
cafe
3c1d
5556
057c
01dc
cafe
2005
5556
057c
0263
cafe
2415
5556
0580
021a
cafe
280e
5556
0580
029c
cafe
2c1e
5556
0580
01fe
cafe
3006
5556
0580
021b
cafe
3416
5556
0584
01e9
cafe
380f
5556
0584
02b7
cafe
3c1f
5556
0584
01ed
cafe
2007
5556
0584
01db
cafe
2417
5556
0588
01ed
cafe
2808
5556
0588
0215
cafe
2c18
5556
0588
0218
cafe
3000
5556
0588
020c
cafe
3410
5556
058c
0257
cafe
3809
5556
058c
0179
cafe
3c19
5556
058c
01f3
cafe
2001
5556
058c
021c
cafe
2411
5556
0590
01cc
cafe
280a
5556
0590
01b7
cafe
2c1a
5556
0590
0181
cafe
3002
5556
0590
01e0
cafe
3412
5556
0594
0230
cafe
380b
5556
0594
022d
cafe
3c1b
5556
0594
01d1
cafe
2003
5556
0594
018a
cafe
2413
5556
0598
01bc
cafe
280c
5556
0598
01e9
cafe
2c1c
5556
0598
01b9
cafe
3004
5556
0598
01f5
cafe
3414
5556
059c
0199
cafe
380d
5556
059c
01d9
cafe
3c1d
5556
059c
01d2
cafe
2005
5556
059c
0257
cafe
2415
5556
05a0
020e
cafe
280e
5556
05a0
0290
cafe
2c1e
5556
05a0
01f2
cafe
3006
5556
05a0
0211
cafe
3416
5556
05a4
01dc
cafe
380f
5556
05a4
02a7
cafe
3c1f
5556
05a4
01df
cafe
2007
5556
05a4
01ce
cafe
2417
5556
05a8
01dc
cafe
2808
5556
05a8
0202
-
cafe
2c18
5556
05a8
020d
cafe
3000
5556
05a8
01fe
cafe
3410
5556
05ac
0246
cafe
3809
5556
05ac
0176
cafe
3c19
5556
05ac
01e8
cafe
2001
5556
05ac
0209
cafe
2411
5556
05b0
01bf
cafe
280a
5556
05b0
01aa
cafe
2c1a
5556
05b0
017a
cafe
3002
5556
05b0
01d2
cafe
3412
5556
05b4
0221
cafe
380b
5556
05b4
021e
cafe
3c1b
5556
05b4
01cb
cafe
2003
5556
05b4
0175
cafe
2413
5556
05b8
01ac
cafe
280c
5556
05b8
01da
cafe
2c1c
5556
05b8
01ae
cafe
3004
5556
05b8
01e5
cafe
3414
5556
05bc
018f
cafe
380d
5556
05bc
01cf
cafe
3c1d
5556
05bc
01c3
cafe
2005
5556
05bc
024c
cafe
2415
5556
05c0
0204
cafe
280e
5556
05c0
0281
cafe
2c1e
5556
05c0
01e4
cafe
3006
5556
05c0
020a
cafe
3416
5556
05c4
01d3
cafe
380f
5556
05c4
029d
cafe
3c1f
5556
05c4
01d7
cafe
2007
5556
05c4
01c5
cafe
2417
5556
05c8
01d5
cafe
2808
5556
05c8
01f5
cafe
2c18
5556
05c8
0207
cafe
3000
5556
05c8
01f6
cafe
3410
5556
05cc
0242
cafe
3809
5556
05cc
016e
cafe
3c19
5556
05cc
01e1
cafe
2001
5556
05cc
0204
cafe
2411
5556
05d0
01b3
cafe
280a
5556
05d0
01a0
cafe
2c1a
5556
05d0
016b
cafe
3002
5556
05d0
01ca
cafe
3412
5556
05d4
0218
cafe
380b
5556
05d4
0215
cafe
3c1b
5556
05d4
01c7
cafe
2003
5556
05d4
0170
cafe
2413
5556
05d8
01a6
cafe
280c
5556
05d8
01d1
cafe
2c1c
5556
05d8
01a6
cafe
3004
5556
05d8
01e2
cafe
3414
5556
05dc
018e
cafe
-
380d
5556
05dc
01cd
cafe
3c1d
5556
05dc
01b8
cafe
2005
5556
05dc
0242
cafe
2415
5556
05e0
01f4
cafe
280e
5556
05e0
0277
cafe
2c1e
5556
05e0
01d1
cafe
3006
5556
05e0
01fb
cafe
3416
5556
05e4
01cb
cafe
380f
5556
05e4
0292
cafe
3c1f
5556
05e4
01cf
cafe
2007
5556
05e4
01bc
cafe
2417
5556
05e8
01c6
cafe
2808
5556
05e8
01ec
cafe
2c18
5556
05e8
01fb
cafe
3000
5556
05e8
01ee
cafe
3410
5556
05ec
023d
cafe
3809
5556
05ec
0167
cafe
3c19
5556
05ec
01d9
cafe
2001
5556
05ec
01f9
cafe
2411
5556
05f0
01a9
cafe
280a
5556
05f0
0193
cafe
2c1a
5556
05f0
0164
cafe
3002
5556
05f0
01c1
cafe
3412
5556
05f4
020c
cafe
380b
5556
05f4
0211
cafe
3c1b
5556
05f4
01b9
cafe
2003
5556
05f4
016b
cafe
2413
5556
05f8
019d
cafe
280c
5556
05f8
01c8
cafe
2c1c
5556
05f8
019b
cafe
3004
5556
05f8
01df
cafe
3414
5556
05fc
0181
cafe
380d
5556
05fc
01c7
cafe
3c1d
5556
05fc
01b4
cafe
2005
5556
05fc
0233
cafe
2415
5556
0600
01ec
cafe
280e
5556
0600
0269
cafe
2c1e
5556
0600
01cd
cafe
3006
5556
0600
01f1
cafe
3416
5556
0604
01be
cafe
380f
5556
0604
0288
cafe
3c1f
5556
0604
01ca
cafe
2007
5556
0604
01b3
cafe
2417
5556
0608
01bf
cafe
2808
5556
0608
01e3
cafe
2c18
5556
0608
01f2
cafe
3000
5556
0608
01e9
cafe
3410
5556
060c
0231
cafe
3809
5556
060c
0157
cafe
3c19
5556
060c
01d3
cafe
2001
5556
060c
01f1
cafe
2411
-
5556
0610
01a1
cafe
280a
5556
0610
0186
cafe
2c1a
5556
0610
015e
cafe
3002
5556
0610
01bd
cafe
3412
5556
0614
0209
cafe
380b
5556
0614
0209
cafe
3c1b
5556
0614
01ab
cafe
2003
5556
0614
0161
cafe
2413
5556
0618
0192
cafe
280c
5556
0618
01bd
cafe
2c1c
5556
0618
018c
cafe
3004
5556
0618
01d5
cafe
3414
5556
061c
0178
cafe
380d
5556
061c
01bb
cafe
3c1d
5556
061c
01b1
cafe
2005
5556
061c
022e
cafe
2415
5556
0620
01df
cafe
280e
5556
0620
0261
cafe
2c1e
5556
0620
01ca
cafe
3006
5556
0620
01e9
cafe
3416
5556
0624
01b6
cafe
380f
5556
0624
0282
cafe
3c1f
5556
0624
01c2
cafe
2007
5556
0624
01a7
cafe
2417
5556
0628
01b6
cafe
2808
5556
0628
01d5
cafe
2c18
5556
0628
01ec
cafe
3000
5556
0628
01e2
cafe
3410
5556
062c
0229
cafe
3809
5556
062c
015a
cafe
3c19
5556
062c
01c8
cafe
2001
5556
062c
01e9
cafe
2411
5556
0630
019a
cafe
280a
5556
0630
0184
cafe
2c1a
5556
0630
0159
cafe
3002
5556
0630
01b1
cafe
3412
5556
0634
0207
cafe
380b
5556
0634
0200
cafe
3c1b
5556
0634
01a2
cafe
2003
5556
0634
015f
cafe
2413
5556
0638
0183
cafe
280c
5556
0638
01b1
cafe
2c1c
5556
0638
017f
cafe
3004
5556
0638
01cb
cafe
3414
5556
063c
016e
cafe
380d
5556
063c
01b1
cafe
3c1d
5556
063c
01ab
cafe
2005
5556
063c
0224
cafe
2415
5556
0640
01d8
cafe
280e
5556
0640
0251
cafe
2c1e
5556
0640
01c6
cafe
3006
5556
-
0640
01e2
cafe
3416
5556
0644
01a8
cafe
380f
5556
0644
0277
cafe
3c1f
5556
0644
01ba
cafe
2007
5556
0644
0198
cafe
2417
5556
0648
01b3
cafe
2808
5556
0648
01cc
cafe
2c18
5556
0648
01e6
cafe
3000
5556
0648
01db
cafe
3410
5556
064c
022c
cafe
3809
5556
064c
0155
cafe
3c19
5556
064c
01bf
cafe
2001
5556
064c
01e3
cafe
2411
5556
0650
0192
cafe
280a
5556
0650
017b
cafe
2c1a
5556
0650
0155
cafe
3002
5556
0650
01a5
cafe
3412
5556
0654
01fd
cafe
380b
5556
0654
01f4
cafe
3c1b
5556
0654
0198
cafe
2003
5556
0654
015f
cafe
2413
5556
0658
017e
cafe
280c
5556
0658
01ab
cafe
2c1c
5556
0658
017a
cafe
3004
5556
0658
01c8
cafe
3414
5556
065c
016e
cafe
380d
5556
065c
01a9
cafe
3c1d
5556
065c
019f
cafe
2005
5556
065c
021f
cafe
2415
5556
0660
01d3
cafe
280e
5556
0660
024b
cafe
2c1e
5556
0660
01bb
cafe
3006
5556
0660
01de
cafe
3416
5556
0664
01a6
cafe
380f
5556
0664
0271
cafe
3c1f
5556
0664
01b3
cafe
2007
5556
0664
0192
cafe
2417
5556
0668
01a6
cafe
2808
5556
0668
01c8
cafe
2c18
5556
0668
01e3
cafe
3000
5556
0668
01d2
cafe
3410
5556
066c
0220
cafe
3809
5556
066c
0149
cafe
3c19
5556
066c
01b3
cafe
2001
5556
066c
01d7
cafe
2411
5556
0670
018e
cafe
280a
5556
0670
0179
cafe
2c1a
5556
0670
014c
cafe
3002
5556
0670
019e
cafe
3412
5556
0674
01f3
cafe
380b
5556
0674
01ef
cafe
3c1b
5556
0674
-
0191
cafe
2003
5556
0674
0159
cafe
2413
5556
0678
0178
cafe
280c
5556
0678
01a8
cafe
2c1c
5556
0678
017a
cafe
3004
5556
0678
01be
cafe
3414
5556
067c
0167
cafe
380d
5556
067c
01a3
cafe
3c1d
5556
067c
0197
cafe
2005
5556
067c
0220
cafe
2415
5556
0680
01cf
cafe
280e
5556
0680
0245
cafe
2c1e
5556
0680
01b2
cafe
3006
5556
0680
01d8
cafe
3416
5556
0684
01ae
cafe
380f
5556
0684
0266
cafe
3c1f
5556
0684
01b5
cafe
2007
5556
0684
0193
cafe
2417
5556
0688
019e
cafe
2808
5556
0688
01bf
cafe
2c18
5556
0688
01e2
cafe
3000
5556
0688
01c6
cafe
3410
5556
068c
0216
cafe
3809
5556
068c
0143
cafe
3c19
5556
068c
01af
cafe
2001
5556
068c
01d2
cafe
2411
5556
0690
0188
cafe
280a
5556
0690
0179
cafe
2c1a
5556
0690
0141
cafe
3002
5556
0690
019a
cafe
3412
5556
0694
01f2
cafe
380b
5556
0694
01e4
cafe
3c1b
5556
0694
018c
cafe
2003
5556
0694
0153
cafe
2413
5556
0698
016f
cafe
280c
5556
0698
01a6
cafe
2c1c
5556
0698
017d
cafe
3004
5556
0698
01b7
cafe
3414
5556
069c
015d
cafe
380d
5556
069c
0196
cafe
3c1d
5556
069c
018f
cafe
2005
5556
069c
0219
cafe
2415
5556
06a0
01cc
cafe
280e
5556
06a0
023b
cafe
2c1e
5556
06a0
01a5
cafe
3006
5556
06a0
01d3
cafe
3416
5556
06a4
01b0
cafe
380f
5556
06a4
025c
cafe
3c1f
5556
06a4
01b1
cafe
2007
5556
06a4
018a
cafe
2417
5556
06a8
0199
cafe
2808
5556
06a8
01b7
-
cafe
2c18
5556
06a8
01da
cafe
3000
5556
06a8
01c1
cafe
3410
5556
06ac
020c
cafe
3809
5556
06ac
0139
cafe
3c19
5556
06ac
01a4
cafe
2001
5556
06ac
01ca
cafe
2411
5556
06b0
0185
cafe
280a
5556
06b0
016e
cafe
2c1a
5556
06b0
0133
cafe
3002
5556
06b0
0192
cafe
3412
5556
06b4
01ed
cafe
380b
5556
06b4
01e0
cafe
3c1b
5556
06b4
018d
cafe
2003
5556
06b4
014b
cafe
2413
5556
06b8
016c
cafe
280c
5556
06b8
01a5
cafe
2c1c
5556
06b8
0175
cafe
3004
5556
06b8
01ac
cafe
3414
5556
06bc
0150
cafe
380d
5556
06bc
018e
cafe
3c1d
5556
06bc
018a
cafe
2005
5556
06bc
0211
cafe
2415
5556
06c0
01ca
cafe
280e
5556
06c0
022b
cafe
2c1e
5556
06c0
01a3
cafe
3006
5556
06c0
01d0
cafe
3416
5556
06c4
01b3
cafe
380f
5556
06c4
025a
cafe
3c1f
5556
06c4
01ad
cafe
2007
5556
06c4
0187
cafe
2417
5556
06c8
0192
cafe
2808
5556
06c8
01b3
cafe
2c18
5556
06c8
01cf
cafe
3000
5556
06c8
01bb
cafe
3410
5556
06cc
0203
cafe
3809
5556
06cc
0131
cafe
3c19
5556
06cc
01a3
cafe
2001
5556
06cc
01c9
cafe
2411
5556
06d0
0182
cafe
280a
5556
06d0
016a
cafe
2c1a
5556
06d0
0130
cafe
3002
5556
06d0
018e
cafe
3412
5556
06d4
01e1
cafe
380b
5556
06d4
01d8
cafe
3c1b
5556
06d4
0184
cafe
2003
5556
06d4
0145
cafe
2413
5556
06d8
016d
cafe
280c
5556
06d8
01a1
cafe
2c1c
5556
06d8
0171
cafe
3004
5556
06d8
01a4
cafe
3414
5556
06dc
0151
cafe
-
