3c15
0000
0000
011f
cafe
2015
0000
0000
011d
cafe
2415
0000
0000
0121
cafe
2815
0000
0000
011c
cafe
2c15
0000
0000
011a
cafe
3015
0000
0000
011b
cafe
3415
0000
0000
011e
cafe
3815
0000
0000
011f
cafe
3c15
0000
0000
0120
cafe
2015
0000
0000
0120
cafe
2415
0000
0000
0121
cafe
2815
0000
0000
0123
cafe
2c15
0000
0000
0121
cafe
3015
0000
0000
011f
cafe
3415
0000
0000
011d
cafe
3815
0000
0000
011b
cafe
3c15
0000
0000
0119
cafe
2015
0000
0000
011b
cafe
2415
0000
0000
0119
cafe
2815
0000
0000
011f
cafe
2c15
0000
0000
011b
cafe
3015
0000
0000
011b
cafe
3415
0000
0000
011a
cafe
3815
0000
0000
011d
cafe
3c15
0000
0000
011c
cafe
2015
0000
0000
0119
cafe
2415
0000
0000
011b
cafe
2815
0000
0000
011b
cafe
2c15
0000
0000
011a
cafe
3015
0000
0000
011b
cafe
3415
0000
0000
0122
cafe
3815
0000
0000
0123
cafe
3c15
0000
0000
011e
cafe
2015
0000
0000
011f
cafe
2415
0000
0000
011e
cafe
2815
0000
0000
011c
cafe
2c15
0000
0000
011d
cafe
3015
0000
0000
011f
cafe
3415
0000
0000
011b
cafe
3815
0000
0000
011a
cafe
3c15
0000
0000
0116
cafe
2015
0000
0000
011b
cafe
2415
0000
0000
011e
cafe
2815
0000
0000
011c
cafe
2c15
0000
0000
0119
cafe
3015
0000
0000
011c
cafe
3415
0000
0000
011b
cafe
3815
0000
0000
0118
cafe
3c15
0000
0000
011a
cafe
2015
0000
0000
011b
cafe
2415
0000
0000
011a
cafe
2815
-
0000
0000
0114
cafe
2c15
0000
0000
0118
cafe
3015
0000
0000
011d
cafe
3415
0000
0000
011c
cafe
3815
0000
0000
011c
cafe
3c15
0000
0000
0118
cafe
2015
0000
0000
011e
cafe
2415
0000
0000
011c
cafe
2815
0000
0000
011e
cafe
2c15
0000
0000
0116
cafe
3015
0000
0000
011b
cafe
3415
0000
0000
011e
cafe
3815
0000
0000
0119
cafe
3c15
0000
0000
0117
cafe
2015
0000
0000
0120
cafe
2415
0000
0000
011a
cafe
2815
0000
0000
0119
cafe
2c15
0000
0000
0119
cafe
3015
0000
0000
011e
cafe
3415
0000
0000
011c
cafe
3815
0000
0000
0121
cafe
3c15
0000
0000
011b
cafe
2015
0000
0000
011d
cafe
2415
0000
0000
011c
cafe
2815
0000
0000
011a
cafe
2c15
0000
0000
011b
cafe
3015
0000
0000
011c
cafe
3415
0000
0000
011e
cafe
3815
0000
0000
011f
cafe
3c15
0000
0000
0119
cafe
2015
0000
0000
011c
cafe
2415
0000
0000
0120
cafe
2815
0000
0000
011e
cafe
2c15
0000
0000
011c
cafe
3015
0000
0000
011a
cafe
3415
0000
0000
011b
cafe
3815
0000
0000
011e
cafe
3c15
0000
0000
0115
cafe
2015
0000
0000
011f
cafe
2415
0000
0000
011c
cafe
2815
0000
0000
0119
cafe
2c15
0000
0000
0121
cafe
3015
0000
0000
0122
cafe
3415
0000
0000
0121
cafe
3815
0000
0000
011b
cafe
3c15
0000
0000
0118
cafe
2015
0000
0000
0120
cafe
2415
0000
0000
0117
cafe
2815
0000
0000
0114
cafe
2c15
0000
0000
011a
cafe
3015
0000
0000
011c
cafe
3415
0000
-
0000
011a
cafe
3815
0000
0000
0119
cafe
3c15
0000
0000
011a
cafe
2015
0000
0000
011c
cafe
2415
0000
0000
011f
cafe
2815
0000
0000
011e
cafe
2c15
0000
0000
011a
cafe
3015
0000
0000
011a
cafe
3415
0000
0000
011b
cafe
3815
0000
0000
011d
cafe
3c15
0000
0000
0119
cafe
2015
0000
0000
0119
cafe
2415
0000
0000
0120
cafe
2815
0000
0000
0120
cafe
2c15
0000
0000
011e
cafe
3015
0000
0000
011e
cafe
3415
0000
0000
0120
cafe
3815
0000
0000
0120
cafe
3c15
0000
0000
011f
cafe
2015
0000
0000
011e
cafe
2415
0000
0000
011f
cafe
2815
0000
0000
011e
cafe
2c15
0000
0000
011f
cafe
3015
0000
0000
011c
cafe
3415
0000
0000
011f
cafe
3815
0000
0000
0123
cafe
3c15
0000
0000
0120
cafe
2015
0000
0000
0116
cafe
2415
0000
0000
011a
cafe
2815
0000
0000
0118
cafe
2c15
0000
0000
011a
cafe
3015
0000
0000
011d
cafe
3415
0000
0000
011b
cafe
3815
0000
0000
0117
cafe
3c15
0000
0000
011a
cafe
2015
0000
0000
011f
cafe
2415
0000
0000
0119
cafe
2815
0000
0000
0119
cafe
2c15
0000
0000
011d
cafe
3015
0000
0000
011f
cafe
3415
0000
0000
011e
cafe
3815
0000
0000
011f
cafe
3c15
0000
0000
0117
cafe
2015
0000
0000
011e
cafe
2415
0000
0000
0121
cafe
2815
0000
0000
011b
cafe
2c15
0000
0000
0121
cafe
3015
0000
0000
011f
cafe
3415
0000
0000
011f
cafe
3815
0000
0000
011d
cafe
3c15
0000
0000
0123
cafe
2015
0000
0000
-
011b
cafe
2415
0000
0000
0121
cafe
2815
0000
0000
0116
cafe
2c15
0000
0000
011a
cafe
3015
0000
0000
0119
cafe
3415
0000
0000
011f
cafe
3815
0000
0000
011b
cafe
3c15
0000
0000
011a
cafe
2015
0000
0000
011b
cafe
2415
0000
0000
011c
cafe
2815
0000
0000
011a
cafe
2c15
0000
0000
011c
cafe
3015
0000
0000
0121
cafe
3415
0000
0000
011d
cafe
3815
0000
0000
011b
cafe
3c15
0000
0000
011e
cafe
2015
0000
0000
011e
cafe
2415
0000
0000
0120
cafe
2815
0000
0000
011f
cafe
2c15
0000
0000
011b
cafe
3015
0000
0000
011b
cafe
3415
0000
0000
011c
cafe
3815
0000
0000
011c
cafe
3c15
0000
0000
0120
cafe
2015
0000
0000
011f
cafe
2415
0000
0000
0122
cafe
2815
0000
0000
0120
cafe
2c15
0000
0000
011b
cafe
3015
0000
0000
0119
cafe
3415
0000
0000
0116
cafe
3815
0000
0000
0118
cafe
3c15
0000
0000
0119
cafe
2015
0000
0000
011b
cafe
2415
0000
0000
011b
cafe
2815
0000
0000
011e
cafe
2c15
0000
0000
0120
cafe
3015
0000
0000
0120
cafe
3415
0000
0000
011f
cafe
3815
0000
0000
0120
cafe
3c15
0000
0000
0122
cafe
2015
0000
0000
0120
cafe
2415
0000
0000
0118
cafe
2815
0000
0000
011c
cafe
2c15
0000
0000
011a
cafe
3015
0000
0000
011c
cafe
3415
0000
0000
011d
cafe
3815
0000
0000
0123
cafe
3c15
0000
0000
0121
cafe
2015
0000
0000
0122
cafe
2415
0000
0000
011c
cafe
2815
0000
0000
0119
cafe
2c15
0000
0000
011b
-
cafe
3015
0000
0000
0118
cafe
3415
0000
0000
0119
cafe
3815
0000
0000
0116
cafe
3c15
0000
0000
011c
cafe
2015
0000
0000
0118
cafe
2415
0000
0000
011d
cafe
2815
0000
0000
0120
cafe
2c15
0000
0000
011f
cafe
3015
0000
0000
011f
cafe
3415
0000
0000
0122
cafe
3815
0000
0000
0120
cafe
3c15
0000
0000
011f
cafe
2015
0000
0000
0120
cafe
2415
0000
0000
011b
cafe
2815
0000
0000
011f
cafe
2c15
0000
0000
0119
cafe
3015
0000
0000
011d
cafe
3415
0000
0000
011d
cafe
3815
0000
0000
011a
cafe
3c15
0000
0000
011c
cafe
2015
0000
0000
011c
cafe
2415
0000
0000
011d
cafe
2815
0000
0000
011c
cafe
2c15
0000
0000
0118
cafe
3015
0000
0000
0118
cafe
3415
0000
0000
011d
cafe
3815
0000
0000
0118
cafe
3c15
0000
0000
011c
cafe
2015
0000
0000
011c
cafe
2415
0000
0000
011a
cafe
2815
0000
0000
011b
cafe
2c15
0000
0000
0119
cafe
3015
0000
0000
011d
cafe
3415
0000
0000
011b
cafe
3815
0000
0000
011a
cafe
3c15
0000
0000
011a
cafe
2015
0000
0000
011c
cafe
2415
0000
0000
011c
cafe
2815
0000
0000
011b
cafe
2c15
0000
0000
0120
cafe
3015
0000
0000
011d
cafe
3415
0000
0000
011d
cafe
3815
0000
0000
0121
cafe
3c15
0000
0000
011d
cafe
2015
0000
0000
011b
cafe
2415
0000
0000
0120
cafe
2815
0000
0000
011f
cafe
2c15
0000
0000
011c
cafe
3015
0000
0000
011c
cafe
3415
0000
0000
011b
cafe
3815
0000
0000
0118
cafe
-
3c15
0000
0000
011d
cafe
2015
0000
0000
011e
cafe
2415
0000
0000
011c
cafe
2815
0000
0000
011c
cafe
2c15
0000
0000
011f
cafe
3015
0000
0000
011c
cafe
3415
0000
0000
011c
cafe
3815
0000
0000
011c
cafe
3c15
0000
0000
0119
cafe
2015
0000
0000
011d
cafe
2415
0000
0000
0119
cafe
2815
0000
0000
011d
cafe
2c15
0000
0000
011c
cafe
3015
0000
0000
0120
cafe
3415
0000
0000
0120
cafe
3815
0000
0000
011e
cafe
3c15
0000
0000
011e
cafe
2015
0000
0000
011f
cafe
2415
0000
0000
011b
cafe
2815
0000
0000
011f
cafe
2c15
0000
0000
011b
cafe
3015
0000
0000
011c
cafe
3415
0000
0000
011c
cafe
3815
0000
0000
011c
cafe
3c15
0000
0000
0123
cafe
2015
0000
0000
011e
cafe
2415
0000
0000
0120
cafe
2815
0000
0000
011e
cafe
2c15
0000
0000
011d
cafe
3015
0000
0000
0119
cafe
3415
0000
0000
011f
cafe
3815
0000
0000
011f
cafe
3c15
0000
0000
011d
cafe
2015
0000
0000
011f
cafe
2415
0000
0000
0120
cafe
2815
0000
0000
011a
cafe
2c15
0000
0000
011d
cafe
3015
0000
0000
011d
cafe
3415
0000
0000
011c
cafe
3815
0000
0000
011b
cafe
3c15
0000
0000
0121
cafe
2015
0000
0000
011c
cafe
2415
0000
0000
0124
cafe
2815
0000
0000
0122
cafe
2c15
0000
0000
011f
cafe
3015
0000
0000
0120
cafe
3415
0000
0000
011b
cafe
3815
0000
0000
011d
cafe
3c15
0000
0000
0125
cafe
2015
0000
0000
0121
cafe
2415
0000
0000
0122
cafe
2815
-
0000
0000
0123
cafe
2c15
0000
0000
011e
cafe
3015
0000
0000
0120
cafe
3415
0000
0000
0123
cafe
3815
0000
0000
011f
cafe
3c15
0000
0000
011a
cafe
2015
0000
0000
011b
cafe
2415
0000
0000
011a
cafe
2815
0000
0000
011f
cafe
2c15
0000
0000
011b
cafe
3015
0000
0000
011a
cafe
3415
0000
0000
0119
cafe
3815
0000
0000
0119
cafe
3c15
0000
0000
011d
cafe
2015
0000
0000
011e
cafe
2415
0000
0000
011d
cafe
2815
0000
0000
011d
cafe
2c15
0000
0000
011d
cafe
3015
0000
0000
011f
cafe
3415
0000
0000
0121
cafe
3815
0000
0000
011c
cafe
3c15
0000
0000
0121
cafe
2015
0000
0000
0122
cafe
2415
0000
0000
0123
cafe
2815
0000
0000
0123
cafe
2c15
0000
0000
011e
cafe
3015
0000
0000
0122
cafe
3415
0000
0000
011f
cafe
3815
0000
0000
011e
cafe
3c15
0000
0000
0121
cafe
2015
0000
0000
011e
cafe
2415
0000
0000
011b
cafe
2815
0000
0000
011f
cafe
2c15
0000
0000
011a
cafe
3015
0000
0000
011b
cafe
3415
0000
0000
0116
cafe
3815
0000
0000
011a
cafe
3c15
0000
0000
011d
cafe
2015
0000
0000
0119
cafe
2415
0000
0000
0119
cafe
2815
0000
0000
011b
cafe
2c15
0000
0000
011e
cafe
3015
0000
0000
011b
cafe
3415
0000
0000
011f
cafe
3815
0000
0000
011b
cafe
3c15
0000
0000
0117
cafe
2015
0000
0000
011a
cafe
2415
0000
0000
0119
cafe
2815
0000
0000
011e
cafe
2c15
0000
0000
011b
cafe
3015
0000
0000
011d
cafe
3415
0000
-
0000
011a
cafe
3815
0000
0000
0121
cafe
3c15
0000
0000
011c
cafe
2015
0000
0000
0119
cafe
2415
0000
0000
011d
cafe
2815
0000
0000
011e
cafe
2c15
0000
0000
0123
cafe
3015
0000
0000
011f
cafe
3415
0000
0000
011b
cafe
3815
0000
0000
011d
cafe
3c15
0000
0000
0119
cafe
2015
0000
0000
011d
cafe
2415
0000
0000
011d
cafe
2815
0000
0000
0119
cafe
2c15
0000
0000
011d
cafe
3015
0000
0000
011c
cafe
3415
0000
0000
011a
cafe
3815
0000
0000
011c
cafe
3c15
0000
0000
011a
cafe
2015
0000
0000
011e
cafe
2415
0000
0000
0118
cafe
2815
0000
0000
011d
cafe
2c15
0000
0000
011c
cafe
3015
0000
0000
011c
cafe
3415
0000
0000
0119
cafe
3815
0000
0000
011c
cafe
3c15
0000
0000
011d
cafe
2015
0000
0000
011d
cafe
2415
0000
0000
0120
cafe
2815
0000
0000
011d
cafe
2c15
0000
0000
0119
cafe
3015
0000
0000
011c
cafe
3415
0000
0000
011c
cafe
3815
0000
0000
011b
cafe
3c15
0000
0000
011f
cafe
2015
0000
0000
011e
cafe
2415
0000
0000
011e
cafe
2815
0000
0000
011c
cafe
2c15
0000
0000
0117
cafe
3015
0000
0000
011b
cafe
3415
0000
0000
011a
cafe
3815
0000
0000
0118
cafe
3c15
0000
0000
0117
cafe
2015
0000
0000
0118
cafe
2415
0000
0000
0118
cafe
2815
0000
0000
0118
cafe
2c15
0000
0000
0119
cafe
3015
0000
0000
011a
cafe
3415
0000
0000
011c
cafe
3815
0000
0000
011b
cafe
3c15
0000
0000
011a
cafe
2015
0000
0000
-
011d
cafe
2415
0000
0000
0121
cafe
2815
0000
0000
011f
cafe
2c15
0000
0000
011f
cafe
3015
0000
0000
011e
cafe
3415
0000
0000
011b
cafe
3815
0000
0000
0116
cafe
3c15
0000
0000
0118
cafe
2015
0000
0000
011f
cafe
2415
0000
0000
011f
cafe
2815
0000
0000
0123
cafe
2c15
0000
0000
0124
cafe
3015
0000
0000
011f
cafe
3415
0000
0000
0119
cafe
3815
0000
0000
011d
cafe
3c15
0000
0000
011e
cafe
2015
0000
0000
011c
cafe
2415
0000
0000
0119
cafe
2815
0000
0000
011c
cafe
2c15
0000
0000
011b
cafe
3015
0000
0000
011e
cafe
3415
0000
0000
0121
cafe
3815
0000
0000
011b
cafe
3c15
0000
0000
0122
cafe
2015
0000
0000
011c
cafe
2415
0000
0000
0119
cafe
2815
0000
0000
011c
cafe
2c15
0000
0000
011c
cafe
3015
0000
0000
011d
cafe
3415
0000
0000
0121
cafe
3815
0000
0000
011d
cafe
3c15
0000
0000
0120
cafe
2015
0000
0000
011c
cafe
2415
0000
0000
0122
cafe
2815
0000
0000
011e
cafe
2c15
0000
0000
011d
cafe
3015
0000
0000
0118
cafe
3415
0000
0000
0118
cafe
3815
0000
0000
011e
cafe
3c15
0000
0000
011d
cafe
2015
0000
0000
011f
cafe
2415
0000
0000
011e
cafe
2815
0000
0000
011c
cafe
2c15
0000
0000
011d
cafe
3015
0000
0000
011c
cafe
3415
0000
0000
0118
cafe
3815
0000
0000
0121
cafe
3c15
0000
0000
011e
cafe
2015
0000
0000
0120
cafe
2415
0000
0000
011f
cafe
2815
0000
0000
0124
cafe
2c15
0000
0000
011e
-
cafe
3015
0000
0000
011c
cafe
3415
0000
0000
0120
cafe
3815
0000
0000
011d
cafe
3c15
0000
0000
011e
cafe
2015
0000
0000
011d
cafe
2415
0000
0000
0118
cafe
2815
0000
0000
0115
cafe
2c15
0000
0000
0119
cafe
3015
0000
0000
0115
cafe
3415
0000
0000
011a
cafe
3815
0000
0000
011d
cafe
3c15
0000
0000
011d
cafe
2015
0000
0000
011c
cafe
2415
0000
0000
011b
cafe
2815
0000
0000
011a
cafe
2c15
0000
0000
0118
cafe
3015
0000
0000
0121
cafe
3415
0000
0000
011b
cafe
3815
0000
0000
0117
cafe
3c15
0000
0000
0119
cafe
2015
0000
0000
011c
cafe
2415
0000
0000
0118
cafe
2815
0000
0000
0119
cafe
2c15
0000
0000
011c
cafe
3015
0000
0000
0120
cafe
3415
0000
0000
011e
cafe
3815
0000
0000
011c
cafe
3c15
0000
0000
011f
cafe
2015
0000
0000
011a
cafe
2415
0000
0000
011d
cafe
2815
0000
0000
0120
cafe
2c15
0000
0000
0119
cafe
3015
0000
0000
011e
cafe
3415
0000
0000
011e
cafe
3815
0000
0000
011f
cafe
3c15
0000
0000
011f
cafe
2015
0000
0000
011b
cafe
2415
0000
0000
011d
cafe
2815
0000
0000
011f
cafe
2c15
0000
0000
011b
cafe
3015
0000
0000
0118
cafe
3415
0000
0000
011e
cafe
3815
0000
0000
011d
cafe
3c15
0000
0000
011d
cafe
2015
0000
0000
011a
cafe
2415
0000
0000
0119
cafe
2815
0000
0000
011a
cafe
2c15
0000
0000
011b
cafe
3015
0000
0000
0117
cafe
3415
0000
0000
011b
cafe
3815
0000
0000
011e
cafe
-
3c15
0000
0000
011c
cafe
2015
0000
0000
0120
cafe
2415
0000
0000
011f
cafe
2815
0000
0000
0120
cafe
2c15
0000
0000
011e
cafe
3015
0000
0000
011e
cafe
3415
0000
0000
011b
cafe
3815
0000
0000
0120
cafe
3c15
0000
0000
0120
cafe
2015
0000
0000
011e
cafe
2415
0000
0000
011d
cafe
2815
0000
0000
011c
cafe
2c15
0000
0000
011b
cafe
3015
0000
0000
011b
cafe
3415
0000
0000
0119
cafe
3815
0000
0000
011b
cafe
3c15
0000
0000
0117
cafe
2015
0000
0000
011b
cafe
2415
0000
0000
0120
cafe
2815
0000
0000
011f
cafe
2c15
0000
0000
011b
cafe
3015
0000
0000
0117
cafe
3415
0000
0000
0120
cafe
3815
0000
0000
011c
cafe
3c15
0000
0000
011e
cafe
2015
0000
0000
011e
cafe
2415
0000
0000
011c
cafe
2815
0000
0000
011e
cafe
2c15
0000
0000
011f
cafe
3015
0000
0000
011e
cafe
3415
0000
0000
0122
cafe
3815
0000
0000
0120
cafe
3c15
0000
0000
011c
cafe
2015
0000
0000
0123
cafe
2415
0000
0000
0120
cafe
2815
0000
0000
011f
cafe
2c15
0000
0000
011c
cafe
3015
0000
0000
011f
cafe
3415
0000
0000
011f
cafe
3815
0000
0000
011c
cafe
3c15
0000
0000
011c
cafe
2015
0000
0000
011d
cafe
2415
0000
0000
0122
cafe
2815
0000
0000
011a
cafe
2c15
0000
0000
011b
cafe
3015
0000
0000
0119
cafe
3415
0000
0000
0119
cafe
3815
0000
0000
011d
cafe
3c15
0000
0000
011c
cafe
2015
0000
0000
0115
cafe
2415
0000
0000
0119
cafe
2815
-
0000
0000
011c
cafe
2c15
0000
0000
011a
cafe
3015
0000
0000
011d
cafe
3415
0000
0000
011f
cafe
3815
0000
0000
011d
cafe
3c15
0000
0000
011e
cafe
2015
0000
0000
0119
cafe
2415
0000
0000
011c
cafe
2815
0000
0000
011a
cafe
2c15
0000
0000
0119
cafe
3015
0000
0000
011b
cafe
3415
0000
0000
011e
cafe
3815
0000
0000
0125
cafe
3c15
0000
0000
0121
cafe
2015
0000
0000
0123
cafe
2415
0000
0000
0120
cafe
2815
0000
0000
011e
cafe
2c15
0000
0000
011b
cafe
3015
0000
0000
0120
cafe
3415
0000
0000
011f
cafe
3815
0000
0000
011f
cafe
3c15
0000
0000
0120
cafe
2015
0000
0000
0120
cafe
2415
0000
0000
011e
cafe
2815
0000
0000
011a
cafe
2c15
0000
0000
0121
cafe
3015
0000
0000
0120
cafe
3415
0000
0000
011e
cafe
3815
0000
0000
0121
cafe
3c15
0000
0000
011b
cafe
2015
0000
0000
011f
cafe
2415
0000
0000
0121
cafe
2815
0000
0000
0118
cafe
2c15
0000
0000
011d
cafe
3015
0000
0000
0120
cafe
3415
0000
0000
011f
cafe
3815
0000
0000
011f
cafe
3c15
0000
0000
0125
cafe
2015
0000
0000
0123
cafe
2415
0000
0000
011d
cafe
2815
0000
0000
011c
cafe
2c15
0000
0000
011d
cafe
3015
0000
0000
011c
cafe
3415
0000
0000
011f
cafe
3815
0000
0000
0118
cafe
3c15
0000
0000
011c
cafe
2015
0000
0000
011b
cafe
2415
0000
0000
0118
cafe
2815
0000
0000
0119
cafe
2c15
0000
0000
0119
cafe
3015
0000
0000
011b
cafe
3415
0000
-
0000
0119
cafe
3815
0000
0000
011b
cafe
3c15
0000
0000
011b
cafe
2015
0000
0000
011e
cafe
2415
0000
0000
0119
cafe
2815
0000
0000
011e
cafe
2c15
0000
0000
011b
cafe
3015
0000
0000
011b
cafe
3415
0000
0000
011c
cafe
3815
0000
0000
0117
cafe
3c15
0000
0000
011b
cafe
2015
0000
0000
0118
cafe
2415
0000
0000
011d
cafe
2815
0000
0000
011c
cafe
2c15
0000
0000
0120
cafe
3015
0000
0000
011e
cafe
3415
0000
0000
011a
cafe
3815
0000
0000
0120
cafe
3c15
0000
0000
0120
cafe
2015
0000
0000
011f
cafe
2415
0000
0000
0118
cafe
2815
0000
0000
011a
cafe
2c15
0000
0000
011d
cafe
3015
0000
0000
0121
cafe
3415
0000
0000
0124
cafe
3815
0000
0000
0122
cafe
3c15
0000
0000
011e
cafe
2015
0000
0000
011f
cafe
2415
0000
0000
0123
cafe
2815
0000
0000
011b
cafe
2c15
0000
0000
011b
cafe
3015
0000
0000
011f
cafe
3415
0000
0000
011f
cafe
3815
0000
0000
011b
cafe
3c15
0000
0000
0119
cafe
2015
0000
0000
011d
cafe
2415
0000
0000
011d
cafe
2815
0000
0000
0116
cafe
2c15
0000
0000
0117
cafe
3015
0000
0000
011e
cafe
3415
0000
0000
011b
cafe
3815
0000
0000
011b
cafe
3c15
0000
0000
011c
cafe
2015
0000
0000
011f
cafe
2415
0000
0000
011f
cafe
2815
0000
0000
011e
cafe
2c15
0000
0000
011f
cafe
3015
0000
0000
011a
cafe
3415
0000
0000
011a
cafe
3815
0000
0000
011c
cafe
3c15
0000
0000
011b
cafe
2015
0000
0000
-
011d
cafe
2415
0000
0000
011d
cafe
2815
0000
0000
0120
cafe
2c15
0000
0000
011d
cafe
3015
0000
0000
011c
cafe
3415
0000
0000
0118
cafe
3815
0000
0000
011b
cafe
3c15
0000
0000
011b
cafe
2015
0000
0000
011a
cafe
2415
0000
0000
011a
cafe
2815
0000
0000
0118
cafe
2c15
0000
0000
0117
cafe
3015
0000
0000
0118
cafe
3415
0000
0000
0112
cafe
3815
0000
0000
0118
cafe
3c15
0000
0000
0116
cafe
2015
0000
0000
0117
cafe
2415
0000
0000
0116
cafe
2815
0000
0000
0117
cafe
2c15
0000
0000
0119
cafe
3015
0000
0000
0117
cafe
3415
0000
0000
011a
cafe
3815
0000
0000
0118
cafe
3c15
0000
0000
011a
cafe
2015
0000
0000
0118
cafe
2415
0000
0000
011d
cafe
2815
0000
0000
0122
cafe
2c15
0000
0000
0119
cafe
3015
0000
0000
0117
cafe
3415
0000
0000
0118
cafe
3815
0000
0000
011c
cafe
3c15
0000
0000
0119
cafe
2015
0000
0000
011a
cafe
2415
0000
0000
011c
cafe
2815
0000
0000
0118
cafe
2c15
0000
0000
0119
cafe
3015
0000
0000
011b
cafe
3415
0000
0000
011c
cafe
3815
0000
0000
011a
cafe
3c15
0000
0000
0120
cafe
2015
0000
0000
0117
cafe
2415
0000
0000
011f
cafe
2815
0000
0000
011c
cafe
2c15
0000
0000
011e
cafe
3015
0000
0000
011d
cafe
3415
0000
0000
011d
cafe
3815
0000
0000
011d
cafe
3c15
0000
0000
0120
cafe
2015
0000
0000
0121
cafe
2415
0000
0000
0121
cafe
2815
0000
0000
011e
cafe
2c15
0000
0000
011c
-
cafe
3015
0000
0000
0123
cafe
3415
0000
0000
0120
cafe
3815
0000
0000
0120
cafe
3c15
0000
0000
0120
cafe
2015
0000
0000
011a
cafe
2415
0000
0000
0117
cafe
2815
0000
0000
011e
cafe
2c15
0000
0000
0118
cafe
3015
0000
0000
011a
cafe
3415
0000
0000
0119
cafe
3815
0000
0000
0117
cafe
3c15
0000
0000
011a
cafe
2015
0000
0000
011d
cafe
2415
0000
0000
011f
cafe
2815
0000
0000
0119
cafe
2c15
0000
0000
0116
cafe
3015
0000
0000
0118
cafe
3415
0000
0000
011b
cafe
3815
0000
0000
011d
cafe
3c15
0000
0000
011c
cafe
2015
0000
0000
011f
cafe
2415
0000
0000
0123
cafe
2815
0000
0000
011d
cafe
2c15
0000
0000
011f
cafe
3015
0000
0000
011f
cafe
3415
0000
0000
0121
cafe
3815
0000
0000
011c
cafe
3c15
0000
0000
011b
cafe
2015
0000
0000
011f
cafe
2415
0000
0000
0121
cafe
2815
0000
0000
011f
cafe
2c15
0000
0000
011e
cafe
3015
0000
0000
0123
cafe
3415
0000
0000
0121
cafe
3815
0000
0000
0120
cafe
3c15
0000
0000
011e
cafe
2015
0000
0000
011c
cafe
2415
0000
0000
011e
cafe
2815
0000
0000
011a
cafe
2c15
0000
0000
0118
cafe
3015
0000
0000
0117
cafe
3415
0000
0000
011c
cafe
3815
0000
0000
011b
cafe
3c15
0000
0000
011a
cafe
2015
0000
0000
011d
cafe
2415
0000
0000
011e
cafe
2815
0000
0000
011c
cafe
2c15
0000
0000
011d
cafe
3015
0000
0000
0120
cafe
3415
0000
0000
0122
cafe
3815
0000
0000
011f
cafe
-
3c15
0000
0000
011d
cafe
2015
0000
0000
011b
cafe
2415
0000
0000
011d
cafe
2815
0000
0000
0118
cafe
2c15
0000
0000
011c
cafe
3015
0000
0000
011f
cafe
3415
0000
0000
011a
cafe
3815
0000
0000
0118
cafe
3c15
0000
0000
011a
cafe
2015
0000
0000
011d
cafe
2415
0000
0000
011c
cafe
2815
0000
0000
011d
cafe
2c15
0000
0000
011f
cafe
3015
0000
0000
011e
cafe
3415
0000
0000
011e
cafe
3815
0000
0000
011a
cafe
3c15
0000
0000
011f
cafe
2015
0000
0000
011d
cafe
2415
0000
0000
0120
cafe
2815
0000
0000
0121
cafe
2c15
0000
0000
011d
cafe
3015
0000
0000
011a
cafe
3415
0000
0000
011c
cafe
3815
0000
0000
0122
cafe
3c15
0000
0000
0120
cafe
2015
0000
0000
011f
cafe
2415
0000
0000
011c
cafe
2815
0000
0000
011d
cafe
2c15
0000
0000
011a
cafe
3015
0000
0000
011d
cafe
3415
0000
0000
011a
cafe
3815
0000
0000
0115
cafe
3c15
0000
0000
0114
cafe
2015
0000
0000
011c
cafe
2415
0000
0000
0120
cafe
2815
0000
0000
011a
cafe
2c15
0000
0000
0118
cafe
3015
0000
0000
0117
cafe
3415
0000
0000
0115
cafe
3815
0000
0000
0113
cafe
3c15
0000
0000
011a
cafe
2015
0000
0000
011d
cafe
2415
0000
0000
0118
cafe
2815
0000
0000
0117
cafe
2c15
0000
0000
011d
cafe
3015
0000
0000
011d
cafe
3415
0000
0000
0120
cafe
3815
0000
0000
0121
cafe
3c15
0000
0000
0120
cafe
2015
0000
0000
0121
cafe
2415
0000
0000
0120
cafe
2815
-
0000
0000
011c
cafe
2c15
0000
0000
0120
cafe
3015
0000
0000
011f
cafe
3415
0000
0000
0122
cafe
3815
0000
0000
0120
cafe
3c15
0000
0000
011d
cafe
2015
0000
0000
011f
cafe
2415
0000
0000
0121
cafe
2815
0000
0000
011f
cafe
2c15
0000
0000
0120
cafe
3015
0000
0000
011e
cafe
3415
0000
0000
011b
cafe
3815
0000
0000
011c
cafe
3c15
0000
0000
0118
cafe
2015
0000
0000
0117
cafe
2415
0000
0000
011a
cafe
2815
0000
0000
0118
cafe
2c15
0000
0000
011c
cafe
3015
0000
0000
011a
cafe
3415
0000
0000
011c
cafe
3815
0000
0000
0118
cafe
3c15
0000
0000
011c
cafe
2015
0000
0000
0119
cafe
2415
0000
0000
011c
cafe
2815
0000
0000
011a
cafe
2c15
0000
0000
011c
cafe
3015
0000
0000
011a
cafe
3415
0000
0000
011c
cafe
3815
0000
0000
011e
cafe
3c15
0000
0000
011f
cafe
2015
0000
0000
0122
cafe
2415
0000
0000
0119
cafe
2815
0000
0000
011e
cafe
2c15
0000
0000
011f
cafe
3015
0000
0000
0122
cafe
3415
0000
0000
011c
cafe
3815
0000
0000
011c
cafe
3c15
0000
0000
011a
cafe
2015
0000
0000
011f
cafe
2415
0000
0000
011d
cafe
2815
0000
0000
011b
cafe
2c15
0000
0000
0117
cafe
3015
0000
0000
0113
cafe
3415
0000
0000
011a
cafe
3815
0000
0000
011f
cafe
3c15
0000
0000
011a
cafe
2015
0000
0000
0119
cafe
2415
0000
0000
011b
cafe
2815
0000
0000
011e
cafe
2c15
0000
0000
0120
cafe
3015
0000
0000
011d
cafe
3415
0000
-
0000
011e
cafe
3815
0000
0000
011e
cafe
3c15
0000
0000
011f
cafe
2015
0000
0000
011f
cafe
2415
0000
0000
0122
cafe
2815
0000
0000
0121
cafe
2c15
0000
0000
011f
cafe
3015
0000
0000
0120
cafe
3415
0000
0000
011f
cafe
3815
0000
0000
011d
cafe
3c15
0000
0000
011f
cafe
2015
0000
0000
011c
cafe
2415
0000
0000
0115
cafe
2815
0000
0000
011e
cafe
2c15
0000
0000
011d
cafe
3015
0000
0000
0120
cafe
3415
0000
0000
0122
cafe
3815
0000
0000
011f
cafe
3c15
0000
0000
011b
cafe
2015
0000
0000
011b
cafe
2415
0000
0000
011b
cafe
2815
0000
0000
011b
cafe
2c15
0000
0000
011c
cafe
3015
0000
0000
011a
cafe
3415
0000
0000
011b
cafe
3815
0000
0000
0116
cafe
3c15
0000
0000
0117
cafe
2015
0000
0000
0118
cafe
2415
0000
0000
0115
cafe
2815
0000
0000
0119
cafe
2c15
0000
0000
0119
cafe
3015
0000
0000
011d
cafe
3415
0000
0000
011c
cafe
3815
0000
0000
011e
cafe
3c15
0000
0000
0119
cafe
2015
0000
0000
011c
cafe
2415
0000
0000
0119
cafe
2815
0000
0000
011b
cafe
2c15
0000
0000
011a
cafe
3015
0000
0000
011e
cafe
3415
0000
0000
0121
cafe
3815
0000
0000
0122
cafe
3c15
0000
0000
011b
cafe
2015
0000
0000
011e
cafe
2415
0000
0000
0119
cafe
2815
0000
0000
011a
cafe
2c15
0000
0000
011c
cafe
3015
0000
0000
011f
cafe
3415
0000
0000
011d
cafe
3815
0000
0000
0120
cafe
3c15
0000
0000
0122
cafe
2015
0000
0000
-
0120
cafe
2415
0000
0000
011b
cafe
2815
0000
0000
011d
cafe
2c15
0000
0000
0119
cafe
3015
0000
0000
011d
cafe
3415
0000
0000
011d
cafe
3815
0000
0000
011e
cafe
3c15
0000
0000
0120
cafe
2015
0000
0000
0120
cafe
2415
0000
0000
011f
cafe
2815
0000
0000
0123
cafe
2c15
0000
0000
0121
cafe
3015
0000
0000
0122
cafe
3415
0000
0000
011c
cafe
3815
0000
0000
011d
cafe
3c15
0000
0000
0122
cafe
2015
0000
0000
011f
cafe
2415
0000
0000
011e
cafe
2815
0000
0000
011e
cafe
2c15
0000
0000
0121
cafe
3015
0000
0000
011b
cafe
3415
0000
0000
0120
cafe
3815
0000
0000
011d
cafe
3c15
0000
0000
011e
cafe
2015
0000
0000
011d
cafe
2415
0000
0000
011b
cafe
2815
0000
0000
011c
cafe
2c15
0000
0000
0119
cafe
3015
0000
0000
011c
cafe
3415
0000
0000
011c
cafe
3815
0000
0000
011d
cafe
3c15
0000
0000
0122
cafe
2015
0000
0000
011c
cafe
2415
0000
0000
011a
cafe
2815
0000
0000
011a
cafe
2c15
0000
0000
011a
cafe
3015
0000
0000
011a
cafe
3415
0000
0000
011b
cafe
3815
0000
0000
0123
cafe
3c15
0000
0000
011c
cafe
2015
0000
0000
0121
cafe
2415
0000
0000
011e
cafe
2815
0000
0000
0119
cafe
2c15
0000
0000
011d
cafe
3015
0000
0000
011e
cafe
3415
0000
0000
0120
cafe
3815
0000
0000
011c
cafe
3c15
0000
0000
011b
cafe
2015
0000
0000
011a
cafe
2415
0000
0000
0117
cafe
2815
0000
0000
011f
cafe
2c15
0000
0000
011f
-
cafe
3015
0000
0000
011f
cafe
3415
0000
0000
011a
cafe
3815
0000
0000
011a
cafe
3c15
0000
0000
011b
cafe
2015
0000
0000
011e
cafe
2415
0000
0000
0117
cafe
2815
0000
0000
011a
cafe
2c15
0000
0000
011d
cafe
3015
0000
0000
011d
cafe
3415
0000
0000
0119
cafe
3815
0000
0000
011b
cafe
3c15
0000
0000
0118
cafe
2015
0000
0000
011c
cafe
2415
0000
0000
011d
cafe
2815
0000
0000
0117
cafe
2c15
0000
0000
0119
cafe
3015
0000
0000
011c
cafe
3415
0000
0000
0121
cafe
3815
0000
0000
011f
cafe
3c15
0000
0000
011e
cafe
2015
0000
0000
011b
cafe
2415
0000
0000
0121
cafe
2815
0000
0000
011f
cafe
2c15
0000
0000
011e
cafe
3015
0000
0000
0123
cafe
3415
0000
0000
0121
cafe
3815
0000
0000
011e
cafe
3c15
0000
0000
011c
cafe
2015
0000
0000
0123
cafe
2415
0000
0000
011d
cafe
2815
0000
0000
011a
cafe
2c15
0000
0000
011a
cafe
3015
0000
0000
011b
cafe
3415
0000
0000
011b
cafe
3815
0000
0000
011c
cafe
3c15
0000
0000
0117
cafe
2015
0000
0000
011b
cafe
2415
0000
0000
0115
cafe
2815
0000
0000
0119
cafe
2c15
0000
0000
0114
cafe
3015
0000
0000
011b
cafe
3415
0000
0000
0119
cafe
3815
0000
0000
011b
cafe
3c15
0000
0000
011a
cafe
2015
0000
0000
0119
cafe
2415
0000
0000
0118
cafe
2815
0000
0000
0119
cafe
2c15
0000
0000
0114
cafe
3015
0000
0000
011b
cafe
3415
0000
0000
011b
cafe
3815
0000
0000
011a
cafe
-
3c15
0000
0000
0119
cafe
2015
0000
0000
0115
cafe
2415
0000
0000
011e
cafe
2815
0000
0000
011b
cafe
2c15
0000
0000
0118
cafe
3015
0000
0000
011b
cafe
3415
0000
0000
011a
cafe
3815
0000
0000
011c
cafe
3c15
0000
0000
011d
cafe
2015
0000
0000
011d
cafe
2415
0000
0000
011f
cafe
2815
0000
0000
011e
cafe
2c15
0000
0000
0121
cafe
3015
0000
0000
011f
cafe
3415
0000
0000
011d
cafe
3815
0000
0000
011e
cafe
3c15
0000
0000
011a
cafe
2015
0000
0000
011b
cafe
2415
0000
0000
011e
cafe
2815
0000
0000
011f
cafe
2c15
0000
0000
011a
cafe
3015
0000
0000
011a
cafe
3415
0000
0000
011d
cafe
3815
0000
0000
011c
cafe
3c15
0000
0000
011b
cafe
2015
0000
0000
011f
cafe
2415
0000
0000
0121
cafe
2815
0000
0000
011a
cafe
2c15
0000
0000
0121
cafe
3015
0000
0000
011c
cafe
3415
0000
0000
011b
cafe
3815
0000
0000
0118
cafe
3c15
0000
0000
011a
cafe
2015
0000
0000
011b
cafe
2415
0000
0000
011d
cafe
2815
0000
0000
0119
cafe
2c15
0000
0000
011e
cafe
3015
0000
0000
011a
cafe
3415
0000
0000
011e
cafe
3815
0000
0000
0119
cafe
3c15
0000
0000
011a
cafe
2015
0000
0000
0117
cafe
2415
0000
0000
011c
cafe
2815
0000
0000
0117
cafe
2c15
0000
0000
011b
cafe
3015
0000
0000
011b
cafe
3415
0000
0000
011f
cafe
3815
0000
0000
011d
cafe
3c15
0000
0000
011b
cafe
2015
0000
0000
0121
cafe
2415
0000
0000
0118
cafe
2815
-
0000
0000
0118
cafe
2c15
0000
0000
0115
cafe
3015
0000
0000
0117
cafe
3415
0000
0000
0114
cafe
3815
0000
0000
0117
cafe
3c15
0000
0000
0114
cafe
2015
0000
0000
0116
cafe
2415
0000
0000
0117
cafe
2815
0000
0000
0117
cafe
2c15
0000
0000
0115
cafe
3015
0000
0000
0115
cafe
3415
0000
0000
011c
cafe
3815
0000
0000
011b
cafe
3c15
0000
0000
011d
cafe
2015
0000
0000
011a
cafe
2415
0000
0000
011e
cafe
2815
0000
0000
0119
cafe
2c15
0000
0000
011c
cafe
3015
0000
0000
0121
cafe
3415
0000
0000
0121
cafe
3815
0000
0000
0121
cafe
3c15
0000
0000
0120
cafe
2015
0000
0000
011e
cafe
2415
0000
0000
0122
cafe
2815
0000
0000
011d
cafe
2c15
0000
0000
011c
cafe
3015
0000
0000
011d
cafe
3415
0000
0000
011c
cafe
3815
0000
0000
0120
cafe
3c15
0000
0000
0122
cafe
2015
0000
0000
011e
cafe
2415
0000
0000
011c
cafe
2815
0000
0000
0118
cafe
2c15
0000
0000
0116
cafe
3015
0000
0000
011c
cafe
3415
0000
0000
0120
cafe
3815
0000
0000
011e
cafe
3c15
0000
0000
0121
cafe
2015
0000
0000
011a
cafe
2415
0000
0000
0121
cafe
2815
0000
0000
011b
cafe
2c15
0000
0000
011a
cafe
3015
0000
0000
0119
cafe
3415
0000
0000
0117
cafe
3815
0000
0000
011c
cafe
3c15
0000
0000
011c
cafe
2015
0000
0000
0120
cafe
2415
0000
0000
011c
cafe
2815
0000
0000
011e
cafe
2c15
0000
0000
011f
cafe
3015
0000
0000
011d
cafe
3415
0000
-
0000
0120
cafe
3815
0000
0000
011c
cafe
3c15
0000
0000
011e
cafe
2015
0000
0000
011c
cafe
2415
0000
0000
0122
cafe
2815
0000
0000
011f
cafe
2c15
0000
0000
011b
cafe
3015
0000
0000
011b
cafe
3415
0000
0000
011b
cafe
3815
0000
0000
011a
cafe
3c15
0000
0000
011f
cafe
2015
0000
0000
011e
cafe
2415
0000
0000
0116
cafe
2815
0000
0000
011a
cafe
2c15
0000
0000
011a
cafe
3015
0000
0000
011c
cafe
3415
0000
0000
011c
cafe
3815
0000
0000
011c
cafe
3c15
0000
0000
011e
cafe
2015
0000
0000
011f
cafe
2415
0000
0000
011f
cafe
2815
0000
0000
011d
cafe
2c15
0000
0000
011a
cafe
3015
0000
0000
011e
cafe
3415
0000
0000
011e
cafe
3815
0000
0000
011e
cafe
3c15
0000
0000
0123
cafe
2015
0000
0000
0120
cafe
2415
0000
0000
011e
cafe
2815
0000
0000
0120
cafe
2c15
0000
0000
011f
cafe
3015
0000
0000
011d
cafe
3415
0000
0000
011e
cafe
3815
0000
0000
011e
cafe
3c15
0000
0000
011c
cafe
2015
0000
0000
011e
cafe
2415
0000
0000
011c
cafe
2815
0000
0000
0121
cafe
2c15
0000
0000
011e
cafe
3015
0000
0000
0120
cafe
3415
0000
0000
0121
cafe
3815
0000
0000
0121
cafe
3c15
0000
0000
0122
cafe
2015
0000
0000
0124
cafe
2415
0000
0000
011f
cafe
2815
0000
0000
0122
cafe
2c15
0000
0000
011f
cafe
3015
0000
0000
011f
cafe
3415
0000
0000
011f
cafe
3815
0000
0000
011e
cafe
3c15
0000
0000
0122
cafe
2015
0000
0000
-
011b
cafe
2415
0000
0000
011e
cafe
2815
0000
0000
011b
cafe
2c15
0000
0000
0117
cafe
3015
0000
0000
011b
cafe
3415
0000
0000
011e
cafe
3815
0000
0000
011c
cafe
3c15
0000
0000
011f
cafe
2015
0000
0000
011f
cafe
2415
0000
0000
011b
cafe
2815
0000
0000
011c
cafe
2c15
0000
0000
0120
cafe
3015
0000
0000
011b
cafe
3415
0000
0000
011a
cafe
3815
0000
0000
011b
cafe
3c15
0000
0000
011a
cafe
2015
0000
0000
011f
cafe
2415
0000
0000
011a
cafe
2815
0000
0000
0118
cafe
2c15
0000
0000
011d
cafe
3015
0000
0000
0121
cafe
3415
0000
0000
0123
cafe
3815
0000
0000
0122
cafe
3c15
0000
0000
011d
cafe
2015
0000
0000
0121
cafe
2415
0000
0000
011b
cafe
2815
0000
0000
011f
cafe
2c15
0000
0000
011d
cafe
3015
0000
0000
0122
cafe
3415
0000
0000
011f
cafe
3815
0000
0000
011d
cafe
3c15
0000
0000
011a
cafe
2015
0000
0000
011f
cafe
2415
0000
0000
011d
cafe
2815
0000
0000
011a
cafe
2c15
0000
0000
011e
cafe
3015
0000
0000
0120
cafe
3415
0000
0000
011d
cafe
3815
0000
0000
011b
cafe
3c15
0000
0000
011f
cafe
2015
0000
0000
011e
cafe
2415
0000
0000
011c
cafe
2815
0000
0000
0114
cafe
2c15
0000
0000
0116
cafe
3015
0000
0000
011a
cafe
3415
0000
0000
011c
cafe
3815
0000
0000
0120
cafe
3c15
0000
0000
011e
cafe
2015
0000
0000
0117
cafe
2415
0000
0000
011a
cafe
2815
0000
0000
0118
cafe
2c15
0000
0000
011b
-
cafe
3015
0000
0000
0119
cafe
3415
0000
0000
0117
cafe
3815
0000
0000
0115
cafe
3c15
0000
0000
011b
cafe
2015
0000
0000
011c
cafe
2415
0000
0000
011a
cafe
2815
0000
0000
0119
cafe
2c15
0000
0000
0119
cafe
3015
0000
0000
011a
cafe
3415
0000
0000
011f
cafe
3815
0000
0000
0121
cafe
3c15
0000
0000
011b
cafe
2015
0000
0000
011d
cafe
2415
0000
0000
0124
cafe
2815
0000
0000
011f
cafe
2c15
0000
0000
0119
cafe
3015
0000
0000
0120
cafe
3415
0000
0000
011b
cafe
3815
0000
0000
011c
cafe
3c15
0000
0000
011c
cafe
2015
0000
0000
011c
cafe
2415
0000
0000
011e
cafe
2815
0000
0000
011c
cafe
2c15
0000
0000
0117
cafe
3015
0000
0000
011c
cafe
3415
0000
0000
011f
cafe
3815
0000
0000
011f
cafe
3c15
0000
0000
0119
cafe
2015
0000
0000
011b
cafe
2415
0000
0000
011f
cafe
2815
0000
0000
011c
cafe
2c15
0000
0000
0119
cafe
3015
0000
0000
011c
cafe
3415
0000
0000
0118
cafe
3815
0000
0000
0117
cafe
3c15
0000
0000
0117
cafe
2015
0000
0000
011e
cafe
2415
0000
0000
0122
cafe
2815
0000
0000
0122
cafe
2c15
0000
0000
0120
cafe
3015
0000
0000
011e
cafe
3415
0000
0000
0120
cafe
3815
0000
0000
0122
cafe
3c15
0000
0000
0126
cafe
2015
0000
0000
011c
cafe
2415
0000
0000
0122
cafe
2815
0000
0000
0124
cafe
2c15
0000
0000
0122
cafe
3015
0000
0000
0123
cafe
3415
0000
0000
0123
cafe
3815
0000
0000
011d
cafe
-
3c15
0000
0000
0119
cafe
2015
0000
0000
011d
cafe
2415
0000
0000
0118
cafe
2815
0000
0000
0119
cafe
2c15
0000
0000
011f
cafe
3015
0000
0000
0119
cafe
3415
0000
0000
011e
cafe
3815
0000
0000
0117
cafe
3c15
0000
0000
0115
cafe
2015
0000
0000
0114
cafe
2415
0000
0000
0119
cafe
2815
0000
0000
011a
cafe
2c15
0000
0000
0117
cafe
3015
0000
0000
0118
cafe
3415
0000
0000
011a
cafe
3815
0000
0000
0115
cafe
3c15
0000
0000
0118
cafe
2015
0000
0000
011a
cafe
2415
0000
0000
011d
cafe
2815
0000
0000
011f
cafe
2c15
0000
0000
011c
cafe
3015
0000
0000
011c
cafe
3415
0000
0000
011b
cafe
3815
0000
0000
0117
cafe
3c15
0000
0000
0117
cafe
2015
0000
0000
011e
cafe
2415
0000
0000
0121
cafe
2815
0000
0000
011f
cafe
2c15
0000
0000
0119
cafe
3015
0000
0000
0120
cafe
3415
0000
0000
011d
cafe
3815
0000
0000
011c
cafe
3c15
0000
0000
011d
cafe
2015
0000
0000
011d
cafe
2415
0000
0000
011a
cafe
2815
0000
0000
011b
cafe
2c15
0000
0000
011e
cafe
3015
0000
0000
011b
cafe
3415
0000
0000
011d
cafe
3815
0000
0000
011e
cafe
3c15
0000
0000
011b
cafe
2015
0000
0000
011d
cafe
2415
0000
0000
011e
cafe
2815
0000
0000
011d
cafe
2c15
0000
0000
011b
cafe
3015
0000
0000
011a
cafe
3415
0000
0000
011e
cafe
3815
0000
0000
011e
cafe
3c15
0000
0000
011f
cafe
2015
0000
0000
0124
cafe
2415
0000
0000
0123
cafe
2815
-
0000
0000
0121
cafe
2c15
0000
0000
0121
cafe
3015
0000
0000
011f
cafe
3415
0000
0000
0119
cafe
3815
0000
0000
011e
cafe
3c15
0000
0000
0121
cafe
2015
0000
0000
011b
cafe
2415
0000
0000
011c
cafe
2815
0000
0000
0120
cafe
2c15
0000
0000
0120
cafe
3015
0000
0000
011e
cafe
3415
0000
0000
011e
cafe
3815
0000
0000
011d
cafe
3c15
0000
0000
011c
cafe
2015
0000
0000
011e
cafe
2415
0000
0000
011f
cafe
2815
0000
0000
011c
cafe
2c15
0000
0000
0119
cafe
3015
0000
0000
011d
cafe
3415
0000
0000
011b
cafe
3815
0000
0000
0118
cafe
3c15
0000
0000
0118
cafe
2015
0000
0000
011d
cafe
2415
0000
0000
011b
cafe
2815
0000
0000
011f
cafe
2c15
0000
0000
0124
cafe
3015
0000
0000
011f
cafe
3415
0000
0000
011d
cafe
3815
0000
0000
011e
cafe
3c15
0000
0000
0125
cafe
2015
0000
0000
011f
cafe
2415
0000
0000
011c
cafe
2815
0000
0000
011b
cafe
2c15
0000
0000
0118
cafe
3015
0000
0000
011a
cafe
3415
0000
0000
0118
cafe
3815
0000
0000
0118
cafe
3c15
0000
0000
011b
cafe
2015
0000
0000
011d
cafe
2415
0000
0000
011c
cafe
2815
0000
0000
011c
cafe
2c15
0000
0000
011c
cafe
3015
0000
0000
011f
cafe
3415
0000
0000
011d
cafe
3815
0000
0000
011c
cafe
3c15
0000
0000
011c
cafe
2015
0000
0000
011b
cafe
2415
0000
0000
0115
cafe
2815
0000
0000
011f
cafe
2c15
0000
0000
0120
cafe
3015
0000
0000
011f
cafe
3415
0000
-
0000
011c
cafe
3815
0000
0000
0114
cafe
3c15
0000
0000
011a
cafe
2015
0000
0000
0120
cafe
2415
0000
0000
0120
cafe
2815
0000
0000
011f
cafe
2c15
0000
0000
0121
cafe
3015
0000
0000
011c
cafe
3415
0000
0000
011f
cafe
3815
0000
0000
011b
cafe
3c15
0000
0000
0121
cafe
2015
0000
0000
0121
cafe
2415
0000
0000
0123
cafe
2815
0000
0000
0124
cafe
2c15
0000
0000
0125
cafe
3015
0000
0000
0121
cafe
3415
0000
0000
011b
cafe
3815
0000
0000
0120
cafe
3c15
0000
0000
0121
cafe
2015
0000
0000
011e
cafe
2415
0000
0000
011c
cafe
2815
0000
0000
011b
cafe
2c15
0000
0000
011a
cafe
3015
0000
0000
0121
cafe
3415
0000
0000
011b
cafe
3815
0000
0000
011e
cafe
3c15
0000
0000
011d
cafe
2015
0000
0000
011b
cafe
2415
0000
0000
011d
cafe
2815
0000
0000
011f
cafe
2c15
0000
0000
011b
cafe
3015
0000
0000
011d
cafe
3415
0000
0000
011f
cafe
3815
0000
0000
011e
cafe
3c15
0000
0000
011b
cafe
2015
0000
0000
011d
cafe
2415
0000
0000
011d
cafe
2815
0000
0000
0123
cafe
2c15
0000
0000
0120
cafe
3015
0000
0000
011c
cafe
3415
0000
0000
011d
cafe
3815
0000
0000
011c
cafe
3c15
0000
0000
0120
cafe
2015
0000
0000
011b
cafe
2415
0000
0000
011d
cafe
2815
0000
0000
011c
cafe
2c15
0000
0000
011f
cafe
3015
0000
0000
011a
cafe
3415
0000
0000
011e
cafe
3815
0000
0000
011a
cafe
3c15
0000
0000
011c
cafe
2015
0000
0000
-
0122
cafe
2415
0000
0000
011c
cafe
2815
0000
0000
011c
cafe
2c15
0000
0000
011c
cafe
3015
0000
0000
011c
cafe
3415
0000
0000
011b
cafe
3815
0000
0000
011a
cafe
3c15
0000
0000
0120
cafe
2015
0000
0000
011a
cafe
2415
0000
0000
0118
cafe
2815
0000
0000
011b
cafe
2c15
0000
0000
011b
cafe
3015
0000
0000
011c
cafe
3415
0000
0000
0121
cafe
3815
0000
0000
011d
cafe
3c15
0000
0000
011e
cafe
2015
0000
0000
011e
cafe
2415
0000
0000
0119
cafe
2815
0000
0000
011f
cafe
2c15
0000
0000
011d
cafe
3015
0000
0000
011c
cafe
3415
0000
0000
011a
cafe
3815
0000
0000
011f
cafe
3c15
0000
0000
0120
cafe
2015
0000
0000
011f
cafe
2415
0000
0000
011b
cafe
2815
0000
0000
0120
cafe
2c15
0000
0000
011c
cafe
3015
0000
0000
011d
cafe
3415
0000
0000
011e
cafe
3815
0000
0000
011b
cafe
3c15
0000
0000
011d
cafe
2015
0000
0000
011f
cafe
2415
0000
0000
011e
cafe
2815
0000
0000
011a
cafe
2c15
0000
0000
011f
cafe
3015
0000
0000
0116
cafe
3415
0000
0000
0119
cafe
3815
0000
0000
011b
cafe
3c15
0000
0000
0119
cafe
2015
0000
0000
0118
cafe
2415
0000
0000
011b
cafe
2815
0000
0000
011c
cafe
2c15
0000
0000
011f
cafe
3015
0000
0000
0120
cafe
3415
0000
0000
011c
cafe
3815
0000
0000
0117
cafe
3c15
0000
0000
0119
cafe
2015
0000
0000
011c
cafe
2415
0000
0000
011d
cafe
2815
0000
0000
011d
cafe
2c15
0000
0000
0118
-
cafe
3015
0000
0000
011a
cafe
3415
0000
0000
011c
cafe
3815
0000
0000
011f
cafe
3c15
0000
0000
011b
cafe
2015
0000
0000
011c
cafe
2415
0000
0000
011d
cafe
2815
0000
0000
011d
cafe
2c15
0000
0000
011c
cafe
3015
0000
0000
011d
cafe
3415
0000
0000
011b
cafe
3815
0000
0000
011e
cafe
3c15
0000
0000
0119
cafe
2015
0000
0000
011a
cafe
2415
0000
0000
0120
cafe
2815
0000
0000
0126
cafe
2c15
0000
0000
011e
cafe
3015
0000
0000
011d
cafe
3415
0000
0000
0121
cafe
3815
0000
0000
0120
cafe
3c15
0000
0000
0121
cafe
2015
0000
0000
0120
cafe
2415
0000
0000
0122
cafe
2815
0000
0000
0121
cafe
2c15
0000
0000
011f
cafe
3015
0000
0000
0121
cafe
3415
0000
0000
011d
cafe
3815
0000
0000
011d
cafe
3c15
0000
0000
011e
cafe
2015
0000
0000
011e
cafe
2415
0000
0000
011d
cafe
2815
0000
0000
011d
cafe
2c15
0000
0000
011e
cafe
3015
0000
0000
0119
cafe
3415
0000
0000
0119
cafe
3815
0000
0000
0118
cafe
3c15
0000
0000
0119
cafe
2015
0000
0000
011d
cafe
2415
0000
0000
011a
cafe
2815
0000
0000
0117
cafe
2c15
0000
0000
0116
cafe
3015
0000
0000
011c
cafe
3415
0000
0000
0120
cafe
3815
0000
0000
011d
cafe
3c15
0000
0000
011e
cafe
2015
0000
0000
0123
cafe
2415
0000
0000
0120
cafe
2815
0000
0000
0124
cafe
2c15
0000
0000
011d
cafe
3015
0000
0000
011f
cafe
3415
0000
0000
0117
cafe
3815
0000
0000
011d
cafe
-
3c15
0000
0000
011a
cafe
2015
0000
0000
011c
cafe
2415
0000
0000
011a
cafe
2815
0000
0000
011a
cafe
2c15
0000
0000
011f
cafe
3015
0000
0000
0122
cafe
3415
0000
0000
0121
cafe
3815
0000
0000
011f
cafe
3c15
0000
0000
011f
cafe
2015
0000
0000
011f
cafe
2415
0000
0000
011b
cafe
2815
0000
0000
011f
cafe
2c15
0000
0000
0120
cafe
3015
0000
0000
0122
cafe
3415
0000
0000
011b
cafe
3815
0000
0000
011c
cafe
3c15
0000
0000
0120
cafe
2015
0000
0000
011f
cafe
2415
0000
0000
011f
cafe
2815
0000
0000
011e
cafe
2c15
0000
0000
011c
cafe
3015
0000
0000
0120
cafe
3415
0000
0000
0121
cafe
3815
0000
0000
011d
cafe
3c15
0000
0000
011d
cafe
2015
0000
0000
011e
cafe
2415
0000
0000
0122
cafe
2815
0000
0000
0119
cafe
2c15
0000
0000
0114
cafe
3015
0000
0000
0115
cafe
3415
0000
0000
011a
cafe
3815
0000
0000
011b
cafe
3c15
0000
0000
011b
cafe
2015
0000
0000
011c
cafe
2415
0000
0000
011b
cafe
2815
0000
0000
011d
cafe
2c15
0000
0000
011e
cafe
3015
0000
0000
011d
cafe
3415
0000
0000
011b
cafe
3815
0000
0000
011c
cafe
3c15
0000
0000
011b
cafe
2015
0000
0000
011b
cafe
2415
0000
0000
011d
cafe
2815
0000
0000
0119
cafe
2c15
0000
0000
0118
cafe
3015
0000
0000
0120
cafe
3415
0000
0000
0121
cafe
3815
0000
0000
011b
cafe
3c15
0000
0000
0124
cafe
2015
0000
0000
0121
cafe
2415
0000
0000
0121
cafe
2815
-
0000
0000
0124
cafe
2c15
0000
0000
011c
cafe
3015
0000
0000
0120
cafe
3415
0000
0000
0120
cafe
3815
0000
0000
011c
cafe
3c15
0000
0000
011c
cafe
2015
0000
0000
011b
cafe
2415
0000
0000
0120
cafe
2815
0000
0000
011e
cafe
2c15
0000
0000
011c
cafe
3015
0000
0000
0120
cafe
3415
0000
0000
0120
cafe
3815
0000
0000
011f
cafe
3c15
0000
0000
011f
cafe
2015
0000
0000
011d
cafe
2415
0000
0000
011f
cafe
2815
0000
0000
011d
cafe
2c15
0000
0000
011e
cafe
3015
0000
0000
0123
cafe
3415
0000
0000
011f
cafe
3815
0000
0000
0122
cafe
3c15
0000
0000
0120
cafe
2015
0000
0000
0120
cafe
2415
0000
0000
0122
cafe
2815
0000
0000
011c
cafe
2c15
0000
0000
0120
cafe
3015
0000
0000
0121
cafe
3415
0000
0000
011d
cafe
3815
0000
0000
011e
cafe
3c15
0000
0000
0122
cafe
2015
0000
0000
0121
cafe
2415
0000
0000
011b
cafe
2815
0000
0000
011f
cafe
2c15
0000
0000
011f
cafe
3015
0000
0000
011d
cafe
3415
0000
0000
0121
cafe
3815
0000
0000
0123
cafe
3c15
0000
0000
0123
cafe
2015
0000
0000
0122
cafe
2415
0000
0000
011e
cafe
2815
0000
0000
011f
cafe
2c15
0000
0000
011e
cafe
3015
0000
0000
011a
cafe
3415
0000
0000
011e
cafe
3815
0000
0000
0123
cafe
3c15
0000
0000
011f
cafe
2015
0000
0000
011d
cafe
2415
0000
0000
011b
cafe
2815
0000
0000
011a
cafe
2c15
0000
0000
0119
cafe
3015
0000
0000
0121
cafe
3415
0000
-
0000
011a
cafe
3815
0000
0000
011a
cafe
3c15
0000
0000
011b
cafe
2015
0000
0000
011d
cafe
2415
0000
0000
011f
cafe
2815
0000
0000
011b
cafe
2c15
0000
0000
0116
cafe
3015
0000
0000
0116
cafe
3415
0000
0000
0116
cafe
3815
0000
0000
011c
cafe
3c15
0000
0000
011a
cafe
2015
0000
0000
0118
cafe
2415
0000
0000
0118
cafe
2815
0000
0000
011b
cafe
2c15
0000
0000
011b
cafe
3015
0000
0000
011c
cafe
3415
0000
0000
011c
cafe
3815
0000
0000
011b
cafe
3c15
0000
0000
0118
cafe
2015
0000
0000
0117
cafe
2415
0000
0000
011a
cafe
2815
0000
0000
0119
cafe
2c15
0000
0000
011a
cafe
3015
0000
0000
0117
cafe
3415
0000
0000
0118
cafe
3815
0000
0000
0114
cafe
3c15
0000
0000
0117
cafe
2015
0000
0000
0117
cafe
2415
0000
0000
0116
cafe
2815
0000
0000
011b
cafe
2c15
0000
0000
011d
cafe
3015
0000
0000
011c
cafe
3415
0000
0000
011b
cafe
3815
0000
0000
0119
cafe
3c15
0000
0000
0119
cafe
2015
0000
0000
011b
cafe
2415
0000
0000
011d
cafe
2815
0000
0000
011f
cafe
2c15
0000
0000
0118
cafe
3015
0000
0000
0117
cafe
3415
0000
0000
011d
cafe
3815
0000
0000
011b
cafe
3c15
0000
0000
011a
cafe
2015
0000
0000
011c
cafe
2415
0000
0000
0119
cafe
2815
0000
0000
011c
cafe
2c15
0000
0000
0117
cafe
3015
0000
0000
011b
cafe
3415
0000
0000
0117
cafe
3815
0000
0000
0117
cafe
3c15
0000
0000
011a
cafe
2015
0000
0000
-
0119
cafe
2415
0000
0000
011b
cafe
2815
0000
0000
011c
cafe
2c15
0000
0000
011a
cafe
3015
0000
0000
011e
cafe
3415
0000
0000
011f
cafe
3815
0000
0000
0120
cafe
3c15
0000
0000
0123
cafe
2015
0000
0000
011e
cafe
2415
0000
0000
0117
cafe
2815
0000
0000
011f
cafe
2c15
0000
0000
011e
cafe
3015
0000
0000
011c
cafe
3415
0000
0000
011e
cafe
3815
0000
0000
011f
cafe
3c15
0000
0000
011b
cafe
2015
0000
0000
011d
cafe
2415
0000
0000
011c
cafe
2815
0000
0000
011d
cafe
2c15
0000
0000
0122
cafe
3015
0000
0000
011e
cafe
3415
0000
0000
0121
cafe
3815
0000
0000
011a
cafe
3c15
0000
0000
0116
cafe
2015
0000
0000
011f
cafe
2415
0000
0000
011e
cafe
2815
0000
0000
0121
cafe
2c15
0000
0000
011f
cafe
3015
0000
0000
011f
cafe
3415
0000
0000
0121
cafe
3815
0000
0000
0118
cafe
3c15
0000
0000
011c
cafe
2015
0000
0000
011c
cafe
2415
0000
0000
0119
cafe
2815
0000
0000
011f
cafe
2c15
0000
0000
011a
cafe
3015
0000
0000
0119
cafe
3415
0000
0000
0119
cafe
3815
0000
0000
011d
cafe
3c15
0000
0000
011c
cafe
2015
0000
0000
0119
cafe
2415
0000
0000
0119
cafe
2815
0000
0000
011d
cafe
2c15
0000
0000
011b
cafe
3015
0000
0000
011c
cafe
3415
0000
0000
011a
cafe
3815
0000
0000
0119
cafe
3c15
0000
0000
0119
cafe
2015
0000
0000
0116
cafe
2415
0000
0000
0110
cafe
2815
0000
0000
0114
cafe
2c15
0000
0000
0114
-
cafe
3015
0000
0000
0119
cafe
3415
0000
0000
0118
cafe
3815
0000
0000
0118
cafe
3c15
0000
0000
011d
cafe
2015
0000
0000
011d
cafe
2415
0000
0000
011f
cafe
2815
0000
0000
011e
cafe
2c15
0000
0000
0121
cafe
3015
0000
0000
011d
cafe
3415
0000
0000
011e
cafe
3815
0000
0000
011b
cafe
3c15
0000
0000
011a
cafe
2015
0000
0000
0119
cafe
2415
0000
0000
0119
cafe
2815
0000
0000
011b
cafe
2c15
0000
0000
011d
cafe
3015
0000
0000
0118
cafe
3415
0000
0000
011a
cafe
3815
0000
0000
0119
cafe
3c15
0000
0000
0114
cafe
2015
0000
0000
0116
cafe
2415
0000
0000
011c
cafe
2815
0000
0000
011a
cafe
2c15
0000
0000
011a
cafe
3015
0000
0000
011c
cafe
3415
0000
0000
011a
cafe
3815
0000
0000
0117
cafe
3c15
0000
0000
0120
cafe
2015
0000
0000
011b
cafe
2415
0000
0000
011d
cafe
2815
0000
0000
0120
cafe
2c15
0000
0000
0122
cafe
3015
0000
0000
0122
cafe
3415
0000
0000
0120
cafe
3815
0000
0000
011f
cafe
3c15
0000
0000
0120
cafe
2015
0000
0000
0123
cafe
2415
0000
0000
0122
cafe
2815
0000
0000
0121
cafe
2c15
0000
0000
011f
cafe
3015
0000
0000
011b
cafe
3415
0000
0000
011a
cafe
3815
0000
0000
011c
cafe
3c15
0000
0000
0119
cafe
2015
0000
0000
011a
cafe
2415
0000
0000
011c
cafe
2815
0000
0000
0119
cafe
2c15
0000
0000
011d
cafe
3015
0000
0000
011f
cafe
3415
0000
0000
0122
cafe
3815
0000
0000
011b
cafe
-
3c15
0000
0000
0121
cafe
2015
0000
0000
0121
cafe
2415
0000
0000
011d
cafe
2815
0000
0000
0120
cafe
2c15
0000
0000
011d
cafe
3015
0000
0000
011e
cafe
3415
0000
0000
011f
cafe
3815
0000
0000
0124
cafe
3c15
0000
0000
011f
cafe
2015
0000
0000
0120
cafe
2415
0000
0000
011f
cafe
2815
0000
0000
0120
cafe
2c15
0000
0000
011f
cafe
3015
0000
0000
0118
cafe
3415
0000
0000
011b
cafe
3815
0000
0000
011d
cafe
3c15
0000
0000
011e
cafe
2015
0000
0000
0121
cafe
2415
0000
0000
011f
cafe
2815
0000
0000
011f
cafe
2c15
0000
0000
0122
cafe
3015
0000
0000
011d
cafe
3415
0000
0000
011e
cafe
3815
0000
0000
0119
cafe
3c15
0000
0000
011c
cafe
2015
0000
0000
0118
cafe
2415
0000
0000
011c
cafe
2815
0000
0000
011b
cafe
2c15
0000
0000
0121
cafe
3015
0000
0000
011a
cafe
3415
0000
0000
011a
cafe
3815
0000
0000
011f
cafe
3c15
0000
0000
011f
cafe
2015
0000
0000
011b
cafe
2415
0000
0000
011a
cafe
2815
0000
0000
011e
cafe
2c15
0000
0000
011c
cafe
3015
0000
0000
011e
cafe
3415
0000
0000
0121
cafe
3815
0000
0000
011b
cafe
3c15
0000
0000
011a
cafe
2015
0000
0000
011d
cafe
2415
0000
0000
011c
cafe
2815
0000
0000
011b
cafe
2c15
0000
0000
0121
cafe
3015
0000
0000
011d
cafe
3415
0000
0000
0120
cafe
3815
0000
0000
0124
cafe
3c15
0000
0000
011c
cafe
2015
0000
0000
011e
cafe
2415
0000
0000
011b
cafe
2815
-
0000
0000
0123
cafe
2c15
0000
0000
011d
cafe
3015
0000
0000
0122
cafe
3415
0000
0000
011d
cafe
3815
0000
0000
0118
cafe
3c15
0000
0000
011b
cafe
2015
0000
0000
011c
cafe
2415
0000
0000
011c
cafe
2815
0000
0000
011c
cafe
2c15
0000
0000
011a
cafe
3015
0000
0000
011a
cafe
3415
0000
0000
011a
cafe
3815
0000
0000
011d
cafe
3c15
0000
0000
011b
cafe
2015
0000
0000
0121
cafe
2415
0000
0000
011e
cafe
2815
0000
0000
011f
cafe
2c15
0000
0000
0120
cafe
3015
0000
0000
0121
cafe
3415
0000
0000
011d
cafe
3815
0000
0000
011d
cafe
3c15
0000
0000
011e
cafe
2015
0000
0000
011d
cafe
2415
0000
0000
011e
cafe
2815
0000
0000
011d
cafe
2c15
0000
0000
011b
cafe
3015
0000
0000
011c
cafe
3415
0000
0000
011c
cafe
3815
0000
0000
0121
cafe
3c15
0000
0000
011e
cafe
2015
0000
0000
0125
cafe
2415
0000
0000
0122
cafe
2815
0000
0000
011f
cafe
2c15
0000
0000
0117
cafe
3015
0000
0000
011f
cafe
3415
0000
0000
011e
cafe
3815
0000
0000
0121
cafe
3c15
0000
0000
0119
cafe
2015
0000
0000
011b
cafe
2415
0000
0000
011c
cafe
2815
0000
0000
0119
cafe
2c15
0000
0000
011c
cafe
3015
0000
0000
0122
cafe
3415
0000
0000
0124
cafe
3815
0000
0000
0123
cafe
3c15
0000
0000
0121
cafe
2015
0000
0000
0121
cafe
2415
0000
0000
011c
cafe
2815
0000
0000
0120
cafe
2c15
0000
0000
011e
cafe
3015
0000
0000
011e
cafe
3415
0000
-
0000
011d
cafe
3815
0000
0000
011a
cafe
3c15
0000
0000
011f
cafe
2015
0000
0000
0120
cafe
2415
0000
0000
011e
cafe
2815
0000
0000
011f
cafe
2c15
0000
0000
0122
cafe
3015
0000
0000
0123
cafe
3415
0000
0000
0125
cafe
3815
0000
0000
0121
cafe
3c15
0000
0000
0121
cafe
2015
0000
0000
0121
cafe
2415
0000
0000
0123
cafe
2815
0000
0000
0123
cafe
2c15
0000
0000
0120
cafe
3015
0000
0000
0120
cafe
3415
0000
0000
0125
cafe
3815
0000
0000
0120
cafe
3c15
0000
0000
011c
cafe
2015
0000
0000
011b
cafe
2415
0000
0000
011f
cafe
2815
0000
0000
0121
cafe
2c15
0000
0000
0127
cafe
3015
0000
0000
0123
cafe
3415
0000
0000
0120
cafe
3815
0000
0000
011e
cafe
3c15
0000
0000
011d
cafe
2015
0000
0000
0117
cafe
2415
0000
0000
011c
cafe
2815
0000
0000
0119
cafe
2c15
0000
0000
011d
cafe
3015
0000
0000
0122
cafe
3415
0000
0000
011f
cafe
3815
0000
0000
011f
cafe
3c15
0000
0000
0121
cafe
2015
0000
0000
011c
cafe
2415
0000
0000
011c
cafe
2815
0000
0000
011f
cafe
2c15
0000
0000
011e
cafe
3015
0000
0000
011c
cafe
3415
0000
0000
011a
cafe
3815
0000
0000
011e
cafe
3c15
0000
0000
011a
cafe
2015
0000
0000
011b
cafe
2415
0000
0000
011d
cafe
2815
0000
0000
0121
cafe
2c15
0000
0000
011e
cafe
3015
0000
0000
0119
cafe
3415
0000
0000
0121
cafe
3815
0000
0000
0121
cafe
3c15
0000
0000
0120
cafe
2015
0000
0000
-
0120
cafe
2415
0000
0000
0120
cafe
2815
0000
0000
011e
cafe
2c15
0000
0000
011a
cafe
3015
0000
0000
011b
cafe
3415
0000
0000
011a
cafe
3815
0000
0000
011a
cafe
3c15
0000
0000
011c
cafe
2015
0000
0000
0118
cafe
2415
0000
0000
011b
cafe
2815
0000
0000
011f
cafe
2c15
0000
0000
011f
cafe
3015
0000
0000
011c
cafe
3415
0000
0000
011c
cafe
3815
0000
0000
0122
cafe
3c15
0000
0000
011a
cafe
2015
0000
0000
0118
cafe
2415
0000
0000
011d
cafe
2815
0000
0000
011d
cafe
2c15
0000
0000
011d
cafe
3015
0000
0000
0119
cafe
3415
0000
0000
011b
cafe
3815
0000
0000
0116
cafe
3c15
0000
0000
011d
cafe
2015
0000
0000
0115
cafe
2415
0000
0000
0116
cafe
2815
0000
0000
011a
cafe
2c15
0000
0000
011c
cafe
3015
0000
0000
0116
cafe
3415
0000
0000
011c
cafe
3815
0000
0000
0119
cafe
3c15
0000
0000
011e
cafe
2015
0000
0000
0119
cafe
2415
0000
0000
0115
cafe
2815
0000
0000
0119
cafe
2c15
0000
0000
0119
cafe
3015
0000
0000
011a
cafe
3415
0000
0000
0117
cafe
3815
0000
0000
0119
cafe
3c15
0000
0000
0115
cafe
2015
0000
0000
0110
cafe
2415
0000
0000
0118
cafe
2815
0000
0000
0116
cafe
2c15
0000
0000
0117
cafe
3015
0000
0000
0118
cafe
3415
0000
0000
0112
cafe
3815
0000
0000
0113
cafe
3c15
0000
0000
0115
cafe
2015
0000
0000
011f
cafe
2415
0000
0000
0121
cafe
2815
0000
0000
011d
cafe
2c15
0000
0000
0121
-
cafe
3015
0000
0000
011e
cafe
3415
0000
0000
011b
cafe
3815
0000
0000
0118
cafe
3c15
0000
0000
0115
cafe
2015
0000
0000
0117
cafe
2415
0000
0000
011d
cafe
2815
0000
0000
011d
cafe
2c15
0000
0000
0117
cafe
3015
0000
0000
011a
cafe
3415
0000
0000
011c
cafe
3815
0000
0000
0119
cafe
3c15
0000
0000
011d
cafe
2015
0000
0000
0121
cafe
2415
0000
0000
0115
cafe
2815
0000
0000
0113
cafe
2c15
0000
0000
0118
cafe
3015
0000
0000
0117
cafe
3415
0000
0000
011b
cafe
3815
0000
0000
0115
cafe
3c15
0000
0000
011d
cafe
2015
0000
0000
011f
cafe
2415
0000
0000
0117
cafe
2815
0000
0000
0117
cafe
2c15
0000
0000
0119
cafe
3015
0000
0000
0118
cafe
3415
0000
0000
0119
cafe
3815
0000
0000
011b
cafe
3c15
0000
0000
0116
cafe
2015
0000
0000
0118
cafe
2415
0000
0000
0118
cafe
2815
0000
0000
011e
cafe
2c15
0000
0000
011a
cafe
3015
0000
0000
011e
cafe
3415
0000
0000
011c
cafe
3815
0000
0000
0120
cafe
3c15
0000
0000
011f
cafe
2015
0000
0000
0124
cafe
2415
0000
0000
011c
cafe
2815
0000
0000
011b
cafe
2c15
0000
0000
011e
cafe
3015
0000
0000
011e
cafe
3415
0000
0000
011e
cafe
3815
0000
0000
011f
cafe
3c15
0000
0000
011a
cafe
2015
0000
0000
011b
cafe
2415
0000
0000
0118
cafe
2815
0000
0000
0119
cafe
2c15
0000
0000
011c
cafe
3015
0000
0000
011e
cafe
3415
0000
0000
011e
cafe
3815
0000
0000
011d
cafe
-
3c15
0000
0000
011b
cafe
2015
0000
0000
011a
cafe
2415
0000
0000
011a
cafe
2815
0000
0000
011f
cafe
2c15
0000
0000
011c
cafe
3015
0000
0000
011c
cafe
3415
0000
0000
0118
cafe
3815
0000
0000
0121
cafe
3c15
0000
0000
011a
cafe
2015
0000
0000
0121
cafe
2415
0000
0000
011c
cafe
2815
0000
0000
011e
cafe
2c15
0000
0000
011f
cafe
3015
0000
0000
011b
cafe
3415
0000
0000
0119
cafe
3815
0000
0000
011e
cafe
3c15
0000
0000
011e
cafe
2015
0000
0000
0121
cafe
2415
0000
0000
011f
cafe
2815
0000
0000
0119
cafe
2c15
0000
0000
011c
cafe
3015
0000
0000
011c
cafe
3415
0000
0000
011b
cafe
3815
0000
0000
0120
cafe
3c15
0000
0000
011e
cafe
2015
0000
0000
011f
cafe
2415
0000
0000
011e
cafe
2815
0000
0000
0123
cafe
2c15
0000
0000
011d
cafe
3015
0000
0000
011d
cafe
3415
0000
0000
011c
cafe
3815
0000
0000
011e
cafe
3c15
0000
0000
011a
cafe
2015
0000
0000
011f
cafe
2415
0000
0000
011e
cafe
2815
0000
0000
011f
cafe
2c15
0000
0000
011f
cafe
3015
0000
0000
011f
cafe
3415
0000
0000
011c
cafe
3815
0000
0000
011a
cafe
3c15
0000
0000
0119
cafe
2015
0000
0000
011c
cafe
2415
0000
0000
011d
cafe
2815
0000
0000
011d
cafe
2c15
0000
0000
011a
cafe
3015
0000
0000
011b
cafe
3415
0000
0000
011a
cafe
3815
0000
0000
011f
cafe
3c15
0000
0000
0122
cafe
2015
0000
0000
011b
cafe
2415
0000
0000
011e
cafe
2815
-
0000
0000
011d
cafe
2c15
0000
0000
0121
cafe
3015
0000
0000
0122
cafe
3415
0000
0000
011c
cafe
3815
0000
0000
011b
cafe
3c15
0000
0000
0116
cafe
2015
0000
0000
011e
cafe
2415
0000
0000
011b
cafe
2815
0000
0000
011b
cafe
2c15
0000
0000
011f
cafe
3015
0000
0000
0120
cafe
3415
0000
0000
0123
cafe
3815
0000
0000
011d
cafe
3c15
0000
0000
011d
cafe
2015
0000
0000
0118
cafe
2415
0000
0000
011c
cafe
2815
0000
0000
011d
cafe
2c15
0000
0000
011d
cafe
3015
0000
0000
011d
cafe
3415
0000
0000
011d
cafe
3815
0000
0000
011d
cafe
3c15
0000
0000
011c
cafe
2015
0000
0000
011e
cafe
2415
0000
0000
0122
cafe
2815
0000
0000
0125
cafe
2c15
0000
0000
011b
cafe
3015
0000
0000
0122
cafe
3415
0000
0000
0121
cafe
3815
0000
0000
0117
cafe
3c15
0000
0000
011f
cafe
2015
0000
0000
011d
cafe
2415
0000
0000
011f
cafe
2815
0000
0000
011f
cafe
2c15
0000
0000
0120
cafe
3015
0000
0000
0122
cafe
3415
0000
0000
011f
cafe
3815
0000
0000
011d
cafe
3c15
0000
0000
011f
cafe
2015
0000
0000
011d
cafe
2415
0000
0000
011e
cafe
2815
0000
0000
011a
cafe
2c15
0000
0000
011d
cafe
3015
0000
0000
011b
cafe
3415
0000
0000
0119
cafe
3815
0000
0000
011c
cafe
3c15
0000
0000
011c
cafe
2015
0000
0000
0117
cafe
2415
0000
0000
0118
cafe
2815
0000
0000
0119
cafe
2c15
0000
0000
011a
cafe
3015
0000
0000
011a
cafe
3415
0000
-
0000
0121
cafe
3815
0000
0000
011e
cafe
3c15
0000
0000
011a
cafe
2015
0000
0000
011c
cafe
2415
0000
0000
011e
cafe
2815
0000
0000
0121
cafe
2c15
0000
0000
011d
cafe
3015
0000
0000
0121
cafe
3415
0000
0000
0124
cafe
3815
0000
0000
011f
cafe
3c15
0000
0000
011d
cafe
2015
0000
0000
0123
cafe
2415
0000
0000
0120
cafe
2815
0000
0000
0121
cafe
2c15
0000
0000
0122
cafe
3015
0000
0000
0122
cafe
3415
0000
0000
0122
cafe
3815
0000
0000
0125
cafe
3c15
0000
0000
0124
cafe
2015
0000
0000
0120
cafe
2415
0000
0000
0121
cafe
2815
0000
0000
0120
cafe
2c15
0000
0000
011e
cafe
3015
0000
0000
011f
cafe
3415
0000
0000
011d
cafe
3815
0000
0000
011d
cafe
3c15
0000
0000
011e
cafe
2015
0000
0000
011d
cafe
2415
0000
0000
011c
cafe
2815
0000
0000
011d
cafe
2c15
0000
0000
011c
cafe
3015
0000
0000
011e
cafe
3415
0000
0000
0119
cafe
3815
0000
0000
0114
cafe
3c15
0000
0000
0114
cafe
2015
0000
0000
0116
cafe
2415
0000
0000
011a
cafe
2815
0000
0000
0118
cafe
2c15
0000
0000
0115
cafe
3015
0000
0000
011a
cafe
3415
0000
0000
011c
cafe
3815
0000
0000
011b
cafe
3c15
0000
0000
011c
cafe
2015
0000
0000
011f
cafe
2415
0000
0000
011b
cafe
2815
0000
0000
0119
cafe
2c15
0000
0000
011b
cafe
3015
0000
0000
011e
cafe
3415
0000
0000
011c
cafe
3815
0000
0000
011d
cafe
3c15
0000
0000
011b
cafe
2015
0000
0000
-
0119
cafe
2415
0000
0000
0119
cafe
2815
0000
0000
0118
cafe
2c15
0000
0000
0116
cafe
3015
0000
0000
011c
cafe
3415
0000
0000
011b
cafe
3815
0000
0000
011b
cafe
3c15
0000
0000
011d
cafe
2015
0000
0000
0118
cafe
2415
0000
0000
0118
cafe
2815
0000
0000
011f
cafe
2c15
0000
0000
011b
cafe
3015
0000
0000
011e
cafe
3415
0000
0000
011c
cafe
3815
0000
0000
011d
cafe
3c15
0000
0000
0116
cafe
2015
0000
0000
011b
cafe
2415
0000
0000
011c
cafe
2815
0000
0000
011e
cafe
2c15
0000
0000
011f
cafe
3015
0000
0000
011b
cafe
3415
0000
0000
011f
cafe
3815
0000
0000
0118
cafe
3c15
0000
0000
011b
cafe
2015
0000
0000
0119
cafe
2415
0000
0000
011e
cafe
2815
0000
0000
0120
cafe
2c15
0000
0000
011d
cafe
3015
0000
0000
011d
cafe
3415
0000
0000
0118
cafe
3815
0000
0000
0118
cafe
3c15
0000
0000
0117
cafe
2015
0000
0000
0116
cafe
2415
0000
0000
0114
cafe
2815
0000
0000
0117
cafe
2c15
0000
0000
011a
cafe
3015
0000
0000
0118
cafe
3415
0000
0000
011a
cafe
3815
0000
0000
0117
cafe
3c15
0000
0000
0116
cafe
2015
0000
0000
011b
cafe
2415
0000
0000
011a
cafe
2815
0000
0000
0119
cafe
2c15
0000
0000
0118
cafe
3015
0000
0000
0119
cafe
3415
0000
0000
011b
cafe
3815
0000
0000
011b
cafe
3c15
0000
0000
0118
cafe
2015
0000
0000
0114
cafe
2415
0000
0000
011a
cafe
2815
0000
0000
011b
cafe
2c15
0000
0000
011a
-
