2c0f
0000
0000
0137
cafe
300f
0000
0000
0138
cafe
340f
0000
0000
013b
cafe
380f
0000
0000
0136
cafe
3c0f
0000
0000
013b
cafe
200f
0000
0000
0138
cafe
240f
0000
0000
0138
cafe
280f
0000
0000
0132
cafe
2c0f
0000
0000
0137
cafe
300f
0000
0000
013c
cafe
340f
0000
0000
0136
cafe
380f
0000
0000
013c
cafe
3c0f
0000
0000
0137
cafe
200f
0000
0000
0137
cafe
240f
0000
0000
0136
cafe
280f
0000
0000
0137
cafe
2c0f
0000
0000
0137
cafe
300f
0000
0000
0137
cafe
340f
0000
0000
0134
cafe
380f
0000
0000
0137
cafe
3c0f
0000
0000
0138
cafe
200f
0000
0000
0135
cafe
240f
0000
0000
0130
cafe
280f
0000
0000
0130
cafe
2c0f
0000
0000
0134
cafe
300f
0000
0000
0135
cafe
340f
0000
0000
013e
cafe
380f
0000
0000
013f
cafe
3c0f
0000
0000
013b
cafe
200f
0000
0000
013e
cafe
240f
0000
0000
013d
cafe
280f
0000
0000
0136
cafe
2c0f
0000
0000
0137
cafe
300f
0000
0000
0134
cafe
340f
0000
0000
0134
cafe
380f
0000
0000
0132
cafe
3c0f
0000
0000
0139
cafe
200f
0000
0000
0137
cafe
240f
0000
0000
0134
cafe
280f
0000
0000
012f
cafe
2c0f
0000
0000
012e
cafe
300f
0000
0000
012f
cafe
340f
0000
0000
0131
cafe
380f
0000
0000
0133
cafe
3c0f
0000
0000
0135
cafe
200f
0000
0000
0138
cafe
240f
0000
0000
0137
cafe
280f
0000
0000
0135
cafe
2c0f
0000
0000
0136
cafe
300f
0000
0000
013b
cafe
340f
0000
0000
0138
cafe
380f
-
0000
0000
0134
cafe
3c0f
0000
0000
0136
cafe
200f
0000
0000
0139
cafe
240f
0000
0000
013c
cafe
280f
0000
0000
0137
cafe
2c0f
0000
0000
0138
cafe
300f
0000
0000
0134
cafe
340f
0000
0000
0136
cafe
380f
0000
0000
0136
cafe
3c0f
0000
0000
0138
cafe
200f
0000
0000
0135
cafe
240f
0000
0000
0136
cafe
280f
0000
0000
0135
cafe
2c0f
0000
0000
013c
cafe
300f
0000
0000
0139
cafe
340f
0000
0000
013a
cafe
380f
0000
0000
013a
cafe
3c0f
0000
0000
0138
cafe
200f
0000
0000
013a
cafe
240f
0000
0000
0138
cafe
280f
0000
0000
0137
cafe
2c0f
0000
0000
013e
cafe
300f
0000
0000
0139
cafe
340f
0000
0000
013d
cafe
380f
0000
0000
013b
cafe
3c0f
0000
0000
0138
cafe
200f
0000
0000
0135
cafe
240f
0000
0000
0134
cafe
280f
0000
0000
0137
cafe
2c0f
0000
0000
0134
cafe
300f
0000
0000
0139
cafe
340f
0000
0000
013c
cafe
380f
0000
0000
013b
cafe
3c0f
0000
0000
013e
cafe
200f
0000
0000
0140
cafe
240f
0000
0000
0141
cafe
280f
0000
0000
013d
cafe
2c0f
0000
0000
013f
cafe
300f
0000
0000
013b
cafe
340f
0000
0000
013c
cafe
380f
0000
0000
013d
cafe
3c0f
0000
0000
013a
cafe
200f
0000
0000
0139
cafe
240f
0000
0000
0139
cafe
280f
0000
0000
0139
cafe
2c0f
0000
0000
013a
cafe
300f
0000
0000
013b
cafe
340f
0000
0000
0139
cafe
380f
0000
0000
0138
cafe
3c0f
0000
0000
0138
cafe
200f
0000
0000
0136
cafe
240f
0000
-
0000
013a
cafe
280f
0000
0000
0139
cafe
2c0f
0000
0000
0139
cafe
300f
0000
0000
013d
cafe
340f
0000
0000
013d
cafe
380f
0000
0000
013f
cafe
3c0f
0000
0000
0141
cafe
200f
0000
0000
013c
cafe
240f
0000
0000
013a
cafe
280f
0000
0000
0139
cafe
2c0f
0000
0000
013d
cafe
300f
0000
0000
0135
cafe
340f
0000
0000
0137
cafe
380f
0000
0000
0138
cafe
3c0f
0000
0000
0139
cafe
200f
0000
0000
0136
cafe
240f
0000
0000
0135
cafe
280f
0000
0000
0137
cafe
2c0f
0000
0000
0138
cafe
300f
0000
0000
0138
cafe
340f
0000
0000
0139
cafe
380f
0000
0000
0137
cafe
3c0f
0000
0000
013a
cafe
200f
0000
0000
0136
cafe
240f
0000
0000
0137
cafe
280f
0000
0000
013c
cafe
2c0f
0000
0000
013c
cafe
300f
0000
0000
013a
cafe
340f
0000
0000
013a
cafe
380f
0000
0000
013e
cafe
3c0f
0000
0000
013b
cafe
200f
0000
0000
0138
cafe
240f
0000
0000
013e
cafe
280f
0000
0000
0139
cafe
2c0f
0000
0000
0137
cafe
300f
0000
0000
0133
cafe
340f
0000
0000
0134
cafe
380f
0000
0000
0134
cafe
3c0f
0000
0000
0134
cafe
200f
0000
0000
013c
cafe
240f
0000
0000
013e
cafe
280f
0000
0000
013b
cafe
2c0f
0000
0000
0139
cafe
300f
0000
0000
0133
cafe
340f
0000
0000
0137
cafe
380f
0000
0000
0134
cafe
3c0f
0000
0000
0138
cafe
200f
0000
0000
0138
cafe
240f
0000
0000
013a
cafe
280f
0000
0000
013b
cafe
2c0f
0000
0000
0136
cafe
300f
0000
0000
-
013a
cafe
340f
0000
0000
013a
cafe
380f
0000
0000
013a
cafe
3c0f
0000
0000
0140
cafe
200f
0000
0000
0137
cafe
240f
0000
0000
013e
cafe
280f
0000
0000
013d
cafe
2c0f
0000
0000
0138
cafe
300f
0000
0000
0135
cafe
340f
0000
0000
013d
cafe
380f
0000
0000
013b
cafe
3c0f
0000
0000
013d
cafe
200f
0000
0000
013b
cafe
240f
0000
0000
0139
cafe
280f
0000
0000
013b
cafe
2c0f
0000
0000
0137
cafe
300f
0000
0000
0135
cafe
340f
0000
0000
0137
cafe
380f
0000
0000
0135
cafe
3c0f
0000
0000
013b
cafe
200f
0000
0000
0139
cafe
240f
0000
0000
013a
cafe
280f
0000
0000
0133
cafe
2c0f
0000
0000
0133
cafe
300f
0000
0000
0134
cafe
340f
0000
0000
0139
cafe
380f
0000
0000
0136
cafe
3c0f
0000
0000
0135
cafe
200f
0000
0000
0133
cafe
240f
0000
0000
0132
cafe
280f
0000
0000
0135
cafe
2c0f
0000
0000
013a
cafe
300f
0000
0000
0137
cafe
340f
0000
0000
013d
cafe
380f
0000
0000
013d
cafe
3c0f
0000
0000
013e
cafe
200f
0000
0000
0138
cafe
240f
0000
0000
0136
cafe
280f
0000
0000
0138
cafe
2c0f
0000
0000
0133
cafe
300f
0000
0000
0133
cafe
340f
0000
0000
0139
cafe
380f
0000
0000
013e
cafe
3c0f
0000
0000
0136
cafe
200f
0000
0000
0137
cafe
240f
0000
0000
0138
cafe
280f
0000
0000
0138
cafe
2c0f
0000
0000
013a
cafe
300f
0000
0000
013d
cafe
340f
0000
0000
013e
cafe
380f
0000
0000
013c
cafe
3c0f
0000
0000
013a
-
cafe
200f
0000
0000
013b
cafe
240f
0000
0000
0138
cafe
280f
0000
0000
0139
cafe
2c0f
0000
0000
0138
cafe
300f
0000
0000
0139
cafe
340f
0000
0000
0139
cafe
380f
0000
0000
0137
cafe
3c0f
0000
0000
013f
cafe
200f
0000
0000
013f
cafe
240f
0000
0000
0139
cafe
280f
0000
0000
013e
cafe
2c0f
0000
0000
0137
cafe
300f
0000
0000
0137
cafe
340f
0000
0000
0139
cafe
380f
0000
0000
013b
cafe
3c0f
0000
0000
0137
cafe
200f
0000
0000
0137
cafe
240f
0000
0000
0138
cafe
280f
0000
0000
013c
cafe
2c0f
0000
0000
0138
cafe
300f
0000
0000
013b
cafe
340f
0000
0000
0137
cafe
380f
0000
0000
013d
cafe
3c0f
0000
0000
0143
cafe
200f
0000
0000
0142
cafe
240f
0000
0000
013f
cafe
280f
0000
0000
013c
cafe
2c0f
0000
0000
013b
cafe
300f
0000
0000
0138
cafe
340f
0000
0000
0137
cafe
380f
0000
0000
0139
cafe
3c0f
0000
0000
0138
cafe
200f
0000
0000
013b
cafe
240f
0000
0000
0133
cafe
280f
0000
0000
0135
cafe
2c0f
0000
0000
0135
cafe
300f
0000
0000
013c
cafe
340f
0000
0000
0135
cafe
380f
0000
0000
0136
cafe
3c0f
0000
0000
0136
cafe
200f
0000
0000
0138
cafe
240f
0000
0000
0136
cafe
280f
0000
0000
0137
cafe
2c0f
0000
0000
0136
cafe
300f
0000
0000
0137
cafe
340f
0000
0000
0135
cafe
380f
0000
0000
0132
cafe
3c0f
0000
0000
0137
cafe
200f
0000
0000
0139
cafe
240f
0000
0000
0135
cafe
280f
0000
0000
0138
cafe
-
2c0f
0000
0000
0136
cafe
300f
0000
0000
0137
cafe
340f
0000
0000
0139
cafe
380f
0000
0000
013c
cafe
3c0f
0000
0000
013b
cafe
200f
0000
0000
0134
cafe
240f
0000
0000
0133
cafe
280f
0000
0000
0137
cafe
2c0f
0000
0000
013a
cafe
300f
0000
0000
0130
cafe
340f
0000
0000
0137
cafe
380f
0000
0000
0136
cafe
3c0f
0000
0000
0135
cafe
200f
0000
0000
0135
cafe
240f
0000
0000
0136
cafe
280f
0000
0000
0132
cafe
2c0f
0000
0000
0137
cafe
300f
0000
0000
0135
cafe
340f
0000
0000
0134
cafe
380f
0000
0000
013c
cafe
3c0f
0000
0000
013a
cafe
200f
0000
0000
013c
cafe
240f
0000
0000
0138
cafe
280f
0000
0000
0139
cafe
2c0f
0000
0000
0138
cafe
300f
0000
0000
013c
cafe
340f
0000
0000
013d
cafe
380f
0000
0000
013d
cafe
3c0f
0000
0000
013c
cafe
200f
0000
0000
013c
cafe
240f
0000
0000
0139
cafe
280f
0000
0000
0138
cafe
2c0f
0000
0000
0137
cafe
300f
0000
0000
013c
cafe
340f
0000
0000
013a
cafe
380f
0000
0000
013a
cafe
3c0f
0000
0000
013b
cafe
200f
0000
0000
013c
cafe
240f
0000
0000
0135
cafe
280f
0000
0000
013b
cafe
2c0f
0000
0000
0139
cafe
300f
0000
0000
013c
cafe
340f
0000
0000
0137
cafe
380f
0000
0000
0137
cafe
3c0f
0000
0000
013b
cafe
200f
0000
0000
013a
cafe
240f
0000
0000
0133
cafe
280f
0000
0000
0132
cafe
2c0f
0000
0000
0131
cafe
300f
0000
0000
0136
cafe
340f
0000
0000
0133
cafe
380f
-
0000
0000
0135
cafe
3c0f
0000
0000
0138
cafe
200f
0000
0000
0138
cafe
240f
0000
0000
0135
cafe
280f
0000
0000
013a
cafe
2c0f
0000
0000
0134
cafe
300f
0000
0000
0132
cafe
340f
0000
0000
0134
cafe
380f
0000
0000
0136
cafe
3c0f
0000
0000
0136
cafe
200f
0000
0000
013c
cafe
240f
0000
0000
0138
cafe
280f
0000
0000
013d
cafe
2c0f
0000
0000
013b
cafe
300f
0000
0000
013a
cafe
340f
0000
0000
0138
cafe
380f
0000
0000
013d
cafe
3c0f
0000
0000
013e
cafe
200f
0000
0000
013d
cafe
240f
0000
0000
013e
cafe
280f
0000
0000
013f
cafe
2c0f
0000
0000
013c
cafe
300f
0000
0000
013d
cafe
340f
0000
0000
013b
cafe
380f
0000
0000
0140
cafe
3c0f
0000
0000
013e
cafe
200f
0000
0000
013e
cafe
240f
0000
0000
013c
cafe
280f
0000
0000
0135
cafe
2c0f
0000
0000
0135
cafe
300f
0000
0000
0136
cafe
340f
0000
0000
0139
cafe
380f
0000
0000
013a
cafe
3c0f
0000
0000
013a
cafe
200f
0000
0000
0138
cafe
240f
0000
0000
0135
cafe
280f
0000
0000
0137
cafe
2c0f
0000
0000
0134
cafe
300f
0000
0000
013a
cafe
340f
0000
0000
013b
cafe
380f
0000
0000
013d
cafe
3c0f
0000
0000
0139
cafe
200f
0000
0000
013c
cafe
240f
0000
0000
013d
cafe
280f
0000
0000
013e
cafe
2c0f
0000
0000
013e
cafe
300f
0000
0000
0137
cafe
340f
0000
0000
0139
cafe
380f
0000
0000
013a
cafe
3c0f
0000
0000
013a
cafe
200f
0000
0000
0138
cafe
240f
0000
-
0000
0133
cafe
280f
0000
0000
0136
cafe
2c0f
0000
0000
0139
cafe
300f
0000
0000
013c
cafe
340f
0000
0000
0138
cafe
380f
0000
0000
013a
cafe
3c0f
0000
0000
013b
cafe
200f
0000
0000
013b
cafe
240f
0000
0000
0138
cafe
280f
0000
0000
0139
cafe
2c0f
0000
0000
0139
cafe
300f
0000
0000
0133
cafe
340f
0000
0000
013a
cafe
380f
0000
0000
013c
cafe
3c0f
0000
0000
0137
cafe
200f
0000
0000
013c
cafe
240f
0000
0000
0138
cafe
280f
0000
0000
0137
cafe
2c0f
0000
0000
0139
cafe
300f
0000
0000
013a
cafe
340f
0000
0000
013f
cafe
380f
0000
0000
0139
cafe
3c0f
0000
0000
013c
cafe
200f
0000
0000
0139
cafe
240f
0000
0000
0138
cafe
280f
0000
0000
0135
cafe
2c0f
0000
0000
0134
cafe
300f
0000
0000
0137
cafe
340f
0000
0000
013a
cafe
380f
0000
0000
0139
cafe
3c0f
0000
0000
013d
cafe
200f
0000
0000
0137
cafe
240f
0000
0000
0139
cafe
280f
0000
0000
0137
cafe
2c0f
0000
0000
0141
cafe
300f
0000
0000
0140
cafe
340f
0000
0000
0139
cafe
380f
0000
0000
013b
cafe
3c0f
0000
0000
0139
cafe
200f
0000
0000
0140
cafe
240f
0000
0000
0139
cafe
280f
0000
0000
013a
cafe
2c0f
0000
0000
013b
cafe
300f
0000
0000
013b
cafe
340f
0000
0000
013a
cafe
380f
0000
0000
0138
cafe
3c0f
0000
0000
0134
cafe
200f
0000
0000
0136
cafe
240f
0000
0000
0136
cafe
280f
0000
0000
0139
cafe
2c0f
0000
0000
013d
cafe
300f
0000
0000
-
013d
cafe
340f
0000
0000
013a
cafe
380f
0000
0000
013e
cafe
3c0f
0000
0000
0140
cafe
200f
0000
0000
013e
cafe
240f
0000
0000
0142
cafe
280f
0000
0000
013c
cafe
2c0f
0000
0000
013b
cafe
300f
0000
0000
013d
cafe
340f
0000
0000
013e
cafe
380f
0000
0000
013c
cafe
3c0f
0000
0000
013b
cafe
200f
0000
0000
0139
cafe
240f
0000
0000
013d
cafe
280f
0000
0000
013c
cafe
2c0f
0000
0000
0138
cafe
300f
0000
0000
0138
cafe
340f
0000
0000
0138
cafe
380f
0000
0000
0138
cafe
3c0f
0000
0000
0134
cafe
200f
0000
0000
0134
cafe
240f
0000
0000
0138
cafe
280f
0000
0000
013b
cafe
2c0f
0000
0000
013d
cafe
300f
0000
0000
0133
cafe
340f
0000
0000
0133
cafe
380f
0000
0000
0136
cafe
3c0f
0000
0000
0133
cafe
200f
0000
0000
0138
cafe
240f
0000
0000
0135
cafe
280f
0000
0000
0134
cafe
2c0f
0000
0000
013a
cafe
300f
0000
0000
0138
cafe
340f
0000
0000
0139
cafe
380f
0000
0000
013b
cafe
3c0f
0000
0000
013e
cafe
200f
0000
0000
013a
cafe
240f
0000
0000
013a
cafe
280f
0000
0000
0139
cafe
2c0f
0000
0000
0137
cafe
300f
0000
0000
0133
cafe
340f
0000
0000
0136
cafe
380f
0000
0000
0132
cafe
3c0f
0000
0000
0132
cafe
200f
0000
0000
0131
cafe
240f
0000
0000
0132
cafe
280f
0000
0000
012f
cafe
2c0f
0000
0000
0135
cafe
300f
0000
0000
0130
cafe
340f
0000
0000
0135
cafe
380f
0000
0000
0134
cafe
3c0f
0000
0000
0132
-
cafe
200f
0000
0000
0138
cafe
240f
0000
0000
013b
cafe
280f
0000
0000
0133
cafe
2c0f
0000
0000
0133
cafe
300f
0000
0000
0135
cafe
340f
0000
0000
0133
cafe
380f
0000
0000
012f
cafe
3c0f
0000
0000
0136
cafe
200f
0000
0000
0137
cafe
240f
0000
0000
013d
cafe
280f
0000
0000
0139
cafe
2c0f
0000
0000
012f
cafe
300f
0000
0000
0138
cafe
340f
0000
0000
0132
cafe
380f
0000
0000
0132
cafe
3c0f
0000
0000
0132
cafe
200f
0000
0000
0135
cafe
240f
0000
0000
0134
cafe
280f
0000
0000
012d
cafe
2c0f
0000
0000
0134
cafe
300f
0000
0000
0133
cafe
340f
0000
0000
0137
cafe
380f
0000
0000
0134
cafe
3c0f
0000
0000
0134
cafe
200f
0000
0000
013a
cafe
240f
0000
0000
0141
cafe
280f
0000
0000
0140
cafe
2c0f
0000
0000
013e
cafe
300f
0000
0000
0140
cafe
340f
0000
0000
013f
cafe
380f
0000
0000
013c
cafe
3c0f
0000
0000
013e
cafe
200f
0000
0000
013c
cafe
240f
0000
0000
013b
cafe
280f
0000
0000
013a
cafe
2c0f
0000
0000
013c
cafe
300f
0000
0000
013b
cafe
340f
0000
0000
0134
cafe
380f
0000
0000
0138
cafe
3c0f
0000
0000
0138
cafe
200f
0000
0000
0139
cafe
240f
0000
0000
0136
cafe
280f
0000
0000
0138
cafe
2c0f
0000
0000
013d
cafe
300f
0000
0000
013d
cafe
340f
0000
0000
0139
cafe
380f
0000
0000
0139
cafe
3c0f
0000
0000
013d
cafe
200f
0000
0000
013c
cafe
240f
0000
0000
013e
cafe
280f
0000
0000
013b
cafe
-
2c0f
0000
0000
0137
cafe
300f
0000
0000
0137
cafe
340f
0000
0000
0136
cafe
380f
0000
0000
0138
cafe
3c0f
0000
0000
0138
cafe
200f
0000
0000
0136
cafe
240f
0000
0000
0136
cafe
280f
0000
0000
0137
cafe
2c0f
0000
0000
013b
cafe
300f
0000
0000
013b
cafe
340f
0000
0000
0137
cafe
380f
0000
0000
0137
cafe
3c0f
0000
0000
0138
cafe
200f
0000
0000
0134
cafe
240f
0000
0000
0136
cafe
280f
0000
0000
0134
cafe
2c0f
0000
0000
0137
cafe
300f
0000
0000
0134
cafe
340f
0000
0000
0133
cafe
380f
0000
0000
0134
cafe
3c0f
0000
0000
013b
cafe
200f
0000
0000
0135
cafe
240f
0000
0000
0133
cafe
280f
0000
0000
0134
cafe
2c0f
0000
0000
0131
cafe
300f
0000
0000
0132
cafe
340f
0000
0000
012e
cafe
380f
0000
0000
0133
cafe
3c0f
0000
0000
0135
cafe
200f
0000
0000
0137
cafe
240f
0000
0000
0133
cafe
280f
0000
0000
0138
cafe
2c0f
0000
0000
013a
cafe
300f
0000
0000
013a
cafe
340f
0000
0000
013d
cafe
380f
0000
0000
0139
cafe
3c0f
0000
0000
013a
cafe
200f
0000
0000
013a
cafe
240f
0000
0000
013c
cafe
280f
0000
0000
0139
cafe
2c0f
0000
0000
013b
cafe
300f
0000
0000
013e
cafe
340f
0000
0000
0139
cafe
380f
0000
0000
0138
cafe
3c0f
0000
0000
0139
cafe
200f
0000
0000
0136
cafe
240f
0000
0000
013a
cafe
280f
0000
0000
0135
cafe
2c0f
0000
0000
0134
cafe
300f
0000
0000
0134
cafe
340f
0000
0000
0131
cafe
380f
-
0000
0000
0134
cafe
3c0f
0000
0000
0135
cafe
200f
0000
0000
0130
cafe
240f
0000
0000
0133
cafe
280f
0000
0000
0133
cafe
2c0f
0000
0000
0138
cafe
300f
0000
0000
0138
cafe
340f
0000
0000
0138
cafe
380f
0000
0000
013b
cafe
3c0f
0000
0000
0139
cafe
200f
0000
0000
0134
cafe
240f
0000
0000
0137
cafe
280f
0000
0000
013c
cafe
2c0f
0000
0000
0139
cafe
300f
0000
0000
0138
cafe
340f
0000
0000
0134
cafe
380f
0000
0000
0138
cafe
3c0f
0000
0000
0137
cafe
200f
0000
0000
0133
cafe
240f
0000
0000
0138
cafe
280f
0000
0000
0134
cafe
2c0f
0000
0000
0139
cafe
300f
0000
0000
0138
cafe
340f
0000
0000
013c
cafe
380f
0000
0000
0135
cafe
3c0f
0000
0000
0134
cafe
200f
0000
0000
0135
cafe
240f
0000
0000
013e
cafe
280f
0000
0000
013b
cafe
2c0f
0000
0000
013a
cafe
300f
0000
0000
013a
cafe
340f
0000
0000
013a
cafe
380f
0000
0000
0136
cafe
3c0f
0000
0000
013a
cafe
200f
0000
0000
0138
cafe
240f
0000
0000
0137
cafe
280f
0000
0000
0137
cafe
2c0f
0000
0000
0136
cafe
300f
0000
0000
013a
cafe
340f
0000
0000
0132
cafe
380f
0000
0000
0135
cafe
3c0f
0000
0000
0131
cafe
200f
0000
0000
013d
cafe
240f
0000
0000
0136
cafe
280f
0000
0000
0138
cafe
2c0f
0000
0000
0137
cafe
300f
0000
0000
0134
cafe
340f
0000
0000
0135
cafe
380f
0000
0000
0135
cafe
3c0f
0000
0000
0134
cafe
200f
0000
0000
0133
cafe
240f
0000
-
0000
0133
cafe
280f
0000
0000
0138
cafe
2c0f
0000
0000
0138
cafe
300f
0000
0000
0137
cafe
340f
0000
0000
0138
cafe
380f
0000
0000
013c
cafe
3c0f
0000
0000
013e
cafe
200f
0000
0000
013e
cafe
240f
0000
0000
0140
cafe
280f
0000
0000
013e
cafe
2c0f
0000
0000
0144
cafe
300f
0000
0000
0142
cafe
340f
0000
0000
0143
cafe
380f
0000
0000
0142
cafe
3c0f
0000
0000
0140
cafe
200f
0000
0000
0142
cafe
240f
0000
0000
013a
cafe
280f
0000
0000
0135
cafe
2c0f
0000
0000
0136
cafe
300f
0000
0000
0136
cafe
340f
0000
0000
0139
cafe
380f
0000
0000
0135
cafe
3c0f
0000
0000
013a
cafe
200f
0000
0000
013f
cafe
240f
0000
0000
013d
cafe
280f
0000
0000
0139
cafe
2c0f
0000
0000
013c
cafe
300f
0000
0000
0139
cafe
340f
0000
0000
0141
cafe
380f
0000
0000
013d
cafe
3c0f
0000
0000
0139
cafe
200f
0000
0000
0139
cafe
240f
0000
0000
013b
cafe
280f
0000
0000
0136
cafe
2c0f
0000
0000
0135
cafe
300f
0000
0000
0134
cafe
340f
0000
0000
0136
cafe
380f
0000
0000
0136
cafe
3c0f
0000
0000
0139
cafe
200f
0000
0000
0136
cafe
240f
0000
0000
0134
cafe
280f
0000
0000
0139
cafe
2c0f
0000
0000
013c
cafe
300f
0000
0000
013c
cafe
340f
0000
0000
013a
cafe
380f
0000
0000
0138
cafe
3c0f
0000
0000
0133
cafe
200f
0000
0000
0130
cafe
240f
0000
0000
0131
cafe
280f
0000
0000
0134
cafe
2c0f
0000
0000
0130
cafe
300f
0000
0000
-
0134
cafe
340f
0000
0000
0138
cafe
380f
0000
0000
0136
cafe
3c0f
0000
0000
0137
cafe
200f
0000
0000
013a
cafe
240f
0000
0000
0138
cafe
280f
0000
0000
0138
cafe
2c0f
0000
0000
0134
cafe
300f
0000
0000
013b
cafe
340f
0000
0000
013c
cafe
380f
0000
0000
013c
cafe
3c0f
0000
0000
0136
cafe
200f
0000
0000
013a
cafe
240f
0000
0000
0137
cafe
280f
0000
0000
013b
cafe
2c0f
0000
0000
013e
cafe
300f
0000
0000
0137
cafe
340f
0000
0000
0136
cafe
380f
0000
0000
0138
cafe
3c0f
0000
0000
0136
cafe
200f
0000
0000
0137
cafe
240f
0000
0000
0136
cafe
280f
0000
0000
013c
cafe
2c0f
0000
0000
013c
cafe
300f
0000
0000
0139
cafe
340f
0000
0000
0133
cafe
380f
0000
0000
0133
cafe
3c0f
0000
0000
012e
cafe
200f
0000
0000
0133
cafe
240f
0000
0000
0135
cafe
280f
0000
0000
013a
cafe
2c0f
0000
0000
013a
cafe
300f
0000
0000
0133
cafe
340f
0000
0000
0132
cafe
380f
0000
0000
0137
cafe
3c0f
0000
0000
013b
cafe
200f
0000
0000
013a
cafe
240f
0000
0000
013e
cafe
280f
0000
0000
0138
cafe
2c0f
0000
0000
013d
cafe
300f
0000
0000
0136
cafe
340f
0000
0000
0138
cafe
380f
0000
0000
013c
cafe
3c0f
0000
0000
0136
cafe
200f
0000
0000
013e
cafe
240f
0000
0000
013a
cafe
280f
0000
0000
0139
cafe
2c0f
0000
0000
0138
cafe
300f
0000
0000
0134
cafe
340f
0000
0000
0138
cafe
380f
0000
0000
0138
cafe
3c0f
0000
0000
0137
-
cafe
200f
0000
0000
013e
cafe
240f
0000
0000
0137
cafe
280f
0000
0000
0137
cafe
2c0f
0000
0000
0135
cafe
300f
0000
0000
0132
cafe
340f
0000
0000
0138
cafe
380f
0000
0000
0138
cafe
3c0f
0000
0000
0139
cafe
200f
0000
0000
0133
cafe
240f
0000
0000
0133
cafe
280f
0000
0000
0136
cafe
2c0f
0000
0000
0138
cafe
300f
0000
0000
0136
cafe
340f
0000
0000
0138
cafe
380f
0000
0000
0135
cafe
3c0f
0000
0000
013a
cafe
200f
0000
0000
0138
cafe
240f
0000
0000
013a
cafe
280f
0000
0000
0139
cafe
2c0f
0000
0000
013e
cafe
300f
0000
0000
0132
cafe
340f
0000
0000
0139
cafe
380f
0000
0000
013a
cafe
3c0f
0000
0000
0138
cafe
200f
0000
0000
0134
cafe
240f
0000
0000
0136
cafe
280f
0000
0000
0138
cafe
2c0f
0000
0000
0133
cafe
300f
0000
0000
0137
cafe
340f
0000
0000
0137
cafe
380f
0000
0000
0139
cafe
3c0f
0000
0000
013c
cafe
200f
0000
0000
0136
cafe
240f
0000
0000
0130
cafe
280f
0000
0000
0132
cafe
2c0f
0000
0000
0137
cafe
300f
0000
0000
013b
cafe
340f
0000
0000
0138
cafe
380f
0000
0000
0137
cafe
3c0f
0000
0000
0137
cafe
200f
0000
0000
0139
cafe
240f
0000
0000
013b
cafe
280f
0000
0000
0139
cafe
2c0f
0000
0000
013f
cafe
300f
0000
0000
013a
cafe
340f
0000
0000
013c
cafe
380f
0000
0000
0137
cafe
3c0f
0000
0000
0136
cafe
200f
0000
0000
0139
cafe
240f
0000
0000
0138
cafe
280f
0000
0000
013c
cafe
-
2c0f
0000
0000
013b
cafe
300f
0000
0000
013b
cafe
340f
0000
0000
0136
cafe
380f
0000
0000
0139
cafe
3c0f
0000
0000
0139
cafe
200f
0000
0000
013c
cafe
240f
0000
0000
013c
cafe
280f
0000
0000
013c
cafe
2c0f
0000
0000
013b
cafe
300f
0000
0000
013d
cafe
340f
0000
0000
013b
cafe
380f
0000
0000
013c
cafe
3c0f
0000
0000
013a
cafe
200f
0000
0000
013b
cafe
240f
0000
0000
0138
cafe
280f
0000
0000
0136
cafe
2c0f
0000
0000
0137
cafe
300f
0000
0000
0132
cafe
340f
0000
0000
0135
cafe
380f
0000
0000
0135
cafe
3c0f
0000
0000
013a
cafe
200f
0000
0000
013b
cafe
240f
0000
0000
0138
cafe
280f
0000
0000
0139
cafe
2c0f
0000
0000
013c
cafe
300f
0000
0000
013d
cafe
340f
0000
0000
0139
cafe
380f
0000
0000
0136
cafe
3c0f
0000
0000
0135
cafe
200f
0000
0000
0135
cafe
240f
0000
0000
012a
cafe
280f
0000
0000
0133
cafe
2c0f
0000
0000
0132
cafe
300f
0000
0000
0132
cafe
340f
0000
0000
0131
cafe
380f
0000
0000
0134
cafe
3c0f
0000
0000
0134
cafe
200f
0000
0000
0131
cafe
240f
0000
0000
0136
cafe
280f
0000
0000
0137
cafe
2c0f
0000
0000
0136
cafe
300f
0000
0000
013a
cafe
340f
0000
0000
013a
cafe
380f
0000
0000
013d
cafe
3c0f
0000
0000
013c
cafe
200f
0000
0000
013c
cafe
240f
0000
0000
013a
cafe
280f
0000
0000
0140
cafe
2c0f
0000
0000
0140
cafe
300f
0000
0000
0140
cafe
340f
0000
0000
013f
cafe
380f
-
0000
0000
0136
cafe
3c0f
0000
0000
013d
cafe
200f
0000
0000
013e
cafe
240f
0000
0000
013a
cafe
280f
0000
0000
013a
cafe
2c0f
0000
0000
013a
cafe
300f
0000
0000
013c
cafe
340f
0000
0000
013b
cafe
380f
0000
0000
0136
cafe
3c0f
0000
0000
013a
cafe
200f
0000
0000
0136
cafe
240f
0000
0000
0139
cafe
280f
0000
0000
013b
cafe
2c0f
0000
0000
013c
cafe
300f
0000
0000
013b
cafe
340f
0000
0000
013f
cafe
380f
0000
0000
0139
cafe
3c0f
0000
0000
013a
cafe
200f
0000
0000
013c
cafe
240f
0000
0000
0139
cafe
280f
0000
0000
013a
cafe
2c0f
0000
0000
0139
cafe
300f
0000
0000
0139
cafe
340f
0000
0000
013b
cafe
380f
0000
0000
0137
cafe
3c0f
0000
0000
0138
cafe
200f
0000
0000
0137
cafe
240f
0000
0000
0139
cafe
280f
0000
0000
0139
cafe
2c0f
0000
0000
0135
cafe
300f
0000
0000
0139
cafe
340f
0000
0000
0139
cafe
380f
0000
0000
0139
cafe
3c0f
0000
0000
0138
cafe
200f
0000
0000
0139
cafe
240f
0000
0000
013a
cafe
280f
0000
0000
0139
cafe
2c0f
0000
0000
013b
cafe
300f
0000
0000
013b
cafe
340f
0000
0000
013b
cafe
380f
0000
0000
013b
cafe
3c0f
0000
0000
013b
cafe
200f
0000
0000
013e
cafe
240f
0000
0000
013c
cafe
280f
0000
0000
013b
cafe
2c0f
0000
0000
013f
cafe
300f
0000
0000
013d
cafe
340f
0000
0000
0140
cafe
380f
0000
0000
0141
cafe
3c0f
0000
0000
013a
cafe
200f
0000
0000
0139
cafe
240f
0000
-
0000
0139
cafe
280f
0000
0000
0135
cafe
2c0f
0000
0000
013c
cafe
300f
0000
0000
013a
cafe
340f
0000
0000
013c
cafe
380f
0000
0000
013a
cafe
3c0f
0000
0000
013d
cafe
200f
0000
0000
0139
cafe
240f
0000
0000
013f
cafe
280f
0000
0000
013b
cafe
2c0f
0000
0000
0139
cafe
300f
0000
0000
0136
cafe
340f
0000
0000
0139
cafe
380f
0000
0000
013a
cafe
3c0f
0000
0000
0139
cafe
200f
0000
0000
0138
cafe
240f
0000
0000
0135
cafe
280f
0000
0000
0138
cafe
2c0f
0000
0000
0136
cafe
300f
0000
0000
0137
cafe
340f
0000
0000
0137
cafe
380f
0000
0000
0139
cafe
3c0f
0000
0000
0135
cafe
200f
0000
0000
0137
cafe
240f
0000
0000
0137
cafe
280f
0000
0000
013b
cafe
2c0f
0000
0000
013b
cafe
300f
0000
0000
013b
cafe
340f
0000
0000
0136
cafe
380f
0000
0000
0136
cafe
3c0f
0000
0000
013a
cafe
200f
0000
0000
013e
cafe
240f
0000
0000
013c
cafe
280f
0000
0000
013e
cafe
2c0f
0000
0000
013d
cafe
300f
0000
0000
0140
cafe
340f
0000
0000
0138
cafe
380f
0000
0000
013b
cafe
3c0f
0000
0000
013a
cafe
200f
0000
0000
013b
cafe
240f
0000
0000
0139
cafe
280f
0000
0000
013b
cafe
2c0f
0000
0000
0133
cafe
300f
0000
0000
0133
cafe
340f
0000
0000
0134
cafe
380f
0000
0000
0133
cafe
3c0f
0000
0000
0135
cafe
200f
0000
0000
0138
cafe
240f
0000
0000
0135
cafe
280f
0000
0000
0135
cafe
2c0f
0000
0000
0139
cafe
300f
0000
0000
-
0139
cafe
340f
0000
0000
0135
cafe
380f
0000
0000
0137
cafe
3c0f
0000
0000
0132
cafe
200f
0000
0000
0136
cafe
240f
0000
0000
013a
cafe
280f
0000
0000
0138
cafe
2c0f
0000
0000
0132
cafe
300f
0000
0000
0133
cafe
340f
0000
0000
0138
cafe
380f
0000
0000
0137
cafe
3c0f
0000
0000
0135
cafe
200f
0000
0000
0136
cafe
240f
0000
0000
0136
cafe
280f
0000
0000
013a
cafe
2c0f
0000
0000
0136
cafe
300f
0000
0000
0136
cafe
340f
0000
0000
0138
cafe
380f
0000
0000
0135
cafe
3c0f
0000
0000
0137
cafe
200f
0000
0000
013b
cafe
240f
0000
0000
013c
cafe
280f
0000
0000
013d
cafe
2c0f
0000
0000
013b
cafe
300f
0000
0000
013c
cafe
340f
0000
0000
013a
cafe
380f
0000
0000
013e
cafe
3c0f
0000
0000
0139
cafe
200f
0000
0000
013d
cafe
240f
0000
0000
013f
cafe
280f
0000
0000
0137
cafe
2c0f
0000
0000
0138
cafe
300f
0000
0000
0133
cafe
340f
0000
0000
0139
cafe
380f
0000
0000
013c
cafe
3c0f
0000
0000
013b
cafe
200f
0000
0000
013c
cafe
240f
0000
0000
013b
cafe
280f
0000
0000
0133
cafe
2c0f
0000
0000
013e
cafe
300f
0000
0000
0139
cafe
340f
0000
0000
0137
cafe
380f
0000
0000
0137
cafe
3c0f
0000
0000
0135
cafe
200f
0000
0000
0135
cafe
240f
0000
0000
0133
cafe
280f
0000
0000
0137
cafe
2c0f
0000
0000
0135
cafe
300f
0000
0000
013b
cafe
340f
0000
0000
0137
cafe
380f
0000
0000
0139
cafe
3c0f
0000
0000
0136
-
cafe
200f
0000
0000
013c
cafe
240f
0000
0000
013c
cafe
280f
0000
0000
013c
cafe
2c0f
0000
0000
013b
cafe
300f
0000
0000
013f
cafe
340f
0000
0000
013b
cafe
380f
0000
0000
013b
cafe
3c0f
0000
0000
0138
cafe
200f
0000
0000
0135
cafe
240f
0000
0000
0135
cafe
280f
0000
0000
0137
cafe
2c0f
0000
0000
0137
cafe
300f
0000
0000
0135
cafe
340f
0000
0000
0135
cafe
380f
0000
0000
0136
cafe
3c0f
0000
0000
0135
cafe
200f
0000
0000
013b
cafe
240f
0000
0000
0139
cafe
280f
0000
0000
013c
cafe
2c0f
0000
0000
0136
cafe
300f
0000
0000
0134
cafe
340f
0000
0000
0132
cafe
380f
0000
0000
0135
cafe
3c0f
0000
0000
0136
cafe
200f
0000
0000
0139
cafe
240f
0000
0000
013b
cafe
280f
0000
0000
013c
cafe
2c0f
0000
0000
0137
cafe
300f
0000
0000
013a
cafe
340f
0000
0000
0137
cafe
380f
0000
0000
0138
cafe
3c0f
0000
0000
013c
cafe
200f
0000
0000
0137
cafe
240f
0000
0000
0139
cafe
280f
0000
0000
013e
cafe
2c0f
0000
0000
0137
cafe
300f
0000
0000
0137
cafe
340f
0000
0000
0134
cafe
380f
0000
0000
0135
cafe
3c0f
0000
0000
0138
cafe
200f
0000
0000
0134
cafe
240f
0000
0000
0133
cafe
280f
0000
0000
012f
cafe
2c0f
0000
0000
012e
cafe
300f
0000
0000
0131
cafe
340f
0000
0000
0136
cafe
380f
0000
0000
012f
cafe
3c0f
0000
0000
0132
cafe
200f
0000
0000
0135
cafe
240f
0000
0000
0133
cafe
280f
0000
0000
0131
cafe
-
2c0f
0000
0000
0133
cafe
300f
0000
0000
013c
cafe
340f
0000
0000
013c
cafe
380f
0000
0000
013b
cafe
3c0f
0000
0000
0135
cafe
200f
0000
0000
0133
cafe
240f
0000
0000
0136
cafe
280f
0000
0000
0132
cafe
2c0f
0000
0000
0136
cafe
300f
0000
0000
0135
cafe
340f
0000
0000
012f
cafe
380f
0000
0000
0132
cafe
3c0f
0000
0000
0132
cafe
200f
0000
0000
0131
cafe
240f
0000
0000
0139
cafe
280f
0000
0000
0137
cafe
2c0f
0000
0000
0137
cafe
300f
0000
0000
0138
cafe
340f
0000
0000
013a
cafe
380f
0000
0000
0137
cafe
3c0f
0000
0000
0133
cafe
200f
0000
0000
0138
cafe
240f
0000
0000
012f
cafe
280f
0000
0000
0130
cafe
2c0f
0000
0000
0132
cafe
300f
0000
0000
0135
cafe
340f
0000
0000
0138
cafe
380f
0000
0000
0135
cafe
3c0f
0000
0000
0136
cafe
200f
0000
0000
0139
cafe
240f
0000
0000
0136
cafe
280f
0000
0000
0134
cafe
2c0f
0000
0000
0138
cafe
300f
0000
0000
0137
cafe
340f
0000
0000
0137
cafe
380f
0000
0000
0133
cafe
3c0f
0000
0000
0135
cafe
200f
0000
0000
0137
cafe
240f
0000
0000
013d
cafe
280f
0000
0000
0139
cafe
2c0f
0000
0000
0139
cafe
300f
0000
0000
0136
cafe
340f
0000
0000
0136
cafe
380f
0000
0000
0132
cafe
3c0f
0000
0000
013d
cafe
200f
0000
0000
0139
cafe
240f
0000
0000
0137
cafe
280f
0000
0000
0134
cafe
2c0f
0000
0000
0135
cafe
300f
0000
0000
0132
cafe
340f
0000
0000
0133
cafe
380f
-
0000
0000
0135
cafe
3c0f
0000
0000
012f
cafe
200f
0000
0000
0132
cafe
240f
0000
0000
0131
cafe
280f
0000
0000
0136
cafe
2c0f
0000
0000
012e
cafe
300f
0000
0000
0131
cafe
340f
0000
0000
0135
cafe
380f
0000
0000
012e
cafe
3c0f
0000
0000
0132
cafe
200f
0000
0000
012f
cafe
240f
0000
0000
0132
cafe
280f
0000
0000
0133
cafe
2c0f
0000
0000
0138
cafe
300f
0000
0000
012f
cafe
340f
0000
0000
0134
cafe
380f
0000
0000
0136
cafe
3c0f
0000
0000
0135
cafe
200f
0000
0000
0138
cafe
240f
0000
0000
013b
cafe
280f
0000
0000
0137
cafe
2c0f
0000
0000
013b
cafe
300f
0000
0000
0135
cafe
340f
0000
0000
0135
cafe
380f
0000
0000
0137
cafe
3c0f
0000
0000
0136
cafe
200f
0000
0000
0134
cafe
240f
0000
0000
0135
cafe
280f
0000
0000
013f
cafe
2c0f
0000
0000
0139
cafe
300f
0000
0000
013c
cafe
340f
0000
0000
0139
cafe
380f
0000
0000
013d
cafe
3c0f
0000
0000
013a
cafe
200f
0000
0000
0135
cafe
240f
0000
0000
013c
cafe
280f
0000
0000
013b
cafe
2c0f
0000
0000
013d
cafe
300f
0000
0000
0136
cafe
340f
0000
0000
0139
cafe
380f
0000
0000
0138
cafe
3c0f
0000
0000
0139
cafe
200f
0000
0000
0138
cafe
240f
0000
0000
0139
cafe
280f
0000
0000
0133
cafe
2c0f
0000
0000
0138
cafe
300f
0000
0000
0137
cafe
340f
0000
0000
0139
cafe
380f
0000
0000
013a
cafe
3c0f
0000
0000
013b
cafe
200f
0000
0000
013e
cafe
240f
0000
-
0000
013a
cafe
280f
0000
0000
013d
cafe
2c0f
0000
0000
0138
cafe
300f
0000
0000
0139
cafe
340f
0000
0000
013b
cafe
380f
0000
0000
0137
cafe
3c0f
0000
0000
013d
cafe
200f
0000
0000
013b
cafe
240f
0000
0000
0135
cafe
280f
0000
0000
0138
cafe
2c0f
0000
0000
013b
cafe
300f
0000
0000
013b
cafe
340f
0000
0000
013f
cafe
380f
0000
0000
013a
cafe
3c0f
0000
0000
0139
cafe
200f
0000
0000
0139
cafe
240f
0000
0000
0139
cafe
280f
0000
0000
013d
cafe
2c0f
0000
0000
013c
cafe
300f
0000
0000
013c
cafe
340f
0000
0000
0139
cafe
380f
0000
0000
0138
cafe
3c0f
0000
0000
0137
cafe
200f
0000
0000
013a
cafe
240f
0000
0000
013a
cafe
280f
0000
0000
0136
cafe
2c0f
0000
0000
0139
cafe
300f
0000
0000
0135
cafe
340f
0000
0000
0133
cafe
380f
0000
0000
0139
cafe
3c0f
0000
0000
0138
cafe
200f
0000
0000
013b
cafe
240f
0000
0000
0138
cafe
280f
0000
0000
0133
cafe
2c0f
0000
0000
0135
cafe
300f
0000
0000
013a
cafe
340f
0000
0000
0136
cafe
380f
0000
0000
0138
cafe
3c0f
0000
0000
0138
cafe
200f
0000
0000
013a
cafe
240f
0000
0000
013a
cafe
280f
0000
0000
0138
cafe
2c0f
0000
0000
0137
cafe
300f
0000
0000
0136
cafe
340f
0000
0000
0139
cafe
380f
0000
0000
0137
cafe
3c0f
0000
0000
0139
cafe
200f
0000
0000
013c
cafe
240f
0000
0000
0139
cafe
280f
0000
0000
013c
cafe
2c0f
0000
0000
013b
cafe
300f
0000
0000
-
013a
cafe
340f
0000
0000
0134
cafe
380f
0000
0000
0138
cafe
3c0f
0000
0000
013d
cafe
200f
0000
0000
013a
cafe
240f
0000
0000
013b
cafe
280f
0000
0000
0136
cafe
2c0f
0000
0000
0135
cafe
300f
0000
0000
0139
cafe
340f
0000
0000
0141
cafe
380f
0000
0000
013c
cafe
3c0f
0000
0000
0141
cafe
200f
0000
0000
013d
cafe
240f
0000
0000
013b
cafe
280f
0000
0000
013c
cafe
2c0f
0000
0000
0139
cafe
300f
0000
0000
0138
cafe
340f
0000
0000
013b
cafe
380f
0000
0000
013c
cafe
3c0f
0000
0000
0138
cafe
200f
0000
0000
0138
cafe
240f
0000
0000
013a
cafe
280f
0000
0000
013c
cafe
2c0f
0000
0000
013f
cafe
300f
0000
0000
0135
cafe
340f
0000
0000
0138
cafe
380f
0000
0000
013b
cafe
3c0f
0000
0000
0134
cafe
200f
0000
0000
0133
cafe
240f
0000
0000
0138
cafe
280f
0000
0000
0137
cafe
2c0f
0000
0000
0139
cafe
300f
0000
0000
0131
cafe
340f
0000
0000
0136
cafe
380f
0000
0000
0134
cafe
3c0f
0000
0000
0138
cafe
200f
0000
0000
0136
cafe
240f
0000
0000
0138
cafe
280f
0000
0000
0135
cafe
2c0f
0000
0000
0137
cafe
300f
0000
0000
0138
cafe
340f
0000
0000
013a
cafe
380f
0000
0000
0136
cafe
3c0f
0000
0000
013a
cafe
200f
0000
0000
0138
cafe
240f
0000
0000
0138
cafe
280f
0000
0000
013b
cafe
2c0f
0000
0000
0137
cafe
300f
0000
0000
013d
cafe
340f
0000
0000
0139
cafe
380f
0000
0000
013b
cafe
3c0f
0000
0000
0136
-
cafe
200f
0000
0000
013b
cafe
240f
0000
0000
0139
cafe
280f
0000
0000
0137
cafe
2c0f
0000
0000
0139
cafe
300f
0000
0000
0138
cafe
340f
0000
0000
0139
cafe
380f
0000
0000
0139
cafe
3c0f
0000
0000
0139
cafe
200f
0000
0000
0137
cafe
240f
0000
0000
0137
cafe
280f
0000
0000
0138
cafe
2c0f
0000
0000
0136
cafe
300f
0000
0000
0133
cafe
340f
0000
0000
012f
cafe
380f
0000
0000
0132
cafe
3c0f
0000
0000
0136
cafe
200f
0000
0000
0133
cafe
240f
0000
0000
0137
cafe
280f
0000
0000
0137
cafe
2c0f
0000
0000
0135
cafe
300f
0000
0000
0138
cafe
340f
0000
0000
0134
cafe
380f
0000
0000
013a
cafe
3c0f
0000
0000
0134
cafe
200f
0000
0000
0135
cafe
240f
0000
0000
0135
cafe
280f
0000
0000
0139
cafe
2c0f
0000
0000
0138
cafe
300f
0000
0000
0137
cafe
340f
0000
0000
0137
cafe
380f
0000
0000
0139
cafe
3c0f
0000
0000
0137
cafe
200f
0000
0000
0139
cafe
240f
0000
0000
0139
cafe
280f
0000
0000
0138
cafe
2c0f
0000
0000
0134
cafe
300f
0000
0000
0132
cafe
340f
0000
0000
0133
cafe
380f
0000
0000
0139
cafe
3c0f
0000
0000
0137
cafe
200f
0000
0000
013a
cafe
240f
0000
0000
0137
cafe
280f
0000
0000
0135
cafe
2c0f
0000
0000
0132
cafe
300f
0000
0000
0138
cafe
340f
0000
0000
0134
cafe
380f
0000
0000
0136
cafe
3c0f
0000
0000
0138
cafe
200f
0000
0000
013a
cafe
240f
0000
0000
0135
cafe
280f
0000
0000
0136
cafe
-
2c0f
0000
0000
0138
cafe
300f
0000
0000
0135
cafe
340f
0000
0000
0135
cafe
380f
0000
0000
0138
cafe
3c0f
0000
0000
0136
cafe
200f
0000
0000
0138
cafe
240f
0000
0000
0138
cafe
280f
0000
0000
0137
cafe
2c0f
0000
0000
0135
cafe
300f
0000
0000
0135
cafe
340f
0000
0000
0131
cafe
380f
0000
0000
0138
cafe
3c0f
0000
0000
0136
cafe
200f
0000
0000
013b
cafe
240f
0000
0000
0136
cafe
280f
0000
0000
0132
cafe
2c0f
0000
0000
0137
cafe
300f
0000
0000
0138
cafe
340f
0000
0000
0136
cafe
380f
0000
0000
0138
cafe
3c0f
0000
0000
0134
cafe
200f
0000
0000
0135
cafe
240f
0000
0000
0135
cafe
280f
0000
0000
0137
cafe
2c0f
0000
0000
013b
cafe
300f
0000
0000
0132
cafe
340f
0000
0000
0136
cafe
380f
0000
0000
013b
cafe
3c0f
0000
0000
0138
cafe
200f
0000
0000
0137
cafe
240f
0000
0000
013c
cafe
280f
0000
0000
0137
cafe
2c0f
0000
0000
013a
cafe
300f
0000
0000
0136
cafe
340f
0000
0000
0132
cafe
380f
0000
0000
0135
cafe
3c0f
0000
0000
013e
cafe
200f
0000
0000
013d
cafe
240f
0000
0000
0139
cafe
280f
0000
0000
0138
cafe
2c0f
0000
0000
0134
cafe
300f
0000
0000
0135
cafe
340f
0000
0000
0135
cafe
380f
0000
0000
0136
cafe
3c0f
0000
0000
0137
cafe
200f
0000
0000
0137
cafe
240f
0000
0000
0138
cafe
280f
0000
0000
013c
cafe
2c0f
0000
0000
0137
cafe
300f
0000
0000
0138
cafe
340f
0000
0000
0134
cafe
380f
-
0000
0000
0136
cafe
3c0f
0000
0000
0139
cafe
200f
0000
0000
0139
cafe
240f
0000
0000
0132
cafe
280f
0000
0000
0136
cafe
2c0f
0000
0000
0134
cafe
300f
0000
0000
0135
cafe
340f
0000
0000
013a
cafe
380f
0000
0000
0136
cafe
3c0f
0000
0000
0137
cafe
200f
0000
0000
0133
cafe
240f
0000
0000
0134
cafe
280f
0000
0000
0135
cafe
2c0f
0000
0000
0134
cafe
300f
0000
0000
0137
cafe
340f
0000
0000
0135
cafe
380f
0000
0000
0132
cafe
3c0f
0000
0000
0139
cafe
200f
0000
0000
0137
cafe
240f
0000
0000
013b
cafe
280f
0000
0000
0138
cafe
2c0f
0000
0000
013a
cafe
300f
0000
0000
0138
cafe
340f
0000
0000
0135
cafe
380f
0000
0000
0135
cafe
3c0f
0000
0000
0135
cafe
200f
0000
0000
0138
cafe
240f
0000
0000
013a
cafe
280f
0000
0000
013c
cafe
2c0f
0000
0000
013c
cafe
300f
0000
0000
013a
cafe
340f
0000
0000
013c
cafe
380f
0000
0000
0139
cafe
3c0f
0000
0000
0135
cafe
200f
0000
0000
0138
cafe
240f
0000
0000
0134
cafe
280f
0000
0000
0139
cafe
2c0f
0000
0000
0137
cafe
300f
0000
0000
013d
cafe
340f
0000
0000
013f
cafe
380f
0000
0000
013e
cafe
3c0f
0000
0000
013e
cafe
200f
0000
0000
013a
cafe
240f
0000
0000
013d
cafe
280f
0000
0000
013d
cafe
2c0f
0000
0000
013c
cafe
300f
0000
0000
013b
cafe
340f
0000
0000
0134
cafe
380f
0000
0000
0139
cafe
3c0f
0000
0000
0138
cafe
200f
0000
0000
0137
cafe
240f
0000
-
0000
0138
cafe
280f
0000
0000
013d
cafe
2c0f
0000
0000
013a
cafe
300f
0000
0000
013e
cafe
340f
0000
0000
013c
cafe
380f
0000
0000
013c
cafe
3c0f
0000
0000
013b
cafe
200f
0000
0000
013c
cafe
240f
0000
0000
013a
cafe
280f
0000
0000
013a
cafe
2c0f
0000
0000
0134
cafe
300f
0000
0000
0135
cafe
340f
0000
0000
0139
cafe
380f
0000
0000
013e
cafe
3c0f
0000
0000
0137
cafe
200f
0000
0000
0134
cafe
240f
0000
0000
013e
cafe
280f
0000
0000
013a
cafe
2c0f
0000
0000
0134
cafe
300f
0000
0000
0139
cafe
340f
0000
0000
0139
cafe
380f
0000
0000
0136
cafe
3c0f
0000
0000
0139
cafe
200f
0000
0000
0137
cafe
240f
0000
0000
0136
cafe
280f
0000
0000
0134
cafe
2c0f
0000
0000
0137
cafe
300f
0000
0000
0136
cafe
340f
0000
0000
013a
cafe
380f
0000
0000
0139
cafe
3c0f
0000
0000
013a
cafe
200f
0000
0000
0130
cafe
240f
0000
0000
0134
cafe
280f
0000
0000
0134
cafe
2c0f
0000
0000
0134
cafe
300f
0000
0000
0132
cafe
340f
0000
0000
0134
cafe
380f
0000
0000
0130
cafe
3c0f
0000
0000
0137
cafe
200f
0000
0000
0138
cafe
240f
0000
0000
0133
cafe
280f
0000
0000
0139
cafe
2c0f
0000
0000
013c
cafe
300f
0000
0000
013c
cafe
340f
0000
0000
013a
cafe
380f
0000
0000
013e
cafe
3c0f
0000
0000
013e
cafe
200f
0000
0000
013a
cafe
240f
0000
0000
013a
cafe
280f
0000
0000
013c
cafe
2c0f
0000
0000
0139
cafe
300f
0000
0000
-
0137
cafe
340f
0000
0000
0139
cafe
380f
0000
0000
013b
cafe
3c0f
0000
0000
0139
cafe
200f
0000
0000
0139
cafe
240f
0000
0000
013e
cafe
280f
0000
0000
0139
cafe
2c0f
0000
0000
013b
cafe
300f
0000
0000
0139
cafe
340f
0000
0000
013f
cafe
380f
0000
0000
0139
cafe
3c0f
0000
0000
0138
cafe
200f
0000
0000
0139
cafe
240f
0000
0000
0134
cafe
280f
0000
0000
0138
cafe
2c0f
0000
0000
0133
cafe
300f
0000
0000
0137
cafe
340f
0000
0000
0139
cafe
380f
0000
0000
013e
cafe
3c0f
0000
0000
013a
cafe
200f
0000
0000
013a
cafe
240f
0000
0000
0139
cafe
280f
0000
0000
013d
cafe
2c0f
0000
0000
0135
cafe
300f
0000
0000
0137
cafe
340f
0000
0000
0138
cafe
380f
0000
0000
0137
cafe
3c0f
0000
0000
0136
cafe
200f
0000
0000
0135
cafe
240f
0000
0000
013b
cafe
280f
0000
0000
0136
cafe
2c0f
0000
0000
0133
cafe
300f
0000
0000
0134
cafe
340f
0000
0000
0132
cafe
380f
0000
0000
0130
cafe
3c0f
0000
0000
0131
cafe
200f
0000
0000
0135
cafe
240f
0000
0000
0133
cafe
280f
0000
0000
0132
cafe
2c0f
0000
0000
0135
cafe
300f
0000
0000
013a
cafe
340f
0000
0000
0138
cafe
380f
0000
0000
0137
cafe
3c0f
0000
0000
013e
cafe
200f
0000
0000
013b
cafe
240f
0000
0000
013c
cafe
280f
0000
0000
013c
cafe
2c0f
0000
0000
0139
cafe
300f
0000
0000
0137
cafe
340f
0000
0000
0139
cafe
380f
0000
0000
013c
cafe
3c0f
0000
0000
013b
-
cafe
200f
0000
0000
013d
cafe
240f
0000
0000
013a
cafe
280f
0000
0000
0138
cafe
2c0f
0000
0000
0135
cafe
300f
0000
0000
0138
cafe
340f
0000
0000
013a
cafe
380f
0000
0000
0137
cafe
3c0f
0000
0000
0136
cafe
200f
0000
0000
0136
cafe
240f
0000
0000
0141
cafe
280f
0000
0000
013b
cafe
2c0f
0000
0000
0139
cafe
300f
0000
0000
013c
cafe
340f
0000
0000
013e
cafe
380f
0000
0000
013d
cafe
3c0f
0000
0000
013e
cafe
200f
0000
0000
013b
cafe
240f
0000
0000
013d
cafe
280f
0000
0000
013b
cafe
2c0f
0000
0000
013d
cafe
300f
0000
0000
013b
cafe
340f
0000
0000
0141
cafe
380f
0000
0000
0142
cafe
3c0f
0000
0000
013e
cafe
200f
0000
0000
013e
cafe
240f
0000
0000
013d
cafe
280f
0000
0000
0139
cafe
2c0f
0000
0000
013b
cafe
300f
0000
0000
013a
cafe
340f
0000
0000
0133
cafe
380f
0000
0000
013b
cafe
3c0f
0000
0000
013d
cafe
200f
0000
0000
013a
cafe
240f
0000
0000
013a
cafe
280f
0000
0000
0137
cafe
2c0f
0000
0000
0138
cafe
300f
0000
0000
013d
cafe
340f
0000
0000
0139
cafe
380f
0000
0000
013b
cafe
3c0f
0000
0000
0138
cafe
200f
0000
0000
0133
cafe
240f
0000
0000
0132
cafe
280f
0000
0000
0136
cafe
2c0f
0000
0000
0138
cafe
300f
0000
0000
0138
cafe
340f
0000
0000
013d
cafe
380f
0000
0000
0137
cafe
3c0f
0000
0000
0136
cafe
200f
0000
0000
0138
cafe
240f
0000
0000
0138
cafe
280f
0000
0000
0138
cafe
-
2c0f
0000
0000
0136
cafe
300f
0000
0000
0137
cafe
340f
0000
0000
0136
cafe
380f
0000
0000
013a
cafe
3c0f
0000
0000
0138
cafe
200f
0000
0000
0136
cafe
240f
0000
0000
0135
cafe
280f
0000
0000
0131
cafe
2c0f
0000
0000
0133
cafe
300f
0000
0000
013a
cafe
340f
0000
0000
0139
cafe
380f
0000
0000
0137
cafe
3c0f
0000
0000
0137
cafe
200f
0000
0000
0136
cafe
240f
0000
0000
013c
cafe
280f
0000
0000
013a
cafe
2c0f
0000
0000
0137
cafe
300f
0000
0000
0137
cafe
340f
0000
0000
0136
cafe
380f
0000
0000
0137
cafe
3c0f
0000
0000
0137
cafe
200f
0000
0000
0135
cafe
240f
0000
0000
0135
cafe
280f
0000
0000
0133
cafe
2c0f
0000
0000
0134
cafe
300f
0000
0000
0135
cafe
340f
0000
0000
0134
cafe
380f
0000
0000
0134
cafe
3c0f
0000
0000
0138
cafe
200f
0000
0000
0132
cafe
240f
0000
0000
0138
cafe
280f
0000
0000
0136
cafe
2c0f
0000
0000
0133
cafe
300f
0000
0000
013a
cafe
340f
0000
0000
0134
cafe
380f
0000
0000
0137
cafe
3c0f
0000
0000
0133
cafe
200f
0000
0000
0133
cafe
240f
0000
0000
0136
cafe
280f
0000
0000
0132
cafe
2c0f
0000
0000
013c
cafe
300f
0000
0000
0135
cafe
340f
0000
0000
0134
cafe
380f
0000
0000
0136
cafe
3c0f
0000
0000
0137
cafe
200f
0000
0000
013d
cafe
240f
0000
0000
013e
cafe
280f
0000
0000
0138
cafe
2c0f
0000
0000
0133
cafe
300f
0000
0000
0136
cafe
340f
0000
0000
0139
cafe
380f
-
0000
0000
013a
cafe
3c0f
0000
0000
0134
cafe
200f
0000
0000
013a
cafe
240f
0000
0000
0139
cafe
280f
0000
0000
013c
cafe
2c0f
0000
0000
0139
cafe
300f
0000
0000
0138
cafe
340f
0000
0000
0136
cafe
380f
0000
0000
0137
cafe
3c0f
0000
0000
0134
cafe
200f
0000
0000
0131
cafe
240f
0000
0000
0135
cafe
280f
0000
0000
0133
cafe
2c0f
0000
0000
0134
cafe
300f
0000
0000
0131
cafe
340f
0000
0000
0136
cafe
380f
0000
0000
013c
cafe
3c0f
0000
0000
0137
cafe
200f
0000
0000
0131
cafe
240f
0000
0000
0136
cafe
280f
0000
0000
0137
cafe
2c0f
0000
0000
0135
cafe
300f
0000
0000
0133
cafe
340f
0000
0000
0132
cafe
380f
0000
0000
0135
cafe
3c0f
0000
0000
0139
cafe
200f
0000
0000
0132
cafe
240f
0000
0000
0136
cafe
280f
0000
0000
013a
cafe
2c0f
0000
0000
0138
cafe
300f
0000
0000
0133
cafe
340f
0000
0000
0139
cafe
380f
0000
0000
0139
cafe
3c0f
0000
0000
0138
cafe
200f
0000
0000
013b
cafe
240f
0000
0000
013b
cafe
280f
0000
0000
013a
cafe
2c0f
0000
0000
013b
cafe
300f
0000
0000
0139
cafe
340f
0000
0000
013b
cafe
380f
0000
0000
013a
cafe
3c0f
0000
0000
013b
cafe
200f
0000
0000
013a
cafe
240f
0000
0000
0134
cafe
280f
0000
0000
013a
cafe
2c0f
0000
0000
013b
cafe
300f
0000
0000
0138
cafe
340f
0000
0000
0139
cafe
380f
0000
0000
0139
cafe
3c0f
0000
0000
013b
cafe
200f
0000
0000
013a
cafe
240f
0000
-
0000
0139
cafe
280f
0000
0000
0138
cafe
2c0f
0000
0000
0138
cafe
300f
0000
0000
013b
cafe
340f
0000
0000
0139
cafe
380f
0000
0000
0138
cafe
3c0f
0000
0000
013f
cafe
200f
0000
0000
013a
cafe
240f
0000
0000
0137
cafe
280f
0000
0000
0134
cafe
2c0f
0000
0000
0137
cafe
300f
0000
0000
0137
cafe
340f
0000
0000
0137
cafe
380f
0000
0000
0137
cafe
3c0f
0000
0000
0138
cafe
200f
0000
0000
013a
cafe
240f
0000
0000
0137
cafe
280f
0000
0000
0138
cafe
2c0f
0000
0000
0135
cafe
300f
0000
0000
0138
cafe
340f
0000
0000
0135
cafe
380f
0000
0000
0136
cafe
3c0f
0000
0000
0135
cafe
200f
0000
0000
0139
cafe
240f
0000
0000
0139
cafe
280f
0000
0000
013d
cafe
2c0f
0000
0000
013d
cafe
300f
0000
0000
0137
cafe
340f
0000
0000
0137
cafe
380f
0000
0000
0138
cafe
3c0f
0000
0000
013a
cafe
200f
0000
0000
0138
cafe
240f
0000
0000
0137
cafe
280f
0000
0000
0137
cafe
2c0f
0000
0000
0133
cafe
300f
0000
0000
0134
cafe
340f
0000
0000
0131
cafe
380f
0000
0000
0133
cafe
3c0f
0000
0000
0132
cafe
200f
0000
0000
0133
cafe
240f
0000
0000
0138
cafe
280f
0000
0000
0139
cafe
2c0f
0000
0000
0136
cafe
300f
0000
0000
0138
cafe
340f
0000
0000
013b
cafe
380f
0000
0000
0138
cafe
3c0f
0000
0000
0136
cafe
200f
0000
0000
0136
cafe
240f
0000
0000
0134
cafe
280f
0000
0000
013b
cafe
2c0f
0000
0000
013a
cafe
300f
0000
0000
-
0139
cafe
340f
0000
0000
013a
cafe
380f
0000
0000
0136
cafe
3c0f
0000
0000
0133
cafe
200f
0000
0000
0130
cafe
240f
0000
0000
0132
cafe
280f
0000
0000
0135
cafe
2c0f
0000
0000
013a
cafe
300f
0000
0000
0138
cafe
340f
0000
0000
0135
cafe
380f
0000
0000
0134
cafe
3c0f
0000
0000
0138
cafe
200f
0000
0000
0135
cafe
240f
0000
0000
0137
cafe
280f
0000
0000
0138
cafe
2c0f
0000
0000
0137
cafe
300f
0000
0000
0138
cafe
340f
0000
0000
0134
cafe
380f
0000
0000
0138
cafe
3c0f
0000
0000
0136
cafe
200f
0000
0000
0139
cafe
240f
0000
0000
0135
cafe
280f
0000
0000
0134
cafe
2c0f
0000
0000
0137
cafe
300f
0000
0000
013d
cafe
340f
0000
0000
0139
cafe
380f
0000
0000
013c
cafe
3c0f
0000
0000
0138
cafe
200f
0000
0000
0138
cafe
240f
0000
0000
013d
cafe
280f
0000
0000
013a
cafe
2c0f
0000
0000
013c
cafe
300f
0000
0000
013a
cafe
340f
0000
0000
0138
cafe
380f
0000
0000
0138
cafe
3c0f
0000
0000
0134
cafe
200f
0000
0000
0133
cafe
240f
0000
0000
0138
cafe
280f
0000
0000
0137
cafe
2c0f
0000
0000
0136
cafe
300f
0000
0000
0134
cafe
340f
0000
0000
0135
cafe
380f
0000
0000
0137
cafe
3c0f
0000
0000
0136
cafe
200f
0000
0000
0137
cafe
240f
0000
0000
013d
cafe
280f
0000
0000
013d
cafe
2c0f
0000
0000
013e
cafe
300f
0000
0000
0136
cafe
340f
0000
0000
0135
cafe
380f
0000
0000
013a
cafe
3c0f
0000
0000
0139
-
cafe
200f
0000
0000
0142
cafe
240f
0000
0000
013b
cafe
280f
0000
0000
0131
cafe
2c0f
0000
0000
0138
cafe
300f
0000
0000
0135
cafe
340f
0000
0000
013b
cafe
380f
0000
0000
013d
cafe
3c0f
0000
0000
0138
cafe
200f
0000
0000
013c
cafe
240f
0000
0000
013a
cafe
280f
0000
0000
013b
cafe
2c0f
0000
0000
0140
cafe
300f
0000
0000
0139
cafe
340f
0000
0000
0138
cafe
380f
0000
0000
0136
cafe
3c0f
0000
0000
0134
cafe
200f
0000
0000
0139
cafe
240f
0000
0000
013b
cafe
280f
0000
0000
0136
cafe
2c0f
0000
0000
0137
cafe
300f
0000
0000
0138
cafe
340f
0000
0000
013c
cafe
380f
0000
0000
013b
cafe
3c0f
0000
0000
013b
cafe
200f
0000
0000
013b
cafe
240f
0000
0000
0135
cafe
280f
0000
0000
0135
cafe
2c0f
0000
0000
0133
cafe
300f
0000
0000
0134
cafe
340f
0000
0000
0136
cafe
380f
0000
0000
0139
cafe
3c0f
0000
0000
0138
cafe
200f
0000
0000
0134
cafe
240f
0000
0000
0138
cafe
280f
0000
0000
0136
cafe
2c0f
0000
0000
0136
cafe
300f
0000
0000
013a
cafe
340f
0000
0000
0135
cafe
380f
0000
0000
0138
cafe
3c0f
0000
0000
013a
cafe
200f
0000
0000
0137
cafe
240f
0000
0000
0137
cafe
280f
0000
0000
013b
cafe
2c0f
0000
0000
0137
cafe
300f
0000
0000
0135
cafe
340f
0000
0000
0137
cafe
380f
0000
0000
0135
cafe
3c0f
0000
0000
0133
cafe
200f
0000
0000
0134
cafe
240f
0000
0000
0134
cafe
280f
0000
0000
0135
cafe
-
2c0f
0000
0000
0133
cafe
300f
0000
0000
0132
cafe
340f
0000
0000
0134
cafe
380f
0000
0000
0136
cafe
3c0f
0000
0000
0135
cafe
200f
0000
0000
0137
cafe
240f
0000
0000
0138
cafe
280f
0000
0000
0135
cafe
2c0f
0000
0000
0138
cafe
300f
0000
0000
0136
cafe
340f
0000
0000
0137
cafe
380f
0000
0000
0138
cafe
3c0f
0000
0000
0135
cafe
200f
0000
0000
0134
cafe
240f
0000
0000
0135
cafe
280f
0000
0000
0134
cafe
2c0f
0000
0000
0137
cafe
300f
0000
0000
0133
cafe
340f
0000
0000
013b
cafe
380f
0000
0000
013c
cafe
3c0f
0000
0000
0136
cafe
200f
0000
0000
0136
cafe
240f
0000
0000
0139
cafe
280f
0000
0000
013b
cafe
2c0f
0000
0000
013b
cafe
300f
0000
0000
013b
cafe
340f
0000
0000
013e
cafe
380f
0000
0000
013d
cafe
3c0f
0000
0000
0137
cafe
200f
0000
0000
0137
cafe
240f
0000
0000
013b
cafe
280f
0000
0000
0136
cafe
2c0f
0000
0000
0138
cafe
300f
0000
0000
0135
cafe
340f
0000
0000
0136
cafe
380f
0000
0000
013c
cafe
3c0f
0000
0000
013f
cafe
200f
0000
0000
0135
cafe
240f
0000
0000
0135
cafe
280f
0000
0000
0139
cafe
2c0f
0000
0000
0139
cafe
300f
0000
0000
013d
cafe
340f
0000
0000
013e
cafe
380f
0000
0000
013a
cafe
3c0f
0000
0000
0139
cafe
200f
0000
0000
013c
cafe
240f
0000
0000
013a
cafe
280f
0000
0000
013e
cafe
2c0f
0000
0000
0140
cafe
300f
0000
0000
0137
cafe
340f
0000
0000
0134
cafe
380f
-
0000
0000
013b
cafe
3c0f
0000
0000
0136
cafe
200f
0000
0000
0135
cafe
240f
0000
0000
0132
cafe
280f
0000
0000
0135
cafe
2c0f
0000
0000
0133
cafe
300f
0000
0000
0139
cafe
340f
0000
0000
0135
cafe
380f
0000
0000
0134
cafe
3c0f
0000
0000
0135
cafe
200f
0000
0000
0136
cafe
240f
0000
0000
0136
cafe
280f
0000
0000
0136
cafe
2c0f
0000
0000
013a
cafe
300f
0000
0000
013a
cafe
340f
0000
0000
0138
cafe
380f
0000
0000
0134
cafe
3c0f
0000
0000
0136
cafe
200f
0000
0000
0130
cafe
240f
0000
0000
0136
cafe
280f
0000
0000
0139
cafe
2c0f
0000
0000
0136
cafe
300f
0000
0000
0133
cafe
340f
0000
0000
013a
cafe
380f
0000
0000
013a
cafe
3c0f
0000
0000
0136
cafe
200f
0000
0000
0133
cafe
240f
0000
0000
0137
cafe
280f
0000
0000
0139
cafe
2c0f
0000
0000
013f
cafe
300f
0000
0000
013d
cafe
340f
0000
0000
013b
cafe
380f
0000
0000
0136
cafe
3c0f
0000
0000
013b
cafe
200f
0000
0000
013a
cafe
240f
0000
0000
013c
cafe
280f
0000
0000
0139
cafe
2c0f
0000
0000
013c
cafe
300f
0000
0000
0138
cafe
340f
0000
0000
013e
cafe
380f
0000
0000
0136
cafe
3c0f
0000
0000
0134
cafe
200f
0000
0000
0139
cafe
240f
0000
0000
0137
cafe
280f
0000
0000
013e
cafe
2c0f
0000
0000
0136
cafe
300f
0000
0000
0137
cafe
340f
0000
0000
0138
cafe
380f
0000
0000
0134
cafe
3c0f
0000
0000
0135
cafe
200f
0000
0000
013a
cafe
240f
0000
-
0000
0134
cafe
280f
0000
0000
0135
cafe
2c0f
0000
0000
0134
cafe
300f
0000
0000
0135
cafe
340f
0000
0000
0134
cafe
380f
0000
0000
0133
cafe
3c0f
0000
0000
0137
cafe
200f
0000
0000
0138
cafe
240f
0000
0000
0137
cafe
280f
0000
0000
0137
cafe
2c0f
0000
0000
0138
cafe
300f
0000
0000
0135
cafe
340f
0000
0000
013d
cafe
380f
0000
0000
0138
cafe
3c0f
0000
0000
0135
cafe
200f
0000
0000
0131
cafe
240f
0000
0000
0138
cafe
280f
0000
0000
0132
cafe
2c0f
0000
0000
0131
cafe
300f
0000
0000
0132
cafe
340f
0000
0000
0134
cafe
380f
0000
0000
0134
cafe
3c0f
0000
0000
012f
cafe
200f
0000
0000
0133
cafe
240f
0000
0000
0133
cafe
280f
0000
0000
0135
cafe
2c0f
0000
0000
0138
cafe
300f
0000
0000
0138
cafe
340f
0000
0000
0134
cafe
380f
0000
0000
0136
cafe
3c0f
0000
0000
0136
cafe
200f
0000
0000
0134
cafe
240f
0000
0000
0132
cafe
280f
0000
0000
0137
cafe
2c0f
0000
0000
0136
cafe
300f
0000
0000
0137
cafe
340f
0000
0000
0139
cafe
380f
0000
0000
0138
cafe
3c0f
0000
0000
0138
cafe
200f
0000
0000
013a
cafe
240f
0000
0000
0139
cafe
280f
0000
0000
0139
cafe
2c0f
0000
0000
013a
cafe
300f
0000
0000
0138
cafe
340f
0000
0000
013b
cafe
380f
0000
0000
013d
cafe
3c0f
0000
0000
0142
cafe
200f
0000
0000
0138
cafe
240f
0000
0000
013c
cafe
280f
0000
0000
0138
cafe
2c0f
0000
0000
0136
cafe
300f
0000
0000
-
0139
cafe
340f
0000
0000
0139
cafe
380f
0000
0000
0136
cafe
3c0f
0000
0000
0138
cafe
200f
0000
0000
0139
cafe
240f
0000
0000
0139
cafe
280f
0000
0000
0138
cafe
2c0f
0000
0000
0138
cafe
300f
0000
0000
0137
cafe
340f
0000
0000
0135
cafe
380f
0000
0000
0134
cafe
3c0f
0000
0000
0137
cafe
200f
0000
0000
0135
cafe
240f
0000
0000
0137
cafe
280f
0000
0000
0138
cafe
2c0f
0000
0000
013b
cafe
300f
0000
0000
0135
cafe
340f
0000
0000
0137
cafe
380f
0000
0000
0137
cafe
3c0f
0000
0000
0135
cafe
200f
0000
0000
0138
cafe
240f
0000
0000
0135
cafe
280f
0000
0000
0139
cafe
2c0f
0000
0000
0139
cafe
300f
0000
0000
0135
cafe
340f
0000
0000
0136
cafe
380f
0000
0000
0133
cafe
3c0f
0000
0000
0136
cafe
200f
0000
0000
0138
cafe
240f
0000
0000
0139
cafe
280f
0000
0000
0137
cafe
2c0f
0000
0000
0137
cafe
300f
0000
0000
0135
cafe
340f
0000
0000
013b
cafe
380f
0000
0000
0135
cafe
3c0f
0000
0000
0138
cafe
200f
0000
0000
013a
cafe
240f
0000
0000
013f
cafe
280f
0000
0000
013c
cafe
2c0f
0000
0000
0137
cafe
300f
0000
0000
013a
cafe
340f
0000
0000
0139
cafe
380f
0000
0000
0139
cafe
3c0f
0000
0000
0133
cafe
200f
0000
0000
0136
cafe
240f
0000
0000
013d
cafe
280f
0000
0000
013b
cafe
2c0f
0000
0000
013b
cafe
300f
0000
0000
013a
cafe
340f
0000
0000
013e
cafe
380f
0000
0000
013b
cafe
3c0f
0000
0000
0136
-
cafe
200f
0000
0000
013a
cafe
240f
0000
0000
013d
cafe
280f
0000
0000
013d
cafe
2c0f
0000
0000
013a
cafe
300f
0000
0000
0139
cafe
340f
0000
0000
0138
cafe
380f
0000
0000
0136
cafe
3c0f
0000
0000
0134
cafe
200f
0000
0000
0138
cafe
240f
0000
0000
0135
cafe
280f
0000
0000
0135
cafe
2c0f
0000
0000
013a
cafe
300f
0000
0000
0139
cafe
340f
0000
0000
013a
cafe
380f
0000
0000
013a
cafe
3c0f
0000
0000
0141
cafe
200f
0000
0000
0140
cafe
240f
0000
0000
013f
cafe
280f
0000
0000
013c
cafe
2c0f
0000
0000
013b
cafe
300f
0000
0000
013d
cafe
340f
0000
0000
0137
cafe
380f
0000
0000
0134
cafe
3c0f
0000
0000
0136
cafe
200f
0000
0000
013a
cafe
240f
0000
0000
013b
cafe
280f
0000
0000
0139
cafe
2c0f
0000
0000
0135
cafe
300f
0000
0000
0137
cafe
340f
0000
0000
0139
cafe
380f
0000
0000
0139
cafe
3c0f
0000
0000
013e
cafe
200f
0000
0000
0139
cafe
240f
0000
0000
0139
cafe
280f
0000
0000
0136
cafe
2c0f
0000
0000
0137
cafe
300f
0000
0000
013a
cafe
340f
0000
0000
0137
cafe
380f
0000
0000
0137
cafe
3c0f
0000
0000
0136
cafe
200f
0000
0000
0139
cafe
240f
0000
0000
013c
cafe
280f
0000
0000
013b
cafe
2c0f
0000
0000
013c
cafe
300f
0000
0000
013a
cafe
340f
0000
0000
0139
cafe
380f
0000
0000
0135
cafe
3c0f
0000
0000
0137
cafe
200f
0000
0000
013b
cafe
240f
0000
0000
0138
cafe
280f
0000
0000
0136
cafe
-
2c0f
0000
0000
0132
cafe
300f
0000
0000
0136
cafe
340f
0000
0000
0139
cafe
380f
0000
0000
013b
cafe
3c0f
0000
0000
0138
cafe
200f
0000
0000
0136
cafe
240f
0000
0000
0138
cafe
280f
0000
0000
0136
cafe
2c0f
0000
0000
013b
cafe
300f
0000
0000
013b
cafe
340f
0000
0000
0139
cafe
380f
0000
0000
0139
cafe
3c0f
0000
0000
0136
cafe
200f
0000
0000
013b
cafe
240f
0000
0000
0130
cafe
280f
0000
0000
0138
cafe
2c0f
0000
0000
0132
cafe
300f
0000
0000
0138
cafe
340f
0000
0000
013b
cafe
380f
0000
0000
013a
cafe
3c0f
0000
0000
0131
cafe
200f
0000
0000
0133
cafe
240f
0000
0000
0139
cafe
280f
0000
0000
0138
cafe
2c0f
0000
0000
0138
cafe
300f
0000
0000
013b
cafe
340f
0000
0000
0139
cafe
380f
0000
0000
0138
cafe
3c0f
0000
0000
0134
cafe
200f
0000
0000
012f
cafe
240f
0000
0000
012e
cafe
280f
0000
0000
0135
cafe
2c0f
0000
0000
0133
cafe
300f
0000
0000
0137
cafe
340f
0000
0000
012f
cafe
380f
0000
0000
0134
cafe
3c0f
0000
0000
0137
cafe
200f
0000
0000
0136
cafe
240f
0000
0000
0139
cafe
280f
0000
0000
013a
cafe
2c0f
0000
0000
0138
cafe
300f
0000
0000
0138
cafe
340f
0000
0000
0137
cafe
380f
0000
0000
0133
cafe
3c0f
0000
0000
0132
cafe
200f
0000
0000
0130
cafe
240f
0000
0000
0134
cafe
280f
0000
0000
0135
cafe
2c0f
0000
0000
0139
cafe
300f
0000
0000
0134
cafe
340f
0000
0000
0135
cafe
380f
-
0000
0000
0139
cafe
3c0f
0000
0000
0139
cafe
200f
0000
0000
013c
cafe
240f
0000
0000
0137
cafe
280f
0000
0000
013b
cafe
2c0f
0000
0000
013b
cafe
300f
0000
0000
0136
cafe
340f
0000
0000
0135
cafe
380f
0000
0000
013d
cafe
3c0f
0000
0000
013b
cafe
200f
0000
0000
013b
cafe
240f
0000
0000
0132
cafe
280f
0000
0000
0137
cafe
2c0f
0000
0000
013c
cafe
300f
0000
0000
0139
cafe
340f
0000
0000
0138
cafe
380f
0000
0000
0139
cafe
3c0f
0000
0000
0136
cafe
200f
0000
0000
0138
cafe
240f
0000
0000
0138
cafe
280f
0000
0000
0137
cafe
2c0f
0000
0000
0139
cafe
300f
0000
0000
0138
cafe
340f
0000
0000
0133
cafe
380f
0000
0000
0137
cafe
3c0f
0000
0000
0138
cafe
200f
0000
0000
0139
cafe
240f
0000
0000
0137
cafe
280f
0000
0000
0137
cafe
2c0f
0000
0000
0138
cafe
300f
0000
0000
0134
cafe
340f
0000
0000
0133
cafe
380f
0000
0000
013b
cafe
3c0f
0000
0000
0136
cafe
200f
0000
0000
0137
cafe
240f
0000
0000
0133
cafe
280f
0000
0000
0135
cafe
2c0f
0000
0000
0133
cafe
300f
0000
0000
0137
cafe
340f
0000
0000
0133
cafe
380f
0000
0000
0133
cafe
3c0f
0000
0000
0137
cafe
200f
0000
0000
013c
cafe
240f
0000
0000
0132
cafe
280f
0000
0000
012f
cafe
2c0f
0000
0000
0135
cafe
300f
0000
0000
0136
cafe
340f
0000
0000
0135
cafe
380f
0000
0000
0135
cafe
3c0f
0000
0000
0132
cafe
200f
0000
0000
0136
cafe
240f
0000
-
0000
0136
cafe
280f
0000
0000
0137
cafe
2c0f
0000
0000
0135
cafe
300f
0000
0000
0133
cafe
340f
0000
0000
0136
cafe
380f
0000
0000
0136
cafe
3c0f
0000
0000
0139
cafe
200f
0000
0000
0139
cafe
240f
0000
0000
0138
cafe
280f
0000
0000
0137
cafe
2c0f
0000
0000
013d
cafe
300f
0000
0000
013a
cafe
340f
0000
0000
013a
cafe
380f
0000
0000
0138
cafe
3c0f
0000
0000
0137
cafe
200f
0000
0000
0137
cafe
240f
0000
0000
0138
cafe
280f
0000
0000
0135
cafe
2c0f
0000
0000
0137
cafe
300f
0000
0000
0139
cafe
340f
0000
0000
0140
cafe
380f
0000
0000
0137
cafe
3c0f
0000
0000
0136
cafe
200f
0000
0000
013a
cafe
240f
0000
0000
0138
cafe
280f
0000
0000
0134
cafe
2c0f
0000
0000
0138
cafe
300f
0000
0000
0137
cafe
340f
0000
0000
0137
cafe
380f
0000
0000
013a
cafe
3c0f
0000
0000
0138
cafe
200f
0000
0000
0131
cafe
240f
0000
0000
0134
cafe
280f
0000
0000
0133
cafe
2c0f
0000
0000
0138
cafe
300f
0000
0000
013a
cafe
340f
0000
0000
0137
cafe
380f
0000
0000
0139
cafe
3c0f
0000
0000
0134
cafe
200f
0000
0000
0136
cafe
240f
0000
0000
013a
cafe
280f
0000
0000
0139
cafe
2c0f
0000
0000
013b
cafe
300f
0000
0000
013a
cafe
340f
0000
0000
0136
cafe
380f
0000
0000
0134
cafe
3c0f
0000
0000
013a
cafe
200f
0000
0000
0138
cafe
240f
0000
0000
013a
cafe
280f
0000
0000
013d
cafe
2c0f
0000
0000
0137
cafe
300f
0000
0000
-
013f
cafe
340f
0000
0000
013c
cafe
380f
0000
0000
013c
cafe
3c0f
0000
0000
013e
cafe
200f
0000
0000
0139
cafe
240f
0000
0000
0135
cafe
280f
0000
0000
0138
cafe
2c0f
0000
0000
0138
cafe
300f
0000
0000
013c
cafe
340f
0000
0000
013a
cafe
380f
0000
0000
013a
cafe
3c0f
0000
0000
013b
cafe
200f
0000
0000
013c
cafe
240f
0000
0000
013a
cafe
280f
0000
0000
013d
cafe
2c0f
0000
0000
0138
cafe
300f
0000
0000
013d
cafe
340f
0000
0000
013b
cafe
380f
0000
0000
013d
cafe
3c0f
0000
0000
0137
cafe
200f
0000
0000
013c
cafe
240f
0000
0000
013b
cafe
280f
0000
0000
013f
cafe
2c0f
0000
0000
013d
cafe
300f
0000
0000
013f
cafe
340f
0000
0000
013a
cafe
380f
0000
0000
013b
cafe
3c0f
0000
0000
013c
cafe
200f
0000
0000
013b
cafe
240f
0000
0000
013c
cafe
280f
0000
0000
013d
cafe
2c0f
0000
0000
013e
cafe
300f
0000
0000
013a
cafe
340f
0000
0000
0134
cafe
380f
0000
0000
013b
cafe
3c0f
0000
0000
0139
cafe
200f
0000
0000
013d
cafe
240f
0000
0000
0138
cafe
280f
0000
0000
0137
cafe
2c0f
0000
0000
0135
cafe
300f
0000
0000
0136
cafe
340f
0000
0000
0137
cafe
380f
0000
0000
0136
cafe
3c0f
0000
0000
013c
cafe
200f
0000
0000
013d
cafe
240f
0000
0000
013c
cafe
280f
0000
0000
013b
cafe
2c0f
0000
0000
0131
cafe
300f
0000
0000
0133
cafe
340f
0000
0000
0136
cafe
380f
0000
0000
0139
cafe
3c0f
0000
0000
013c
-
