300e
5555
fd60
0213
cafe
341e
5555
fd60
01a9
cafe
3806
5555
fd60
019a
cafe
3c16
5555
fd64
01fd
cafe
200f
5555
fd64
01ed
cafe
241f
5555
fd64
0128
cafe
2807
5555
fd64
0220
cafe
2c17
5555
fd68
016e
cafe
3008
5555
fd68
0220
cafe
3418
5555
fd68
0140
cafe
3800
5555
fd68
0138
cafe
3c10
5555
fd6c
019c
cafe
2009
5555
fd6c
01ab
cafe
2419
5555
fd6c
01bb
cafe
2801
5555
fd6c
01e8
cafe
2c11
5555
fd70
01eb
cafe
300a
5555
fd70
0231
cafe
341a
5555
fd70
0196
cafe
3802
5555
fd70
01f0
cafe
3c12
5555
fd74
01d7
cafe
200b
5555
fd74
0137
cafe
241b
5555
fd74
0168
cafe
2803
5555
fd74
0171
cafe
2c13
5555
fd78
01e2
cafe
300c
5555
fd78
0205
cafe
341c
5555
fd78
0190
cafe
3804
5555
fd78
01ef
cafe
3c14
5555
fd7c
01d9
cafe
200d
5555
fd7c
0118
cafe
241d
5555
fd7c
01c1
cafe
2805
5555
fd7c
01d5
cafe
2c15
5555
fd80
0254
cafe
300e
5555
fd80
0205
cafe
341e
5555
fd80
01a6
cafe
3806
5555
fd80
019f
cafe
3c16
5555
fd84
01f5
cafe
200f
5555
fd84
01e9
cafe
241f
5555
fd84
0121
cafe
2807
5555
fd84
023c
cafe
2c17
5555
fd88
0178
cafe
3008
5555
fd88
0223
cafe
3418
5555
fd88
0141
cafe
3800
5555
fd88
0156
cafe
3c10
5555
fd8c
0189
cafe
2009
5555
fd8c
01a7
cafe
2419
5555
fd8c
01af
cafe
2801
5555
fd8c
01f2
cafe
2c11
5555
fd90
01f0
cafe
300a
5555
fd90
021c
cafe
341a
5555
fd90
018f
cafe
3802
5555
fd90
01e8
cafe
3c12
-
5555
fd94
01ca
cafe
200b
5555
fd94
0141
cafe
241b
5555
fd94
0157
cafe
2803
5555
fd94
017c
cafe
2c13
5555
fd98
01e5
cafe
300c
5555
fd98
01f3
cafe
341c
5555
fd98
0189
cafe
3804
5555
fd98
01e1
cafe
3c14
5555
fd9c
01c6
cafe
200d
5555
fd9c
0119
cafe
241d
5555
fd9c
01be
cafe
2805
5555
fd9c
01e3
cafe
2c15
5555
fda0
0253
cafe
300e
5555
fda0
01f3
cafe
341e
5555
fda0
0196
cafe
3806
5555
fda0
018f
cafe
3c16
5555
fda4
01f3
cafe
200f
5555
fda4
01f8
cafe
241f
5555
fda4
0134
cafe
2807
5555
fda4
023e
cafe
2c17
5555
fda8
016c
cafe
3008
5555
fda8
0210
cafe
3418
5555
fda8
015a
cafe
3800
5555
fda8
013c
cafe
3c10
5555
fdac
019f
cafe
2009
5555
fdac
01a3
cafe
2419
5555
fdac
01c0
cafe
2801
5555
fdac
01df
cafe
2c11
5555
fdb0
01e3
cafe
300a
5555
fdb0
021e
cafe
341a
5555
fdb0
018c
cafe
3802
5555
fdb0
01db
cafe
3c12
5555
fdb4
01d9
cafe
200b
5555
fdb4
0156
cafe
241b
5555
fdb4
016d
cafe
2803
5555
fdb4
0179
cafe
2c13
5555
fdb8
01f7
cafe
300c
5555
fdb8
0200
cafe
341c
5555
fdb8
0193
cafe
3804
5555
fdb8
01e0
cafe
3c14
5555
fdbc
01c1
cafe
200d
5555
fdbc
0128
cafe
241d
5555
fdbc
01be
cafe
2805
5555
fdbc
01e5
cafe
2c15
5555
fdc0
0250
cafe
300e
5555
fdc0
01fb
cafe
341e
5555
fdc0
01a8
cafe
3806
5555
fdc0
0194
cafe
3c16
5555
fdc4
01f7
cafe
200f
5555
fdc4
0202
cafe
241f
5555
fdc4
0139
cafe
2807
5555
-
fdc4
023e
cafe
2c17
5555
fdc8
0177
cafe
3008
5555
fdc8
022c
cafe
3418
5555
fdc8
0163
cafe
3800
5555
fdc8
015f
cafe
3c10
5555
fdcc
0193
cafe
2009
5555
fdcc
0192
cafe
2419
5555
fdcc
01a9
cafe
2801
5555
fdcc
01e4
cafe
2c11
5555
fdd0
01f1
cafe
300a
5555
fdd0
0215
cafe
341a
5555
fdd0
01a7
cafe
3802
5555
fdd0
01d4
cafe
3c12
5555
fdd4
01c4
cafe
200b
5555
fdd4
0141
cafe
241b
5555
fdd4
0166
cafe
2803
5555
fdd4
0178
cafe
2c13
5555
fdd8
01ed
cafe
300c
5555
fdd8
01f6
cafe
341c
5555
fdd8
018a
cafe
3804
5555
fdd8
01d4
cafe
3c14
5555
fddc
01d0
cafe
200d
5555
fddc
011a
cafe
241d
5555
fddc
01b5
cafe
2805
5555
fddc
01e9
cafe
2c15
5555
fde0
0249
cafe
300e
5555
fde0
01f0
cafe
341e
5555
fde0
0194
cafe
3806
5555
fde0
0197
cafe
3c16
5555
fde4
01f4
cafe
200f
5555
fde4
0213
cafe
241f
5555
fde4
012c
cafe
2807
5555
fde4
023c
cafe
2c17
5555
fde8
0161
cafe
3008
5555
fde8
0227
cafe
3418
5555
fde8
0156
cafe
3800
5555
fde8
0156
cafe
3c10
5555
fdec
018d
cafe
2009
5555
fdec
01a1
cafe
2419
5555
fdec
01b3
cafe
2801
5555
fdec
01e4
cafe
2c11
5555
fdf0
01f1
cafe
300a
5555
fdf0
020b
cafe
341a
5555
fdf0
0188
cafe
3802
5555
fdf0
01d1
cafe
3c12
5555
fdf4
01ca
cafe
200b
5555
fdf4
0148
cafe
241b
5555
fdf4
0165
cafe
2803
5555
fdf4
0186
cafe
2c13
5555
fdf8
01e5
cafe
300c
5555
fdf8
0200
cafe
341c
5555
fdf8
-
018a
cafe
3804
5555
fdf8
01da
cafe
3c14
5555
fdfc
01c5
cafe
200d
5555
fdfc
0128
cafe
241d
5555
fdfc
01ba
cafe
2805
5555
fdfc
01e9
cafe
2c15
5555
fe00
024d
cafe
300e
5555
fe00
01f5
cafe
341e
5555
fe00
019a
cafe
3806
5555
fe00
017c
cafe
3c16
5555
fe04
01fb
cafe
200f
5555
fe04
0201
cafe
241f
5555
fe04
0129
cafe
2807
5555
fe04
0231
cafe
2c17
5555
fe08
016a
cafe
3008
5555
fe08
0236
cafe
3418
5555
fe08
0147
cafe
3800
5555
fe08
014b
cafe
3c10
5555
fe0c
0195
cafe
2009
5555
fe0c
01af
cafe
2419
5555
fe0c
01af
cafe
2801
5555
fe0c
01d0
cafe
2c11
5555
fe10
01ed
cafe
300a
5555
fe10
0216
cafe
341a
5555
fe10
0189
cafe
3802
5555
fe10
01e2
cafe
3c12
5555
fe14
01bd
cafe
200b
5555
fe14
0148
cafe
241b
5555
fe14
0176
cafe
2803
5555
fe14
016f
cafe
2c13
5555
fe18
01fc
cafe
300c
5555
fe18
01f8
cafe
341c
5555
fe18
0182
cafe
3804
5555
fe18
01ce
cafe
3c14
5555
fe1c
01c7
cafe
200d
5555
fe1c
011e
cafe
241d
5555
fe1c
01af
cafe
2805
5555
fe1c
01d3
cafe
2c15
5555
fe20
024e
cafe
300e
5555
fe20
0204
cafe
341e
5555
fe20
01a3
cafe
3806
5555
fe20
0197
cafe
3c16
5555
fe24
01f4
cafe
200f
5555
fe24
01f6
cafe
241f
5555
fe24
013e
cafe
2807
5555
fe24
022c
cafe
2c17
5555
fe28
016e
cafe
3008
5555
fe28
0225
cafe
3418
5555
fe28
0140
cafe
3800
5555
fe28
013f
cafe
3c10
5555
fe2c
01a0
cafe
2009
5555
fe2c
01a3
-
cafe
2419
5555
fe2c
01bd
cafe
2801
5555
fe2c
01f9
cafe
2c11
5555
fe30
01e3
cafe
300a
5555
fe30
0222
cafe
341a
5555
fe30
01a2
cafe
3802
5555
fe30
01da
cafe
3c12
5555
fe34
01c4
cafe
200b
5555
fe34
013a
cafe
241b
5555
fe34
016e
cafe
2803
5555
fe34
0170
cafe
2c13
5555
fe38
01f3
cafe
300c
5555
fe38
01e9
cafe
341c
5555
fe38
0187
cafe
3804
5555
fe38
01d8
cafe
3c14
5555
fe3c
01c7
cafe
200d
5555
fe3c
0128
cafe
241d
5555
fe3c
01b7
cafe
2805
5555
fe3c
01e4
cafe
2c15
5555
fe40
024a
cafe
300e
5555
fe40
01ee
cafe
341e
5555
fe40
0195
cafe
3806
5555
fe40
019f
cafe
3c16
5555
fe44
01e5
cafe
200f
5555
fe44
0205
cafe
241f
5555
fe44
0125
cafe
2807
5555
fe44
0224
cafe
2c17
5555
fe48
0171
cafe
3008
5555
fe48
0218
cafe
3418
5555
fe48
014c
cafe
3800
5555
fe48
012e
cafe
3c10
5555
fe4c
019a
cafe
2009
5555
fe4c
019d
cafe
2419
5555
fe4c
01b4
cafe
2801
5555
fe4c
01da
cafe
2c11
5555
fe50
01f0
cafe
300a
5555
fe50
021e
cafe
341a
5555
fe50
018c
cafe
3802
5555
fe50
01d8
cafe
3c12
5555
fe54
01c0
cafe
200b
5555
fe54
0138
cafe
241b
5555
fe54
0156
cafe
2803
5555
fe54
0172
cafe
2c13
5555
fe58
01df
cafe
300c
5555
fe58
01ee
cafe
341c
5555
fe58
017c
cafe
3804
5555
fe58
01c8
cafe
3c14
5555
fe5c
01c2
cafe
200d
5555
fe5c
0119
cafe
241d
5555
fe5c
01bb
cafe
2805
5555
fe5c
01db
cafe
2c15
5555
fe60
0246
cafe
-
300e
5555
fe60
01ed
cafe
341e
5555
fe60
019a
cafe
3806
5555
fe60
018c
cafe
3c16
5555
fe64
01fd
cafe
200f
5555
fe64
0205
cafe
241f
5555
fe64
0129
cafe
2807
5555
fe64
0240
cafe
2c17
5555
fe68
0162
cafe
3008
5555
fe68
022b
cafe
3418
5555
fe68
0159
cafe
3800
5555
fe68
0149
cafe
3c10
5555
fe6c
0199
cafe
2009
5555
fe6c
01ae
cafe
2419
5555
fe6c
01be
cafe
2801
5555
fe6c
01ed
cafe
2c11
5555
fe70
01e2
cafe
300a
5555
fe70
021c
cafe
341a
5555
fe70
0196
cafe
3802
5555
fe70
01db
cafe
3c12
5555
fe74
01d9
cafe
200b
5555
fe74
013a
cafe
241b
5555
fe74
0152
cafe
2803
5555
fe74
0171
cafe
2c13
5555
fe78
01e9
cafe
300c
5555
fe78
01e3
cafe
341c
5555
fe78
017a
cafe
3804
5555
fe78
01dd
cafe
3c14
5555
fe7c
01be
cafe
200d
5555
fe7c
011b
cafe
241d
5555
fe7c
01c5
cafe
2805
5555
fe7c
01ce
cafe
2c15
5555
fe80
024c
cafe
300e
5555
fe80
01e9
cafe
341e
5555
fe80
018b
cafe
3806
5555
fe80
01a0
cafe
3c16
5555
fe84
01ec
cafe
200f
5555
fe84
0216
cafe
241f
5555
fe84
012d
cafe
2807
5555
fe84
0233
cafe
2c17
5555
fe88
015c
cafe
3008
5555
fe88
0226
cafe
3418
5555
fe88
0144
cafe
3800
5555
fe88
0131
cafe
3c10
5555
fe8c
0187
cafe
2009
5555
fe8c
01a9
cafe
2419
5555
fe8c
01a1
cafe
2801
5555
fe8c
01ec
cafe
2c11
5555
fe90
01f3
cafe
300a
5555
fe90
022d
cafe
341a
5555
fe90
0198
cafe
3802
5555
fe90
01d5
cafe
3c12
-
5555
fe94
01db
cafe
200b
5555
fe94
013f
cafe
241b
5555
fe94
015b
cafe
2803
5555
fe94
0178
cafe
2c13
5555
fe98
01f2
cafe
300c
5555
fe98
01fc
cafe
341c
5555
fe98
017a
cafe
3804
5555
fe98
01dd
cafe
3c14
5555
fe9c
01c7
cafe
200d
5555
fe9c
011a
cafe
241d
5555
fe9c
01bb
cafe
2805
5555
fe9c
01dc
cafe
2c15
5555
fea0
023b
cafe
300e
5555
fea0
01f4
cafe
341e
5555
fea0
018d
cafe
3806
5555
fea0
019f
cafe
3c16
5555
fea4
0202
cafe
200f
5555
fea4
0209
cafe
241f
5555
fea4
013a
cafe
2807
5555
fea4
0234
cafe
2c17
5555
fea8
0164
cafe
3008
5555
fea8
022f
cafe
3418
5555
fea8
014f
cafe
3800
5555
fea8
0140
cafe
3c10
5555
feac
0197
cafe
2009
5555
feac
01a9
cafe
2419
5555
feac
01af
cafe
2801
5555
feac
01cd
cafe
2c11
5555
feb0
01ef
cafe
300a
5555
feb0
0224
cafe
341a
5555
feb0
0199
cafe
3802
5555
feb0
01cf
cafe
3c12
5555
feb4
01cd
cafe
200b
5555
feb4
0135
cafe
241b
5555
feb4
0161
cafe
2803
5555
feb4
0187
cafe
2c13
5555
feb8
01dd
cafe
300c
5555
feb8
01f2
cafe
341c
5555
feb8
018b
cafe
3804
5555
feb8
01dd
cafe
3c14
5555
febc
01d1
cafe
200d
5555
febc
0115
cafe
241d
5555
febc
01ae
cafe
2805
5555
febc
01ce
cafe
2c15
5555
fec0
0244
cafe
300e
5555
fec0
01f9
cafe
341e
5555
fec0
0190
cafe
3806
5555
fec0
0192
cafe
3c16
5555
fec4
020a
cafe
200f
5555
fec4
0200
cafe
241f
5555
fec4
0130
cafe
2807
5555
-
fec4
023a
cafe
2c17
5555
fec8
0160
cafe
3008
5555
fec8
021a
cafe
3418
5555
fec8
0152
cafe
3800
5555
fec8
0160
cafe
3c10
5555
fecc
018f
cafe
2009
5555
fecc
01b0
cafe
2419
5555
fecc
01b4
cafe
2801
5555
fecc
01fe
cafe
2c11
5555
fed0
01f1
cafe
300a
5555
fed0
022d
cafe
341a
5555
fed0
019c
cafe
3802
5555
fed0
01c6
cafe
3c12
5555
fed4
01d6
cafe
200b
5555
fed4
0141
cafe
241b
5555
fed4
016b
cafe
2803
5555
fed4
0182
cafe
2c13
5555
fed8
01e9
cafe
300c
5555
fed8
01e2
cafe
341c
5555
fed8
0189
cafe
3804
5555
fed8
01d3
cafe
3c14
5555
fedc
01d2
cafe
200d
5555
fedc
012d
cafe
241d
5555
fedc
01aa
cafe
2805
5555
fedc
01e2
cafe
2c15
5555
fee0
0244
cafe
300e
5555
fee0
01f4
cafe
341e
5555
fee0
019e
cafe
3806
5555
fee0
0193
cafe
3c16
5555
fee4
01f5
cafe
200f
5555
fee4
020b
cafe
241f
5555
fee4
012e
cafe
2807
5555
fee4
023b
cafe
2c17
5555
fee8
016c
cafe
3008
5555
fee8
0224
cafe
3418
5555
fee8
0154
cafe
3800
5555
fee8
014e
cafe
3c10
5555
feec
018f
cafe
2009
5555
feec
01b0
cafe
2419
5555
feec
01b8
cafe
2801
5555
feec
01e8
cafe
2c11
5555
fef0
01f9
cafe
300a
5555
fef0
0220
cafe
341a
5555
fef0
0192
cafe
3802
5555
fef0
01db
cafe
3c12
5555
fef4
01da
cafe
200b
5555
fef4
0142
cafe
241b
5555
fef4
015d
cafe
2803
5555
fef4
0178
cafe
2c13
5555
fef8
01f4
cafe
300c
5555
fef8
01e3
cafe
341c
5555
fef8
-
018e
cafe
3804
5555
fef8
01c8
cafe
3c14
5555
fefc
01c9
cafe
200d
5555
fefc
0130
cafe
241d
5555
fefc
01ad
cafe
2805
5555
fefc
01de
cafe
2c15
5555
ff00
023a
cafe
300e
5555
ff00
01fb
cafe
341e
5555
ff00
019b
cafe
3806
5555
ff00
0182
cafe
3c16
5555
ff04
01e4
cafe
200f
5555
ff04
0201
cafe
241f
5555
ff04
012b
cafe
2807
5555
ff04
0239
cafe
2c17
5555
ff08
0178
cafe
3008
5555
ff08
0220
cafe
3418
5555
ff08
0151
cafe
3800
5555
ff08
0146
cafe
3c10
5555
ff0c
0188
cafe
2009
5555
ff0c
01ad
cafe
2419
5555
ff0c
01a7
cafe
2801
5555
ff0c
01eb
cafe
2c11
5555
ff10
01fe
cafe
300a
5555
ff10
0224
cafe
341a
5555
ff10
01a0
cafe
3802
5555
ff10
01d5
cafe
3c12
5555
ff14
01d2
cafe
200b
5555
ff14
0142
cafe
241b
5555
ff14
016e
cafe
2803
5555
ff14
0174
cafe
2c13
5555
ff18
01f8
cafe
300c
5555
ff18
01e5
cafe
341c
5555
ff18
0186
cafe
3804
5555
ff18
01df
cafe
3c14
5555
ff1c
01d7
cafe
200d
5555
ff1c
0115
cafe
241d
5555
ff1c
01a9
cafe
2805
5555
ff1c
01e8
cafe
2c15
5555
ff20
0253
cafe
300e
5555
ff20
01f5
cafe
341e
5555
ff20
0189
cafe
3806
5555
ff20
0184
cafe
3c16
5555
ff24
01e6
cafe
200f
5555
ff24
0200
cafe
241f
5555
ff24
0136
cafe
2807
5555
ff24
022a
cafe
2c17
5555
ff28
016e
cafe
3008
5555
ff28
021c
cafe
3418
5555
ff28
0146
cafe
3800
5555
ff28
0155
cafe
3c10
5555
ff2c
019a
cafe
2009
5555
ff2c
01ba
-
cafe
2419
5555
ff2c
01bd
cafe
2801
5555
ff2c
01e7
cafe
2c11
5555
ff30
01e1
cafe
300a
5555
ff30
0225
cafe
341a
5555
ff30
0190
cafe
3802
5555
ff30
01fb
cafe
3c12
5555
ff34
01d0
cafe
200b
5555
ff34
0143
cafe
241b
5555
ff34
0169
cafe
2803
5555
ff34
0168
cafe
2c13
5555
ff38
01ee
cafe
300c
5555
ff38
01f0
cafe
341c
5555
ff38
0192
cafe
3804
5555
ff38
01c8
cafe
3c14
5555
ff3c
01cb
cafe
200d
5555
ff3c
0129
cafe
241d
5555
ff3c
01bc
cafe
2805
5555
ff3c
01ec
cafe
2c15
5555
ff40
0252
cafe
300e
5555
ff40
01e7
cafe
341e
5555
ff40
019a
cafe
3806
5555
ff40
0194
cafe
3c16
5555
ff44
01e6
cafe
200f
5555
ff44
020d
cafe
241f
5555
ff44
013a
cafe
2807
5555
ff44
0225
cafe
2c17
5555
ff48
0171
cafe
3008
5555
ff48
0224
cafe
3418
5555
ff48
0150
cafe
3800
5555
ff48
016b
cafe
3c10
5555
ff4c
019c
cafe
2009
5555
ff4c
01b9
cafe
2419
5555
ff4c
01aa
cafe
2801
5555
ff4c
01dc
cafe
2c11
5555
ff50
01e9
cafe
300a
5555
ff50
0225
cafe
341a
5555
ff50
0196
cafe
3802
5555
ff50
01f5
cafe
3c12
5555
ff54
01c7
cafe
200b
5555
ff54
013e
cafe
241b
5555
ff54
016e
cafe
2803
5555
ff54
0160
cafe
2c13
5555
ff58
01eb
cafe
300c
5555
ff58
01f8
cafe
341c
5555
ff58
0191
cafe
3804
5555
ff58
01cd
cafe
3c14
5555
ff5c
01c8
cafe
200d
5555
ff5c
0123
cafe
241d
5555
ff5c
01ae
cafe
2805
5555
ff5c
01e4
cafe
2c15
5555
ff60
026b
cafe
-
300e
5555
ff60
020c
cafe
341e
5555
ff60
018a
cafe
3806
5555
ff60
0193
cafe
3c16
5555
ff64
01fb
cafe
200f
5555
ff64
0206
cafe
241f
5555
ff64
012e
cafe
2807
5555
ff64
0239
cafe
2c17
5555
ff68
0177
cafe
3008
5555
ff68
0215
cafe
3418
5555
ff68
014e
cafe
3800
5555
ff68
014c
cafe
3c10
5555
ff6c
019a
cafe
2009
5555
ff6c
01b0
cafe
2419
5555
ff6c
01ab
cafe
2801
5555
ff6c
01e2
cafe
2c11
5555
ff70
0205
cafe
300a
5555
ff70
0230
cafe
341a
5555
ff70
019a
cafe
3802
5555
ff70
01df
cafe
3c12
5555
ff74
01cd
cafe
200b
5555
ff74
013b
cafe
241b
5555
ff74
0174
cafe
2803
5555
ff74
0166
cafe
2c13
5555
ff78
01e4
cafe
300c
5555
ff78
01fa
cafe
341c
5555
ff78
01a9
cafe
3804
5555
ff78
01c8
cafe
3c14
5555
ff7c
01c8
cafe
200d
5555
ff7c
0117
cafe
241d
5555
ff7c
01ab
cafe
2805
5555
ff7c
01f1
cafe
2c15
5555
ff80
024e
cafe
300e
5555
ff80
01fd
cafe
341e
5555
ff80
0194
cafe
3806
5555
ff80
0188
cafe
3c16
5555
ff84
0202
cafe
200f
5555
ff84
01f7
cafe
241f
5555
ff84
012c
cafe
2807
5555
ff84
023b
cafe
2c17
5555
ff88
0166
cafe
3008
5555
ff88
0219
cafe
3418
5555
ff88
014a
cafe
3800
5555
ff88
013f
cafe
3c10
5555
ff8c
018a
cafe
2009
5555
ff8c
04a4
cafe
2419
5555
ff8c
04c7
cafe
2801
5555
ff8c
04be
cafe
2c11
5555
ff90
04eb
cafe
300a
5555
ff90
08fa
cafe
341a
5555
ff90
0888
cafe
3802
5555
ff90
08a9
cafe
3c12
-
5555
ff94
0889
cafe
200b
5555
ff94
08e8
cafe
241b
5555
ff94
091e
cafe
2803
5555
ff94
08fb
cafe
2c13
5555
ff98
0994
cafe
300c
5555
ff98
09be
cafe
341c
5555
ff98
095a
cafe
3804
5555
ff98
0987
cafe
3c14
5555
ff9c
099b
cafe
200d
5555
ff9c
08c0
cafe
241d
5555
ff9c
0978
cafe
2805
5555
ff9c
0972
cafe
2c15
5555
ffa0
0a08
cafe
300e
5555
ffa0
09a7
cafe
341e
5555
ffa0
0956
cafe
3806
5555
ffa0
0900
cafe
3c16
5555
ffa4
09a4
cafe
200f
5555
ffa4
0994
cafe
241f
5555
ffa4
08c6
cafe
2807
5555
ffa4
09b1
cafe
2c17
5555
ffa8
08ef
cafe
3008
5555
ffa8
09bc
cafe
3418
5555
ffa8
08dd
cafe
3800
5555
ffa8
08d5
cafe
3c10
5555
ffac
0907
cafe
2009
5555
ffac
0914
cafe
2419
5555
ffac
0915
cafe
2801
5555
ffac
0947
cafe
2c11
5555
ffb0
0950
cafe
300a
5555
ffb0
098e
cafe
341a
5555
ffb0
08fe
cafe
3802
5555
ffb0
093e
cafe
3c12
5555
ffb4
0920
cafe
200b
5555
ffb4
087a
cafe
241b
5555
ffb4
08c5
cafe
2803
5555
ffb4
0891
cafe
2c13
5555
ffb8
0949
cafe
300c
5555
ffb8
0935
cafe
341c
5555
ffb8
08d9
cafe
3804
5555
ffb8
08ec
cafe
3c14
5555
ffbc
090f
cafe
200d
5555
ffbc
0836
cafe
241d
5555
ffbc
08f9
cafe
2805
5555
ffbc
08f9
cafe
2c15
5555
ffc0
098e
cafe
300e
5555
ffc0
091f
cafe
341e
5555
ffc0
08c7
cafe
3806
5555
ffc0
087c
cafe
3c16
5555
ffc4
0931
cafe
200f
5555
ffc4
0908
cafe
241f
5555
ffc4
083b
cafe
2807
5555
-
ffc4
0920
cafe
2c17
5555
ffc8
086c
cafe
3008
5555
ffc8
0932
cafe
3418
5555
ffc8
0850
cafe
3800
5555
ffc8
0851
cafe
3c10
5555
ffcc
0887
cafe
2009
5555
ffcc
08a5
cafe
2419
5555
ffcc
089f
cafe
2801
5555
ffcc
08ed
cafe
2c11
5555
ffd0
08d9
cafe
300a
5555
ffd0
0913
cafe
341a
5555
ffd0
0890
cafe
3802
5555
ffd0
08a9
cafe
3c12
5555
ffd4
08af
cafe
200b
5555
ffd4
07f4
cafe
241b
5555
ffd4
0827
cafe
2803
5555
ffd4
0829
cafe
2c13
5555
ffd8
08bb
cafe
300c
5555
ffd8
08c3
cafe
341c
5555
ffd8
0862
cafe
3804
5555
ffd8
0875
cafe
3c14
5555
ffdc
0884
cafe
200d
5555
ffdc
07a7
cafe
241d
5555
ffdc
086b
cafe
2805
5555
ffdc
087f
cafe
2c15
5555
ffe0
0911
cafe
300e
5555
ffe0
08a5
cafe
341e
5555
ffe0
084c
cafe
3806
5555
ffe0
07f4
cafe
3c16
5555
ffe4
08ae
cafe
200f
5555
ffe4
089b
cafe
241f
5555
ffe4
07bb
cafe
2807
5555
ffe4
08ba
cafe
2c17
5555
ffe8
07ef
cafe
3008
5555
ffe8
08cc
cafe
3418
5555
ffe8
07c2
cafe
3800
5555
ffe8
07cb
cafe
3c10
5555
ffec
0827
cafe
2009
5555
ffec
081e
cafe
2419
5555
ffec
0825
cafe
2801
5555
ffec
0870
cafe
2c11
5555
fff0
085c
cafe
300a
5555
fff0
0883
cafe
341a
5555
fff0
0807
cafe
3802
5555
fff0
083e
cafe
3c12
5555
fff4
082a
cafe
200b
5555
fff4
0778
cafe
241b
5555
fff4
07a7
cafe
2803
5555
fff4
0788
cafe
2c13
5555
fff8
0842
cafe
300c
5555
fff8
084c
cafe
341c
5555
fff8
-
07e2
cafe
3804
5555
fff8
07fc
cafe
3c14
5555
fffc
0811
cafe
200d
5555
fffc
0747
cafe
241d
5555
fffc
0800
cafe
2805
5555
fffc
081f
cafe
2c15
5556
0000
089f
cafe
300e
5556
0000
0823
cafe
341e
5556
0000
07dd
cafe
3806
5556
0000
07a7
cafe
3c16
5556
0004
0830
cafe
200f
5556
0004
0821
cafe
241f
5556
0004
0749
cafe
2807
5556
0004
082f
cafe
2c17
5556
0008
077f
cafe
3008
5556
0008
0840
cafe
3418
5556
0008
0760
cafe
3800
5556
0008
071c
cafe
3c10
5556
000c
07a2
cafe
2009
5556
000c
07ac
cafe
2419
5556
000c
07a9
cafe
2801
5556
000c
07da
cafe
2c11
5556
0010
07e7
cafe
300a
5556
0010
082b
cafe
341a
5556
0010
0794
cafe
3802
5556
0010
07c9
cafe
3c12
5556
0014
07c0
cafe
200b
5556
0014
0712
cafe
241b
5556
0014
073c
cafe
2803
5556
0014
0723
cafe
2c13
5556
0018
07d8
cafe
300c
5556
0018
07d5
cafe
341c
5556
0018
0772
cafe
3804
5556
0018
077f
cafe
3c14
5556
001c
0798
cafe
200d
5556
001c
06bf
cafe
241d
5556
001c
0780
cafe
2805
5556
001c
07a8
cafe
2c15
5556
0020
0829
cafe
300e
5556
0020
07b6
cafe
341e
5556
0020
0747
cafe
3806
5556
0020
0732
cafe
3c16
5556
0024
07bd
cafe
200f
5556
0024
07c1
cafe
241f
5556
0024
06ee
cafe
2807
5556
0024
07b6
cafe
2c17
5556
0028
06fd
cafe
3008
5556
0028
07ee
cafe
3418
5556
0028
06d1
cafe
3800
5556
0028
06c5
cafe
3c10
5556
002c
0732
cafe
2009
5556
002c
074a
-
cafe
2419
5556
002c
0738
cafe
2801
5556
002c
079f
cafe
2c11
5556
0030
078c
cafe
300a
5556
0030
07bc
cafe
341a
5556
0030
0738
cafe
3802
5556
0030
074e
cafe
3c12
5556
0034
074b
cafe
200b
5556
0034
0690
cafe
241b
5556
0034
06da
cafe
2803
5556
0034
06bc
cafe
2c13
5556
0038
0770
cafe
300c
5556
0038
076a
cafe
341c
5556
0038
0710
cafe
3804
5556
0038
070a
cafe
3c14
5556
003c
0731
cafe
200d
5556
003c
0648
cafe
241d
5556
003c
0703
cafe
2805
5556
003c
0744
cafe
2c15
5556
0040
07d5
cafe
300e
5556
0040
073d
cafe
341e
5556
0040
06f1
cafe
3806
5556
0040
06aa
cafe
3c16
5556
0044
0757
cafe
200f
5556
0044
075a
cafe
241f
5556
0044
066b
cafe
2807
5556
0044
0778
cafe
2c17
5556
0048
0698
cafe
3008
5556
0048
077a
cafe
3418
5556
0048
0666
cafe
3800
5556
0048
0660
cafe
3c10
5556
004c
06bd
cafe
2009
5556
004c
06cb
cafe
2419
5556
004c
06c9
cafe
2801
5556
004c
0702
cafe
2c11
5556
0050
0722
cafe
300a
5556
0050
0753
cafe
341a
5556
0050
06b5
cafe
3802
5556
0050
06d6
cafe
3c12
5556
0054
06e0
cafe
200b
5556
0054
063f
cafe
241b
5556
0054
065d
cafe
2803
5556
0054
0675
cafe
2c13
5556
0058
0722
cafe
300c
5556
0058
0714
cafe
341c
5556
0058
06a7
cafe
3804
5556
0058
06b1
cafe
3c14
5556
005c
06cc
cafe
200d
5556
005c
05f2
cafe
241d
5556
005c
06ab
cafe
2805
5556
005c
06eb
cafe
2c15
5556
0060
076f
cafe
-
300e
5556
0060
06e9
cafe
341e
5556
0060
0691
cafe
3806
5556
0060
064b
cafe
3c16
5556
0064
06f3
cafe
200f
5556
0064
0703
cafe
241f
5556
0064
0625
cafe
2807
5556
0064
070a
cafe
2c17
5556
0068
0639
cafe
3008
5556
0068
0712
cafe
3418
5556
0068
060a
cafe
3800
5556
0068
0610
cafe
3c10
5556
006c
064b
cafe
2009
5556
006c
0680
cafe
2419
5556
006c
0665
cafe
2801
5556
006c
0694
cafe
2c11
5556
0070
06b5
cafe
300a
5556
0070
06f6
cafe
341a
5556
0070
065c
cafe
3802
5556
0070
0666
cafe
3c12
5556
0074
0679
cafe
200b
5556
0074
05d0
cafe
241b
5556
0074
05e8
cafe
2803
5556
0074
05f4
cafe
2c13
5556
0078
06a7
cafe
300c
5556
0078
069b
cafe
341c
5556
0078
064a
cafe
3804
5556
0078
0659
cafe
3c14
5556
007c
0653
cafe
200d
5556
007c
059c
cafe
241d
5556
007c
0649
cafe
2805
5556
007c
068b
cafe
2c15
5556
0080
0710
cafe
300e
5556
0080
0690
cafe
341e
5556
0080
062a
cafe
3806
5556
0080
05fb
cafe
3c16
5556
0084
0690
cafe
200f
5556
0084
069c
cafe
241f
5556
0084
059c
cafe
2807
5556
0084
06a5
cafe
2c17
5556
0088
05e6
cafe
3008
5556
0088
06b6
cafe
3418
5556
0088
05a8
cafe
3800
5556
0088
0590
cafe
3c10
5556
008c
05f9
cafe
2009
5556
008c
0634
cafe
2419
5556
008c
061c
cafe
2801
5556
008c
0667
cafe
2c11
5556
0090
0651
cafe
300a
5556
0090
069b
cafe
341a
5556
0090
0613
cafe
3802
5556
0090
061f
cafe
3c12
-
5556
0094
062f
cafe
200b
5556
0094
058d
cafe
241b
5556
0094
05a0
cafe
2803
5556
0094
05b6
cafe
2c13
5556
0098
065b
cafe
300c
5556
0098
0648
cafe
341c
5556
0098
05d4
cafe
3804
5556
0098
05f2
cafe
3c14
5556
009c
0613
cafe
200d
5556
009c
0531
cafe
241d
5556
009c
05e9
cafe
2805
5556
009c
062c
cafe
2c15
5556
00a0
06b0
cafe
300e
5556
00a0
0642
cafe
341e
5556
00a0
05d3
cafe
3806
5556
00a0
05a8
cafe
3c16
5556
00a4
0637
cafe
200f
5556
00a4
0648
cafe
241f
5556
00a4
054e
cafe
2807
5556
00a4
065c
cafe
2c17
5556
00a8
0588
cafe
3008
5556
00a8
0645
cafe
3418
5556
00a8
0529
cafe
3800
5556
00a8
051b
cafe
3c10
5556
00ac
0599
cafe
2009
5556
00ac
05de
cafe
2419
5556
00ac
05d7
cafe
2801
5556
00ac
060b
cafe
2c11
5556
00b0
0623
cafe
300a
5556
00b0
0662
cafe
341a
5556
00b0
05b6
cafe
3802
5556
00b0
05e1
cafe
3c12
5556
00b4
05dd
cafe
200b
5556
00b4
052e
cafe
241b
5556
00b4
0539
cafe
2803
5556
00b4
0546
cafe
2c13
5556
00b8
05f8
cafe
300c
5556
00b8
05f9
cafe
341c
5556
00b8
0590
cafe
3804
5556
00b8
059f
cafe
3c14
5556
00bc
05c0
cafe
200d
5556
00bc
04e1
cafe
241d
5556
00bc
0594
cafe
2805
5556
00bc
05f9
cafe
2c15
5556
00c0
0675
cafe
300e
5556
00c0
05da
cafe
341e
5556
00c0
055f
cafe
3806
5556
00c0
0543
cafe
3c16
5556
00c4
05de
cafe
200f
5556
00c4
05e5
cafe
241f
5556
00c4
04e7
cafe
2807
5556
-
00c4
0600
cafe
2c17
5556
00c8
053c
cafe
3008
5556
00c8
0616
cafe
3418
5556
00c8
04ef
cafe
3800
5556
00c8
0505
cafe
3c10
5556
00cc
054b
cafe
2009
5556
00cc
0581
cafe
2419
5556
00cc
0576
cafe
2801
5556
00cc
05ac
cafe
2c11
5556
00d0
05cd
cafe
300a
5556
00d0
05fb
cafe
341a
5556
00d0
0567
cafe
3802
5556
00d0
056a
cafe
3c12
5556
00d4
0582
cafe
200b
5556
00d4
04f4
cafe
241b
5556
00d4
04f7
cafe
2803
5556
00d4
0522
cafe
2c13
5556
00d8
05bd
cafe
300c
5556
00d8
059e
cafe
341c
5556
00d8
0537
cafe
3804
5556
00d8
0541
cafe
3c14
5556
00dc
057a
cafe
200d
5556
00dc
0479
cafe
241d
5556
00dc
054c
cafe
2805
5556
00dc
0572
cafe
2c15
5556
00e0
0609
cafe
300e
5556
00e0
05a9
cafe
341e
5556
00e0
0525
cafe
3806
5556
00e0
050d
cafe
3c16
5556
00e4
0599
cafe
200f
5556
00e4
05b5
cafe
241f
5556
00e4
04a2
cafe
2807
5556
00e4
05c2
cafe
2c17
5556
00e8
0502
cafe
3008
5556
00e8
05c8
cafe
3418
5556
00e8
04a2
cafe
3800
5556
00e8
0493
cafe
3c10
5556
00ec
050f
cafe
2009
5556
00ec
0549
cafe
2419
5556
00ec
051f
cafe
2801
5556
00ec
05a3
cafe
2c11
5556
00f0
0579
cafe
300a
5556
00f0
05b6
cafe
341a
5556
00f0
0530
cafe
3802
5556
00f0
0544
cafe
3c12
5556
00f4
0541
cafe
200b
5556
00f4
0487
cafe
241b
5556
00f4
04a6
cafe
2803
5556
00f4
04b0
cafe
2c13
5556
00f8
0550
cafe
300c
5556
00f8
0555
cafe
341c
5556
00f8
-
04de
cafe
3804
5556
00f8
050b
cafe
3c14
5556
00fc
0532
cafe
200d
5556
00fc
0444
cafe
241d
5556
00fc
050d
cafe
2805
5556
00fc
0545
cafe
2c15
5556
0100
05cd
cafe
300e
5556
0100
053e
cafe
341e
5556
0100
04db
cafe
3806
5556
0100
04ae
cafe
3c16
5556
0104
0555
cafe
200f
5556
0104
0558
cafe
241f
5556
0104
045d
cafe
2807
5556
0104
0572
cafe
2c17
5556
0108
04b5
cafe
3008
5556
0108
0585
cafe
3418
5556
0108
045c
cafe
3800
5556
0108
045a
cafe
3c10
5556
010c
04be
cafe
2009
5556
010c
04fe
cafe
2419
5556
010c
04ee
cafe
2801
5556
010c
0514
cafe
2c11
5556
0110
052c
cafe
300a
5556
0110
056b
cafe
341a
5556
0110
04d3
cafe
3802
5556
0110
04f5
cafe
3c12
5556
0114
04e5
cafe
200b
5556
0114
0452
cafe
241b
5556
0114
0473
cafe
2803
5556
0114
0496
cafe
2c13
5556
0118
0514
cafe
300c
5556
0118
0510
cafe
341c
5556
0118
04af
cafe
3804
5556
0118
04c8
cafe
3c14
5556
011c
04d8
cafe
200d
5556
011c
040d
cafe
241d
5556
011c
04c9
cafe
2805
5556
011c
04fd
cafe
2c15
5556
0120
05a2
cafe
300e
5556
0120
04fd
cafe
341e
5556
0120
04a9
cafe
3806
5556
0120
047b
cafe
3c16
5556
0124
0508
cafe
200f
5556
0124
0523
cafe
241f
5556
0124
041d
cafe
2807
5556
0124
0528
cafe
2c17
5556
0128
0461
cafe
3008
5556
0128
0538
cafe
3418
5556
0128
040d
cafe
3800
5556
0128
03fd
cafe
3c10
5556
012c
0474
cafe
2009
5556
012c
04c7
-
cafe
2419
5556
012c
0492
cafe
2801
5556
012c
0503
cafe
2c11
5556
0130
04ed
cafe
300a
5556
0130
0535
cafe
341a
5556
0130
0496
cafe
3802
5556
0130
04b3
cafe
3c12
5556
0134
04bb
cafe
200b
5556
0134
0419
cafe
241b
5556
0134
043a
cafe
2803
5556
0134
0443
cafe
2c13
5556
0138
04de
cafe
300c
5556
0138
04e0
cafe
341c
5556
0138
0476
cafe
3804
5556
0138
0481
cafe
3c14
5556
013c
04a6
cafe
200d
5556
013c
03c7
cafe
241d
5556
013c
047f
cafe
2805
5556
013c
04d0
cafe
2c15
5556
0140
0542
cafe
300e
5556
0140
04c4
cafe
341e
5556
0140
0465
cafe
3806
5556
0140
0433
cafe
3c16
5556
0144
04ce
cafe
200f
5556
0144
04ed
cafe
241f
5556
0144
03e7
cafe
2807
5556
0144
04f7
cafe
2c17
5556
0148
042f
cafe
3008
5556
0148
0500
cafe
3418
5556
0148
03d5
cafe
3800
5556
0148
03cf
cafe
3c10
5556
014c
0446
cafe
2009
5556
014c
0494
cafe
2419
5556
014c
0473
cafe
2801
5556
014c
04bc
cafe
2c11
5556
0150
04aa
cafe
300a
5556
0150
04e9
cafe
341a
5556
0150
044e
cafe
3802
5556
0150
046f
cafe
3c12
5556
0154
046b
cafe
200b
5556
0154
03eb
cafe
241b
5556
0154
03e6
cafe
2803
5556
0154
03fe
cafe
2c13
5556
0158
04af
cafe
300c
5556
0158
04a1
cafe
341c
5556
0158
042f
cafe
3804
5556
0158
0442
cafe
3c14
5556
015c
0468
cafe
200d
5556
015c
0394
cafe
241d
5556
015c
0451
cafe
2805
5556
015c
048f
cafe
2c15
5556
0160
0525
cafe
-
300e
5556
0160
0491
cafe
341e
5556
0160
041c
cafe
3806
5556
0160
040f
cafe
3c16
5556
0164
0498
cafe
200f
5556
0164
04a7
cafe
241f
5556
0164
03b6
cafe
2807
5556
0164
04c0
cafe
2c17
5556
0168
03e8
cafe
3008
5556
0168
04c8
cafe
3418
5556
0168
03a3
cafe
3800
5556
0168
038f
cafe
3c10
5556
016c
040e
cafe
2009
5556
016c
0443
cafe
2419
5556
016c
0428
cafe
2801
5556
016c
0481
cafe
2c11
5556
0170
0482
cafe
300a
5556
0170
04c2
cafe
341a
5556
0170
0418
cafe
3802
5556
0170
043f
cafe
3c12
5556
0174
044d
cafe
200b
5556
0174
03a6
cafe
241b
5556
0174
03b4
cafe
2803
5556
0174
03da
cafe
2c13
5556
0178
0474
cafe
300c
5556
0178
0480
cafe
341c
5556
0178
03f5
cafe
3804
5556
0178
0410
cafe
3c14
5556
017c
0441
cafe
200d
5556
017c
035c
cafe
241d
5556
017c
0413
cafe
2805
5556
017c
0463
cafe
2c15
5556
0180
04e4
cafe
300e
5556
0180
0449
cafe
341e
5556
0180
03d8
cafe
3806
5556
0180
03c4
cafe
3c16
5556
0184
0461
cafe
200f
5556
0184
046b
cafe
241f
5556
0184
035d
cafe
2807
5556
0184
048d
cafe
2c17
5556
0188
03bb
cafe
3008
5556
0188
0489
cafe
3418
5556
0188
036d
cafe
3800
5556
0188
035c
cafe
3c10
5556
018c
03db
cafe
2009
5556
018c
040f
cafe
2419
5556
018c
03f7
cafe
2801
5556
018c
044c
cafe
2c11
5556
0190
0441
cafe
300a
5556
0190
0477
cafe
341a
5556
0190
03ed
cafe
3802
5556
0190
0406
cafe
3c12
-
5556
0194
0406
cafe
200b
5556
0194
0364
cafe
241b
5556
0194
0384
cafe
2803
5556
0194
03a0
cafe
2c13
5556
0198
0427
cafe
300c
5556
0198
043e
cafe
341c
5556
0198
03b7
cafe
3804
5556
0198
03e7
cafe
3c14
5556
019c
040c
cafe
200d
5556
019c
032a
cafe
241d
5556
019c
03d6
cafe
2805
5556
019c
0438
cafe
2c15
5556
01a0
049c
cafe
300e
5556
01a0
0427
cafe
341e
5556
01a0
03b5
cafe
3806
5556
01a0
039b
cafe
3c16
5556
01a4
0429
cafe
200f
5556
01a4
0447
cafe
241f
5556
01a4
0349
cafe
2807
5556
01a4
044c
cafe
2c17
5556
01a8
0390
cafe
3008
5556
01a8
0465
cafe
3418
5556
01a8
033a
cafe
3800
5556
01a8
033a
cafe
3c10
5556
01ac
039b
cafe
2009
5556
01ac
03e3
cafe
2419
5556
01ac
03c9
cafe
2801
5556
01ac
041e
cafe
2c11
5556
01b0
0413
cafe
300a
5556
01b0
045c
cafe
341a
5556
01b0
03b3
cafe
3802
5556
01b0
03d3
cafe
3c12
5556
01b4
03e0
cafe
200b
5556
01b4
0338
cafe
241b
5556
01b4
034b
cafe
2803
5556
01b4
036d
cafe
2c13
5556
01b8
0400
cafe
300c
5556
01b8
0411
cafe
341c
5556
01b8
0392
cafe
3804
5556
01b8
03b7
cafe
3c14
5556
01bc
03df
cafe
200d
5556
01bc
02e8
cafe
241d
5556
01bc
03b4
cafe
2805
5556
01bc
03fe
cafe
2c15
5556
01c0
0483
cafe
300e
5556
01c0
03fd
cafe
341e
5556
01c0
038d
cafe
3806
5556
01c0
036b
cafe
3c16
5556
01c4
03fd
cafe
200f
5556
01c4
0413
cafe
241f
5556
01c4
030f
cafe
2807
5556
-
01c4
042c
cafe
2c17
5556
01c8
0365
cafe
3008
5556
01c8
043c
cafe
3418
5556
01c8
031b
cafe
3800
5556
01c8
031e
cafe
3c10
5556
01cc
0373
cafe
2009
5556
01cc
03b5
cafe
2419
5556
01cc
03a5
cafe
2801
5556
01cc
03ef
cafe
2c11
5556
01d0
03ef
cafe
300a
5556
01d0
041f
cafe
341a
5556
01d0
037e
cafe
3802
5556
01d0
03be
cafe
3c12
5556
01d4
03a8
cafe
200b
5556
01d4
031c
cafe
241b
5556
01d4
032f
cafe
2803
5556
01d4
0335
cafe
2c13
5556
01d8
03e3
cafe
300c
5556
01d8
03df
cafe
341c
5556
01d8
0373
cafe
3804
5556
01d8
037f
cafe
3c14
5556
01dc
03b1
cafe
200d
5556
01dc
02c4
cafe
241d
5556
01dc
0389
cafe
2805
5556
01dc
03cd
cafe
2c15
5556
01e0
0451
cafe
300e
5556
01e0
03b3
cafe
341e
5556
01e0
0360
cafe
3806
5556
01e0
0344
cafe
3c16
5556
01e4
03da
cafe
200f
5556
01e4
0400
cafe
241f
5556
01e4
02db
cafe
2807
5556
01e4
0403
cafe
2c17
5556
01e8
0340
cafe
3008
5556
01e8
040b
cafe
3418
5556
01e8
02e6
cafe
3800
5556
01e8
02dc
cafe
3c10
5556
01ec
0357
cafe
2009
5556
01ec
037f
cafe
2419
5556
01ec
0384
cafe
2801
5556
01ec
03d4
cafe
2c11
5556
01f0
03c2
cafe
300a
5556
01f0
03ff
cafe
341a
5556
01f0
035d
cafe
3802
5556
01f0
039b
cafe
3c12
5556
01f4
0387
cafe
200b
5556
01f4
02df
cafe
241b
5556
01f4
0312
cafe
2803
5556
01f4
030e
cafe
2c13
5556
01f8
03b8
cafe
300c
5556
01f8
03b5
cafe
341c
5556
01f8
-
0332
cafe
3804
5556
01f8
0359
cafe
3c14
5556
01fc
0376
cafe
200d
5556
01fc
029b
cafe
241d
5556
01fc
0377
cafe
2805
5556
01fc
03a1
cafe
2c15
5556
0200
0422
cafe
300e
5556
0200
038e
cafe
341e
5556
0200
0333
cafe
3806
5556
0200
0308
cafe
3c16
5556
0204
03b0
cafe
200f
5556
0204
03d0
cafe
241f
5556
0204
02b2
cafe
2807
5556
0204
03f1
cafe
2c17
5556
0208
0314
cafe
3008
5556
0208
03e0
cafe
3418
5556
0208
02d2
cafe
3800
5556
0208
02bb
cafe
3c10
5556
020c
032e
cafe
2009
5556
020c
0363
cafe
2419
5556
020c
034f
cafe
2801
5556
020c
039e
cafe
2c11
5556
0210
03a4
cafe
300a
5556
0210
03db
cafe
341a
5556
0210
032e
cafe
3802
5556
0210
0367
cafe
3c12
5556
0214
0364
cafe
200b
5556
0214
02b6
cafe
241b
5556
0214
02f4
cafe
2803
5556
0214
02e8
cafe
2c13
5556
0218
0391
cafe
300c
5556
0218
0387
cafe
341c
5556
0218
0315
cafe
3804
5556
0218
0341
cafe
3c14
5556
021c
0354
cafe
200d
5556
021c
0281
cafe
241d
5556
021c
0335
cafe
2805
5556
021c
037a
cafe
2c15
5556
0220
03f8
cafe
300e
5556
0220
0374
cafe
341e
5556
0220
030c
cafe
3806
5556
0220
02ef
cafe
3c16
5556
0224
038c
cafe
200f
5556
0224
03aa
cafe
241f
5556
0224
0280
cafe
2807
5556
0224
03a3
cafe
2c17
5556
0228
02e0
cafe
3008
5556
0228
03bc
cafe
3418
5556
0228
029b
cafe
3800
5556
0228
027b
cafe
3c10
5556
022c
02f0
cafe
2009
5556
022c
0346
-
cafe
2419
5556
022c
031f
cafe
2801
5556
022c
0386
cafe
2c11
5556
0230
037b
cafe
300a
5556
0230
03bc
cafe
341a
5556
0230
030d
cafe
3802
5556
0230
033f
cafe
3c12
5556
0234
0345
cafe
200b
5556
0234
02ae
cafe
241b
5556
0234
02b0
cafe
2803
5556
0234
02e3
cafe
2c13
5556
0238
0361
cafe
300c
5556
0238
0354
cafe
341c
5556
0238
02ff
cafe
3804
5556
0238
0310
cafe
3c14
5556
023c
0336
cafe
200d
5556
023c
025c
cafe
241d
5556
023c
030e
cafe
2805
5556
023c
035d
cafe
2c15
5556
0240
03ce
cafe
300e
5556
0240
034d
cafe
341e
5556
0240
02e7
cafe
3806
5556
0240
02c7
cafe
3c16
5556
0244
037e
cafe
200f
5556
0244
0386
cafe
241f
5556
0244
027b
cafe
2807
5556
0244
038f
cafe
2c17
5556
0248
02c0
cafe
3008
5556
0248
03a0
cafe
3418
5556
0248
0285
cafe
3800
5556
0248
0266
cafe
3c10
5556
024c
02db
cafe
2009
5556
024c
030d
cafe
2419
5556
024c
0303
cafe
2801
5556
024c
035a
cafe
2c11
5556
0250
0356
cafe
300a
5556
0250
0372
cafe
341a
5556
0250
02f4
cafe
3802
5556
0250
0320
cafe
3c12
5556
0254
0327
cafe
200b
5556
0254
0287
cafe
241b
5556
0254
0290
cafe
2803
5556
0254
02c1
cafe
2c13
5556
0258
033c
cafe
300c
5556
0258
0349
cafe
341c
5556
0258
02d5
cafe
3804
5556
0258
0300
cafe
3c14
5556
025c
0318
cafe
200d
5556
025c
0240
cafe
241d
5556
025c
0301
cafe
2805
5556
025c
033e
cafe
2c15
5556
0260
03b6
cafe
-
300e
5556
0260
0333
cafe
341e
5556
0260
02d3
cafe
3806
5556
0260
02bc
cafe
3c16
5556
0264
034d
cafe
200f
5556
0264
0368
cafe
241f
5556
0264
0257
cafe
2807
5556
0264
0379
cafe
2c17
5556
0268
02ac
cafe
3008
5556
0268
037a
cafe
3418
5556
0268
0261
cafe
3800
5556
0268
0260
cafe
3c10
5556
026c
02c5
cafe
2009
5556
026c
02f6
cafe
2419
5556
026c
02df
cafe
2801
5556
026c
032f
cafe
2c11
5556
0270
0325
cafe
300a
5556
0270
0378
cafe
341a
5556
0270
02cc
cafe
3802
5556
0270
0317
cafe
3c12
5556
0274
0304
cafe
200b
5556
0274
0275
cafe
241b
5556
0274
0280
cafe
2803
5556
0274
02a6
cafe
2c13
5556
0278
0328
cafe
300c
5556
0278
032d
cafe
341c
5556
0278
02c6
cafe
3804
5556
0278
02e8
cafe
3c14
5556
027c
0310
cafe
200d
5556
027c
0229
cafe
241d
5556
027c
02db
cafe
2805
5556
027c
0328
cafe
2c15
5556
0280
0390
cafe
300e
5556
0280
031c
cafe
341e
5556
0280
02bf
cafe
3806
5556
0280
029c
cafe
3c16
5556
0284
0331
cafe
200f
5556
0284
033e
cafe
241f
5556
0284
023c
cafe
2807
5556
0284
0359
cafe
2c17
5556
0288
0298
cafe
3008
5556
0288
0359
cafe
3418
5556
0288
0263
cafe
3800
5556
0288
023e
cafe
3c10
5556
028c
02ab
cafe
2009
5556
028c
02e2
cafe
2419
5556
028c
02bf
cafe
2801
5556
028c
0303
cafe
2c11
5556
0290
0312
cafe
300a
5556
0290
0359
cafe
341a
5556
0290
02c8
cafe
3802
5556
0290
02f3
cafe
3c12
-
5556
0294
02f8
cafe
200b
5556
0294
0241
cafe
241b
5556
0294
0263
cafe
2803
5556
0294
027c
cafe
2c13
5556
0298
0304
cafe
300c
5556
0298
030e
cafe
341c
5556
0298
029c
cafe
3804
5556
0298
02d5
cafe
3c14
5556
029c
02e9
cafe
200d
5556
029c
020a
cafe
241d
5556
029c
02b2
cafe
2805
5556
029c
02ee
cafe
2c15
5556
02a0
0375
cafe
300e
5556
02a0
02fd
cafe
341e
5556
02a0
0290
cafe
3806
5556
02a0
0286
cafe
3c16
5556
02a4
031c
cafe
200f
5556
02a4
0320
cafe
241f
5556
02a4
0212
cafe
2807
5556
02a4
0348
cafe
2c17
5556
02a8
027f
cafe
3008
5556
02a8
0327
cafe
3418
5556
02a8
0243
cafe
3800
5556
02a8
0222
cafe
3c10
5556
02ac
0291
cafe
2009
5556
02ac
02c4
cafe
2419
5556
02ac
02c1
cafe
2801
5556
02ac
02f3
cafe
2c11
5556
02b0
02fe
cafe
300a
5556
02b0
0340
cafe
341a
5556
02b0
029a
cafe
3802
5556
02b0
02dc
cafe
3c12
5556
02b4
02cc
cafe
200b
5556
02b4
024a
cafe
241b
5556
02b4
024b
cafe
2803
5556
02b4
026f
cafe
2c13
5556
02b8
02f9
cafe
300c
5556
02b8
02e0
cafe
341c
5556
02b8
0284
cafe
3804
5556
02b8
02bd
cafe
3c14
5556
02bc
02c3
cafe
200d
5556
02bc
01dd
cafe
241d
5556
02bc
02ae
cafe
2805
5556
02bc
02d7
cafe
2c15
5556
02c0
0366
cafe
300e
5556
02c0
02e6
cafe
341e
5556
02c0
027d
cafe
3806
5556
02c0
0265
cafe
3c16
5556
02c4
02f9
cafe
200f
5556
02c4
030f
cafe
241f
5556
02c4
01f6
cafe
2807
5556
-
02c4
031c
cafe
2c17
5556
02c8
025c
cafe
3008
5556
02c8
0304
cafe
3418
5556
02c8
021d
cafe
3800
5556
02c8
01f7
cafe
3c10
5556
02cc
026c
cafe
2009
5556
02cc
02b8
cafe
2419
5556
02cc
0292
cafe
2801
5556
02cc
02e6
cafe
2c11
5556
02d0
02e8
cafe
300a
5556
02d0
031f
cafe
341a
5556
02d0
0278
cafe
3802
5556
02d0
02b7
cafe
3c12
5556
02d4
02b3
cafe
200b
5556
02d4
0222
cafe
241b
5556
02d4
0235
cafe
2803
5556
02d4
0250
cafe
2c13
5556
02d8
02e0
cafe
300c
5556
02d8
02cf
cafe
341c
5556
02d8
026d
cafe
3804
5556
02d8
02a0
cafe
3c14
5556
02dc
02a9
cafe
200d
5556
02dc
01de
cafe
241d
5556
02dc
028f
cafe
2805
5556
02dc
02c2
cafe
2c15
5556
02e0
0353
cafe
300e
5556
02e0
02dd
cafe
341e
5556
02e0
0259
cafe
3806
5556
02e0
0242
cafe
3c16
5556
02e4
02da
cafe
200f
5556
02e4
02ec
cafe
241f
5556
02e4
01f2
cafe
2807
5556
02e4
030f
cafe
2c17
5556
02e8
0240
cafe
3008
5556
02e8
0314
cafe
3418
5556
02e8
0203
cafe
3800
5556
02e8
01e1
cafe
3c10
5556
02ec
025c
cafe
2009
5556
02ec
0297
cafe
2419
5556
02ec
0277
cafe
2801
5556
02ec
02c0
cafe
2c11
5556
02f0
02ce
cafe
300a
5556
02f0
02f5
cafe
341a
5556
02f0
0271
cafe
3802
5556
02f0
029e
cafe
3c12
5556
02f4
02a5
cafe
200b
5556
02f4
0206
cafe
241b
5556
02f4
021f
cafe
2803
5556
02f4
024b
cafe
2c13
5556
02f8
02c7
cafe
300c
5556
02f8
02ba
cafe
341c
5556
02f8
-
025f
cafe
3804
5556
02f8
0296
cafe
3c14
5556
02fc
0291
cafe
200d
5556
02fc
01dc
cafe
241d
5556
02fc
027a
cafe
2805
5556
02fc
02a3
cafe
2c15
5556
0300
0347
cafe
300e
5556
0300
02d7
cafe
341e
5556
0300
0251
cafe
3806
5556
0300
023f
cafe
3c16
5556
0304
02bf
cafe
200f
5556
0304
02e3
cafe
241f
5556
0304
01d1
cafe
2807
5556
0304
02fe
cafe
2c17
5556
0308
023a
cafe
3008
5556
0308
02f0
cafe
3418
5556
0308
0204
cafe
3800
5556
0308
01ec
cafe
3c10
5556
030c
0252
cafe
2009
5556
030c
0283
cafe
2419
5556
030c
027c
cafe
2801
5556
030c
02ba
cafe
2c11
5556
0310
02c0
cafe
300a
5556
0310
02fe
cafe
341a
5556
0310
024c
cafe
3802
5556
0310
0292
cafe
3c12
5556
0314
027f
cafe
200b
5556
0314
01f0
cafe
241b
5556
0314
0213
cafe
2803
5556
0314
0230
cafe
2c13
5556
0318
02a6
cafe
300c
5556
0318
02b8
cafe
341c
5556
0318
024e
cafe
3804
5556
0318
027f
cafe
3c14
5556
031c
0281
cafe
200d
5556
031c
01c6
cafe
241d
5556
031c
025b
cafe
2805
5556
031c
02ab
cafe
2c15
5556
0320
0324
cafe
300e
5556
0320
02c1
cafe
341e
5556
0320
0240
cafe
3806
5556
0320
022e
cafe
3c16
5556
0324
02c5
cafe
200f
5556
0324
02c9
cafe
241f
5556
0324
01c8
cafe
2807
5556
0324
02e7
cafe
2c17
5556
0328
0224
cafe
3008
5556
0328
02e7
cafe
3418
5556
0328
01e1
cafe
3800
5556
0328
01c9
cafe
3c10
5556
032c
0236
cafe
2009
5556
032c
026e
-
cafe
2419
5556
032c
0251
cafe
2801
5556
032c
0290
cafe
2c11
5556
0330
02ab
cafe
300a
5556
0330
02d0
cafe
341a
5556
0330
024b
cafe
3802
5556
0330
027b
cafe
3c12
5556
0334
0284
cafe
200b
5556
0334
01e8
cafe
241b
5556
0334
01eb
cafe
2803
5556
0334
021f
cafe
2c13
5556
0338
029c
cafe
300c
5556
0338
02a7
cafe
341c
5556
0338
022d
cafe
3804
5556
0338
0272
cafe
3c14
5556
033c
0272
cafe
200d
5556
033c
01b7
cafe
241d
5556
033c
025a
cafe
2805
5556
033c
0293
cafe
2c15
5556
0340
0311
cafe
300e
5556
0340
0299
cafe
341e
5556
0340
021d
cafe
3806
5556
0340
0225
cafe
3c16
5556
0344
02ac
cafe
200f
5556
0344
02b8
cafe
241f
5556
0344
01bf
cafe
2807
5556
0344
02d7
cafe
2c17
5556
0348
01ff
cafe
3008
5556
0348
02cb
cafe
3418
5556
0348
01dd
cafe
3800
5556
0348
01b8
cafe
3c10
5556
034c
0230
cafe
2009
5556
034c
025c
cafe
2419
5556
034c
0244
cafe
2801
5556
034c
0283
cafe
2c11
5556
0350
02a8
cafe
300a
5556
0350
02c7
cafe
341a
5556
0350
0222
cafe
3802
5556
0350
0270
cafe
3c12
5556
0354
0273
cafe
200b
5556
0354
01e3
cafe
241b
5556
0354
01f1
cafe
2803
5556
0354
0217
cafe
2c13
5556
0358
028a
cafe
300c
5556
0358
0294
cafe
341c
5556
0358
021b
cafe
3804
5556
0358
0258
cafe
3c14
5556
035c
0267
cafe
200d
5556
035c
0198
cafe
241d
5556
035c
022f
cafe
2805
5556
035c
026f
cafe
2c15
5556
0360
0303
cafe
-
300e
5556
0360
028e
cafe
341e
5556
0360
0217
cafe
3806
5556
0360
0210
cafe
3c16
5556
0364
029d
cafe
200f
5556
0364
02a8
cafe
241f
5556
0364
01ab
cafe
2807
5556
0364
02ce
cafe
2c17
5556
0368
0203
cafe
3008
5556
0368
02b9
cafe
3418
5556
0368
01c5
cafe
3800
5556
0368
0195
cafe
3c10
5556
036c
021b
cafe
2009
5556
036c
0237
cafe
2419
5556
036c
0228
cafe
2801
5556
036c
0268
cafe
2c11
5556
0370
0290
cafe
300a
5556
0370
02bf
cafe
341a
5556
0370
0234
cafe
3802
5556
0370
0258
cafe
3c12
5556
0374
0261
cafe
200b
5556
0374
01c8
cafe
241b
5556
0374
01cf
cafe
2803
5556
0374
020d
cafe
2c13
5556
0378
026f
cafe
300c
5556
0378
0278
cafe
341c
5556
0378
020d
cafe
3804
5556
0378
0241
cafe
3c14
5556
037c
0254
cafe
200d
5556
037c
0193
cafe
241d
5556
037c
0224
cafe
2805
5556
037c
0264
cafe
2c15
5556
0380
02e7
cafe
300e
5556
0380
0279
cafe
341e
5556
0380
020c
cafe
3806
5556
0380
0206
cafe
3c16
5556
0384
029b
cafe
200f
5556
0384
029c
cafe
241f
5556
0384
019a
cafe
2807
5556
0384
02b3
cafe
2c17
5556
0388
01f0
cafe
3008
5556
0388
02ad
cafe
3418
5556
0388
01b9
cafe
3800
5556
0388
01b7
cafe
3c10
5556
038c
0207
cafe
2009
5556
038c
022d
cafe
2419
5556
038c
0233
cafe
2801
5556
038c
026a
cafe
2c11
5556
0390
0292
cafe
300a
5556
0390
02af
cafe
341a
5556
0390
0223
cafe
3802
5556
0390
0244
cafe
3c12
-
5556
0394
023f
cafe
200b
5556
0394
01bb
cafe
241b
5556
0394
01c8
cafe
2803
5556
0394
01ed
cafe
2c13
5556
0398
026f
cafe
300c
5556
0398
025f
cafe
341c
5556
0398
01ff
cafe
3804
5556
0398
022b
cafe
3c14
5556
039c
0248
cafe
200d
5556
039c
0183
cafe
241d
5556
039c
021c
cafe
2805
5556
039c
0266
cafe
2c15
5556
03a0
02dd
cafe
300e
5556
03a0
026a
cafe
341e
5556
03a0
01f3
cafe
3806
5556
03a0
01f6
cafe
3c16
5556
03a4
0274
cafe
200f
5556
03a4
0287
cafe
241f
5556
03a4
018d
cafe
2807
5556
03a4
02ae
cafe
2c17
5556
03a8
01e6
cafe
3008
5556
03a8
029e
cafe
3418
5556
03a8
01ab
cafe
3800
5556
03a8
01a8
cafe
3c10
5556
03ac
01fb
cafe
2009
5556
03ac
0238
cafe
2419
5556
03ac
0228
cafe
2801
5556
03ac
025c
cafe
2c11
5556
03b0
027a
cafe
300a
5556
03b0
0293
cafe
341a
5556
03b0
020b
cafe
3802
5556
03b0
023b
cafe
3c12
5556
03b4
0237
cafe
200b
5556
03b4
01aa
cafe
241b
5556
03b4
01cd
cafe
2803
5556
03b4
01e0
cafe
2c13
5556
03b8
025f
cafe
300c
5556
03b8
026c
cafe
341c
5556
03b8
01ec
cafe
3804
5556
03b8
0233
cafe
3c14
5556
03bc
023b
cafe
200d
5556
03bc
0170
cafe
241d
5556
03bc
0213
cafe
2805
5556
03bc
025a
cafe
2c15
5556
03c0
02e1
cafe
300e
5556
03c0
0265
cafe
341e
5556
03c0
01fa
cafe
3806
5556
03c0
01e3
cafe
3c16
5556
03c4
0271
cafe
200f
5556
03c4
0282
cafe
241f
5556
03c4
017d
cafe
2807
5556
-
03c4
028d
cafe
2c17
5556
03c8
01d1
cafe
3008
5556
03c8
0283
cafe
3418
5556
03c8
01a5
cafe
3800
5556
03c8
0187
cafe
3c10
5556
03cc
01e9
cafe
2009
5556
03cc
0211
cafe
2419
5556
03cc
0209
cafe
2801
5556
03cc
0249
cafe
2c11
5556
03d0
0259
cafe
300a
5556
03d0
029b
cafe
341a
5556
03d0
01f3
cafe
3802
5556
03d0
023e
cafe
3c12
5556
03d4
022b
cafe
200b
5556
03d4
019f
cafe
241b
5556
03d4
01bc
cafe
2803
5556
03d4
01d8
cafe
2c13
5556
03d8
0247
cafe
300c
5556
03d8
025f
cafe
341c
5556
03d8
01e3
cafe
3804
5556
03d8
0234
cafe
3c14
5556
03dc
0229
cafe
200d
5556
03dc
0170
cafe
241d
5556
03dc
0206
cafe
2805
5556
03dc
023e
cafe
2c15
5556
03e0
02d4
cafe
300e
5556
03e0
0245
cafe
341e
5556
03e0
01e3
cafe
3806
5556
03e0
01d7
cafe
3c16
5556
03e4
0260
cafe
200f
5556
03e4
026e
cafe
241f
5556
03e4
0180
cafe
2807
5556
03e4
0284
cafe
2c17
5556
03e8
01b9
cafe
3008
5556
03e8
0299
cafe
3418
5556
03e8
01a1
cafe
3800
5556
03e8
0195
cafe
3c10
5556
03ec
01e6
cafe
2009
5556
03ec
0218
cafe
2419
5556
03ec
01fc
cafe
2801
5556
03ec
0238
cafe
2c11
5556
03f0
0256
cafe
300a
5556
03f0
028a
cafe
341a
5556
03f0
01f8
cafe
3802
5556
03f0
022e
cafe
3c12
5556
03f4
021c
cafe
200b
5556
03f4
0182
cafe
241b
5556
03f4
01b1
cafe
2803
5556
03f4
01be
cafe
2c13
5556
03f8
0249
cafe
300c
5556
03f8
0255
cafe
341c
5556
03f8
-
01c9
cafe
3804
5556
03f8
0219
cafe
3c14
5556
03fc
0226
cafe
200d
5556
03fc
015d
cafe
241d
5556
03fc
01f3
cafe
2805
5556
03fc
023f
cafe
2c15
5556
0400
02be
cafe
300e
5556
0400
025a
cafe
341e
5556
0400
01d5
cafe
3806
5556
0400
01d3
cafe
3c16
5556
0404
0251
cafe
200f
5556
0404
026b
cafe
241f
5556
0404
0169
cafe
2807
5556
0404
028b
cafe
2c17
5556
0408
01b9
cafe
3008
5556
0408
028c
cafe
3418
5556
0408
019d
cafe
3800
5556
0408
017d
cafe
3c10
5556
040c
01ea
cafe
2009
5556
040c
01f5
cafe
2419
5556
040c
01f4
cafe
2801
5556
040c
0226
cafe
2c11
5556
0410
0248
cafe
300a
5556
0410
0273
cafe
341a
5556
0410
01f2
cafe
3802
5556
0410
0228
cafe
3c12
5556
0414
021e
cafe
200b
5556
0414
0184
cafe
241b
5556
0414
0197
cafe
2803
5556
0414
01b8
cafe
2c13
5556
0418
0240
cafe
300c
5556
0418
024b
cafe
341c
5556
0418
01d9
cafe
3804
5556
0418
01ff
cafe
3c14
5556
041c
0216
cafe
200d
5556
041c
0163
cafe
241d
5556
041c
0204
cafe
2805
5556
041c
0240
cafe
2c15
5556
0420
02a5
cafe
300e
5556
0420
024d
cafe
341e
5556
0420
01ed
cafe
3806
5556
0420
01e1
cafe
3c16
5556
0424
024d
cafe
200f
5556
0424
025e
cafe
241f
5556
0424
0159
cafe
2807
5556
0424
0272
cafe
2c17
5556
0428
01ae
cafe
3008
5556
0428
027b
cafe
3418
5556
0428
018d
cafe
3800
5556
0428
0172
cafe
3c10
5556
042c
01ed
cafe
2009
5556
042c
01fb
-
cafe
2419
5556
042c
01f1
cafe
2801
5556
042c
022a
cafe
2c11
5556
0430
023a
cafe
300a
5556
0430
0275
cafe
341a
5556
0430
01de
cafe
3802
5556
0430
0227
cafe
3c12
5556
0434
020e
cafe
200b
5556
0434
017c
cafe
241b
5556
0434
0194
cafe
2803
5556
0434
01a9
cafe
2c13
5556
0438
023d
cafe
300c
5556
0438
0241
cafe
341c
5556
0438
01c8
cafe
3804
5556
0438
01fd
cafe
3c14
5556
043c
021b
cafe
200d
5556
043c
0144
cafe
241d
5556
043c
01e7
cafe
2805
5556
043c
0225
cafe
2c15
5556
0440
0298
cafe
300e
5556
0440
0233
cafe
341e
5556
0440
01cc
cafe
3806
5556
0440
01ca
cafe
3c16
5556
0444
0251
cafe
200f
5556
0444
0251
cafe
241f
5556
0444
015b
cafe
2807
5556
0444
026c
cafe
2c17
5556
0448
0194
cafe
3008
5556
0448
0274
cafe
3418
5556
0448
0180
cafe
3800
5556
0448
0168
cafe
3c10
5556
044c
01d8
cafe
2009
5556
044c
01f9
cafe
2419
5556
044c
01e9
cafe
2801
5556
044c
0236
cafe
2c11
5556
0450
023d
cafe
300a
5556
0450
0266
cafe
341a
5556
0450
01d4
cafe
3802
5556
0450
0216
cafe
3c12
5556
0454
020c
cafe
200b
5556
0454
0181
cafe
241b
5556
0454
018e
cafe
2803
5556
0454
01a6
cafe
2c13
5556
0458
0221
cafe
300c
5556
0458
022d
cafe
341c
5556
0458
01d5
cafe
3804
5556
0458
01fe
cafe
3c14
5556
045c
01f8
cafe
200d
5556
045c
015e
cafe
241d
5556
045c
01f2
cafe
2805
5556
045c
0221
cafe
2c15
5556
0460
029e
cafe
-
300e
5556
0460
0233
cafe
341e
5556
0460
01c5
cafe
3806
5556
0460
01cc
cafe
3c16
5556
0464
0233
cafe
200f
5556
0464
0248
cafe
241f
5556
0464
015e
cafe
2807
5556
0464
025e
cafe
2c17
5556
0468
01c1
cafe
3008
5556
0468
0269
cafe
3418
5556
0468
0171
cafe
3800
5556
0468
0172
cafe
3c10
5556
046c
01d0
cafe
2009
5556
046c
01f3
cafe
2419
5556
046c
01e8
cafe
2801
5556
046c
020c
cafe
2c11
5556
0470
0231
cafe
300a
5556
0470
0264
cafe
341a
5556
0470
01d0
cafe
3802
5556
0470
020d
cafe
3c12
5556
0474
0207
cafe
200b
5556
0474
0178
cafe
241b
5556
0474
0177
cafe
2803
5556
0474
0199
cafe
2c13
5556
0478
021d
cafe
300c
5556
0478
0229
cafe
341c
5556
0478
01ac
cafe
3804
5556
0478
01f3
cafe
3c14
5556
047c
01f4
cafe
200d
5556
047c
0143
cafe
241d
5556
047c
01e3
cafe
2805
5556
047c
0228
cafe
2c15
5556
0480
0294
cafe
300e
5556
0480
0235
cafe
341e
5556
0480
01c9
cafe
3806
5556
0480
01b1
cafe
3c16
5556
0484
022e
cafe
200f
5556
0484
0233
cafe
241f
5556
0484
0141
cafe
2807
5556
0484
025a
cafe
2c17
5556
0488
01a7
cafe
3008
5556
0488
025b
cafe
3418
5556
0488
0157
cafe
3800
5556
0488
0166
cafe
3c10
5556
048c
01c3
cafe
2009
5556
048c
01e3
cafe
2419
5556
048c
01d9
cafe
2801
5556
048c
0217
cafe
2c11
5556
0490
022b
cafe
300a
5556
0490
026d
cafe
341a
5556
0490
01dd
cafe
3802
5556
0490
0218
cafe
3c12
-
5556
0494
0202
cafe
200b
5556
0494
0160
cafe
241b
5556
0494
017a
cafe
2803
5556
0494
0191
cafe
2c13
5556
0498
0212
cafe
300c
5556
0498
0229
cafe
341c
5556
0498
01a6
cafe
3804
5556
0498
01ec
cafe
3c14
5556
049c
0206
cafe
200d
5556
049c
013e
cafe
241d
5556
049c
01d3
cafe
2805
5556
049c
022e
cafe
2c15
5556
04a0
0283
cafe
300e
5556
04a0
0231
cafe
341e
5556
04a0
01b6
cafe
3806
5556
04a0
01a8
cafe
3c16
5556
04a4
022e
cafe
200f
5556
04a4
0240
cafe
241f
5556
04a4
0134
cafe
2807
5556
04a4
025a
cafe
2c17
5556
04a8
019e
cafe
3008
5556
04a8
0260
cafe
3418
5556
04a8
015a
cafe
3800
5556
04a8
0136
cafe
3c10
5556
04ac
01b4
cafe
2009
5556
04ac
01d5
cafe
2419
5556
04ac
01c7
cafe
2801
5556
04ac
0207
cafe
2c11
5556
04b0
021f
cafe
300a
5556
04b0
0269
cafe
341a
5556
04b0
01ba
cafe
3802
5556
04b0
01f6
cafe
3c12
5556
04b4
01f8
cafe
200b
5556
04b4
0159
cafe
241b
5556
04b4
0176
cafe
2803
5556
04b4
018d
cafe
2c13
5556
04b8
0218
cafe
300c
5556
04b8
0214
cafe
341c
5556
04b8
01a6
cafe
3804
5556
04b8
01dc
cafe
3c14
5556
04bc
01ea
cafe
200d
5556
04bc
0155
cafe
241d
5556
04bc
01d9
cafe
2805
5556
04bc
0211
cafe
2c15
5556
04c0
0279
cafe
300e
5556
04c0
0225
cafe
341e
5556
04c0
01a9
cafe
3806
5556
04c0
01a3
cafe
3c16
5556
04c4
022a
cafe
200f
5556
04c4
0223
cafe
241f
5556
04c4
013e
cafe
2807
5556
-
04c4
025b
cafe
2c17
5556
04c8
019b
cafe
3008
5556
04c8
025a
cafe
3418
5556
04c8
015d
cafe
3800
5556
04c8
0149
cafe
3c10
5556
04cc
01a3
cafe
2009
5556
04cc
01c7
cafe
2419
5556
04cc
01d4
cafe
2801
5556
04cc
01f3
cafe
2c11
5556
04d0
0210
cafe
300a
5556
04d0
0259
cafe
341a
5556
04d0
01c0
cafe
3802
5556
04d0
01fe
cafe
3c12
5556
04d4
01f8
cafe
200b
5556
04d4
014b
cafe
241b
5556
04d4
0171
cafe
2803
5556
04d4
018e
cafe
2c13
5556
04d8
0203
cafe
300c
5556
04d8
021c
cafe
341c
5556
04d8
01b8
cafe
3804
5556
04d8
01e4
cafe
3c14
5556
04dc
01e8
cafe
200d
5556
04dc
0141
cafe
241d
5556
04dc
01ba
cafe
2805
5556
04dc
0206
cafe
2c15
5556
04e0
027b
cafe
300e
5556
04e0
021a
cafe
341e
5556
04e0
019c
cafe
3806
5556
04e0
01a7
cafe
3c16
5556
04e4
0216
cafe
200f
5556
04e4
021b
cafe
241f
5556
04e4
013d
cafe
2807
5556
04e4
024b
cafe
2c17
5556
04e8
018f
cafe
3008
5556
04e8
0248
cafe
3418
5556
04e8
015b
cafe
3800
5556
04e8
012e
cafe
3c10
5556
04ec
01a3
cafe
2009
5556
04ec
01c7
cafe
2419
5556
04ec
01c6
cafe
2801
5556
04ec
0203
cafe
2c11
5556
04f0
0210
cafe
300a
5556
04f0
0249
cafe
341a
5556
04f0
01c5
cafe
3802
5556
04f0
01ef
cafe
3c12
5556
04f4
01fe
cafe
200b
5556
04f4
014e
cafe
241b
5556
04f4
0153
cafe
2803
5556
04f4
0171
cafe
2c13
5556
04f8
0212
cafe
300c
5556
04f8
021d
cafe
341c
5556
04f8
-
019c
cafe
3804
5556
04f8
01ec
cafe
3c14
5556
04fc
01e2
cafe
200d
5556
04fc
012c
cafe
241d
5556
04fc
01bf
cafe
2805
5556
04fc
01f8
cafe
2c15
5556
0500
0263
cafe
300e
5556
0500
023a
cafe
341e
5556
0500
019b
cafe
3806
5556
0500
0198
cafe
3c16
5556
0504
021a
cafe
200f
5556
0504
022c
cafe
241f
5556
0504
0151
cafe
2807
5556
0504
0247
cafe
2c17
5556
0508
019b
cafe
3008
5556
0508
024c
cafe
3418
5556
0508
0160
cafe
3800
5556
0508
014b
cafe
3c10
5556
050c
01b3
cafe
2009
5556
050c
01bd
cafe
2419
5556
050c
01d1
cafe
2801
5556
050c
020a
cafe
2c11
5556
0510
01fd
cafe
300a
5556
0510
0247
cafe
341a
5556
0510
019b
cafe
3802
5556
0510
01d6
cafe
3c12
5556
0514
01e8
cafe
200b
5556
0514
0137
cafe
241b
5556
0514
015d
cafe
2803
5556
0514
017e
cafe
2c13
5556
0518
01f4
cafe
300c
5556
0518
0215
cafe
341c
5556
0518
019c
cafe
3804
5556
0518
01dd
cafe
3c14
5556
051c
01dd
cafe
200d
5556
051c
013c
cafe
241d
5556
051c
01cd
cafe
2805
5556
051c
01f4
cafe
2c15
5556
0520
025f
cafe
300e
5556
0520
021a
cafe
341e
5556
0520
01a6
cafe
3806
5556
0520
019c
cafe
3c16
5556
0524
020f
cafe
200f
5556
0524
021b
cafe
241f
5556
0524
0131
cafe
2807
5556
0524
023b
cafe
2c17
5556
0528
017e
cafe
3008
5556
0528
0237
cafe
3418
5556
0528
014a
cafe
3800
5556
0528
013f
cafe
3c10
5556
052c
01a2
cafe
2009
5556
052c
01cb
-
cafe
2419
5556
052c
01c2
cafe
2801
5556
052c
01ec
cafe
2c11
5556
0530
0204
cafe
300a
5556
0530
0244
cafe
341a
5556
0530
01a6
cafe
3802
5556
0530
01df
cafe
3c12
5556
0534
01eb
cafe
200b
5556
0534
0147
cafe
241b
5556
0534
0152
cafe
2803
5556
0534
0179
cafe
2c13
5556
0538
0203
cafe
300c
5556
0538
0212
cafe
341c
5556
0538
018a
cafe
3804
5556
0538
01eb
cafe
3c14
5556
053c
01db
cafe
200d
5556
053c
0133
cafe
241d
5556
053c
01c7
cafe
2805
5556
053c
01f4
cafe
2c15
5556
0540
0269
cafe
300e
5556
0540
0226
cafe
341e
5556
0540
018c
cafe
3806
5556
0540
019f
cafe
3c16
5556
0544
020e
cafe
200f
5556
0544
0203
cafe
241f
5556
0544
0125
cafe
2807
5556
0544
0248
cafe
2c17
5556
0548
017d
cafe
3008
5556
0548
023b
cafe
3418
5556
0548
0145
cafe
3800
5556
0548
0127
cafe
3c10
5556
054c
0199
cafe
2009
5556
054c
01c0
cafe
2419
5556
054c
01ba
cafe
2801
5556
054c
01ed
cafe
2c11
5556
0550
01fc
cafe
300a
5556
0550
0236
cafe
341a
5556
0550
019b
cafe
3802
5556
0550
01e3
cafe
3c12
5556
0554
01d8
cafe
200b
5556
0554
012c
cafe
241b
5556
0554
0155
cafe
2803
5556
0554
0177
cafe
2c13
5556
0558
01ec
cafe
300c
5556
0558
020a
cafe
341c
5556
0558
0194
cafe
3804
5556
0558
01d7
cafe
3c14
5556
055c
01ca
cafe
200d
5556
055c
0123
cafe
241d
5556
055c
01ae
cafe
2805
5556
055c
01e4
cafe
2c15
5556
0560
025a
cafe
-
