280c
5564
e2f8
0216
cafe
2c1c
5564
e2f8
0124
cafe
3004
5564
e2f8
01f0
cafe
3414
5564
e2fc
017e
cafe
380d
5564
e2fc
01be
cafe
3c1d
5564
e2fc
0196
cafe
2005
5564
e2fc
01b6
cafe
2415
5564
e300
0185
cafe
280e
5564
e300
0210
cafe
2c1e
5564
e300
018a
cafe
3006
5564
e300
01d1
cafe
3416
5564
e304
0132
cafe
380f
5564
e304
01af
cafe
3c1f
5564
e304
0205
cafe
2007
5564
e304
01b7
cafe
2417
5564
e308
0186
cafe
2808
5564
e308
0237
cafe
2c18
5564
e308
0157
cafe
3000
5564
e308
0190
cafe
3410
5564
e30c
014d
cafe
3809
5564
e30c
01bd
cafe
3c19
5564
e30c
016a
cafe
2001
5564
e30c
0213
cafe
2411
5564
e310
017f
cafe
280a
5564
e310
01a4
cafe
2c1a
5564
e310
0176
cafe
3002
5564
e310
01a0
cafe
3412
5564
e314
0150
cafe
380b
5564
e314
0197
cafe
3c1b
5564
e314
01a7
cafe
2003
5564
e314
01db
cafe
2413
5564
e318
014f
cafe
280c
5564
e318
0218
cafe
2c1c
5564
e318
011e
cafe
3004
5564
e318
01ee
cafe
3414
5564
e31c
017f
cafe
380d
5564
e31c
01bf
cafe
3c1d
5564
e31c
0198
cafe
2005
5564
e31c
01b6
cafe
2415
5564
e320
0180
cafe
280e
5564
e320
0212
cafe
2c1e
5564
e320
018e
cafe
3006
5564
e320
01d5
cafe
3416
5564
e324
0131
cafe
380f
5564
e324
01b4
cafe
3c1f
5564
e324
0208
cafe
2007
5564
e324
01b5
cafe
2417
5564
e328
0181
cafe
2808
5564
e328
0236
cafe
2c18
5564
e328
015c
cafe
3000
5564
e328
0193
cafe
3410
-
5564
e32c
0151
cafe
3809
5564
e32c
01bc
cafe
3c19
5564
e32c
016c
cafe
2001
5564
e32c
0214
cafe
2411
5564
e330
0180
cafe
280a
5564
e330
01a7
cafe
2c1a
5564
e330
0176
cafe
3002
5564
e330
019d
cafe
3412
5564
e334
014d
cafe
380b
5564
e334
0192
cafe
3c1b
5564
e334
01a1
cafe
2003
5564
e334
01dd
cafe
2413
5564
e338
014d
cafe
280c
5564
e338
0219
cafe
2c1c
5564
e338
011b
cafe
3004
5564
e338
01f0
cafe
3414
5564
e33c
017f
cafe
380d
5564
e33c
01bb
cafe
3c1d
5564
e33c
0193
cafe
2005
5564
e33c
01b3
cafe
2415
5564
e340
0189
cafe
280e
5564
e340
0209
cafe
2c1e
5564
e340
018a
cafe
3006
5564
e340
01d1
cafe
3416
5564
e344
012f
cafe
380f
5564
e344
01b4
cafe
3c1f
5564
e344
0206
cafe
2007
5564
e344
01b7
cafe
2417
5564
e348
017a
cafe
2808
5564
e348
022f
cafe
2c18
5564
e348
0162
cafe
3000
5564
e348
0188
cafe
3410
5564
e34c
014f
cafe
3809
5564
e34c
01b9
cafe
3c19
5564
e34c
016a
cafe
2001
5564
e34c
0213
cafe
2411
5564
e350
0183
cafe
280a
5564
e350
01a7
cafe
2c1a
5564
e350
0172
cafe
3002
5564
e350
0193
cafe
3412
5564
e354
014c
cafe
380b
5564
e354
0192
cafe
3c1b
5564
e354
019d
cafe
2003
5564
e354
01e2
cafe
2413
5564
e358
014c
cafe
280c
5564
e358
020f
cafe
2c1c
5564
e358
0114
cafe
3004
5564
e358
01ef
cafe
3414
5564
e35c
0184
cafe
380d
5564
e35c
01ba
cafe
3c1d
5564
e35c
0197
cafe
2005
5564
-
e35c
01ae
cafe
2415
5564
e360
0185
cafe
280e
5564
e360
0207
cafe
2c1e
5564
e360
018e
cafe
3006
5564
e360
01d0
cafe
3416
5564
e364
0130
cafe
380f
5564
e364
01b2
cafe
3c1f
5564
e364
0200
cafe
2007
5564
e364
01b5
cafe
2417
5564
e368
0176
cafe
2808
5564
e368
0227
cafe
2c18
5564
e368
0162
cafe
3000
5564
e368
018a
cafe
3410
5564
e36c
0148
cafe
3809
5564
e36c
01b8
cafe
3c19
5564
e36c
0166
cafe
2001
5564
e36c
020e
cafe
2411
5564
e370
017d
cafe
280a
5564
e370
01a5
cafe
2c1a
5564
e370
0172
cafe
3002
5564
e370
0195
cafe
3412
5564
e374
0143
cafe
380b
5564
e374
0197
cafe
3c1b
5564
e374
019d
cafe
2003
5564
e374
01de
cafe
2413
5564
e378
014b
cafe
280c
5564
e378
0210
cafe
2c1c
5564
e378
010f
cafe
3004
5564
e378
01e8
cafe
3414
5564
e37c
0184
cafe
380d
5564
e37c
01bd
cafe
3c1d
5564
e37c
019c
cafe
2005
5564
e37c
01b1
cafe
2415
5564
e380
018d
cafe
280e
5564
e380
0205
cafe
2c1e
5564
e380
0195
cafe
3006
5564
e380
01d2
cafe
3416
5564
e384
0135
cafe
380f
5564
e384
01a7
cafe
3c1f
5564
e384
01fa
cafe
2007
5564
e384
01bb
cafe
2417
5564
e388
0175
cafe
2808
5564
e388
0223
cafe
2c18
5564
e388
015d
cafe
3000
5564
e388
018f
cafe
3410
5564
e38c
014e
cafe
3809
5564
e38c
01ba
cafe
3c19
5564
e38c
0169
cafe
2001
5564
e38c
020f
cafe
2411
5564
e390
0182
cafe
280a
5564
e390
01a1
cafe
2c1a
5564
e390
-
0174
cafe
3002
5564
e390
019c
cafe
3412
5564
e394
0145
cafe
380b
5564
e394
0196
cafe
3c1b
5564
e394
01a4
cafe
2003
5564
e394
01db
cafe
2413
5564
e398
0147
cafe
280c
5564
e398
0219
cafe
2c1c
5564
e398
0110
cafe
3004
5564
e398
01eb
cafe
3414
5564
e39c
017f
cafe
380d
5564
e39c
01c1
cafe
3c1d
5564
e39c
0196
cafe
2005
5564
e39c
01b1
cafe
2415
5564
e3a0
0196
cafe
280e
5564
e3a0
0207
cafe
2c1e
5564
e3a0
0197
cafe
3006
5564
e3a0
01d8
cafe
3416
5564
e3a4
0134
cafe
380f
5564
e3a4
01a5
cafe
3c1f
5564
e3a4
01f4
cafe
2007
5564
e3a4
01b6
cafe
2417
5564
e3a8
0174
cafe
2808
5564
e3a8
021d
cafe
2c18
5564
e3a8
015e
cafe
3000
5564
e3a8
018d
cafe
3410
5564
e3ac
014d
cafe
3809
5564
e3ac
01b9
cafe
3c19
5564
e3ac
015f
cafe
2001
5564
e3ac
0210
cafe
2411
5564
e3b0
0186
cafe
280a
5564
e3b0
01a0
cafe
2c1a
5564
e3b0
016e
cafe
3002
5564
e3b0
0197
cafe
3412
5564
e3b4
0146
cafe
380b
5564
e3b4
01a0
cafe
3c1b
5564
e3b4
01a7
cafe
2003
5564
e3b4
01dd
cafe
2413
5564
e3b8
0145
cafe
280c
5564
e3b8
0215
cafe
2c1c
5564
e3b8
0113
cafe
3004
5564
e3b8
01ef
cafe
3414
5564
e3bc
017d
cafe
380d
5564
e3bc
01bf
cafe
3c1d
5564
e3bc
0199
cafe
2005
5564
e3bc
01ae
cafe
2415
5564
e3c0
0196
cafe
280e
5564
e3c0
0207
cafe
2c1e
5564
e3c0
019a
cafe
3006
5564
e3c0
01d6
cafe
3416
5564
e3c4
013c
cafe
380f
5564
e3c4
01a6
-
cafe
3c1f
5564
e3c4
01f4
cafe
2007
5564
e3c4
01b7
cafe
2417
5564
e3c8
0178
cafe
2808
5564
e3c8
0223
cafe
2c18
5564
e3c8
0161
cafe
3000
5564
e3c8
018c
cafe
3410
5564
e3cc
0154
cafe
3809
5564
e3cc
01c3
cafe
3c19
5564
e3cc
015b
cafe
2001
5564
e3cc
021c
cafe
2411
5564
e3d0
0186
cafe
280a
5564
e3d0
01a2
cafe
2c1a
5564
e3d0
0172
cafe
3002
5564
e3d0
019b
cafe
3412
5564
e3d4
014e
cafe
380b
5564
e3d4
019b
cafe
3c1b
5564
e3d4
01aa
cafe
2003
5564
e3d4
01e9
cafe
2413
5564
e3d8
0147
cafe
280c
5564
e3d8
0214
cafe
2c1c
5564
e3d8
011c
cafe
3004
5564
e3d8
01f1
cafe
3414
5564
e3dc
0177
cafe
380d
5564
e3dc
01bf
cafe
3c1d
5564
e3dc
0195
cafe
2005
5564
e3dc
01b3
cafe
2415
5564
e3e0
0198
cafe
280e
5564
e3e0
0209
cafe
2c1e
5564
e3e0
0198
cafe
3006
5564
e3e0
01d8
cafe
3416
5564
e3e4
0139
cafe
380f
5564
e3e4
01a7
cafe
3c1f
5564
e3e4
01f3
cafe
2007
5564
e3e4
01bd
cafe
2417
5564
e3e8
017c
cafe
2808
5564
e3e8
0227
cafe
2c18
5564
e3e8
0158
cafe
3000
5564
e3e8
018d
cafe
3410
5564
e3ec
0159
cafe
3809
5564
e3ec
01c1
cafe
3c19
5564
e3ec
015e
cafe
2001
5564
e3ec
0215
cafe
2411
5564
e3f0
0180
cafe
280a
5564
e3f0
01a9
cafe
2c1a
5564
e3f0
0172
cafe
3002
5564
e3f0
019e
cafe
3412
5564
e3f4
0151
cafe
380b
5564
e3f4
0195
cafe
3c1b
5564
e3f4
01af
cafe
2003
5564
e3f4
01e9
cafe
2413
5564
e3f8
0149
cafe
-
280c
5564
e3f8
0214
cafe
2c1c
5564
e3f8
0120
cafe
3004
5564
e3f8
01f4
cafe
3414
5564
e3fc
0175
cafe
380d
5564
e3fc
01be
cafe
3c1d
5564
e3fc
0198
cafe
2005
5564
e3fc
01b3
cafe
2415
5564
e400
0195
cafe
280e
5564
e400
0211
cafe
2c1e
5564
e400
0194
cafe
3006
5564
e400
01d7
cafe
3416
5564
e404
0137
cafe
380f
5564
e404
01a9
cafe
3c1f
5564
e404
01f7
cafe
2007
5564
e404
01c1
cafe
2417
5564
e408
0183
cafe
2808
5564
e408
022c
cafe
2c18
5564
e408
0159
cafe
3000
5564
e408
0188
cafe
3410
5564
e40c
0157
cafe
3809
5564
e40c
01c4
cafe
3c19
5564
e40c
0161
cafe
2001
5564
e40c
0218
cafe
2411
5564
e410
0183
cafe
280a
5564
e410
01a7
cafe
2c1a
5564
e410
0176
cafe
3002
5564
e410
0196
cafe
3412
5564
e414
0154
cafe
380b
5564
e414
0190
cafe
3c1b
5564
e414
01af
cafe
2003
5564
e414
01ec
cafe
2413
5564
e418
0148
cafe
280c
5564
e418
021a
cafe
2c1c
5564
e418
011f
cafe
3004
5564
e418
01f2
cafe
3414
5564
e41c
0172
cafe
380d
5564
e41c
01bd
cafe
3c1d
5564
e41c
01a2
cafe
2005
5564
e41c
01bb
cafe
2415
5564
e420
0196
cafe
280e
5564
e420
020f
cafe
2c1e
5564
e420
019a
cafe
3006
5564
e420
01de
cafe
3416
5564
e424
0136
cafe
380f
5564
e424
01aa
cafe
3c1f
5564
e424
01ee
cafe
2007
5564
e424
01c7
cafe
2417
5564
e428
0183
cafe
2808
5564
e428
022a
cafe
2c18
5564
e428
0157
cafe
3000
5564
e428
0191
cafe
3410
-
5564
e42c
0161
cafe
3809
5564
e42c
01c6
cafe
3c19
5564
e42c
0167
cafe
2001
5564
e42c
0219
cafe
2411
5564
e430
0182
cafe
280a
5564
e430
01aa
cafe
2c1a
5564
e430
0177
cafe
3002
5564
e430
0199
cafe
3412
5564
e434
0150
cafe
380b
5564
e434
0194
cafe
3c1b
5564
e434
01b3
cafe
2003
5564
e434
01e5
cafe
2413
5564
e438
0143
cafe
280c
5564
e438
021b
cafe
2c1c
5564
e438
011f
cafe
3004
5564
e438
01ef
cafe
3414
5564
e43c
0173
cafe
380d
5564
e43c
01bf
cafe
3c1d
5564
e43c
01a3
cafe
2005
5564
e43c
01b5
cafe
2415
5564
e440
019a
cafe
280e
5564
e440
020c
cafe
2c1e
5564
e440
01a0
cafe
3006
5564
e440
01df
cafe
3416
5564
e444
0137
cafe
380f
5564
e444
01ae
cafe
3c1f
5564
e444
01e9
cafe
2007
5564
e444
01c8
cafe
2417
5564
e448
017f
cafe
2808
5564
e448
0228
cafe
2c18
5564
e448
015a
cafe
3000
5564
e448
0196
cafe
3410
5564
e44c
0158
cafe
3809
5564
e44c
01c7
cafe
3c19
5564
e44c
0164
cafe
2001
5564
e44c
021c
cafe
2411
5564
e450
0181
cafe
280a
5564
e450
01a7
cafe
2c1a
5564
e450
0178
cafe
3002
5564
e450
0197
cafe
3412
5564
e454
0154
cafe
380b
5564
e454
019b
cafe
3c1b
5564
e454
01b0
cafe
2003
5564
e454
01ee
cafe
2413
5564
e458
0142
cafe
280c
5564
e458
0219
cafe
2c1c
5564
e458
011f
cafe
3004
5564
e458
01f3
cafe
3414
5564
e45c
017d
cafe
380d
5564
e45c
01c1
cafe
3c1d
5564
e45c
01a5
cafe
2005
5564
-
e45c
01b9
cafe
2415
5564
e460
019b
cafe
280e
5564
e460
0218
cafe
2c1e
5564
e460
019e
cafe
3006
5564
e460
01d7
cafe
3416
5564
e464
013f
cafe
380f
5564
e464
01b3
cafe
3c1f
5564
e464
01ec
cafe
2007
5564
e464
01cd
cafe
2417
5564
e468
017c
cafe
2808
5564
e468
022a
cafe
2c18
5564
e468
015f
cafe
3000
5564
e468
018d
cafe
3410
5564
e46c
0153
cafe
3809
5564
e46c
01c1
cafe
3c19
5564
e46c
0161
cafe
2001
5564
e46c
021c
cafe
2411
5564
e470
0180
cafe
280a
5564
e470
019f
cafe
2c1a
5564
e470
017a
cafe
3002
5564
e470
0195
cafe
3412
5564
e474
014d
cafe
380b
5564
e474
019a
cafe
3c1b
5564
e474
01b2
cafe
2003
5564
e474
01e6
cafe
2413
5564
e478
0149
cafe
280c
5564
e478
0215
cafe
2c1c
5564
e478
011d
cafe
3004
5564
e478
01f1
cafe
3414
5564
e47c
0179
cafe
380d
5564
e47c
01c3
cafe
3c1d
5564
e47c
01a6
cafe
2005
5564
e47c
01b5
cafe
2415
5564
e480
019b
cafe
280e
5564
e480
0217
cafe
2c1e
5564
e480
0198
cafe
3006
5564
e480
01dc
cafe
3416
5564
e484
0141
cafe
380f
5564
e484
01b4
cafe
3c1f
5564
e484
01f6
cafe
2007
5564
e484
01d2
cafe
2417
5564
e488
0180
cafe
2808
5564
e488
022c
cafe
2c18
5564
e488
0165
cafe
3000
5564
e488
0186
cafe
3410
5564
e48c
0152
cafe
3809
5564
e48c
01c1
cafe
3c19
5564
e48c
0162
cafe
2001
5564
e48c
0228
cafe
2411
5564
e490
0183
cafe
280a
5564
e490
01a5
cafe
2c1a
5564
e490
-
017a
cafe
3002
5564
e490
019b
cafe
3412
5564
e494
014e
cafe
380b
5564
e494
019c
cafe
3c1b
5564
e494
01b1
cafe
2003
5564
e494
01ea
cafe
2413
5564
e498
014f
cafe
280c
5564
e498
0215
cafe
2c1c
5564
e498
011b
cafe
3004
5564
e498
01ed
cafe
3414
5564
e49c
0181
cafe
380d
5564
e49c
01c2
cafe
3c1d
5564
e49c
01af
cafe
2005
5564
e49c
01b7
cafe
2415
5564
e4a0
019a
cafe
280e
5564
e4a0
0212
cafe
2c1e
5564
e4a0
0195
cafe
3006
5564
e4a0
01d8
cafe
3416
5564
e4a4
013e
cafe
380f
5564
e4a4
01b5
cafe
3c1f
5564
e4a4
01fc
cafe
2007
5564
e4a4
01cc
cafe
2417
5564
e4a8
017c
cafe
2808
5564
e4a8
0231
cafe
2c18
5564
e4a8
0160
cafe
3000
5564
e4a8
0186
cafe
3410
5564
e4ac
014f
cafe
3809
5564
e4ac
01c2
cafe
3c19
5564
e4ac
0164
cafe
2001
5564
e4ac
021f
cafe
2411
5564
e4b0
017e
cafe
280a
5564
e4b0
01a3
cafe
2c1a
5564
e4b0
0174
cafe
3002
5564
e4b0
0196
cafe
3412
5564
e4b4
0152
cafe
380b
5564
e4b4
019b
cafe
3c1b
5564
e4b4
01ad
cafe
2003
5564
e4b4
01e9
cafe
2413
5564
e4b8
014a
cafe
280c
5564
e4b8
0213
cafe
2c1c
5564
e4b8
0118
cafe
3004
5564
e4b8
01f0
cafe
3414
5564
e4bc
017d
cafe
380d
5564
e4bc
01c0
cafe
3c1d
5564
e4bc
01b1
cafe
2005
5564
e4bc
01b9
cafe
2415
5564
e4c0
0199
cafe
280e
5564
e4c0
0211
cafe
2c1e
5564
e4c0
019a
cafe
3006
5564
e4c0
01db
cafe
3416
5564
e4c4
0141
cafe
380f
5564
e4c4
01bb
-
cafe
3c1f
5564
e4c4
01fc
cafe
2007
5564
e4c4
01cb
cafe
2417
5564
e4c8
017b
cafe
2808
5564
e4c8
0233
cafe
2c18
5564
e4c8
0162
cafe
3000
5564
e4c8
0188
cafe
3410
5564
e4cc
0157
cafe
3809
5564
e4cc
01bf
cafe
3c19
5564
e4cc
016a
cafe
2001
5564
e4cc
0221
cafe
2411
5564
e4d0
017e
cafe
280a
5564
e4d0
01a5
cafe
2c1a
5564
e4d0
0170
cafe
3002
5564
e4d0
0193
cafe
3412
5564
e4d4
0154
cafe
380b
5564
e4d4
0199
cafe
3c1b
5564
e4d4
01b1
cafe
2003
5564
e4d4
01ee
cafe
2413
5564
e4d8
014a
cafe
280c
5564
e4d8
0210
cafe
2c1c
5564
e4d8
011a
cafe
3004
5564
e4d8
01f2
cafe
3414
5564
e4dc
017f
cafe
380d
5564
e4dc
01c0
cafe
3c1d
5564
e4dc
01ad
cafe
2005
5564
e4dc
01bd
cafe
2415
5564
e4e0
019a
cafe
280e
5564
e4e0
0213
cafe
2c1e
5564
e4e0
0199
cafe
3006
5564
e4e0
01db
cafe
3416
5564
e4e4
013b
cafe
380f
5564
e4e4
01bf
cafe
3c1f
5564
e4e4
01fd
cafe
2007
5564
e4e4
01c7
cafe
2417
5564
e4e8
017b
cafe
2808
5564
e4e8
0238
cafe
2c18
5564
e4e8
015c
cafe
3000
5564
e4e8
0188
cafe
3410
5564
e4ec
0160
cafe
3809
5564
e4ec
01c5
cafe
3c19
5564
e4ec
016b
cafe
2001
5564
e4ec
021e
cafe
2411
5564
e4f0
0181
cafe
280a
5564
e4f0
01a5
cafe
2c1a
5564
e4f0
016f
cafe
3002
5564
e4f0
0190
cafe
3412
5564
e4f4
015a
cafe
380b
5564
e4f4
0199
cafe
3c1b
5564
e4f4
01ba
cafe
2003
5564
e4f4
01ec
cafe
2413
5564
e4f8
014a
cafe
-
280c
5564
e4f8
0211
cafe
2c1c
5564
e4f8
0120
cafe
3004
5564
e4f8
01f0
cafe
3414
5564
e4fc
0183
cafe
380d
5564
e4fc
01c1
cafe
3c1d
5564
e4fc
01a9
cafe
2005
5564
e4fc
01c2
cafe
2415
5564
e500
01a1
cafe
280e
5564
e500
0213
cafe
2c1e
5564
e500
0196
cafe
3006
5564
e500
01db
cafe
3416
5564
e504
013e
cafe
380f
5564
e504
01ba
cafe
3c1f
5564
e504
01ff
cafe
2007
5564
e504
01ca
cafe
2417
5564
e508
017c
cafe
2808
5564
e508
023b
cafe
2c18
5564
e508
015c
cafe
3000
5564
e508
0187
cafe
3410
5564
e50c
0164
cafe
3809
5564
e50c
01c3
cafe
3c19
5564
e50c
016a
cafe
2001
5564
e50c
021d
cafe
2411
5564
e510
017f
cafe
280a
5564
e510
01a6
cafe
2c1a
5564
e510
0173
cafe
3002
5564
e510
019a
cafe
3412
5564
e514
0156
cafe
380b
5564
e514
019b
cafe
3c1b
5564
e514
01c0
cafe
2003
5564
e514
01e7
cafe
2413
5564
e518
014c
cafe
280c
5564
e518
020f
cafe
2c1c
5564
e518
0120
cafe
3004
5564
e518
01f4
cafe
3414
5564
e51c
0183
cafe
380d
5564
e51c
01c1
cafe
3c1d
5564
e51c
01a5
cafe
2005
5564
e51c
01c2
cafe
2415
5564
e520
019f
cafe
280e
5564
e520
0212
cafe
2c1e
5564
e520
019b
cafe
3006
5564
e520
01dc
cafe
3416
5564
e524
013e
cafe
380f
5564
e524
01ec
cafe
3c1f
5564
e524
0231
cafe
2007
5564
e524
01fc
cafe
2417
5564
e528
01b4
cafe
2808
5564
e528
0304
cafe
2c18
5564
e528
0220
cafe
3000
5564
e528
0252
cafe
3410
-
5564
e52c
0231
cafe
3809
5564
e52c
031e
cafe
3c19
5564
e52c
02c1
cafe
2001
5564
e52c
0370
cafe
2411
5564
e530
02e4
cafe
280a
5564
e530
0381
cafe
2c1a
5564
e530
0350
cafe
3002
5564
e530
0373
cafe
3412
5564
e534
033d
cafe
380b
5564
e534
03f1
cafe
3c1b
5564
e534
040d
cafe
2003
5564
e534
0434
cafe
2413
5564
e538
03ac
cafe
280c
5564
e538
04d6
cafe
2c1c
5564
e538
03e1
cafe
3004
5564
e538
04b4
cafe
3414
5564
e53c
044d
cafe
380d
5564
e53c
04e9
cafe
3c1d
5564
e53c
04c1
cafe
2005
5564
e53c
04e1
cafe
2415
5564
e540
04ca
cafe
280e
5564
e540
0590
cafe
2c1e
5564
e540
0514
cafe
3006
5564
e540
0559
cafe
3416
5564
e544
04ca
cafe
380f
5564
e544
057e
cafe
3c1f
5564
e544
05c9
cafe
2007
5564
e544
0585
cafe
2417
5564
e548
0560
cafe
2808
5564
e548
0652
cafe
2c18
5564
e548
0569
cafe
3000
5564
e548
05a6
cafe
3410
5564
e54c
0584
cafe
3809
5564
e54c
061c
cafe
3c19
5564
e54c
05ba
cafe
2001
5564
e54c
066b
cafe
2411
5564
e550
05eb
cafe
280a
5564
e550
0630
cafe
2c1a
5564
e550
05fe
cafe
3002
5564
e550
061f
cafe
3412
5564
e554
0601
cafe
380b
5564
e554
0664
cafe
3c1b
5564
e554
067d
cafe
2003
5564
e554
06a3
cafe
2413
5564
e558
061e
cafe
280c
5564
e558
0709
cafe
2c1c
5564
e558
060b
cafe
3004
5564
e558
06e3
cafe
3414
5564
e55c
068a
cafe
380d
5564
e55c
06e6
cafe
3c1d
5564
e55c
06b4
cafe
2005
5564
-
e55c
06d6
cafe
2415
5564
e560
06c0
cafe
280e
5564
e560
0755
cafe
2c1e
5564
e560
06e0
cafe
3006
5564
e560
071c
cafe
3416
5564
e564
0696
cafe
380f
5564
e564
0714
cafe
3c1f
5564
e564
075f
cafe
2007
5564
e564
0715
cafe
2417
5564
e568
06fd
cafe
2808
5564
e568
07c2
cafe
2c18
5564
e568
06d5
cafe
3000
5564
e568
0713
cafe
3410
5564
e56c
06f0
cafe
3809
5564
e56c
075e
cafe
3c19
5564
e56c
06f4
cafe
2001
5564
e56c
07b4
cafe
2411
5564
e570
0735
cafe
280a
5564
e570
0757
cafe
2c1a
5564
e570
071a
cafe
3002
5564
e570
0738
cafe
3412
5564
e574
0729
cafe
380b
5564
e574
0762
cafe
3c1b
5564
e574
0778
cafe
2003
5564
e574
079f
cafe
2413
5564
e578
0719
cafe
280c
5564
e578
07ed
cafe
2c1c
5564
e578
06e5
cafe
3004
5564
e578
07c6
cafe
3414
5564
e57c
0761
cafe
380d
5564
e57c
07a6
cafe
3c1d
5564
e57c
0770
cafe
2005
5564
e57c
079d
cafe
2415
5564
e580
0783
cafe
280e
5564
e580
0807
cafe
2c1e
5564
e580
0786
cafe
3006
5564
e580
07c5
cafe
3416
5564
e584
0741
cafe
380f
5564
e584
07ac
cafe
3c1f
5564
e584
07f8
cafe
2007
5564
e584
07a6
cafe
2417
5564
e588
0795
cafe
2808
5564
e588
0845
cafe
2c18
5564
e588
0753
cafe
3000
5564
e588
078f
cafe
3410
5564
e58c
0768
cafe
3809
5564
e58c
07c3
cafe
3c19
5564
e58c
0758
cafe
2001
5564
e58c
0826
cafe
2411
5564
e590
07a4
cafe
280a
5564
e590
07b9
cafe
2c1a
5564
e590
-
076e
cafe
3002
5564
e590
0796
cafe
3412
5564
e594
0782
cafe
380b
5564
e594
07a5
cafe
3c1b
5564
e594
07ba
cafe
2003
5564
e594
07e5
cafe
2413
5564
e598
075c
cafe
280c
5564
e598
082c
cafe
2c1c
5564
e598
071d
cafe
3004
5564
e598
0801
cafe
3414
5564
e59c
0799
cafe
380d
5564
e59c
07d0
cafe
3c1d
5564
e59c
079a
cafe
2005
5564
e59c
07c3
cafe
2415
5564
e5a0
07b2
cafe
280e
5564
e5a0
0827
cafe
2c1e
5564
e5a0
079f
cafe
3006
5564
e5a0
07de
cafe
3416
5564
e5a4
075b
cafe
380f
5564
e5a4
07c0
cafe
3c1f
5564
e5a4
080a
cafe
2007
5564
e5a4
07b5
cafe
2417
5564
e5a8
07a0
cafe
2808
5564
e5a8
084e
cafe
2c18
5564
e5a8
0759
cafe
3000
5564
e5a8
0795
cafe
3410
5564
e5ac
0776
cafe
3809
5564
e5ac
07c4
cafe
3c19
5564
e5ac
0752
cafe
2001
5564
e5ac
082e
cafe
2411
5564
e5b0
07a0
cafe
280a
5564
e5b0
07b1
cafe
2c1a
5564
e5b0
0761
cafe
3002
5564
e5b0
078a
cafe
3412
5564
e5b4
0770
cafe
380b
5564
e5b4
0792
cafe
3c1b
5564
e5b4
079f
cafe
2003
5564
e5b4
07ce
cafe
2413
5564
e5b8
073e
cafe
280c
5564
e5b8
0814
cafe
2c1c
5564
e5b8
0703
cafe
3004
5564
e5b8
07ec
cafe
3414
5564
e5bc
0782
cafe
380d
5564
e5bc
07a9
cafe
3c1d
5564
e5bc
0771
cafe
2005
5564
e5bc
07a3
cafe
2415
5564
e5c0
078d
cafe
280e
5564
e5c0
0803
cafe
2c1e
5564
e5c0
0778
cafe
3006
5564
e5c0
07ac
cafe
3416
5564
e5c4
0730
cafe
380f
5564
e5c4
0793
-
cafe
3c1f
5564
e5c4
07d9
cafe
2007
5564
e5c4
0787
cafe
2417
5564
e5c8
076e
cafe
2808
5564
e5c8
081b
cafe
2c18
5564
e5c8
0721
cafe
3000
5564
e5c8
0768
cafe
3410
5564
e5cc
0743
cafe
3809
5564
e5cc
0790
cafe
3c19
5564
e5cc
0717
cafe
2001
5564
e5cc
07f9
cafe
2411
5564
e5d0
0768
cafe
280a
5564
e5d0
077d
cafe
2c1a
5564
e5d0
0729
cafe
3002
5564
e5d0
0756
cafe
3412
5564
e5d4
0739
cafe
380b
5564
e5d4
0756
cafe
3c1b
5564
e5d4
0765
cafe
2003
5564
e5d4
078c
cafe
2413
5564
e5d8
06f1
cafe
280c
5564
e5d8
07d1
cafe
2c1c
5564
e5d8
06bb
cafe
3004
5564
e5d8
07a6
cafe
3414
5564
e5dc
0739
cafe
380d
5564
e5dc
0763
cafe
3c1d
5564
e5dc
0727
cafe
2005
5564
e5dc
0765
cafe
2415
5564
e5e0
0743
cafe
280e
5564
e5e0
07bd
cafe
2c1e
5564
e5e0
072a
cafe
3006
5564
e5e0
076b
cafe
3416
5564
e5e4
06e3
cafe
380f
5564
e5e4
0750
cafe
3c1f
5564
e5e4
0791
cafe
2007
5564
e5e4
0732
cafe
2417
5564
e5e8
071f
cafe
2808
5564
e5e8
07ce
cafe
2c18
5564
e5e8
06d2
cafe
3000
5564
e5e8
071f
cafe
3410
5564
e5ec
06fa
cafe
3809
5564
e5ec
073e
cafe
3c19
5564
e5ec
06ca
cafe
2001
5564
e5ec
07a7
cafe
2411
5564
e5f0
0710
cafe
280a
5564
e5f0
072c
cafe
2c1a
5564
e5f0
06d7
cafe
3002
5564
e5f0
070d
cafe
3412
5564
e5f4
06dd
cafe
380b
5564
e5f4
0707
cafe
3c1b
5564
e5f4
0714
cafe
2003
5564
e5f4
0739
cafe
2413
5564
e5f8
06a0
cafe
-
280c
5564
e5f8
0778
cafe
2c1c
5564
e5f8
0668
cafe
3004
5564
e5f8
0753
cafe
3414
5564
e5fc
06e5
cafe
380d
5564
e5fc
070d
cafe
3c1d
5564
e5fc
06c9
cafe
2005
5564
e5fc
070f
cafe
2415
5564
e600
06f6
cafe
280e
5564
e600
0769
cafe
2c1e
5564
e600
06d9
cafe
3006
5564
e600
0715
cafe
3416
5564
e604
0687
cafe
380f
5564
e604
06fa
cafe
3c1f
5564
e604
0739
cafe
2007
5564
e604
06e3
cafe
2417
5564
e608
06cd
cafe
2808
5564
e608
0777
cafe
2c18
5564
e608
0678
cafe
3000
5564
e608
06c7
cafe
3410
5564
e60c
06a3
cafe
3809
5564
e60c
06e4
cafe
3c19
5564
e60c
067d
cafe
2001
5564
e60c
0750
cafe
2411
5564
e610
06b6
cafe
280a
5564
e610
06d6
cafe
2c1a
5564
e610
0682
cafe
3002
5564
e610
06b4
cafe
3412
5564
e614
0685
cafe
380b
5564
e614
06ad
cafe
3c1b
5564
e614
06b9
cafe
2003
5564
e614
06e5
cafe
2413
5564
e618
0643
cafe
280c
5564
e618
0723
cafe
2c1c
5564
e618
0608
cafe
3004
5564
e618
06fd
cafe
3414
5564
e61c
068b
cafe
380d
5564
e61c
06b2
cafe
3c1d
5564
e61c
066e
cafe
2005
5564
e61c
06b4
cafe
2415
5564
e620
0696
cafe
280e
5564
e620
0715
cafe
2c1e
5564
e620
067f
cafe
3006
5564
e620
06bd
cafe
3416
5564
e624
0622
cafe
380f
5564
e624
06a3
cafe
3c1f
5564
e624
06e4
cafe
2007
5564
e624
0687
cafe
2417
5564
e628
0676
cafe
2808
5564
e628
0726
cafe
2c18
5564
e628
0621
cafe
3000
5564
e628
0671
cafe
3410
-
5564
e62c
0644
cafe
3809
5564
e62c
0689
cafe
3c19
5564
e62c
0622
cafe
2001
5564
e62c
06fb
cafe
2411
5564
e630
0658
cafe
280a
5564
e630
0683
cafe
2c1a
5564
e630
062e
cafe
3002
5564
e630
065f
cafe
3412
5564
e634
0627
cafe
380b
5564
e634
0657
cafe
3c1b
5564
e634
0658
cafe
2003
5564
e634
0693
cafe
2413
5564
e638
05e5
cafe
280c
5564
e638
06c9
cafe
2c1c
5564
e638
05b0
cafe
3004
5564
e638
06a7
cafe
3414
5564
e63c
0630
cafe
380d
5564
e63c
065f
cafe
3c1d
5564
e63c
0611
cafe
2005
5564
e63c
0652
cafe
2415
5564
e640
063f
cafe
280e
5564
e640
06ba
cafe
2c1e
5564
e640
061f
cafe
3006
5564
e640
065c
cafe
3416
5564
e644
05c7
cafe
380f
5564
e644
064c
cafe
3c1f
5564
e644
0690
cafe
2007
5564
e644
062b
cafe
2417
5564
e648
061d
cafe
2808
5564
e648
06d1
cafe
2c18
5564
e648
05cb
cafe
3000
5564
e648
0610
cafe
3410
5564
e64c
05ef
cafe
3809
5564
e64c
0630
cafe
3c19
5564
e64c
05cb
cafe
2001
5564
e64c
06a1
cafe
2411
5564
e650
05fc
cafe
280a
5564
e650
0626
cafe
2c1a
5564
e650
05d6
cafe
3002
5564
e650
0604
cafe
3412
5564
e654
05ca
cafe
380b
5564
e654
0602
cafe
3c1b
5564
e654
05fd
cafe
2003
5564
e654
0641
cafe
2413
5564
e658
0588
cafe
280c
5564
e658
0672
cafe
2c1c
5564
e658
055b
cafe
3004
5564
e658
064a
cafe
3414
5564
e65c
05ce
cafe
380d
5564
e65c
0608
cafe
3c1d
5564
e65c
05ba
cafe
2005
5564
-
e65c
05ff
cafe
2415
5564
e660
05ea
cafe
280e
5564
e660
0662
cafe
2c1e
5564
e660
05c3
cafe
3006
5564
e660
0606
cafe
3416
5564
e664
0572
cafe
380f
5564
e664
05f3
cafe
3c1f
5564
e664
0635
cafe
2007
5564
e664
05d6
cafe
2417
5564
e668
05c1
cafe
2808
5564
e668
067a
cafe
2c18
5564
e668
0571
cafe
3000
5564
e668
05b7
cafe
3410
5564
e66c
0598
cafe
3809
5564
e66c
05dd
cafe
3c19
5564
e66c
0575
cafe
2001
5564
e66c
064a
cafe
2411
5564
e670
05a7
cafe
280a
5564
e670
05d1
cafe
2c1a
5564
e670
057d
cafe
3002
5564
e670
05b4
cafe
3412
5564
e674
0579
cafe
380b
5564
e674
05b3
cafe
3c1b
5564
e674
05a4
cafe
2003
5564
e674
05ef
cafe
2413
5564
e678
0537
cafe
280c
5564
e678
0620
cafe
2c1c
5564
e678
0505
cafe
3004
5564
e678
05ed
cafe
3414
5564
e67c
0574
cafe
380d
5564
e67c
05ba
cafe
3c1d
5564
e67c
056a
cafe
2005
5564
e67c
05ad
cafe
2415
5564
e680
0598
cafe
280e
5564
e680
0610
cafe
2c1e
5564
e680
056a
cafe
3006
5564
e680
05b2
cafe
3416
5564
e684
0518
cafe
380f
5564
e684
05a1
cafe
3c1f
5564
e684
05e5
cafe
2007
5564
e684
0589
cafe
2417
5564
e688
056f
cafe
2808
5564
e688
062a
cafe
2c18
5564
e688
0529
cafe
3000
5564
e688
055d
cafe
3410
5564
e68c
0541
cafe
3809
5564
e68c
058c
cafe
3c19
5564
e68c
0522
cafe
2001
5564
e68c
05fe
cafe
2411
5564
e690
0559
cafe
280a
5564
e690
0585
cafe
2c1a
5564
e690
-
0529
cafe
3002
5564
e690
0570
cafe
3412
5564
e694
052e
cafe
380b
5564
e694
055c
cafe
3c1b
5564
e694
0557
cafe
2003
5564
e694
05a2
cafe
2413
5564
e698
04e3
cafe
280c
5564
e698
05cc
cafe
2c1c
5564
e698
04b5
cafe
3004
5564
e698
059f
cafe
3414
5564
e69c
0526
cafe
380d
5564
e69c
0576
cafe
3c1d
5564
e69c
051d
cafe
2005
5564
e69c
0557
cafe
2415
5564
e6a0
053e
cafe
280e
5564
e6a0
05c0
cafe
2c1e
5564
e6a0
0518
cafe
3006
5564
e6a0
056c
cafe
3416
5564
e6a4
04cb
cafe
380f
5564
e6a4
054d
cafe
3c1f
5564
e6a4
0593
cafe
2007
5564
e6a4
053d
cafe
2417
5564
e6a8
0520
cafe
2808
5564
e6a8
05db
cafe
2c18
5564
e6a8
04d5
cafe
3000
5564
e6a8
0511
cafe
3410
5564
e6ac
04f9
cafe
3809
5564
e6ac
0546
cafe
3c19
5564
e6ac
04d6
cafe
2001
5564
e6ac
05ad
cafe
2411
5564
e6b0
050d
cafe
280a
5564
e6b0
053d
cafe
2c1a
5564
e6b0
04d7
cafe
3002
5564
e6b0
051b
cafe
3412
5564
e6b4
04de
cafe
380b
5564
e6b4
050c
cafe
3c1b
5564
e6b4
050f
cafe
2003
5564
e6b4
0553
cafe
2413
5564
e6b8
049e
cafe
280c
5564
e6b8
0584
cafe
2c1c
5564
e6b8
0466
cafe
3004
5564
e6b8
0553
cafe
3414
5564
e6bc
04d3
cafe
380d
5564
e6bc
052c
cafe
3c1d
5564
e6bc
04d5
cafe
2005
5564
e6bc
0506
cafe
2415
5564
e6c0
04f3
cafe
280e
5564
e6c0
057b
cafe
2c1e
5564
e6c0
04cd
cafe
3006
5564
e6c0
0529
cafe
3416
5564
e6c4
0487
cafe
380f
5564
e6c4
0505
-
cafe
3c1f
5564
e6c4
054a
cafe
2007
5564
e6c4
04f6
cafe
2417
5564
e6c8
04d9
cafe
2808
5564
e6c8
058e
cafe
2c18
5564
e6c8
048a
cafe
3000
5564
e6c8
04ce
cafe
3410
5564
e6cc
04ae
cafe
3809
5564
e6cc
0502
cafe
3c19
5564
e6cc
0491
cafe
2001
5564
e6cc
0566
cafe
2411
5564
e6d0
04cc
cafe
280a
5564
e6d0
04f7
cafe
2c1a
5564
e6d0
0490
cafe
3002
5564
e6d0
04d7
cafe
3412
5564
e6d4
049d
cafe
380b
5564
e6d4
04c6
cafe
3c1b
5564
e6d4
04cf
cafe
2003
5564
e6d4
050d
cafe
2413
5564
e6d8
0457
cafe
280c
5564
e6d8
0544
cafe
2c1c
5564
e6d8
0421
cafe
3004
5564
e6d8
0516
cafe
3414
5564
e6dc
0492
cafe
380d
5564
e6dc
04e4
cafe
3c1d
5564
e6dc
048e
cafe
2005
5564
e6dc
04c5
cafe
2415
5564
e6e0
04af
cafe
280e
5564
e6e0
0534
cafe
2c1e
5564
e6e0
048c
cafe
3006
5564
e6e0
04e2
cafe
3416
5564
e6e4
0447
cafe
380f
5564
e6e4
04c5
cafe
3c1f
5564
e6e4
0508
cafe
2007
5564
e6e4
04b7
cafe
2417
5564
e6e8
048e
cafe
2808
5564
e6e8
054a
cafe
2c18
5564
e6e8
044c
cafe
3000
5564
e6e8
0489
cafe
3410
5564
e6ec
0465
cafe
3809
5564
e6ec
04ca
cafe
3c19
5564
e6ec
044a
cafe
2001
5564
e6ec
052b
cafe
2411
5564
e6f0
0491
cafe
280a
5564
e6f0
04b8
cafe
2c1a
5564
e6f0
0459
cafe
3002
5564
e6f0
0495
cafe
3412
5564
e6f4
045c
cafe
380b
5564
e6f4
0480
cafe
3c1b
5564
e6f4
048a
cafe
2003
5564
e6f4
04cf
cafe
2413
5564
e6f8
0411
cafe
-
280c
5564
e6f8
050c
cafe
2c1c
5564
e6f8
03e5
cafe
3004
5564
e6f8
04dd
cafe
3414
5564
e6fc
045a
cafe
380d
5564
e6fc
04a7
cafe
3c1d
5564
e6fc
0450
cafe
2005
5564
e6fc
048c
cafe
2415
5564
e700
046c
cafe
280e
5564
e700
04f6
cafe
2c1e
5564
e700
044a
cafe
3006
5564
e700
04a7
cafe
3416
5564
e704
0410
cafe
380f
5564
e704
048e
cafe
3c1f
5564
e704
04cb
cafe
2007
5564
e704
047c
cafe
2417
5564
e708
0451
cafe
2808
5564
e708
0510
cafe
2c18
5564
e708
041a
cafe
3000
5564
e708
0452
cafe
3410
5564
e70c
0428
cafe
3809
5564
e70c
0489
cafe
3c19
5564
e70c
040d
cafe
2001
5564
e70c
04ea
cafe
2411
5564
e710
0453
cafe
280a
5564
e710
0477
cafe
2c1a
5564
e710
0422
cafe
3002
5564
e710
0458
cafe
3412
5564
e714
041f
cafe
380b
5564
e714
0441
cafe
3c1b
5564
e714
0445
cafe
2003
5564
e714
0493
cafe
2413
5564
e718
03db
cafe
280c
5564
e718
04cd
cafe
2c1c
5564
e718
03ab
cafe
3004
5564
e718
049e
cafe
3414
5564
e71c
041a
cafe
380d
5564
e71c
0472
cafe
3c1d
5564
e71c
0417
cafe
2005
5564
e71c
0456
cafe
2415
5564
e720
042f
cafe
280e
5564
e720
04c2
cafe
2c1e
5564
e720
0410
cafe
3006
5564
e720
046b
cafe
3416
5564
e724
03d3
cafe
380f
5564
e724
045d
cafe
3c1f
5564
e724
0493
cafe
2007
5564
e724
043d
cafe
2417
5564
e728
041f
cafe
2808
5564
e728
04e0
cafe
2c18
5564
e728
03e1
cafe
3000
5564
e728
0419
cafe
3410
-
5564
e72c
03ec
cafe
3809
5564
e72c
0451
cafe
3c19
5564
e72c
03d5
cafe
2001
5564
e72c
04b4
cafe
2411
5564
e730
0416
cafe
280a
5564
e730
0438
cafe
2c1a
5564
e730
03ea
cafe
3002
5564
e730
0415
cafe
3412
5564
e734
03e4
cafe
380b
5564
e734
0405
cafe
3c1b
5564
e734
0407
cafe
2003
5564
e734
045d
cafe
2413
5564
e738
039e
cafe
280c
5564
e738
0489
cafe
2c1c
5564
e738
036f
cafe
3004
5564
e738
0468
cafe
3414
5564
e73c
03eb
cafe
380d
5564
e73c
0440
cafe
3c1d
5564
e73c
03d6
cafe
2005
5564
e73c
0423
cafe
2415
5564
e740
03f2
cafe
280e
5564
e740
0485
cafe
2c1e
5564
e740
03d2
cafe
3006
5564
e740
0435
cafe
3416
5564
e744
0391
cafe
380f
5564
e744
0428
cafe
3c1f
5564
e744
0456
cafe
2007
5564
e744
03ff
cafe
2417
5564
e748
03e7
cafe
2808
5564
e748
04ab
cafe
2c18
5564
e748
03ab
cafe
3000
5564
e748
03e1
cafe
3410
5564
e74c
03bd
cafe
3809
5564
e74c
041d
cafe
3c19
5564
e74c
03a2
cafe
2001
5564
e74c
047c
cafe
2411
5564
e750
03df
cafe
280a
5564
e750
0406
cafe
2c1a
5564
e750
03b5
cafe
3002
5564
e750
03df
cafe
3412
5564
e754
03b0
cafe
380b
5564
e754
03d3
cafe
3c1b
5564
e754
03d0
cafe
2003
5564
e754
0429
cafe
2413
5564
e758
0366
cafe
280c
5564
e758
0459
cafe
2c1c
5564
e758
033d
cafe
3004
5564
e758
0431
cafe
3414
5564
e75c
03bb
cafe
380d
5564
e75c
0404
cafe
3c1d
5564
e75c
03a1
cafe
2005
5564
-
e75c
03f5
cafe
2415
5564
e760
03bb
cafe
280e
5564
e760
044f
cafe
2c1e
5564
e760
03a5
cafe
3006
5564
e760
0401
cafe
3416
5564
e764
035f
cafe
380f
5564
e764
0400
cafe
3c1f
5564
e764
0429
cafe
2007
5564
e764
03cc
cafe
2417
5564
e768
03b1
cafe
2808
5564
e768
0475
cafe
2c18
5564
e768
0382
cafe
3000
5564
e768
03ac
cafe
3410
5564
e76c
038d
cafe
3809
5564
e76c
03ec
cafe
3c19
5564
e76c
0375
cafe
2001
5564
e76c
044d
cafe
2411
5564
e770
03ac
cafe
280a
5564
e770
03d4
cafe
2c1a
5564
e770
0388
cafe
3002
5564
e770
03aa
cafe
3412
5564
e774
0380
cafe
380b
5564
e774
03b2
cafe
3c1b
5564
e774
03a5
cafe
2003
5564
e774
0401
cafe
2413
5564
e778
0330
cafe
280c
5564
e778
0432
cafe
2c1c
5564
e778
030e
cafe
3004
5564
e778
0400
cafe
3414
5564
e77c
038c
cafe
380d
5564
e77c
03d2
cafe
3c1d
5564
e77c
0379
cafe
2005
5564
e77c
03cd
cafe
2415
5564
e780
038e
cafe
280e
5564
e780
041f
cafe
2c1e
5564
e780
0377
cafe
3006
5564
e780
03d5
cafe
3416
5564
e784
0331
cafe
380f
5564
e784
03d3
cafe
3c1f
5564
e784
03fd
cafe
2007
5564
e784
03a0
cafe
2417
5564
e788
038a
cafe
2808
5564
e788
0446
cafe
2c18
5564
e788
0353
cafe
3000
5564
e788
037f
cafe
3410
5564
e78c
035a
cafe
3809
5564
e78c
03ba
cafe
3c19
5564
e78c
0349
cafe
2001
5564
e78c
041e
cafe
2411
5564
e790
0380
cafe
280a
5564
e790
03a7
cafe
2c1a
5564
e790
-
035b
cafe
3002
5564
e790
0381
cafe
3412
5564
e794
0357
cafe
380b
5564
e794
0384
cafe
3c1b
5564
e794
0383
cafe
2003
5564
e794
03d4
cafe
2413
5564
e798
030c
cafe
280c
5564
e798
0408
cafe
2c1c
5564
e798
02e5
cafe
3004
5564
e798
03cf
cafe
3414
5564
e79c
0361
cafe
380d
5564
e79c
03a7
cafe
3c1d
5564
e79c
034c
cafe
2005
5564
e79c
039c
cafe
2415
5564
e7a0
0361
cafe
280e
5564
e7a0
03f1
cafe
2c1e
5564
e7a0
034b
cafe
3006
5564
e7a0
03af
cafe
3416
5564
e7a4
0307
cafe
380f
5564
e7a4
03a3
cafe
3c1f
5564
e7a4
03ca
cafe
2007
5564
e7a4
0373
cafe
2417
5564
e7a8
0356
cafe
2808
5564
e7a8
0420
cafe
2c18
5564
e7a8
031e
cafe
3000
5564
e7a8
034d
cafe
3410
5564
e7ac
032a
cafe
3809
5564
e7ac
038a
cafe
3c19
5564
e7ac
031e
cafe
2001
5564
e7ac
03ef
cafe
2411
5564
e7b0
0357
cafe
280a
5564
e7b0
037b
cafe
2c1a
5564
e7b0
032c
cafe
3002
5564
e7b0
0359
cafe
3412
5564
e7b4
032e
cafe
380b
5564
e7b4
035e
cafe
3c1b
5564
e7b4
035c
cafe
2003
5564
e7b4
03aa
cafe
2413
5564
e7b8
02e3
cafe
280c
5564
e7b8
03df
cafe
2c1c
5564
e7b8
02b7
cafe
3004
5564
e7b8
039f
cafe
3414
5564
e7bc
033c
cafe
380d
5564
e7bc
0377
cafe
3c1d
5564
e7bc
0326
cafe
2005
5564
e7bc
036d
cafe
2415
5564
e7c0
033a
cafe
280e
5564
e7c0
03c5
cafe
2c1e
5564
e7c0
0320
cafe
3006
5564
e7c0
0386
cafe
3416
5564
e7c4
02e1
cafe
380f
5564
e7c4
0382
-
cafe
3c1f
5564
e7c4
039f
cafe
2007
5564
e7c4
034d
cafe
2417
5564
e7c8
0327
cafe
2808
5564
e7c8
03f9
cafe
2c18
5564
e7c8
02f1
cafe
3000
5564
e7c8
0321
cafe
3410
5564
e7cc
02fb
cafe
3809
5564
e7cc
0362
cafe
3c19
5564
e7cc
02ff
cafe
2001
5564
e7cc
03c8
cafe
2411
5564
e7d0
0337
cafe
280a
5564
e7d0
0356
cafe
2c1a
5564
e7d0
030a
cafe
3002
5564
e7d0
0332
cafe
3412
5564
e7d4
0304
cafe
380b
5564
e7d4
033b
cafe
3c1b
5564
e7d4
0335
cafe
2003
5564
e7d4
0382
cafe
2413
5564
e7d8
02c1
cafe
280c
5564
e7d8
03bd
cafe
2c1c
5564
e7d8
0291
cafe
3004
5564
e7d8
037c
cafe
3414
5564
e7dc
030e
cafe
380d
5564
e7dc
0351
cafe
3c1d
5564
e7dc
0300
cafe
2005
5564
e7dc
0344
cafe
2415
5564
e7e0
0317
cafe
280e
5564
e7e0
0399
cafe
2c1e
5564
e7e0
0303
cafe
3006
5564
e7e0
035f
cafe
3416
5564
e7e4
02bc
cafe
380f
5564
e7e4
0355
cafe
3c1f
5564
e7e4
0378
cafe
2007
5564
e7e4
0326
cafe
2417
5564
e7e8
0300
cafe
2808
5564
e7e8
03d2
cafe
2c18
5564
e7e8
02ca
cafe
3000
5564
e7e8
02fb
cafe
3410
5564
e7ec
02d9
cafe
3809
5564
e7ec
0343
cafe
3c19
5564
e7ec
02dc
cafe
2001
5564
e7ec
03a0
cafe
2411
5564
e7f0
030b
cafe
280a
5564
e7f0
032c
cafe
2c1a
5564
e7f0
02ea
cafe
3002
5564
e7f0
0312
cafe
3412
5564
e7f4
02df
cafe
380b
5564
e7f4
0316
cafe
3c1b
5564
e7f4
0312
cafe
2003
5564
e7f4
035b
cafe
2413
5564
e7f8
029b
cafe
-
280c
5564
e7f8
039e
cafe
2c1c
5564
e7f8
026f
cafe
3004
5564
e7f8
035c
cafe
3414
5564
e7fc
02f0
cafe
380d
5564
e7fc
032f
cafe
3c1d
5564
e7fc
02e2
cafe
2005
5564
e7fc
0320
cafe
2415
5564
e800
02fb
cafe
280e
5564
e800
0378
cafe
2c1e
5564
e800
02de
cafe
3006
5564
e800
033d
cafe
3416
5564
e804
0299
cafe
380f
5564
e804
0331
cafe
3c1f
5564
e804
0350
cafe
2007
5564
e804
0308
cafe
2417
5564
e808
02dd
cafe
2808
5564
e808
03b3
cafe
2c18
5564
e808
02a6
cafe
3000
5564
e808
02dc
cafe
3410
5564
e80c
02b9
cafe
3809
5564
e80c
0325
cafe
3c19
5564
e80c
02bb
cafe
2001
5564
e80c
0383
cafe
2411
5564
e810
02ea
cafe
280a
5564
e810
030e
cafe
2c1a
5564
e810
02c9
cafe
3002
5564
e810
02f6
cafe
3412
5564
e814
02b8
cafe
380b
5564
e814
02f4
cafe
3c1b
5564
e814
02f5
cafe
2003
5564
e814
0336
cafe
2413
5564
e818
027b
cafe
280c
5564
e818
037a
cafe
2c1c
5564
e818
0250
cafe
3004
5564
e818
0339
cafe
3414
5564
e81c
02cd
cafe
380d
5564
e81c
030f
cafe
3c1d
5564
e81c
02c1
cafe
2005
5564
e81c
02fe
cafe
2415
5564
e820
02db
cafe
280e
5564
e820
0357
cafe
2c1e
5564
e820
02bf
cafe
3006
5564
e820
0320
cafe
3416
5564
e824
0276
cafe
380f
5564
e824
030d
cafe
3c1f
5564
e824
0333
cafe
2007
5564
e824
02e9
cafe
2417
5564
e828
02c3
cafe
2808
5564
e828
0394
cafe
2c18
5564
e828
0287
cafe
3000
5564
e828
02b8
cafe
3410
-
5564
e82c
029e
cafe
3809
5564
e82c
0303
cafe
3c19
5564
e82c
02a1
cafe
2001
5564
e82c
036e
cafe
2411
5564
e830
02ce
cafe
280a
5564
e830
02ed
cafe
2c1a
5564
e830
02ae
cafe
3002
5564
e830
02db
cafe
3412
5564
e834
0296
cafe
380b
5564
e834
02db
cafe
3c1b
5564
e834
02d4
cafe
2003
5564
e834
031b
cafe
2413
5564
e838
025e
cafe
280c
5564
e838
0359
cafe
2c1c
5564
e838
0233
cafe
3004
5564
e838
031d
cafe
3414
5564
e83c
02b0
cafe
380d
5564
e83c
02ef
cafe
3c1d
5564
e83c
02a1
cafe
2005
5564
e83c
02e2
cafe
2415
5564
e840
02bf
cafe
280e
5564
e840
0337
cafe
2c1e
5564
e840
02a2
cafe
3006
5564
e840
02fe
cafe
3416
5564
e844
0254
cafe
380f
5564
e844
02f5
cafe
3c1f
5564
e844
0319
cafe
2007
5564
e844
02c9
cafe
2417
5564
e848
02ad
cafe
2808
5564
e848
0373
cafe
2c18
5564
e848
026a
cafe
3000
5564
e848
0298
cafe
3410
5564
e84c
027e
cafe
3809
5564
e84c
02ef
cafe
3c19
5564
e84c
0282
cafe
2001
5564
e84c
0348
cafe
2411
5564
e850
02b5
cafe
280a
5564
e850
02d2
cafe
2c1a
5564
e850
0290
cafe
3002
5564
e850
02b1
cafe
3412
5564
e854
0279
cafe
380b
5564
e854
02b9
cafe
3c1b
5564
e854
02bd
cafe
2003
5564
e854
0304
cafe
2413
5564
e858
0241
cafe
280c
5564
e858
0338
cafe
2c1c
5564
e858
021a
cafe
3004
5564
e858
0303
cafe
3414
5564
e85c
0292
cafe
380d
5564
e85c
02d8
cafe
3c1d
5564
e85c
028d
cafe
2005
5564
-
e85c
02c8
cafe
2415
5564
e860
02a0
cafe
280e
5564
e860
031f
cafe
2c1e
5564
e860
0287
cafe
3006
5564
e860
02e3
cafe
3416
5564
e864
0233
cafe
380f
5564
e864
02d5
cafe
3c1f
5564
e864
02f9
cafe
2007
5564
e864
02b1
cafe
2417
5564
e868
0292
cafe
2808
5564
e868
034f
cafe
2c18
5564
e868
024e
cafe
3000
5564
e868
0281
cafe
3410
5564
e86c
0267
cafe
3809
5564
e86c
02d5
cafe
3c19
5564
e86c
0269
cafe
2001
5564
e86c
0327
cafe
2411
5564
e870
0298
cafe
280a
5564
e870
02bb
cafe
2c1a
5564
e870
026b
cafe
3002
5564
e870
0292
cafe
3412
5564
e874
0263
cafe
380b
5564
e874
0299
cafe
3c1b
5564
e874
02a2
cafe
2003
5564
e874
02ea
cafe
2413
5564
e878
022f
cafe
280c
5564
e878
0321
cafe
2c1c
5564
e878
020a
cafe
3004
5564
e878
02ec
cafe
3414
5564
e87c
0279
cafe
380d
5564
e87c
02bd
cafe
3c1d
5564
e87c
0273
cafe
2005
5564
e87c
02b9
cafe
2415
5564
e880
0284
cafe
280e
5564
e880
030c
cafe
2c1e
5564
e880
0273
cafe
3006
5564
e880
02c4
cafe
3416
5564
e884
021b
cafe
380f
5564
e884
02ba
cafe
3c1f
5564
e884
02de
cafe
2007
5564
e884
02a0
cafe
2417
5564
e888
0275
cafe
2808
5564
e888
0335
cafe
2c18
5564
e888
0239
cafe
3000
5564
e888
026d
cafe
3410
5564
e88c
024e
cafe
3809
5564
e88c
02b9
cafe
3c19
5564
e88c
024f
cafe
2001
5564
e88c
0315
cafe
2411
5564
e890
0281
cafe
280a
5564
e890
02a2
cafe
2c1a
5564
e890
-
0253
cafe
3002
5564
e890
027f
cafe
3412
5564
e894
024c
cafe
380b
5564
e894
027d
cafe
3c1b
5564
e894
028f
cafe
2003
5564
e894
02d0
cafe
2413
5564
e898
0218
cafe
280c
5564
e898
0307
cafe
2c1c
5564
e898
01f8
cafe
3004
5564
e898
02d5
cafe
3414
5564
e89c
0262
cafe
380d
5564
e89c
02aa
cafe
3c1d
5564
e89c
025d
cafe
2005
5564
e89c
02a0
cafe
2415
5564
e8a0
026a
cafe
280e
5564
e8a0
02f4
cafe
2c1e
5564
e8a0
0264
cafe
3006
5564
e8a0
02af
cafe
3416
5564
e8a4
0209
cafe
380f
5564
e8a4
02a5
cafe
3c1f
5564
e8a4
02c6
cafe
2007
5564
e8a4
0287
cafe
2417
5564
e8a8
0260
cafe
2808
5564
e8a8
0322
cafe
2c18
5564
e8a8
0227
cafe
3000
5564
e8a8
0250
cafe
3410
5564
e8ac
023b
cafe
3809
5564
e8ac
029f
cafe
3c19
5564
e8ac
0238
cafe
2001
5564
e8ac
0300
cafe
2411
5564
e8b0
0267
cafe
280a
5564
e8b0
028a
cafe
2c1a
5564
e8b0
0243
cafe
3002
5564
e8b0
026d
cafe
3412
5564
e8b4
023a
cafe
380b
5564
e8b4
026e
cafe
3c1b
5564
e8b4
0276
cafe
2003
5564
e8b4
02b6
cafe
2413
5564
e8b8
0202
cafe
280c
5564
e8b8
02ed
cafe
2c1c
5564
e8b8
01e6
cafe
3004
5564
e8b8
02c7
cafe
3414
5564
e8bc
024f
cafe
380d
5564
e8bc
0297
cafe
3c1d
5564
e8bc
0251
cafe
2005
5564
e8bc
0288
cafe
2415
5564
e8c0
0256
cafe
280e
5564
e8c0
02e7
cafe
2c1e
5564
e8c0
024e
cafe
3006
5564
e8c0
0297
cafe
3416
5564
e8c4
01f8
cafe
380f
5564
e8c4
028f
-
cafe
3c1f
5564
e8c4
02b5
cafe
2007
5564
e8c4
0275
cafe
2417
5564
e8c8
024c
cafe
2808
5564
e8c8
030f
cafe
2c18
5564
e8c8
0216
cafe
3000
5564
e8c8
023b
cafe
3410
5564
e8cc
022b
cafe
3809
5564
e8cc
028d
cafe
3c19
5564
e8cc
021f
cafe
2001
5564
e8cc
02f0
cafe
2411
5564
e8d0
0256
cafe
280a
5564
e8d0
0277
cafe
2c1a
5564
e8d0
022a
cafe
3002
5564
e8d0
0261
cafe
3412
5564
e8d4
0228
cafe
380b
5564
e8d4
025f
cafe
3c1b
5564
e8d4
0266
cafe
2003
5564
e8d4
02a3
cafe
2413
5564
e8d8
01eb
cafe
280c
5564
e8d8
02dd
cafe
2c1c
5564
e8d8
01ce
cafe
3004
5564
e8d8
02b7
cafe
3414
5564
e8dc
023f
cafe
380d
5564
e8dc
028a
cafe
3c1d
5564
e8dc
0249
cafe
2005
5564
e8dc
0270
cafe
2415
5564
e8e0
0244
cafe
280e
5564
e8e0
02d6
cafe
2c1e
5564
e8e0
023e
cafe
3006
5564
e8e0
0285
cafe
3416
5564
e8e4
01ef
cafe
380f
5564
e8e4
0279
cafe
3c1f
5564
e8e4
02a8
cafe
2007
5564
e8e4
0261
cafe
2417
5564
e8e8
0239
cafe
2808
5564
e8e8
02fb
cafe
2c18
5564
e8e8
020d
cafe
3000
5564
e8e8
022c
cafe
3410
5564
e8ec
0217
cafe
3809
5564
e8ec
0281
cafe
3c19
5564
e8ec
020c
cafe
2001
5564
e8ec
02d1
cafe
2411
5564
e8f0
0244
cafe
280a
5564
e8f0
025d
cafe
2c1a
5564
e8f0
0219
cafe
3002
5564
e8f0
0244
cafe
3412
5564
e8f4
021a
cafe
380b
5564
e8f4
0253
cafe
3c1b
5564
e8f4
0254
cafe
2003
5564
e8f4
0298
cafe
2413
5564
e8f8
01dd
cafe
-
280c
5564
e8f8
02c5
cafe
2c1c
5564
e8f8
01be
cafe
3004
5564
e8f8
02a8
cafe
3414
5564
e8fc
0227
cafe
380d
5564
e8fc
0282
cafe
3c1d
5564
e8fc
0236
cafe
2005
5564
e8fc
0265
cafe
2415
5564
e900
0237
cafe
280e
5564
e900
02c6
cafe
2c1e
5564
e900
022e
cafe
3006
5564
e900
0277
cafe
3416
5564
e904
01dd
cafe
380f
5564
e904
0265
cafe
3c1f
5564
e904
028e
cafe
2007
5564
e904
0250
cafe
2417
5564
e908
0229
cafe
2808
5564
e908
02ec
cafe
2c18
5564
e908
01f7
cafe
3000
5564
e908
0220
cafe
3410
5564
e90c
0207
cafe
3809
5564
e90c
0268
cafe
3c19
5564
e90c
01fe
cafe
2001
5564
e90c
02c0
cafe
2411
5564
e910
022b
cafe
280a
5564
e910
0253
cafe
2c1a
5564
e910
020c
cafe
3002
5564
e910
023b
cafe
3412
5564
e914
0201
cafe
380b
5564
e914
023c
cafe
3c1b
5564
e914
024a
cafe
2003
5564
e914
028d
cafe
2413
5564
e918
01ce
cafe
280c
5564
e918
02b1
cafe
2c1c
5564
e918
01a9
cafe
3004
5564
e918
028c
cafe
3414
5564
e91c
0217
cafe
380d
5564
e91c
0274
cafe
3c1d
5564
e91c
0226
cafe
2005
5564
e91c
024f
cafe
2415
5564
e920
0227
cafe
280e
5564
e920
02b4
cafe
2c1e
5564
e920
0218
cafe
3006
5564
e920
0261
cafe
3416
5564
e924
01c5
cafe
380f
5564
e924
0255
cafe
3c1f
5564
e924
0283
cafe
2007
5564
e924
0247
cafe
2417
5564
e928
0217
cafe
2808
5564
e928
02da
cafe
2c18
5564
e928
01e4
cafe
3000
5564
e928
0207
cafe
3410
-
5564
e92c
01f6
cafe
3809
5564
e92c
0255
cafe
3c19
5564
e92c
01f3
cafe
2001
5564
e92c
02b3
cafe
2411
5564
e930
021b
cafe
280a
5564
e930
023f
cafe
2c1a
5564
e930
01fd
cafe
3002
5564
e930
0226
cafe
3412
5564
e934
01ea
cafe
380b
5564
e934
022b
cafe
3c1b
5564
e934
0239
cafe
2003
5564
e934
027d
cafe
2413
5564
e938
01bd
cafe
280c
5564
e938
02a6
cafe
2c1c
5564
e938
019b
cafe
3004
5564
e938
0274
cafe
3414
5564
e93c
0205
cafe
380d
5564
e93c
0262
cafe
3c1d
5564
e93c
0213
cafe
2005
5564
e93c
023e
cafe
2415
5564
e940
021e
cafe
280e
5564
e940
02a3
cafe
2c1e
5564
e940
0205
cafe
3006
5564
e940
0256
cafe
3416
5564
e944
01b8
cafe
380f
5564
e944
024a
cafe
3c1f
5564
e944
027d
cafe
2007
5564
e944
023d
cafe
2417
5564
e948
0205
cafe
2808
5564
e948
02c7
cafe
2c18
5564
e948
01d2
cafe
3000
5564
e948
01fa
cafe
3410
5564
e94c
01ea
cafe
3809
5564
e94c
0249
cafe
3c19
5564
e94c
01e6
cafe
2001
5564
e94c
02a6
cafe
2411
5564
e950
020b
cafe
280a
5564
e950
022d
cafe
2c1a
5564
e950
01f8
cafe
3002
5564
e950
0216
cafe
3412
5564
e954
01d9
cafe
380b
5564
e954
0217
cafe
3c1b
5564
e954
022e
cafe
2003
5564
e954
0277
cafe
2413
5564
e958
01b3
cafe
280c
5564
e958
0297
cafe
2c1c
5564
e958
018f
cafe
3004
5564
e958
0262
cafe
3414
5564
e95c
01fb
cafe
380d
5564
e95c
0253
cafe
3c1d
5564
e95c
0202
cafe
2005
5564
-
e95c
0236
cafe
2415
5564
e960
0210
cafe
280e
5564
e960
0297
cafe
2c1e
5564
e960
01f8
cafe
3006
5564
e960
024d
cafe
3416
5564
e964
01a6
cafe
380f
5564
e964
023f
cafe
3c1f
5564
e964
0273
cafe
2007
5564
e964
0233
cafe
2417
5564
e968
01f4
cafe
2808
5564
e968
02b8
cafe
2c18
5564
e968
01c6
cafe
3000
5564
e968
01e8
cafe
3410
5564
e96c
01de
cafe
3809
5564
e96c
0240
cafe
3c19
5564
e96c
01df
cafe
2001
5564
e96c
029d
cafe
2411
5564
e970
0201
cafe
280a
5564
e970
0219
cafe
2c1a
5564
e970
01ef
cafe
3002
5564
e970
020c
cafe
3412
5564
e974
01c5
cafe
380b
5564
e974
0213
cafe
3c1b
5564
e974
021d
cafe
2003
5564
e974
026a
cafe
2413
5564
e978
01a6
cafe
280c
5564
e978
0286
cafe
2c1c
5564
e978
0180
cafe
3004
5564
e978
025a
cafe
3414
5564
e97c
01f1
cafe
380d
5564
e97c
0243
cafe
3c1d
5564
e97c
01f8
cafe
2005
5564
e97c
0226
cafe
2415
5564
e980
020a
cafe
280e
5564
e980
0288
cafe
2c1e
5564
e980
01ee
cafe
3006
5564
e980
0242
cafe
3416
5564
e984
01a1
cafe
380f
5564
e984
0239
cafe
3c1f
5564
e984
0262
cafe
2007
5564
e984
0222
cafe
2417
5564
e988
01ee
cafe
2808
5564
e988
02a8
cafe
2c18
5564
e988
01be
cafe
3000
5564
e988
01e4
cafe
3410
5564
e98c
01d5
cafe
3809
5564
e98c
0230
cafe
3c19
5564
e98c
01cf
cafe
2001
5564
e98c
028d
cafe
2411
5564
e990
01f3
cafe
280a
5564
e990
0218
cafe
2c1a
5564
e990
-
01df
cafe
3002
5564
e990
01fc
cafe
3412
5564
e994
01b6
cafe
380b
5564
e994
0206
cafe
3c1b
5564
e994
0210
cafe
2003
5564
e994
0253
cafe
2413
5564
e998
019a
cafe
280c
5564
e998
027a
cafe
2c1c
5564
e998
0175
cafe
3004
5564
e998
024f
cafe
3414
5564
e99c
01e3
cafe
380d
5564
e99c
0230
cafe
3c1d
5564
e99c
01f3
cafe
2005
5564
e99c
021b
cafe
2415
5564
e9a0
01fe
cafe
280e
5564
e9a0
0277
cafe
2c1e
5564
e9a0
01e3
cafe
3006
5564
e9a0
0239
cafe
3416
5564
e9a4
0190
cafe
380f
5564
e9a4
022a
cafe
3c1f
5564
e9a4
0253
cafe
2007
5564
e9a4
0212
cafe
2417
5564
e9a8
01df
cafe
2808
5564
e9a8
029e
cafe
2c18
5564
e9a8
01b7
cafe
3000
5564
e9a8
01db
cafe
3410
5564
e9ac
01c9
cafe
3809
5564
e9ac
021f
cafe
3c19
5564
e9ac
01c2
cafe
2001
5564
e9ac
027f
cafe
2411
5564
e9b0
01df
cafe
280a
5564
e9b0
0212
cafe
2c1a
5564
e9b0
01d2
cafe
3002
5564
e9b0
01f0
cafe
3412
5564
e9b4
01ab
cafe
380b
5564
e9b4
01fb
cafe
3c1b
5564
e9b4
0203
cafe
2003
5564
e9b4
0241
cafe
2413
5564
e9b8
0191
cafe
280c
5564
e9b8
026c
cafe
2c1c
5564
e9b8
015d
cafe
3004
5564
e9b8
0243
cafe
3414
5564
e9bc
01d2
cafe
380d
5564
e9bc
021f
cafe
3c1d
5564
e9bc
01e7
cafe
2005
5564
e9bc
0215
cafe
2415
5564
e9c0
01f1
cafe
280e
5564
e9c0
026a
cafe
2c1e
5564
e9c0
01dc
cafe
3006
5564
e9c0
0226
cafe
3416
5564
e9c4
0185
cafe
380f
5564
e9c4
021b
-
cafe
3c1f
5564
e9c4
0240
cafe
2007
5564
e9c4
0201
cafe
2417
5564
e9c8
01d5
cafe
2808
5564
e9c8
0291
cafe
2c18
5564
e9c8
01ab
cafe
3000
5564
e9c8
01c2
cafe
3410
5564
e9cc
01b5
cafe
3809
5564
e9cc
0214
cafe
3c19
5564
e9cc
01b7
cafe
2001
5564
e9cc
026f
cafe
2411
5564
e9d0
01d6
cafe
280a
5564
e9d0
0207
cafe
2c1a
5564
e9d0
01c8
cafe
3002
5564
e9d0
01e0
cafe
3412
5564
e9d4
01a7
cafe
380b
5564
e9d4
01f0
cafe
3c1b
5564
e9d4
01f5
cafe
2003
5564
e9d4
0239
cafe
2413
5564
e9d8
0189
cafe
280c
5564
e9d8
025a
cafe
2c1c
5564
e9d8
0157
cafe
3004
5564
e9d8
0238
cafe
3414
5564
e9dc
01c5
cafe
380d
5564
e9dc
0211
cafe
3c1d
5564
e9dc
01d9
cafe
2005
5564
e9dc
020f
cafe
2415
5564
e9e0
01e8
cafe
280e
5564
e9e0
0265
cafe
2c1e
5564
e9e0
01ca
cafe
3006
5564
e9e0
021c
cafe
3416
5564
e9e4
017a
cafe
380f
5564
e9e4
020e
cafe
3c1f
5564
e9e4
0237
cafe
2007
5564
e9e4
01fc
cafe
2417
5564
e9e8
01cd
cafe
2808
5564
e9e8
0287
cafe
2c18
5564
e9e8
01a3
cafe
3000
5564
e9e8
01bc
cafe
3410
5564
e9ec
01a8
cafe
3809
5564
e9ec
020a
cafe
3c19
5564
e9ec
01b2
cafe
2001
5564
e9ec
0266
cafe
2411
5564
e9f0
01cb
cafe
280a
5564
e9f0
01f7
cafe
2c1a
5564
e9f0
01b6
cafe
3002
5564
e9f0
01d2
cafe
3412
5564
e9f4
019e
cafe
380b
5564
e9f4
01ed
cafe
3c1b
5564
e9f4
01e9
cafe
2003
5564
e9f4
022c
cafe
2413
5564
e9f8
017e
cafe
-
280c
5564
e9f8
0256
cafe
2c1c
5564
e9f8
0159
cafe
3004
5564
e9f8
022b
cafe
3414
5564
e9fc
01ba
cafe
380d
5564
e9fc
0209
cafe
3c1d
5564
e9fc
01d4
cafe
2005
5564
e9fc
020a
cafe
2415
5564
ea00
01e6
cafe
280e
5564
ea00
025b
cafe
2c1e
5564
ea00
01be
cafe
3006
5564
ea00
021a
cafe
3416
5564
ea04
0177
cafe
380f
5564
ea04
0207
cafe
3c1f
5564
ea04
0233
cafe
2007
5564
ea04
01f7
cafe
2417
5564
ea08
01c0
cafe
2808
5564
ea08
027f
cafe
2c18
5564
ea08
0198
cafe
3000
5564
ea08
01b4
cafe
3410
5564
ea0c
01a9
cafe
3809
5564
ea0c
0203
cafe
3c19
5564
ea0c
01a9
cafe
2001
5564
ea0c
0263
cafe
2411
5564
ea10
01c7
cafe
280a
5564
ea10
01ec
cafe
2c1a
5564
ea10
01ae
cafe
3002
5564
ea10
01cb
cafe
3412
5564
ea14
0197
cafe
380b
5564
ea14
01e3
cafe
3c1b
5564
ea14
01dc
cafe
2003
5564
ea14
0229
cafe
2413
5564
ea18
0179
cafe
280c
5564
ea18
024c
cafe
2c1c
5564
ea18
0159
cafe
3004
5564
ea18
0220
cafe
3414
5564
ea1c
01bb
cafe
380d
5564
ea1c
01fb
cafe
3c1d
5564
ea1c
01cd
cafe
2005
5564
ea1c
01ff
cafe
2415
5564
ea20
01dd
cafe
280e
5564
ea20
0254
cafe
2c1e
5564
ea20
01b9
cafe
3006
5564
ea20
020d
cafe
3416
5564
ea24
0172
cafe
380f
5564
ea24
01fb
cafe
3c1f
5564
ea24
0229
cafe
2007
5564
ea24
01f3
cafe
2417
5564
ea28
01b0
cafe
2808
5564
ea28
0277
cafe
2c18
5564
ea28
018e
cafe
3000
5564
ea28
01ac
cafe
3410
-
5564
ea2c
019c
cafe
3809
5564
ea2c
01f8
cafe
3c19
5564
ea2c
01a2
cafe
2001
5564
ea2c
0259
cafe
2411
5564
ea30
01c2
cafe
280a
5564
ea30
01e3
cafe
2c1a
5564
ea30
01a3
cafe
3002
5564
ea30
01be
cafe
3412
5564
ea34
0184
cafe
380b
5564
ea34
01da
cafe
3c1b
5564
ea34
01d9
cafe
2003
5564
ea34
0220
cafe
2413
5564
ea38
016f
cafe
280c
5564
ea38
0245
cafe
2c1c
5564
ea38
014c
cafe
3004
5564
ea38
021d
cafe
3414
5564
ea3c
01ba
cafe
380d
5564
ea3c
01f8
cafe
3c1d
5564
ea3c
01c9
cafe
2005
5564
ea3c
01f2
cafe
2415
5564
ea40
01d6
cafe
280e
5564
ea40
0249
cafe
2c1e
5564
ea40
01ad
cafe
3006
5564
ea40
020a
cafe
3416
5564
ea44
0163
cafe
380f
5564
ea44
01ed
cafe
3c1f
5564
ea44
021d
cafe
2007
5564
ea44
01e2
cafe
2417
5564
ea48
01af
cafe
2808
5564
ea48
0272
cafe
2c18
5564
ea48
018b
cafe
3000
5564
ea48
01a2
cafe
3410
5564
ea4c
019b
cafe
3809
5564
ea4c
01ed
cafe
3c19
5564
ea4c
0197
cafe
2001
5564
ea4c
0250
cafe
2411
5564
ea50
01bb
cafe
280a
5564
ea50
01d9
cafe
2c1a
5564
ea50
0196
cafe
3002
5564
ea50
01b3
cafe
3412
5564
ea54
0177
cafe
380b
5564
ea54
01d5
cafe
3c1b
5564
ea54
01cb
cafe
2003
5564
ea54
0218
cafe
2413
5564
ea58
016a
cafe
280c
5564
ea58
023e
cafe
2c1c
5564
ea58
0143
cafe
3004
5564
ea58
0216
cafe
3414
5564
ea5c
01b0
cafe
380d
5564
ea5c
01ef
cafe
3c1d
5564
ea5c
01ba
cafe
2005
5564
-
ea5c
01ea
cafe
2415
5564
ea60
01c6
cafe
280e
5564
ea60
023f
cafe
2c1e
5564
ea60
01a6
cafe
3006
5564
ea60
01fb
cafe
3416
5564
ea64
015b
cafe
380f
5564
ea64
01e6
cafe
3c1f
5564
ea64
0215
cafe
2007
5564
ea64
01dd
cafe
2417
5564
ea68
01ab
cafe
2808
5564
ea68
0269
cafe
2c18
5564
ea68
0180
cafe
3000
5564
ea68
0194
cafe
3410
5564
ea6c
0187
cafe
3809
5564
ea6c
01e4
cafe
3c19
5564
ea6c
0190
cafe
2001
5564
ea6c
0242
cafe
2411
5564
ea70
01b2
cafe
280a
5564
ea70
01cd
cafe
2c1a
5564
ea70
0195
cafe
3002
5564
ea70
01ad
cafe
3412
5564
ea74
0174
cafe
380b
5564
ea74
01cd
cafe
3c1b
5564
ea74
01c3
cafe
2003
5564
ea74
0213
cafe
2413
5564
ea78
0168
cafe
280c
5564
ea78
0237
cafe
2c1c
5564
ea78
0138
cafe
3004
5564
ea78
020d
cafe
3414
5564
ea7c
01a6
cafe
380d
5564
ea7c
01e6
cafe
3c1d
5564
ea7c
01b3
cafe
2005
5564
ea7c
01de
cafe
2415
5564
ea80
01bb
cafe
280e
5564
ea80
0233
cafe
2c1e
5564
ea80
019e
cafe
3006
5564
ea80
01f3
cafe
3416
5564
ea84
0155
cafe
380f
5564
ea84
01dd
cafe
3c1f
5564
ea84
0214
cafe
2007
5564
ea84
01d8
cafe
2417
5564
ea88
01a4
cafe
2808
5564
ea88
0263
cafe
2c18
5564
ea88
0175
cafe
3000
5564
ea88
0190
cafe
3410
5564
ea8c
017a
cafe
3809
5564
ea8c
01dd
cafe
3c19
5564
ea8c
018e
cafe
2001
5564
ea8c
023b
cafe
2411
5564
ea90
01a8
cafe
280a
5564
ea90
01c6
cafe
2c1a
5564
ea90
-
0197
cafe
3002
5564
ea90
01a6
cafe
3412
5564
ea94
016f
cafe
380b
5564
ea94
01c8
cafe
3c1b
5564
ea94
01be
cafe
2003
5564
ea94
020b
cafe
2413
5564
ea98
0161
cafe
280c
5564
ea98
023a
cafe
2c1c
5564
ea98
0129
cafe
3004
5564
ea98
020a
cafe
3414
5564
ea9c
019b
cafe
380d
5564
ea9c
01e0
cafe
3c1d
5564
ea9c
01aa
cafe
2005
5564
ea9c
01d1
cafe
2415
5564
eaa0
01b6
cafe
280e
5564
eaa0
0230
cafe
2c1e
5564
eaa0
01a0
cafe
3006
5564
eaa0
01ec
cafe
3416
5564
eaa4
0152
cafe
380f
5564
eaa4
01d3
cafe
3c1f
5564
eaa4
020e
cafe
2007
5564
eaa4
01d9
cafe
2417
5564
eaa8
019b
cafe
2808
5564
eaa8
025d
cafe
2c18
5564
eaa8
0174
cafe
3000
5564
eaa8
018a
cafe
3410
5564
eaac
0178
cafe
3809
5564
eaac
01d8
cafe
3c19
5564
eaac
0183
cafe
2001
5564
eaac
023a
cafe
2411
5564
eab0
019f
cafe
280a
5564
eab0
01c2
cafe
2c1a
5564
eab0
0193
cafe
3002
5564
eab0
01a6
cafe
3412
5564
eab4
0169
cafe
380b
5564
eab4
01c5
cafe
3c1b
5564
eab4
01b9
cafe
2003
5564
eab4
0208
cafe
2413
5564
eab8
015d
cafe
280c
5564
eab8
0239
cafe
2c1c
5564
eab8
0125
cafe
3004
5564
eab8
01fb
cafe
3414
5564
eabc
0190
cafe
380d
5564
eabc
01d8
cafe
3c1d
5564
eabc
01aa
cafe
2005
5564
eabc
01cf
cafe
2415
5564
eac0
01b1
cafe
280e
5564
eac0
022c
cafe
2c1e
5564
eac0
019d
cafe
3006
5564
eac0
01ea
cafe
3416
5564
eac4
014b
cafe
380f
5564
eac4
01cf
-
cafe
3c1f
5564
eac4
020f
cafe
2007
5564
eac4
01db
cafe
2417
5564
eac8
019b
cafe
2808
5564
eac8
0253
cafe
2c18
5564
eac8
016e
cafe
3000
5564
eac8
0180
cafe
3410
5564
eacc
0175
cafe
3809
5564
eacc
01d1
cafe
3c19
5564
eacc
017b
cafe
2001
5564
eacc
0231
cafe
2411
5564
ead0
0199
cafe
280a
5564
ead0
01ba
cafe
2c1a
5564
ead0
018d
cafe
3002
5564
ead0
01a5
cafe
3412
5564
ead4
0169
cafe
380b
5564
ead4
01c2
cafe
3c1b
5564
ead4
01b6
cafe
2003
5564
ead4
01fe
cafe
2413
5564
ead8
0155
cafe
280c
5564
ead8
022d
cafe
2c1c
5564
ead8
011f
cafe
3004
5564
ead8
01f4
cafe
3414
5564
eadc
0191
cafe
380d
5564
eadc
01d5
cafe
3c1d
5564
eadc
01a5
cafe
2005
5564
eadc
01cd
cafe
2415
5564
eae0
01ae
cafe
280e
5564
eae0
0227
cafe
2c1e
5564
eae0
0196
cafe
3006
5564
eae0
01e2
cafe
3416
5564
eae4
0144
cafe
380f
5564
eae4
01cd
cafe
3c1f
5564
eae4
0208
cafe
2007
5564
eae4
01d3
cafe
2417
5564
eae8
018f
cafe
2808
5564
eae8
024e
cafe
2c18
5564
eae8
0160
cafe
3000
5564
eae8
017b
cafe
3410
5564
eaec
016f
cafe
3809
5564
eaec
01cd
cafe
3c19
5564
eaec
0173
cafe
2001
5564
eaec
0229
cafe
2411
5564
eaf0
018e
cafe
280a
5564
eaf0
01b4
cafe
2c1a
5564
eaf0
0185
cafe
3002
5564
eaf0
019d
cafe
3412
5564
eaf4
0159
cafe
380b
5564
eaf4
01b5
cafe
3c1b
5564
eaf4
01b2
cafe
2003
5564
eaf4
01f0
cafe
2413
5564
eaf8
0152
cafe
-
