3c0d
0000
0000
0191
cafe
200d
0000
0000
018a
cafe
240d
0000
0000
018e
cafe
280d
0000
0000
0193
cafe
2c0d
0000
0000
018d
cafe
300d
0000
0000
018d
cafe
340d
0000
0000
0190
cafe
380d
0000
0000
018f
cafe
3c0d
0000
0000
0193
cafe
200d
0000
0000
0191
cafe
240d
0000
0000
018d
cafe
280d
0000
0000
018d
cafe
2c0d
0000
0000
018d
cafe
300d
0000
0000
018b
cafe
340d
0000
0000
018d
cafe
380d
0000
0000
018d
cafe
3c0d
0000
0000
018e
cafe
200d
0000
0000
018c
cafe
240d
0000
0000
018c
cafe
280d
0000
0000
0190
cafe
2c0d
0000
0000
018e
cafe
300d
0000
0000
018e
cafe
340d
0000
0000
0188
cafe
380d
0000
0000
018e
cafe
3c0d
0000
0000
018e
cafe
200d
0000
0000
018b
cafe
240d
0000
0000
0195
cafe
280d
0000
0000
0197
cafe
2c0d
0000
0000
0193
cafe
300d
0000
0000
018d
cafe
340d
0000
0000
018c
cafe
380d
0000
0000
0191
cafe
3c0d
0000
0000
018c
cafe
200d
0000
0000
0196
cafe
240d
0000
0000
0195
cafe
280d
0000
0000
0193
cafe
2c0d
0000
0000
0193
cafe
300d
0000
0000
018e
cafe
340d
0000
0000
018f
cafe
380d
0000
0000
018c
cafe
3c0d
0000
0000
018a
cafe
200d
0000
0000
018d
cafe
240d
0000
0000
018a
cafe
280d
0000
0000
0189
cafe
2c0d
0000
0000
018f
cafe
300d
0000
0000
018f
cafe
340d
0000
0000
0190
cafe
380d
0000
0000
018d
cafe
3c0d
0000
0000
018d
cafe
200d
0000
0000
018b
cafe
240d
0000
0000
0192
cafe
280d
-
0000
0000
018b
cafe
2c0d
0000
0000
0190
cafe
300d
0000
0000
018f
cafe
340d
0000
0000
018b
cafe
380d
0000
0000
018f
cafe
3c0d
0000
0000
0190
cafe
200d
0000
0000
018e
cafe
240d
0000
0000
0191
cafe
280d
0000
0000
0193
cafe
2c0d
0000
0000
0199
cafe
300d
0000
0000
0198
cafe
340d
0000
0000
0199
cafe
380d
0000
0000
019b
cafe
3c0d
0000
0000
0194
cafe
200d
0000
0000
0194
cafe
240d
0000
0000
0192
cafe
280d
0000
0000
018f
cafe
2c0d
0000
0000
018b
cafe
300d
0000
0000
018a
cafe
340d
0000
0000
018d
cafe
380d
0000
0000
018e
cafe
3c0d
0000
0000
018f
cafe
200d
0000
0000
018f
cafe
240d
0000
0000
018b
cafe
280d
0000
0000
018d
cafe
2c0d
0000
0000
018b
cafe
300d
0000
0000
018d
cafe
340d
0000
0000
0192
cafe
380d
0000
0000
0192
cafe
3c0d
0000
0000
0196
cafe
200d
0000
0000
0193
cafe
240d
0000
0000
0195
cafe
280d
0000
0000
0194
cafe
2c0d
0000
0000
0190
cafe
300d
0000
0000
018d
cafe
340d
0000
0000
018f
cafe
380d
0000
0000
018f
cafe
3c0d
0000
0000
018e
cafe
200d
0000
0000
018e
cafe
240d
0000
0000
018a
cafe
280d
0000
0000
018d
cafe
2c0d
0000
0000
0191
cafe
300d
0000
0000
0192
cafe
340d
0000
0000
018b
cafe
380d
0000
0000
0190
cafe
3c0d
0000
0000
018d
cafe
200d
0000
0000
018c
cafe
240d
0000
0000
018b
cafe
280d
0000
0000
0188
cafe
2c0d
0000
0000
0187
cafe
300d
0000
0000
018b
cafe
340d
0000
-
0000
018b
cafe
380d
0000
0000
0183
cafe
3c0d
0000
0000
0187
cafe
200d
0000
0000
0189
cafe
240d
0000
0000
0187
cafe
280d
0000
0000
0190
cafe
2c0d
0000
0000
0190
cafe
300d
0000
0000
0191
cafe
340d
0000
0000
0191
cafe
380d
0000
0000
0191
cafe
3c0d
0000
0000
0195
cafe
200d
0000
0000
0196
cafe
240d
0000
0000
0195
cafe
280d
0000
0000
0193
cafe
2c0d
0000
0000
0197
cafe
300d
0000
0000
018f
cafe
340d
0000
0000
018e
cafe
380d
0000
0000
018d
cafe
3c0d
0000
0000
018b
cafe
200d
0000
0000
018d
cafe
240d
0000
0000
018a
cafe
280d
0000
0000
018e
cafe
2c0d
0000
0000
018b
cafe
300d
0000
0000
0187
cafe
340d
0000
0000
0182
cafe
380d
0000
0000
0188
cafe
3c0d
0000
0000
018a
cafe
200d
0000
0000
0186
cafe
240d
0000
0000
018f
cafe
280d
0000
0000
0185
cafe
2c0d
0000
0000
0184
cafe
300d
0000
0000
0181
cafe
340d
0000
0000
0181
cafe
380d
0000
0000
0187
cafe
3c0d
0000
0000
0183
cafe
200d
0000
0000
0185
cafe
240d
0000
0000
0186
cafe
280d
0000
0000
018a
cafe
2c0d
0000
0000
0183
cafe
300d
0000
0000
0185
cafe
340d
0000
0000
0188
cafe
380d
0000
0000
018a
cafe
3c0d
0000
0000
0187
cafe
200d
0000
0000
0189
cafe
240d
0000
0000
0189
cafe
280d
0000
0000
0190
cafe
2c0d
0000
0000
018f
cafe
300d
0000
0000
0186
cafe
340d
0000
0000
0188
cafe
380d
0000
0000
0189
cafe
3c0d
0000
0000
018c
cafe
200d
0000
0000
-
018c
cafe
240d
0000
0000
018c
cafe
280d
0000
0000
018c
cafe
2c0d
0000
0000
018b
cafe
300d
0000
0000
018b
cafe
340d
0000
0000
0189
cafe
380d
0000
0000
0189
cafe
3c0d
0000
0000
0189
cafe
200d
0000
0000
018a
cafe
240d
0000
0000
0188
cafe
280d
0000
0000
0189
cafe
2c0d
0000
0000
0188
cafe
300d
0000
0000
0188
cafe
340d
0000
0000
0188
cafe
380d
0000
0000
018b
cafe
3c0d
0000
0000
018a
cafe
200d
0000
0000
0189
cafe
240d
0000
0000
0187
cafe
280d
0000
0000
0184
cafe
2c0d
0000
0000
0181
cafe
300d
0000
0000
0186
cafe
340d
0000
0000
018a
cafe
380d
0000
0000
018d
cafe
3c0d
0000
0000
018d
cafe
200d
0000
0000
0188
cafe
240d
0000
0000
018d
cafe
280d
0000
0000
018d
cafe
2c0d
0000
0000
018f
cafe
300d
0000
0000
018e
cafe
340d
0000
0000
018c
cafe
380d
0000
0000
018d
cafe
3c0d
0000
0000
018e
cafe
200d
0000
0000
018b
cafe
240d
0000
0000
0189
cafe
280d
0000
0000
018e
cafe
2c0d
0000
0000
018f
cafe
300d
0000
0000
018b
cafe
340d
0000
0000
0189
cafe
380d
0000
0000
018d
cafe
3c0d
0000
0000
018f
cafe
200d
0000
0000
018b
cafe
240d
0000
0000
018c
cafe
280d
0000
0000
0188
cafe
2c0d
0000
0000
018c
cafe
300d
0000
0000
018b
cafe
340d
0000
0000
0187
cafe
380d
0000
0000
018b
cafe
3c0d
0000
0000
018d
cafe
200d
0000
0000
0194
cafe
240d
0000
0000
018f
cafe
280d
0000
0000
0190
cafe
2c0d
0000
0000
0191
-
cafe
300d
0000
0000
018f
cafe
340d
0000
0000
018d
cafe
380d
0000
0000
018f
cafe
3c0d
0000
0000
018f
cafe
200d
0000
0000
0191
cafe
240d
0000
0000
018d
cafe
280d
0000
0000
018d
cafe
2c0d
0000
0000
018c
cafe
300d
0000
0000
0191
cafe
340d
0000
0000
018f
cafe
380d
0000
0000
018d
cafe
3c0d
0000
0000
018f
cafe
200d
0000
0000
018d
cafe
240d
0000
0000
018b
cafe
280d
0000
0000
0189
cafe
2c0d
0000
0000
0188
cafe
300d
0000
0000
0191
cafe
340d
0000
0000
018b
cafe
380d
0000
0000
018d
cafe
3c0d
0000
0000
0195
cafe
200d
0000
0000
0195
cafe
240d
0000
0000
0193
cafe
280d
0000
0000
0192
cafe
2c0d
0000
0000
0190
cafe
300d
0000
0000
0191
cafe
340d
0000
0000
018f
cafe
380d
0000
0000
0192
cafe
3c0d
0000
0000
0193
cafe
200d
0000
0000
0192
cafe
240d
0000
0000
0193
cafe
280d
0000
0000
0194
cafe
2c0d
0000
0000
018d
cafe
300d
0000
0000
018d
cafe
340d
0000
0000
018e
cafe
380d
0000
0000
018b
cafe
3c0d
0000
0000
018d
cafe
200d
0000
0000
018f
cafe
240d
0000
0000
018d
cafe
280d
0000
0000
018c
cafe
2c0d
0000
0000
018c
cafe
300d
0000
0000
0189
cafe
340d
0000
0000
0189
cafe
380d
0000
0000
018e
cafe
3c0d
0000
0000
018d
cafe
200d
0000
0000
018c
cafe
240d
0000
0000
0187
cafe
280d
0000
0000
018d
cafe
2c0d
0000
0000
018f
cafe
300d
0000
0000
018c
cafe
340d
0000
0000
0188
cafe
380d
0000
0000
0188
cafe
-
3c0d
0000
0000
0191
cafe
200d
0000
0000
018e
cafe
240d
0000
0000
0190
cafe
280d
0000
0000
0193
cafe
2c0d
0000
0000
018f
cafe
300d
0000
0000
018b
cafe
340d
0000
0000
0190
cafe
380d
0000
0000
0193
cafe
3c0d
0000
0000
0193
cafe
200d
0000
0000
018f
cafe
240d
0000
0000
018d
cafe
280d
0000
0000
018f
cafe
2c0d
0000
0000
0190
cafe
300d
0000
0000
0190
cafe
340d
0000
0000
018d
cafe
380d
0000
0000
0191
cafe
3c0d
0000
0000
0191
cafe
200d
0000
0000
018e
cafe
240d
0000
0000
0192
cafe
280d
0000
0000
0191
cafe
2c0d
0000
0000
0195
cafe
300d
0000
0000
0194
cafe
340d
0000
0000
0195
cafe
380d
0000
0000
0196
cafe
3c0d
0000
0000
018f
cafe
200d
0000
0000
0195
cafe
240d
0000
0000
0195
cafe
280d
0000
0000
0195
cafe
2c0d
0000
0000
0194
cafe
300d
0000
0000
0197
cafe
340d
0000
0000
018d
cafe
380d
0000
0000
0191
cafe
3c0d
0000
0000
0191
cafe
200d
0000
0000
018f
cafe
240d
0000
0000
018d
cafe
280d
0000
0000
0188
cafe
2c0d
0000
0000
018f
cafe
300d
0000
0000
0191
cafe
340d
0000
0000
018f
cafe
380d
0000
0000
0195
cafe
3c0d
0000
0000
0195
cafe
200d
0000
0000
0193
cafe
240d
0000
0000
0191
cafe
280d
0000
0000
0191
cafe
2c0d
0000
0000
0193
cafe
300d
0000
0000
0190
cafe
340d
0000
0000
0191
cafe
380d
0000
0000
0191
cafe
3c0d
0000
0000
0191
cafe
200d
0000
0000
018c
cafe
240d
0000
0000
018b
cafe
280d
-
0000
0000
018b
cafe
2c0d
0000
0000
0189
cafe
300d
0000
0000
0188
cafe
340d
0000
0000
018a
cafe
380d
0000
0000
0189
cafe
3c0d
0000
0000
018a
cafe
200d
0000
0000
018c
cafe
240d
0000
0000
018a
cafe
280d
0000
0000
0188
cafe
2c0d
0000
0000
018d
cafe
300d
0000
0000
0190
cafe
340d
0000
0000
018f
cafe
380d
0000
0000
018f
cafe
3c0d
0000
0000
018e
cafe
200d
0000
0000
018e
cafe
240d
0000
0000
0193
cafe
280d
0000
0000
018d
cafe
2c0d
0000
0000
018c
cafe
300d
0000
0000
018e
cafe
340d
0000
0000
018f
cafe
380d
0000
0000
0191
cafe
3c0d
0000
0000
018f
cafe
200d
0000
0000
018c
cafe
240d
0000
0000
018f
cafe
280d
0000
0000
0190
cafe
2c0d
0000
0000
018d
cafe
300d
0000
0000
018f
cafe
340d
0000
0000
018c
cafe
380d
0000
0000
018e
cafe
3c0d
0000
0000
0186
cafe
200d
0000
0000
018a
cafe
240d
0000
0000
018b
cafe
280d
0000
0000
018a
cafe
2c0d
0000
0000
018e
cafe
300d
0000
0000
0193
cafe
340d
0000
0000
0196
cafe
380d
0000
0000
0194
cafe
3c0d
0000
0000
018f
cafe
200d
0000
0000
0193
cafe
240d
0000
0000
0195
cafe
280d
0000
0000
0194
cafe
2c0d
0000
0000
0193
cafe
300d
0000
0000
0195
cafe
340d
0000
0000
0193
cafe
380d
0000
0000
0193
cafe
3c0d
0000
0000
0191
cafe
200d
0000
0000
0192
cafe
240d
0000
0000
018f
cafe
280d
0000
0000
018d
cafe
2c0d
0000
0000
018c
cafe
300d
0000
0000
018b
cafe
340d
0000
-
0000
018f
cafe
380d
0000
0000
018c
cafe
3c0d
0000
0000
018f
cafe
200d
0000
0000
0191
cafe
240d
0000
0000
0196
cafe
280d
0000
0000
0192
cafe
2c0d
0000
0000
0194
cafe
300d
0000
0000
0190
cafe
340d
0000
0000
018f
cafe
380d
0000
0000
018f
cafe
3c0d
0000
0000
018c
cafe
200d
0000
0000
018b
cafe
240d
0000
0000
018d
cafe
280d
0000
0000
0188
cafe
2c0d
0000
0000
0188
cafe
300d
0000
0000
0185
cafe
340d
0000
0000
018b
cafe
380d
0000
0000
0186
cafe
3c0d
0000
0000
0189
cafe
200d
0000
0000
0187
cafe
240d
0000
0000
0188
cafe
280d
0000
0000
0187
cafe
2c0d
0000
0000
0188
cafe
300d
0000
0000
018b
cafe
340d
0000
0000
018a
cafe
380d
0000
0000
0188
cafe
3c0d
0000
0000
018e
cafe
200d
0000
0000
0191
cafe
240d
0000
0000
0192
cafe
280d
0000
0000
0192
cafe
2c0d
0000
0000
018c
cafe
300d
0000
0000
018c
cafe
340d
0000
0000
018d
cafe
380d
0000
0000
018c
cafe
3c0d
0000
0000
018e
cafe
200d
0000
0000
018d
cafe
240d
0000
0000
0188
cafe
280d
0000
0000
018b
cafe
2c0d
0000
0000
018a
cafe
300d
0000
0000
018b
cafe
340d
0000
0000
018c
cafe
380d
0000
0000
018b
cafe
3c0d
0000
0000
018a
cafe
200d
0000
0000
0187
cafe
240d
0000
0000
0189
cafe
280d
0000
0000
0187
cafe
2c0d
0000
0000
0186
cafe
300d
0000
0000
018b
cafe
340d
0000
0000
018a
cafe
380d
0000
0000
0189
cafe
3c0d
0000
0000
018a
cafe
200d
0000
0000
-
018b
cafe
240d
0000
0000
018c
cafe
280d
0000
0000
018e
cafe
2c0d
0000
0000
0188
cafe
300d
0000
0000
018a
cafe
340d
0000
0000
018b
cafe
380d
0000
0000
018b
cafe
3c0d
0000
0000
0193
cafe
200d
0000
0000
018f
cafe
240d
0000
0000
018b
cafe
280d
0000
0000
0196
cafe
2c0d
0000
0000
0191
cafe
300d
0000
0000
0191
cafe
340d
0000
0000
018f
cafe
380d
0000
0000
018d
cafe
3c0d
0000
0000
0190
cafe
200d
0000
0000
018d
cafe
240d
0000
0000
0190
cafe
280d
0000
0000
0188
cafe
2c0d
0000
0000
0190
cafe
300d
0000
0000
0191
cafe
340d
0000
0000
018f
cafe
380d
0000
0000
018d
cafe
3c0d
0000
0000
018d
cafe
200d
0000
0000
018e
cafe
240d
0000
0000
018e
cafe
280d
0000
0000
018f
cafe
2c0d
0000
0000
018e
cafe
300d
0000
0000
018e
cafe
340d
0000
0000
018d
cafe
380d
0000
0000
018c
cafe
3c0d
0000
0000
018a
cafe
200d
0000
0000
0189
cafe
240d
0000
0000
018f
cafe
280d
0000
0000
018f
cafe
2c0d
0000
0000
018b
cafe
300d
0000
0000
018f
cafe
340d
0000
0000
0190
cafe
380d
0000
0000
018a
cafe
3c0d
0000
0000
018c
cafe
200d
0000
0000
018f
cafe
240d
0000
0000
018c
cafe
280d
0000
0000
018b
cafe
2c0d
0000
0000
018d
cafe
300d
0000
0000
018d
cafe
340d
0000
0000
0194
cafe
380d
0000
0000
018e
cafe
3c0d
0000
0000
0191
cafe
200d
0000
0000
018f
cafe
240d
0000
0000
018b
cafe
280d
0000
0000
018c
cafe
2c0d
0000
0000
0192
-
cafe
300d
0000
0000
018c
cafe
340d
0000
0000
018d
cafe
380d
0000
0000
018d
cafe
3c0d
0000
0000
018d
cafe
200d
0000
0000
018b
cafe
240d
0000
0000
018c
cafe
280d
0000
0000
0188
cafe
2c0d
0000
0000
0190
cafe
300d
0000
0000
018b
cafe
340d
0000
0000
018a
cafe
380d
0000
0000
018b
cafe
3c0d
0000
0000
0189
cafe
200d
0000
0000
018f
cafe
240d
0000
0000
0190
cafe
280d
0000
0000
0192
cafe
2c0d
0000
0000
0194
cafe
300d
0000
0000
0192
cafe
340d
0000
0000
0195
cafe
380d
0000
0000
018e
cafe
3c0d
0000
0000
0190
cafe
200d
0000
0000
0191
cafe
240d
0000
0000
018e
cafe
280d
0000
0000
018c
cafe
2c0d
0000
0000
018d
cafe
300d
0000
0000
0188
cafe
340d
0000
0000
018a
cafe
380d
0000
0000
0189
cafe
3c0d
0000
0000
018c
cafe
200d
0000
0000
0187
cafe
240d
0000
0000
0187
cafe
280d
0000
0000
018d
cafe
2c0d
0000
0000
0182
cafe
300d
0000
0000
0188
cafe
340d
0000
0000
0186
cafe
380d
0000
0000
0189
cafe
3c0d
0000
0000
018b
cafe
200d
0000
0000
0189
cafe
240d
0000
0000
018b
cafe
280d
0000
0000
018e
cafe
2c0d
0000
0000
0191
cafe
300d
0000
0000
018e
cafe
340d
0000
0000
0191
cafe
380d
0000
0000
018d
cafe
3c0d
0000
0000
018d
cafe
200d
0000
0000
018a
cafe
240d
0000
0000
0190
cafe
280d
0000
0000
018e
cafe
2c0d
0000
0000
018f
cafe
300d
0000
0000
018d
cafe
340d
0000
0000
0189
cafe
380d
0000
0000
018e
cafe
-
3c0d
0000
0000
0191
cafe
200d
0000
0000
0193
cafe
240d
0000
0000
0193
cafe
280d
0000
0000
0193
cafe
2c0d
0000
0000
0190
cafe
300d
0000
0000
018d
cafe
340d
0000
0000
018a
cafe
380d
0000
0000
018c
cafe
3c0d
0000
0000
018e
cafe
200d
0000
0000
018d
cafe
240d
0000
0000
018a
cafe
280d
0000
0000
0189
cafe
2c0d
0000
0000
018b
cafe
300d
0000
0000
018a
cafe
340d
0000
0000
0189
cafe
380d
0000
0000
018a
cafe
3c0d
0000
0000
018a
cafe
200d
0000
0000
018a
cafe
240d
0000
0000
0189
cafe
280d
0000
0000
0189
cafe
2c0d
0000
0000
0186
cafe
300d
0000
0000
018c
cafe
340d
0000
0000
018a
cafe
380d
0000
0000
018c
cafe
3c0d
0000
0000
018f
cafe
200d
0000
0000
018a
cafe
240d
0000
0000
0189
cafe
280d
0000
0000
018a
cafe
2c0d
0000
0000
018d
cafe
300d
0000
0000
018a
cafe
340d
0000
0000
018c
cafe
380d
0000
0000
018a
cafe
3c0d
0000
0000
018c
cafe
200d
0000
0000
018c
cafe
240d
0000
0000
018b
cafe
280d
0000
0000
018d
cafe
2c0d
0000
0000
0192
cafe
300d
0000
0000
018f
cafe
340d
0000
0000
018f
cafe
380d
0000
0000
018a
cafe
3c0d
0000
0000
0187
cafe
200d
0000
0000
0188
cafe
240d
0000
0000
018c
cafe
280d
0000
0000
0187
cafe
2c0d
0000
0000
0185
cafe
300d
0000
0000
018b
cafe
340d
0000
0000
018f
cafe
380d
0000
0000
018b
cafe
3c0d
0000
0000
018f
cafe
200d
0000
0000
018a
cafe
240d
0000
0000
0193
cafe
280d
-
0000
0000
0190
cafe
2c0d
0000
0000
0195
cafe
300d
0000
0000
0190
cafe
340d
0000
0000
0190
cafe
380d
0000
0000
018a
cafe
3c0d
0000
0000
018a
cafe
200d
0000
0000
018d
cafe
240d
0000
0000
018f
cafe
280d
0000
0000
018f
cafe
2c0d
0000
0000
018f
cafe
300d
0000
0000
0193
cafe
340d
0000
0000
0195
cafe
380d
0000
0000
018f
cafe
3c0d
0000
0000
0192
cafe
200d
0000
0000
018d
cafe
240d
0000
0000
018c
cafe
280d
0000
0000
018f
cafe
2c0d
0000
0000
0197
cafe
300d
0000
0000
0193
cafe
340d
0000
0000
0190
cafe
380d
0000
0000
018b
cafe
3c0d
0000
0000
018a
cafe
200d
0000
0000
018a
cafe
240d
0000
0000
018a
cafe
280d
0000
0000
0186
cafe
2c0d
0000
0000
0183
cafe
300d
0000
0000
0189
cafe
340d
0000
0000
0187
cafe
380d
0000
0000
0189
cafe
3c0d
0000
0000
0186
cafe
200d
0000
0000
018b
cafe
240d
0000
0000
018c
cafe
280d
0000
0000
0190
cafe
2c0d
0000
0000
018e
cafe
300d
0000
0000
018c
cafe
340d
0000
0000
018c
cafe
380d
0000
0000
018b
cafe
3c0d
0000
0000
0187
cafe
200d
0000
0000
018e
cafe
240d
0000
0000
0192
cafe
280d
0000
0000
0193
cafe
2c0d
0000
0000
0194
cafe
300d
0000
0000
0194
cafe
340d
0000
0000
0192
cafe
380d
0000
0000
018a
cafe
3c0d
0000
0000
018f
cafe
200d
0000
0000
0192
cafe
240d
0000
0000
018b
cafe
280d
0000
0000
018d
cafe
2c0d
0000
0000
0189
cafe
300d
0000
0000
018c
cafe
340d
0000
-
0000
0190
cafe
380d
0000
0000
018d
cafe
3c0d
0000
0000
0188
cafe
200d
0000
0000
018a
cafe
240d
0000
0000
0189
cafe
280d
0000
0000
018a
cafe
2c0d
0000
0000
0189
cafe
300d
0000
0000
018f
cafe
340d
0000
0000
0186
cafe
380d
0000
0000
018c
cafe
3c0d
0000
0000
018d
cafe
200d
0000
0000
018c
cafe
240d
0000
0000
018b
cafe
280d
0000
0000
018b
cafe
2c0d
0000
0000
0193
cafe
300d
0000
0000
0193
cafe
340d
0000
0000
018f
cafe
380d
0000
0000
018a
cafe
3c0d
0000
0000
0188
cafe
200d
0000
0000
018a
cafe
240d
0000
0000
018a
cafe
280d
0000
0000
018c
cafe
2c0d
0000
0000
018d
cafe
300d
0000
0000
018d
cafe
340d
0000
0000
0193
cafe
380d
0000
0000
018d
cafe
3c0d
0000
0000
018d
cafe
200d
0000
0000
0191
cafe
240d
0000
0000
0193
cafe
280d
0000
0000
0191
cafe
2c0d
0000
0000
018f
cafe
300d
0000
0000
018c
cafe
340d
0000
0000
018b
cafe
380d
0000
0000
018a
cafe
3c0d
0000
0000
0189
cafe
200d
0000
0000
0184
cafe
240d
0000
0000
0188
cafe
280d
0000
0000
0185
cafe
2c0d
0000
0000
0183
cafe
300d
0000
0000
0187
cafe
340d
0000
0000
0189
cafe
380d
0000
0000
018b
cafe
3c0d
0000
0000
0184
cafe
200d
0000
0000
0186
cafe
240d
0000
0000
018c
cafe
280d
0000
0000
0188
cafe
2c0d
0000
0000
0183
cafe
300d
0000
0000
0183
cafe
340d
0000
0000
0185
cafe
380d
0000
0000
0189
cafe
3c0d
0000
0000
018a
cafe
200d
0000
0000
-
0188
cafe
240d
0000
0000
0185
cafe
280d
0000
0000
0186
cafe
2c0d
0000
0000
0193
cafe
300d
0000
0000
0194
cafe
340d
0000
0000
0191
cafe
380d
0000
0000
018f
cafe
3c0d
0000
0000
018f
cafe
200d
0000
0000
018f
cafe
240d
0000
0000
0191
cafe
280d
0000
0000
018f
cafe
2c0d
0000
0000
0190
cafe
300d
0000
0000
018a
cafe
340d
0000
0000
018b
cafe
380d
0000
0000
018f
cafe
3c0d
0000
0000
018f
cafe
200d
0000
0000
018e
cafe
240d
0000
0000
018b
cafe
280d
0000
0000
018e
cafe
2c0d
0000
0000
018b
cafe
300d
0000
0000
018f
cafe
340d
0000
0000
0192
cafe
380d
0000
0000
018d
cafe
3c0d
0000
0000
018f
cafe
200d
0000
0000
0190
cafe
240d
0000
0000
0191
cafe
280d
0000
0000
0191
cafe
2c0d
0000
0000
0195
cafe
300d
0000
0000
0196
cafe
340d
0000
0000
0193
cafe
380d
0000
0000
0193
cafe
3c0d
0000
0000
0192
cafe
200d
0000
0000
018e
cafe
240d
0000
0000
0194
cafe
280d
0000
0000
0191
cafe
2c0d
0000
0000
018c
cafe
300d
0000
0000
018a
cafe
340d
0000
0000
018d
cafe
380d
0000
0000
018c
cafe
3c0d
0000
0000
0187
cafe
200d
0000
0000
0186
cafe
240d
0000
0000
0187
cafe
280d
0000
0000
018b
cafe
2c0d
0000
0000
018a
cafe
300d
0000
0000
018b
cafe
340d
0000
0000
018e
cafe
380d
0000
0000
0189
cafe
3c0d
0000
0000
0188
cafe
200d
0000
0000
0191
cafe
240d
0000
0000
0193
cafe
280d
0000
0000
0193
cafe
2c0d
0000
0000
0191
-
cafe
300d
0000
0000
018f
cafe
340d
0000
0000
018a
cafe
380d
0000
0000
018a
cafe
3c0d
0000
0000
0188
cafe
200d
0000
0000
018c
cafe
240d
0000
0000
018c
cafe
280d
0000
0000
0187
cafe
2c0d
0000
0000
018c
cafe
300d
0000
0000
018e
cafe
340d
0000
0000
018d
cafe
380d
0000
0000
018d
cafe
3c0d
0000
0000
0193
cafe
200d
0000
0000
018f
cafe
240d
0000
0000
0191
cafe
280d
0000
0000
018f
cafe
2c0d
0000
0000
0196
cafe
300d
0000
0000
0191
cafe
340d
0000
0000
018b
cafe
380d
0000
0000
0191
cafe
3c0d
0000
0000
0192
cafe
200d
0000
0000
0191
cafe
240d
0000
0000
018c
cafe
280d
0000
0000
018c
cafe
2c0d
0000
0000
018f
cafe
300d
0000
0000
018a
cafe
340d
0000
0000
0189
cafe
380d
0000
0000
0188
cafe
3c0d
0000
0000
0188
cafe
200d
0000
0000
0188
cafe
240d
0000
0000
0187
cafe
280d
0000
0000
018f
cafe
2c0d
0000
0000
0190
cafe
300d
0000
0000
018c
cafe
340d
0000
0000
018f
cafe
380d
0000
0000
018c
cafe
3c0d
0000
0000
018a
cafe
200d
0000
0000
0188
cafe
240d
0000
0000
018c
cafe
280d
0000
0000
018f
cafe
2c0d
0000
0000
018e
cafe
300d
0000
0000
018e
cafe
340d
0000
0000
018f
cafe
380d
0000
0000
0190
cafe
3c0d
0000
0000
0191
cafe
200d
0000
0000
0192
cafe
240d
0000
0000
0191
cafe
280d
0000
0000
0192
cafe
2c0d
0000
0000
0190
cafe
300d
0000
0000
018f
cafe
340d
0000
0000
018d
cafe
380d
0000
0000
0188
cafe
-
3c0d
0000
0000
0186
cafe
200d
0000
0000
018f
cafe
240d
0000
0000
0190
cafe
280d
0000
0000
018a
cafe
2c0d
0000
0000
0189
cafe
300d
0000
0000
0189
cafe
340d
0000
0000
0188
cafe
380d
0000
0000
018e
cafe
3c0d
0000
0000
018d
cafe
200d
0000
0000
018b
cafe
240d
0000
0000
018d
cafe
280d
0000
0000
0192
cafe
2c0d
0000
0000
0186
cafe
300d
0000
0000
018b
cafe
340d
0000
0000
018b
cafe
380d
0000
0000
018e
cafe
3c0d
0000
0000
018f
cafe
200d
0000
0000
018f
cafe
240d
0000
0000
018e
cafe
280d
0000
0000
0190
cafe
2c0d
0000
0000
018f
cafe
300d
0000
0000
018b
cafe
340d
0000
0000
018a
cafe
380d
0000
0000
0188
cafe
3c0d
0000
0000
018b
cafe
200d
0000
0000
018d
cafe
240d
0000
0000
018b
cafe
280d
0000
0000
018e
cafe
2c0d
0000
0000
0187
cafe
300d
0000
0000
018a
cafe
340d
0000
0000
0190
cafe
380d
0000
0000
0190
cafe
3c0d
0000
0000
018b
cafe
200d
0000
0000
018b
cafe
240d
0000
0000
018b
cafe
280d
0000
0000
018d
cafe
2c0d
0000
0000
0191
cafe
300d
0000
0000
018f
cafe
340d
0000
0000
0195
cafe
380d
0000
0000
0193
cafe
3c0d
0000
0000
0196
cafe
200d
0000
0000
018f
cafe
240d
0000
0000
0195
cafe
280d
0000
0000
018f
cafe
2c0d
0000
0000
0196
cafe
300d
0000
0000
0196
cafe
340d
0000
0000
0192
cafe
380d
0000
0000
0193
cafe
3c0d
0000
0000
018d
cafe
200d
0000
0000
018d
cafe
240d
0000
0000
018c
cafe
280d
-
0000
0000
018a
cafe
2c0d
0000
0000
018d
cafe
300d
0000
0000
0188
cafe
340d
0000
0000
018b
cafe
380d
0000
0000
0191
cafe
3c0d
0000
0000
018f
cafe
200d
0000
0000
018d
cafe
240d
0000
0000
018e
cafe
280d
0000
0000
018a
cafe
2c0d
0000
0000
0188
cafe
300d
0000
0000
0189
cafe
340d
0000
0000
018b
cafe
380d
0000
0000
018f
cafe
3c0d
0000
0000
0191
cafe
200d
0000
0000
0193
cafe
240d
0000
0000
0193
cafe
280d
0000
0000
0191
cafe
2c0d
0000
0000
018f
cafe
300d
0000
0000
018a
cafe
340d
0000
0000
018e
cafe
380d
0000
0000
0189
cafe
3c0d
0000
0000
018d
cafe
200d
0000
0000
018f
cafe
240d
0000
0000
018b
cafe
280d
0000
0000
0191
cafe
2c0d
0000
0000
0188
cafe
300d
0000
0000
0188
cafe
340d
0000
0000
018a
cafe
380d
0000
0000
0189
cafe
3c0d
0000
0000
018b
cafe
200d
0000
0000
018b
cafe
240d
0000
0000
018b
cafe
280d
0000
0000
0187
cafe
2c0d
0000
0000
0185
cafe
300d
0000
0000
018a
cafe
340d
0000
0000
0191
cafe
380d
0000
0000
018d
cafe
3c0d
0000
0000
018d
cafe
200d
0000
0000
018a
cafe
240d
0000
0000
018c
cafe
280d
0000
0000
0190
cafe
2c0d
0000
0000
0192
cafe
300d
0000
0000
018f
cafe
340d
0000
0000
018e
cafe
380d
0000
0000
018d
cafe
3c0d
0000
0000
018d
cafe
200d
0000
0000
018e
cafe
240d
0000
0000
018a
cafe
280d
0000
0000
018b
cafe
2c0d
0000
0000
018a
cafe
300d
0000
0000
018a
cafe
340d
0000
-
0000
018f
cafe
380d
0000
0000
018f
cafe
3c0d
0000
0000
0190
cafe
200d
0000
0000
0188
cafe
240d
0000
0000
0188
cafe
280d
0000
0000
0188
cafe
2c0d
0000
0000
0186
cafe
300d
0000
0000
0185
cafe
340d
0000
0000
0188
cafe
380d
0000
0000
0188
cafe
3c0d
0000
0000
0183
cafe
200d
0000
0000
0182
cafe
240d
0000
0000
0183
cafe
280d
0000
0000
0189
cafe
2c0d
0000
0000
0186
cafe
300d
0000
0000
0185
cafe
340d
0000
0000
0189
cafe
380d
0000
0000
018f
cafe
3c0d
0000
0000
018c
cafe
200d
0000
0000
018a
cafe
240d
0000
0000
018d
cafe
280d
0000
0000
018c
cafe
2c0d
0000
0000
018c
cafe
300d
0000
0000
018c
cafe
340d
0000
0000
0194
cafe
380d
0000
0000
0196
cafe
3c0d
0000
0000
0190
cafe
200d
0000
0000
0191
cafe
240d
0000
0000
0192
cafe
280d
0000
0000
018d
cafe
2c0d
0000
0000
018d
cafe
300d
0000
0000
018f
cafe
340d
0000
0000
0190
cafe
380d
0000
0000
018f
cafe
3c0d
0000
0000
018d
cafe
200d
0000
0000
018e
cafe
240d
0000
0000
018a
cafe
280d
0000
0000
018c
cafe
2c0d
0000
0000
018d
cafe
300d
0000
0000
0189
cafe
340d
0000
0000
0187
cafe
380d
0000
0000
0188
cafe
3c0d
0000
0000
018a
cafe
200d
0000
0000
018a
cafe
240d
0000
0000
018e
cafe
280d
0000
0000
018a
cafe
2c0d
0000
0000
018a
cafe
300d
0000
0000
018c
cafe
340d
0000
0000
0192
cafe
380d
0000
0000
018f
cafe
3c0d
0000
0000
018a
cafe
200d
0000
0000
-
0190
cafe
240d
0000
0000
018e
cafe
280d
0000
0000
0189
cafe
2c0d
0000
0000
018b
cafe
300d
0000
0000
018a
cafe
340d
0000
0000
018f
cafe
380d
0000
0000
0186
cafe
3c0d
0000
0000
0185
cafe
200d
0000
0000
0189
cafe
240d
0000
0000
018b
cafe
280d
0000
0000
0189
cafe
2c0d
0000
0000
018f
cafe
300d
0000
0000
018f
cafe
340d
0000
0000
018e
cafe
380d
0000
0000
018d
cafe
3c0d
0000
0000
0191
cafe
200d
0000
0000
018c
cafe
240d
0000
0000
018d
cafe
280d
0000
0000
0192
cafe
2c0d
0000
0000
0192
cafe
300d
0000
0000
018c
cafe
340d
0000
0000
0190
cafe
380d
0000
0000
0190
cafe
3c0d
0000
0000
0191
cafe
200d
0000
0000
0191
cafe
240d
0000
0000
018e
cafe
280d
0000
0000
0191
cafe
2c0d
0000
0000
018f
cafe
300d
0000
0000
0194
cafe
340d
0000
0000
0192
cafe
380d
0000
0000
0190
cafe
3c0d
0000
0000
0191
cafe
200d
0000
0000
018d
cafe
240d
0000
0000
0190
cafe
280d
0000
0000
0191
cafe
2c0d
0000
0000
0193
cafe
300d
0000
0000
0192
cafe
340d
0000
0000
018d
cafe
380d
0000
0000
0192
cafe
3c0d
0000
0000
0191
cafe
200d
0000
0000
0191
cafe
240d
0000
0000
018d
cafe
280d
0000
0000
018c
cafe
2c0d
0000
0000
018d
cafe
300d
0000
0000
018f
cafe
340d
0000
0000
018f
cafe
380d
0000
0000
018d
cafe
3c0d
0000
0000
018c
cafe
200d
0000
0000
0184
cafe
240d
0000
0000
0189
cafe
280d
0000
0000
018a
cafe
2c0d
0000
0000
018a
-
cafe
300d
0000
0000
018c
cafe
340d
0000
0000
018c
cafe
380d
0000
0000
018c
cafe
3c0d
0000
0000
0187
cafe
200d
0000
0000
0189
cafe
240d
0000
0000
018d
cafe
280d
0000
0000
018b
cafe
2c0d
0000
0000
018d
cafe
300d
0000
0000
018d
cafe
340d
0000
0000
0190
cafe
380d
0000
0000
018f
cafe
3c0d
0000
0000
0189
cafe
200d
0000
0000
018e
cafe
240d
0000
0000
018b
cafe
280d
0000
0000
0188
cafe
2c0d
0000
0000
018a
cafe
300d
0000
0000
018c
cafe
340d
0000
0000
018e
cafe
380d
0000
0000
018e
cafe
3c0d
0000
0000
018c
cafe
200d
0000
0000
0187
cafe
240d
0000
0000
0186
cafe
280d
0000
0000
018c
cafe
2c0d
0000
0000
0188
cafe
300d
0000
0000
018c
cafe
340d
0000
0000
018a
cafe
380d
0000
0000
018e
cafe
3c0d
0000
0000
018e
cafe
200d
0000
0000
018f
cafe
240d
0000
0000
018c
cafe
280d
0000
0000
0192
cafe
2c0d
0000
0000
0191
cafe
300d
0000
0000
0194
cafe
340d
0000
0000
0190
cafe
380d
0000
0000
0190
cafe
3c0d
0000
0000
018e
cafe
200d
0000
0000
018e
cafe
240d
0000
0000
018f
cafe
280d
0000
0000
018e
cafe
2c0d
0000
0000
018e
cafe
300d
0000
0000
018c
cafe
340d
0000
0000
0187
cafe
380d
0000
0000
018b
cafe
3c0d
0000
0000
018a
cafe
200d
0000
0000
0184
cafe
240d
0000
0000
0183
cafe
280d
0000
0000
0184
cafe
2c0d
0000
0000
0183
cafe
300d
0000
0000
0188
cafe
340d
0000
0000
018a
cafe
380d
0000
0000
0184
cafe
-
3c0d
0000
0000
0188
cafe
200d
0000
0000
0189
cafe
240d
0000
0000
0190
cafe
280d
0000
0000
018a
cafe
2c0d
0000
0000
018b
cafe
300d
0000
0000
0189
cafe
340d
0000
0000
018f
cafe
380d
0000
0000
018f
cafe
3c0d
0000
0000
018c
cafe
200d
0000
0000
018d
cafe
240d
0000
0000
018e
cafe
280d
0000
0000
0190
cafe
2c0d
0000
0000
0190
cafe
300d
0000
0000
0194
cafe
340d
0000
0000
0191
cafe
380d
0000
0000
0195
cafe
3c0d
0000
0000
0191
cafe
200d
0000
0000
0192
cafe
240d
0000
0000
0191
cafe
280d
0000
0000
0194
cafe
2c0d
0000
0000
0192
cafe
300d
0000
0000
0192
cafe
340d
0000
0000
0191
cafe
380d
0000
0000
018c
cafe
3c0d
0000
0000
0187
cafe
200d
0000
0000
0192
cafe
240d
0000
0000
018e
cafe
280d
0000
0000
018c
cafe
2c0d
0000
0000
018e
cafe
300d
0000
0000
018a
cafe
340d
0000
0000
018c
cafe
380d
0000
0000
018a
cafe
3c0d
0000
0000
018b
cafe
200d
0000
0000
018b
cafe
240d
0000
0000
018d
cafe
280d
0000
0000
018b
cafe
2c0d
0000
0000
018f
cafe
300d
0000
0000
018a
cafe
340d
0000
0000
018b
cafe
380d
0000
0000
018c
cafe
3c0d
0000
0000
0190
cafe
200d
0000
0000
018f
cafe
240d
0000
0000
018f
cafe
280d
0000
0000
018a
cafe
2c0d
0000
0000
018a
cafe
300d
0000
0000
018a
cafe
340d
0000
0000
018e
cafe
380d
0000
0000
0189
cafe
3c0d
0000
0000
0190
cafe
200d
0000
0000
018e
cafe
240d
0000
0000
0194
cafe
280d
-
0000
0000
0191
cafe
2c0d
0000
0000
0193
cafe
300d
0000
0000
0192
cafe
340d
0000
0000
0191
cafe
380d
0000
0000
018b
cafe
3c0d
0000
0000
018c
cafe
200d
0000
0000
018f
cafe
240d
0000
0000
018c
cafe
280d
0000
0000
018a
cafe
2c0d
0000
0000
018b
cafe
300d
0000
0000
018f
cafe
340d
0000
0000
018c
cafe
380d
0000
0000
018a
cafe
3c0d
0000
0000
0190
cafe
200d
0000
0000
018a
cafe
240d
0000
0000
018b
cafe
280d
0000
0000
018c
cafe
2c0d
0000
0000
0191
cafe
300d
0000
0000
0193
cafe
340d
0000
0000
018f
cafe
380d
0000
0000
018e
cafe
3c0d
0000
0000
018f
cafe
200d
0000
0000
018f
cafe
240d
0000
0000
018a
cafe
280d
0000
0000
018b
cafe
2c0d
0000
0000
0189
cafe
300d
0000
0000
0187
cafe
340d
0000
0000
0185
cafe
380d
0000
0000
018e
cafe
3c0d
0000
0000
018b
cafe
200d
0000
0000
018c
cafe
240d
0000
0000
0192
cafe
280d
0000
0000
018e
cafe
2c0d
0000
0000
0191
cafe
300d
0000
0000
0193
cafe
340d
0000
0000
018d
cafe
380d
0000
0000
018b
cafe
3c0d
0000
0000
018c
cafe
200d
0000
0000
0191
cafe
240d
0000
0000
0193
cafe
280d
0000
0000
0194
cafe
2c0d
0000
0000
0190
cafe
300d
0000
0000
0190
cafe
340d
0000
0000
018e
cafe
380d
0000
0000
0190
cafe
3c0d
0000
0000
0194
cafe
200d
0000
0000
0194
cafe
240d
0000
0000
0191
cafe
280d
0000
0000
0196
cafe
2c0d
0000
0000
0191
cafe
300d
0000
0000
0197
cafe
340d
0000
-
0000
0194
cafe
380d
0000
0000
018e
cafe
3c0d
0000
0000
0190
cafe
200d
0000
0000
0190
cafe
240d
0000
0000
018e
cafe
280d
0000
0000
0192
cafe
2c0d
0000
0000
018c
cafe
300d
0000
0000
018c
cafe
340d
0000
0000
0189
cafe
380d
0000
0000
018a
cafe
3c0d
0000
0000
018a
cafe
200d
0000
0000
0189
cafe
240d
0000
0000
018c
cafe
280d
0000
0000
0192
cafe
2c0d
0000
0000
018f
cafe
300d
0000
0000
0190
cafe
340d
0000
0000
018c
cafe
380d
0000
0000
018f
cafe
3c0d
0000
0000
018f
cafe
200d
0000
0000
018c
cafe
240d
0000
0000
018d
cafe
280d
0000
0000
0188
cafe
2c0d
0000
0000
018d
cafe
300d
0000
0000
018b
cafe
340d
0000
0000
018b
cafe
380d
0000
0000
018b
cafe
3c0d
0000
0000
018e
cafe
200d
0000
0000
0195
cafe
240d
0000
0000
0191
cafe
280d
0000
0000
018f
cafe
2c0d
0000
0000
0193
cafe
300d
0000
0000
0190
cafe
340d
0000
0000
018b
cafe
380d
0000
0000
018b
cafe
3c0d
0000
0000
018d
cafe
200d
0000
0000
018e
cafe
240d
0000
0000
018f
cafe
280d
0000
0000
0189
cafe
2c0d
0000
0000
0190
cafe
300d
0000
0000
018b
cafe
340d
0000
0000
0186
cafe
380d
0000
0000
0188
cafe
3c0d
0000
0000
0187
cafe
200d
0000
0000
018f
cafe
240d
0000
0000
018b
cafe
280d
0000
0000
018d
cafe
2c0d
0000
0000
0193
cafe
300d
0000
0000
0191
cafe
340d
0000
0000
0191
cafe
380d
0000
0000
0195
cafe
3c0d
0000
0000
0194
cafe
200d
0000
0000
-
0193
cafe
240d
0000
0000
0190
cafe
280d
0000
0000
0192
cafe
2c0d
0000
0000
0197
cafe
300d
0000
0000
018f
cafe
340d
0000
0000
0190
cafe
380d
0000
0000
018f
cafe
3c0d
0000
0000
018c
cafe
200d
0000
0000
0190
cafe
240d
0000
0000
0190
cafe
280d
0000
0000
0188
cafe
2c0d
0000
0000
0191
cafe
300d
0000
0000
0191
cafe
340d
0000
0000
018d
cafe
380d
0000
0000
0193
cafe
3c0d
0000
0000
018e
cafe
200d
0000
0000
018e
cafe
240d
0000
0000
0193
cafe
280d
0000
0000
0191
cafe
2c0d
0000
0000
0193
cafe
300d
0000
0000
018b
cafe
340d
0000
0000
018e
cafe
380d
0000
0000
018d
cafe
3c0d
0000
0000
0186
cafe
200d
0000
0000
018e
cafe
240d
0000
0000
018a
cafe
280d
0000
0000
018a
cafe
2c0d
0000
0000
018b
cafe
300d
0000
0000
018b
cafe
340d
0000
0000
0188
cafe
380d
0000
0000
0189
cafe
3c0d
0000
0000
0187
cafe
200d
0000
0000
0186
cafe
240d
0000
0000
018d
cafe
280d
0000
0000
018d
cafe
2c0d
0000
0000
0191
cafe
300d
0000
0000
0192
cafe
340d
0000
0000
018d
cafe
380d
0000
0000
018e
cafe
3c0d
0000
0000
018e
cafe
200d
0000
0000
0189
cafe
240d
0000
0000
0186
cafe
280d
0000
0000
018b
cafe
2c0d
0000
0000
0190
cafe
300d
0000
0000
018a
cafe
340d
0000
0000
0188
cafe
380d
0000
0000
0189
cafe
3c0d
0000
0000
0189
cafe
200d
0000
0000
018e
cafe
240d
0000
0000
018d
cafe
280d
0000
0000
018c
cafe
2c0d
0000
0000
018e
-
cafe
300d
0000
0000
018b
cafe
340d
0000
0000
018b
cafe
380d
0000
0000
018b
cafe
3c0d
0000
0000
0189
cafe
200d
0000
0000
018b
cafe
240d
0000
0000
018c
cafe
280d
0000
0000
0189
cafe
2c0d
0000
0000
0190
cafe
300d
0000
0000
0194
cafe
340d
0000
0000
0192
cafe
380d
0000
0000
018f
cafe
3c0d
0000
0000
0190
cafe
200d
0000
0000
0190
cafe
240d
0000
0000
0193
cafe
280d
0000
0000
0192
cafe
2c0d
0000
0000
0190
cafe
300d
0000
0000
018f
cafe
340d
0000
0000
0195
cafe
380d
0000
0000
018b
cafe
3c0d
0000
0000
018e
cafe
200d
0000
0000
0188
cafe
240d
0000
0000
018b
cafe
280d
0000
0000
0188
cafe
2c0d
0000
0000
018e
cafe
300d
0000
0000
018a
cafe
340d
0000
0000
018a
cafe
380d
0000
0000
018f
cafe
3c0d
0000
0000
0189
cafe
200d
0000
0000
018e
cafe
240d
0000
0000
018b
cafe
280d
0000
0000
018d
cafe
2c0d
0000
0000
018e
cafe
300d
0000
0000
018a
cafe
340d
0000
0000
0187
cafe
380d
0000
0000
0184
cafe
3c0d
0000
0000
0185
cafe
200d
0000
0000
0183
cafe
240d
0000
0000
0185
cafe
280d
0000
0000
0185
cafe
2c0d
0000
0000
0184
cafe
300d
0000
0000
0187
cafe
340d
0000
0000
0187
cafe
380d
0000
0000
018a
cafe
3c0d
0000
0000
018a
cafe
200d
0000
0000
018a
cafe
240d
0000
0000
0188
cafe
280d
0000
0000
018d
cafe
2c0d
0000
0000
0189
cafe
300d
0000
0000
0189
cafe
340d
0000
0000
0189
cafe
380d
0000
0000
018f
cafe
-
3c0d
0000
0000
018b
cafe
200d
0000
0000
018c
cafe
240d
0000
0000
018a
cafe
280d
0000
0000
018a
cafe
2c0d
0000
0000
018b
cafe
300d
0000
0000
018d
cafe
340d
0000
0000
018a
cafe
380d
0000
0000
018f
cafe
3c0d
0000
0000
018a
cafe
200d
0000
0000
0187
cafe
240d
0000
0000
018a
cafe
280d
0000
0000
018e
cafe
2c0d
0000
0000
018f
cafe
300d
0000
0000
018c
cafe
340d
0000
0000
018a
cafe
380d
0000
0000
018b
cafe
3c0d
0000
0000
018d
cafe
200d
0000
0000
0190
cafe
240d
0000
0000
018e
cafe
280d
0000
0000
0191
cafe
2c0d
0000
0000
018c
cafe
300d
0000
0000
0190
cafe
340d
0000
0000
018f
cafe
380d
0000
0000
0192
cafe
3c0d
0000
0000
0191
cafe
200d
0000
0000
018f
cafe
240d
0000
0000
018e
cafe
280d
0000
0000
018a
cafe
2c0d
0000
0000
0189
cafe
300d
0000
0000
0187
cafe
340d
0000
0000
0183
cafe
380d
0000
0000
0188
cafe
3c0d
0000
0000
018c
cafe
200d
0000
0000
0189
cafe
240d
0000
0000
018b
cafe
280d
0000
0000
018a
cafe
2c0d
0000
0000
018f
cafe
300d
0000
0000
018a
cafe
340d
0000
0000
018b
cafe
380d
0000
0000
018a
cafe
3c0d
0000
0000
018f
cafe
200d
0000
0000
0189
cafe
240d
0000
0000
018e
cafe
280d
0000
0000
018b
cafe
2c0d
0000
0000
018d
cafe
300d
0000
0000
0191
cafe
340d
0000
0000
018d
cafe
380d
0000
0000
018a
cafe
3c0d
0000
0000
018b
cafe
200d
0000
0000
0185
cafe
240d
0000
0000
0189
cafe
280d
-
0000
0000
0189
cafe
2c0d
0000
0000
0189
cafe
300d
0000
0000
018e
cafe
340d
0000
0000
018d
cafe
380d
0000
0000
018d
cafe
3c0d
0000
0000
0190
cafe
200d
0000
0000
018f
cafe
240d
0000
0000
0192
cafe
280d
0000
0000
0191
cafe
2c0d
0000
0000
0192
cafe
300d
0000
0000
0194
cafe
340d
0000
0000
018f
cafe
380d
0000
0000
0195
cafe
3c0d
0000
0000
0195
cafe
200d
0000
0000
0196
cafe
240d
0000
0000
0191
cafe
280d
0000
0000
0195
cafe
2c0d
0000
0000
0191
cafe
300d
0000
0000
018d
cafe
340d
0000
0000
0190
cafe
380d
0000
0000
018f
cafe
3c0d
0000
0000
018d
cafe
200d
0000
0000
0191
cafe
240d
0000
0000
0189
cafe
280d
0000
0000
0190
cafe
2c0d
0000
0000
0191
cafe
300d
0000
0000
0193
cafe
340d
0000
0000
0191
cafe
380d
0000
0000
0194
cafe
3c0d
0000
0000
0195
cafe
200d
0000
0000
018e
cafe
240d
0000
0000
018e
cafe
280d
0000
0000
018d
cafe
2c0d
0000
0000
0191
cafe
300d
0000
0000
018b
cafe
340d
0000
0000
018b
cafe
380d
0000
0000
0187
cafe
3c0d
0000
0000
0184
cafe
200d
0000
0000
0186
cafe
240d
0000
0000
0187
cafe
280d
0000
0000
018d
cafe
2c0d
0000
0000
018c
cafe
300d
0000
0000
018b
cafe
340d
0000
0000
0187
cafe
380d
0000
0000
018c
cafe
3c0d
0000
0000
018c
cafe
200d
0000
0000
0192
cafe
240d
0000
0000
0191
cafe
280d
0000
0000
0195
cafe
2c0d
0000
0000
0192
cafe
300d
0000
0000
018e
cafe
340d
0000
-
0000
0192
cafe
380d
0000
0000
018c
cafe
3c0d
0000
0000
018d
cafe
200d
0000
0000
018b
cafe
240d
0000
0000
018b
cafe
280d
0000
0000
018d
cafe
2c0d
0000
0000
018d
cafe
300d
0000
0000
018f
cafe
340d
0000
0000
018d
cafe
380d
0000
0000
0190
cafe
3c0d
0000
0000
018f
cafe
200d
0000
0000
018d
cafe
240d
0000
0000
018f
cafe
280d
0000
0000
0189
cafe
2c0d
0000
0000
0186
cafe
300d
0000
0000
0194
cafe
340d
0000
0000
018e
cafe
380d
0000
0000
018e
cafe
3c0d
0000
0000
018e
cafe
200d
0000
0000
0191
cafe
240d
0000
0000
0192
cafe
280d
0000
0000
0195
cafe
2c0d
0000
0000
0198
cafe
300d
0000
0000
0192
cafe
340d
0000
0000
0190
cafe
380d
0000
0000
0192
cafe
3c0d
0000
0000
0190
cafe
200d
0000
0000
0189
cafe
240d
0000
0000
018d
cafe
280d
0000
0000
0190
cafe
2c0d
0000
0000
018b
cafe
300d
0000
0000
018b
cafe
340d
0000
0000
018d
cafe
380d
0000
0000
018a
cafe
3c0d
0000
0000
0189
cafe
200d
0000
0000
0181
cafe
240d
0000
0000
0184
cafe
280d
0000
0000
0186
cafe
2c0d
0000
0000
018e
cafe
300d
0000
0000
018c
cafe
340d
0000
0000
018a
cafe
380d
0000
0000
018d
cafe
3c0d
0000
0000
018f
cafe
200d
0000
0000
0191
cafe
240d
0000
0000
0189
cafe
280d
0000
0000
018f
cafe
2c0d
0000
0000
018c
cafe
300d
0000
0000
018f
cafe
340d
0000
0000
018e
cafe
380d
0000
0000
0184
cafe
3c0d
0000
0000
018c
cafe
200d
0000
0000
-
0189
cafe
240d
0000
0000
018f
cafe
280d
0000
0000
018c
cafe
2c0d
0000
0000
018a
cafe
300d
0000
0000
0188
cafe
340d
0000
0000
0187
cafe
380d
0000
0000
0187
cafe
3c0d
0000
0000
0185
cafe
200d
0000
0000
018a
cafe
240d
0000
0000
0188
cafe
280d
0000
0000
0187
cafe
2c0d
0000
0000
018a
cafe
300d
0000
0000
018e
cafe
340d
0000
0000
018f
cafe
380d
0000
0000
018f
cafe
3c0d
0000
0000
018b
cafe
200d
0000
0000
018e
cafe
240d
0000
0000
018e
cafe
280d
0000
0000
0191
cafe
2c0d
0000
0000
018d
cafe
300d
0000
0000
018e
cafe
340d
0000
0000
0191
cafe
380d
0000
0000
018e
cafe
3c0d
0000
0000
018e
cafe
200d
0000
0000
0190
cafe
240d
0000
0000
0194
cafe
280d
0000
0000
0195
cafe
2c0d
0000
0000
018d
cafe
300d
0000
0000
018d
cafe
340d
0000
0000
018d
cafe
380d
0000
0000
018c
cafe
3c0d
0000
0000
0191
cafe
200d
0000
0000
018f
cafe
240d
0000
0000
018f
cafe
280d
0000
0000
0194
cafe
2c0d
0000
0000
018e
cafe
300d
0000
0000
0188
cafe
340d
0000
0000
018d
cafe
380d
0000
0000
018c
cafe
3c0d
0000
0000
018d
cafe
200d
0000
0000
018e
cafe
240d
0000
0000
018b
cafe
280d
0000
0000
018a
cafe
2c0d
0000
0000
018d
cafe
300d
0000
0000
018c
cafe
340d
0000
0000
0189
cafe
380d
0000
0000
018c
cafe
3c0d
0000
0000
0188
cafe
200d
0000
0000
0189
cafe
240d
0000
0000
018b
cafe
280d
0000
0000
018a
cafe
2c0d
0000
0000
018d
-
cafe
300d
0000
0000
0187
cafe
340d
0000
0000
0187
cafe
380d
0000
0000
0189
cafe
3c0d
0000
0000
018d
cafe
200d
0000
0000
018d
cafe
240d
0000
0000
018e
cafe
280d
0000
0000
018b
cafe
2c0d
0000
0000
018b
cafe
300d
0000
0000
0189
cafe
340d
0000
0000
0189
cafe
380d
0000
0000
018b
cafe
3c0d
0000
0000
018a
cafe
200d
0000
0000
018e
cafe
240d
0000
0000
018f
cafe
280d
0000
0000
018b
cafe
2c0d
0000
0000
018d
cafe
300d
0000
0000
018f
cafe
340d
0000
0000
018d
cafe
380d
0000
0000
018b
cafe
3c0d
0000
0000
018c
cafe
200d
0000
0000
0191
cafe
240d
0000
0000
0190
cafe
280d
0000
0000
0196
cafe
2c0d
0000
0000
0192
cafe
300d
0000
0000
0191
cafe
340d
0000
0000
018d
cafe
380d
0000
0000
0190
cafe
3c0d
0000
0000
0195
cafe
200d
0000
0000
018f
cafe
240d
0000
0000
018d
cafe
280d
0000
0000
0191
cafe
2c0d
0000
0000
0194
cafe
300d
0000
0000
0195
cafe
340d
0000
0000
0191
cafe
380d
0000
0000
018f
cafe
3c0d
0000
0000
018c
cafe
200d
0000
0000
018c
cafe
240d
0000
0000
018c
cafe
280d
0000
0000
018f
cafe
2c0d
0000
0000
018f
cafe
300d
0000
0000
0192
cafe
340d
0000
0000
0192
cafe
380d
0000
0000
018f
cafe
3c0d
0000
0000
0195
cafe
200d
0000
0000
0190
cafe
240d
0000
0000
018a
cafe
280d
0000
0000
018d
cafe
2c0d
0000
0000
018f
cafe
300d
0000
0000
018c
cafe
340d
0000
0000
0189
cafe
380d
0000
0000
0187
cafe
-
3c0d
0000
0000
018a
cafe
200d
0000
0000
018a
cafe
240d
0000
0000
0189
cafe
280d
0000
0000
018c
cafe
2c0d
0000
0000
0185
cafe
300d
0000
0000
018e
cafe
340d
0000
0000
0190
cafe
380d
0000
0000
018f
cafe
3c0d
0000
0000
018d
cafe
200d
0000
0000
018e
cafe
240d
0000
0000
018e
cafe
280d
0000
0000
0187
cafe
2c0d
0000
0000
0189
cafe
300d
0000
0000
0189
cafe
340d
0000
0000
018c
cafe
380d
0000
0000
018b
cafe
3c0d
0000
0000
018c
cafe
200d
0000
0000
0188
cafe
240d
0000
0000
018b
cafe
280d
0000
0000
018b
cafe
2c0d
0000
0000
0188
cafe
300d
0000
0000
018b
cafe
340d
0000
0000
0184
cafe
380d
0000
0000
0184
cafe
3c0d
0000
0000
0186
cafe
200d
0000
0000
0189
cafe
240d
0000
0000
018c
cafe
280d
0000
0000
018e
cafe
2c0d
0000
0000
018e
cafe
300d
0000
0000
0188
cafe
340d
0000
0000
018b
cafe
380d
0000
0000
0188
cafe
3c0d
0000
0000
0186
cafe
200d
0000
0000
018a
cafe
240d
0000
0000
0186
cafe
280d
0000
0000
0189
cafe
2c0d
0000
0000
018c
cafe
300d
0000
0000
018b
cafe
340d
0000
0000
018b
cafe
380d
0000
0000
0189
cafe
3c0d
0000
0000
018c
cafe
200d
0000
0000
018e
cafe
240d
0000
0000
018c
cafe
280d
0000
0000
018b
cafe
2c0d
0000
0000
018c
cafe
300d
0000
0000
018e
cafe
340d
0000
0000
018a
cafe
380d
0000
0000
018b
cafe
3c0d
0000
0000
0190
cafe
200d
0000
0000
0188
cafe
240d
0000
0000
018b
cafe
280d
-
0000
0000
018d
cafe
2c0d
0000
0000
018f
cafe
300d
0000
0000
018e
cafe
340d
0000
0000
018d
cafe
380d
0000
0000
018f
cafe
3c0d
0000
0000
018b
cafe
200d
0000
0000
0190
cafe
240d
0000
0000
018f
cafe
280d
0000
0000
018f
cafe
2c0d
0000
0000
018f
cafe
300d
0000
0000
018b
cafe
340d
0000
0000
018d
cafe
380d
0000
0000
018b
cafe
3c0d
0000
0000
0189
cafe
200d
0000
0000
018e
cafe
240d
0000
0000
0190
cafe
280d
0000
0000
0193
cafe
2c0d
0000
0000
018c
cafe
300d
0000
0000
018c
cafe
340d
0000
0000
018e
cafe
380d
0000
0000
018c
cafe
3c0d
0000
0000
018f
cafe
200d
0000
0000
0188
cafe
240d
0000
0000
0188
cafe
280d
0000
0000
018c
cafe
2c0d
0000
0000
018b
cafe
300d
0000
0000
018b
cafe
340d
0000
0000
018d
cafe
380d
0000
0000
018a
cafe
3c0d
0000
0000
0192
cafe
200d
0000
0000
018f
cafe
240d
0000
0000
018d
cafe
280d
0000
0000
0190
cafe
2c0d
0000
0000
0195
cafe
300d
0000
0000
0193
cafe
340d
0000
0000
018d
cafe
380d
0000
0000
018d
cafe
3c0d
0000
0000
018d
cafe
200d
0000
0000
0192
cafe
240d
0000
0000
018e
cafe
280d
0000
0000
0190
cafe
2c0d
0000
0000
0190
cafe
300d
0000
0000
018f
cafe
340d
0000
0000
0191
cafe
380d
0000
0000
0194
cafe
3c0d
0000
0000
0194
cafe
200d
0000
0000
0190
cafe
240d
0000
0000
0192
cafe
280d
0000
0000
018b
cafe
2c0d
0000
0000
018d
cafe
300d
0000
0000
0191
cafe
340d
0000
-
0000
0196
cafe
380d
0000
0000
018f
cafe
3c0d
0000
0000
0190
cafe
200d
0000
0000
0193
cafe
240d
0000
0000
0192
cafe
280d
0000
0000
018f
cafe
2c0d
0000
0000
0190
cafe
300d
0000
0000
0191
cafe
340d
0000
0000
018d
cafe
380d
0000
0000
018d
cafe
3c0d
0000
0000
0191
cafe
200d
0000
0000
0191
cafe
240d
0000
0000
018d
cafe
280d
0000
0000
0191
cafe
2c0d
0000
0000
018c
cafe
300d
0000
0000
018c
cafe
340d
0000
0000
0189
cafe
380d
0000
0000
0189
cafe
3c0d
0000
0000
0189
cafe
200d
0000
0000
0184
cafe
240d
0000
0000
0183
cafe
280d
0000
0000
0187
cafe
2c0d
0000
0000
0188
cafe
300d
0000
0000
0189
cafe
340d
0000
0000
018f
cafe
380d
0000
0000
018e
cafe
3c0d
0000
0000
018c
cafe
200d
0000
0000
0192
cafe
240d
0000
0000
018d
cafe
280d
0000
0000
018c
cafe
2c0d
0000
0000
018c
cafe
300d
0000
0000
0193
cafe
340d
0000
0000
018a
cafe
380d
0000
0000
0188
cafe
3c0d
0000
0000
0186
cafe
200d
0000
0000
018b
cafe
240d
0000
0000
0189
cafe
280d
0000
0000
0186
cafe
2c0d
0000
0000
0186
cafe
300d
0000
0000
018c
cafe
340d
0000
0000
018a
cafe
380d
0000
0000
018d
cafe
3c0d
0000
0000
018f
cafe
200d
0000
0000
018f
cafe
240d
0000
0000
018d
cafe
280d
0000
0000
0187
cafe
2c0d
0000
0000
0188
cafe
300d
0000
0000
0182
cafe
340d
0000
0000
0189
cafe
380d
0000
0000
0189
cafe
3c0d
0000
0000
018f
cafe
200d
0000
0000
-
0188
cafe
240d
0000
0000
018c
cafe
280d
0000
0000
0191
cafe
2c0d
0000
0000
0190
cafe
300d
0000
0000
0191
cafe
340d
0000
0000
018f
cafe
380d
0000
0000
018e
cafe
3c0d
0000
0000
0189
cafe
200d
0000
0000
0186
cafe
240d
0000
0000
018b
cafe
280d
0000
0000
0187
cafe
2c0d
0000
0000
018d
cafe
300d
0000
0000
0188
cafe
340d
0000
0000
018a
cafe
380d
0000
0000
018d
cafe
3c0d
0000
0000
0186
cafe
200d
0000
0000
0185
cafe
240d
0000
0000
0189
cafe
280d
0000
0000
0189
cafe
2c0d
0000
0000
0187
cafe
300d
0000
0000
018f
cafe
340d
0000
0000
018b
cafe
380d
0000
0000
0193
cafe
3c0d
0000
0000
018b
cafe
200d
0000
0000
0188
cafe
240d
0000
0000
0185
cafe
280d
0000
0000
018a
cafe
2c0d
0000
0000
0189
cafe
300d
0000
0000
018d
cafe
340d
0000
0000
018b
cafe
380d
0000
0000
018e
cafe
3c0d
0000
0000
018c
cafe
200d
0000
0000
018d
cafe
240d
0000
0000
018d
cafe
280d
0000
0000
018d
cafe
2c0d
0000
0000
0189
cafe
300d
0000
0000
018c
cafe
340d
0000
0000
0189
cafe
380d
0000
0000
018d
cafe
3c0d
0000
0000
018d
cafe
200d
0000
0000
0191
cafe
240d
0000
0000
0190
cafe
280d
0000
0000
018b
cafe
2c0d
0000
0000
018d
cafe
300d
0000
0000
0193
cafe
340d
0000
0000
018a
cafe
380d
0000
0000
018b
cafe
3c0d
0000
0000
018d
cafe
200d
0000
0000
018e
cafe
240d
0000
0000
018e
cafe
280d
0000
0000
018f
cafe
2c0d
0000
0000
0191
-
cafe
300d
0000
0000
018b
cafe
340d
0000
0000
018a
cafe
380d
0000
0000
018d
cafe
3c0d
0000
0000
018d
cafe
200d
0000
0000
018a
cafe
240d
0000
0000
018a
cafe
280d
0000
0000
018f
cafe
2c0d
0000
0000
0189
cafe
300d
0000
0000
0189
cafe
340d
0000
0000
0187
cafe
380d
0000
0000
0191
cafe
3c0d
0000
0000
0190
cafe
200d
0000
0000
018f
cafe
240d
0000
0000
0188
cafe
280d
0000
0000
0189
cafe
2c0d
0000
0000
018d
cafe
300d
0000
0000
018d
cafe
340d
0000
0000
018b
cafe
380d
0000
0000
018c
cafe
3c0d
0000
0000
018c
cafe
200d
0000
0000
018f
cafe
240d
0000
0000
0192
cafe
280d
0000
0000
018b
cafe
2c0d
0000
0000
018b
cafe
300d
0000
0000
018c
cafe
340d
0000
0000
018e
cafe
380d
0000
0000
0191
cafe
3c0d
0000
0000
018e
cafe
200d
0000
0000
0191
cafe
240d
0000
0000
018f
cafe
280d
0000
0000
0192
cafe
2c0d
0000
0000
018d
cafe
300d
0000
0000
0194
cafe
340d
0000
0000
018f
cafe
380d
0000
0000
018f
cafe
3c0d
0000
0000
018f
cafe
200d
0000
0000
0191
cafe
240d
0000
0000
0192
cafe
280d
0000
0000
0194
cafe
2c0d
0000
0000
0193
cafe
300d
0000
0000
0194
cafe
340d
0000
0000
0194
cafe
380d
0000
0000
0190
cafe
3c0d
0000
0000
0190
cafe
200d
0000
0000
0191
cafe
240d
0000
0000
018d
cafe
280d
0000
0000
0189
cafe
2c0d
0000
0000
018b
cafe
300d
0000
0000
018b
cafe
340d
0000
0000
018e
cafe
380d
0000
0000
018a
cafe
-
3c0d
0000
0000
018b
cafe
200d
0000
0000
018e
cafe
240d
0000
0000
018c
cafe
280d
0000
0000
018a
cafe
2c0d
0000
0000
0184
cafe
300d
0000
0000
018b
cafe
340d
0000
0000
0187
cafe
380d
0000
0000
0188
cafe
3c0d
0000
0000
0187
cafe
200d
0000
0000
0183
cafe
240d
0000
0000
0182
cafe
280d
0000
0000
0186
cafe
2c0d
0000
0000
018a
cafe
300d
0000
0000
0187
cafe
340d
0000
0000
0183
cafe
380d
0000
0000
0187
cafe
3c0d
0000
0000
018b
cafe
200d
0000
0000
018f
cafe
240d
0000
0000
0195
cafe
280d
0000
0000
0196
cafe
2c0d
0000
0000
0196
cafe
300d
0000
0000
0199
cafe
340d
0000
0000
0191
cafe
380d
0000
0000
0195
cafe
3c0d
0000
0000
0190
cafe
200d
0000
0000
0196
cafe
240d
0000
0000
0191
cafe
280d
0000
0000
018e
cafe
2c0d
0000
0000
018c
cafe
300d
0000
0000
0192
cafe
340d
0000
0000
0194
cafe
380d
0000
0000
0191
cafe
3c0d
0000
0000
0190
cafe
200d
0000
0000
0191
cafe
240d
0000
0000
018e
cafe
280d
0000
0000
018c
cafe
2c0d
0000
0000
018d
cafe
300d
0000
0000
018e
cafe
340d
0000
0000
0187
cafe
380d
0000
0000
018a
cafe
3c0d
0000
0000
018a
cafe
200d
0000
0000
0189
cafe
240d
0000
0000
018b
cafe
280d
0000
0000
018c
cafe
2c0d
0000
0000
0190
cafe
300d
0000
0000
018b
cafe
340d
0000
0000
018d
cafe
380d
0000
0000
0190
cafe
3c0d
0000
0000
018c
cafe
200d
0000
0000
018f
cafe
240d
0000
0000
018d
cafe
280d
-
0000
0000
018f
cafe
2c0d
0000
0000
0190
cafe
300d
0000
0000
018d
cafe
340d
0000
0000
018e
cafe
380d
0000
0000
018f
cafe
3c0d
0000
0000
018b
cafe
200d
0000
0000
018d
cafe
240d
0000
0000
018c
cafe
280d
0000
0000
0191
cafe
2c0d
0000
0000
018f
cafe
300d
0000
0000
018e
cafe
340d
0000
0000
018d
cafe
380d
0000
0000
018a
cafe
3c0d
0000
0000
018d
cafe
200d
0000
0000
018b
cafe
240d
0000
0000
018e
cafe
280d
0000
0000
0190
cafe
2c0d
0000
0000
0193
cafe
300d
0000
0000
018d
cafe
340d
0000
0000
018b
cafe
380d
0000
0000
0189
cafe
3c0d
0000
0000
018c
cafe
200d
0000
0000
018e
cafe
240d
0000
0000
018a
cafe
280d
0000
0000
0187
cafe
2c0d
0000
0000
018b
cafe
300d
0000
0000
018c
cafe
340d
0000
0000
018c
cafe
380d
0000
0000
018e
cafe
3c0d
0000
0000
018c
cafe
200d
0000
0000
018f
cafe
240d
0000
0000
018b
cafe
280d
0000
0000
0187
cafe
2c0d
0000
0000
018a
cafe
300d
0000
0000
018f
cafe
340d
0000
0000
0193
cafe
380d
0000
0000
0192
cafe
3c0d
0000
0000
018e
cafe
200d
0000
0000
0193
cafe
240d
0000
0000
0191
cafe
280d
0000
0000
0192
cafe
2c0d
0000
0000
018e
cafe
300d
0000
0000
0189
cafe
340d
0000
0000
018b
cafe
380d
0000
0000
018d
cafe
3c0d
0000
0000
018b
cafe
200d
0000
0000
0189
cafe
240d
0000
0000
0186
cafe
280d
0000
0000
0184
cafe
2c0d
0000
0000
0185
cafe
300d
0000
0000
0185
cafe
340d
0000
-
0000
0188
cafe
380d
0000
0000
018b
cafe
3c0d
0000
0000
018c
cafe
200d
0000
0000
0188
cafe
240d
0000
0000
0189
cafe
280d
0000
0000
0189
cafe
2c0d
0000
0000
018d
cafe
300d
0000
0000
018b
cafe
340d
0000
0000
018b
cafe
380d
0000
0000
018a
cafe
3c0d
0000
0000
0189
cafe
200d
0000
0000
018a
cafe
240d
0000
0000
018c
cafe
280d
0000
0000
0191
cafe
2c0d
0000
0000
018c
cafe
300d
0000
0000
0187
cafe
340d
0000
0000
0187
cafe
380d
0000
0000
018c
cafe
3c0d
0000
0000
018c
cafe
200d
0000
0000
018b
cafe
240d
0000
0000
0191
cafe
280d
0000
0000
018b
cafe
2c0d
0000
0000
018b
cafe
300d
0000
0000
018e
cafe
340d
0000
0000
018c
cafe
380d
0000
0000
018f
cafe
3c0d
0000
0000
018a
cafe
200d
0000
0000
018f
cafe
240d
0000
0000
018c
cafe
280d
0000
0000
0194
cafe
2c0d
0000
0000
0192
cafe
300d
0000
0000
0190
cafe
340d
0000
0000
0193
cafe
380d
0000
0000
0191
cafe
3c0d
0000
0000
0197
cafe
200d
0000
0000
018f
cafe
240d
0000
0000
0191
cafe
280d
0000
0000
018f
cafe
2c0d
0000
0000
018b
cafe
300d
0000
0000
018d
cafe
340d
0000
0000
0188
cafe
380d
0000
0000
018d
cafe
3c0d
0000
0000
018a
cafe
200d
0000
0000
0185
cafe
240d
0000
0000
018d
cafe
280d
0000
0000
018c
cafe
2c0d
0000
0000
0189
cafe
300d
0000
0000
018c
cafe
340d
0000
0000
0193
cafe
380d
0000
0000
018b
cafe
3c0d
0000
0000
018d
cafe
200d
0000
0000
-
0190
cafe
240d
0000
0000
0190
cafe
280d
0000
0000
0188
cafe
2c0d
0000
0000
0190
cafe
300d
0000
0000
018d
cafe
340d
0000
0000
018c
cafe
380d
0000
0000
0189
cafe
3c0d
0000
0000
0187
cafe
200d
0000
0000
0181
cafe
240d
0000
0000
0185
cafe
280d
0000
0000
0189
cafe
2c0d
0000
0000
0188
cafe
300d
0000
0000
0189
cafe
340d
0000
0000
018b
cafe
380d
0000
0000
0189
cafe
3c0d
0000
0000
018d
cafe
200d
0000
0000
0190
cafe
240d
0000
0000
0190
cafe
280d
0000
0000
018d
cafe
2c0d
0000
0000
018d
cafe
300d
0000
0000
018c
cafe
340d
0000
0000
018c
cafe
380d
0000
0000
018f
cafe
3c0d
0000
0000
0191
cafe
200d
0000
0000
018b
cafe
240d
0000
0000
018d
cafe
280d
0000
0000
018b
cafe
2c0d
0000
0000
0186
cafe
300d
0000
0000
0189
cafe
340d
0000
0000
018e
cafe
380d
0000
0000
0187
cafe
3c0d
0000
0000
0187
cafe
200d
0000
0000
0188
cafe
240d
0000
0000
0188
cafe
280d
0000
0000
0187
cafe
2c0d
0000
0000
0188
cafe
300d
0000
0000
0187
cafe
340d
0000
0000
0183
cafe
380d
0000
0000
0187
cafe
3c0d
0000
0000
0185
cafe
200d
0000
0000
0188
cafe
240d
0000
0000
0183
cafe
280d
0000
0000
018d
cafe
2c0d
0000
0000
018d
cafe
300d
0000
0000
0189
cafe
340d
0000
0000
0190
cafe
380d
0000
0000
018e
cafe
3c0d
0000
0000
018f
cafe
200d
0000
0000
018b
cafe
240d
0000
0000
018a
cafe
280d
0000
0000
018e
cafe
2c0d
0000
0000
0192
-
cafe
300d
0000
0000
0192
cafe
340d
0000
0000
0192
cafe
380d
0000
0000
018e
cafe
3c0d
0000
0000
018f
cafe
200d
0000
0000
018e
cafe
240d
0000
0000
0190
cafe
280d
0000
0000
0193
cafe
2c0d
0000
0000
0190
cafe
300d
0000
0000
0190
cafe
340d
0000
0000
018d
cafe
380d
0000
0000
0191
cafe
3c0d
0000
0000
018a
cafe
200d
0000
0000
0187
cafe
240d
0000
0000
0190
cafe
280d
0000
0000
018e
cafe
2c0d
0000
0000
018c
cafe
300d
0000
0000
018a
cafe
340d
0000
0000
0188
cafe
380d
0000
0000
0186
cafe
3c0d
0000
0000
018c
cafe
200d
0000
0000
018b
cafe
240d
0000
0000
0191
cafe
280d
0000
0000
0189
cafe
2c0d
0000
0000
0189
cafe
300d
0000
0000
0187
cafe
340d
0000
0000
0186
cafe
380d
0000
0000
018a
cafe
3c0d
0000
0000
0189
cafe
200d
0000
0000
0188
cafe
240d
0000
0000
018c
cafe
280d
0000
0000
018b
cafe
2c0d
0000
0000
018e
cafe
300d
0000
0000
0191
cafe
340d
0000
0000
0190
cafe
380d
0000
0000
0195
cafe
3c0d
0000
0000
0199
cafe
200d
0000
0000
0195
cafe
240d
0000
0000
0191
cafe
280d
0000
0000
018f
cafe
2c0d
0000
0000
0193
cafe
300d
0000
0000
0192
cafe
340d
0000
0000
0191
cafe
380d
0000
0000
0190
cafe
3c0d
0000
0000
018f
cafe
200d
0000
0000
018f
cafe
240d
0000
0000
018c
cafe
280d
0000
0000
0190
cafe
2c0d
0000
0000
018a
cafe
300d
0000
0000
0193
cafe
340d
0000
0000
018d
cafe
380d
0000
0000
018d
cafe
-
3c0d
0000
0000
018f
cafe
200d
0000
0000
018a
cafe
240d
0000
0000
0190
cafe
280d
0000
0000
0192
cafe
2c0d
0000
0000
0192
cafe
300d
0000
0000
0192
cafe
340d
0000
0000
018e
cafe
380d
0000
0000
018d
cafe
3c0d
0000
0000
018c
cafe
200d
0000
0000
0190
cafe
240d
0000
0000
0192
cafe
280d
0000
0000
0193
cafe
2c0d
0000
0000
0191
cafe
300d
0000
0000
0190
cafe
340d
0000
0000
0191
cafe
380d
0000
0000
0190
cafe
3c0d
0000
0000
018e
cafe
200d
0000
0000
018e
cafe
240d
0000
0000
0191
cafe
280d
0000
0000
0190
cafe
2c0d
0000
0000
018d
cafe
300d
0000
0000
018a
cafe
340d
0000
0000
0192
cafe
380d
0000
0000
018f
cafe
3c0d
0000
0000
0193
cafe
200d
0000
0000
0192
cafe
240d
0000
0000
018f
cafe
280d
0000
0000
018a
cafe
2c0d
0000
0000
0188
cafe
300d
0000
0000
018c
cafe
340d
0000
0000
0189
cafe
380d
0000
0000
018a
cafe
3c0d
0000
0000
018b
cafe
200d
0000
0000
018d
cafe
240d
0000
0000
0191
cafe
280d
0000
0000
018f
cafe
2c0d
0000
0000
0196
cafe
300d
0000
0000
0194
cafe
340d
0000
0000
018e
cafe
380d
0000
0000
0199
cafe
3c0d
0000
0000
0191
cafe
200d
0000
0000
0195
cafe
240d
0000
0000
0193
cafe
280d
0000
0000
018f
cafe
2c0d
0000
0000
0191
cafe
300d
0000
0000
018e
cafe
340d
0000
0000
0191
cafe
380d
0000
0000
018d
cafe
3c0d
0000
0000
018c
cafe
200d
0000
0000
018a
cafe
240d
0000
0000
0186
cafe
280d
-
0000
0000
018c
cafe
2c0d
0000
0000
018b
cafe
300d
0000
0000
0188
cafe
340d
0000
0000
0185
cafe
380d
0000
0000
0184
cafe
3c0d
0000
0000
018b
cafe
200d
0000
0000
018a
cafe
240d
0000
0000
0183
cafe
280d
0000
0000
0186
cafe
2c0d
0000
0000
0182
cafe
300d
0000
0000
0189
cafe
340d
0000
0000
018a
cafe
380d
0000
0000
018b
cafe
3c0d
0000
0000
0189
cafe
200d
0000
0000
018a
cafe
240d
0000
0000
018b
cafe
280d
0000
0000
018a
cafe
2c0d
0000
0000
018a
cafe
300d
0000
0000
018a
cafe
340d
0000
0000
018c
cafe
380d
0000
0000
0189
cafe
3c0d
0000
0000
018b
cafe
200d
0000
0000
018b
cafe
240d
0000
0000
018c
cafe
280d
0000
0000
018f
cafe
2c0d
0000
0000
018e
cafe
300d
0000
0000
0194
cafe
340d
0000
0000
0195
cafe
380d
0000
0000
0194
cafe
3c0d
0000
0000
0193
cafe
200d
0000
0000
018e
cafe
240d
0000
0000
018f
cafe
280d
0000
0000
018c
cafe
2c0d
0000
0000
018a
cafe
300d
0000
0000
018d
cafe
340d
0000
0000
018c
cafe
380d
0000
0000
0186
cafe
3c0d
0000
0000
0185
cafe
200d
0000
0000
0184
cafe
240d
0000
0000
0185
cafe
280d
0000
0000
018a
cafe
2c0d
0000
0000
0189
cafe
300d
0000
0000
0186
cafe
340d
0000
0000
0189
cafe
380d
0000
0000
018b
cafe
3c0d
0000
0000
018a
cafe
200d
0000
0000
018a
cafe
240d
0000
0000
0189
cafe
280d
0000
0000
0189
cafe
2c0d
0000
0000
018b
cafe
300d
0000
0000
018b
cafe
340d
0000
-
0000
018d
cafe
380d
0000
0000
018c
cafe
3c0d
0000
0000
018f
cafe
200d
0000
0000
018c
cafe
240d
0000
0000
018e
cafe
280d
0000
0000
018c
cafe
2c0d
0000
0000
018f
cafe
300d
0000
0000
018e
cafe
340d
0000
0000
018a
cafe
380d
0000
0000
018a
cafe
3c0d
0000
0000
0186
cafe
200d
0000
0000
0187
cafe
240d
0000
0000
018b
cafe
280d
0000
0000
0188
cafe
2c0d
0000
0000
0188
cafe
300d
0000
0000
018b
cafe
340d
0000
0000
0189
cafe
380d
0000
0000
0186
cafe
3c0d
0000
0000
018b
cafe
200d
0000
0000
0189
cafe
240d
0000
0000
0189
cafe
280d
0000
0000
018f
cafe
2c0d
0000
0000
018d
cafe
300d
0000
0000
018e
cafe
340d
0000
0000
018f
cafe
380d
0000
0000
018e
cafe
3c0d
0000
0000
018f
cafe
200d
0000
0000
018f
cafe
240d
0000
0000
0191
cafe
280d
0000
0000
0189
cafe
2c0d
0000
0000
018d
cafe
300d
0000
0000
018b
cafe
340d
0000
0000
018e
cafe
380d
0000
0000
018f
cafe
3c0d
0000
0000
0196
cafe
200d
0000
0000
0193
cafe
240d
0000
0000
018e
cafe
280d
0000
0000
0193
cafe
2c0d
0000
0000
0194
cafe
300d
0000
0000
0192
cafe
340d
0000
0000
0192
cafe
380d
0000
0000
0192
cafe
3c0d
0000
0000
0192
cafe
200d
0000
0000
0190
cafe
240d
0000
0000
018e
cafe
280d
0000
0000
0190
cafe
2c0d
0000
0000
018d
cafe
300d
0000
0000
0191
cafe
340d
0000
0000
018c
cafe
380d
0000
0000
018d
cafe
3c0d
0000
0000
018d
cafe
200d
0000
0000
-
0195
cafe
240d
0000
0000
0191
cafe
280d
0000
0000
0190
cafe
2c0d
0000
0000
018f
cafe
300d
0000
0000
018b
cafe
340d
0000
0000
018d
cafe
380d
0000
0000
0190
cafe
3c0d
0000
0000
018e
cafe
200d
0000
0000
018d
cafe
240d
0000
0000
0191
cafe
280d
0000
0000
0195
cafe
2c0d
0000
0000
0191
cafe
300d
0000
0000
0192
cafe
340d
0000
0000
018e
cafe
380d
0000
0000
0194
cafe
3c0d
0000
0000
0195
cafe
200d
0000
0000
0197
cafe
240d
0000
0000
0194
cafe
280d
0000
0000
0193
cafe
2c0d
0000
0000
0197
cafe
300d
0000
0000
0190
cafe
340d
0000
0000
0195
cafe
380d
0000
0000
0195
cafe
3c0d
0000
0000
018d
cafe
200d
0000
0000
0191
cafe
240d
0000
0000
0191
cafe
280d
0000
0000
018e
cafe
2c0d
0000
0000
018d
cafe
300d
0000
0000
018c
cafe
340d
0000
0000
018f
cafe
380d
0000
0000
018d
cafe
3c0d
0000
0000
018f
cafe
200d
0000
0000
018f
cafe
240d
0000
0000
0190
cafe
280d
0000
0000
018d
cafe
2c0d
0000
0000
0192
cafe
300d
0000
0000
0192
cafe
340d
0000
0000
0191
cafe
380d
0000
0000
0195
cafe
3c0d
0000
0000
0192
cafe
200d
0000
0000
0197
cafe
240d
0000
0000
018f
cafe
280d
0000
0000
018f
cafe
2c0d
0000
0000
0194
cafe
300d
0000
0000
0196
cafe
340d
0000
0000
0195
cafe
380d
0000
0000
0198
cafe
3c0d
0000
0000
0192
cafe
200d
0000
0000
0191
cafe
240d
0000
0000
018f
cafe
280d
0000
0000
018c
cafe
2c0d
0000
0000
018a
-
