3416
0000
0000
01ec
cafe
3816
0000
0000
01ee
cafe
3c16
0000
0000
01f0
cafe
2016
0000
0000
01ee
cafe
2416
0000
0000
01ee
cafe
2816
0000
0000
01ef
cafe
2c16
0000
0000
01ed
cafe
3016
0000
0000
01ec
cafe
3416
0000
0000
01ec
cafe
3816
0000
0000
01e9
cafe
3c16
0000
0000
01ec
cafe
2016
0000
0000
01eb
cafe
2416
0000
0000
01ef
cafe
2816
0000
0000
01eb
cafe
2c16
0000
0000
01ed
cafe
3016
0000
0000
01ea
cafe
3416
0000
0000
01e5
cafe
3816
0000
0000
01eb
cafe
3c16
0000
0000
01e9
cafe
2016
0000
0000
01ef
cafe
2416
0000
0000
01ed
cafe
2816
0000
0000
01e8
cafe
2c16
0000
0000
01e7
cafe
3016
0000
0000
01ea
cafe
3416
0000
0000
01ec
cafe
3816
0000
0000
01f0
cafe
3c16
0000
0000
01ee
cafe
2016
0000
0000
01eb
cafe
2416
0000
0000
01e6
cafe
2816
0000
0000
01e9
cafe
2c16
0000
0000
01ec
cafe
3016
0000
0000
01eb
cafe
3416
0000
0000
01ed
cafe
3816
0000
0000
01ec
cafe
3c16
0000
0000
01e8
cafe
2016
0000
0000
01f2
cafe
2416
0000
0000
01ef
cafe
2816
0000
0000
01eb
cafe
2c16
0000
0000
01e6
cafe
3016
0000
0000
01ea
cafe
3416
0000
0000
01ee
cafe
3816
0000
0000
01ed
cafe
3c16
0000
0000
01ee
cafe
2016
0000
0000
01ed
cafe
2416
0000
0000
01e9
cafe
2816
0000
0000
01e6
cafe
2c16
0000
0000
01ea
cafe
3016
0000
0000
01e9
cafe
3416
0000
0000
01e2
cafe
3816
0000
0000
01e9
cafe
3c16
0000
0000
01ea
cafe
2016
-
0000
0000
01ea
cafe
2416
0000
0000
01e8
cafe
2816
0000
0000
01e8
cafe
2c16
0000
0000
01e8
cafe
3016
0000
0000
01ec
cafe
3416
0000
0000
01e8
cafe
3816
0000
0000
01e9
cafe
3c16
0000
0000
01e6
cafe
2016
0000
0000
01e8
cafe
2416
0000
0000
01e9
cafe
2816
0000
0000
01ea
cafe
2c16
0000
0000
01ed
cafe
3016
0000
0000
01eb
cafe
3416
0000
0000
01e7
cafe
3816
0000
0000
01e5
cafe
3c16
0000
0000
01e5
cafe
2016
0000
0000
01ea
cafe
2416
0000
0000
01ec
cafe
2816
0000
0000
01e7
cafe
2c16
0000
0000
01ea
cafe
3016
0000
0000
01e7
cafe
3416
0000
0000
01ec
cafe
3816
0000
0000
01eb
cafe
3c16
0000
0000
01e9
cafe
2016
0000
0000
01e7
cafe
2416
0000
0000
01ea
cafe
2816
0000
0000
01f1
cafe
2c16
0000
0000
01f1
cafe
3016
0000
0000
01ef
cafe
3416
0000
0000
01f0
cafe
3816
0000
0000
01ef
cafe
3c16
0000
0000
01ea
cafe
2016
0000
0000
01ea
cafe
2416
0000
0000
01e7
cafe
2816
0000
0000
01e8
cafe
2c16
0000
0000
01e6
cafe
3016
0000
0000
01ea
cafe
3416
0000
0000
01ea
cafe
3816
0000
0000
01ea
cafe
3c16
0000
0000
01ee
cafe
2016
0000
0000
01ea
cafe
2416
0000
0000
01ea
cafe
2816
0000
0000
01ed
cafe
2c16
0000
0000
01e7
cafe
3016
0000
0000
01eb
cafe
3416
0000
0000
01eb
cafe
3816
0000
0000
01ec
cafe
3c16
0000
0000
01e5
cafe
2016
0000
0000
01e8
cafe
2416
0000
0000
01ed
cafe
2816
0000
0000
01eb
cafe
2c16
0000
-
0000
01f0
cafe
3016
0000
0000
01e8
cafe
3416
0000
0000
01ea
cafe
3816
0000
0000
01ea
cafe
3c16
0000
0000
01ea
cafe
2016
0000
0000
01eb
cafe
2416
0000
0000
01eb
cafe
2816
0000
0000
01ec
cafe
2c16
0000
0000
01e9
cafe
3016
0000
0000
01e8
cafe
3416
0000
0000
01e9
cafe
3816
0000
0000
01ec
cafe
3c16
0000
0000
01ee
cafe
2016
0000
0000
01eb
cafe
2416
0000
0000
01ec
cafe
2816
0000
0000
01e9
cafe
2c16
0000
0000
01ee
cafe
3016
0000
0000
01ed
cafe
3416
0000
0000
01ee
cafe
3816
0000
0000
01ec
cafe
3c16
0000
0000
01ec
cafe
2016
0000
0000
01ed
cafe
2416
0000
0000
01ee
cafe
2816
0000
0000
01ee
cafe
2c16
0000
0000
01f1
cafe
3016
0000
0000
01ed
cafe
3416
0000
0000
01f3
cafe
3816
0000
0000
01f4
cafe
3c16
0000
0000
01ee
cafe
2016
0000
0000
01f1
cafe
2416
0000
0000
01f2
cafe
2816
0000
0000
01f4
cafe
2c16
0000
0000
01f0
cafe
3016
0000
0000
01f0
cafe
3416
0000
0000
01ef
cafe
3816
0000
0000
01ea
cafe
3c16
0000
0000
01ed
cafe
2016
0000
0000
01f0
cafe
2416
0000
0000
01ea
cafe
2816
0000
0000
01e8
cafe
2c16
0000
0000
01ed
cafe
3016
0000
0000
01ed
cafe
3416
0000
0000
01ed
cafe
3816
0000
0000
01ea
cafe
3c16
0000
0000
01ec
cafe
2016
0000
0000
01ed
cafe
2416
0000
0000
01ec
cafe
2816
0000
0000
01ee
cafe
2c16
0000
0000
01ec
cafe
3016
0000
0000
01ee
cafe
3416
0000
0000
01ee
cafe
3816
0000
0000
-
01ef
cafe
3c16
0000
0000
01e8
cafe
2016
0000
0000
01eb
cafe
2416
0000
0000
01e9
cafe
2816
0000
0000
01e7
cafe
2c16
0000
0000
01e6
cafe
3016
0000
0000
01e7
cafe
3416
0000
0000
01e4
cafe
3816
0000
0000
01e5
cafe
3c16
0000
0000
01e4
cafe
2016
0000
0000
01e7
cafe
2416
0000
0000
01f0
cafe
2816
0000
0000
01f2
cafe
2c16
0000
0000
01ef
cafe
3016
0000
0000
01ec
cafe
3416
0000
0000
01e9
cafe
3816
0000
0000
01ea
cafe
3c16
0000
0000
01ed
cafe
2016
0000
0000
01e9
cafe
2416
0000
0000
01eb
cafe
2816
0000
0000
01eb
cafe
2c16
0000
0000
01e8
cafe
3016
0000
0000
01e6
cafe
3416
0000
0000
01eb
cafe
3816
0000
0000
01e9
cafe
3c16
0000
0000
01ea
cafe
2016
0000
0000
01e9
cafe
2416
0000
0000
01ed
cafe
2816
0000
0000
01f2
cafe
2c16
0000
0000
01ef
cafe
3016
0000
0000
01f0
cafe
3416
0000
0000
01f5
cafe
3816
0000
0000
01f1
cafe
3c16
0000
0000
01f3
cafe
2016
0000
0000
01f3
cafe
2416
0000
0000
01f0
cafe
2816
0000
0000
01f4
cafe
2c16
0000
0000
01ea
cafe
3016
0000
0000
01ed
cafe
3416
0000
0000
01ed
cafe
3816
0000
0000
01ec
cafe
3c16
0000
0000
01e9
cafe
2016
0000
0000
01e9
cafe
2416
0000
0000
01e8
cafe
2816
0000
0000
01e9
cafe
2c16
0000
0000
01e6
cafe
3016
0000
0000
01e5
cafe
3416
0000
0000
01e4
cafe
3816
0000
0000
01e5
cafe
3c16
0000
0000
01e8
cafe
2016
0000
0000
01eb
cafe
2416
0000
0000
01ea
-
cafe
2816
0000
0000
01e9
cafe
2c16
0000
0000
01ea
cafe
3016
0000
0000
01ea
cafe
3416
0000
0000
01e7
cafe
3816
0000
0000
01ed
cafe
3c16
0000
0000
01e9
cafe
2016
0000
0000
01ec
cafe
2416
0000
0000
01ea
cafe
2816
0000
0000
01ed
cafe
2c16
0000
0000
01eb
cafe
3016
0000
0000
01ea
cafe
3416
0000
0000
01ec
cafe
3816
0000
0000
01e9
cafe
3c16
0000
0000
01eb
cafe
2016
0000
0000
01e7
cafe
2416
0000
0000
01e8
cafe
2816
0000
0000
01e8
cafe
2c16
0000
0000
01e6
cafe
3016
0000
0000
01ec
cafe
3416
0000
0000
01e9
cafe
3816
0000
0000
01e3
cafe
3c16
0000
0000
01e9
cafe
2016
0000
0000
01e4
cafe
2416
0000
0000
01e7
cafe
2816
0000
0000
01e8
cafe
2c16
0000
0000
01e8
cafe
3016
0000
0000
01e9
cafe
3416
0000
0000
01eb
cafe
3816
0000
0000
01e7
cafe
3c16
0000
0000
01ef
cafe
2016
0000
0000
01e9
cafe
2416
0000
0000
01ec
cafe
2816
0000
0000
01e6
cafe
2c16
0000
0000
01e7
cafe
3016
0000
0000
01e6
cafe
3416
0000
0000
01e7
cafe
3816
0000
0000
01ee
cafe
3c16
0000
0000
01ed
cafe
2016
0000
0000
01e5
cafe
2416
0000
0000
01e6
cafe
2816
0000
0000
01e3
cafe
2c16
0000
0000
01e5
cafe
3016
0000
0000
01e9
cafe
3416
0000
0000
01ea
cafe
3816
0000
0000
01ea
cafe
3c16
0000
0000
01e9
cafe
2016
0000
0000
01eb
cafe
2416
0000
0000
01e4
cafe
2816
0000
0000
01e5
cafe
2c16
0000
0000
01e9
cafe
3016
0000
0000
01e7
cafe
-
3416
0000
0000
01e2
cafe
3816
0000
0000
01e6
cafe
3c16
0000
0000
01e8
cafe
2016
0000
0000
01e5
cafe
2416
0000
0000
01e9
cafe
2816
0000
0000
01e7
cafe
2c16
0000
0000
01e7
cafe
3016
0000
0000
01e2
cafe
3416
0000
0000
01e2
cafe
3816
0000
0000
01e6
cafe
3c16
0000
0000
01e2
cafe
2016
0000
0000
01e2
cafe
2416
0000
0000
01e3
cafe
2816
0000
0000
01e6
cafe
2c16
0000
0000
01e7
cafe
3016
0000
0000
01f0
cafe
3416
0000
0000
01ef
cafe
3816
0000
0000
01f1
cafe
3c16
0000
0000
01f1
cafe
2016
0000
0000
01ed
cafe
2416
0000
0000
01f0
cafe
2816
0000
0000
01eb
cafe
2c16
0000
0000
01ea
cafe
3016
0000
0000
01ee
cafe
3416
0000
0000
01e8
cafe
3816
0000
0000
01e3
cafe
3c16
0000
0000
01e6
cafe
2016
0000
0000
01e6
cafe
2416
0000
0000
01ec
cafe
2816
0000
0000
01ef
cafe
2c16
0000
0000
01eb
cafe
3016
0000
0000
01ea
cafe
3416
0000
0000
01ea
cafe
3816
0000
0000
01ee
cafe
3c16
0000
0000
01ea
cafe
2016
0000
0000
01ed
cafe
2416
0000
0000
01ec
cafe
2816
0000
0000
01eb
cafe
2c16
0000
0000
01e7
cafe
3016
0000
0000
01e9
cafe
3416
0000
0000
01ee
cafe
3816
0000
0000
01e7
cafe
3c16
0000
0000
01e8
cafe
2016
0000
0000
01f1
cafe
2416
0000
0000
01f3
cafe
2816
0000
0000
01ee
cafe
2c16
0000
0000
01f1
cafe
3016
0000
0000
01ee
cafe
3416
0000
0000
01e9
cafe
3816
0000
0000
01e7
cafe
3c16
0000
0000
01ea
cafe
2016
-
0000
0000
01eb
cafe
2416
0000
0000
01e9
cafe
2816
0000
0000
01ea
cafe
2c16
0000
0000
01e6
cafe
3016
0000
0000
01e7
cafe
3416
0000
0000
01ea
cafe
3816
0000
0000
01e7
cafe
3c16
0000
0000
01e8
cafe
2016
0000
0000
01e7
cafe
2416
0000
0000
01ea
cafe
2816
0000
0000
01e7
cafe
2c16
0000
0000
01e7
cafe
3016
0000
0000
01ea
cafe
3416
0000
0000
01eb
cafe
3816
0000
0000
01ef
cafe
3c16
0000
0000
01ee
cafe
2016
0000
0000
01ee
cafe
2416
0000
0000
01ee
cafe
2816
0000
0000
01ec
cafe
2c16
0000
0000
01ed
cafe
3016
0000
0000
01e8
cafe
3416
0000
0000
01f0
cafe
3816
0000
0000
01ef
cafe
3c16
0000
0000
01ea
cafe
2016
0000
0000
01f0
cafe
2416
0000
0000
01ec
cafe
2816
0000
0000
01ee
cafe
2c16
0000
0000
01ee
cafe
3016
0000
0000
01eb
cafe
3416
0000
0000
01ee
cafe
3816
0000
0000
01f0
cafe
3c16
0000
0000
01ee
cafe
2016
0000
0000
01ec
cafe
2416
0000
0000
01ea
cafe
2816
0000
0000
01e7
cafe
2c16
0000
0000
01ec
cafe
3016
0000
0000
01e7
cafe
3416
0000
0000
01e3
cafe
3816
0000
0000
01e7
cafe
3c16
0000
0000
01e8
cafe
2016
0000
0000
01e8
cafe
2416
0000
0000
01ea
cafe
2816
0000
0000
01eb
cafe
2c16
0000
0000
01e8
cafe
3016
0000
0000
01e8
cafe
3416
0000
0000
01e9
cafe
3816
0000
0000
01e9
cafe
3c16
0000
0000
01ec
cafe
2016
0000
0000
01ec
cafe
2416
0000
0000
01ea
cafe
2816
0000
0000
01ea
cafe
2c16
0000
-
0000
01e6
cafe
3016
0000
0000
01e7
cafe
3416
0000
0000
01ed
cafe
3816
0000
0000
01ed
cafe
3c16
0000
0000
01ee
cafe
2016
0000
0000
01eb
cafe
2416
0000
0000
01e6
cafe
2816
0000
0000
01eb
cafe
2c16
0000
0000
01ed
cafe
3016
0000
0000
01ec
cafe
3416
0000
0000
01ea
cafe
3816
0000
0000
01e7
cafe
3c16
0000
0000
01e9
cafe
2016
0000
0000
01e7
cafe
2416
0000
0000
01e6
cafe
2816
0000
0000
01e7
cafe
2c16
0000
0000
01e9
cafe
3016
0000
0000
01eb
cafe
3416
0000
0000
01e8
cafe
3816
0000
0000
01ee
cafe
3c16
0000
0000
01ec
cafe
2016
0000
0000
01e8
cafe
2416
0000
0000
01ed
cafe
2816
0000
0000
01ee
cafe
2c16
0000
0000
01ea
cafe
3016
0000
0000
01ec
cafe
3416
0000
0000
01eb
cafe
3816
0000
0000
01ed
cafe
3c16
0000
0000
01ee
cafe
2016
0000
0000
01f2
cafe
2416
0000
0000
01ed
cafe
2816
0000
0000
01ef
cafe
2c16
0000
0000
01f0
cafe
3016
0000
0000
01f2
cafe
3416
0000
0000
01f1
cafe
3816
0000
0000
01ee
cafe
3c16
0000
0000
01ee
cafe
2016
0000
0000
01ee
cafe
2416
0000
0000
01e8
cafe
2816
0000
0000
01eb
cafe
2c16
0000
0000
01e6
cafe
3016
0000
0000
01e9
cafe
3416
0000
0000
01ed
cafe
3816
0000
0000
01ec
cafe
3c16
0000
0000
01e9
cafe
2016
0000
0000
01eb
cafe
2416
0000
0000
01e9
cafe
2816
0000
0000
01ee
cafe
2c16
0000
0000
01e9
cafe
3016
0000
0000
01e5
cafe
3416
0000
0000
01e6
cafe
3816
0000
0000
-
01e6
cafe
3c16
0000
0000
01e5
cafe
2016
0000
0000
01e6
cafe
2416
0000
0000
01e3
cafe
2816
0000
0000
01e4
cafe
2c16
0000
0000
01e5
cafe
3016
0000
0000
01e7
cafe
3416
0000
0000
01e7
cafe
3816
0000
0000
01ea
cafe
3c16
0000
0000
01eb
cafe
2016
0000
0000
01eb
cafe
2416
0000
0000
01ea
cafe
2816
0000
0000
01e8
cafe
2c16
0000
0000
01eb
cafe
3016
0000
0000
01ee
cafe
3416
0000
0000
01ed
cafe
3816
0000
0000
01ea
cafe
3c16
0000
0000
01eb
cafe
2016
0000
0000
01ec
cafe
2416
0000
0000
01e8
cafe
2816
0000
0000
01e7
cafe
2c16
0000
0000
01ea
cafe
3016
0000
0000
01e9
cafe
3416
0000
0000
01e9
cafe
3816
0000
0000
01ea
cafe
3c16
0000
0000
01eb
cafe
2016
0000
0000
01ec
cafe
2416
0000
0000
01ea
cafe
2816
0000
0000
01ee
cafe
2c16
0000
0000
01ee
cafe
3016
0000
0000
01ee
cafe
3416
0000
0000
01ed
cafe
3816
0000
0000
01ef
cafe
3c16
0000
0000
01ee
cafe
2016
0000
0000
01f1
cafe
2416
0000
0000
01ec
cafe
2816
0000
0000
01e9
cafe
2c16
0000
0000
01e7
cafe
3016
0000
0000
01e7
cafe
3416
0000
0000
01e8
cafe
3816
0000
0000
01e5
cafe
3c16
0000
0000
01e2
cafe
2016
0000
0000
01e5
cafe
2416
0000
0000
01e5
cafe
2816
0000
0000
01e9
cafe
2c16
0000
0000
01ed
cafe
3016
0000
0000
01ec
cafe
3416
0000
0000
01ef
cafe
3816
0000
0000
01f0
cafe
3c16
0000
0000
01f2
cafe
2016
0000
0000
01ed
cafe
2416
0000
0000
01ea
-
cafe
2816
0000
0000
01ec
cafe
2c16
0000
0000
01ee
cafe
3016
0000
0000
01ec
cafe
3416
0000
0000
01e6
cafe
3816
0000
0000
01e0
cafe
3c16
0000
0000
01e9
cafe
2016
0000
0000
01e9
cafe
2416
0000
0000
01e8
cafe
2816
0000
0000
01e2
cafe
2c16
0000
0000
01e3
cafe
3016
0000
0000
01e5
cafe
3416
0000
0000
01eb
cafe
3816
0000
0000
01ed
cafe
3c16
0000
0000
01ec
cafe
2016
0000
0000
01ed
cafe
2416
0000
0000
01eb
cafe
2816
0000
0000
01e7
cafe
2c16
0000
0000
01ea
cafe
3016
0000
0000
01ef
cafe
3416
0000
0000
01e7
cafe
3816
0000
0000
01ea
cafe
3c16
0000
0000
01ea
cafe
2016
0000
0000
01eb
cafe
2416
0000
0000
01ea
cafe
2816
0000
0000
01ea
cafe
2c16
0000
0000
01ea
cafe
3016
0000
0000
01eb
cafe
3416
0000
0000
01e8
cafe
3816
0000
0000
01e9
cafe
3c16
0000
0000
01e6
cafe
2016
0000
0000
01eb
cafe
2416
0000
0000
01ee
cafe
2816
0000
0000
01f0
cafe
2c16
0000
0000
01ef
cafe
3016
0000
0000
01f1
cafe
3416
0000
0000
01f2
cafe
3816
0000
0000
01ed
cafe
3c16
0000
0000
01eb
cafe
2016
0000
0000
01e7
cafe
2416
0000
0000
01eb
cafe
2816
0000
0000
01ea
cafe
2c16
0000
0000
01e9
cafe
3016
0000
0000
01e5
cafe
3416
0000
0000
01e9
cafe
3816
0000
0000
01eb
cafe
3c16
0000
0000
01f1
cafe
2016
0000
0000
01ec
cafe
2416
0000
0000
01e7
cafe
2816
0000
0000
01eb
cafe
2c16
0000
0000
01e9
cafe
3016
0000
0000
01ec
cafe
-
3416
0000
0000
01ed
cafe
3816
0000
0000
01e4
cafe
3c16
0000
0000
01e9
cafe
2016
0000
0000
01ea
cafe
2416
0000
0000
01e9
cafe
2816
0000
0000
01eb
cafe
2c16
0000
0000
01ee
cafe
3016
0000
0000
01ed
cafe
3416
0000
0000
01f2
cafe
3816
0000
0000
01ec
cafe
3c16
0000
0000
01f1
cafe
2016
0000
0000
01ef
cafe
2416
0000
0000
01ee
cafe
2816
0000
0000
01ec
cafe
2c16
0000
0000
01ea
cafe
3016
0000
0000
01e6
cafe
3416
0000
0000
01f0
cafe
3816
0000
0000
01f1
cafe
3c16
0000
0000
01f1
cafe
2016
0000
0000
01f2
cafe
2416
0000
0000
01f3
cafe
2816
0000
0000
01f1
cafe
2c16
0000
0000
01f2
cafe
3016
0000
0000
01ec
cafe
3416
0000
0000
01eb
cafe
3816
0000
0000
01eb
cafe
3c16
0000
0000
01e8
cafe
2016
0000
0000
01ea
cafe
2416
0000
0000
01ea
cafe
2816
0000
0000
01f0
cafe
2c16
0000
0000
01f4
cafe
3016
0000
0000
01f4
cafe
3416
0000
0000
01ef
cafe
3816
0000
0000
01ec
cafe
3c16
0000
0000
01ef
cafe
2016
0000
0000
01e8
cafe
2416
0000
0000
01ec
cafe
2816
0000
0000
01ea
cafe
2c16
0000
0000
01ea
cafe
3016
0000
0000
01ea
cafe
3416
0000
0000
01ec
cafe
3816
0000
0000
01f0
cafe
3c16
0000
0000
01f1
cafe
2016
0000
0000
01ed
cafe
2416
0000
0000
01f1
cafe
2816
0000
0000
01ec
cafe
2c16
0000
0000
01eb
cafe
3016
0000
0000
01ee
cafe
3416
0000
0000
01f1
cafe
3816
0000
0000
01ea
cafe
3c16
0000
0000
01ea
cafe
2016
-
0000
0000
01eb
cafe
2416
0000
0000
01eb
cafe
2816
0000
0000
01ea
cafe
2c16
0000
0000
01e7
cafe
3016
0000
0000
01ea
cafe
3416
0000
0000
01e7
cafe
3816
0000
0000
01e7
cafe
3c16
0000
0000
01e8
cafe
2016
0000
0000
01ee
cafe
2416
0000
0000
01ec
cafe
2816
0000
0000
01f1
cafe
2c16
0000
0000
01f0
cafe
3016
0000
0000
01ea
cafe
3416
0000
0000
01e9
cafe
3816
0000
0000
01ea
cafe
3c16
0000
0000
01ea
cafe
2016
0000
0000
01ef
cafe
2416
0000
0000
01ea
cafe
2816
0000
0000
01eb
cafe
2c16
0000
0000
01ea
cafe
3016
0000
0000
01eb
cafe
3416
0000
0000
01ee
cafe
3816
0000
0000
01ec
cafe
3c16
0000
0000
01ee
cafe
2016
0000
0000
01e9
cafe
2416
0000
0000
01e9
cafe
2816
0000
0000
01eb
cafe
2c16
0000
0000
01e9
cafe
3016
0000
0000
01e9
cafe
3416
0000
0000
01eb
cafe
3816
0000
0000
01e7
cafe
3c16
0000
0000
01eb
cafe
2016
0000
0000
01eb
cafe
2416
0000
0000
01e9
cafe
2816
0000
0000
01e8
cafe
2c16
0000
0000
01e5
cafe
3016
0000
0000
01e8
cafe
3416
0000
0000
01e2
cafe
3816
0000
0000
01e3
cafe
3c16
0000
0000
01e5
cafe
2016
0000
0000
01e7
cafe
2416
0000
0000
01eb
cafe
2816
0000
0000
01e9
cafe
2c16
0000
0000
01e9
cafe
3016
0000
0000
01ea
cafe
3416
0000
0000
01ed
cafe
3816
0000
0000
01f0
cafe
3c16
0000
0000
01eb
cafe
2016
0000
0000
01eb
cafe
2416
0000
0000
01eb
cafe
2816
0000
0000
01ea
cafe
2c16
0000
-
0000
01ee
cafe
3016
0000
0000
01ea
cafe
3416
0000
0000
01ec
cafe
3816
0000
0000
01eb
cafe
3c16
0000
0000
01e7
cafe
2016
0000
0000
01e8
cafe
2416
0000
0000
01ea
cafe
2816
0000
0000
01ef
cafe
2c16
0000
0000
01ef
cafe
3016
0000
0000
01ee
cafe
3416
0000
0000
01ee
cafe
3816
0000
0000
01ec
cafe
3c16
0000
0000
01ee
cafe
2016
0000
0000
01e8
cafe
2416
0000
0000
01f1
cafe
2816
0000
0000
01f1
cafe
2c16
0000
0000
01f1
cafe
3016
0000
0000
01ea
cafe
3416
0000
0000
01ed
cafe
3816
0000
0000
01ef
cafe
3c16
0000
0000
01ef
cafe
2016
0000
0000
01ee
cafe
2416
0000
0000
01e7
cafe
2816
0000
0000
01ed
cafe
2c16
0000
0000
01ec
cafe
3016
0000
0000
01e9
cafe
3416
0000
0000
01e2
cafe
3816
0000
0000
01e6
cafe
3c16
0000
0000
01eb
cafe
2016
0000
0000
01e8
cafe
2416
0000
0000
01e6
cafe
2816
0000
0000
01e5
cafe
2c16
0000
0000
01ec
cafe
3016
0000
0000
01e7
cafe
3416
0000
0000
01e8
cafe
3816
0000
0000
01e7
cafe
3c16
0000
0000
01e9
cafe
2016
0000
0000
01eb
cafe
2416
0000
0000
01ea
cafe
2816
0000
0000
01ea
cafe
2c16
0000
0000
01e9
cafe
3016
0000
0000
01eb
cafe
3416
0000
0000
01eb
cafe
3816
0000
0000
01eb
cafe
3c16
0000
0000
01ec
cafe
2016
0000
0000
01eb
cafe
2416
0000
0000
01ea
cafe
2816
0000
0000
01e9
cafe
2c16
0000
0000
01f0
cafe
3016
0000
0000
01ed
cafe
3416
0000
0000
01e8
cafe
3816
0000
0000
-
01e9
cafe
3c16
0000
0000
01e9
cafe
2016
0000
0000
01ed
cafe
2416
0000
0000
01e9
cafe
2816
0000
0000
01ed
cafe
2c16
0000
0000
01ed
cafe
3016
0000
0000
01ee
cafe
3416
0000
0000
01f0
cafe
3816
0000
0000
01f4
cafe
3c16
0000
0000
01f4
cafe
2016
0000
0000
01ed
cafe
2416
0000
0000
01ec
cafe
2816
0000
0000
01f0
cafe
2c16
0000
0000
01f2
cafe
3016
0000
0000
01ef
cafe
3416
0000
0000
01eb
cafe
3816
0000
0000
01e9
cafe
3c16
0000
0000
01ef
cafe
2016
0000
0000
01ed
cafe
2416
0000
0000
01eb
cafe
2816
0000
0000
01ee
cafe
2c16
0000
0000
01f1
cafe
3016
0000
0000
01ef
cafe
3416
0000
0000
01eb
cafe
3816
0000
0000
01f1
cafe
3c16
0000
0000
01ef
cafe
2016
0000
0000
01f3
cafe
2416
0000
0000
01f2
cafe
2816
0000
0000
01f4
cafe
2c16
0000
0000
01f5
cafe
3016
0000
0000
01f2
cafe
3416
0000
0000
01f6
cafe
3816
0000
0000
01f3
cafe
3c16
0000
0000
01f2
cafe
2016
0000
0000
01e9
cafe
2416
0000
0000
01ed
cafe
2816
0000
0000
01ef
cafe
2c16
0000
0000
01ee
cafe
3016
0000
0000
01ee
cafe
3416
0000
0000
01ed
cafe
3816
0000
0000
01ec
cafe
3c16
0000
0000
01f2
cafe
2016
0000
0000
01ef
cafe
2416
0000
0000
01f2
cafe
2816
0000
0000
01eb
cafe
2c16
0000
0000
01ed
cafe
3016
0000
0000
01ec
cafe
3416
0000
0000
01eb
cafe
3816
0000
0000
01eb
cafe
3c16
0000
0000
01e9
cafe
2016
0000
0000
01ea
cafe
2416
0000
0000
01e8
-
cafe
2816
0000
0000
01e9
cafe
2c16
0000
0000
01ef
cafe
3016
0000
0000
01ed
cafe
3416
0000
0000
01eb
cafe
3816
0000
0000
01ef
cafe
3c16
0000
0000
01f2
cafe
2016
0000
0000
01f6
cafe
2416
0000
0000
01f0
cafe
2816
0000
0000
01ed
cafe
2c16
0000
0000
01ef
cafe
3016
0000
0000
01f0
cafe
3416
0000
0000
01eb
cafe
3816
0000
0000
01ec
cafe
3c16
0000
0000
01e9
cafe
2016
0000
0000
01e5
cafe
2416
0000
0000
01e6
cafe
2816
0000
0000
01e8
cafe
2c16
0000
0000
01ec
cafe
3016
0000
0000
01ec
cafe
3416
0000
0000
01f0
cafe
3816
0000
0000
01ec
cafe
3c16
0000
0000
01f1
cafe
2016
0000
0000
01eb
cafe
2416
0000
0000
01ec
cafe
2816
0000
0000
01e5
cafe
2c16
0000
0000
01e7
cafe
3016
0000
0000
01e5
cafe
3416
0000
0000
01e6
cafe
3816
0000
0000
01e9
cafe
3c16
0000
0000
01e8
cafe
2016
0000
0000
01ec
cafe
2416
0000
0000
01e6
cafe
2816
0000
0000
01e7
cafe
2c16
0000
0000
01e6
cafe
3016
0000
0000
01e7
cafe
3416
0000
0000
01e7
cafe
3816
0000
0000
01ec
cafe
3c16
0000
0000
01e7
cafe
2016
0000
0000
01ec
cafe
2416
0000
0000
01e9
cafe
2816
0000
0000
01e9
cafe
2c16
0000
0000
01e9
cafe
3016
0000
0000
01eb
cafe
3416
0000
0000
01ee
cafe
3816
0000
0000
01e7
cafe
3c16
0000
0000
01e5
cafe
2016
0000
0000
01e3
cafe
2416
0000
0000
01e1
cafe
2816
0000
0000
01e4
cafe
2c16
0000
0000
01e2
cafe
3016
0000
0000
01e1
cafe
-
3416
0000
0000
01e6
cafe
3816
0000
0000
01e5
cafe
3c16
0000
0000
01e3
cafe
2016
0000
0000
01e7
cafe
2416
0000
0000
01ea
cafe
2816
0000
0000
01e6
cafe
2c16
0000
0000
01ea
cafe
3016
0000
0000
01e6
cafe
3416
0000
0000
01eb
cafe
3816
0000
0000
01e9
cafe
3c16
0000
0000
01e3
cafe
2016
0000
0000
01e6
cafe
2416
0000
0000
01eb
cafe
2816
0000
0000
01e9
cafe
2c16
0000
0000
01e8
cafe
3016
0000
0000
01f2
cafe
3416
0000
0000
01ee
cafe
3816
0000
0000
01ef
cafe
3c16
0000
0000
01ee
cafe
2016
0000
0000
01f0
cafe
2416
0000
0000
01ef
cafe
2816
0000
0000
01ee
cafe
2c16
0000
0000
01ef
cafe
3016
0000
0000
01f2
cafe
3416
0000
0000
01ef
cafe
3816
0000
0000
01f1
cafe
3c16
0000
0000
01f5
cafe
2016
0000
0000
01f4
cafe
2416
0000
0000
01f0
cafe
2816
0000
0000
01f1
cafe
2c16
0000
0000
01f1
cafe
3016
0000
0000
01ef
cafe
3416
0000
0000
01ee
cafe
3816
0000
0000
01f0
cafe
3c16
0000
0000
01f2
cafe
2016
0000
0000
01f1
cafe
2416
0000
0000
01f0
cafe
2816
0000
0000
01ef
cafe
2c16
0000
0000
01f2
cafe
3016
0000
0000
01ed
cafe
3416
0000
0000
01ec
cafe
3816
0000
0000
01ed
cafe
3c16
0000
0000
01e6
cafe
2016
0000
0000
01e7
cafe
2416
0000
0000
01ef
cafe
2816
0000
0000
01ed
cafe
2c16
0000
0000
01ed
cafe
3016
0000
0000
01ea
cafe
3416
0000
0000
01e4
cafe
3816
0000
0000
01e5
cafe
3c16
0000
0000
01ee
cafe
2016
-
0000
0000
01f0
cafe
2416
0000
0000
01f0
cafe
2816
0000
0000
01ee
cafe
2c16
0000
0000
01ee
cafe
3016
0000
0000
01ee
cafe
3416
0000
0000
01ec
cafe
3816
0000
0000
01f0
cafe
3c16
0000
0000
01ef
cafe
2016
0000
0000
01ec
cafe
2416
0000
0000
01eb
cafe
2816
0000
0000
01ea
cafe
2c16
0000
0000
01eb
cafe
3016
0000
0000
01e8
cafe
3416
0000
0000
01eb
cafe
3816
0000
0000
01eb
cafe
3c16
0000
0000
01e8
cafe
2016
0000
0000
01e6
cafe
2416
0000
0000
01e4
cafe
2816
0000
0000
01e0
cafe
2c16
0000
0000
01ea
cafe
3016
0000
0000
01e4
cafe
3416
0000
0000
01e7
cafe
3816
0000
0000
01e9
cafe
3c16
0000
0000
01ec
cafe
2016
0000
0000
01e9
cafe
2416
0000
0000
01eb
cafe
2816
0000
0000
01ea
cafe
2c16
0000
0000
01ef
cafe
3016
0000
0000
01ed
cafe
3416
0000
0000
01ea
cafe
3816
0000
0000
01f1
cafe
3c16
0000
0000
01eb
cafe
2016
0000
0000
01e6
cafe
2416
0000
0000
01e6
cafe
2816
0000
0000
01e7
cafe
2c16
0000
0000
01ec
cafe
3016
0000
0000
01ec
cafe
3416
0000
0000
01e8
cafe
3816
0000
0000
01e8
cafe
3c16
0000
0000
01ec
cafe
2016
0000
0000
01ee
cafe
2416
0000
0000
01ea
cafe
2816
0000
0000
01e8
cafe
2c16
0000
0000
01ed
cafe
3016
0000
0000
01e8
cafe
3416
0000
0000
01e9
cafe
3816
0000
0000
01e9
cafe
3c16
0000
0000
01ee
cafe
2016
0000
0000
01e7
cafe
2416
0000
0000
01e7
cafe
2816
0000
0000
01eb
cafe
2c16
0000
-
0000
01e9
cafe
3016
0000
0000
01ed
cafe
3416
0000
0000
01ea
cafe
3816
0000
0000
01e6
cafe
3c16
0000
0000
01e8
cafe
2016
0000
0000
01e8
cafe
2416
0000
0000
01e1
cafe
2816
0000
0000
01e2
cafe
2c16
0000
0000
01e2
cafe
3016
0000
0000
01e7
cafe
3416
0000
0000
01e7
cafe
3816
0000
0000
01eb
cafe
3c16
0000
0000
01e6
cafe
2016
0000
0000
01e3
cafe
2416
0000
0000
01e6
cafe
2816
0000
0000
01e5
cafe
2c16
0000
0000
01e7
cafe
3016
0000
0000
01e6
cafe
3416
0000
0000
01e7
cafe
3816
0000
0000
01e3
cafe
3c16
0000
0000
01e7
cafe
2016
0000
0000
01e8
cafe
2416
0000
0000
01ec
cafe
2816
0000
0000
01e6
cafe
2c16
0000
0000
01e8
cafe
3016
0000
0000
01ec
cafe
3416
0000
0000
01e9
cafe
3816
0000
0000
01eb
cafe
3c16
0000
0000
01ea
cafe
2016
0000
0000
01ef
cafe
2416
0000
0000
01e9
cafe
2816
0000
0000
01ec
cafe
2c16
0000
0000
01ed
cafe
3016
0000
0000
01f1
cafe
3416
0000
0000
01ef
cafe
3816
0000
0000
01ee
cafe
3c16
0000
0000
01ef
cafe
2016
0000
0000
01ec
cafe
2416
0000
0000
01e9
cafe
2816
0000
0000
01e4
cafe
2c16
0000
0000
01e5
cafe
3016
0000
0000
01e4
cafe
3416
0000
0000
01ed
cafe
3816
0000
0000
01ee
cafe
3c16
0000
0000
01ec
cafe
2016
0000
0000
01ee
cafe
2416
0000
0000
01ee
cafe
2816
0000
0000
01ee
cafe
2c16
0000
0000
01f1
cafe
3016
0000
0000
01ee
cafe
3416
0000
0000
01ee
cafe
3816
0000
0000
-
01ed
cafe
3c16
0000
0000
01eb
cafe
2016
0000
0000
01f2
cafe
2416
0000
0000
01ec
cafe
2816
0000
0000
01ed
cafe
2c16
0000
0000
01ee
cafe
3016
0000
0000
01ef
cafe
3416
0000
0000
01ed
cafe
3816
0000
0000
01f0
cafe
3c16
0000
0000
01ed
cafe
2016
0000
0000
01ef
cafe
2416
0000
0000
01ef
cafe
2816
0000
0000
01ee
cafe
2c16
0000
0000
01f0
cafe
3016
0000
0000
01f1
cafe
3416
0000
0000
01f6
cafe
3816
0000
0000
01f1
cafe
3c16
0000
0000
01f2
cafe
2016
0000
0000
01ed
cafe
2416
0000
0000
01ea
cafe
2816
0000
0000
01e9
cafe
2c16
0000
0000
01e6
cafe
3016
0000
0000
01ef
cafe
3416
0000
0000
01f4
cafe
3816
0000
0000
01f1
cafe
3c16
0000
0000
01ee
cafe
2016
0000
0000
01ee
cafe
2416
0000
0000
01f1
cafe
2816
0000
0000
01ee
cafe
2c16
0000
0000
01ee
cafe
3016
0000
0000
01ed
cafe
3416
0000
0000
01ec
cafe
3816
0000
0000
01eb
cafe
3c16
0000
0000
01eb
cafe
2016
0000
0000
01f0
cafe
2416
0000
0000
01ec
cafe
2816
0000
0000
01ef
cafe
2c16
0000
0000
01ec
cafe
3016
0000
0000
01e9
cafe
3416
0000
0000
01ea
cafe
3816
0000
0000
01ee
cafe
3c16
0000
0000
01f0
cafe
2016
0000
0000
01ed
cafe
2416
0000
0000
01ec
cafe
2816
0000
0000
01ec
cafe
2c16
0000
0000
01ef
cafe
3016
0000
0000
01ef
cafe
3416
0000
0000
01ed
cafe
3816
0000
0000
01f3
cafe
3c16
0000
0000
01ee
cafe
2016
0000
0000
01ee
cafe
2416
0000
0000
01f2
-
cafe
2816
0000
0000
01f5
cafe
2c16
0000
0000
01ef
cafe
3016
0000
0000
01ea
cafe
3416
0000
0000
01e9
cafe
3816
0000
0000
01ed
cafe
3c16
0000
0000
01e8
cafe
2016
0000
0000
01e5
cafe
2416
0000
0000
01ea
cafe
2816
0000
0000
01e3
cafe
2c16
0000
0000
01dd
cafe
3016
0000
0000
01e4
cafe
3416
0000
0000
01e4
cafe
3816
0000
0000
01e1
cafe
3c16
0000
0000
01e1
cafe
2016
0000
0000
01e3
cafe
2416
0000
0000
01e4
cafe
2816
0000
0000
01e8
cafe
2c16
0000
0000
01e9
cafe
3016
0000
0000
01ec
cafe
3416
0000
0000
01ed
cafe
3816
0000
0000
01ed
cafe
3c16
0000
0000
01f1
cafe
2016
0000
0000
01ee
cafe
2416
0000
0000
01f0
cafe
2816
0000
0000
01f4
cafe
2c16
0000
0000
01f1
cafe
3016
0000
0000
01f1
cafe
3416
0000
0000
01ef
cafe
3816
0000
0000
01ee
cafe
3c16
0000
0000
01e8
cafe
2016
0000
0000
01ef
cafe
2416
0000
0000
01f0
cafe
2816
0000
0000
01f3
cafe
2c16
0000
0000
01f2
cafe
3016
0000
0000
01ef
cafe
3416
0000
0000
01e9
cafe
3816
0000
0000
01ed
cafe
3c16
0000
0000
01ee
cafe
2016
0000
0000
01ef
cafe
2416
0000
0000
01f3
cafe
2816
0000
0000
01f0
cafe
2c16
0000
0000
01e9
cafe
3016
0000
0000
01e8
cafe
3416
0000
0000
01ea
cafe
3816
0000
0000
01e6
cafe
3c16
0000
0000
01e8
cafe
2016
0000
0000
01e9
cafe
2416
0000
0000
01e8
cafe
2816
0000
0000
01ea
cafe
2c16
0000
0000
01e6
cafe
3016
0000
0000
01e4
cafe
-
3416
0000
0000
01e9
cafe
3816
0000
0000
01e7
cafe
3c16
0000
0000
01e9
cafe
2016
0000
0000
01e6
cafe
2416
0000
0000
01e9
cafe
2816
0000
0000
01ef
cafe
2c16
0000
0000
01ee
cafe
3016
0000
0000
01ec
cafe
3416
0000
0000
01ed
cafe
3816
0000
0000
01f0
cafe
3c16
0000
0000
01ed
cafe
2016
0000
0000
01ed
cafe
2416
0000
0000
01e9
cafe
2816
0000
0000
01e8
cafe
2c16
0000
0000
01e5
cafe
3016
0000
0000
01e5
cafe
3416
0000
0000
01e4
cafe
3816
0000
0000
01e6
cafe
3c16
0000
0000
01ea
cafe
2016
0000
0000
01ed
cafe
2416
0000
0000
01f0
cafe
2816
0000
0000
01ea
cafe
2c16
0000
0000
01ed
cafe
3016
0000
0000
01ec
cafe
3416
0000
0000
01ee
cafe
3816
0000
0000
01eb
cafe
3c16
0000
0000
01ed
cafe
2016
0000
0000
01ec
cafe
2416
0000
0000
01ec
cafe
2816
0000
0000
01ee
cafe
2c16
0000
0000
01ec
cafe
3016
0000
0000
01ea
cafe
3416
0000
0000
01e7
cafe
3816
0000
0000
01e9
cafe
3c16
0000
0000
01e9
cafe
2016
0000
0000
01ea
cafe
2416
0000
0000
01ef
cafe
2816
0000
0000
01eb
cafe
2c16
0000
0000
01e9
cafe
3016
0000
0000
01f0
cafe
3416
0000
0000
01ed
cafe
3816
0000
0000
01ef
cafe
3c16
0000
0000
01ef
cafe
2016
0000
0000
01ec
cafe
2416
0000
0000
01ee
cafe
2816
0000
0000
01ee
cafe
2c16
0000
0000
01f0
cafe
3016
0000
0000
01ee
cafe
3416
0000
0000
01ec
cafe
3816
0000
0000
01ec
cafe
3c16
0000
0000
01ee
cafe
2016
-
0000
0000
01e9
cafe
2416
0000
0000
01ef
cafe
2816
0000
0000
01ed
cafe
2c16
0000
0000
01ed
cafe
3016
0000
0000
01ee
cafe
3416
0000
0000
01ec
cafe
3816
0000
0000
01ed
cafe
3c16
0000
0000
01ee
cafe
2016
0000
0000
01f0
cafe
2416
0000
0000
01ef
cafe
2816
0000
0000
01f1
cafe
2c16
0000
0000
01f3
cafe
3016
0000
0000
01ef
cafe
3416
0000
0000
01ee
cafe
3816
0000
0000
01ea
cafe
3c16
0000
0000
01ec
cafe
2016
0000
0000
01e9
cafe
2416
0000
0000
01ee
cafe
2816
0000
0000
01ec
cafe
2c16
0000
0000
01ea
cafe
3016
0000
0000
01f0
cafe
3416
0000
0000
01ef
cafe
3816
0000
0000
01f1
cafe
3c16
0000
0000
01ea
cafe
2016
0000
0000
01e8
cafe
2416
0000
0000
01e9
cafe
2816
0000
0000
01ea
cafe
2c16
0000
0000
01e5
cafe
3016
0000
0000
01e5
cafe
3416
0000
0000
01e9
cafe
3816
0000
0000
01ea
cafe
3c16
0000
0000
01e8
cafe
2016
0000
0000
01ea
cafe
2416
0000
0000
01f0
cafe
2816
0000
0000
01f4
cafe
2c16
0000
0000
01f3
cafe
3016
0000
0000
01f0
cafe
3416
0000
0000
01ef
cafe
3816
0000
0000
01ee
cafe
3c16
0000
0000
01f8
cafe
2016
0000
0000
01f7
cafe
2416
0000
0000
01fb
cafe
2816
0000
0000
01f6
cafe
2c16
0000
0000
01f6
cafe
3016
0000
0000
01f4
cafe
3416
0000
0000
01f1
cafe
3816
0000
0000
01f4
cafe
3c16
0000
0000
01f1
cafe
2016
0000
0000
01ef
cafe
2416
0000
0000
01ea
cafe
2816
0000
0000
01e6
cafe
2c16
0000
-
0000
01ef
cafe
3016
0000
0000
01ed
cafe
3416
0000
0000
01f2
cafe
3816
0000
0000
01ed
cafe
3c16
0000
0000
01f2
cafe
2016
0000
0000
01ef
cafe
2416
0000
0000
01ec
cafe
2816
0000
0000
01eb
cafe
2c16
0000
0000
01eb
cafe
3016
0000
0000
01ed
cafe
3416
0000
0000
01eb
cafe
3816
0000
0000
01ee
cafe
3c16
0000
0000
01ef
cafe
2016
0000
0000
01ec
cafe
2416
0000
0000
01f1
cafe
2816
0000
0000
01ee
cafe
2c16
0000
0000
01ee
cafe
3016
0000
0000
01ec
cafe
3416
0000
0000
01ed
cafe
3816
0000
0000
01e6
cafe
3c16
0000
0000
01e5
cafe
2016
0000
0000
01e4
cafe
2416
0000
0000
01e0
cafe
2816
0000
0000
01e2
cafe
2c16
0000
0000
01e4
cafe
3016
0000
0000
01e7
cafe
3416
0000
0000
01e3
cafe
3816
0000
0000
01e5
cafe
3c16
0000
0000
01e6
cafe
2016
0000
0000
01e6
cafe
2416
0000
0000
01e3
cafe
2816
0000
0000
01e7
cafe
2c16
0000
0000
01e8
cafe
3016
0000
0000
01e3
cafe
3416
0000
0000
01e6
cafe
3816
0000
0000
01e9
cafe
3c16
0000
0000
01ea
cafe
2016
0000
0000
01e7
cafe
2416
0000
0000
01e9
cafe
2816
0000
0000
01ed
cafe
2c16
0000
0000
01ec
cafe
3016
0000
0000
01eb
cafe
3416
0000
0000
01eb
cafe
3816
0000
0000
01eb
cafe
3c16
0000
0000
01eb
cafe
2016
0000
0000
01ec
cafe
2416
0000
0000
01e5
cafe
2816
0000
0000
01e8
cafe
2c16
0000
0000
01e8
cafe
3016
0000
0000
01ec
cafe
3416
0000
0000
01ef
cafe
3816
0000
0000
-
01ed
cafe
3c16
0000
0000
01ec
cafe
2016
0000
0000
01ea
cafe
2416
0000
0000
01e7
cafe
2816
0000
0000
01e9
cafe
2c16
0000
0000
01e6
cafe
3016
0000
0000
01e5
cafe
3416
0000
0000
01e7
cafe
3816
0000
0000
01ea
cafe
3c16
0000
0000
01eb
cafe
2016
0000
0000
01ed
cafe
2416
0000
0000
01ee
cafe
2816
0000
0000
01ea
cafe
2c16
0000
0000
01ee
cafe
3016
0000
0000
01ee
cafe
3416
0000
0000
01f1
cafe
3816
0000
0000
01ea
cafe
3c16
0000
0000
01e8
cafe
2016
0000
0000
01e8
cafe
2416
0000
0000
01e8
cafe
2816
0000
0000
01ec
cafe
2c16
0000
0000
01ea
cafe
3016
0000
0000
01eb
cafe
3416
0000
0000
01ee
cafe
3816
0000
0000
01ee
cafe
3c16
0000
0000
01ee
cafe
2016
0000
0000
01f2
cafe
2416
0000
0000
01ea
cafe
2816
0000
0000
01eb
cafe
2c16
0000
0000
01ee
cafe
3016
0000
0000
01ec
cafe
3416
0000
0000
01ea
cafe
3816
0000
0000
01e9
cafe
3c16
0000
0000
01e9
cafe
2016
0000
0000
01e9
cafe
2416
0000
0000
01ee
cafe
2816
0000
0000
01ed
cafe
2c16
0000
0000
01e6
cafe
3016
0000
0000
01e4
cafe
3416
0000
0000
01e9
cafe
3816
0000
0000
01e1
cafe
3c16
0000
0000
01e4
cafe
2016
0000
0000
01ea
cafe
2416
0000
0000
01e8
cafe
2816
0000
0000
01e7
cafe
2c16
0000
0000
01e7
cafe
3016
0000
0000
01e8
cafe
3416
0000
0000
01e8
cafe
3816
0000
0000
01e5
cafe
3c16
0000
0000
01ea
cafe
2016
0000
0000
01ee
cafe
2416
0000
0000
01eb
-
cafe
2816
0000
0000
01ec
cafe
2c16
0000
0000
01e6
cafe
3016
0000
0000
01eb
cafe
3416
0000
0000
01ea
cafe
3816
0000
0000
01f0
cafe
3c16
0000
0000
01e9
cafe
2016
0000
0000
01ec
cafe
2416
0000
0000
01ed
cafe
2816
0000
0000
01eb
cafe
2c16
0000
0000
01e7
cafe
3016
0000
0000
01f0
cafe
3416
0000
0000
01f1
cafe
3816
0000
0000
01eb
cafe
3c16
0000
0000
01ef
cafe
2016
0000
0000
01f2
cafe
2416
0000
0000
01ed
cafe
2816
0000
0000
01e9
cafe
2c16
0000
0000
01e9
cafe
3016
0000
0000
01e9
cafe
3416
0000
0000
01eb
cafe
3816
0000
0000
01e7
cafe
3c16
0000
0000
01e7
cafe
2016
0000
0000
01eb
cafe
2416
0000
0000
01eb
cafe
2816
0000
0000
01e7
cafe
2c16
0000
0000
01e5
cafe
3016
0000
0000
01e6
cafe
3416
0000
0000
01ed
cafe
3816
0000
0000
01eb
cafe
3c16
0000
0000
01ec
cafe
2016
0000
0000
01ea
cafe
2416
0000
0000
01e9
cafe
2816
0000
0000
01ea
cafe
2c16
0000
0000
01ea
cafe
3016
0000
0000
01ea
cafe
3416
0000
0000
01e9
cafe
3816
0000
0000
01ea
cafe
3c16
0000
0000
01ea
cafe
2016
0000
0000
01e8
cafe
2416
0000
0000
01e4
cafe
2816
0000
0000
01e8
cafe
2c16
0000
0000
01e6
cafe
3016
0000
0000
01e9
cafe
3416
0000
0000
01e5
cafe
3816
0000
0000
01e6
cafe
3c16
0000
0000
01f1
cafe
2016
0000
0000
01eb
cafe
2416
0000
0000
01e9
cafe
2816
0000
0000
01e8
cafe
2c16
0000
0000
01e9
cafe
3016
0000
0000
01e9
cafe
-
3416
0000
0000
01ec
cafe
3816
0000
0000
01e9
cafe
3c16
0000
0000
01ed
cafe
2016
0000
0000
01ed
cafe
2416
0000
0000
01ea
cafe
2816
0000
0000
01e5
cafe
2c16
0000
0000
01e3
cafe
3016
0000
0000
01e5
cafe
3416
0000
0000
01ea
cafe
3816
0000
0000
01ec
cafe
3c16
0000
0000
01e7
cafe
2016
0000
0000
01ea
cafe
2416
0000
0000
01e9
cafe
2816
0000
0000
01ec
cafe
2c16
0000
0000
01eb
cafe
3016
0000
0000
01eb
cafe
3416
0000
0000
01ed
cafe
3816
0000
0000
01e7
cafe
3c16
0000
0000
01ea
cafe
2016
0000
0000
01ed
cafe
2416
0000
0000
01e7
cafe
2816
0000
0000
01eb
cafe
2c16
0000
0000
01ea
cafe
3016
0000
0000
01f1
cafe
3416
0000
0000
01eb
cafe
3816
0000
0000
01eb
cafe
3c16
0000
0000
01f1
cafe
2016
0000
0000
01ef
cafe
2416
0000
0000
01ee
cafe
2816
0000
0000
01ec
cafe
2c16
0000
0000
01ed
cafe
3016
0000
0000
01e8
cafe
3416
0000
0000
01e7
cafe
3816
0000
0000
01e9
cafe
3c16
0000
0000
01f0
cafe
2016
0000
0000
01ea
cafe
2416
0000
0000
01ec
cafe
2816
0000
0000
01ec
cafe
2c16
0000
0000
01ea
cafe
3016
0000
0000
01ea
cafe
3416
0000
0000
01e8
cafe
3816
0000
0000
01ed
cafe
3c16
0000
0000
01ee
cafe
2016
0000
0000
01ef
cafe
2416
0000
0000
01ec
cafe
2816
0000
0000
01ef
cafe
2c16
0000
0000
01ef
cafe
3016
0000
0000
01f0
cafe
3416
0000
0000
01ef
cafe
3816
0000
0000
01ee
cafe
3c16
0000
0000
01ec
cafe
2016
-
0000
0000
01f1
cafe
2416
0000
0000
01ed
cafe
2816
0000
0000
01ea
cafe
2c16
0000
0000
01ed
cafe
3016
0000
0000
01ea
cafe
3416
0000
0000
01ec
cafe
3816
0000
0000
01e9
cafe
3c16
0000
0000
01e5
cafe
2016
0000
0000
01e7
cafe
2416
0000
0000
01ef
cafe
2816
0000
0000
01ed
cafe
2c16
0000
0000
01f3
cafe
3016
0000
0000
01eb
cafe
3416
0000
0000
01ed
cafe
3816
0000
0000
01eb
cafe
3c16
0000
0000
01ee
cafe
2016
0000
0000
01eb
cafe
2416
0000
0000
01ed
cafe
2816
0000
0000
01eb
cafe
2c16
0000
0000
01ed
cafe
3016
0000
0000
01ed
cafe
3416
0000
0000
01e7
cafe
3816
0000
0000
01e8
cafe
3c16
0000
0000
01ee
cafe
2016
0000
0000
01ea
cafe
2416
0000
0000
01e8
cafe
2816
0000
0000
01e9
cafe
2c16
0000
0000
01ef
cafe
3016
0000
0000
01ee
cafe
3416
0000
0000
01ea
cafe
3816
0000
0000
01f0
cafe
3c16
0000
0000
01ea
cafe
2016
0000
0000
01ed
cafe
2416
0000
0000
01f3
cafe
2816
0000
0000
01f1
cafe
2c16
0000
0000
01ea
cafe
3016
0000
0000
01f0
cafe
3416
0000
0000
01ed
cafe
3816
0000
0000
01e8
cafe
3c16
0000
0000
01ef
cafe
2016
0000
0000
01f0
cafe
2416
0000
0000
01e7
cafe
2816
0000
0000
01ec
cafe
2c16
0000
0000
01e9
cafe
3016
0000
0000
01ee
cafe
3416
0000
0000
01e6
cafe
3816
0000
0000
01e8
cafe
3c16
0000
0000
01e5
cafe
2016
0000
0000
01ed
cafe
2416
0000
0000
01ea
cafe
2816
0000
0000
01eb
cafe
2c16
0000
-
0000
01eb
cafe
3016
0000
0000
01ea
cafe
3416
0000
0000
01f3
cafe
3816
0000
0000
01ed
cafe
3c16
0000
0000
01ed
cafe
2016
0000
0000
01f3
cafe
2416
0000
0000
01f6
cafe
2816
0000
0000
01f3
cafe
2c16
0000
0000
01f7
cafe
3016
0000
0000
01f5
cafe
3416
0000
0000
01ee
cafe
3816
0000
0000
01e7
cafe
3c16
0000
0000
01ed
cafe
2016
0000
0000
01ee
cafe
2416
0000
0000
01eb
cafe
2816
0000
0000
01f0
cafe
2c16
0000
0000
01eb
cafe
3016
0000
0000
01ea
cafe
3416
0000
0000
01ed
cafe
3816
0000
0000
01ef
cafe
3c16
0000
0000
01f0
cafe
2016
0000
0000
01ec
cafe
2416
0000
0000
01ed
cafe
2816
0000
0000
01ec
cafe
2c16
0000
0000
01eb
cafe
3016
0000
0000
01f2
cafe
3416
0000
0000
01ed
cafe
3816
0000
0000
01f1
cafe
3c16
0000
0000
01ee
cafe
2016
0000
0000
01f2
cafe
2416
0000
0000
01ec
cafe
2816
0000
0000
01ee
cafe
2c16
0000
0000
01f0
cafe
3016
0000
0000
01ec
cafe
3416
0000
0000
01ed
cafe
3816
0000
0000
01ee
cafe
3c16
0000
0000
01ef
cafe
2016
0000
0000
01ec
cafe
2416
0000
0000
01e7
cafe
2816
0000
0000
01ed
cafe
2c16
0000
0000
01e8
cafe
3016
0000
0000
01ec
cafe
3416
0000
0000
01ea
cafe
3816
0000
0000
01e5
cafe
3c16
0000
0000
01e7
cafe
2016
0000
0000
01eb
cafe
2416
0000
0000
01ed
cafe
2816
0000
0000
01eb
cafe
2c16
0000
0000
01eb
cafe
3016
0000
0000
01eb
cafe
3416
0000
0000
01e6
cafe
3816
0000
0000
-
01e8
cafe
3c16
0000
0000
01e5
cafe
2016
0000
0000
01e5
cafe
2416
0000
0000
01e2
cafe
2816
0000
0000
01e5
cafe
2c16
0000
0000
01ea
cafe
3016
0000
0000
01eb
cafe
3416
0000
0000
01eb
cafe
3816
0000
0000
01ec
cafe
3c16
0000
0000
01ed
cafe
2016
0000
0000
01ee
cafe
2416
0000
0000
01ef
cafe
2816
0000
0000
01ea
cafe
2c16
0000
0000
01ea
cafe
3016
0000
0000
01e7
cafe
3416
0000
0000
01eb
cafe
3816
0000
0000
01eb
cafe
3c16
0000
0000
01ec
cafe
2016
0000
0000
01eb
cafe
2416
0000
0000
01eb
cafe
2816
0000
0000
01ec
cafe
2c16
0000
0000
01e7
cafe
3016
0000
0000
01ea
cafe
3416
0000
0000
01eb
cafe
3816
0000
0000
01ed
cafe
3c16
0000
0000
01ec
cafe
2016
0000
0000
01f0
cafe
2416
0000
0000
01ee
cafe
2816
0000
0000
01eb
cafe
2c16
0000
0000
01ef
cafe
3016
0000
0000
01ee
cafe
3416
0000
0000
01f2
cafe
3816
0000
0000
01f1
cafe
3c16
0000
0000
01f0
cafe
2016
0000
0000
01f2
cafe
2416
0000
0000
01f0
cafe
2816
0000
0000
01ed
cafe
2c16
0000
0000
01f4
cafe
3016
0000
0000
01e8
cafe
3416
0000
0000
01ea
cafe
3816
0000
0000
01ec
cafe
3c16
0000
0000
01ed
cafe
2016
0000
0000
01e7
cafe
2416
0000
0000
01ea
cafe
2816
0000
0000
01ee
cafe
2c16
0000
0000
01ed
cafe
3016
0000
0000
01ed
cafe
3416
0000
0000
01f5
cafe
3816
0000
0000
01ed
cafe
3c16
0000
0000
01f2
cafe
2016
0000
0000
01ef
cafe
2416
0000
0000
01ed
-
cafe
2816
0000
0000
01f0
cafe
2c16
0000
0000
01ec
cafe
3016
0000
0000
01f0
cafe
3416
0000
0000
01ee
cafe
3816
0000
0000
01e6
cafe
3c16
0000
0000
01e7
cafe
2016
0000
0000
01eb
cafe
2416
0000
0000
01ea
cafe
2816
0000
0000
01ec
cafe
2c16
0000
0000
01eb
cafe
3016
0000
0000
01e9
cafe
3416
0000
0000
01e8
cafe
3816
0000
0000
01e8
cafe
3c16
0000
0000
01e8
cafe
2016
0000
0000
01e6
cafe
2416
0000
0000
01ec
cafe
2816
0000
0000
01ef
cafe
2c16
0000
0000
01f2
cafe
3016
0000
0000
01f4
cafe
3416
0000
0000
01f1
cafe
3816
0000
0000
01f1
cafe
3c16
0000
0000
01f0
cafe
2016
0000
0000
01ef
cafe
2416
0000
0000
01ee
cafe
2816
0000
0000
01f3
cafe
2c16
0000
0000
01f7
cafe
3016
0000
0000
01ef
cafe
3416
0000
0000
01ee
cafe
3816
0000
0000
01ef
cafe
3c16
0000
0000
01e9
cafe
2016
0000
0000
01e9
cafe
2416
0000
0000
01e8
cafe
2816
0000
0000
01e7
cafe
2c16
0000
0000
01e3
cafe
3016
0000
0000
01ec
cafe
3416
0000
0000
01ee
cafe
3816
0000
0000
01eb
cafe
3c16
0000
0000
01ec
cafe
2016
0000
0000
01ec
cafe
2416
0000
0000
01ea
cafe
2816
0000
0000
01ef
cafe
2c16
0000
0000
01ee
cafe
3016
0000
0000
01ee
cafe
3416
0000
0000
01e9
cafe
3816
0000
0000
01ea
cafe
3c16
0000
0000
01e4
cafe
2016
0000
0000
01e2
cafe
2416
0000
0000
01ec
cafe
2816
0000
0000
01ec
cafe
2c16
0000
0000
01e9
cafe
3016
0000
0000
01ea
cafe
-
3416
0000
0000
01ee
cafe
3816
0000
0000
01ed
cafe
3c16
0000
0000
01f0
cafe
2016
0000
0000
01f0
cafe
2416
0000
0000
01ed
cafe
2816
0000
0000
01e9
cafe
2c16
0000
0000
01ed
cafe
3016
0000
0000
01e9
cafe
3416
0000
0000
01ea
cafe
3816
0000
0000
01ec
cafe
3c16
0000
0000
01e7
cafe
2016
0000
0000
01e6
cafe
2416
0000
0000
01e8
cafe
2816
0000
0000
01ec
cafe
2c16
0000
0000
01e7
cafe
3016
0000
0000
01e7
cafe
3416
0000
0000
01e8
cafe
3816
0000
0000
01ec
cafe
3c16
0000
0000
01ef
cafe
2016
0000
0000
01ee
cafe
2416
0000
0000
01f0
cafe
2816
0000
0000
01f1
cafe
2c16
0000
0000
01ef
cafe
3016
0000
0000
01eb
cafe
3416
0000
0000
01ec
cafe
3816
0000
0000
01ee
cafe
3c16
0000
0000
01e8
cafe
2016
0000
0000
01ed
cafe
2416
0000
0000
01e9
cafe
2816
0000
0000
01e5
cafe
2c16
0000
0000
01e8
cafe
3016
0000
0000
01ec
cafe
3416
0000
0000
01e8
cafe
3816
0000
0000
01e8
cafe
3c16
0000
0000
01e6
cafe
2016
0000
0000
01ec
cafe
2416
0000
0000
01e9
cafe
2816
0000
0000
01e7
cafe
2c16
0000
0000
01e1
cafe
3016
0000
0000
01e2
cafe
3416
0000
0000
01de
cafe
3816
0000
0000
01e6
cafe
3c16
0000
0000
01e5
cafe
2016
0000
0000
01e8
cafe
2416
0000
0000
01e7
cafe
2816
0000
0000
01e4
cafe
2c16
0000
0000
01e8
cafe
3016
0000
0000
01eb
cafe
3416
0000
0000
01e9
cafe
3816
0000
0000
01ed
cafe
3c16
0000
0000
01eb
cafe
2016
-
0000
0000
01ec
cafe
2416
0000
0000
01e9
cafe
2816
0000
0000
01e4
cafe
2c16
0000
0000
01e6
cafe
3016
0000
0000
01ed
cafe
3416
0000
0000
01ed
cafe
3816
0000
0000
01ea
cafe
3c16
0000
0000
01e6
cafe
2016
0000
0000
01e6
cafe
2416
0000
0000
01ee
cafe
2816
0000
0000
01f1
cafe
2c16
0000
0000
01ed
cafe
3016
0000
0000
01ea
cafe
3416
0000
0000
01ef
cafe
3816
0000
0000
01eb
cafe
3c16
0000
0000
01e9
cafe
2016
0000
0000
01e7
cafe
2416
0000
0000
01eb
cafe
2816
0000
0000
01e5
cafe
2c16
0000
0000
01e7
cafe
3016
0000
0000
01e7
cafe
3416
0000
0000
01e2
cafe
3816
0000
0000
01e5
cafe
3c16
0000
0000
01e8
cafe
2016
0000
0000
01e7
cafe
2416
0000
0000
01e6
cafe
2816
0000
0000
01e2
cafe
2c16
0000
0000
01e3
cafe
3016
0000
0000
01e7
cafe
3416
0000
0000
01e3
cafe
3816
0000
0000
01e1
cafe
3c16
0000
0000
01e6
cafe
2016
0000
0000
01df
cafe
2416
0000
0000
01e3
cafe
2816
0000
0000
01e2
cafe
2c16
0000
0000
01e5
cafe
3016
0000
0000
01e7
cafe
3416
0000
0000
01e9
cafe
3816
0000
0000
01ea
cafe
3c16
0000
0000
01e7
cafe
2016
0000
0000
01e8
cafe
2416
0000
0000
01e8
cafe
2816
0000
0000
01e9
cafe
2c16
0000
0000
01e6
cafe
3016
0000
0000
01ea
cafe
3416
0000
0000
01e9
cafe
3816
0000
0000
01ee
cafe
3c16
0000
0000
01ee
cafe
2016
0000
0000
01ee
cafe
2416
0000
0000
01eb
cafe
2816
0000
0000
01eb
cafe
2c16
0000
-
0000
01e9
cafe
3016
0000
0000
01e7
cafe
3416
0000
0000
01e6
cafe
3816
0000
0000
01e7
cafe
3c16
0000
0000
01e6
cafe
2016
0000
0000
01e3
cafe
2416
0000
0000
01e0
cafe
2816
0000
0000
01e7
cafe
2c16
0000
0000
01e8
cafe
3016
0000
0000
01e7
cafe
3416
0000
0000
01e9
cafe
3816
0000
0000
01eb
cafe
3c16
0000
0000
01eb
cafe
2016
0000
0000
01ed
cafe
2416
0000
0000
01ec
cafe
2816
0000
0000
01ed
cafe
2c16
0000
0000
01ee
cafe
3016
0000
0000
01f2
cafe
3416
0000
0000
01f2
cafe
3816
0000
0000
01f0
cafe
3c16
0000
0000
01ec
cafe
2016
0000
0000
01ed
cafe
2416
0000
0000
01e9
cafe
2816
0000
0000
01eb
cafe
2c16
0000
0000
01eb
cafe
3016
0000
0000
01ef
cafe
3416
0000
0000
01ee
cafe
3816
0000
0000
01ef
cafe
3c16
0000
0000
01ed
cafe
2016
0000
0000
01ea
cafe
2416
0000
0000
01e9
cafe
2816
0000
0000
01e9
cafe
2c16
0000
0000
01e9
cafe
3016
0000
0000
01e7
cafe
3416
0000
0000
01e4
cafe
3816
0000
0000
01e9
cafe
3c16
0000
0000
01ec
cafe
2016
0000
0000
01e9
cafe
2416
0000
0000
01e8
cafe
2816
0000
0000
01ec
cafe
2c16
0000
0000
01ea
cafe
3016
0000
0000
01e6
cafe
3416
0000
0000
01e8
cafe
3816
0000
0000
01e5
cafe
3c16
0000
0000
01e3
cafe
2016
0000
0000
01e7
cafe
2416
0000
0000
01e5
cafe
2816
0000
0000
01e6
cafe
2c16
0000
0000
01e8
cafe
3016
0000
0000
01e9
cafe
3416
0000
0000
01e3
cafe
3816
0000
0000
-
01e1
cafe
3c16
0000
0000
01dc
cafe
2016
0000
0000
01de
cafe
2416
0000
0000
01e1
cafe
2816
0000
0000
01e4
cafe
2c16
0000
0000
01e9
cafe
3016
0000
0000
01e7
cafe
3416
0000
0000
01eb
cafe
3816
0000
0000
01f0
cafe
3c16
0000
0000
01ee
cafe
2016
0000
0000
01f0
cafe
2416
0000
0000
01f0
cafe
2816
0000
0000
01eb
cafe
2c16
0000
0000
01e9
cafe
3016
0000
0000
01e6
cafe
3416
0000
0000
01f1
cafe
3816
0000
0000
01ee
cafe
3c16
0000
0000
01f1
cafe
2016
0000
0000
01ec
cafe
2416
0000
0000
01e7
cafe
2816
0000
0000
01eb
cafe
2c16
0000
0000
01ef
cafe
3016
0000
0000
01ea
cafe
3416
0000
0000
01ee
cafe
3816
0000
0000
01ea
cafe
3c16
0000
0000
01e8
cafe
2016
0000
0000
01eb
cafe
2416
0000
0000
01eb
cafe
2816
0000
0000
01e8
cafe
2c16
0000
0000
01e5
cafe
3016
0000
0000
01ec
cafe
3416
0000
0000
01eb
cafe
3816
0000
0000
01ef
cafe
3c16
0000
0000
01f4
cafe
2016
0000
0000
01ed
cafe
2416
0000
0000
01f1
cafe
2816
0000
0000
01f0
cafe
2c16
0000
0000
01f0
cafe
3016
0000
0000
01ee
cafe
3416
0000
0000
01f4
cafe
3816
0000
0000
01f0
cafe
3c16
0000
0000
01eb
cafe
2016
0000
0000
01e9
cafe
2416
0000
0000
01ee
cafe
2816
0000
0000
01e9
cafe
2c16
0000
0000
01ee
cafe
3016
0000
0000
01ea
cafe
3416
0000
0000
01eb
cafe
3816
0000
0000
01e8
cafe
3c16
0000
0000
01ea
cafe
2016
0000
0000
01ef
cafe
2416
0000
0000
01ee
-
cafe
2816
0000
0000
01f2
cafe
2c16
0000
0000
01ed
cafe
3016
0000
0000
01ef
cafe
3416
0000
0000
01f1
cafe
3816
0000
0000
01ed
cafe
3c16
0000
0000
01ee
cafe
2016
0000
0000
01e9
cafe
2416
0000
0000
01e6
cafe
2816
0000
0000
01e8
cafe
2c16
0000
0000
01eb
cafe
3016
0000
0000
01ed
cafe
3416
0000
0000
01ef
cafe
3816
0000
0000
01ea
cafe
3c16
0000
0000
01ed
cafe
2016
0000
0000
01e6
cafe
2416
0000
0000
01e7
cafe
2816
0000
0000
01e8
cafe
2c16
0000
0000
01e5
cafe
3016
0000
0000
01e7
cafe
3416
0000
0000
01e8
cafe
3816
0000
0000
01ec
cafe
3c16
0000
0000
01eb
cafe
2016
0000
0000
01e8
cafe
2416
0000
0000
01e6
cafe
2816
0000
0000
01e7
cafe
2c16
0000
0000
01ea
cafe
3016
0000
0000
01e8
cafe
3416
0000
0000
01e7
cafe
3816
0000
0000
01ed
cafe
3c16
0000
0000
01ed
cafe
2016
0000
0000
01e8
cafe
2416
0000
0000
01e7
cafe
2816
0000
0000
01e9
cafe
2c16
0000
0000
01eb
cafe
3016
0000
0000
01eb
cafe
3416
0000
0000
01ef
cafe
3816
0000
0000
01ed
cafe
3c16
0000
0000
01f0
cafe
2016
0000
0000
01f2
cafe
2416
0000
0000
01f0
cafe
2816
0000
0000
01f2
cafe
2c16
0000
0000
01f1
cafe
3016
0000
0000
01f5
cafe
3416
0000
0000
01f3
cafe
3816
0000
0000
01f4
cafe
3c16
0000
0000
01f5
cafe
2016
0000
0000
01f1
cafe
2416
0000
0000
01f5
cafe
2816
0000
0000
01f8
cafe
2c16
0000
0000
01f8
cafe
3016
0000
0000
01ef
cafe
-
3416
0000
0000
01ec
cafe
3816
0000
0000
01ea
cafe
3c16
0000
0000
01e8
cafe
2016
0000
0000
01e9
cafe
2416
0000
0000
01ee
cafe
2816
0000
0000
01ee
cafe
2c16
0000
0000
01ed
cafe
3016
0000
0000
01ec
cafe
3416
0000
0000
01ea
cafe
3816
0000
0000
01f0
cafe
3c16
0000
0000
01eb
cafe
2016
0000
0000
01e9
cafe
2416
0000
0000
01eb
cafe
2816
0000
0000
01eb
cafe
2c16
0000
0000
01ed
cafe
3016
0000
0000
01ea
cafe
3416
0000
0000
01f1
cafe
3816
0000
0000
01ed
cafe
3c16
0000
0000
01ec
cafe
2016
0000
0000
01ec
cafe
2416
0000
0000
01ec
cafe
2816
0000
0000
01e8
cafe
2c16
0000
0000
01f0
cafe
3016
0000
0000
01ef
cafe
3416
0000
0000
01ef
cafe
3816
0000
0000
01f0
cafe
3c16
0000
0000
01ec
cafe
2016
0000
0000
01eb
cafe
2416
0000
0000
01ed
cafe
2816
0000
0000
01e5
cafe
2c16
0000
0000
01eb
cafe
3016
0000
0000
01e9
cafe
3416
0000
0000
01e8
cafe
3816
0000
0000
01e5
cafe
3c16
0000
0000
01e6
cafe
2016
0000
0000
01e8
cafe
2416
0000
0000
01e9
cafe
2816
0000
0000
01ed
cafe
2c16
0000
0000
01ee
cafe
3016
0000
0000
01ec
cafe
3416
0000
0000
01f0
cafe
3816
0000
0000
01f3
cafe
3c16
0000
0000
01f0
cafe
2016
0000
0000
01f2
cafe
2416
0000
0000
01f3
cafe
2816
0000
0000
01f0
cafe
2c16
0000
0000
01f1
cafe
3016
0000
0000
01f2
cafe
3416
0000
0000
01ed
cafe
3816
0000
0000
01ed
cafe
3c16
0000
0000
01ef
cafe
2016
-
0000
0000
01ed
cafe
2416
0000
0000
01ee
cafe
2816
0000
0000
01ee
cafe
2c16
0000
0000
01e5
cafe
3016
0000
0000
01e1
cafe
3416
0000
0000
01e3
cafe
3816
0000
0000
01e7
cafe
3c16
0000
0000
01e9
cafe
2016
0000
0000
01e9
cafe
2416
0000
0000
01e8
cafe
2816
0000
0000
01ef
cafe
2c16
0000
0000
01e9
cafe
3016
0000
0000
01ec
cafe
3416
0000
0000
01ee
cafe
3816
0000
0000
01e8
cafe
3c16
0000
0000
01e9
cafe
2016
0000
0000
01eb
cafe
2416
0000
0000
01f0
cafe
2816
0000
0000
01f0
cafe
2c16
0000
0000
01ec
cafe
3016
0000
0000
01e7
cafe
3416
0000
0000
01eb
cafe
3816
0000
0000
01ed
cafe
3c16
0000
0000
01ea
cafe
2016
0000
0000
01ec
cafe
2416
0000
0000
01eb
cafe
2816
0000
0000
01ea
cafe
2c16
0000
0000
01ec
cafe
3016
0000
0000
01eb
cafe
3416
0000
0000
01eb
cafe
3816
0000
0000
01ea
cafe
3c16
0000
0000
01ea
cafe
2016
0000
0000
01ea
cafe
2416
0000
0000
01e8
cafe
2816
0000
0000
01ea
cafe
2c16
0000
0000
01e5
cafe
3016
0000
0000
01eb
cafe
3416
0000
0000
01ea
cafe
3816
0000
0000
01e6
cafe
3c16
0000
0000
01e4
cafe
2016
0000
0000
01e6
cafe
2416
0000
0000
01ea
cafe
2816
0000
0000
01ea
cafe
2c16
0000
0000
01e6
cafe
3016
0000
0000
01e5
cafe
3416
0000
0000
01e6
cafe
3816
0000
0000
01e7
cafe
3c16
0000
0000
01e5
cafe
2016
0000
0000
01e6
cafe
2416
0000
0000
01e7
cafe
2816
0000
0000
01e4
cafe
2c16
0000
-
0000
01e1
cafe
3016
0000
0000
01e4
cafe
3416
0000
0000
01e6
cafe
3816
0000
0000
01e8
cafe
3c16
0000
0000
01e4
cafe
2016
0000
0000
01e4
cafe
2416
0000
0000
01e4
cafe
2816
0000
0000
01ea
cafe
2c16
0000
0000
01eb
cafe
3016
0000
0000
01eb
cafe
3416
0000
0000
01ed
cafe
3816
0000
0000
01ec
cafe
3c16
0000
0000
01ea
cafe
2016
0000
0000
01ea
cafe
2416
0000
0000
01e2
cafe
2816
0000
0000
01e2
cafe
2c16
0000
0000
01e6
cafe
3016
0000
0000
01e0
cafe
3416
0000
0000
01e5
cafe
3816
0000
0000
01e8
cafe
3c16
0000
0000
01e3
cafe
2016
0000
0000
01e5
cafe
2416
0000
0000
01e4
cafe
2816
0000
0000
01e7
cafe
2c16
0000
0000
01e9
cafe
3016
0000
0000
01e8
cafe
3416
0000
0000
01ea
cafe
3816
0000
0000
01eb
cafe
3c16
0000
0000
01ec
cafe
2016
0000
0000
01e9
cafe
2416
0000
0000
01eb
cafe
2816
0000
0000
01e9
cafe
2c16
0000
0000
01ef
cafe
3016
0000
0000
01ef
cafe
3416
0000
0000
01f1
cafe
3816
0000
0000
01ec
cafe
3c16
0000
0000
01ed
cafe
2016
0000
0000
01f1
cafe
2416
0000
0000
01ec
cafe
2816
0000
0000
01eb
cafe
2c16
0000
0000
01e9
cafe
3016
0000
0000
01f0
cafe
3416
0000
0000
01f3
cafe
3816
0000
0000
01f0
cafe
3c16
0000
0000
01ed
cafe
2016
0000
0000
01ed
cafe
2416
0000
0000
01f0
cafe
2816
0000
0000
01ee
cafe
2c16
0000
0000
01ed
cafe
3016
0000
0000
01ee
cafe
3416
0000
0000
01f2
cafe
3816
0000
0000
-
01ef
cafe
3c16
0000
0000
01ec
cafe
2016
0000
0000
01ef
cafe
2416
0000
0000
01ec
cafe
2816
0000
0000
01f0
cafe
2c16
0000
0000
01f0
cafe
3016
0000
0000
01f1
cafe
3416
0000
0000
01f4
cafe
3816
0000
0000
01f4
cafe
3c16
0000
0000
01f4
cafe
2016
0000
0000
01f5
cafe
2416
0000
0000
01f2
cafe
2816
0000
0000
01f1
cafe
2c16
0000
0000
01f0
cafe
3016
0000
0000
01f0
cafe
3416
0000
0000
01f1
cafe
3816
0000
0000
01ef
cafe
3c16
0000
0000
01e9
cafe
2016
0000
0000
01ea
cafe
2416
0000
0000
01ec
cafe
2816
0000
0000
01e9
cafe
2c16
0000
0000
01ec
cafe
3016
0000
0000
01ed
cafe
3416
0000
0000
01e9
cafe
3816
0000
0000
01e7
cafe
3c16
0000
0000
01e7
cafe
2016
0000
0000
01e7
cafe
2416
0000
0000
01eb
cafe
2816
0000
0000
01eb
cafe
2c16
0000
0000
01eb
cafe
3016
0000
0000
01e9
cafe
3416
0000
0000
01e7
cafe
3816
0000
0000
01e9
cafe
3c16
0000
0000
01ea
cafe
2016
0000
0000
01ee
cafe
2416
0000
0000
01e8
cafe
2816
0000
0000
01e3
cafe
2c16
0000
0000
01e6
cafe
3016
0000
0000
01eb
cafe
3416
0000
0000
01e6
cafe
3816
0000
0000
01ea
cafe
3c16
0000
0000
01eb
cafe
2016
0000
0000
01f0
cafe
2416
0000
0000
01eb
cafe
2816
0000
0000
01eb
cafe
2c16
0000
0000
01e5
cafe
3016
0000
0000
01e7
cafe
3416
0000
0000
01e9
cafe
3816
0000
0000
01ea
cafe
3c16
0000
0000
01e7
cafe
2016
0000
0000
01e7
cafe
2416
0000
0000
01e4
-
cafe
2816
0000
0000
01e5
cafe
2c16
0000
0000
01e6
cafe
3016
0000
0000
01e6
cafe
3416
0000
0000
01e5
cafe
3816
0000
0000
01e1
cafe
3c16
0000
0000
01de
cafe
2016
0000
0000
01de
cafe
2416
0000
0000
01e0
cafe
2816
0000
0000
01e2
cafe
2c16
0000
0000
01e4
cafe
3016
0000
0000
01ea
cafe
3416
0000
0000
01ea
cafe
3816
0000
0000
01ec
cafe
3c16
0000
0000
01e5
cafe
2016
0000
0000
01e4
cafe
2416
0000
0000
01eb
cafe
2816
0000
0000
01e6
cafe
2c16
0000
0000
01e7
cafe
3016
0000
0000
01e7
cafe
3416
0000
0000
01e6
cafe
3816
0000
0000
01ea
cafe
3c16
0000
0000
01ea
cafe
2016
0000
0000
01e8
cafe
2416
0000
0000
01eb
cafe
2816
0000
0000
01e9
cafe
2c16
0000
0000
01e9
cafe
3016
0000
0000
01e9
cafe
3416
0000
0000
01eb
cafe
3816
0000
0000
01eb
cafe
3c16
0000
0000
01e8
cafe
2016
0000
0000
01eb
cafe
2416
0000
0000
01ea
cafe
2816
0000
0000
01e6
cafe
2c16
0000
0000
01e7
cafe
3016
0000
0000
01e7
cafe
3416
0000
0000
01e7
cafe
3816
0000
0000
01e4
cafe
3c16
0000
0000
01de
cafe
2016
0000
0000
01e1
cafe
2416
0000
0000
01e3
cafe
2816
0000
0000
01e1
cafe
2c16
0000
0000
01e1
cafe
3016
0000
0000
01e5
cafe
3416
0000
0000
01e7
cafe
3816
0000
0000
01e7
cafe
3c16
0000
0000
01e5
cafe
2016
0000
0000
01e1
cafe
2416
0000
0000
01e4
cafe
2816
0000
0000
01ea
cafe
2c16
0000
0000
01ea
cafe
3016
0000
0000
01ec
cafe
-
3416
0000
0000
01eb
cafe
3816
0000
0000
01ea
cafe
3c16
0000
0000
01eb
cafe
2016
0000
0000
01e7
cafe
2416
0000
0000
01eb
cafe
2816
0000
0000
01ec
cafe
2c16
0000
0000
01ea
cafe
3016
0000
0000
01e8
cafe
3416
0000
0000
01e5
cafe
3816
0000
0000
01e8
cafe
3c16
0000
0000
01e9
cafe
2016
0000
0000
01ec
cafe
2416
0000
0000
01eb
cafe
2816
0000
0000
01ec
cafe
2c16
0000
0000
01f1
cafe
3016
0000
0000
01f3
cafe
3416
0000
0000
01ef
cafe
3816
0000
0000
01f0
cafe
3c16
0000
0000
01ea
cafe
2016
0000
0000
01e7
cafe
2416
0000
0000
01ec
cafe
2816
0000
0000
01e9
cafe
2c16
0000
0000
01ee
cafe
3016
0000
0000
01f3
cafe
3416
0000
0000
01ec
cafe
3816
0000
0000
01eb
cafe
3c16
0000
0000
01ef
cafe
2016
0000
0000
01ef
cafe
2416
0000
0000
01f2
cafe
2816
0000
0000
01f2
cafe
2c16
0000
0000
01f3
cafe
3016
0000
0000
01f0
cafe
3416
0000
0000
01ed
cafe
3816
0000
0000
01f0
cafe
3c16
0000
0000
01ec
cafe
2016
0000
0000
01ee
cafe
2416
0000
0000
01ea
cafe
2816
0000
0000
01e9
cafe
2c16
0000
0000
01ea
cafe
3016
0000
0000
01f2
cafe
3416
0000
0000
01ee
cafe
3816
0000
0000
01ee
cafe
3c16
0000
0000
01ec
cafe
2016
0000
0000
01ea
cafe
2416
0000
0000
01f2
cafe
2816
0000
0000
01eb
cafe
2c16
0000
0000
01f1
cafe
3016
0000
0000
01f2
cafe
3416
0000
0000
01f0
cafe
3816
0000
0000
01ef
cafe
3c16
0000
0000
01eb
cafe
2016
-
0000
0000
01ea
cafe
2416
0000
0000
01e7
cafe
2816
0000
0000
01ee
cafe
2c16
0000
0000
01e8
cafe
3016
0000
0000
01ec
cafe
3416
0000
0000
01eb
cafe
3816
0000
0000
01ec
cafe
3c16
0000
0000
01ea
cafe
2016
0000
0000
01ee
cafe
2416
0000
0000
01ea
cafe
2816
0000
0000
01ed
cafe
2c16
0000
0000
01ea
cafe
3016
0000
0000
01f1
cafe
3416
0000
0000
01ef
cafe
3816
0000
0000
01f2
cafe
3c16
0000
0000
01f1
cafe
2016
0000
0000
01ea
cafe
2416
0000
0000
01ee
cafe
2816
0000
0000
01ed
cafe
2c16
0000
0000
01eb
cafe
3016
0000
0000
01ef
cafe
3416
0000
0000
01ea
cafe
3816
0000
0000
01e8
cafe
3c16
0000
0000
01ee
cafe
2016
0000
0000
01eb
cafe
2416
0000
0000
01ea
cafe
2816
0000
0000
01eb
cafe
2c16
0000
0000
01ea
cafe
3016
0000
0000
01ea
cafe
3416
0000
0000
01ed
cafe
3816
0000
0000
01e8
cafe
3c16
0000
0000
01eb
cafe
2016
0000
0000
01ef
cafe
2416
0000
0000
01ee
cafe
2816
0000
0000
01ed
cafe
2c16
0000
0000
01ed
cafe
3016
0000
0000
01ef
cafe
3416
0000
0000
01e8
cafe
3816
0000
0000
01e9
cafe
3c16
0000
0000
01ed
cafe
2016
0000
0000
01e9
cafe
2416
0000
0000
01e5
cafe
2816
0000
0000
01e6
cafe
2c16
0000
0000
01e8
cafe
3016
0000
0000
01e6
cafe
3416
0000
0000
01e8
cafe
3816
0000
0000
01ea
cafe
3c16
0000
0000
01e7
cafe
2016
0000
0000
01ea
cafe
2416
0000
0000
01e9
cafe
2816
0000
0000
01ea
cafe
2c16
0000
-
0000
01ef
cafe
3016
0000
0000
01e9
cafe
3416
0000
0000
01ec
cafe
3816
0000
0000
01ed
cafe
3c16
0000
0000
01ea
cafe
2016
0000
0000
01eb
cafe
2416
0000
0000
01f0
cafe
2816
0000
0000
01ef
cafe
2c16
0000
0000
01ef
cafe
3016
0000
0000
01eb
cafe
3416
0000
0000
01ef
cafe
3816
0000
0000
01ee
cafe
3c16
0000
0000
01f0
cafe
2016
0000
0000
01e9
cafe
2416
0000
0000
01ee
cafe
2816
0000
0000
01ec
cafe
2c16
0000
0000
01ec
cafe
3016
0000
0000
01ed
cafe
3416
0000
0000
01e9
cafe
3816
0000
0000
01e6
cafe
3c16
0000
0000
01ea
cafe
2016
0000
0000
01e8
cafe
2416
0000
0000
01e8
cafe
2816
0000
0000
01ea
cafe
2c16
0000
0000
01ed
cafe
3016
0000
0000
01ea
cafe
3416
0000
0000
01eb
cafe
3816
0000
0000
01ec
cafe
3c16
0000
0000
01f2
cafe
2016
0000
0000
01f4
cafe
2416
0000
0000
01f5
cafe
2816
0000
0000
01ef
cafe
2c16
0000
0000
01ee
cafe
3016
0000
0000
01eb
cafe
3416
0000
0000
01ea
cafe
3816
0000
0000
01e8
cafe
3c16
0000
0000
01e8
cafe
2016
0000
0000
01ea
cafe
2416
0000
0000
01e7
cafe
2816
0000
0000
01e9
cafe
2c16
0000
0000
01ea
cafe
3016
0000
0000
01ec
cafe
3416
0000
0000
01ef
cafe
3816
0000
0000
01ef
cafe
3c16
0000
0000
01ec
cafe
2016
0000
0000
01e7
cafe
2416
0000
0000
01f1
cafe
2816
0000
0000
01f0
cafe
2c16
0000
0000
01ee
cafe
3016
0000
0000
01ef
cafe
3416
0000
0000
01f0
cafe
3816
0000
0000
-
01ea
cafe
3c16
0000
0000
01ea
cafe
2016
0000
0000
01e6
cafe
2416
0000
0000
01e9
cafe
2816
0000
0000
01ed
cafe
2c16
0000
0000
01e7
cafe
3016
0000
0000
01ee
cafe
3416
0000
0000
01ee
cafe
3816
0000
0000
01f0
cafe
3c16
0000
0000
01e9
cafe
2016
0000
0000
01e7
cafe
2416
0000
0000
01e7
cafe
2816
0000
0000
01e4
cafe
2c16
0000
0000
01e9
cafe
3016
0000
0000
01e6
cafe
3416
0000
0000
01e7
cafe
3816
0000
0000
01e8
cafe
3c16
0000
0000
01e6
cafe
2016
0000
0000
01e5
cafe
2416
0000
0000
01e6
cafe
2816
0000
0000
01ed
cafe
2c16
0000
0000
01ea
cafe
3016
0000
0000
01e6
cafe
3416
0000
0000
01e7
cafe
3816
0000
0000
01e7
cafe
3c16
0000
0000
01ed
cafe
2016
0000
0000
01ed
cafe
2416
0000
0000
01f0
cafe
2816
0000
0000
01ed
cafe
2c16
0000
0000
01f1
cafe
3016
0000
0000
01ee
cafe
3416
0000
0000
01ee
cafe
3816
0000
0000
01ed
cafe
3c16
0000
0000
01ec
cafe
2016
0000
0000
01ec
cafe
2416
0000
0000
01eb
cafe
2816
0000
0000
01ea
cafe
2c16
0000
0000
01ec
cafe
3016
0000
0000
01e8
cafe
3416
0000
0000
01ea
cafe
3816
0000
0000
01e7
cafe
3c16
0000
0000
01ec
cafe
2016
0000
0000
01ef
cafe
2416
0000
0000
01ed
cafe
2816
0000
0000
01ea
cafe
2c16
0000
0000
01ec
cafe
3016
0000
0000
01ee
cafe
3416
0000
0000
01f0
cafe
3816
0000
0000
01ee
cafe
3c16
0000
0000
01ea
cafe
2016
0000
0000
01f0
cafe
2416
0000
0000
01f1
-
