280f
0000
0000
019b
cafe
2c1f
0000
0000
012f
cafe
3007
0000
0000
022b
cafe
3417
0000
0000
01d8
cafe
3808
0000
0000
0209
cafe
3c18
0000
0000
01bd
cafe
2000
0000
0000
0158
cafe
2410
0000
0000
0170
cafe
2809
0000
0000
01c7
cafe
2c19
0000
0000
0259
cafe
3001
0000
0000
023f
cafe
3411
0000
0000
0133
cafe
380a
0000
0000
0224
cafe
3c1a
0000
0000
00f1
cafe
2002
0000
0000
01bb
cafe
2412
0000
0000
01ab
cafe
280b
0000
0000
01ff
cafe
2c1b
0000
0000
01cf
cafe
3003
0000
0000
0205
cafe
3413
0000
0000
01c1
cafe
380c
0000
0000
01b4
cafe
3c1c
0000
0000
01ae
cafe
2004
0000
0000
01e8
cafe
2414
0000
0000
0199
cafe
280d
0000
0000
017e
cafe
2c1d
0000
0000
01d1
cafe
3005
0000
0000
01bc
cafe
3415
0000
0000
01ba
cafe
380e
0000
0000
019f
cafe
3c1e
0000
0000
015a
cafe
2006
0000
0000
01e8
cafe
2416
0000
0000
016f
cafe
280f
0000
0000
019d
cafe
2c1f
0000
0000
0130
cafe
3007
0000
0000
022d
cafe
3417
0000
0000
01d4
cafe
3808
0000
0000
020a
cafe
3c18
0000
0000
01bc
cafe
2000
0000
0000
0159
cafe
2410
0000
0000
0168
cafe
2809
0000
0000
01c7
cafe
2c19
0000
0000
025a
cafe
3001
0000
0000
023d
cafe
3411
0000
0000
0138
cafe
380a
0000
0000
0225
cafe
3c1a
0000
0000
00f0
cafe
2002
0000
0000
01bc
cafe
2412
0000
0000
01b1
cafe
280b
0000
0000
0200
cafe
2c1b
0000
0000
01d5
cafe
3003
0000
0000
0203
cafe
3413
-
0000
0000
01b9
cafe
380c
0000
0000
01b2
cafe
3c1c
0000
0000
01a9
cafe
2004
0000
0000
01e8
cafe
2414
0000
0000
0197
cafe
280d
0000
0000
0178
cafe
2c1d
0000
0000
01d6
cafe
3005
0000
0000
01bb
cafe
3415
0000
0000
01bb
cafe
380e
0000
0000
019a
cafe
3c1e
0000
0000
015b
cafe
2006
0000
0000
01e6
cafe
2416
0000
0000
0171
cafe
280f
0000
0000
01a1
cafe
2c1f
0000
0000
0134
cafe
3007
0000
0000
022f
cafe
3417
0000
0000
01d1
cafe
3808
0000
0000
020f
cafe
3c18
0000
0000
01b8
cafe
2000
0000
0000
015f
cafe
2410
0000
0000
0165
cafe
2809
0000
0000
01c2
cafe
2c19
0000
0000
025d
cafe
3001
0000
0000
0241
cafe
3411
0000
0000
013d
cafe
380a
0000
0000
0226
cafe
3c1a
0000
0000
00e9
cafe
2002
0000
0000
01be
cafe
2412
0000
0000
01b3
cafe
280b
0000
0000
0200
cafe
2c1b
0000
0000
01d4
cafe
3003
0000
0000
01fe
cafe
3413
0000
0000
01bb
cafe
380c
0000
0000
01ad
cafe
3c1c
0000
0000
01aa
cafe
2004
0000
0000
01e3
cafe
2414
0000
0000
0196
cafe
280d
0000
0000
017b
cafe
2c1d
0000
0000
01d7
cafe
3005
0000
0000
01bc
cafe
3415
0000
0000
01bc
cafe
380e
0000
0000
0196
cafe
3c1e
0000
0000
015a
cafe
2006
0000
0000
01e5
cafe
2416
0000
0000
016b
cafe
280f
0000
0000
01a0
cafe
2c1f
0000
0000
0135
cafe
3007
0000
0000
0229
cafe
3417
0000
0000
01ce
cafe
3808
0000
0000
020d
cafe
3c18
0000
0000
01b7
cafe
2000
0000
-
0000
015d
cafe
2410
0000
0000
0168
cafe
2809
0000
0000
01c1
cafe
2c19
0000
0000
0260
cafe
3001
0000
0000
023d
cafe
3411
0000
0000
013f
cafe
380a
0000
0000
0223
cafe
3c1a
0000
0000
00eb
cafe
2002
0000
0000
01bc
cafe
2412
0000
0000
01b1
cafe
280b
0000
0000
01ff
cafe
2c1b
0000
0000
01d4
cafe
3003
0000
0000
01fc
cafe
3413
0000
0000
01ba
cafe
380c
0000
0000
01af
cafe
3c1c
0000
0000
01a8
cafe
2004
0000
0000
01e7
cafe
2414
0000
0000
0191
cafe
280d
0000
0000
017f
cafe
2c1d
0000
0000
01d6
cafe
3005
0000
0000
01bc
cafe
3415
0000
0000
01c7
cafe
380e
0000
0000
0191
cafe
3c1e
0000
0000
015a
cafe
2006
0000
0000
01e7
cafe
2416
0000
0000
0168
cafe
280f
0000
0000
019e
cafe
2c1f
0000
0000
0136
cafe
3007
0000
0000
022b
cafe
3417
0000
0000
01d0
cafe
3808
0000
0000
020d
cafe
3c18
0000
0000
01b5
cafe
2000
0000
0000
0160
cafe
2410
0000
0000
0163
cafe
2809
0000
0000
01c2
cafe
2c19
0000
0000
025b
cafe
3001
0000
0000
023a
cafe
3411
0000
0000
0139
cafe
380a
0000
0000
0225
cafe
3c1a
0000
0000
00ee
cafe
2002
0000
0000
01ba
cafe
2412
0000
0000
01ae
cafe
280b
0000
0000
01f8
cafe
2c1b
0000
0000
01d9
cafe
3003
0000
0000
01fc
cafe
3413
0000
0000
01bb
cafe
380c
0000
0000
01b2
cafe
3c1c
0000
0000
01a6
cafe
2004
0000
0000
01eb
cafe
2414
0000
0000
0193
cafe
280d
0000
0000
0186
cafe
2c1d
0000
0000
-
01d7
cafe
3005
0000
0000
01bd
cafe
3415
0000
0000
01c7
cafe
380e
0000
0000
0192
cafe
3c1e
0000
0000
015c
cafe
2006
0000
0000
01e7
cafe
2416
0000
0000
016a
cafe
280f
0000
0000
019e
cafe
2c1f
0000
0000
0135
cafe
3007
0000
0000
0234
cafe
3417
0000
0000
01d1
cafe
3808
0000
0000
0213
cafe
3c18
0000
0000
01b4
cafe
2000
0000
0000
0160
cafe
2410
0000
0000
0162
cafe
2809
0000
0000
01be
cafe
2c19
0000
0000
025a
cafe
3001
0000
0000
0238
cafe
3411
0000
0000
0133
cafe
380a
0000
0000
0223
cafe
3c1a
0000
0000
00ef
cafe
2002
0000
0000
01b9
cafe
2412
0000
0000
01b0
cafe
280b
0000
0000
01f9
cafe
2c1b
0000
0000
01dc
cafe
3003
0000
0000
01fd
cafe
3413
0000
0000
01b8
cafe
380c
0000
0000
01b2
cafe
3c1c
0000
0000
01a4
cafe
2004
0000
0000
01e9
cafe
2414
0000
0000
0195
cafe
280d
0000
0000
018a
cafe
2c1d
0000
0000
01d7
cafe
3005
0000
0000
01c1
cafe
3415
0000
0000
01cc
cafe
380e
0000
0000
0193
cafe
3c1e
0000
0000
015e
cafe
2006
0000
0000
01e7
cafe
2416
0000
0000
0167
cafe
280f
0000
0000
0199
cafe
2c1f
0000
0000
0135
cafe
3007
0000
0000
0232
cafe
3417
0000
0000
01d0
cafe
3808
0000
0000
0216
cafe
3c18
0000
0000
01b1
cafe
2000
0000
0000
015f
cafe
2410
0000
0000
0169
cafe
2809
0000
0000
01b8
cafe
2c19
0000
0000
025c
cafe
3001
0000
0000
023a
cafe
3411
0000
0000
0134
cafe
380a
0000
0000
0226
-
cafe
3c1a
0000
0000
00e9
cafe
2002
0000
0000
01b5
cafe
2412
0000
0000
01ad
cafe
280b
0000
0000
01f1
cafe
2c1b
0000
0000
01db
cafe
3003
0000
0000
01ff
cafe
3413
0000
0000
01b4
cafe
380c
0000
0000
01b0
cafe
3c1c
0000
0000
01a8
cafe
2004
0000
0000
01e4
cafe
2414
0000
0000
0198
cafe
280d
0000
0000
018e
cafe
2c1d
0000
0000
01d0
cafe
3005
0000
0000
01bb
cafe
3415
0000
0000
01ce
cafe
380e
0000
0000
0193
cafe
3c1e
0000
0000
015e
cafe
2006
0000
0000
01ea
cafe
2416
0000
0000
0164
cafe
280f
0000
0000
0198
cafe
2c1f
0000
0000
0136
cafe
3007
0000
0000
0235
cafe
3417
0000
0000
01d0
cafe
3808
0000
0000
021d
cafe
3c18
0000
0000
01b1
cafe
2000
0000
0000
0160
cafe
2410
0000
0000
0165
cafe
2809
0000
0000
01b7
cafe
2c19
0000
0000
025f
cafe
3001
0000
0000
023d
cafe
3411
0000
0000
0138
cafe
380a
0000
0000
0221
cafe
3c1a
0000
0000
00e8
cafe
2002
0000
0000
01b9
cafe
2412
0000
0000
01aa
cafe
280b
0000
0000
01eb
cafe
2c1b
0000
0000
01db
cafe
3003
0000
0000
01fd
cafe
3413
0000
0000
01bd
cafe
380c
0000
0000
01ab
cafe
3c1c
0000
0000
01ae
cafe
2004
0000
0000
01e6
cafe
2414
0000
0000
0191
cafe
280d
0000
0000
018b
cafe
2c1d
0000
0000
01d1
cafe
3005
0000
0000
01b9
cafe
3415
0000
0000
01cb
cafe
380e
0000
0000
018e
cafe
3c1e
0000
0000
0160
cafe
2006
0000
0000
01ea
cafe
2416
0000
0000
0161
cafe
-
280f
0000
0000
0199
cafe
2c1f
0000
0000
0132
cafe
3007
0000
0000
0235
cafe
3417
0000
0000
01cf
cafe
3808
0000
0000
021e
cafe
3c18
0000
0000
01af
cafe
2000
0000
0000
0162
cafe
2410
0000
0000
016c
cafe
2809
0000
0000
01ba
cafe
2c19
0000
0000
025d
cafe
3001
0000
0000
0242
cafe
3411
0000
0000
0138
cafe
380a
0000
0000
0225
cafe
3c1a
0000
0000
00e6
cafe
2002
0000
0000
01ba
cafe
2412
0000
0000
01ab
cafe
280b
0000
0000
01e7
cafe
2c1b
0000
0000
01de
cafe
3003
0000
0000
01fb
cafe
3413
0000
0000
01bc
cafe
380c
0000
0000
01aa
cafe
3c1c
0000
0000
01ab
cafe
2004
0000
0000
01e5
cafe
2414
0000
0000
0197
cafe
280d
0000
0000
0192
cafe
2c1d
0000
0000
01d5
cafe
3005
0000
0000
01bb
cafe
3415
0000
0000
01c6
cafe
380e
0000
0000
018d
cafe
3c1e
0000
0000
0164
cafe
2006
0000
0000
01df
cafe
2416
0000
0000
015f
cafe
280f
0000
0000
019a
cafe
2c1f
0000
0000
0135
cafe
3007
0000
0000
0236
cafe
3417
0000
0000
01da
cafe
3808
0000
0000
0224
cafe
3c18
0000
0000
01a7
cafe
2000
0000
0000
0160
cafe
2410
0000
0000
016a
cafe
2809
0000
0000
01bd
cafe
2c19
0000
0000
025f
cafe
3001
0000
0000
023d
cafe
3411
0000
0000
013f
cafe
380a
0000
0000
0224
cafe
3c1a
0000
0000
00e8
cafe
2002
0000
0000
01b2
cafe
2412
0000
0000
01a7
cafe
280b
0000
0000
01e5
cafe
2c1b
0000
0000
01e0
cafe
3003
0000
0000
01fc
cafe
3413
-
0000
0000
01be
cafe
380c
0000
0000
01a7
cafe
3c1c
0000
0000
01b3
cafe
2004
0000
0000
01e8
cafe
2414
0000
0000
0194
cafe
280d
0000
0000
0191
cafe
2c1d
0000
0000
01d0
cafe
3005
0000
0000
01b8
cafe
3415
0000
0000
01c3
cafe
380e
0000
0000
018d
cafe
3c1e
0000
0000
0163
cafe
2006
0000
0000
01df
cafe
2416
0000
0000
015e
cafe
280f
0000
0000
019f
cafe
2c1f
0000
0000
0137
cafe
3007
0000
0000
0236
cafe
3417
0000
0000
01d8
cafe
3808
0000
0000
0220
cafe
3c18
0000
0000
01a2
cafe
2000
0000
0000
0162
cafe
2410
0000
0000
016c
cafe
2809
0000
0000
01c1
cafe
2c19
0000
0000
025c
cafe
3001
0000
0000
0243
cafe
3411
0000
0000
013f
cafe
380a
0000
0000
021f
cafe
3c1a
0000
0000
00e9
cafe
2002
0000
0000
01b6
cafe
2412
0000
0000
01aa
cafe
280b
0000
0000
01eb
cafe
2c1b
0000
0000
01e6
cafe
3003
0000
0000
01f7
cafe
3413
0000
0000
01bc
cafe
380c
0000
0000
01aa
cafe
3c1c
0000
0000
01ab
cafe
2004
0000
0000
01e8
cafe
2414
0000
0000
0193
cafe
280d
0000
0000
018f
cafe
2c1d
0000
0000
01d6
cafe
3005
0000
0000
01b5
cafe
3415
0000
0000
01c1
cafe
380e
0000
0000
018d
cafe
3c1e
0000
0000
0162
cafe
2006
0000
0000
01e7
cafe
2416
0000
0000
015c
cafe
280f
0000
0000
019f
cafe
2c1f
0000
0000
0136
cafe
3007
0000
0000
0230
cafe
3417
0000
0000
01db
cafe
3808
0000
0000
0215
cafe
3c18
0000
0000
019e
cafe
2000
0000
-
0000
015f
cafe
2410
0000
0000
016d
cafe
2809
0000
0000
01c0
cafe
2c19
0000
0000
025f
cafe
3001
0000
0000
0245
cafe
3411
0000
0000
0139
cafe
380a
0000
0000
021e
cafe
3c1a
0000
0000
00e5
cafe
2002
0000
0000
01b7
cafe
2412
0000
0000
01ad
cafe
280b
0000
0000
01ee
cafe
2c1b
0000
0000
01ea
cafe
3003
0000
0000
01f2
cafe
3413
0000
0000
01bb
cafe
380c
0000
0000
01ac
cafe
3c1c
0000
0000
01ab
cafe
2004
0000
0000
01f0
cafe
2414
0000
0000
0192
cafe
280d
0000
0000
018c
cafe
2c1d
0000
0000
01d9
cafe
3005
0000
0000
01b7
cafe
3415
0000
0000
01bc
cafe
380e
0000
0000
018c
cafe
3c1e
0000
0000
015d
cafe
2006
0000
0000
01e9
cafe
2416
0000
0000
015c
cafe
280f
0000
0000
019b
cafe
2c1f
0000
0000
0137
cafe
3007
0000
0000
022f
cafe
3417
0000
0000
01d6
cafe
3808
0000
0000
0212
cafe
3c18
0000
0000
019f
cafe
2000
0000
0000
015c
cafe
2410
0000
0000
016f
cafe
2809
0000
0000
01c2
cafe
2c19
0000
0000
0260
cafe
3001
0000
0000
0247
cafe
3411
0000
0000
013a
cafe
380a
0000
0000
021c
cafe
3c1a
0000
0000
00e6
cafe
2002
0000
0000
01bd
cafe
2412
0000
0000
01aa
cafe
280b
0000
0000
01f3
cafe
2c1b
0000
0000
01e9
cafe
3003
0000
0000
01f7
cafe
3413
0000
0000
01b4
cafe
380c
0000
0000
01b1
cafe
3c1c
0000
0000
01a8
cafe
2004
0000
0000
01f0
cafe
2414
0000
0000
0191
cafe
280d
0000
0000
0188
cafe
2c1d
0000
0000
-
01d7
cafe
3005
0000
0000
01be
cafe
3415
0000
0000
01c4
cafe
380e
0000
0000
0189
cafe
3c1e
0000
0000
015b
cafe
2006
0000
0000
01ec
cafe
2416
0000
0000
015c
cafe
280f
0000
0000
019b
cafe
2c1f
0000
0000
0138
cafe
3007
0000
0000
0231
cafe
3417
0000
0000
01db
cafe
3808
0000
0000
0212
cafe
3c18
0000
0000
01a1
cafe
2000
0000
0000
0159
cafe
2410
0000
0000
016e
cafe
2809
0000
0000
01c0
cafe
2c19
0000
0000
025d
cafe
3001
0000
0000
0246
cafe
3411
0000
0000
013a
cafe
380a
0000
0000
021e
cafe
3c1a
0000
0000
00e9
cafe
2002
0000
0000
01b7
cafe
2412
0000
0000
01aa
cafe
280b
0000
0000
01ef
cafe
2c1b
0000
0000
01e5
cafe
3003
0000
0000
01f4
cafe
3413
0000
0000
01b2
cafe
380c
0000
0000
01b4
cafe
3c1c
0000
0000
01a6
cafe
2004
0000
0000
01ee
cafe
2414
0000
0000
018d
cafe
280d
0000
0000
0186
cafe
2c1d
0000
0000
01d2
cafe
3005
0000
0000
01be
cafe
3415
0000
0000
01bf
cafe
380e
0000
0000
018f
cafe
3c1e
0000
0000
015a
cafe
2006
0000
0000
01ee
cafe
2416
0000
0000
015b
cafe
280f
0000
0000
019b
cafe
2c1f
0000
0000
013c
cafe
3007
0000
0000
0237
cafe
3417
0000
0000
01e0
cafe
3808
0000
0000
0212
cafe
3c18
0000
0000
01a0
cafe
2000
0000
0000
0156
cafe
2410
0000
0000
0173
cafe
2809
0000
0000
01be
cafe
2c19
0000
0000
0262
cafe
3001
0000
0000
0245
cafe
3411
0000
0000
013d
cafe
380a
0000
0000
021e
-
cafe
3c1a
0000
0000
00eb
cafe
2002
0000
0000
01b4
cafe
2412
0000
0000
01a7
cafe
280b
0000
0000
01eb
cafe
2c1b
0000
0000
01e2
cafe
3003
0000
0000
01f2
cafe
3413
0000
0000
01b4
cafe
380c
0000
0000
01b2
cafe
3c1c
0000
0000
01a9
cafe
2004
0000
0000
01f1
cafe
2414
0000
0000
0191
cafe
280d
0000
0000
0182
cafe
2c1d
0000
0000
01cf
cafe
3005
0000
0000
01bd
cafe
3415
0000
0000
01bf
cafe
380e
0000
0000
0190
cafe
3c1e
0000
0000
015b
cafe
2006
0000
0000
01eb
cafe
2416
0000
0000
0164
cafe
280f
0000
0000
01a0
cafe
2c1f
0000
0000
0139
cafe
3007
0000
0000
0237
cafe
3417
0000
0000
01dc
cafe
3808
0000
0000
0213
cafe
3c18
0000
0000
01a0
cafe
2000
0000
0000
0153
cafe
2410
0000
0000
0171
cafe
2809
0000
0000
01bc
cafe
2c19
0000
0000
025a
cafe
3001
0000
0000
0246
cafe
3411
0000
0000
0141
cafe
380a
0000
0000
0223
cafe
3c1a
0000
0000
00eb
cafe
2002
0000
0000
01b2
cafe
2412
0000
0000
01a5
cafe
280b
0000
0000
01ea
cafe
2c1b
0000
0000
01e1
cafe
3003
0000
0000
01f1
cafe
3413
0000
0000
01b9
cafe
380c
0000
0000
01b4
cafe
3c1c
0000
0000
01a4
cafe
2004
0000
0000
01e8
cafe
2414
0000
0000
0193
cafe
280d
0000
0000
0180
cafe
2c1d
0000
0000
01d3
cafe
3005
0000
0000
01c1
cafe
3415
0000
0000
01c5
cafe
380e
0000
0000
018c
cafe
3c1e
0000
0000
015c
cafe
2006
0000
0000
01ea
cafe
2416
0000
0000
016e
cafe
-
280f
0000
0000
019d
cafe
2c1f
0000
0000
0139
cafe
3007
0000
0000
0235
cafe
3417
0000
0000
01d2
cafe
3808
0000
0000
0216
cafe
3c18
0000
0000
01a2
cafe
2000
0000
0000
0155
cafe
2410
0000
0000
016f
cafe
2809
0000
0000
01b7
cafe
2c19
0000
0000
0259
cafe
3001
0000
0000
0244
cafe
3411
0000
0000
0140
cafe
380a
0000
0000
0225
cafe
3c1a
0000
0000
00ea
cafe
2002
0000
0000
01b6
cafe
2412
0000
0000
01a5
cafe
280b
0000
0000
01ed
cafe
2c1b
0000
0000
01e2
cafe
3003
0000
0000
01f2
cafe
3413
0000
0000
01ba
cafe
380c
0000
0000
01b4
cafe
3c1c
0000
0000
01a8
cafe
2004
0000
0000
01e0
cafe
2414
0000
0000
0191
cafe
280d
0000
0000
0182
cafe
2c1d
0000
0000
01d9
cafe
3005
0000
0000
01bf
cafe
3415
0000
0000
01c2
cafe
380e
0000
0000
018d
cafe
3c1e
0000
0000
0163
cafe
2006
0000
0000
01e7
cafe
2416
0000
0000
016b
cafe
280f
0000
0000
019a
cafe
2c1f
0000
0000
013a
cafe
3007
0000
0000
0236
cafe
3417
0000
0000
01d2
cafe
3808
0000
0000
0217
cafe
3c18
0000
0000
01a4
cafe
2000
0000
0000
015e
cafe
2410
0000
0000
0172
cafe
2809
0000
0000
01b5
cafe
2c19
0000
0000
025f
cafe
3001
0000
0000
023e
cafe
3411
0000
0000
013e
cafe
380a
0000
0000
0259
cafe
3c1a
0000
0000
0120
cafe
2002
0000
0000
01ee
cafe
2412
0000
0000
01e1
cafe
280b
0000
0000
02b1
cafe
2c1b
0000
0000
02b0
cafe
3003
0000
0000
02bb
cafe
3413
-
0000
0000
028b
cafe
380c
0000
0000
0318
cafe
3c1c
0000
0000
0307
cafe
2004
0000
0000
0344
cafe
2414
0000
0000
02f1
cafe
280d
0000
0000
036e
cafe
2c1d
0000
0000
03bd
cafe
3005
0000
0000
0398
cafe
3415
0000
0000
03b2
cafe
380e
0000
0000
03f8
cafe
3c1e
0000
0000
03c3
cafe
2006
0000
0000
0449
cafe
2416
0000
0000
03d3
cafe
280f
0000
0000
046e
cafe
2c1f
0000
0000
040b
cafe
3007
0000
0000
0503
cafe
3417
0000
0000
04b0
cafe
3808
0000
0000
0550
cafe
3c18
0000
0000
04e6
cafe
2000
0000
0000
0493
cafe
2410
0000
0000
04c8
cafe
2809
0000
0000
0555
cafe
2c19
0000
0000
05fe
cafe
3001
0000
0000
05c9
cafe
3411
0000
0000
04f3
cafe
380a
0000
0000
0621
cafe
3c1a
0000
0000
04d8
cafe
2002
0000
0000
05a7
cafe
2412
0000
0000
05b5
cafe
280b
0000
0000
0637
cafe
2c1b
0000
0000
0621
cafe
3003
0000
0000
0620
cafe
3413
0000
0000
0616
cafe
380c
0000
0000
0653
cafe
3c1c
0000
0000
063a
cafe
2004
0000
0000
0670
cafe
2414
0000
0000
062f
cafe
280d
0000
0000
0663
cafe
2c1d
0000
0000
069d
cafe
3005
0000
0000
067b
cafe
3415
0000
0000
06b3
cafe
380e
0000
0000
06aa
cafe
3c1e
0000
0000
067b
cafe
2006
0000
0000
06ed
cafe
2416
0000
0000
0684
cafe
280f
0000
0000
06e9
cafe
2c1f
0000
0000
067b
cafe
3007
0000
0000
076a
cafe
3417
0000
0000
0730
cafe
3808
0000
0000
0790
cafe
3c18
0000
0000
072a
cafe
2000
0000
-
0000
06d2
cafe
2410
0000
0000
070e
cafe
2809
0000
0000
0764
cafe
2c19
0000
0000
080f
cafe
3001
0000
0000
07d3
cafe
3411
0000
0000
0707
cafe
380a
0000
0000
0809
cafe
3c1a
0000
0000
06b6
cafe
2002
0000
0000
077b
cafe
2412
0000
0000
07a0
cafe
280b
0000
0000
07ef
cafe
2c1b
0000
0000
07d7
cafe
3003
0000
0000
07d6
cafe
3413
0000
0000
07d5
cafe
380c
0000
0000
07e4
cafe
3c1c
0000
0000
07ce
cafe
2004
0000
0000
07ff
cafe
2414
0000
0000
07c8
cafe
280d
0000
0000
07d4
cafe
2c1d
0000
0000
080c
cafe
3005
0000
0000
07ee
cafe
3415
0000
0000
0824
cafe
380e
0000
0000
0801
cafe
3c1e
0000
0000
07d4
cafe
2006
0000
0000
083e
cafe
2416
0000
0000
07d7
cafe
280f
0000
0000
0822
cafe
2c1f
0000
0000
07af
cafe
3007
0000
0000
08a0
cafe
3417
0000
0000
0866
cafe
3808
0000
0000
08af
cafe
3c18
0000
0000
0849
cafe
2000
0000
0000
07ee
cafe
2410
0000
0000
082a
cafe
2809
0000
0000
0865
cafe
2c19
0000
0000
0917
cafe
3001
0000
0000
08cf
cafe
3411
0000
0000
0808
cafe
380a
0000
0000
08f8
cafe
3c1a
0000
0000
07a8
cafe
2002
0000
0000
085f
cafe
2412
0000
0000
088c
cafe
280b
0000
0000
08c9
cafe
2c1b
0000
0000
08a8
cafe
3003
0000
0000
08b3
cafe
3413
0000
0000
08b1
cafe
380c
0000
0000
08a5
cafe
3c1c
0000
0000
088d
cafe
2004
0000
0000
08c6
cafe
2414
0000
0000
0897
cafe
280d
0000
0000
0882
cafe
2c1d
0000
0000
-
08c2
cafe
3005
0000
0000
089c
cafe
3415
0000
0000
08de
cafe
380e
0000
0000
089f
cafe
3c1e
0000
0000
0875
cafe
2006
0000
0000
08dc
cafe
2416
0000
0000
0880
cafe
280f
0000
0000
08b7
cafe
2c1f
0000
0000
0841
cafe
3007
0000
0000
0936
cafe
3417
0000
0000
08f3
cafe
3808
0000
0000
0933
cafe
3c18
0000
0000
08d0
cafe
2000
0000
0000
087c
cafe
2410
0000
0000
08ae
cafe
2809
0000
0000
08e2
cafe
2c19
0000
0000
0993
cafe
3001
0000
0000
094a
cafe
3411
0000
0000
087e
cafe
380a
0000
0000
096b
cafe
3c1a
0000
0000
0813
cafe
2002
0000
0000
08ca
cafe
2412
0000
0000
08f9
cafe
280b
0000
0000
0928
cafe
2c1b
0000
0000
0903
cafe
3003
0000
0000
0912
cafe
3413
0000
0000
0919
cafe
380c
0000
0000
08f8
cafe
3c1c
0000
0000
08e6
cafe
2004
0000
0000
091f
cafe
2414
0000
0000
08f4
cafe
280d
0000
0000
08cd
cafe
2c1d
0000
0000
090f
cafe
3005
0000
0000
08f5
cafe
3415
0000
0000
092f
cafe
380e
0000
0000
08e6
cafe
3c1e
0000
0000
08bc
cafe
2006
0000
0000
0924
cafe
2416
0000
0000
08ca
cafe
280f
0000
0000
08f8
cafe
2c1f
0000
0000
087f
cafe
3007
0000
0000
0975
cafe
3417
0000
0000
0931
cafe
3808
0000
0000
096a
cafe
3c18
0000
0000
090b
cafe
2000
0000
0000
08b4
cafe
2410
0000
0000
08e6
cafe
2809
0000
0000
0914
cafe
2c19
0000
0000
09c5
cafe
3001
0000
0000
097a
cafe
3411
0000
0000
08b8
cafe
380a
0000
0000
09a0
-
cafe
3c1a
0000
0000
0840
cafe
2002
0000
0000
08f1
cafe
2412
0000
0000
092c
cafe
280b
0000
0000
0950
cafe
2c1b
0000
0000
0927
cafe
3003
0000
0000
093c
cafe
3413
0000
0000
093f
cafe
380c
0000
0000
0917
cafe
3c1c
0000
0000
0903
cafe
2004
0000
0000
0940
cafe
2414
0000
0000
0911
cafe
280d
0000
0000
08e8
cafe
2c1d
0000
0000
092e
cafe
3005
0000
0000
0910
cafe
3415
0000
0000
0947
cafe
380e
0000
0000
0903
cafe
3c1e
0000
0000
08d8
cafe
2006
0000
0000
093e
cafe
2416
0000
0000
08e5
cafe
280f
0000
0000
0907
cafe
2c1f
0000
0000
0892
cafe
3007
0000
0000
0988
cafe
3417
0000
0000
094c
cafe
3808
0000
0000
0975
cafe
3c18
0000
0000
091f
cafe
2000
0000
0000
08c0
cafe
2410
0000
0000
08f1
cafe
2809
0000
0000
0929
cafe
2c19
0000
0000
09d1
cafe
3001
0000
0000
0989
cafe
3411
0000
0000
08cd
cafe
380a
0000
0000
09ae
cafe
3c1a
0000
0000
084a
cafe
2002
0000
0000
08fb
cafe
2412
0000
0000
093e
cafe
280b
0000
0000
0956
cafe
2c1b
0000
0000
092f
cafe
3003
0000
0000
0946
cafe
3413
0000
0000
0949
cafe
380c
0000
0000
091a
cafe
3c1c
0000
0000
0905
cafe
2004
0000
0000
0945
cafe
2414
0000
0000
0918
cafe
280d
0000
0000
08ed
cafe
2c1d
0000
0000
092e
cafe
3005
0000
0000
0919
cafe
3415
0000
0000
0952
cafe
380e
0000
0000
090b
cafe
3c1e
0000
0000
08d3
cafe
2006
0000
0000
0945
cafe
2416
0000
0000
08f0
cafe
-
280f
0000
0000
0906
cafe
2c1f
0000
0000
0890
cafe
3007
0000
0000
0989
cafe
3417
0000
0000
094f
cafe
3808
0000
0000
0974
cafe
3c18
0000
0000
0921
cafe
2000
0000
0000
08b5
cafe
2410
0000
0000
08ec
cafe
2809
0000
0000
0925
cafe
2c19
0000
0000
09cf
cafe
3001
0000
0000
0982
cafe
3411
0000
0000
08c8
cafe
380a
0000
0000
09ab
cafe
3c1a
0000
0000
0840
cafe
2002
0000
0000
08f0
cafe
2412
0000
0000
092e
cafe
280b
0000
0000
0954
cafe
2c1b
0000
0000
092f
cafe
3003
0000
0000
093f
cafe
3413
0000
0000
0946
cafe
380c
0000
0000
090a
cafe
3c1c
0000
0000
0900
cafe
2004
0000
0000
093f
cafe
2414
0000
0000
090d
cafe
280d
0000
0000
08de
cafe
2c1d
0000
0000
0920
cafe
3005
0000
0000
090d
cafe
3415
0000
0000
0943
cafe
380e
0000
0000
0909
cafe
3c1e
0000
0000
08c4
cafe
2006
0000
0000
0932
cafe
2416
0000
0000
08eb
cafe
280f
0000
0000
08f8
cafe
2c1f
0000
0000
0886
cafe
3007
0000
0000
0979
cafe
3417
0000
0000
0946
cafe
3808
0000
0000
096c
cafe
3c18
0000
0000
0910
cafe
2000
0000
0000
089d
cafe
2410
0000
0000
08e1
cafe
2809
0000
0000
0914
cafe
2c19
0000
0000
09c0
cafe
3001
0000
0000
0975
cafe
3411
0000
0000
08b8
cafe
380a
0000
0000
0999
cafe
3c1a
0000
0000
0832
cafe
2002
0000
0000
08e2
cafe
2412
0000
0000
0921
cafe
280b
0000
0000
094d
cafe
2c1b
0000
0000
091e
cafe
3003
0000
0000
092b
cafe
3413
-
0000
0000
0939
cafe
380c
0000
0000
0900
cafe
3c1c
0000
0000
08f3
cafe
2004
0000
0000
0929
cafe
2414
0000
0000
08fb
cafe
280d
0000
0000
08cc
cafe
2c1d
0000
0000
0909
cafe
3005
0000
0000
08f9
cafe
3415
0000
0000
092f
cafe
380e
0000
0000
08f3
cafe
3c1e
0000
0000
08a8
cafe
2006
0000
0000
091f
cafe
2416
0000
0000
08d8
cafe
280f
0000
0000
08df
cafe
2c1f
0000
0000
0871
cafe
3007
0000
0000
0967
cafe
3417
0000
0000
0931
cafe
3808
0000
0000
095b
cafe
3c18
0000
0000
08ff
cafe
2000
0000
0000
088c
cafe
2410
0000
0000
08d3
cafe
2809
0000
0000
08ff
cafe
2c19
0000
0000
09ac
cafe
3001
0000
0000
095f
cafe
3411
0000
0000
08a1
cafe
380a
0000
0000
0985
cafe
3c1a
0000
0000
081c
cafe
2002
0000
0000
08ce
cafe
2412
0000
0000
090b
cafe
280b
0000
0000
0937
cafe
2c1b
0000
0000
090e
cafe
3003
0000
0000
0917
cafe
3413
0000
0000
092d
cafe
380c
0000
0000
08f2
cafe
3c1c
0000
0000
08e7
cafe
2004
0000
0000
091e
cafe
2414
0000
0000
08ea
cafe
280d
0000
0000
08b2
cafe
2c1d
0000
0000
08ee
cafe
3005
0000
0000
08e2
cafe
3415
0000
0000
0917
cafe
380e
0000
0000
08db
cafe
3c1e
0000
0000
0896
cafe
2006
0000
0000
090a
cafe
2416
0000
0000
08c1
cafe
280f
0000
0000
08c5
cafe
2c1f
0000
0000
0858
cafe
3007
0000
0000
0953
cafe
3417
0000
0000
0922
cafe
3808
0000
0000
0945
cafe
3c18
0000
0000
08ec
cafe
2000
0000
-
0000
086b
cafe
2410
0000
0000
08ba
cafe
2809
0000
0000
08ef
cafe
2c19
0000
0000
0997
cafe
3001
0000
0000
094c
cafe
3411
0000
0000
0888
cafe
380a
0000
0000
0976
cafe
3c1a
0000
0000
0803
cafe
2002
0000
0000
08b3
cafe
2412
0000
0000
08f5
cafe
280b
0000
0000
091b
cafe
2c1b
0000
0000
08f2
cafe
3003
0000
0000
0904
cafe
3413
0000
0000
0919
cafe
380c
0000
0000
08da
cafe
3c1c
0000
0000
08d8
cafe
2004
0000
0000
0906
cafe
2414
0000
0000
08d4
cafe
280d
0000
0000
089c
cafe
2c1d
0000
0000
08d5
cafe
3005
0000
0000
08c5
cafe
3415
0000
0000
08ff
cafe
380e
0000
0000
08bd
cafe
3c1e
0000
0000
087e
cafe
2006
0000
0000
08f2
cafe
2416
0000
0000
08aa
cafe
280f
0000
0000
08b1
cafe
2c1f
0000
0000
083e
cafe
3007
0000
0000
093d
cafe
3417
0000
0000
0907
cafe
3808
0000
0000
0927
cafe
3c18
0000
0000
08da
cafe
2000
0000
0000
0851
cafe
2410
0000
0000
08a1
cafe
2809
0000
0000
08e5
cafe
2c19
0000
0000
0980
cafe
3001
0000
0000
0935
cafe
3411
0000
0000
0876
cafe
380a
0000
0000
095b
cafe
3c1a
0000
0000
07e5
cafe
2002
0000
0000
08a2
cafe
2412
0000
0000
08db
cafe
280b
0000
0000
090c
cafe
2c1b
0000
0000
08de
cafe
3003
0000
0000
08ea
cafe
3413
0000
0000
0900
cafe
380c
0000
0000
08c0
cafe
3c1c
0000
0000
08c2
cafe
2004
0000
0000
08ed
cafe
2414
0000
0000
08be
cafe
280d
0000
0000
0884
cafe
2c1d
0000
0000
-
08bd
cafe
3005
0000
0000
08b0
cafe
3415
0000
0000
08eb
cafe
380e
0000
0000
08a8
cafe
3c1e
0000
0000
0868
cafe
2006
0000
0000
08d9
cafe
2416
0000
0000
0894
cafe
280f
0000
0000
08a4
cafe
2c1f
0000
0000
0824
cafe
3007
0000
0000
0923
cafe
3417
0000
0000
08f1
cafe
3808
0000
0000
0911
cafe
3c18
0000
0000
08c6
cafe
2000
0000
0000
083d
cafe
2410
0000
0000
0887
cafe
2809
0000
0000
08ce
cafe
2c19
0000
0000
0969
cafe
3001
0000
0000
091b
cafe
3411
0000
0000
085f
cafe
380a
0000
0000
0941
cafe
3c1a
0000
0000
07c7
cafe
2002
0000
0000
0892
cafe
2412
0000
0000
08c4
cafe
280b
0000
0000
08f0
cafe
2c1b
0000
0000
08c5
cafe
3003
0000
0000
08cd
cafe
3413
0000
0000
08ee
cafe
380c
0000
0000
08a9
cafe
3c1c
0000
0000
08a7
cafe
2004
0000
0000
08d4
cafe
2414
0000
0000
08a3
cafe
280d
0000
0000
086c
cafe
2c1d
0000
0000
08aa
cafe
3005
0000
0000
0893
cafe
3415
0000
0000
08d3
cafe
380e
0000
0000
0892
cafe
3c1e
0000
0000
084d
cafe
2006
0000
0000
08c2
cafe
2416
0000
0000
0881
cafe
280f
0000
0000
0889
cafe
2c1f
0000
0000
0807
cafe
3007
0000
0000
090a
cafe
3417
0000
0000
08db
cafe
3808
0000
0000
08fc
cafe
3c18
0000
0000
08a9
cafe
2000
0000
0000
0824
cafe
2410
0000
0000
0870
cafe
2809
0000
0000
08b1
cafe
2c19
0000
0000
0957
cafe
3001
0000
0000
08fd
cafe
3411
0000
0000
0848
cafe
380a
0000
0000
092d
-
cafe
3c1a
0000
0000
07ae
cafe
2002
0000
0000
0873
cafe
2412
0000
0000
08ad
cafe
280b
0000
0000
08d5
cafe
2c1b
0000
0000
08b1
cafe
3003
0000
0000
08b6
cafe
3413
0000
0000
08de
cafe
380c
0000
0000
0891
cafe
3c1c
0000
0000
088e
cafe
2004
0000
0000
08be
cafe
2414
0000
0000
0894
cafe
280d
0000
0000
0853
cafe
2c1d
0000
0000
0896
cafe
3005
0000
0000
087b
cafe
3415
0000
0000
08c0
cafe
380e
0000
0000
0874
cafe
3c1e
0000
0000
0831
cafe
2006
0000
0000
08a8
cafe
2416
0000
0000
0868
cafe
280f
0000
0000
0872
cafe
2c1f
0000
0000
07ec
cafe
3007
0000
0000
08f9
cafe
3417
0000
0000
08bb
cafe
3808
0000
0000
08eb
cafe
3c18
0000
0000
088f
cafe
2000
0000
0000
0809
cafe
2410
0000
0000
0854
cafe
2809
0000
0000
0899
cafe
2c19
0000
0000
0943
cafe
3001
0000
0000
08e8
cafe
3411
0000
0000
082f
cafe
380a
0000
0000
0912
cafe
3c1a
0000
0000
0795
cafe
2002
0000
0000
085e
cafe
2412
0000
0000
0899
cafe
280b
0000
0000
08bd
cafe
2c1b
0000
0000
0898
cafe
3003
0000
0000
08a3
cafe
3413
0000
0000
08cb
cafe
380c
0000
0000
087b
cafe
3c1c
0000
0000
0873
cafe
2004
0000
0000
08a7
cafe
2414
0000
0000
0874
cafe
280d
0000
0000
083c
cafe
2c1d
0000
0000
087f
cafe
3005
0000
0000
0868
cafe
3415
0000
0000
08a7
cafe
380e
0000
0000
0858
cafe
3c1e
0000
0000
081c
cafe
2006
0000
0000
088d
cafe
2416
0000
0000
0853
cafe
-
280f
0000
0000
085a
cafe
2c1f
0000
0000
07d3
cafe
3007
0000
0000
08df
cafe
3417
0000
0000
08a9
cafe
3808
0000
0000
08da
cafe
3c18
0000
0000
0879
cafe
2000
0000
0000
07ea
cafe
2410
0000
0000
083b
cafe
2809
0000
0000
087e
cafe
2c19
0000
0000
092b
cafe
3001
0000
0000
08cf
cafe
3411
0000
0000
081a
cafe
380a
0000
0000
08f9
cafe
3c1a
0000
0000
077a
cafe
2002
0000
0000
0848
cafe
2412
0000
0000
0880
cafe
280b
0000
0000
08a6
cafe
2c1b
0000
0000
0882
cafe
3003
0000
0000
0888
cafe
3413
0000
0000
08b4
cafe
380c
0000
0000
085b
cafe
3c1c
0000
0000
0856
cafe
2004
0000
0000
088d
cafe
2414
0000
0000
085e
cafe
280d
0000
0000
0822
cafe
2c1d
0000
0000
0864
cafe
3005
0000
0000
084f
cafe
3415
0000
0000
0896
cafe
380e
0000
0000
0846
cafe
3c1e
0000
0000
0802
cafe
2006
0000
0000
0875
cafe
2416
0000
0000
083c
cafe
280f
0000
0000
0843
cafe
2c1f
0000
0000
07b7
cafe
3007
0000
0000
08ca
cafe
3417
0000
0000
0892
cafe
3808
0000
0000
08c3
cafe
3c18
0000
0000
085d
cafe
2000
0000
0000
07da
cafe
2410
0000
0000
0822
cafe
2809
0000
0000
0869
cafe
2c19
0000
0000
0919
cafe
3001
0000
0000
08c1
cafe
3411
0000
0000
0802
cafe
380a
0000
0000
08e3
cafe
3c1a
0000
0000
0769
cafe
2002
0000
0000
082f
cafe
2412
0000
0000
086b
cafe
280b
0000
0000
0896
cafe
2c1b
0000
0000
086a
cafe
3003
0000
0000
0873
cafe
3413
-
0000
0000
089b
cafe
380c
0000
0000
0848
cafe
3c1c
0000
0000
0839
cafe
2004
0000
0000
087a
cafe
2414
0000
0000
0841
cafe
280d
0000
0000
0808
cafe
2c1d
0000
0000
084b
cafe
3005
0000
0000
0835
cafe
3415
0000
0000
0882
cafe
380e
0000
0000
0833
cafe
3c1e
0000
0000
07e5
cafe
2006
0000
0000
0861
cafe
2416
0000
0000
0823
cafe
280f
0000
0000
0823
cafe
2c1f
0000
0000
079f
cafe
3007
0000
0000
08ae
cafe
3417
0000
0000
087e
cafe
3808
0000
0000
08a6
cafe
3c18
0000
0000
0846
cafe
2000
0000
0000
07ba
cafe
2410
0000
0000
080c
cafe
2809
0000
0000
0850
cafe
2c19
0000
0000
0907
cafe
3001
0000
0000
08a6
cafe
3411
0000
0000
07f2
cafe
380a
0000
0000
08cf
cafe
3c1a
0000
0000
0749
cafe
2002
0000
0000
0813
cafe
2412
0000
0000
0855
cafe
280b
0000
0000
0881
cafe
2c1b
0000
0000
0854
cafe
3003
0000
0000
085e
cafe
3413
0000
0000
0884
cafe
380c
0000
0000
0834
cafe
3c1c
0000
0000
081f
cafe
2004
0000
0000
0865
cafe
2414
0000
0000
0829
cafe
280d
0000
0000
07ea
cafe
2c1d
0000
0000
082c
cafe
3005
0000
0000
081d
cafe
3415
0000
0000
0866
cafe
380e
0000
0000
081d
cafe
3c1e
0000
0000
07c7
cafe
2006
0000
0000
0847
cafe
2416
0000
0000
0811
cafe
280f
0000
0000
080c
cafe
2c1f
0000
0000
0786
cafe
3007
0000
0000
08a0
cafe
3417
0000
0000
086f
cafe
3808
0000
0000
0890
cafe
3c18
0000
0000
0835
cafe
2000
0000
-
0000
079e
cafe
2410
0000
0000
07f3
cafe
2809
0000
0000
0836
cafe
2c19
0000
0000
08ec
cafe
3001
0000
0000
0890
cafe
3411
0000
0000
07d9
cafe
380a
0000
0000
08b3
cafe
3c1a
0000
0000
072d
cafe
2002
0000
0000
07fa
cafe
2412
0000
0000
083d
cafe
280b
0000
0000
0872
cafe
2c1b
0000
0000
0841
cafe
3003
0000
0000
0846
cafe
3413
0000
0000
086e
cafe
380c
0000
0000
0815
cafe
3c1c
0000
0000
080d
cafe
2004
0000
0000
0847
cafe
2414
0000
0000
0810
cafe
280d
0000
0000
07d1
cafe
2c1d
0000
0000
0816
cafe
3005
0000
0000
080d
cafe
3415
0000
0000
084f
cafe
380e
0000
0000
080a
cafe
3c1e
0000
0000
07ab
cafe
2006
0000
0000
0838
cafe
2416
0000
0000
07fc
cafe
280f
0000
0000
07f2
cafe
2c1f
0000
0000
0769
cafe
3007
0000
0000
0888
cafe
3417
0000
0000
0858
cafe
3808
0000
0000
087b
cafe
3c18
0000
0000
0821
cafe
2000
0000
0000
078a
cafe
2410
0000
0000
07dd
cafe
2809
0000
0000
081d
cafe
2c19
0000
0000
08dd
cafe
3001
0000
0000
087c
cafe
3411
0000
0000
07c9
cafe
380a
0000
0000
0899
cafe
3c1a
0000
0000
0716
cafe
2002
0000
0000
07e4
cafe
2412
0000
0000
0824
cafe
280b
0000
0000
0860
cafe
2c1b
0000
0000
0828
cafe
3003
0000
0000
0829
cafe
3413
0000
0000
0854
cafe
380c
0000
0000
0801
cafe
3c1c
0000
0000
07f4
cafe
2004
0000
0000
0831
cafe
2414
0000
0000
07f9
cafe
280d
0000
0000
07b5
cafe
2c1d
0000
0000
-
07f9
cafe
3005
0000
0000
07f8
cafe
3415
0000
0000
083b
cafe
380e
0000
0000
07f5
cafe
3c1e
0000
0000
0792
cafe
2006
0000
0000
081e
cafe
2416
0000
0000
07e6
cafe
280f
0000
0000
07ce
cafe
2c1f
0000
0000
0749
cafe
3007
0000
0000
0872
cafe
3417
0000
0000
0843
cafe
3808
0000
0000
0861
cafe
3c18
0000
0000
080b
cafe
2000
0000
0000
0765
cafe
2410
0000
0000
07c1
cafe
2809
0000
0000
080c
cafe
2c19
0000
0000
08c3
cafe
3001
0000
0000
0862
cafe
3411
0000
0000
07b4
cafe
380a
0000
0000
0882
cafe
3c1a
0000
0000
06fb
cafe
2002
0000
0000
07c7
cafe
2412
0000
0000
0813
cafe
280b
0000
0000
0843
cafe
2c1b
0000
0000
0810
cafe
3003
0000
0000
0811
cafe
3413
0000
0000
083b
cafe
380c
0000
0000
07ec
cafe
3c1c
0000
0000
07dc
cafe
2004
0000
0000
081e
cafe
2414
0000
0000
07df
cafe
280d
0000
0000
079c
cafe
2c1d
0000
0000
07de
cafe
3005
0000
0000
07e0
cafe
3415
0000
0000
0825
cafe
380e
0000
0000
07e3
cafe
3c1e
0000
0000
0779
cafe
2006
0000
0000
0804
cafe
2416
0000
0000
07d1
cafe
280f
0000
0000
07b7
cafe
2c1f
0000
0000
0730
cafe
3007
0000
0000
085d
cafe
3417
0000
0000
0837
cafe
3808
0000
0000
0848
cafe
3c18
0000
0000
07f5
cafe
2000
0000
0000
074e
cafe
2410
0000
0000
07ab
cafe
2809
0000
0000
07fe
cafe
2c19
0000
0000
08aa
cafe
3001
0000
0000
0851
cafe
3411
0000
0000
079c
cafe
380a
0000
0000
086f
-
cafe
3c1a
0000
0000
06e3
cafe
2002
0000
0000
07a6
cafe
2412
0000
0000
07fd
cafe
280b
0000
0000
082b
cafe
2c1b
0000
0000
07fa
cafe
3003
0000
0000
0802
cafe
3413
0000
0000
0829
cafe
380c
0000
0000
07d6
cafe
3c1c
0000
0000
07c5
cafe
2004
0000
0000
0804
cafe
2414
0000
0000
07c1
cafe
280d
0000
0000
0784
cafe
2c1d
0000
0000
07c3
cafe
3005
0000
0000
07c8
cafe
3415
0000
0000
080c
cafe
380e
0000
0000
07cc
cafe
3c1e
0000
0000
075f
cafe
2006
0000
0000
07eb
cafe
2416
0000
0000
07bb
cafe
280f
0000
0000
079b
cafe
2c1f
0000
0000
071a
cafe
3007
0000
0000
0848
cafe
3417
0000
0000
0823
cafe
3808
0000
0000
082e
cafe
3c18
0000
0000
07e3
cafe
2000
0000
0000
0735
cafe
2410
0000
0000
0799
cafe
2809
0000
0000
07ec
cafe
2c19
0000
0000
088f
cafe
3001
0000
0000
0839
cafe
3411
0000
0000
0782
cafe
380a
0000
0000
085c
cafe
3c1a
0000
0000
06d0
cafe
2002
0000
0000
078a
cafe
2412
0000
0000
07dc
cafe
280b
0000
0000
0812
cafe
2c1b
0000
0000
07df
cafe
3003
0000
0000
07f1
cafe
3413
0000
0000
0817
cafe
380c
0000
0000
07c5
cafe
3c1c
0000
0000
07a9
cafe
2004
0000
0000
07f0
cafe
2414
0000
0000
07b0
cafe
280d
0000
0000
0771
cafe
2c1d
0000
0000
07b1
cafe
3005
0000
0000
07b2
cafe
3415
0000
0000
07f9
cafe
380e
0000
0000
07ad
cafe
3c1e
0000
0000
0749
cafe
2006
0000
0000
07d5
cafe
2416
0000
0000
07aa
cafe
-
280f
0000
0000
0786
cafe
2c1f
0000
0000
06ff
cafe
3007
0000
0000
082f
cafe
3417
0000
0000
080b
cafe
3808
0000
0000
081c
cafe
3c18
0000
0000
07ca
cafe
2000
0000
0000
0718
cafe
2410
0000
0000
0786
cafe
2809
0000
0000
07de
cafe
2c19
0000
0000
0880
cafe
3001
0000
0000
081f
cafe
3411
0000
0000
076a
cafe
380a
0000
0000
0845
cafe
3c1a
0000
0000
06b5
cafe
2002
0000
0000
076e
cafe
2412
0000
0000
07c7
cafe
280b
0000
0000
07ff
cafe
2c1b
0000
0000
07ce
cafe
3003
0000
0000
07df
cafe
3413
0000
0000
07fe
cafe
380c
0000
0000
07a9
cafe
3c1c
0000
0000
0790
cafe
2004
0000
0000
07de
cafe
2414
0000
0000
078f
cafe
280d
0000
0000
075a
cafe
2c1d
0000
0000
079e
cafe
3005
0000
0000
07a1
cafe
3415
0000
0000
07e3
cafe
380e
0000
0000
079b
cafe
3c1e
0000
0000
0731
cafe
2006
0000
0000
07bc
cafe
2416
0000
0000
0793
cafe
280f
0000
0000
076b
cafe
2c1f
0000
0000
06e5
cafe
3007
0000
0000
081f
cafe
3417
0000
0000
07f9
cafe
3808
0000
0000
0803
cafe
3c18
0000
0000
07b5
cafe
2000
0000
0000
0702
cafe
2410
0000
0000
0773
cafe
2809
0000
0000
07c9
cafe
2c19
0000
0000
0871
cafe
3001
0000
0000
0806
cafe
3411
0000
0000
0758
cafe
380a
0000
0000
0830
cafe
3c1a
0000
0000
069a
cafe
2002
0000
0000
0752
cafe
2412
0000
0000
07af
cafe
280b
0000
0000
07ed
cafe
2c1b
0000
0000
07b6
cafe
3003
0000
0000
07cd
cafe
3413
-
0000
0000
07e3
cafe
380c
0000
0000
0791
cafe
3c1c
0000
0000
0778
cafe
2004
0000
0000
07c4
cafe
2414
0000
0000
0775
cafe
280d
0000
0000
0745
cafe
2c1d
0000
0000
0785
cafe
3005
0000
0000
078d
cafe
3415
0000
0000
07d0
cafe
380e
0000
0000
077d
cafe
3c1e
0000
0000
0716
cafe
2006
0000
0000
07a6
cafe
2416
0000
0000
077e
cafe
280f
0000
0000
0756
cafe
2c1f
0000
0000
06d2
cafe
3007
0000
0000
080a
cafe
3417
0000
0000
07e1
cafe
3808
0000
0000
07ea
cafe
3c18
0000
0000
079e
cafe
2000
0000
0000
06ee
cafe
2410
0000
0000
075d
cafe
2809
0000
0000
07b3
cafe
2c19
0000
0000
085c
cafe
3001
0000
0000
07ee
cafe
3411
0000
0000
0740
cafe
380a
0000
0000
081a
cafe
3c1a
0000
0000
0689
cafe
2002
0000
0000
073f
cafe
2412
0000
0000
0798
cafe
280b
0000
0000
07d8
cafe
2c1b
0000
0000
0796
cafe
3003
0000
0000
07b4
cafe
3413
0000
0000
07cd
cafe
380c
0000
0000
077f
cafe
3c1c
0000
0000
0763
cafe
2004
0000
0000
07ab
cafe
2414
0000
0000
075f
cafe
280d
0000
0000
072b
cafe
2c1d
0000
0000
076a
cafe
3005
0000
0000
0775
cafe
3415
0000
0000
07b9
cafe
380e
0000
0000
076a
cafe
3c1e
0000
0000
0702
cafe
2006
0000
0000
0796
cafe
2416
0000
0000
0771
cafe
280f
0000
0000
0740
cafe
2c1f
0000
0000
06bb
cafe
3007
0000
0000
07f7
cafe
3417
0000
0000
07c4
cafe
3808
0000
0000
07d3
cafe
3c18
0000
0000
078f
cafe
2000
0000
-
0000
06d7
cafe
2410
0000
0000
0747
cafe
2809
0000
0000
079b
cafe
2c19
0000
0000
0846
cafe
3001
0000
0000
07d4
cafe
3411
0000
0000
0727
cafe
380a
0000
0000
07fe
cafe
3c1a
0000
0000
0670
cafe
2002
0000
0000
072b
cafe
2412
0000
0000
0785
cafe
280b
0000
0000
07c5
cafe
2c1b
0000
0000
077d
cafe
3003
0000
0000
079a
cafe
3413
0000
0000
07b6
cafe
380c
0000
0000
076b
cafe
3c1c
0000
0000
074f
cafe
2004
0000
0000
0799
cafe
2414
0000
0000
074d
cafe
280d
0000
0000
0718
cafe
2c1d
0000
0000
075b
cafe
3005
0000
0000
075e
cafe
3415
0000
0000
07a4
cafe
380e
0000
0000
0756
cafe
3c1e
0000
0000
06e8
cafe
2006
0000
0000
0780
cafe
2416
0000
0000
075d
cafe
280f
0000
0000
072f
cafe
2c1f
0000
0000
069f
cafe
3007
0000
0000
07dc
cafe
3417
0000
0000
07b5
cafe
3808
0000
0000
07bd
cafe
3c18
0000
0000
077d
cafe
2000
0000
0000
06c5
cafe
2410
0000
0000
072e
cafe
2809
0000
0000
0785
cafe
2c19
0000
0000
0831
cafe
3001
0000
0000
07bf
cafe
3411
0000
0000
0713
cafe
380a
0000
0000
07f1
cafe
3c1a
0000
0000
0657
cafe
2002
0000
0000
0716
cafe
2412
0000
0000
076f
cafe
280b
0000
0000
07aa
cafe
2c1b
0000
0000
075f
cafe
3003
0000
0000
077d
cafe
3413
0000
0000
07a4
cafe
380c
0000
0000
074e
cafe
3c1c
0000
0000
0739
cafe
2004
0000
0000
077e
cafe
2414
0000
0000
0739
cafe
280d
0000
0000
0706
cafe
2c1d
0000
0000
-
0741
cafe
3005
0000
0000
0748
cafe
3415
0000
0000
078d
cafe
380e
0000
0000
073b
cafe
3c1e
0000
0000
06d1
cafe
2006
0000
0000
076c
cafe
2416
0000
0000
0751
cafe
280f
0000
0000
071b
cafe
2c1f
0000
0000
0688
cafe
3007
0000
0000
07c4
cafe
3417
0000
0000
0797
cafe
3808
0000
0000
07ad
cafe
3c18
0000
0000
0767
cafe
2000
0000
0000
06a1
cafe
2410
0000
0000
0715
cafe
2809
0000
0000
076f
cafe
2c19
0000
0000
081d
cafe
3001
0000
0000
07a9
cafe
3411
0000
0000
0701
cafe
380a
0000
0000
07db
cafe
3c1a
0000
0000
0640
cafe
2002
0000
0000
06fb
cafe
2412
0000
0000
075d
cafe
280b
0000
0000
078f
cafe
2c1b
0000
0000
074a
cafe
3003
0000
0000
076c
cafe
3413
0000
0000
0792
cafe
380c
0000
0000
0733
cafe
3c1c
0000
0000
0725
cafe
2004
0000
0000
076c
cafe
2414
0000
0000
0728
cafe
280d
0000
0000
06f4
cafe
2c1d
0000
0000
072c
cafe
3005
0000
0000
0732
cafe
3415
0000
0000
0774
cafe
380e
0000
0000
071f
cafe
3c1e
0000
0000
06b8
cafe
2006
0000
0000
0756
cafe
2416
0000
0000
073c
cafe
280f
0000
0000
070d
cafe
2c1f
0000
0000
066d
cafe
3007
0000
0000
07af
cafe
3417
0000
0000
0782
cafe
3808
0000
0000
079b
cafe
3c18
0000
0000
0751
cafe
2000
0000
0000
0687
cafe
2410
0000
0000
06ff
cafe
2809
0000
0000
0759
cafe
2c19
0000
0000
0807
cafe
3001
0000
0000
0790
cafe
3411
0000
0000
06f1
cafe
380a
0000
0000
07c7
-
cafe
3c1a
0000
0000
0628
cafe
2002
0000
0000
06e5
cafe
2412
0000
0000
0747
cafe
280b
0000
0000
0779
cafe
2c1b
0000
0000
073d
cafe
3003
0000
0000
075c
cafe
3413
0000
0000
0780
cafe
380c
0000
0000
0714
cafe
3c1c
0000
0000
0714
cafe
2004
0000
0000
0756
cafe
2414
0000
0000
0714
cafe
280d
0000
0000
06e1
cafe
2c1d
0000
0000
0712
cafe
3005
0000
0000
071e
cafe
3415
0000
0000
075b
cafe
380e
0000
0000
070e
cafe
3c1e
0000
0000
069e
cafe
2006
0000
0000
0742
cafe
2416
0000
0000
0726
cafe
280f
0000
0000
06fa
cafe
2c1f
0000
0000
064e
cafe
3007
0000
0000
079a
cafe
3417
0000
0000
076a
cafe
3808
0000
0000
0788
cafe
3c18
0000
0000
073d
cafe
2000
0000
0000
066d
cafe
2410
0000
0000
06e1
cafe
2809
0000
0000
0743
cafe
2c19
0000
0000
07ee
cafe
3001
0000
0000
0775
cafe
3411
0000
0000
06de
cafe
380a
0000
0000
07b1
cafe
3c1a
0000
0000
060e
cafe
2002
0000
0000
06cd
cafe
2412
0000
0000
0734
cafe
280b
0000
0000
075f
cafe
2c1b
0000
0000
0727
cafe
3003
0000
0000
0749
cafe
3413
0000
0000
0774
cafe
380c
0000
0000
0700
cafe
3c1c
0000
0000
0703
cafe
2004
0000
0000
0739
cafe
2414
0000
0000
06fd
cafe
280d
0000
0000
06cc
cafe
2c1d
0000
0000
06fa
cafe
3005
0000
0000
0706
cafe
3415
0000
0000
074c
cafe
380e
0000
0000
06fa
cafe
3c1e
0000
0000
0689
cafe
2006
0000
0000
072e
cafe
2416
0000
0000
0714
cafe
-
280f
0000
0000
06df
cafe
2c1f
0000
0000
0634
cafe
3007
0000
0000
078d
cafe
3417
0000
0000
0757
cafe
3808
0000
0000
076f
cafe
3c18
0000
0000
0726
cafe
2000
0000
0000
0656
cafe
2410
0000
0000
06ce
cafe
2809
0000
0000
072b
cafe
2c19
0000
0000
07da
cafe
3001
0000
0000
0762
cafe
3411
0000
0000
06cd
cafe
380a
0000
0000
079c
cafe
3c1a
0000
0000
05fc
cafe
2002
0000
0000
06b3
cafe
2412
0000
0000
0720
cafe
280b
0000
0000
074e
cafe
2c1b
0000
0000
0716
cafe
3003
0000
0000
0734
cafe
3413
0000
0000
0760
cafe
380c
0000
0000
06eb
cafe
3c1c
0000
0000
06ef
cafe
2004
0000
0000
0724
cafe
2414
0000
0000
06e8
cafe
280d
0000
0000
06b3
cafe
2c1d
0000
0000
06e2
cafe
3005
0000
0000
06f1
cafe
3415
0000
0000
0739
cafe
380e
0000
0000
06e3
cafe
3c1e
0000
0000
0677
cafe
2006
0000
0000
0719
cafe
2416
0000
0000
06fd
cafe
280f
0000
0000
06cb
cafe
2c1f
0000
0000
0620
cafe
3007
0000
0000
0776
cafe
3417
0000
0000
0741
cafe
3808
0000
0000
0756
cafe
3c18
0000
0000
0711
cafe
2000
0000
0000
0643
cafe
2410
0000
0000
06b8
cafe
2809
0000
0000
071d
cafe
2c19
0000
0000
07c6
cafe
3001
0000
0000
0747
cafe
3411
0000
0000
06b6
cafe
380a
0000
0000
0784
cafe
3c1a
0000
0000
05e6
cafe
2002
0000
0000
069e
cafe
2412
0000
0000
0705
cafe
280b
0000
0000
0739
cafe
2c1b
0000
0000
0700
cafe
3003
0000
0000
071c
cafe
3413
-
0000
0000
0752
cafe
380c
0000
0000
06d1
cafe
3c1c
0000
0000
06d5
cafe
2004
0000
0000
070e
cafe
2414
0000
0000
06cf
cafe
280d
0000
0000
069b
cafe
2c1d
0000
0000
06cb
cafe
3005
0000
0000
06e6
cafe
3415
0000
0000
0729
cafe
380e
0000
0000
06d3
cafe
3c1e
0000
0000
0661
cafe
2006
0000
0000
06ff
cafe
2416
0000
0000
06e5
cafe
280f
0000
0000
06b4
cafe
2c1f
0000
0000
060a
cafe
3007
0000
0000
0767
cafe
3417
0000
0000
072d
cafe
3808
0000
0000
074b
cafe
3c18
0000
0000
0702
cafe
2000
0000
0000
062e
cafe
2410
0000
0000
06a8
cafe
2809
0000
0000
0708
cafe
2c19
0000
0000
07b2
cafe
3001
0000
0000
072d
cafe
3411
0000
0000
06a1
cafe
380a
0000
0000
0772
cafe
3c1a
0000
0000
05d0
cafe
2002
0000
0000
0685
cafe
2412
0000
0000
06ed
cafe
280b
0000
0000
071d
cafe
2c1b
0000
0000
06eb
cafe
3003
0000
0000
0706
cafe
3413
0000
0000
073d
cafe
380c
0000
0000
06ba
cafe
3c1c
0000
0000
06c5
cafe
2004
0000
0000
06f4
cafe
2414
0000
0000
06bb
cafe
280d
0000
0000
0684
cafe
2c1d
0000
0000
06b1
cafe
3005
0000
0000
06d6
cafe
3415
0000
0000
0714
cafe
380e
0000
0000
06c0
cafe
3c1e
0000
0000
0646
cafe
2006
0000
0000
06ed
cafe
2416
0000
0000
06d2
cafe
280f
0000
0000
069d
cafe
2c1f
0000
0000
05f5
cafe
3007
0000
0000
0752
cafe
3417
0000
0000
0716
cafe
3808
0000
0000
0737
cafe
3c18
0000
0000
06f1
cafe
2000
0000
-
0000
061a
cafe
2410
0000
0000
0695
cafe
2809
0000
0000
06f9
cafe
2c19
0000
0000
079d
cafe
3001
0000
0000
071f
cafe
3411
0000
0000
0689
cafe
380a
0000
0000
075d
cafe
3c1a
0000
0000
05bf
cafe
2002
0000
0000
0672
cafe
2412
0000
0000
06d9
cafe
280b
0000
0000
0707
cafe
2c1b
0000
0000
06d6
cafe
3003
0000
0000
06ef
cafe
3413
0000
0000
072a
cafe
380c
0000
0000
06a4
cafe
3c1c
0000
0000
06b0
cafe
2004
0000
0000
06df
cafe
2414
0000
0000
06ad
cafe
280d
0000
0000
0673
cafe
2c1d
0000
0000
0697
cafe
3005
0000
0000
06c4
cafe
3415
0000
0000
0704
cafe
380e
0000
0000
06ad
cafe
3c1e
0000
0000
0635
cafe
2006
0000
0000
06db
cafe
2416
0000
0000
06c1
cafe
280f
0000
0000
068b
cafe
2c1f
0000
0000
05dc
cafe
3007
0000
0000
0738
cafe
3417
0000
0000
06ff
cafe
3808
0000
0000
0723
cafe
3c18
0000
0000
06dd
cafe
2000
0000
0000
0609
cafe
2410
0000
0000
067a
cafe
2809
0000
0000
06e5
cafe
2c19
0000
0000
078a
cafe
3001
0000
0000
0706
cafe
3411
0000
0000
0677
cafe
380a
0000
0000
0749
cafe
3c1a
0000
0000
05a9
cafe
2002
0000
0000
0656
cafe
2412
0000
0000
06c5
cafe
280b
0000
0000
06f2
cafe
2c1b
0000
0000
06bd
cafe
3003
0000
0000
06de
cafe
3413
0000
0000
0719
cafe
380c
0000
0000
0696
cafe
3c1c
0000
0000
0697
cafe
2004
0000
0000
06d0
cafe
2414
0000
0000
069a
cafe
280d
0000
0000
0663
cafe
2c1d
0000
0000
-
0682
cafe
3005
0000
0000
06ab
cafe
3415
0000
0000
06ee
cafe
380e
0000
0000
06a2
cafe
3c1e
0000
0000
061f
cafe
2006
0000
0000
06c8
cafe
2416
0000
0000
06b5
cafe
280f
0000
0000
0676
cafe
2c1f
0000
0000
05bd
cafe
3007
0000
0000
0724
cafe
3417
0000
0000
06e5
cafe
3808
0000
0000
070e
cafe
3c18
0000
0000
06cf
cafe
2000
0000
0000
05f2
cafe
2410
0000
0000
0669
cafe
2809
0000
0000
06d3
cafe
2c19
0000
0000
0779
cafe
3001
0000
0000
06f3
cafe
3411
0000
0000
065f
cafe
380a
0000
0000
0733
cafe
3c1a
0000
0000
0590
cafe
2002
0000
0000
063f
cafe
2412
0000
0000
06b2
cafe
280b
0000
0000
06d9
cafe
2c1b
0000
0000
06a7
cafe
3003
0000
0000
06c5
cafe
3413
0000
0000
0703
cafe
380c
0000
0000
0682
cafe
3c1c
0000
0000
0685
cafe
2004
0000
0000
06bd
cafe
2414
0000
0000
0687
cafe
280d
0000
0000
064e
cafe
2c1d
0000
0000
0671
cafe
3005
0000
0000
0692
cafe
3415
0000
0000
06de
cafe
380e
0000
0000
068a
cafe
3c1e
0000
0000
060b
cafe
2006
0000
0000
06b2
cafe
2416
0000
0000
06a3
cafe
280f
0000
0000
0660
cafe
2c1f
0000
0000
05a8
cafe
3007
0000
0000
0716
cafe
3417
0000
0000
06d2
cafe
3808
0000
0000
06fc
cafe
3c18
0000
0000
06be
cafe
2000
0000
0000
05df
cafe
2410
0000
0000
0653
cafe
2809
0000
0000
06bf
cafe
2c19
0000
0000
0765
cafe
3001
0000
0000
06dd
cafe
3411
0000
0000
064d
cafe
380a
0000
0000
071b
-
cafe
3c1a
0000
0000
0571
cafe
2002
0000
0000
0626
cafe
2412
0000
0000
06a1
cafe
280b
0000
0000
06c2
cafe
2c1b
0000
0000
0698
cafe
3003
0000
0000
06b2
cafe
3413
0000
0000
06ef
cafe
380c
0000
0000
0673
cafe
3c1c
0000
0000
066f
cafe
2004
0000
0000
06ad
cafe
2414
0000
0000
0672
cafe
280d
0000
0000
063f
cafe
2c1d
0000
0000
0662
cafe
3005
0000
0000
067e
cafe
3415
0000
0000
06c4
cafe
380e
0000
0000
0676
cafe
3c1e
0000
0000
05f7
cafe
2006
0000
0000
069a
cafe
2416
0000
0000
0690
cafe
280f
0000
0000
0649
cafe
2c1f
0000
0000
0595
cafe
3007
0000
0000
0702
cafe
3417
0000
0000
06c0
cafe
3808
0000
0000
06ec
cafe
3c18
0000
0000
06a7
cafe
2000
0000
0000
05c5
cafe
2410
0000
0000
063b
cafe
2809
0000
0000
06ae
cafe
2c19
0000
0000
0755
cafe
3001
0000
0000
06c9
cafe
3411
0000
0000
0636
cafe
380a
0000
0000
070b
cafe
3c1a
0000
0000
0557
cafe
2002
0000
0000
0611
cafe
2412
0000
0000
068f
cafe
280b
0000
0000
06b1
cafe
2c1b
0000
0000
0689
cafe
3003
0000
0000
069c
cafe
3413
0000
0000
06e2
cafe
380c
0000
0000
065d
cafe
3c1c
0000
0000
0659
cafe
2004
0000
0000
069d
cafe
2414
0000
0000
065c
cafe
280d
0000
0000
062a
cafe
2c1d
0000
0000
0650
cafe
3005
0000
0000
066d
cafe
3415
0000
0000
06b3
cafe
380e
0000
0000
0662
cafe
3c1e
0000
0000
05e0
cafe
2006
0000
0000
0689
cafe
2416
0000
0000
067e
cafe
-
280f
0000
0000
0638
cafe
2c1f
0000
0000
0580
cafe
3007
0000
0000
06eb
cafe
3417
0000
0000
06ae
cafe
3808
0000
0000
06e0
cafe
3c18
0000
0000
068d
cafe
2000
0000
0000
05b0
cafe
2410
0000
0000
062c
cafe
2809
0000
0000
0697
cafe
2c19
0000
0000
0743
cafe
3001
0000
0000
06b5
cafe
3411
0000
0000
0622
cafe
380a
0000
0000
06f6
cafe
3c1a
0000
0000
0546
cafe
2002
0000
0000
05fb
cafe
2412
0000
0000
067d
cafe
280b
0000
0000
06a0
cafe
2c1b
0000
0000
0671
cafe
3003
0000
0000
0681
cafe
3413
0000
0000
06cf
cafe
380c
0000
0000
0649
cafe
3c1c
0000
0000
0647
cafe
2004
0000
0000
0688
cafe
2414
0000
0000
0647
cafe
280d
0000
0000
0617
cafe
2c1d
0000
0000
0638
cafe
3005
0000
0000
0655
cafe
3415
0000
0000
06a4
cafe
380e
0000
0000
064b
cafe
3c1e
0000
0000
05c9
cafe
2006
0000
0000
067a
cafe
2416
0000
0000
0672
cafe
280f
0000
0000
0624
cafe
2c1f
0000
0000
056c
cafe
3007
0000
0000
06d7
cafe
3417
0000
0000
069d
cafe
3808
0000
0000
06cb
cafe
3c18
0000
0000
0676
cafe
2000
0000
0000
059a
cafe
2410
0000
0000
0618
cafe
2809
0000
0000
0684
cafe
2c19
0000
0000
072d
cafe
3001
0000
0000
069d
cafe
3411
0000
0000
060c
cafe
380a
0000
0000
06e4
cafe
3c1a
0000
0000
0536
cafe
2002
0000
0000
05ea
cafe
2412
0000
0000
0666
cafe
280b
0000
0000
068c
cafe
2c1b
0000
0000
065e
cafe
3003
0000
0000
066e
cafe
3413
-
0000
0000
06ba
cafe
380c
0000
0000
0637
cafe
3c1c
0000
0000
0634
cafe
2004
0000
0000
0679
cafe
2414
0000
0000
0629
cafe
280d
0000
0000
0603
cafe
2c1d
0000
0000
0622
cafe
3005
0000
0000
0641
cafe
3415
0000
0000
0694
cafe
380e
0000
0000
063a
cafe
3c1e
0000
0000
05b6
cafe
2006
0000
0000
0660
cafe
2416
0000
0000
0662
cafe
280f
0000
0000
060d
cafe
2c1f
0000
0000
0552
cafe
3007
0000
0000
06c4
cafe
3417
0000
0000
0689
cafe
3808
0000
0000
06bc
cafe
3c18
0000
0000
0664
cafe
2000
0000
0000
057f
cafe
2410
0000
0000
0600
cafe
2809
0000
0000
066c
cafe
2c19
0000
0000
071d
cafe
3001
0000
0000
068b
cafe
3411
0000
0000
05fc
cafe
380a
0000
0000
06ce
cafe
3c1a
0000
0000
051f
cafe
2002
0000
0000
05d8
cafe
2412
0000
0000
0654
cafe
280b
0000
0000
0677
cafe
2c1b
0000
0000
064d
cafe
3003
0000
0000
065a
cafe
3413
0000
0000
06aa
cafe
380c
0000
0000
0623
cafe
3c1c
0000
0000
0624
cafe
2004
0000
0000
066d
cafe
2414
0000
0000
061b
cafe
280d
0000
0000
05f6
cafe
2c1d
0000
0000
060a
cafe
3005
0000
0000
062a
cafe
3415
0000
0000
0681
cafe
380e
0000
0000
0628
cafe
3c1e
0000
0000
05a0
cafe
2006
0000
0000
0648
cafe
2416
0000
0000
0649
cafe
280f
0000
0000
05fd
cafe
2c1f
0000
0000
0537
cafe
3007
0000
0000
06b6
cafe
3417
0000
0000
0679
cafe
3808
0000
0000
06a5
cafe
3c18
0000
0000
0658
cafe
2000
0000
-
0000
056d
cafe
2410
0000
0000
05eb
cafe
2809
0000
0000
0659
cafe
2c19
0000
0000
070a
cafe
3001
0000
0000
0677
cafe
3411
0000
0000
05e0
cafe
380a
0000
0000
06bb
cafe
3c1a
0000
0000
0502
cafe
2002
0000
0000
05cd
cafe
2412
0000
0000
0643
cafe
280b
0000
0000
0668
cafe
2c1b
0000
0000
063f
cafe
3003
0000
0000
0647
cafe
3413
0000
0000
0698
cafe
380c
0000
0000
0611
cafe
3c1c
0000
0000
0611
cafe
2004
0000
0000
0659
cafe
2414
0000
0000
060a
cafe
280d
0000
0000
05de
cafe
2c1d
0000
0000
05f9
cafe
3005
0000
0000
0618
cafe
3415
0000
0000
066b
cafe
380e
0000
0000
0618
cafe
3c1e
0000
0000
0587
cafe
2006
0000
0000
0630
cafe
2416
0000
0000
0631
cafe
280f
0000
0000
05ec
cafe
2c1f
0000
0000
052a
cafe
3007
0000
0000
069f
cafe
3417
0000
0000
0663
cafe
3808
0000
0000
0696
cafe
3c18
0000
0000
0649
cafe
2000
0000
0000
0557
cafe
2410
0000
0000
05da
cafe
2809
0000
0000
0641
cafe
2c19
0000
0000
06fd
cafe
3001
0000
0000
065d
cafe
3411
0000
0000
05c3
cafe
380a
0000
0000
06a8
cafe
3c1a
0000
0000
04ec
cafe
2002
0000
0000
05b6
cafe
2412
0000
0000
062c
cafe
280b
0000
0000
065b
cafe
2c1b
0000
0000
0627
cafe
3003
0000
0000
0630
cafe
3413
0000
0000
0686
cafe
380c
0000
0000
05fd
cafe
3c1c
0000
0000
05f9
cafe
2004
0000
0000
0644
cafe
2414
0000
0000
05f8
cafe
280d
0000
0000
05c8
cafe
2c1d
0000
0000
-
05e3
cafe
3005
0000
0000
0605
cafe
3415
0000
0000
0660
cafe
380e
0000
0000
0602
cafe
3c1e
0000
0000
0571
cafe
2006
0000
0000
0622
cafe
2416
0000
0000
0622
cafe
280f
0000
0000
05d8
cafe
2c1f
0000
0000
0519
cafe
3007
0000
0000
068a
cafe
3417
0000
0000
064d
cafe
3808
0000
0000
0686
cafe
3c18
0000
0000
063d
cafe
2000
0000
0000
0542
cafe
2410
0000
0000
05ce
cafe
2809
0000
0000
062f
cafe
2c19
0000
0000
06ee
cafe
3001
0000
0000
0652
cafe
3411
0000
0000
05af
cafe
380a
0000
0000
0697
cafe
3c1a
0000
0000
04d9
cafe
2002
0000
0000
05a6
cafe
2412
0000
0000
0615
cafe
280b
0000
0000
0649
cafe
2c1b
0000
0000
0614
cafe
3003
0000
0000
0621
cafe
3413
0000
0000
0670
cafe
380c
0000
0000
05ea
cafe
3c1c
0000
0000
05e4
cafe
2004
0000
0000
062a
cafe
2414
0000
0000
05e7
cafe
280d
0000
0000
05b1
cafe
2c1d
0000
0000
05d1
cafe
3005
0000
0000
05f7
cafe
3415
0000
0000
064e
cafe
380e
0000
0000
05ee
cafe
3c1e
0000
0000
0556
cafe
2006
0000
0000
060f
cafe
2416
0000
0000
060a
cafe
280f
0000
0000
05c4
cafe
2c1f
0000
0000
0506
cafe
3007
0000
0000
0679
cafe
3417
0000
0000
0637
cafe
3808
0000
0000
066e
cafe
3c18
0000
0000
0626
cafe
2000
0000
0000
052b
cafe
2410
0000
0000
05c1
cafe
2809
0000
0000
061f
cafe
2c19
0000
0000
06dc
cafe
3001
0000
0000
063d
cafe
3411
0000
0000
0599
cafe
380a
0000
0000
0683
-
cafe
3c1a
0000
0000
04c6
cafe
2002
0000
0000
0592
cafe
2412
0000
0000
0602
cafe
280b
0000
0000
0639
cafe
2c1b
0000
0000
0609
cafe
3003
0000
0000
060d
cafe
3413
0000
0000
0662
cafe
380c
0000
0000
05db
cafe
3c1c
0000
0000
05d6
cafe
2004
0000
0000
061c
cafe
2414
0000
0000
05d4
cafe
280d
0000
0000
059e
cafe
2c1d
0000
0000
05c2
cafe
3005
0000
0000
05e0
cafe
3415
0000
0000
063f
cafe
380e
0000
0000
05dc
cafe
3c1e
0000
0000
0541
cafe
2006
0000
0000
0601
cafe
2416
0000
0000
05f7
cafe
280f
0000
0000
05b3
cafe
2c1f
0000
0000
04f1
cafe
3007
0000
0000
0669
cafe
3417
0000
0000
0629
cafe
3808
0000
0000
065d
cafe
3c18
0000
0000
0612
cafe
2000
0000
0000
051a
cafe
2410
0000
0000
05ad
cafe
2809
0000
0000
060b
cafe
2c19
0000
0000
06c9
cafe
3001
0000
0000
062a
cafe
3411
0000
0000
058a
cafe
380a
0000
0000
0676
cafe
3c1a
0000
0000
04af
cafe
2002
0000
0000
057c
cafe
2412
0000
0000
05f3
cafe
280b
0000
0000
0624
cafe
2c1b
0000
0000
05fa
cafe
3003
0000
0000
05f6
cafe
3413
0000
0000
064e
cafe
380c
0000
0000
05c7
cafe
3c1c
0000
0000
05c1
cafe
2004
0000
0000
060c
cafe
2414
0000
0000
05be
cafe
280d
0000
0000
0588
cafe
2c1d
0000
0000
05a6
cafe
3005
0000
0000
05cc
cafe
3415
0000
0000
062a
cafe
380e
0000
0000
05c8
cafe
3c1e
0000
0000
0534
cafe
2006
0000
0000
05ed
cafe
2416
0000
0000
05dd
cafe
-
