2012
0000
0000
0076
cafe
240b
0000
0000
0072
cafe
281b
0000
0000
00f1
cafe
2c03
0000
0000
0100
cafe
3013
0000
0000
00bf
cafe
340c
0000
0000
00be
cafe
381c
0000
0000
00e9
cafe
3c04
0000
0000
0095
cafe
2014
0000
0000
00d1
cafe
240d
0000
0000
0062
cafe
281d
0000
0000
0102
cafe
2c05
0000
0000
00c2
cafe
3015
0000
0000
0086
cafe
340e
0000
0000
00e5
cafe
381e
0000
0000
00d7
cafe
3c06
0000
0000
0152
cafe
2016
0000
0000
013f
cafe
240f
0000
0000
001a
cafe
281f
0000
0000
00e0
cafe
2c07
0000
0000
00db
cafe
3017
0000
0000
000c
cafe
3408
0000
0000
0083
cafe
3818
0000
0000
0130
cafe
3c00
0000
0000
0051
cafe
2010
0000
0000
0000
cafe
2409
0000
0000
012b
cafe
2819
0000
0000
0112
cafe
2c01
0000
0000
0116
cafe
3011
0000
0000
0133
cafe
340a
0000
0000
016f
cafe
381a
0000
0000
007e
cafe
3c02
0000
0000
0095
cafe
2012
0000
0000
003d
cafe
240b
0000
0000
0080
cafe
281b
0000
0000
00e4
cafe
2c03
0000
0000
00fc
cafe
3013
0000
0000
00d4
cafe
340c
0000
0000
00d3
cafe
381c
0000
0000
00da
cafe
3c04
0000
0000
00b1
cafe
2014
0000
0000
00ee
cafe
240d
0000
0000
004f
cafe
281d
0000
0000
0113
cafe
2c05
0000
0000
00a3
cafe
3015
0000
0000
0056
cafe
340e
0000
0000
00e9
cafe
381e
0000
0000
00e1
cafe
3c06
0000
0000
014d
cafe
2016
0000
0000
013f
cafe
240f
0000
0000
0045
cafe
281f
0000
0000
00e6
cafe
2c07
-
0000
0000
00dc
cafe
3017
0000
0000
002c
cafe
3408
0000
0000
0066
cafe
3818
0000
0000
012e
cafe
3c00
0000
0000
0058
cafe
2010
0000
0000
0000
cafe
2409
0000
0000
011e
cafe
2819
0000
0000
0107
cafe
2c01
0000
0000
011c
cafe
3011
0000
0000
0124
cafe
340a
0000
0000
019f
cafe
381a
0000
0000
0085
cafe
3c02
0000
0000
0099
cafe
2012
0000
0000
0067
cafe
240b
0000
0000
0073
cafe
281b
0000
0000
00e9
cafe
2c03
0000
0000
00e6
cafe
3013
0000
0000
00cb
cafe
340c
0000
0000
00c8
cafe
381c
0000
0000
00e0
cafe
3c04
0000
0000
00aa
cafe
2014
0000
0000
00e2
cafe
240d
0000
0000
0055
cafe
281d
0000
0000
0115
cafe
2c05
0000
0000
00bf
cafe
3015
0000
0000
008c
cafe
340e
0000
0000
00d9
cafe
381e
0000
0000
00d0
cafe
3c06
0000
0000
0151
cafe
2016
0000
0000
0135
cafe
240f
0000
0000
002b
cafe
281f
0000
0000
00e1
cafe
2c07
0000
0000
00d7
cafe
3017
0000
0000
001d
cafe
3408
0000
0000
0096
cafe
3818
0000
0000
013c
cafe
3c00
0000
0000
0061
cafe
2010
0000
0000
0000
cafe
2409
0000
0000
0124
cafe
2819
0000
0000
0106
cafe
2c01
0000
0000
011d
cafe
3011
0000
0000
0134
cafe
340a
0000
0000
0178
cafe
381a
0000
0000
0087
cafe
3c02
0000
0000
0086
cafe
2012
0000
0000
005e
cafe
240b
0000
0000
007e
cafe
281b
0000
0000
00e5
cafe
2c03
0000
0000
00fe
cafe
3013
0000
0000
00e7
cafe
340c
0000
0000
00c9
cafe
381c
0000
-
0000
00e0
cafe
3c04
0000
0000
00b0
cafe
2014
0000
0000
00d8
cafe
240d
0000
0000
003e
cafe
281d
0000
0000
0111
cafe
2c05
0000
0000
00ae
cafe
3015
0000
0000
0056
cafe
340e
0000
0000
00ef
cafe
381e
0000
0000
00df
cafe
3c06
0000
0000
0161
cafe
2016
0000
0000
0143
cafe
240f
0000
0000
0035
cafe
281f
0000
0000
00e2
cafe
2c07
0000
0000
00db
cafe
3017
0000
0000
001f
cafe
3408
0000
0000
006d
cafe
3818
0000
0000
012e
cafe
3c00
0000
0000
0052
cafe
2010
0000
0000
0000
cafe
2409
0000
0000
0133
cafe
2819
0000
0000
011c
cafe
2c01
0000
0000
0130
cafe
3011
0000
0000
0135
cafe
340a
0000
0000
01a5
cafe
381a
0000
0000
008b
cafe
3c02
0000
0000
008c
cafe
2012
0000
0000
005f
cafe
240b
0000
0000
006d
cafe
281b
0000
0000
00df
cafe
2c03
0000
0000
00ff
cafe
3013
0000
0000
00d1
cafe
340c
0000
0000
00ce
cafe
381c
0000
0000
00d7
cafe
3c04
0000
0000
00b7
cafe
2014
0000
0000
00d5
cafe
240d
0000
0000
0081
cafe
281d
0000
0000
010c
cafe
2c05
0000
0000
00d1
cafe
3015
0000
0000
0085
cafe
340e
0000
0000
00cf
cafe
381e
0000
0000
00d0
cafe
3c06
0000
0000
013f
cafe
2016
0000
0000
012a
cafe
240f
0000
0000
0036
cafe
281f
0000
0000
00dd
cafe
2c07
0000
0000
00e4
cafe
3017
0000
0000
0017
cafe
3408
0000
0000
0091
cafe
3818
0000
0000
013e
cafe
3c00
0000
0000
006a
cafe
2010
0000
0000
0006
cafe
2409
0000
0000
-
012d
cafe
2819
0000
0000
0109
cafe
2c01
0000
0000
0123
cafe
3011
0000
0000
0137
cafe
340a
0000
0000
016e
cafe
381a
0000
0000
007b
cafe
3c02
0000
0000
0084
cafe
2012
0000
0000
0053
cafe
240b
0000
0000
007e
cafe
281b
0000
0000
00f4
cafe
2c03
0000
0000
00f7
cafe
3013
0000
0000
00e4
cafe
340c
0000
0000
00d9
cafe
381c
0000
0000
00e2
cafe
3c04
0000
0000
0099
cafe
2014
0000
0000
00d9
cafe
240d
0000
0000
0030
cafe
281d
0000
0000
0112
cafe
2c05
0000
0000
00bd
cafe
3015
0000
0000
005c
cafe
340e
0000
0000
00f5
cafe
381e
0000
0000
00d5
cafe
3c06
0000
0000
014e
cafe
2016
0000
0000
0140
cafe
240f
0000
0000
003a
cafe
281f
0000
0000
00e1
cafe
2c07
0000
0000
00d9
cafe
3017
0000
0000
0037
cafe
3408
0000
0000
0067
cafe
3818
0000
0000
0123
cafe
3c00
0000
0000
005a
cafe
2010
0000
0000
0000
cafe
2409
0000
0000
0134
cafe
2819
0000
0000
0121
cafe
2c01
0000
0000
0129
cafe
3011
0000
0000
013c
cafe
340a
0000
0000
0178
cafe
381a
0000
0000
0075
cafe
3c02
0000
0000
008d
cafe
2012
0000
0000
0062
cafe
240b
0000
0000
0080
cafe
281b
0000
0000
00f5
cafe
2c03
0000
0000
00f9
cafe
3013
0000
0000
00bf
cafe
340c
0000
0000
00d7
cafe
381c
0000
0000
00d7
cafe
3c04
0000
0000
00a7
cafe
2014
0000
0000
00dc
cafe
240d
0000
0000
006d
cafe
281d
0000
0000
0113
cafe
2c05
0000
0000
00cb
cafe
3015
0000
0000
0075
-
cafe
340e
0000
0000
00e8
cafe
381e
0000
0000
00db
cafe
3c06
0000
0000
013e
cafe
2016
0000
0000
0128
cafe
240f
0000
0000
002f
cafe
281f
0000
0000
00e5
cafe
2c07
0000
0000
00dc
cafe
3017
0000
0000
002e
cafe
3408
0000
0000
0090
cafe
3818
0000
0000
0140
cafe
3c00
0000
0000
0064
cafe
2010
0000
0000
0000
cafe
2409
0000
0000
012f
cafe
2819
0000
0000
0116
cafe
2c01
0000
0000
0130
cafe
3011
0000
0000
011d
cafe
340a
0000
0000
0178
cafe
381a
0000
0000
0078
cafe
3c02
0000
0000
0086
cafe
2012
0000
0000
0043
cafe
240b
0000
0000
0090
cafe
281b
0000
0000
00f1
cafe
2c03
0000
0000
0103
cafe
3013
0000
0000
00f3
cafe
340c
0000
0000
00c3
cafe
381c
0000
0000
00d3
cafe
3c04
0000
0000
00a5
cafe
2014
0000
0000
00e5
cafe
240d
0000
0000
0047
cafe
281d
0000
0000
0111
cafe
2c05
0000
0000
00c4
cafe
3015
0000
0000
0064
cafe
340e
0000
0000
00fb
cafe
381e
0000
0000
00d9
cafe
3c06
0000
0000
0154
cafe
2016
0000
0000
013b
cafe
240f
0000
0000
002d
cafe
281f
0000
0000
00e0
cafe
2c07
0000
0000
00db
cafe
3017
0000
0000
0024
cafe
3408
0000
0000
0076
cafe
3818
0000
0000
0130
cafe
3c00
0000
0000
0063
cafe
2010
0000
0000
0000
cafe
2409
0000
0000
012d
cafe
2819
0000
0000
0111
cafe
2c01
0000
0000
011e
cafe
3011
0000
0000
012c
cafe
340a
0000
0000
018c
cafe
381a
0000
0000
007b
cafe
3c02
0000
0000
0082
cafe
-
2012
0000
0000
0076
cafe
240b
0000
0000
0067
cafe
281b
0000
0000
00eb
cafe
2c03
0000
0000
00e9
cafe
3013
0000
0000
00b7
cafe
340c
0000
0000
00d9
cafe
381c
0000
0000
00cd
cafe
3c04
0000
0000
00a9
cafe
2014
0000
0000
00e5
cafe
240d
0000
0000
0060
cafe
281d
0000
0000
010d
cafe
2c05
0000
0000
00c3
cafe
3015
0000
0000
0072
cafe
340e
0000
0000
00d0
cafe
381e
0000
0000
00c9
cafe
3c06
0000
0000
0145
cafe
2016
0000
0000
0111
cafe
240f
0000
0000
0029
cafe
281f
0000
0000
00ef
cafe
2c07
0000
0000
00e6
cafe
3017
0000
0000
0038
cafe
3408
0000
0000
0094
cafe
3818
0000
0000
0141
cafe
3c00
0000
0000
0051
cafe
2010
0000
0000
0002
cafe
2409
0000
0000
011e
cafe
2819
0000
0000
00fb
cafe
2c01
0000
0000
0115
cafe
3011
0000
0000
010d
cafe
340a
0000
0000
018a
cafe
381a
0000
0000
0077
cafe
3c02
0000
0000
0082
cafe
2012
0000
0000
0059
cafe
240b
0000
0000
008d
cafe
281b
0000
0000
00f3
cafe
2c03
0000
0000
0102
cafe
3013
0000
0000
00e4
cafe
340c
0000
0000
00bd
cafe
381c
0000
0000
00d4
cafe
3c04
0000
0000
0094
cafe
2014
0000
0000
00d3
cafe
240d
0000
0000
002e
cafe
281d
0000
0000
0113
cafe
2c05
0000
0000
00bc
cafe
3015
0000
0000
0062
cafe
340e
0000
0000
00f7
cafe
381e
0000
0000
00c8
cafe
3c06
0000
0000
0161
cafe
2016
0000
0000
0144
cafe
240f
0000
0000
003a
cafe
281f
0000
0000
00d9
cafe
2c07
-
0000
0000
00d2
cafe
3017
0000
0000
001c
cafe
3408
0000
0000
007d
cafe
3818
0000
0000
0128
cafe
3c00
0000
0000
0059
cafe
2010
0000
0000
0000
cafe
2409
0000
0000
0125
cafe
2819
0000
0000
011e
cafe
2c01
0000
0000
012b
cafe
3011
0000
0000
012d
cafe
340a
0000
0000
0186
cafe
381a
0000
0000
007e
cafe
3c02
0000
0000
0098
cafe
2012
0000
0000
0055
cafe
240b
0000
0000
005b
cafe
281b
0000
0000
00e9
cafe
2c03
0000
0000
0100
cafe
3013
0000
0000
00ad
cafe
340c
0000
0000
00da
cafe
381c
0000
0000
00dd
cafe
3c04
0000
0000
00a9
cafe
2014
0000
0000
00ec
cafe
240d
0000
0000
0058
cafe
281d
0000
0000
010c
cafe
2c05
0000
0000
00bf
cafe
3015
0000
0000
0072
cafe
340e
0000
0000
00d0
cafe
381e
0000
0000
00cf
cafe
3c06
0000
0000
0141
cafe
2016
0000
0000
0130
cafe
240f
0000
0000
004a
cafe
281f
0000
0000
00f3
cafe
2c07
0000
0000
00dd
cafe
3017
0000
0000
002a
cafe
3408
0000
0000
009c
cafe
3818
0000
0000
0143
cafe
3c00
0000
0000
005b
cafe
2010
0000
0000
0000
cafe
2409
0000
0000
0113
cafe
2819
0000
0000
0104
cafe
2c01
0000
0000
012d
cafe
3011
0000
0000
011f
cafe
340a
0000
0000
0192
cafe
381a
0000
0000
0083
cafe
3c02
0000
0000
008f
cafe
2012
0000
0000
006d
cafe
240b
0000
0000
0086
cafe
281b
0000
0000
00f9
cafe
2c03
0000
0000
0112
cafe
3013
0000
0000
00e5
cafe
340c
0000
0000
00bf
cafe
381c
0000
-
0000
00e5
cafe
3c04
0000
0000
009b
cafe
2014
0000
0000
00b5
cafe
240d
0000
0000
0054
cafe
281d
0000
0000
010f
cafe
2c05
0000
0000
00be
cafe
3015
0000
0000
0070
cafe
340e
0000
0000
00f0
cafe
381e
0000
0000
00d2
cafe
3c06
0000
0000
015f
cafe
2016
0000
0000
0131
cafe
240f
0000
0000
0035
cafe
281f
0000
0000
00e3
cafe
2c07
0000
0000
00d5
cafe
3017
0000
0000
0039
cafe
3408
0000
0000
007f
cafe
3818
0000
0000
0129
cafe
3c00
0000
0000
0056
cafe
2010
0000
0000
0000
cafe
2409
0000
0000
012e
cafe
2819
0000
0000
010c
cafe
2c01
0000
0000
0124
cafe
3011
0000
0000
0137
cafe
340a
0000
0000
0176
cafe
381a
0000
0000
006d
cafe
3c02
0000
0000
0088
cafe
2012
0000
0000
0065
cafe
240b
0000
0000
005d
cafe
281b
0000
0000
00f4
cafe
2c03
0000
0000
0110
cafe
3013
0000
0000
00c0
cafe
340c
0000
0000
00db
cafe
381c
0000
0000
00df
cafe
3c04
0000
0000
00ad
cafe
2014
0000
0000
00df
cafe
240d
0000
0000
005d
cafe
281d
0000
0000
0123
cafe
2c05
0000
0000
00aa
cafe
3015
0000
0000
006f
cafe
340e
0000
0000
00e5
cafe
381e
0000
0000
00c6
cafe
3c06
0000
0000
0143
cafe
2016
0000
0000
012e
cafe
240f
0000
0000
0047
cafe
281f
0000
0000
00e3
cafe
2c07
0000
0000
00f9
cafe
3017
0000
0000
0048
cafe
3408
0000
0000
00a7
cafe
3818
0000
0000
014a
cafe
3c00
0000
0000
005d
cafe
2010
0000
0000
0009
cafe
2409
0000
0000
-
010e
cafe
2819
0000
0000
00eb
cafe
2c01
0000
0000
0128
cafe
3011
0000
0000
0111
cafe
340a
0000
0000
0185
cafe
381a
0000
0000
006f
cafe
3c02
0000
0000
0085
cafe
2012
0000
0000
006f
cafe
240b
0000
0000
008b
cafe
281b
0000
0000
00e7
cafe
2c03
0000
0000
0108
cafe
3013
0000
0000
00e9
cafe
340c
0000
0000
00bb
cafe
381c
0000
0000
00c7
cafe
3c04
0000
0000
00a1
cafe
2014
0000
0000
00c0
cafe
240d
0000
0000
0047
cafe
281d
0000
0000
0120
cafe
2c05
0000
0000
00b3
cafe
3015
0000
0000
0060
cafe
340e
0000
0000
0112
cafe
381e
0000
0000
00c4
cafe
3c06
0000
0000
015c
cafe
2016
0000
0000
0149
cafe
240f
0000
0000
002c
cafe
281f
0000
0000
00eb
cafe
2c07
0000
0000
00e4
cafe
3017
0000
0000
0023
cafe
3408
0000
0000
0077
cafe
3818
0000
0000
012d
cafe
3c00
0000
0000
0053
cafe
2010
0000
0000
0000
cafe
2409
0000
0000
0139
cafe
2819
0000
0000
0114
cafe
2c01
0000
0000
0130
cafe
3011
0000
0000
013b
cafe
340a
0000
0000
0179
cafe
381a
0000
0000
0076
cafe
3c02
0000
0000
008b
cafe
2012
0000
0000
0061
cafe
240b
0000
0000
005e
cafe
281b
0000
0000
00ee
cafe
2c03
0000
0000
00fd
cafe
3013
0000
0000
00c8
cafe
340c
0000
0000
00eb
cafe
381c
0000
0000
00d6
cafe
3c04
0000
0000
00aa
cafe
2014
0000
0000
00ea
cafe
240d
0000
0000
0061
cafe
281d
0000
0000
0125
cafe
2c05
0000
0000
00bb
cafe
3015
0000
0000
0077
-
cafe
340e
0000
0000
00c2
cafe
381e
0000
0000
00c3
cafe
3c06
0000
0000
0141
cafe
2016
0000
0000
0122
cafe
240f
0000
0000
0049
cafe
281f
0000
0000
00e8
cafe
2c07
0000
0000
00e0
cafe
3017
0000
0000
0035
cafe
3408
0000
0000
008c
cafe
3818
0000
0000
0137
cafe
3c00
0000
0000
0059
cafe
2010
0000
0000
0000
cafe
2409
0000
0000
0102
cafe
2819
0000
0000
00f9
cafe
2c01
0000
0000
011c
cafe
3011
0000
0000
0113
cafe
340a
0000
0000
018b
cafe
381a
0000
0000
0079
cafe
3c02
0000
0000
0093
cafe
2012
0000
0000
006e
cafe
240b
0000
0000
0085
cafe
281b
0000
0000
00f7
cafe
2c03
0000
0000
0108
cafe
3013
0000
0000
00f1
cafe
340c
0000
0000
00b3
cafe
381c
0000
0000
00e1
cafe
3c04
0000
0000
00a3
cafe
2014
0000
0000
00c5
cafe
240d
0000
0000
0054
cafe
281d
0000
0000
011f
cafe
2c05
0000
0000
00b0
cafe
3015
0000
0000
0091
cafe
340e
0000
0000
00f7
cafe
381e
0000
0000
00c8
cafe
3c06
0000
0000
014e
cafe
2016
0000
0000
0136
cafe
240f
0000
0000
0026
cafe
281f
0000
0000
00e1
cafe
2c07
0000
0000
00da
cafe
3017
0000
0000
0021
cafe
3408
0000
0000
0081
cafe
3818
0000
0000
0126
cafe
3c00
0000
0000
004a
cafe
2010
0000
0000
0000
cafe
2409
0000
0000
0135
cafe
2819
0000
0000
011a
cafe
2c01
0000
0000
011b
cafe
3011
0000
0000
0130
cafe
340a
0000
0000
0171
cafe
381a
0000
0000
0068
cafe
3c02
0000
0000
008d
cafe
-
2012
0000
0000
004e
cafe
240b
0000
0000
0066
cafe
281b
0000
0000
00fb
cafe
2c03
0000
0000
00ff
cafe
3013
0000
0000
00cf
cafe
340c
0000
0000
00e8
cafe
381c
0000
0000
00d5
cafe
3c04
0000
0000
00b2
cafe
2014
0000
0000
00e7
cafe
240d
0000
0000
004b
cafe
281d
0000
0000
011e
cafe
2c05
0000
0000
00bd
cafe
3015
0000
0000
007e
cafe
340e
0000
0000
00c7
cafe
381e
0000
0000
00ce
cafe
3c06
0000
0000
0134
cafe
2016
0000
0000
0120
cafe
240f
0000
0000
0043
cafe
281f
0000
0000
00e4
cafe
2c07
0000
0000
00f0
cafe
3017
0000
0000
003a
cafe
3408
0000
0000
0073
cafe
3818
0000
0000
013e
cafe
3c00
0000
0000
0041
cafe
2010
0000
0000
0000
cafe
2409
0000
0000
0110
cafe
2819
0000
0000
00ff
cafe
2c01
0000
0000
011b
cafe
3011
0000
0000
0117
cafe
340a
0000
0000
0194
cafe
381a
0000
0000
0077
cafe
3c02
0000
0000
009d
cafe
2012
0000
0000
0064
cafe
240b
0000
0000
007e
cafe
281b
0000
0000
00f4
cafe
2c03
0000
0000
0117
cafe
3013
0000
0000
00d0
cafe
340c
0000
0000
00b5
cafe
381c
0000
0000
00dd
cafe
3c04
0000
0000
0095
cafe
2014
0000
0000
00c8
cafe
240d
0000
0000
005a
cafe
281d
0000
0000
011a
cafe
2c05
0000
0000
00b6
cafe
3015
0000
0000
0085
cafe
340e
0000
0000
03a3
cafe
381e
0000
0000
0370
cafe
3c06
0000
0000
041d
cafe
2016
0000
0000
03fb
cafe
240f
0000
0000
06be
cafe
281f
0000
0000
0790
cafe
2c07
-
0000
0000
0766
cafe
3017
0000
0000
06c4
cafe
3408
0000
0000
0822
cafe
3818
0000
0000
08d5
cafe
3c00
0000
0000
07f7
cafe
2010
0000
0000
0798
cafe
2409
0000
0000
0945
cafe
2819
0000
0000
090d
cafe
2c01
0000
0000
090b
cafe
3011
0000
0000
0957
cafe
340a
0000
0000
0998
cafe
381a
0000
0000
086e
cafe
3c02
0000
0000
086d
cafe
2012
0000
0000
087d
cafe
240b
0000
0000
08b9
cafe
281b
0000
0000
08d6
cafe
2c03
0000
0000
0903
cafe
3013
0000
0000
0905
cafe
340c
0000
0000
0947
cafe
381c
0000
0000
08cc
cafe
3c04
0000
0000
08b5
cafe
2014
0000
0000
0933
cafe
240d
0000
0000
08b9
cafe
281d
0000
0000
08ee
cafe
2c05
0000
0000
08c8
cafe
3015
0000
0000
08d1
cafe
340e
0000
0000
08fb
cafe
381e
0000
0000
08b5
cafe
3c06
0000
0000
0944
cafe
2016
0000
0000
093e
cafe
240f
0000
0000
0881
cafe
281f
0000
0000
08e4
cafe
2c07
0000
0000
0905
cafe
3017
0000
0000
084d
cafe
3408
0000
0000
08ca
cafe
3818
0000
0000
0954
cafe
3c00
0000
0000
0835
cafe
2010
0000
0000
085d
cafe
2409
0000
0000
096c
cafe
2819
0000
0000
0902
cafe
2c01
0000
0000
08fd
cafe
3011
0000
0000
0975
cafe
340a
0000
0000
0988
cafe
381a
0000
0000
085e
cafe
3c02
0000
0000
0871
cafe
2012
0000
0000
0876
cafe
240b
0000
0000
08a3
cafe
281b
0000
0000
08c0
cafe
2c03
0000
0000
08ed
cafe
3013
0000
0000
090d
cafe
340c
0000
0000
0923
cafe
381c
0000
-
0000
08aa
cafe
3c04
0000
0000
08a5
cafe
2014
0000
0000
0917
cafe
240d
0000
0000
0896
cafe
281d
0000
0000
08ed
cafe
2c05
0000
0000
08b3
cafe
3015
0000
0000
08a8
cafe
340e
0000
0000
08f3
cafe
381e
0000
0000
08a3
cafe
3c06
0000
0000
0938
cafe
2016
0000
0000
0936
cafe
240f
0000
0000
0878
cafe
281f
0000
0000
08be
cafe
2c07
0000
0000
08ec
cafe
3017
0000
0000
0832
cafe
3408
0000
0000
08c5
cafe
3818
0000
0000
0931
cafe
3c00
0000
0000
0829
cafe
2010
0000
0000
0832
cafe
2409
0000
0000
0939
cafe
2819
0000
0000
08ff
cafe
2c01
0000
0000
08e8
cafe
3011
0000
0000
0976
cafe
340a
0000
0000
0978
cafe
381a
0000
0000
0848
cafe
3c02
0000
0000
0852
cafe
2012
0000
0000
084f
cafe
240b
0000
0000
08a0
cafe
281b
0000
0000
08a9
cafe
2c03
0000
0000
08cc
cafe
3013
0000
0000
08ee
cafe
340c
0000
0000
0911
cafe
381c
0000
0000
0896
cafe
3c04
0000
0000
088b
cafe
2014
0000
0000
090e
cafe
240d
0000
0000
0875
cafe
281d
0000
0000
08cb
cafe
2c05
0000
0000
08a9
cafe
3015
0000
0000
088d
cafe
340e
0000
0000
08d7
cafe
381e
0000
0000
0884
cafe
3c06
0000
0000
0923
cafe
2016
0000
0000
0914
cafe
240f
0000
0000
0855
cafe
281f
0000
0000
08b1
cafe
2c07
0000
0000
08cc
cafe
3017
0000
0000
0815
cafe
3408
0000
0000
0885
cafe
3818
0000
0000
091a
cafe
3c00
0000
0000
0810
cafe
2010
0000
0000
082a
cafe
2409
0000
0000
-
0922
cafe
2819
0000
0000
08e8
cafe
2c01
0000
0000
08cf
cafe
3011
0000
0000
094e
cafe
340a
0000
0000
0963
cafe
381a
0000
0000
0833
cafe
3c02
0000
0000
0836
cafe
2012
0000
0000
083d
cafe
240b
0000
0000
0881
cafe
281b
0000
0000
088d
cafe
2c03
0000
0000
08c2
cafe
3013
0000
0000
08d3
cafe
340c
0000
0000
08fd
cafe
381c
0000
0000
0885
cafe
3c04
0000
0000
0877
cafe
2014
0000
0000
08ef
cafe
240d
0000
0000
0868
cafe
281d
0000
0000
08b3
cafe
2c05
0000
0000
0877
cafe
3015
0000
0000
086d
cafe
340e
0000
0000
08c0
cafe
381e
0000
0000
0871
cafe
3c06
0000
0000
091c
cafe
2016
0000
0000
08ff
cafe
240f
0000
0000
0845
cafe
281f
0000
0000
0898
cafe
2c07
0000
0000
08bd
cafe
3017
0000
0000
0813
cafe
3408
0000
0000
088b
cafe
3818
0000
0000
0906
cafe
3c00
0000
0000
07fd
cafe
2010
0000
0000
0803
cafe
2409
0000
0000
0906
cafe
2819
0000
0000
08d1
cafe
2c01
0000
0000
08bb
cafe
3011
0000
0000
0938
cafe
340a
0000
0000
094f
cafe
381a
0000
0000
0802
cafe
3c02
0000
0000
0814
cafe
2012
0000
0000
0824
cafe
240b
0000
0000
086f
cafe
281b
0000
0000
0879
cafe
2c03
0000
0000
08b7
cafe
3013
0000
0000
08db
cafe
340c
0000
0000
08ed
cafe
381c
0000
0000
0877
cafe
3c04
0000
0000
0852
cafe
2014
0000
0000
08ef
cafe
240d
0000
0000
0847
cafe
281d
0000
0000
08a4
cafe
2c05
0000
0000
0875
cafe
3015
0000
0000
085b
-
cafe
340e
0000
0000
089b
cafe
381e
0000
0000
0856
cafe
3c06
0000
0000
08fb
cafe
2016
0000
0000
08e3
cafe
240f
0000
0000
082e
cafe
281f
0000
0000
087d
cafe
2c07
0000
0000
08b5
cafe
3017
0000
0000
07f8
cafe
3408
0000
0000
087e
cafe
3818
0000
0000
08f5
cafe
3c00
0000
0000
07d6
cafe
2010
0000
0000
07e4
cafe
2409
0000
0000
08f3
cafe
2819
0000
0000
08b9
cafe
2c01
0000
0000
08a7
cafe
3011
0000
0000
0919
cafe
340a
0000
0000
0928
cafe
381a
0000
0000
07f4
cafe
3c02
0000
0000
07fa
cafe
2012
0000
0000
0805
cafe
240b
0000
0000
0845
cafe
281b
0000
0000
0862
cafe
2c03
0000
0000
0896
cafe
3013
0000
0000
08c8
cafe
340c
0000
0000
08d1
cafe
381c
0000
0000
0861
cafe
3c04
0000
0000
0839
cafe
2014
0000
0000
08e4
cafe
240d
0000
0000
0829
cafe
281d
0000
0000
0884
cafe
2c05
0000
0000
0840
cafe
3015
0000
0000
0826
cafe
340e
0000
0000
08a2
cafe
381e
0000
0000
0847
cafe
3c06
0000
0000
08f6
cafe
2016
0000
0000
08de
cafe
240f
0000
0000
081d
cafe
281f
0000
0000
085b
cafe
2c07
0000
0000
088f
cafe
3017
0000
0000
07d2
cafe
3408
0000
0000
0862
cafe
3818
0000
0000
08e2
cafe
3c00
0000
0000
07b4
cafe
2010
0000
0000
07b8
cafe
2409
0000
0000
08e1
cafe
2819
0000
0000
08af
cafe
2c01
0000
0000
0897
cafe
3011
0000
0000
0900
cafe
340a
0000
0000
092a
cafe
381a
0000
0000
07e4
cafe
3c02
0000
0000
07e6
cafe
-
2012
0000
0000
07d9
cafe
240b
0000
0000
0837
cafe
281b
0000
0000
0857
cafe
2c03
0000
0000
086d
cafe
3013
0000
0000
08c9
cafe
340c
0000
0000
08af
cafe
381c
0000
0000
083e
cafe
3c04
0000
0000
0821
cafe
2014
0000
0000
08b9
cafe
240d
0000
0000
080b
cafe
281d
0000
0000
0864
cafe
2c05
0000
0000
0826
cafe
3015
0000
0000
081d
cafe
340e
0000
0000
0872
cafe
381e
0000
0000
0827
cafe
3c06
0000
0000
08ed
cafe
2016
0000
0000
08bd
cafe
240f
0000
0000
0815
cafe
281f
0000
0000
084f
cafe
2c07
0000
0000
0899
cafe
3017
0000
0000
07d0
cafe
3408
0000
0000
084c
cafe
3818
0000
0000
08c2
cafe
3c00
0000
0000
07a7
cafe
2010
0000
0000
07ab
cafe
2409
0000
0000
08ab
cafe
2819
0000
0000
087e
cafe
2c01
0000
0000
0880
cafe
3011
0000
0000
08eb
cafe
340a
0000
0000
0911
cafe
381a
0000
0000
07bf
cafe
3c02
0000
0000
07ce
cafe
2012
0000
0000
07e8
cafe
240b
0000
0000
080e
cafe
281b
0000
0000
0842
cafe
2c03
0000
0000
0857
cafe
3013
0000
0000
0898
cafe
340c
0000
0000
0894
cafe
381c
0000
0000
082a
cafe
3c04
0000
0000
0805
cafe
2014
0000
0000
08a4
cafe
240d
0000
0000
07da
cafe
281d
0000
0000
0852
cafe
2c05
0000
0000
0827
cafe
3015
0000
0000
07f7
cafe
340e
0000
0000
0861
cafe
381e
0000
0000
081d
cafe
3c06
0000
0000
08c2
cafe
2016
0000
0000
08a8
cafe
240f
0000
0000
07e0
cafe
281f
0000
0000
082d
cafe
2c07
-
0000
0000
0867
cafe
3017
0000
0000
07ab
cafe
3408
0000
0000
0820
cafe
3818
0000
0000
0899
cafe
3c00
0000
0000
077e
cafe
2010
0000
0000
0785
cafe
2409
0000
0000
0897
cafe
2819
0000
0000
0870
cafe
2c01
0000
0000
0870
cafe
3011
0000
0000
08ba
cafe
340a
0000
0000
08fa
cafe
381a
0000
0000
07a7
cafe
3c02
0000
0000
07b3
cafe
2012
0000
0000
07c9
cafe
240b
0000
0000
0804
cafe
281b
0000
0000
0833
cafe
2c03
0000
0000
0851
cafe
3013
0000
0000
08a0
cafe
340c
0000
0000
0877
cafe
381c
0000
0000
0819
cafe
3c04
0000
0000
07f2
cafe
2014
0000
0000
087c
cafe
240d
0000
0000
07b7
cafe
281d
0000
0000
0836
cafe
2c05
0000
0000
07f5
cafe
3015
0000
0000
07d3
cafe
340e
0000
0000
0842
cafe
381e
0000
0000
07fd
cafe
3c06
0000
0000
08a3
cafe
2016
0000
0000
08a5
cafe
240f
0000
0000
07f5
cafe
281f
0000
0000
082d
cafe
2c07
0000
0000
086c
cafe
3017
0000
0000
079f
cafe
3408
0000
0000
0816
cafe
3818
0000
0000
088f
cafe
3c00
0000
0000
0774
cafe
2010
0000
0000
0767
cafe
2409
0000
0000
0871
cafe
2819
0000
0000
0843
cafe
2c01
0000
0000
084e
cafe
3011
0000
0000
08b0
cafe
340a
0000
0000
08f0
cafe
381a
0000
0000
079f
cafe
3c02
0000
0000
079b
cafe
2012
0000
0000
07bd
cafe
240b
0000
0000
07e9
cafe
281b
0000
0000
081f
cafe
2c03
0000
0000
0832
cafe
3013
0000
0000
0887
cafe
340c
0000
0000
085a
cafe
381c
0000
-
0000
07f9
cafe
3c04
0000
0000
07d0
cafe
2014
0000
0000
0862
cafe
240d
0000
0000
079d
cafe
281d
0000
0000
082d
cafe
2c05
0000
0000
07ed
cafe
3015
0000
0000
07a5
cafe
340e
0000
0000
0845
cafe
381e
0000
0000
07e3
cafe
3c06
0000
0000
0893
cafe
2016
0000
0000
0891
cafe
240f
0000
0000
07dc
cafe
281f
0000
0000
0812
cafe
2c07
0000
0000
0858
cafe
3017
0000
0000
077d
cafe
3408
0000
0000
07e6
cafe
3818
0000
0000
0872
cafe
3c00
0000
0000
0767
cafe
2010
0000
0000
0753
cafe
2409
0000
0000
0854
cafe
2819
0000
0000
082d
cafe
2c01
0000
0000
0829
cafe
3011
0000
0000
0879
cafe
340a
0000
0000
08cb
cafe
381a
0000
0000
0772
cafe
3c02
0000
0000
0798
cafe
2012
0000
0000
07a6
cafe
240b
0000
0000
07de
cafe
281b
0000
0000
07fc
cafe
2c03
0000
0000
080f
cafe
3013
0000
0000
087b
cafe
340c
0000
0000
0833
cafe
381c
0000
0000
07ea
cafe
3c04
0000
0000
07bc
cafe
2014
0000
0000
083a
cafe
240d
0000
0000
0785
cafe
281d
0000
0000
0809
cafe
2c05
0000
0000
07c9
cafe
3015
0000
0000
0788
cafe
340e
0000
0000
0835
cafe
381e
0000
0000
07cc
cafe
3c06
0000
0000
088d
cafe
2016
0000
0000
0886
cafe
240f
0000
0000
07c2
cafe
281f
0000
0000
07ff
cafe
2c07
0000
0000
084d
cafe
3017
0000
0000
0777
cafe
3408
0000
0000
07df
cafe
3818
0000
0000
085d
cafe
3c00
0000
0000
0746
cafe
2010
0000
0000
072c
cafe
2409
0000
0000
-
0834
cafe
2819
0000
0000
0821
cafe
2c01
0000
0000
0826
cafe
3011
0000
0000
0873
cafe
340a
0000
0000
08bd
cafe
381a
0000
0000
0766
cafe
3c02
0000
0000
0767
cafe
2012
0000
0000
0797
cafe
240b
0000
0000
07c9
cafe
281b
0000
0000
07dd
cafe
2c03
0000
0000
0809
cafe
3013
0000
0000
0867
cafe
340c
0000
0000
081f
cafe
381c
0000
0000
07c9
cafe
3c04
0000
0000
07a2
cafe
2014
0000
0000
082f
cafe
240d
0000
0000
075f
cafe
281d
0000
0000
07f9
cafe
2c05
0000
0000
07b3
cafe
3015
0000
0000
077f
cafe
340e
0000
0000
0812
cafe
381e
0000
0000
07b3
cafe
3c06
0000
0000
0884
cafe
2016
0000
0000
087c
cafe
240f
0000
0000
07bf
cafe
281f
0000
0000
07e8
cafe
2c07
0000
0000
0827
cafe
3017
0000
0000
075a
cafe
3408
0000
0000
07b1
cafe
3818
0000
0000
0845
cafe
3c00
0000
0000
071d
cafe
2010
0000
0000
06ff
cafe
2409
0000
0000
0828
cafe
2819
0000
0000
07ff
cafe
2c01
0000
0000
0803
cafe
3011
0000
0000
0853
cafe
340a
0000
0000
08b7
cafe
381a
0000
0000
075d
cafe
3c02
0000
0000
074e
cafe
2012
0000
0000
077d
cafe
240b
0000
0000
07b8
cafe
281b
0000
0000
07bf
cafe
2c03
0000
0000
07f3
cafe
3013
0000
0000
0866
cafe
340c
0000
0000
0807
cafe
381c
0000
0000
07b0
cafe
3c04
0000
0000
076f
cafe
2014
0000
0000
0812
cafe
240d
0000
0000
074c
cafe
281d
0000
0000
07d4
cafe
2c05
0000
0000
07a1
cafe
3015
0000
0000
075d
-
cafe
340e
0000
0000
081f
cafe
381e
0000
0000
0794
cafe
3c06
0000
0000
0880
cafe
2016
0000
0000
087d
cafe
240f
0000
0000
07a5
cafe
281f
0000
0000
07d1
cafe
2c07
0000
0000
081d
cafe
3017
0000
0000
0730
cafe
3408
0000
0000
078e
cafe
3818
0000
0000
0832
cafe
3c00
0000
0000
071e
cafe
2010
0000
0000
06d1
cafe
2409
0000
0000
0805
cafe
2819
0000
0000
07ef
cafe
2c01
0000
0000
07e3
cafe
3011
0000
0000
0847
cafe
340a
0000
0000
08bd
cafe
381a
0000
0000
0739
cafe
3c02
0000
0000
073c
cafe
2012
0000
0000
0773
cafe
240b
0000
0000
078a
cafe
281b
0000
0000
07b9
cafe
2c03
0000
0000
07e0
cafe
3013
0000
0000
0831
cafe
340c
0000
0000
07e1
cafe
381c
0000
0000
07aa
cafe
3c04
0000
0000
0755
cafe
2014
0000
0000
07d8
cafe
240d
0000
0000
0728
cafe
281d
0000
0000
07cb
cafe
2c05
0000
0000
0778
cafe
3015
0000
0000
0758
cafe
340e
0000
0000
080e
cafe
381e
0000
0000
0784
cafe
3c06
0000
0000
0872
cafe
2016
0000
0000
086e
cafe
240f
0000
0000
0786
cafe
281f
0000
0000
07b4
cafe
2c07
0000
0000
0810
cafe
3017
0000
0000
0717
cafe
3408
0000
0000
0773
cafe
3818
0000
0000
080f
cafe
3c00
0000
0000
06f1
cafe
2010
0000
0000
06be
cafe
2409
0000
0000
07e5
cafe
2819
0000
0000
07e3
cafe
2c01
0000
0000
07db
cafe
3011
0000
0000
0829
cafe
340a
0000
0000
08aa
cafe
381a
0000
0000
0723
cafe
3c02
0000
0000
0734
cafe
-
2012
0000
0000
075d
cafe
240b
0000
0000
0772
cafe
281b
0000
0000
079a
cafe
2c03
0000
0000
07c7
cafe
3013
0000
0000
082c
cafe
340c
0000
0000
07cc
cafe
381c
0000
0000
0774
cafe
3c04
0000
0000
0740
cafe
2014
0000
0000
07cc
cafe
240d
0000
0000
0706
cafe
281d
0000
0000
07ab
cafe
2c05
0000
0000
077a
cafe
3015
0000
0000
0732
cafe
340e
0000
0000
0809
cafe
381e
0000
0000
0761
cafe
3c06
0000
0000
0863
cafe
2016
0000
0000
084a
cafe
240f
0000
0000
075f
cafe
281f
0000
0000
079f
cafe
2c07
0000
0000
07f1
cafe
3017
0000
0000
0705
cafe
3408
0000
0000
075d
cafe
3818
0000
0000
0801
cafe
3c00
0000
0000
06cc
cafe
2010
0000
0000
069c
cafe
2409
0000
0000
07e1
cafe
2819
0000
0000
07c6
cafe
2c01
0000
0000
07c0
cafe
3011
0000
0000
0818
cafe
340a
0000
0000
0899
cafe
381a
0000
0000
0705
cafe
3c02
0000
0000
0712
cafe
2012
0000
0000
0763
cafe
240b
0000
0000
0763
cafe
281b
0000
0000
077c
cafe
2c03
0000
0000
07b3
cafe
3013
0000
0000
0811
cafe
340c
0000
0000
079b
cafe
381c
0000
0000
0775
cafe
3c04
0000
0000
071b
cafe
2014
0000
0000
07a5
cafe
240d
0000
0000
0704
cafe
281d
0000
0000
0790
cafe
2c05
0000
0000
075f
cafe
3015
0000
0000
072d
cafe
340e
0000
0000
07f8
cafe
381e
0000
0000
0761
cafe
3c06
0000
0000
0848
cafe
2016
0000
0000
083f
cafe
240f
0000
0000
0747
cafe
281f
0000
0000
078d
cafe
2c07
-
0000
0000
07e3
cafe
3017
0000
0000
06ed
cafe
3408
0000
0000
0744
cafe
3818
0000
0000
07e8
cafe
3c00
0000
0000
06bb
cafe
2010
0000
0000
0677
cafe
2409
0000
0000
07cd
cafe
2819
0000
0000
07b2
cafe
2c01
0000
0000
07ab
cafe
3011
0000
0000
0817
cafe
340a
0000
0000
0892
cafe
381a
0000
0000
06fc
cafe
3c02
0000
0000
06fe
cafe
2012
0000
0000
0740
cafe
240b
0000
0000
0734
cafe
281b
0000
0000
075f
cafe
2c03
0000
0000
0784
cafe
3013
0000
0000
07ec
cafe
340c
0000
0000
0778
cafe
381c
0000
0000
0746
cafe
3c04
0000
0000
070a
cafe
2014
0000
0000
0793
cafe
240d
0000
0000
06fd
cafe
281d
0000
0000
078a
cafe
2c05
0000
0000
0752
cafe
3015
0000
0000
071a
cafe
340e
0000
0000
07eb
cafe
381e
0000
0000
0739
cafe
3c06
0000
0000
083c
cafe
2016
0000
0000
082a
cafe
240f
0000
0000
071f
cafe
281f
0000
0000
076a
cafe
2c07
0000
0000
07bc
cafe
3017
0000
0000
06d3
cafe
3408
0000
0000
071f
cafe
3818
0000
0000
07c7
cafe
3c00
0000
0000
06ad
cafe
2010
0000
0000
064d
cafe
2409
0000
0000
07b7
cafe
2819
0000
0000
07a2
cafe
2c01
0000
0000
0799
cafe
3011
0000
0000
080d
cafe
340a
0000
0000
0890
cafe
381a
0000
0000
06e1
cafe
3c02
0000
0000
06dc
cafe
2012
0000
0000
0740
cafe
240b
0000
0000
070b
cafe
281b
0000
0000
0744
cafe
2c03
0000
0000
077a
cafe
3013
0000
0000
07df
cafe
340c
0000
0000
0760
cafe
381c
0000
-
0000
0729
cafe
3c04
0000
0000
06de
cafe
2014
0000
0000
0774
cafe
240d
0000
0000
06dc
cafe
281d
0000
0000
0771
cafe
2c05
0000
0000
0746
cafe
3015
0000
0000
06f9
cafe
340e
0000
0000
07c3
cafe
381e
0000
0000
072b
cafe
3c06
0000
0000
0842
cafe
2016
0000
0000
0832
cafe
240f
0000
0000
0700
cafe
281f
0000
0000
0759
cafe
2c07
0000
0000
079b
cafe
3017
0000
0000
06b1
cafe
3408
0000
0000
06ff
cafe
3818
0000
0000
07ac
cafe
3c00
0000
0000
0699
cafe
2010
0000
0000
0637
cafe
2409
0000
0000
07ad
cafe
2819
0000
0000
079b
cafe
2c01
0000
0000
077d
cafe
3011
0000
0000
080c
cafe
340a
0000
0000
0871
cafe
381a
0000
0000
06bd
cafe
3c02
0000
0000
06d1
cafe
2012
0000
0000
072b
cafe
240b
0000
0000
06ed
cafe
281b
0000
0000
073d
cafe
2c03
0000
0000
075e
cafe
3013
0000
0000
07b1
cafe
340c
0000
0000
0746
cafe
381c
0000
0000
0723
cafe
3c04
0000
0000
06d3
cafe
2014
0000
0000
0770
cafe
240d
0000
0000
06d7
cafe
281d
0000
0000
0758
cafe
2c05
0000
0000
072e
cafe
3015
0000
0000
06e3
cafe
340e
0000
0000
07be
cafe
381e
0000
0000
0709
cafe
3c06
0000
0000
0815
cafe
2016
0000
0000
0808
cafe
240f
0000
0000
06d6
cafe
281f
0000
0000
073b
cafe
2c07
0000
0000
0775
cafe
3017
0000
0000
068b
cafe
3408
0000
0000
06e6
cafe
3818
0000
0000
0797
cafe
3c00
0000
0000
067f
cafe
2010
0000
0000
0627
cafe
2409
0000
0000
-
07b4
cafe
2819
0000
0000
0789
cafe
2c01
0000
0000
076b
cafe
3011
0000
0000
07f5
cafe
340a
0000
0000
0861
cafe
381a
0000
0000
06b2
cafe
3c02
0000
0000
06b1
cafe
2012
0000
0000
0714
cafe
240b
0000
0000
06d2
cafe
281b
0000
0000
0727
cafe
2c03
0000
0000
073c
cafe
3013
0000
0000
0795
cafe
340c
0000
0000
071b
cafe
381c
0000
0000
06fd
cafe
3c04
0000
0000
06be
cafe
2014
0000
0000
0763
cafe
240d
0000
0000
06de
cafe
281d
0000
0000
074a
cafe
2c05
0000
0000
0709
cafe
3015
0000
0000
06d2
cafe
340e
0000
0000
07b6
cafe
381e
0000
0000
06f5
cafe
3c06
0000
0000
0816
cafe
2016
0000
0000
0800
cafe
240f
0000
0000
06bd
cafe
281f
0000
0000
071e
cafe
2c07
0000
0000
075d
cafe
3017
0000
0000
0668
cafe
3408
0000
0000
06c4
cafe
3818
0000
0000
078f
cafe
3c00
0000
0000
0661
cafe
2010
0000
0000
0609
cafe
2409
0000
0000
0793
cafe
2819
0000
0000
077b
cafe
2c01
0000
0000
075d
cafe
3011
0000
0000
07ed
cafe
340a
0000
0000
0854
cafe
381a
0000
0000
0696
cafe
3c02
0000
0000
0693
cafe
2012
0000
0000
070f
cafe
240b
0000
0000
06ca
cafe
281b
0000
0000
070a
cafe
2c03
0000
0000
072f
cafe
3013
0000
0000
0789
cafe
340c
0000
0000
0721
cafe
381c
0000
0000
06f2
cafe
3c04
0000
0000
06ae
cafe
2014
0000
0000
0747
cafe
240d
0000
0000
06c3
cafe
281d
0000
0000
0731
cafe
2c05
0000
0000
0706
cafe
3015
0000
0000
06a9
-
cafe
340e
0000
0000
0790
cafe
381e
0000
0000
06dd
cafe
3c06
0000
0000
07fe
cafe
2016
0000
0000
07de
cafe
240f
0000
0000
06ae
cafe
281f
0000
0000
0707
cafe
2c07
0000
0000
0759
cafe
3017
0000
0000
0652
cafe
3408
0000
0000
06c5
cafe
3818
0000
0000
077b
cafe
3c00
0000
0000
064f
cafe
2010
0000
0000
05ed
cafe
2409
0000
0000
076e
cafe
2819
0000
0000
0761
cafe
2c01
0000
0000
0748
cafe
3011
0000
0000
07cf
cafe
340a
0000
0000
083c
cafe
381a
0000
0000
068a
cafe
3c02
0000
0000
0681
cafe
2012
0000
0000
06f2
cafe
240b
0000
0000
06a1
cafe
281b
0000
0000
06f6
cafe
2c03
0000
0000
0721
cafe
3013
0000
0000
076c
cafe
340c
0000
0000
0704
cafe
381c
0000
0000
06d0
cafe
3c04
0000
0000
0695
cafe
2014
0000
0000
0734
cafe
240d
0000
0000
06a9
cafe
281d
0000
0000
0719
cafe
2c05
0000
0000
06f6
cafe
3015
0000
0000
06b3
cafe
340e
0000
0000
0773
cafe
381e
0000
0000
06c9
cafe
3c06
0000
0000
07e5
cafe
2016
0000
0000
07d0
cafe
240f
0000
0000
069e
cafe
281f
0000
0000
070a
cafe
2c07
0000
0000
0732
cafe
3017
0000
0000
0638
cafe
3408
0000
0000
06a6
cafe
3818
0000
0000
075a
cafe
3c00
0000
0000
0646
cafe
2010
0000
0000
05e1
cafe
2409
0000
0000
076c
cafe
2819
0000
0000
0756
cafe
2c01
0000
0000
072d
cafe
3011
0000
0000
07c6
cafe
340a
0000
0000
0816
cafe
381a
0000
0000
066a
cafe
3c02
0000
0000
066f
cafe
-
2012
0000
0000
06d6
cafe
240b
0000
0000
068a
cafe
281b
0000
0000
06df
cafe
2c03
0000
0000
06fd
cafe
3013
0000
0000
0762
cafe
340c
0000
0000
06f2
cafe
381c
0000
0000
06c1
cafe
3c04
0000
0000
0684
cafe
2014
0000
0000
06fe
cafe
240d
0000
0000
06a3
cafe
281d
0000
0000
0700
cafe
2c05
0000
0000
06e2
cafe
3015
0000
0000
06a6
cafe
340e
0000
0000
0761
cafe
381e
0000
0000
06b7
cafe
3c06
0000
0000
07df
cafe
2016
0000
0000
07bf
cafe
240f
0000
0000
0689
cafe
281f
0000
0000
06f1
cafe
2c07
0000
0000
071e
cafe
3017
0000
0000
061e
cafe
3408
0000
0000
0697
cafe
3818
0000
0000
073e
cafe
3c00
0000
0000
062e
cafe
2010
0000
0000
05bd
cafe
2409
0000
0000
0764
cafe
2819
0000
0000
0737
cafe
2c01
0000
0000
072d
cafe
3011
0000
0000
07bc
cafe
340a
0000
0000
0810
cafe
381a
0000
0000
065a
cafe
3c02
0000
0000
0651
cafe
2012
0000
0000
06c5
cafe
240b
0000
0000
065d
cafe
281b
0000
0000
06cd
cafe
2c03
0000
0000
06f4
cafe
3013
0000
0000
0735
cafe
340c
0000
0000
06df
cafe
381c
0000
0000
06af
cafe
3c04
0000
0000
0667
cafe
2014
0000
0000
070b
cafe
240d
0000
0000
068b
cafe
281d
0000
0000
06ea
cafe
2c05
0000
0000
06cd
cafe
3015
0000
0000
0681
cafe
340e
0000
0000
0731
cafe
381e
0000
0000
06af
cafe
3c06
0000
0000
07b9
cafe
2016
0000
0000
07a6
cafe
240f
0000
0000
0674
cafe
281f
0000
0000
06d0
cafe
2c07
-
0000
0000
0707
cafe
3017
0000
0000
0611
cafe
3408
0000
0000
067b
cafe
3818
0000
0000
072f
cafe
3c00
0000
0000
0609
cafe
2010
0000
0000
05a7
cafe
2409
0000
0000
0752
cafe
2819
0000
0000
0726
cafe
2c01
0000
0000
0712
cafe
3011
0000
0000
078d
cafe
340a
0000
0000
07db
cafe
381a
0000
0000
063c
cafe
3c02
0000
0000
0647
cafe
2012
0000
0000
06aa
cafe
240b
0000
0000
064e
cafe
281b
0000
0000
06af
cafe
2c03
0000
0000
06e5
cafe
3013
0000
0000
071f
cafe
340c
0000
0000
06c1
cafe
381c
0000
0000
06a1
cafe
3c04
0000
0000
0642
cafe
2014
0000
0000
06fe
cafe
240d
0000
0000
0678
cafe
281d
0000
0000
06dc
cafe
2c05
0000
0000
06b2
cafe
3015
0000
0000
0664
cafe
340e
0000
0000
0730
cafe
381e
0000
0000
0696
cafe
3c06
0000
0000
07a5
cafe
2016
0000
0000
0796
cafe
240f
0000
0000
0645
cafe
281f
0000
0000
06ad
cafe
2c07
0000
0000
06ee
cafe
3017
0000
0000
05fe
cafe
3408
0000
0000
066f
cafe
3818
0000
0000
0716
cafe
3c00
0000
0000
0608
cafe
2010
0000
0000
0597
cafe
2409
0000
0000
0745
cafe
2819
0000
0000
0720
cafe
2c01
0000
0000
06e3
cafe
3011
0000
0000
078c
cafe
340a
0000
0000
07e2
cafe
381a
0000
0000
0626
cafe
3c02
0000
0000
061a
cafe
2012
0000
0000
068b
cafe
240b
0000
0000
062f
cafe
281b
0000
0000
06a6
cafe
2c03
0000
0000
06c1
cafe
3013
0000
0000
0713
cafe
340c
0000
0000
06bf
cafe
381c
0000
-
0000
0695
cafe
3c04
0000
0000
0655
cafe
2014
0000
0000
06e6
cafe
240d
0000
0000
0677
cafe
281d
0000
0000
06ba
cafe
2c05
0000
0000
06a4
cafe
3015
0000
0000
066c
cafe
340e
0000
0000
0719
cafe
381e
0000
0000
0687
cafe
3c06
0000
0000
0796
cafe
2016
0000
0000
077d
cafe
240f
0000
0000
0639
cafe
281f
0000
0000
069a
cafe
2c07
0000
0000
06e5
cafe
3017
0000
0000
05e0
cafe
3408
0000
0000
0655
cafe
3818
0000
0000
06ff
cafe
3c00
0000
0000
05dd
cafe
2010
0000
0000
058b
cafe
2409
0000
0000
0718
cafe
2819
0000
0000
06fe
cafe
2c01
0000
0000
06f3
cafe
3011
0000
0000
077d
cafe
340a
0000
0000
07cd
cafe
381a
0000
0000
05fe
cafe
3c02
0000
0000
05ff
cafe
2012
0000
0000
0674
cafe
240b
0000
0000
060f
cafe
281b
0000
0000
0693
cafe
2c03
0000
0000
06a8
cafe
3013
0000
0000
0702
cafe
340c
0000
0000
0694
cafe
381c
0000
0000
0675
cafe
3c04
0000
0000
063a
cafe
2014
0000
0000
06cf
cafe
240d
0000
0000
0643
cafe
281d
0000
0000
069b
cafe
2c05
0000
0000
0673
cafe
3015
0000
0000
064e
cafe
340e
0000
0000
06f7
cafe
381e
0000
0000
066e
cafe
3c06
0000
0000
077c
cafe
2016
0000
0000
0764
cafe
240f
0000
0000
0618
cafe
281f
0000
0000
0685
cafe
2c07
0000
0000
06c9
cafe
3017
0000
0000
05a2
cafe
3408
0000
0000
0657
cafe
3818
0000
0000
06f8
cafe
3c00
0000
0000
05cf
cafe
2010
0000
0000
0576
cafe
2409
0000
0000
-
0715
cafe
2819
0000
0000
06f7
cafe
2c01
0000
0000
06c8
cafe
3011
0000
0000
0771
cafe
340a
0000
0000
0799
cafe
381a
0000
0000
05eb
cafe
3c02
0000
0000
05f6
cafe
2012
0000
0000
0651
cafe
240b
0000
0000
05e1
cafe
281b
0000
0000
067b
cafe
2c03
0000
0000
0686
cafe
3013
0000
0000
06d8
cafe
340c
0000
0000
069a
cafe
381c
0000
0000
0669
cafe
3c04
0000
0000
0621
cafe
2014
0000
0000
06dd
cafe
240d
0000
0000
0641
cafe
281d
0000
0000
068e
cafe
2c05
0000
0000
0679
cafe
3015
0000
0000
063d
cafe
340e
0000
0000
06df
cafe
381e
0000
0000
064d
cafe
3c06
0000
0000
075b
cafe
2016
0000
0000
0743
cafe
240f
0000
0000
0600
cafe
281f
0000
0000
066c
cafe
2c07
0000
0000
06bb
cafe
3017
0000
0000
05a7
cafe
3408
0000
0000
064d
cafe
3818
0000
0000
06fe
cafe
3c00
0000
0000
05c7
cafe
2010
0000
0000
0568
cafe
2409
0000
0000
06f9
cafe
2819
0000
0000
06df
cafe
2c01
0000
0000
06b2
cafe
3011
0000
0000
076a
cafe
340a
0000
0000
07a2
cafe
381a
0000
0000
05e6
cafe
3c02
0000
0000
05d9
cafe
2012
0000
0000
0630
cafe
240b
0000
0000
05c4
cafe
281b
0000
0000
0649
cafe
2c03
0000
0000
0676
cafe
3013
0000
0000
06c2
cafe
340c
0000
0000
0685
cafe
381c
0000
0000
064c
cafe
3c04
0000
0000
0611
cafe
2014
0000
0000
06b3
cafe
240d
0000
0000
0632
cafe
281d
0000
0000
0681
cafe
2c05
0000
0000
0669
cafe
3015
0000
0000
063b
-
cafe
340e
0000
0000
06d1
cafe
381e
0000
0000
063c
cafe
3c06
0000
0000
0754
cafe
2016
0000
0000
0742
cafe
240f
0000
0000
05e2
cafe
281f
0000
0000
0659
cafe
2c07
0000
0000
069e
cafe
3017
0000
0000
05a1
cafe
3408
0000
0000
0631
cafe
3818
0000
0000
06d5
cafe
3c00
0000
0000
0598
cafe
2010
0000
0000
0550
cafe
2409
0000
0000
06de
cafe
2819
0000
0000
06cc
cafe
2c01
0000
0000
06a3
cafe
3011
0000
0000
0752
cafe
340a
0000
0000
0778
cafe
381a
0000
0000
05ce
cafe
3c02
0000
0000
05c0
cafe
2012
0000
0000
0623
cafe
240b
0000
0000
05be
cafe
281b
0000
0000
063c
cafe
2c03
0000
0000
0677
cafe
3013
0000
0000
06c2
cafe
340c
0000
0000
0679
cafe
381c
0000
0000
0639
cafe
3c04
0000
0000
05f8
cafe
2014
0000
0000
06a6
cafe
240d
0000
0000
0627
cafe
281d
0000
0000
0671
cafe
2c05
0000
0000
0651
cafe
3015
0000
0000
0626
cafe
340e
0000
0000
06b2
cafe
381e
0000
0000
0628
cafe
3c06
0000
0000
072c
cafe
2016
0000
0000
071a
cafe
240f
0000
0000
05d0
cafe
281f
0000
0000
064f
cafe
2c07
0000
0000
0691
cafe
3017
0000
0000
0583
cafe
3408
0000
0000
062a
cafe
3818
0000
0000
06c5
cafe
3c00
0000
0000
0592
cafe
2010
0000
0000
053c
cafe
2409
0000
0000
06ce
cafe
2819
0000
0000
06b3
cafe
2c01
0000
0000
0699
cafe
3011
0000
0000
073b
cafe
340a
0000
0000
0758
cafe
381a
0000
0000
05aa
cafe
3c02
0000
0000
05ad
cafe
-
2012
0000
0000
05fe
cafe
240b
0000
0000
05b0
cafe
281b
0000
0000
0637
cafe
2c03
0000
0000
0655
cafe
3013
0000
0000
06a0
cafe
340c
0000
0000
0673
cafe
381c
0000
0000
062c
cafe
3c04
0000
0000
05f3
cafe
2014
0000
0000
0690
cafe
240d
0000
0000
05f4
cafe
281d
0000
0000
0658
cafe
2c05
0000
0000
064d
cafe
3015
0000
0000
0605
cafe
340e
0000
0000
06a3
cafe
381e
0000
0000
0605
cafe
3c06
0000
0000
0719
cafe
2016
0000
0000
070c
cafe
240f
0000
0000
05b4
cafe
281f
0000
0000
0639
cafe
2c07
0000
0000
0671
cafe
3017
0000
0000
0557
cafe
3408
0000
0000
0608
cafe
3818
0000
0000
06bd
cafe
3c00
0000
0000
056d
cafe
2010
0000
0000
0530
cafe
2409
0000
0000
06c9
cafe
2819
0000
0000
06aa
cafe
2c01
0000
0000
066d
cafe
3011
0000
0000
072d
cafe
340a
0000
0000
0736
cafe
381a
0000
0000
0596
cafe
3c02
0000
0000
0597
cafe
2012
0000
0000
05dd
cafe
240b
0000
0000
05a4
cafe
281b
0000
0000
0621
cafe
2c03
0000
0000
0636
cafe
3013
0000
0000
0692
cafe
340c
0000
0000
0672
cafe
381c
0000
0000
0621
cafe
3c04
0000
0000
05d6
cafe
2014
0000
0000
068a
cafe
240d
0000
0000
05ff
cafe
281d
0000
0000
0630
cafe
2c05
0000
0000
063e
cafe
3015
0000
0000
05f8
cafe
340e
0000
0000
0688
cafe
381e
0000
0000
0602
cafe
3c06
0000
0000
06fa
cafe
2016
0000
0000
06f7
cafe
240f
0000
0000
058f
cafe
281f
0000
0000
0616
cafe
2c07
-
0000
0000
0674
cafe
3017
0000
0000
053a
cafe
3408
0000
0000
05f1
cafe
3818
0000
0000
06a7
cafe
3c00
0000
0000
055f
cafe
2010
0000
0000
050e
cafe
2409
0000
0000
06b1
cafe
2819
0000
0000
068e
cafe
2c01
0000
0000
0660
cafe
3011
0000
0000
0710
cafe
340a
0000
0000
072e
cafe
381a
0000
0000
0595
cafe
3c02
0000
0000
056c
cafe
2012
0000
0000
05d4
cafe
240b
0000
0000
0578
cafe
281b
0000
0000
0604
cafe
2c03
0000
0000
0635
cafe
3013
0000
0000
067d
cafe
340c
0000
0000
064a
cafe
381c
0000
0000
0608
cafe
3c04
0000
0000
05c3
cafe
2014
0000
0000
066a
cafe
240d
0000
0000
05db
cafe
281d
0000
0000
062c
cafe
2c05
0000
0000
0619
cafe
3015
0000
0000
05d4
cafe
340e
0000
0000
066c
cafe
381e
0000
0000
05de
cafe
3c06
0000
0000
06e8
cafe
2016
0000
0000
06d0
cafe
240f
0000
0000
058f
cafe
281f
0000
0000
0609
cafe
2c07
0000
0000
0651
cafe
3017
0000
0000
053b
cafe
3408
0000
0000
05eb
cafe
3818
0000
0000
0698
cafe
3c00
0000
0000
0561
cafe
2010
0000
0000
0516
cafe
2409
0000
0000
06ad
cafe
2819
0000
0000
0680
cafe
2c01
0000
0000
0642
cafe
3011
0000
0000
0718
cafe
340a
0000
0000
071c
cafe
381a
0000
0000
057b
cafe
3c02
0000
0000
056b
cafe
2012
0000
0000
05c4
cafe
240b
0000
0000
056d
cafe
281b
0000
0000
05f1
cafe
2c03
0000
0000
0612
cafe
3013
0000
0000
0667
cafe
340c
0000
0000
0642
cafe
381c
0000
-
0000
05f2
cafe
3c04
0000
0000
05bb
cafe
2014
0000
0000
066d
cafe
240d
0000
0000
05bc
cafe
281d
0000
0000
0610
cafe
2c05
0000
0000
05ec
cafe
3015
0000
0000
05ad
cafe
340e
0000
0000
0651
cafe
381e
0000
0000
05e8
cafe
3c06
0000
0000
06dd
cafe
2016
0000
0000
06d4
cafe
240f
0000
0000
0572
cafe
281f
0000
0000
05e3
cafe
2c07
0000
0000
0636
cafe
3017
0000
0000
0529
cafe
3408
0000
0000
05e6
cafe
3818
0000
0000
068d
cafe
3c00
0000
0000
054b
cafe
2010
0000
0000
0507
cafe
2409
0000
0000
067f
cafe
2819
0000
0000
0677
cafe
2c01
0000
0000
063f
cafe
3011
0000
0000
0707
cafe
340a
0000
0000
06f9
cafe
381a
0000
0000
0572
cafe
3c02
0000
0000
0550
cafe
2012
0000
0000
05ab
cafe
240b
0000
0000
054b
cafe
281b
0000
0000
05cd
cafe
2c03
0000
0000
05fb
cafe
3013
0000
0000
064b
cafe
340c
0000
0000
064a
cafe
381c
0000
0000
05da
cafe
3c04
0000
0000
05ab
cafe
2014
0000
0000
0656
cafe
240d
0000
0000
05aa
cafe
281d
0000
0000
0607
cafe
2c05
0000
0000
05fb
cafe
3015
0000
0000
05b0
cafe
340e
0000
0000
063b
cafe
381e
0000
0000
05c4
cafe
3c06
0000
0000
06bb
cafe
2016
0000
0000
06bf
cafe
240f
0000
0000
055c
cafe
281f
0000
0000
05d6
cafe
2c07
0000
0000
0623
cafe
3017
0000
0000
050e
cafe
3408
0000
0000
05db
cafe
3818
0000
0000
0685
cafe
3c00
0000
0000
0531
cafe
2010
0000
0000
04f3
cafe
2409
0000
0000
-
0670
cafe
2819
0000
0000
065c
cafe
2c01
0000
0000
062a
cafe
3011
0000
0000
06f1
cafe
340a
0000
0000
06ef
cafe
381a
0000
0000
054b
cafe
3c02
0000
0000
052a
cafe
2012
0000
0000
058e
cafe
240b
0000
0000
0549
cafe
281b
0000
0000
05bc
cafe
2c03
0000
0000
0602
cafe
3013
0000
0000
0639
cafe
340c
0000
0000
0636
cafe
381c
0000
0000
05d2
cafe
3c04
0000
0000
058c
cafe
2014
0000
0000
0647
cafe
240d
0000
0000
059b
cafe
281d
0000
0000
05e8
cafe
2c05
0000
0000
05cd
cafe
3015
0000
0000
059e
cafe
340e
0000
0000
0627
cafe
381e
0000
0000
05b5
cafe
3c06
0000
0000
06ac
cafe
2016
0000
0000
06a1
cafe
240f
0000
0000
0538
cafe
281f
0000
0000
05d1
cafe
2c07
0000
0000
060a
cafe
3017
0000
0000
04fa
cafe
3408
0000
0000
05b5
cafe
3818
0000
0000
0666
cafe
3c00
0000
0000
051e
cafe
2010
0000
0000
04d8
cafe
2409
0000
0000
065d
cafe
2819
0000
0000
0651
cafe
2c01
0000
0000
061e
cafe
3011
0000
0000
06d6
cafe
340a
0000
0000
06d0
cafe
381a
0000
0000
052f
cafe
3c02
0000
0000
0510
cafe
2012
0000
0000
056f
cafe
240b
0000
0000
0535
cafe
281b
0000
0000
05b6
cafe
2c03
0000
0000
05e0
cafe
3013
0000
0000
0629
cafe
340c
0000
0000
062a
cafe
381c
0000
0000
05bd
cafe
3c04
0000
0000
0585
cafe
2014
0000
0000
0648
cafe
240d
0000
0000
058f
cafe
281d
0000
0000
05cd
cafe
2c05
0000
0000
05d1
cafe
3015
0000
0000
0580
-
cafe
340e
0000
0000
060c
cafe
381e
0000
0000
0594
cafe
3c06
0000
0000
06a5
cafe
2016
0000
0000
0698
cafe
240f
0000
0000
0529
cafe
281f
0000
0000
05bf
cafe
2c07
0000
0000
05f8
cafe
3017
0000
0000
04f4
cafe
3408
0000
0000
05a5
cafe
3818
0000
0000
064d
cafe
3c00
0000
0000
0500
cafe
2010
0000
0000
04ca
cafe
2409
0000
0000
064a
cafe
2819
0000
0000
063e
cafe
2c01
0000
0000
060f
cafe
3011
0000
0000
06c5
cafe
340a
0000
0000
06bb
cafe
381a
0000
0000
0521
cafe
3c02
0000
0000
0506
cafe
2012
0000
0000
0563
cafe
240b
0000
0000
0519
cafe
281b
0000
0000
05a9
cafe
2c03
0000
0000
05ce
cafe
3013
0000
0000
0627
cafe
340c
0000
0000
0618
cafe
381c
0000
0000
05a7
cafe
3c04
0000
0000
056b
cafe
2014
0000
0000
0620
cafe
240d
0000
0000
0569
cafe
281d
0000
0000
05b2
cafe
2c05
0000
0000
05cc
cafe
3015
0000
0000
0572
cafe
340e
0000
0000
05fd
cafe
381e
0000
0000
0586
cafe
3c06
0000
0000
0699
cafe
2016
0000
0000
0681
cafe
240f
0000
0000
0526
cafe
281f
0000
0000
05b1
cafe
2c07
0000
0000
05ee
cafe
3017
0000
0000
04e0
cafe
3408
0000
0000
05af
cafe
3818
0000
0000
0641
cafe
3c00
0000
0000
04f3
cafe
2010
0000
0000
04b1
cafe
2409
0000
0000
062b
cafe
2819
0000
0000
061f
cafe
2c01
0000
0000
05e9
cafe
3011
0000
0000
06a7
cafe
340a
0000
0000
06aa
cafe
381a
0000
0000
04f9
cafe
3c02
0000
0000
04f6
cafe
-
2012
0000
0000
0553
cafe
240b
0000
0000
0500
cafe
281b
0000
0000
058f
cafe
2c03
0000
0000
05ba
cafe
3013
0000
0000
0612
cafe
340c
0000
0000
0601
cafe
381c
0000
0000
0585
cafe
3c04
0000
0000
0552
cafe
2014
0000
0000
060e
cafe
240d
0000
0000
055c
cafe
281d
0000
0000
05a3
cafe
2c05
0000
0000
05bc
cafe
3015
0000
0000
0553
cafe
340e
0000
0000
05de
cafe
381e
0000
0000
056c
cafe
3c06
0000
0000
0685
cafe
2016
0000
0000
0672
cafe
240f
0000
0000
050e
cafe
281f
0000
0000
059b
cafe
2c07
0000
0000
05dc
cafe
3017
0000
0000
04c0
cafe
3408
0000
0000
0589
cafe
3818
0000
0000
0636
cafe
3c00
0000
0000
04e3
cafe
2010
0000
0000
048f
cafe
2409
0000
0000
0618
cafe
2819
0000
0000
0612
cafe
2c01
0000
0000
05d9
cafe
3011
0000
0000
0697
cafe
340a
0000
0000
0694
cafe
381a
0000
0000
04f6
cafe
3c02
0000
0000
04df
cafe
2012
0000
0000
0554
cafe
240b
0000
0000
04f6
cafe
281b
0000
0000
0585
cafe
2c03
0000
0000
059f
cafe
3013
0000
0000
05f6
cafe
340c
0000
0000
05e9
cafe
381c
0000
0000
056d
cafe
3c04
0000
0000
0541
cafe
2014
0000
0000
0608
cafe
240d
0000
0000
0547
cafe
281d
0000
0000
059e
cafe
2c05
0000
0000
05a4
cafe
3015
0000
0000
052e
cafe
340e
0000
0000
05e7
cafe
381e
0000
0000
0550
cafe
3c06
0000
0000
0670
cafe
2016
0000
0000
0674
cafe
240f
0000
0000
04fa
cafe
281f
0000
0000
0589
cafe
2c07
-
0000
0000
05cb
cafe
3017
0000
0000
04a5
cafe
3408
0000
0000
0579
cafe
3818
0000
0000
0625
cafe
3c00
0000
0000
04c2
cafe
2010
0000
0000
048a
cafe
2409
0000
0000
05fd
cafe
2819
0000
0000
0604
cafe
2c01
0000
0000
05c9
cafe
3011
0000
0000
0677
cafe
340a
0000
0000
067e
cafe
381a
0000
0000
04e2
cafe
3c02
0000
0000
04c9
cafe
2012
0000
0000
0528
cafe
240b
0000
0000
04d1
cafe
281b
0000
0000
056d
cafe
2c03
0000
0000
0581
cafe
3013
0000
0000
05f6
cafe
340c
0000
0000
05f5
cafe
381c
0000
0000
0568
cafe
3c04
0000
0000
0536
cafe
2014
0000
0000
05ed
cafe
240d
0000
0000
053f
cafe
281d
0000
0000
0582
cafe
2c05
0000
0000
058f
cafe
3015
0000
0000
0527
cafe
340e
0000
0000
05ca
cafe
381e
0000
0000
053e
cafe
3c06
0000
0000
0661
cafe
2016
0000
0000
0646
cafe
240f
0000
0000
04d6
cafe
281f
0000
0000
057b
cafe
2c07
0000
0000
05b2
cafe
3017
0000
0000
049f
cafe
3408
0000
0000
0567
cafe
3818
0000
0000
061b
cafe
3c00
0000
0000
04b3
cafe
2010
0000
0000
0473
cafe
2409
0000
0000
05f7
cafe
2819
0000
0000
05eb
cafe
2c01
0000
0000
05b0
cafe
3011
0000
0000
067f
cafe
340a
0000
0000
0674
cafe
381a
0000
0000
04c7
cafe
3c02
0000
0000
04bb
cafe
2012
0000
0000
0518
cafe
240b
0000
0000
04ca
cafe
281b
0000
0000
0558
cafe
2c03
0000
0000
0579
cafe
3013
0000
0000
05cf
cafe
340c
0000
0000
05cb
cafe
381c
0000
-
0000
055b
cafe
3c04
0000
0000
0527
cafe
2014
0000
0000
05d5
cafe
240d
0000
0000
052a
cafe
281d
0000
0000
0574
cafe
2c05
0000
0000
055b
cafe
3015
0000
0000
050d
cafe
340e
0000
0000
05ae
cafe
381e
0000
0000
0529
cafe
3c06
0000
0000
063d
cafe
2016
0000
0000
063d
cafe
240f
0000
0000
04c5
cafe
281f
0000
0000
0563
cafe
2c07
0000
0000
05a5
cafe
3017
0000
0000
0491
cafe
3408
0000
0000
0560
cafe
3818
0000
0000
05f4
cafe
3c00
0000
0000
049e
cafe
2010
0000
0000
0457
cafe
2409
0000
0000
05e5
cafe
2819
0000
0000
05e7
cafe
2c01
0000
0000
0597
cafe
3011
0000
0000
0673
cafe
340a
0000
0000
0658
cafe
381a
0000
0000
04bd
cafe
3c02
0000
0000
04b1
cafe
2012
0000
0000
0506
cafe
240b
0000
0000
04ad
cafe
281b
0000
0000
0548
cafe
2c03
0000
0000
0570
cafe
3013
0000
0000
05be
cafe
340c
0000
0000
05c1
cafe
381c
0000
0000
0555
cafe
3c04
0000
0000
050c
cafe
2014
0000
0000
05d0
cafe
240d
0000
0000
051e
cafe
281d
0000
0000
0557
cafe
2c05
0000
0000
0545
cafe
3015
0000
0000
04f8
cafe
340e
0000
0000
059b
cafe
381e
0000
0000
051b
cafe
3c06
0000
0000
0630
cafe
2016
0000
0000
062a
cafe
240f
0000
0000
04d6
cafe
281f
0000
0000
0553
cafe
2c07
0000
0000
0588
cafe
3017
0000
0000
047b
cafe
3408
0000
0000
0542
cafe
3818
0000
0000
05ed
cafe
3c00
0000
0000
0492
cafe
2010
0000
0000
0452
cafe
2409
0000
0000
-
05cf
cafe
2819
0000
0000
05ca
cafe
2c01
0000
0000
05a0
cafe
3011
0000
0000
0653
cafe
340a
0000
0000
0645
cafe
381a
0000
0000
049c
cafe
3c02
0000
0000
04a1
cafe
2012
0000
0000
0500
cafe
240b
0000
0000
049b
cafe
281b
0000
0000
053f
cafe
2c03
0000
0000
055d
cafe
3013
0000
0000
05af
cafe
340c
0000
0000
05a4
cafe
381c
0000
0000
0532
cafe
3c04
0000
0000
04f7
cafe
2014
0000
0000
05b7
cafe
240d
0000
0000
050d
cafe
281d
0000
0000
054b
cafe
2c05
0000
0000
053d
cafe
3015
0000
0000
04ea
cafe
340e
0000
0000
0583
cafe
381e
0000
0000
0514
cafe
3c06
0000
0000
0624
cafe
2016
0000
0000
0623
cafe
240f
0000
0000
04b2
cafe
281f
0000
0000
0540
cafe
2c07
0000
0000
057d
cafe
3017
0000
0000
0456
cafe
3408
0000
0000
0537
cafe
3818
0000
0000
05d8
cafe
3c00
0000
0000
0481
cafe
2010
0000
0000
043c
cafe
2409
0000
0000
05b4
cafe
2819
0000
0000
05bd
cafe
2c01
0000
0000
0585
cafe
3011
0000
0000
0643
cafe
340a
0000
0000
061b
cafe
381a
0000
0000
0487
cafe
3c02
0000
0000
048c
cafe
2012
0000
0000
04df
cafe
240b
0000
0000
0492
cafe
281b
0000
0000
052c
cafe
2c03
0000
0000
053b
cafe
3013
0000
0000
05a5
cafe
340c
0000
0000
0578
cafe
381c
0000
0000
051e
cafe
3c04
0000
0000
04e7
cafe
2014
0000
0000
059d
cafe
240d
0000
0000
04e4
cafe
281d
0000
0000
0539
cafe
2c05
0000
0000
052f
cafe
3015
0000
0000
04c9
-
cafe
340e
0000
0000
0571
cafe
381e
0000
0000
04fc
cafe
3c06
0000
0000
060d
cafe
2016
0000
0000
0600
cafe
240f
0000
0000
04a7
cafe
281f
0000
0000
052d
cafe
2c07
0000
0000
0580
cafe
3017
0000
0000
0443
cafe
3408
0000
0000
0520
cafe
3818
0000
0000
05bc
cafe
3c00
0000
0000
045b
cafe
2010
0000
0000
041e
cafe
2409
0000
0000
05a0
cafe
2819
0000
0000
05a9
cafe
2c01
0000
0000
056f
cafe
3011
0000
0000
062c
cafe
340a
0000
0000
0619
cafe
381a
0000
0000
047f
cafe
3c02
0000
0000
0474
cafe
2012
0000
0000
04c5
cafe
240b
0000
0000
0483
cafe
281b
0000
0000
0508
cafe
2c03
0000
0000
0541
cafe
3013
0000
0000
059a
cafe
340c
0000
0000
058c
cafe
381c
0000
0000
0511
cafe
3c04
0000
0000
04db
cafe
2014
0000
0000
0591
cafe
240d
0000
0000
04dd
cafe
281d
0000
0000
0532
cafe
2c05
0000
0000
0519
cafe
3015
0000
0000
04cd
cafe
340e
0000
0000
0561
cafe
381e
0000
0000
04e6
cafe
3c06
0000
0000
05ff
cafe
2016
0000
0000
05fb
cafe
240f
0000
0000
048b
cafe
281f
0000
0000
0512
cafe
2c07
0000
0000
055e
cafe
3017
0000
0000
043e
cafe
3408
0000
0000
050b
cafe
3818
0000
0000
05b5
cafe
3c00
0000
0000
0457
cafe
2010
0000
0000
0417
cafe
2409
0000
0000
058d
cafe
2819
0000
0000
058b
cafe
2c01
0000
0000
055d
cafe
3011
0000
0000
061f
cafe
340a
0000
0000
05f7
cafe
381a
0000
0000
0470
cafe
3c02
0000
0000
0472
cafe
-
