280d
0000
0000
07f7
cafe
2c1d
0000
0000
07f2
cafe
3005
0000
0000
07f3
cafe
3415
0000
0000
07f4
cafe
380e
0000
0000
07f7
cafe
3c1e
0000
0000
07f2
cafe
2006
0000
0000
07f4
cafe
2416
0000
0000
07f4
cafe
280f
0000
0000
07f7
cafe
2c1f
0000
0000
07f3
cafe
3007
0000
0000
07f3
cafe
3417
0000
0000
07f4
cafe
3808
0000
0000
07f7
cafe
3c18
0000
0000
07f2
cafe
2000
0000
0000
07f3
cafe
2410
0000
0000
07f4
cafe
2809
0000
0000
07f7
cafe
2c19
0000
0000
07f2
cafe
3001
0000
0000
07f3
cafe
3411
0000
0000
07f3
cafe
380a
0000
0000
07f7
cafe
3c1a
0000
0000
07f3
cafe
2002
0000
0000
07f3
cafe
2412
0000
0000
07f3
cafe
280b
0000
0000
07f7
cafe
2c1b
0000
0000
07f3
cafe
3003
0000
0000
07f3
cafe
3413
0000
0000
07f3
cafe
380c
0000
0000
07f7
cafe
3c1c
0000
0000
07f2
cafe
2004
0000
0000
07f3
cafe
2414
0000
0000
07f3
cafe
280d
0000
0000
07f7
cafe
2c1d
0000
0000
07f2
cafe
3005
0000
0000
07f3
cafe
3415
0000
0000
07f4
cafe
380e
0000
0000
07f7
cafe
3c1e
0000
0000
07f3
cafe
2006
0000
0000
07f3
cafe
2416
0000
0000
07f3
cafe
280f
0000
0000
07f7
cafe
2c1f
0000
0000
07f2
cafe
3007
0000
0000
07f3
cafe
3417
0000
0000
07f3
cafe
3808
0000
0000
07f6
cafe
3c18
0000
0000
07f2
cafe
2000
0000
0000
07f4
cafe
2410
0000
0000
07f4
cafe
2809
0000
0000
07f7
cafe
2c19
0000
0000
07f2
cafe
3001
0000
0000
07f3
cafe
3411
-
0000
0000
07f4
cafe
380a
0000
0000
07f7
cafe
3c1a
0000
0000
07f3
cafe
2002
0000
0000
07f3
cafe
2412
0000
0000
07f4
cafe
280b
0000
0000
07f7
cafe
2c1b
0000
0000
07f2
cafe
3003
0000
0000
07f4
cafe
3413
0000
0000
07f3
cafe
380c
0000
0000
07f7
cafe
3c1c
0000
0000
07f2
cafe
2004
0000
0000
07f3
cafe
2414
0000
0000
07f4
cafe
280d
0000
0000
07f7
cafe
2c1d
0000
0000
07f2
cafe
3005
0000
0000
07f3
cafe
3415
0000
0000
07f3
cafe
380e
0000
0000
07f7
cafe
3c1e
0000
0000
07f3
cafe
2006
0000
0000
07f3
cafe
2416
0000
0000
07f3
cafe
280f
0000
0000
07f7
cafe
2c1f
0000
0000
07f2
cafe
3007
0000
0000
07f3
cafe
3417
0000
0000
07f4
cafe
3808
0000
0000
07f7
cafe
3c18
0000
0000
07f2
cafe
2000
0000
0000
07f4
cafe
2410
0000
0000
07f3
cafe
2809
0000
0000
07f7
cafe
2c19
0000
0000
07f3
cafe
3001
0000
0000
07f3
cafe
3411
0000
0000
07f3
cafe
380a
0000
0000
07f7
cafe
3c1a
0000
0000
07f2
cafe
2002
0000
0000
07f3
cafe
2412
0000
0000
07f4
cafe
280b
0000
0000
07f7
cafe
2c1b
0000
0000
07f3
cafe
3003
0000
0000
07f4
cafe
3413
0000
0000
07f4
cafe
380c
0000
0000
07f7
cafe
3c1c
0000
0000
07f2
cafe
2004
0000
0000
07f3
cafe
2414
0000
0000
07f3
cafe
280d
0000
0000
07f7
cafe
2c1d
0000
0000
07f2
cafe
3005
0000
0000
07f3
cafe
3415
0000
0000
07f3
cafe
380e
0000
0000
07f7
cafe
3c1e
0000
0000
07f2
cafe
2006
0000
-
0000
07f3
cafe
2416
0000
0000
07f4
cafe
280f
0000
0000
07f7
cafe
2c1f
0000
0000
07f3
cafe
3007
0000
0000
07f3
cafe
3417
0000
0000
07f3
cafe
3808
0000
0000
07f7
cafe
3c18
0000
0000
07f2
cafe
2000
0000
0000
07f4
cafe
2410
0000
0000
07f4
cafe
2809
0000
0000
07f7
cafe
2c19
0000
0000
07f2
cafe
3001
0000
0000
07f4
cafe
3411
0000
0000
07f4
cafe
380a
0000
0000
07f7
cafe
3c1a
0000
0000
07f3
cafe
2002
0000
0000
07f3
cafe
2412
0000
0000
07f4
cafe
280b
0000
0000
07f7
cafe
2c1b
0000
0000
07f2
cafe
3003
0000
0000
07f3
cafe
3413
0000
0000
07f4
cafe
380c
0000
0000
07f7
cafe
3c1c
0000
0000
07f3
cafe
2004
0000
0000
07f4
cafe
2414
0000
0000
07f4
cafe
280d
0000
0000
07f7
cafe
2c1d
0000
0000
07f2
cafe
3005
0000
0000
07f3
cafe
3415
0000
0000
07f3
cafe
380e
0000
0000
07f6
cafe
3c1e
0000
0000
07f2
cafe
2006
0000
0000
07f3
cafe
2416
0000
0000
07f4
cafe
280f
0000
0000
07f7
cafe
2c1f
0000
0000
07f3
cafe
3007
0000
0000
07f3
cafe
3417
0000
0000
07f4
cafe
3808
0000
0000
07f7
cafe
3c18
0000
0000
07f2
cafe
2000
0000
0000
07f3
cafe
2410
0000
0000
07f4
cafe
2809
0000
0000
07f7
cafe
2c19
0000
0000
07f3
cafe
3001
0000
0000
07f4
cafe
3411
0000
0000
07f4
cafe
380a
0000
0000
07f7
cafe
3c1a
0000
0000
07f3
cafe
2002
0000
0000
07f3
cafe
2412
0000
0000
07f4
cafe
280b
0000
0000
07f7
cafe
2c1b
0000
0000
-
07f2
cafe
3003
0000
0000
07f4
cafe
3413
0000
0000
07f3
cafe
380c
0000
0000
07f7
cafe
3c1c
0000
0000
07f2
cafe
2004
0000
0000
07f4
cafe
2414
0000
0000
07f4
cafe
280d
0000
0000
07f7
cafe
2c1d
0000
0000
07f2
cafe
3005
0000
0000
07f3
cafe
3415
0000
0000
07f4
cafe
380e
0000
0000
07f7
cafe
3c1e
0000
0000
07f2
cafe
2006
0000
0000
07f3
cafe
2416
0000
0000
07f4
cafe
280f
0000
0000
07f7
cafe
2c1f
0000
0000
07f3
cafe
3007
0000
0000
07f3
cafe
3417
0000
0000
07f4
cafe
3808
0000
0000
07f7
cafe
3c18
0000
0000
07f2
cafe
2000
0000
0000
07f3
cafe
2410
0000
0000
07f3
cafe
2809
0000
0000
07f7
cafe
2c19
0000
0000
07f3
cafe
3001
0000
0000
07f4
cafe
3411
0000
0000
07f4
cafe
380a
0000
0000
07f7
cafe
3c1a
0000
0000
07f2
cafe
2002
0000
0000
07f4
cafe
2412
0000
0000
07f3
cafe
280b
0000
0000
07f7
cafe
2c1b
0000
0000
07f2
cafe
3003
0000
0000
07f3
cafe
3413
0000
0000
07f3
cafe
380c
0000
0000
07f6
cafe
3c1c
0000
0000
07f2
cafe
2004
0000
0000
07f3
cafe
2414
0000
0000
07f4
cafe
280d
0000
0000
07f6
cafe
2c1d
0000
0000
07f2
cafe
3005
0000
0000
07f3
cafe
3415
0000
0000
07f3
cafe
380e
0000
0000
07f7
cafe
3c1e
0000
0000
07f2
cafe
2006
0000
0000
07f3
cafe
2416
0000
0000
07f4
cafe
280f
0000
0000
07f7
cafe
2c1f
0000
0000
07f3
cafe
3007
0000
0000
07f3
cafe
3417
0000
0000
07f3
cafe
3808
0000
0000
07f6
-
cafe
3c18
0000
0000
07f2
cafe
2000
0000
0000
07f4
cafe
2410
0000
0000
07f4
cafe
2809
0000
0000
07f6
cafe
2c19
0000
0000
07f2
cafe
3001
0000
0000
07f3
cafe
3411
0000
0000
07f3
cafe
380a
0000
0000
07f7
cafe
3c1a
0000
0000
07f2
cafe
2002
0000
0000
07f3
cafe
2412
0000
0000
07f3
cafe
280b
0000
0000
07f7
cafe
2c1b
0000
0000
07f2
cafe
3003
0000
0000
07f3
cafe
3413
0000
0000
07f4
cafe
380c
0000
0000
07f7
cafe
3c1c
0000
0000
07f2
cafe
2004
0000
0000
07f3
cafe
2414
0000
0000
07f4
cafe
280d
0000
0000
07f7
cafe
2c1d
0000
0000
07f3
cafe
3005
0000
0000
07f3
cafe
3415
0000
0000
07f4
cafe
380e
0000
0000
07f7
cafe
3c1e
0000
0000
07f2
cafe
2006
0000
0000
07f4
cafe
2416
0000
0000
07f4
cafe
280f
0000
0000
07f7
cafe
2c1f
0000
0000
07f2
cafe
3007
0000
0000
07f3
cafe
3417
0000
0000
07f4
cafe
3808
0000
0000
07f7
cafe
3c18
0000
0000
07f3
cafe
2000
0000
0000
07f4
cafe
2410
0000
0000
07f4
cafe
2809
0000
0000
07f7
cafe
2c19
0000
0000
07f2
cafe
3001
0000
0000
07f4
cafe
3411
0000
0000
07f3
cafe
380a
0000
0000
07f7
cafe
3c1a
0000
0000
07f2
cafe
2002
0000
0000
07f3
cafe
2412
0000
0000
07f4
cafe
280b
0000
0000
07f7
cafe
2c1b
0000
0000
07f2
cafe
3003
0000
0000
07f4
cafe
3413
0000
0000
07f3
cafe
380c
0000
0000
07f7
cafe
3c1c
0000
0000
07f2
cafe
2004
0000
0000
07f4
cafe
2414
0000
0000
07f3
cafe
-
280d
0000
0000
07f7
cafe
2c1d
0000
0000
07f2
cafe
3005
0000
0000
07f3
cafe
3415
0000
0000
07f4
cafe
380e
0000
0000
07f7
cafe
3c1e
0000
0000
07f2
cafe
2006
0000
0000
07f3
cafe
2416
0000
0000
07f4
cafe
280f
0000
0000
07f7
cafe
2c1f
0000
0000
07f2
cafe
3007
0000
0000
07f3
cafe
3417
0000
0000
07f4
cafe
3808
0000
0000
07f7
cafe
3c18
0000
0000
07f3
cafe
2000
0000
0000
07f3
cafe
2410
0000
0000
07f3
cafe
2809
0000
0000
07f7
cafe
2c19
0000
0000
07f3
cafe
3001
0000
0000
07f3
cafe
3411
0000
0000
07f4
cafe
380a
0000
0000
07f7
cafe
3c1a
0000
0000
07f2
cafe
2002
0000
0000
07f3
cafe
2412
0000
0000
07f4
cafe
280b
0000
0000
07f7
cafe
2c1b
0000
0000
07f2
cafe
3003
0000
0000
07f3
cafe
3413
0000
0000
07f4
cafe
380c
0000
0000
07f7
cafe
3c1c
0000
0000
07f2
cafe
2004
0000
0000
07f3
cafe
2414
0000
0000
07f4
cafe
280d
0000
0000
07f7
cafe
2c1d
0000
0000
07f2
cafe
3005
0000
0000
07f3
cafe
3415
0000
0000
07f3
cafe
380e
0000
0000
07f7
cafe
3c1e
0000
0000
07f2
cafe
2006
0000
0000
07f3
cafe
2416
0000
0000
07f3
cafe
280f
0000
0000
07f7
cafe
2c1f
0000
0000
07f2
cafe
3007
0000
0000
07f3
cafe
3417
0000
0000
07f3
cafe
3808
0000
0000
07f7
cafe
3c18
0000
0000
07f2
cafe
2000
0000
0000
07f3
cafe
2410
0000
0000
07f3
cafe
2809
0000
0000
07f7
cafe
2c19
0000
0000
07f2
cafe
3001
0000
0000
07f3
cafe
3411
-
0000
0000
07f3
cafe
380a
0000
0000
07f7
cafe
3c1a
0000
0000
07f2
cafe
2002
0000
0000
07f3
cafe
2412
0000
0000
07f4
cafe
280b
0000
0000
07f7
cafe
2c1b
0000
0000
07f2
cafe
3003
0000
0000
07f3
cafe
3413
0000
0000
07f4
cafe
380c
0000
0000
07f7
cafe
3c1c
0000
0000
07f2
cafe
2004
0000
0000
07f3
cafe
2414
0000
0000
07f3
cafe
280d
0000
0000
07f7
cafe
2c1d
0000
0000
07f2
cafe
3005
0000
0000
07f3
cafe
3415
0000
0000
07f3
cafe
380e
0000
0000
07f7
cafe
3c1e
0000
0000
07f2
cafe
2006
0000
0000
07f3
cafe
2416
0000
0000
07f3
cafe
280f
0000
0000
07f7
cafe
2c1f
0000
0000
07f2
cafe
3007
0000
0000
07f4
cafe
3417
0000
0000
07f4
cafe
3808
0000
0000
07f7
cafe
3c18
0000
0000
07f2
cafe
2000
0000
0000
07f4
cafe
2410
0000
0000
07f3
cafe
2809
0000
0000
07f7
cafe
2c19
0000
0000
07f2
cafe
3001
0000
0000
07f3
cafe
3411
0000
0000
07f3
cafe
380a
0000
0000
07f7
cafe
3c1a
0000
0000
07f2
cafe
2002
0000
0000
07f4
cafe
2412
0000
0000
07f4
cafe
280b
0000
0000
07f7
cafe
2c1b
0000
0000
07f2
cafe
3003
0000
0000
07f3
cafe
3413
0000
0000
07f4
cafe
380c
0000
0000
07f7
cafe
3c1c
0000
0000
07f2
cafe
2004
0000
0000
07f4
cafe
2414
0000
0000
07f4
cafe
280d
0000
0000
07f7
cafe
2c1d
0000
0000
07f2
cafe
3005
0000
0000
07f4
cafe
3415
0000
0000
07f3
cafe
380e
0000
0000
07f7
cafe
3c1e
0000
0000
07f3
cafe
2006
0000
-
0000
07f3
cafe
2416
0000
0000
07f4
cafe
280f
0000
0000
07f7
cafe
2c1f
0000
0000
07f2
cafe
3007
0000
0000
07f3
cafe
3417
0000
0000
07f3
cafe
3808
0000
0000
07f7
cafe
3c18
0000
0000
07f3
cafe
2000
0000
0000
07f3
cafe
2410
0000
0000
07f3
cafe
2809
0000
0000
07f7
cafe
2c19
0000
0000
07f2
cafe
3001
0000
0000
07f4
cafe
3411
0000
0000
07f4
cafe
380a
0000
0000
07f7
cafe
3c1a
0000
0000
07f2
cafe
2002
0000
0000
07f3
cafe
2412
0000
0000
07f3
cafe
280b
0000
0000
07f7
cafe
2c1b
0000
0000
07f2
cafe
3003
0000
0000
07f3
cafe
3413
0000
0000
07f3
cafe
380c
0000
0000
07f7
cafe
3c1c
0000
0000
07f3
cafe
2004
0000
0000
07f3
cafe
2414
0000
0000
07f3
cafe
280d
0000
0000
07f7
cafe
2c1d
0000
0000
07f2
cafe
3005
0000
0000
07f3
cafe
3415
0000
0000
07f4
cafe
380e
0000
0000
07f7
cafe
3c1e
0000
0000
07f2
cafe
2006
0000
0000
07f3
cafe
2416
0000
0000
07f3
cafe
280f
0000
0000
07f7
cafe
2c1f
0000
0000
07f2
cafe
3007
0000
0000
07f4
cafe
3417
0000
0000
07f4
cafe
3808
0000
0000
07f7
cafe
3c18
0000
0000
07f3
cafe
2000
0000
0000
07f4
cafe
2410
0000
0000
07f3
cafe
2809
0000
0000
07f7
cafe
2c19
0000
0000
07f2
cafe
3001
0000
0000
07f4
cafe
3411
0000
0000
07f3
cafe
380a
0000
0000
07f7
cafe
3c1a
0000
0000
07f3
cafe
2002
0000
0000
07f3
cafe
2412
0000
0000
07f3
cafe
280b
0000
0000
07f7
cafe
2c1b
0000
0000
-
07f3
cafe
3003
0000
0000
07f3
cafe
3413
0000
0000
07f3
cafe
380c
0000
0000
07f7
cafe
3c1c
0000
0000
07f3
cafe
2004
0000
0000
07f3
cafe
2414
0000
0000
07f4
cafe
280d
0000
0000
07f7
cafe
2c1d
0000
0000
07f2
cafe
3005
0000
0000
07f4
cafe
3415
0000
0000
07f3
cafe
380e
0000
0000
07f7
cafe
3c1e
0000
0000
07f2
cafe
2006
0000
0000
07f3
cafe
2416
0000
0000
07f4
cafe
280f
0000
0000
07f7
cafe
2c1f
0000
0000
07f2
cafe
3007
0000
0000
07f3
cafe
3417
0000
0000
07f4
cafe
3808
0000
0000
07f7
cafe
3c18
0000
0000
07f3
cafe
2000
0000
0000
07f3
cafe
2410
0000
0000
07f3
cafe
2809
0000
0000
07f7
cafe
2c19
0000
0000
07f2
cafe
3001
0000
0000
07f3
cafe
3411
0000
0000
07f4
cafe
380a
0000
0000
07f7
cafe
3c1a
0000
0000
07f2
cafe
2002
0000
0000
07f4
cafe
2412
0000
0000
07f3
cafe
280b
0000
0000
07f7
cafe
2c1b
0000
0000
07f3
cafe
3003
0000
0000
07f4
cafe
3413
0000
0000
07f4
cafe
380c
0000
0000
07f7
cafe
3c1c
0000
0000
07f2
cafe
2004
0000
0000
07f4
cafe
2414
0000
0000
07f4
cafe
280d
0000
0000
07f7
cafe
2c1d
0000
0000
07f2
cafe
3005
0000
0000
07f3
cafe
3415
0000
0000
07f4
cafe
380e
0000
0000
07f7
cafe
3c1e
0000
0000
07f2
cafe
2006
0000
0000
07f3
cafe
2416
0000
0000
07f4
cafe
280f
0000
0000
07f7
cafe
2c1f
0000
0000
07f3
cafe
3007
0000
0000
07f3
cafe
3417
0000
0000
07f3
cafe
3808
0000
0000
07f7
-
cafe
3c18
0000
0000
07f2
cafe
2000
0000
0000
07f3
cafe
2410
0000
0000
07f3
cafe
2809
0000
0000
07f7
cafe
2c19
0000
0000
07f2
cafe
3001
0000
0000
07f3
cafe
3411
0000
0000
07f3
cafe
380a
0000
0000
07f7
cafe
3c1a
0000
0000
07f2
cafe
2002
0000
0000
07f3
cafe
2412
0000
0000
07f4
cafe
280b
0000
0000
07f7
cafe
2c1b
0000
0000
07f2
cafe
3003
0000
0000
07f3
cafe
3413
0000
0000
07f4
cafe
380c
0000
0000
07f7
cafe
3c1c
0000
0000
07f3
cafe
2004
0000
0000
07f3
cafe
2414
0000
0000
07f3
cafe
280d
0000
0000
07f7
cafe
2c1d
0000
0000
07f2
cafe
3005
0000
0000
07f3
cafe
3415
0000
0000
07f3
cafe
380e
0000
0000
07f7
cafe
3c1e
0000
0000
07f2
cafe
2006
0000
0000
07f4
cafe
2416
0000
0000
07f3
cafe
280f
0000
0000
07f7
cafe
2c1f
0000
0000
07f3
cafe
3007
0000
0000
07f3
cafe
3417
0000
0000
07f4
cafe
3808
0000
0000
07f7
cafe
3c18
0000
0000
07f2
cafe
2000
0000
0000
07f3
cafe
2410
0000
0000
07f3
cafe
2809
0000
0000
07f6
cafe
2c19
0000
0000
07f2
cafe
3001
0000
0000
07f3
cafe
3411
0000
0000
07f3
cafe
380a
0000
0000
07f7
cafe
3c1a
0000
0000
07f3
cafe
2002
0000
0000
07f3
cafe
2412
0000
0000
07f3
cafe
280b
0000
0000
07f7
cafe
2c1b
0000
0000
07f3
cafe
3003
0000
0000
07f3
cafe
3413
0000
0000
07f4
cafe
380c
0000
0000
07f7
cafe
3c1c
0000
0000
07f2
cafe
2004
0000
0000
07f4
cafe
2414
0000
0000
07f3
cafe
-
280d
0000
0000
07f7
cafe
2c1d
0000
0000
07f2
cafe
3005
0000
0000
07f3
cafe
3415
0000
0000
07f4
cafe
380e
0000
0000
07f7
cafe
3c1e
0000
0000
07f2
cafe
2006
0000
0000
07f4
cafe
2416
0000
0000
07f4
cafe
280f
0000
0000
07f7
cafe
2c1f
0000
0000
07f2
cafe
3007
0000
0000
07f4
cafe
3417
0000
0000
07f4
cafe
3808
0000
0000
07f7
cafe
3c18
0000
0000
07f2
cafe
2000
0000
0000
07f3
cafe
2410
0000
0000
07f4
cafe
2809
0000
0000
07f7
cafe
2c19
0000
0000
07f2
cafe
3001
0000
0000
07f3
cafe
3411
0000
0000
07f4
cafe
380a
0000
0000
07f7
cafe
3c1a
0000
0000
07f2
cafe
2002
0000
0000
07f3
cafe
2412
0000
0000
07f3
cafe
280b
0000
0000
07f7
cafe
2c1b
0000
0000
07f2
cafe
3003
0000
0000
07f3
cafe
3413
0000
0000
07f3
cafe
380c
0000
0000
07f7
cafe
3c1c
0000
0000
07f2
cafe
2004
0000
0000
07f3
cafe
2414
0000
0000
07f4
cafe
280d
0000
0000
07f7
cafe
2c1d
0000
0000
07f3
cafe
3005
0000
0000
07f3
cafe
3415
0000
0000
07f4
cafe
380e
0000
0000
07f7
cafe
3c1e
0000
0000
07f2
cafe
2006
0000
0000
07f3
cafe
2416
0000
0000
07f4
cafe
280f
0000
0000
07f7
cafe
2c1f
0000
0000
07f4
cafe
3007
0000
0000
07f3
cafe
3417
0000
0000
07f4
cafe
3808
0000
0000
07f7
cafe
3c18
0000
0000
07f2
cafe
2000
0000
0000
07f3
cafe
2410
0000
0000
07f3
cafe
2809
0000
0000
07f7
cafe
2c19
0000
0000
07f2
cafe
3001
0000
0000
07f3
cafe
3411
-
0000
0000
07f4
cafe
380a
0000
0000
07f7
cafe
3c1a
0000
0000
07f2
cafe
2002
0000
0000
07f3
cafe
2412
0000
0000
07f3
cafe
280b
0000
0000
07f7
cafe
2c1b
0000
0000
07f3
cafe
3003
0000
0000
07f3
cafe
3413
0000
0000
07f4
cafe
380c
0000
0000
07f7
cafe
3c1c
0000
0000
07f2
cafe
2004
0000
0000
07f3
cafe
2414
0000
0000
07f3
cafe
280d
0000
0000
07f7
cafe
2c1d
0000
0000
07f2
cafe
3005
0000
0000
07f3
cafe
3415
0000
0000
07f4
cafe
380e
0000
0000
07f7
cafe
3c1e
0000
0000
07f2
cafe
2006
0000
0000
07f3
cafe
2416
0000
0000
07f3
cafe
280f
0000
0000
07f7
cafe
2c1f
0000
0000
07f3
cafe
3007
0000
0000
07f4
cafe
3417
0000
0000
07f3
cafe
3808
0000
0000
07f7
cafe
3c18
0000
0000
07f3
cafe
2000
0000
0000
07f3
cafe
2410
0000
0000
07f3
cafe
2809
0000
0000
07f7
cafe
2c19
0000
0000
07f2
cafe
3001
0000
0000
07f3
cafe
3411
0000
0000
07f3
cafe
380a
0000
0000
07f7
cafe
3c1a
0000
0000
07f2
cafe
2002
0000
0000
07f3
cafe
2412
0000
0000
07f4
cafe
280b
0000
0000
07f7
cafe
2c1b
0000
0000
07f2
cafe
3003
0000
0000
07f3
cafe
3413
0000
0000
07f3
cafe
380c
0000
0000
07f7
cafe
3c1c
0000
0000
07f2
cafe
2004
0000
0000
07f3
cafe
2414
0000
0000
07f3
cafe
280d
0000
0000
07f7
cafe
2c1d
0000
0000
07f2
cafe
3005
0000
0000
07f3
cafe
3415
0000
0000
07f4
cafe
380e
0000
0000
07f7
cafe
3c1e
0000
0000
07f2
cafe
2006
0000
-
0000
07f3
cafe
2416
0000
0000
07f4
cafe
280f
0000
0000
07f7
cafe
2c1f
0000
0000
07f2
cafe
3007
0000
0000
07f3
cafe
3417
0000
0000
07f3
cafe
3808
0000
0000
07f7
cafe
3c18
0000
0000
07f3
cafe
2000
0000
0000
07f3
cafe
2410
0000
0000
07f3
cafe
2809
0000
0000
07f7
cafe
2c19
0000
0000
07f2
cafe
3001
0000
0000
07f3
cafe
3411
0000
0000
07f3
cafe
380a
0000
0000
07f6
cafe
3c1a
0000
0000
07f2
cafe
2002
0000
0000
07f3
cafe
2412
0000
0000
07f4
cafe
280b
0000
0000
07f7
cafe
2c1b
0000
0000
07f2
cafe
3003
0000
0000
07f4
cafe
3413
0000
0000
07f4
cafe
380c
0000
0000
07f7
cafe
3c1c
0000
0000
07f2
cafe
2004
0000
0000
07f3
cafe
2414
0000
0000
07f3
cafe
280d
0000
0000
07f7
cafe
2c1d
0000
0000
07f2
cafe
3005
0000
0000
07f3
cafe
3415
0000
0000
07f4
cafe
380e
0000
0000
07f7
cafe
3c1e
0000
0000
07f2
cafe
2006
0000
0000
07f3
cafe
2416
0000
0000
07f3
cafe
280f
0000
0000
07f7
cafe
2c1f
0000
0000
07f3
cafe
3007
0000
0000
07f3
cafe
3417
0000
0000
07f4
cafe
3808
0000
0000
07f7
cafe
3c18
0000
0000
07f2
cafe
2000
0000
0000
07f3
cafe
2410
0000
0000
07f4
cafe
2809
0000
0000
07f7
cafe
2c19
0000
0000
07f2
cafe
3001
0000
0000
07f3
cafe
3411
0000
0000
07f3
cafe
380a
0000
0000
07f7
cafe
3c1a
0000
0000
07f3
cafe
2002
0000
0000
07f4
cafe
2412
0000
0000
07f4
cafe
280b
0000
0000
07f7
cafe
2c1b
0000
0000
-
07f2
cafe
3003
0000
0000
07f3
cafe
3413
0000
0000
07f4
cafe
380c
0000
0000
07f7
cafe
3c1c
0000
0000
07f2
cafe
2004
0000
0000
07f3
cafe
2414
0000
0000
07f4
cafe
280d
0000
0000
07f7
cafe
2c1d
0000
0000
07f3
cafe
3005
0000
0000
07f3
cafe
3415
0000
0000
07f4
cafe
380e
0000
0000
07f7
cafe
3c1e
0000
0000
07f2
cafe
2006
0000
0000
07f3
cafe
2416
0000
0000
07f3
cafe
280f
0000
0000
07f7
cafe
2c1f
0000
0000
07f2
cafe
3007
0000
0000
07f3
cafe
3417
0000
0000
07f4
cafe
3808
0000
0000
07f7
cafe
3c18
0000
0000
07f2
cafe
2000
0000
0000
07f4
cafe
2410
0000
0000
07f3
cafe
2809
0000
0000
07f7
cafe
2c19
0000
0000
07f2
cafe
3001
0000
0000
07f4
cafe
3411
0000
0000
07f3
cafe
380a
0000
0000
07f7
cafe
3c1a
0000
0000
07f3
cafe
2002
0000
0000
07f3
cafe
2412
0000
0000
07f3
cafe
280b
0000
0000
07f7
cafe
2c1b
0000
0000
07f2
cafe
3003
0000
0000
07f3
cafe
3413
0000
0000
07f3
cafe
380c
0000
0000
07f7
cafe
3c1c
0000
0000
07f2
cafe
2004
0000
0000
07f3
cafe
2414
0000
0000
07f4
cafe
280d
0000
0000
07f7
cafe
2c1d
0000
0000
07f2
cafe
3005
0000
0000
07f3
cafe
3415
0000
0000
07f3
cafe
380e
0000
0000
07f7
cafe
3c1e
0000
0000
07f2
cafe
2006
0000
0000
07f3
cafe
2416
0000
0000
07f3
cafe
280f
0000
0000
07f7
cafe
2c1f
0000
0000
07f2
cafe
3007
0000
0000
07f4
cafe
3417
0000
0000
07f3
cafe
3808
0000
0000
07f7
-
cafe
3c18
0000
0000
07f2
cafe
2000
0000
0000
07f3
cafe
2410
0000
0000
07f4
cafe
2809
0000
0000
07f7
cafe
2c19
0000
0000
07f2
cafe
3001
0000
0000
07f3
cafe
3411
0000
0000
07f4
cafe
380a
0000
0000
07f7
cafe
3c1a
0000
0000
07f3
cafe
2002
0000
0000
07f3
cafe
2412
0000
0000
07f4
cafe
280b
0000
0000
07f6
cafe
2c1b
0000
0000
07f2
cafe
3003
0000
0000
07f4
cafe
3413
0000
0000
07f4
cafe
380c
0000
0000
07f7
cafe
3c1c
0000
0000
07f2
cafe
2004
0000
0000
07f4
cafe
2414
0000
0000
07f3
cafe
280d
0000
0000
07f7
cafe
2c1d
0000
0000
07f2
cafe
3005
0000
0000
07f4
cafe
3415
0000
0000
07f4
cafe
380e
0000
0000
07f7
cafe
3c1e
0000
0000
07f2
cafe
2006
0000
0000
07f3
cafe
2416
0000
0000
07f3
cafe
280f
0000
0000
07f7
cafe
2c1f
0000
0000
07f2
cafe
3007
0000
0000
07f3
cafe
3417
0000
0000
07f3
cafe
3808
0000
0000
07f7
cafe
3c18
0000
0000
07f3
cafe
2000
0000
0000
07f3
cafe
2410
0000
0000
07f4
cafe
2809
0000
0000
07f7
cafe
2c19
0000
0000
07f2
cafe
3001
0000
0000
07f3
cafe
3411
0000
0000
07f4
cafe
380a
0000
0000
07f7
cafe
3c1a
0000
0000
07f2
cafe
2002
0000
0000
07f3
cafe
2412
0000
0000
07f4
cafe
280b
0000
0000
07f7
cafe
2c1b
0000
0000
07f3
cafe
3003
0000
0000
07f3
cafe
3413
0000
0000
07f4
cafe
380c
0000
0000
07f7
cafe
3c1c
0000
0000
07f2
cafe
2004
0000
0000
07f4
cafe
2414
0000
0000
07f3
cafe
-
280d
0000
0000
07f7
cafe
2c1d
0000
0000
07f2
cafe
3005
0000
0000
07f3
cafe
3415
0000
0000
07f3
cafe
380e
0000
0000
07f7
cafe
3c1e
0000
0000
07f3
cafe
2006
0000
0000
07f3
cafe
2416
0000
0000
07f3
cafe
280f
0000
0000
07f7
cafe
2c1f
0000
0000
07f3
cafe
3007
0000
0000
07f3
cafe
3417
0000
0000
07f3
cafe
3808
0000
0000
07f7
cafe
3c18
0000
0000
07f3
cafe
2000
0000
0000
07f3
cafe
2410
0000
0000
07f3
cafe
2809
0000
0000
07f7
cafe
2c19
0000
0000
07f2
cafe
3001
0000
0000
07f3
cafe
3411
0000
0000
07f4
cafe
380a
0000
0000
07f7
cafe
3c1a
0000
0000
07f3
cafe
2002
0000
0000
07f3
cafe
2412
0000
0000
07f4
cafe
280b
0000
0000
07f7
cafe
2c1b
0000
0000
07f2
cafe
3003
0000
0000
07f3
cafe
3413
0000
0000
07f4
cafe
380c
0000
0000
07f7
cafe
3c1c
0000
0000
07f2
cafe
2004
0000
0000
07f3
cafe
2414
0000
0000
07f3
cafe
280d
0000
0000
07f7
cafe
2c1d
0000
0000
07f2
cafe
3005
0000
0000
07f3
cafe
3415
0000
0000
07f4
cafe
380e
0000
0000
07f7
cafe
3c1e
0000
0000
07f3
cafe
2006
0000
0000
07f3
cafe
2416
0000
0000
07f3
cafe
280f
0000
0000
07f7
cafe
2c1f
0000
0000
07f2
cafe
3007
0000
0000
07f3
cafe
3417
0000
0000
07f3
cafe
3808
0000
0000
07f7
cafe
3c18
0000
0000
07f3
cafe
2000
0000
0000
07f3
cafe
2410
0000
0000
07f3
cafe
2809
0000
0000
07f7
cafe
2c19
0000
0000
07f2
cafe
3001
0000
0000
07f3
cafe
3411
-
0000
0000
07f3
cafe
380a
0000
0000
07f7
cafe
3c1a
0000
0000
07f3
cafe
2002
0000
0000
07f3
cafe
2412
0000
0000
07f3
cafe
280b
0000
0000
07f7
cafe
2c1b
0000
0000
07f3
cafe
3003
0000
0000
07f3
cafe
3413
0000
0000
07f3
cafe
380c
0000
0000
07f7
cafe
3c1c
0000
0000
07f2
cafe
2004
0000
0000
07f3
cafe
2414
0000
0000
07f3
cafe
280d
0000
0000
07f7
cafe
2c1d
0000
0000
07f3
cafe
3005
0000
0000
07f3
cafe
3415
0000
0000
07f4
cafe
380e
0000
0000
07f7
cafe
3c1e
0000
0000
07f3
cafe
2006
0000
0000
07f3
cafe
2416
0000
0000
07f3
cafe
280f
0000
0000
07f7
cafe
2c1f
0000
0000
07f3
cafe
3007
0000
0000
07f3
cafe
3417
0000
0000
07f4
cafe
3808
0000
0000
07f7
cafe
3c18
0000
0000
07f3
cafe
2000
0000
0000
07f3
cafe
2410
0000
0000
07f3
cafe
2809
0000
0000
07f7
cafe
2c19
0000
0000
07f2
cafe
3001
0000
0000
07f4
cafe
3411
0000
0000
07f3
cafe
380a
0000
0000
07f7
cafe
3c1a
0000
0000
07f3
cafe
2002
0000
0000
07f4
cafe
2412
0000
0000
07f4
cafe
280b
0000
0000
07f7
cafe
2c1b
0000
0000
07f2
cafe
3003
0000
0000
07f3
cafe
3413
0000
0000
07f3
cafe
380c
0000
0000
07f7
cafe
3c1c
0000
0000
07f2
cafe
2004
0000
0000
07f4
cafe
2414
0000
0000
07f3
cafe
280d
0000
0000
07f7
cafe
2c1d
0000
0000
07f2
cafe
3005
0000
0000
07f3
cafe
3415
0000
0000
07f3
cafe
380e
0000
0000
07f7
cafe
3c1e
0000
0000
07f3
cafe
2006
0000
-
0000
07f3
cafe
2416
0000
0000
07f3
cafe
280f
0000
0000
07f7
cafe
2c1f
0000
0000
07f2
cafe
3007
0000
0000
07f3
cafe
3417
0000
0000
07f4
cafe
3808
0000
0000
07f6
cafe
3c18
0000
0000
07f2
cafe
2000
0000
0000
07f4
cafe
2410
0000
0000
07f4
cafe
2809
0000
0000
07f7
cafe
2c19
0000
0000
07f2
cafe
3001
0000
0000
07f3
cafe
3411
0000
0000
07f3
cafe
380a
0000
0000
07f7
cafe
3c1a
0000
0000
07f2
cafe
2002
0000
0000
07f3
cafe
2412
0000
0000
07f3
cafe
280b
0000
0000
07f7
cafe
2c1b
0000
0000
07f2
cafe
3003
0000
0000
07f3
cafe
3413
0000
0000
07f3
cafe
380c
0000
0000
07f7
cafe
3c1c
0000
0000
07f3
cafe
2004
0000
0000
07f3
cafe
2414
0000
0000
07f3
cafe
280d
0000
0000
07f7
cafe
2c1d
0000
0000
07f2
cafe
3005
0000
0000
07f3
cafe
3415
0000
0000
07f3
cafe
380e
0000
0000
07f7
cafe
3c1e
0000
0000
07f3
cafe
2006
0000
0000
07f3
cafe
2416
0000
0000
07f3
cafe
280f
0000
0000
07f7
cafe
2c1f
0000
0000
07f2
cafe
3007
0000
0000
07f3
cafe
3417
0000
0000
07f3
cafe
3808
0000
0000
07f7
cafe
3c18
0000
0000
07f2
cafe
2000
0000
0000
07f3
cafe
2410
0000
0000
07f4
cafe
2809
0000
0000
07f7
cafe
2c19
0000
0000
07f2
cafe
3001
0000
0000
07f3
cafe
3411
0000
0000
07f4
cafe
380a
0000
0000
07f7
cafe
3c1a
0000
0000
07f2
cafe
2002
0000
0000
07f3
cafe
2412
0000
0000
07f3
cafe
280b
0000
0000
07f7
cafe
2c1b
0000
0000
-
07f2
cafe
3003
0000
0000
07f3
cafe
3413
0000
0000
07f3
cafe
380c
0000
0000
07f7
cafe
3c1c
0000
0000
07f2
cafe
2004
0000
0000
07f3
cafe
2414
0000
0000
07f4
cafe
280d
0000
0000
07f7
cafe
2c1d
0000
0000
07f3
cafe
3005
0000
0000
07f3
cafe
3415
0000
0000
07f4
cafe
380e
0000
0000
07f7
cafe
3c1e
0000
0000
07f2
cafe
2006
0000
0000
07f3
cafe
2416
0000
0000
07f4
cafe
280f
0000
0000
07f7
cafe
2c1f
0000
0000
07f2
cafe
3007
0000
0000
07f3
cafe
3417
0000
0000
07f4
cafe
3808
0000
0000
07f7
cafe
3c18
0000
0000
07f2
cafe
2000
0000
0000
07f3
cafe
2410
0000
0000
07f3
cafe
2809
0000
0000
07f6
cafe
2c19
0000
0000
07f2
cafe
3001
0000
0000
07f3
cafe
3411
0000
0000
07f3
cafe
380a
0000
0000
07f7
cafe
3c1a
0000
0000
07f2
cafe
2002
0000
0000
07f3
cafe
2412
0000
0000
07f4
cafe
280b
0000
0000
07f7
cafe
2c1b
0000
0000
07f3
cafe
3003
0000
0000
07f3
cafe
3413
0000
0000
07f4
cafe
380c
0000
0000
07f7
cafe
3c1c
0000
0000
07f3
cafe
2004
0000
0000
07f3
cafe
2414
0000
0000
07f3
cafe
280d
0000
0000
07f7
cafe
2c1d
0000
0000
07f2
cafe
3005
0000
0000
07f3
cafe
3415
0000
0000
07f3
cafe
380e
0000
0000
07f7
cafe
3c1e
0000
0000
07f3
cafe
2006
0000
0000
07f3
cafe
2416
0000
0000
07f4
cafe
280f
0000
0000
07f7
cafe
2c1f
0000
0000
07f3
cafe
3007
0000
0000
07f3
cafe
3417
0000
0000
07f3
cafe
3808
0000
0000
07f7
-
cafe
3c18
0000
0000
07f2
cafe
2000
0000
0000
07f3
cafe
2410
0000
0000
07f3
cafe
2809
0000
0000
07f6
cafe
2c19
0000
0000
07f3
cafe
3001
0000
0000
07f4
cafe
3411
0000
0000
07f4
cafe
380a
0000
0000
07f7
cafe
3c1a
0000
0000
07f2
cafe
2002
0000
0000
07f3
cafe
2412
0000
0000
07f4
cafe
280b
0000
0000
07f7
cafe
2c1b
0000
0000
07f2
cafe
3003
0000
0000
07f3
cafe
3413
0000
0000
07f3
cafe
380c
0000
0000
07f7
cafe
3c1c
0000
0000
07f3
cafe
2004
0000
0000
07f3
cafe
2414
0000
0000
07f4
cafe
280d
0000
0000
07f7
cafe
2c1d
0000
0000
07f3
cafe
3005
0000
0000
07f4
cafe
3415
0000
0000
07f4
cafe
380e
0000
0000
07f7
cafe
3c1e
0000
0000
07f2
cafe
2006
0000
0000
07f3
cafe
2416
0000
0000
07f3
cafe
280f
0000
0000
07f7
cafe
2c1f
0000
0000
07f2
cafe
3007
0000
0000
07f4
cafe
3417
0000
0000
07f4
cafe
3808
0000
0000
07f7
cafe
3c18
0000
0000
07f2
cafe
2000
0000
0000
07f3
cafe
2410
0000
0000
07f4
cafe
2809
0000
0000
07f7
cafe
2c19
0000
0000
07f3
cafe
3001
0000
0000
07f4
cafe
3411
0000
0000
07f3
cafe
380a
0000
0000
07f6
cafe
3c1a
0000
0000
07f2
cafe
2002
0000
0000
07f3
cafe
2412
0000
0000
07f4
cafe
280b
0000
0000
07f7
cafe
2c1b
0000
0000
07f3
cafe
3003
0000
0000
07f3
cafe
3413
0000
0000
07f4
cafe
380c
0000
0000
07f7
cafe
3c1c
0000
0000
07f3
cafe
2004
0000
0000
07f3
cafe
2414
0000
0000
07f4
cafe
-
280d
0000
0000
07f7
cafe
2c1d
0000
0000
07f3
cafe
3005
0000
0000
07f4
cafe
3415
0000
0000
07f4
cafe
380e
0000
0000
07f7
cafe
3c1e
0000
0000
07f3
cafe
2006
0000
0000
07f3
cafe
2416
0000
0000
07f3
cafe
280f
0000
0000
07f7
cafe
2c1f
0000
0000
07f3
cafe
3007
0000
0000
07f3
cafe
3417
0000
0000
07f4
cafe
3808
0000
0000
07f6
cafe
3c18
0000
0000
07f3
cafe
2000
0000
0000
07f3
cafe
2410
0000
0000
07f4
cafe
2809
0000
0000
07f7
cafe
2c19
0000
0000
07f2
cafe
3001
0000
0000
07f3
cafe
3411
0000
0000
07f3
cafe
380a
0000
0000
07f7
cafe
3c1a
0000
0000
07f2
cafe
2002
0000
0000
07f3
cafe
2412
0000
0000
07f4
cafe
280b
0000
0000
07f7
cafe
2c1b
0000
0000
07f3
cafe
3003
0000
0000
07f3
cafe
3413
0000
0000
07f3
cafe
380c
0000
0000
07f7
cafe
3c1c
0000
0000
07f2
cafe
2004
0000
0000
07f3
cafe
2414
0000
0000
07f3
cafe
280d
0000
0000
07f7
cafe
2c1d
0000
0000
07f2
cafe
3005
0000
0000
07f3
cafe
3415
0000
0000
07f3
cafe
380e
0000
0000
07f7
cafe
3c1e
0000
0000
07f2
cafe
2006
0000
0000
07f4
cafe
2416
0000
0000
07f4
cafe
280f
0000
0000
07f7
cafe
2c1f
0000
0000
07f2
cafe
3007
0000
0000
07f3
cafe
3417
0000
0000
07f4
cafe
3808
0000
0000
07f7
cafe
3c18
0000
0000
07f2
cafe
2000
0000
0000
07f3
cafe
2410
0000
0000
07f3
cafe
2809
0000
0000
07f7
cafe
2c19
0000
0000
07f2
cafe
3001
0000
0000
07f3
cafe
3411
-
0000
0000
07f3
cafe
380a
0000
0000
07f6
cafe
3c1a
0000
0000
07f2
cafe
2002
0000
0000
07f3
cafe
2412
0000
0000
07f3
cafe
280b
0000
0000
07f7
cafe
2c1b
0000
0000
07f3
cafe
3003
0000
0000
07f3
cafe
3413
0000
0000
07f3
cafe
380c
0000
0000
07f7
cafe
3c1c
0000
0000
07f2
cafe
2004
0000
0000
07f4
cafe
2414
0000
0000
07f4
cafe
280d
0000
0000
07f7
cafe
2c1d
0000
0000
07f2
cafe
3005
0000
0000
07f3
cafe
3415
0000
0000
07f4
cafe
380e
0000
0000
07f7
cafe
3c1e
0000
0000
07f3
cafe
2006
0000
0000
07f3
cafe
2416
0000
0000
07f4
cafe
280f
0000
0000
07f7
cafe
2c1f
0000
0000
07f2
cafe
3007
0000
0000
07f3
cafe
3417
0000
0000
07f3
cafe
3808
0000
0000
07f7
cafe
3c18
0000
0000
07f2
cafe
2000
0000
0000
07f3
cafe
2410
0000
0000
07f4
cafe
2809
0000
0000
07f7
cafe
2c19
0000
0000
07f2
cafe
3001
0000
0000
07f3
cafe
3411
0000
0000
07f4
cafe
380a
0000
0000
07f7
cafe
3c1a
0000
0000
07f2
cafe
2002
0000
0000
07f3
cafe
2412
0000
0000
07f4
cafe
280b
0000
0000
07f7
cafe
2c1b
0000
0000
07f2
cafe
3003
0000
0000
07f3
cafe
3413
0000
0000
07f4
cafe
380c
0000
0000
07f7
cafe
3c1c
0000
0000
07f2
cafe
2004
0000
0000
07f4
cafe
2414
0000
0000
07f4
cafe
280d
0000
0000
07f7
cafe
2c1d
0000
0000
07f2
cafe
3005
0000
0000
07f3
cafe
3415
0000
0000
07f4
cafe
380e
0000
0000
07f7
cafe
3c1e
0000
0000
07f3
cafe
2006
0000
-
0000
07f3
cafe
2416
0000
0000
07f3
cafe
280f
0000
0000
07f7
cafe
2c1f
0000
0000
07f2
cafe
3007
0000
0000
07f3
cafe
3417
0000
0000
07f4
cafe
3808
0000
0000
07f7
cafe
3c18
0000
0000
07f2
cafe
2000
0000
0000
07f3
cafe
2410
0000
0000
07f4
cafe
2809
0000
0000
07f7
cafe
2c19
0000
0000
07f2
cafe
3001
0000
0000
07f3
cafe
3411
0000
0000
07f4
cafe
380a
0000
0000
07f7
cafe
3c1a
0000
0000
07f2
cafe
2002
0000
0000
07f3
cafe
2412
0000
0000
07f4
cafe
280b
0000
0000
07f7
cafe
2c1b
0000
0000
07f2
cafe
3003
0000
0000
07f3
cafe
3413
0000
0000
07f4
cafe
380c
0000
0000
07f6
cafe
3c1c
0000
0000
07f2
cafe
2004
0000
0000
07f3
cafe
2414
0000
0000
07f4
cafe
280d
0000
0000
07f6
cafe
2c1d
0000
0000
07f3
cafe
3005
0000
0000
07f4
cafe
3415
0000
0000
07f4
cafe
380e
0000
0000
07f7
cafe
3c1e
0000
0000
07f3
cafe
2006
0000
0000
07f3
cafe
2416
0000
0000
07f4
cafe
280f
0000
0000
07f6
cafe
2c1f
0000
0000
07f3
cafe
3007
0000
0000
07f4
cafe
3417
0000
0000
07f4
cafe
3808
0000
0000
07f6
cafe
3c18
0000
0000
07f2
cafe
2000
0000
0000
07f3
cafe
2410
0000
0000
07f3
cafe
2809
0000
0000
07f7
cafe
2c19
0000
0000
07f2
cafe
3001
0000
0000
07f3
cafe
3411
0000
0000
07f3
cafe
380a
0000
0000
07f7
cafe
3c1a
0000
0000
07f2
cafe
2002
0000
0000
07f3
cafe
2412
0000
0000
07f3
cafe
280b
0000
0000
07f7
cafe
2c1b
0000
0000
-
07f2
cafe
3003
0000
0000
07f4
cafe
3413
0000
0000
07f3
cafe
380c
0000
0000
07f7
cafe
3c1c
0000
0000
07f3
cafe
2004
0000
0000
07f4
cafe
2414
0000
0000
07f3
cafe
280d
0000
0000
07f7
cafe
2c1d
0000
0000
07f2
cafe
3005
0000
0000
07f4
cafe
3415
0000
0000
07f4
cafe
380e
0000
0000
07f7
cafe
3c1e
0000
0000
07f3
cafe
2006
0000
0000
07f3
cafe
2416
0000
0000
07f4
cafe
280f
0000
0000
07f7
cafe
2c1f
0000
0000
07f2
cafe
3007
0000
0000
07f3
cafe
3417
0000
0000
07f3
cafe
3808
0000
0000
07f7
cafe
3c18
0000
0000
07f3
cafe
2000
0000
0000
07f3
cafe
2410
0000
0000
07f4
cafe
2809
0000
0000
07f7
cafe
2c19
0000
0000
07f3
cafe
3001
0000
0000
07f4
cafe
3411
0000
0000
07f3
cafe
380a
0000
0000
07f6
cafe
3c1a
0000
0000
07f3
cafe
2002
0000
0000
07f3
cafe
2412
0000
0000
07f3
cafe
280b
0000
0000
07f7
cafe
2c1b
0000
0000
07f3
cafe
3003
0000
0000
07f4
cafe
3413
0000
0000
07f3
cafe
380c
0000
0000
07f7
cafe
3c1c
0000
0000
07f3
cafe
2004
0000
0000
07f4
cafe
2414
0000
0000
07f4
cafe
280d
0000
0000
07f7
cafe
2c1d
0000
0000
07f2
cafe
3005
0000
0000
07f3
cafe
3415
0000
0000
07f4
cafe
380e
0000
0000
07f7
cafe
3c1e
0000
0000
07f2
cafe
2006
0000
0000
07f3
cafe
2416
0000
0000
07f3
cafe
280f
0000
0000
07f7
cafe
2c1f
0000
0000
07f3
cafe
3007
0000
0000
07f3
cafe
3417
0000
0000
07f3
cafe
3808
0000
0000
07f7
-
cafe
3c18
0000
0000
07f2
cafe
2000
0000
0000
07f3
cafe
2410
0000
0000
07f3
cafe
2809
0000
0000
07f6
cafe
2c19
0000
0000
07f2
cafe
3001
0000
0000
07f4
cafe
3411
0000
0000
07f4
cafe
380a
0000
0000
07f7
cafe
3c1a
0000
0000
07f2
cafe
2002
0000
0000
07f4
cafe
2412
0000
0000
07f3
cafe
280b
0000
0000
07f7
cafe
2c1b
0000
0000
07f3
cafe
3003
0000
0000
07f4
cafe
3413
0000
0000
07f3
cafe
380c
0000
0000
07f7
cafe
3c1c
0000
0000
07f3
cafe
2004
0000
0000
07f3
cafe
2414
0000
0000
07f4
cafe
280d
0000
0000
07f7
cafe
2c1d
0000
0000
07f3
cafe
3005
0000
0000
07f4
cafe
3415
0000
0000
07f4
cafe
380e
0000
0000
07f6
cafe
3c1e
0000
0000
07f2
cafe
2006
0000
0000
07f3
cafe
2416
0000
0000
07f4
cafe
280f
0000
0000
07f7
cafe
2c1f
0000
0000
07f2
cafe
3007
0000
0000
07f3
cafe
3417
0000
0000
07f4
cafe
3808
0000
0000
07f7
cafe
3c18
0000
0000
07f2
cafe
2000
0000
0000
07f3
cafe
2410
0000
0000
07f3
cafe
2809
0000
0000
07f7
cafe
2c19
0000
0000
07f3
cafe
3001
0000
0000
07f3
cafe
3411
0000
0000
07f3
cafe
380a
0000
0000
07f7
cafe
3c1a
0000
0000
07f3
cafe
2002
0000
0000
07f3
cafe
2412
0000
0000
07f4
cafe
280b
0000
0000
07f7
cafe
2c1b
0000
0000
07f3
cafe
3003
0000
0000
07f3
cafe
3413
0000
0000
07f3
cafe
380c
0000
0000
07f7
cafe
3c1c
0000
0000
07f3
cafe
2004
0000
0000
07f4
cafe
2414
0000
0000
07f4
cafe
-
280d
0000
0000
07f7
cafe
2c1d
0000
0000
07f2
cafe
3005
0000
0000
07f3
cafe
3415
0000
0000
07f3
cafe
380e
0000
0000
07f6
cafe
3c1e
0000
0000
07f3
cafe
2006
0000
0000
07f3
cafe
2416
0000
0000
07f4
cafe
280f
0000
0000
07f7
cafe
2c1f
0000
0000
07f3
cafe
3007
0000
0000
07f3
cafe
3417
0000
0000
07f4
cafe
3808
0000
0000
07f7
cafe
3c18
0000
0000
07f2
cafe
2000
0000
0000
07f4
cafe
2410
0000
0000
07f4
cafe
2809
0000
0000
07f7
cafe
2c19
0000
0000
07f2
cafe
3001
0000
0000
07f4
cafe
3411
0000
0000
07f3
cafe
380a
0000
0000
07f7
cafe
3c1a
0000
0000
07f2
cafe
2002
0000
0000
07f4
cafe
2412
0000
0000
07f3
cafe
280b
0000
0000
07f7
cafe
2c1b
0000
0000
07f2
cafe
3003
0000
0000
07f3
cafe
3413
0000
0000
07f4
cafe
380c
0000
0000
07f7
cafe
3c1c
0000
0000
07f3
cafe
2004
0000
0000
07f3
cafe
2414
0000
0000
07f3
cafe
280d
0000
0000
07f7
cafe
2c1d
0000
0000
07f3
cafe
3005
0000
0000
07f3
cafe
3415
0000
0000
07f4
cafe
380e
0000
0000
07f7
cafe
3c1e
0000
0000
07f2
cafe
2006
0000
0000
07f3
cafe
2416
0000
0000
07f4
cafe
280f
0000
0000
07f7
cafe
2c1f
0000
0000
07f3
cafe
3007
0000
0000
07f3
cafe
3417
0000
0000
07f4
cafe
3808
0000
0000
07f7
cafe
3c18
0000
0000
07f2
cafe
2000
0000
0000
07f4
cafe
2410
0000
0000
07f4
cafe
2809
0000
0000
07f7
cafe
2c19
0000
0000
07f3
cafe
3001
0000
0000
07f3
cafe
3411
-
0000
0000
07f4
cafe
380a
0000
0000
07f7
cafe
3c1a
0000
0000
07f3
cafe
2002
0000
0000
07f4
cafe
2412
0000
0000
07f4
cafe
280b
0000
0000
07f7
cafe
2c1b
0000
0000
07f2
cafe
3003
0000
0000
07f3
cafe
3413
0000
0000
07f3
cafe
380c
0000
0000
07f7
cafe
3c1c
0000
0000
07f2
cafe
2004
0000
0000
07f3
cafe
2414
0000
0000
07f4
cafe
280d
0000
0000
07f7
cafe
2c1d
0000
0000
07f2
cafe
3005
0000
0000
07f3
cafe
3415
0000
0000
07f3
cafe
380e
0000
0000
07f7
cafe
3c1e
0000
0000
07f3
cafe
2006
0000
0000
07f3
cafe
2416
0000
0000
07f4
cafe
280f
0000
0000
07f7
cafe
2c1f
0000
0000
07f2
cafe
3007
0000
0000
07f3
cafe
3417
0000
0000
07f4
cafe
3808
0000
0000
07f7
cafe
3c18
0000
0000
07f2
cafe
2000
0000
0000
07f3
cafe
2410
0000
0000
07f4
cafe
2809
0000
0000
07f7
cafe
2c19
0000
0000
07f2
cafe
3001
0000
0000
07f4
cafe
3411
0000
0000
07f4
cafe
380a
0000
0000
07f7
cafe
3c1a
0000
0000
07f2
cafe
2002
0000
0000
07f3
cafe
2412
0000
0000
07f4
cafe
280b
0000
0000
07f7
cafe
2c1b
0000
0000
07f2
cafe
3003
0000
0000
07f4
cafe
3413
0000
0000
07f3
cafe
380c
0000
0000
07f7
cafe
3c1c
0000
0000
07f3
cafe
2004
0000
0000
07f3
cafe
2414
0000
0000
07f3
cafe
280d
0000
0000
07f7
cafe
2c1d
0000
0000
07f2
cafe
3005
0000
0000
07f3
cafe
3415
0000
0000
07f3
cafe
380e
0000
0000
07f6
cafe
3c1e
0000
0000
07f2
cafe
2006
0000
-
0000
07f3
cafe
2416
0000
0000
07f3
cafe
280f
0000
0000
07f7
cafe
2c1f
0000
0000
07f2
cafe
3007
0000
0000
07f3
cafe
3417
0000
0000
07f4
cafe
3808
0000
0000
07f7
cafe
3c18
0000
0000
07f3
cafe
2000
0000
0000
07f3
cafe
2410
0000
0000
07f3
cafe
2809
0000
0000
07f7
cafe
2c19
0000
0000
07f2
cafe
3001
0000
0000
07f4
cafe
3411
0000
0000
07f3
cafe
380a
0000
0000
07f6
cafe
3c1a
0000
0000
07f3
cafe
2002
0000
0000
07f4
cafe
2412
0000
0000
07f3
cafe
280b
0000
0000
07f7
cafe
2c1b
0000
0000
07f2
cafe
3003
0000
0000
07f3
cafe
3413
0000
0000
07f3
cafe
380c
0000
0000
07f7
cafe
3c1c
0000
0000
07f3
cafe
2004
0000
0000
07f4
cafe
2414
0000
0000
07f3
cafe
280d
0000
0000
07f7
cafe
2c1d
0000
0000
07f2
cafe
3005
0000
0000
07f3
cafe
3415
0000
0000
07f4
cafe
380e
0000
0000
07f7
cafe
3c1e
0000
0000
07f2
cafe
2006
0000
0000
07f3
cafe
2416
0000
0000
07f3
cafe
280f
0000
0000
07f7
cafe
2c1f
0000
0000
07f2
cafe
3007
0000
0000
07f3
cafe
3417
0000
0000
07f4
cafe
3808
0000
0000
07f7
cafe
3c18
0000
0000
07f2
cafe
2000
0000
0000
07f3
cafe
2410
0000
0000
07f3
cafe
2809
0000
0000
07f7
cafe
2c19
0000
0000
07f2
cafe
3001
0000
0000
07f3
cafe
3411
0000
0000
07f3
cafe
380a
0000
0000
07f7
cafe
3c1a
0000
0000
07f3
cafe
2002
0000
0000
07f3
cafe
2412
0000
0000
07f3
cafe
280b
0000
0000
07f7
cafe
2c1b
0000
0000
-
07f3
cafe
3003
0000
0000
07f3
cafe
3413
0000
0000
07f4
cafe
380c
0000
0000
07f7
cafe
3c1c
0000
0000
07f2
cafe
2004
0000
0000
07f3
cafe
2414
0000
0000
07f3
cafe
280d
0000
0000
07f7
cafe
2c1d
0000
0000
07f3
cafe
3005
0000
0000
07f3
cafe
3415
0000
0000
07f3
cafe
380e
0000
0000
07f6
cafe
3c1e
0000
0000
07f3
cafe
2006
0000
0000
07f3
cafe
2416
0000
0000
07f4
cafe
280f
0000
0000
07f6
cafe
2c1f
0000
0000
07f2
cafe
3007
0000
0000
07f4
cafe
3417
0000
0000
07f3
cafe
3808
0000
0000
07f7
cafe
3c18
0000
0000
07f3
cafe
2000
0000
0000
07f3
cafe
2410
0000
0000
07f3
cafe
2809
0000
0000
07f7
cafe
2c19
0000
0000
07f2
cafe
3001
0000
0000
07f3
cafe
3411
0000
0000
07f4
cafe
380a
0000
0000
07f7
cafe
3c1a
0000
0000
07f2
cafe
2002
0000
0000
07f4
cafe
2412
0000
0000
07f3
cafe
280b
0000
0000
07f7
cafe
2c1b
0000
0000
07f3
cafe
3003
0000
0000
07f3
cafe
3413
0000
0000
07f4
cafe
380c
0000
0000
07f7
cafe
3c1c
0000
0000
07f2
cafe
2004
0000
0000
07f4
cafe
2414
0000
0000
07f3
cafe
280d
0000
0000
07f7
cafe
2c1d
0000
0000
07f2
cafe
3005
0000
0000
07f3
cafe
3415
0000
0000
07f4
cafe
380e
0000
0000
07f6
cafe
3c1e
0000
0000
07f2
cafe
2006
0000
0000
07f4
cafe
2416
0000
0000
07f3
cafe
280f
0000
0000
07f7
cafe
2c1f
0000
0000
07f2
cafe
3007
0000
0000
07f3
cafe
3417
0000
0000
07f4
cafe
3808
0000
0000
07f7
-
cafe
3c18
0000
0000
07f2
cafe
2000
0000
0000
07f3
cafe
2410
0000
0000
07f4
cafe
2809
0000
0000
07f7
cafe
2c19
0000
0000
07f3
cafe
3001
0000
0000
07f4
cafe
3411
0000
0000
07f3
cafe
380a
0000
0000
07f7
cafe
3c1a
0000
0000
07f2
cafe
2002
0000
0000
07f3
cafe
2412
0000
0000
07f4
cafe
280b
0000
0000
07f7
cafe
2c1b
0000
0000
07f3
cafe
3003
0000
0000
07f3
cafe
3413
0000
0000
07f3
cafe
380c
0000
0000
07f7
cafe
3c1c
0000
0000
07f2
cafe
2004
0000
0000
07f3
cafe
2414
0000
0000
07f4
cafe
280d
0000
0000
07f7
cafe
2c1d
0000
0000
07f2
cafe
3005
0000
0000
07f4
cafe
3415
0000
0000
07f3
cafe
380e
0000
0000
07f7
cafe
3c1e
0000
0000
07f3
cafe
2006
0000
0000
07f3
cafe
2416
0000
0000
07f3
cafe
280f
0000
0000
07f7
cafe
2c1f
0000
0000
07f2
cafe
3007
0000
0000
07f3
cafe
3417
0000
0000
07f4
cafe
3808
0000
0000
07f7
cafe
3c18
0000
0000
07f2
cafe
2000
0000
0000
07f3
cafe
2410
0000
0000
07f4
cafe
2809
0000
0000
07f7
cafe
2c19
0000
0000
07f3
cafe
3001
0000
0000
07f3
cafe
3411
0000
0000
07f4
cafe
380a
0000
0000
07f7
cafe
3c1a
0000
0000
07f2
cafe
2002
0000
0000
07f3
cafe
2412
0000
0000
07f3
cafe
280b
0000
0000
07f7
cafe
2c1b
0000
0000
07f2
cafe
3003
0000
0000
07f3
cafe
3413
0000
0000
07f4
cafe
380c
0000
0000
07f7
cafe
3c1c
0000
0000
07f2
cafe
2004
0000
0000
07f3
cafe
2414
0000
0000
07f3
cafe
-
280d
0000
0000
07f7
cafe
2c1d
0000
0000
07f3
cafe
3005
0000
0000
07f4
cafe
3415
0000
0000
07f4
cafe
380e
0000
0000
07f7
cafe
3c1e
0000
0000
07f3
cafe
2006
0000
0000
07f4
cafe
2416
0000
0000
07f3
cafe
280f
0000
0000
07f7
cafe
2c1f
0000
0000
07f3
cafe
3007
0000
0000
07f3
cafe
3417
0000
0000
07f4
cafe
3808
0000
0000
07f7
cafe
3c18
0000
0000
07f3
cafe
2000
0000
0000
07f3
cafe
2410
0000
0000
07f3
cafe
2809
0000
0000
07f7
cafe
2c19
0000
0000
07f3
cafe
3001
0000
0000
07f4
cafe
3411
0000
0000
07f3
cafe
380a
0000
0000
07f7
cafe
3c1a
0000
0000
07f3
cafe
2002
0000
0000
07f3
cafe
2412
0000
0000
07f4
cafe
280b
0000
0000
07f7
cafe
2c1b
0000
0000
07f2
cafe
3003
0000
0000
07f3
cafe
3413
0000
0000
07f3
cafe
380c
0000
0000
07f7
cafe
3c1c
0000
0000
07f2
cafe
2004
0000
0000
07f3
cafe
2414
0000
0000
07f4
cafe
280d
0000
0000
07f7
cafe
2c1d
0000
0000
07f3
cafe
3005
0000
0000
07f3
cafe
3415
0000
0000
07f3
cafe
380e
0000
0000
07f7
cafe
3c1e
0000
0000
07f2
cafe
2006
0000
0000
07f3
cafe
2416
0000
0000
07f4
cafe
280f
0000
0000
07f7
cafe
2c1f
0000
0000
07f3
cafe
3007
0000
0000
07f3
cafe
3417
0000
0000
07f4
cafe
3808
0000
0000
07f7
cafe
3c18
0000
0000
07f2
cafe
2000
0000
0000
07f3
cafe
2410
0000
0000
07f4
cafe
2809
0000
0000
07f7
cafe
2c19
0000
0000
07f2
cafe
3001
0000
0000
07f3
cafe
3411
-
0000
0000
07f3
cafe
380a
0000
0000
07f7
cafe
3c1a
0000
0000
07f2
cafe
2002
0000
0000
07f3
cafe
2412
0000
0000
07f4
cafe
280b
0000
0000
07f7
cafe
2c1b
0000
0000
07f3
cafe
3003
0000
0000
07f3
cafe
3413
0000
0000
07f3
cafe
380c
0000
0000
07f7
cafe
3c1c
0000
0000
07f2
cafe
2004
0000
0000
07f3
cafe
2414
0000
0000
07f4
cafe
280d
0000
0000
07f7
cafe
2c1d
0000
0000
07f2
cafe
3005
0000
0000
07f3
cafe
3415
0000
0000
07f4
cafe
380e
0000
0000
07f7
cafe
3c1e
0000
0000
07f3
cafe
2006
0000
0000
07f3
cafe
2416
0000
0000
07f4
cafe
280f
0000
0000
07f7
cafe
2c1f
0000
0000
07f2
cafe
3007
0000
0000
07f3
cafe
3417
0000
0000
07f4
cafe
3808
0000
0000
07f7
cafe
3c18
0000
0000
07f2
cafe
2000
0000
0000
07f3
cafe
2410
0000
0000
07f4
cafe
2809
0000
0000
07f7
cafe
2c19
0000
0000
07f2
cafe
3001
0000
0000
07f3
cafe
3411
0000
0000
07f3
cafe
380a
0000
0000
07f7
cafe
3c1a
0000
0000
07f3
cafe
2002
0000
0000
07f4
cafe
2412
0000
0000
07f4
cafe
280b
0000
0000
07f7
cafe
2c1b
0000
0000
07f3
cafe
3003
0000
0000
07f3
cafe
3413
0000
0000
07f4
cafe
380c
0000
0000
07f7
cafe
3c1c
0000
0000
07f2
cafe
2004
0000
0000
07f3
cafe
2414
0000
0000
07f3
cafe
280d
0000
0000
07f7
cafe
2c1d
0000
0000
07f3
cafe
3005
0000
0000
07f3
cafe
3415
0000
0000
07f4
cafe
380e
0000
0000
07f7
cafe
3c1e
0000
0000
07f3
cafe
2006
0000
-
0000
07f3
cafe
2416
0000
0000
07f4
cafe
280f
0000
0000
07f7
cafe
2c1f
0000
0000
07f2
cafe
3007
0000
0000
07f3
cafe
3417
0000
0000
07f3
cafe
3808
0000
0000
07f7
cafe
3c18
0000
0000
07f3
cafe
2000
0000
0000
07f3
cafe
2410
0000
0000
07f3
cafe
2809
0000
0000
07f7
cafe
2c19
0000
0000
07f2
cafe
3001
0000
0000
07f3
cafe
3411
0000
0000
07f4
cafe
380a
0000
0000
07f7
cafe
3c1a
0000
0000
07f2
cafe
2002
0000
0000
07f3
cafe
2412
0000
0000
07f4
cafe
280b
0000
0000
07f7
cafe
2c1b
0000
0000
07f3
cafe
3003
0000
0000
07f3
cafe
3413
0000
0000
07f4
cafe
380c
0000
0000
07f7
cafe
3c1c
0000
0000
07f3
cafe
2004
0000
0000
07f3
cafe
2414
0000
0000
07f4
cafe
280d
0000
0000
07f7
cafe
2c1d
0000
0000
07f2
cafe
3005
0000
0000
07f3
cafe
3415
0000
0000
07f4
cafe
380e
0000
0000
07f7
cafe
3c1e
0000
0000
07f2
cafe
2006
0000
0000
07f4
cafe
2416
0000
0000
07f3
cafe
280f
0000
0000
07f7
cafe
2c1f
0000
0000
07f3
cafe
3007
0000
0000
07f3
cafe
3417
0000
0000
07f3
cafe
3808
0000
0000
07f7
cafe
3c18
0000
0000
07f2
cafe
2000
0000
0000
07f3
cafe
2410
0000
0000
07f3
cafe
2809
0000
0000
07f7
cafe
2c19
0000
0000
07f2
cafe
3001
0000
0000
07f3
cafe
3411
0000
0000
07f3
cafe
380a
0000
0000
07f7
cafe
3c1a
0000
0000
07f3
cafe
2002
0000
0000
07f3
cafe
2412
0000
0000
07f4
cafe
280b
0000
0000
07f7
cafe
2c1b
0000
0000
-
07f2
cafe
3003
0000
0000
07f3
cafe
3413
0000
0000
07f4
cafe
380c
0000
0000
07f7
cafe
3c1c
0000
0000
07f3
cafe
2004
0000
0000
07f3
cafe
2414
0000
0000
07f4
cafe
280d
0000
0000
07f7
cafe
2c1d
0000
0000
07f2
cafe
3005
0000
0000
07f3
cafe
3415
0000
0000
07f4
cafe
380e
0000
0000
07f7
cafe
3c1e
0000
0000
07f3
cafe
2006
0000
0000
07f3
cafe
2416
0000
0000
07f4
cafe
280f
0000
0000
07f7
cafe
2c1f
0000
0000
07f2
cafe
3007
0000
0000
07f3
cafe
3417
0000
0000
07f3
cafe
3808
0000
0000
07f7
cafe
3c18
0000
0000
07f2
cafe
2000
0000
0000
07f3
cafe
2410
0000
0000
07f4
cafe
2809
0000
0000
07f7
cafe
2c19
0000
0000
07f2
cafe
3001
0000
0000
07f4
cafe
3411
0000
0000
07f4
cafe
380a
0000
0000
07f7
cafe
3c1a
0000
0000
07f2
cafe
2002
0000
0000
07f3
cafe
2412
0000
0000
07f4
cafe
280b
0000
0000
07f7
cafe
2c1b
0000
0000
07f3
cafe
3003
0000
0000
07f3
cafe
3413
0000
0000
07f3
cafe
380c
0000
0000
07f7
cafe
3c1c
0000
0000
07f2
cafe
2004
0000
0000
07f3
cafe
2414
0000
0000
07f4
cafe
280d
0000
0000
07f7
cafe
2c1d
0000
0000
07f3
cafe
3005
0000
0000
07f3
cafe
3415
0000
0000
07f4
cafe
380e
0000
0000
07f7
cafe
3c1e
0000
0000
07f2
cafe
2006
0000
0000
07f3
cafe
2416
0000
0000
07f4
cafe
280f
0000
0000
07f7
cafe
2c1f
0000
0000
07f3
cafe
3007
0000
0000
07f3
cafe
3417
0000
0000
07f4
cafe
3808
0000
0000
07f7
-
cafe
3c18
0000
0000
07f3
cafe
2000
0000
0000
07f3
cafe
2410
0000
0000
07f4
cafe
2809
0000
0000
07f7
cafe
2c19
0000
0000
07f2
cafe
3001
0000
0000
07f3
cafe
3411
0000
0000
07f4
cafe
380a
0000
0000
07f7
cafe
3c1a
0000
0000
07f3
cafe
2002
0000
0000
07f3
cafe
2412
0000
0000
07f4
cafe
280b
0000
0000
07f7
cafe
2c1b
0000
0000
07f3
cafe
3003
0000
0000
07f2
cafe
3413
0000
0000
07f3
cafe
380c
0000
0000
07f7
cafe
3c1c
0000
0000
07f2
cafe
2004
0000
0000
07f3
cafe
2414
0000
0000
07f4
cafe
280d
0000
0000
07f7
cafe
2c1d
0000
0000
07f2
cafe
3005
0000
0000
07f3
cafe
3415
0000
0000
07f4
cafe
380e
0000
0000
07f7
cafe
3c1e
0000
0000
07f2
cafe
2006
0000
0000
07f3
cafe
2416
0000
0000
07f3
cafe
280f
0000
0000
07f7
cafe
2c1f
0000
0000
07f2
cafe
3007
0000
0000
07f3
cafe
3417
0000
0000
07f4
cafe
3808
0000
0000
07f7
cafe
3c18
0000
0000
07f3
cafe
2000
0000
0000
07f3
cafe
2410
0000
0000
07f4
cafe
2809
0000
0000
07f7
cafe
2c19
0000
0000
07f3
cafe
3001
0000
0000
07f3
cafe
3411
0000
0000
07f4
cafe
380a
0000
0000
07f7
cafe
3c1a
0000
0000
07f3
cafe
2002
0000
0000
07f3
cafe
2412
0000
0000
07f4
cafe
280b
0000
0000
07f7
cafe
2c1b
0000
0000
07f2
cafe
3003
0000
0000
07f3
cafe
3413
0000
0000
07f4
cafe
380c
0000
0000
07f7
cafe
3c1c
0000
0000
07f3
cafe
2004
0000
0000
07f3
cafe
2414
0000
0000
07f4
cafe
-
280d
0000
0000
07f7
cafe
2c1d
0000
0000
07f3
cafe
3005
0000
0000
07f3
cafe
3415
0000
0000
07f4
cafe
380e
0000
0000
07f7
cafe
3c1e
0000
0000
07f2
cafe
2006
0000
0000
07f3
cafe
2416
0000
0000
07f4
cafe
280f
0000
0000
07f7
cafe
2c1f
0000
0000
07f2
cafe
3007
0000
0000
07f3
cafe
3417
0000
0000
07f3
cafe
3808
0000
0000
07f7
cafe
3c18
0000
0000
07f3
cafe
2000
0000
0000
07f3
cafe
2410
0000
0000
07f3
cafe
2809
0000
0000
07f7
cafe
2c19
0000
0000
07f2
cafe
3001
0000
0000
07f3
cafe
3411
0000
0000
07f3
cafe
380a
0000
0000
07f7
cafe
3c1a
0000
0000
07f3
cafe
2002
0000
0000
07f4
cafe
2412
0000
0000
07f3
cafe
280b
0000
0000
07f7
cafe
2c1b
0000
0000
07f3
cafe
3003
0000
0000
07f3
cafe
3413
0000
0000
07f3
cafe
380c
0000
0000
07f7
cafe
3c1c
0000
0000
07f2
cafe
2004
0000
0000
07f3
cafe
2414
0000
0000
07f3
cafe
280d
0000
0000
07f7
cafe
2c1d
0000
0000
07f2
cafe
3005
0000
0000
07f3
cafe
3415
0000
0000
07f4
cafe
380e
0000
0000
07f7
cafe
3c1e
0000
0000
07f2
cafe
2006
0000
0000
07f3
cafe
2416
0000
0000
07f4
cafe
280f
0000
0000
07f7
cafe
2c1f
0000
0000
07f3
cafe
3007
0000
0000
07f3
cafe
3417
0000
0000
07f3
cafe
3808
0000
0000
07f7
cafe
3c18
0000
0000
07f3
cafe
2000
0000
0000
07f3
cafe
2410
0000
0000
07f4
cafe
2809
0000
0000
07f7
cafe
2c19
0000
0000
07f2
cafe
3001
0000
0000
07f4
cafe
3411
-
0000
0000
07f3
cafe
380a
0000
0000
07f7
cafe
3c1a
0000
0000
07f2
cafe
2002
0000
0000
07f3
cafe
2412
0000
0000
07f3
cafe
280b
0000
0000
07f7
cafe
2c1b
0000
0000
07f2
cafe
3003
0000
0000
07f3
cafe
3413
0000
0000
07f3
cafe
380c
0000
0000
07f6
cafe
3c1c
0000
0000
07f2
cafe
2004
0000
0000
07f3
cafe
2414
0000
0000
07f3
cafe
280d
0000
0000
07f7
cafe
2c1d
0000
0000
07f3
cafe
3005
0000
0000
07f3
cafe
3415
0000
0000
07f3
cafe
380e
0000
0000
07f7
cafe
3c1e
0000
0000
07f2
cafe
2006
0000
0000
07f3
cafe
2416
0000
0000
07f3
cafe
280f
0000
0000
07f7
cafe
2c1f
0000
0000
07f2
cafe
3007
0000
0000
07f4
cafe
3417
0000
0000
07f4
cafe
3808
0000
0000
07f7
cafe
3c18
0000
0000
07f3
cafe
2000
0000
0000
07f3
cafe
2410
0000
0000
07f4
cafe
2809
0000
0000
07f7
cafe
2c19
0000
0000
07f2
cafe
3001
0000
0000
07f3
cafe
3411
0000
0000
07f4
cafe
380a
0000
0000
07f7
cafe
3c1a
0000
0000
07f2
cafe
2002
0000
0000
07f4
cafe
2412
0000
0000
07f3
cafe
280b
0000
0000
07f7
cafe
2c1b
0000
0000
07f3
cafe
3003
0000
0000
07f3
cafe
3413
0000
0000
07f3
cafe
380c
0000
0000
07f7
cafe
3c1c
0000
0000
07f3
cafe
2004
0000
0000
07f3
cafe
2414
0000
0000
07f4
cafe
280d
0000
0000
07f7
cafe
2c1d
0000
0000
07f2
cafe
3005
0000
0000
07f4
cafe
3415
0000
0000
07f4
cafe
380e
0000
0000
07f7
cafe
3c1e
0000
0000
07f3
cafe
2006
0000
-
0000
07f3
cafe
2416
0000
0000
07f4
cafe
280f
0000
0000
07f7
cafe
2c1f
0000
0000
07f2
cafe
3007
0000
0000
07f3
cafe
3417
0000
0000
07f4
cafe
3808
0000
0000
07f7
cafe
3c18
0000
0000
07f3
cafe
2000
0000
0000
07f3
cafe
2410
0000
0000
07f4
cafe
2809
0000
0000
07f7
cafe
2c19
0000
0000
07f2
cafe
3001
0000
0000
07f3
cafe
3411
0000
0000
07f4
cafe
380a
0000
0000
07f7
cafe
3c1a
0000
0000
07f2
cafe
2002
0000
0000
07f4
cafe
2412
0000
0000
07f3
cafe
280b
0000
0000
07f7
cafe
2c1b
0000
0000
07f3
cafe
3003
0000
0000
07f3
cafe
3413
0000
0000
07f3
cafe
380c
0000
0000
07f6
cafe
3c1c
0000
0000
07f3
cafe
2004
0000
0000
07f3
cafe
2414
0000
0000
07f4
cafe
280d
0000
0000
07f7
cafe
2c1d
0000
0000
07f3
cafe
3005
0000
0000
07f3
cafe
3415
0000
0000
07f4
cafe
380e
0000
0000
07f7
cafe
3c1e
0000
0000
07f2
cafe
2006
0000
0000
07f3
cafe
2416
0000
0000
07f3
cafe
280f
0000
0000
07f7
cafe
2c1f
0000
0000
07f3
cafe
3007
0000
0000
07f3
cafe
3417
0000
0000
07f3
cafe
3808
0000
0000
07f7
cafe
3c18
0000
0000
07f2
cafe
2000
0000
0000
07f3
cafe
2410
0000
0000
07f3
cafe
2809
0000
0000
07f6
cafe
2c19
0000
0000
07f2
cafe
3001
0000
0000
07f4
cafe
3411
0000
0000
07f3
cafe
380a
0000
0000
07f7
cafe
3c1a
0000
0000
07f2
cafe
2002
0000
0000
07f3
cafe
2412
0000
0000
07f4
cafe
280b
0000
0000
07f6
cafe
2c1b
0000
0000
-
07f2
cafe
3003
0000
0000
07f3
cafe
3413
0000
0000
07f4
cafe
380c
0000
0000
07f7
cafe
3c1c
0000
0000
07f2
cafe
2004
0000
0000
07f3
cafe
2414
0000
0000
07f3
cafe
280d
0000
0000
07f7
cafe
2c1d
0000
0000
07f3
cafe
3005
0000
0000
07f3
cafe
3415
0000
0000
07f3
cafe
380e
0000
0000
07f7
cafe
3c1e
0000
0000
07f2
cafe
2006
0000
0000
07f3
cafe
2416
0000
0000
07f3
cafe
280f
0000
0000
07f7
cafe
2c1f
0000
0000
07f2
cafe
3007
0000
0000
07f3
cafe
3417
0000
0000
07f4
cafe
3808
0000
0000
07f7
cafe
3c18
0000
0000
07f2
cafe
2000
0000
0000
07f4
cafe
2410
0000
0000
07f4
cafe
2809
0000
0000
07f7
cafe
2c19
0000
0000
07f3
cafe
3001
0000
0000
07f3
cafe
3411
0000
0000
07f3
cafe
380a
0000
0000
07f7
cafe
3c1a
0000
0000
07f2
cafe
2002
0000
0000
07f4
cafe
2412
0000
0000
07f4
cafe
280b
0000
0000
07f7
cafe
2c1b
0000
0000
07f2
cafe
3003
0000
0000
07f3
cafe
3413
0000
0000
07f4
cafe
380c
0000
0000
07f6
cafe
3c1c
0000
0000
07f3
cafe
2004
0000
0000
07f3
cafe
2414
0000
0000
07f4
cafe
280d
0000
0000
07f7
cafe
2c1d
0000
0000
07f2
cafe
3005
0000
0000
07f3
cafe
3415
0000
0000
07f4
cafe
380e
0000
0000
07f7
cafe
3c1e
0000
0000
07f2
cafe
2006
0000
0000
07f3
cafe
2416
0000
0000
07f3
cafe
280f
0000
0000
07f7
cafe
2c1f
0000
0000
07f3
cafe
3007
0000
0000
07f3
cafe
3417
0000
0000
07f3
cafe
3808
0000
0000
07f6
-
cafe
3c18
0000
0000
07f2
cafe
2000
0000
0000
07f4
cafe
2410
0000
0000
07f3
cafe
2809
0000
0000
07f7
cafe
2c19
0000
0000
07f3
cafe
3001
0000
0000
07f3
cafe
3411
0000
0000
07f4
cafe
380a
0000
0000
07f7
cafe
3c1a
0000
0000
07f2
cafe
2002
0000
0000
07f3
cafe
2412
0000
0000
07f3
cafe
280b
0000
0000
07f7
cafe
2c1b
0000
0000
07f2
cafe
3003
0000
0000
07f4
cafe
3413
0000
0000
07f3
cafe
380c
0000
0000
07f7
cafe
3c1c
0000
0000
07f3
cafe
2004
0000
0000
07f4
cafe
2414
0000
0000
07f3
cafe
280d
0000
0000
07f7
cafe
2c1d
0000
0000
07f2
cafe
3005
0000
0000
07f3
cafe
3415
0000
0000
07f4
cafe
380e
0000
0000
07f7
cafe
3c1e
0000
0000
07f3
cafe
2006
0000
0000
07f4
cafe
2416
0000
0000
07f3
cafe
280f
0000
0000
07f7
cafe
2c1f
0000
0000
07f3
cafe
3007
0000
0000
07f3
cafe
3417
0000
0000
07f4
cafe
3808
0000
0000
07f7
cafe
3c18
0000
0000
07f3
cafe
2000
0000
0000
07f4
cafe
2410
0000
0000
07f3
cafe
2809
0000
0000
07f7
cafe
2c19
0000
0000
07f2
cafe
3001
0000
0000
07f4
cafe
3411
0000
0000
07f3
cafe
380a
0000
0000
07f7
cafe
3c1a
0000
0000
07f2
cafe
2002
0000
0000
07f3
cafe
2412
0000
0000
07f3
cafe
280b
0000
0000
07f7
cafe
2c1b
0000
0000
07f2
cafe
3003
0000
0000
07f3
cafe
3413
0000
0000
07f4
cafe
380c
0000
0000
07f7
cafe
3c1c
0000
0000
07f3
cafe
2004
0000
0000
07f3
cafe
2414
0000
0000
07f4
cafe
-
