2c0e
0000
0000
0139
cafe
300e
0000
0000
0134
cafe
340e
0000
0000
013c
cafe
380e
0000
0000
0130
cafe
3c0e
0000
0000
0133
cafe
200e
0000
0000
0137
cafe
240e
0000
0000
0134
cafe
280e
0000
0000
0130
cafe
2c0e
0000
0000
0132
cafe
300e
0000
0000
0137
cafe
340e
0000
0000
0133
cafe
380e
0000
0000
012c
cafe
3c0e
0000
0000
0135
cafe
200e
0000
0000
0130
cafe
240e
0000
0000
012f
cafe
280e
0000
0000
012c
cafe
2c0e
0000
0000
012b
cafe
300e
0000
0000
0132
cafe
340e
0000
0000
012f
cafe
380e
0000
0000
0140
cafe
3c0e
0000
0000
0142
cafe
200e
0000
0000
0140
cafe
240e
0000
0000
0132
cafe
280e
0000
0000
013a
cafe
2c0e
0000
0000
0142
cafe
300e
0000
0000
013a
cafe
340e
0000
0000
013a
cafe
380e
0000
0000
013a
cafe
3c0e
0000
0000
012c
cafe
200e
0000
0000
0139
cafe
240e
0000
0000
013b
cafe
280e
0000
0000
0136
cafe
2c0e
0000
0000
013a
cafe
300e
0000
0000
0135
cafe
340e
0000
0000
012b
cafe
380e
0000
0000
0129
cafe
3c0e
0000
0000
012b
cafe
200e
0000
0000
0124
cafe
240e
0000
0000
012a
cafe
280e
0000
0000
012d
cafe
2c0e
0000
0000
012f
cafe
300e
0000
0000
0130
cafe
340e
0000
0000
0135
cafe
380e
0000
0000
013c
cafe
3c0e
0000
0000
013c
cafe
200e
0000
0000
0138
cafe
240e
0000
0000
013d
cafe
280e
0000
0000
013b
cafe
2c0e
0000
0000
013f
cafe
300e
0000
0000
0138
cafe
340e
0000
0000
0136
cafe
380e
-
0000
0000
013d
cafe
3c0e
0000
0000
013d
cafe
200e
0000
0000
013c
cafe
240e
0000
0000
013a
cafe
280e
0000
0000
013e
cafe
2c0e
0000
0000
0141
cafe
300e
0000
0000
013e
cafe
340e
0000
0000
0148
cafe
380e
0000
0000
014d
cafe
3c0e
0000
0000
013c
cafe
200e
0000
0000
013d
cafe
240e
0000
0000
013b
cafe
280e
0000
0000
0141
cafe
2c0e
0000
0000
0137
cafe
300e
0000
0000
013f
cafe
340e
0000
0000
0143
cafe
380e
0000
0000
013d
cafe
3c0e
0000
0000
0143
cafe
200e
0000
0000
0138
cafe
240e
0000
0000
0131
cafe
280e
0000
0000
0131
cafe
2c0e
0000
0000
013d
cafe
300e
0000
0000
0141
cafe
340e
0000
0000
0145
cafe
380e
0000
0000
013e
cafe
3c0e
0000
0000
0141
cafe
200e
0000
0000
0142
cafe
240e
0000
0000
013b
cafe
280e
0000
0000
0140
cafe
2c0e
0000
0000
013c
cafe
300e
0000
0000
0143
cafe
340e
0000
0000
0149
cafe
380e
0000
0000
0146
cafe
3c0e
0000
0000
0148
cafe
200e
0000
0000
0144
cafe
240e
0000
0000
013f
cafe
280e
0000
0000
0140
cafe
2c0e
0000
0000
013f
cafe
300e
0000
0000
0138
cafe
340e
0000
0000
013c
cafe
380e
0000
0000
013c
cafe
3c0e
0000
0000
013b
cafe
200e
0000
0000
013b
cafe
240e
0000
0000
013a
cafe
280e
0000
0000
0142
cafe
2c0e
0000
0000
0144
cafe
300e
0000
0000
013f
cafe
340e
0000
0000
013c
cafe
380e
0000
0000
0146
cafe
3c0e
0000
0000
013f
cafe
200e
0000
0000
0137
cafe
240e
0000
-
0000
012a
cafe
280e
0000
0000
012f
cafe
2c0e
0000
0000
013a
cafe
300e
0000
0000
013f
cafe
340e
0000
0000
0138
cafe
380e
0000
0000
0135
cafe
3c0e
0000
0000
0133
cafe
200e
0000
0000
012f
cafe
240e
0000
0000
0130
cafe
280e
0000
0000
0137
cafe
2c0e
0000
0000
0132
cafe
300e
0000
0000
012b
cafe
340e
0000
0000
012b
cafe
380e
0000
0000
012a
cafe
3c0e
0000
0000
0129
cafe
200e
0000
0000
012f
cafe
240e
0000
0000
012d
cafe
280e
0000
0000
012c
cafe
2c0e
0000
0000
012b
cafe
300e
0000
0000
012e
cafe
340e
0000
0000
012e
cafe
380e
0000
0000
012e
cafe
3c0e
0000
0000
011f
cafe
200e
0000
0000
0129
cafe
240e
0000
0000
0134
cafe
280e
0000
0000
0130
cafe
2c0e
0000
0000
012e
cafe
300e
0000
0000
0132
cafe
340e
0000
0000
0135
cafe
380e
0000
0000
013a
cafe
3c0e
0000
0000
013d
cafe
200e
0000
0000
013d
cafe
240e
0000
0000
013b
cafe
280e
0000
0000
0141
cafe
2c0e
0000
0000
0146
cafe
300e
0000
0000
013c
cafe
340e
0000
0000
013c
cafe
380e
0000
0000
0141
cafe
3c0e
0000
0000
0141
cafe
200e
0000
0000
013d
cafe
240e
0000
0000
013a
cafe
280e
0000
0000
0139
cafe
2c0e
0000
0000
0139
cafe
300e
0000
0000
0141
cafe
340e
0000
0000
0144
cafe
380e
0000
0000
0149
cafe
3c0e
0000
0000
0144
cafe
200e
0000
0000
0148
cafe
240e
0000
0000
0151
cafe
280e
0000
0000
0145
cafe
2c0e
0000
0000
013a
cafe
300e
0000
0000
-
0134
cafe
340e
0000
0000
0133
cafe
380e
0000
0000
013d
cafe
3c0e
0000
0000
013e
cafe
200e
0000
0000
013f
cafe
240e
0000
0000
0141
cafe
280e
0000
0000
0139
cafe
2c0e
0000
0000
013e
cafe
300e
0000
0000
013d
cafe
340e
0000
0000
0139
cafe
380e
0000
0000
013a
cafe
3c0e
0000
0000
0143
cafe
200e
0000
0000
0143
cafe
240e
0000
0000
013f
cafe
280e
0000
0000
013d
cafe
2c0e
0000
0000
0135
cafe
300e
0000
0000
013e
cafe
340e
0000
0000
012e
cafe
380e
0000
0000
012b
cafe
3c0e
0000
0000
012c
cafe
200e
0000
0000
0130
cafe
240e
0000
0000
0136
cafe
280e
0000
0000
0138
cafe
2c0e
0000
0000
0144
cafe
300e
0000
0000
0144
cafe
340e
0000
0000
013b
cafe
380e
0000
0000
013d
cafe
3c0e
0000
0000
0137
cafe
200e
0000
0000
0136
cafe
240e
0000
0000
012c
cafe
280e
0000
0000
0135
cafe
2c0e
0000
0000
0145
cafe
300e
0000
0000
0144
cafe
340e
0000
0000
013f
cafe
380e
0000
0000
013c
cafe
3c0e
0000
0000
0139
cafe
200e
0000
0000
0136
cafe
240e
0000
0000
012f
cafe
280e
0000
0000
012f
cafe
2c0e
0000
0000
012c
cafe
300e
0000
0000
0139
cafe
340e
0000
0000
0134
cafe
380e
0000
0000
013e
cafe
3c0e
0000
0000
013f
cafe
200e
0000
0000
0140
cafe
240e
0000
0000
013b
cafe
280e
0000
0000
0138
cafe
2c0e
0000
0000
013b
cafe
300e
0000
0000
013b
cafe
340e
0000
0000
013a
cafe
380e
0000
0000
013d
cafe
3c0e
0000
0000
0139
-
cafe
200e
0000
0000
0134
cafe
240e
0000
0000
0143
cafe
280e
0000
0000
0142
cafe
2c0e
0000
0000
0149
cafe
300e
0000
0000
0148
cafe
340e
0000
0000
0141
cafe
380e
0000
0000
0138
cafe
3c0e
0000
0000
0134
cafe
200e
0000
0000
0136
cafe
240e
0000
0000
0134
cafe
280e
0000
0000
0136
cafe
2c0e
0000
0000
0138
cafe
300e
0000
0000
013f
cafe
340e
0000
0000
0143
cafe
380e
0000
0000
0144
cafe
3c0e
0000
0000
0147
cafe
200e
0000
0000
0144
cafe
240e
0000
0000
0147
cafe
280e
0000
0000
0146
cafe
2c0e
0000
0000
0145
cafe
300e
0000
0000
0142
cafe
340e
0000
0000
0138
cafe
380e
0000
0000
0135
cafe
3c0e
0000
0000
0130
cafe
200e
0000
0000
0132
cafe
240e
0000
0000
012f
cafe
280e
0000
0000
012e
cafe
2c0e
0000
0000
0128
cafe
300e
0000
0000
012f
cafe
340e
0000
0000
012d
cafe
380e
0000
0000
0133
cafe
3c0e
0000
0000
0144
cafe
200e
0000
0000
0138
cafe
240e
0000
0000
013f
cafe
280e
0000
0000
013c
cafe
2c0e
0000
0000
013d
cafe
300e
0000
0000
0145
cafe
340e
0000
0000
0147
cafe
380e
0000
0000
0144
cafe
3c0e
0000
0000
0146
cafe
200e
0000
0000
0147
cafe
240e
0000
0000
0142
cafe
280e
0000
0000
0137
cafe
2c0e
0000
0000
0137
cafe
300e
0000
0000
0135
cafe
340e
0000
0000
0133
cafe
380e
0000
0000
0141
cafe
3c0e
0000
0000
0143
cafe
200e
0000
0000
0144
cafe
240e
0000
0000
013a
cafe
280e
0000
0000
013c
cafe
-
2c0e
0000
0000
0133
cafe
300e
0000
0000
0130
cafe
340e
0000
0000
0135
cafe
380e
0000
0000
012d
cafe
3c0e
0000
0000
012f
cafe
200e
0000
0000
0132
cafe
240e
0000
0000
0127
cafe
280e
0000
0000
012b
cafe
2c0e
0000
0000
0127
cafe
300e
0000
0000
011f
cafe
340e
0000
0000
0125
cafe
380e
0000
0000
0121
cafe
3c0e
0000
0000
0121
cafe
200e
0000
0000
0124
cafe
240e
0000
0000
0130
cafe
280e
0000
0000
0130
cafe
2c0e
0000
0000
0135
cafe
300e
0000
0000
0132
cafe
340e
0000
0000
0139
cafe
380e
0000
0000
0141
cafe
3c0e
0000
0000
0133
cafe
200e
0000
0000
013c
cafe
240e
0000
0000
0138
cafe
280e
0000
0000
013d
cafe
2c0e
0000
0000
013d
cafe
300e
0000
0000
013b
cafe
340e
0000
0000
013c
cafe
380e
0000
0000
013d
cafe
3c0e
0000
0000
0136
cafe
200e
0000
0000
013d
cafe
240e
0000
0000
0136
cafe
280e
0000
0000
012f
cafe
2c0e
0000
0000
0135
cafe
300e
0000
0000
013b
cafe
340e
0000
0000
013b
cafe
380e
0000
0000
013a
cafe
3c0e
0000
0000
0148
cafe
200e
0000
0000
0148
cafe
240e
0000
0000
0143
cafe
280e
0000
0000
0136
cafe
2c0e
0000
0000
013c
cafe
300e
0000
0000
013c
cafe
340e
0000
0000
0140
cafe
380e
0000
0000
0141
cafe
3c0e
0000
0000
0143
cafe
200e
0000
0000
013b
cafe
240e
0000
0000
0132
cafe
280e
0000
0000
012d
cafe
2c0e
0000
0000
0136
cafe
300e
0000
0000
012d
cafe
340e
0000
0000
0130
cafe
380e
-
0000
0000
0132
cafe
3c0e
0000
0000
0136
cafe
200e
0000
0000
013e
cafe
240e
0000
0000
013c
cafe
280e
0000
0000
013b
cafe
2c0e
0000
0000
0137
cafe
300e
0000
0000
0132
cafe
340e
0000
0000
0134
cafe
380e
0000
0000
013d
cafe
3c0e
0000
0000
0133
cafe
200e
0000
0000
0132
cafe
240e
0000
0000
012f
cafe
280e
0000
0000
0133
cafe
2c0e
0000
0000
013b
cafe
300e
0000
0000
013f
cafe
340e
0000
0000
0149
cafe
380e
0000
0000
0141
cafe
3c0e
0000
0000
0144
cafe
200e
0000
0000
0147
cafe
240e
0000
0000
0143
cafe
280e
0000
0000
0144
cafe
2c0e
0000
0000
013f
cafe
300e
0000
0000
013e
cafe
340e
0000
0000
0136
cafe
380e
0000
0000
013c
cafe
3c0e
0000
0000
0139
cafe
200e
0000
0000
0139
cafe
240e
0000
0000
013c
cafe
280e
0000
0000
0140
cafe
2c0e
0000
0000
0141
cafe
300e
0000
0000
013d
cafe
340e
0000
0000
013e
cafe
380e
0000
0000
0141
cafe
3c0e
0000
0000
013e
cafe
200e
0000
0000
0145
cafe
240e
0000
0000
0143
cafe
280e
0000
0000
0148
cafe
2c0e
0000
0000
0147
cafe
300e
0000
0000
0136
cafe
340e
0000
0000
012f
cafe
380e
0000
0000
0136
cafe
3c0e
0000
0000
0132
cafe
200e
0000
0000
012a
cafe
240e
0000
0000
0133
cafe
280e
0000
0000
0132
cafe
2c0e
0000
0000
0137
cafe
300e
0000
0000
0132
cafe
340e
0000
0000
0137
cafe
380e
0000
0000
013b
cafe
3c0e
0000
0000
0135
cafe
200e
0000
0000
0132
cafe
240e
0000
-
0000
012f
cafe
280e
0000
0000
012f
cafe
2c0e
0000
0000
012f
cafe
300e
0000
0000
0130
cafe
340e
0000
0000
0136
cafe
380e
0000
0000
012d
cafe
3c0e
0000
0000
012a
cafe
200e
0000
0000
012e
cafe
240e
0000
0000
012d
cafe
280e
0000
0000
0132
cafe
2c0e
0000
0000
0132
cafe
300e
0000
0000
0137
cafe
340e
0000
0000
0140
cafe
380e
0000
0000
0137
cafe
3c0e
0000
0000
013d
cafe
200e
0000
0000
0140
cafe
240e
0000
0000
0139
cafe
280e
0000
0000
0148
cafe
2c0e
0000
0000
013d
cafe
300e
0000
0000
0139
cafe
340e
0000
0000
0143
cafe
380e
0000
0000
013c
cafe
3c0e
0000
0000
013a
cafe
200e
0000
0000
013d
cafe
240e
0000
0000
013c
cafe
280e
0000
0000
0135
cafe
2c0e
0000
0000
013b
cafe
300e
0000
0000
0135
cafe
340e
0000
0000
012e
cafe
380e
0000
0000
0136
cafe
3c0e
0000
0000
013b
cafe
200e
0000
0000
013a
cafe
240e
0000
0000
0137
cafe
280e
0000
0000
0131
cafe
2c0e
0000
0000
013a
cafe
300e
0000
0000
0140
cafe
340e
0000
0000
0138
cafe
380e
0000
0000
013b
cafe
3c0e
0000
0000
013b
cafe
200e
0000
0000
0134
cafe
240e
0000
0000
013e
cafe
280e
0000
0000
0147
cafe
2c0e
0000
0000
0144
cafe
300e
0000
0000
013f
cafe
340e
0000
0000
0139
cafe
380e
0000
0000
013c
cafe
3c0e
0000
0000
0136
cafe
200e
0000
0000
013a
cafe
240e
0000
0000
013c
cafe
280e
0000
0000
013b
cafe
2c0e
0000
0000
0137
cafe
300e
0000
0000
-
0139
cafe
340e
0000
0000
012d
cafe
380e
0000
0000
012c
cafe
3c0e
0000
0000
0126
cafe
200e
0000
0000
0137
cafe
240e
0000
0000
013c
cafe
280e
0000
0000
0136
cafe
2c0e
0000
0000
0134
cafe
300e
0000
0000
0132
cafe
340e
0000
0000
012c
cafe
380e
0000
0000
012f
cafe
3c0e
0000
0000
0136
cafe
200e
0000
0000
0135
cafe
240e
0000
0000
0138
cafe
280e
0000
0000
013e
cafe
2c0e
0000
0000
0138
cafe
300e
0000
0000
0139
cafe
340e
0000
0000
0137
cafe
380e
0000
0000
0136
cafe
3c0e
0000
0000
0133
cafe
200e
0000
0000
012e
cafe
240e
0000
0000
0133
cafe
280e
0000
0000
013b
cafe
2c0e
0000
0000
012f
cafe
300e
0000
0000
0139
cafe
340e
0000
0000
013a
cafe
380e
0000
0000
013d
cafe
3c0e
0000
0000
0138
cafe
200e
0000
0000
013a
cafe
240e
0000
0000
0137
cafe
280e
0000
0000
0137
cafe
2c0e
0000
0000
013c
cafe
300e
0000
0000
0138
cafe
340e
0000
0000
0135
cafe
380e
0000
0000
0138
cafe
3c0e
0000
0000
0143
cafe
200e
0000
0000
013a
cafe
240e
0000
0000
0136
cafe
280e
0000
0000
0137
cafe
2c0e
0000
0000
0140
cafe
300e
0000
0000
0142
cafe
340e
0000
0000
0145
cafe
380e
0000
0000
013d
cafe
3c0e
0000
0000
013f
cafe
200e
0000
0000
013b
cafe
240e
0000
0000
013a
cafe
280e
0000
0000
0135
cafe
2c0e
0000
0000
0133
cafe
300e
0000
0000
0135
cafe
340e
0000
0000
013d
cafe
380e
0000
0000
013c
cafe
3c0e
0000
0000
012a
-
cafe
200e
0000
0000
0131
cafe
240e
0000
0000
0132
cafe
280e
0000
0000
0130
cafe
2c0e
0000
0000
0133
cafe
300e
0000
0000
012d
cafe
340e
0000
0000
0138
cafe
380e
0000
0000
0136
cafe
3c0e
0000
0000
013a
cafe
200e
0000
0000
0144
cafe
240e
0000
0000
014b
cafe
280e
0000
0000
0145
cafe
2c0e
0000
0000
013d
cafe
300e
0000
0000
013b
cafe
340e
0000
0000
0138
cafe
380e
0000
0000
0139
cafe
3c0e
0000
0000
013b
cafe
200e
0000
0000
0138
cafe
240e
0000
0000
013d
cafe
280e
0000
0000
013e
cafe
2c0e
0000
0000
0147
cafe
300e
0000
0000
014d
cafe
340e
0000
0000
014a
cafe
380e
0000
0000
0142
cafe
3c0e
0000
0000
013d
cafe
200e
0000
0000
0133
cafe
240e
0000
0000
0138
cafe
280e
0000
0000
0130
cafe
2c0e
0000
0000
0137
cafe
300e
0000
0000
013c
cafe
340e
0000
0000
0147
cafe
380e
0000
0000
013e
cafe
3c0e
0000
0000
0136
cafe
200e
0000
0000
013d
cafe
240e
0000
0000
0142
cafe
280e
0000
0000
0143
cafe
2c0e
0000
0000
0140
cafe
300e
0000
0000
013c
cafe
340e
0000
0000
013a
cafe
380e
0000
0000
0138
cafe
3c0e
0000
0000
013a
cafe
200e
0000
0000
0137
cafe
240e
0000
0000
0132
cafe
280e
0000
0000
0135
cafe
2c0e
0000
0000
013d
cafe
300e
0000
0000
0139
cafe
340e
0000
0000
0139
cafe
380e
0000
0000
0137
cafe
3c0e
0000
0000
013c
cafe
200e
0000
0000
0135
cafe
240e
0000
0000
0137
cafe
280e
0000
0000
0147
cafe
-
2c0e
0000
0000
0143
cafe
300e
0000
0000
0144
cafe
340e
0000
0000
0144
cafe
380e
0000
0000
0142
cafe
3c0e
0000
0000
013f
cafe
200e
0000
0000
013f
cafe
240e
0000
0000
0142
cafe
280e
0000
0000
0143
cafe
2c0e
0000
0000
0145
cafe
300e
0000
0000
0147
cafe
340e
0000
0000
0147
cafe
380e
0000
0000
0143
cafe
3c0e
0000
0000
0146
cafe
200e
0000
0000
014b
cafe
240e
0000
0000
0139
cafe
280e
0000
0000
013e
cafe
2c0e
0000
0000
0134
cafe
300e
0000
0000
012a
cafe
340e
0000
0000
0136
cafe
380e
0000
0000
013c
cafe
3c0e
0000
0000
0139
cafe
200e
0000
0000
013a
cafe
240e
0000
0000
013c
cafe
280e
0000
0000
013b
cafe
2c0e
0000
0000
0146
cafe
300e
0000
0000
0142
cafe
340e
0000
0000
0140
cafe
380e
0000
0000
0146
cafe
3c0e
0000
0000
0146
cafe
200e
0000
0000
0148
cafe
240e
0000
0000
0150
cafe
280e
0000
0000
014b
cafe
2c0e
0000
0000
0146
cafe
300e
0000
0000
0143
cafe
340e
0000
0000
0141
cafe
380e
0000
0000
013a
cafe
3c0e
0000
0000
0135
cafe
200e
0000
0000
0136
cafe
240e
0000
0000
0138
cafe
280e
0000
0000
0130
cafe
2c0e
0000
0000
0141
cafe
300e
0000
0000
013f
cafe
340e
0000
0000
013c
cafe
380e
0000
0000
0136
cafe
3c0e
0000
0000
0134
cafe
200e
0000
0000
0135
cafe
240e
0000
0000
0134
cafe
280e
0000
0000
012f
cafe
2c0e
0000
0000
0139
cafe
300e
0000
0000
0139
cafe
340e
0000
0000
0137
cafe
380e
-
0000
0000
0134
cafe
3c0e
0000
0000
0137
cafe
200e
0000
0000
0131
cafe
240e
0000
0000
013b
cafe
280e
0000
0000
013d
cafe
2c0e
0000
0000
0140
cafe
300e
0000
0000
0142
cafe
340e
0000
0000
013a
cafe
380e
0000
0000
012f
cafe
3c0e
0000
0000
0133
cafe
200e
0000
0000
0137
cafe
240e
0000
0000
0138
cafe
280e
0000
0000
0137
cafe
2c0e
0000
0000
0132
cafe
300e
0000
0000
0130
cafe
340e
0000
0000
013d
cafe
380e
0000
0000
013c
cafe
3c0e
0000
0000
013a
cafe
200e
0000
0000
0136
cafe
240e
0000
0000
0136
cafe
280e
0000
0000
013a
cafe
2c0e
0000
0000
0135
cafe
300e
0000
0000
0138
cafe
340e
0000
0000
013d
cafe
380e
0000
0000
0134
cafe
3c0e
0000
0000
0137
cafe
200e
0000
0000
0132
cafe
240e
0000
0000
012d
cafe
280e
0000
0000
012c
cafe
2c0e
0000
0000
012e
cafe
300e
0000
0000
0132
cafe
340e
0000
0000
013a
cafe
380e
0000
0000
013c
cafe
3c0e
0000
0000
0142
cafe
200e
0000
0000
013f
cafe
240e
0000
0000
0140
cafe
280e
0000
0000
0143
cafe
2c0e
0000
0000
0139
cafe
300e
0000
0000
0134
cafe
340e
0000
0000
0137
cafe
380e
0000
0000
0130
cafe
3c0e
0000
0000
0135
cafe
200e
0000
0000
012d
cafe
240e
0000
0000
0130
cafe
280e
0000
0000
012e
cafe
2c0e
0000
0000
0133
cafe
300e
0000
0000
013d
cafe
340e
0000
0000
013c
cafe
380e
0000
0000
0143
cafe
3c0e
0000
0000
013a
cafe
200e
0000
0000
013c
cafe
240e
0000
-
0000
013a
cafe
280e
0000
0000
0130
cafe
2c0e
0000
0000
013c
cafe
300e
0000
0000
0140
cafe
340e
0000
0000
013e
cafe
380e
0000
0000
013d
cafe
3c0e
0000
0000
0140
cafe
200e
0000
0000
013e
cafe
240e
0000
0000
013d
cafe
280e
0000
0000
0140
cafe
2c0e
0000
0000
0143
cafe
300e
0000
0000
013a
cafe
340e
0000
0000
0135
cafe
380e
0000
0000
0131
cafe
3c0e
0000
0000
012e
cafe
200e
0000
0000
013a
cafe
240e
0000
0000
0139
cafe
280e
0000
0000
013d
cafe
2c0e
0000
0000
0142
cafe
300e
0000
0000
013a
cafe
340e
0000
0000
0147
cafe
380e
0000
0000
013c
cafe
3c0e
0000
0000
013a
cafe
200e
0000
0000
013d
cafe
240e
0000
0000
013a
cafe
280e
0000
0000
013c
cafe
2c0e
0000
0000
0136
cafe
300e
0000
0000
0131
cafe
340e
0000
0000
0131
cafe
380e
0000
0000
0129
cafe
3c0e
0000
0000
0133
cafe
200e
0000
0000
013f
cafe
240e
0000
0000
0145
cafe
280e
0000
0000
0145
cafe
2c0e
0000
0000
0140
cafe
300e
0000
0000
012f
cafe
340e
0000
0000
0136
cafe
380e
0000
0000
0139
cafe
3c0e
0000
0000
0139
cafe
200e
0000
0000
012d
cafe
240e
0000
0000
0130
cafe
280e
0000
0000
013e
cafe
2c0e
0000
0000
0141
cafe
300e
0000
0000
013a
cafe
340e
0000
0000
0140
cafe
380e
0000
0000
0143
cafe
3c0e
0000
0000
0140
cafe
200e
0000
0000
0141
cafe
240e
0000
0000
0138
cafe
280e
0000
0000
0132
cafe
2c0e
0000
0000
0133
cafe
300e
0000
0000
-
0136
cafe
340e
0000
0000
0131
cafe
380e
0000
0000
0133
cafe
3c0e
0000
0000
012e
cafe
200e
0000
0000
0139
cafe
240e
0000
0000
0147
cafe
280e
0000
0000
0147
cafe
2c0e
0000
0000
0135
cafe
300e
0000
0000
0136
cafe
340e
0000
0000
013d
cafe
380e
0000
0000
013c
cafe
3c0e
0000
0000
013e
cafe
200e
0000
0000
013e
cafe
240e
0000
0000
013e
cafe
280e
0000
0000
0146
cafe
2c0e
0000
0000
013d
cafe
300e
0000
0000
0140
cafe
340e
0000
0000
0144
cafe
380e
0000
0000
0147
cafe
3c0e
0000
0000
0147
cafe
200e
0000
0000
0142
cafe
240e
0000
0000
013b
cafe
280e
0000
0000
0140
cafe
2c0e
0000
0000
0142
cafe
300e
0000
0000
0145
cafe
340e
0000
0000
013b
cafe
380e
0000
0000
0131
cafe
3c0e
0000
0000
0131
cafe
200e
0000
0000
012e
cafe
240e
0000
0000
013a
cafe
280e
0000
0000
0140
cafe
2c0e
0000
0000
0141
cafe
300e
0000
0000
013d
cafe
340e
0000
0000
0138
cafe
380e
0000
0000
0134
cafe
3c0e
0000
0000
012c
cafe
200e
0000
0000
012e
cafe
240e
0000
0000
0137
cafe
280e
0000
0000
0138
cafe
2c0e
0000
0000
0137
cafe
300e
0000
0000
013d
cafe
340e
0000
0000
013f
cafe
380e
0000
0000
0143
cafe
3c0e
0000
0000
0143
cafe
200e
0000
0000
0146
cafe
240e
0000
0000
013f
cafe
280e
0000
0000
0140
cafe
2c0e
0000
0000
013d
cafe
300e
0000
0000
013b
cafe
340e
0000
0000
013c
cafe
380e
0000
0000
0136
cafe
3c0e
0000
0000
0133
-
cafe
200e
0000
0000
0132
cafe
240e
0000
0000
012f
cafe
280e
0000
0000
013c
cafe
2c0e
0000
0000
0142
cafe
300e
0000
0000
0140
cafe
340e
0000
0000
0137
cafe
380e
0000
0000
0133
cafe
3c0e
0000
0000
0134
cafe
200e
0000
0000
0133
cafe
240e
0000
0000
012b
cafe
280e
0000
0000
0128
cafe
2c0e
0000
0000
012d
cafe
300e
0000
0000
0136
cafe
340e
0000
0000
0128
cafe
380e
0000
0000
012a
cafe
3c0e
0000
0000
012f
cafe
200e
0000
0000
012d
cafe
240e
0000
0000
012f
cafe
280e
0000
0000
0123
cafe
2c0e
0000
0000
0123
cafe
300e
0000
0000
0128
cafe
340e
0000
0000
012a
cafe
380e
0000
0000
012b
cafe
3c0e
0000
0000
0130
cafe
200e
0000
0000
0138
cafe
240e
0000
0000
0134
cafe
280e
0000
0000
0138
cafe
2c0e
0000
0000
0140
cafe
300e
0000
0000
013f
cafe
340e
0000
0000
013e
cafe
380e
0000
0000
0143
cafe
3c0e
0000
0000
013b
cafe
200e
0000
0000
013b
cafe
240e
0000
0000
0134
cafe
280e
0000
0000
012d
cafe
2c0e
0000
0000
0133
cafe
300e
0000
0000
0138
cafe
340e
0000
0000
0135
cafe
380e
0000
0000
013b
cafe
3c0e
0000
0000
013c
cafe
200e
0000
0000
0144
cafe
240e
0000
0000
013d
cafe
280e
0000
0000
013a
cafe
2c0e
0000
0000
013e
cafe
300e
0000
0000
013d
cafe
340e
0000
0000
0137
cafe
380e
0000
0000
0130
cafe
3c0e
0000
0000
0140
cafe
200e
0000
0000
0142
cafe
240e
0000
0000
014a
cafe
280e
0000
0000
0146
cafe
-
2c0e
0000
0000
014a
cafe
300e
0000
0000
0147
cafe
340e
0000
0000
0143
cafe
380e
0000
0000
0144
cafe
3c0e
0000
0000
0139
cafe
200e
0000
0000
0142
cafe
240e
0000
0000
013f
cafe
280e
0000
0000
0148
cafe
2c0e
0000
0000
0145
cafe
300e
0000
0000
013b
cafe
340e
0000
0000
0135
cafe
380e
0000
0000
0134
cafe
3c0e
0000
0000
0136
cafe
200e
0000
0000
013e
cafe
240e
0000
0000
0140
cafe
280e
0000
0000
0149
cafe
2c0e
0000
0000
0137
cafe
300e
0000
0000
0135
cafe
340e
0000
0000
0134
cafe
380e
0000
0000
0138
cafe
3c0e
0000
0000
013f
cafe
200e
0000
0000
013d
cafe
240e
0000
0000
0138
cafe
280e
0000
0000
0136
cafe
2c0e
0000
0000
0138
cafe
300e
0000
0000
013c
cafe
340e
0000
0000
013c
cafe
380e
0000
0000
0135
cafe
3c0e
0000
0000
013a
cafe
200e
0000
0000
013a
cafe
240e
0000
0000
013e
cafe
280e
0000
0000
013f
cafe
2c0e
0000
0000
0143
cafe
300e
0000
0000
0141
cafe
340e
0000
0000
0144
cafe
380e
0000
0000
0145
cafe
3c0e
0000
0000
0142
cafe
200e
0000
0000
013d
cafe
240e
0000
0000
0140
cafe
280e
0000
0000
0141
cafe
2c0e
0000
0000
013e
cafe
300e
0000
0000
0140
cafe
340e
0000
0000
0142
cafe
380e
0000
0000
013e
cafe
3c0e
0000
0000
0137
cafe
200e
0000
0000
013e
cafe
240e
0000
0000
0148
cafe
280e
0000
0000
013c
cafe
2c0e
0000
0000
014c
cafe
300e
0000
0000
0144
cafe
340e
0000
0000
013b
cafe
380e
-
0000
0000
0140
cafe
3c0e
0000
0000
0135
cafe
200e
0000
0000
0140
cafe
240e
0000
0000
0137
cafe
280e
0000
0000
013e
cafe
2c0e
0000
0000
013c
cafe
300e
0000
0000
013c
cafe
340e
0000
0000
0140
cafe
380e
0000
0000
013f
cafe
3c0e
0000
0000
0137
cafe
200e
0000
0000
0138
cafe
240e
0000
0000
0145
cafe
280e
0000
0000
013b
cafe
2c0e
0000
0000
0136
cafe
300e
0000
0000
0134
cafe
340e
0000
0000
0138
cafe
380e
0000
0000
013a
cafe
3c0e
0000
0000
0139
cafe
200e
0000
0000
0134
cafe
240e
0000
0000
012f
cafe
280e
0000
0000
013f
cafe
2c0e
0000
0000
0140
cafe
300e
0000
0000
0139
cafe
340e
0000
0000
0140
cafe
380e
0000
0000
013a
cafe
3c0e
0000
0000
0140
cafe
200e
0000
0000
0141
cafe
240e
0000
0000
0138
cafe
280e
0000
0000
0137
cafe
2c0e
0000
0000
0131
cafe
300e
0000
0000
013e
cafe
340e
0000
0000
0133
cafe
380e
0000
0000
013e
cafe
3c0e
0000
0000
013e
cafe
200e
0000
0000
0143
cafe
240e
0000
0000
013f
cafe
280e
0000
0000
013d
cafe
2c0e
0000
0000
013b
cafe
300e
0000
0000
013c
cafe
340e
0000
0000
013c
cafe
380e
0000
0000
013e
cafe
3c0e
0000
0000
0139
cafe
200e
0000
0000
0133
cafe
240e
0000
0000
012c
cafe
280e
0000
0000
012d
cafe
2c0e
0000
0000
0135
cafe
300e
0000
0000
0137
cafe
340e
0000
0000
013a
cafe
380e
0000
0000
0132
cafe
3c0e
0000
0000
0135
cafe
200e
0000
0000
013c
cafe
240e
0000
-
0000
0134
cafe
280e
0000
0000
0132
cafe
2c0e
0000
0000
012d
cafe
300e
0000
0000
0135
cafe
340e
0000
0000
0133
cafe
380e
0000
0000
0130
cafe
3c0e
0000
0000
0131
cafe
200e
0000
0000
013b
cafe
240e
0000
0000
013d
cafe
280e
0000
0000
0134
cafe
2c0e
0000
0000
012e
cafe
300e
0000
0000
0132
cafe
340e
0000
0000
012f
cafe
380e
0000
0000
0131
cafe
3c0e
0000
0000
0136
cafe
200e
0000
0000
0140
cafe
240e
0000
0000
013f
cafe
280e
0000
0000
0137
cafe
2c0e
0000
0000
0142
cafe
300e
0000
0000
0144
cafe
340e
0000
0000
0147
cafe
380e
0000
0000
0141
cafe
3c0e
0000
0000
0142
cafe
200e
0000
0000
0143
cafe
240e
0000
0000
0140
cafe
280e
0000
0000
013b
cafe
2c0e
0000
0000
013f
cafe
300e
0000
0000
0142
cafe
340e
0000
0000
013e
cafe
380e
0000
0000
0140
cafe
3c0e
0000
0000
013c
cafe
200e
0000
0000
0136
cafe
240e
0000
0000
0133
cafe
280e
0000
0000
0134
cafe
2c0e
0000
0000
013c
cafe
300e
0000
0000
013f
cafe
340e
0000
0000
0142
cafe
380e
0000
0000
013f
cafe
3c0e
0000
0000
0143
cafe
200e
0000
0000
013c
cafe
240e
0000
0000
0141
cafe
280e
0000
0000
0145
cafe
2c0e
0000
0000
0143
cafe
300e
0000
0000
0148
cafe
340e
0000
0000
014d
cafe
380e
0000
0000
0144
cafe
3c0e
0000
0000
0149
cafe
200e
0000
0000
013b
cafe
240e
0000
0000
0138
cafe
280e
0000
0000
013f
cafe
2c0e
0000
0000
0145
cafe
300e
0000
0000
-
0147
cafe
340e
0000
0000
0142
cafe
380e
0000
0000
013f
cafe
3c0e
0000
0000
0144
cafe
200e
0000
0000
0140
cafe
240e
0000
0000
013b
cafe
280e
0000
0000
013d
cafe
2c0e
0000
0000
0136
cafe
300e
0000
0000
0134
cafe
340e
0000
0000
0137
cafe
380e
0000
0000
0133
cafe
3c0e
0000
0000
0139
cafe
200e
0000
0000
0138
cafe
240e
0000
0000
013a
cafe
280e
0000
0000
0138
cafe
2c0e
0000
0000
013b
cafe
300e
0000
0000
0133
cafe
340e
0000
0000
0137
cafe
380e
0000
0000
0137
cafe
3c0e
0000
0000
0141
cafe
200e
0000
0000
013f
cafe
240e
0000
0000
014e
cafe
280e
0000
0000
0144
cafe
2c0e
0000
0000
0142
cafe
300e
0000
0000
013a
cafe
340e
0000
0000
0132
cafe
380e
0000
0000
0131
cafe
3c0e
0000
0000
0134
cafe
200e
0000
0000
0133
cafe
240e
0000
0000
012b
cafe
280e
0000
0000
012e
cafe
2c0e
0000
0000
0135
cafe
300e
0000
0000
012f
cafe
340e
0000
0000
0133
cafe
380e
0000
0000
0139
cafe
3c0e
0000
0000
0129
cafe
200e
0000
0000
012f
cafe
240e
0000
0000
0136
cafe
280e
0000
0000
0132
cafe
2c0e
0000
0000
012f
cafe
300e
0000
0000
0135
cafe
340e
0000
0000
0130
cafe
380e
0000
0000
0131
cafe
3c0e
0000
0000
012b
cafe
200e
0000
0000
0126
cafe
240e
0000
0000
012c
cafe
280e
0000
0000
012a
cafe
2c0e
0000
0000
012d
cafe
300e
0000
0000
013c
cafe
340e
0000
0000
0141
cafe
380e
0000
0000
0140
cafe
3c0e
0000
0000
013c
-
cafe
200e
0000
0000
013b
cafe
240e
0000
0000
013a
cafe
280e
0000
0000
0142
cafe
2c0e
0000
0000
0134
cafe
300e
0000
0000
013b
cafe
340e
0000
0000
013d
cafe
380e
0000
0000
013b
cafe
3c0e
0000
0000
013e
cafe
200e
0000
0000
0142
cafe
240e
0000
0000
0141
cafe
280e
0000
0000
0142
cafe
2c0e
0000
0000
013b
cafe
300e
0000
0000
013c
cafe
340e
0000
0000
012b
cafe
380e
0000
0000
0131
cafe
3c0e
0000
0000
0137
cafe
200e
0000
0000
0137
cafe
240e
0000
0000
013c
cafe
280e
0000
0000
0137
cafe
2c0e
0000
0000
0139
cafe
300e
0000
0000
0139
cafe
340e
0000
0000
0138
cafe
380e
0000
0000
0135
cafe
3c0e
0000
0000
0136
cafe
200e
0000
0000
0134
cafe
240e
0000
0000
0135
cafe
280e
0000
0000
0137
cafe
2c0e
0000
0000
013c
cafe
300e
0000
0000
0142
cafe
340e
0000
0000
0141
cafe
380e
0000
0000
0138
cafe
3c0e
0000
0000
012f
cafe
200e
0000
0000
013d
cafe
240e
0000
0000
0140
cafe
280e
0000
0000
013c
cafe
2c0e
0000
0000
013d
cafe
300e
0000
0000
013a
cafe
340e
0000
0000
0136
cafe
380e
0000
0000
0135
cafe
3c0e
0000
0000
0136
cafe
200e
0000
0000
0138
cafe
240e
0000
0000
013e
cafe
280e
0000
0000
0142
cafe
2c0e
0000
0000
0148
cafe
300e
0000
0000
0142
cafe
340e
0000
0000
013d
cafe
380e
0000
0000
0139
cafe
3c0e
0000
0000
013c
cafe
200e
0000
0000
0138
cafe
240e
0000
0000
012e
cafe
280e
0000
0000
0134
cafe
-
2c0e
0000
0000
0138
cafe
300e
0000
0000
0136
cafe
340e
0000
0000
013a
cafe
380e
0000
0000
0137
cafe
3c0e
0000
0000
0133
cafe
200e
0000
0000
013a
cafe
240e
0000
0000
0139
cafe
280e
0000
0000
0138
cafe
2c0e
0000
0000
013c
cafe
300e
0000
0000
0142
cafe
340e
0000
0000
0140
cafe
380e
0000
0000
013d
cafe
3c0e
0000
0000
013b
cafe
200e
0000
0000
013e
cafe
240e
0000
0000
013e
cafe
280e
0000
0000
0141
cafe
2c0e
0000
0000
013d
cafe
300e
0000
0000
0140
cafe
340e
0000
0000
013e
cafe
380e
0000
0000
013e
cafe
3c0e
0000
0000
013c
cafe
200e
0000
0000
0134
cafe
240e
0000
0000
0130
cafe
280e
0000
0000
013a
cafe
2c0e
0000
0000
0135
cafe
300e
0000
0000
012d
cafe
340e
0000
0000
0132
cafe
380e
0000
0000
013c
cafe
3c0e
0000
0000
0136
cafe
200e
0000
0000
0136
cafe
240e
0000
0000
0132
cafe
280e
0000
0000
013b
cafe
2c0e
0000
0000
0142
cafe
300e
0000
0000
013d
cafe
340e
0000
0000
013f
cafe
380e
0000
0000
0139
cafe
3c0e
0000
0000
013f
cafe
200e
0000
0000
013a
cafe
240e
0000
0000
0137
cafe
280e
0000
0000
0136
cafe
2c0e
0000
0000
0147
cafe
300e
0000
0000
013f
cafe
340e
0000
0000
0138
cafe
380e
0000
0000
013a
cafe
3c0e
0000
0000
013f
cafe
200e
0000
0000
0139
cafe
240e
0000
0000
0138
cafe
280e
0000
0000
013b
cafe
2c0e
0000
0000
013e
cafe
300e
0000
0000
013f
cafe
340e
0000
0000
013f
cafe
380e
-
0000
0000
0142
cafe
3c0e
0000
0000
0141
cafe
200e
0000
0000
0140
cafe
240e
0000
0000
0140
cafe
280e
0000
0000
0148
cafe
2c0e
0000
0000
0145
cafe
300e
0000
0000
0147
cafe
340e
0000
0000
014a
cafe
380e
0000
0000
013e
cafe
3c0e
0000
0000
013a
cafe
200e
0000
0000
0140
cafe
240e
0000
0000
014d
cafe
280e
0000
0000
014a
cafe
2c0e
0000
0000
0152
cafe
300e
0000
0000
0144
cafe
340e
0000
0000
0148
cafe
380e
0000
0000
013f
cafe
3c0e
0000
0000
0141
cafe
200e
0000
0000
0141
cafe
240e
0000
0000
0141
cafe
280e
0000
0000
013f
cafe
2c0e
0000
0000
013f
cafe
300e
0000
0000
013b
cafe
340e
0000
0000
0137
cafe
380e
0000
0000
0137
cafe
3c0e
0000
0000
0134
cafe
200e
0000
0000
0139
cafe
240e
0000
0000
0144
cafe
280e
0000
0000
0138
cafe
2c0e
0000
0000
0138
cafe
300e
0000
0000
0139
cafe
340e
0000
0000
013c
cafe
380e
0000
0000
0138
cafe
3c0e
0000
0000
013d
cafe
200e
0000
0000
0141
cafe
240e
0000
0000
0149
cafe
280e
0000
0000
0147
cafe
2c0e
0000
0000
013f
cafe
300e
0000
0000
013e
cafe
340e
0000
0000
013a
cafe
380e
0000
0000
0140
cafe
3c0e
0000
0000
013f
cafe
200e
0000
0000
0140
cafe
240e
0000
0000
0138
cafe
280e
0000
0000
0133
cafe
2c0e
0000
0000
0136
cafe
300e
0000
0000
0139
cafe
340e
0000
0000
013a
cafe
380e
0000
0000
0133
cafe
3c0e
0000
0000
0135
cafe
200e
0000
0000
013b
cafe
240e
0000
-
0000
013e
cafe
280e
0000
0000
0140
cafe
2c0e
0000
0000
0140
cafe
300e
0000
0000
0144
cafe
340e
0000
0000
0146
cafe
380e
0000
0000
0149
cafe
3c0e
0000
0000
013f
cafe
200e
0000
0000
013c
cafe
240e
0000
0000
0135
cafe
280e
0000
0000
0131
cafe
2c0e
0000
0000
0132
cafe
300e
0000
0000
0132
cafe
340e
0000
0000
0134
cafe
380e
0000
0000
0134
cafe
3c0e
0000
0000
0131
cafe
200e
0000
0000
0133
cafe
240e
0000
0000
0137
cafe
280e
0000
0000
0133
cafe
2c0e
0000
0000
0135
cafe
300e
0000
0000
013b
cafe
340e
0000
0000
0132
cafe
380e
0000
0000
013d
cafe
3c0e
0000
0000
0136
cafe
200e
0000
0000
013d
cafe
240e
0000
0000
0141
cafe
280e
0000
0000
013e
cafe
2c0e
0000
0000
0141
cafe
300e
0000
0000
012f
cafe
340e
0000
0000
012f
cafe
380e
0000
0000
0131
cafe
3c0e
0000
0000
0132
cafe
200e
0000
0000
013a
cafe
240e
0000
0000
013d
cafe
280e
0000
0000
0140
cafe
2c0e
0000
0000
0138
cafe
300e
0000
0000
0136
cafe
340e
0000
0000
0137
cafe
380e
0000
0000
0134
cafe
3c0e
0000
0000
012c
cafe
200e
0000
0000
0131
cafe
240e
0000
0000
0136
cafe
280e
0000
0000
0136
cafe
2c0e
0000
0000
0135
cafe
300e
0000
0000
0133
cafe
340e
0000
0000
0141
cafe
380e
0000
0000
013f
cafe
3c0e
0000
0000
013b
cafe
200e
0000
0000
0136
cafe
240e
0000
0000
0130
cafe
280e
0000
0000
0133
cafe
2c0e
0000
0000
0134
cafe
300e
0000
0000
-
0135
cafe
340e
0000
0000
0132
cafe
380e
0000
0000
013d
cafe
3c0e
0000
0000
013a
cafe
200e
0000
0000
0139
cafe
240e
0000
0000
0137
cafe
280e
0000
0000
013d
cafe
2c0e
0000
0000
0135
cafe
300e
0000
0000
012f
cafe
340e
0000
0000
0137
cafe
380e
0000
0000
0132
cafe
3c0e
0000
0000
0132
cafe
200e
0000
0000
0130
cafe
240e
0000
0000
012f
cafe
280e
0000
0000
012f
cafe
2c0e
0000
0000
0121
cafe
300e
0000
0000
0126
cafe
340e
0000
0000
012b
cafe
380e
0000
0000
0132
cafe
3c0e
0000
0000
012a
cafe
200e
0000
0000
012b
cafe
240e
0000
0000
0130
cafe
280e
0000
0000
013a
cafe
2c0e
0000
0000
013d
cafe
300e
0000
0000
0132
cafe
340e
0000
0000
0139
cafe
380e
0000
0000
0139
cafe
3c0e
0000
0000
0135
cafe
200e
0000
0000
0133
cafe
240e
0000
0000
0137
cafe
280e
0000
0000
0134
cafe
2c0e
0000
0000
0136
cafe
300e
0000
0000
013e
cafe
340e
0000
0000
0134
cafe
380e
0000
0000
012c
cafe
3c0e
0000
0000
012f
cafe
200e
0000
0000
012c
cafe
240e
0000
0000
0135
cafe
280e
0000
0000
0139
cafe
2c0e
0000
0000
013a
cafe
300e
0000
0000
013e
cafe
340e
0000
0000
0138
cafe
380e
0000
0000
013d
cafe
3c0e
0000
0000
0148
cafe
200e
0000
0000
0142
cafe
240e
0000
0000
013f
cafe
280e
0000
0000
0139
cafe
2c0e
0000
0000
0136
cafe
300e
0000
0000
013c
cafe
340e
0000
0000
013c
cafe
380e
0000
0000
013a
cafe
3c0e
0000
0000
013c
-
cafe
200e
0000
0000
0144
cafe
240e
0000
0000
013e
cafe
280e
0000
0000
013a
cafe
2c0e
0000
0000
012e
cafe
300e
0000
0000
012f
cafe
340e
0000
0000
0133
cafe
380e
0000
0000
0140
cafe
3c0e
0000
0000
0142
cafe
200e
0000
0000
013b
cafe
240e
0000
0000
0136
cafe
280e
0000
0000
0131
cafe
2c0e
0000
0000
0134
cafe
300e
0000
0000
012e
cafe
340e
0000
0000
0135
cafe
380e
0000
0000
0137
cafe
3c0e
0000
0000
013a
cafe
200e
0000
0000
0140
cafe
240e
0000
0000
0141
cafe
280e
0000
0000
0143
cafe
2c0e
0000
0000
0141
cafe
300e
0000
0000
0145
cafe
340e
0000
0000
0148
cafe
380e
0000
0000
013e
cafe
3c0e
0000
0000
0134
cafe
200e
0000
0000
0138
cafe
240e
0000
0000
0143
cafe
280e
0000
0000
0144
cafe
2c0e
0000
0000
0153
cafe
300e
0000
0000
0149
cafe
340e
0000
0000
014a
cafe
380e
0000
0000
014d
cafe
3c0e
0000
0000
0149
cafe
200e
0000
0000
014b
cafe
240e
0000
0000
0145
cafe
280e
0000
0000
0145
cafe
2c0e
0000
0000
013b
cafe
300e
0000
0000
013d
cafe
340e
0000
0000
0136
cafe
380e
0000
0000
0137
cafe
3c0e
0000
0000
0138
cafe
200e
0000
0000
0136
cafe
240e
0000
0000
0138
cafe
280e
0000
0000
0137
cafe
2c0e
0000
0000
0135
cafe
300e
0000
0000
0135
cafe
340e
0000
0000
0133
cafe
380e
0000
0000
013c
cafe
3c0e
0000
0000
0131
cafe
200e
0000
0000
012d
cafe
240e
0000
0000
0128
cafe
280e
0000
0000
0138
cafe
-
2c0e
0000
0000
0134
cafe
300e
0000
0000
013c
cafe
340e
0000
0000
0140
cafe
380e
0000
0000
0148
cafe
3c0e
0000
0000
0148
cafe
200e
0000
0000
013e
cafe
240e
0000
0000
013c
cafe
280e
0000
0000
013e
cafe
2c0e
0000
0000
013b
cafe
300e
0000
0000
0145
cafe
340e
0000
0000
013f
cafe
380e
0000
0000
0133
cafe
3c0e
0000
0000
0133
cafe
200e
0000
0000
012f
cafe
240e
0000
0000
012c
cafe
280e
0000
0000
0135
cafe
2c0e
0000
0000
013b
cafe
300e
0000
0000
013e
cafe
340e
0000
0000
013c
cafe
380e
0000
0000
013b
cafe
3c0e
0000
0000
0141
cafe
200e
0000
0000
0140
cafe
240e
0000
0000
014f
cafe
280e
0000
0000
0143
cafe
2c0e
0000
0000
0140
cafe
300e
0000
0000
0145
cafe
340e
0000
0000
0144
cafe
380e
0000
0000
0143
cafe
3c0e
0000
0000
013a
cafe
200e
0000
0000
013e
cafe
240e
0000
0000
013a
cafe
280e
0000
0000
0139
cafe
2c0e
0000
0000
0141
cafe
300e
0000
0000
0141
cafe
340e
0000
0000
0140
cafe
380e
0000
0000
013e
cafe
3c0e
0000
0000
0136
cafe
200e
0000
0000
0136
cafe
240e
0000
0000
0134
cafe
280e
0000
0000
0131
cafe
2c0e
0000
0000
0131
cafe
300e
0000
0000
013d
cafe
340e
0000
0000
013f
cafe
380e
0000
0000
0136
cafe
3c0e
0000
0000
013b
cafe
200e
0000
0000
0141
cafe
240e
0000
0000
013b
cafe
280e
0000
0000
0134
cafe
2c0e
0000
0000
0135
cafe
300e
0000
0000
013a
cafe
340e
0000
0000
013d
cafe
380e
-
0000
0000
0137
cafe
3c0e
0000
0000
012d
cafe
200e
0000
0000
012d
cafe
240e
0000
0000
0134
cafe
280e
0000
0000
0129
cafe
2c0e
0000
0000
0131
cafe
300e
0000
0000
0124
cafe
340e
0000
0000
012e
cafe
380e
0000
0000
013d
cafe
3c0e
0000
0000
0140
cafe
200e
0000
0000
013b
cafe
240e
0000
0000
0134
cafe
280e
0000
0000
013d
cafe
2c0e
0000
0000
013c
cafe
300e
0000
0000
0142
cafe
340e
0000
0000
013a
cafe
380e
0000
0000
0135
cafe
3c0e
0000
0000
0142
cafe
200e
0000
0000
013c
cafe
240e
0000
0000
013a
cafe
280e
0000
0000
013e
cafe
2c0e
0000
0000
0143
cafe
300e
0000
0000
0148
cafe
340e
0000
0000
013d
cafe
380e
0000
0000
013b
cafe
3c0e
0000
0000
012e
cafe
200e
0000
0000
0127
cafe
240e
0000
0000
012b
cafe
280e
0000
0000
012c
cafe
2c0e
0000
0000
012b
cafe
300e
0000
0000
012f
cafe
340e
0000
0000
0129
cafe
380e
0000
0000
0133
cafe
3c0e
0000
0000
0132
cafe
200e
0000
0000
013d
cafe
240e
0000
0000
0137
cafe
280e
0000
0000
013b
cafe
2c0e
0000
0000
013e
cafe
300e
0000
0000
0134
cafe
340e
0000
0000
0132
cafe
380e
0000
0000
0133
cafe
3c0e
0000
0000
013b
cafe
200e
0000
0000
0132
cafe
240e
0000
0000
012c
cafe
280e
0000
0000
0133
cafe
2c0e
0000
0000
0133
cafe
300e
0000
0000
0138
cafe
340e
0000
0000
0135
cafe
380e
0000
0000
0131
cafe
3c0e
0000
0000
0133
cafe
200e
0000
0000
012f
cafe
240e
0000
-
0000
012e
cafe
280e
0000
0000
0135
cafe
2c0e
0000
0000
0130
cafe
300e
0000
0000
0135
cafe
340e
0000
0000
0138
cafe
380e
0000
0000
013b
cafe
3c0e
0000
0000
0133
cafe
200e
0000
0000
0132
cafe
240e
0000
0000
0134
cafe
280e
0000
0000
013a
cafe
2c0e
0000
0000
0138
cafe
300e
0000
0000
013d
cafe
340e
0000
0000
0138
cafe
380e
0000
0000
0142
cafe
3c0e
0000
0000
013e
cafe
200e
0000
0000
013e
cafe
240e
0000
0000
0136
cafe
280e
0000
0000
0133
cafe
2c0e
0000
0000
0136
cafe
300e
0000
0000
013c
cafe
340e
0000
0000
013d
cafe
380e
0000
0000
0137
cafe
3c0e
0000
0000
0139
cafe
200e
0000
0000
013e
cafe
240e
0000
0000
013c
cafe
280e
0000
0000
0139
cafe
2c0e
0000
0000
013d
cafe
300e
0000
0000
0142
cafe
340e
0000
0000
0142
cafe
380e
0000
0000
013d
cafe
3c0e
0000
0000
013c
cafe
200e
0000
0000
013f
cafe
240e
0000
0000
013b
cafe
280e
0000
0000
0135
cafe
2c0e
0000
0000
013c
cafe
300e
0000
0000
013a
cafe
340e
0000
0000
0140
cafe
380e
0000
0000
0142
cafe
3c0e
0000
0000
013b
cafe
200e
0000
0000
0130
cafe
240e
0000
0000
012b
cafe
280e
0000
0000
0123
cafe
2c0e
0000
0000
0126
cafe
300e
0000
0000
012e
cafe
340e
0000
0000
0134
cafe
380e
0000
0000
013c
cafe
3c0e
0000
0000
0133
cafe
200e
0000
0000
013e
cafe
240e
0000
0000
0142
cafe
280e
0000
0000
0137
cafe
2c0e
0000
0000
0140
cafe
300e
0000
0000
-
013d
cafe
340e
0000
0000
013e
cafe
380e
0000
0000
0141
cafe
3c0e
0000
0000
013f
cafe
200e
0000
0000
0136
cafe
240e
0000
0000
0139
cafe
280e
0000
0000
0134
cafe
2c0e
0000
0000
013d
cafe
300e
0000
0000
013a
cafe
340e
0000
0000
013a
cafe
380e
0000
0000
0145
cafe
3c0e
0000
0000
013f
cafe
200e
0000
0000
0145
cafe
240e
0000
0000
0141
cafe
280e
0000
0000
013d
cafe
2c0e
0000
0000
013c
cafe
300e
0000
0000
0143
cafe
340e
0000
0000
0146
cafe
380e
0000
0000
0142
cafe
3c0e
0000
0000
0142
cafe
200e
0000
0000
0144
cafe
240e
0000
0000
0145
cafe
280e
0000
0000
0147
cafe
2c0e
0000
0000
013a
cafe
300e
0000
0000
0139
cafe
340e
0000
0000
013f
cafe
380e
0000
0000
0143
cafe
3c0e
0000
0000
013a
cafe
200e
0000
0000
013e
cafe
240e
0000
0000
013d
cafe
280e
0000
0000
013e
cafe
2c0e
0000
0000
013f
cafe
300e
0000
0000
0142
cafe
340e
0000
0000
0142
cafe
380e
0000
0000
0141
cafe
3c0e
0000
0000
0138
cafe
200e
0000
0000
0142
cafe
240e
0000
0000
013f
cafe
280e
0000
0000
013d
cafe
2c0e
0000
0000
0137
cafe
300e
0000
0000
013c
cafe
340e
0000
0000
0134
cafe
380e
0000
0000
0133
cafe
3c0e
0000
0000
0130
cafe
200e
0000
0000
0130
cafe
240e
0000
0000
0133
cafe
280e
0000
0000
0138
cafe
2c0e
0000
0000
013b
cafe
300e
0000
0000
013f
cafe
340e
0000
0000
013c
cafe
380e
0000
0000
013a
cafe
3c0e
0000
0000
0139
-
cafe
200e
0000
0000
013e
cafe
240e
0000
0000
0145
cafe
280e
0000
0000
0146
cafe
2c0e
0000
0000
0149
cafe
300e
0000
0000
0149
cafe
340e
0000
0000
0144
cafe
380e
0000
0000
0141
cafe
3c0e
0000
0000
013e
cafe
200e
0000
0000
013c
cafe
240e
0000
0000
0139
cafe
280e
0000
0000
0136
cafe
2c0e
0000
0000
013f
cafe
300e
0000
0000
013c
cafe
340e
0000
0000
0136
cafe
380e
0000
0000
0135
cafe
3c0e
0000
0000
013a
cafe
200e
0000
0000
0134
cafe
240e
0000
0000
0139
cafe
280e
0000
0000
013e
cafe
2c0e
0000
0000
013d
cafe
300e
0000
0000
013e
cafe
340e
0000
0000
0139
cafe
380e
0000
0000
013b
cafe
3c0e
0000
0000
0140
cafe
200e
0000
0000
0140
cafe
240e
0000
0000
013d
cafe
280e
0000
0000
0139
cafe
2c0e
0000
0000
0134
cafe
300e
0000
0000
0140
cafe
340e
0000
0000
0138
cafe
380e
0000
0000
0130
cafe
3c0e
0000
0000
0139
cafe
200e
0000
0000
0136
cafe
240e
0000
0000
012f
cafe
280e
0000
0000
012a
cafe
2c0e
0000
0000
0131
cafe
300e
0000
0000
012c
cafe
340e
0000
0000
0131
cafe
380e
0000
0000
013a
cafe
3c0e
0000
0000
013b
cafe
200e
0000
0000
013e
cafe
240e
0000
0000
013b
cafe
280e
0000
0000
013a
cafe
2c0e
0000
0000
0139
cafe
300e
0000
0000
0137
cafe
340e
0000
0000
013c
cafe
380e
0000
0000
013a
cafe
3c0e
0000
0000
013a
cafe
200e
0000
0000
013a
cafe
240e
0000
0000
013f
cafe
280e
0000
0000
013c
cafe
-
2c0e
0000
0000
013f
cafe
300e
0000
0000
013f
cafe
340e
0000
0000
0138
cafe
380e
0000
0000
013e
cafe
3c0e
0000
0000
0142
cafe
200e
0000
0000
0137
cafe
240e
0000
0000
0130
cafe
280e
0000
0000
0133
cafe
2c0e
0000
0000
013a
cafe
300e
0000
0000
0144
cafe
340e
0000
0000
0137
cafe
380e
0000
0000
0135
cafe
3c0e
0000
0000
012c
cafe
200e
0000
0000
0130
cafe
240e
0000
0000
0135
cafe
280e
0000
0000
0135
cafe
2c0e
0000
0000
012a
cafe
300e
0000
0000
012d
cafe
340e
0000
0000
0127
cafe
380e
0000
0000
0132
cafe
3c0e
0000
0000
0137
cafe
200e
0000
0000
0137
cafe
240e
0000
0000
013d
cafe
280e
0000
0000
013b
cafe
2c0e
0000
0000
013a
cafe
300e
0000
0000
013c
cafe
340e
0000
0000
013e
cafe
380e
0000
0000
013f
cafe
3c0e
0000
0000
013b
cafe
200e
0000
0000
013b
cafe
240e
0000
0000
013e
cafe
280e
0000
0000
0138
cafe
2c0e
0000
0000
0134
cafe
300e
0000
0000
012d
cafe
340e
0000
0000
012d
cafe
380e
0000
0000
0130
cafe
3c0e
0000
0000
0134
cafe
200e
0000
0000
0138
cafe
240e
0000
0000
0138
cafe
280e
0000
0000
013f
cafe
2c0e
0000
0000
013b
cafe
300e
0000
0000
013a
cafe
340e
0000
0000
013c
cafe
380e
0000
0000
0132
cafe
3c0e
0000
0000
013c
cafe
200e
0000
0000
013f
cafe
240e
0000
0000
013f
cafe
280e
0000
0000
0148
cafe
2c0e
0000
0000
014a
cafe
300e
0000
0000
014c
cafe
340e
0000
0000
014d
cafe
380e
-
0000
0000
013c
cafe
3c0e
0000
0000
0137
cafe
200e
0000
0000
0134
cafe
240e
0000
0000
013a
cafe
280e
0000
0000
0138
cafe
2c0e
0000
0000
0132
cafe
300e
0000
0000
0135
cafe
340e
0000
0000
013b
cafe
380e
0000
0000
0139
cafe
3c0e
0000
0000
013d
cafe
200e
0000
0000
013a
cafe
240e
0000
0000
0143
cafe
280e
0000
0000
013b
cafe
2c0e
0000
0000
0140
cafe
300e
0000
0000
013a
cafe
340e
0000
0000
013e
cafe
380e
0000
0000
0134
cafe
3c0e
0000
0000
0135
cafe
200e
0000
0000
0130
cafe
240e
0000
0000
013d
cafe
280e
0000
0000
013d
cafe
2c0e
0000
0000
0143
cafe
300e
0000
0000
013a
cafe
340e
0000
0000
013b
cafe
380e
0000
0000
0135
cafe
3c0e
0000
0000
0133
cafe
200e
0000
0000
0132
cafe
240e
0000
0000
013c
cafe
280e
0000
0000
012f
cafe
2c0e
0000
0000
0131
cafe
300e
0000
0000
0130
cafe
340e
0000
0000
013b
cafe
380e
0000
0000
013b
cafe
3c0e
0000
0000
0142
cafe
200e
0000
0000
0145
cafe
240e
0000
0000
013a
cafe
280e
0000
0000
013d
cafe
2c0e
0000
0000
0148
cafe
300e
0000
0000
0146
cafe
340e
0000
0000
0141
cafe
380e
0000
0000
013d
cafe
3c0e
0000
0000
0138
cafe
200e
0000
0000
0131
cafe
240e
0000
0000
0138
cafe
280e
0000
0000
0139
cafe
2c0e
0000
0000
013f
cafe
300e
0000
0000
0134
cafe
340e
0000
0000
0137
cafe
380e
0000
0000
0136
cafe
3c0e
0000
0000
013d
cafe
200e
0000
0000
013f
cafe
240e
0000
-
0000
0145
cafe
280e
0000
0000
0149
cafe
2c0e
0000
0000
014a
cafe
300e
0000
0000
0142
cafe
340e
0000
0000
014b
cafe
380e
0000
0000
014b
cafe
3c0e
0000
0000
0144
cafe
200e
0000
0000
0143
cafe
240e
0000
0000
013f
cafe
280e
0000
0000
013c
cafe
2c0e
0000
0000
013d
cafe
300e
0000
0000
012f
cafe
340e
0000
0000
013a
cafe
380e
0000
0000
0133
cafe
3c0e
0000
0000
012f
cafe
200e
0000
0000
012c
cafe
240e
0000
0000
0137
cafe
280e
0000
0000
0144
cafe
2c0e
0000
0000
0141
cafe
300e
0000
0000
0146
cafe
340e
0000
0000
0141
cafe
380e
0000
0000
0142
cafe
3c0e
0000
0000
0140
cafe
200e
0000
0000
0137
cafe
240e
0000
0000
012e
cafe
280e
0000
0000
0131
cafe
2c0e
0000
0000
0133
cafe
300e
0000
0000
0139
cafe
340e
0000
0000
0136
cafe
380e
0000
0000
0139
cafe
3c0e
0000
0000
0136
cafe
200e
0000
0000
0138
cafe
240e
0000
0000
013a
cafe
280e
0000
0000
0139
cafe
2c0e
0000
0000
0131
cafe
300e
0000
0000
0137
cafe
340e
0000
0000
0140
cafe
380e
0000
0000
013e
cafe
3c0e
0000
0000
013f
cafe
200e
0000
0000
013d
cafe
240e
0000
0000
0144
cafe
280e
0000
0000
0144
cafe
2c0e
0000
0000
0144
cafe
300e
0000
0000
013b
cafe
340e
0000
0000
013d
cafe
380e
0000
0000
013f
cafe
3c0e
0000
0000
013f
cafe
200e
0000
0000
0141
cafe
240e
0000
0000
013e
cafe
280e
0000
0000
0144
cafe
2c0e
0000
0000
0141
cafe
300e
0000
0000
-
013c
cafe
340e
0000
0000
0139
cafe
380e
0000
0000
012c
cafe
3c0e
0000
0000
012b
cafe
200e
0000
0000
012b
cafe
240e
0000
0000
012a
cafe
280e
0000
0000
013a
cafe
2c0e
0000
0000
012e
cafe
300e
0000
0000
0130
cafe
340e
0000
0000
0130
cafe
380e
0000
0000
012b
cafe
3c0e
0000
0000
012b
cafe
200e
0000
0000
0134
cafe
240e
0000
0000
0138
cafe
280e
0000
0000
0142
cafe
2c0e
0000
0000
0141
cafe
300e
0000
0000
013e
cafe
340e
0000
0000
013e
cafe
380e
0000
0000
0134
cafe
3c0e
0000
0000
0131
cafe
200e
0000
0000
013d
cafe
240e
0000
0000
0133
cafe
280e
0000
0000
0136
cafe
2c0e
0000
0000
013f
cafe
300e
0000
0000
0143
cafe
340e
0000
0000
0141
cafe
380e
0000
0000
0135
cafe
3c0e
0000
0000
012d
cafe
200e
0000
0000
012f
cafe
240e
0000
0000
0131
cafe
280e
0000
0000
012a
cafe
2c0e
0000
0000
0133
cafe
300e
0000
0000
0135
cafe
340e
0000
0000
0129
cafe
380e
0000
0000
0136
cafe
3c0e
0000
0000
012e
cafe
200e
0000
0000
0129
cafe
240e
0000
0000
012f
cafe
280e
0000
0000
0137
cafe
2c0e
0000
0000
0134
cafe
300e
0000
0000
012e
cafe
340e
0000
0000
0135
cafe
380e
0000
0000
0130
cafe
3c0e
0000
0000
012a
cafe
200e
0000
0000
0126
cafe
240e
0000
0000
0131
cafe
280e
0000
0000
012f
cafe
2c0e
0000
0000
0131
cafe
300e
0000
0000
013a
cafe
340e
0000
0000
013f
cafe
380e
0000
0000
0138
cafe
3c0e
0000
0000
013a
-
cafe
200e
0000
0000
0141
cafe
240e
0000
0000
0146
cafe
280e
0000
0000
0140
cafe
2c0e
0000
0000
013a
cafe
300e
0000
0000
0138
cafe
340e
0000
0000
0140
cafe
380e
0000
0000
0139
cafe
3c0e
0000
0000
0132
cafe
200e
0000
0000
013f
cafe
240e
0000
0000
0142
cafe
280e
0000
0000
013f
cafe
2c0e
0000
0000
0138
cafe
300e
0000
0000
0132
cafe
340e
0000
0000
0133
cafe
380e
0000
0000
013f
cafe
3c0e
0000
0000
013c
cafe
200e
0000
0000
0136
cafe
240e
0000
0000
0137
cafe
280e
0000
0000
0141
cafe
2c0e
0000
0000
0135
cafe
300e
0000
0000
0135
cafe
340e
0000
0000
0137
cafe
380e
0000
0000
0138
cafe
3c0e
0000
0000
0133
cafe
200e
0000
0000
013a
cafe
240e
0000
0000
013d
cafe
280e
0000
0000
0135
cafe
2c0e
0000
0000
012c
cafe
300e
0000
0000
0134
cafe
340e
0000
0000
0130
cafe
380e
0000
0000
0131
cafe
3c0e
0000
0000
0131
cafe
200e
0000
0000
013f
cafe
240e
0000
0000
013a
cafe
280e
0000
0000
013a
cafe
2c0e
0000
0000
0137
cafe
300e
0000
0000
0134
cafe
340e
0000
0000
0137
cafe
380e
0000
0000
0129
cafe
3c0e
0000
0000
0130
cafe
200e
0000
0000
012f
cafe
240e
0000
0000
013a
cafe
280e
0000
0000
013e
cafe
2c0e
0000
0000
0141
cafe
300e
0000
0000
0136
cafe
340e
0000
0000
013c
cafe
380e
0000
0000
013a
cafe
3c0e
0000
0000
0139
cafe
200e
0000
0000
0144
cafe
240e
0000
0000
0143
cafe
280e
0000
0000
013e
cafe
-
2c0e
0000
0000
0136
cafe
300e
0000
0000
013a
cafe
340e
0000
0000
013c
cafe
380e
0000
0000
0139
cafe
3c0e
0000
0000
0139
cafe
200e
0000
0000
013f
cafe
240e
0000
0000
0138
cafe
280e
0000
0000
013b
cafe
2c0e
0000
0000
0136
cafe
300e
0000
0000
0141
cafe
340e
0000
0000
013a
cafe
380e
0000
0000
0130
cafe
3c0e
0000
0000
0134
cafe
200e
0000
0000
0133
cafe
240e
0000
0000
0138
cafe
280e
0000
0000
013a
cafe
2c0e
0000
0000
013c
cafe
300e
0000
0000
0138
cafe
340e
0000
0000
0137
cafe
380e
0000
0000
0138
cafe
3c0e
0000
0000
013d
cafe
200e
0000
0000
0140
cafe
240e
0000
0000
0142
cafe
280e
0000
0000
013c
cafe
2c0e
0000
0000
0142
cafe
300e
0000
0000
013f
cafe
340e
0000
0000
0143
cafe
380e
0000
0000
0144
cafe
3c0e
0000
0000
0143
cafe
200e
0000
0000
0147
cafe
240e
0000
0000
0142
cafe
280e
0000
0000
0141
cafe
2c0e
0000
0000
013a
cafe
300e
0000
0000
0135
cafe
340e
0000
0000
0132
cafe
380e
0000
0000
0136
cafe
3c0e
0000
0000
0138
cafe
200e
0000
0000
013b
cafe
240e
0000
0000
0149
cafe
280e
0000
0000
0140
cafe
2c0e
0000
0000
013a
cafe
300e
0000
0000
013d
cafe
340e
0000
0000
013e
cafe
380e
0000
0000
0136
cafe
3c0e
0000
0000
0137
cafe
200e
0000
0000
0140
cafe
240e
0000
0000
0139
cafe
280e
0000
0000
0131
cafe
2c0e
0000
0000
012f
cafe
300e
0000
0000
0139
cafe
340e
0000
0000
012a
cafe
380e
-
0000
0000
012a
cafe
3c0e
0000
0000
0127
cafe
200e
0000
0000
0129
cafe
240e
0000
0000
0139
cafe
280e
0000
0000
013b
cafe
2c0e
0000
0000
0140
cafe
300e
0000
0000
0138
cafe
340e
0000
0000
0138
cafe
380e
0000
0000
0137
cafe
3c0e
0000
0000
0133
cafe
200e
0000
0000
013a
cafe
240e
0000
0000
013f
cafe
280e
0000
0000
013a
cafe
2c0e
0000
0000
013b
cafe
300e
0000
0000
0138
cafe
340e
0000
0000
013b
cafe
380e
0000
0000
0147
cafe
3c0e
0000
0000
014e
cafe
200e
0000
0000
0149
cafe
240e
0000
0000
0145
cafe
280e
0000
0000
0139
cafe
2c0e
0000
0000
013e
cafe
300e
0000
0000
0136
cafe
340e
0000
0000
0138
cafe
380e
0000
0000
0130
cafe
3c0e
0000
0000
012c
cafe
200e
0000
0000
012f
cafe
240e
0000
0000
013a
cafe
280e
0000
0000
013a
cafe
2c0e
0000
0000
0143
cafe
300e
0000
0000
0140
cafe
340e
0000
0000
013c
cafe
380e
0000
0000
0141
cafe
3c0e
0000
0000
0140
cafe
200e
0000
0000
0143
cafe
240e
0000
0000
0140
cafe
280e
0000
0000
013a
cafe
2c0e
0000
0000
0138
cafe
300e
0000
0000
0136
cafe
340e
0000
0000
012d
cafe
380e
0000
0000
0137
cafe
3c0e
0000
0000
013f
cafe
200e
0000
0000
0145
cafe
240e
0000
0000
0142
cafe
280e
0000
0000
013f
cafe
2c0e
0000
0000
0138
cafe
300e
0000
0000
0135
cafe
340e
0000
0000
0133
cafe
380e
0000
0000
012f
cafe
3c0e
0000
0000
0128
cafe
200e
0000
0000
012b
cafe
240e
0000
-
0000
0137
cafe
280e
0000
0000
012f
cafe
2c0e
0000
0000
0131
cafe
300e
0000
0000
0130
cafe
340e
0000
0000
0135
cafe
380e
0000
0000
013b
cafe
3c0e
0000
0000
013d
cafe
200e
0000
0000
0139
cafe
240e
0000
0000
0138
cafe
280e
0000
0000
0138
cafe
2c0e
0000
0000
0137
cafe
300e
0000
0000
013b
cafe
340e
0000
0000
0143
cafe
380e
0000
0000
013e
cafe
3c0e
0000
0000
013e
cafe
200e
0000
0000
013a
cafe
240e
0000
0000
013c
cafe
280e
0000
0000
0141
cafe
2c0e
0000
0000
013a
cafe
300e
0000
0000
0135
cafe
340e
0000
0000
0131
cafe
380e
0000
0000
0135
cafe
3c0e
0000
0000
0135
cafe
200e
0000
0000
013a
cafe
240e
0000
0000
013b
cafe
280e
0000
0000
0137
cafe
2c0e
0000
0000
013b
cafe
300e
0000
0000
013f
cafe
340e
0000
0000
0135
cafe
380e
0000
0000
0132
cafe
3c0e
0000
0000
0137
cafe
200e
0000
0000
013b
cafe
240e
0000
0000
013a
cafe
280e
0000
0000
0140
cafe
2c0e
0000
0000
0146
cafe
300e
0000
0000
014a
cafe
340e
0000
0000
013d
cafe
380e
0000
0000
0145
cafe
3c0e
0000
0000
0143
cafe
200e
0000
0000
013a
cafe
240e
0000
0000
013f
cafe
280e
0000
0000
0143
cafe
2c0e
0000
0000
013b
cafe
300e
0000
0000
0144
cafe
340e
0000
0000
013f
cafe
380e
0000
0000
0131
cafe
3c0e
0000
0000
012c
cafe
200e
0000
0000
0137
cafe
240e
0000
0000
013f
cafe
280e
0000
0000
013c
cafe
2c0e
0000
0000
012f
cafe
300e
0000
0000
-
012e
cafe
340e
0000
0000
0137
cafe
380e
0000
0000
013a
cafe
3c0e
0000
0000
0145
cafe
200e
0000
0000
0138
cafe
240e
0000
0000
013d
cafe
280e
0000
0000
0139
cafe
2c0e
0000
0000
0133
cafe
300e
0000
0000
0139
cafe
340e
0000
0000
0138
cafe
380e
0000
0000
0135
cafe
3c0e
0000
0000
0134
cafe
200e
0000
0000
0136
cafe
240e
0000
0000
0138
cafe
280e
0000
0000
0131
cafe
2c0e
0000
0000
013e
cafe
300e
0000
0000
013e
cafe
340e
0000
0000
0139
cafe
380e
0000
0000
0134
cafe
3c0e
0000
0000
013d
cafe
200e
0000
0000
0137
cafe
240e
0000
0000
0136
cafe
280e
0000
0000
013f
cafe
2c0e
0000
0000
013a
cafe
300e
0000
0000
012f
cafe
340e
0000
0000
013d
cafe
380e
0000
0000
013c
cafe
3c0e
0000
0000
013f
cafe
200e
0000
0000
0131
cafe
240e
0000
0000
012a
cafe
280e
0000
0000
0126
cafe
2c0e
0000
0000
0126
cafe
300e
0000
0000
0126
cafe
340e
0000
0000
012d
cafe
380e
0000
0000
012b
cafe
3c0e
0000
0000
0126
cafe
200e
0000
0000
012f
cafe
240e
0000
0000
012e
cafe
280e
0000
0000
0137
cafe
2c0e
0000
0000
0139
cafe
300e
0000
0000
0139
cafe
340e
0000
0000
013a
cafe
380e
0000
0000
0139
cafe
3c0e
0000
0000
013d
cafe
200e
0000
0000
0142
cafe
240e
0000
0000
0144
cafe
280e
0000
0000
0142
cafe
2c0e
0000
0000
0141
cafe
300e
0000
0000
013b
cafe
340e
0000
0000
013b
cafe
380e
0000
0000
0138
cafe
3c0e
0000
0000
013c
-
cafe
200e
0000
0000
0138
cafe
240e
0000
0000
013a
cafe
280e
0000
0000
0142
cafe
2c0e
0000
0000
013f
cafe
300e
0000
0000
013f
cafe
340e
0000
0000
0139
cafe
380e
0000
0000
0136
cafe
3c0e
0000
0000
0142
cafe
200e
0000
0000
013d
cafe
240e
0000
0000
013b
cafe
280e
0000
0000
0137
cafe
2c0e
0000
0000
013b
cafe
300e
0000
0000
013d
cafe
340e
0000
0000
013d
cafe
380e
0000
0000
0138
cafe
3c0e
0000
0000
013e
cafe
200e
0000
0000
0141
cafe
240e
0000
0000
0144
cafe
280e
0000
0000
0143
cafe
2c0e
0000
0000
013f
cafe
300e
0000
0000
0141
cafe
340e
0000
0000
0140
cafe
380e
0000
0000
014b
cafe
3c0e
0000
0000
013f
cafe
200e
0000
0000
0132
cafe
240e
0000
0000
0137
cafe
280e
0000
0000
0139
cafe
2c0e
0000
0000
013d
cafe
300e
0000
0000
0144
cafe
340e
0000
0000
0147
cafe
380e
0000
0000
0142
cafe
3c0e
0000
0000
0140
cafe
200e
0000
0000
013e
cafe
240e
0000
0000
013c
cafe
280e
0000
0000
0143
cafe
2c0e
0000
0000
013d
cafe
300e
0000
0000
0141
cafe
340e
0000
0000
013f
cafe
380e
0000
0000
0145
cafe
3c0e
0000
0000
0143
cafe
200e
0000
0000
0142
cafe
240e
0000
0000
0142
cafe
280e
0000
0000
0142
cafe
2c0e
0000
0000
0147
cafe
300e
0000
0000
014a
cafe
340e
0000
0000
0139
cafe
380e
0000
0000
0138
cafe
3c0e
0000
0000
013f
cafe
200e
0000
0000
0140
cafe
240e
0000
0000
013e
cafe
280e
0000
0000
0139
cafe
-
2c0e
0000
0000
0135
cafe
300e
0000
0000
013a
cafe
340e
0000
0000
0137
cafe
380e
0000
0000
013b
cafe
3c0e
0000
0000
013a
cafe
200e
0000
0000
013e
cafe
240e
0000
0000
013c
cafe
280e
0000
0000
0138
cafe
2c0e
0000
0000
0133
cafe
300e
0000
0000
0139
cafe
340e
0000
0000
013e
cafe
380e
0000
0000
013f
cafe
3c0e
0000
0000
0141
cafe
200e
0000
0000
0141
cafe
240e
0000
0000
0147
cafe
280e
0000
0000
0140
cafe
2c0e
0000
0000
0133
cafe
300e
0000
0000
0127
cafe
340e
0000
0000
012e
cafe
380e
0000
0000
012f
cafe
3c0e
0000
0000
012f
cafe
200e
0000
0000
012e
cafe
240e
0000
0000
012e
cafe
280e
0000
0000
0130
cafe
2c0e
0000
0000
0137
cafe
300e
0000
0000
013a
cafe
340e
0000
0000
014a
cafe
380e
0000
0000
0140
cafe
3c0e
0000
0000
013c
cafe
200e
0000
0000
0143
cafe
240e
0000
0000
013c
cafe
280e
0000
0000
013a
cafe
2c0e
0000
0000
013f
cafe
300e
0000
0000
0145
cafe
340e
0000
0000
0144
cafe
380e
0000
0000
0141
cafe
3c0e
0000
0000
0144
cafe
200e
0000
0000
0146
cafe
240e
0000
0000
0144
cafe
280e
0000
0000
0145
cafe
2c0e
0000
0000
0148
cafe
300e
0000
0000
013d
cafe
340e
0000
0000
0146
cafe
380e
0000
0000
0142
cafe
3c0e
0000
0000
0143
cafe
200e
0000
0000
0143
cafe
240e
0000
0000
0144
cafe
280e
0000
0000
013f
cafe
2c0e
0000
0000
013f
cafe
300e
0000
0000
013b
cafe
340e
0000
0000
013a
cafe
380e
-
0000
0000
0141
cafe
3c0e
0000
0000
0141
cafe
200e
0000
0000
0142
cafe
240e
0000
0000
0142
cafe
280e
0000
0000
0138
cafe
2c0e
0000
0000
0131
cafe
300e
0000
0000
0131
cafe
340e
0000
0000
013b
cafe
380e
0000
0000
0135
cafe
3c0e
0000
0000
0131
cafe
200e
0000
0000
012b
cafe
240e
0000
0000
0127
cafe
280e
0000
0000
012d
cafe
2c0e
0000
0000
0131
cafe
300e
0000
0000
013b
cafe
340e
0000
0000
013f
cafe
380e
0000
0000
013c
cafe
3c0e
0000
0000
013a
cafe
200e
0000
0000
0133
cafe
240e
0000
0000
012e
cafe
280e
0000
0000
0129
cafe
2c0e
0000
0000
0128
cafe
300e
0000
0000
012d
cafe
340e
0000
0000
012c
cafe
380e
0000
0000
0139
cafe
3c0e
0000
0000
013e
cafe
200e
0000
0000
0134
cafe
240e
0000
0000
0134
cafe
280e
0000
0000
013f
cafe
2c0e
0000
0000
013f
cafe
300e
0000
0000
013b
cafe
340e
0000
0000
0136
cafe
380e
0000
0000
0136
cafe
3c0e
0000
0000
0143
cafe
200e
0000
0000
013a
cafe
240e
0000
0000
013d
cafe
280e
0000
0000
0144
cafe
2c0e
0000
0000
0146
cafe
300e
0000
0000
0142
cafe
340e
0000
0000
013b
cafe
380e
0000
0000
0137
cafe
3c0e
0000
0000
0141
cafe
200e
0000
0000
013d
cafe
240e
0000
0000
013a
cafe
280e
0000
0000
0132
cafe
2c0e
0000
0000
0131
cafe
300e
0000
0000
0139
cafe
340e
0000
0000
013f
cafe
380e
0000
0000
013b
cafe
3c0e
0000
0000
0139
cafe
200e
0000
0000
0137
cafe
240e
0000
-
0000
0141
cafe
280e
0000
0000
0140
cafe
2c0e
0000
0000
013c
cafe
300e
0000
0000
0144
cafe
340e
0000
0000
0141
cafe
380e
0000
0000
0142
cafe
3c0e
0000
0000
0149
cafe
200e
0000
0000
0144
cafe
240e
0000
0000
0143
cafe
280e
0000
0000
0134
cafe
2c0e
0000
0000
013c
cafe
300e
0000
0000
013d
cafe
340e
0000
0000
013a
cafe
380e
0000
0000
013c
cafe
3c0e
0000
0000
0139
cafe
200e
0000
0000
0133
cafe
240e
0000
0000
0136
cafe
280e
0000
0000
0130
cafe
2c0e
0000
0000
0136
cafe
300e
0000
0000
0130
cafe
340e
0000
0000
0132
cafe
380e
0000
0000
0133
cafe
3c0e
0000
0000
0137
cafe
200e
0000
0000
013e
cafe
240e
0000
0000
0142
cafe
280e
0000
0000
013f
cafe
2c0e
0000
0000
0135
cafe
300e
0000
0000
0139
cafe
340e
0000
0000
0138
cafe
380e
0000
0000
013a
cafe
3c0e
0000
0000
013d
cafe
200e
0000
0000
0135
cafe
240e
0000
0000
0132
cafe
280e
0000
0000
0138
cafe
2c0e
0000
0000
013f
cafe
300e
0000
0000
0147
cafe
340e
0000
0000
013b
cafe
380e
0000
0000
0138
cafe
3c0e
0000
0000
0139
cafe
200e
0000
0000
0144
cafe
240e
0000
0000
013e
cafe
280e
0000
0000
0139
cafe
2c0e
0000
0000
0132
cafe
300e
0000
0000
013b
cafe
340e
0000
0000
013d
cafe
380e
0000
0000
0136
cafe
3c0e
0000
0000
0138
cafe
200e
0000
0000
013d
cafe
240e
0000
0000
0140
cafe
280e
0000
0000
0147
cafe
2c0e
0000
0000
0140
cafe
300e
0000
0000
-
0138
cafe
340e
0000
0000
013a
cafe
380e
0000
0000
013b
cafe
3c0e
0000
0000
0138
cafe
200e
0000
0000
0133
cafe
240e
0000
0000
0137
cafe
280e
0000
0000
0132
cafe
2c0e
0000
0000
0139
cafe
300e
0000
0000
0143
cafe
340e
0000
0000
0143
cafe
380e
0000
0000
0138
cafe
3c0e
0000
0000
0138
cafe
200e
0000
0000
0135
cafe
240e
0000
0000
0130
cafe
280e
0000
0000
0137
cafe
2c0e
0000
0000
0136
cafe
300e
0000
0000
0136
cafe
340e
0000
0000
013c
cafe
380e
0000
0000
0138
cafe
3c0e
0000
0000
013b
cafe
200e
0000
0000
013e
cafe
240e
0000
0000
0140
cafe
280e
0000
0000
013b
cafe
2c0e
0000
0000
0140
cafe
300e
0000
0000
0141
cafe
340e
0000
0000
0140
cafe
380e
0000
0000
0144
cafe
3c0e
0000
0000
013e
cafe
200e
0000
0000
0132
cafe
240e
0000
0000
013d
cafe
280e
0000
0000
0137
cafe
2c0e
0000
0000
0137
cafe
300e
0000
0000
0132
cafe
340e
0000
0000
0139
cafe
380e
0000
0000
013b
cafe
3c0e
0000
0000
013f
cafe
200e
0000
0000
0143
cafe
240e
0000
0000
013a
cafe
280e
0000
0000
0136
cafe
2c0e
0000
0000
0134
cafe
300e
0000
0000
0132
cafe
340e
0000
0000
013c
cafe
380e
0000
0000
0137
cafe
3c0e
0000
0000
013b
cafe
200e
0000
0000
013a
cafe
240e
0000
0000
013b
cafe
280e
0000
0000
013f
cafe
2c0e
0000
0000
013d
cafe
300e
0000
0000
013e
cafe
340e
0000
0000
0147
cafe
380e
0000
0000
0143
cafe
3c0e
0000
0000
0140
-
