240b
0000
0000
0138
cafe
280b
0000
0000
0135
cafe
2c0b
0000
0000
0133
cafe
300b
0000
0000
0131
cafe
340b
0000
0000
0135
cafe
380b
0000
0000
012e
cafe
3c0b
0000
0000
0133
cafe
200b
0000
0000
0130
cafe
240b
0000
0000
0129
cafe
280b
0000
0000
0129
cafe
2c0b
0000
0000
0129
cafe
300b
0000
0000
012b
cafe
340b
0000
0000
0133
cafe
380b
0000
0000
0131
cafe
3c0b
0000
0000
0131
cafe
200b
0000
0000
0131
cafe
240b
0000
0000
0129
cafe
280b
0000
0000
012b
cafe
2c0b
0000
0000
0134
cafe
300b
0000
0000
0135
cafe
340b
0000
0000
0139
cafe
380b
0000
0000
0135
cafe
3c0b
0000
0000
0137
cafe
200b
0000
0000
013b
cafe
240b
0000
0000
0133
cafe
280b
0000
0000
0139
cafe
2c0b
0000
0000
0138
cafe
300b
0000
0000
0136
cafe
340b
0000
0000
012c
cafe
380b
0000
0000
0130
cafe
3c0b
0000
0000
012d
cafe
200b
0000
0000
0134
cafe
240b
0000
0000
0125
cafe
280b
0000
0000
012f
cafe
2c0b
0000
0000
0135
cafe
300b
0000
0000
0130
cafe
340b
0000
0000
012d
cafe
380b
0000
0000
012f
cafe
3c0b
0000
0000
0131
cafe
200b
0000
0000
0131
cafe
240b
0000
0000
012d
cafe
280b
0000
0000
012c
cafe
2c0b
0000
0000
012f
cafe
300b
0000
0000
0133
cafe
340b
0000
0000
012f
cafe
380b
0000
0000
0139
cafe
3c0b
0000
0000
0137
cafe
200b
0000
0000
012f
cafe
240b
0000
0000
0134
cafe
280b
0000
0000
0131
cafe
2c0b
0000
0000
013a
cafe
300b
-
0000
0000
0137
cafe
340b
0000
0000
013d
cafe
380b
0000
0000
0135
cafe
3c0b
0000
0000
0133
cafe
200b
0000
0000
0131
cafe
240b
0000
0000
0129
cafe
280b
0000
0000
0125
cafe
2c0b
0000
0000
0126
cafe
300b
0000
0000
012b
cafe
340b
0000
0000
012d
cafe
380b
0000
0000
0121
cafe
3c0b
0000
0000
0126
cafe
200b
0000
0000
0129
cafe
240b
0000
0000
0137
cafe
280b
0000
0000
0127
cafe
2c0b
0000
0000
0129
cafe
300b
0000
0000
012c
cafe
340b
0000
0000
012a
cafe
380b
0000
0000
0129
cafe
3c0b
0000
0000
012d
cafe
200b
0000
0000
012e
cafe
240b
0000
0000
012b
cafe
280b
0000
0000
0125
cafe
2c0b
0000
0000
0124
cafe
300b
0000
0000
012c
cafe
340b
0000
0000
0126
cafe
380b
0000
0000
0125
cafe
3c0b
0000
0000
0135
cafe
200b
0000
0000
0140
cafe
240b
0000
0000
0136
cafe
280b
0000
0000
012d
cafe
2c0b
0000
0000
0129
cafe
300b
0000
0000
0126
cafe
340b
0000
0000
012a
cafe
380b
0000
0000
0127
cafe
3c0b
0000
0000
012c
cafe
200b
0000
0000
0124
cafe
240b
0000
0000
0121
cafe
280b
0000
0000
0125
cafe
2c0b
0000
0000
012d
cafe
300b
0000
0000
012c
cafe
340b
0000
0000
012d
cafe
380b
0000
0000
0122
cafe
3c0b
0000
0000
0128
cafe
200b
0000
0000
0128
cafe
240b
0000
0000
012d
cafe
280b
0000
0000
0128
cafe
2c0b
0000
0000
0122
cafe
300b
0000
0000
0126
cafe
340b
0000
0000
012f
cafe
380b
0000
0000
0135
cafe
3c0b
0000
-
0000
0133
cafe
200b
0000
0000
0124
cafe
240b
0000
0000
0126
cafe
280b
0000
0000
0130
cafe
2c0b
0000
0000
0129
cafe
300b
0000
0000
0127
cafe
340b
0000
0000
011e
cafe
380b
0000
0000
012a
cafe
3c0b
0000
0000
0126
cafe
200b
0000
0000
012d
cafe
240b
0000
0000
0127
cafe
280b
0000
0000
0127
cafe
2c0b
0000
0000
0120
cafe
300b
0000
0000
0126
cafe
340b
0000
0000
0124
cafe
380b
0000
0000
012d
cafe
3c0b
0000
0000
012f
cafe
200b
0000
0000
012a
cafe
240b
0000
0000
012f
cafe
280b
0000
0000
012a
cafe
2c0b
0000
0000
0132
cafe
300b
0000
0000
0120
cafe
340b
0000
0000
012b
cafe
380b
0000
0000
012c
cafe
3c0b
0000
0000
012e
cafe
200b
0000
0000
0133
cafe
240b
0000
0000
012b
cafe
280b
0000
0000
011e
cafe
2c0b
0000
0000
0120
cafe
300b
0000
0000
0128
cafe
340b
0000
0000
0127
cafe
380b
0000
0000
012e
cafe
3c0b
0000
0000
0133
cafe
200b
0000
0000
0138
cafe
240b
0000
0000
0142
cafe
280b
0000
0000
0141
cafe
2c0b
0000
0000
0145
cafe
300b
0000
0000
0134
cafe
340b
0000
0000
012c
cafe
380b
0000
0000
012c
cafe
3c0b
0000
0000
0127
cafe
200b
0000
0000
0124
cafe
240b
0000
0000
0130
cafe
280b
0000
0000
0124
cafe
2c0b
0000
0000
0127
cafe
300b
0000
0000
012c
cafe
340b
0000
0000
0129
cafe
380b
0000
0000
0121
cafe
3c0b
0000
0000
012e
cafe
200b
0000
0000
012b
cafe
240b
0000
0000
012e
cafe
280b
0000
0000
-
012d
cafe
2c0b
0000
0000
0129
cafe
300b
0000
0000
0128
cafe
340b
0000
0000
0127
cafe
380b
0000
0000
012e
cafe
3c0b
0000
0000
012b
cafe
200b
0000
0000
012b
cafe
240b
0000
0000
012e
cafe
280b
0000
0000
0128
cafe
2c0b
0000
0000
0128
cafe
300b
0000
0000
0122
cafe
340b
0000
0000
011b
cafe
380b
0000
0000
011b
cafe
3c0b
0000
0000
0120
cafe
200b
0000
0000
0123
cafe
240b
0000
0000
0121
cafe
280b
0000
0000
0124
cafe
2c0b
0000
0000
0127
cafe
300b
0000
0000
0125
cafe
340b
0000
0000
0121
cafe
380b
0000
0000
0119
cafe
3c0b
0000
0000
011b
cafe
200b
0000
0000
012a
cafe
240b
0000
0000
0124
cafe
280b
0000
0000
0129
cafe
2c0b
0000
0000
0124
cafe
300b
0000
0000
0126
cafe
340b
0000
0000
0121
cafe
380b
0000
0000
012e
cafe
3c0b
0000
0000
0129
cafe
200b
0000
0000
012a
cafe
240b
0000
0000
0128
cafe
280b
0000
0000
012b
cafe
2c0b
0000
0000
0132
cafe
300b
0000
0000
0132
cafe
340b
0000
0000
0137
cafe
380b
0000
0000
0130
cafe
3c0b
0000
0000
0139
cafe
200b
0000
0000
013b
cafe
240b
0000
0000
0139
cafe
280b
0000
0000
013b
cafe
2c0b
0000
0000
013a
cafe
300b
0000
0000
013c
cafe
340b
0000
0000
0139
cafe
380b
0000
0000
012f
cafe
3c0b
0000
0000
0138
cafe
200b
0000
0000
013d
cafe
240b
0000
0000
0146
cafe
280b
0000
0000
013c
cafe
2c0b
0000
0000
013d
cafe
300b
0000
0000
0137
cafe
340b
0000
0000
0139
-
cafe
380b
0000
0000
013f
cafe
3c0b
0000
0000
013d
cafe
200b
0000
0000
0138
cafe
240b
0000
0000
0132
cafe
280b
0000
0000
0132
cafe
2c0b
0000
0000
012d
cafe
300b
0000
0000
012f
cafe
340b
0000
0000
0138
cafe
380b
0000
0000
0138
cafe
3c0b
0000
0000
012c
cafe
200b
0000
0000
0128
cafe
240b
0000
0000
012d
cafe
280b
0000
0000
0129
cafe
2c0b
0000
0000
012a
cafe
300b
0000
0000
0124
cafe
340b
0000
0000
0124
cafe
380b
0000
0000
0133
cafe
3c0b
0000
0000
0134
cafe
200b
0000
0000
0136
cafe
240b
0000
0000
0134
cafe
280b
0000
0000
0135
cafe
2c0b
0000
0000
0134
cafe
300b
0000
0000
0132
cafe
340b
0000
0000
0128
cafe
380b
0000
0000
012b
cafe
3c0b
0000
0000
0131
cafe
200b
0000
0000
0139
cafe
240b
0000
0000
0134
cafe
280b
0000
0000
0130
cafe
2c0b
0000
0000
012e
cafe
300b
0000
0000
012f
cafe
340b
0000
0000
0124
cafe
380b
0000
0000
0128
cafe
3c0b
0000
0000
0127
cafe
200b
0000
0000
0124
cafe
240b
0000
0000
0123
cafe
280b
0000
0000
0127
cafe
2c0b
0000
0000
0125
cafe
300b
0000
0000
0127
cafe
340b
0000
0000
0132
cafe
380b
0000
0000
012b
cafe
3c0b
0000
0000
0124
cafe
200b
0000
0000
0125
cafe
240b
0000
0000
0123
cafe
280b
0000
0000
0125
cafe
2c0b
0000
0000
0130
cafe
300b
0000
0000
0137
cafe
340b
0000
0000
013a
cafe
380b
0000
0000
012d
cafe
3c0b
0000
0000
012a
cafe
200b
0000
0000
0126
cafe
-
240b
0000
0000
0130
cafe
280b
0000
0000
0124
cafe
2c0b
0000
0000
0120
cafe
300b
0000
0000
0125
cafe
340b
0000
0000
012a
cafe
380b
0000
0000
012f
cafe
3c0b
0000
0000
012b
cafe
200b
0000
0000
012f
cafe
240b
0000
0000
012a
cafe
280b
0000
0000
012c
cafe
2c0b
0000
0000
0127
cafe
300b
0000
0000
0126
cafe
340b
0000
0000
0126
cafe
380b
0000
0000
011d
cafe
3c0b
0000
0000
012d
cafe
200b
0000
0000
0130
cafe
240b
0000
0000
0126
cafe
280b
0000
0000
012b
cafe
2c0b
0000
0000
012f
cafe
300b
0000
0000
0131
cafe
340b
0000
0000
0128
cafe
380b
0000
0000
012a
cafe
3c0b
0000
0000
0122
cafe
200b
0000
0000
0125
cafe
240b
0000
0000
0129
cafe
280b
0000
0000
0120
cafe
2c0b
0000
0000
0123
cafe
300b
0000
0000
011f
cafe
340b
0000
0000
0127
cafe
380b
0000
0000
0124
cafe
3c0b
0000
0000
0122
cafe
200b
0000
0000
0123
cafe
240b
0000
0000
0127
cafe
280b
0000
0000
011f
cafe
2c0b
0000
0000
0124
cafe
300b
0000
0000
011f
cafe
340b
0000
0000
0123
cafe
380b
0000
0000
0128
cafe
3c0b
0000
0000
0128
cafe
200b
0000
0000
012b
cafe
240b
0000
0000
011e
cafe
280b
0000
0000
011d
cafe
2c0b
0000
0000
0129
cafe
300b
0000
0000
0123
cafe
340b
0000
0000
012d
cafe
380b
0000
0000
0138
cafe
3c0b
0000
0000
0133
cafe
200b
0000
0000
0130
cafe
240b
0000
0000
0130
cafe
280b
0000
0000
0133
cafe
2c0b
0000
0000
0140
cafe
300b
-
0000
0000
0139
cafe
340b
0000
0000
0145
cafe
380b
0000
0000
013f
cafe
3c0b
0000
0000
013c
cafe
200b
0000
0000
013e
cafe
240b
0000
0000
013b
cafe
280b
0000
0000
013d
cafe
2c0b
0000
0000
0137
cafe
300b
0000
0000
0135
cafe
340b
0000
0000
0139
cafe
380b
0000
0000
0138
cafe
3c0b
0000
0000
0140
cafe
200b
0000
0000
013c
cafe
240b
0000
0000
0140
cafe
280b
0000
0000
013e
cafe
2c0b
0000
0000
012f
cafe
300b
0000
0000
0133
cafe
340b
0000
0000
0138
cafe
380b
0000
0000
013c
cafe
3c0b
0000
0000
012c
cafe
200b
0000
0000
012e
cafe
240b
0000
0000
012c
cafe
280b
0000
0000
012c
cafe
2c0b
0000
0000
0131
cafe
300b
0000
0000
0130
cafe
340b
0000
0000
011d
cafe
380b
0000
0000
0119
cafe
3c0b
0000
0000
0117
cafe
200b
0000
0000
011c
cafe
240b
0000
0000
0126
cafe
280b
0000
0000
0126
cafe
2c0b
0000
0000
0121
cafe
300b
0000
0000
0127
cafe
340b
0000
0000
012d
cafe
380b
0000
0000
0133
cafe
3c0b
0000
0000
0131
cafe
200b
0000
0000
012e
cafe
240b
0000
0000
0128
cafe
280b
0000
0000
012d
cafe
2c0b
0000
0000
012e
cafe
300b
0000
0000
0126
cafe
340b
0000
0000
0120
cafe
380b
0000
0000
012f
cafe
3c0b
0000
0000
012f
cafe
200b
0000
0000
0121
cafe
240b
0000
0000
0128
cafe
280b
0000
0000
0122
cafe
2c0b
0000
0000
0125
cafe
300b
0000
0000
012c
cafe
340b
0000
0000
0139
cafe
380b
0000
0000
0133
cafe
3c0b
0000
-
0000
0136
cafe
200b
0000
0000
0130
cafe
240b
0000
0000
013c
cafe
280b
0000
0000
0130
cafe
2c0b
0000
0000
012a
cafe
300b
0000
0000
0125
cafe
340b
0000
0000
0130
cafe
380b
0000
0000
0134
cafe
3c0b
0000
0000
0134
cafe
200b
0000
0000
0131
cafe
240b
0000
0000
012c
cafe
280b
0000
0000
012e
cafe
2c0b
0000
0000
0136
cafe
300b
0000
0000
012c
cafe
340b
0000
0000
0126
cafe
380b
0000
0000
012a
cafe
3c0b
0000
0000
012c
cafe
200b
0000
0000
0131
cafe
240b
0000
0000
0135
cafe
280b
0000
0000
0131
cafe
2c0b
0000
0000
0138
cafe
300b
0000
0000
0135
cafe
340b
0000
0000
0136
cafe
380b
0000
0000
0131
cafe
3c0b
0000
0000
0136
cafe
200b
0000
0000
012c
cafe
240b
0000
0000
0130
cafe
280b
0000
0000
0137
cafe
2c0b
0000
0000
0132
cafe
300b
0000
0000
0132
cafe
340b
0000
0000
0130
cafe
380b
0000
0000
0127
cafe
3c0b
0000
0000
0128
cafe
200b
0000
0000
012f
cafe
240b
0000
0000
0129
cafe
280b
0000
0000
011e
cafe
2c0b
0000
0000
0121
cafe
300b
0000
0000
0121
cafe
340b
0000
0000
0124
cafe
380b
0000
0000
012d
cafe
3c0b
0000
0000
0133
cafe
200b
0000
0000
0131
cafe
240b
0000
0000
011f
cafe
280b
0000
0000
0128
cafe
2c0b
0000
0000
012d
cafe
300b
0000
0000
0128
cafe
340b
0000
0000
0123
cafe
380b
0000
0000
0128
cafe
3c0b
0000
0000
012e
cafe
200b
0000
0000
0126
cafe
240b
0000
0000
012f
cafe
280b
0000
0000
-
0126
cafe
2c0b
0000
0000
0122
cafe
300b
0000
0000
011c
cafe
340b
0000
0000
011d
cafe
380b
0000
0000
0125
cafe
3c0b
0000
0000
0123
cafe
200b
0000
0000
012a
cafe
240b
0000
0000
0134
cafe
280b
0000
0000
012c
cafe
2c0b
0000
0000
0125
cafe
300b
0000
0000
0127
cafe
340b
0000
0000
012b
cafe
380b
0000
0000
0136
cafe
3c0b
0000
0000
012d
cafe
200b
0000
0000
0129
cafe
240b
0000
0000
0126
cafe
280b
0000
0000
0121
cafe
2c0b
0000
0000
0119
cafe
300b
0000
0000
011c
cafe
340b
0000
0000
011a
cafe
380b
0000
0000
012b
cafe
3c0b
0000
0000
012f
cafe
200b
0000
0000
0135
cafe
240b
0000
0000
0133
cafe
280b
0000
0000
012b
cafe
2c0b
0000
0000
0129
cafe
300b
0000
0000
0129
cafe
340b
0000
0000
0133
cafe
380b
0000
0000
013e
cafe
3c0b
0000
0000
012c
cafe
200b
0000
0000
012d
cafe
240b
0000
0000
012c
cafe
280b
0000
0000
012c
cafe
2c0b
0000
0000
0131
cafe
300b
0000
0000
0124
cafe
340b
0000
0000
0119
cafe
380b
0000
0000
011f
cafe
3c0b
0000
0000
0120
cafe
200b
0000
0000
0126
cafe
240b
0000
0000
0137
cafe
280b
0000
0000
0136
cafe
2c0b
0000
0000
012c
cafe
300b
0000
0000
0130
cafe
340b
0000
0000
0134
cafe
380b
0000
0000
012f
cafe
3c0b
0000
0000
012b
cafe
200b
0000
0000
0133
cafe
240b
0000
0000
012c
cafe
280b
0000
0000
0129
cafe
2c0b
0000
0000
0127
cafe
300b
0000
0000
0128
cafe
340b
0000
0000
0124
-
cafe
380b
0000
0000
0127
cafe
3c0b
0000
0000
0128
cafe
200b
0000
0000
012c
cafe
240b
0000
0000
0129
cafe
280b
0000
0000
0133
cafe
2c0b
0000
0000
0137
cafe
300b
0000
0000
0132
cafe
340b
0000
0000
012f
cafe
380b
0000
0000
0132
cafe
3c0b
0000
0000
0134
cafe
200b
0000
0000
0137
cafe
240b
0000
0000
0132
cafe
280b
0000
0000
0137
cafe
2c0b
0000
0000
0136
cafe
300b
0000
0000
0136
cafe
340b
0000
0000
0134
cafe
380b
0000
0000
0134
cafe
3c0b
0000
0000
0139
cafe
200b
0000
0000
013a
cafe
240b
0000
0000
013c
cafe
280b
0000
0000
013b
cafe
2c0b
0000
0000
0130
cafe
300b
0000
0000
0132
cafe
340b
0000
0000
0130
cafe
380b
0000
0000
012c
cafe
3c0b
0000
0000
0132
cafe
200b
0000
0000
012a
cafe
240b
0000
0000
0127
cafe
280b
0000
0000
0122
cafe
2c0b
0000
0000
0125
cafe
300b
0000
0000
012b
cafe
340b
0000
0000
012e
cafe
380b
0000
0000
0128
cafe
3c0b
0000
0000
012d
cafe
200b
0000
0000
012b
cafe
240b
0000
0000
012d
cafe
280b
0000
0000
0125
cafe
2c0b
0000
0000
011e
cafe
300b
0000
0000
0121
cafe
340b
0000
0000
0123
cafe
380b
0000
0000
0125
cafe
3c0b
0000
0000
011e
cafe
200b
0000
0000
0116
cafe
240b
0000
0000
011f
cafe
280b
0000
0000
0123
cafe
2c0b
0000
0000
011f
cafe
300b
0000
0000
0122
cafe
340b
0000
0000
0127
cafe
380b
0000
0000
012a
cafe
3c0b
0000
0000
0128
cafe
200b
0000
0000
0128
cafe
-
240b
0000
0000
011d
cafe
280b
0000
0000
0124
cafe
2c0b
0000
0000
0123
cafe
300b
0000
0000
012d
cafe
340b
0000
0000
0134
cafe
380b
0000
0000
012c
cafe
3c0b
0000
0000
0131
cafe
200b
0000
0000
012b
cafe
240b
0000
0000
012a
cafe
280b
0000
0000
0126
cafe
2c0b
0000
0000
0123
cafe
300b
0000
0000
0124
cafe
340b
0000
0000
0122
cafe
380b
0000
0000
012e
cafe
3c0b
0000
0000
0131
cafe
200b
0000
0000
0133
cafe
240b
0000
0000
0134
cafe
280b
0000
0000
012f
cafe
2c0b
0000
0000
012b
cafe
300b
0000
0000
012e
cafe
340b
0000
0000
012b
cafe
380b
0000
0000
012e
cafe
3c0b
0000
0000
0121
cafe
200b
0000
0000
011f
cafe
240b
0000
0000
012c
cafe
280b
0000
0000
0130
cafe
2c0b
0000
0000
0122
cafe
300b
0000
0000
012c
cafe
340b
0000
0000
012c
cafe
380b
0000
0000
0134
cafe
3c0b
0000
0000
012e
cafe
200b
0000
0000
0123
cafe
240b
0000
0000
011a
cafe
280b
0000
0000
0120
cafe
2c0b
0000
0000
0124
cafe
300b
0000
0000
0122
cafe
340b
0000
0000
0120
cafe
380b
0000
0000
0123
cafe
3c0b
0000
0000
0124
cafe
200b
0000
0000
012b
cafe
240b
0000
0000
0123
cafe
280b
0000
0000
0125
cafe
2c0b
0000
0000
0123
cafe
300b
0000
0000
012d
cafe
340b
0000
0000
0126
cafe
380b
0000
0000
0125
cafe
3c0b
0000
0000
012e
cafe
200b
0000
0000
0127
cafe
240b
0000
0000
012a
cafe
280b
0000
0000
0128
cafe
2c0b
0000
0000
012c
cafe
300b
-
0000
0000
0133
cafe
340b
0000
0000
0136
cafe
380b
0000
0000
0136
cafe
3c0b
0000
0000
0128
cafe
200b
0000
0000
012e
cafe
240b
0000
0000
012d
cafe
280b
0000
0000
012d
cafe
2c0b
0000
0000
012c
cafe
300b
0000
0000
0134
cafe
340b
0000
0000
0135
cafe
380b
0000
0000
012c
cafe
3c0b
0000
0000
0120
cafe
200b
0000
0000
012c
cafe
240b
0000
0000
0130
cafe
280b
0000
0000
0132
cafe
2c0b
0000
0000
012d
cafe
300b
0000
0000
0131
cafe
340b
0000
0000
0125
cafe
380b
0000
0000
011f
cafe
3c0b
0000
0000
011e
cafe
200b
0000
0000
011f
cafe
240b
0000
0000
0124
cafe
280b
0000
0000
0127
cafe
2c0b
0000
0000
0130
cafe
300b
0000
0000
0127
cafe
340b
0000
0000
0131
cafe
380b
0000
0000
0123
cafe
3c0b
0000
0000
0123
cafe
200b
0000
0000
0127
cafe
240b
0000
0000
0123
cafe
280b
0000
0000
012b
cafe
2c0b
0000
0000
012a
cafe
300b
0000
0000
0131
cafe
340b
0000
0000
0136
cafe
380b
0000
0000
012e
cafe
3c0b
0000
0000
0135
cafe
200b
0000
0000
013b
cafe
240b
0000
0000
013e
cafe
280b
0000
0000
0134
cafe
2c0b
0000
0000
0135
cafe
300b
0000
0000
012c
cafe
340b
0000
0000
012d
cafe
380b
0000
0000
012b
cafe
3c0b
0000
0000
0127
cafe
200b
0000
0000
0136
cafe
240b
0000
0000
0136
cafe
280b
0000
0000
0133
cafe
2c0b
0000
0000
0130
cafe
300b
0000
0000
0133
cafe
340b
0000
0000
012d
cafe
380b
0000
0000
012f
cafe
3c0b
0000
-
0000
012c
cafe
200b
0000
0000
0122
cafe
240b
0000
0000
012c
cafe
280b
0000
0000
012b
cafe
2c0b
0000
0000
0133
cafe
300b
0000
0000
012c
cafe
340b
0000
0000
0135
cafe
380b
0000
0000
012c
cafe
3c0b
0000
0000
0131
cafe
200b
0000
0000
0136
cafe
240b
0000
0000
0138
cafe
280b
0000
0000
0133
cafe
2c0b
0000
0000
012b
cafe
300b
0000
0000
012e
cafe
340b
0000
0000
0130
cafe
380b
0000
0000
012d
cafe
3c0b
0000
0000
0130
cafe
200b
0000
0000
012a
cafe
240b
0000
0000
012b
cafe
280b
0000
0000
0138
cafe
2c0b
0000
0000
0134
cafe
300b
0000
0000
012c
cafe
340b
0000
0000
0128
cafe
380b
0000
0000
0127
cafe
3c0b
0000
0000
012d
cafe
200b
0000
0000
012a
cafe
240b
0000
0000
012b
cafe
280b
0000
0000
012d
cafe
2c0b
0000
0000
0130
cafe
300b
0000
0000
0133
cafe
340b
0000
0000
0129
cafe
380b
0000
0000
012d
cafe
3c0b
0000
0000
0127
cafe
200b
0000
0000
0129
cafe
240b
0000
0000
0130
cafe
280b
0000
0000
0127
cafe
2c0b
0000
0000
0126
cafe
300b
0000
0000
012d
cafe
340b
0000
0000
0122
cafe
380b
0000
0000
0135
cafe
3c0b
0000
0000
012a
cafe
200b
0000
0000
012e
cafe
240b
0000
0000
012e
cafe
280b
0000
0000
012a
cafe
2c0b
0000
0000
012e
cafe
300b
0000
0000
0137
cafe
340b
0000
0000
0136
cafe
380b
0000
0000
012b
cafe
3c0b
0000
0000
0133
cafe
200b
0000
0000
012e
cafe
240b
0000
0000
012d
cafe
280b
0000
0000
-
012f
cafe
2c0b
0000
0000
0135
cafe
300b
0000
0000
012e
cafe
340b
0000
0000
012a
cafe
380b
0000
0000
0127
cafe
3c0b
0000
0000
0129
cafe
200b
0000
0000
012a
cafe
240b
0000
0000
0123
cafe
280b
0000
0000
0124
cafe
2c0b
0000
0000
0130
cafe
300b
0000
0000
012b
cafe
340b
0000
0000
012d
cafe
380b
0000
0000
011d
cafe
3c0b
0000
0000
0120
cafe
200b
0000
0000
011e
cafe
240b
0000
0000
0127
cafe
280b
0000
0000
0123
cafe
2c0b
0000
0000
0123
cafe
300b
0000
0000
011b
cafe
340b
0000
0000
0127
cafe
380b
0000
0000
0122
cafe
3c0b
0000
0000
0122
cafe
200b
0000
0000
0127
cafe
240b
0000
0000
0125
cafe
280b
0000
0000
0123
cafe
2c0b
0000
0000
0124
cafe
300b
0000
0000
0127
cafe
340b
0000
0000
0129
cafe
380b
0000
0000
012b
cafe
3c0b
0000
0000
0127
cafe
200b
0000
0000
012c
cafe
240b
0000
0000
0129
cafe
280b
0000
0000
0130
cafe
2c0b
0000
0000
012c
cafe
300b
0000
0000
0129
cafe
340b
0000
0000
0130
cafe
380b
0000
0000
0127
cafe
3c0b
0000
0000
0126
cafe
200b
0000
0000
012a
cafe
240b
0000
0000
012e
cafe
280b
0000
0000
012d
cafe
2c0b
0000
0000
0125
cafe
300b
0000
0000
0121
cafe
340b
0000
0000
012b
cafe
380b
0000
0000
012b
cafe
3c0b
0000
0000
0137
cafe
200b
0000
0000
013a
cafe
240b
0000
0000
013d
cafe
280b
0000
0000
012d
cafe
2c0b
0000
0000
012a
cafe
300b
0000
0000
012d
cafe
340b
0000
0000
0134
-
cafe
380b
0000
0000
012f
cafe
3c0b
0000
0000
012c
cafe
200b
0000
0000
0139
cafe
240b
0000
0000
0137
cafe
280b
0000
0000
013a
cafe
2c0b
0000
0000
013a
cafe
300b
0000
0000
0133
cafe
340b
0000
0000
0130
cafe
380b
0000
0000
0130
cafe
3c0b
0000
0000
012f
cafe
200b
0000
0000
012c
cafe
240b
0000
0000
0129
cafe
280b
0000
0000
012f
cafe
2c0b
0000
0000
0122
cafe
300b
0000
0000
0126
cafe
340b
0000
0000
012b
cafe
380b
0000
0000
0125
cafe
3c0b
0000
0000
0124
cafe
200b
0000
0000
0124
cafe
240b
0000
0000
0120
cafe
280b
0000
0000
012c
cafe
2c0b
0000
0000
0130
cafe
300b
0000
0000
0130
cafe
340b
0000
0000
0130
cafe
380b
0000
0000
012d
cafe
3c0b
0000
0000
012d
cafe
200b
0000
0000
0129
cafe
240b
0000
0000
0124
cafe
280b
0000
0000
0129
cafe
2c0b
0000
0000
012c
cafe
300b
0000
0000
0120
cafe
340b
0000
0000
0121
cafe
380b
0000
0000
0121
cafe
3c0b
0000
0000
0124
cafe
200b
0000
0000
011e
cafe
240b
0000
0000
0123
cafe
280b
0000
0000
0130
cafe
2c0b
0000
0000
0123
cafe
300b
0000
0000
0128
cafe
340b
0000
0000
012b
cafe
380b
0000
0000
012a
cafe
3c0b
0000
0000
012e
cafe
200b
0000
0000
0133
cafe
240b
0000
0000
0132
cafe
280b
0000
0000
012c
cafe
2c0b
0000
0000
012e
cafe
300b
0000
0000
012e
cafe
340b
0000
0000
0132
cafe
380b
0000
0000
012b
cafe
3c0b
0000
0000
0134
cafe
200b
0000
0000
0130
cafe
-
240b
0000
0000
0128
cafe
280b
0000
0000
0123
cafe
2c0b
0000
0000
0124
cafe
300b
0000
0000
0121
cafe
340b
0000
0000
0128
cafe
380b
0000
0000
012e
cafe
3c0b
0000
0000
012c
cafe
200b
0000
0000
012a
cafe
240b
0000
0000
012b
cafe
280b
0000
0000
0129
cafe
2c0b
0000
0000
0121
cafe
300b
0000
0000
0126
cafe
340b
0000
0000
0126
cafe
380b
0000
0000
012a
cafe
3c0b
0000
0000
0121
cafe
200b
0000
0000
011e
cafe
240b
0000
0000
0125
cafe
280b
0000
0000
0124
cafe
2c0b
0000
0000
012f
cafe
300b
0000
0000
0137
cafe
340b
0000
0000
0132
cafe
380b
0000
0000
0135
cafe
3c0b
0000
0000
0129
cafe
200b
0000
0000
0135
cafe
240b
0000
0000
0132
cafe
280b
0000
0000
0130
cafe
2c0b
0000
0000
0122
cafe
300b
0000
0000
0127
cafe
340b
0000
0000
0125
cafe
380b
0000
0000
0127
cafe
3c0b
0000
0000
012f
cafe
200b
0000
0000
0130
cafe
240b
0000
0000
012b
cafe
280b
0000
0000
012d
cafe
2c0b
0000
0000
012d
cafe
300b
0000
0000
0134
cafe
340b
0000
0000
0134
cafe
380b
0000
0000
0128
cafe
3c0b
0000
0000
0125
cafe
200b
0000
0000
012e
cafe
240b
0000
0000
0130
cafe
280b
0000
0000
0133
cafe
2c0b
0000
0000
0136
cafe
300b
0000
0000
013b
cafe
340b
0000
0000
0134
cafe
380b
0000
0000
012f
cafe
3c0b
0000
0000
0130
cafe
200b
0000
0000
0138
cafe
240b
0000
0000
0136
cafe
280b
0000
0000
0138
cafe
2c0b
0000
0000
012e
cafe
300b
-
0000
0000
0131
cafe
340b
0000
0000
012d
cafe
380b
0000
0000
0129
cafe
3c0b
0000
0000
012b
cafe
200b
0000
0000
0124
cafe
240b
0000
0000
0127
cafe
280b
0000
0000
012f
cafe
2c0b
0000
0000
0129
cafe
300b
0000
0000
012f
cafe
340b
0000
0000
0129
cafe
380b
0000
0000
0127
cafe
3c0b
0000
0000
0134
cafe
200b
0000
0000
0141
cafe
240b
0000
0000
0143
cafe
280b
0000
0000
0148
cafe
2c0b
0000
0000
013c
cafe
300b
0000
0000
0133
cafe
340b
0000
0000
0133
cafe
380b
0000
0000
012a
cafe
3c0b
0000
0000
0127
cafe
200b
0000
0000
012d
cafe
240b
0000
0000
012a
cafe
280b
0000
0000
0128
cafe
2c0b
0000
0000
012c
cafe
300b
0000
0000
0128
cafe
340b
0000
0000
0133
cafe
380b
0000
0000
0131
cafe
3c0b
0000
0000
012e
cafe
200b
0000
0000
0135
cafe
240b
0000
0000
012c
cafe
280b
0000
0000
012b
cafe
2c0b
0000
0000
012f
cafe
300b
0000
0000
0134
cafe
340b
0000
0000
0128
cafe
380b
0000
0000
0132
cafe
3c0b
0000
0000
012f
cafe
200b
0000
0000
0138
cafe
240b
0000
0000
0137
cafe
280b
0000
0000
0134
cafe
2c0b
0000
0000
012d
cafe
300b
0000
0000
0133
cafe
340b
0000
0000
0132
cafe
380b
0000
0000
0134
cafe
3c0b
0000
0000
0133
cafe
200b
0000
0000
012f
cafe
240b
0000
0000
0135
cafe
280b
0000
0000
012c
cafe
2c0b
0000
0000
0127
cafe
300b
0000
0000
012d
cafe
340b
0000
0000
012c
cafe
380b
0000
0000
0134
cafe
3c0b
0000
-
0000
0131
cafe
200b
0000
0000
012a
cafe
240b
0000
0000
0125
cafe
280b
0000
0000
012b
cafe
2c0b
0000
0000
0131
cafe
300b
0000
0000
012b
cafe
340b
0000
0000
011c
cafe
380b
0000
0000
0126
cafe
3c0b
0000
0000
0115
cafe
200b
0000
0000
010f
cafe
240b
0000
0000
011b
cafe
280b
0000
0000
0123
cafe
2c0b
0000
0000
0122
cafe
300b
0000
0000
0126
cafe
340b
0000
0000
0129
cafe
380b
0000
0000
0124
cafe
3c0b
0000
0000
0132
cafe
200b
0000
0000
0133
cafe
240b
0000
0000
012d
cafe
280b
0000
0000
0134
cafe
2c0b
0000
0000
013b
cafe
300b
0000
0000
0131
cafe
340b
0000
0000
0129
cafe
380b
0000
0000
0122
cafe
3c0b
0000
0000
012d
cafe
200b
0000
0000
0129
cafe
240b
0000
0000
012d
cafe
280b
0000
0000
012f
cafe
2c0b
0000
0000
0130
cafe
300b
0000
0000
012b
cafe
340b
0000
0000
0133
cafe
380b
0000
0000
0130
cafe
3c0b
0000
0000
012a
cafe
200b
0000
0000
0130
cafe
240b
0000
0000
012f
cafe
280b
0000
0000
012f
cafe
2c0b
0000
0000
0133
cafe
300b
0000
0000
0134
cafe
340b
0000
0000
0138
cafe
380b
0000
0000
013b
cafe
3c0b
0000
0000
0139
cafe
200b
0000
0000
0137
cafe
240b
0000
0000
0131
cafe
280b
0000
0000
0132
cafe
2c0b
0000
0000
012d
cafe
300b
0000
0000
012b
cafe
340b
0000
0000
012b
cafe
380b
0000
0000
0127
cafe
3c0b
0000
0000
0130
cafe
200b
0000
0000
012d
cafe
240b
0000
0000
012b
cafe
280b
0000
0000
-
0131
cafe
2c0b
0000
0000
0133
cafe
300b
0000
0000
012a
cafe
340b
0000
0000
012d
cafe
380b
0000
0000
012a
cafe
3c0b
0000
0000
012a
cafe
200b
0000
0000
012a
cafe
240b
0000
0000
0124
cafe
280b
0000
0000
011c
cafe
2c0b
0000
0000
0126
cafe
300b
0000
0000
0122
cafe
340b
0000
0000
012e
cafe
380b
0000
0000
012c
cafe
3c0b
0000
0000
0127
cafe
200b
0000
0000
0123
cafe
240b
0000
0000
0124
cafe
280b
0000
0000
0126
cafe
2c0b
0000
0000
011a
cafe
300b
0000
0000
0125
cafe
340b
0000
0000
0129
cafe
380b
0000
0000
0128
cafe
3c0b
0000
0000
012f
cafe
200b
0000
0000
012f
cafe
240b
0000
0000
012e
cafe
280b
0000
0000
012b
cafe
2c0b
0000
0000
0130
cafe
300b
0000
0000
0126
cafe
340b
0000
0000
012c
cafe
380b
0000
0000
012e
cafe
3c0b
0000
0000
0137
cafe
200b
0000
0000
013d
cafe
240b
0000
0000
013c
cafe
280b
0000
0000
0130
cafe
2c0b
0000
0000
0127
cafe
300b
0000
0000
0124
cafe
340b
0000
0000
012d
cafe
380b
0000
0000
0131
cafe
3c0b
0000
0000
012e
cafe
200b
0000
0000
012c
cafe
240b
0000
0000
0136
cafe
280b
0000
0000
012d
cafe
2c0b
0000
0000
012e
cafe
300b
0000
0000
0138
cafe
340b
0000
0000
0130
cafe
380b
0000
0000
0128
cafe
3c0b
0000
0000
012a
cafe
200b
0000
0000
012e
cafe
240b
0000
0000
0128
cafe
280b
0000
0000
0121
cafe
2c0b
0000
0000
0120
cafe
300b
0000
0000
0123
cafe
340b
0000
0000
0126
-
cafe
380b
0000
0000
0129
cafe
3c0b
0000
0000
0128
cafe
200b
0000
0000
0130
cafe
240b
0000
0000
0130
cafe
280b
0000
0000
0125
cafe
2c0b
0000
0000
0131
cafe
300b
0000
0000
0135
cafe
340b
0000
0000
012c
cafe
380b
0000
0000
0126
cafe
3c0b
0000
0000
012e
cafe
200b
0000
0000
0131
cafe
240b
0000
0000
0132
cafe
280b
0000
0000
012f
cafe
2c0b
0000
0000
012d
cafe
300b
0000
0000
0130
cafe
340b
0000
0000
0130
cafe
380b
0000
0000
013a
cafe
3c0b
0000
0000
0133
cafe
200b
0000
0000
0138
cafe
240b
0000
0000
0137
cafe
280b
0000
0000
012e
cafe
2c0b
0000
0000
012b
cafe
300b
0000
0000
0138
cafe
340b
0000
0000
013b
cafe
380b
0000
0000
013c
cafe
3c0b
0000
0000
0134
cafe
200b
0000
0000
0130
cafe
240b
0000
0000
012e
cafe
280b
0000
0000
0123
cafe
2c0b
0000
0000
0123
cafe
300b
0000
0000
011e
cafe
340b
0000
0000
011d
cafe
380b
0000
0000
011e
cafe
3c0b
0000
0000
0121
cafe
200b
0000
0000
0120
cafe
240b
0000
0000
0124
cafe
280b
0000
0000
011e
cafe
2c0b
0000
0000
0126
cafe
300b
0000
0000
012d
cafe
340b
0000
0000
0128
cafe
380b
0000
0000
0128
cafe
3c0b
0000
0000
012b
cafe
200b
0000
0000
012d
cafe
240b
0000
0000
012a
cafe
280b
0000
0000
0133
cafe
2c0b
0000
0000
012c
cafe
300b
0000
0000
012e
cafe
340b
0000
0000
0128
cafe
380b
0000
0000
012c
cafe
3c0b
0000
0000
0125
cafe
200b
0000
0000
011f
cafe
-
240b
0000
0000
0124
cafe
280b
0000
0000
0124
cafe
2c0b
0000
0000
0127
cafe
300b
0000
0000
0127
cafe
340b
0000
0000
0123
cafe
380b
0000
0000
0125
cafe
3c0b
0000
0000
0120
cafe
200b
0000
0000
0122
cafe
240b
0000
0000
0124
cafe
280b
0000
0000
0121
cafe
2c0b
0000
0000
011e
cafe
300b
0000
0000
011d
cafe
340b
0000
0000
0123
cafe
380b
0000
0000
011e
cafe
3c0b
0000
0000
0125
cafe
200b
0000
0000
012b
cafe
240b
0000
0000
012c
cafe
280b
0000
0000
012b
cafe
2c0b
0000
0000
0133
cafe
300b
0000
0000
012e
cafe
340b
0000
0000
012b
cafe
380b
0000
0000
0120
cafe
3c0b
0000
0000
0122
cafe
200b
0000
0000
0127
cafe
240b
0000
0000
012b
cafe
280b
0000
0000
012c
cafe
2c0b
0000
0000
0133
cafe
300b
0000
0000
012d
cafe
340b
0000
0000
0132
cafe
380b
0000
0000
0139
cafe
3c0b
0000
0000
013c
cafe
200b
0000
0000
0133
cafe
240b
0000
0000
0133
cafe
280b
0000
0000
012e
cafe
2c0b
0000
0000
0133
cafe
300b
0000
0000
0123
cafe
340b
0000
0000
012f
cafe
380b
0000
0000
0130
cafe
3c0b
0000
0000
012f
cafe
200b
0000
0000
012c
cafe
240b
0000
0000
0135
cafe
280b
0000
0000
0137
cafe
2c0b
0000
0000
0137
cafe
300b
0000
0000
0137
cafe
340b
0000
0000
012b
cafe
380b
0000
0000
0128
cafe
3c0b
0000
0000
012c
cafe
200b
0000
0000
012a
cafe
240b
0000
0000
0133
cafe
280b
0000
0000
0132
cafe
2c0b
0000
0000
0138
cafe
300b
-
0000
0000
0134
cafe
340b
0000
0000
0135
cafe
380b
0000
0000
0137
cafe
3c0b
0000
0000
0130
cafe
200b
0000
0000
012b
cafe
240b
0000
0000
012c
cafe
280b
0000
0000
0129
cafe
2c0b
0000
0000
0122
cafe
300b
0000
0000
0128
cafe
340b
0000
0000
012b
cafe
380b
0000
0000
0131
cafe
3c0b
0000
0000
0138
cafe
200b
0000
0000
0131
cafe
240b
0000
0000
0134
cafe
280b
0000
0000
0138
cafe
2c0b
0000
0000
0135
cafe
300b
0000
0000
0138
cafe
340b
0000
0000
0131
cafe
380b
0000
0000
0133
cafe
3c0b
0000
0000
012f
cafe
200b
0000
0000
0130
cafe
240b
0000
0000
0130
cafe
280b
0000
0000
012e
cafe
2c0b
0000
0000
0132
cafe
300b
0000
0000
0130
cafe
340b
0000
0000
0132
cafe
380b
0000
0000
012d
cafe
3c0b
0000
0000
0128
cafe
200b
0000
0000
0123
cafe
240b
0000
0000
0123
cafe
280b
0000
0000
012d
cafe
2c0b
0000
0000
0130
cafe
300b
0000
0000
0128
cafe
340b
0000
0000
0125
cafe
380b
0000
0000
011a
cafe
3c0b
0000
0000
011f
cafe
200b
0000
0000
0120
cafe
240b
0000
0000
011f
cafe
280b
0000
0000
0124
cafe
2c0b
0000
0000
0122
cafe
300b
0000
0000
011f
cafe
340b
0000
0000
0122
cafe
380b
0000
0000
012b
cafe
3c0b
0000
0000
0124
cafe
200b
0000
0000
011d
cafe
240b
0000
0000
0121
cafe
280b
0000
0000
0128
cafe
2c0b
0000
0000
012c
cafe
300b
0000
0000
012b
cafe
340b
0000
0000
0129
cafe
380b
0000
0000
0125
cafe
3c0b
0000
-
0000
0126
cafe
200b
0000
0000
0125
cafe
240b
0000
0000
0122
cafe
280b
0000
0000
0125
cafe
2c0b
0000
0000
0125
cafe
300b
0000
0000
012c
cafe
340b
0000
0000
012f
cafe
380b
0000
0000
0127
cafe
3c0b
0000
0000
012c
cafe
200b
0000
0000
0132
cafe
240b
0000
0000
012f
cafe
280b
0000
0000
012d
cafe
2c0b
0000
0000
012e
cafe
300b
0000
0000
0138
cafe
340b
0000
0000
0134
cafe
380b
0000
0000
0136
cafe
3c0b
0000
0000
0138
cafe
200b
0000
0000
0132
cafe
240b
0000
0000
0139
cafe
280b
0000
0000
0135
cafe
2c0b
0000
0000
0130
cafe
300b
0000
0000
0127
cafe
340b
0000
0000
012c
cafe
380b
0000
0000
012d
cafe
3c0b
0000
0000
012e
cafe
200b
0000
0000
0132
cafe
240b
0000
0000
0131
cafe
280b
0000
0000
0134
cafe
2c0b
0000
0000
0133
cafe
300b
0000
0000
012b
cafe
340b
0000
0000
0127
cafe
380b
0000
0000
0129
cafe
3c0b
0000
0000
0128
cafe
200b
0000
0000
012c
cafe
240b
0000
0000
012a
cafe
280b
0000
0000
012b
cafe
2c0b
0000
0000
0127
cafe
300b
0000
0000
0120
cafe
340b
0000
0000
0126
cafe
380b
0000
0000
0129
cafe
3c0b
0000
0000
0127
cafe
200b
0000
0000
0130
cafe
240b
0000
0000
012a
cafe
280b
0000
0000
012c
cafe
2c0b
0000
0000
0127
cafe
300b
0000
0000
012b
cafe
340b
0000
0000
012c
cafe
380b
0000
0000
012d
cafe
3c0b
0000
0000
012c
cafe
200b
0000
0000
0127
cafe
240b
0000
0000
0131
cafe
280b
0000
0000
-
012b
cafe
2c0b
0000
0000
0122
cafe
300b
0000
0000
0125
cafe
340b
0000
0000
0126
cafe
380b
0000
0000
0128
cafe
3c0b
0000
0000
0129
cafe
200b
0000
0000
0129
cafe
240b
0000
0000
0125
cafe
280b
0000
0000
012a
cafe
2c0b
0000
0000
0131
cafe
300b
0000
0000
0122
cafe
340b
0000
0000
012b
cafe
380b
0000
0000
0133
cafe
3c0b
0000
0000
0137
cafe
200b
0000
0000
0131
cafe
240b
0000
0000
0130
cafe
280b
0000
0000
012f
cafe
2c0b
0000
0000
013e
cafe
300b
0000
0000
0132
cafe
340b
0000
0000
0126
cafe
380b
0000
0000
0132
cafe
3c0b
0000
0000
0137
cafe
200b
0000
0000
012d
cafe
240b
0000
0000
012e
cafe
280b
0000
0000
0135
cafe
2c0b
0000
0000
012a
cafe
300b
0000
0000
0125
cafe
340b
0000
0000
012c
cafe
380b
0000
0000
012c
cafe
3c0b
0000
0000
0130
cafe
200b
0000
0000
012c
cafe
240b
0000
0000
0132
cafe
280b
0000
0000
0139
cafe
2c0b
0000
0000
0142
cafe
300b
0000
0000
0136
cafe
340b
0000
0000
0134
cafe
380b
0000
0000
012b
cafe
3c0b
0000
0000
0132
cafe
200b
0000
0000
012a
cafe
240b
0000
0000
012e
cafe
280b
0000
0000
0130
cafe
2c0b
0000
0000
0124
cafe
300b
0000
0000
0127
cafe
340b
0000
0000
0129
cafe
380b
0000
0000
012b
cafe
3c0b
0000
0000
0131
cafe
200b
0000
0000
0130
cafe
240b
0000
0000
012d
cafe
280b
0000
0000
012c
cafe
2c0b
0000
0000
012e
cafe
300b
0000
0000
0122
cafe
340b
0000
0000
0123
-
cafe
380b
0000
0000
0123
cafe
3c0b
0000
0000
012c
cafe
200b
0000
0000
0132
cafe
240b
0000
0000
0132
cafe
280b
0000
0000
012b
cafe
2c0b
0000
0000
0130
cafe
300b
0000
0000
0132
cafe
340b
0000
0000
0129
cafe
380b
0000
0000
0126
cafe
3c0b
0000
0000
0124
cafe
200b
0000
0000
012b
cafe
240b
0000
0000
012f
cafe
280b
0000
0000
012f
cafe
2c0b
0000
0000
0128
cafe
300b
0000
0000
012a
cafe
340b
0000
0000
0121
cafe
380b
0000
0000
012a
cafe
3c0b
0000
0000
012f
cafe
200b
0000
0000
0133
cafe
240b
0000
0000
0129
cafe
280b
0000
0000
0133
cafe
2c0b
0000
0000
012f
cafe
300b
0000
0000
0125
cafe
340b
0000
0000
012a
cafe
380b
0000
0000
0129
cafe
3c0b
0000
0000
012d
cafe
200b
0000
0000
0130
cafe
240b
0000
0000
013a
cafe
280b
0000
0000
0135
cafe
2c0b
0000
0000
0134
cafe
300b
0000
0000
0133
cafe
340b
0000
0000
0136
cafe
380b
0000
0000
0138
cafe
3c0b
0000
0000
0136
cafe
200b
0000
0000
012f
cafe
240b
0000
0000
0132
cafe
280b
0000
0000
0131
cafe
2c0b
0000
0000
012b
cafe
300b
0000
0000
0129
cafe
340b
0000
0000
0127
cafe
380b
0000
0000
012e
cafe
3c0b
0000
0000
0126
cafe
200b
0000
0000
0128
cafe
240b
0000
0000
0128
cafe
280b
0000
0000
0128
cafe
2c0b
0000
0000
0126
cafe
300b
0000
0000
012a
cafe
340b
0000
0000
012f
cafe
380b
0000
0000
012b
cafe
3c0b
0000
0000
012a
cafe
200b
0000
0000
0126
cafe
-
240b
0000
0000
0123
cafe
280b
0000
0000
011d
cafe
2c0b
0000
0000
011c
cafe
300b
0000
0000
0119
cafe
340b
0000
0000
0111
cafe
380b
0000
0000
011f
cafe
3c0b
0000
0000
0126
cafe
200b
0000
0000
012b
cafe
240b
0000
0000
012a
cafe
280b
0000
0000
0126
cafe
2c0b
0000
0000
0130
cafe
300b
0000
0000
0127
cafe
340b
0000
0000
012e
cafe
380b
0000
0000
012f
cafe
3c0b
0000
0000
012c
cafe
200b
0000
0000
012d
cafe
240b
0000
0000
0129
cafe
280b
0000
0000
0128
cafe
2c0b
0000
0000
0128
cafe
300b
0000
0000
012b
cafe
340b
0000
0000
0130
cafe
380b
0000
0000
012f
cafe
3c0b
0000
0000
012e
cafe
200b
0000
0000
012b
cafe
240b
0000
0000
012b
cafe
280b
0000
0000
0128
cafe
2c0b
0000
0000
011e
cafe
300b
0000
0000
011e
cafe
340b
0000
0000
0128
cafe
380b
0000
0000
0132
cafe
3c0b
0000
0000
0137
cafe
200b
0000
0000
012d
cafe
240b
0000
0000
0132
cafe
280b
0000
0000
0131
cafe
2c0b
0000
0000
012b
cafe
300b
0000
0000
0132
cafe
340b
0000
0000
013d
cafe
380b
0000
0000
013b
cafe
3c0b
0000
0000
0133
cafe
200b
0000
0000
0139
cafe
240b
0000
0000
0134
cafe
280b
0000
0000
013b
cafe
2c0b
0000
0000
013b
cafe
300b
0000
0000
0133
cafe
340b
0000
0000
0138
cafe
380b
0000
0000
0133
cafe
3c0b
0000
0000
0134
cafe
200b
0000
0000
0131
cafe
240b
0000
0000
0131
cafe
280b
0000
0000
013f
cafe
2c0b
0000
0000
0135
cafe
300b
-
0000
0000
013b
cafe
340b
0000
0000
013a
cafe
380b
0000
0000
012e
cafe
3c0b
0000
0000
0131
cafe
200b
0000
0000
0135
cafe
240b
0000
0000
0133
cafe
280b
0000
0000
0127
cafe
2c0b
0000
0000
0125
cafe
300b
0000
0000
012c
cafe
340b
0000
0000
0134
cafe
380b
0000
0000
012b
cafe
3c0b
0000
0000
0125
cafe
200b
0000
0000
0127
cafe
240b
0000
0000
0129
cafe
280b
0000
0000
012a
cafe
2c0b
0000
0000
0133
cafe
300b
0000
0000
0130
cafe
340b
0000
0000
0131
cafe
380b
0000
0000
0134
cafe
3c0b
0000
0000
013a
cafe
200b
0000
0000
0136
cafe
240b
0000
0000
0140
cafe
280b
0000
0000
0133
cafe
2c0b
0000
0000
012a
cafe
300b
0000
0000
0122
cafe
340b
0000
0000
0123
cafe
380b
0000
0000
0123
cafe
3c0b
0000
0000
012d
cafe
200b
0000
0000
0128
cafe
240b
0000
0000
012c
cafe
280b
0000
0000
0125
cafe
2c0b
0000
0000
0123
cafe
300b
0000
0000
0123
cafe
340b
0000
0000
0118
cafe
380b
0000
0000
011e
cafe
3c0b
0000
0000
0126
cafe
200b
0000
0000
0128
cafe
240b
0000
0000
011d
cafe
280b
0000
0000
0122
cafe
2c0b
0000
0000
0128
cafe
300b
0000
0000
012b
cafe
340b
0000
0000
0129
cafe
380b
0000
0000
011f
cafe
3c0b
0000
0000
0120
cafe
200b
0000
0000
012b
cafe
240b
0000
0000
0127
cafe
280b
0000
0000
0126
cafe
2c0b
0000
0000
012b
cafe
300b
0000
0000
0133
cafe
340b
0000
0000
012e
cafe
380b
0000
0000
0128
cafe
3c0b
0000
-
0000
012f
cafe
200b
0000
0000
012c
cafe
240b
0000
0000
0126
cafe
280b
0000
0000
012f
cafe
2c0b
0000
0000
0129
cafe
300b
0000
0000
0128
cafe
340b
0000
0000
0132
cafe
380b
0000
0000
0136
cafe
3c0b
0000
0000
0134
cafe
200b
0000
0000
0132
cafe
240b
0000
0000
012c
cafe
280b
0000
0000
012d
cafe
2c0b
0000
0000
012d
cafe
300b
0000
0000
0126
cafe
340b
0000
0000
012b
cafe
380b
0000
0000
012c
cafe
3c0b
0000
0000
012f
cafe
200b
0000
0000
0127
cafe
240b
0000
0000
0127
cafe
280b
0000
0000
0128
cafe
2c0b
0000
0000
012a
cafe
300b
0000
0000
012b
cafe
340b
0000
0000
0136
cafe
380b
0000
0000
0135
cafe
3c0b
0000
0000
012f
cafe
200b
0000
0000
0135
cafe
240b
0000
0000
0135
cafe
280b
0000
0000
013c
cafe
2c0b
0000
0000
0142
cafe
300b
0000
0000
0140
cafe
340b
0000
0000
0133
cafe
380b
0000
0000
012d
cafe
3c0b
0000
0000
0128
cafe
200b
0000
0000
0124
cafe
240b
0000
0000
0122
cafe
280b
0000
0000
0121
cafe
2c0b
0000
0000
011c
cafe
300b
0000
0000
0125
cafe
340b
0000
0000
0124
cafe
380b
0000
0000
012b
cafe
3c0b
0000
0000
012e
cafe
200b
0000
0000
0128
cafe
240b
0000
0000
0128
cafe
280b
0000
0000
012d
cafe
2c0b
0000
0000
0135
cafe
300b
0000
0000
0133
cafe
340b
0000
0000
0135
cafe
380b
0000
0000
0133
cafe
3c0b
0000
0000
013f
cafe
200b
0000
0000
013c
cafe
240b
0000
0000
0139
cafe
280b
0000
0000
-
0140
cafe
2c0b
0000
0000
0131
cafe
300b
0000
0000
012a
cafe
340b
0000
0000
0124
cafe
380b
0000
0000
0128
cafe
3c0b
0000
0000
012b
cafe
200b
0000
0000
0129
cafe
240b
0000
0000
012e
cafe
280b
0000
0000
0132
cafe
2c0b
0000
0000
012f
cafe
300b
0000
0000
0121
cafe
340b
0000
0000
0123
cafe
380b
0000
0000
0124
cafe
3c0b
0000
0000
0125
cafe
200b
0000
0000
0128
cafe
240b
0000
0000
012d
cafe
280b
0000
0000
012a
cafe
2c0b
0000
0000
012a
cafe
300b
0000
0000
0127
cafe
340b
0000
0000
011d
cafe
380b
0000
0000
0114
cafe
3c0b
0000
0000
0119
cafe
200b
0000
0000
011d
cafe
240b
0000
0000
0120
cafe
280b
0000
0000
0120
cafe
2c0b
0000
0000
011f
cafe
300b
0000
0000
0121
cafe
340b
0000
0000
011f
cafe
380b
0000
0000
0129
cafe
3c0b
0000
0000
0129
cafe
200b
0000
0000
0126
cafe
240b
0000
0000
0121
cafe
280b
0000
0000
0126
cafe
2c0b
0000
0000
0128
cafe
300b
0000
0000
0127
cafe
340b
0000
0000
012e
cafe
380b
0000
0000
012f
cafe
3c0b
0000
0000
0129
cafe
200b
0000
0000
012a
cafe
240b
0000
0000
0121
cafe
280b
0000
0000
0128
cafe
2c0b
0000
0000
0125
cafe
300b
0000
0000
0120
cafe
340b
0000
0000
011f
cafe
380b
0000
0000
0129
cafe
3c0b
0000
0000
0124
cafe
200b
0000
0000
0126
cafe
240b
0000
0000
0127
cafe
280b
0000
0000
0126
cafe
2c0b
0000
0000
0124
cafe
300b
0000
0000
0127
cafe
340b
0000
0000
0127
-
cafe
380b
0000
0000
0127
cafe
3c0b
0000
0000
012a
cafe
200b
0000
0000
0123
cafe
240b
0000
0000
0123
cafe
280b
0000
0000
0128
cafe
2c0b
0000
0000
0129
cafe
300b
0000
0000
0126
cafe
340b
0000
0000
012c
cafe
380b
0000
0000
0122
cafe
3c0b
0000
0000
011b
cafe
200b
0000
0000
0119
cafe
240b
0000
0000
011d
cafe
280b
0000
0000
011e
cafe
2c0b
0000
0000
011e
cafe
300b
0000
0000
012d
cafe
340b
0000
0000
0124
cafe
380b
0000
0000
0120
cafe
3c0b
0000
0000
0122
cafe
200b
0000
0000
0128
cafe
240b
0000
0000
0129
cafe
280b
0000
0000
012f
cafe
2c0b
0000
0000
012c
cafe
300b
0000
0000
011f
cafe
340b
0000
0000
0128
cafe
380b
0000
0000
012b
cafe
3c0b
0000
0000
012b
cafe
200b
0000
0000
0132
cafe
240b
0000
0000
0123
cafe
280b
0000
0000
0126
cafe
2c0b
0000
0000
0127
cafe
300b
0000
0000
0125
cafe
340b
0000
0000
0128
cafe
380b
0000
0000
012c
cafe
3c0b
0000
0000
0122
cafe
200b
0000
0000
0126
cafe
240b
0000
0000
0125
cafe
280b
0000
0000
0121
cafe
2c0b
0000
0000
0124
cafe
300b
0000
0000
012c
cafe
340b
0000
0000
012a
cafe
380b
0000
0000
0126
cafe
3c0b
0000
0000
012b
cafe
200b
0000
0000
0126
cafe
240b
0000
0000
0130
cafe
280b
0000
0000
0130
cafe
2c0b
0000
0000
0125
cafe
300b
0000
0000
0131
cafe
340b
0000
0000
012e
cafe
380b
0000
0000
0128
cafe
3c0b
0000
0000
0126
cafe
200b
0000
0000
0127
cafe
-
240b
0000
0000
0123
cafe
280b
0000
0000
0128
cafe
2c0b
0000
0000
012f
cafe
300b
0000
0000
012c
cafe
340b
0000
0000
0121
cafe
380b
0000
0000
0125
cafe
3c0b
0000
0000
012e
cafe
200b
0000
0000
012c
cafe
240b
0000
0000
0135
cafe
280b
0000
0000
012f
cafe
2c0b
0000
0000
012a
cafe
300b
0000
0000
012d
cafe
340b
0000
0000
0126
cafe
380b
0000
0000
0128
cafe
3c0b
0000
0000
012c
cafe
200b
0000
0000
0131
cafe
240b
0000
0000
0131
cafe
280b
0000
0000
0135
cafe
2c0b
0000
0000
012e
cafe
300b
0000
0000
0130
cafe
340b
0000
0000
0132
cafe
380b
0000
0000
0135
cafe
3c0b
0000
0000
012f
cafe
200b
0000
0000
0131
cafe
240b
0000
0000
0134
cafe
280b
0000
0000
0134
cafe
2c0b
0000
0000
0132
cafe
300b
0000
0000
013d
cafe
340b
0000
0000
0132
cafe
380b
0000
0000
013c
cafe
3c0b
0000
0000
0139
cafe
200b
0000
0000
0138
cafe
240b
0000
0000
0134
cafe
280b
0000
0000
0136
cafe
2c0b
0000
0000
0138
cafe
300b
0000
0000
013b
cafe
340b
0000
0000
013b
cafe
380b
0000
0000
0134
cafe
3c0b
0000
0000
0136
cafe
200b
0000
0000
012f
cafe
240b
0000
0000
0128
cafe
280b
0000
0000
0123
cafe
2c0b
0000
0000
0125
cafe
300b
0000
0000
0124
cafe
340b
0000
0000
0128
cafe
380b
0000
0000
0129
cafe
3c0b
0000
0000
0125
cafe
200b
0000
0000
0125
cafe
240b
0000
0000
012a
cafe
280b
0000
0000
0131
cafe
2c0b
0000
0000
012d
cafe
300b
-
0000
0000
0131
cafe
340b
0000
0000
012d
cafe
380b
0000
0000
0136
cafe
3c0b
0000
0000
0134
cafe
200b
0000
0000
0131
cafe
240b
0000
0000
0128
cafe
280b
0000
0000
0122
cafe
2c0b
0000
0000
0126
cafe
300b
0000
0000
012c
cafe
340b
0000
0000
0135
cafe
380b
0000
0000
012b
cafe
3c0b
0000
0000
012e
cafe
200b
0000
0000
0129
cafe
240b
0000
0000
012d
cafe
280b
0000
0000
0129
cafe
2c0b
0000
0000
012c
cafe
300b
0000
0000
0129
cafe
340b
0000
0000
0120
cafe
380b
0000
0000
011f
cafe
3c0b
0000
0000
0127
cafe
200b
0000
0000
0128
cafe
240b
0000
0000
0131
cafe
280b
0000
0000
0131
cafe
2c0b
0000
0000
012f
cafe
300b
0000
0000
012b
cafe
340b
0000
0000
0124
cafe
380b
0000
0000
0122
cafe
3c0b
0000
0000
0125
cafe
200b
0000
0000
0129
cafe
240b
0000
0000
0129
cafe
280b
0000
0000
0132
cafe
2c0b
0000
0000
0132
cafe
300b
0000
0000
012b
cafe
340b
0000
0000
0128
cafe
380b
0000
0000
012f
cafe
3c0b
0000
0000
013a
cafe
200b
0000
0000
0138
cafe
240b
0000
0000
012b
cafe
280b
0000
0000
012a
cafe
2c0b
0000
0000
0136
cafe
300b
0000
0000
0137
cafe
340b
0000
0000
012b
cafe
380b
0000
0000
012d
cafe
3c0b
0000
0000
0123
cafe
200b
0000
0000
0124
cafe
240b
0000
0000
012b
cafe
280b
0000
0000
012b
cafe
2c0b
0000
0000
012b
cafe
300b
0000
0000
0130
cafe
340b
0000
0000
0131
cafe
380b
0000
0000
012e
cafe
3c0b
0000
-
0000
0125
cafe
200b
0000
0000
012b
cafe
240b
0000
0000
0129
cafe
280b
0000
0000
0122
cafe
2c0b
0000
0000
012b
cafe
300b
0000
0000
0130
cafe
340b
0000
0000
0128
cafe
380b
0000
0000
012e
cafe
3c0b
0000
0000
012c
cafe
200b
0000
0000
012a
cafe
240b
0000
0000
0120
cafe
280b
0000
0000
0123
cafe
2c0b
0000
0000
0127
cafe
300b
0000
0000
0133
cafe
340b
0000
0000
0132
cafe
380b
0000
0000
012b
cafe
3c0b
0000
0000
0130
cafe
200b
0000
0000
0134
cafe
240b
0000
0000
0135
cafe
280b
0000
0000
0130
cafe
2c0b
0000
0000
0132
cafe
300b
0000
0000
012c
cafe
340b
0000
0000
0134
cafe
380b
0000
0000
012b
cafe
3c0b
0000
0000
0133
cafe
200b
0000
0000
0138
cafe
240b
0000
0000
0133
cafe
280b
0000
0000
012f
cafe
2c0b
0000
0000
012e
cafe
300b
0000
0000
0131
cafe
340b
0000
0000
012f
cafe
380b
0000
0000
0132
cafe
3c0b
0000
0000
012a
cafe
200b
0000
0000
0130
cafe
240b
0000
0000
0130
cafe
280b
0000
0000
0133
cafe
2c0b
0000
0000
012c
cafe
300b
0000
0000
013b
cafe
340b
0000
0000
0134
cafe
380b
0000
0000
0127
cafe
3c0b
0000
0000
0126
cafe
200b
0000
0000
0126
cafe
240b
0000
0000
012f
cafe
280b
0000
0000
012f
cafe
2c0b
0000
0000
0132
cafe
300b
0000
0000
0128
cafe
340b
0000
0000
0127
cafe
380b
0000
0000
0132
cafe
3c0b
0000
0000
0134
cafe
200b
0000
0000
012b
cafe
240b
0000
0000
0134
cafe
280b
0000
0000
-
012f
cafe
2c0b
0000
0000
012f
cafe
300b
0000
0000
0130
cafe
340b
0000
0000
0133
cafe
380b
0000
0000
0131
cafe
3c0b
0000
0000
012f
cafe
200b
0000
0000
0134
cafe
240b
0000
0000
012e
cafe
280b
0000
0000
0130
cafe
2c0b
0000
0000
013a
cafe
300b
0000
0000
0137
cafe
340b
0000
0000
0139
cafe
380b
0000
0000
012c
cafe
3c0b
0000
0000
0127
cafe
200b
0000
0000
0125
cafe
240b
0000
0000
0128
cafe
280b
0000
0000
0130
cafe
2c0b
0000
0000
0126
cafe
300b
0000
0000
0124
cafe
340b
0000
0000
011d
cafe
380b
0000
0000
0128
cafe
3c0b
0000
0000
012a
cafe
200b
0000
0000
012d
cafe
240b
0000
0000
0126
cafe
280b
0000
0000
0127
cafe
2c0b
0000
0000
0128
cafe
300b
0000
0000
0128
cafe
340b
0000
0000
012a
cafe
380b
0000
0000
012c
cafe
3c0b
0000
0000
012a
cafe
200b
0000
0000
0131
cafe
240b
0000
0000
012a
cafe
280b
0000
0000
0130
cafe
2c0b
0000
0000
012c
cafe
300b
0000
0000
0123
cafe
340b
0000
0000
012c
cafe
380b
0000
0000
0134
cafe
3c0b
0000
0000
012c
cafe
200b
0000
0000
011e
cafe
240b
0000
0000
0129
cafe
280b
0000
0000
0131
cafe
2c0b
0000
0000
0131
cafe
300b
0000
0000
012c
cafe
340b
0000
0000
012f
cafe
380b
0000
0000
012d
cafe
3c0b
0000
0000
012e
cafe
200b
0000
0000
0134
cafe
240b
0000
0000
013c
cafe
280b
0000
0000
0136
cafe
2c0b
0000
0000
012e
cafe
300b
0000
0000
0133
cafe
340b
0000
0000
012b
-
cafe
380b
0000
0000
0126
cafe
3c0b
0000
0000
012c
cafe
200b
0000
0000
0130
cafe
240b
0000
0000
0131
cafe
280b
0000
0000
0132
cafe
2c0b
0000
0000
012c
cafe
300b
0000
0000
012c
cafe
340b
0000
0000
0130
cafe
380b
0000
0000
012d
cafe
3c0b
0000
0000
0137
cafe
200b
0000
0000
0134
cafe
240b
0000
0000
0138
cafe
280b
0000
0000
0136
cafe
2c0b
0000
0000
012f
cafe
300b
0000
0000
0124
cafe
340b
0000
0000
0124
cafe
380b
0000
0000
0122
cafe
3c0b
0000
0000
0124
cafe
200b
0000
0000
012e
cafe
240b
0000
0000
013f
cafe
280b
0000
0000
013c
cafe
2c0b
0000
0000
0141
cafe
300b
0000
0000
0137
cafe
340b
0000
0000
012e
cafe
380b
0000
0000
0126
cafe
3c0b
0000
0000
012c
cafe
200b
0000
0000
0139
cafe
240b
0000
0000
0133
cafe
280b
0000
0000
0132
cafe
2c0b
0000
0000
0128
cafe
300b
0000
0000
0131
cafe
340b
0000
0000
0138
cafe
380b
0000
0000
013d
cafe
3c0b
0000
0000
0138
cafe
200b
0000
0000
0133
cafe
240b
0000
0000
0133
cafe
280b
0000
0000
0130
cafe
2c0b
0000
0000
012d
cafe
300b
0000
0000
012c
cafe
340b
0000
0000
012e
cafe
380b
0000
0000
012e
cafe
3c0b
0000
0000
012f
cafe
200b
0000
0000
0128
cafe
240b
0000
0000
0133
cafe
280b
0000
0000
0139
cafe
2c0b
0000
0000
0134
cafe
300b
0000
0000
0137
cafe
340b
0000
0000
0135
cafe
380b
0000
0000
013b
cafe
3c0b
0000
0000
013a
cafe
200b
0000
0000
012e
cafe
-
240b
0000
0000
0133
cafe
280b
0000
0000
012d
cafe
2c0b
0000
0000
0126
cafe
300b
0000
0000
0128
cafe
340b
0000
0000
0120
cafe
380b
0000
0000
012d
cafe
3c0b
0000
0000
012f
cafe
200b
0000
0000
0125
cafe
240b
0000
0000
012c
cafe
280b
0000
0000
0125
cafe
2c0b
0000
0000
0128
cafe
300b
0000
0000
011e
cafe
340b
0000
0000
0127
cafe
380b
0000
0000
0119
cafe
3c0b
0000
0000
011d
cafe
200b
0000
0000
0120
cafe
240b
0000
0000
0124
cafe
280b
0000
0000
0128
cafe
2c0b
0000
0000
0119
cafe
300b
0000
0000
011f
cafe
340b
0000
0000
011b
cafe
380b
0000
0000
0120
cafe
3c0b
0000
0000
012f
cafe
200b
0000
0000
012b
cafe
240b
0000
0000
0131
cafe
280b
0000
0000
0129
cafe
2c0b
0000
0000
0121
cafe
300b
0000
0000
0127
cafe
340b
0000
0000
0121
cafe
380b
0000
0000
0127
cafe
3c0b
0000
0000
0127
cafe
200b
0000
0000
012a
cafe
240b
0000
0000
011d
cafe
280b
0000
0000
0126
cafe
2c0b
0000
0000
0129
cafe
300b
0000
0000
012d
cafe
340b
0000
0000
012b
cafe
380b
0000
0000
0128
cafe
3c0b
0000
0000
0123
cafe
200b
0000
0000
012d
cafe
240b
0000
0000
0135
cafe
280b
0000
0000
0131
cafe
2c0b
0000
0000
012e
cafe
300b
0000
0000
0133
cafe
340b
0000
0000
0134
cafe
380b
0000
0000
0124
cafe
3c0b
0000
0000
012b
cafe
200b
0000
0000
012d
cafe
240b
0000
0000
0125
cafe
280b
0000
0000
012b
cafe
2c0b
0000
0000
0129
cafe
300b
-
0000
0000
0122
cafe
340b
0000
0000
0120
cafe
380b
0000
0000
0120
cafe
3c0b
0000
0000
012f
cafe
200b
0000
0000
012a
cafe
240b
0000
0000
012a
cafe
280b
0000
0000
012d
cafe
2c0b
0000
0000
0133
cafe
300b
0000
0000
0135
cafe
340b
0000
0000
0130
cafe
380b
0000
0000
012e
cafe
3c0b
0000
0000
012c
cafe
200b
0000
0000
012e
cafe
240b
0000
0000
0138
cafe
280b
0000
0000
0136
cafe
2c0b
0000
0000
012c
cafe
300b
0000
0000
012d
cafe
340b
0000
0000
012d
cafe
380b
0000
0000
0128
cafe
3c0b
0000
0000
0129
cafe
200b
0000
0000
0127
cafe
240b
0000
0000
0127
cafe
280b
0000
0000
0126
cafe
2c0b
0000
0000
0129
cafe
300b
0000
0000
012d
cafe
340b
0000
0000
0129
cafe
380b
0000
0000
0131
cafe
3c0b
0000
0000
012b
cafe
200b
0000
0000
012b
cafe
240b
0000
0000
012b
cafe
280b
0000
0000
0136
cafe
2c0b
0000
0000
0135
cafe
300b
0000
0000
0136
cafe
340b
0000
0000
0137
cafe
380b
0000
0000
0132
cafe
3c0b
0000
0000
0132
cafe
200b
0000
0000
0132
cafe
240b
0000
0000
0129
cafe
280b
0000
0000
0130
cafe
2c0b
0000
0000
0131
cafe
300b
0000
0000
012e
cafe
340b
0000
0000
0124
cafe
380b
0000
0000
0125
cafe
3c0b
0000
0000
0125
cafe
200b
0000
0000
0128
cafe
240b
0000
0000
0126
cafe
280b
0000
0000
012b
cafe
2c0b
0000
0000
0132
cafe
300b
0000
0000
012d
cafe
340b
0000
0000
0132
cafe
380b
0000
0000
0137
cafe
3c0b
0000
-
0000
0134
cafe
200b
0000
0000
0130
cafe
240b
0000
0000
012f
cafe
280b
0000
0000
0130
cafe
2c0b
0000
0000
012d
cafe
300b
0000
0000
0127
cafe
340b
0000
0000
0127
cafe
380b
0000
0000
0131
cafe
3c0b
0000
0000
0132
cafe
200b
0000
0000
0128
cafe
240b
0000
0000
012d
cafe
280b
0000
0000
0135
cafe
2c0b
0000
0000
0138
cafe
300b
0000
0000
013d
cafe
340b
0000
0000
0138
cafe
380b
0000
0000
0134
cafe
3c0b
0000
0000
012e
cafe
200b
0000
0000
0129
cafe
240b
0000
0000
012c
cafe
280b
0000
0000
0128
cafe
2c0b
0000
0000
0128
cafe
300b
0000
0000
0127
cafe
340b
0000
0000
0134
cafe
380b
0000
0000
0127
cafe
3c0b
0000
0000
012c
cafe
200b
0000
0000
0133
cafe
240b
0000
0000
0133
cafe
280b
0000
0000
012e
cafe
2c0b
0000
0000
0131
cafe
300b
0000
0000
0135
cafe
340b
0000
0000
0134
cafe
380b
0000
0000
0139
cafe
3c0b
0000
0000
0135
cafe
200b
0000
0000
0133
cafe
240b
0000
0000
0131
cafe
280b
0000
0000
0129
cafe
2c0b
0000
0000
0121
cafe
300b
0000
0000
0127
cafe
340b
0000
0000
012a
cafe
380b
0000
0000
012f
cafe
3c0b
0000
0000
012d
cafe
200b
0000
0000
012f
cafe
240b
0000
0000
0137
cafe
280b
0000
0000
0131
cafe
2c0b
0000
0000
0136
cafe
300b
0000
0000
0139
cafe
340b
0000
0000
0138
cafe
380b
0000
0000
0138
cafe
3c0b
0000
0000
012b
cafe
200b
0000
0000
012a
cafe
240b
0000
0000
012d
cafe
280b
0000
0000
-
0133
cafe
2c0b
0000
0000
0139
cafe
300b
0000
0000
0136
cafe
340b
0000
0000
0134
cafe
380b
0000
0000
0136
cafe
3c0b
0000
0000
0139
cafe
200b
0000
0000
0137
cafe
240b
0000
0000
013b
cafe
280b
0000
0000
0136
cafe
2c0b
0000
0000
0122
cafe
300b
0000
0000
0128
cafe
340b
0000
0000
012d
cafe
380b
0000
0000
011c
cafe
3c0b
0000
0000
011f
cafe
200b
0000
0000
011b
cafe
240b
0000
0000
0124
cafe
280b
0000
0000
0121
cafe
2c0b
0000
0000
011e
cafe
300b
0000
0000
0121
cafe
340b
0000
0000
0123
cafe
380b
0000
0000
012b
cafe
3c0b
0000
0000
0123
cafe
200b
0000
0000
0124
cafe
240b
0000
0000
0125
cafe
280b
0000
0000
0125
cafe
2c0b
0000
0000
012e
cafe
300b
0000
0000
0133
cafe
340b
0000
0000
0138
cafe
380b
0000
0000
013d
cafe
3c0b
0000
0000
013f
cafe
200b
0000
0000
0138
cafe
240b
0000
0000
0134
cafe
280b
0000
0000
0132
cafe
2c0b
0000
0000
012e
cafe
300b
0000
0000
012d
cafe
340b
0000
0000
0132
cafe
380b
0000
0000
0133
cafe
3c0b
0000
0000
0130
cafe
200b
0000
0000
0131
cafe
240b
0000
0000
0130
cafe
280b
0000
0000
012d
cafe
2c0b
0000
0000
0127
cafe
300b
0000
0000
0122
cafe
340b
0000
0000
0126
cafe
380b
0000
0000
0129
cafe
3c0b
0000
0000
0127
cafe
200b
0000
0000
0129
cafe
240b
0000
0000
012d
cafe
280b
0000
0000
012b
cafe
2c0b
0000
0000
0129
cafe
300b
0000
0000
0124
cafe
340b
0000
0000
0125
-
cafe
380b
0000
0000
0127
cafe
3c0b
0000
0000
0129
cafe
200b
0000
0000
0130
cafe
240b
0000
0000
0127
cafe
280b
0000
0000
0126
cafe
2c0b
0000
0000
0129
cafe
300b
0000
0000
012c
cafe
340b
0000
0000
012f
cafe
380b
0000
0000
0129
cafe
3c0b
0000
0000
0125
cafe
200b
0000
0000
011c
cafe
240b
0000
0000
0118
cafe
280b
0000
0000
0121
cafe
2c0b
0000
0000
0124
cafe
300b
0000
0000
0120
cafe
340b
0000
0000
012a
cafe
380b
0000
0000
011e
cafe
3c0b
0000
0000
0120
cafe
200b
0000
0000
0121
cafe
240b
0000
0000
0128
cafe
280b
0000
0000
012b
cafe
2c0b
0000
0000
012d
cafe
300b
0000
0000
0131
cafe
340b
0000
0000
012b
cafe
380b
0000
0000
012e
cafe
3c0b
0000
0000
012b
cafe
200b
0000
0000
0128
cafe
240b
0000
0000
012d
cafe
280b
0000
0000
0133
cafe
2c0b
0000
0000
0134
cafe
300b
0000
0000
012e
cafe
340b
0000
0000
012e
cafe
380b
0000
0000
012c
cafe
3c0b
0000
0000
013e
cafe
200b
0000
0000
0135
cafe
240b
0000
0000
013b
cafe
280b
0000
0000
0137
cafe
2c0b
0000
0000
0139
cafe
300b
0000
0000
0138
cafe
340b
0000
0000
013d
cafe
380b
0000
0000
0141
cafe
3c0b
0000
0000
0136
cafe
200b
0000
0000
0130
cafe
240b
0000
0000
0129
cafe
280b
0000
0000
012c
cafe
2c0b
0000
0000
0137
cafe
300b
0000
0000
0138
cafe
340b
0000
0000
0130
cafe
380b
0000
0000
012d
cafe
3c0b
0000
0000
012f
cafe
200b
0000
0000
0129
cafe
-
240b
0000
0000
0127
cafe
280b
0000
0000
011b
cafe
2c0b
0000
0000
0120
cafe
300b
0000
0000
0120
cafe
340b
0000
0000
0121
cafe
380b
0000
0000
0126
cafe
3c0b
0000
0000
0128
cafe
200b
0000
0000
012b
cafe
240b
0000
0000
0133
cafe
280b
0000
0000
0135
cafe
2c0b
0000
0000
012f
cafe
300b
0000
0000
0134
cafe
340b
0000
0000
0134
cafe
380b
0000
0000
0135
cafe
3c0b
0000
0000
012f
cafe
200b
0000
0000
0132
cafe
240b
0000
0000
012d
cafe
280b
0000
0000
012b
cafe
2c0b
0000
0000
0123
cafe
300b
0000
0000
0124
cafe
340b
0000
0000
012c
cafe
380b
0000
0000
0133
cafe
3c0b
0000
0000
012d
cafe
200b
0000
0000
012b
cafe
240b
0000
0000
0133
cafe
280b
0000
0000
012b
cafe
2c0b
0000
0000
0127
cafe
300b
0000
0000
0129
cafe
340b
0000
0000
0126
cafe
380b
0000
0000
012f
cafe
3c0b
0000
0000
0125
cafe
200b
0000
0000
011b
cafe
240b
0000
0000
0119
cafe
280b
0000
0000
011b
cafe
2c0b
0000
0000
0127
cafe
300b
0000
0000
012b
cafe
340b
0000
0000
012a
cafe
380b
0000
0000
012b
cafe
3c0b
0000
0000
012d
cafe
200b
0000
0000
0130
cafe
240b
0000
0000
0127
cafe
280b
0000
0000
0131
cafe
2c0b
0000
0000
0131
cafe
300b
0000
0000
0131
cafe
340b
0000
0000
012d
cafe
380b
0000
0000
012e
cafe
3c0b
0000
0000
0125
cafe
200b
0000
0000
0122
cafe
240b
0000
0000
0129
cafe
280b
0000
0000
012f
cafe
2c0b
0000
0000
012f
cafe
300b
-
0000
0000
012b
cafe
340b
0000
0000
012c
cafe
380b
0000
0000
0127
cafe
3c0b
0000
0000
012d
cafe
200b
0000
0000
012c
cafe
240b
0000
0000
012a
cafe
280b
0000
0000
012e
cafe
2c0b
0000
0000
0132
cafe
300b
0000
0000
0131
cafe
340b
0000
0000
012d
cafe
380b
0000
0000
012d
cafe
3c0b
0000
0000
012d
cafe
200b
0000
0000
0125
cafe
240b
0000
0000
012a
cafe
280b
0000
0000
0127
cafe
2c0b
0000
0000
0125
cafe
300b
0000
0000
0130
cafe
340b
0000
0000
012f
cafe
380b
0000
0000
012d
cafe
3c0b
0000
0000
012e
cafe
200b
0000
0000
012d
cafe
240b
0000
0000
012b
cafe
280b
0000
0000
0132
cafe
2c0b
0000
0000
0127
cafe
300b
0000
0000
012e
cafe
340b
0000
0000
0131
cafe
380b
0000
0000
0132
cafe
3c0b
0000
0000
0133
cafe
200b
0000
0000
0134
cafe
240b
0000
0000
0128
cafe
280b
0000
0000
0129
cafe
2c0b
0000
0000
0127
cafe
300b
0000
0000
0121
cafe
340b
0000
0000
0128
cafe
380b
0000
0000
011d
cafe
3c0b
0000
0000
011e
cafe
200b
0000
0000
012c
cafe
240b
0000
0000
0129
cafe
280b
0000
0000
0128
cafe
2c0b
0000
0000
0124
cafe
300b
0000
0000
0134
cafe
340b
0000
0000
0127
cafe
380b
0000
0000
0128
cafe
3c0b
0000
0000
0124
cafe
200b
0000
0000
0127
cafe
240b
0000
0000
012d
cafe
280b
0000
0000
012a
cafe
2c0b
0000
0000
0120
cafe
300b
0000
0000
0119
cafe
340b
0000
0000
0117
cafe
380b
0000
0000
0117
cafe
3c0b
0000
-
0000
011f
cafe
200b
0000
0000
012f
cafe
240b
0000
0000
012c
cafe
280b
0000
0000
011f
cafe
2c0b
0000
0000
012e
cafe
300b
0000
0000
012e
cafe
340b
0000
0000
012b
cafe
380b
0000
0000
0124
cafe
3c0b
0000
0000
0128
cafe
200b
0000
0000
0138
cafe
240b
0000
0000
0130
cafe
280b
0000
0000
0136
cafe
2c0b
0000
0000
013a
cafe
300b
0000
0000
013b
cafe
340b
0000
0000
013c
cafe
380b
0000
0000
0136
cafe
3c0b
0000
0000
0131
cafe
200b
0000
0000
0126
cafe
240b
0000
0000
0124
cafe
280b
0000
0000
011e
cafe
2c0b
0000
0000
011d
cafe
300b
0000
0000
0126
cafe
340b
0000
0000
012d
cafe
380b
0000
0000
012f
cafe
3c0b
0000
0000
012f
cafe
200b
0000
0000
0121
cafe
240b
0000
0000
0122
cafe
280b
0000
0000
012c
cafe
2c0b
0000
0000
0124
cafe
300b
0000
0000
0125
cafe
340b
0000
0000
0128
cafe
380b
0000
0000
012b
cafe
3c0b
0000
0000
012b
cafe
200b
0000
0000
012c
cafe
240b
0000
0000
0122
cafe
280b
0000
0000
011f
cafe
2c0b
0000
0000
0120
cafe
300b
0000
0000
0129
cafe
340b
0000
0000
0124
cafe
380b
0000
0000
0127
cafe
3c0b
0000
0000
012a
cafe
200b
0000
0000
0135
cafe
240b
0000
0000
0135
cafe
280b
0000
0000
012d
cafe
2c0b
0000
0000
012d
cafe
300b
0000
0000
012b
cafe
340b
0000
0000
012f
cafe
380b
0000
0000
0139
cafe
3c0b
0000
0000
012e
cafe
200b
0000
0000
0134
cafe
240b
0000
0000
0134
cafe
280b
0000
0000
-
0132
cafe
2c0b
0000
0000
0130
cafe
300b
0000
0000
0126
cafe
340b
0000
0000
0124
cafe
380b
0000
0000
012b
cafe
3c0b
0000
0000
0134
cafe
200b
0000
0000
0135
cafe
240b
0000
0000
012a
cafe
280b
0000
0000
012c
cafe
2c0b
0000
0000
012a
cafe
300b
0000
0000
0135
cafe
340b
0000
0000
013b
cafe
380b
0000
0000
0138
cafe
3c0b
0000
0000
0128
cafe
200b
0000
0000
0129
cafe
240b
0000
0000
0124
cafe
280b
0000
0000
0125
cafe
2c0b
0000
0000
0126
cafe
300b
0000
0000
012b
cafe
340b
0000
0000
012c
cafe
380b
0000
0000
0130
cafe
3c0b
0000
0000
012d
cafe
200b
0000
0000
0134
cafe
240b
0000
0000
012e
cafe
280b
0000
0000
0131
cafe
2c0b
0000
0000
012e
cafe
300b
0000
0000
012a
cafe
340b
0000
0000
012e
cafe
380b
0000
0000
0130
cafe
3c0b
0000
0000
0128
cafe
200b
0000
0000
011d
cafe
240b
0000
0000
0123
cafe
280b
0000
0000
0129
cafe
2c0b
0000
0000
012e
cafe
300b
0000
0000
0131
cafe
340b
0000
0000
0131
cafe
380b
0000
0000
0132
cafe
3c0b
0000
0000
012f
cafe
200b
0000
0000
0129
cafe
240b
0000
0000
0129
cafe
280b
0000
0000
012a
cafe
2c0b
0000
0000
0137
cafe
300b
0000
0000
0134
cafe
340b
0000
0000
012a
cafe
380b
0000
0000
0131
cafe
3c0b
0000
0000
0130
cafe
200b
0000
0000
012a
cafe
240b
0000
0000
0129
cafe
280b
0000
0000
012e
cafe
2c0b
0000
0000
012b
cafe
300b
0000
0000
0132
cafe
340b
0000
0000
0137
-
