281c
0000
0000
00fd
cafe
2c1c
0000
0000
00f9
cafe
301c
0000
0000
00fc
cafe
341c
0000
0000
00fa
cafe
381c
0000
0000
00fc
cafe
3c1c
0000
0000
00fc
cafe
201c
0000
0000
00fa
cafe
241c
0000
0000
00fb
cafe
281c
0000
0000
00fb
cafe
2c1c
0000
0000
00f7
cafe
301c
0000
0000
00f9
cafe
341c
0000
0000
00fa
cafe
381c
0000
0000
00f8
cafe
3c1c
0000
0000
00f5
cafe
201c
0000
0000
00f9
cafe
241c
0000
0000
00f8
cafe
281c
0000
0000
00f7
cafe
2c1c
0000
0000
00f8
cafe
301c
0000
0000
00f7
cafe
341c
0000
0000
00fc
cafe
381c
0000
0000
00fe
cafe
3c1c
0000
0000
00fb
cafe
201c
0000
0000
00fb
cafe
241c
0000
0000
00f7
cafe
281c
0000
0000
00fa
cafe
2c1c
0000
0000
00fb
cafe
301c
0000
0000
00f7
cafe
341c
0000
0000
00f7
cafe
381c
0000
0000
00f3
cafe
3c1c
0000
0000
00f5
cafe
201c
0000
0000
00f1
cafe
241c
0000
0000
00f2
cafe
281c
0000
0000
00f6
cafe
2c1c
0000
0000
00f1
cafe
301c
0000
0000
00f7
cafe
341c
0000
0000
00f5
cafe
381c
0000
0000
00f6
cafe
3c1c
0000
0000
00fa
cafe
201c
0000
0000
00f7
cafe
241c
0000
0000
00f5
cafe
281c
0000
0000
00f9
cafe
2c1c
0000
0000
00f7
cafe
301c
0000
0000
00f9
cafe
341c
0000
0000
00fb
cafe
381c
0000
0000
00f8
cafe
3c1c
0000
0000
00f8
cafe
201c
0000
0000
00f4
cafe
241c
0000
0000
00f4
cafe
281c
0000
0000
00f7
cafe
2c1c
0000
0000
00f7
cafe
301c
0000
0000
00f5
cafe
341c
-
0000
0000
00f2
cafe
381c
0000
0000
00f7
cafe
3c1c
0000
0000
00f5
cafe
201c
0000
0000
00f9
cafe
241c
0000
0000
00f8
cafe
281c
0000
0000
00f9
cafe
2c1c
0000
0000
00ff
cafe
301c
0000
0000
00fa
cafe
341c
0000
0000
00fb
cafe
381c
0000
0000
00fe
cafe
3c1c
0000
0000
00ff
cafe
201c
0000
0000
00fe
cafe
241c
0000
0000
00fe
cafe
281c
0000
0000
00f9
cafe
2c1c
0000
0000
00fe
cafe
301c
0000
0000
00fd
cafe
341c
0000
0000
00ff
cafe
381c
0000
0000
00fe
cafe
3c1c
0000
0000
00f8
cafe
201c
0000
0000
00fc
cafe
241c
0000
0000
00fc
cafe
281c
0000
0000
00fa
cafe
2c1c
0000
0000
00fc
cafe
301c
0000
0000
00f9
cafe
341c
0000
0000
00f6
cafe
381c
0000
0000
00f6
cafe
3c1c
0000
0000
00f8
cafe
201c
0000
0000
00f7
cafe
241c
0000
0000
00f5
cafe
281c
0000
0000
00f0
cafe
2c1c
0000
0000
00ed
cafe
301c
0000
0000
00ef
cafe
341c
0000
0000
00f3
cafe
381c
0000
0000
00f1
cafe
3c1c
0000
0000
00f3
cafe
201c
0000
0000
00f8
cafe
241c
0000
0000
00f9
cafe
281c
0000
0000
00fc
cafe
2c1c
0000
0000
00fb
cafe
301c
0000
0000
0100
cafe
341c
0000
0000
0101
cafe
381c
0000
0000
00fd
cafe
3c1c
0000
0000
00fb
cafe
201c
0000
0000
00fc
cafe
241c
0000
0000
00fb
cafe
281c
0000
0000
00fc
cafe
2c1c
0000
0000
00fb
cafe
301c
0000
0000
00fc
cafe
341c
0000
0000
00f5
cafe
381c
0000
0000
00f7
cafe
3c1c
0000
0000
00f8
cafe
201c
0000
-
0000
00f5
cafe
241c
0000
0000
00f4
cafe
281c
0000
0000
00f8
cafe
2c1c
0000
0000
00fa
cafe
301c
0000
0000
00f6
cafe
341c
0000
0000
00f6
cafe
381c
0000
0000
00f3
cafe
3c1c
0000
0000
00f6
cafe
201c
0000
0000
00f6
cafe
241c
0000
0000
00f9
cafe
281c
0000
0000
00f6
cafe
2c1c
0000
0000
00f7
cafe
301c
0000
0000
00f8
cafe
341c
0000
0000
00f5
cafe
381c
0000
0000
00f6
cafe
3c1c
0000
0000
00f7
cafe
201c
0000
0000
00f8
cafe
241c
0000
0000
00f8
cafe
281c
0000
0000
00f7
cafe
2c1c
0000
0000
00fc
cafe
301c
0000
0000
00fb
cafe
341c
0000
0000
0100
cafe
381c
0000
0000
00fe
cafe
3c1c
0000
0000
00fd
cafe
201c
0000
0000
00f8
cafe
241c
0000
0000
00f7
cafe
281c
0000
0000
00f9
cafe
2c1c
0000
0000
00f9
cafe
301c
0000
0000
00fb
cafe
341c
0000
0000
00f8
cafe
381c
0000
0000
00f4
cafe
3c1c
0000
0000
00f7
cafe
201c
0000
0000
00f8
cafe
241c
0000
0000
00f8
cafe
281c
0000
0000
00f5
cafe
2c1c
0000
0000
00fa
cafe
301c
0000
0000
00f7
cafe
341c
0000
0000
00f7
cafe
381c
0000
0000
00f6
cafe
3c1c
0000
0000
00fb
cafe
201c
0000
0000
00f9
cafe
241c
0000
0000
00f8
cafe
281c
0000
0000
00f6
cafe
2c1c
0000
0000
00f5
cafe
301c
0000
0000
00f2
cafe
341c
0000
0000
00f6
cafe
381c
0000
0000
00fa
cafe
3c1c
0000
0000
00f4
cafe
201c
0000
0000
00f2
cafe
241c
0000
0000
00f1
cafe
281c
0000
0000
00f4
cafe
2c1c
0000
0000
-
00f4
cafe
301c
0000
0000
00f1
cafe
341c
0000
0000
00f6
cafe
381c
0000
0000
00f5
cafe
3c1c
0000
0000
00f5
cafe
201c
0000
0000
00f2
cafe
241c
0000
0000
00f2
cafe
281c
0000
0000
00f7
cafe
2c1c
0000
0000
00fd
cafe
301c
0000
0000
00fa
cafe
341c
0000
0000
00f8
cafe
381c
0000
0000
00f6
cafe
3c1c
0000
0000
00f9
cafe
201c
0000
0000
00fa
cafe
241c
0000
0000
00f9
cafe
281c
0000
0000
00fc
cafe
2c1c
0000
0000
00f5
cafe
301c
0000
0000
00f3
cafe
341c
0000
0000
00f9
cafe
381c
0000
0000
00f8
cafe
3c1c
0000
0000
00f6
cafe
201c
0000
0000
00f9
cafe
241c
0000
0000
00f8
cafe
281c
0000
0000
00f4
cafe
2c1c
0000
0000
00f5
cafe
301c
0000
0000
00f0
cafe
341c
0000
0000
00f2
cafe
381c
0000
0000
00f3
cafe
3c1c
0000
0000
00f5
cafe
201c
0000
0000
00f1
cafe
241c
0000
0000
00f5
cafe
281c
0000
0000
00f3
cafe
2c1c
0000
0000
00f3
cafe
301c
0000
0000
00f6
cafe
341c
0000
0000
00f7
cafe
381c
0000
0000
00f8
cafe
3c1c
0000
0000
00f8
cafe
201c
0000
0000
00f2
cafe
241c
0000
0000
00ec
cafe
281c
0000
0000
00ef
cafe
2c1c
0000
0000
00f3
cafe
301c
0000
0000
00f3
cafe
341c
0000
0000
00f7
cafe
381c
0000
0000
00f6
cafe
3c1c
0000
0000
00fa
cafe
201c
0000
0000
00fe
cafe
241c
0000
0000
0102
cafe
281c
0000
0000
00fc
cafe
2c1c
0000
0000
00fa
cafe
301c
0000
0000
00fc
cafe
341c
0000
0000
00fd
cafe
381c
0000
0000
00fb
-
cafe
3c1c
0000
0000
00fb
cafe
201c
0000
0000
00f7
cafe
241c
0000
0000
00f8
cafe
281c
0000
0000
00f7
cafe
2c1c
0000
0000
00f9
cafe
301c
0000
0000
00fc
cafe
341c
0000
0000
00fe
cafe
381c
0000
0000
0100
cafe
3c1c
0000
0000
00fe
cafe
201c
0000
0000
00fc
cafe
241c
0000
0000
00fd
cafe
281c
0000
0000
00fc
cafe
2c1c
0000
0000
00f9
cafe
301c
0000
0000
00fe
cafe
341c
0000
0000
00fd
cafe
381c
0000
0000
00fa
cafe
3c1c
0000
0000
00fe
cafe
201c
0000
0000
00fd
cafe
241c
0000
0000
00fa
cafe
281c
0000
0000
00fa
cafe
2c1c
0000
0000
00f8
cafe
301c
0000
0000
00f9
cafe
341c
0000
0000
00f7
cafe
381c
0000
0000
00f6
cafe
3c1c
0000
0000
00f6
cafe
201c
0000
0000
00fa
cafe
241c
0000
0000
00f8
cafe
281c
0000
0000
00f7
cafe
2c1c
0000
0000
00fb
cafe
301c
0000
0000
0100
cafe
341c
0000
0000
0102
cafe
381c
0000
0000
00ff
cafe
3c1c
0000
0000
0100
cafe
201c
0000
0000
00fd
cafe
241c
0000
0000
00fd
cafe
281c
0000
0000
00fb
cafe
2c1c
0000
0000
00fd
cafe
301c
0000
0000
00f8
cafe
341c
0000
0000
00f8
cafe
381c
0000
0000
00f6
cafe
3c1c
0000
0000
00f4
cafe
201c
0000
0000
00f5
cafe
241c
0000
0000
00f8
cafe
281c
0000
0000
00f3
cafe
2c1c
0000
0000
00f2
cafe
301c
0000
0000
00f5
cafe
341c
0000
0000
00f5
cafe
381c
0000
0000
00f7
cafe
3c1c
0000
0000
00f3
cafe
201c
0000
0000
00ef
cafe
241c
0000
0000
00ef
cafe
-
281c
0000
0000
00ed
cafe
2c1c
0000
0000
00ef
cafe
301c
0000
0000
00ef
cafe
341c
0000
0000
00f5
cafe
381c
0000
0000
00f7
cafe
3c1c
0000
0000
00f4
cafe
201c
0000
0000
00f9
cafe
241c
0000
0000
00fb
cafe
281c
0000
0000
00f5
cafe
2c1c
0000
0000
00f7
cafe
301c
0000
0000
00f8
cafe
341c
0000
0000
00f7
cafe
381c
0000
0000
00f6
cafe
3c1c
0000
0000
00fb
cafe
201c
0000
0000
00fd
cafe
241c
0000
0000
00fa
cafe
281c
0000
0000
00f6
cafe
2c1c
0000
0000
00f8
cafe
301c
0000
0000
00f9
cafe
341c
0000
0000
00f9
cafe
381c
0000
0000
00f8
cafe
3c1c
0000
0000
00f9
cafe
201c
0000
0000
0100
cafe
241c
0000
0000
00fc
cafe
281c
0000
0000
00f4
cafe
2c1c
0000
0000
00f5
cafe
301c
0000
0000
00f7
cafe
341c
0000
0000
00f6
cafe
381c
0000
0000
00f9
cafe
3c1c
0000
0000
00f5
cafe
201c
0000
0000
00f6
cafe
241c
0000
0000
00fd
cafe
281c
0000
0000
00fd
cafe
2c1c
0000
0000
00fa
cafe
301c
0000
0000
00fb
cafe
341c
0000
0000
00fa
cafe
381c
0000
0000
00fd
cafe
3c1c
0000
0000
00fb
cafe
201c
0000
0000
00f5
cafe
241c
0000
0000
00f4
cafe
281c
0000
0000
00f7
cafe
2c1c
0000
0000
00f7
cafe
301c
0000
0000
00fa
cafe
341c
0000
0000
00ff
cafe
381c
0000
0000
00fb
cafe
3c1c
0000
0000
00f7
cafe
201c
0000
0000
00f6
cafe
241c
0000
0000
00f6
cafe
281c
0000
0000
00f5
cafe
2c1c
0000
0000
00f3
cafe
301c
0000
0000
00f5
cafe
341c
-
0000
0000
00f4
cafe
381c
0000
0000
00f2
cafe
3c1c
0000
0000
00f3
cafe
201c
0000
0000
00ef
cafe
241c
0000
0000
00f3
cafe
281c
0000
0000
00f4
cafe
2c1c
0000
0000
00f4
cafe
301c
0000
0000
00f6
cafe
341c
0000
0000
00f3
cafe
381c
0000
0000
00f3
cafe
3c1c
0000
0000
00f7
cafe
201c
0000
0000
00f6
cafe
241c
0000
0000
00f5
cafe
281c
0000
0000
00f3
cafe
2c1c
0000
0000
00f9
cafe
301c
0000
0000
00f7
cafe
341c
0000
0000
00f6
cafe
381c
0000
0000
00f4
cafe
3c1c
0000
0000
00f9
cafe
201c
0000
0000
00f8
cafe
241c
0000
0000
00f9
cafe
281c
0000
0000
00f9
cafe
2c1c
0000
0000
00f6
cafe
301c
0000
0000
00f4
cafe
341c
0000
0000
00f2
cafe
381c
0000
0000
00f6
cafe
3c1c
0000
0000
00f6
cafe
201c
0000
0000
00f6
cafe
241c
0000
0000
00f5
cafe
281c
0000
0000
00f3
cafe
2c1c
0000
0000
00f5
cafe
301c
0000
0000
00f1
cafe
341c
0000
0000
00f4
cafe
381c
0000
0000
00f7
cafe
3c1c
0000
0000
00fb
cafe
201c
0000
0000
00f9
cafe
241c
0000
0000
00f7
cafe
281c
0000
0000
00fd
cafe
2c1c
0000
0000
0100
cafe
301c
0000
0000
00ff
cafe
341c
0000
0000
00fe
cafe
381c
0000
0000
0101
cafe
3c1c
0000
0000
00fd
cafe
201c
0000
0000
00fb
cafe
241c
0000
0000
00fb
cafe
281c
0000
0000
00fa
cafe
2c1c
0000
0000
00fb
cafe
301c
0000
0000
00fb
cafe
341c
0000
0000
00f6
cafe
381c
0000
0000
00f5
cafe
3c1c
0000
0000
00f9
cafe
201c
0000
-
0000
00fb
cafe
241c
0000
0000
00fe
cafe
281c
0000
0000
0100
cafe
2c1c
0000
0000
00fd
cafe
301c
0000
0000
0100
cafe
341c
0000
0000
00fb
cafe
381c
0000
0000
00f7
cafe
3c1c
0000
0000
00f6
cafe
201c
0000
0000
00f2
cafe
241c
0000
0000
00f2
cafe
281c
0000
0000
00f3
cafe
2c1c
0000
0000
00ee
cafe
301c
0000
0000
00f3
cafe
341c
0000
0000
00f3
cafe
381c
0000
0000
00f4
cafe
3c1c
0000
0000
00ef
cafe
201c
0000
0000
00ee
cafe
241c
0000
0000
00f1
cafe
281c
0000
0000
00ec
cafe
2c1c
0000
0000
00ee
cafe
301c
0000
0000
00ee
cafe
341c
0000
0000
00ef
cafe
381c
0000
0000
00f1
cafe
3c1c
0000
0000
00f2
cafe
201c
0000
0000
00f4
cafe
241c
0000
0000
00f7
cafe
281c
0000
0000
00fb
cafe
2c1c
0000
0000
00f9
cafe
301c
0000
0000
00f7
cafe
341c
0000
0000
00f6
cafe
381c
0000
0000
00f4
cafe
3c1c
0000
0000
00f7
cafe
201c
0000
0000
00f7
cafe
241c
0000
0000
00f1
cafe
281c
0000
0000
00f7
cafe
2c1c
0000
0000
00f5
cafe
301c
0000
0000
00f3
cafe
341c
0000
0000
00f3
cafe
381c
0000
0000
00f3
cafe
3c1c
0000
0000
00f1
cafe
201c
0000
0000
00f7
cafe
241c
0000
0000
00f8
cafe
281c
0000
0000
00f7
cafe
2c1c
0000
0000
00f7
cafe
301c
0000
0000
00f6
cafe
341c
0000
0000
00f9
cafe
381c
0000
0000
00f5
cafe
3c1c
0000
0000
00f5
cafe
201c
0000
0000
00f8
cafe
241c
0000
0000
00f8
cafe
281c
0000
0000
00f6
cafe
2c1c
0000
0000
-
00fc
cafe
301c
0000
0000
00fc
cafe
341c
0000
0000
00fa
cafe
381c
0000
0000
00fd
cafe
3c1c
0000
0000
00fd
cafe
201c
0000
0000
00fc
cafe
241c
0000
0000
00fe
cafe
281c
0000
0000
00fe
cafe
2c1c
0000
0000
00fc
cafe
301c
0000
0000
00f8
cafe
341c
0000
0000
00fc
cafe
381c
0000
0000
00fb
cafe
3c1c
0000
0000
00f9
cafe
201c
0000
0000
00f7
cafe
241c
0000
0000
00f5
cafe
281c
0000
0000
00f5
cafe
2c1c
0000
0000
00f7
cafe
301c
0000
0000
00f7
cafe
341c
0000
0000
00f5
cafe
381c
0000
0000
00fa
cafe
3c1c
0000
0000
00f8
cafe
201c
0000
0000
00f9
cafe
241c
0000
0000
00fb
cafe
281c
0000
0000
00f8
cafe
2c1c
0000
0000
00fe
cafe
301c
0000
0000
00fc
cafe
341c
0000
0000
00fa
cafe
381c
0000
0000
00fd
cafe
3c1c
0000
0000
00fa
cafe
201c
0000
0000
00fb
cafe
241c
0000
0000
00fd
cafe
281c
0000
0000
00fa
cafe
2c1c
0000
0000
00fb
cafe
301c
0000
0000
00f8
cafe
341c
0000
0000
00fd
cafe
381c
0000
0000
00f9
cafe
3c1c
0000
0000
00f6
cafe
201c
0000
0000
00f1
cafe
241c
0000
0000
00f7
cafe
281c
0000
0000
00f9
cafe
2c1c
0000
0000
00f8
cafe
301c
0000
0000
00f7
cafe
341c
0000
0000
00f8
cafe
381c
0000
0000
00fb
cafe
3c1c
0000
0000
00fb
cafe
201c
0000
0000
00fe
cafe
241c
0000
0000
00fc
cafe
281c
0000
0000
00f9
cafe
2c1c
0000
0000
00fb
cafe
301c
0000
0000
00f9
cafe
341c
0000
0000
00fb
cafe
381c
0000
0000
00f8
-
cafe
3c1c
0000
0000
00fb
cafe
201c
0000
0000
00fd
cafe
241c
0000
0000
00fd
cafe
281c
0000
0000
00fc
cafe
2c1c
0000
0000
00f9
cafe
301c
0000
0000
00f6
cafe
341c
0000
0000
00f7
cafe
381c
0000
0000
00fc
cafe
3c1c
0000
0000
00ff
cafe
201c
0000
0000
00fd
cafe
241c
0000
0000
00fc
cafe
281c
0000
0000
00fa
cafe
2c1c
0000
0000
00fc
cafe
301c
0000
0000
00f9
cafe
341c
0000
0000
00fc
cafe
381c
0000
0000
0103
cafe
3c1c
0000
0000
00fd
cafe
201c
0000
0000
00fa
cafe
241c
0000
0000
00f7
cafe
281c
0000
0000
00f8
cafe
2c1c
0000
0000
00f8
cafe
301c
0000
0000
00f9
cafe
341c
0000
0000
00f9
cafe
381c
0000
0000
00f5
cafe
3c1c
0000
0000
00f2
cafe
201c
0000
0000
00f2
cafe
241c
0000
0000
00f1
cafe
281c
0000
0000
00ed
cafe
2c1c
0000
0000
00ee
cafe
301c
0000
0000
00f2
cafe
341c
0000
0000
00f5
cafe
381c
0000
0000
00f6
cafe
3c1c
0000
0000
00f7
cafe
201c
0000
0000
00f4
cafe
241c
0000
0000
00f8
cafe
281c
0000
0000
00f4
cafe
2c1c
0000
0000
00f6
cafe
301c
0000
0000
00f6
cafe
341c
0000
0000
00f4
cafe
381c
0000
0000
00f7
cafe
3c1c
0000
0000
00f4
cafe
201c
0000
0000
00f8
cafe
241c
0000
0000
00f7
cafe
281c
0000
0000
00f5
cafe
2c1c
0000
0000
00f7
cafe
301c
0000
0000
00f9
cafe
341c
0000
0000
00fa
cafe
381c
0000
0000
00f7
cafe
3c1c
0000
0000
00f9
cafe
201c
0000
0000
00f9
cafe
241c
0000
0000
00f7
cafe
-
281c
0000
0000
00f8
cafe
2c1c
0000
0000
00fa
cafe
301c
0000
0000
00f8
cafe
341c
0000
0000
00f7
cafe
381c
0000
0000
00fa
cafe
3c1c
0000
0000
00fa
cafe
201c
0000
0000
00f9
cafe
241c
0000
0000
00fb
cafe
281c
0000
0000
00f9
cafe
2c1c
0000
0000
00f5
cafe
301c
0000
0000
00f8
cafe
341c
0000
0000
00f7
cafe
381c
0000
0000
00f7
cafe
3c1c
0000
0000
00f7
cafe
201c
0000
0000
00f8
cafe
241c
0000
0000
00fb
cafe
281c
0000
0000
00fc
cafe
2c1c
0000
0000
00f5
cafe
301c
0000
0000
00f8
cafe
341c
0000
0000
00f6
cafe
381c
0000
0000
00f3
cafe
3c1c
0000
0000
00f7
cafe
201c
0000
0000
00f9
cafe
241c
0000
0000
00fa
cafe
281c
0000
0000
00f9
cafe
2c1c
0000
0000
00fa
cafe
301c
0000
0000
00fc
cafe
341c
0000
0000
00f9
cafe
381c
0000
0000
00f9
cafe
3c1c
0000
0000
00fa
cafe
201c
0000
0000
00f9
cafe
241c
0000
0000
00fa
cafe
281c
0000
0000
00f8
cafe
2c1c
0000
0000
00fa
cafe
301c
0000
0000
00fa
cafe
341c
0000
0000
00fa
cafe
381c
0000
0000
00f6
cafe
3c1c
0000
0000
00f6
cafe
201c
0000
0000
00f9
cafe
241c
0000
0000
00fb
cafe
281c
0000
0000
00f8
cafe
2c1c
0000
0000
00f9
cafe
301c
0000
0000
00f7
cafe
341c
0000
0000
00f7
cafe
381c
0000
0000
00f5
cafe
3c1c
0000
0000
00f3
cafe
201c
0000
0000
00f6
cafe
241c
0000
0000
00f7
cafe
281c
0000
0000
00f7
cafe
2c1c
0000
0000
00f5
cafe
301c
0000
0000
00f9
cafe
341c
-
0000
0000
00f8
cafe
381c
0000
0000
00f6
cafe
3c1c
0000
0000
00f8
cafe
201c
0000
0000
00f5
cafe
241c
0000
0000
00f5
cafe
281c
0000
0000
00f6
cafe
2c1c
0000
0000
00f7
cafe
301c
0000
0000
00f9
cafe
341c
0000
0000
00fb
cafe
381c
0000
0000
00f8
cafe
3c1c
0000
0000
00fa
cafe
201c
0000
0000
00fa
cafe
241c
0000
0000
00fb
cafe
281c
0000
0000
00f5
cafe
2c1c
0000
0000
00f6
cafe
301c
0000
0000
00f3
cafe
341c
0000
0000
00f0
cafe
381c
0000
0000
00ee
cafe
3c1c
0000
0000
00f0
cafe
201c
0000
0000
00f0
cafe
241c
0000
0000
00f3
cafe
281c
0000
0000
00f0
cafe
2c1c
0000
0000
00f1
cafe
301c
0000
0000
00f0
cafe
341c
0000
0000
00f4
cafe
381c
0000
0000
00f5
cafe
3c1c
0000
0000
00f0
cafe
201c
0000
0000
00f6
cafe
241c
0000
0000
00f6
cafe
281c
0000
0000
00f9
cafe
2c1c
0000
0000
00f8
cafe
301c
0000
0000
00f9
cafe
341c
0000
0000
00f2
cafe
381c
0000
0000
00f0
cafe
3c1c
0000
0000
00f4
cafe
201c
0000
0000
00f7
cafe
241c
0000
0000
00f9
cafe
281c
0000
0000
00f9
cafe
2c1c
0000
0000
00f8
cafe
301c
0000
0000
00f9
cafe
341c
0000
0000
00f7
cafe
381c
0000
0000
00f8
cafe
3c1c
0000
0000
00fc
cafe
201c
0000
0000
00fa
cafe
241c
0000
0000
00f6
cafe
281c
0000
0000
00f7
cafe
2c1c
0000
0000
00f8
cafe
301c
0000
0000
00fd
cafe
341c
0000
0000
00f8
cafe
381c
0000
0000
00f5
cafe
3c1c
0000
0000
00f7
cafe
201c
0000
-
0000
00f9
cafe
241c
0000
0000
00f4
cafe
281c
0000
0000
00f1
cafe
2c1c
0000
0000
00ef
cafe
301c
0000
0000
00ee
cafe
341c
0000
0000
00ef
cafe
381c
0000
0000
00eb
cafe
3c1c
0000
0000
00ed
cafe
201c
0000
0000
00f1
cafe
241c
0000
0000
00f3
cafe
281c
0000
0000
00f3
cafe
2c1c
0000
0000
00f5
cafe
301c
0000
0000
00fb
cafe
341c
0000
0000
00f9
cafe
381c
0000
0000
00fd
cafe
3c1c
0000
0000
00fa
cafe
201c
0000
0000
00fa
cafe
241c
0000
0000
00fb
cafe
281c
0000
0000
00f7
cafe
2c1c
0000
0000
00f5
cafe
301c
0000
0000
00f5
cafe
341c
0000
0000
00f6
cafe
381c
0000
0000
00f3
cafe
3c1c
0000
0000
00f2
cafe
201c
0000
0000
00ef
cafe
241c
0000
0000
00f0
cafe
281c
0000
0000
00f5
cafe
2c1c
0000
0000
00f2
cafe
301c
0000
0000
00f5
cafe
341c
0000
0000
00f5
cafe
381c
0000
0000
00f1
cafe
3c1c
0000
0000
00f0
cafe
201c
0000
0000
00f3
cafe
241c
0000
0000
00fa
cafe
281c
0000
0000
00fb
cafe
2c1c
0000
0000
00fa
cafe
301c
0000
0000
00f8
cafe
341c
0000
0000
00f7
cafe
381c
0000
0000
00f5
cafe
3c1c
0000
0000
00f6
cafe
201c
0000
0000
00f7
cafe
241c
0000
0000
00f3
cafe
281c
0000
0000
00f5
cafe
2c1c
0000
0000
00f5
cafe
301c
0000
0000
00fa
cafe
341c
0000
0000
00fd
cafe
381c
0000
0000
00ff
cafe
3c1c
0000
0000
00fb
cafe
201c
0000
0000
00fd
cafe
241c
0000
0000
00f9
cafe
281c
0000
0000
00f7
cafe
2c1c
0000
0000
-
00f5
cafe
301c
0000
0000
00f2
cafe
341c
0000
0000
00f4
cafe
381c
0000
0000
00f7
cafe
3c1c
0000
0000
00f9
cafe
201c
0000
0000
00f8
cafe
241c
0000
0000
00f9
cafe
281c
0000
0000
00fb
cafe
2c1c
0000
0000
00f9
cafe
301c
0000
0000
00f8
cafe
341c
0000
0000
00f9
cafe
381c
0000
0000
00f4
cafe
3c1c
0000
0000
00f6
cafe
201c
0000
0000
00f7
cafe
241c
0000
0000
00f7
cafe
281c
0000
0000
00f2
cafe
2c1c
0000
0000
00f6
cafe
301c
0000
0000
00f5
cafe
341c
0000
0000
00f5
cafe
381c
0000
0000
00f7
cafe
3c1c
0000
0000
00f6
cafe
201c
0000
0000
00f3
cafe
241c
0000
0000
00f3
cafe
281c
0000
0000
00f4
cafe
2c1c
0000
0000
00f0
cafe
301c
0000
0000
00f1
cafe
341c
0000
0000
00f3
cafe
381c
0000
0000
00f0
cafe
3c1c
0000
0000
00f2
cafe
201c
0000
0000
00f4
cafe
241c
0000
0000
00f1
cafe
281c
0000
0000
00f6
cafe
2c1c
0000
0000
00f8
cafe
301c
0000
0000
00f6
cafe
341c
0000
0000
00f2
cafe
381c
0000
0000
00f9
cafe
3c1c
0000
0000
00f9
cafe
201c
0000
0000
00fa
cafe
241c
0000
0000
00f7
cafe
281c
0000
0000
00f8
cafe
2c1c
0000
0000
00f7
cafe
301c
0000
0000
00f6
cafe
341c
0000
0000
00f7
cafe
381c
0000
0000
00f8
cafe
3c1c
0000
0000
00f7
cafe
201c
0000
0000
00f9
cafe
241c
0000
0000
00fa
cafe
281c
0000
0000
00f7
cafe
2c1c
0000
0000
00fb
cafe
301c
0000
0000
00fa
cafe
341c
0000
0000
00fd
cafe
381c
0000
0000
00fc
-
cafe
3c1c
0000
0000
00f6
cafe
201c
0000
0000
00fa
cafe
241c
0000
0000
00f9
cafe
281c
0000
0000
00f6
cafe
2c1c
0000
0000
00f8
cafe
301c
0000
0000
00f8
cafe
341c
0000
0000
00f8
cafe
381c
0000
0000
00f6
cafe
3c1c
0000
0000
00f4
cafe
201c
0000
0000
00f7
cafe
241c
0000
0000
00f9
cafe
281c
0000
0000
00f6
cafe
2c1c
0000
0000
00f6
cafe
301c
0000
0000
00f8
cafe
341c
0000
0000
00f8
cafe
381c
0000
0000
00fd
cafe
3c1c
0000
0000
00fa
cafe
201c
0000
0000
00fb
cafe
241c
0000
0000
00fc
cafe
281c
0000
0000
00f9
cafe
2c1c
0000
0000
00f4
cafe
301c
0000
0000
00f9
cafe
341c
0000
0000
00f6
cafe
381c
0000
0000
00f6
cafe
3c1c
0000
0000
00f7
cafe
201c
0000
0000
00f8
cafe
241c
0000
0000
00f9
cafe
281c
0000
0000
00fa
cafe
2c1c
0000
0000
00f9
cafe
301c
0000
0000
00f6
cafe
341c
0000
0000
00f6
cafe
381c
0000
0000
00f5
cafe
3c1c
0000
0000
00f7
cafe
201c
0000
0000
00f4
cafe
241c
0000
0000
00f8
cafe
281c
0000
0000
00f9
cafe
2c1c
0000
0000
00fb
cafe
301c
0000
0000
00fa
cafe
341c
0000
0000
00fe
cafe
381c
0000
0000
00fc
cafe
3c1c
0000
0000
00fd
cafe
201c
0000
0000
00fd
cafe
241c
0000
0000
00fc
cafe
281c
0000
0000
00fd
cafe
2c1c
0000
0000
00f6
cafe
301c
0000
0000
00fa
cafe
341c
0000
0000
00f8
cafe
381c
0000
0000
00f7
cafe
3c1c
0000
0000
00fa
cafe
201c
0000
0000
00f9
cafe
241c
0000
0000
00fb
cafe
-
281c
0000
0000
00f7
cafe
2c1c
0000
0000
00f7
cafe
301c
0000
0000
00f6
cafe
341c
0000
0000
00f5
cafe
381c
0000
0000
00f7
cafe
3c1c
0000
0000
00f6
cafe
201c
0000
0000
00fa
cafe
241c
0000
0000
00f9
cafe
281c
0000
0000
00fa
cafe
2c1c
0000
0000
00f7
cafe
301c
0000
0000
00fe
cafe
341c
0000
0000
0100
cafe
381c
0000
0000
00ff
cafe
3c1c
0000
0000
0102
cafe
201c
0000
0000
00ff
cafe
241c
0000
0000
00fb
cafe
281c
0000
0000
00f9
cafe
2c1c
0000
0000
00fd
cafe
301c
0000
0000
00fd
cafe
341c
0000
0000
00fd
cafe
381c
0000
0000
00fc
cafe
3c1c
0000
0000
00f8
cafe
201c
0000
0000
00fc
cafe
241c
0000
0000
00f6
cafe
281c
0000
0000
00fa
cafe
2c1c
0000
0000
00fb
cafe
301c
0000
0000
00fc
cafe
341c
0000
0000
00fc
cafe
381c
0000
0000
00fc
cafe
3c1c
0000
0000
00fa
cafe
201c
0000
0000
00f9
cafe
241c
0000
0000
00fd
cafe
281c
0000
0000
00f7
cafe
2c1c
0000
0000
00fc
cafe
301c
0000
0000
00f7
cafe
341c
0000
0000
00fa
cafe
381c
0000
0000
00f9
cafe
3c1c
0000
0000
00f5
cafe
201c
0000
0000
00f1
cafe
241c
0000
0000
00f7
cafe
281c
0000
0000
00f9
cafe
2c1c
0000
0000
00f8
cafe
301c
0000
0000
00f7
cafe
341c
0000
0000
00fb
cafe
381c
0000
0000
00f7
cafe
3c1c
0000
0000
00fb
cafe
201c
0000
0000
00f5
cafe
241c
0000
0000
00f9
cafe
281c
0000
0000
00f7
cafe
2c1c
0000
0000
00f4
cafe
301c
0000
0000
00f1
cafe
341c
-
0000
0000
00f0
cafe
381c
0000
0000
00f1
cafe
3c1c
0000
0000
00eb
cafe
201c
0000
0000
00ee
cafe
241c
0000
0000
00f3
cafe
281c
0000
0000
00f1
cafe
2c1c
0000
0000
00f6
cafe
301c
0000
0000
00f1
cafe
341c
0000
0000
00f2
cafe
381c
0000
0000
00f1
cafe
3c1c
0000
0000
00f0
cafe
201c
0000
0000
00f0
cafe
241c
0000
0000
00ef
cafe
281c
0000
0000
00f4
cafe
2c1c
0000
0000
00f1
cafe
301c
0000
0000
00f1
cafe
341c
0000
0000
00f2
cafe
381c
0000
0000
00f4
cafe
3c1c
0000
0000
00f6
cafe
201c
0000
0000
00fd
cafe
241c
0000
0000
00fb
cafe
281c
0000
0000
00fa
cafe
2c1c
0000
0000
00fd
cafe
301c
0000
0000
00fc
cafe
341c
0000
0000
00f9
cafe
381c
0000
0000
00fc
cafe
3c1c
0000
0000
00fa
cafe
201c
0000
0000
00f9
cafe
241c
0000
0000
00f9
cafe
281c
0000
0000
00fc
cafe
2c1c
0000
0000
00f6
cafe
301c
0000
0000
00f9
cafe
341c
0000
0000
00fb
cafe
381c
0000
0000
00f7
cafe
3c1c
0000
0000
00f3
cafe
201c
0000
0000
00f5
cafe
241c
0000
0000
00f0
cafe
281c
0000
0000
00ee
cafe
2c1c
0000
0000
00ef
cafe
301c
0000
0000
00f1
cafe
341c
0000
0000
00f1
cafe
381c
0000
0000
00f4
cafe
3c1c
0000
0000
00f7
cafe
201c
0000
0000
00fa
cafe
241c
0000
0000
00fb
cafe
281c
0000
0000
00f9
cafe
2c1c
0000
0000
00f8
cafe
301c
0000
0000
00f3
cafe
341c
0000
0000
00f5
cafe
381c
0000
0000
00f7
cafe
3c1c
0000
0000
00f8
cafe
201c
0000
-
0000
00f3
cafe
241c
0000
0000
00f1
cafe
281c
0000
0000
00f1
cafe
2c1c
0000
0000
00f5
cafe
301c
0000
0000
00f4
cafe
341c
0000
0000
00f4
cafe
381c
0000
0000
00ed
cafe
3c1c
0000
0000
00ee
cafe
201c
0000
0000
00f2
cafe
241c
0000
0000
00f5
cafe
281c
0000
0000
00f6
cafe
2c1c
0000
0000
00f6
cafe
301c
0000
0000
00fb
cafe
341c
0000
0000
00f6
cafe
381c
0000
0000
00f7
cafe
3c1c
0000
0000
00fa
cafe
201c
0000
0000
00f9
cafe
241c
0000
0000
00f7
cafe
281c
0000
0000
00f7
cafe
2c1c
0000
0000
00f8
cafe
301c
0000
0000
00fc
cafe
341c
0000
0000
00fe
cafe
381c
0000
0000
00f9
cafe
3c1c
0000
0000
00fb
cafe
201c
0000
0000
00fb
cafe
241c
0000
0000
0100
cafe
281c
0000
0000
00ff
cafe
2c1c
0000
0000
00fe
cafe
301c
0000
0000
0101
cafe
341c
0000
0000
00fe
cafe
381c
0000
0000
00fe
cafe
3c1c
0000
0000
00fe
cafe
201c
0000
0000
00fe
cafe
241c
0000
0000
00ff
cafe
281c
0000
0000
0100
cafe
2c1c
0000
0000
00ff
cafe
301c
0000
0000
00ff
cafe
341c
0000
0000
00fa
cafe
381c
0000
0000
00f7
cafe
3c1c
0000
0000
00fa
cafe
201c
0000
0000
00fc
cafe
241c
0000
0000
00f8
cafe
281c
0000
0000
00fa
cafe
2c1c
0000
0000
00f8
cafe
301c
0000
0000
00fa
cafe
341c
0000
0000
00fb
cafe
381c
0000
0000
00fb
cafe
3c1c
0000
0000
00fb
cafe
201c
0000
0000
00f7
cafe
241c
0000
0000
00f3
cafe
281c
0000
0000
00f4
cafe
2c1c
0000
0000
-
00f6
cafe
301c
0000
0000
00f4
cafe
341c
0000
0000
00fb
cafe
381c
0000
0000
00fd
cafe
3c1c
0000
0000
00fc
cafe
201c
0000
0000
00fa
cafe
241c
0000
0000
00f5
cafe
281c
0000
0000
00f4
cafe
2c1c
0000
0000
00f2
cafe
301c
0000
0000
00f3
cafe
341c
0000
0000
00f1
cafe
381c
0000
0000
00f3
cafe
3c1c
0000
0000
00f5
cafe
201c
0000
0000
00f8
cafe
241c
0000
0000
00f4
cafe
281c
0000
0000
00f1
cafe
2c1c
0000
0000
00f2
cafe
301c
0000
0000
00f2
cafe
341c
0000
0000
00f6
cafe
381c
0000
0000
00f7
cafe
3c1c
0000
0000
00f7
cafe
201c
0000
0000
00f9
cafe
241c
0000
0000
00fb
cafe
281c
0000
0000
00fe
cafe
2c1c
0000
0000
00ff
cafe
301c
0000
0000
0104
cafe
341c
0000
0000
0101
cafe
381c
0000
0000
00ff
cafe
3c1c
0000
0000
00fb
cafe
201c
0000
0000
00fb
cafe
241c
0000
0000
00fe
cafe
281c
0000
0000
0100
cafe
2c1c
0000
0000
00fd
cafe
301c
0000
0000
00fd
cafe
341c
0000
0000
00fb
cafe
381c
0000
0000
00fc
cafe
3c1c
0000
0000
00f9
cafe
201c
0000
0000
00fa
cafe
241c
0000
0000
00f9
cafe
281c
0000
0000
00f7
cafe
2c1c
0000
0000
00fa
cafe
301c
0000
0000
00f5
cafe
341c
0000
0000
00f9
cafe
381c
0000
0000
00f8
cafe
3c1c
0000
0000
00f8
cafe
201c
0000
0000
00fc
cafe
241c
0000
0000
00fb
cafe
281c
0000
0000
00fc
cafe
2c1c
0000
0000
00f8
cafe
301c
0000
0000
00f8
cafe
341c
0000
0000
00f6
cafe
381c
0000
0000
00f2
-
cafe
3c1c
0000
0000
00f1
cafe
201c
0000
0000
00f2
cafe
241c
0000
0000
00f2
cafe
281c
0000
0000
00f1
cafe
2c1c
0000
0000
00f6
cafe
301c
0000
0000
00f4
cafe
341c
0000
0000
00f4
cafe
381c
0000
0000
00f6
cafe
3c1c
0000
0000
00f7
cafe
201c
0000
0000
00fb
cafe
241c
0000
0000
00fe
cafe
281c
0000
0000
00fb
cafe
2c1c
0000
0000
00fb
cafe
301c
0000
0000
00f9
cafe
341c
0000
0000
00f8
cafe
381c
0000
0000
00fc
cafe
3c1c
0000
0000
00f9
cafe
201c
0000
0000
00fa
cafe
241c
0000
0000
00f9
cafe
281c
0000
0000
00f7
cafe
2c1c
0000
0000
00fa
cafe
301c
0000
0000
00fa
cafe
341c
0000
0000
00fc
cafe
381c
0000
0000
00f8
cafe
3c1c
0000
0000
00fa
cafe
201c
0000
0000
00f1
cafe
241c
0000
0000
00f7
cafe
281c
0000
0000
00f5
cafe
2c1c
0000
0000
00f7
cafe
301c
0000
0000
00f5
cafe
341c
0000
0000
00f2
cafe
381c
0000
0000
00f4
cafe
3c1c
0000
0000
00f6
cafe
201c
0000
0000
00f5
cafe
241c
0000
0000
00f1
cafe
281c
0000
0000
00f0
cafe
2c1c
0000
0000
00f2
cafe
301c
0000
0000
00f4
cafe
341c
0000
0000
00f2
cafe
381c
0000
0000
00f2
cafe
3c1c
0000
0000
00f8
cafe
201c
0000
0000
00f6
cafe
241c
0000
0000
00f5
cafe
281c
0000
0000
00f5
cafe
2c1c
0000
0000
00f4
cafe
301c
0000
0000
00f8
cafe
341c
0000
0000
00f9
cafe
381c
0000
0000
00f9
cafe
3c1c
0000
0000
00fb
cafe
201c
0000
0000
00fa
cafe
241c
0000
0000
00ff
cafe
-
281c
0000
0000
00fe
cafe
2c1c
0000
0000
00fa
cafe
301c
0000
0000
00fb
cafe
341c
0000
0000
00f9
cafe
381c
0000
0000
00f7
cafe
3c1c
0000
0000
00fa
cafe
201c
0000
0000
00fa
cafe
241c
0000
0000
00f9
cafe
281c
0000
0000
00f6
cafe
2c1c
0000
0000
00f7
cafe
301c
0000
0000
00f7
cafe
341c
0000
0000
00f5
cafe
381c
0000
0000
00f7
cafe
3c1c
0000
0000
00f9
cafe
201c
0000
0000
00f9
cafe
241c
0000
0000
00f9
cafe
281c
0000
0000
00fb
cafe
2c1c
0000
0000
00f7
cafe
301c
0000
0000
00f8
cafe
341c
0000
0000
00f7
cafe
381c
0000
0000
00f5
cafe
3c1c
0000
0000
00f5
cafe
201c
0000
0000
00f6
cafe
241c
0000
0000
00f8
cafe
281c
0000
0000
00f9
cafe
2c1c
0000
0000
00f9
cafe
301c
0000
0000
00fc
cafe
341c
0000
0000
00f8
cafe
381c
0000
0000
00f5
cafe
3c1c
0000
0000
00f5
cafe
201c
0000
0000
00f6
cafe
241c
0000
0000
00fc
cafe
281c
0000
0000
00f8
cafe
2c1c
0000
0000
00f9
cafe
301c
0000
0000
00f8
cafe
341c
0000
0000
00fb
cafe
381c
0000
0000
00f9
cafe
3c1c
0000
0000
00fb
cafe
201c
0000
0000
00fa
cafe
241c
0000
0000
00fa
cafe
281c
0000
0000
00f7
cafe
2c1c
0000
0000
00fb
cafe
301c
0000
0000
00fa
cafe
341c
0000
0000
00fe
cafe
381c
0000
0000
00fc
cafe
3c1c
0000
0000
00fb
cafe
201c
0000
0000
00f8
cafe
241c
0000
0000
00f9
cafe
281c
0000
0000
00f6
cafe
2c1c
0000
0000
00f7
cafe
301c
0000
0000
00f4
cafe
341c
-
0000
0000
00f8
cafe
381c
0000
0000
00f9
cafe
3c1c
0000
0000
00f6
cafe
201c
0000
0000
00f7
cafe
241c
0000
0000
00f9
cafe
281c
0000
0000
00fa
cafe
2c1c
0000
0000
00fc
cafe
301c
0000
0000
00f7
cafe
341c
0000
0000
00fa
cafe
381c
0000
0000
00f9
cafe
3c1c
0000
0000
00f6
cafe
201c
0000
0000
00f5
cafe
241c
0000
0000
00f3
cafe
281c
0000
0000
00f4
cafe
2c1c
0000
0000
00f3
cafe
301c
0000
0000
00f5
cafe
341c
0000
0000
00f7
cafe
381c
0000
0000
00f8
cafe
3c1c
0000
0000
00f5
cafe
201c
0000
0000
00f5
cafe
241c
0000
0000
00f7
cafe
281c
0000
0000
00f8
cafe
2c1c
0000
0000
00f8
cafe
301c
0000
0000
00f3
cafe
341c
0000
0000
00f3
cafe
381c
0000
0000
00f2
cafe
3c1c
0000
0000
00f5
cafe
201c
0000
0000
00f0
cafe
241c
0000
0000
00f1
cafe
281c
0000
0000
00f3
cafe
2c1c
0000
0000
00f4
cafe
301c
0000
0000
00f6
cafe
341c
0000
0000
00f5
cafe
381c
0000
0000
00f6
cafe
3c1c
0000
0000
00f7
cafe
201c
0000
0000
00f8
cafe
241c
0000
0000
00f8
cafe
281c
0000
0000
00f4
cafe
2c1c
0000
0000
00f2
cafe
301c
0000
0000
00f3
cafe
341c
0000
0000
00f5
cafe
381c
0000
0000
00f4
cafe
3c1c
0000
0000
00fa
cafe
201c
0000
0000
00f6
cafe
241c
0000
0000
00fb
cafe
281c
0000
0000
00f9
cafe
2c1c
0000
0000
00f9
cafe
301c
0000
0000
00fb
cafe
341c
0000
0000
00fb
cafe
381c
0000
0000
00f7
cafe
3c1c
0000
0000
00f8
cafe
201c
0000
-
0000
00f9
cafe
241c
0000
0000
00f9
cafe
281c
0000
0000
00fa
cafe
2c1c
0000
0000
00fa
cafe
301c
0000
0000
00f8
cafe
341c
0000
0000
00f6
cafe
381c
0000
0000
00fa
cafe
3c1c
0000
0000
00fb
cafe
201c
0000
0000
00fc
cafe
241c
0000
0000
0100
cafe
281c
0000
0000
00fc
cafe
2c1c
0000
0000
00fb
cafe
301c
0000
0000
00ff
cafe
341c
0000
0000
00fa
cafe
381c
0000
0000
00fe
cafe
3c1c
0000
0000
00fc
cafe
201c
0000
0000
00fa
cafe
241c
0000
0000
00fc
cafe
281c
0000
0000
00f8
cafe
2c1c
0000
0000
00fa
cafe
301c
0000
0000
00fb
cafe
341c
0000
0000
00fc
cafe
381c
0000
0000
00fa
cafe
3c1c
0000
0000
00fc
cafe
201c
0000
0000
00fb
cafe
241c
0000
0000
00f9
cafe
281c
0000
0000
00f5
cafe
2c1c
0000
0000
00f8
cafe
301c
0000
0000
00f9
cafe
341c
0000
0000
00f4
cafe
381c
0000
0000
00f5
cafe
3c1c
0000
0000
00f7
cafe
201c
0000
0000
00f8
cafe
241c
0000
0000
00f4
cafe
281c
0000
0000
00f7
cafe
2c1c
0000
0000
00f6
cafe
301c
0000
0000
00f8
cafe
341c
0000
0000
00f3
cafe
381c
0000
0000
00f5
cafe
3c1c
0000
0000
00f1
cafe
201c
0000
0000
00f2
cafe
241c
0000
0000
00f5
cafe
281c
0000
0000
00f2
cafe
2c1c
0000
0000
00f7
cafe
301c
0000
0000
00f8
cafe
341c
0000
0000
00f8
cafe
381c
0000
0000
00f6
cafe
3c1c
0000
0000
00f6
cafe
201c
0000
0000
00f9
cafe
241c
0000
0000
00fe
cafe
281c
0000
0000
00fe
cafe
2c1c
0000
0000
-
00fe
cafe
301c
0000
0000
00fc
cafe
341c
0000
0000
0103
cafe
381c
0000
0000
0100
cafe
3c1c
0000
0000
0101
cafe
201c
0000
0000
00fe
cafe
241c
0000
0000
00fb
cafe
281c
0000
0000
00fc
cafe
2c1c
0000
0000
00fd
cafe
301c
0000
0000
00fe
cafe
341c
0000
0000
00fb
cafe
381c
0000
0000
00fd
cafe
3c1c
0000
0000
00f7
cafe
201c
0000
0000
00f5
cafe
241c
0000
0000
00f6
cafe
281c
0000
0000
00f5
cafe
2c1c
0000
0000
00f2
cafe
301c
0000
0000
00f6
cafe
341c
0000
0000
00f7
cafe
381c
0000
0000
00f4
cafe
3c1c
0000
0000
00f1
cafe
201c
0000
0000
00f6
cafe
241c
0000
0000
00f8
cafe
281c
0000
0000
00f8
cafe
2c1c
0000
0000
00f7
cafe
301c
0000
0000
00f9
cafe
341c
0000
0000
00f8
cafe
381c
0000
0000
00f8
cafe
3c1c
0000
0000
00fc
cafe
201c
0000
0000
00fd
cafe
241c
0000
0000
00f9
cafe
281c
0000
0000
00fb
cafe
2c1c
0000
0000
00fb
cafe
301c
0000
0000
00fc
cafe
341c
0000
0000
00fa
cafe
381c
0000
0000
00f9
cafe
3c1c
0000
0000
00f6
cafe
201c
0000
0000
00f5
cafe
241c
0000
0000
00f5
cafe
281c
0000
0000
00f6
cafe
2c1c
0000
0000
00f7
cafe
301c
0000
0000
00f5
cafe
341c
0000
0000
00f5
cafe
381c
0000
0000
00f8
cafe
3c1c
0000
0000
00f6
cafe
201c
0000
0000
00f8
cafe
241c
0000
0000
00f6
cafe
281c
0000
0000
00f9
cafe
2c1c
0000
0000
00f6
cafe
301c
0000
0000
00f5
cafe
341c
0000
0000
00f7
cafe
381c
0000
0000
00f8
-
cafe
3c1c
0000
0000
00fa
cafe
201c
0000
0000
00fa
cafe
241c
0000
0000
00fb
cafe
281c
0000
0000
00fd
cafe
2c1c
0000
0000
00fe
cafe
301c
0000
0000
00ff
cafe
341c
0000
0000
00fb
cafe
381c
0000
0000
00ff
cafe
3c1c
0000
0000
00fd
cafe
201c
0000
0000
00fb
cafe
241c
0000
0000
00fc
cafe
281c
0000
0000
00fb
cafe
2c1c
0000
0000
00f7
cafe
301c
0000
0000
00f8
cafe
341c
0000
0000
00f9
cafe
381c
0000
0000
00f5
cafe
3c1c
0000
0000
00f5
cafe
201c
0000
0000
00f6
cafe
241c
0000
0000
00f9
cafe
281c
0000
0000
00f7
cafe
2c1c
0000
0000
00f9
cafe
301c
0000
0000
00f6
cafe
341c
0000
0000
00f6
cafe
381c
0000
0000
00f6
cafe
3c1c
0000
0000
00f9
cafe
201c
0000
0000
00f9
cafe
241c
0000
0000
00fa
cafe
281c
0000
0000
00fa
cafe
2c1c
0000
0000
00fe
cafe
301c
0000
0000
00fb
cafe
341c
0000
0000
00fa
cafe
381c
0000
0000
00fb
cafe
3c1c
0000
0000
00f7
cafe
201c
0000
0000
00f6
cafe
241c
0000
0000
00fa
cafe
281c
0000
0000
00fa
cafe
2c1c
0000
0000
00f9
cafe
301c
0000
0000
00f8
cafe
341c
0000
0000
00f6
cafe
381c
0000
0000
00f7
cafe
3c1c
0000
0000
00fb
cafe
201c
0000
0000
00f7
cafe
241c
0000
0000
00fa
cafe
281c
0000
0000
00f7
cafe
2c1c
0000
0000
00f5
cafe
301c
0000
0000
00f9
cafe
341c
0000
0000
00f9
cafe
381c
0000
0000
00f4
cafe
3c1c
0000
0000
00f7
cafe
201c
0000
0000
00f8
cafe
241c
0000
0000
00f8
cafe
-
281c
0000
0000
00f5
cafe
2c1c
0000
0000
00f5
cafe
301c
0000
0000
00f7
cafe
341c
0000
0000
00fa
cafe
381c
0000
0000
00fb
cafe
3c1c
0000
0000
00fb
cafe
201c
0000
0000
0100
cafe
241c
0000
0000
0100
cafe
281c
0000
0000
00fd
cafe
2c1c
0000
0000
00fd
cafe
301c
0000
0000
00fc
cafe
341c
0000
0000
00fc
cafe
381c
0000
0000
00f7
cafe
3c1c
0000
0000
00f9
cafe
201c
0000
0000
00fe
cafe
241c
0000
0000
00ff
cafe
281c
0000
0000
00fd
cafe
2c1c
0000
0000
00fb
cafe
301c
0000
0000
00f9
cafe
341c
0000
0000
00f1
cafe
381c
0000
0000
00f4
cafe
3c1c
0000
0000
00f5
cafe
201c
0000
0000
00f3
cafe
241c
0000
0000
00f1
cafe
281c
0000
0000
00f0
cafe
2c1c
0000
0000
00ee
cafe
301c
0000
0000
00ef
cafe
341c
0000
0000
00eb
cafe
381c
0000
0000
00ef
cafe
3c1c
0000
0000
00f5
cafe
201c
0000
0000
00f7
cafe
241c
0000
0000
00fa
cafe
281c
0000
0000
00f8
cafe
2c1c
0000
0000
00fc
cafe
301c
0000
0000
0100
cafe
341c
0000
0000
00fd
cafe
381c
0000
0000
00fd
cafe
3c1c
0000
0000
00fe
cafe
201c
0000
0000
0100
cafe
241c
0000
0000
00fc
cafe
281c
0000
0000
0102
cafe
2c1c
0000
0000
0101
cafe
301c
0000
0000
0100
cafe
341c
0000
0000
00fd
cafe
381c
0000
0000
00ff
cafe
3c1c
0000
0000
00fd
cafe
201c
0000
0000
00f9
cafe
241c
0000
0000
00fb
cafe
281c
0000
0000
00fa
cafe
2c1c
0000
0000
00f7
cafe
301c
0000
0000
00f6
cafe
341c
-
0000
0000
00f5
cafe
381c
0000
0000
00f7
cafe
3c1c
0000
0000
00fa
cafe
201c
0000
0000
00f8
cafe
241c
0000
0000
00f6
cafe
281c
0000
0000
00f9
cafe
2c1c
0000
0000
00f8
cafe
301c
0000
0000
00f6
cafe
341c
0000
0000
00f8
cafe
381c
0000
0000
00fc
cafe
3c1c
0000
0000
00fc
cafe
201c
0000
0000
00fe
cafe
241c
0000
0000
00ff
cafe
281c
0000
0000
00fd
cafe
2c1c
0000
0000
00fe
cafe
301c
0000
0000
00fc
cafe
341c
0000
0000
00fa
cafe
381c
0000
0000
00f8
cafe
3c1c
0000
0000
00f6
cafe
201c
0000
0000
00f8
cafe
241c
0000
0000
00f9
cafe
281c
0000
0000
00f5
cafe
2c1c
0000
0000
00f7
cafe
301c
0000
0000
00f8
cafe
341c
0000
0000
00fb
cafe
381c
0000
0000
00f9
cafe
3c1c
0000
0000
00f4
cafe
201c
0000
0000
00f0
cafe
241c
0000
0000
00f2
cafe
281c
0000
0000
00f2
cafe
2c1c
0000
0000
00f3
cafe
301c
0000
0000
00f2
cafe
341c
0000
0000
00f7
cafe
381c
0000
0000
00f4
cafe
3c1c
0000
0000
00f8
cafe
201c
0000
0000
00f7
cafe
241c
0000
0000
00fa
cafe
281c
0000
0000
00fb
cafe
2c1c
0000
0000
00ff
cafe
301c
0000
0000
00f7
cafe
341c
0000
0000
00fb
cafe
381c
0000
0000
00f3
cafe
3c1c
0000
0000
00f4
cafe
201c
0000
0000
00f3
cafe
241c
0000
0000
00f1
cafe
281c
0000
0000
00f2
cafe
2c1c
0000
0000
00f8
cafe
301c
0000
0000
00f8
cafe
341c
0000
0000
00f9
cafe
381c
0000
0000
00f6
cafe
3c1c
0000
0000
00f6
cafe
201c
0000
-
0000
00f4
cafe
241c
0000
0000
00f6
cafe
281c
0000
0000
00f8
cafe
2c1c
0000
0000
00f8
cafe
301c
0000
0000
00fa
cafe
341c
0000
0000
00f9
cafe
381c
0000
0000
00fd
cafe
3c1c
0000
0000
00f9
cafe
201c
0000
0000
00f7
cafe
241c
0000
0000
00fa
cafe
281c
0000
0000
00f9
cafe
2c1c
0000
0000
00fa
cafe
301c
0000
0000
00ff
cafe
341c
0000
0000
00fa
cafe
381c
0000
0000
00f9
cafe
3c1c
0000
0000
00f5
cafe
201c
0000
0000
00f9
cafe
241c
0000
0000
00f9
cafe
281c
0000
0000
00f8
cafe
2c1c
0000
0000
00fa
cafe
301c
0000
0000
00fa
cafe
341c
0000
0000
00f8
cafe
381c
0000
0000
00f7
cafe
3c1c
0000
0000
00fa
cafe
201c
0000
0000
00f9
cafe
241c
0000
0000
00f6
cafe
281c
0000
0000
00f7
cafe
2c1c
0000
0000
00fa
cafe
301c
0000
0000
00fa
cafe
341c
0000
0000
00f5
cafe
381c
0000
0000
00ee
cafe
3c1c
0000
0000
00f2
cafe
201c
0000
0000
00f7
cafe
241c
0000
0000
00f7
cafe
281c
0000
0000
00fc
cafe
2c1c
0000
0000
00f9
cafe
301c
0000
0000
00f6
cafe
341c
0000
0000
00f8
cafe
381c
0000
0000
00f5
cafe
3c1c
0000
0000
00fa
cafe
201c
0000
0000
00f9
cafe
241c
0000
0000
00fa
cafe
281c
0000
0000
00f5
cafe
2c1c
0000
0000
00f6
cafe
301c
0000
0000
00f3
cafe
341c
0000
0000
00f3
cafe
381c
0000
0000
00f5
cafe
3c1c
0000
0000
00f2
cafe
201c
0000
0000
00f4
cafe
241c
0000
0000
00f5
cafe
281c
0000
0000
00f7
cafe
2c1c
0000
0000
-
00f6
cafe
301c
0000
0000
00f0
cafe
341c
0000
0000
00f5
cafe
381c
0000
0000
00f4
cafe
3c1c
0000
0000
00f6
cafe
201c
0000
0000
00f0
cafe
241c
0000
0000
00f7
cafe
281c
0000
0000
00fa
cafe
2c1c
0000
0000
00f8
cafe
301c
0000
0000
00fb
cafe
341c
0000
0000
00fe
cafe
381c
0000
0000
00fe
cafe
3c1c
0000
0000
00fb
cafe
201c
0000
0000
00fb
cafe
241c
0000
0000
00f9
cafe
281c
0000
0000
00fc
cafe
2c1c
0000
0000
00fb
cafe
301c
0000
0000
00f7
cafe
341c
0000
0000
00f7
cafe
381c
0000
0000
00f8
cafe
3c1c
0000
0000
00f7
cafe
201c
0000
0000
00f3
cafe
241c
0000
0000
00f2
cafe
281c
0000
0000
00f1
cafe
2c1c
0000
0000
00f2
cafe
301c
0000
0000
00f7
cafe
341c
0000
0000
00f6
cafe
381c
0000
0000
00f6
cafe
3c1c
0000
0000
00f6
cafe
201c
0000
0000
00f6
cafe
241c
0000
0000
00f3
cafe
281c
0000
0000
00f1
cafe
2c1c
0000
0000
00f2
cafe
301c
0000
0000
00f2
cafe
341c
0000
0000
00f1
cafe
381c
0000
0000
00f1
cafe
3c1c
0000
0000
00ef
cafe
201c
0000
0000
00f5
cafe
241c
0000
0000
00f5
cafe
281c
0000
0000
00f9
cafe
2c1c
0000
0000
00f9
cafe
301c
0000
0000
0100
cafe
341c
0000
0000
00fa
cafe
381c
0000
0000
00fc
cafe
3c1c
0000
0000
0102
cafe
201c
0000
0000
00fd
cafe
241c
0000
0000
00f8
cafe
281c
0000
0000
00fa
cafe
2c1c
0000
0000
00f8
cafe
301c
0000
0000
00f3
cafe
341c
0000
0000
00f2
cafe
381c
0000
0000
00f2
-
cafe
3c1c
0000
0000
00f1
cafe
201c
0000
0000
00f2
cafe
241c
0000
0000
00f1
cafe
281c
0000
0000
00f2
cafe
2c1c
0000
0000
00f5
cafe
301c
0000
0000
00f6
cafe
341c
0000
0000
00f4
cafe
381c
0000
0000
00f2
cafe
3c1c
0000
0000
00f4
cafe
201c
0000
0000
00f4
cafe
241c
0000
0000
00fc
cafe
281c
0000
0000
00ff
cafe
2c1c
0000
0000
00fb
cafe
301c
0000
0000
00fb
cafe
341c
0000
0000
00fd
cafe
381c
0000
0000
00fe
cafe
3c1c
0000
0000
00fb
cafe
201c
0000
0000
00fd
cafe
241c
0000
0000
00fa
cafe
281c
0000
0000
00fa
cafe
2c1c
0000
0000
00fb
cafe
301c
0000
0000
00f8
cafe
341c
0000
0000
00f6
cafe
381c
0000
0000
00f5
cafe
3c1c
0000
0000
00f3
cafe
201c
0000
0000
00f4
cafe
241c
0000
0000
00f5
cafe
281c
0000
0000
00f5
cafe
2c1c
0000
0000
00f2
cafe
301c
0000
0000
00f3
cafe
341c
0000
0000
00f3
cafe
381c
0000
0000
00f1
cafe
3c1c
0000
0000
00f4
cafe
201c
0000
0000
00ee
cafe
241c
0000
0000
00f4
cafe
281c
0000
0000
00ee
cafe
2c1c
0000
0000
00ef
cafe
301c
0000
0000
00ef
cafe
341c
0000
0000
00f3
cafe
381c
0000
0000
00f5
cafe
3c1c
0000
0000
00f5
cafe
201c
0000
0000
00f3
cafe
241c
0000
0000
00f8
cafe
281c
0000
0000
00f8
cafe
2c1c
0000
0000
00f7
cafe
301c
0000
0000
00f6
cafe
341c
0000
0000
00f7
cafe
381c
0000
0000
00fa
cafe
3c1c
0000
0000
00fd
cafe
201c
0000
0000
00f7
cafe
241c
0000
0000
00fb
cafe
-
281c
0000
0000
00fa
cafe
2c1c
0000
0000
00fa
cafe
301c
0000
0000
00f7
cafe
341c
0000
0000
00fc
cafe
381c
0000
0000
00fc
cafe
3c1c
0000
0000
00f8
cafe
201c
0000
0000
00f7
cafe
241c
0000
0000
00f6
cafe
281c
0000
0000
00f7
cafe
2c1c
0000
0000
00f7
cafe
301c
0000
0000
00f9
cafe
341c
0000
0000
00f8
cafe
381c
0000
0000
00f6
cafe
3c1c
0000
0000
00f4
cafe
201c
0000
0000
00f9
cafe
241c
0000
0000
00f5
cafe
281c
0000
0000
00f6
cafe
2c1c
0000
0000
00f5
cafe
301c
0000
0000
00f9
cafe
341c
0000
0000
00f5
cafe
381c
0000
0000
00f7
cafe
3c1c
0000
0000
00f8
cafe
201c
0000
0000
00f9
cafe
241c
0000
0000
00fb
cafe
281c
0000
0000
00fe
cafe
2c1c
0000
0000
00fb
cafe
301c
0000
0000
00fc
cafe
341c
0000
0000
00fa
cafe
381c
0000
0000
00fd
cafe
3c1c
0000
0000
00fa
cafe
201c
0000
0000
00fd
cafe
241c
0000
0000
00fb
cafe
281c
0000
0000
00fa
cafe
2c1c
0000
0000
00ff
cafe
301c
0000
0000
00f9
cafe
341c
0000
0000
00f9
cafe
381c
0000
0000
00fa
cafe
3c1c
0000
0000
00f9
cafe
201c
0000
0000
00f7
cafe
241c
0000
0000
00f5
cafe
281c
0000
0000
00f6
cafe
2c1c
0000
0000
00f6
cafe
301c
0000
0000
00f3
cafe
341c
0000
0000
00f7
cafe
381c
0000
0000
00f3
cafe
3c1c
0000
0000
00f4
cafe
201c
0000
0000
00fa
cafe
241c
0000
0000
00f8
cafe
281c
0000
0000
00fc
cafe
2c1c
0000
0000
00f8
cafe
301c
0000
0000
00f7
cafe
341c
-
0000
0000
00f7
cafe
381c
0000
0000
00fa
cafe
3c1c
0000
0000
00fd
cafe
201c
0000
0000
00fb
cafe
241c
0000
0000
00fb
cafe
281c
0000
0000
00f7
cafe
2c1c
0000
0000
00f9
cafe
301c
0000
0000
00f4
cafe
341c
0000
0000
00f9
cafe
381c
0000
0000
00fb
cafe
3c1c
0000
0000
00fb
cafe
201c
0000
0000
00fd
cafe
241c
0000
0000
00fa
cafe
281c
0000
0000
00f6
cafe
2c1c
0000
0000
00f9
cafe
301c
0000
0000
00f7
cafe
341c
0000
0000
00f8
cafe
381c
0000
0000
00fb
cafe
3c1c
0000
0000
00fd
cafe
201c
0000
0000
00fb
cafe
241c
0000
0000
00fa
cafe
281c
0000
0000
00f9
cafe
2c1c
0000
0000
00f6
cafe
301c
0000
0000
00f7
cafe
341c
0000
0000
00f5
cafe
381c
0000
0000
00f7
cafe
3c1c
0000
0000
00f6
cafe
201c
0000
0000
00f6
cafe
241c
0000
0000
00f9
cafe
281c
0000
0000
00f7
cafe
2c1c
0000
0000
00f7
cafe
301c
0000
0000
00f6
cafe
341c
0000
0000
00f5
cafe
381c
0000
0000
00f6
cafe
3c1c
0000
0000
00f1
cafe
201c
0000
0000
00f0
cafe
241c
0000
0000
00ed
cafe
281c
0000
0000
00eb
cafe
2c1c
0000
0000
00f1
cafe
301c
0000
0000
00f0
cafe
341c
0000
0000
00f0
cafe
381c
0000
0000
00f3
cafe
3c1c
0000
0000
00f4
cafe
201c
0000
0000
00fa
cafe
241c
0000
0000
00f8
cafe
281c
0000
0000
00f6
cafe
2c1c
0000
0000
00f9
cafe
301c
0000
0000
00fa
cafe
341c
0000
0000
00fa
cafe
381c
0000
0000
00f8
cafe
3c1c
0000
0000
00f9
cafe
201c
0000
-
0000
00f9
cafe
241c
0000
0000
00f8
cafe
281c
0000
0000
00f6
cafe
2c1c
0000
0000
00f9
cafe
301c
0000
0000
00f9
cafe
341c
0000
0000
00fb
cafe
381c
0000
0000
00fa
cafe
3c1c
0000
0000
00f6
cafe
201c
0000
0000
00fa
cafe
241c
0000
0000
00f9
cafe
281c
0000
0000
00fc
cafe
2c1c
0000
0000
00fc
cafe
301c
0000
0000
00fd
cafe
341c
0000
0000
00fd
cafe
381c
0000
0000
00f8
cafe
3c1c
0000
0000
00fb
cafe
201c
0000
0000
00f9
cafe
241c
0000
0000
00f7
cafe
281c
0000
0000
00f5
cafe
2c1c
0000
0000
00f8
cafe
301c
0000
0000
00fd
cafe
341c
0000
0000
00fa
cafe
381c
0000
0000
00f6
cafe
3c1c
0000
0000
00f9
cafe
201c
0000
0000
00f6
cafe
241c
0000
0000
00f6
cafe
281c
0000
0000
00f3
cafe
2c1c
0000
0000
00f7
cafe
301c
0000
0000
00f9
cafe
341c
0000
0000
00f7
cafe
381c
0000
0000
00f8
cafe
3c1c
0000
0000
00f1
cafe
201c
0000
0000
00fb
cafe
241c
0000
0000
00fc
cafe
281c
0000
0000
0103
cafe
2c1c
0000
0000
0101
cafe
301c
0000
0000
00fd
cafe
341c
0000
0000
00fd
cafe
381c
0000
0000
00fc
cafe
3c1c
0000
0000
00fe
cafe
201c
0000
0000
00fa
cafe
241c
0000
0000
00fc
cafe
281c
0000
0000
00fb
cafe
2c1c
0000
0000
00f9
cafe
301c
0000
0000
00f8
cafe
341c
0000
0000
00f5
cafe
381c
0000
0000
00f7
cafe
3c1c
0000
0000
00f7
cafe
201c
0000
0000
00f9
cafe
241c
0000
0000
00f9
cafe
281c
0000
0000
00fb
cafe
2c1c
0000
0000
-
00fc
cafe
301c
0000
0000
00fb
cafe
341c
0000
0000
00fb
cafe
381c
0000
0000
00fd
cafe
3c1c
0000
0000
0102
cafe
201c
0000
0000
00fe
cafe
241c
0000
0000
00fd
cafe
281c
0000
0000
00f7
cafe
2c1c
0000
0000
00f7
cafe
301c
0000
0000
00f8
cafe
341c
0000
0000
00fc
cafe
381c
0000
0000
00f8
cafe
3c1c
0000
0000
00f5
cafe
201c
0000
0000
00f9
cafe
241c
0000
0000
00f6
cafe
281c
0000
0000
00f6
cafe
2c1c
0000
0000
00f5
cafe
301c
0000
0000
00f4
cafe
341c
0000
0000
00f9
cafe
381c
0000
0000
00fb
cafe
3c1c
0000
0000
00f8
cafe
201c
0000
0000
00f4
cafe
241c
0000
0000
00f8
cafe
281c
0000
0000
00f8
cafe
2c1c
0000
0000
00f7
cafe
301c
0000
0000
00f5
cafe
341c
0000
0000
00f3
cafe
381c
0000
0000
00f5
cafe
3c1c
0000
0000
00f6
cafe
201c
0000
0000
00f5
cafe
241c
0000
0000
00f9
cafe
281c
0000
0000
00f7
cafe
2c1c
0000
0000
00f7
cafe
301c
0000
0000
00f7
cafe
341c
0000
0000
00f7
cafe
381c
0000
0000
00fc
cafe
3c1c
0000
0000
00f8
cafe
201c
0000
0000
00fb
cafe
241c
0000
0000
00fa
cafe
281c
0000
0000
00f8
cafe
2c1c
0000
0000
00f4
cafe
301c
0000
0000
00f5
cafe
341c
0000
0000
00f7
cafe
381c
0000
0000
00fa
cafe
3c1c
0000
0000
00f4
cafe
201c
0000
0000
00f4
cafe
241c
0000
0000
00f4
cafe
281c
0000
0000
00f5
cafe
2c1c
0000
0000
00f2
cafe
301c
0000
0000
00f5
cafe
341c
0000
0000
00f3
cafe
381c
0000
0000
00ef
-
cafe
3c1c
0000
0000
00f6
cafe
201c
0000
0000
00f7
cafe
241c
0000
0000
00f7
cafe
281c
0000
0000
00f9
cafe
2c1c
0000
0000
00fa
cafe
301c
0000
0000
00f7
cafe
341c
0000
0000
00f5
cafe
381c
0000
0000
00f2
cafe
3c1c
0000
0000
00f2
cafe
201c
0000
0000
00f2
cafe
241c
0000
0000
00f4
cafe
281c
0000
0000
00f2
cafe
2c1c
0000
0000
00f2
cafe
301c
0000
0000
00f1
cafe
341c
0000
0000
00f3
cafe
381c
0000
0000
00f2
cafe
3c1c
0000
0000
00f0
cafe
201c
0000
0000
00f4
cafe
241c
0000
0000
00f4
cafe
281c
0000
0000
00f7
cafe
2c1c
0000
0000
00f5
cafe
301c
0000
0000
00f3
cafe
341c
0000
0000
00f4
cafe
381c
0000
0000
00f1
cafe
3c1c
0000
0000
00f6
cafe
201c
0000
0000
00f2
cafe
241c
0000
0000
00f5
cafe
281c
0000
0000
00f5
cafe
2c1c
0000
0000
00f8
cafe
301c
0000
0000
00f8
cafe
341c
0000
0000
00f5
cafe
381c
0000
0000
00f9
cafe
3c1c
0000
0000
00fb
cafe
201c
0000
0000
00f7
cafe
241c
0000
0000
00fa
cafe
281c
0000
0000
00f7
cafe
2c1c
0000
0000
00fc
cafe
301c
0000
0000
00f4
cafe
341c
0000
0000
00f5
cafe
381c
0000
0000
00f5
cafe
3c1c
0000
0000
00f2
cafe
201c
0000
0000
00fd
cafe
241c
0000
0000
00fa
cafe
281c
0000
0000
00fb
cafe
2c1c
0000
0000
00f7
cafe
301c
0000
0000
00f5
cafe
341c
0000
0000
00f6
cafe
381c
0000
0000
00f5
cafe
3c1c
0000
0000
00f5
cafe
201c
0000
0000
00ef
cafe
241c
0000
0000
00f6
cafe
-
281c
0000
0000
00f4
cafe
2c1c
0000
0000
00f4
cafe
301c
0000
0000
00f7
cafe
341c
0000
0000
00f5
cafe
381c
0000
0000
00f7
cafe
3c1c
0000
0000
00f7
cafe
201c
0000
0000
00f4
cafe
241c
0000
0000
00f8
cafe
281c
0000
0000
00f4
cafe
2c1c
0000
0000
00f5
cafe
301c
0000
0000
00f7
cafe
341c
0000
0000
00fe
cafe
381c
0000
0000
00fb
cafe
3c1c
0000
0000
00fc
cafe
201c
0000
0000
00fa
cafe
241c
0000
0000
00f9
cafe
281c
0000
0000
00f9
cafe
2c1c
0000
0000
00f9
cafe
301c
0000
0000
00f8
cafe
341c
0000
0000
00f3
cafe
381c
0000
0000
00f5
cafe
3c1c
0000
0000
00f2
cafe
201c
0000
0000
00f5
cafe
241c
0000
0000
00f3
cafe
281c
0000
0000
00ed
cafe
2c1c
0000
0000
00f1
cafe
301c
0000
0000
00f1
cafe
341c
0000
0000
00f6
cafe
381c
0000
0000
00f7
cafe
3c1c
0000
0000
00f9
cafe
201c
0000
0000
00fb
cafe
241c
0000
0000
00fe
cafe
281c
0000
0000
00fa
cafe
2c1c
0000
0000
00fb
cafe
301c
0000
0000
00fa
cafe
341c
0000
0000
00fc
cafe
381c
0000
0000
00fc
cafe
3c1c
0000
0000
00f9
cafe
201c
0000
0000
00f7
cafe
241c
0000
0000
00fd
cafe
281c
0000
0000
00fa
cafe
2c1c
0000
0000
00fb
cafe
301c
0000
0000
00f8
cafe
341c
0000
0000
00f9
cafe
381c
0000
0000
00fa
cafe
3c1c
0000
0000
00fa
cafe
201c
0000
0000
00fb
cafe
241c
0000
0000
00fc
cafe
281c
0000
0000
00fb
cafe
2c1c
0000
0000
00f8
cafe
301c
0000
0000
00fd
cafe
341c
-
0000
0000
00f7
cafe
381c
0000
0000
00f7
cafe
3c1c
0000
0000
00f8
cafe
201c
0000
0000
00f7
cafe
241c
0000
0000
00f6
cafe
281c
0000
0000
00f5
cafe
2c1c
0000
0000
00f6
cafe
301c
0000
0000
00f5
cafe
341c
0000
0000
00f8
cafe
381c
0000
0000
00f7
cafe
3c1c
0000
0000
00ff
cafe
201c
0000
0000
00f7
cafe
241c
0000
0000
00f5
cafe
281c
0000
0000
00f3
cafe
2c1c
0000
0000
00f4
cafe
301c
0000
0000
00f5
cafe
341c
0000
0000
00f6
cafe
381c
0000
0000
00f4
cafe
3c1c
0000
0000
00f6
cafe
201c
0000
0000
00fb
cafe
241c
0000
0000
00fa
cafe
281c
0000
0000
00fb
cafe
2c1c
0000
0000
00fd
cafe
301c
0000
0000
00fc
cafe
341c
0000
0000
00fc
cafe
381c
0000
0000
00f8
cafe
3c1c
0000
0000
00fe
cafe
201c
0000
0000
00fc
cafe
241c
0000
0000
00fc
cafe
281c
0000
0000
00f9
cafe
2c1c
0000
0000
00f9
cafe
301c
0000
0000
00f7
cafe
341c
0000
0000
00f7
cafe
381c
0000
0000
00f9
cafe
3c1c
0000
0000
00f9
cafe
201c
0000
0000
00f8
cafe
241c
0000
0000
00f4
cafe
281c
0000
0000
00f9
cafe
2c1c
0000
0000
00f5
cafe
301c
0000
0000
00f4
cafe
341c
0000
0000
00f4
cafe
381c
0000
0000
00f3
cafe
3c1c
0000
0000
00f7
cafe
201c
0000
0000
00f8
cafe
241c
0000
0000
00f9
cafe
281c
0000
0000
00f7
cafe
2c1c
0000
0000
00fb
cafe
301c
0000
0000
00fa
cafe
341c
0000
0000
00fc
cafe
381c
0000
0000
00fb
cafe
3c1c
0000
0000
00fd
cafe
201c
0000
-
0000
00fd
cafe
241c
0000
0000
00fc
cafe
281c
0000
0000
0101
cafe
2c1c
0000
0000
00ff
cafe
301c
0000
0000
00fc
cafe
341c
0000
0000
00f9
cafe
381c
0000
0000
00f9
cafe
3c1c
0000
0000
00f7
cafe
201c
0000
0000
00f9
cafe
241c
0000
0000
00fa
cafe
281c
0000
0000
00f8
cafe
2c1c
0000
0000
00f9
cafe
301c
0000
0000
00fb
cafe
341c
0000
0000
00fa
cafe
381c
0000
0000
00fc
cafe
3c1c
0000
0000
00fe
cafe
201c
0000
0000
00fb
cafe
241c
0000
0000
00f9
cafe
281c
0000
0000
00f6
cafe
2c1c
0000
0000
00fc
cafe
301c
0000
0000
00fd
cafe
341c
0000
0000
00f8
cafe
381c
0000
0000
00f6
cafe
3c1c
0000
0000
00f6
cafe
201c
0000
0000
00f5
cafe
241c
0000
0000
00f3
cafe
281c
0000
0000
00f4
cafe
2c1c
0000
0000
00f7
cafe
301c
0000
0000
00f5
cafe
341c
0000
0000
00f4
cafe
381c
0000
0000
00f5
cafe
3c1c
0000
0000
00f7
cafe
201c
0000
0000
00f8
cafe
241c
0000
0000
00fc
cafe
281c
0000
0000
00fc
cafe
2c1c
0000
0000
00f6
cafe
301c
0000
0000
00f7
cafe
341c
0000
0000
00f9
cafe
381c
0000
0000
00fa
cafe
3c1c
0000
0000
00f7
cafe
201c
0000
0000
00f9
cafe
241c
0000
0000
00f5
cafe
281c
0000
0000
00f5
cafe
2c1c
0000
0000
00f5
cafe
301c
0000
0000
00f7
cafe
341c
0000
0000
00f7
cafe
381c
0000
0000
00fa
cafe
3c1c
0000
0000
00f6
cafe
201c
0000
0000
00f4
cafe
241c
0000
0000
00f5
cafe
281c
0000
0000
00f3
cafe
2c1c
0000
0000
-
00f6
cafe
301c
0000
0000
00f2
cafe
341c
0000
0000
00f7
cafe
381c
0000
0000
00f6
cafe
3c1c
0000
0000
00f7
cafe
201c
0000
0000
00f9
cafe
241c
0000
0000
00fa
cafe
281c
0000
0000
00fa
cafe
2c1c
0000
0000
00fb
cafe
301c
0000
0000
00fb
cafe
341c
0000
0000
00fb
cafe
381c
0000
0000
00fa
cafe
3c1c
0000
0000
00ff
cafe
201c
0000
0000
00fd
cafe
241c
0000
0000
00f5
cafe
281c
0000
0000
00f4
cafe
2c1c
0000
0000
00f5
cafe
301c
0000
0000
00f5
cafe
341c
0000
0000
00f4
cafe
381c
0000
0000
00f7
cafe
3c1c
0000
0000
00f7
cafe
201c
0000
0000
00f9
cafe
241c
0000
0000
00f6
cafe
281c
0000
0000
00f7
cafe
2c1c
0000
0000
00fc
cafe
301c
0000
0000
00f5
cafe
341c
0000
0000
00f1
cafe
381c
0000
0000
00f7
cafe
3c1c
0000
0000
00f9
cafe
201c
0000
0000
00fd
cafe
241c
0000
0000
00f8
cafe
281c
0000
0000
00fa
cafe
2c1c
0000
0000
00f9
cafe
301c
0000
0000
00fb
cafe
341c
0000
0000
00fd
cafe
381c
0000
0000
00fd
cafe
3c1c
0000
0000
0100
cafe
201c
0000
0000
00ff
cafe
241c
0000
0000
00fd
cafe
281c
0000
0000
00fb
cafe
2c1c
0000
0000
00f8
cafe
301c
0000
0000
00fa
cafe
341c
0000
0000
00f9
cafe
381c
0000
0000
00f8
cafe
3c1c
0000
0000
00fd
cafe
201c
0000
0000
00f7
cafe
241c
0000
0000
00f6
cafe
281c
0000
0000
00f4
cafe
2c1c
0000
0000
00f7
cafe
301c
0000
0000
00f9
cafe
341c
0000
0000
00fa
cafe
381c
0000
0000
00f9
-
cafe
3c1c
0000
0000
00fc
cafe
201c
0000
0000
00f7
cafe
241c
0000
0000
00f9
cafe
281c
0000
0000
00f8
cafe
2c1c
0000
0000
00f8
cafe
301c
0000
0000
00f7
cafe
341c
0000
0000
00f8
cafe
381c
0000
0000
00f6
cafe
3c1c
0000
0000
00f7
cafe
201c
0000
0000
00f6
cafe
241c
0000
0000
00fa
cafe
281c
0000
0000
00f8
cafe
2c1c
0000
0000
00fb
cafe
301c
0000
0000
00fa
cafe
341c
0000
0000
00f7
cafe
381c
0000
0000
00f9
cafe
3c1c
0000
0000
00fa
cafe
201c
0000
0000
00f9
cafe
241c
0000
0000
00f5
cafe
281c
0000
0000
00f7
cafe
2c1c
0000
0000
00f7
cafe
301c
0000
0000
00f4
cafe
341c
0000
0000
00f7
cafe
381c
0000
0000
00fa
cafe
3c1c
0000
0000
00f7
cafe
201c
0000
0000
00fb
cafe
241c
0000
0000
00f5
cafe
281c
0000
0000
00f0
cafe
2c1c
0000
0000
00f4
cafe
301c
0000
0000
00f2
cafe
341c
0000
0000
00f3
cafe
381c
0000
0000
00f4
cafe
3c1c
0000
0000
00f1
cafe
201c
0000
0000
00f7
cafe
241c
0000
0000
00f7
cafe
281c
0000
0000
00fb
cafe
2c1c
0000
0000
00fb
cafe
301c
0000
0000
00fc
cafe
341c
0000
0000
00fb
cafe
381c
0000
0000
00fa
cafe
3c1c
0000
0000
00fc
cafe
201c
0000
0000
00ff
cafe
241c
0000
0000
00fd
cafe
281c
0000
0000
00fa
cafe
2c1c
0000
0000
0100
cafe
301c
0000
0000
00f9
cafe
341c
0000
0000
00fb
cafe
381c
0000
0000
00fe
cafe
3c1c
0000
0000
00fb
cafe
201c
0000
0000
00fd
cafe
241c
0000
0000
00fb
cafe
-
281c
0000
0000
00fc
cafe
2c1c
0000
0000
0100
cafe
301c
0000
0000
00fd
cafe
341c
0000
0000
00ff
cafe
381c
0000
0000
00fc
cafe
3c1c
0000
0000
00fd
cafe
201c
0000
0000
00fd
cafe
241c
0000
0000
00fd
cafe
281c
0000
0000
00fa
cafe
2c1c
0000
0000
00f9
cafe
301c
0000
0000
00f8
cafe
341c
0000
0000
00f6
cafe
381c
0000
0000
00f8
cafe
3c1c
0000
0000
00f3
cafe
201c
0000
0000
00f8
cafe
241c
0000
0000
00f5
cafe
281c
0000
0000
00f5
cafe
2c1c
0000
0000
00f6
cafe
301c
0000
0000
00f5
cafe
341c
0000
0000
00f7
cafe
381c
0000
0000
00f5
cafe
3c1c
0000
0000
00f4
cafe
201c
0000
0000
00f3
cafe
241c
0000
0000
00f2
cafe
281c
0000
0000
00f3
cafe
2c1c
0000
0000
00f3
cafe
301c
0000
0000
00f5
cafe
341c
0000
0000
00f7
cafe
381c
0000
0000
00f6
cafe
3c1c
0000
0000
00f4
cafe
201c
0000
0000
00f9
cafe
241c
0000
0000
00f7
cafe
281c
0000
0000
00f7
cafe
2c1c
0000
0000
00f5
cafe
301c
0000
0000
00f3
cafe
341c
0000
0000
00f0
cafe
381c
0000
0000
00f3
cafe
3c1c
0000
0000
00f6
cafe
201c
0000
0000
00f9
cafe
241c
0000
0000
00f4
cafe
281c
0000
0000
00f7
cafe
2c1c
0000
0000
00f7
cafe
301c
0000
0000
00f6
cafe
341c
0000
0000
00f6
cafe
381c
0000
0000
00f3
cafe
3c1c
0000
0000
00f6
cafe
201c
0000
0000
00f9
cafe
241c
0000
0000
00f9
cafe
281c
0000
0000
00f8
cafe
2c1c
0000
0000
00f4
cafe
301c
0000
0000
00f1
cafe
341c
-
0000
0000
00f2
cafe
381c
0000
0000
00f6
cafe
3c1c
0000
0000
00f3
cafe
201c
0000
0000
00f6
cafe
241c
0000
0000
00f7
cafe
281c
0000
0000
00f4
cafe
2c1c
0000
0000
00f2
cafe
301c
0000
0000
00f2
cafe
341c
0000
0000
00f4
cafe
381c
0000
0000
00f2
cafe
3c1c
0000
0000
00f3
cafe
201c
0000
0000
00f5
cafe
241c
0000
0000
00ee
cafe
281c
0000
0000
00f1
cafe
2c1c
0000
0000
00f3
cafe
301c
0000
0000
00f1
cafe
341c
0000
0000
00f4
cafe
381c
0000
0000
00f0
cafe
3c1c
0000
0000
00ec
cafe
201c
0000
0000
00ee
cafe
241c
0000
0000
00eb
cafe
281c
0000
0000
00ec
cafe
2c1c
0000
0000
00ef
cafe
301c
0000
0000
00f5
cafe
341c
0000
0000
00f7
cafe
381c
0000
0000
00f7
cafe
3c1c
0000
0000
00f8
cafe
201c
0000
0000
00f9
cafe
241c
0000
0000
00f8
cafe
281c
0000
0000
00fb
cafe
2c1c
0000
0000
0101
cafe
301c
0000
0000
0100
cafe
341c
0000
0000
00fc
cafe
381c
0000
0000
00fb
cafe
3c1c
0000
0000
00fa
cafe
201c
0000
0000
00fd
cafe
241c
0000
0000
00fd
cafe
281c
0000
0000
00fc
cafe
2c1c
0000
0000
00f6
cafe
301c
0000
0000
00f8
cafe
341c
0000
0000
00f8
cafe
381c
0000
0000
00f5
cafe
3c1c
0000
0000
00f1
cafe
201c
0000
0000
00f3
cafe
241c
0000
0000
00f6
cafe
281c
0000
0000
00f8
cafe
2c1c
0000
0000
00f8
cafe
301c
0000
0000
00f6
cafe
341c
0000
0000
00f6
cafe
381c
0000
0000
00f6
cafe
3c1c
0000
0000
00f6
cafe
201c
0000
-
0000
00f6
cafe
241c
0000
0000
00f7
cafe
281c
0000
0000
00fb
cafe
2c1c
0000
0000
00fa
cafe
301c
0000
0000
00ff
cafe
341c
0000
0000
00fe
cafe
381c
0000
0000
00f3
cafe
3c1c
0000
0000
00f5
cafe
201c
0000
0000
00f9
cafe
241c
0000
0000
00f9
cafe
281c
0000
0000
00fa
cafe
2c1c
0000
0000
0100
cafe
301c
0000
0000
00fd
cafe
341c
0000
0000
00fb
cafe
381c
0000
0000
00fa
cafe
3c1c
0000
0000
00f5
cafe
201c
0000
0000
00f8
cafe
241c
0000
0000
00f8
cafe
281c
0000
0000
00f2
cafe
2c1c
0000
0000
00f7
cafe
301c
0000
0000
00f8
cafe
341c
0000
0000
00f1
cafe
381c
0000
0000
00f3
cafe
3c1c
0000
0000
00f4
cafe
201c
0000
0000
00f4
cafe
241c
0000
0000
00f3
cafe
281c
0000
0000
00f6
cafe
2c1c
0000
0000
00f3
cafe
301c
0000
0000
00f8
cafe
341c
0000
0000
00f5
cafe
381c
0000
0000
00f5
cafe
3c1c
0000
0000
00f3
cafe
201c
0000
0000
00f5
cafe
241c
0000
0000
00f7
cafe
281c
0000
0000
00f6
cafe
2c1c
0000
0000
00f3
cafe
301c
0000
0000
00f7
cafe
341c
0000
0000
00f7
cafe
381c
0000
0000
00f8
cafe
3c1c
0000
0000
00f7
cafe
201c
0000
0000
00f7
cafe
241c
0000
0000
00f9
cafe
281c
0000
0000
00f8
cafe
2c1c
0000
0000
00f9
cafe
301c
0000
0000
00f4
cafe
341c
0000
0000
00f8
cafe
381c
0000
0000
00f6
cafe
3c1c
0000
0000
00f4
cafe
201c
0000
0000
00f5
cafe
241c
0000
0000
00f4
cafe
281c
0000
0000
00f9
cafe
2c1c
0000
0000
-
00f6
cafe
301c
0000
0000
00f5
cafe
341c
0000
0000
00fa
cafe
381c
0000
0000
00fb
cafe
3c1c
0000
0000
00fa
cafe
201c
0000
0000
00fa
cafe
241c
0000
0000
00f9
cafe
281c
0000
0000
00fd
cafe
2c1c
0000
0000
00f9
cafe
301c
0000
0000
00fb
cafe
341c
0000
0000
00f9
cafe
381c
0000
0000
00f8
cafe
3c1c
0000
0000
00f7
cafe
201c
0000
0000
00f7
cafe
241c
0000
0000
00f1
cafe
281c
0000
0000
00f2
cafe
2c1c
0000
0000
00f3
cafe
301c
0000
0000
00f6
cafe
341c
0000
0000
00f5
cafe
381c
0000
0000
00f3
cafe
3c1c
0000
0000
00f4
cafe
201c
0000
0000
00fb
cafe
241c
0000
0000
00f5
cafe
281c
0000
0000
00f5
cafe
2c1c
0000
0000
00f6
cafe
301c
0000
0000
00f7
cafe
341c
0000
0000
00f6
cafe
381c
0000
0000
00f5
cafe
3c1c
0000
0000
00f3
cafe
201c
0000
0000
00f5
cafe
241c
0000
0000
00f5
cafe
281c
0000
0000
00f7
cafe
2c1c
0000
0000
00fa
cafe
301c
0000
0000
00f8
cafe
341c
0000
0000
00f7
cafe
381c
0000
0000
00fd
cafe
3c1c
0000
0000
00fa
cafe
201c
0000
0000
00fa
cafe
241c
0000
0000
00f6
cafe
281c
0000
0000
00f8
cafe
2c1c
0000
0000
00f9
cafe
301c
0000
0000
00f8
cafe
341c
0000
0000
00f8
cafe
381c
0000
0000
00fc
cafe
3c1c
0000
0000
00fb
cafe
201c
0000
0000
00fb
cafe
241c
0000
0000
00fb
cafe
281c
0000
0000
00f8
cafe
2c1c
0000
0000
00fe
cafe
301c
0000
0000
00fe
cafe
341c
0000
0000
00fd
cafe
381c
0000
0000
00fa
-
