3811
0000
0000
011d
cafe
3c11
0000
0000
0124
cafe
2011
0000
0000
0127
cafe
2411
0000
0000
0135
cafe
2811
0000
0000
0137
cafe
2c11
0000
0000
0146
cafe
3011
0000
0000
0139
cafe
3411
0000
0000
013b
cafe
3811
0000
0000
0142
cafe
3c11
0000
0000
0146
cafe
2011
0000
0000
0150
cafe
2411
0000
0000
0149
cafe
2811
0000
0000
0140
cafe
2c11
0000
0000
013b
cafe
3011
0000
0000
0144
cafe
3411
0000
0000
0148
cafe
3811
0000
0000
0135
cafe
3c11
0000
0000
0132
cafe
2011
0000
0000
0130
cafe
2411
0000
0000
0129
cafe
2811
0000
0000
0129
cafe
2c11
0000
0000
0118
cafe
3011
0000
0000
010b
cafe
3411
0000
0000
00fe
cafe
3811
0000
0000
0106
cafe
3c11
0000
0000
010b
cafe
2011
0000
0000
0102
cafe
2411
0000
0000
00fb
cafe
2811
0000
0000
00fa
cafe
2c11
0000
0000
0110
cafe
3011
0000
0000
0117
cafe
3411
0000
0000
0115
cafe
3811
0000
0000
0115
cafe
3c11
0000
0000
0115
cafe
2011
0000
0000
0124
cafe
2411
0000
0000
012d
cafe
2811
0000
0000
012d
cafe
2c11
0000
0000
0124
cafe
3011
0000
0000
011f
cafe
3411
0000
0000
012d
cafe
3811
0000
0000
0132
cafe
3c11
0000
0000
0120
cafe
2011
0000
0000
011b
cafe
2411
0000
0000
011e
cafe
2811
0000
0000
012b
cafe
2c11
0000
0000
012e
cafe
3011
0000
0000
0133
cafe
3411
0000
0000
0126
cafe
3811
0000
0000
0118
cafe
3c11
0000
0000
012e
cafe
2011
0000
0000
0136
cafe
2411
-
0000
0000
013a
cafe
2811
0000
0000
0134
cafe
2c11
0000
0000
0130
cafe
3011
0000
0000
013f
cafe
3411
0000
0000
013d
cafe
3811
0000
0000
0146
cafe
3c11
0000
0000
013c
cafe
2011
0000
0000
0137
cafe
2411
0000
0000
013d
cafe
2811
0000
0000
0140
cafe
2c11
0000
0000
013f
cafe
3011
0000
0000
012f
cafe
3411
0000
0000
0125
cafe
3811
0000
0000
0121
cafe
3c11
0000
0000
0127
cafe
2011
0000
0000
0126
cafe
2411
0000
0000
0116
cafe
2811
0000
0000
0109
cafe
2c11
0000
0000
0108
cafe
3011
0000
0000
010d
cafe
3411
0000
0000
010e
cafe
3811
0000
0000
0102
cafe
3c11
0000
0000
0102
cafe
2011
0000
0000
0106
cafe
2411
0000
0000
0115
cafe
2811
0000
0000
0118
cafe
2c11
0000
0000
0112
cafe
3011
0000
0000
0110
cafe
3411
0000
0000
0111
cafe
3811
0000
0000
012a
cafe
3c11
0000
0000
0129
cafe
2011
0000
0000
0125
cafe
2411
0000
0000
0121
cafe
2811
0000
0000
0118
cafe
2c11
0000
0000
0122
cafe
3011
0000
0000
012a
cafe
3411
0000
0000
012f
cafe
3811
0000
0000
0126
cafe
3c11
0000
0000
0124
cafe
2011
0000
0000
012e
cafe
2411
0000
0000
013b
cafe
2811
0000
0000
0142
cafe
2c11
0000
0000
0134
cafe
3011
0000
0000
012e
cafe
3411
0000
0000
013b
cafe
3811
0000
0000
013d
cafe
3c11
0000
0000
0144
cafe
2011
0000
0000
0136
cafe
2411
0000
0000
0139
cafe
2811
0000
0000
0132
cafe
2c11
0000
0000
0142
cafe
3011
0000
-
0000
0141
cafe
3411
0000
0000
013b
cafe
3811
0000
0000
013d
cafe
3c11
0000
0000
013d
cafe
2011
0000
0000
013f
cafe
2411
0000
0000
0146
cafe
2811
0000
0000
0130
cafe
2c11
0000
0000
0126
cafe
3011
0000
0000
0119
cafe
3411
0000
0000
0120
cafe
3811
0000
0000
011d
cafe
3c11
0000
0000
010c
cafe
2011
0000
0000
0102
cafe
2411
0000
0000
00ff
cafe
2811
0000
0000
00fd
cafe
2c11
0000
0000
0110
cafe
3011
0000
0000
0106
cafe
3411
0000
0000
0108
cafe
3811
0000
0000
0103
cafe
3c11
0000
0000
0119
cafe
2011
0000
0000
011c
cafe
2411
0000
0000
0123
cafe
2811
0000
0000
011b
cafe
2c11
0000
0000
011a
cafe
3011
0000
0000
0122
cafe
3411
0000
0000
012c
cafe
3811
0000
0000
0134
cafe
3c11
0000
0000
0120
cafe
2011
0000
0000
011d
cafe
2411
0000
0000
0127
cafe
2811
0000
0000
012e
cafe
2c11
0000
0000
0136
cafe
3011
0000
0000
0127
cafe
3411
0000
0000
0121
cafe
3811
0000
0000
012e
cafe
3c11
0000
0000
0131
cafe
2011
0000
0000
0135
cafe
2411
0000
0000
0123
cafe
2811
0000
0000
0123
cafe
2c11
0000
0000
0129
cafe
3011
0000
0000
0137
cafe
3411
0000
0000
0138
cafe
3811
0000
0000
0128
cafe
3c11
0000
0000
0124
cafe
2011
0000
0000
0125
cafe
2411
0000
0000
0132
cafe
2811
0000
0000
013c
cafe
2c11
0000
0000
012f
cafe
3011
0000
0000
0133
cafe
3411
0000
0000
0124
cafe
3811
0000
0000
0133
cafe
3c11
0000
0000
-
0136
cafe
2011
0000
0000
0126
cafe
2411
0000
0000
011b
cafe
2811
0000
0000
0116
cafe
2c11
0000
0000
0119
cafe
3011
0000
0000
0117
cafe
3411
0000
0000
0108
cafe
3811
0000
0000
0101
cafe
3c11
0000
0000
00fd
cafe
2011
0000
0000
010c
cafe
2411
0000
0000
0110
cafe
2811
0000
0000
010b
cafe
2c11
0000
0000
010c
cafe
3011
0000
0000
0104
cafe
3411
0000
0000
011d
cafe
3811
0000
0000
011d
cafe
3c11
0000
0000
011d
cafe
2011
0000
0000
011d
cafe
2411
0000
0000
0110
cafe
2811
0000
0000
011e
cafe
2c11
0000
0000
0125
cafe
3011
0000
0000
012f
cafe
3411
0000
0000
011f
cafe
3811
0000
0000
0122
cafe
3c11
0000
0000
0135
cafe
2011
0000
0000
0138
cafe
2411
0000
0000
013f
cafe
2811
0000
0000
012c
cafe
2c11
0000
0000
0127
cafe
3011
0000
0000
0132
cafe
3411
0000
0000
013a
cafe
3811
0000
0000
014b
cafe
3c11
0000
0000
0137
cafe
2011
0000
0000
0133
cafe
2411
0000
0000
0135
cafe
2811
0000
0000
013a
cafe
2c11
0000
0000
0141
cafe
3011
0000
0000
0135
cafe
3411
0000
0000
0138
cafe
3811
0000
0000
0131
cafe
3c11
0000
0000
0139
cafe
2011
0000
0000
0142
cafe
2411
0000
0000
0132
cafe
2811
0000
0000
0134
cafe
2c11
0000
0000
012f
cafe
3011
0000
0000
012a
cafe
3411
0000
0000
0134
cafe
3811
0000
0000
012b
cafe
3c11
0000
0000
0123
cafe
2011
0000
0000
0111
cafe
2411
0000
0000
0116
cafe
2811
0000
0000
011b
-
cafe
2c11
0000
0000
0112
cafe
3011
0000
0000
0108
cafe
3411
0000
0000
00ff
cafe
3811
0000
0000
010b
cafe
3c11
0000
0000
010f
cafe
2011
0000
0000
010f
cafe
2411
0000
0000
0109
cafe
2811
0000
0000
0104
cafe
2c11
0000
0000
010f
cafe
3011
0000
0000
0113
cafe
3411
0000
0000
011e
cafe
3811
0000
0000
0119
cafe
3c11
0000
0000
0113
cafe
2011
0000
0000
0117
cafe
2411
0000
0000
0127
cafe
2811
0000
0000
012b
cafe
2c11
0000
0000
0122
cafe
3011
0000
0000
0121
cafe
3411
0000
0000
0129
cafe
3811
0000
0000
0129
cafe
3c11
0000
0000
013d
cafe
2011
0000
0000
0131
cafe
2411
0000
0000
012f
cafe
2811
0000
0000
0129
cafe
2c11
0000
0000
0132
cafe
3011
0000
0000
0134
cafe
3411
0000
0000
012d
cafe
3811
0000
0000
0127
cafe
3c11
0000
0000
0122
cafe
2011
0000
0000
012d
cafe
2411
0000
0000
0132
cafe
2811
0000
0000
012f
cafe
2c11
0000
0000
012f
cafe
3011
0000
0000
0127
cafe
3411
0000
0000
0135
cafe
3811
0000
0000
0138
cafe
3c11
0000
0000
012e
cafe
2011
0000
0000
012a
cafe
2411
0000
0000
0127
cafe
2811
0000
0000
0127
cafe
2c11
0000
0000
0127
cafe
3011
0000
0000
0115
cafe
3411
0000
0000
0113
cafe
3811
0000
0000
0110
cafe
3c11
0000
0000
0118
cafe
2011
0000
0000
011a
cafe
2411
0000
0000
010f
cafe
2811
0000
0000
0103
cafe
2c11
0000
0000
0108
cafe
3011
0000
0000
010f
cafe
3411
0000
0000
0113
cafe
-
3811
0000
0000
0110
cafe
3c11
0000
0000
010e
cafe
2011
0000
0000
010e
cafe
2411
0000
0000
011f
cafe
2811
0000
0000
011a
cafe
2c11
0000
0000
0124
cafe
3011
0000
0000
0117
cafe
3411
0000
0000
0118
cafe
3811
0000
0000
0126
cafe
3c11
0000
0000
0122
cafe
2011
0000
0000
012b
cafe
2411
0000
0000
0124
cafe
2811
0000
0000
0125
cafe
2c11
0000
0000
0129
cafe
3011
0000
0000
0138
cafe
3411
0000
0000
013b
cafe
3811
0000
0000
0135
cafe
3c11
0000
0000
0139
cafe
2011
0000
0000
013f
cafe
2411
0000
0000
0145
cafe
2811
0000
0000
0147
cafe
2c11
0000
0000
013c
cafe
3011
0000
0000
0135
cafe
3411
0000
0000
012b
cafe
3811
0000
0000
0131
cafe
3c11
0000
0000
013c
cafe
2011
0000
0000
0135
cafe
2411
0000
0000
0132
cafe
2811
0000
0000
012c
cafe
2c11
0000
0000
0133
cafe
3011
0000
0000
0134
cafe
3411
0000
0000
0123
cafe
3811
0000
0000
011b
cafe
3c11
0000
0000
010c
cafe
2011
0000
0000
0116
cafe
2411
0000
0000
0111
cafe
2811
0000
0000
0109
cafe
2c11
0000
0000
0103
cafe
3011
0000
0000
0102
cafe
3411
0000
0000
0108
cafe
3811
0000
0000
0112
cafe
3c11
0000
0000
0111
cafe
2011
0000
0000
010e
cafe
2411
0000
0000
0109
cafe
2811
0000
0000
011a
cafe
2c11
0000
0000
011f
cafe
3011
0000
0000
0121
cafe
3411
0000
0000
011d
cafe
3811
0000
0000
0116
cafe
3c11
0000
0000
0122
cafe
2011
0000
0000
012c
cafe
2411
-
0000
0000
0133
cafe
2811
0000
0000
0127
cafe
2c11
0000
0000
0129
cafe
3011
0000
0000
0131
cafe
3411
0000
0000
013e
cafe
3811
0000
0000
013c
cafe
3c11
0000
0000
0138
cafe
2011
0000
0000
0127
cafe
2411
0000
0000
0139
cafe
2811
0000
0000
0144
cafe
2c11
0000
0000
0146
cafe
3011
0000
0000
013e
cafe
3411
0000
0000
013c
cafe
3811
0000
0000
0133
cafe
3c11
0000
0000
0138
cafe
2011
0000
0000
013a
cafe
2411
0000
0000
0131
cafe
2811
0000
0000
0133
cafe
2c11
0000
0000
012b
cafe
3011
0000
0000
0136
cafe
3411
0000
0000
0130
cafe
3811
0000
0000
0131
cafe
3c11
0000
0000
0129
cafe
2011
0000
0000
0122
cafe
2411
0000
0000
012d
cafe
2811
0000
0000
012e
cafe
2c11
0000
0000
0124
cafe
3011
0000
0000
011d
cafe
3411
0000
0000
0115
cafe
3811
0000
0000
0115
cafe
3c11
0000
0000
011a
cafe
2011
0000
0000
0117
cafe
2411
0000
0000
0116
cafe
2811
0000
0000
010d
cafe
2c11
0000
0000
0116
cafe
3011
0000
0000
011b
cafe
3411
0000
0000
0123
cafe
3811
0000
0000
011b
cafe
3c11
0000
0000
011a
cafe
2011
0000
0000
0123
cafe
2411
0000
0000
0128
cafe
2811
0000
0000
0129
cafe
2c11
0000
0000
0122
cafe
3011
0000
0000
0118
cafe
3411
0000
0000
011f
cafe
3811
0000
0000
0127
cafe
3c11
0000
0000
0128
cafe
2011
0000
0000
011f
cafe
2411
0000
0000
0121
cafe
2811
0000
0000
0131
cafe
2c11
0000
0000
0131
cafe
3011
0000
-
0000
0135
cafe
3411
0000
0000
0126
cafe
3811
0000
0000
0121
cafe
3c11
0000
0000
0132
cafe
2011
0000
0000
013b
cafe
2411
0000
0000
0146
cafe
2811
0000
0000
013c
cafe
2c11
0000
0000
013d
cafe
3011
0000
0000
013a
cafe
3411
0000
0000
014d
cafe
3811
0000
0000
0148
cafe
3c11
0000
0000
0140
cafe
2011
0000
0000
013c
cafe
2411
0000
0000
013c
cafe
2811
0000
0000
0148
cafe
2c11
0000
0000
0145
cafe
3011
0000
0000
0132
cafe
3411
0000
0000
012e
cafe
3811
0000
0000
0123
cafe
3c11
0000
0000
0126
cafe
2011
0000
0000
0123
cafe
2411
0000
0000
011d
cafe
2811
0000
0000
0110
cafe
2c11
0000
0000
0102
cafe
3011
0000
0000
0104
cafe
3411
0000
0000
010d
cafe
3811
0000
0000
0102
cafe
3c11
0000
0000
00fc
cafe
2011
0000
0000
0100
cafe
2411
0000
0000
0112
cafe
2811
0000
0000
0111
cafe
2c11
0000
0000
011e
cafe
3011
0000
0000
0114
cafe
3411
0000
0000
011a
cafe
3811
0000
0000
0120
cafe
3c11
0000
0000
012e
cafe
2011
0000
0000
013b
cafe
2411
0000
0000
012e
cafe
2811
0000
0000
0136
cafe
2c11
0000
0000
0140
cafe
3011
0000
0000
0147
cafe
3411
0000
0000
0145
cafe
3811
0000
0000
013a
cafe
3c11
0000
0000
0141
cafe
2011
0000
0000
0140
cafe
2411
0000
0000
0142
cafe
2811
0000
0000
014f
cafe
2c11
0000
0000
013e
cafe
3011
0000
0000
0138
cafe
3411
0000
0000
012f
cafe
3811
0000
0000
013b
cafe
3c11
0000
0000
-
0142
cafe
2011
0000
0000
0133
cafe
2411
0000
0000
0135
cafe
2811
0000
0000
0130
cafe
2c11
0000
0000
0145
cafe
3011
0000
0000
013f
cafe
3411
0000
0000
0133
cafe
3811
0000
0000
012e
cafe
3c11
0000
0000
0125
cafe
2011
0000
0000
012b
cafe
2411
0000
0000
0137
cafe
2811
0000
0000
0130
cafe
2c11
0000
0000
0125
cafe
3011
0000
0000
011a
cafe
3411
0000
0000
011e
cafe
3811
0000
0000
0121
cafe
3c11
0000
0000
0118
cafe
2011
0000
0000
0108
cafe
2411
0000
0000
0109
cafe
2811
0000
0000
010a
cafe
2c11
0000
0000
010f
cafe
3011
0000
0000
0113
cafe
3411
0000
0000
0109
cafe
3811
0000
0000
0101
cafe
3c11
0000
0000
010b
cafe
2011
0000
0000
0117
cafe
2411
0000
0000
0126
cafe
2811
0000
0000
0120
cafe
2c11
0000
0000
011c
cafe
3011
0000
0000
0125
cafe
3411
0000
0000
012d
cafe
3811
0000
0000
012b
cafe
3c11
0000
0000
0121
cafe
2011
0000
0000
0123
cafe
2411
0000
0000
0124
cafe
2811
0000
0000
0132
cafe
2c11
0000
0000
0136
cafe
3011
0000
0000
012d
cafe
3411
0000
0000
0135
cafe
3811
0000
0000
0133
cafe
3c11
0000
0000
013a
cafe
2011
0000
0000
0149
cafe
2411
0000
0000
0137
cafe
2811
0000
0000
0136
cafe
2c11
0000
0000
0127
cafe
3011
0000
0000
0136
cafe
3411
0000
0000
013f
cafe
3811
0000
0000
0134
cafe
3c11
0000
0000
0135
cafe
2011
0000
0000
0129
cafe
2411
0000
0000
0139
cafe
2811
0000
0000
013a
-
cafe
2c11
0000
0000
0132
cafe
3011
0000
0000
012b
cafe
3411
0000
0000
0121
cafe
3811
0000
0000
0128
cafe
3c11
0000
0000
0130
cafe
2011
0000
0000
0128
cafe
2411
0000
0000
011b
cafe
2811
0000
0000
0111
cafe
2c11
0000
0000
0114
cafe
3011
0000
0000
0116
cafe
3411
0000
0000
0119
cafe
3811
0000
0000
0103
cafe
3c11
0000
0000
00fd
cafe
2011
0000
0000
0103
cafe
2411
0000
0000
0107
cafe
2811
0000
0000
010b
cafe
2c11
0000
0000
0106
cafe
3011
0000
0000
0105
cafe
3411
0000
0000
0116
cafe
3811
0000
0000
011d
cafe
3c11
0000
0000
0124
cafe
2011
0000
0000
011c
cafe
2411
0000
0000
0126
cafe
2811
0000
0000
0125
cafe
2c11
0000
0000
0133
cafe
3011
0000
0000
0137
cafe
3411
0000
0000
0130
cafe
3811
0000
0000
0134
cafe
3c11
0000
0000
013a
cafe
2011
0000
0000
013f
cafe
2411
0000
0000
0143
cafe
2811
0000
0000
0143
cafe
2c11
0000
0000
0141
cafe
3011
0000
0000
0131
cafe
3411
0000
0000
0140
cafe
3811
0000
0000
013f
cafe
3c11
0000
0000
0133
cafe
2011
0000
0000
0129
cafe
2411
0000
0000
0119
cafe
2811
0000
0000
0122
cafe
2c11
0000
0000
012b
cafe
3011
0000
0000
0128
cafe
3411
0000
0000
0122
cafe
3811
0000
0000
011f
cafe
3c11
0000
0000
0130
cafe
2011
0000
0000
0136
cafe
2411
0000
0000
013a
cafe
2811
0000
0000
0130
cafe
2c11
0000
0000
0120
cafe
3011
0000
0000
0128
cafe
3411
0000
0000
0121
cafe
-
3811
0000
0000
0123
cafe
3c11
0000
0000
0113
cafe
2011
0000
0000
010a
cafe
2411
0000
0000
010e
cafe
2811
0000
0000
0111
cafe
2c11
0000
0000
0119
cafe
3011
0000
0000
010b
cafe
3411
0000
0000
0100
cafe
3811
0000
0000
0111
cafe
3c11
0000
0000
0114
cafe
2011
0000
0000
0115
cafe
2411
0000
0000
010c
cafe
2811
0000
0000
0109
cafe
2c11
0000
0000
010f
cafe
3011
0000
0000
0118
cafe
3411
0000
0000
0126
cafe
3811
0000
0000
0116
cafe
3c11
0000
0000
011c
cafe
2011
0000
0000
0128
cafe
2411
0000
0000
0139
cafe
2811
0000
0000
013e
cafe
2c11
0000
0000
013a
cafe
3011
0000
0000
0137
cafe
3411
0000
0000
0130
cafe
3811
0000
0000
013b
cafe
3c11
0000
0000
0147
cafe
2011
0000
0000
0143
cafe
2411
0000
0000
0141
cafe
2811
0000
0000
0138
cafe
2c11
0000
0000
014a
cafe
3011
0000
0000
014a
cafe
3411
0000
0000
0142
cafe
3811
0000
0000
0136
cafe
3c11
0000
0000
012f
cafe
2011
0000
0000
012e
cafe
2411
0000
0000
013b
cafe
2811
0000
0000
0137
cafe
2c11
0000
0000
0130
cafe
3011
0000
0000
0126
cafe
3411
0000
0000
0132
cafe
3811
0000
0000
013c
cafe
3c11
0000
0000
0134
cafe
2011
0000
0000
0132
cafe
2411
0000
0000
0124
cafe
2811
0000
0000
0127
cafe
2c11
0000
0000
011c
cafe
3011
0000
0000
0124
cafe
3411
0000
0000
010f
cafe
3811
0000
0000
0101
cafe
3c11
0000
0000
0101
cafe
2011
0000
0000
0108
cafe
2411
-
0000
0000
0108
cafe
2811
0000
0000
0105
cafe
2c11
0000
0000
0107
cafe
3011
0000
0000
010c
cafe
3411
0000
0000
010e
cafe
3811
0000
0000
010c
cafe
3c11
0000
0000
010f
cafe
2011
0000
0000
010f
cafe
2411
0000
0000
0111
cafe
2811
0000
0000
011d
cafe
2c11
0000
0000
012c
cafe
3011
0000
0000
0128
cafe
3411
0000
0000
0130
cafe
3811
0000
0000
0133
cafe
3c11
0000
0000
0148
cafe
2011
0000
0000
014f
cafe
2411
0000
0000
0142
cafe
2811
0000
0000
0140
cafe
2c11
0000
0000
013c
cafe
3011
0000
0000
0148
cafe
3411
0000
0000
0146
cafe
3811
0000
0000
0139
cafe
3c11
0000
0000
0136
cafe
2011
0000
0000
012c
cafe
2411
0000
0000
012e
cafe
2811
0000
0000
012f
cafe
2c11
0000
0000
0129
cafe
3011
0000
0000
011d
cafe
3411
0000
0000
011e
cafe
3811
0000
0000
0124
cafe
3c11
0000
0000
0125
cafe
2011
0000
0000
0122
cafe
2411
0000
0000
0121
cafe
2811
0000
0000
0118
cafe
2c11
0000
0000
0122
cafe
3011
0000
0000
0126
cafe
3411
0000
0000
012e
cafe
3811
0000
0000
0125
cafe
3c11
0000
0000
011b
cafe
2011
0000
0000
011a
cafe
2411
0000
0000
011a
cafe
2811
0000
0000
011a
cafe
2c11
0000
0000
0112
cafe
3011
0000
0000
0106
cafe
3411
0000
0000
010a
cafe
3811
0000
0000
0109
cafe
3c11
0000
0000
0113
cafe
2011
0000
0000
010b
cafe
2411
0000
0000
010e
cafe
2811
0000
0000
0118
cafe
2c11
0000
0000
0119
cafe
3011
0000
-
0000
0121
cafe
3411
0000
0000
010e
cafe
3811
0000
0000
0119
cafe
3c11
0000
0000
0122
cafe
2011
0000
0000
012c
cafe
2411
0000
0000
0133
cafe
2811
0000
0000
012d
cafe
2c11
0000
0000
012f
cafe
3011
0000
0000
012e
cafe
3411
0000
0000
013d
cafe
3811
0000
0000
014a
cafe
3c11
0000
0000
013f
cafe
2011
0000
0000
013a
cafe
2411
0000
0000
0134
cafe
2811
0000
0000
013b
cafe
2c11
0000
0000
013e
cafe
3011
0000
0000
012d
cafe
3411
0000
0000
0125
cafe
3811
0000
0000
0121
cafe
3c11
0000
0000
012c
cafe
2011
0000
0000
0128
cafe
2411
0000
0000
0128
cafe
2811
0000
0000
0124
cafe
2c11
0000
0000
011d
cafe
3011
0000
0000
012b
cafe
3411
0000
0000
012f
cafe
3811
0000
0000
012e
cafe
3c11
0000
0000
0128
cafe
2011
0000
0000
0127
cafe
2411
0000
0000
0131
cafe
2811
0000
0000
0132
cafe
2c11
0000
0000
0131
cafe
3011
0000
0000
0122
cafe
3411
0000
0000
011e
cafe
3811
0000
0000
0116
cafe
3c11
0000
0000
0112
cafe
2011
0000
0000
0116
cafe
2411
0000
0000
0109
cafe
2811
0000
0000
0101
cafe
2c11
0000
0000
0101
cafe
3011
0000
0000
010c
cafe
3411
0000
0000
010f
cafe
3811
0000
0000
010c
cafe
3c11
0000
0000
010c
cafe
2011
0000
0000
0115
cafe
2411
0000
0000
011d
cafe
2811
0000
0000
0124
cafe
2c11
0000
0000
0127
cafe
3011
0000
0000
011e
cafe
3411
0000
0000
0126
cafe
3811
0000
0000
0138
cafe
3c11
0000
0000
-
0142
cafe
2011
0000
0000
013c
cafe
2411
0000
0000
0143
cafe
2811
0000
0000
013e
cafe
2c11
0000
0000
014b
cafe
3011
0000
0000
0155
cafe
3411
0000
0000
0149
cafe
3811
0000
0000
0145
cafe
3c11
0000
0000
0137
cafe
2011
0000
0000
013f
cafe
2411
0000
0000
0140
cafe
2811
0000
0000
0130
cafe
2c11
0000
0000
012c
cafe
3011
0000
0000
011d
cafe
3411
0000
0000
0125
cafe
3811
0000
0000
012a
cafe
3c11
0000
0000
0126
cafe
2011
0000
0000
0122
cafe
2411
0000
0000
011e
cafe
2811
0000
0000
0120
cafe
2c11
0000
0000
011f
cafe
3011
0000
0000
0129
cafe
3411
0000
0000
011c
cafe
3811
0000
0000
0115
cafe
3c11
0000
0000
0123
cafe
2011
0000
0000
0129
cafe
2411
0000
0000
0124
cafe
2811
0000
0000
0119
cafe
2c11
0000
0000
011d
cafe
3011
0000
0000
011c
cafe
3411
0000
0000
0119
cafe
3811
0000
0000
0118
cafe
3c11
0000
0000
010c
cafe
2011
0000
0000
010a
cafe
2411
0000
0000
010e
cafe
2811
0000
0000
0116
cafe
2c11
0000
0000
0121
cafe
3011
0000
0000
0113
cafe
3411
0000
0000
0110
cafe
3811
0000
0000
0115
cafe
3c11
0000
0000
011e
cafe
2011
0000
0000
0120
cafe
2411
0000
0000
0117
cafe
2811
0000
0000
011d
cafe
2c11
0000
0000
011c
cafe
3011
0000
0000
012e
cafe
3411
0000
0000
013b
cafe
3811
0000
0000
0138
cafe
3c11
0000
0000
0136
cafe
2011
0000
0000
0136
cafe
2411
0000
0000
0147
cafe
2811
0000
0000
014a
-
cafe
2c11
0000
0000
0140
cafe
3011
0000
0000
013c
cafe
3411
0000
0000
012b
cafe
3811
0000
0000
0138
cafe
3c11
0000
0000
0135
cafe
2011
0000
0000
012f
cafe
2411
0000
0000
0121
cafe
2811
0000
0000
011b
cafe
2c11
0000
0000
0128
cafe
3011
0000
0000
0127
cafe
3411
0000
0000
0132
cafe
3811
0000
0000
0128
cafe
3c11
0000
0000
0124
cafe
2011
0000
0000
012c
cafe
2411
0000
0000
0130
cafe
2811
0000
0000
0130
cafe
2c11
0000
0000
011f
cafe
3011
0000
0000
0119
cafe
3411
0000
0000
0126
cafe
3811
0000
0000
0129
cafe
3c11
0000
0000
012a
cafe
2011
0000
0000
0117
cafe
2411
0000
0000
011d
cafe
2811
0000
0000
011e
cafe
2c11
0000
0000
0122
cafe
3011
0000
0000
0121
cafe
3411
0000
0000
010c
cafe
3811
0000
0000
0114
cafe
3c11
0000
0000
0111
cafe
2011
0000
0000
0116
cafe
2411
0000
0000
011c
cafe
2811
0000
0000
010f
cafe
2c11
0000
0000
0111
cafe
3011
0000
0000
0116
cafe
3411
0000
0000
0127
cafe
3811
0000
0000
012b
cafe
3c11
0000
0000
0123
cafe
2011
0000
0000
0127
cafe
2411
0000
0000
012a
cafe
2811
0000
0000
0134
cafe
2c11
0000
0000
0141
cafe
3011
0000
0000
0138
cafe
3411
0000
0000
0141
cafe
3811
0000
0000
013f
cafe
3c11
0000
0000
0150
cafe
2011
0000
0000
0155
cafe
2411
0000
0000
014e
cafe
2811
0000
0000
013b
cafe
2c11
0000
0000
0131
cafe
3011
0000
0000
0134
cafe
3411
0000
0000
0131
cafe
-
3811
0000
0000
012b
cafe
3c11
0000
0000
0120
cafe
2011
0000
0000
0112
cafe
2411
0000
0000
011d
cafe
2811
0000
0000
011d
cafe
2c11
0000
0000
0120
cafe
3011
0000
0000
011e
cafe
3411
0000
0000
0121
cafe
3811
0000
0000
0125
cafe
3c11
0000
0000
0128
cafe
2011
0000
0000
012b
cafe
2411
0000
0000
0119
cafe
2811
0000
0000
0114
cafe
2c11
0000
0000
0114
cafe
3011
0000
0000
011f
cafe
3411
0000
0000
0128
cafe
3811
0000
0000
0116
cafe
3c11
0000
0000
0115
cafe
2011
0000
0000
011b
cafe
2411
0000
0000
012b
cafe
2811
0000
0000
0120
cafe
2c11
0000
0000
011c
cafe
3011
0000
0000
0115
cafe
3411
0000
0000
010b
cafe
3811
0000
0000
011c
cafe
3c11
0000
0000
0127
cafe
2011
0000
0000
0118
cafe
2411
0000
0000
0118
cafe
2811
0000
0000
0115
cafe
2c11
0000
0000
0124
cafe
3011
0000
0000
0131
cafe
3411
0000
0000
0125
cafe
3811
0000
0000
012d
cafe
3c11
0000
0000
0120
cafe
2011
0000
0000
0133
cafe
2411
0000
0000
013e
cafe
2811
0000
0000
013f
cafe
2c11
0000
0000
0138
cafe
3011
0000
0000
0132
cafe
3411
0000
0000
013c
cafe
3811
0000
0000
0148
cafe
3c11
0000
0000
0141
cafe
2011
0000
0000
0136
cafe
2411
0000
0000
012f
cafe
2811
0000
0000
013d
cafe
2c11
0000
0000
013a
cafe
3011
0000
0000
0141
cafe
3411
0000
0000
012a
cafe
3811
0000
0000
0121
cafe
3c11
0000
0000
0125
cafe
2011
0000
0000
012b
cafe
2411
-
0000
0000
0137
cafe
2811
0000
0000
0128
cafe
2c11
0000
0000
0122
cafe
3011
0000
0000
012e
cafe
3411
0000
0000
0134
cafe
3811
0000
0000
012f
cafe
3c11
0000
0000
011f
cafe
2011
0000
0000
0117
cafe
2411
0000
0000
0112
cafe
2811
0000
0000
0117
cafe
2c11
0000
0000
0123
cafe
3011
0000
0000
0119
cafe
3411
0000
0000
0113
cafe
3811
0000
0000
0118
cafe
3c11
0000
0000
0122
cafe
2011
0000
0000
012b
cafe
2411
0000
0000
0117
cafe
2811
0000
0000
011c
cafe
2c11
0000
0000
010c
cafe
3011
0000
0000
011a
cafe
3411
0000
0000
0122
cafe
3811
0000
0000
011c
cafe
3c11
0000
0000
0116
cafe
2011
0000
0000
010e
cafe
2411
0000
0000
011c
cafe
2811
0000
0000
012a
cafe
2c11
0000
0000
012d
cafe
3011
0000
0000
0128
cafe
3411
0000
0000
012d
cafe
3811
0000
0000
013d
cafe
3c11
0000
0000
0146
cafe
2011
0000
0000
013d
cafe
2411
0000
0000
0138
cafe
2811
0000
0000
0133
cafe
2c11
0000
0000
013f
cafe
3011
0000
0000
0142
cafe
3411
0000
0000
0147
cafe
3811
0000
0000
0138
cafe
3c11
0000
0000
0129
cafe
2011
0000
0000
0133
cafe
2411
0000
0000
0137
cafe
2811
0000
0000
0137
cafe
2c11
0000
0000
012a
cafe
3011
0000
0000
0124
cafe
3411
0000
0000
012e
cafe
3811
0000
0000
0129
cafe
3c11
0000
0000
012a
cafe
2011
0000
0000
011b
cafe
2411
0000
0000
0116
cafe
2811
0000
0000
0116
cafe
2c11
0000
0000
0113
cafe
3011
0000
-
0000
0123
cafe
3411
0000
0000
0110
cafe
3811
0000
0000
010f
cafe
3c11
0000
0000
0114
cafe
2011
0000
0000
011c
cafe
2411
0000
0000
0121
cafe
2811
0000
0000
0114
cafe
2c11
0000
0000
0115
cafe
3011
0000
0000
0114
cafe
3411
0000
0000
011d
cafe
3811
0000
0000
0128
cafe
3c11
0000
0000
0126
cafe
2011
0000
0000
011f
cafe
2411
0000
0000
0112
cafe
2811
0000
0000
011e
cafe
2c11
0000
0000
0126
cafe
3011
0000
0000
011d
cafe
3411
0000
0000
0123
cafe
3811
0000
0000
011a
cafe
3c11
0000
0000
012a
cafe
2011
0000
0000
0130
cafe
2411
0000
0000
0130
cafe
2811
0000
0000
0133
cafe
2c11
0000
0000
012e
cafe
3011
0000
0000
0138
cafe
3411
0000
0000
0138
cafe
3811
0000
0000
0136
cafe
3c11
0000
0000
0133
cafe
2011
0000
0000
012f
cafe
2411
0000
0000
012f
cafe
2811
0000
0000
0134
cafe
2c11
0000
0000
0138
cafe
3011
0000
0000
012e
cafe
3411
0000
0000
0127
cafe
3811
0000
0000
0129
cafe
3c11
0000
0000
0134
cafe
2011
0000
0000
0135
cafe
2411
0000
0000
012b
cafe
2811
0000
0000
0124
cafe
2c11
0000
0000
0124
cafe
3011
0000
0000
012d
cafe
3411
0000
0000
012b
cafe
3811
0000
0000
0120
cafe
3c11
0000
0000
011a
cafe
2011
0000
0000
010d
cafe
2411
0000
0000
0114
cafe
2811
0000
0000
0119
cafe
2c11
0000
0000
0113
cafe
3011
0000
0000
010b
cafe
3411
0000
0000
0105
cafe
3811
0000
0000
011f
cafe
3c11
0000
0000
-
0113
cafe
2011
0000
0000
0109
cafe
2411
0000
0000
010a
cafe
2811
0000
0000
0108
cafe
2c11
0000
0000
0110
cafe
3011
0000
0000
0113
cafe
3411
0000
0000
010c
cafe
3811
0000
0000
0111
cafe
3c11
0000
0000
0115
cafe
2011
0000
0000
011d
cafe
2411
0000
0000
0129
cafe
2811
0000
0000
012e
cafe
2c11
0000
0000
0129
cafe
3011
0000
0000
0133
cafe
3411
0000
0000
0140
cafe
3811
0000
0000
0148
cafe
3c11
0000
0000
013a
cafe
2011
0000
0000
0137
cafe
2411
0000
0000
0137
cafe
2811
0000
0000
0145
cafe
2c11
0000
0000
0147
cafe
3011
0000
0000
0149
cafe
3411
0000
0000
0138
cafe
3811
0000
0000
0136
cafe
3c11
0000
0000
013c
cafe
2011
0000
0000
013c
cafe
2411
0000
0000
013c
cafe
2811
0000
0000
012d
cafe
2c11
0000
0000
012b
cafe
3011
0000
0000
012f
cafe
3411
0000
0000
0128
cafe
3811
0000
0000
0134
cafe
3c11
0000
0000
0125
cafe
2011
0000
0000
0123
cafe
2411
0000
0000
0123
cafe
2811
0000
0000
011f
cafe
2c11
0000
0000
0120
cafe
3011
0000
0000
0111
cafe
3411
0000
0000
010f
cafe
3811
0000
0000
010e
cafe
3c11
0000
0000
0119
cafe
2011
0000
0000
011e
cafe
2411
0000
0000
0112
cafe
2811
0000
0000
0113
cafe
2c11
0000
0000
0110
cafe
3011
0000
0000
011d
cafe
3411
0000
0000
011f
cafe
3811
0000
0000
0117
cafe
3c11
0000
0000
011b
cafe
2011
0000
0000
0114
cafe
2411
0000
0000
011c
cafe
2811
0000
0000
0122
-
cafe
2c11
0000
0000
010d
cafe
3011
0000
0000
011f
cafe
3411
0000
0000
0124
cafe
3811
0000
0000
012c
cafe
3c11
0000
0000
012f
cafe
2011
0000
0000
012e
cafe
2411
0000
0000
0139
cafe
2811
0000
0000
013f
cafe
2c11
0000
0000
0148
cafe
3011
0000
0000
014b
cafe
3411
0000
0000
0149
cafe
3811
0000
0000
013d
cafe
3c11
0000
0000
0138
cafe
2011
0000
0000
013c
cafe
2411
0000
0000
013f
cafe
2811
0000
0000
013d
cafe
2c11
0000
0000
012c
cafe
3011
0000
0000
0125
cafe
3411
0000
0000
012b
cafe
3811
0000
0000
012b
cafe
3c11
0000
0000
012a
cafe
2011
0000
0000
0121
cafe
2411
0000
0000
011d
cafe
2811
0000
0000
0126
cafe
2c11
0000
0000
0129
cafe
3011
0000
0000
0128
cafe
3411
0000
0000
011b
cafe
3811
0000
0000
0114
cafe
3c11
0000
0000
0113
cafe
2011
0000
0000
0117
cafe
2411
0000
0000
0116
cafe
2811
0000
0000
010f
cafe
2c11
0000
0000
010d
cafe
3011
0000
0000
0104
cafe
3411
0000
0000
0111
cafe
3811
0000
0000
0115
cafe
3c11
0000
0000
0114
cafe
2011
0000
0000
0116
cafe
2411
0000
0000
0108
cafe
2811
0000
0000
0115
cafe
2c11
0000
0000
0119
cafe
3011
0000
0000
0118
cafe
3411
0000
0000
010c
cafe
3811
0000
0000
0108
cafe
3c11
0000
0000
0118
cafe
2011
0000
0000
0119
cafe
2411
0000
0000
0124
cafe
2811
0000
0000
0126
cafe
2c11
0000
0000
0128
cafe
3011
0000
0000
0139
cafe
3411
0000
0000
013c
cafe
-
3811
0000
0000
0145
cafe
3c11
0000
0000
0143
cafe
2011
0000
0000
014a
cafe
2411
0000
0000
014f
cafe
2811
0000
0000
0154
cafe
2c11
0000
0000
0152
cafe
3011
0000
0000
0145
cafe
3411
0000
0000
013f
cafe
3811
0000
0000
0142
cafe
3c11
0000
0000
0141
cafe
2011
0000
0000
0144
cafe
2411
0000
0000
0133
cafe
2811
0000
0000
0128
cafe
2c11
0000
0000
0127
cafe
3011
0000
0000
0121
cafe
3411
0000
0000
0125
cafe
3811
0000
0000
011e
cafe
3c11
0000
0000
0117
cafe
2011
0000
0000
0114
cafe
2411
0000
0000
011e
cafe
2811
0000
0000
0121
cafe
2c11
0000
0000
0116
cafe
3011
0000
0000
0111
cafe
3411
0000
0000
0107
cafe
3811
0000
0000
0109
cafe
3c11
0000
0000
0115
cafe
2011
0000
0000
010b
cafe
2411
0000
0000
0111
cafe
2811
0000
0000
0112
cafe
2c11
0000
0000
011d
cafe
3011
0000
0000
011d
cafe
3411
0000
0000
011c
cafe
3811
0000
0000
011b
cafe
3c11
0000
0000
0115
cafe
2011
0000
0000
0122
cafe
2411
0000
0000
012b
cafe
2811
0000
0000
0121
cafe
2c11
0000
0000
0121
cafe
3011
0000
0000
0118
cafe
3411
0000
0000
0125
cafe
3811
0000
0000
012c
cafe
3c11
0000
0000
012d
cafe
2011
0000
0000
0124
cafe
2411
0000
0000
012a
cafe
2811
0000
0000
0142
cafe
2c11
0000
0000
014e
cafe
3011
0000
0000
0153
cafe
3411
0000
0000
0145
cafe
3811
0000
0000
013a
cafe
3c11
0000
0000
0145
cafe
2011
0000
0000
014d
cafe
2411
-
0000
0000
0149
cafe
2811
0000
0000
013c
cafe
2c11
0000
0000
0130
cafe
3011
0000
0000
0132
cafe
3411
0000
0000
0138
cafe
3811
0000
0000
0136
cafe
3c11
0000
0000
0124
cafe
2011
0000
0000
0125
cafe
2411
0000
0000
0126
cafe
2811
0000
0000
0125
cafe
2c11
0000
0000
012c
cafe
3011
0000
0000
011e
cafe
3411
0000
0000
011c
cafe
3811
0000
0000
011b
cafe
3c11
0000
0000
011a
cafe
2011
0000
0000
011b
cafe
2411
0000
0000
0116
cafe
2811
0000
0000
0116
cafe
2c11
0000
0000
0113
cafe
3011
0000
0000
011b
cafe
3411
0000
0000
011a
cafe
3811
0000
0000
0112
cafe
3c11
0000
0000
0114
cafe
2011
0000
0000
010e
cafe
2411
0000
0000
0118
cafe
2811
0000
0000
0119
cafe
2c11
0000
0000
0112
cafe
3011
0000
0000
010d
cafe
3411
0000
0000
0108
cafe
3811
0000
0000
0117
cafe
3c11
0000
0000
0117
cafe
2011
0000
0000
0111
cafe
2411
0000
0000
0112
cafe
2811
0000
0000
010c
cafe
2c11
0000
0000
011c
cafe
3011
0000
0000
0127
cafe
3411
0000
0000
0134
cafe
3811
0000
0000
012e
cafe
3c11
0000
0000
0134
cafe
2011
0000
0000
013e
cafe
2411
0000
0000
014d
cafe
2811
0000
0000
0157
cafe
2c11
0000
0000
0149
cafe
3011
0000
0000
013e
cafe
3411
0000
0000
0144
cafe
3811
0000
0000
0144
cafe
3c11
0000
0000
0148
cafe
2011
0000
0000
0134
cafe
2411
0000
0000
0122
cafe
2811
0000
0000
0122
cafe
2c11
0000
0000
012e
cafe
3011
0000
-
0000
012e
cafe
3411
0000
0000
0121
cafe
3811
0000
0000
0123
cafe
3c11
0000
0000
011f
cafe
2011
0000
0000
0124
cafe
2411
0000
0000
0122
cafe
2811
0000
0000
0116
cafe
2c11
0000
0000
010c
cafe
3011
0000
0000
0107
cafe
3411
0000
0000
0111
cafe
3811
0000
0000
011a
cafe
3c11
0000
0000
010f
cafe
2011
0000
0000
010d
cafe
2411
0000
0000
010c
cafe
2811
0000
0000
011f
cafe
2c11
0000
0000
0126
cafe
3011
0000
0000
011f
cafe
3411
0000
0000
011e
cafe
3811
0000
0000
011b
cafe
3c11
0000
0000
0129
cafe
2011
0000
0000
0128
cafe
2411
0000
0000
0127
cafe
2811
0000
0000
011a
cafe
2c11
0000
0000
0115
cafe
3011
0000
0000
011c
cafe
3411
0000
0000
0129
cafe
3811
0000
0000
012f
cafe
3c11
0000
0000
0129
cafe
2011
0000
0000
0123
cafe
2411
0000
0000
012f
cafe
2811
0000
0000
0133
cafe
2c11
0000
0000
013c
cafe
3011
0000
0000
0121
cafe
3411
0000
0000
012c
cafe
3811
0000
0000
013a
cafe
3c11
0000
0000
0143
cafe
2011
0000
0000
014d
cafe
2411
0000
0000
0140
cafe
2811
0000
0000
0139
cafe
2c11
0000
0000
0139
cafe
3011
0000
0000
0135
cafe
3411
0000
0000
013e
cafe
3811
0000
0000
012a
cafe
3c11
0000
0000
0123
cafe
2011
0000
0000
011f
cafe
2411
0000
0000
0120
cafe
2811
0000
0000
0123
cafe
2c11
0000
0000
011c
cafe
3011
0000
0000
011c
cafe
3411
0000
0000
0114
cafe
3811
0000
0000
011d
cafe
3c11
0000
0000
-
0125
cafe
2011
0000
0000
0116
cafe
2411
0000
0000
0114
cafe
2811
0000
0000
010b
cafe
2c11
0000
0000
0112
cafe
3011
0000
0000
0118
cafe
3411
0000
0000
0112
cafe
3811
0000
0000
010f
cafe
3c11
0000
0000
010e
cafe
2011
0000
0000
0126
cafe
2411
0000
0000
0129
cafe
2811
0000
0000
012d
cafe
2c11
0000
0000
011d
cafe
3011
0000
0000
0119
cafe
3411
0000
0000
011f
cafe
3811
0000
0000
0124
cafe
3c11
0000
0000
0123
cafe
2011
0000
0000
0118
cafe
2411
0000
0000
0113
cafe
2811
0000
0000
011e
cafe
2c11
0000
0000
0127
cafe
3011
0000
0000
0131
cafe
3411
0000
0000
0127
cafe
3811
0000
0000
0123
cafe
3c11
0000
0000
0131
cafe
2011
0000
0000
0142
cafe
2411
0000
0000
0147
cafe
2811
0000
0000
0143
cafe
2c11
0000
0000
013c
cafe
3011
0000
0000
0146
cafe
3411
0000
0000
0149
cafe
3811
0000
0000
014c
cafe
3c11
0000
0000
013d
cafe
2011
0000
0000
013c
cafe
2411
0000
0000
0137
cafe
2811
0000
0000
0141
cafe
2c11
0000
0000
0140
cafe
3011
0000
0000
0131
cafe
3411
0000
0000
0132
cafe
3811
0000
0000
0122
cafe
3c11
0000
0000
0126
cafe
2011
0000
0000
0125
cafe
2411
0000
0000
0119
cafe
2811
0000
0000
0115
cafe
2c11
0000
0000
0107
cafe
3011
0000
0000
0116
cafe
3411
0000
0000
0116
cafe
3811
0000
0000
0114
cafe
3c11
0000
0000
0111
cafe
2011
0000
0000
0104
cafe
2411
0000
0000
0104
cafe
2811
0000
0000
010f
-
cafe
2c11
0000
0000
0115
cafe
3011
0000
0000
0110
cafe
3411
0000
0000
0111
cafe
3811
0000
0000
011e
cafe
3c11
0000
0000
0129
cafe
2011
0000
0000
0127
cafe
2411
0000
0000
0123
cafe
2811
0000
0000
011d
cafe
2c11
0000
0000
0121
cafe
3011
0000
0000
0123
cafe
3411
0000
0000
0123
cafe
3811
0000
0000
0118
cafe
3c11
0000
0000
0111
cafe
2011
0000
0000
011d
cafe
2411
0000
0000
0124
cafe
2811
0000
0000
0127
cafe
2c11
0000
0000
0123
cafe
3011
0000
0000
0122
cafe
3411
0000
0000
0133
cafe
3811
0000
0000
013b
cafe
3c11
0000
0000
013d
cafe
2011
0000
0000
013e
cafe
2411
0000
0000
0139
cafe
2811
0000
0000
0135
cafe
2c11
0000
0000
0133
cafe
3011
0000
0000
0137
cafe
3411
0000
0000
012b
cafe
3811
0000
0000
012a
cafe
3c11
0000
0000
0127
cafe
2011
0000
0000
012b
cafe
2411
0000
0000
0135
cafe
2811
0000
0000
0129
cafe
2c11
0000
0000
0128
cafe
3011
0000
0000
011d
cafe
3411
0000
0000
012d
cafe
3811
0000
0000
0128
cafe
3c11
0000
0000
011d
cafe
2011
0000
0000
0118
cafe
2411
0000
0000
0110
cafe
2811
0000
0000
0118
cafe
2c11
0000
0000
011d
cafe
3011
0000
0000
010f
cafe
3411
0000
0000
0113
cafe
3811
0000
0000
0111
cafe
3c11
0000
0000
0123
cafe
2011
0000
0000
0120
cafe
2411
0000
0000
011f
cafe
2811
0000
0000
011b
cafe
2c11
0000
0000
0118
cafe
3011
0000
0000
011d
cafe
3411
0000
0000
0120
cafe
-
3811
0000
0000
011f
cafe
3c11
0000
0000
011c
cafe
2011
0000
0000
0116
cafe
2411
0000
0000
011e
cafe
2811
0000
0000
011d
cafe
2c11
0000
0000
011d
cafe
3011
0000
0000
0113
cafe
3411
0000
0000
0115
cafe
3811
0000
0000
011b
cafe
3c11
0000
0000
0122
cafe
2011
0000
0000
012c
cafe
2411
0000
0000
0125
cafe
2811
0000
0000
012c
cafe
2c11
0000
0000
0131
cafe
3011
0000
0000
013c
cafe
3411
0000
0000
014c
cafe
3811
0000
0000
013c
cafe
3c11
0000
0000
013d
cafe
2011
0000
0000
013f
cafe
2411
0000
0000
014b
cafe
2811
0000
0000
0147
cafe
2c11
0000
0000
013f
cafe
3011
0000
0000
013d
cafe
3411
0000
0000
013b
cafe
3811
0000
0000
0141
cafe
3c11
0000
0000
0141
cafe
2011
0000
0000
013a
cafe
2411
0000
0000
0131
cafe
2811
0000
0000
011b
cafe
2c11
0000
0000
0123
cafe
3011
0000
0000
011f
cafe
3411
0000
0000
0114
cafe
3811
0000
0000
0110
cafe
3c11
0000
0000
0109
cafe
2011
0000
0000
010e
cafe
2411
0000
0000
010c
cafe
2811
0000
0000
0106
cafe
2c11
0000
0000
010b
cafe
3011
0000
0000
010c
cafe
3411
0000
0000
011e
cafe
3811
0000
0000
0121
cafe
3c11
0000
0000
011b
cafe
2011
0000
0000
0119
cafe
2411
0000
0000
0114
cafe
2811
0000
0000
0127
cafe
2c11
0000
0000
0128
cafe
3011
0000
0000
012b
cafe
3411
0000
0000
0122
cafe
3811
0000
0000
011d
cafe
3c11
0000
0000
0125
cafe
2011
0000
0000
0123
cafe
2411
-
0000
0000
0128
cafe
2811
0000
0000
0127
cafe
2c11
0000
0000
0122
cafe
3011
0000
0000
0127
cafe
3411
0000
0000
012a
cafe
3811
0000
0000
0138
cafe
3c11
0000
0000
012f
cafe
2011
0000
0000
012f
cafe
2411
0000
0000
012b
cafe
2811
0000
0000
0131
cafe
2c11
0000
0000
0142
cafe
3011
0000
0000
0131
cafe
3411
0000
0000
0128
cafe
3811
0000
0000
012e
cafe
3c11
0000
0000
0132
cafe
2011
0000
0000
0135
cafe
2411
0000
0000
0129
cafe
2811
0000
0000
0125
cafe
2c11
0000
0000
012c
cafe
3011
0000
0000
0134
cafe
3411
0000
0000
0137
cafe
3811
0000
0000
012f
cafe
3c11
0000
0000
012b
cafe
2011
0000
0000
0123
cafe
2411
0000
0000
0124
cafe
2811
0000
0000
0125
cafe
2c11
0000
0000
011f
cafe
3011
0000
0000
0118
cafe
3411
0000
0000
010d
cafe
3811
0000
0000
0119
cafe
3c11
0000
0000
011f
cafe
2011
0000
0000
011f
cafe
2411
0000
0000
011c
cafe
2811
0000
0000
0114
cafe
2c11
0000
0000
0121
cafe
3011
0000
0000
0126
cafe
3411
0000
0000
012c
cafe
3811
0000
0000
011d
cafe
3c11
0000
0000
0119
cafe
2011
0000
0000
011d
cafe
2411
0000
0000
011f
cafe
2811
0000
0000
0120
cafe
2c11
0000
0000
0119
cafe
3011
0000
0000
011c
cafe
3411
0000
0000
012e
cafe
3811
0000
0000
0125
cafe
3c11
0000
0000
012c
cafe
2011
0000
0000
011e
cafe
2411
0000
0000
0124
cafe
2811
0000
0000
012a
cafe
2c11
0000
0000
012f
cafe
3011
0000
-
0000
0138
cafe
3411
0000
0000
012f
cafe
3811
0000
0000
012e
cafe
3c11
0000
0000
012c
cafe
2011
0000
0000
013e
cafe
2411
0000
0000
0141
cafe
2811
0000
0000
0131
cafe
2c11
0000
0000
013c
cafe
3011
0000
0000
012f
cafe
3411
0000
0000
0139
cafe
3811
0000
0000
0141
cafe
3c11
0000
0000
0138
cafe
2011
0000
0000
012e
cafe
2411
0000
0000
012f
cafe
2811
0000
0000
0138
cafe
2c11
0000
0000
013a
cafe
3011
0000
0000
012e
cafe
3411
0000
0000
0127
cafe
3811
0000
0000
0118
cafe
3c11
0000
0000
011a
cafe
2011
0000
0000
0123
cafe
2411
0000
0000
0114
cafe
2811
0000
0000
010a
cafe
2c11
0000
0000
00fb
cafe
3011
0000
0000
010c
cafe
3411
0000
0000
010b
cafe
3811
0000
0000
010f
cafe
3c11
0000
0000
010c
cafe
2011
0000
0000
0112
cafe
2411
0000
0000
0118
cafe
2811
0000
0000
011b
cafe
2c11
0000
0000
0123
cafe
3011
0000
0000
0119
cafe
3411
0000
0000
0116
cafe
3811
0000
0000
011c
cafe
3c11
0000
0000
0126
cafe
2011
0000
0000
0124
cafe
2411
0000
0000
011f
cafe
2811
0000
0000
0118
cafe
2c11
0000
0000
012b
cafe
3011
0000
0000
0139
cafe
3411
0000
0000
0145
cafe
3811
0000
0000
0135
cafe
3c11
0000
0000
0139
cafe
2011
0000
0000
013a
cafe
2411
0000
0000
013f
cafe
2811
0000
0000
0140
cafe
2c11
0000
0000
0138
cafe
3011
0000
0000
012f
cafe
3411
0000
0000
0127
cafe
3811
0000
0000
012e
cafe
3c11
0000
0000
-
012f
cafe
2011
0000
0000
0117
cafe
2411
0000
0000
012a
cafe
2811
0000
0000
0120
cafe
2c11
0000
0000
013b
cafe
3011
0000
0000
0132
cafe
3411
0000
0000
012b
cafe
3811
0000
0000
0123
cafe
3c11
0000
0000
0121
cafe
2011
0000
0000
012a
cafe
2411
0000
0000
0133
cafe
2811
0000
0000
0131
cafe
2c11
0000
0000
0128
cafe
3011
0000
0000
0119
cafe
3411
0000
0000
0128
cafe
3811
0000
0000
012b
cafe
3c11
0000
0000
0114
cafe
2011
0000
0000
0112
cafe
2411
0000
0000
0113
cafe
2811
0000
0000
0114
cafe
2c11
0000
0000
0117
cafe
3011
0000
0000
0122
cafe
3411
0000
0000
0115
cafe
3811
0000
0000
010a
cafe
3c11
0000
0000
0115
cafe
2011
0000
0000
0117
cafe
2411
0000
0000
0117
cafe
2811
0000
0000
0110
cafe
2c11
0000
0000
0112
cafe
3011
0000
0000
0114
cafe
3411
0000
0000
011e
cafe
3811
0000
0000
0123
cafe
3c11
0000
0000
0119
cafe
2011
0000
0000
011d
cafe
2411
0000
0000
0126
cafe
2811
0000
0000
0136
cafe
2c11
0000
0000
0143
cafe
3011
0000
0000
013b
cafe
3411
0000
0000
013f
cafe
3811
0000
0000
0131
cafe
3c11
0000
0000
0142
cafe
2011
0000
0000
0147
cafe
2411
0000
0000
013d
cafe
2811
0000
0000
0137
cafe
2c11
0000
0000
012c
cafe
3011
0000
0000
0130
cafe
3411
0000
0000
013f
cafe
3811
0000
0000
0131
cafe
3c11
0000
0000
0126
cafe
2011
0000
0000
011e
cafe
2411
0000
0000
0139
cafe
2811
0000
0000
012d
-
cafe
2c11
0000
0000
012d
cafe
3011
0000
0000
0129
cafe
3411
0000
0000
0119
cafe
3811
0000
0000
011f
cafe
3c11
0000
0000
0122
cafe
2011
0000
0000
0117
cafe
2411
0000
0000
0112
cafe
2811
0000
0000
0107
cafe
2c11
0000
0000
010c
cafe
3011
0000
0000
0113
cafe
3411
0000
0000
011d
cafe
3811
0000
0000
0114
cafe
3c11
0000
0000
0111
cafe
2011
0000
0000
011a
cafe
2411
0000
0000
011b
cafe
2811
0000
0000
0128
cafe
2c11
0000
0000
0113
cafe
3011
0000
0000
0110
cafe
3411
0000
0000
0116
cafe
3811
0000
0000
0117
cafe
3c11
0000
0000
011c
cafe
2011
0000
0000
0116
cafe
2411
0000
0000
011c
cafe
2811
0000
0000
011c
cafe
2c11
0000
0000
012f
cafe
3011
0000
0000
013e
cafe
3411
0000
0000
0134
cafe
3811
0000
0000
0130
cafe
3c11
0000
0000
0131
cafe
2011
0000
0000
0140
cafe
2411
0000
0000
0150
cafe
2811
0000
0000
0146
cafe
2c11
0000
0000
0144
cafe
3011
0000
0000
013a
cafe
3411
0000
0000
014a
cafe
3811
0000
0000
014f
cafe
3c11
0000
0000
013e
cafe
2011
0000
0000
0139
cafe
2411
0000
0000
0129
cafe
2811
0000
0000
0135
cafe
2c11
0000
0000
0135
cafe
3011
0000
0000
012b
cafe
3411
0000
0000
0123
cafe
3811
0000
0000
010e
cafe
3c11
0000
0000
011b
cafe
2011
0000
0000
0122
cafe
2411
0000
0000
0129
cafe
2811
0000
0000
011c
cafe
2c11
0000
0000
0118
cafe
3011
0000
0000
0122
cafe
3411
0000
0000
0123
cafe
-
3811
0000
0000
0119
cafe
3c11
0000
0000
011b
cafe
2011
0000
0000
0112
cafe
2411
0000
0000
011d
cafe
2811
0000
0000
011f
cafe
2c11
0000
0000
0124
cafe
3011
0000
0000
0117
cafe
3411
0000
0000
0114
cafe
3811
0000
0000
0120
cafe
3c11
0000
0000
0124
cafe
2011
0000
0000
0128
cafe
2411
0000
0000
0116
cafe
2811
0000
0000
010f
cafe
2c11
0000
0000
010e
cafe
3011
0000
0000
0114
cafe
3411
0000
0000
011b
cafe
3811
0000
0000
010f
cafe
3c11
0000
0000
010f
cafe
2011
0000
0000
011a
cafe
2411
0000
0000
0128
cafe
2811
0000
0000
0138
cafe
2c11
0000
0000
012c
cafe
3011
0000
0000
012e
cafe
3411
0000
0000
012b
cafe
3811
0000
0000
0143
cafe
3c11
0000
0000
0143
cafe
2011
0000
0000
013d
cafe
2411
0000
0000
0131
cafe
2811
0000
0000
012c
cafe
2c11
0000
0000
013a
cafe
3011
0000
0000
013b
cafe
3411
0000
0000
0138
cafe
3811
0000
0000
013a
cafe
3c11
0000
0000
0130
cafe
2011
0000
0000
0137
cafe
2411
0000
0000
0140
cafe
2811
0000
0000
013c
cafe
2c11
0000
0000
0134
cafe
3011
0000
0000
0125
cafe
3411
0000
0000
0130
cafe
3811
0000
0000
0122
cafe
3c11
0000
0000
0125
cafe
2011
0000
0000
011b
cafe
2411
0000
0000
0116
cafe
2811
0000
0000
0118
cafe
2c11
0000
0000
0112
cafe
3011
0000
0000
0116
cafe
3411
0000
0000
010e
cafe
3811
0000
0000
0104
cafe
3c11
0000
0000
010b
cafe
2011
0000
0000
0112
cafe
2411
-
0000
0000
011b
cafe
2811
0000
0000
0110
cafe
2c11
0000
0000
0114
cafe
3011
0000
0000
011b
cafe
3411
0000
0000
0123
cafe
3811
0000
0000
0126
cafe
3c11
0000
0000
011a
cafe
2011
0000
0000
011f
cafe
2411
0000
0000
0122
cafe
2811
0000
0000
012c
cafe
2c11
0000
0000
012d
cafe
3011
0000
0000
012a
cafe
3411
0000
0000
0124
cafe
3811
0000
0000
011f
cafe
3c11
0000
0000
0134
cafe
2011
0000
0000
0139
cafe
2411
0000
0000
0138
cafe
2811
0000
0000
013f
cafe
2c11
0000
0000
013f
cafe
3011
0000
0000
013f
cafe
3411
0000
0000
013d
cafe
3811
0000
0000
0134
cafe
3c11
0000
0000
012f
cafe
2011
0000
0000
0129
cafe
2411
0000
0000
0135
cafe
2811
0000
0000
0138
cafe
2c11
0000
0000
012e
cafe
3011
0000
0000
012a
cafe
3411
0000
0000
0124
cafe
3811
0000
0000
012f
cafe
3c11
0000
0000
013b
cafe
2011
0000
0000
0136
cafe
2411
0000
0000
012a
cafe
2811
0000
0000
0121
cafe
2c11
0000
0000
0121
cafe
3011
0000
0000
011e
cafe
3411
0000
0000
011a
cafe
3811
0000
0000
010c
cafe
3c11
0000
0000
0102
cafe
2011
0000
0000
010d
cafe
2411
0000
0000
0115
cafe
2811
0000
0000
011f
cafe
2c11
0000
0000
0119
cafe
3011
0000
0000
0112
cafe
3411
0000
0000
011f
cafe
3811
0000
0000
011a
cafe
3c11
0000
0000
011c
cafe
2011
0000
0000
011a
cafe
2411
0000
0000
011b
cafe
2811
0000
0000
011d
cafe
2c11
0000
0000
0124
cafe
3011
0000
-
0000
012d
cafe
3411
0000
0000
0124
cafe
3811
0000
0000
012c
cafe
3c11
0000
0000
0131
cafe
2011
0000
0000
013a
cafe
2411
0000
0000
013c
cafe
2811
0000
0000
0136
cafe
2c11
0000
0000
0130
cafe
3011
0000
0000
012a
cafe
3411
0000
0000
0134
cafe
3811
0000
0000
0134
cafe
3c11
0000
0000
0134
cafe
2011
0000
0000
0134
cafe
2411
0000
0000
0126
cafe
2811
0000
0000
013a
cafe
2c11
0000
0000
0139
cafe
3011
0000
0000
013b
cafe
3411
0000
0000
012d
cafe
3811
0000
0000
012c
cafe
3c11
0000
0000
0139
cafe
2011
0000
0000
0134
cafe
2411
0000
0000
012e
cafe
2811
0000
0000
0135
cafe
2c11
0000
0000
0129
cafe
3011
0000
0000
0131
cafe
3411
0000
0000
0133
cafe
3811
0000
0000
0131
cafe
3c11
0000
0000
0126
cafe
2011
0000
0000
0116
cafe
2411
0000
0000
0124
cafe
2811
0000
0000
011f
cafe
2c11
0000
0000
0119
cafe
3011
0000
0000
010e
cafe
3411
0000
0000
00fc
cafe
3811
0000
0000
0106
cafe
3c11
0000
0000
010a
cafe
2011
0000
0000
010e
cafe
2411
0000
0000
0109
cafe
2811
0000
0000
0109
cafe
2c11
0000
0000
010c
cafe
3011
0000
0000
0111
cafe
3411
0000
0000
011f
cafe
3811
0000
0000
0117
cafe
3c11
0000
0000
0116
cafe
2011
0000
0000
0116
cafe
2411
0000
0000
011f
cafe
2811
0000
0000
0126
cafe
2c11
0000
0000
0126
cafe
3011
0000
0000
0128
cafe
3411
0000
0000
012a
cafe
3811
0000
0000
013f
cafe
3c11
0000
0000
-
0148
cafe
2011
0000
0000
0141
cafe
2411
0000
0000
0146
cafe
2811
0000
0000
0142
cafe
2c11
0000
0000
0142
cafe
3011
0000
0000
0144
cafe
3411
0000
0000
0136
cafe
3811
0000
0000
0133
cafe
3c11
0000
0000
0130
cafe
2011
0000
0000
0132
cafe
2411
0000
0000
0133
cafe
2811
0000
0000
012c
cafe
2c11
0000
0000
011e
cafe
3011
0000
0000
0123
cafe
3411
0000
0000
012b
cafe
3811
0000
0000
0127
cafe
3c11
0000
0000
0120
cafe
2011
0000
0000
0116
cafe
2411
0000
0000
0110
cafe
2811
0000
0000
0116
cafe
2c11
0000
0000
011d
cafe
3011
0000
0000
011f
cafe
3411
0000
0000
0119
cafe
3811
0000
0000
0110
cafe
3c11
0000
0000
010f
cafe
2011
0000
0000
0119
cafe
2411
0000
0000
011d
cafe
2811
0000
0000
010f
cafe
2c11
0000
0000
0113
cafe
3011
0000
0000
0117
cafe
3411
0000
0000
011c
cafe
3811
0000
0000
011f
cafe
3c11
0000
0000
0118
cafe
2011
0000
0000
011b
cafe
2411
0000
0000
011e
cafe
2811
0000
0000
0120
cafe
2c11
0000
0000
0127
cafe
3011
0000
0000
011e
cafe
3411
0000
0000
011b
cafe
3811
0000
0000
010f
cafe
3c11
0000
0000
0121
cafe
2011
0000
0000
0127
cafe
2411
0000
0000
0120
cafe
2811
0000
0000
0125
cafe
2c11
0000
0000
0122
cafe
3011
0000
0000
0133
cafe
3411
0000
0000
013b
cafe
3811
0000
0000
013c
cafe
3c11
0000
0000
0139
cafe
2011
0000
0000
012f
cafe
2411
0000
0000
013c
cafe
2811
0000
0000
013f
-
cafe
2c11
0000
0000
0136
cafe
3011
0000
0000
012b
cafe
3411
0000
0000
0129
cafe
3811
0000
0000
012c
cafe
3c11
0000
0000
013a
cafe
2011
0000
0000
012b
cafe
2411
0000
0000
0122
cafe
2811
0000
0000
0114
cafe
2c11
0000
0000
0126
cafe
3011
0000
0000
012d
cafe
3411
0000
0000
012e
cafe
3811
0000
0000
0121
cafe
3c11
0000
0000
0121
cafe
2011
0000
0000
0128
cafe
2411
0000
0000
0127
cafe
2811
0000
0000
012b
cafe
2c11
0000
0000
0120
cafe
3011
0000
0000
0118
cafe
3411
0000
0000
0121
cafe
3811
0000
0000
0123
cafe
3c11
0000
0000
0127
cafe
2011
0000
0000
0119
cafe
2411
0000
0000
011c
cafe
2811
0000
0000
011e
cafe
2c11
0000
0000
011d
cafe
3011
0000
0000
0123
cafe
3411
0000
0000
0114
cafe
3811
0000
0000
0113
cafe
3c11
0000
0000
0115
cafe
2011
0000
0000
0119
cafe
2411
0000
0000
0119
cafe
2811
0000
0000
010f
cafe
2c11
0000
0000
0118
cafe
3011
0000
0000
0114
cafe
3411
0000
0000
0128
cafe
3811
0000
0000
012e
cafe
3c11
0000
0000
012e
cafe
2011
0000
0000
012c
cafe
2411
0000
0000
0129
cafe
2811
0000
0000
013a
cafe
2c11
0000
0000
013f
cafe
3011
0000
0000
0138
cafe
3411
0000
0000
0135
cafe
3811
0000
0000
0136
cafe
3c11
0000
0000
0147
cafe
2011
0000
0000
014c
cafe
2411
0000
0000
0149
cafe
2811
0000
0000
0139
cafe
2c11
0000
0000
0132
cafe
3011
0000
0000
0134
cafe
3411
0000
0000
0137
cafe
-
3811
0000
0000
0130
cafe
3c11
0000
0000
0121
cafe
2011
0000
0000
0118
cafe
2411
0000
0000
011f
cafe
2811
0000
0000
0123
cafe
2c11
0000
0000
0127
cafe
3011
0000
0000
0114
cafe
3411
0000
0000
010f
cafe
3811
0000
0000
0112
cafe
3c11
0000
0000
011c
cafe
2011
0000
0000
011b
cafe
2411
0000
0000
0110
cafe
2811
0000
0000
010b
cafe
2c11
0000
0000
0114
cafe
3011
0000
0000
011e
cafe
3411
0000
0000
0127
cafe
3811
0000
0000
0122
cafe
3c11
0000
0000
0124
cafe
2011
0000
0000
0128
cafe
2411
0000
0000
0134
cafe
2811
0000
0000
0138
cafe
2c11
0000
0000
012d
cafe
3011
0000
0000
012d
cafe
3411
0000
0000
0123
cafe
3811
0000
0000
0127
cafe
3c11
0000
0000
0123
cafe
2011
0000
0000
0121
cafe
2411
0000
0000
011f
cafe
2811
0000
0000
011a
cafe
2c11
0000
0000
0127
cafe
3011
0000
0000
0139
cafe
3411
0000
0000
0132
cafe
3811
0000
0000
0132
cafe
3c11
0000
0000
0128
cafe
2011
0000
0000
013b
cafe
2411
0000
0000
013a
cafe
2811
0000
0000
0138
cafe
2c11
0000
0000
0131
cafe
3011
0000
0000
0130
cafe
3411
0000
0000
0140
cafe
3811
0000
0000
0145
cafe
3c11
0000
0000
0142
cafe
2011
0000
0000
0139
cafe
2411
0000
0000
0135
cafe
2811
0000
0000
013c
cafe
2c11
0000
0000
013c
cafe
3011
0000
0000
013e
cafe
3411
0000
0000
012f
cafe
3811
0000
0000
0129
cafe
3c11
0000
0000
012a
cafe
2011
0000
0000
012d
cafe
2411
-
0000
0000
0131
cafe
2811
0000
0000
0127
cafe
2c11
0000
0000
0119
cafe
3011
0000
0000
011e
cafe
3411
0000
0000
0124
cafe
3811
0000
0000
0125
cafe
3c11
0000
0000
0122
cafe
2011
0000
0000
0118
cafe
2411
0000
0000
0117
cafe
2811
0000
0000
0122
cafe
2c11
0000
0000
0127
cafe
3011
0000
0000
011f
cafe
3411
0000
0000
011c
cafe
3811
0000
0000
0114
cafe
3c11
0000
0000
0123
cafe
2011
0000
0000
0135
cafe
2411
0000
0000
011d
cafe
2811
0000
0000
0120
cafe
2c11
0000
0000
011e
cafe
3011
0000
0000
0123
cafe
3411
0000
0000
011e
cafe
3811
0000
0000
0119
cafe
3c11
0000
0000
0119
cafe
2011
0000
0000
0117
cafe
2411
0000
0000
012d
cafe
2811
0000
0000
0134
cafe
2c11
0000
0000
0131
cafe
3011
0000
0000
0136
cafe
3411
0000
0000
012e
cafe
3811
0000
0000
013c
cafe
3c11
0000
0000
0140
cafe
2011
0000
0000
0134
cafe
2411
0000
0000
012f
cafe
2811
0000
0000
012c
cafe
2c11
0000
0000
0130
cafe
3011
0000
0000
0138
cafe
3411
0000
0000
0138
cafe
3811
0000
0000
012e
cafe
3c11
0000
0000
0126
cafe
2011
0000
0000
0136
cafe
2411
0000
0000
0132
cafe
2811
0000
0000
013f
cafe
2c11
0000
0000
012b
cafe
3011
0000
0000
0119
cafe
3411
0000
0000
0121
cafe
3811
0000
0000
011e
cafe
3c11
0000
0000
0121
cafe
2011
0000
0000
0110
cafe
2411
0000
0000
0113
cafe
2811
0000
0000
0116
cafe
2c11
0000
0000
0118
cafe
3011
0000
-
0000
0121
cafe
3411
0000
0000
0117
cafe
3811
0000
0000
011a
cafe
3c11
0000
0000
011b
cafe
2011
0000
0000
011c
cafe
2411
0000
0000
0127
cafe
2811
0000
0000
011c
cafe
2c11
0000
0000
0120
cafe
3011
0000
0000
0116
cafe
3411
0000
0000
0126
cafe
3811
0000
0000
0132
cafe
3c11
0000
0000
0129
cafe
2011
0000
0000
0128
cafe
2411
0000
0000
0127
cafe
2811
0000
0000
0132
cafe
2c11
0000
0000
0139
cafe
3011
0000
0000
0130
cafe
3411
0000
0000
012d
cafe
3811
0000
0000
0124
cafe
3c11
0000
0000
0129
cafe
2011
0000
0000
012c
cafe
2411
0000
0000
0132
cafe
2811
0000
0000
012c
cafe
2c11
0000
0000
011f
cafe
3011
0000
0000
0127
cafe
3411
0000
0000
0131
cafe
3811
0000
0000
0138
cafe
3c11
0000
0000
0133
cafe
2011
0000
0000
0129
cafe
2411
0000
0000
0133
cafe
2811
0000
0000
0135
cafe
2c11
0000
0000
0135
cafe
3011
0000
0000
012e
cafe
3411
0000
0000
0127
cafe
3811
0000
0000
0127
cafe
3c11
0000
0000
0131
cafe
2011
0000
0000
0137
cafe
2411
0000
0000
0128
cafe
2811
0000
0000
012b
cafe
2c11
0000
0000
0123
cafe
3011
0000
0000
012a
cafe
3411
0000
0000
012e
cafe
3811
0000
0000
011d
cafe
3c11
0000
0000
0116
cafe
2011
0000
0000
0111
cafe
2411
0000
0000
0116
cafe
2811
0000
0000
0115
cafe
2c11
0000
0000
010c
cafe
3011
0000
0000
0109
cafe
3411
0000
0000
0108
cafe
3811
0000
0000
0115
cafe
3c11
0000
0000
-
0117
cafe
2011
0000
0000
010a
cafe
2411
0000
0000
0104
cafe
2811
0000
0000
0106
cafe
2c11
0000
0000
0108
cafe
3011
0000
0000
0110
cafe
3411
0000
0000
010f
cafe
3811
0000
0000
0112
cafe
3c11
0000
0000
0112
cafe
2011
0000
0000
0123
cafe
2411
0000
0000
0132
cafe
2811
0000
0000
0135
cafe
2c11
0000
0000
0136
cafe
3011
0000
0000
0136
cafe
3411
0000
0000
0138
cafe
3811
0000
0000
013b
cafe
3c11
0000
0000
0139
cafe
2011
0000
0000
012c
cafe
2411
0000
0000
012e
cafe
2811
0000
0000
013f
cafe
2c11
0000
0000
013f
cafe
3011
0000
0000
013d
cafe
3411
0000
0000
0124
cafe
3811
0000
0000
012c
cafe
3c11
0000
0000
013a
cafe
2011
0000
0000
0138
cafe
2411
0000
0000
013c
cafe
2811
0000
0000
012d
cafe
2c11
0000
0000
0126
cafe
3011
0000
0000
012b
cafe
3411
0000
0000
0132
cafe
3811
0000
0000
0132
cafe
3c11
0000
0000
0121
cafe
2011
0000
0000
0118
cafe
2411
0000
0000
0126
cafe
2811
0000
0000
012f
cafe
2c11
0000
0000
012d
cafe
3011
0000
0000
0122
cafe
3411
0000
0000
011b
cafe
3811
0000
0000
011d
cafe
3c11
0000
0000
011f
cafe
2011
0000
0000
0124
cafe
2411
0000
0000
0119
cafe
2811
0000
0000
0117
cafe
2c11
0000
0000
0118
cafe
3011
0000
0000
0124
cafe
3411
0000
0000
0124
cafe
3811
0000
0000
0121
cafe
3c11
0000
0000
011f
cafe
2011
0000
0000
011b
cafe
2411
0000
0000
0127
cafe
2811
0000
0000
012c
-
cafe
2c11
0000
0000
0128
cafe
3011
0000
0000
0123
cafe
3411
0000
0000
0120
cafe
3811
0000
0000
0138
cafe
3c11
0000
0000
013b
cafe
2011
0000
0000
0137
cafe
2411
0000
0000
0138
cafe
2811
0000
0000
013c
cafe
2c11
0000
0000
0144
cafe
3011
0000
0000
0145
cafe
3411
0000
0000
0143
cafe
3811
0000
0000
0134
cafe
3c11
0000
0000
0132
cafe
2011
0000
0000
0136
cafe
2411
0000
0000
013d
cafe
2811
0000
0000
0138
cafe
2c11
0000
0000
012f
cafe
3011
0000
0000
0126
cafe
3411
0000
0000
012f
cafe
3811
0000
0000
0135
cafe
3c11
0000
0000
013a
cafe
2011
0000
0000
012c
cafe
2411
0000
0000
012e
cafe
2811
0000
0000
012e
cafe
2c11
0000
0000
012f
cafe
3011
0000
0000
0131
cafe
3411
0000
0000
0127
cafe
3811
0000
0000
0124
cafe
3c11
0000
0000
0124
cafe
2011
0000
0000
012a
cafe
2411
0000
0000
012b
cafe
2811
0000
0000
0124
cafe
2c11
0000
0000
0125
cafe
3011
0000
0000
011f
cafe
3411
0000
0000
012a
cafe
3811
0000
0000
012a
cafe
3c11
0000
0000
0120
cafe
2011
0000
0000
011b
cafe
2411
0000
0000
0113
cafe
2811
0000
0000
011d
cafe
2c11
0000
0000
0126
cafe
3011
0000
0000
0110
cafe
3411
0000
0000
0118
cafe
3811
0000
0000
011a
cafe
3c11
0000
0000
0120
cafe
2011
0000
0000
0136
cafe
2411
0000
0000
0133
cafe
2811
0000
0000
0134
cafe
2c11
0000
0000
0136
cafe
3011
0000
0000
013e
cafe
3411
0000
0000
0143
cafe
-
3811
0000
0000
0144
cafe
3c11
0000
0000
0146
cafe
2011
0000
0000
0143
cafe
2411
0000
0000
0154
cafe
2811
0000
0000
0156
cafe
2c11
0000
0000
0155
cafe
3011
0000
0000
0147
cafe
3411
0000
0000
0147
cafe
3811
0000
0000
0148
cafe
3c11
0000
0000
0144
cafe
2011
0000
0000
013f
cafe
2411
0000
0000
0130
cafe
2811
0000
0000
012c
cafe
2c11
0000
0000
0123
cafe
3011
0000
0000
0122
cafe
3411
0000
0000
0123
cafe
3811
0000
0000
0113
cafe
3c11
0000
0000
010d
cafe
2011
0000
0000
010c
cafe
2411
0000
0000
0118
cafe
2811
0000
0000
0112
cafe
2c11
0000
0000
0103
cafe
3011
0000
0000
0107
cafe
3411
0000
0000
00fd
cafe
3811
0000
0000
0110
cafe
3c11
0000
0000
0117
cafe
2011
0000
0000
0115
cafe
2411
0000
0000
010c
cafe
2811
0000
0000
010d
cafe
2c11
0000
0000
0123
cafe
3011
0000
0000
012b
cafe
3411
0000
0000
0124
cafe
3811
0000
0000
0120
cafe
3c11
0000
0000
0114
cafe
2011
0000
0000
0126
cafe
2411
0000
0000
011f
cafe
2811
0000
0000
0121
cafe
2c11
0000
0000
011d
cafe
3011
0000
0000
0118
cafe
3411
0000
0000
012b
cafe
3811
0000
0000
0132
cafe
3c11
0000
0000
012e
cafe
2011
0000
0000
0125
cafe
2411
0000
0000
012f
cafe
2811
0000
0000
013a
cafe
2c11
0000
0000
0132
cafe
3011
0000
0000
013b
cafe
3411
0000
0000
0126
cafe
3811
0000
0000
0123
cafe
3c11
0000
0000
012e
cafe
2011
0000
0000
0132
cafe
2411
-
0000
0000
0136
cafe
2811
0000
0000
012e
cafe
2c11
0000
0000
0132
cafe
3011
0000
0000
0135
cafe
3411
0000
0000
013a
cafe
3811
0000
0000
0139
cafe
3c11
0000
0000
0128
cafe
2011
0000
0000
0123
cafe
2411
0000
0000
011e
cafe
2811
0000
0000
0121
cafe
2c11
0000
0000
011d
cafe
3011
0000
0000
0113
cafe
3411
0000
0000
0113
cafe
3811
0000
0000
0105
cafe
3c11
0000
0000
010d
cafe
2011
0000
0000
0113
cafe
2411
0000
0000
0106
cafe
2811
0000
0000
0104
cafe
2c11
0000
0000
00ff
cafe
3011
0000
0000
00ff
cafe
3411
0000
0000
0104
cafe
3811
0000
0000
0103
cafe
3c11
0000
0000
010a
cafe
2011
0000
0000
00fb
cafe
2411
0000
0000
010c
cafe
2811
0000
0000
0117
cafe
2c11
0000
0000
011a
cafe
3011
0000
0000
0116
cafe
3411
0000
0000
011c
cafe
3811
0000
0000
011c
cafe
3c11
0000
0000
0126
cafe
2011
0000
0000
011d
cafe
2411
0000
0000
011c
cafe
2811
0000
0000
0118
cafe
2c11
0000
0000
0128
cafe
3011
0000
0000
0131
cafe
3411
0000
0000
0128
cafe
3811
0000
0000
012a
cafe
3c11
0000
0000
0128
cafe
2011
0000
0000
0138
cafe
2411
0000
0000
013f
cafe
2811
0000
0000
0138
cafe
2c11
0000
0000
012c
cafe
3011
0000
0000
0125
cafe
3411
0000
0000
012f
cafe
3811
0000
0000
012b
cafe
3c11
0000
0000
013a
cafe
2011
0000
0000
0126
cafe
2411
0000
0000
0122
cafe
2811
0000
0000
0125
cafe
2c11
0000
0000
012a
cafe
3011
0000
-
0000
0131
cafe
3411
0000
0000
0120
cafe
3811
0000
0000
0113
cafe
3c11
0000
0000
0112
cafe
2011
0000
0000
0112
cafe
2411
0000
0000
010e
cafe
2811
0000
0000
0103
cafe
2c11
0000
0000
00fc
cafe
3011
0000
0000
00f5
cafe
3411
0000
0000
00fb
cafe
3811
0000
0000
0104
cafe
3c11
0000
0000
0102
cafe
2011
0000
0000
0100
cafe
2411
0000
0000
00fd
cafe
2811
0000
0000
010c
cafe
2c11
0000
0000
0116
cafe
3011
0000
0000
0111
cafe
3411
0000
0000
0111
cafe
3811
0000
0000
010f
cafe
3c11
0000
0000
0124
cafe
2011
0000
0000
012b
cafe
2411
0000
0000
012b
cafe
2811
0000
0000
0128
cafe
2c11
0000
0000
0126
cafe
3011
0000
0000
013d
cafe
3411
0000
0000
013c
cafe
3811
0000
0000
0148
cafe
3c11
0000
0000
013a
cafe
2011
0000
0000
0133
cafe
2411
0000
0000
013f
cafe
2811
0000
0000
013e
cafe
2c11
0000
0000
0146
cafe
3011
0000
0000
0138
cafe
3411
0000
0000
0130
cafe
3811
0000
0000
012e
cafe
3c11
0000
0000
0138
cafe
2011
0000
0000
013c
cafe
2411
0000
0000
0126
cafe
2811
0000
0000
0124
cafe
2c11
0000
0000
0123
cafe
3011
0000
0000
0128
cafe
3411
0000
0000
012a
cafe
3811
0000
0000
011c
cafe
3c11
0000
0000
0121
cafe
2011
0000
0000
0126
cafe
2411
0000
0000
0126
cafe
2811
0000
0000
0132
cafe
2c11
0000
0000
012a
cafe
3011
0000
0000
012a
cafe
3411
0000
0000
0124
cafe
3811
0000
0000
0132
cafe
3c11
0000
0000
-
0133
cafe
2011
0000
0000
011d
cafe
2411
0000
0000
0118
cafe
2811
0000
0000
010d
cafe
2c11
0000
0000
011b
cafe
3011
0000
0000
0126
cafe
3411
0000
0000
011c
cafe
3811
0000
0000
011a
cafe
3c11
0000
0000
0113
cafe
2011
0000
0000
0123
cafe
2411
0000
0000
0127
cafe
2811
0000
0000
0122
cafe
2c11
0000
0000
011d
cafe
3011
0000
0000
0114
cafe
3411
0000
0000
011c
cafe
3811
0000
0000
0124
cafe
3c11
0000
0000
011d
cafe
2011
0000
0000
0122
cafe
2411
0000
0000
011d
cafe
2811
0000
0000
012c
cafe
2c11
0000
0000
012d
cafe
3011
0000
0000
0133
cafe
3411
0000
0000
0133
cafe
3811
0000
0000
0133
cafe
3c11
0000
0000
013e
cafe
2011
0000
0000
0140
cafe
2411
0000
0000
0150
cafe
2811
0000
0000
013a
cafe
2c11
0000
0000
0143
cafe
3011
0000
0000
013c
cafe
3411
0000
0000
0143
cafe
3811
0000
0000
014a
cafe
3c11
0000
0000
013a
cafe
2011
0000
0000
0131
cafe
2411
0000
0000
0136
cafe
2811
0000
0000
0140
cafe
2c11
0000
0000
0144
cafe
3011
0000
0000
012d
cafe
3411
0000
0000
0124
cafe
3811
0000
0000
011d
cafe
3c11
0000
0000
0127
cafe
2011
0000
0000
012b
cafe
2411
0000
0000
011a
cafe
2811
0000
0000
011b
cafe
2c11
0000
0000
010c
cafe
3011
0000
0000
011b
cafe
3411
0000
0000
0124
cafe
3811
0000
0000
011a
cafe
3c11
0000
0000
0119
cafe
2011
0000
0000
0111
cafe
2411
0000
0000
0119
cafe
2811
0000
0000
011f
-
