280a
0000
0000
014b
cafe
2c1a
0000
0000
015e
cafe
3002
0000
0000
012d
cafe
3412
0000
0000
02a1
cafe
380b
0000
0000
0176
cafe
3c1b
0000
0000
0123
cafe
2003
0000
0000
01b1
cafe
2413
0000
0000
00a9
cafe
280c
0000
0000
01a2
cafe
2c1c
0000
0000
0139
cafe
3004
0000
0000
021c
cafe
3414
0000
0000
011e
cafe
380d
0000
0000
014d
cafe
3c1d
0000
0000
016b
cafe
2005
0000
0000
015e
cafe
2415
0000
0000
0171
cafe
280e
0000
0000
0215
cafe
2c1e
0000
0000
0151
cafe
3006
0000
0000
01bb
cafe
3416
0000
0000
0141
cafe
380f
0000
0000
01da
cafe
3c1f
0000
0000
01c0
cafe
2007
0000
0000
018d
cafe
2417
0000
0000
017e
cafe
2808
0000
0000
019a
cafe
2c18
0000
0000
01c0
cafe
3000
0000
0000
017b
cafe
3410
0000
0000
01b8
cafe
3809
0000
0000
01f0
cafe
3c19
0000
0000
01b4
cafe
2001
0000
0000
012d
cafe
2411
0000
0000
01f4
cafe
280a
0000
0000
0153
cafe
2c1a
0000
0000
0161
cafe
3002
0000
0000
0133
cafe
3412
0000
0000
029d
cafe
380b
0000
0000
0173
cafe
3c1b
0000
0000
0124
cafe
2003
0000
0000
01b0
cafe
2413
0000
0000
00af
cafe
280c
0000
0000
019e
cafe
2c1c
0000
0000
0136
cafe
3004
0000
0000
021d
cafe
3414
0000
0000
0125
cafe
380d
0000
0000
014d
cafe
3c1d
0000
0000
0169
cafe
2005
0000
0000
015c
cafe
2415
0000
0000
016e
cafe
280e
0000
0000
0211
cafe
2c1e
0000
0000
0158
cafe
3006
0000
0000
01b8
cafe
3416
-
0000
0000
0143
cafe
380f
0000
0000
01dd
cafe
3c1f
0000
0000
01b9
cafe
2007
0000
0000
0194
cafe
2417
0000
0000
017b
cafe
2808
0000
0000
019d
cafe
2c18
0000
0000
01bd
cafe
3000
0000
0000
017e
cafe
3410
0000
0000
01b8
cafe
3809
0000
0000
01ef
cafe
3c19
0000
0000
01b6
cafe
2001
0000
0000
0131
cafe
2411
0000
0000
01f7
cafe
280a
0000
0000
0150
cafe
2c1a
0000
0000
0165
cafe
3002
0000
0000
0130
cafe
3412
0000
0000
029e
cafe
380b
0000
0000
0178
cafe
3c1b
0000
0000
012d
cafe
2003
0000
0000
01b4
cafe
2413
0000
0000
00af
cafe
280c
0000
0000
019f
cafe
2c1c
0000
0000
0134
cafe
3004
0000
0000
021d
cafe
3414
0000
0000
0129
cafe
380d
0000
0000
0151
cafe
3c1d
0000
0000
0163
cafe
2005
0000
0000
015e
cafe
2415
0000
0000
0175
cafe
280e
0000
0000
0211
cafe
2c1e
0000
0000
0157
cafe
3006
0000
0000
01b9
cafe
3416
0000
0000
0148
cafe
380f
0000
0000
01de
cafe
3c1f
0000
0000
01c2
cafe
2007
0000
0000
0198
cafe
2417
0000
0000
017c
cafe
2808
0000
0000
01a0
cafe
2c18
0000
0000
01bc
cafe
3000
0000
0000
0177
cafe
3410
0000
0000
01c0
cafe
3809
0000
0000
01f4
cafe
3c19
0000
0000
01b3
cafe
2001
0000
0000
0134
cafe
2411
0000
0000
01f6
cafe
280a
0000
0000
014d
cafe
2c1a
0000
0000
015e
cafe
3002
0000
0000
012a
cafe
3412
0000
0000
029f
cafe
380b
0000
0000
0178
cafe
3c1b
0000
0000
012a
cafe
2003
0000
-
0000
01b9
cafe
2413
0000
0000
00b3
cafe
280c
0000
0000
01a1
cafe
2c1c
0000
0000
0139
cafe
3004
0000
0000
021d
cafe
3414
0000
0000
012b
cafe
380d
0000
0000
014b
cafe
3c1d
0000
0000
0164
cafe
2005
0000
0000
0160
cafe
2415
0000
0000
0173
cafe
280e
0000
0000
0218
cafe
2c1e
0000
0000
0152
cafe
3006
0000
0000
01ba
cafe
3416
0000
0000
0145
cafe
380f
0000
0000
01da
cafe
3c1f
0000
0000
01c3
cafe
2007
0000
0000
0197
cafe
2417
0000
0000
017c
cafe
2808
0000
0000
01a3
cafe
2c18
0000
0000
01b5
cafe
3000
0000
0000
0175
cafe
3410
0000
0000
01bd
cafe
3809
0000
0000
01f5
cafe
3c19
0000
0000
01b6
cafe
2001
0000
0000
013c
cafe
2411
0000
0000
01fb
cafe
280a
0000
0000
014b
cafe
2c1a
0000
0000
0161
cafe
3002
0000
0000
0124
cafe
3412
0000
0000
02a1
cafe
380b
0000
0000
0173
cafe
3c1b
0000
0000
0126
cafe
2003
0000
0000
01ba
cafe
2413
0000
0000
00b3
cafe
280c
0000
0000
01a4
cafe
2c1c
0000
0000
013a
cafe
3004
0000
0000
021d
cafe
3414
0000
0000
012a
cafe
380d
0000
0000
014b
cafe
3c1d
0000
0000
0160
cafe
2005
0000
0000
015f
cafe
2415
0000
0000
016e
cafe
280e
0000
0000
0215
cafe
2c1e
0000
0000
0156
cafe
3006
0000
0000
01b8
cafe
3416
0000
0000
0147
cafe
380f
0000
0000
01dc
cafe
3c1f
0000
0000
01c2
cafe
2007
0000
0000
0194
cafe
2417
0000
0000
0179
cafe
2808
0000
0000
019f
cafe
2c18
0000
0000
-
01b4
cafe
3000
0000
0000
0179
cafe
3410
0000
0000
01b6
cafe
3809
0000
0000
01f9
cafe
3c19
0000
0000
01ba
cafe
2001
0000
0000
0137
cafe
2411
0000
0000
01fb
cafe
280a
0000
0000
0147
cafe
2c1a
0000
0000
015e
cafe
3002
0000
0000
0122
cafe
3412
0000
0000
029c
cafe
380b
0000
0000
0175
cafe
3c1b
0000
0000
0123
cafe
2003
0000
0000
01bb
cafe
2413
0000
0000
00b4
cafe
280c
0000
0000
019c
cafe
2c1c
0000
0000
0138
cafe
3004
0000
0000
021a
cafe
3414
0000
0000
0127
cafe
380d
0000
0000
0154
cafe
3c1d
0000
0000
0169
cafe
2005
0000
0000
015e
cafe
2415
0000
0000
0170
cafe
280e
0000
0000
0218
cafe
2c1e
0000
0000
0151
cafe
3006
0000
0000
01be
cafe
3416
0000
0000
0149
cafe
380f
0000
0000
01df
cafe
3c1f
0000
0000
01bb
cafe
2007
0000
0000
0195
cafe
2417
0000
0000
0175
cafe
2808
0000
0000
0199
cafe
2c18
0000
0000
01b7
cafe
3000
0000
0000
0176
cafe
3410
0000
0000
01ba
cafe
3809
0000
0000
01f9
cafe
3c19
0000
0000
01c2
cafe
2001
0000
0000
0136
cafe
2411
0000
0000
01ff
cafe
280a
0000
0000
0149
cafe
2c1a
0000
0000
0162
cafe
3002
0000
0000
0123
cafe
3412
0000
0000
0299
cafe
380b
0000
0000
0175
cafe
3c1b
0000
0000
0126
cafe
2003
0000
0000
01ba
cafe
2413
0000
0000
00b2
cafe
280c
0000
0000
01a5
cafe
2c1c
0000
0000
013f
cafe
3004
0000
0000
0211
cafe
3414
0000
0000
0122
cafe
380d
0000
0000
014e
-
cafe
3c1d
0000
0000
0164
cafe
2005
0000
0000
015e
cafe
2415
0000
0000
016e
cafe
280e
0000
0000
0216
cafe
2c1e
0000
0000
0153
cafe
3006
0000
0000
01bf
cafe
3416
0000
0000
014c
cafe
380f
0000
0000
01e3
cafe
3c1f
0000
0000
01ba
cafe
2007
0000
0000
0194
cafe
2417
0000
0000
0174
cafe
2808
0000
0000
0199
cafe
2c18
0000
0000
01b6
cafe
3000
0000
0000
017c
cafe
3410
0000
0000
01b9
cafe
3809
0000
0000
01f7
cafe
3c19
0000
0000
01bf
cafe
2001
0000
0000
013d
cafe
2411
0000
0000
0202
cafe
280a
0000
0000
0144
cafe
2c1a
0000
0000
0160
cafe
3002
0000
0000
0122
cafe
3412
0000
0000
0299
cafe
380b
0000
0000
017a
cafe
3c1b
0000
0000
0123
cafe
2003
0000
0000
01be
cafe
2413
0000
0000
00b2
cafe
280c
0000
0000
01a8
cafe
2c1c
0000
0000
0146
cafe
3004
0000
0000
0210
cafe
3414
0000
0000
0128
cafe
380d
0000
0000
014c
cafe
3c1d
0000
0000
0164
cafe
2005
0000
0000
015f
cafe
2415
0000
0000
016a
cafe
280e
0000
0000
0216
cafe
2c1e
0000
0000
014b
cafe
3006
0000
0000
01c4
cafe
3416
0000
0000
014d
cafe
380f
0000
0000
01df
cafe
3c1f
0000
0000
01bb
cafe
2007
0000
0000
0194
cafe
2417
0000
0000
0172
cafe
2808
0000
0000
019b
cafe
2c18
0000
0000
01b7
cafe
3000
0000
0000
0178
cafe
3410
0000
0000
01b8
cafe
3809
0000
0000
01f2
cafe
3c19
0000
0000
01c1
cafe
2001
0000
0000
013e
cafe
2411
0000
0000
01ff
cafe
-
280a
0000
0000
0144
cafe
2c1a
0000
0000
015d
cafe
3002
0000
0000
0122
cafe
3412
0000
0000
029f
cafe
380b
0000
0000
017a
cafe
3c1b
0000
0000
0122
cafe
2003
0000
0000
01be
cafe
2413
0000
0000
00ad
cafe
280c
0000
0000
01a9
cafe
2c1c
0000
0000
0148
cafe
3004
0000
0000
0213
cafe
3414
0000
0000
0128
cafe
380d
0000
0000
014c
cafe
3c1d
0000
0000
0167
cafe
2005
0000
0000
015d
cafe
2415
0000
0000
0165
cafe
280e
0000
0000
0213
cafe
2c1e
0000
0000
0145
cafe
3006
0000
0000
01bd
cafe
3416
0000
0000
014c
cafe
380f
0000
0000
01da
cafe
3c1f
0000
0000
01b7
cafe
2007
0000
0000
0192
cafe
2417
0000
0000
0178
cafe
2808
0000
0000
01a0
cafe
2c18
0000
0000
01ac
cafe
3000
0000
0000
017a
cafe
3410
0000
0000
01bd
cafe
3809
0000
0000
01ec
cafe
3c19
0000
0000
01c3
cafe
2001
0000
0000
0142
cafe
2411
0000
0000
01fb
cafe
280a
0000
0000
0142
cafe
2c1a
0000
0000
0156
cafe
3002
0000
0000
0123
cafe
3412
0000
0000
029d
cafe
380b
0000
0000
017b
cafe
3c1b
0000
0000
011e
cafe
2003
0000
0000
01ba
cafe
2413
0000
0000
00a9
cafe
280c
0000
0000
019f
cafe
2c1c
0000
0000
014b
cafe
3004
0000
0000
0212
cafe
3414
0000
0000
0125
cafe
380d
0000
0000
014c
cafe
3c1d
0000
0000
016d
cafe
2005
0000
0000
0157
cafe
2415
0000
0000
0161
cafe
280e
0000
0000
021a
cafe
2c1e
0000
0000
0146
cafe
3006
0000
0000
01ba
cafe
3416
-
0000
0000
014b
cafe
380f
0000
0000
01da
cafe
3c1f
0000
0000
01b4
cafe
2007
0000
0000
0199
cafe
2417
0000
0000
0178
cafe
2808
0000
0000
01a1
cafe
2c18
0000
0000
01b1
cafe
3000
0000
0000
0179
cafe
3410
0000
0000
01b9
cafe
3809
0000
0000
01ec
cafe
3c19
0000
0000
01c6
cafe
2001
0000
0000
0147
cafe
2411
0000
0000
01fa
cafe
280a
0000
0000
0146
cafe
2c1a
0000
0000
0158
cafe
3002
0000
0000
0125
cafe
3412
0000
0000
029d
cafe
380b
0000
0000
0179
cafe
3c1b
0000
0000
0118
cafe
2003
0000
0000
01b8
cafe
2413
0000
0000
00aa
cafe
280c
0000
0000
019c
cafe
2c1c
0000
0000
0145
cafe
3004
0000
0000
0218
cafe
3414
0000
0000
0124
cafe
380d
0000
0000
0151
cafe
3c1d
0000
0000
016e
cafe
2005
0000
0000
0154
cafe
2415
0000
0000
0161
cafe
280e
0000
0000
021e
cafe
2c1e
0000
0000
0148
cafe
3006
0000
0000
01b9
cafe
3416
0000
0000
014a
cafe
380f
0000
0000
01db
cafe
3c1f
0000
0000
01b4
cafe
2007
0000
0000
0194
cafe
2417
0000
0000
017e
cafe
2808
0000
0000
01a5
cafe
2c18
0000
0000
01b5
cafe
3000
0000
0000
0184
cafe
3410
0000
0000
01b8
cafe
3809
0000
0000
01f0
cafe
3c19
0000
0000
01c7
cafe
2001
0000
0000
013d
cafe
2411
0000
0000
01f8
cafe
280a
0000
0000
0146
cafe
2c1a
0000
0000
015a
cafe
3002
0000
0000
0125
cafe
3412
0000
0000
029c
cafe
380b
0000
0000
0176
cafe
3c1b
0000
0000
0118
cafe
2003
0000
-
0000
01b5
cafe
2413
0000
0000
00a9
cafe
280c
0000
0000
019d
cafe
2c1c
0000
0000
0140
cafe
3004
0000
0000
021b
cafe
3414
0000
0000
0123
cafe
380d
0000
0000
0154
cafe
3c1d
0000
0000
016d
cafe
2005
0000
0000
0153
cafe
2415
0000
0000
0162
cafe
280e
0000
0000
0221
cafe
2c1e
0000
0000
014c
cafe
3006
0000
0000
01b8
cafe
3416
0000
0000
0148
cafe
380f
0000
0000
01d9
cafe
3c1f
0000
0000
01ba
cafe
2007
0000
0000
019a
cafe
2417
0000
0000
0182
cafe
2808
0000
0000
019f
cafe
2c18
0000
0000
01b6
cafe
3000
0000
0000
0185
cafe
3410
0000
0000
01bf
cafe
3809
0000
0000
01f2
cafe
3c19
0000
0000
01c5
cafe
2001
0000
0000
013d
cafe
2411
0000
0000
01fb
cafe
280a
0000
0000
014d
cafe
2c1a
0000
0000
0159
cafe
3002
0000
0000
0128
cafe
3412
0000
0000
029e
cafe
380b
0000
0000
0179
cafe
3c1b
0000
0000
0116
cafe
2003
0000
0000
01b3
cafe
2413
0000
0000
00a1
cafe
280c
0000
0000
01a0
cafe
2c1c
0000
0000
0141
cafe
3004
0000
0000
0221
cafe
3414
0000
0000
0120
cafe
380d
0000
0000
0155
cafe
3c1d
0000
0000
0170
cafe
2005
0000
0000
0154
cafe
2415
0000
0000
0164
cafe
280e
0000
0000
0213
cafe
2c1e
0000
0000
0147
cafe
3006
0000
0000
01b9
cafe
3416
0000
0000
0147
cafe
380f
0000
0000
01e0
cafe
3c1f
0000
0000
01b9
cafe
2007
0000
0000
0191
cafe
2417
0000
0000
0183
cafe
2808
0000
0000
01a0
cafe
2c18
0000
0000
-
01bb
cafe
3000
0000
0000
0189
cafe
3410
0000
0000
01c2
cafe
3809
0000
0000
01f4
cafe
3c19
0000
0000
01bf
cafe
2001
0000
0000
0133
cafe
2411
0000
0000
01ff
cafe
280a
0000
0000
0149
cafe
2c1a
0000
0000
015f
cafe
3002
0000
0000
0128
cafe
3412
0000
0000
029c
cafe
380b
0000
0000
017b
cafe
3c1b
0000
0000
0116
cafe
2003
0000
0000
01b0
cafe
2413
0000
0000
00a0
cafe
280c
0000
0000
01a4
cafe
2c1c
0000
0000
013f
cafe
3004
0000
0000
0223
cafe
3414
0000
0000
011e
cafe
380d
0000
0000
0157
cafe
3c1d
0000
0000
0165
cafe
2005
0000
0000
0151
cafe
2415
0000
0000
016b
cafe
280e
0000
0000
0206
cafe
2c1e
0000
0000
0143
cafe
3006
0000
0000
01b8
cafe
3416
0000
0000
0148
cafe
380f
0000
0000
01e2
cafe
3c1f
0000
0000
01bb
cafe
2007
0000
0000
018e
cafe
2417
0000
0000
0181
cafe
2808
0000
0000
0193
cafe
2c18
0000
0000
01bf
cafe
3000
0000
0000
018f
cafe
3410
0000
0000
01c7
cafe
3809
0000
0000
01f6
cafe
3c19
0000
0000
01bf
cafe
2001
0000
0000
0137
cafe
2411
0000
0000
0201
cafe
280a
0000
0000
0147
cafe
2c1a
0000
0000
015e
cafe
3002
0000
0000
012e
cafe
3412
0000
0000
0297
cafe
380b
0000
0000
017e
cafe
3c1b
0000
0000
011a
cafe
2003
0000
0000
01ad
cafe
2413
0000
0000
00a0
cafe
280c
0000
0000
019f
cafe
2c1c
0000
0000
0140
cafe
3004
0000
0000
0226
cafe
3414
0000
0000
0123
cafe
380d
0000
0000
0154
-
cafe
3c1d
0000
0000
016b
cafe
2005
0000
0000
0153
cafe
2415
0000
0000
016d
cafe
280e
0000
0000
0206
cafe
2c1e
0000
0000
0147
cafe
3006
0000
0000
01bb
cafe
3416
0000
0000
0142
cafe
380f
0000
0000
01e8
cafe
3c1f
0000
0000
01be
cafe
2007
0000
0000
018e
cafe
2417
0000
0000
017e
cafe
2808
0000
0000
0197
cafe
2c18
0000
0000
01bf
cafe
3000
0000
0000
0195
cafe
3410
0000
0000
01c0
cafe
3809
0000
0000
01f0
cafe
3c19
0000
0000
01c7
cafe
2001
0000
0000
0130
cafe
2411
0000
0000
0203
cafe
280a
0000
0000
014a
cafe
2c1a
0000
0000
015b
cafe
3002
0000
0000
0132
cafe
3412
0000
0000
0294
cafe
380b
0000
0000
0180
cafe
3c1b
0000
0000
011c
cafe
2003
0000
0000
01ae
cafe
2413
0000
0000
00a3
cafe
280c
0000
0000
019c
cafe
2c1c
0000
0000
0142
cafe
3004
0000
0000
0220
cafe
3414
0000
0000
0129
cafe
380d
0000
0000
015a
cafe
3c1d
0000
0000
016a
cafe
2005
0000
0000
015a
cafe
2415
0000
0000
016f
cafe
280e
0000
0000
020a
cafe
2c1e
0000
0000
0146
cafe
3006
0000
0000
01ba
cafe
3416
0000
0000
0142
cafe
380f
0000
0000
01e7
cafe
3c1f
0000
0000
01be
cafe
2007
0000
0000
0191
cafe
2417
0000
0000
017a
cafe
2808
0000
0000
0191
cafe
2c18
0000
0000
01bc
cafe
3000
0000
0000
0190
cafe
3410
0000
0000
01be
cafe
3809
0000
0000
01f5
cafe
3c19
0000
0000
01c9
cafe
2001
0000
0000
012d
cafe
2411
0000
0000
0200
cafe
-
280a
0000
0000
0144
cafe
2c1a
0000
0000
0159
cafe
3002
0000
0000
0134
cafe
3412
0000
0000
0295
cafe
380b
0000
0000
0179
cafe
3c1b
0000
0000
011c
cafe
2003
0000
0000
01ad
cafe
2413
0000
0000
00a6
cafe
280c
0000
0000
019f
cafe
2c1c
0000
0000
013f
cafe
3004
0000
0000
021b
cafe
3414
0000
0000
012a
cafe
380d
0000
0000
0152
cafe
3c1d
0000
0000
0169
cafe
2005
0000
0000
0159
cafe
2415
0000
0000
016c
cafe
280e
0000
0000
0211
cafe
2c1e
0000
0000
0146
cafe
3006
0000
0000
01b9
cafe
3416
0000
0000
013a
cafe
380f
0000
0000
01e7
cafe
3c1f
0000
0000
01bf
cafe
2007
0000
0000
018f
cafe
2417
0000
0000
0182
cafe
2808
0000
0000
0196
cafe
2c18
0000
0000
01c0
cafe
3000
0000
0000
0185
cafe
3410
0000
0000
01c1
cafe
3809
0000
0000
01f6
cafe
3c19
0000
0000
01ca
cafe
2001
0000
0000
0135
cafe
2411
0000
0000
01fd
cafe
280a
0000
0000
0145
cafe
2c1a
0000
0000
0158
cafe
3002
0000
0000
0132
cafe
3412
0000
0000
0298
cafe
380b
0000
0000
017b
cafe
3c1b
0000
0000
011b
cafe
2003
0000
0000
01b1
cafe
2413
0000
0000
00a8
cafe
280c
0000
0000
019a
cafe
2c1c
0000
0000
0132
cafe
3004
0000
0000
0221
cafe
3414
0000
0000
0122
cafe
380d
0000
0000
018c
cafe
3c1d
0000
0000
01a4
cafe
2005
0000
0000
0189
cafe
2415
0000
0000
01a8
cafe
280e
0000
0000
02d4
cafe
2c1e
0000
0000
020e
cafe
3006
0000
0000
0287
cafe
3416
-
0000
0000
0208
cafe
380f
0000
0000
034a
cafe
3c1f
0000
0000
031e
cafe
2007
0000
0000
02ec
cafe
2417
0000
0000
02e6
cafe
2808
0000
0000
037f
cafe
2c18
0000
0000
03ab
cafe
3000
0000
0000
0365
cafe
3410
0000
0000
03b1
cafe
3809
0000
0000
045a
cafe
3c19
0000
0000
042e
cafe
2001
0000
0000
0393
cafe
2411
0000
0000
046f
cafe
280a
0000
0000
0424
cafe
2c1a
0000
0000
0435
cafe
3002
0000
0000
03fd
cafe
3412
0000
0000
0578
cafe
380b
0000
0000
04c0
cafe
3c1b
0000
0000
045c
cafe
2003
0000
0000
04e6
cafe
2413
0000
0000
03f4
cafe
280c
0000
0000
0543
cafe
2c1c
0000
0000
04db
cafe
3004
0000
0000
05ba
cafe
3414
0000
0000
04c6
cafe
380d
0000
0000
0559
cafe
3c1d
0000
0000
055e
cafe
2005
0000
0000
053a
cafe
2415
0000
0000
0577
cafe
280e
0000
0000
0659
cafe
2c1e
0000
0000
058d
cafe
3006
0000
0000
0601
cafe
3416
0000
0000
058f
cafe
380f
0000
0000
0681
cafe
3c1f
0000
0000
065b
cafe
2007
0000
0000
0619
cafe
2417
0000
0000
0628
cafe
2808
0000
0000
0669
cafe
2c18
0000
0000
06a0
cafe
3000
0000
0000
0649
cafe
3410
0000
0000
06a9
cafe
3809
0000
0000
0709
cafe
3c19
0000
0000
06de
cafe
2001
0000
0000
063e
cafe
2411
0000
0000
0720
cafe
280a
0000
0000
0696
cafe
2c1a
0000
0000
06b0
cafe
3002
0000
0000
0665
cafe
3412
0000
0000
07f1
cafe
380b
0000
0000
0704
cafe
3c1b
0000
0000
0698
cafe
2003
0000
-
0000
0721
cafe
2413
0000
0000
0635
cafe
280c
0000
0000
0754
cafe
2c1c
0000
0000
06f2
cafe
3004
0000
0000
07cc
cafe
3414
0000
0000
06db
cafe
380d
0000
0000
073c
cafe
3c1d
0000
0000
0743
cafe
2005
0000
0000
0719
cafe
2415
0000
0000
075b
cafe
280e
0000
0000
081b
cafe
2c1e
0000
0000
0751
cafe
3006
0000
0000
07bf
cafe
3416
0000
0000
074a
cafe
380f
0000
0000
0812
cafe
3c1f
0000
0000
07f5
cafe
2007
0000
0000
07ae
cafe
2417
0000
0000
07c0
cafe
2808
0000
0000
07d6
cafe
2c18
0000
0000
081a
cafe
3000
0000
0000
07b5
cafe
3410
0000
0000
0821
cafe
3809
0000
0000
085b
cafe
3c19
0000
0000
0831
cafe
2001
0000
0000
0786
cafe
2411
0000
0000
0874
cafe
280a
0000
0000
07c2
cafe
2c1a
0000
0000
07e8
cafe
3002
0000
0000
0795
cafe
3412
0000
0000
0927
cafe
380b
0000
0000
0818
cafe
3c1b
0000
0000
07b4
cafe
2003
0000
0000
083b
cafe
2413
0000
0000
0750
cafe
280c
0000
0000
084d
cafe
2c1c
0000
0000
07f9
cafe
3004
0000
0000
08c9
cafe
3414
0000
0000
07e1
cafe
380d
0000
0000
0822
cafe
3c1d
0000
0000
0834
cafe
2005
0000
0000
0803
cafe
2415
0000
0000
0847
cafe
280e
0000
0000
08fa
cafe
2c1e
0000
0000
0833
cafe
3006
0000
0000
0898
cafe
3416
0000
0000
081c
cafe
380f
0000
0000
08d7
cafe
3c1f
0000
0000
08b7
cafe
2007
0000
0000
086e
cafe
2417
0000
0000
0883
cafe
2808
0000
0000
0880
cafe
2c18
0000
0000
-
08d1
cafe
3000
0000
0000
0860
cafe
3410
0000
0000
08d2
cafe
3809
0000
0000
08fc
cafe
3c19
0000
0000
08d2
cafe
2001
0000
0000
0824
cafe
2411
0000
0000
0915
cafe
280a
0000
0000
0851
cafe
2c1a
0000
0000
087e
cafe
3002
0000
0000
0827
cafe
3412
0000
0000
09bc
cafe
380b
0000
0000
0897
cafe
3c1b
0000
0000
0836
cafe
2003
0000
0000
08bb
cafe
2413
0000
0000
07cc
cafe
280c
0000
0000
08cc
cafe
2c1c
0000
0000
086f
cafe
3004
0000
0000
093b
cafe
3414
0000
0000
085f
cafe
380d
0000
0000
0887
cafe
3c1d
0000
0000
08a2
cafe
2005
0000
0000
0870
cafe
2415
0000
0000
08b2
cafe
280e
0000
0000
0963
cafe
2c1e
0000
0000
08a0
cafe
3006
0000
0000
08fc
cafe
3416
0000
0000
0883
cafe
380f
0000
0000
0933
cafe
3c1f
0000
0000
0915
cafe
2007
0000
0000
08c7
cafe
2417
0000
0000
08d1
cafe
2808
0000
0000
08cf
cafe
2c18
0000
0000
0922
cafe
3000
0000
0000
08b4
cafe
3410
0000
0000
091c
cafe
3809
0000
0000
0947
cafe
3c19
0000
0000
0918
cafe
2001
0000
0000
086b
cafe
2411
0000
0000
095e
cafe
280a
0000
0000
0888
cafe
2c1a
0000
0000
08c3
cafe
3002
0000
0000
0866
cafe
3412
0000
0000
09ff
cafe
380b
0000
0000
08cf
cafe
3c1b
0000
0000
086d
cafe
2003
0000
0000
08ed
cafe
2413
0000
0000
0803
cafe
280c
0000
0000
08f9
cafe
2c1c
0000
0000
089f
cafe
3004
0000
0000
096a
cafe
3414
0000
0000
0891
cafe
380d
0000
0000
08b5
-
cafe
3c1d
0000
0000
08cd
cafe
2005
0000
0000
0897
cafe
2415
0000
0000
08d9
cafe
280e
0000
0000
098f
cafe
2c1e
0000
0000
08c4
cafe
3006
0000
0000
0923
cafe
3416
0000
0000
08aa
cafe
380f
0000
0000
0951
cafe
3c1f
0000
0000
093c
cafe
2007
0000
0000
08ed
cafe
2417
0000
0000
08f8
cafe
2808
0000
0000
08eb
cafe
2c18
0000
0000
0940
cafe
3000
0000
0000
08d2
cafe
3410
0000
0000
093b
cafe
3809
0000
0000
0961
cafe
3c19
0000
0000
0930
cafe
2001
0000
0000
087e
cafe
2411
0000
0000
097b
cafe
280a
0000
0000
089e
cafe
2c1a
0000
0000
08d8
cafe
3002
0000
0000
0879
cafe
3412
0000
0000
0a17
cafe
380b
0000
0000
08df
cafe
3c1b
0000
0000
087d
cafe
2003
0000
0000
08fa
cafe
2413
0000
0000
081a
cafe
280c
0000
0000
0904
cafe
2c1c
0000
0000
08b2
cafe
3004
0000
0000
0981
cafe
3414
0000
0000
089d
cafe
380d
0000
0000
08bb
cafe
3c1d
0000
0000
08c9
cafe
2005
0000
0000
089c
cafe
2415
0000
0000
08e0
cafe
280e
0000
0000
0993
cafe
2c1e
0000
0000
08d2
cafe
3006
0000
0000
0927
cafe
3416
0000
0000
08b4
cafe
380f
0000
0000
095f
cafe
3c1f
0000
0000
093d
cafe
2007
0000
0000
08f6
cafe
2417
0000
0000
08fa
cafe
2808
0000
0000
08ed
cafe
2c18
0000
0000
0946
cafe
3000
0000
0000
08d4
cafe
3410
0000
0000
093f
cafe
3809
0000
0000
095f
cafe
3c19
0000
0000
092e
cafe
2001
0000
0000
087e
cafe
2411
0000
0000
097a
cafe
-
280a
0000
0000
089f
cafe
2c1a
0000
0000
08d7
cafe
3002
0000
0000
0877
cafe
3412
0000
0000
0a20
cafe
380b
0000
0000
08de
cafe
3c1b
0000
0000
087f
cafe
2003
0000
0000
08f9
cafe
2413
0000
0000
0816
cafe
280c
0000
0000
08f8
cafe
2c1c
0000
0000
08af
cafe
3004
0000
0000
0978
cafe
3414
0000
0000
0897
cafe
380d
0000
0000
08b1
cafe
3c1d
0000
0000
08c2
cafe
2005
0000
0000
0899
cafe
2415
0000
0000
08da
cafe
280e
0000
0000
098b
cafe
2c1e
0000
0000
08cf
cafe
3006
0000
0000
0920
cafe
3416
0000
0000
08ae
cafe
380f
0000
0000
0949
cafe
3c1f
0000
0000
0932
cafe
2007
0000
0000
08e8
cafe
2417
0000
0000
08e9
cafe
2808
0000
0000
08df
cafe
2c18
0000
0000
093d
cafe
3000
0000
0000
08ca
cafe
3410
0000
0000
0932
cafe
3809
0000
0000
0952
cafe
3c19
0000
0000
0921
cafe
2001
0000
0000
0870
cafe
2411
0000
0000
0971
cafe
280a
0000
0000
088e
cafe
2c1a
0000
0000
08cd
cafe
3002
0000
0000
086a
cafe
3412
0000
0000
0a17
cafe
380b
0000
0000
08d6
cafe
3c1b
0000
0000
0873
cafe
2003
0000
0000
08ed
cafe
2413
0000
0000
0805
cafe
280c
0000
0000
08f1
cafe
2c1c
0000
0000
089b
cafe
3004
0000
0000
096a
cafe
3414
0000
0000
0888
cafe
380d
0000
0000
08ab
cafe
3c1d
0000
0000
08b4
cafe
2005
0000
0000
0892
cafe
2415
0000
0000
08cf
cafe
280e
0000
0000
0982
cafe
2c1e
0000
0000
08c5
cafe
3006
0000
0000
0916
cafe
3416
-
0000
0000
08a2
cafe
380f
0000
0000
093c
cafe
3c1f
0000
0000
0923
cafe
2007
0000
0000
08db
cafe
2417
0000
0000
08d7
cafe
2808
0000
0000
08c8
cafe
2c18
0000
0000
0929
cafe
3000
0000
0000
08b9
cafe
3410
0000
0000
0923
cafe
3809
0000
0000
0940
cafe
3c19
0000
0000
090e
cafe
2001
0000
0000
0856
cafe
2411
0000
0000
0962
cafe
280a
0000
0000
0872
cafe
2c1a
0000
0000
08b3
cafe
3002
0000
0000
084a
cafe
3412
0000
0000
09fb
cafe
380b
0000
0000
08c2
cafe
3c1b
0000
0000
085c
cafe
2003
0000
0000
08d1
cafe
2413
0000
0000
07e6
cafe
280c
0000
0000
08e2
cafe
2c1c
0000
0000
088e
cafe
3004
0000
0000
0952
cafe
3414
0000
0000
0877
cafe
380d
0000
0000
0893
cafe
3c1d
0000
0000
08a6
cafe
2005
0000
0000
087d
cafe
2415
0000
0000
08bc
cafe
280e
0000
0000
0975
cafe
2c1e
0000
0000
08a7
cafe
3006
0000
0000
0905
cafe
3416
0000
0000
088a
cafe
380f
0000
0000
0925
cafe
3c1f
0000
0000
0910
cafe
2007
0000
0000
08ce
cafe
2417
0000
0000
08c1
cafe
2808
0000
0000
08b5
cafe
2c18
0000
0000
091b
cafe
3000
0000
0000
08a5
cafe
3410
0000
0000
0919
cafe
3809
0000
0000
0927
cafe
3c19
0000
0000
08fc
cafe
2001
0000
0000
083d
cafe
2411
0000
0000
0949
cafe
280a
0000
0000
085a
cafe
2c1a
0000
0000
089f
cafe
3002
0000
0000
0833
cafe
3412
0000
0000
09e7
cafe
380b
0000
0000
08a8
cafe
3c1b
0000
0000
0843
cafe
2003
0000
-
0000
08bb
cafe
2413
0000
0000
07cf
cafe
280c
0000
0000
08d2
cafe
2c1c
0000
0000
087d
cafe
3004
0000
0000
0939
cafe
3414
0000
0000
085f
cafe
380d
0000
0000
0877
cafe
3c1d
0000
0000
088e
cafe
2005
0000
0000
086e
cafe
2415
0000
0000
08a6
cafe
280e
0000
0000
0960
cafe
2c1e
0000
0000
0891
cafe
3006
0000
0000
08f0
cafe
3416
0000
0000
086f
cafe
380f
0000
0000
0911
cafe
3c1f
0000
0000
08fa
cafe
2007
0000
0000
08b8
cafe
2417
0000
0000
08ab
cafe
2808
0000
0000
08a0
cafe
2c18
0000
0000
0910
cafe
3000
0000
0000
088d
cafe
3410
0000
0000
090c
cafe
3809
0000
0000
0917
cafe
3c19
0000
0000
08e9
cafe
2001
0000
0000
0821
cafe
2411
0000
0000
0939
cafe
280a
0000
0000
0840
cafe
2c1a
0000
0000
0889
cafe
3002
0000
0000
081a
cafe
3412
0000
0000
09d5
cafe
380b
0000
0000
0897
cafe
3c1b
0000
0000
0827
cafe
2003
0000
0000
089f
cafe
2413
0000
0000
07bd
cafe
280c
0000
0000
08b9
cafe
2c1c
0000
0000
086a
cafe
3004
0000
0000
091c
cafe
3414
0000
0000
0846
cafe
380d
0000
0000
085d
cafe
3c1d
0000
0000
087a
cafe
2005
0000
0000
0855
cafe
2415
0000
0000
0891
cafe
280e
0000
0000
0946
cafe
2c1e
0000
0000
0879
cafe
3006
0000
0000
08db
cafe
3416
0000
0000
0857
cafe
380f
0000
0000
08f8
cafe
3c1f
0000
0000
08db
cafe
2007
0000
0000
089e
cafe
2417
0000
0000
0893
cafe
2808
0000
0000
088c
cafe
2c18
0000
0000
-
0901
cafe
3000
0000
0000
0876
cafe
3410
0000
0000
08fa
cafe
3809
0000
0000
0903
cafe
3c19
0000
0000
08d1
cafe
2001
0000
0000
0811
cafe
2411
0000
0000
0927
cafe
280a
0000
0000
082c
cafe
2c1a
0000
0000
0872
cafe
3002
0000
0000
0804
cafe
3412
0000
0000
09c6
cafe
380b
0000
0000
0885
cafe
3c1b
0000
0000
0807
cafe
2003
0000
0000
0887
cafe
2413
0000
0000
07a7
cafe
280c
0000
0000
08a3
cafe
2c1c
0000
0000
0853
cafe
3004
0000
0000
0907
cafe
3414
0000
0000
0837
cafe
380d
0000
0000
083f
cafe
3c1d
0000
0000
0862
cafe
2005
0000
0000
083e
cafe
2415
0000
0000
0873
cafe
280e
0000
0000
0928
cafe
2c1e
0000
0000
085e
cafe
3006
0000
0000
08c5
cafe
3416
0000
0000
083d
cafe
380f
0000
0000
08d8
cafe
3c1f
0000
0000
08c6
cafe
2007
0000
0000
0881
cafe
2417
0000
0000
086f
cafe
2808
0000
0000
0870
cafe
2c18
0000
0000
08e8
cafe
3000
0000
0000
0863
cafe
3410
0000
0000
08d7
cafe
3809
0000
0000
08e0
cafe
3c19
0000
0000
08b8
cafe
2001
0000
0000
07ef
cafe
2411
0000
0000
0912
cafe
280a
0000
0000
0816
cafe
2c1a
0000
0000
0855
cafe
3002
0000
0000
07ea
cafe
3412
0000
0000
09b1
cafe
380b
0000
0000
0864
cafe
3c1b
0000
0000
07eb
cafe
2003
0000
0000
086d
cafe
2413
0000
0000
078d
cafe
280c
0000
0000
0891
cafe
2c1c
0000
0000
083a
cafe
3004
0000
0000
08f0
cafe
3414
0000
0000
0820
cafe
380d
0000
0000
082a
-
cafe
3c1d
0000
0000
0846
cafe
2005
0000
0000
082b
cafe
2415
0000
0000
0857
cafe
280e
0000
0000
091e
cafe
2c1e
0000
0000
0847
cafe
3006
0000
0000
08b3
cafe
3416
0000
0000
0823
cafe
380f
0000
0000
08c3
cafe
3c1f
0000
0000
08b3
cafe
2007
0000
0000
086b
cafe
2417
0000
0000
085a
cafe
2808
0000
0000
085f
cafe
2c18
0000
0000
08d2
cafe
3000
0000
0000
0849
cafe
3410
0000
0000
08ba
cafe
3809
0000
0000
08cb
cafe
3c19
0000
0000
08a2
cafe
2001
0000
0000
07d4
cafe
2411
0000
0000
0900
cafe
280a
0000
0000
07f8
cafe
2c1a
0000
0000
083f
cafe
3002
0000
0000
07cb
cafe
3412
0000
0000
099d
cafe
380b
0000
0000
084d
cafe
3c1b
0000
0000
07d4
cafe
2003
0000
0000
0854
cafe
2413
0000
0000
0775
cafe
280c
0000
0000
0879
cafe
2c1c
0000
0000
0820
cafe
3004
0000
0000
08d9
cafe
3414
0000
0000
0805
cafe
380d
0000
0000
0819
cafe
3c1d
0000
0000
082d
cafe
2005
0000
0000
0812
cafe
2415
0000
0000
083e
cafe
280e
0000
0000
090f
cafe
2c1e
0000
0000
083b
cafe
3006
0000
0000
08a0
cafe
3416
0000
0000
0810
cafe
380f
0000
0000
08ad
cafe
3c1f
0000
0000
0892
cafe
2007
0000
0000
085a
cafe
2417
0000
0000
083c
cafe
2808
0000
0000
0847
cafe
2c18
0000
0000
08c2
cafe
3000
0000
0000
082c
cafe
3410
0000
0000
08a0
cafe
3809
0000
0000
08b1
cafe
3c19
0000
0000
088b
cafe
2001
0000
0000
07b7
cafe
2411
0000
0000
08e3
cafe
-
280a
0000
0000
07da
cafe
2c1a
0000
0000
0824
cafe
3002
0000
0000
07b2
cafe
3412
0000
0000
098f
cafe
380b
0000
0000
0832
cafe
3c1b
0000
0000
07bd
cafe
2003
0000
0000
0840
cafe
2413
0000
0000
075f
cafe
280c
0000
0000
0862
cafe
2c1c
0000
0000
080f
cafe
3004
0000
0000
08c1
cafe
3414
0000
0000
07ec
cafe
380d
0000
0000
07fe
cafe
3c1d
0000
0000
080f
cafe
2005
0000
0000
07ff
cafe
2415
0000
0000
0825
cafe
280e
0000
0000
08fe
cafe
2c1e
0000
0000
0820
cafe
3006
0000
0000
0886
cafe
3416
0000
0000
07f9
cafe
380f
0000
0000
089d
cafe
3c1f
0000
0000
087c
cafe
2007
0000
0000
0843
cafe
2417
0000
0000
081f
cafe
2808
0000
0000
082e
cafe
2c18
0000
0000
08b0
cafe
3000
0000
0000
0813
cafe
3410
0000
0000
088b
cafe
3809
0000
0000
089c
cafe
3c19
0000
0000
0877
cafe
2001
0000
0000
079e
cafe
2411
0000
0000
08d0
cafe
280a
0000
0000
07c3
cafe
2c1a
0000
0000
0810
cafe
3002
0000
0000
0796
cafe
3412
0000
0000
097c
cafe
380b
0000
0000
0821
cafe
3c1b
0000
0000
07a2
cafe
2003
0000
0000
0827
cafe
2413
0000
0000
074a
cafe
280c
0000
0000
0844
cafe
2c1c
0000
0000
07fc
cafe
3004
0000
0000
08a9
cafe
3414
0000
0000
07d5
cafe
380d
0000
0000
07e1
cafe
3c1d
0000
0000
07ef
cafe
2005
0000
0000
07e6
cafe
2415
0000
0000
0811
cafe
280e
0000
0000
08e9
cafe
2c1e
0000
0000
0811
cafe
3006
0000
0000
086e
cafe
3416
-
0000
0000
07db
cafe
380f
0000
0000
0887
cafe
3c1f
0000
0000
0864
cafe
2007
0000
0000
082e
cafe
2417
0000
0000
080c
cafe
2808
0000
0000
0814
cafe
2c18
0000
0000
0894
cafe
3000
0000
0000
07fc
cafe
3410
0000
0000
0877
cafe
3809
0000
0000
0889
cafe
3c19
0000
0000
0864
cafe
2001
0000
0000
0785
cafe
2411
0000
0000
08bc
cafe
280a
0000
0000
07ad
cafe
2c1a
0000
0000
07f9
cafe
3002
0000
0000
0774
cafe
3412
0000
0000
0968
cafe
380b
0000
0000
0809
cafe
3c1b
0000
0000
0793
cafe
2003
0000
0000
0815
cafe
2413
0000
0000
0732
cafe
280c
0000
0000
082b
cafe
2c1c
0000
0000
07e6
cafe
3004
0000
0000
088e
cafe
3414
0000
0000
07c5
cafe
380d
0000
0000
07c6
cafe
3c1d
0000
0000
07da
cafe
2005
0000
0000
07d2
cafe
2415
0000
0000
07f6
cafe
280e
0000
0000
08d3
cafe
2c1e
0000
0000
07f6
cafe
3006
0000
0000
0856
cafe
3416
0000
0000
07be
cafe
380f
0000
0000
086a
cafe
3c1f
0000
0000
0854
cafe
2007
0000
0000
081e
cafe
2417
0000
0000
07f5
cafe
2808
0000
0000
07f9
cafe
2c18
0000
0000
0878
cafe
3000
0000
0000
07df
cafe
3410
0000
0000
085f
cafe
3809
0000
0000
0873
cafe
3c19
0000
0000
084f
cafe
2001
0000
0000
0767
cafe
2411
0000
0000
08a7
cafe
280a
0000
0000
0792
cafe
2c1a
0000
0000
07e6
cafe
3002
0000
0000
0759
cafe
3412
0000
0000
094f
cafe
380b
0000
0000
07f0
cafe
3c1b
0000
0000
0773
cafe
2003
0000
-
0000
07fe
cafe
2413
0000
0000
071d
cafe
280c
0000
0000
0814
cafe
2c1c
0000
0000
07c9
cafe
3004
0000
0000
087c
cafe
3414
0000
0000
07ad
cafe
380d
0000
0000
07ad
cafe
3c1d
0000
0000
07c3
cafe
2005
0000
0000
07c1
cafe
2415
0000
0000
07e0
cafe
280e
0000
0000
08bc
cafe
2c1e
0000
0000
07e0
cafe
3006
0000
0000
083d
cafe
3416
0000
0000
07a3
cafe
380f
0000
0000
0858
cafe
3c1f
0000
0000
083d
cafe
2007
0000
0000
080b
cafe
2417
0000
0000
07dc
cafe
2808
0000
0000
07df
cafe
2c18
0000
0000
0862
cafe
3000
0000
0000
07cc
cafe
3410
0000
0000
0849
cafe
3809
0000
0000
085d
cafe
3c19
0000
0000
0837
cafe
2001
0000
0000
0750
cafe
2411
0000
0000
088c
cafe
280a
0000
0000
077a
cafe
2c1a
0000
0000
07cf
cafe
3002
0000
0000
073a
cafe
3412
0000
0000
0934
cafe
380b
0000
0000
07d3
cafe
3c1b
0000
0000
075a
cafe
2003
0000
0000
07e7
cafe
2413
0000
0000
0702
cafe
280c
0000
0000
07f9
cafe
2c1c
0000
0000
07b4
cafe
3004
0000
0000
0866
cafe
3414
0000
0000
0799
cafe
380d
0000
0000
079c
cafe
3c1d
0000
0000
07ad
cafe
2005
0000
0000
07ad
cafe
2415
0000
0000
07cf
cafe
280e
0000
0000
08ae
cafe
2c1e
0000
0000
07c7
cafe
3006
0000
0000
0823
cafe
3416
0000
0000
0792
cafe
380f
0000
0000
0845
cafe
3c1f
0000
0000
0826
cafe
2007
0000
0000
07f8
cafe
2417
0000
0000
07ca
cafe
2808
0000
0000
07c9
cafe
2c18
0000
0000
-
0851
cafe
3000
0000
0000
07b6
cafe
3410
0000
0000
0832
cafe
3809
0000
0000
0844
cafe
3c19
0000
0000
081e
cafe
2001
0000
0000
0736
cafe
2411
0000
0000
0874
cafe
280a
0000
0000
0760
cafe
2c1a
0000
0000
07b3
cafe
3002
0000
0000
0724
cafe
3412
0000
0000
0923
cafe
380b
0000
0000
07ba
cafe
3c1b
0000
0000
0747
cafe
2003
0000
0000
07c9
cafe
2413
0000
0000
06ec
cafe
280c
0000
0000
07e6
cafe
2c1c
0000
0000
079d
cafe
3004
0000
0000
0850
cafe
3414
0000
0000
077d
cafe
380d
0000
0000
077f
cafe
3c1d
0000
0000
078f
cafe
2005
0000
0000
079b
cafe
2415
0000
0000
07b3
cafe
280e
0000
0000
0897
cafe
2c1e
0000
0000
07b0
cafe
3006
0000
0000
0819
cafe
3416
0000
0000
077d
cafe
380f
0000
0000
082d
cafe
3c1f
0000
0000
080c
cafe
2007
0000
0000
07df
cafe
2417
0000
0000
07ad
cafe
2808
0000
0000
07b2
cafe
2c18
0000
0000
0839
cafe
3000
0000
0000
07a7
cafe
3410
0000
0000
0821
cafe
3809
0000
0000
0833
cafe
3c19
0000
0000
0808
cafe
2001
0000
0000
071c
cafe
2411
0000
0000
085d
cafe
280a
0000
0000
074d
cafe
2c1a
0000
0000
079f
cafe
3002
0000
0000
070b
cafe
3412
0000
0000
090e
cafe
380b
0000
0000
07a2
cafe
3c1b
0000
0000
0732
cafe
2003
0000
0000
07b0
cafe
2413
0000
0000
06d9
cafe
280c
0000
0000
07ce
cafe
2c1c
0000
0000
0784
cafe
3004
0000
0000
0835
cafe
3414
0000
0000
0763
cafe
380d
0000
0000
0767
-
cafe
3c1d
0000
0000
0778
cafe
2005
0000
0000
0788
cafe
2415
0000
0000
079b
cafe
280e
0000
0000
087f
cafe
2c1e
0000
0000
0799
cafe
3006
0000
0000
07fe
cafe
3416
0000
0000
0766
cafe
380f
0000
0000
0813
cafe
3c1f
0000
0000
07f6
cafe
2007
0000
0000
07c5
cafe
2417
0000
0000
078e
cafe
2808
0000
0000
079b
cafe
2c18
0000
0000
0827
cafe
3000
0000
0000
0795
cafe
3410
0000
0000
080b
cafe
3809
0000
0000
0822
cafe
3c19
0000
0000
07f0
cafe
2001
0000
0000
0709
cafe
2411
0000
0000
0850
cafe
280a
0000
0000
0739
cafe
2c1a
0000
0000
078c
cafe
3002
0000
0000
06f1
cafe
3412
0000
0000
08fb
cafe
380b
0000
0000
078e
cafe
3c1b
0000
0000
071d
cafe
2003
0000
0000
0793
cafe
2413
0000
0000
06bd
cafe
280c
0000
0000
07bf
cafe
2c1c
0000
0000
0767
cafe
3004
0000
0000
081f
cafe
3414
0000
0000
0759
cafe
380d
0000
0000
0753
cafe
3c1d
0000
0000
0768
cafe
2005
0000
0000
0771
cafe
2415
0000
0000
0787
cafe
280e
0000
0000
086e
cafe
2c1e
0000
0000
078e
cafe
3006
0000
0000
07f0
cafe
3416
0000
0000
0751
cafe
380f
0000
0000
07f7
cafe
3c1f
0000
0000
07db
cafe
2007
0000
0000
07a7
cafe
2417
0000
0000
0771
cafe
2808
0000
0000
077f
cafe
2c18
0000
0000
080c
cafe
3000
0000
0000
077d
cafe
3410
0000
0000
07f1
cafe
3809
0000
0000
080d
cafe
3c19
0000
0000
07df
cafe
2001
0000
0000
06f3
cafe
2411
0000
0000
0835
cafe
-
280a
0000
0000
071b
cafe
2c1a
0000
0000
0772
cafe
3002
0000
0000
06d8
cafe
3412
0000
0000
08e6
cafe
380b
0000
0000
0773
cafe
3c1b
0000
0000
0705
cafe
2003
0000
0000
0781
cafe
2413
0000
0000
06a2
cafe
280c
0000
0000
07ab
cafe
2c1c
0000
0000
0755
cafe
3004
0000
0000
0803
cafe
3414
0000
0000
073c
cafe
380d
0000
0000
073b
cafe
3c1d
0000
0000
074f
cafe
2005
0000
0000
0759
cafe
2415
0000
0000
0771
cafe
280e
0000
0000
0862
cafe
2c1e
0000
0000
0778
cafe
3006
0000
0000
07e2
cafe
3416
0000
0000
0739
cafe
380f
0000
0000
07e4
cafe
3c1f
0000
0000
07c9
cafe
2007
0000
0000
0792
cafe
2417
0000
0000
075b
cafe
2808
0000
0000
0767
cafe
2c18
0000
0000
07fc
cafe
3000
0000
0000
076c
cafe
3410
0000
0000
07e3
cafe
3809
0000
0000
07f7
cafe
3c19
0000
0000
07c6
cafe
2001
0000
0000
06d8
cafe
2411
0000
0000
0823
cafe
280a
0000
0000
06ff
cafe
2c1a
0000
0000
075d
cafe
3002
0000
0000
06bf
cafe
3412
0000
0000
08d0
cafe
380b
0000
0000
0763
cafe
3c1b
0000
0000
06ef
cafe
2003
0000
0000
0767
cafe
2413
0000
0000
068a
cafe
280c
0000
0000
079b
cafe
2c1c
0000
0000
0743
cafe
3004
0000
0000
07f0
cafe
3414
0000
0000
0729
cafe
380d
0000
0000
0722
cafe
3c1d
0000
0000
0738
cafe
2005
0000
0000
0749
cafe
2415
0000
0000
075c
cafe
280e
0000
0000
084d
cafe
2c1e
0000
0000
0761
cafe
3006
0000
0000
07d0
cafe
3416
-
0000
0000
0722
cafe
380f
0000
0000
07d1
cafe
3c1f
0000
0000
07b1
cafe
2007
0000
0000
077f
cafe
2417
0000
0000
0746
cafe
2808
0000
0000
074e
cafe
2c18
0000
0000
07e4
cafe
3000
0000
0000
0752
cafe
3410
0000
0000
07ce
cafe
3809
0000
0000
07e1
cafe
3c19
0000
0000
07b4
cafe
2001
0000
0000
06be
cafe
2411
0000
0000
0811
cafe
280a
0000
0000
06ed
cafe
2c1a
0000
0000
0746
cafe
3002
0000
0000
06ac
cafe
3412
0000
0000
08bd
cafe
380b
0000
0000
0749
cafe
3c1b
0000
0000
06d6
cafe
2003
0000
0000
0751
cafe
2413
0000
0000
066e
cafe
280c
0000
0000
0783
cafe
2c1c
0000
0000
0727
cafe
3004
0000
0000
07db
cafe
3414
0000
0000
0714
cafe
380d
0000
0000
070a
cafe
3c1d
0000
0000
071d
cafe
2005
0000
0000
072d
cafe
2415
0000
0000
0746
cafe
280e
0000
0000
083e
cafe
2c1e
0000
0000
074e
cafe
3006
0000
0000
07bc
cafe
3416
0000
0000
070d
cafe
380f
0000
0000
07b8
cafe
3c1f
0000
0000
079b
cafe
2007
0000
0000
076d
cafe
2417
0000
0000
0731
cafe
2808
0000
0000
0733
cafe
2c18
0000
0000
07d8
cafe
3000
0000
0000
0745
cafe
3410
0000
0000
07be
cafe
3809
0000
0000
07cf
cafe
3c19
0000
0000
079a
cafe
2001
0000
0000
06aa
cafe
2411
0000
0000
07fb
cafe
280a
0000
0000
06d5
cafe
2c1a
0000
0000
072f
cafe
3002
0000
0000
0695
cafe
3412
0000
0000
08a7
cafe
380b
0000
0000
0733
cafe
3c1b
0000
0000
06bd
cafe
2003
0000
-
0000
073a
cafe
2413
0000
0000
065c
cafe
280c
0000
0000
076a
cafe
2c1c
0000
0000
070d
cafe
3004
0000
0000
07c2
cafe
3414
0000
0000
06f9
cafe
380d
0000
0000
06f3
cafe
3c1d
0000
0000
070b
cafe
2005
0000
0000
0715
cafe
2415
0000
0000
0734
cafe
280e
0000
0000
082c
cafe
2c1e
0000
0000
073c
cafe
3006
0000
0000
07a3
cafe
3416
0000
0000
06f4
cafe
380f
0000
0000
07a0
cafe
3c1f
0000
0000
0782
cafe
2007
0000
0000
0756
cafe
2417
0000
0000
0718
cafe
2808
0000
0000
071c
cafe
2c18
0000
0000
07ca
cafe
3000
0000
0000
072a
cafe
3410
0000
0000
07a8
cafe
3809
0000
0000
07bc
cafe
3c19
0000
0000
0782
cafe
2001
0000
0000
0694
cafe
2411
0000
0000
07e9
cafe
280a
0000
0000
06c1
cafe
2c1a
0000
0000
0716
cafe
3002
0000
0000
067f
cafe
3412
0000
0000
089c
cafe
380b
0000
0000
0728
cafe
3c1b
0000
0000
06a4
cafe
2003
0000
0000
0726
cafe
2413
0000
0000
064c
cafe
280c
0000
0000
075d
cafe
2c1c
0000
0000
06f7
cafe
3004
0000
0000
07b2
cafe
3414
0000
0000
06e8
cafe
380d
0000
0000
06e3
cafe
3c1d
0000
0000
06fc
cafe
2005
0000
0000
0702
cafe
2415
0000
0000
0721
cafe
280e
0000
0000
0814
cafe
2c1e
0000
0000
072c
cafe
3006
0000
0000
0792
cafe
3416
0000
0000
06dd
cafe
380f
0000
0000
0786
cafe
3c1f
0000
0000
0771
cafe
2007
0000
0000
073a
cafe
2417
0000
0000
0701
cafe
2808
0000
0000
0700
cafe
2c18
0000
0000
-
07b3
cafe
3000
0000
0000
0716
cafe
3410
0000
0000
078e
cafe
3809
0000
0000
07a9
cafe
3c19
0000
0000
0771
cafe
2001
0000
0000
0675
cafe
2411
0000
0000
07d1
cafe
280a
0000
0000
06a2
cafe
2c1a
0000
0000
0706
cafe
3002
0000
0000
066d
cafe
3412
0000
0000
0882
cafe
380b
0000
0000
070e
cafe
3c1b
0000
0000
068d
cafe
2003
0000
0000
0712
cafe
2413
0000
0000
0635
cafe
280c
0000
0000
0746
cafe
2c1c
0000
0000
06d4
cafe
3004
0000
0000
07a1
cafe
3414
0000
0000
06d2
cafe
380d
0000
0000
06c7
cafe
3c1d
0000
0000
06e9
cafe
2005
0000
0000
06e6
cafe
2415
0000
0000
0707
cafe
280e
0000
0000
0805
cafe
2c1e
0000
0000
0717
cafe
3006
0000
0000
0780
cafe
3416
0000
0000
06cb
cafe
380f
0000
0000
0773
cafe
3c1f
0000
0000
075b
cafe
2007
0000
0000
0729
cafe
2417
0000
0000
06e3
cafe
2808
0000
0000
06eb
cafe
2c18
0000
0000
07a3
cafe
3000
0000
0000
06fe
cafe
3410
0000
0000
0779
cafe
3809
0000
0000
079b
cafe
3c19
0000
0000
075c
cafe
2001
0000
0000
0660
cafe
2411
0000
0000
07c7
cafe
280a
0000
0000
0692
cafe
2c1a
0000
0000
06eb
cafe
3002
0000
0000
0659
cafe
3412
0000
0000
0871
cafe
380b
0000
0000
06fb
cafe
3c1b
0000
0000
0679
cafe
2003
0000
0000
06fb
cafe
2413
0000
0000
061e
cafe
280c
0000
0000
0732
cafe
2c1c
0000
0000
06c0
cafe
3004
0000
0000
078a
cafe
3414
0000
0000
06c7
cafe
380d
0000
0000
06b2
-
cafe
3c1d
0000
0000
06d0
cafe
2005
0000
0000
06cd
cafe
2415
0000
0000
06f0
cafe
280e
0000
0000
07f4
cafe
2c1e
0000
0000
0707
cafe
3006
0000
0000
0766
cafe
3416
0000
0000
06b5
cafe
380f
0000
0000
0767
cafe
3c1f
0000
0000
0745
cafe
2007
0000
0000
0717
cafe
2417
0000
0000
06cb
cafe
2808
0000
0000
06d3
cafe
2c18
0000
0000
0792
cafe
3000
0000
0000
06e3
cafe
3410
0000
0000
0764
cafe
3809
0000
0000
0784
cafe
3c19
0000
0000
0744
cafe
2001
0000
0000
0648
cafe
2411
0000
0000
07b1
cafe
280a
0000
0000
0678
cafe
2c1a
0000
0000
06d9
cafe
3002
0000
0000
0644
cafe
3412
0000
0000
085e
cafe
380b
0000
0000
06e0
cafe
3c1b
0000
0000
065e
cafe
2003
0000
0000
06e8
cafe
2413
0000
0000
0609
cafe
280c
0000
0000
0720
cafe
2c1c
0000
0000
06ab
cafe
3004
0000
0000
077a
cafe
3414
0000
0000
06b1
cafe
380d
0000
0000
0691
cafe
3c1d
0000
0000
06b9
cafe
2005
0000
0000
06b1
cafe
2415
0000
0000
06e0
cafe
280e
0000
0000
07e5
cafe
2c1e
0000
0000
06ef
cafe
3006
0000
0000
074f
cafe
3416
0000
0000
06a3
cafe
380f
0000
0000
0757
cafe
3c1f
0000
0000
0733
cafe
2007
0000
0000
0709
cafe
2417
0000
0000
06b2
cafe
2808
0000
0000
06ba
cafe
2c18
0000
0000
0783
cafe
3000
0000
0000
06d7
cafe
3410
0000
0000
0754
cafe
3809
0000
0000
0777
cafe
3c19
0000
0000
0727
cafe
2001
0000
0000
0633
cafe
2411
0000
0000
079c
cafe
-
280a
0000
0000
065f
cafe
2c1a
0000
0000
06c6
cafe
3002
0000
0000
062d
cafe
3412
0000
0000
0850
cafe
380b
0000
0000
06d0
cafe
3c1b
0000
0000
0648
cafe
2003
0000
0000
06d5
cafe
2413
0000
0000
05ef
cafe
280c
0000
0000
070b
cafe
2c1c
0000
0000
0695
cafe
3004
0000
0000
076e
cafe
3414
0000
0000
0699
cafe
380d
0000
0000
067f
cafe
3c1d
0000
0000
06a5
cafe
2005
0000
0000
0695
cafe
2415
0000
0000
06c4
cafe
280e
0000
0000
07d2
cafe
2c1e
0000
0000
06d7
cafe
3006
0000
0000
0738
cafe
3416
0000
0000
068e
cafe
380f
0000
0000
0740
cafe
3c1f
0000
0000
0720
cafe
2007
0000
0000
06f2
cafe
2417
0000
0000
06a3
cafe
2808
0000
0000
06a9
cafe
2c18
0000
0000
076e
cafe
3000
0000
0000
06ba
cafe
3410
0000
0000
0748
cafe
3809
0000
0000
0763
cafe
3c19
0000
0000
0714
cafe
2001
0000
0000
061f
cafe
2411
0000
0000
078f
cafe
280a
0000
0000
0646
cafe
2c1a
0000
0000
06b1
cafe
3002
0000
0000
061a
cafe
3412
0000
0000
0841
cafe
380b
0000
0000
06c0
cafe
3c1b
0000
0000
063a
cafe
2003
0000
0000
06c4
cafe
2413
0000
0000
05df
cafe
280c
0000
0000
06f9
cafe
2c1c
0000
0000
067f
cafe
3004
0000
0000
0759
cafe
3414
0000
0000
0689
cafe
380d
0000
0000
066c
cafe
3c1d
0000
0000
068a
cafe
2005
0000
0000
0683
cafe
2415
0000
0000
06b0
cafe
280e
0000
0000
07be
cafe
2c1e
0000
0000
06cc
cafe
3006
0000
0000
0731
cafe
3416
-
0000
0000
0673
cafe
380f
0000
0000
072c
cafe
3c1f
0000
0000
0708
cafe
2007
0000
0000
06db
cafe
2417
0000
0000
068c
cafe
2808
0000
0000
0697
cafe
2c18
0000
0000
0758
cafe
3000
0000
0000
06a9
cafe
3410
0000
0000
072e
cafe
3809
0000
0000
0748
cafe
3c19
0000
0000
0705
cafe
2001
0000
0000
0608
cafe
2411
0000
0000
077f
cafe
280a
0000
0000
062f
cafe
2c1a
0000
0000
069d
cafe
3002
0000
0000
05fd
cafe
3412
0000
0000
082f
cafe
380b
0000
0000
06a6
cafe
3c1b
0000
0000
0627
cafe
2003
0000
0000
06a9
cafe
2413
0000
0000
05c8
cafe
280c
0000
0000
06e6
cafe
2c1c
0000
0000
0668
cafe
3004
0000
0000
0741
cafe
3414
0000
0000
0677
cafe
380d
0000
0000
065d
cafe
3c1d
0000
0000
066f
cafe
2005
0000
0000
0675
cafe
2415
0000
0000
0697
cafe
280e
0000
0000
07ac
cafe
2c1e
0000
0000
06b4
cafe
3006
0000
0000
071d
cafe
3416
0000
0000
065d
cafe
380f
0000
0000
0719
cafe
3c1f
0000
0000
06f2
cafe
2007
0000
0000
06c2
cafe
2417
0000
0000
067c
cafe
2808
0000
0000
0684
cafe
2c18
0000
0000
0749
cafe
3000
0000
0000
0693
cafe
3410
0000
0000
0717
cafe
3809
0000
0000
0736
cafe
3c19
0000
0000
06ea
cafe
2001
0000
0000
05fc
cafe
2411
0000
0000
076c
cafe
280a
0000
0000
061c
cafe
2c1a
0000
0000
0688
cafe
3002
0000
0000
05e8
cafe
3412
0000
0000
0818
cafe
380b
0000
0000
0695
cafe
3c1b
0000
0000
060e
cafe
2003
0000
-
0000
0697
cafe
2413
0000
0000
05b7
cafe
280c
0000
0000
06ce
cafe
2c1c
0000
0000
065a
cafe
3004
0000
0000
072b
cafe
3414
0000
0000
065f
cafe
380d
0000
0000
0647
cafe
3c1d
0000
0000
065c
cafe
2005
0000
0000
065e
cafe
2415
0000
0000
0681
cafe
280e
0000
0000
0799
cafe
2c1e
0000
0000
069f
cafe
3006
0000
0000
070c
cafe
3416
0000
0000
0640
cafe
380f
0000
0000
070b
cafe
3c1f
0000
0000
06da
cafe
2007
0000
0000
06ab
cafe
2417
0000
0000
066a
cafe
2808
0000
0000
066e
cafe
2c18
0000
0000
0738
cafe
3000
0000
0000
067a
cafe
3410
0000
0000
0703
cafe
3809
0000
0000
071e
cafe
3c19
0000
0000
06d9
cafe
2001
0000
0000
05d6
cafe
2411
0000
0000
075d
cafe
280a
0000
0000
0607
cafe
2c1a
0000
0000
0677
cafe
3002
0000
0000
05d2
cafe
3412
0000
0000
080b
cafe
380b
0000
0000
0684
cafe
3c1b
0000
0000
05f5
cafe
2003
0000
0000
0685
cafe
2413
0000
0000
059b
cafe
280c
0000
0000
06bb
cafe
2c1c
0000
0000
064b
cafe
3004
0000
0000
0713
cafe
3414
0000
0000
0645
cafe
380d
0000
0000
0627
cafe
3c1d
0000
0000
0645
cafe
2005
0000
0000
0649
cafe
2415
0000
0000
066d
cafe
280e
0000
0000
0786
cafe
2c1e
0000
0000
068e
cafe
3006
0000
0000
06f9
cafe
3416
0000
0000
062d
cafe
380f
0000
0000
06f5
cafe
3c1f
0000
0000
06be
cafe
2007
0000
0000
0693
cafe
2417
0000
0000
0655
cafe
2808
0000
0000
065a
cafe
2c18
0000
0000
-
0725
cafe
3000
0000
0000
0671
cafe
3410
0000
0000
06f2
cafe
3809
0000
0000
0712
cafe
3c19
0000
0000
06c9
cafe
2001
0000
0000
05c4
cafe
2411
0000
0000
0748
cafe
280a
0000
0000
05f4
cafe
2c1a
0000
0000
066b
cafe
3002
0000
0000
05bb
cafe
3412
0000
0000
07f9
cafe
380b
0000
0000
066e
cafe
3c1b
0000
0000
05d6
cafe
2003
0000
0000
0666
cafe
2413
0000
0000
0589
cafe
280c
0000
0000
06a7
cafe
2c1c
0000
0000
0637
cafe
3004
0000
0000
06ff
cafe
3414
0000
0000
062f
cafe
380d
0000
0000
060f
cafe
3c1d
0000
0000
062c
cafe
2005
0000
0000
0639
cafe
2415
0000
0000
0658
cafe
280e
0000
0000
0772
cafe
2c1e
0000
0000
0677
cafe
3006
0000
0000
06e0
cafe
3416
0000
0000
061d
cafe
380f
0000
0000
06e4
cafe
3c1f
0000
0000
06ab
cafe
2007
0000
0000
0684
cafe
2417
0000
0000
0641
cafe
2808
0000
0000
0646
cafe
2c18
0000
0000
0715
cafe
3000
0000
0000
0661
cafe
3410
0000
0000
06e1
cafe
3809
0000
0000
06fc
cafe
3c19
0000
0000
06b8
cafe
2001
0000
0000
05a5
cafe
2411
0000
0000
0735
cafe
280a
0000
0000
05e0
cafe
2c1a
0000
0000
0656
cafe
3002
0000
0000
05a7
cafe
3412
0000
0000
07e0
cafe
380b
0000
0000
0662
cafe
3c1b
0000
0000
05be
cafe
2003
0000
0000
0659
cafe
2413
0000
0000
0577
cafe
280c
0000
0000
069b
cafe
2c1c
0000
0000
061f
cafe
3004
0000
0000
06ed
cafe
3414
0000
0000
0622
cafe
380d
0000
0000
05f8
-
cafe
3c1d
0000
0000
0621
cafe
2005
0000
0000
0624
cafe
2415
0000
0000
0643
cafe
280e
0000
0000
0762
cafe
2c1e
0000
0000
0664
cafe
3006
0000
0000
06c9
cafe
3416
0000
0000
060e
cafe
380f
0000
0000
06d2
cafe
3c1f
0000
0000
0697
cafe
2007
0000
0000
0675
cafe
2417
0000
0000
062a
cafe
2808
0000
0000
0630
cafe
2c18
0000
0000
0704
cafe
3000
0000
0000
064a
cafe
3410
0000
0000
06ce
cafe
3809
0000
0000
06e3
cafe
3c19
0000
0000
06a8
cafe
2001
0000
0000
058f
cafe
2411
0000
0000
071f
cafe
280a
0000
0000
05ca
cafe
2c1a
0000
0000
063a
cafe
3002
0000
0000
0593
cafe
3412
0000
0000
07d2
cafe
380b
0000
0000
064a
cafe
3c1b
0000
0000
05ae
cafe
2003
0000
0000
0645
cafe
2413
0000
0000
0562
cafe
280c
0000
0000
0689
cafe
2c1c
0000
0000
060f
cafe
3004
0000
0000
06da
cafe
3414
0000
0000
0610
cafe
380d
0000
0000
05e9
cafe
3c1d
0000
0000
060f
cafe
2005
0000
0000
060f
cafe
2415
0000
0000
0629
cafe
280e
0000
0000
0748
cafe
2c1e
0000
0000
064c
cafe
3006
0000
0000
06bb
cafe
3416
0000
0000
05ee
cafe
380f
0000
0000
06b9
cafe
3c1f
0000
0000
0688
cafe
2007
0000
0000
065e
cafe
2417
0000
0000
0613
cafe
2808
0000
0000
0618
cafe
2c18
0000
0000
06f4
cafe
3000
0000
0000
0631
cafe
3410
0000
0000
06b9
cafe
3809
0000
0000
06d2
cafe
3c19
0000
0000
0693
cafe
2001
0000
0000
0584
cafe
2411
0000
0000
0708
cafe
-
280a
0000
0000
05b5
cafe
2c1a
0000
0000
062d
cafe
3002
0000
0000
0581
cafe
3412
0000
0000
07bb
cafe
380b
0000
0000
062c
cafe
3c1b
0000
0000
0596
cafe
2003
0000
0000
062a
cafe
2413
0000
0000
054c
cafe
280c
0000
0000
0671
cafe
2c1c
0000
0000
05f9
cafe
3004
0000
0000
06c9
cafe
3414
0000
0000
0605
cafe
380d
0000
0000
05db
cafe
3c1d
0000
0000
05fc
cafe
2005
0000
0000
05f8
cafe
2415
0000
0000
0618
cafe
280e
0000
0000
0740
cafe
2c1e
0000
0000
063c
cafe
3006
0000
0000
06a6
cafe
3416
0000
0000
05dc
cafe
380f
0000
0000
06ae
cafe
3c1f
0000
0000
0674
cafe
2007
0000
0000
0649
cafe
2417
0000
0000
0600
cafe
2808
0000
0000
060c
cafe
2c18
0000
0000
06dd
cafe
3000
0000
0000
0621
cafe
3410
0000
0000
06a7
cafe
3809
0000
0000
06ba
cafe
3c19
0000
0000
0686
cafe
2001
0000
0000
056b
cafe
2411
0000
0000
06f1
cafe
280a
0000
0000
05a5
cafe
2c1a
0000
0000
0613
cafe
3002
0000
0000
0564
cafe
3412
0000
0000
07ae
cafe
380b
0000
0000
0616
cafe
3c1b
0000
0000
0582
cafe
2003
0000
0000
0615
cafe
2413
0000
0000
052f
cafe
280c
0000
0000
0658
cafe
2c1c
0000
0000
05e2
cafe
3004
0000
0000
06b7
cafe
3414
0000
0000
05ef
cafe
380d
0000
0000
05c4
cafe
3c1d
0000
0000
05eb
cafe
2005
0000
0000
05e6
cafe
2415
0000
0000
0605
cafe
280e
0000
0000
0730
cafe
2c1e
0000
0000
061f
cafe
3006
0000
0000
0691
cafe
3416
-
0000
0000
05c5
cafe
380f
0000
0000
069a
cafe
3c1f
0000
0000
066a
cafe
2007
0000
0000
0637
cafe
2417
0000
0000
05ef
cafe
2808
0000
0000
05f5
cafe
2c18
0000
0000
06ca
cafe
3000
0000
0000
060f
cafe
3410
0000
0000
0694
cafe
3809
0000
0000
06ac
cafe
3c19
0000
0000
066c
cafe
2001
0000
0000
0558
cafe
2411
0000
0000
06dd
cafe
280a
0000
0000
0593
cafe
2c1a
0000
0000
05fc
cafe
3002
0000
0000
0551
cafe
3412
0000
0000
079b
cafe
380b
0000
0000
0605
cafe
3c1b
0000
0000
0573
cafe
2003
0000
0000
0606
cafe
2413
0000
0000
051f
cafe
280c
0000
0000
0646
cafe
2c1c
0000
0000
05d2
cafe
3004
0000
0000
06a9
cafe
3414
0000
0000
05dd
cafe
380d
0000
0000
05b7
cafe
3c1d
0000
0000
05d1
cafe
2005
0000
0000
05d0
cafe
2415
0000
0000
05f0
cafe
280e
0000
0000
071a
cafe
2c1e
0000
0000
060f
cafe
3006
0000
0000
0684
cafe
3416
0000
0000
05b1
cafe
380f
0000
0000
068d
cafe
3c1f
0000
0000
0659
cafe
2007
0000
0000
0627
cafe
2417
0000
0000
05e0
cafe
2808
0000
0000
05de
cafe
2c18
0000
0000
06b9
cafe
3000
0000
0000
05f9
cafe
3410
0000
0000
0682
cafe
3809
0000
0000
06a0
cafe
3c19
0000
0000
0653
cafe
2001
0000
0000
0548
cafe
2411
0000
0000
06d0
cafe
280a
0000
0000
0581
cafe
2c1a
0000
0000
05ec
cafe
3002
0000
0000
053c
cafe
3412
0000
0000
078f
cafe
380b
0000
0000
05f8
cafe
3c1b
0000
0000
055c
cafe
2003
0000
-
0000
05f1
cafe
2413
0000
0000
050b
cafe
280c
0000
0000
062d
cafe
2c1c
0000
0000
05bc
cafe
3004
0000
0000
0698
cafe
3414
0000
0000
05ca
cafe
380d
0000
0000
059d
cafe
3c1d
0000
0000
05be
cafe
2005
0000
0000
05c1
cafe
2415
0000
0000
05dc
cafe
280e
0000
0000
0705
cafe
2c1e
0000
0000
0604
cafe
3006
0000
0000
0671
cafe
3416
0000
0000
059c
cafe
380f
0000
0000
0678
cafe
3c1f
0000
0000
063b
cafe
2007
0000
0000
0615
cafe
2417
0000
0000
05c9
cafe
2808
0000
0000
05ca
cafe
2c18
0000
0000
06a7
cafe
3000
0000
0000
05e2
cafe
3410
0000
0000
0672
cafe
3809
0000
0000
068d
cafe
3c19
0000
0000
0641
cafe
2001
0000
0000
052e
cafe
2411
0000
0000
06c1
cafe
280a
0000
0000
0571
cafe
2c1a
0000
0000
05db
cafe
3002
0000
0000
0528
cafe
3412
0000
0000
0780
cafe
380b
0000
0000
05e7
cafe
3c1b
0000
0000
054d
cafe
2003
0000
0000
05e0
cafe
2413
0000
0000
04fc
cafe
280c
0000
0000
061a
cafe
2c1c
0000
0000
05a9
cafe
3004
0000
0000
0685
cafe
3414
0000
0000
05b5
cafe
380d
0000
0000
058c
cafe
3c1d
0000
0000
05ac
cafe
2005
0000
0000
05aa
cafe
2415
0000
0000
05d1
cafe
280e
0000
0000
06fc
cafe
2c1e
0000
0000
05ed
cafe
3006
0000
0000
0662
cafe
3416
0000
0000
058b
cafe
380f
0000
0000
0669
cafe
3c1f
0000
0000
061d
cafe
2007
0000
0000
05fc
cafe
2417
0000
0000
05b6
cafe
2808
0000
0000
05b6
cafe
2c18
0000
0000
-
068f
cafe
3000
0000
0000
05c8
cafe
3410
0000
0000
065b
cafe
3809
0000
0000
0672
cafe
3c19
0000
0000
062e
cafe
2001
0000
0000
0511
cafe
2411
0000
0000
06ac
cafe
280a
0000
0000
0557
cafe
2c1a
0000
0000
05c3
cafe
3002
0000
0000
050a
cafe
3412
0000
0000
0770
cafe
380b
0000
0000
05d1
cafe
3c1b
0000
0000
0538
cafe
2003
0000
0000
05cd
cafe
2413
0000
0000
04e4
cafe
280c
0000
0000
0602
cafe
2c1c
0000
0000
0599
cafe
3004
0000
0000
0670
cafe
3414
0000
0000
059d
cafe
380d
0000
0000
0581
cafe
3c1d
0000
0000
0597
cafe
2005
0000
0000
059b
cafe
2415
0000
0000
05b8
cafe
280e
0000
0000
06eb
cafe
2c1e
0000
0000
05d8
cafe
3006
0000
0000
064d
cafe
3416
0000
0000
0576
cafe
380f
0000
0000
0659
cafe
3c1f
0000
0000
0609
cafe
2007
0000
0000
05ef
cafe
2417
0000
0000
05a9
cafe
2808
0000
0000
05a2
cafe
2c18
0000
0000
0682
cafe
3000
0000
0000
05b6
cafe
3410
0000
0000
064c
cafe
3809
0000
0000
065f
cafe
3c19
0000
0000
061c
cafe
2001
0000
0000
0506
cafe
2411
0000
0000
069b
cafe
280a
0000
0000
053e
cafe
2c1a
0000
0000
05ae
cafe
3002
0000
0000
04f4
cafe
3412
0000
0000
0760
cafe
380b
0000
0000
05b8
cafe
3c1b
0000
0000
0527
cafe
2003
0000
0000
05ba
cafe
2413
0000
0000
04ce
cafe
280c
0000
0000
05f0
cafe
2c1c
0000
0000
058b
cafe
3004
0000
0000
0663
cafe
3414
0000
0000
0584
cafe
380d
0000
0000
056d
-
cafe
3c1d
0000
0000
0582
cafe
2005
0000
0000
0587
cafe
2415
0000
0000
05a8
cafe
280e
0000
0000
06d9
cafe
2c1e
0000
0000
05c7
cafe
3006
0000
0000
0639
cafe
3416
0000
0000
0564
cafe
380f
0000
0000
0646
cafe
3c1f
0000
0000
05fc
cafe
2007
0000
0000
05e0
cafe
2417
0000
0000
0592
cafe
2808
0000
0000
0597
cafe
2c18
0000
0000
0677
cafe
3000
0000
0000
05a1
cafe
3410
0000
0000
063c
cafe
3809
0000
0000
0651
cafe
3c19
0000
0000
060e
cafe
2001
0000
0000
04f3
cafe
2411
0000
0000
068c
cafe
280a
0000
0000
0529
cafe
2c1a
0000
0000
0598
cafe
3002
0000
0000
04e5
cafe
3412
0000
0000
0758
cafe
380b
0000
0000
05a2
cafe
3c1b
0000
0000
0510
cafe
2003
0000
0000
05a4
cafe
2413
0000
0000
04bf
cafe
280c
0000
0000
05e3
cafe
2c1c
0000
0000
057d
cafe
3004
0000
0000
0652
cafe
3414
0000
0000
0570
cafe
380d
0000
0000
0553
cafe
3c1d
0000
0000
056c
cafe
2005
0000
0000
057b
cafe
2415
0000
0000
0590
cafe
280e
0000
0000
06c5
cafe
2c1e
0000
0000
05b6
cafe
3006
0000
0000
0623
cafe
3416
0000
0000
054b
cafe
380f
0000
0000
0633
cafe
3c1f
0000
0000
05e6
cafe
2007
0000
0000
05ce
cafe
2417
0000
0000
0582
cafe
2808
0000
0000
057e
cafe
2c18
0000
0000
0667
cafe
3000
0000
0000
058f
cafe
3410
0000
0000
062a
cafe
3809
0000
0000
0644
cafe
3c19
0000
0000
05f9
cafe
2001
0000
0000
04d8
cafe
2411
0000
0000
067a
cafe
-
