3c09
0000
0000
00b1
cafe
2019
0000
0000
020f
cafe
2401
0000
0000
0155
cafe
2811
0000
0000
015f
cafe
2c0a
0000
0000
016f
cafe
301a
0000
0000
01ac
cafe
3402
0000
0000
0141
cafe
3812
0000
0000
0132
cafe
3c0b
0000
0000
00f3
cafe
201b
0000
0000
0171
cafe
2403
0000
0000
0195
cafe
2813
0000
0000
019e
cafe
2c0c
0000
0000
0103
cafe
301c
0000
0000
014c
cafe
3404
0000
0000
011e
cafe
3814
0000
0000
01a9
cafe
3c0d
0000
0000
01a9
cafe
201d
0000
0000
0121
cafe
2405
0000
0000
0186
cafe
2815
0000
0000
0176
cafe
2c0e
0000
0000
01a4
cafe
301e
0000
0000
00df
cafe
3406
0000
0000
0146
cafe
3816
0000
0000
0183
cafe
3c0f
0000
0000
00e2
cafe
201f
0000
0000
01a2
cafe
2407
0000
0000
015f
cafe
2817
0000
0000
01a5
cafe
2c08
0000
0000
0169
cafe
3018
0000
0000
01a1
cafe
3400
0000
0000
00cf
cafe
3810
0000
0000
01c4
cafe
3c09
0000
0000
00af
cafe
2019
0000
0000
0214
cafe
2401
0000
0000
0158
cafe
2811
0000
0000
0166
cafe
2c0a
0000
0000
016d
cafe
301a
0000
0000
01b5
cafe
3402
0000
0000
0143
cafe
3812
0000
0000
0135
cafe
3c0b
0000
0000
00f6
cafe
201b
0000
0000
0169
cafe
2403
0000
0000
0195
cafe
2813
0000
0000
01a6
cafe
2c0c
0000
0000
00fd
cafe
301c
0000
0000
0152
cafe
3404
0000
0000
0119
cafe
3814
0000
0000
01a1
cafe
3c0d
0000
0000
01b0
cafe
201d
0000
0000
0124
cafe
2405
0000
0000
017d
cafe
2815
-
0000
0000
0173
cafe
2c0e
0000
0000
01ad
cafe
301e
0000
0000
00da
cafe
3406
0000
0000
0151
cafe
3816
0000
0000
0184
cafe
3c0f
0000
0000
00df
cafe
201f
0000
0000
01a5
cafe
2407
0000
0000
0160
cafe
2817
0000
0000
01aa
cafe
2c08
0000
0000
016b
cafe
3018
0000
0000
01a2
cafe
3400
0000
0000
00c9
cafe
3810
0000
0000
01c4
cafe
3c09
0000
0000
00ae
cafe
2019
0000
0000
021e
cafe
2401
0000
0000
0156
cafe
2811
0000
0000
0160
cafe
2c0a
0000
0000
0173
cafe
301a
0000
0000
01b7
cafe
3402
0000
0000
0146
cafe
3812
0000
0000
013a
cafe
3c0b
0000
0000
00fc
cafe
201b
0000
0000
0165
cafe
2403
0000
0000
0191
cafe
2813
0000
0000
01a9
cafe
2c0c
0000
0000
00fa
cafe
301c
0000
0000
015c
cafe
3404
0000
0000
011b
cafe
3814
0000
0000
01aa
cafe
3c0d
0000
0000
01b1
cafe
201d
0000
0000
0121
cafe
2405
0000
0000
0185
cafe
2815
0000
0000
0171
cafe
2c0e
0000
0000
01a3
cafe
301e
0000
0000
00d7
cafe
3406
0000
0000
0144
cafe
3816
0000
0000
0188
cafe
3c0f
0000
0000
00dd
cafe
201f
0000
0000
01a5
cafe
2407
0000
0000
0165
cafe
2817
0000
0000
019b
cafe
2c08
0000
0000
016d
cafe
3018
0000
0000
01ad
cafe
3400
0000
0000
00d6
cafe
3810
0000
0000
01c4
cafe
3c09
0000
0000
00a7
cafe
2019
0000
0000
0219
cafe
2401
0000
0000
014f
cafe
2811
0000
0000
015e
cafe
2c0a
0000
0000
0175
cafe
301a
0000
0000
01b1
cafe
3402
0000
-
0000
013c
cafe
3812
0000
0000
0134
cafe
3c0b
0000
0000
0101
cafe
201b
0000
0000
015a
cafe
2403
0000
0000
018c
cafe
2813
0000
0000
01aa
cafe
2c0c
0000
0000
00fd
cafe
301c
0000
0000
0153
cafe
3404
0000
0000
0122
cafe
3814
0000
0000
01ad
cafe
3c0d
0000
0000
01b5
cafe
201d
0000
0000
0127
cafe
2405
0000
0000
0184
cafe
2815
0000
0000
016e
cafe
2c0e
0000
0000
01a5
cafe
301e
0000
0000
00cb
cafe
3406
0000
0000
0146
cafe
3816
0000
0000
018a
cafe
3c0f
0000
0000
00de
cafe
201f
0000
0000
01ab
cafe
2407
0000
0000
015d
cafe
2817
0000
0000
019c
cafe
2c08
0000
0000
016c
cafe
3018
0000
0000
01b3
cafe
3400
0000
0000
00de
cafe
3810
0000
0000
01bd
cafe
3c09
0000
0000
00a6
cafe
2019
0000
0000
0214
cafe
2401
0000
0000
0153
cafe
2811
0000
0000
016d
cafe
2c0a
0000
0000
016f
cafe
301a
0000
0000
01ba
cafe
3402
0000
0000
013a
cafe
3812
0000
0000
0139
cafe
3c0b
0000
0000
00f7
cafe
201b
0000
0000
015b
cafe
2403
0000
0000
0194
cafe
2813
0000
0000
019c
cafe
2c0c
0000
0000
0108
cafe
301c
0000
0000
0156
cafe
3404
0000
0000
0121
cafe
3814
0000
0000
01a7
cafe
3c0d
0000
0000
01b6
cafe
201d
0000
0000
0120
cafe
2405
0000
0000
0186
cafe
2815
0000
0000
016f
cafe
2c0e
0000
0000
01a1
cafe
301e
0000
0000
00cf
cafe
3406
0000
0000
0142
cafe
3816
0000
0000
018d
cafe
3c0f
0000
0000
00d9
cafe
201f
0000
0000
-
01ab
cafe
2407
0000
0000
0167
cafe
2817
0000
0000
019b
cafe
2c08
0000
0000
0174
cafe
3018
0000
0000
01b5
cafe
3400
0000
0000
00d7
cafe
3810
0000
0000
01bd
cafe
3c09
0000
0000
00a0
cafe
2019
0000
0000
0211
cafe
2401
0000
0000
0147
cafe
2811
0000
0000
016b
cafe
2c0a
0000
0000
016e
cafe
301a
0000
0000
01b9
cafe
3402
0000
0000
013e
cafe
3812
0000
0000
0139
cafe
3c0b
0000
0000
00f7
cafe
201b
0000
0000
015e
cafe
2403
0000
0000
0195
cafe
2813
0000
0000
019f
cafe
2c0c
0000
0000
0108
cafe
301c
0000
0000
0157
cafe
3404
0000
0000
0128
cafe
3814
0000
0000
01a8
cafe
3c0d
0000
0000
01b3
cafe
201d
0000
0000
0127
cafe
2405
0000
0000
018d
cafe
2815
0000
0000
016d
cafe
2c0e
0000
0000
01a2
cafe
301e
0000
0000
00cd
cafe
3406
0000
0000
0147
cafe
3816
0000
0000
019b
cafe
3c0f
0000
0000
00d9
cafe
201f
0000
0000
01b7
cafe
2407
0000
0000
0162
cafe
2817
0000
0000
0195
cafe
2c08
0000
0000
0168
cafe
3018
0000
0000
01b2
cafe
3400
0000
0000
00e4
cafe
3810
0000
0000
01bd
cafe
3c09
0000
0000
00ad
cafe
2019
0000
0000
0213
cafe
2401
0000
0000
014b
cafe
2811
0000
0000
0169
cafe
2c0a
0000
0000
0172
cafe
301a
0000
0000
01b8
cafe
3402
0000
0000
013e
cafe
3812
0000
0000
013b
cafe
3c0b
0000
0000
0102
cafe
201b
0000
0000
0164
cafe
2403
0000
0000
0197
cafe
2813
0000
0000
01a8
cafe
2c0c
0000
0000
010c
-
cafe
301c
0000
0000
014e
cafe
3404
0000
0000
012d
cafe
3814
0000
0000
01aa
cafe
3c0d
0000
0000
01b2
cafe
201d
0000
0000
0126
cafe
2405
0000
0000
018b
cafe
2815
0000
0000
0170
cafe
2c0e
0000
0000
01aa
cafe
301e
0000
0000
00c7
cafe
3406
0000
0000
0149
cafe
3816
0000
0000
019a
cafe
3c0f
0000
0000
00cf
cafe
201f
0000
0000
01bd
cafe
2407
0000
0000
015b
cafe
2817
0000
0000
0195
cafe
2c08
0000
0000
015c
cafe
3018
0000
0000
01b5
cafe
3400
0000
0000
00db
cafe
3810
0000
0000
01be
cafe
3c09
0000
0000
00b1
cafe
2019
0000
0000
020e
cafe
2401
0000
0000
0144
cafe
2811
0000
0000
016c
cafe
2c0a
0000
0000
016b
cafe
301a
0000
0000
01b7
cafe
3402
0000
0000
0145
cafe
3812
0000
0000
0139
cafe
3c0b
0000
0000
00fe
cafe
201b
0000
0000
0165
cafe
2403
0000
0000
018b
cafe
2813
0000
0000
019d
cafe
2c0c
0000
0000
010b
cafe
301c
0000
0000
0140
cafe
3404
0000
0000
0120
cafe
3814
0000
0000
01ab
cafe
3c0d
0000
0000
01af
cafe
201d
0000
0000
0129
cafe
2405
0000
0000
018f
cafe
2815
0000
0000
016a
cafe
2c0e
0000
0000
01af
cafe
301e
0000
0000
00cd
cafe
3406
0000
0000
0145
cafe
3816
0000
0000
0195
cafe
3c0f
0000
0000
00cf
cafe
201f
0000
0000
01b7
cafe
2407
0000
0000
0163
cafe
2817
0000
0000
01a0
cafe
2c08
0000
0000
0163
cafe
3018
0000
0000
01ad
cafe
3400
0000
0000
00dc
cafe
3810
0000
0000
01c9
cafe
-
3c09
0000
0000
00b8
cafe
2019
0000
0000
0208
cafe
2401
0000
0000
0147
cafe
2811
0000
0000
0164
cafe
2c0a
0000
0000
0167
cafe
301a
0000
0000
01b7
cafe
3402
0000
0000
0139
cafe
3812
0000
0000
0137
cafe
3c0b
0000
0000
00fe
cafe
201b
0000
0000
016f
cafe
2403
0000
0000
0192
cafe
2813
0000
0000
0198
cafe
2c0c
0000
0000
0104
cafe
301c
0000
0000
0144
cafe
3404
0000
0000
0129
cafe
3814
0000
0000
01ab
cafe
3c0d
0000
0000
01b3
cafe
201d
0000
0000
0128
cafe
2405
0000
0000
0189
cafe
2815
0000
0000
0171
cafe
2c0e
0000
0000
01b1
cafe
301e
0000
0000
00da
cafe
3406
0000
0000
0148
cafe
3816
0000
0000
0192
cafe
3c0f
0000
0000
00d5
cafe
201f
0000
0000
01af
cafe
2407
0000
0000
015e
cafe
2817
0000
0000
01a3
cafe
2c08
0000
0000
0173
cafe
3018
0000
0000
01b5
cafe
3400
0000
0000
00d5
cafe
3810
0000
0000
01c9
cafe
3c09
0000
0000
00b5
cafe
2019
0000
0000
0206
cafe
2401
0000
0000
0143
cafe
2811
0000
0000
0164
cafe
2c0a
0000
0000
0160
cafe
301a
0000
0000
01af
cafe
3402
0000
0000
0148
cafe
3812
0000
0000
0135
cafe
3c0b
0000
0000
00ff
cafe
201b
0000
0000
0163
cafe
2403
0000
0000
018b
cafe
2813
0000
0000
01a5
cafe
2c0c
0000
0000
00fb
cafe
301c
0000
0000
0141
cafe
3404
0000
0000
011b
cafe
3814
0000
0000
019f
cafe
3c0d
0000
0000
01b1
cafe
201d
0000
0000
012e
cafe
2405
0000
0000
018c
cafe
2815
-
0000
0000
016b
cafe
2c0e
0000
0000
01ab
cafe
301e
0000
0000
00da
cafe
3406
0000
0000
0147
cafe
3816
0000
0000
0189
cafe
3c0f
0000
0000
00d7
cafe
201f
0000
0000
01b1
cafe
2407
0000
0000
0156
cafe
2817
0000
0000
01a6
cafe
2c08
0000
0000
016d
cafe
3018
0000
0000
01b3
cafe
3400
0000
0000
00e5
cafe
3810
0000
0000
01d4
cafe
3c09
0000
0000
00bb
cafe
2019
0000
0000
0212
cafe
2401
0000
0000
0141
cafe
2811
0000
0000
0162
cafe
2c0a
0000
0000
0164
cafe
301a
0000
0000
01b0
cafe
3402
0000
0000
014a
cafe
3812
0000
0000
0132
cafe
3c0b
0000
0000
00f7
cafe
201b
0000
0000
015f
cafe
2403
0000
0000
0187
cafe
2813
0000
0000
01a7
cafe
2c0c
0000
0000
0103
cafe
301c
0000
0000
0153
cafe
3404
0000
0000
0128
cafe
3814
0000
0000
01a5
cafe
3c0d
0000
0000
01b6
cafe
201d
0000
0000
0133
cafe
2405
0000
0000
0185
cafe
2815
0000
0000
0173
cafe
2c0e
0000
0000
01aa
cafe
301e
0000
0000
00d7
cafe
3406
0000
0000
0146
cafe
3816
0000
0000
0180
cafe
3c0f
0000
0000
00d7
cafe
201f
0000
0000
01b2
cafe
2407
0000
0000
0166
cafe
2817
0000
0000
01aa
cafe
2c08
0000
0000
016d
cafe
3018
0000
0000
01b1
cafe
3400
0000
0000
00e2
cafe
3810
0000
0000
01d3
cafe
3c09
0000
0000
00b0
cafe
2019
0000
0000
0216
cafe
2401
0000
0000
0147
cafe
2811
0000
0000
0168
cafe
2c0a
0000
0000
0163
cafe
301a
0000
0000
01ad
cafe
3402
0000
-
0000
014b
cafe
3812
0000
0000
012d
cafe
3c0b
0000
0000
00fd
cafe
201b
0000
0000
0161
cafe
2403
0000
0000
018e
cafe
2813
0000
0000
01a7
cafe
2c0c
0000
0000
0110
cafe
301c
0000
0000
0153
cafe
3404
0000
0000
012e
cafe
3814
0000
0000
01a5
cafe
3c0d
0000
0000
01ac
cafe
201d
0000
0000
0131
cafe
2405
0000
0000
018a
cafe
2815
0000
0000
0174
cafe
2c0e
0000
0000
01a1
cafe
301e
0000
0000
00d9
cafe
3406
0000
0000
013e
cafe
3816
0000
0000
0186
cafe
3c0f
0000
0000
00d8
cafe
201f
0000
0000
01a6
cafe
2407
0000
0000
0159
cafe
2817
0000
0000
01aa
cafe
2c08
0000
0000
0170
cafe
3018
0000
0000
01ad
cafe
3400
0000
0000
00de
cafe
3810
0000
0000
01cc
cafe
3c09
0000
0000
00bb
cafe
2019
0000
0000
0211
cafe
2401
0000
0000
0148
cafe
2811
0000
0000
0162
cafe
2c0a
0000
0000
0160
cafe
301a
0000
0000
01b3
cafe
3402
0000
0000
014e
cafe
3812
0000
0000
012e
cafe
3c0b
0000
0000
00fd
cafe
201b
0000
0000
0166
cafe
2403
0000
0000
0187
cafe
2813
0000
0000
01a1
cafe
2c0c
0000
0000
0111
cafe
301c
0000
0000
0159
cafe
3404
0000
0000
0129
cafe
3814
0000
0000
01ac
cafe
3c0d
0000
0000
01a1
cafe
201d
0000
0000
0127
cafe
2405
0000
0000
0184
cafe
2815
0000
0000
0174
cafe
2c0e
0000
0000
01ac
cafe
301e
0000
0000
00d8
cafe
3406
0000
0000
013d
cafe
3816
0000
0000
0188
cafe
3c0f
0000
0000
00db
cafe
201f
0000
0000
-
01a7
cafe
2407
0000
0000
015a
cafe
2817
0000
0000
01a1
cafe
2c08
0000
0000
0175
cafe
3018
0000
0000
01ac
cafe
3400
0000
0000
00dc
cafe
3810
0000
0000
01c6
cafe
3c09
0000
0000
00b0
cafe
2019
0000
0000
020e
cafe
2401
0000
0000
014b
cafe
2811
0000
0000
0166
cafe
2c0a
0000
0000
0161
cafe
301a
0000
0000
01a9
cafe
3402
0000
0000
013c
cafe
3812
0000
0000
012d
cafe
3c0b
0000
0000
00f8
cafe
201b
0000
0000
016d
cafe
2403
0000
0000
0182
cafe
2813
0000
0000
01a4
cafe
2c0c
0000
0000
0109
cafe
301c
0000
0000
0161
cafe
3404
0000
0000
0127
cafe
3814
0000
0000
01ab
cafe
3c0d
0000
0000
01aa
cafe
201d
0000
0000
0125
cafe
2405
0000
0000
018d
cafe
2815
0000
0000
0178
cafe
2c0e
0000
0000
01b1
cafe
301e
0000
0000
00d5
cafe
3406
0000
0000
0141
cafe
3816
0000
0000
0188
cafe
3c0f
0000
0000
00d5
cafe
201f
0000
0000
01aa
cafe
2407
0000
0000
015f
cafe
2817
0000
0000
019c
cafe
2c08
0000
0000
017a
cafe
3018
0000
0000
01b2
cafe
3400
0000
0000
00cf
cafe
3810
0000
0000
01d2
cafe
3c09
0000
0000
00b6
cafe
2019
0000
0000
0211
cafe
2401
0000
0000
0151
cafe
2811
0000
0000
0169
cafe
2c0a
0000
0000
0165
cafe
301a
0000
0000
01ab
cafe
3402
0000
0000
013b
cafe
3812
0000
0000
012a
cafe
3c0b
0000
0000
00f5
cafe
201b
0000
0000
0166
cafe
2403
0000
0000
018a
cafe
2813
0000
0000
019d
cafe
2c0c
0000
0000
0105
-
cafe
301c
0000
0000
0159
cafe
3404
0000
0000
0125
cafe
3814
0000
0000
01b1
cafe
3c0d
0000
0000
01b0
cafe
201d
0000
0000
0129
cafe
2405
0000
0000
0183
cafe
2815
0000
0000
0172
cafe
2c0e
0000
0000
01a9
cafe
301e
0000
0000
00d3
cafe
3406
0000
0000
013a
cafe
3816
0000
0000
018a
cafe
3c0f
0000
0000
00d1
cafe
201f
0000
0000
01ab
cafe
2407
0000
0000
0161
cafe
2817
0000
0000
019b
cafe
2c08
0000
0000
0173
cafe
3018
0000
0000
01b1
cafe
3400
0000
0000
00ce
cafe
3810
0000
0000
01cf
cafe
3c09
0000
0000
00b9
cafe
2019
0000
0000
020f
cafe
2401
0000
0000
0152
cafe
2811
0000
0000
0166
cafe
2c0a
0000
0000
015d
cafe
301a
0000
0000
01a9
cafe
3402
0000
0000
0137
cafe
3812
0000
0000
0132
cafe
3c0b
0000
0000
00f3
cafe
201b
0000
0000
0166
cafe
2403
0000
0000
0189
cafe
2813
0000
0000
0199
cafe
2c0c
0000
0000
010d
cafe
301c
0000
0000
0154
cafe
3404
0000
0000
0122
cafe
3814
0000
0000
01a8
cafe
3c0d
0000
0000
01aa
cafe
201d
0000
0000
012e
cafe
2405
0000
0000
0185
cafe
2815
0000
0000
016f
cafe
2c0e
0000
0000
01ae
cafe
301e
0000
0000
00c7
cafe
3406
0000
0000
0138
cafe
3816
0000
0000
0185
cafe
3c0f
0000
0000
00d3
cafe
201f
0000
0000
01b0
cafe
2407
0000
0000
0163
cafe
2817
0000
0000
019f
cafe
2c08
0000
0000
0167
cafe
3018
0000
0000
01a5
cafe
3400
0000
0000
00c9
cafe
3810
0000
0000
01d5
cafe
-
3c09
0000
0000
00b5
cafe
2019
0000
0000
0214
cafe
2401
0000
0000
0152
cafe
2811
0000
0000
015d
cafe
2c0a
0000
0000
0166
cafe
301a
0000
0000
01ad
cafe
3402
0000
0000
0132
cafe
3812
0000
0000
012c
cafe
3c0b
0000
0000
00f2
cafe
201b
0000
0000
0165
cafe
2403
0000
0000
0187
cafe
2813
0000
0000
01a0
cafe
2c0c
0000
0000
0114
cafe
301c
0000
0000
0157
cafe
3404
0000
0000
011c
cafe
3814
0000
0000
01a8
cafe
3c0d
0000
0000
01a1
cafe
201d
0000
0000
012d
cafe
2405
0000
0000
018f
cafe
2815
0000
0000
0173
cafe
2c0e
0000
0000
01b3
cafe
301e
0000
0000
00d0
cafe
3406
0000
0000
013f
cafe
3816
0000
0000
0184
cafe
3c0f
0000
0000
00d5
cafe
201f
0000
0000
01a9
cafe
2407
0000
0000
0163
cafe
2817
0000
0000
01a4
cafe
2c08
0000
0000
016e
cafe
3018
0000
0000
01a8
cafe
3400
0000
0000
00c8
cafe
3810
0000
0000
01cc
cafe
3c09
0000
0000
00b3
cafe
2019
0000
0000
0214
cafe
2401
0000
0000
0151
cafe
2811
0000
0000
0162
cafe
2c0a
0000
0000
016c
cafe
301a
0000
0000
01b1
cafe
3402
0000
0000
0135
cafe
3812
0000
0000
012a
cafe
3c0b
0000
0000
00f7
cafe
201b
0000
0000
0169
cafe
2403
0000
0000
018f
cafe
2813
0000
0000
01a4
cafe
2c0c
0000
0000
0184
cafe
301c
0000
0000
01ca
cafe
3404
0000
0000
018b
cafe
3814
0000
0000
021f
cafe
3c0d
0000
0000
0339
cafe
201d
0000
0000
02c3
cafe
2405
0000
0000
031c
cafe
2815
-
0000
0000
0306
cafe
2c0e
0000
0000
0452
cafe
301e
0000
0000
036c
cafe
3406
0000
0000
03e5
cafe
3816
0000
0000
0424
cafe
3c0f
0000
0000
0465
cafe
201f
0000
0000
051f
cafe
2407
0000
0000
04f4
cafe
2817
0000
0000
0525
cafe
2c08
0000
0000
05ab
cafe
3018
0000
0000
05eb
cafe
3400
0000
0000
050e
cafe
3810
0000
0000
0612
cafe
3c09
0000
0000
0587
cafe
2019
0000
0000
06e9
cafe
2401
0000
0000
0611
cafe
2811
0000
0000
063f
cafe
2c0a
0000
0000
06cb
cafe
301a
0000
0000
06fd
cafe
3402
0000
0000
0697
cafe
3812
0000
0000
0698
cafe
3c0b
0000
0000
06b5
cafe
201b
0000
0000
0713
cafe
2403
0000
0000
0739
cafe
2813
0000
0000
075f
cafe
2c0c
0000
0000
072e
cafe
301c
0000
0000
0761
cafe
3404
0000
0000
0722
cafe
3814
0000
0000
07bb
cafe
3c0d
0000
0000
0812
cafe
201d
0000
0000
076e
cafe
2405
0000
0000
07ce
cafe
2815
0000
0000
07cd
cafe
2c0e
0000
0000
085d
cafe
301e
0000
0000
0757
cafe
3406
0000
0000
07da
cafe
3816
0000
0000
0818
cafe
3c0f
0000
0000
07b2
cafe
201f
0000
0000
085c
cafe
2407
0000
0000
0826
cafe
2817
0000
0000
085f
cafe
2c08
0000
0000
0858
cafe
3018
0000
0000
089d
cafe
3400
0000
0000
07b9
cafe
3810
0000
0000
08c3
cafe
3c09
0000
0000
07b4
cafe
2019
0000
0000
0914
cafe
2401
0000
0000
083a
cafe
2811
0000
0000
0867
cafe
2c0a
0000
0000
0899
cafe
301a
0000
0000
08c9
cafe
3402
0000
-
0000
085c
cafe
3812
0000
0000
0860
cafe
3c0b
0000
0000
0828
cafe
201b
0000
0000
0888
cafe
2403
0000
0000
089e
cafe
2813
0000
0000
08d7
cafe
2c0c
0000
0000
0850
cafe
301c
0000
0000
088b
cafe
3404
0000
0000
0854
cafe
3814
0000
0000
08e6
cafe
3c0d
0000
0000
0900
cafe
201d
0000
0000
0859
cafe
2405
0000
0000
08bb
cafe
2815
0000
0000
08b1
cafe
2c0e
0000
0000
091c
cafe
301e
0000
0000
0816
cafe
3406
0000
0000
0893
cafe
3816
0000
0000
08d3
cafe
3c0f
0000
0000
0840
cafe
201f
0000
0000
08ee
cafe
2407
0000
0000
08ac
cafe
2817
0000
0000
08ed
cafe
2c08
0000
0000
08c4
cafe
3018
0000
0000
090b
cafe
3400
0000
0000
0819
cafe
3810
0000
0000
092b
cafe
3c09
0000
0000
07fb
cafe
2019
0000
0000
096f
cafe
2401
0000
0000
087e
cafe
2811
0000
0000
08bb
cafe
2c0a
0000
0000
08cf
cafe
301a
0000
0000
0906
cafe
3402
0000
0000
0888
cafe
3812
0000
0000
0897
cafe
3c0b
0000
0000
084d
cafe
201b
0000
0000
08aa
cafe
2403
0000
0000
08b8
cafe
2813
0000
0000
08fc
cafe
2c0c
0000
0000
0866
cafe
301c
0000
0000
089b
cafe
3404
0000
0000
085c
cafe
3814
0000
0000
08ee
cafe
3c0d
0000
0000
090d
cafe
201d
0000
0000
0856
cafe
2405
0000
0000
08bb
cafe
2815
0000
0000
08bc
cafe
2c0e
0000
0000
090a
cafe
301e
0000
0000
0808
cafe
3406
0000
0000
087f
cafe
3816
0000
0000
08cb
cafe
3c0f
0000
0000
0826
cafe
201f
0000
0000
-
08e6
cafe
2407
0000
0000
088f
cafe
2817
0000
0000
08d7
cafe
2c08
0000
0000
0897
cafe
3018
0000
0000
08f3
cafe
3400
0000
0000
07f4
cafe
3810
0000
0000
0903
cafe
3c09
0000
0000
07cd
cafe
2019
0000
0000
0942
cafe
2401
0000
0000
0857
cafe
2811
0000
0000
089f
cafe
2c0a
0000
0000
08a9
cafe
301a
0000
0000
08df
cafe
3402
0000
0000
086b
cafe
3812
0000
0000
0867
cafe
3c0b
0000
0000
0819
cafe
201b
0000
0000
0878
cafe
2403
0000
0000
0883
cafe
2813
0000
0000
08ca
cafe
2c0c
0000
0000
082c
cafe
301c
0000
0000
085c
cafe
3404
0000
0000
0827
cafe
3814
0000
0000
08b7
cafe
3c0d
0000
0000
08d5
cafe
201d
0000
0000
0820
cafe
2405
0000
0000
087c
cafe
2815
0000
0000
0885
cafe
2c0e
0000
0000
08da
cafe
301e
0000
0000
07c5
cafe
3406
0000
0000
084e
cafe
3816
0000
0000
0885
cafe
3c0f
0000
0000
07dd
cafe
201f
0000
0000
08ab
cafe
2407
0000
0000
0845
cafe
2817
0000
0000
08a9
cafe
2c08
0000
0000
0851
cafe
3018
0000
0000
08bb
cafe
3400
0000
0000
07b4
cafe
3810
0000
0000
08c3
cafe
3c09
0000
0000
0785
cafe
2019
0000
0000
0906
cafe
2401
0000
0000
0816
cafe
2811
0000
0000
0863
cafe
2c0a
0000
0000
086d
cafe
301a
0000
0000
08a6
cafe
3402
0000
0000
0829
cafe
3812
0000
0000
081f
cafe
3c0b
0000
0000
07d5
cafe
201b
0000
0000
083e
cafe
2403
0000
0000
0839
cafe
2813
0000
0000
0888
cafe
2c0c
0000
0000
07e9
-
cafe
301c
0000
0000
0815
cafe
3404
0000
0000
07eb
cafe
3814
0000
0000
0875
cafe
3c0d
0000
0000
0890
cafe
201d
0000
0000
07db
cafe
2405
0000
0000
0836
cafe
2815
0000
0000
083f
cafe
2c0e
0000
0000
0899
cafe
301e
0000
0000
0776
cafe
3406
0000
0000
0802
cafe
3816
0000
0000
0841
cafe
3c0f
0000
0000
078b
cafe
201f
0000
0000
0860
cafe
2407
0000
0000
07f0
cafe
2817
0000
0000
085f
cafe
2c08
0000
0000
080a
cafe
3018
0000
0000
086f
cafe
3400
0000
0000
075e
cafe
3810
0000
0000
0881
cafe
3c09
0000
0000
0746
cafe
2019
0000
0000
08c3
cafe
2401
0000
0000
07cd
cafe
2811
0000
0000
0817
cafe
2c0a
0000
0000
0828
cafe
301a
0000
0000
085a
cafe
3402
0000
0000
07df
cafe
3812
0000
0000
07d0
cafe
3c0b
0000
0000
0782
cafe
201b
0000
0000
0801
cafe
2403
0000
0000
07eb
cafe
2813
0000
0000
083d
cafe
2c0c
0000
0000
07a4
cafe
301c
0000
0000
07d0
cafe
3404
0000
0000
07a4
cafe
3814
0000
0000
082a
cafe
3c0d
0000
0000
0853
cafe
201d
0000
0000
0790
cafe
2405
0000
0000
07f0
cafe
2815
0000
0000
07fd
cafe
2c0e
0000
0000
084d
cafe
301e
0000
0000
0725
cafe
3406
0000
0000
07ae
cafe
3816
0000
0000
07f0
cafe
3c0f
0000
0000
073c
cafe
201f
0000
0000
0819
cafe
2407
0000
0000
07a6
cafe
2817
0000
0000
0820
cafe
2c08
0000
0000
07b9
cafe
3018
0000
0000
082c
cafe
3400
0000
0000
0706
cafe
3810
0000
0000
0840
cafe
-
3c09
0000
0000
0701
cafe
2019
0000
0000
0889
cafe
2401
0000
0000
077f
cafe
2811
0000
0000
07d7
cafe
2c0a
0000
0000
07e8
cafe
301a
0000
0000
080f
cafe
3402
0000
0000
0792
cafe
3812
0000
0000
0786
cafe
3c0b
0000
0000
073c
cafe
201b
0000
0000
07b2
cafe
2403
0000
0000
07a2
cafe
2813
0000
0000
0801
cafe
2c0c
0000
0000
075f
cafe
301c
0000
0000
0782
cafe
3404
0000
0000
0758
cafe
3814
0000
0000
07e6
cafe
3c0d
0000
0000
080c
cafe
201d
0000
0000
0745
cafe
2405
0000
0000
07b1
cafe
2815
0000
0000
07bc
cafe
2c0e
0000
0000
080d
cafe
301e
0000
0000
06d5
cafe
3406
0000
0000
076c
cafe
3816
0000
0000
07ab
cafe
3c0f
0000
0000
06f0
cafe
201f
0000
0000
07d9
cafe
2407
0000
0000
075e
cafe
2817
0000
0000
07e3
cafe
2c08
0000
0000
077b
cafe
3018
0000
0000
07f1
cafe
3400
0000
0000
06b8
cafe
3810
0000
0000
07f3
cafe
3c09
0000
0000
06bc
cafe
2019
0000
0000
0846
cafe
2401
0000
0000
073a
cafe
2811
0000
0000
078d
cafe
2c0a
0000
0000
07a1
cafe
301a
0000
0000
07d6
cafe
3402
0000
0000
0746
cafe
3812
0000
0000
0738
cafe
3c0b
0000
0000
06f9
cafe
201b
0000
0000
076f
cafe
2403
0000
0000
0765
cafe
2813
0000
0000
07bb
cafe
2c0c
0000
0000
0718
cafe
301c
0000
0000
073a
cafe
3404
0000
0000
0711
cafe
3814
0000
0000
079c
cafe
3c0d
0000
0000
07cb
cafe
201d
0000
0000
06fc
cafe
2405
0000
0000
0771
cafe
2815
-
0000
0000
0777
cafe
2c0e
0000
0000
07cd
cafe
301e
0000
0000
0690
cafe
3406
0000
0000
071f
cafe
3816
0000
0000
076c
cafe
3c0f
0000
0000
06ae
cafe
201f
0000
0000
079d
cafe
2407
0000
0000
0720
cafe
2817
0000
0000
079f
cafe
2c08
0000
0000
073e
cafe
3018
0000
0000
07ae
cafe
3400
0000
0000
0672
cafe
3810
0000
0000
07b5
cafe
3c09
0000
0000
0674
cafe
2019
0000
0000
0803
cafe
2401
0000
0000
06ea
cafe
2811
0000
0000
0749
cafe
2c0a
0000
0000
0766
cafe
301a
0000
0000
0793
cafe
3402
0000
0000
070d
cafe
3812
0000
0000
06f0
cafe
3c0b
0000
0000
06b6
cafe
201b
0000
0000
0734
cafe
2403
0000
0000
0729
cafe
2813
0000
0000
0777
cafe
2c0c
0000
0000
06db
cafe
301c
0000
0000
06fc
cafe
3404
0000
0000
06ca
cafe
3814
0000
0000
075f
cafe
3c0d
0000
0000
0785
cafe
201d
0000
0000
06ab
cafe
2405
0000
0000
0731
cafe
2815
0000
0000
0735
cafe
2c0e
0000
0000
0793
cafe
301e
0000
0000
064c
cafe
3406
0000
0000
06e2
cafe
3816
0000
0000
071b
cafe
3c0f
0000
0000
0664
cafe
201f
0000
0000
0751
cafe
2407
0000
0000
06da
cafe
2817
0000
0000
0762
cafe
2c08
0000
0000
0703
cafe
3018
0000
0000
0778
cafe
3400
0000
0000
0626
cafe
3810
0000
0000
0770
cafe
3c09
0000
0000
0632
cafe
2019
0000
0000
07c8
cafe
2401
0000
0000
06b2
cafe
2811
0000
0000
070b
cafe
2c0a
0000
0000
0725
cafe
301a
0000
0000
074d
cafe
3402
0000
-
0000
06cd
cafe
3812
0000
0000
06aa
cafe
3c0b
0000
0000
066f
cafe
201b
0000
0000
06f3
cafe
2403
0000
0000
06dc
cafe
2813
0000
0000
0736
cafe
2c0c
0000
0000
069e
cafe
301c
0000
0000
06bb
cafe
3404
0000
0000
0692
cafe
3814
0000
0000
0724
cafe
3c0d
0000
0000
0747
cafe
201d
0000
0000
066b
cafe
2405
0000
0000
06f3
cafe
2815
0000
0000
06ee
cafe
2c0e
0000
0000
075b
cafe
301e
0000
0000
0609
cafe
3406
0000
0000
06a0
cafe
3816
0000
0000
06e3
cafe
3c0f
0000
0000
0625
cafe
201f
0000
0000
0713
cafe
2407
0000
0000
0698
cafe
2817
0000
0000
0721
cafe
2c08
0000
0000
06c0
cafe
3018
0000
0000
0736
cafe
3400
0000
0000
05dd
cafe
3810
0000
0000
0740
cafe
3c09
0000
0000
05eb
cafe
2019
0000
0000
0787
cafe
2401
0000
0000
066d
cafe
2811
0000
0000
06c8
cafe
2c0a
0000
0000
06e8
cafe
301a
0000
0000
0710
cafe
3402
0000
0000
068d
cafe
3812
0000
0000
0671
cafe
3c0b
0000
0000
062e
cafe
201b
0000
0000
06b4
cafe
2403
0000
0000
069d
cafe
2813
0000
0000
06ef
cafe
2c0c
0000
0000
0656
cafe
301c
0000
0000
067e
cafe
3404
0000
0000
0654
cafe
3814
0000
0000
06e5
cafe
3c0d
0000
0000
070d
cafe
201d
0000
0000
062d
cafe
2405
0000
0000
06b8
cafe
2815
0000
0000
06b9
cafe
2c0e
0000
0000
0715
cafe
301e
0000
0000
05ce
cafe
3406
0000
0000
065e
cafe
3816
0000
0000
06a5
cafe
3c0f
0000
0000
05e7
cafe
201f
0000
0000
-
06ce
cafe
2407
0000
0000
065a
cafe
2817
0000
0000
06db
cafe
2c08
0000
0000
0680
cafe
3018
0000
0000
0702
cafe
3400
0000
0000
05a3
cafe
3810
0000
0000
0709
cafe
3c09
0000
0000
05ae
cafe
2019
0000
0000
074d
cafe
2401
0000
0000
0629
cafe
2811
0000
0000
0685
cafe
2c0a
0000
0000
06a1
cafe
301a
0000
0000
06cb
cafe
3402
0000
0000
0654
cafe
3812
0000
0000
0636
cafe
3c0b
0000
0000
05ed
cafe
201b
0000
0000
0678
cafe
2403
0000
0000
0651
cafe
2813
0000
0000
06b4
cafe
2c0c
0000
0000
0622
cafe
301c
0000
0000
063a
cafe
3404
0000
0000
061a
cafe
3814
0000
0000
06ac
cafe
3c0d
0000
0000
06d5
cafe
201d
0000
0000
05f6
cafe
2405
0000
0000
0679
cafe
2815
0000
0000
067a
cafe
2c0e
0000
0000
06e1
cafe
301e
0000
0000
0585
cafe
3406
0000
0000
0624
cafe
3816
0000
0000
066a
cafe
3c0f
0000
0000
05a0
cafe
201f
0000
0000
068c
cafe
2407
0000
0000
0619
cafe
2817
0000
0000
069d
cafe
2c08
0000
0000
0647
cafe
3018
0000
0000
06c3
cafe
3400
0000
0000
055b
cafe
3810
0000
0000
06d0
cafe
3c09
0000
0000
056c
cafe
2019
0000
0000
071e
cafe
2401
0000
0000
05ed
cafe
2811
0000
0000
0649
cafe
2c0a
0000
0000
0670
cafe
301a
0000
0000
0694
cafe
3402
0000
0000
0611
cafe
3812
0000
0000
05f8
cafe
3c0b
0000
0000
05b6
cafe
201b
0000
0000
063c
cafe
2403
0000
0000
061a
cafe
2813
0000
0000
0679
cafe
2c0c
0000
0000
05d8
-
cafe
301c
0000
0000
05fa
cafe
3404
0000
0000
05dc
cafe
3814
0000
0000
0675
cafe
3c0d
0000
0000
06a4
cafe
201d
0000
0000
05be
cafe
2405
0000
0000
0646
cafe
2815
0000
0000
0644
cafe
2c0e
0000
0000
06ad
cafe
301e
0000
0000
0546
cafe
3406
0000
0000
05e5
cafe
3816
0000
0000
062c
cafe
3c0f
0000
0000
0561
cafe
201f
0000
0000
0656
cafe
2407
0000
0000
05e6
cafe
2817
0000
0000
0667
cafe
2c08
0000
0000
060d
cafe
3018
0000
0000
068d
cafe
3400
0000
0000
0527
cafe
3810
0000
0000
0699
cafe
3c09
0000
0000
0534
cafe
2019
0000
0000
06e9
cafe
2401
0000
0000
05a5
cafe
2811
0000
0000
0612
cafe
2c0a
0000
0000
0638
cafe
301a
0000
0000
065d
cafe
3402
0000
0000
05cc
cafe
3812
0000
0000
05ba
cafe
3c0b
0000
0000
0581
cafe
201b
0000
0000
060f
cafe
2403
0000
0000
05df
cafe
2813
0000
0000
0639
cafe
2c0c
0000
0000
0597
cafe
301c
0000
0000
05be
cafe
3404
0000
0000
059a
cafe
3814
0000
0000
063f
cafe
3c0d
0000
0000
0674
cafe
201d
0000
0000
0583
cafe
2405
0000
0000
0613
cafe
2815
0000
0000
060f
cafe
2c0e
0000
0000
067b
cafe
301e
0000
0000
050d
cafe
3406
0000
0000
05a8
cafe
3816
0000
0000
05fc
cafe
3c0f
0000
0000
052c
cafe
201f
0000
0000
0617
cafe
2407
0000
0000
05a4
cafe
2817
0000
0000
062d
cafe
2c08
0000
0000
05d6
cafe
3018
0000
0000
0652
cafe
3400
0000
0000
04e8
cafe
3810
0000
0000
0660
cafe
-
3c09
0000
0000
0501
cafe
2019
0000
0000
06b4
cafe
2401
0000
0000
0578
cafe
2811
0000
0000
05de
cafe
2c0a
0000
0000
0608
cafe
301a
0000
0000
0623
cafe
3402
0000
0000
0593
cafe
3812
0000
0000
0589
cafe
3c0b
0000
0000
0547
cafe
201b
0000
0000
05db
cafe
2403
0000
0000
05ad
cafe
2813
0000
0000
0607
cafe
2c0c
0000
0000
0565
cafe
301c
0000
0000
0584
cafe
3404
0000
0000
0561
cafe
3814
0000
0000
0606
cafe
3c0d
0000
0000
063f
cafe
201d
0000
0000
0551
cafe
2405
0000
0000
05db
cafe
2815
0000
0000
05d6
cafe
2c0e
0000
0000
0642
cafe
301e
0000
0000
04dc
cafe
3406
0000
0000
0571
cafe
3816
0000
0000
05c8
cafe
3c0f
0000
0000
04f9
cafe
201f
0000
0000
05e4
cafe
2407
0000
0000
056e
cafe
2817
0000
0000
05f2
cafe
2c08
0000
0000
059e
cafe
3018
0000
0000
061a
cafe
3400
0000
0000
04b2
cafe
3810
0000
0000
0629
cafe
3c09
0000
0000
04d1
cafe
2019
0000
0000
067f
cafe
2401
0000
0000
053d
cafe
2811
0000
0000
05a2
cafe
2c0a
0000
0000
05d0
cafe
301a
0000
0000
05e9
cafe
3402
0000
0000
0565
cafe
3812
0000
0000
0552
cafe
3c0b
0000
0000
050b
cafe
201b
0000
0000
05a2
cafe
2403
0000
0000
0572
cafe
2813
0000
0000
05d4
cafe
2c0c
0000
0000
052f
cafe
301c
0000
0000
0549
cafe
3404
0000
0000
052e
cafe
3814
0000
0000
05d5
cafe
3c0d
0000
0000
060b
cafe
201d
0000
0000
0523
cafe
2405
0000
0000
05a8
cafe
2815
-
0000
0000
05a7
cafe
2c0e
0000
0000
061b
cafe
301e
0000
0000
0496
cafe
3406
0000
0000
0535
cafe
3816
0000
0000
0591
cafe
3c0f
0000
0000
04c0
cafe
201f
0000
0000
05b3
cafe
2407
0000
0000
053f
cafe
2817
0000
0000
05b8
cafe
2c08
0000
0000
0561
cafe
3018
0000
0000
05ea
cafe
3400
0000
0000
048c
cafe
3810
0000
0000
05e9
cafe
3c09
0000
0000
049d
cafe
2019
0000
0000
064e
cafe
2401
0000
0000
0503
cafe
2811
0000
0000
0571
cafe
2c0a
0000
0000
05a4
cafe
301a
0000
0000
05bf
cafe
3402
0000
0000
0535
cafe
3812
0000
0000
051f
cafe
3c0b
0000
0000
04d9
cafe
201b
0000
0000
0574
cafe
2403
0000
0000
0531
cafe
2813
0000
0000
05a1
cafe
2c0c
0000
0000
04fd
cafe
301c
0000
0000
0516
cafe
3404
0000
0000
04f6
cafe
3814
0000
0000
05a5
cafe
3c0d
0000
0000
05d5
cafe
201d
0000
0000
04ee
cafe
2405
0000
0000
0576
cafe
2815
0000
0000
0576
cafe
2c0e
0000
0000
05e7
cafe
301e
0000
0000
045e
cafe
3406
0000
0000
0510
cafe
3816
0000
0000
055a
cafe
3c0f
0000
0000
0496
cafe
201f
0000
0000
057e
cafe
2407
0000
0000
0507
cafe
2817
0000
0000
058a
cafe
2c08
0000
0000
0533
cafe
3018
0000
0000
05b9
cafe
3400
0000
0000
0453
cafe
3810
0000
0000
05c1
cafe
3c09
0000
0000
0463
cafe
2019
0000
0000
0625
cafe
2401
0000
0000
04cd
cafe
2811
0000
0000
0539
cafe
2c0a
0000
0000
0571
cafe
301a
0000
0000
058a
cafe
3402
0000
-
0000
0512
cafe
3812
0000
0000
04e5
cafe
3c0b
0000
0000
04a5
cafe
201b
0000
0000
0544
cafe
2403
0000
0000
04fd
cafe
2813
0000
0000
057a
cafe
2c0c
0000
0000
04d1
cafe
301c
0000
0000
04f5
cafe
3404
0000
0000
04bf
cafe
3814
0000
0000
0575
cafe
3c0d
0000
0000
05a6
cafe
201d
0000
0000
04c2
cafe
2405
0000
0000
054c
cafe
2815
0000
0000
0540
cafe
2c0e
0000
0000
05b7
cafe
301e
0000
0000
0424
cafe
3406
0000
0000
04e4
cafe
3816
0000
0000
0523
cafe
3c0f
0000
0000
045b
cafe
201f
0000
0000
0551
cafe
2407
0000
0000
04d3
cafe
2817
0000
0000
0562
cafe
2c08
0000
0000
0501
cafe
3018
0000
0000
057f
cafe
3400
0000
0000
0424
cafe
3810
0000
0000
0594
cafe
3c09
0000
0000
0436
cafe
2019
0000
0000
05f3
cafe
2401
0000
0000
0495
cafe
2811
0000
0000
050d
cafe
2c0a
0000
0000
053c
cafe
301a
0000
0000
0557
cafe
3402
0000
0000
04df
cafe
3812
0000
0000
04b2
cafe
3c0b
0000
0000
0473
cafe
201b
0000
0000
0512
cafe
2403
0000
0000
04cc
cafe
2813
0000
0000
0550
cafe
2c0c
0000
0000
04a2
cafe
301c
0000
0000
04c5
cafe
3404
0000
0000
049b
cafe
3814
0000
0000
0544
cafe
3c0d
0000
0000
057a
cafe
201d
0000
0000
0496
cafe
2405
0000
0000
051e
cafe
2815
0000
0000
0510
cafe
2c0e
0000
0000
0589
cafe
301e
0000
0000
03fc
cafe
3406
0000
0000
04be
cafe
3816
0000
0000
04f0
cafe
3c0f
0000
0000
0426
cafe
201f
0000
0000
-
051d
cafe
2407
0000
0000
049e
cafe
2817
0000
0000
0537
cafe
2c08
0000
0000
04cf
cafe
3018
0000
0000
0555
cafe
3400
0000
0000
03f2
cafe
3810
0000
0000
0566
cafe
3c09
0000
0000
0408
cafe
2019
0000
0000
05ca
cafe
2401
0000
0000
0476
cafe
2811
0000
0000
04d9
cafe
2c0a
0000
0000
050b
cafe
301a
0000
0000
0526
cafe
3402
0000
0000
04b3
cafe
3812
0000
0000
0487
cafe
3c0b
0000
0000
0456
cafe
201b
0000
0000
04dd
cafe
2403
0000
0000
04a1
cafe
2813
0000
0000
0522
cafe
2c0c
0000
0000
0472
cafe
301c
0000
0000
049b
cafe
3404
0000
0000
046e
cafe
3814
0000
0000
0512
cafe
3c0d
0000
0000
0549
cafe
201d
0000
0000
0460
cafe
2405
0000
0000
04e9
cafe
2815
0000
0000
04ef
cafe
2c0e
0000
0000
0561
cafe
301e
0000
0000
03d1
cafe
3406
0000
0000
0483
cafe
3816
0000
0000
04bb
cafe
3c0f
0000
0000
03fb
cafe
201f
0000
0000
04f3
cafe
2407
0000
0000
0470
cafe
2817
0000
0000
050c
cafe
2c08
0000
0000
04a7
cafe
3018
0000
0000
0532
cafe
3400
0000
0000
03c1
cafe
3810
0000
0000
0533
cafe
3c09
0000
0000
03de
cafe
2019
0000
0000
059b
cafe
2401
0000
0000
0454
cafe
2811
0000
0000
04b3
cafe
2c0a
0000
0000
04e0
cafe
301a
0000
0000
0503
cafe
3402
0000
0000
048a
cafe
3812
0000
0000
0458
cafe
3c0b
0000
0000
0430
cafe
201b
0000
0000
04b5
cafe
2403
0000
0000
047d
cafe
2813
0000
0000
04fb
cafe
2c0c
0000
0000
044b
-
cafe
301c
0000
0000
046d
cafe
3404
0000
0000
0441
cafe
3814
0000
0000
04ee
cafe
3c0d
0000
0000
0520
cafe
201d
0000
0000
043c
cafe
2405
0000
0000
04c2
cafe
2815
0000
0000
04bf
cafe
2c0e
0000
0000
052e
cafe
301e
0000
0000
0397
cafe
3406
0000
0000
044f
cafe
3816
0000
0000
049f
cafe
3c0f
0000
0000
03de
cafe
201f
0000
0000
04d0
cafe
2407
0000
0000
044f
cafe
2817
0000
0000
04e6
cafe
2c08
0000
0000
0479
cafe
3018
0000
0000
050f
cafe
3400
0000
0000
0395
cafe
3810
0000
0000
0507
cafe
3c09
0000
0000
03b3
cafe
2019
0000
0000
0568
cafe
2401
0000
0000
0420
cafe
2811
0000
0000
048d
cafe
2c0a
0000
0000
04b5
cafe
301a
0000
0000
04d8
cafe
3402
0000
0000
045e
cafe
3812
0000
0000
042e
cafe
3c0b
0000
0000
0407
cafe
201b
0000
0000
0484
cafe
2403
0000
0000
044f
cafe
2813
0000
0000
04d3
cafe
2c0c
0000
0000
0427
cafe
301c
0000
0000
0448
cafe
3404
0000
0000
041d
cafe
3814
0000
0000
04cc
cafe
3c0d
0000
0000
04f6
cafe
201d
0000
0000
040d
cafe
2405
0000
0000
048f
cafe
2815
0000
0000
0492
cafe
2c0e
0000
0000
04ff
cafe
301e
0000
0000
036d
cafe
3406
0000
0000
042e
cafe
3816
0000
0000
0472
cafe
3c0f
0000
0000
03b4
cafe
201f
0000
0000
04a8
cafe
2407
0000
0000
0422
cafe
2817
0000
0000
04bf
cafe
2c08
0000
0000
045a
cafe
3018
0000
0000
04ed
cafe
3400
0000
0000
0364
cafe
3810
0000
0000
04dc
cafe
-
3c09
0000
0000
038e
cafe
2019
0000
0000
0542
cafe
2401
0000
0000
0400
cafe
2811
0000
0000
0467
cafe
2c0a
0000
0000
0492
cafe
301a
0000
0000
04a5
cafe
3402
0000
0000
043c
cafe
3812
0000
0000
0405
cafe
3c0b
0000
0000
03dd
cafe
201b
0000
0000
045f
cafe
2403
0000
0000
0427
cafe
2813
0000
0000
04ab
cafe
2c0c
0000
0000
03fb
cafe
301c
0000
0000
041a
cafe
3404
0000
0000
03f5
cafe
3814
0000
0000
04a1
cafe
3c0d
0000
0000
04ce
cafe
201d
0000
0000
03e8
cafe
2405
0000
0000
0466
cafe
2815
0000
0000
046b
cafe
2c0e
0000
0000
04e2
cafe
301e
0000
0000
0345
cafe
3406
0000
0000
040e
cafe
3816
0000
0000
044a
cafe
3c0f
0000
0000
0385
cafe
201f
0000
0000
047f
cafe
2407
0000
0000
03fa
cafe
2817
0000
0000
0492
cafe
2c08
0000
0000
042b
cafe
3018
0000
0000
04ba
cafe
3400
0000
0000
033d
cafe
3810
0000
0000
04ba
cafe
3c09
0000
0000
036b
cafe
2019
0000
0000
0514
cafe
2401
0000
0000
03e0
cafe
2811
0000
0000
0440
cafe
2c0a
0000
0000
0462
cafe
301a
0000
0000
048c
cafe
3402
0000
0000
0419
cafe
3812
0000
0000
03da
cafe
3c0b
0000
0000
03b6
cafe
201b
0000
0000
0438
cafe
2403
0000
0000
03fa
cafe
2813
0000
0000
0482
cafe
2c0c
0000
0000
03d9
cafe
301c
0000
0000
03ef
cafe
3404
0000
0000
03cd
cafe
3814
0000
0000
0478
cafe
3c0d
0000
0000
04ae
cafe
201d
0000
0000
03c5
cafe
2405
0000
0000
0444
cafe
2815
-
0000
0000
0442
cafe
2c0e
0000
0000
04bd
cafe
301e
0000
0000
0316
cafe
3406
0000
0000
03e6
cafe
3816
0000
0000
042f
cafe
3c0f
0000
0000
035d
cafe
201f
0000
0000
045f
cafe
2407
0000
0000
03dd
cafe
2817
0000
0000
0464
cafe
2c08
0000
0000
040c
cafe
3018
0000
0000
0494
cafe
3400
0000
0000
0315
cafe
3810
0000
0000
048f
cafe
3c09
0000
0000
033c
cafe
2019
0000
0000
04f7
cafe
2401
0000
0000
03b3
cafe
2811
0000
0000
0423
cafe
2c0a
0000
0000
0431
cafe
301a
0000
0000
0463
cafe
3402
0000
0000
03f1
cafe
3812
0000
0000
03b9
cafe
3c0b
0000
0000
038e
cafe
201b
0000
0000
0416
cafe
2403
0000
0000
03d5
cafe
2813
0000
0000
045a
cafe
2c0c
0000
0000
03af
cafe
301c
0000
0000
03d0
cafe
3404
0000
0000
03a9
cafe
3814
0000
0000
0450
cafe
3c0d
0000
0000
0491
cafe
201d
0000
0000
03a1
cafe
2405
0000
0000
0424
cafe
2815
0000
0000
0424
cafe
2c0e
0000
0000
0497
cafe
301e
0000
0000
02fd
cafe
3406
0000
0000
03bf
cafe
3816
0000
0000
0407
cafe
3c0f
0000
0000
0339
cafe
201f
0000
0000
0437
cafe
2407
0000
0000
03b5
cafe
2817
0000
0000
044a
cafe
2c08
0000
0000
03e5
cafe
3018
0000
0000
0470
cafe
3400
0000
0000
02f9
cafe
3810
0000
0000
046a
cafe
3c09
0000
0000
0310
cafe
2019
0000
0000
04d7
cafe
2401
0000
0000
0399
cafe
2811
0000
0000
0402
cafe
2c0a
0000
0000
0414
cafe
301a
0000
0000
043f
cafe
3402
0000
-
0000
03d6
cafe
3812
0000
0000
0391
cafe
3c0b
0000
0000
0369
cafe
201b
0000
0000
03f8
cafe
2403
0000
0000
03b8
cafe
2813
0000
0000
043a
cafe
2c0c
0000
0000
038b
cafe
301c
0000
0000
03a4
cafe
3404
0000
0000
0384
cafe
3814
0000
0000
042e
cafe
3c0d
0000
0000
0476
cafe
201d
0000
0000
037c
cafe
2405
0000
0000
0402
cafe
2815
0000
0000
0407
cafe
2c0e
0000
0000
046e
cafe
301e
0000
0000
02e3
cafe
3406
0000
0000
03a6
cafe
3816
0000
0000
03de
cafe
3c0f
0000
0000
030f
cafe
201f
0000
0000
041a
cafe
2407
0000
0000
038c
cafe
2817
0000
0000
0429
cafe
2c08
0000
0000
03b9
cafe
3018
0000
0000
0445
cafe
3400
0000
0000
02d8
cafe
3810
0000
0000
0449
cafe
3c09
0000
0000
02fc
cafe
2019
0000
0000
04b7
cafe
2401
0000
0000
0371
cafe
2811
0000
0000
03d7
cafe
2c0a
0000
0000
03f4
cafe
301a
0000
0000
041b
cafe
3402
0000
0000
03b2
cafe
3812
0000
0000
0373
cafe
3c0b
0000
0000
0346
cafe
201b
0000
0000
03d5
cafe
2403
0000
0000
039c
cafe
2813
0000
0000
041d
cafe
2c0c
0000
0000
0367
cafe
301c
0000
0000
0384
cafe
3404
0000
0000
035b
cafe
3814
0000
0000
0411
cafe
3c0d
0000
0000
0454
cafe
201d
0000
0000
035d
cafe
2405
0000
0000
03e1
cafe
2815
0000
0000
03df
cafe
2c0e
0000
0000
0457
cafe
301e
0000
0000
02c1
cafe
3406
0000
0000
0387
cafe
3816
0000
0000
03bd
cafe
3c0f
0000
0000
02f0
cafe
201f
0000
0000
-
03f8
cafe
2407
0000
0000
0372
cafe
2817
0000
0000
0405
cafe
2c08
0000
0000
039c
cafe
3018
0000
0000
0427
cafe
3400
0000
0000
02b2
cafe
3810
0000
0000
0423
cafe
3c09
0000
0000
02d9
cafe
2019
0000
0000
0494
cafe
2401
0000
0000
0350
cafe
2811
0000
0000
03b6
cafe
2c0a
0000
0000
03dd
cafe
301a
0000
0000
03f9
cafe
3402
0000
0000
0394
cafe
3812
0000
0000
0355
cafe
3c0b
0000
0000
031f
cafe
201b
0000
0000
03ae
cafe
2403
0000
0000
0379
cafe
2813
0000
0000
03fb
cafe
2c0c
0000
0000
0341
cafe
301c
0000
0000
035e
cafe
3404
0000
0000
0333
cafe
3814
0000
0000
03e9
cafe
3c0d
0000
0000
042a
cafe
201d
0000
0000
0340
cafe
2405
0000
0000
03ca
cafe
2815
0000
0000
03c0
cafe
2c0e
0000
0000
0438
cafe
301e
0000
0000
02a0
cafe
3406
0000
0000
036b
cafe
3816
0000
0000
03aa
cafe
3c0f
0000
0000
02d9
cafe
201f
0000
0000
03d1
cafe
2407
0000
0000
0356
cafe
2817
0000
0000
03dd
cafe
2c08
0000
0000
037d
cafe
3018
0000
0000
040d
cafe
3400
0000
0000
0299
cafe
3810
0000
0000
0406
cafe
3c09
0000
0000
02b4
cafe
2019
0000
0000
0469
cafe
2401
0000
0000
032d
cafe
2811
0000
0000
03a0
cafe
2c0a
0000
0000
03b5
cafe
301a
0000
0000
03dd
cafe
3402
0000
0000
0373
cafe
3812
0000
0000
0336
cafe
3c0b
0000
0000
030a
cafe
201b
0000
0000
038d
cafe
2403
0000
0000
0361
cafe
2813
0000
0000
03e2
cafe
2c0c
0000
0000
031e
-
cafe
301c
0000
0000
0348
cafe
3404
0000
0000
031b
cafe
3814
0000
0000
03cc
cafe
3c0d
0000
0000
040a
cafe
201d
0000
0000
031c
cafe
2405
0000
0000
03a4
cafe
2815
0000
0000
03a3
cafe
2c0e
0000
0000
0415
cafe
301e
0000
0000
0288
cafe
3406
0000
0000
0345
cafe
3816
0000
0000
038c
cafe
3c0f
0000
0000
02c4
cafe
201f
0000
0000
03bb
cafe
2407
0000
0000
033f
cafe
2817
0000
0000
03c0
cafe
2c08
0000
0000
0366
cafe
3018
0000
0000
03f2
cafe
3400
0000
0000
0276
cafe
3810
0000
0000
03e7
cafe
3c09
0000
0000
0297
cafe
2019
0000
0000
044c
cafe
2401
0000
0000
030c
cafe
2811
0000
0000
0381
cafe
2c0a
0000
0000
0396
cafe
301a
0000
0000
03bf
cafe
3402
0000
0000
0346
cafe
3812
0000
0000
0316
cafe
3c0b
0000
0000
02e8
cafe
201b
0000
0000
037a
cafe
2403
0000
0000
0342
cafe
2813
0000
0000
03c0
cafe
2c0c
0000
0000
02fb
cafe
301c
0000
0000
0326
cafe
3404
0000
0000
0306
cafe
3814
0000
0000
03b2
cafe
3c0d
0000
0000
03e3
cafe
201d
0000
0000
02fd
cafe
2405
0000
0000
0385
cafe
2815
0000
0000
037f
cafe
2c0e
0000
0000
03ee
cafe
301e
0000
0000
026b
cafe
3406
0000
0000
0329
cafe
3816
0000
0000
036c
cafe
3c0f
0000
0000
02ab
cafe
201f
0000
0000
039b
cafe
2407
0000
0000
0324
cafe
2817
0000
0000
03a3
cafe
2c08
0000
0000
034b
cafe
3018
0000
0000
03d7
cafe
3400
0000
0000
0263
cafe
3810
0000
0000
03cd
cafe
-
3c09
0000
0000
027d
cafe
2019
0000
0000
0430
cafe
2401
0000
0000
02f5
cafe
2811
0000
0000
0368
cafe
2c0a
0000
0000
0373
cafe
301a
0000
0000
03a3
cafe
3402
0000
0000
032b
cafe
3812
0000
0000
0302
cafe
3c0b
0000
0000
02cf
cafe
201b
0000
0000
0360
cafe
2403
0000
0000
0322
cafe
2813
0000
0000
039a
cafe
2c0c
0000
0000
02e5
cafe
301c
0000
0000
030b
cafe
3404
0000
0000
02ee
cafe
3814
0000
0000
03a3
cafe
3c0d
0000
0000
03c7
cafe
201d
0000
0000
02e5
cafe
2405
0000
0000
0372
cafe
2815
0000
0000
035e
cafe
2c0e
0000
0000
03d8
cafe
301e
0000
0000
0252
cafe
3406
0000
0000
0311
cafe
3816
0000
0000
034f
cafe
3c0f
0000
0000
0289
cafe
201f
0000
0000
0385
cafe
2407
0000
0000
030b
cafe
2817
0000
0000
0391
cafe
2c08
0000
0000
0333
cafe
3018
0000
0000
03b6
cafe
3400
0000
0000
0248
cafe
3810
0000
0000
03b7
cafe
3c09
0000
0000
0261
cafe
2019
0000
0000
0418
cafe
2401
0000
0000
02e6
cafe
2811
0000
0000
0347
cafe
2c0a
0000
0000
0362
cafe
301a
0000
0000
038c
cafe
3402
0000
0000
0314
cafe
3812
0000
0000
02e4
cafe
3c0b
0000
0000
02b1
cafe
201b
0000
0000
0340
cafe
2403
0000
0000
030b
cafe
2813
0000
0000
0382
cafe
2c0c
0000
0000
02c8
cafe
301c
0000
0000
02eb
cafe
3404
0000
0000
02d5
cafe
3814
0000
0000
0384
cafe
3c0d
0000
0000
03a4
cafe
201d
0000
0000
02d1
cafe
2405
0000
0000
0359
cafe
2815
-
0000
0000
0346
cafe
2c0e
0000
0000
03be
cafe
301e
0000
0000
0233
cafe
3406
0000
0000
02f8
cafe
3816
0000
0000
0332
cafe
3c0f
0000
0000
026e
cafe
201f
0000
0000
0372
cafe
2407
0000
0000
02f5
cafe
2817
0000
0000
0370
cafe
2c08
0000
0000
0317
cafe
3018
0000
0000
03a8
cafe
3400
0000
0000
0229
cafe
3810
0000
0000
03a6
cafe
3c09
0000
0000
0247
cafe
2019
0000
0000
0403
cafe
2401
0000
0000
02c8
cafe
2811
0000
0000
0326
cafe
2c0a
0000
0000
0344
cafe
301a
0000
0000
0369
cafe
3402
0000
0000
02f9
cafe
3812
0000
0000
02c7
cafe
3c0b
0000
0000
0299
cafe
201b
0000
0000
0325
cafe
2403
0000
0000
02f2
cafe
2813
0000
0000
0367
cafe
2c0c
0000
0000
02b0
cafe
301c
0000
0000
02d3
cafe
3404
0000
0000
02b0
cafe
3814
0000
0000
035f
cafe
3c0d
0000
0000
0387
cafe
201d
0000
0000
02b5
cafe
2405
0000
0000
033c
cafe
2815
0000
0000
0332
cafe
2c0e
0000
0000
0398
cafe
301e
0000
0000
0224
cafe
3406
0000
0000
02e1
cafe
3816
0000
0000
031c
cafe
3c0f
0000
0000
0266
cafe
201f
0000
0000
0351
cafe
2407
0000
0000
02d8
cafe
2817
0000
0000
0357
cafe
2c08
0000
0000
02f8
cafe
3018
0000
0000
038b
cafe
3400
0000
0000
0216
cafe
3810
0000
0000
0389
cafe
3c09
0000
0000
0237
cafe
2019
0000
0000
03e4
cafe
2401
0000
0000
02b3
cafe
2811
0000
0000
0313
cafe
2c0a
0000
0000
0327
cafe
301a
0000
0000
0350
cafe
3402
0000
-
0000
02e5
cafe
3812
0000
0000
02ba
cafe
3c0b
0000
0000
028c
cafe
201b
0000
0000
030b
cafe
2403
0000
0000
02e7
cafe
2813
0000
0000
034d
cafe
2c0c
0000
0000
0295
cafe
301c
0000
0000
02be
cafe
3404
0000
0000
028e
cafe
3814
0000
0000
034c
cafe
3c0d
0000
0000
0375
cafe
201d
0000
0000
029d
cafe
2405
0000
0000
0329
cafe
2815
0000
0000
0312
cafe
2c0e
0000
0000
037e
cafe
301e
0000
0000
0215
cafe
3406
0000
0000
02c6
cafe
3816
0000
0000
0305
cafe
3c0f
0000
0000
024d
cafe
201f
0000
0000
0339
cafe
2407
0000
0000
02c0
cafe
2817
0000
0000
0348
cafe
2c08
0000
0000
02e4
cafe
3018
0000
0000
0369
cafe
3400
0000
0000
01f7
cafe
3810
0000
0000
0379
cafe
3c09
0000
0000
021c
cafe
2019
0000
0000
03d0
cafe
2401
0000
0000
02a2
cafe
2811
0000
0000
02fd
cafe
2c0a
0000
0000
030a
cafe
301a
0000
0000
0338
cafe
3402
0000
0000
02c4
cafe
3812
0000
0000
029a
cafe
3c0b
0000
0000
027a
cafe
201b
0000
0000
02fa
cafe
2403
0000
0000
02dd
cafe
2813
0000
0000
033a
cafe
2c0c
0000
0000
0280
cafe
301c
0000
0000
02aa
cafe
3404
0000
0000
0288
cafe
3814
0000
0000
0336
cafe
3c0d
0000
0000
0362
cafe
201d
0000
0000
0283
cafe
2405
0000
0000
0314
cafe
2815
0000
0000
0305
cafe
2c0e
0000
0000
036a
cafe
301e
0000
0000
0201
cafe
3406
0000
0000
02b5
cafe
3816
0000
0000
02ea
cafe
3c0f
0000
0000
023e
cafe
201f
0000
0000
-
031d
cafe
2407
0000
0000
02a8
cafe
2817
0000
0000
032d
cafe
2c08
0000
0000
02cf
cafe
3018
0000
0000
0353
cafe
3400
0000
0000
01e5
cafe
3810
0000
0000
035a
cafe
3c09
0000
0000
0203
cafe
2019
0000
0000
03bd
cafe
2401
0000
0000
0290
cafe
2811
0000
0000
02e4
cafe
2c0a
0000
0000
02f3
cafe
301a
0000
0000
0326
cafe
3402
0000
0000
02a9
cafe
3812
0000
0000
0281
cafe
3c0b
0000
0000
0263
cafe
201b
0000
0000
02d5
cafe
2403
0000
0000
02b8
cafe
2813
0000
0000
031e
cafe
2c0c
0000
0000
0269
cafe
301c
0000
0000
029c
cafe
3404
0000
0000
0268
cafe
3814
0000
0000
0315
cafe
3c0d
0000
0000
034e
cafe
201d
0000
0000
026b
cafe
2405
0000
0000
0305
cafe
2815
0000
0000
02f8
cafe
2c0e
0000
0000
0350
cafe
301e
0000
0000
01e5
cafe
3406
0000
0000
029f
cafe
3816
0000
0000
02db
cafe
3c0f
0000
0000
0225
cafe
201f
0000
0000
0304
cafe
2407
0000
0000
0296
cafe
2817
0000
0000
0311
cafe
2c08
0000
0000
02ae
cafe
3018
0000
0000
0341
cafe
3400
0000
0000
01dd
cafe
3810
0000
0000
0334
cafe
3c09
0000
0000
01f4
cafe
2019
0000
0000
039b
cafe
2401
0000
0000
027e
cafe
2811
0000
0000
02d5
cafe
2c0a
0000
0000
02d4
cafe
301a
0000
0000
0317
cafe
3402
0000
0000
0291
cafe
3812
0000
0000
026e
cafe
3c0b
0000
0000
0249
cafe
201b
0000
0000
02c6
cafe
2403
0000
0000
02a5
cafe
2813
0000
0000
030a
cafe
2c0c
0000
0000
0257
-
cafe
301c
0000
0000
028a
cafe
3404
0000
0000
025a
cafe
3814
0000
0000
0313
cafe
3c0d
0000
0000
0339
cafe
201d
0000
0000
0257
cafe
2405
0000
0000
02ec
cafe
2815
0000
0000
02e2
cafe
2c0e
0000
0000
0339
cafe
301e
0000
0000
01d1
cafe
3406
0000
0000
028f
cafe
3816
0000
0000
02cc
cafe
3c0f
0000
0000
020d
cafe
201f
0000
0000
02ee
cafe
2407
0000
0000
0283
cafe
2817
0000
0000
02f3
cafe
2c08
0000
0000
029f
cafe
3018
0000
0000
0325
cafe
3400
0000
0000
01cc
cafe
3810
0000
0000
032d
cafe
3c09
0000
0000
01e0
cafe
2019
0000
0000
0386
cafe
2401
0000
0000
0265
cafe
2811
0000
0000
02b3
cafe
2c0a
0000
0000
02bd
cafe
301a
0000
0000
0305
cafe
3402
0000
0000
027b
cafe
3812
0000
0000
025a
cafe
3c0b
0000
0000
0231
cafe
201b
0000
0000
02ba
cafe
2403
0000
0000
0291
cafe
2813
0000
0000
02fb
cafe
2c0c
0000
0000
024b
cafe
301c
0000
0000
0275
cafe
3404
0000
0000
024c
cafe
3814
0000
0000
0301
cafe
3c0d
0000
0000
031f
cafe
201d
0000
0000
024b
cafe
2405
0000
0000
02d2
cafe
2815
0000
0000
02c6
cafe
2c0e
0000
0000
031c
cafe
301e
0000
0000
01bf
cafe
3406
0000
0000
026e
cafe
3816
0000
0000
02b9
cafe
3c0f
0000
0000
0203
cafe
201f
0000
0000
02e0
cafe
2407
0000
0000
0269
cafe
2817
0000
0000
02e8
cafe
2c08
0000
0000
029a
cafe
3018
0000
0000
030d
cafe
3400
0000
0000
01bf
cafe
3810
0000
0000
031a
cafe
-
3c09
0000
0000
01cc
cafe
2019
0000
0000
036f
cafe
2401
0000
0000
0257
cafe
2811
0000
0000
0298
cafe
2c0a
0000
0000
02ba
cafe
301a
0000
0000
02f9
cafe
3402
0000
0000
0270
cafe
3812
0000
0000
0240
cafe
3c0b
0000
0000
0221
cafe
201b
0000
0000
0296
cafe
2403
0000
0000
028a
cafe
2813
0000
0000
02eb
cafe
2c0c
0000
0000
022d
cafe
301c
0000
0000
0263
cafe
3404
0000
0000
023f
cafe
3814
0000
0000
02e8
cafe
3c0d
0000
0000
0307
cafe
201d
0000
0000
0235
cafe
2405
0000
0000
02b9
cafe
2815
0000
0000
02bc
cafe
2c0e
0000
0000
0309
cafe
301e
0000
0000
01a9
cafe
3406
0000
0000
025f
cafe
3816
0000
0000
02a6
cafe
3c0f
0000
0000
01f7
cafe
201f
0000
0000
02c5
cafe
2407
0000
0000
024e
cafe
2817
0000
0000
02cd
cafe
2c08
0000
0000
0280
cafe
3018
0000
0000
02f8
cafe
3400
0000
0000
01a0
cafe
3810
0000
0000
0304
cafe
3c09
0000
0000
01b7
cafe
2019
0000
0000
036d
cafe
2401
0000
0000
0241
cafe
2811
0000
0000
0284
cafe
2c0a
0000
0000
02ad
cafe
301a
0000
0000
02e7
cafe
3402
0000
0000
025c
cafe
3812
0000
0000
0239
cafe
3c0b
0000
0000
0208
cafe
201b
0000
0000
027e
cafe
2403
0000
0000
0278
cafe
2813
0000
0000
02d6
cafe
2c0c
0000
0000
0217
cafe
301c
0000
0000
0251
cafe
3404
0000
0000
022d
cafe
3814
0000
0000
02dc
cafe
3c0d
0000
0000
02f5
cafe
201d
0000
0000
0227
cafe
2405
0000
0000
02a0
cafe
2815
-
0000
0000
02a0
cafe
2c0e
0000
0000
02f0
cafe
301e
0000
0000
019a
cafe
3406
0000
0000
0250
cafe
3816
0000
0000
0293
cafe
3c0f
0000
0000
01ea
cafe
201f
0000
0000
02b7
cafe
2407
0000
0000
0247
cafe
2817
0000
0000
02bf
cafe
2c08
0000
0000
0261
cafe
3018
0000
0000
02e3
cafe
3400
0000
0000
0195
cafe
3810
0000
0000
02fa
cafe
3c09
0000
0000
01ac
cafe
2019
0000
0000
035c
cafe
2401
0000
0000
022b
cafe
2811
0000
0000
0274
cafe
2c0a
0000
0000
029b
cafe
301a
0000
0000
02d2
cafe
3402
0000
0000
023f
cafe
3812
0000
0000
0225
cafe
3c0b
0000
0000
01fa
cafe
201b
0000
0000
026c
cafe
2403
0000
0000
0269
cafe
2813
0000
0000
02be
cafe
2c0c
0000
0000
0209
cafe
301c
0000
0000
0244
cafe
3404
0000
0000
0213
cafe
3814
0000
0000
02c9
cafe
3c0d
0000
0000
02e8
cafe
201d
0000
0000
0217
cafe
2405
0000
0000
029e
cafe
2815
0000
0000
0299
cafe
2c0e
0000
0000
02da
cafe
301e
0000
0000
018f
cafe
3406
0000
0000
0240
cafe
3816
0000
0000
0284
cafe
3c0f
0000
0000
01db
cafe
201f
0000
0000
02a3
cafe
2407
0000
0000
0237
cafe
2817
0000
0000
02a8
cafe
2c08
0000
0000
024e
cafe
3018
0000
0000
02d0
cafe
3400
0000
0000
0191
cafe
3810
0000
0000
02e7
cafe
3c09
0000
0000
019e
cafe
2019
0000
0000
0345
cafe
2401
0000
0000
0230
cafe
2811
0000
0000
0267
cafe
2c0a
0000
0000
0289
cafe
301a
0000
0000
02bc
cafe
3402
0000
-
0000
0233
cafe
3812
0000
0000
021a
cafe
3c0b
0000
0000
01e1
cafe
201b
0000
0000
0263
cafe
2403
0000
0000
0251
cafe
2813
0000
0000
02ad
cafe
2c0c
0000
0000
01fa
cafe
301c
0000
0000
022e
cafe
3404
0000
0000
01fe
cafe
3814
0000
0000
02c1
cafe
3c0d
0000
0000
02d0
cafe
201d
0000
0000
0204
cafe
2405
0000
0000
028b
cafe
2815
0000
0000
0277
cafe
2c0e
0000
0000
02cc
cafe
301e
0000
0000
0181
cafe
3406
0000
0000
022f
cafe
3816
0000
0000
0274
cafe
3c0f
0000
0000
01c9
cafe
201f
0000
0000
0298
cafe
2407
0000
0000
022a
cafe
2817
0000
0000
0299
cafe
2c08
0000
0000
0249
cafe
3018
0000
0000
02c5
cafe
3400
0000
0000
017f
cafe
3810
0000
0000
02d8
cafe
3c09
0000
0000
018d
cafe
2019
0000
0000
0336
cafe
2401
0000
0000
0219
cafe
2811
0000
0000
0256
cafe
2c0a
0000
0000
0279
cafe
301a
0000
0000
02a7
cafe
3402
0000
0000
022e
cafe
3812
0000
0000
0203
cafe
3c0b
0000
0000
01d7
cafe
201b
0000
0000
0252
cafe
2403
0000
0000
0243
cafe
2813
0000
0000
029f
cafe
2c0c
0000
0000
01ea
cafe
301c
0000
0000
0223
cafe
3404
0000
0000
01f5
cafe
3814
0000
0000
02a7
cafe
3c0d
0000
0000
02bd
cafe
201d
0000
0000
01f9
cafe
2405
0000
0000
026d
cafe
2815
0000
0000
0269
cafe
2c0e
0000
0000
02be
cafe
301e
0000
0000
016f
cafe
3406
0000
0000
0225
cafe
3816
0000
0000
0263
cafe
3c0f
0000
0000
01ae
cafe
201f
0000
0000
-
0292
cafe
2407
0000
0000
021a
cafe
2817
0000
0000
0285
cafe
2c08
0000
0000
023a
cafe
3018
0000
0000
02b6
cafe
3400
0000
0000
016b
cafe
3810
0000
0000
02c5
cafe
3c09
0000
0000
0177
cafe
2019
0000
0000
0328
cafe
2401
0000
0000
020a
cafe
2811
0000
0000
0251
cafe
2c0a
0000
0000
0267
cafe
301a
0000
0000
029a
cafe
3402
0000
0000
0220
cafe
3812
0000
0000
01f0
cafe
3c0b
0000
0000
01ce
cafe
201b
0000
0000
0245
cafe
2403
0000
0000
0239
cafe
2813
0000
0000
028c
cafe
2c0c
0000
0000
01e4
cafe
301c
0000
0000
020b
cafe
3404
0000
0000
01e2
cafe
3814
0000
0000
0296
cafe
3c0d
0000
0000
02b1
cafe
201d
0000
0000
01eb
cafe
2405
0000
0000
0254
cafe
2815
0000
0000
0261
cafe
2c0e
0000
0000
02ad
cafe
301e
0000
0000
015b
cafe
3406
0000
0000
0212
cafe
3816
0000
0000
024d
cafe
3c0f
0000
0000
0198
cafe
201f
0000
0000
0282
cafe
2407
0000
0000
0212
cafe
2817
0000
0000
0275
cafe
2c08
0000
0000
022d
cafe
3018
0000
0000
02a1
cafe
3400
0000
0000
0163
cafe
3810
0000
0000
02be
cafe
3c09
0000
0000
016a
cafe
2019
0000
0000
031d
cafe
2401
0000
0000
01fd
cafe
2811
0000
0000
023e
cafe
2c0a
0000
0000
024c
cafe
301a
0000
0000
0293
cafe
3402
0000
0000
0223
cafe
3812
0000
0000
01ed
cafe
3c0b
0000
0000
01c4
cafe
201b
0000
0000
0232
cafe
2403
0000
0000
0224
cafe
2813
0000
0000
0276
cafe
2c0c
0000
0000
01d4
-
cafe
301c
0000
0000
020a
cafe
3404
0000
0000
01d9
cafe
3814
0000
0000
0288
cafe
3c0d
0000
0000
02ab
cafe
201d
0000
0000
01ce
cafe
2405
0000
0000
0246
cafe
2815
0000
0000
024e
cafe
2c0e
0000
0000
02a4
cafe
301e
0000
0000
0148
cafe
3406
0000
0000
01ff
cafe
3816
0000
0000
0245
cafe
3c0f
0000
0000
0182
cafe
201f
0000
0000
026c
cafe
2407
0000
0000
0203
cafe
2817
0000
0000
0267
cafe
2c08
0000
0000
0224
cafe
3018
0000
0000
0297
cafe
3400
0000
0000
0149
cafe
3810
0000
0000
02a3
cafe
3c09
0000
0000
0164
cafe
2019
0000
0000
0309
cafe
2401
0000
0000
01ef
cafe
2811
0000
0000
022f
cafe
2c0a
0000
0000
0246
cafe
301a
0000
0000
0283
cafe
3402
0000
0000
0211
cafe
3812
0000
0000
01dd
cafe
3c0b
0000
0000
01af
cafe
201b
0000
0000
0224
cafe
2403
0000
0000
0224
cafe
2813
0000
0000
0269
cafe
2c0c
0000
0000
01c8
cafe
301c
0000
0000
01fd
cafe
3404
0000
0000
01d4
cafe
3814
0000
0000
027f
cafe
3c0d
0000
0000
02a2
cafe
201d
0000
0000
01c3
cafe
2405
0000
0000
0235
cafe
2815
0000
0000
023b
cafe
2c0e
0000
0000
028a
cafe
301e
0000
0000
0141
cafe
3406
0000
0000
01f2
cafe
3816
0000
0000
0233
cafe
3c0f
0000
0000
017a
cafe
201f
0000
0000
0256
cafe
2407
0000
0000
01ea
cafe
2817
0000
0000
0253
cafe
2c08
0000
0000
0211
cafe
3018
0000
0000
028b
cafe
3400
0000
0000
0131
cafe
3810
0000
0000
029a
cafe
-
