280f
0000
0000
00ed
cafe
2c0f
0000
0000
00f5
cafe
300f
0000
0000
00f5
cafe
340f
0000
0000
00f6
cafe
380f
0000
0000
00ed
cafe
3c0f
0000
0000
00ed
cafe
200f
0000
0000
00f0
cafe
240f
0000
0000
00f2
cafe
280f
0000
0000
00f4
cafe
2c0f
0000
0000
00f7
cafe
300f
0000
0000
00f1
cafe
340f
0000
0000
00e7
cafe
380f
0000
0000
00ef
cafe
3c0f
0000
0000
00e8
cafe
200f
0000
0000
00fa
cafe
240f
0000
0000
00f4
cafe
280f
0000
0000
00fa
cafe
2c0f
0000
0000
00e8
cafe
300f
0000
0000
00f0
cafe
340f
0000
0000
0100
cafe
380f
0000
0000
00f1
cafe
3c0f
0000
0000
00ed
cafe
200f
0000
0000
00eb
cafe
240f
0000
0000
00f7
cafe
280f
0000
0000
00fc
cafe
2c0f
0000
0000
00f0
cafe
300f
0000
0000
00e4
cafe
340f
0000
0000
00f0
cafe
380f
0000
0000
00e9
cafe
3c0f
0000
0000
00f6
cafe
200f
0000
0000
00fc
cafe
240f
0000
0000
00f8
cafe
280f
0000
0000
00eb
cafe
2c0f
0000
0000
00f3
cafe
300f
0000
0000
00fb
cafe
340f
0000
0000
00e6
cafe
380f
0000
0000
00ea
cafe
3c0f
0000
0000
00ed
cafe
200f
0000
0000
00fa
cafe
240f
0000
0000
00ff
cafe
280f
0000
0000
00ee
cafe
2c0f
0000
0000
00f0
cafe
300f
0000
0000
00e5
cafe
340f
0000
0000
00e6
cafe
380f
0000
0000
00f3
cafe
3c0f
0000
0000
00ea
cafe
200f
0000
0000
00ec
cafe
240f
0000
0000
00e4
cafe
280f
0000
0000
00ec
cafe
2c0f
0000
0000
00e9
cafe
300f
0000
0000
00e7
cafe
340f
-
0000
0000
00ee
cafe
380f
0000
0000
00ee
cafe
3c0f
0000
0000
00ed
cafe
200f
0000
0000
00f0
cafe
240f
0000
0000
00f4
cafe
280f
0000
0000
00f9
cafe
2c0f
0000
0000
00fa
cafe
300f
0000
0000
00f6
cafe
340f
0000
0000
00f9
cafe
380f
0000
0000
00f0
cafe
3c0f
0000
0000
00eb
cafe
200f
0000
0000
00f6
cafe
240f
0000
0000
00e8
cafe
280f
0000
0000
00f3
cafe
2c0f
0000
0000
00ed
cafe
300f
0000
0000
00fb
cafe
340f
0000
0000
00f5
cafe
380f
0000
0000
00ec
cafe
3c0f
0000
0000
00ff
cafe
200f
0000
0000
00ee
cafe
240f
0000
0000
00e3
cafe
280f
0000
0000
00e7
cafe
2c0f
0000
0000
00e8
cafe
300f
0000
0000
00e1
cafe
340f
0000
0000
00f1
cafe
380f
0000
0000
00f9
cafe
3c0f
0000
0000
00f7
cafe
200f
0000
0000
00e1
cafe
240f
0000
0000
00ee
cafe
280f
0000
0000
00e7
cafe
2c0f
0000
0000
00e5
cafe
300f
0000
0000
00e9
cafe
340f
0000
0000
00eb
cafe
380f
0000
0000
00e9
cafe
3c0f
0000
0000
00f1
cafe
200f
0000
0000
00ec
cafe
240f
0000
0000
00f4
cafe
280f
0000
0000
00ed
cafe
2c0f
0000
0000
00eb
cafe
300f
0000
0000
00f5
cafe
340f
0000
0000
00ec
cafe
380f
0000
0000
00e7
cafe
3c0f
0000
0000
00eb
cafe
200f
0000
0000
00e8
cafe
240f
0000
0000
00eb
cafe
280f
0000
0000
00e4
cafe
2c0f
0000
0000
00ef
cafe
300f
0000
0000
00ef
cafe
340f
0000
0000
00ea
cafe
380f
0000
0000
00fc
cafe
3c0f
0000
0000
00f3
cafe
200f
0000
-
0000
00e7
cafe
240f
0000
0000
00e4
cafe
280f
0000
0000
00ea
cafe
2c0f
0000
0000
00e5
cafe
300f
0000
0000
00ea
cafe
340f
0000
0000
00ed
cafe
380f
0000
0000
00fe
cafe
3c0f
0000
0000
00eb
cafe
200f
0000
0000
00f4
cafe
240f
0000
0000
00e3
cafe
280f
0000
0000
00e2
cafe
2c0f
0000
0000
00e6
cafe
300f
0000
0000
00e8
cafe
340f
0000
0000
00ec
cafe
380f
0000
0000
00e9
cafe
3c0f
0000
0000
00de
cafe
200f
0000
0000
00e2
cafe
240f
0000
0000
00f5
cafe
280f
0000
0000
00ed
cafe
2c0f
0000
0000
00e1
cafe
300f
0000
0000
00f2
cafe
340f
0000
0000
00f2
cafe
380f
0000
0000
00ea
cafe
3c0f
0000
0000
00f0
cafe
200f
0000
0000
00e9
cafe
240f
0000
0000
00ef
cafe
280f
0000
0000
00f8
cafe
2c0f
0000
0000
00ed
cafe
300f
0000
0000
00f2
cafe
340f
0000
0000
00e9
cafe
380f
0000
0000
00f5
cafe
3c0f
0000
0000
00f1
cafe
200f
0000
0000
00e7
cafe
240f
0000
0000
00f2
cafe
280f
0000
0000
00e9
cafe
2c0f
0000
0000
00e9
cafe
300f
0000
0000
00ed
cafe
340f
0000
0000
00f1
cafe
380f
0000
0000
00ed
cafe
3c0f
0000
0000
00f0
cafe
200f
0000
0000
00f9
cafe
240f
0000
0000
00ef
cafe
280f
0000
0000
00f0
cafe
2c0f
0000
0000
00f0
cafe
300f
0000
0000
00f3
cafe
340f
0000
0000
00f5
cafe
380f
0000
0000
00f1
cafe
3c0f
0000
0000
00ea
cafe
200f
0000
0000
00f0
cafe
240f
0000
0000
00fa
cafe
280f
0000
0000
00e8
cafe
2c0f
0000
0000
-
00ee
cafe
300f
0000
0000
00f1
cafe
340f
0000
0000
00f0
cafe
380f
0000
0000
00eb
cafe
3c0f
0000
0000
00ef
cafe
200f
0000
0000
00f3
cafe
240f
0000
0000
0102
cafe
280f
0000
0000
00f3
cafe
2c0f
0000
0000
00fa
cafe
300f
0000
0000
00fc
cafe
340f
0000
0000
00fd
cafe
380f
0000
0000
00f8
cafe
3c0f
0000
0000
00fa
cafe
200f
0000
0000
00fc
cafe
240f
0000
0000
00f4
cafe
280f
0000
0000
00f1
cafe
2c0f
0000
0000
00ea
cafe
300f
0000
0000
00ef
cafe
340f
0000
0000
00f0
cafe
380f
0000
0000
00fc
cafe
3c0f
0000
0000
00f8
cafe
200f
0000
0000
00ed
cafe
240f
0000
0000
00ef
cafe
280f
0000
0000
00ee
cafe
2c0f
0000
0000
00fc
cafe
300f
0000
0000
00f8
cafe
340f
0000
0000
00f4
cafe
380f
0000
0000
00f0
cafe
3c0f
0000
0000
00fb
cafe
200f
0000
0000
00f3
cafe
240f
0000
0000
00f6
cafe
280f
0000
0000
00f8
cafe
2c0f
0000
0000
00f5
cafe
300f
0000
0000
00f7
cafe
340f
0000
0000
00f2
cafe
380f
0000
0000
00ed
cafe
3c0f
0000
0000
00f6
cafe
200f
0000
0000
00f6
cafe
240f
0000
0000
00f6
cafe
280f
0000
0000
00f3
cafe
2c0f
0000
0000
00ea
cafe
300f
0000
0000
00fa
cafe
340f
0000
0000
00ed
cafe
380f
0000
0000
00f5
cafe
3c0f
0000
0000
00fc
cafe
200f
0000
0000
00f8
cafe
240f
0000
0000
00f5
cafe
280f
0000
0000
00fa
cafe
2c0f
0000
0000
00f4
cafe
300f
0000
0000
00f2
cafe
340f
0000
0000
00eb
cafe
380f
0000
0000
00ec
-
cafe
3c0f
0000
0000
00ec
cafe
200f
0000
0000
00f3
cafe
240f
0000
0000
00e7
cafe
280f
0000
0000
00ed
cafe
2c0f
0000
0000
00ed
cafe
300f
0000
0000
00eb
cafe
340f
0000
0000
00e6
cafe
380f
0000
0000
00ee
cafe
3c0f
0000
0000
00e4
cafe
200f
0000
0000
00ed
cafe
240f
0000
0000
00ec
cafe
280f
0000
0000
00ee
cafe
2c0f
0000
0000
00ec
cafe
300f
0000
0000
00e9
cafe
340f
0000
0000
00ec
cafe
380f
0000
0000
00f2
cafe
3c0f
0000
0000
00f5
cafe
200f
0000
0000
00fe
cafe
240f
0000
0000
00ff
cafe
280f
0000
0000
00fc
cafe
2c0f
0000
0000
00fb
cafe
300f
0000
0000
00f6
cafe
340f
0000
0000
00f3
cafe
380f
0000
0000
00f2
cafe
3c0f
0000
0000
00f3
cafe
200f
0000
0000
00fd
cafe
240f
0000
0000
00f6
cafe
280f
0000
0000
00eb
cafe
2c0f
0000
0000
00f5
cafe
300f
0000
0000
00f4
cafe
340f
0000
0000
00ee
cafe
380f
0000
0000
00f6
cafe
3c0f
0000
0000
00f4
cafe
200f
0000
0000
00eb
cafe
240f
0000
0000
00e9
cafe
280f
0000
0000
00f6
cafe
2c0f
0000
0000
00ee
cafe
300f
0000
0000
00f1
cafe
340f
0000
0000
00f6
cafe
380f
0000
0000
00e8
cafe
3c0f
0000
0000
00fb
cafe
200f
0000
0000
00f4
cafe
240f
0000
0000
00ee
cafe
280f
0000
0000
00ec
cafe
2c0f
0000
0000
00f4
cafe
300f
0000
0000
00f0
cafe
340f
0000
0000
00eb
cafe
380f
0000
0000
00ee
cafe
3c0f
0000
0000
00f2
cafe
200f
0000
0000
00de
cafe
240f
0000
0000
00e9
cafe
-
280f
0000
0000
00f2
cafe
2c0f
0000
0000
00f3
cafe
300f
0000
0000
00e6
cafe
340f
0000
0000
00e6
cafe
380f
0000
0000
00e7
cafe
3c0f
0000
0000
00ec
cafe
200f
0000
0000
00e5
cafe
240f
0000
0000
00ee
cafe
280f
0000
0000
00ed
cafe
2c0f
0000
0000
00e6
cafe
300f
0000
0000
00e7
cafe
340f
0000
0000
00e6
cafe
380f
0000
0000
00d8
cafe
3c0f
0000
0000
00de
cafe
200f
0000
0000
00e1
cafe
240f
0000
0000
00eb
cafe
280f
0000
0000
00dd
cafe
2c0f
0000
0000
00e8
cafe
300f
0000
0000
00e0
cafe
340f
0000
0000
00f1
cafe
380f
0000
0000
00f0
cafe
3c0f
0000
0000
00f2
cafe
200f
0000
0000
00ed
cafe
240f
0000
0000
00ed
cafe
280f
0000
0000
00e9
cafe
2c0f
0000
0000
00e1
cafe
300f
0000
0000
00e7
cafe
340f
0000
0000
00f2
cafe
380f
0000
0000
00df
cafe
3c0f
0000
0000
00e3
cafe
200f
0000
0000
00ea
cafe
240f
0000
0000
00f0
cafe
280f
0000
0000
00ec
cafe
2c0f
0000
0000
00f3
cafe
300f
0000
0000
00ef
cafe
340f
0000
0000
00ee
cafe
380f
0000
0000
00ed
cafe
3c0f
0000
0000
00f4
cafe
200f
0000
0000
00f4
cafe
240f
0000
0000
00ee
cafe
280f
0000
0000
00ea
cafe
2c0f
0000
0000
00ec
cafe
300f
0000
0000
00f0
cafe
340f
0000
0000
00ec
cafe
380f
0000
0000
00fb
cafe
3c0f
0000
0000
00ed
cafe
200f
0000
0000
00f3
cafe
240f
0000
0000
00ed
cafe
280f
0000
0000
00f6
cafe
2c0f
0000
0000
00f5
cafe
300f
0000
0000
00ee
cafe
340f
-
0000
0000
00f7
cafe
380f
0000
0000
00fd
cafe
3c0f
0000
0000
00f2
cafe
200f
0000
0000
00f8
cafe
240f
0000
0000
00fb
cafe
280f
0000
0000
00f1
cafe
2c0f
0000
0000
00ee
cafe
300f
0000
0000
00eb
cafe
340f
0000
0000
00fa
cafe
380f
0000
0000
00f4
cafe
3c0f
0000
0000
00f8
cafe
200f
0000
0000
00ff
cafe
240f
0000
0000
0100
cafe
280f
0000
0000
00fe
cafe
2c0f
0000
0000
00f3
cafe
300f
0000
0000
00f3
cafe
340f
0000
0000
00f6
cafe
380f
0000
0000
00f4
cafe
3c0f
0000
0000
00f1
cafe
200f
0000
0000
00f0
cafe
240f
0000
0000
00f4
cafe
280f
0000
0000
00f9
cafe
2c0f
0000
0000
00f6
cafe
300f
0000
0000
00fe
cafe
340f
0000
0000
00f0
cafe
380f
0000
0000
00ec
cafe
3c0f
0000
0000
00e2
cafe
200f
0000
0000
00f0
cafe
240f
0000
0000
00ed
cafe
280f
0000
0000
00eb
cafe
2c0f
0000
0000
00ea
cafe
300f
0000
0000
00ee
cafe
340f
0000
0000
00e8
cafe
380f
0000
0000
00f6
cafe
3c0f
0000
0000
00e4
cafe
200f
0000
0000
00eb
cafe
240f
0000
0000
00e3
cafe
280f
0000
0000
00e4
cafe
2c0f
0000
0000
00e3
cafe
300f
0000
0000
00ed
cafe
340f
0000
0000
00e6
cafe
380f
0000
0000
00f6
cafe
3c0f
0000
0000
00ea
cafe
200f
0000
0000
00eb
cafe
240f
0000
0000
00e8
cafe
280f
0000
0000
00ee
cafe
2c0f
0000
0000
00f1
cafe
300f
0000
0000
00f1
cafe
340f
0000
0000
00f1
cafe
380f
0000
0000
00f7
cafe
3c0f
0000
0000
00f9
cafe
200f
0000
-
0000
0101
cafe
240f
0000
0000
00ee
cafe
280f
0000
0000
00ea
cafe
2c0f
0000
0000
00e2
cafe
300f
0000
0000
00f0
cafe
340f
0000
0000
00f4
cafe
380f
0000
0000
00ed
cafe
3c0f
0000
0000
00f8
cafe
200f
0000
0000
00fe
cafe
240f
0000
0000
0100
cafe
280f
0000
0000
0107
cafe
2c0f
0000
0000
00f5
cafe
300f
0000
0000
00f8
cafe
340f
0000
0000
0101
cafe
380f
0000
0000
0106
cafe
3c0f
0000
0000
00fb
cafe
200f
0000
0000
00f0
cafe
240f
0000
0000
00f3
cafe
280f
0000
0000
00f3
cafe
2c0f
0000
0000
00eb
cafe
300f
0000
0000
00f3
cafe
340f
0000
0000
00ef
cafe
380f
0000
0000
00fb
cafe
3c0f
0000
0000
00f1
cafe
200f
0000
0000
00f7
cafe
240f
0000
0000
00f6
cafe
280f
0000
0000
00ff
cafe
2c0f
0000
0000
00ec
cafe
300f
0000
0000
00e4
cafe
340f
0000
0000
00e6
cafe
380f
0000
0000
00dd
cafe
3c0f
0000
0000
00eb
cafe
200f
0000
0000
00ec
cafe
240f
0000
0000
00ea
cafe
280f
0000
0000
00e5
cafe
2c0f
0000
0000
00e4
cafe
300f
0000
0000
00db
cafe
340f
0000
0000
00e5
cafe
380f
0000
0000
00ea
cafe
3c0f
0000
0000
00f3
cafe
200f
0000
0000
00e8
cafe
240f
0000
0000
00e5
cafe
280f
0000
0000
00ee
cafe
2c0f
0000
0000
00f4
cafe
300f
0000
0000
0100
cafe
340f
0000
0000
0103
cafe
380f
0000
0000
00f5
cafe
3c0f
0000
0000
00f3
cafe
200f
0000
0000
00f6
cafe
240f
0000
0000
00ee
cafe
280f
0000
0000
00e6
cafe
2c0f
0000
0000
-
00e4
cafe
300f
0000
0000
00f1
cafe
340f
0000
0000
00e8
cafe
380f
0000
0000
00ee
cafe
3c0f
0000
0000
00e7
cafe
200f
0000
0000
00e4
cafe
240f
0000
0000
00ec
cafe
280f
0000
0000
00ee
cafe
2c0f
0000
0000
00f3
cafe
300f
0000
0000
00ee
cafe
340f
0000
0000
00f7
cafe
380f
0000
0000
00fe
cafe
3c0f
0000
0000
00fb
cafe
200f
0000
0000
00f3
cafe
240f
0000
0000
00ed
cafe
280f
0000
0000
00e9
cafe
2c0f
0000
0000
00e2
cafe
300f
0000
0000
00e9
cafe
340f
0000
0000
00e7
cafe
380f
0000
0000
00df
cafe
3c0f
0000
0000
00e0
cafe
200f
0000
0000
00de
cafe
240f
0000
0000
00d2
cafe
280f
0000
0000
00e2
cafe
2c0f
0000
0000
00f2
cafe
300f
0000
0000
00ef
cafe
340f
0000
0000
00ed
cafe
380f
0000
0000
00f3
cafe
3c0f
0000
0000
00e6
cafe
200f
0000
0000
00e4
cafe
240f
0000
0000
00f7
cafe
280f
0000
0000
00f2
cafe
2c0f
0000
0000
00f0
cafe
300f
0000
0000
00e9
cafe
340f
0000
0000
00e1
cafe
380f
0000
0000
00e2
cafe
3c0f
0000
0000
00df
cafe
200f
0000
0000
00fa
cafe
240f
0000
0000
00ee
cafe
280f
0000
0000
00f0
cafe
2c0f
0000
0000
00f0
cafe
300f
0000
0000
0100
cafe
340f
0000
0000
00fd
cafe
380f
0000
0000
00fc
cafe
3c0f
0000
0000
00f7
cafe
200f
0000
0000
00ec
cafe
240f
0000
0000
00ea
cafe
280f
0000
0000
00ea
cafe
2c0f
0000
0000
00e4
cafe
300f
0000
0000
00ee
cafe
340f
0000
0000
00f0
cafe
380f
0000
0000
00ee
-
cafe
3c0f
0000
0000
00e7
cafe
200f
0000
0000
00e9
cafe
240f
0000
0000
00f1
cafe
280f
0000
0000
00ef
cafe
2c0f
0000
0000
00f6
cafe
300f
0000
0000
00e9
cafe
340f
0000
0000
00ef
cafe
380f
0000
0000
00ec
cafe
3c0f
0000
0000
00f9
cafe
200f
0000
0000
0101
cafe
240f
0000
0000
00fc
cafe
280f
0000
0000
00f2
cafe
2c0f
0000
0000
00f8
cafe
300f
0000
0000
00ea
cafe
340f
0000
0000
00f7
cafe
380f
0000
0000
00e8
cafe
3c0f
0000
0000
00e3
cafe
200f
0000
0000
00db
cafe
240f
0000
0000
00e7
cafe
280f
0000
0000
00e2
cafe
2c0f
0000
0000
00ec
cafe
300f
0000
0000
00de
cafe
340f
0000
0000
00ed
cafe
380f
0000
0000
00ec
cafe
3c0f
0000
0000
00eb
cafe
200f
0000
0000
00de
cafe
240f
0000
0000
00e8
cafe
280f
0000
0000
00d7
cafe
2c0f
0000
0000
00e3
cafe
300f
0000
0000
00e0
cafe
340f
0000
0000
00ed
cafe
380f
0000
0000
00f0
cafe
3c0f
0000
0000
00ee
cafe
200f
0000
0000
00f0
cafe
240f
0000
0000
00e9
cafe
280f
0000
0000
00f4
cafe
2c0f
0000
0000
00f2
cafe
300f
0000
0000
00f2
cafe
340f
0000
0000
00ec
cafe
380f
0000
0000
00f0
cafe
3c0f
0000
0000
00ee
cafe
200f
0000
0000
00e7
cafe
240f
0000
0000
00fa
cafe
280f
0000
0000
00f5
cafe
2c0f
0000
0000
00fa
cafe
300f
0000
0000
00f6
cafe
340f
0000
0000
00fa
cafe
380f
0000
0000
00f3
cafe
3c0f
0000
0000
00f7
cafe
200f
0000
0000
00ff
cafe
240f
0000
0000
00f2
cafe
-
280f
0000
0000
00e4
cafe
2c0f
0000
0000
00ec
cafe
300f
0000
0000
00eb
cafe
340f
0000
0000
00f4
cafe
380f
0000
0000
00f0
cafe
3c0f
0000
0000
00f9
cafe
200f
0000
0000
00f8
cafe
240f
0000
0000
00f9
cafe
280f
0000
0000
00f4
cafe
2c0f
0000
0000
00f6
cafe
300f
0000
0000
00f3
cafe
340f
0000
0000
00f5
cafe
380f
0000
0000
00e8
cafe
3c0f
0000
0000
00ea
cafe
200f
0000
0000
00ed
cafe
240f
0000
0000
0102
cafe
280f
0000
0000
00fb
cafe
2c0f
0000
0000
00fd
cafe
300f
0000
0000
00f6
cafe
340f
0000
0000
00f2
cafe
380f
0000
0000
00ef
cafe
3c0f
0000
0000
00f7
cafe
200f
0000
0000
00e5
cafe
240f
0000
0000
00e8
cafe
280f
0000
0000
00ec
cafe
2c0f
0000
0000
00f8
cafe
300f
0000
0000
00fd
cafe
340f
0000
0000
00f7
cafe
380f
0000
0000
00ea
cafe
3c0f
0000
0000
00f1
cafe
200f
0000
0000
00f1
cafe
240f
0000
0000
00f0
cafe
280f
0000
0000
00ff
cafe
2c0f
0000
0000
00f9
cafe
300f
0000
0000
00e8
cafe
340f
0000
0000
00fb
cafe
380f
0000
0000
00f1
cafe
3c0f
0000
0000
00f3
cafe
200f
0000
0000
00fc
cafe
240f
0000
0000
00f0
cafe
280f
0000
0000
00ee
cafe
2c0f
0000
0000
00f2
cafe
300f
0000
0000
00ee
cafe
340f
0000
0000
00f0
cafe
380f
0000
0000
00f3
cafe
3c0f
0000
0000
00f1
cafe
200f
0000
0000
00fb
cafe
240f
0000
0000
00fd
cafe
280f
0000
0000
00f9
cafe
2c0f
0000
0000
00ed
cafe
300f
0000
0000
00ef
cafe
340f
-
0000
0000
00f1
cafe
380f
0000
0000
00ef
cafe
3c0f
0000
0000
00e5
cafe
200f
0000
0000
00e1
cafe
240f
0000
0000
00f2
cafe
280f
0000
0000
00f6
cafe
2c0f
0000
0000
00ea
cafe
300f
0000
0000
00ec
cafe
340f
0000
0000
00e9
cafe
380f
0000
0000
00f0
cafe
3c0f
0000
0000
00f6
cafe
200f
0000
0000
00fd
cafe
240f
0000
0000
00f2
cafe
280f
0000
0000
00f0
cafe
2c0f
0000
0000
00ee
cafe
300f
0000
0000
00e3
cafe
340f
0000
0000
00ec
cafe
380f
0000
0000
00ec
cafe
3c0f
0000
0000
00f3
cafe
200f
0000
0000
00e6
cafe
240f
0000
0000
00dd
cafe
280f
0000
0000
00e9
cafe
2c0f
0000
0000
00e9
cafe
300f
0000
0000
00ee
cafe
340f
0000
0000
00e3
cafe
380f
0000
0000
00e7
cafe
3c0f
0000
0000
00e7
cafe
200f
0000
0000
00ec
cafe
240f
0000
0000
00e6
cafe
280f
0000
0000
00ea
cafe
2c0f
0000
0000
00eb
cafe
300f
0000
0000
00f0
cafe
340f
0000
0000
00e2
cafe
380f
0000
0000
00e4
cafe
3c0f
0000
0000
00ea
cafe
200f
0000
0000
00df
cafe
240f
0000
0000
00f1
cafe
280f
0000
0000
00e8
cafe
2c0f
0000
0000
00e8
cafe
300f
0000
0000
00ea
cafe
340f
0000
0000
00e8
cafe
380f
0000
0000
00e5
cafe
3c0f
0000
0000
00f0
cafe
200f
0000
0000
00f1
cafe
240f
0000
0000
00ed
cafe
280f
0000
0000
00ea
cafe
2c0f
0000
0000
00eb
cafe
300f
0000
0000
00f1
cafe
340f
0000
0000
00f2
cafe
380f
0000
0000
00e4
cafe
3c0f
0000
0000
00e9
cafe
200f
0000
-
0000
00e3
cafe
240f
0000
0000
00f3
cafe
280f
0000
0000
00f0
cafe
2c0f
0000
0000
0100
cafe
300f
0000
0000
00eb
cafe
340f
0000
0000
00f2
cafe
380f
0000
0000
00ee
cafe
3c0f
0000
0000
00ff
cafe
200f
0000
0000
00f9
cafe
240f
0000
0000
00f7
cafe
280f
0000
0000
00f0
cafe
2c0f
0000
0000
00e9
cafe
300f
0000
0000
00f3
cafe
340f
0000
0000
00eb
cafe
380f
0000
0000
00f4
cafe
3c0f
0000
0000
00f3
cafe
200f
0000
0000
00f9
cafe
240f
0000
0000
00f8
cafe
280f
0000
0000
00f2
cafe
2c0f
0000
0000
00fd
cafe
300f
0000
0000
00f2
cafe
340f
0000
0000
00e6
cafe
380f
0000
0000
0106
cafe
3c0f
0000
0000
00f6
cafe
200f
0000
0000
00e8
cafe
240f
0000
0000
00f8
cafe
280f
0000
0000
00ee
cafe
2c0f
0000
0000
00fb
cafe
300f
0000
0000
00f2
cafe
340f
0000
0000
00f9
cafe
380f
0000
0000
00f0
cafe
3c0f
0000
0000
00eb
cafe
200f
0000
0000
00e9
cafe
240f
0000
0000
00ed
cafe
280f
0000
0000
00e5
cafe
2c0f
0000
0000
00f4
cafe
300f
0000
0000
00ed
cafe
340f
0000
0000
00ee
cafe
380f
0000
0000
00eb
cafe
3c0f
0000
0000
00e8
cafe
200f
0000
0000
00e9
cafe
240f
0000
0000
00ef
cafe
280f
0000
0000
00e4
cafe
2c0f
0000
0000
00e8
cafe
300f
0000
0000
00f1
cafe
340f
0000
0000
00f6
cafe
380f
0000
0000
00f0
cafe
3c0f
0000
0000
00ef
cafe
200f
0000
0000
00e9
cafe
240f
0000
0000
00e9
cafe
280f
0000
0000
00ee
cafe
2c0f
0000
0000
-
00ec
cafe
300f
0000
0000
00f2
cafe
340f
0000
0000
00f9
cafe
380f
0000
0000
00f3
cafe
3c0f
0000
0000
00ef
cafe
200f
0000
0000
00fa
cafe
240f
0000
0000
00ec
cafe
280f
0000
0000
00f2
cafe
2c0f
0000
0000
00f4
cafe
300f
0000
0000
00f0
cafe
340f
0000
0000
00e7
cafe
380f
0000
0000
00e7
cafe
3c0f
0000
0000
00f0
cafe
200f
0000
0000
00e7
cafe
240f
0000
0000
00e9
cafe
280f
0000
0000
00e7
cafe
2c0f
0000
0000
00ea
cafe
300f
0000
0000
00eb
cafe
340f
0000
0000
00e2
cafe
380f
0000
0000
00ed
cafe
3c0f
0000
0000
00ef
cafe
200f
0000
0000
00eb
cafe
240f
0000
0000
00ef
cafe
280f
0000
0000
00ef
cafe
2c0f
0000
0000
00ee
cafe
300f
0000
0000
00f2
cafe
340f
0000
0000
00f7
cafe
380f
0000
0000
00f8
cafe
3c0f
0000
0000
00f3
cafe
200f
0000
0000
00e7
cafe
240f
0000
0000
00f0
cafe
280f
0000
0000
00ed
cafe
2c0f
0000
0000
00e4
cafe
300f
0000
0000
00d8
cafe
340f
0000
0000
00dd
cafe
380f
0000
0000
00e1
cafe
3c0f
0000
0000
00f4
cafe
200f
0000
0000
00f1
cafe
240f
0000
0000
00e2
cafe
280f
0000
0000
00ee
cafe
2c0f
0000
0000
00f4
cafe
300f
0000
0000
00f3
cafe
340f
0000
0000
00f5
cafe
380f
0000
0000
00f3
cafe
3c0f
0000
0000
00e7
cafe
200f
0000
0000
00e8
cafe
240f
0000
0000
00e7
cafe
280f
0000
0000
00e6
cafe
2c0f
0000
0000
00eb
cafe
300f
0000
0000
00e8
cafe
340f
0000
0000
00ef
cafe
380f
0000
0000
00ee
-
cafe
3c0f
0000
0000
00ee
cafe
200f
0000
0000
00ee
cafe
240f
0000
0000
00f1
cafe
280f
0000
0000
00f7
cafe
2c0f
0000
0000
00ee
cafe
300f
0000
0000
00ec
cafe
340f
0000
0000
00ec
cafe
380f
0000
0000
00f5
cafe
3c0f
0000
0000
0105
cafe
200f
0000
0000
0100
cafe
240f
0000
0000
00f1
cafe
280f
0000
0000
00fa
cafe
2c0f
0000
0000
00fb
cafe
300f
0000
0000
00f7
cafe
340f
0000
0000
00f3
cafe
380f
0000
0000
00ea
cafe
3c0f
0000
0000
00e9
cafe
200f
0000
0000
00f6
cafe
240f
0000
0000
0103
cafe
280f
0000
0000
00f7
cafe
2c0f
0000
0000
0103
cafe
300f
0000
0000
00f6
cafe
340f
0000
0000
00fa
cafe
380f
0000
0000
00fe
cafe
3c0f
0000
0000
00f9
cafe
200f
0000
0000
00fa
cafe
240f
0000
0000
00f7
cafe
280f
0000
0000
00fc
cafe
2c0f
0000
0000
0104
cafe
300f
0000
0000
00e7
cafe
340f
0000
0000
00d0
cafe
380f
0000
0000
00dc
cafe
3c0f
0000
0000
00e9
cafe
200f
0000
0000
00e7
cafe
240f
0000
0000
00f2
cafe
280f
0000
0000
00ef
cafe
2c0f
0000
0000
00e4
cafe
300f
0000
0000
00e9
cafe
340f
0000
0000
00e6
cafe
380f
0000
0000
00ee
cafe
3c0f
0000
0000
00e5
cafe
200f
0000
0000
00df
cafe
240f
0000
0000
00f2
cafe
280f
0000
0000
0100
cafe
2c0f
0000
0000
00f8
cafe
300f
0000
0000
00e4
cafe
340f
0000
0000
00df
cafe
380f
0000
0000
00e1
cafe
3c0f
0000
0000
00ec
cafe
200f
0000
0000
00ef
cafe
240f
0000
0000
00f9
cafe
-
280f
0000
0000
00e7
cafe
2c0f
0000
0000
00e8
cafe
300f
0000
0000
00ef
cafe
340f
0000
0000
00f7
cafe
380f
0000
0000
00ef
cafe
3c0f
0000
0000
00f2
cafe
200f
0000
0000
00ff
cafe
240f
0000
0000
00ee
cafe
280f
0000
0000
00ea
cafe
2c0f
0000
0000
00f5
cafe
300f
0000
0000
00ee
cafe
340f
0000
0000
00f0
cafe
380f
0000
0000
00eb
cafe
3c0f
0000
0000
00e6
cafe
200f
0000
0000
00f0
cafe
240f
0000
0000
00e3
cafe
280f
0000
0000
00e0
cafe
2c0f
0000
0000
00e9
cafe
300f
0000
0000
00d9
cafe
340f
0000
0000
00e2
cafe
380f
0000
0000
00ea
cafe
3c0f
0000
0000
00f3
cafe
200f
0000
0000
00f7
cafe
240f
0000
0000
0103
cafe
280f
0000
0000
010a
cafe
2c0f
0000
0000
0101
cafe
300f
0000
0000
00ed
cafe
340f
0000
0000
00f9
cafe
380f
0000
0000
00fb
cafe
3c0f
0000
0000
00f9
cafe
200f
0000
0000
00fc
cafe
240f
0000
0000
00f3
cafe
280f
0000
0000
00fb
cafe
2c0f
0000
0000
00f6
cafe
300f
0000
0000
00ef
cafe
340f
0000
0000
00f3
cafe
380f
0000
0000
00ef
cafe
3c0f
0000
0000
00e7
cafe
200f
0000
0000
00ea
cafe
240f
0000
0000
00f2
cafe
280f
0000
0000
00f2
cafe
2c0f
0000
0000
00f1
cafe
300f
0000
0000
00f7
cafe
340f
0000
0000
00f1
cafe
380f
0000
0000
00ef
cafe
3c0f
0000
0000
00eb
cafe
200f
0000
0000
00f7
cafe
240f
0000
0000
00fb
cafe
280f
0000
0000
00fa
cafe
2c0f
0000
0000
00ef
cafe
300f
0000
0000
00e4
cafe
340f
-
0000
0000
00e1
cafe
380f
0000
0000
00eb
cafe
3c0f
0000
0000
00fa
cafe
200f
0000
0000
00e1
cafe
240f
0000
0000
00eb
cafe
280f
0000
0000
00f5
cafe
2c0f
0000
0000
00fa
cafe
300f
0000
0000
00f8
cafe
340f
0000
0000
00f0
cafe
380f
0000
0000
00f0
cafe
3c0f
0000
0000
00ec
cafe
200f
0000
0000
00f5
cafe
240f
0000
0000
00f4
cafe
280f
0000
0000
00ec
cafe
2c0f
0000
0000
00ed
cafe
300f
0000
0000
00e4
cafe
340f
0000
0000
00eb
cafe
380f
0000
0000
00e6
cafe
3c0f
0000
0000
00ec
cafe
200f
0000
0000
00ea
cafe
240f
0000
0000
00ee
cafe
280f
0000
0000
00f9
cafe
2c0f
0000
0000
00ee
cafe
300f
0000
0000
00ec
cafe
340f
0000
0000
00e9
cafe
380f
0000
0000
00f0
cafe
3c0f
0000
0000
00ef
cafe
200f
0000
0000
00ef
cafe
240f
0000
0000
00f0
cafe
280f
0000
0000
00ed
cafe
2c0f
0000
0000
00e8
cafe
300f
0000
0000
00e7
cafe
340f
0000
0000
00ec
cafe
380f
0000
0000
00f0
cafe
3c0f
0000
0000
00ee
cafe
200f
0000
0000
00e7
cafe
240f
0000
0000
00f4
cafe
280f
0000
0000
00f5
cafe
2c0f
0000
0000
00f2
cafe
300f
0000
0000
00ec
cafe
340f
0000
0000
00df
cafe
380f
0000
0000
00ed
cafe
3c0f
0000
0000
00f3
cafe
200f
0000
0000
00eb
cafe
240f
0000
0000
00f0
cafe
280f
0000
0000
00ef
cafe
2c0f
0000
0000
00f3
cafe
300f
0000
0000
00fa
cafe
340f
0000
0000
00f5
cafe
380f
0000
0000
00f2
cafe
3c0f
0000
0000
00e8
cafe
200f
0000
-
0000
00ec
cafe
240f
0000
0000
00ec
cafe
280f
0000
0000
00e9
cafe
2c0f
0000
0000
00ec
cafe
300f
0000
0000
00fd
cafe
340f
0000
0000
00f6
cafe
380f
0000
0000
00f6
cafe
3c0f
0000
0000
00f4
cafe
200f
0000
0000
00f6
cafe
240f
0000
0000
00ff
cafe
280f
0000
0000
00f9
cafe
2c0f
0000
0000
00ee
cafe
300f
0000
0000
00fd
cafe
340f
0000
0000
00f9
cafe
380f
0000
0000
00fe
cafe
3c0f
0000
0000
00f2
cafe
200f
0000
0000
00f0
cafe
240f
0000
0000
00ec
cafe
280f
0000
0000
00e7
cafe
2c0f
0000
0000
00f5
cafe
300f
0000
0000
00ea
cafe
340f
0000
0000
00ee
cafe
380f
0000
0000
00ea
cafe
3c0f
0000
0000
00ef
cafe
200f
0000
0000
00fa
cafe
240f
0000
0000
00f1
cafe
280f
0000
0000
00f2
cafe
2c0f
0000
0000
00f4
cafe
300f
0000
0000
00f2
cafe
340f
0000
0000
00f0
cafe
380f
0000
0000
00fa
cafe
3c0f
0000
0000
00f7
cafe
200f
0000
0000
00f7
cafe
240f
0000
0000
0101
cafe
280f
0000
0000
00fc
cafe
2c0f
0000
0000
00f6
cafe
300f
0000
0000
00f8
cafe
340f
0000
0000
00ef
cafe
380f
0000
0000
00f0
cafe
3c0f
0000
0000
00df
cafe
200f
0000
0000
00eb
cafe
240f
0000
0000
00f0
cafe
280f
0000
0000
00e1
cafe
2c0f
0000
0000
00eb
cafe
300f
0000
0000
00f7
cafe
340f
0000
0000
00f5
cafe
380f
0000
0000
00ec
cafe
3c0f
0000
0000
00ec
cafe
200f
0000
0000
00e4
cafe
240f
0000
0000
00ef
cafe
280f
0000
0000
00f0
cafe
2c0f
0000
0000
-
00f8
cafe
300f
0000
0000
00ef
cafe
340f
0000
0000
00f3
cafe
380f
0000
0000
00ef
cafe
3c0f
0000
0000
00e6
cafe
200f
0000
0000
00e9
cafe
240f
0000
0000
00e8
cafe
280f
0000
0000
00dc
cafe
2c0f
0000
0000
00e7
cafe
300f
0000
0000
00ef
cafe
340f
0000
0000
00fc
cafe
380f
0000
0000
00fb
cafe
3c0f
0000
0000
00f7
cafe
200f
0000
0000
00fc
cafe
240f
0000
0000
00f2
cafe
280f
0000
0000
00fb
cafe
2c0f
0000
0000
00ec
cafe
300f
0000
0000
00f3
cafe
340f
0000
0000
00f6
cafe
380f
0000
0000
00f4
cafe
3c0f
0000
0000
00f3
cafe
200f
0000
0000
00fa
cafe
240f
0000
0000
0101
cafe
280f
0000
0000
00f1
cafe
2c0f
0000
0000
00f9
cafe
300f
0000
0000
00f6
cafe
340f
0000
0000
00f5
cafe
380f
0000
0000
00f6
cafe
3c0f
0000
0000
00e8
cafe
200f
0000
0000
00e7
cafe
240f
0000
0000
00f1
cafe
280f
0000
0000
00ed
cafe
2c0f
0000
0000
00ec
cafe
300f
0000
0000
00f4
cafe
340f
0000
0000
00f7
cafe
380f
0000
0000
00f2
cafe
3c0f
0000
0000
00ee
cafe
200f
0000
0000
00eb
cafe
240f
0000
0000
00f4
cafe
280f
0000
0000
00ff
cafe
2c0f
0000
0000
00ea
cafe
300f
0000
0000
00f4
cafe
340f
0000
0000
00fa
cafe
380f
0000
0000
00f8
cafe
3c0f
0000
0000
00f3
cafe
200f
0000
0000
00f6
cafe
240f
0000
0000
00f8
cafe
280f
0000
0000
00f6
cafe
2c0f
0000
0000
00f6
cafe
300f
0000
0000
00ef
cafe
340f
0000
0000
00ec
cafe
380f
0000
0000
00f2
-
cafe
3c0f
0000
0000
00e6
cafe
200f
0000
0000
00e3
cafe
240f
0000
0000
00e2
cafe
280f
0000
0000
00e1
cafe
2c0f
0000
0000
00e4
cafe
300f
0000
0000
00ec
cafe
340f
0000
0000
00ea
cafe
380f
0000
0000
00f4
cafe
3c0f
0000
0000
00fc
cafe
200f
0000
0000
00fb
cafe
240f
0000
0000
00f7
cafe
280f
0000
0000
00ea
cafe
2c0f
0000
0000
00ec
cafe
300f
0000
0000
00ef
cafe
340f
0000
0000
00ec
cafe
380f
0000
0000
00f4
cafe
3c0f
0000
0000
00f7
cafe
200f
0000
0000
00f5
cafe
240f
0000
0000
00e7
cafe
280f
0000
0000
00e8
cafe
2c0f
0000
0000
00e0
cafe
300f
0000
0000
00e1
cafe
340f
0000
0000
00e0
cafe
380f
0000
0000
00d9
cafe
3c0f
0000
0000
00de
cafe
200f
0000
0000
00e7
cafe
240f
0000
0000
00db
cafe
280f
0000
0000
00e8
cafe
2c0f
0000
0000
00ef
cafe
300f
0000
0000
00fe
cafe
340f
0000
0000
00eb
cafe
380f
0000
0000
00e5
cafe
3c0f
0000
0000
00e0
cafe
200f
0000
0000
00e4
cafe
240f
0000
0000
00ee
cafe
280f
0000
0000
00f2
cafe
2c0f
0000
0000
00ee
cafe
300f
0000
0000
00e3
cafe
340f
0000
0000
00e3
cafe
380f
0000
0000
00e9
cafe
3c0f
0000
0000
00ee
cafe
200f
0000
0000
00e7
cafe
240f
0000
0000
00e8
cafe
280f
0000
0000
00e6
cafe
2c0f
0000
0000
00f0
cafe
300f
0000
0000
00eb
cafe
340f
0000
0000
00ee
cafe
380f
0000
0000
00f3
cafe
3c0f
0000
0000
00f8
cafe
200f
0000
0000
00f0
cafe
240f
0000
0000
00f7
cafe
-
280f
0000
0000
00ef
cafe
2c0f
0000
0000
00f3
cafe
300f
0000
0000
00ec
cafe
340f
0000
0000
00f9
cafe
380f
0000
0000
00f6
cafe
3c0f
0000
0000
00e6
cafe
200f
0000
0000
00f9
cafe
240f
0000
0000
00f7
cafe
280f
0000
0000
00f1
cafe
2c0f
0000
0000
00f8
cafe
300f
0000
0000
00ea
cafe
340f
0000
0000
00ee
cafe
380f
0000
0000
00f1
cafe
3c0f
0000
0000
00e5
cafe
200f
0000
0000
00ed
cafe
240f
0000
0000
00f1
cafe
280f
0000
0000
00e4
cafe
2c0f
0000
0000
00e0
cafe
300f
0000
0000
00ea
cafe
340f
0000
0000
00ea
cafe
380f
0000
0000
00ea
cafe
3c0f
0000
0000
00e4
cafe
200f
0000
0000
00ea
cafe
240f
0000
0000
00e5
cafe
280f
0000
0000
00ee
cafe
2c0f
0000
0000
00ed
cafe
300f
0000
0000
00f1
cafe
340f
0000
0000
00ec
cafe
380f
0000
0000
00f0
cafe
3c0f
0000
0000
00f1
cafe
200f
0000
0000
00f0
cafe
240f
0000
0000
00f7
cafe
280f
0000
0000
00f3
cafe
2c0f
0000
0000
00e8
cafe
300f
0000
0000
00e4
cafe
340f
0000
0000
00e9
cafe
380f
0000
0000
00e6
cafe
3c0f
0000
0000
00f5
cafe
200f
0000
0000
00e8
cafe
240f
0000
0000
00f4
cafe
280f
0000
0000
00ed
cafe
2c0f
0000
0000
00e7
cafe
300f
0000
0000
00ed
cafe
340f
0000
0000
00ef
cafe
380f
0000
0000
00ef
cafe
3c0f
0000
0000
00f2
cafe
200f
0000
0000
00f4
cafe
240f
0000
0000
00f4
cafe
280f
0000
0000
00f6
cafe
2c0f
0000
0000
00f9
cafe
300f
0000
0000
00f8
cafe
340f
-
0000
0000
00fc
cafe
380f
0000
0000
00fb
cafe
3c0f
0000
0000
00f7
cafe
200f
0000
0000
00e8
cafe
240f
0000
0000
00f0
cafe
280f
0000
0000
00f5
cafe
2c0f
0000
0000
00f5
cafe
300f
0000
0000
00f8
cafe
340f
0000
0000
00f1
cafe
380f
0000
0000
00ef
cafe
3c0f
0000
0000
00f3
cafe
200f
0000
0000
00f0
cafe
240f
0000
0000
00e9
cafe
280f
0000
0000
00f5
cafe
2c0f
0000
0000
00f3
cafe
300f
0000
0000
00e8
cafe
340f
0000
0000
00f9
cafe
380f
0000
0000
00ff
cafe
3c0f
0000
0000
00fc
cafe
200f
0000
0000
00f6
cafe
240f
0000
0000
00ed
cafe
280f
0000
0000
00ed
cafe
2c0f
0000
0000
00f4
cafe
300f
0000
0000
00f1
cafe
340f
0000
0000
00f1
cafe
380f
0000
0000
00ed
cafe
3c0f
0000
0000
00ec
cafe
200f
0000
0000
00eb
cafe
240f
0000
0000
00eb
cafe
280f
0000
0000
00eb
cafe
2c0f
0000
0000
00ed
cafe
300f
0000
0000
00e6
cafe
340f
0000
0000
00f2
cafe
380f
0000
0000
00e8
cafe
3c0f
0000
0000
00f1
cafe
200f
0000
0000
00f9
cafe
240f
0000
0000
00f5
cafe
280f
0000
0000
00e8
cafe
2c0f
0000
0000
00e3
cafe
300f
0000
0000
00f5
cafe
340f
0000
0000
00e8
cafe
380f
0000
0000
00e6
cafe
3c0f
0000
0000
00dd
cafe
200f
0000
0000
00df
cafe
240f
0000
0000
00da
cafe
280f
0000
0000
00f4
cafe
2c0f
0000
0000
00ef
cafe
300f
0000
0000
00f0
cafe
340f
0000
0000
00f0
cafe
380f
0000
0000
00f7
cafe
3c0f
0000
0000
00f5
cafe
200f
0000
-
0000
00fc
cafe
240f
0000
0000
0101
cafe
280f
0000
0000
00f8
cafe
2c0f
0000
0000
00f4
cafe
300f
0000
0000
00f2
cafe
340f
0000
0000
00f2
cafe
380f
0000
0000
00f5
cafe
3c0f
0000
0000
00f4
cafe
200f
0000
0000
0104
cafe
240f
0000
0000
00fa
cafe
280f
0000
0000
00ff
cafe
2c0f
0000
0000
00f8
cafe
300f
0000
0000
00f8
cafe
340f
0000
0000
00f8
cafe
380f
0000
0000
0103
cafe
3c0f
0000
0000
00f3
cafe
200f
0000
0000
00ee
cafe
240f
0000
0000
00e8
cafe
280f
0000
0000
00ee
cafe
2c0f
0000
0000
00e8
cafe
300f
0000
0000
00e5
cafe
340f
0000
0000
00e0
cafe
380f
0000
0000
00ee
cafe
3c0f
0000
0000
00ec
cafe
200f
0000
0000
00ee
cafe
240f
0000
0000
00f0
cafe
280f
0000
0000
00f2
cafe
2c0f
0000
0000
00e4
cafe
300f
0000
0000
00eb
cafe
340f
0000
0000
00ed
cafe
380f
0000
0000
00ec
cafe
3c0f
0000
0000
00f1
cafe
200f
0000
0000
00ee
cafe
240f
0000
0000
00f9
cafe
280f
0000
0000
00fc
cafe
2c0f
0000
0000
00ed
cafe
300f
0000
0000
00f0
cafe
340f
0000
0000
00ec
cafe
380f
0000
0000
00fc
cafe
3c0f
0000
0000
00ed
cafe
200f
0000
0000
00ef
cafe
240f
0000
0000
00f2
cafe
280f
0000
0000
00ec
cafe
2c0f
0000
0000
00ec
cafe
300f
0000
0000
00f2
cafe
340f
0000
0000
00e7
cafe
380f
0000
0000
00f3
cafe
3c0f
0000
0000
00f2
cafe
200f
0000
0000
00ea
cafe
240f
0000
0000
00e8
cafe
280f
0000
0000
00e7
cafe
2c0f
0000
0000
-
00ed
cafe
300f
0000
0000
00e4
cafe
340f
0000
0000
00f3
cafe
380f
0000
0000
00e9
cafe
3c0f
0000
0000
00ea
cafe
200f
0000
0000
00ed
cafe
240f
0000
0000
00e8
cafe
280f
0000
0000
00ee
cafe
2c0f
0000
0000
00e8
cafe
300f
0000
0000
00fc
cafe
340f
0000
0000
00f6
cafe
380f
0000
0000
00f3
cafe
3c0f
0000
0000
00e9
cafe
200f
0000
0000
00f2
cafe
240f
0000
0000
00ec
cafe
280f
0000
0000
00eb
cafe
2c0f
0000
0000
00f3
cafe
300f
0000
0000
00ec
cafe
340f
0000
0000
00e5
cafe
380f
0000
0000
00fb
cafe
3c0f
0000
0000
00e7
cafe
200f
0000
0000
00f7
cafe
240f
0000
0000
00e4
cafe
280f
0000
0000
00e3
cafe
2c0f
0000
0000
00ee
cafe
300f
0000
0000
00f3
cafe
340f
0000
0000
00ef
cafe
380f
0000
0000
00f5
cafe
3c0f
0000
0000
00f4
cafe
200f
0000
0000
00ee
cafe
240f
0000
0000
00df
cafe
280f
0000
0000
00f3
cafe
2c0f
0000
0000
00f3
cafe
300f
0000
0000
00fe
cafe
340f
0000
0000
00fb
cafe
380f
0000
0000
00f6
cafe
3c0f
0000
0000
00ec
cafe
200f
0000
0000
00f0
cafe
240f
0000
0000
00e7
cafe
280f
0000
0000
00e1
cafe
2c0f
0000
0000
00eb
cafe
300f
0000
0000
00e8
cafe
340f
0000
0000
00e9
cafe
380f
0000
0000
00e5
cafe
3c0f
0000
0000
00e1
cafe
200f
0000
0000
00eb
cafe
240f
0000
0000
00f4
cafe
280f
0000
0000
00ef
cafe
2c0f
0000
0000
00ee
cafe
300f
0000
0000
00e6
cafe
340f
0000
0000
00ee
cafe
380f
0000
0000
00f8
-
cafe
3c0f
0000
0000
00ed
cafe
200f
0000
0000
00e8
cafe
240f
0000
0000
00e9
cafe
280f
0000
0000
00eb
cafe
2c0f
0000
0000
00e0
cafe
300f
0000
0000
00e8
cafe
340f
0000
0000
00e1
cafe
380f
0000
0000
00ee
cafe
3c0f
0000
0000
00e3
cafe
200f
0000
0000
00e7
cafe
240f
0000
0000
00ec
cafe
280f
0000
0000
00e7
cafe
2c0f
0000
0000
00ed
cafe
300f
0000
0000
00f6
cafe
340f
0000
0000
00ee
cafe
380f
0000
0000
0101
cafe
3c0f
0000
0000
00ef
cafe
200f
0000
0000
00e9
cafe
240f
0000
0000
00ed
cafe
280f
0000
0000
00e3
cafe
2c0f
0000
0000
00f6
cafe
300f
0000
0000
00f9
cafe
340f
0000
0000
00e8
cafe
380f
0000
0000
00f0
cafe
3c0f
0000
0000
00ec
cafe
200f
0000
0000
00fa
cafe
240f
0000
0000
00f0
cafe
280f
0000
0000
00f4
cafe
2c0f
0000
0000
00f7
cafe
300f
0000
0000
00ed
cafe
340f
0000
0000
00eb
cafe
380f
0000
0000
00f8
cafe
3c0f
0000
0000
00e5
cafe
200f
0000
0000
00ea
cafe
240f
0000
0000
00ea
cafe
280f
0000
0000
00ee
cafe
2c0f
0000
0000
00e6
cafe
300f
0000
0000
00f7
cafe
340f
0000
0000
00f7
cafe
380f
0000
0000
00f7
cafe
3c0f
0000
0000
00f7
cafe
200f
0000
0000
00f3
cafe
240f
0000
0000
00eb
cafe
280f
0000
0000
00e3
cafe
2c0f
0000
0000
00ea
cafe
300f
0000
0000
00ec
cafe
340f
0000
0000
00e6
cafe
380f
0000
0000
00fa
cafe
3c0f
0000
0000
00f8
cafe
200f
0000
0000
00f5
cafe
240f
0000
0000
00f5
cafe
-
280f
0000
0000
00f2
cafe
2c0f
0000
0000
00f6
cafe
300f
0000
0000
00ef
cafe
340f
0000
0000
00f9
cafe
380f
0000
0000
00ed
cafe
3c0f
0000
0000
00f4
cafe
200f
0000
0000
00f4
cafe
240f
0000
0000
00ea
cafe
280f
0000
0000
00ea
cafe
2c0f
0000
0000
00eb
cafe
300f
0000
0000
00ef
cafe
340f
0000
0000
00e9
cafe
380f
0000
0000
00d9
cafe
3c0f
0000
0000
00eb
cafe
200f
0000
0000
00f1
cafe
240f
0000
0000
00eb
cafe
280f
0000
0000
00e2
cafe
2c0f
0000
0000
00d8
cafe
300f
0000
0000
00da
cafe
340f
0000
0000
00e5
cafe
380f
0000
0000
00de
cafe
3c0f
0000
0000
00de
cafe
200f
0000
0000
00e5
cafe
240f
0000
0000
00e6
cafe
280f
0000
0000
00e5
cafe
2c0f
0000
0000
00e0
cafe
300f
0000
0000
00eb
cafe
340f
0000
0000
00e3
cafe
380f
0000
0000
00e5
cafe
3c0f
0000
0000
00f0
cafe
200f
0000
0000
00e9
cafe
240f
0000
0000
00e9
cafe
280f
0000
0000
00eb
cafe
2c0f
0000
0000
00e8
cafe
300f
0000
0000
00e1
cafe
340f
0000
0000
00e1
cafe
380f
0000
0000
00e2
cafe
3c0f
0000
0000
00eb
cafe
200f
0000
0000
00fb
cafe
240f
0000
0000
00eb
cafe
280f
0000
0000
00ea
cafe
2c0f
0000
0000
00f2
cafe
300f
0000
0000
00fb
cafe
340f
0000
0000
00f4
cafe
380f
0000
0000
00f4
cafe
3c0f
0000
0000
00eb
cafe
200f
0000
0000
00f5
cafe
240f
0000
0000
00e8
cafe
280f
0000
0000
00f9
cafe
2c0f
0000
0000
00ed
cafe
300f
0000
0000
00eb
cafe
340f
-
0000
0000
00ee
cafe
380f
0000
0000
00ea
cafe
3c0f
0000
0000
00e4
cafe
200f
0000
0000
00f2
cafe
240f
0000
0000
00e6
cafe
280f
0000
0000
00f0
cafe
2c0f
0000
0000
00f3
cafe
300f
0000
0000
00e9
cafe
340f
0000
0000
00f6
cafe
380f
0000
0000
00f8
cafe
3c0f
0000
0000
00fc
cafe
200f
0000
0000
00ee
cafe
240f
0000
0000
0102
cafe
280f
0000
0000
00f6
cafe
2c0f
0000
0000
00ed
cafe
300f
0000
0000
00f6
cafe
340f
0000
0000
00f3
cafe
380f
0000
0000
00e8
cafe
3c0f
0000
0000
00f8
cafe
200f
0000
0000
00eb
cafe
240f
0000
0000
00f1
cafe
280f
0000
0000
00fb
cafe
2c0f
0000
0000
00ee
cafe
300f
0000
0000
00f9
cafe
340f
0000
0000
00f2
cafe
380f
0000
0000
00fd
cafe
3c0f
0000
0000
010a
cafe
200f
0000
0000
00f2
cafe
240f
0000
0000
00f5
cafe
280f
0000
0000
00fa
cafe
2c0f
0000
0000
00f2
cafe
300f
0000
0000
00f0
cafe
340f
0000
0000
00f7
cafe
380f
0000
0000
00f3
cafe
3c0f
0000
0000
00f0
cafe
200f
0000
0000
00e6
cafe
240f
0000
0000
00f3
cafe
280f
0000
0000
00f5
cafe
2c0f
0000
0000
00fc
cafe
300f
0000
0000
00ea
cafe
340f
0000
0000
00ee
cafe
380f
0000
0000
00f7
cafe
3c0f
0000
0000
0107
cafe
200f
0000
0000
00f1
cafe
240f
0000
0000
00e9
cafe
280f
0000
0000
00eb
cafe
2c0f
0000
0000
00ed
cafe
300f
0000
0000
00e8
cafe
340f
0000
0000
00f0
cafe
380f
0000
0000
00f7
cafe
3c0f
0000
0000
00f3
cafe
200f
0000
-
0000
00ef
cafe
240f
0000
0000
00ee
cafe
280f
0000
0000
00f1
cafe
2c0f
0000
0000
00ec
cafe
300f
0000
0000
00df
cafe
340f
0000
0000
00ee
cafe
380f
0000
0000
00f0
cafe
3c0f
0000
0000
00f2
cafe
200f
0000
0000
00f5
cafe
240f
0000
0000
00f4
cafe
280f
0000
0000
00ef
cafe
2c0f
0000
0000
00f4
cafe
300f
0000
0000
00fb
cafe
340f
0000
0000
00f3
cafe
380f
0000
0000
00f9
cafe
3c0f
0000
0000
00ee
cafe
200f
0000
0000
00e3
cafe
240f
0000
0000
00e4
cafe
280f
0000
0000
00ea
cafe
2c0f
0000
0000
00ec
cafe
300f
0000
0000
00fe
cafe
340f
0000
0000
00f9
cafe
380f
0000
0000
00f3
cafe
3c0f
0000
0000
00ef
cafe
200f
0000
0000
00eb
cafe
240f
0000
0000
00e5
cafe
280f
0000
0000
00e6
cafe
2c0f
0000
0000
00e8
cafe
300f
0000
0000
00ef
cafe
340f
0000
0000
00ed
cafe
380f
0000
0000
00e9
cafe
3c0f
0000
0000
00ea
cafe
200f
0000
0000
00e9
cafe
240f
0000
0000
00ef
cafe
280f
0000
0000
00f5
cafe
2c0f
0000
0000
00f8
cafe
300f
0000
0000
00f4
cafe
340f
0000
0000
00ea
cafe
380f
0000
0000
00e9
cafe
3c0f
0000
0000
00e6
cafe
200f
0000
0000
00ef
cafe
240f
0000
0000
00e6
cafe
280f
0000
0000
00e5
cafe
2c0f
0000
0000
00f4
cafe
300f
0000
0000
00e5
cafe
340f
0000
0000
00e8
cafe
380f
0000
0000
00e4
cafe
3c0f
0000
0000
00e5
cafe
200f
0000
0000
00ec
cafe
240f
0000
0000
00e6
cafe
280f
0000
0000
00e7
cafe
2c0f
0000
0000
-
00e8
cafe
300f
0000
0000
00e4
cafe
340f
0000
0000
00db
cafe
380f
0000
0000
00de
cafe
3c0f
0000
0000
00ec
cafe
200f
0000
0000
00f3
cafe
240f
0000
0000
00f1
cafe
280f
0000
0000
00f3
cafe
2c0f
0000
0000
00e9
cafe
300f
0000
0000
00eb
cafe
340f
0000
0000
00e3
cafe
380f
0000
0000
00d8
cafe
3c0f
0000
0000
00da
cafe
200f
0000
0000
00e6
cafe
240f
0000
0000
00e6
cafe
280f
0000
0000
00e6
cafe
2c0f
0000
0000
00ec
cafe
300f
0000
0000
00eb
cafe
340f
0000
0000
00e8
cafe
380f
0000
0000
00ed
cafe
3c0f
0000
0000
00f0
cafe
200f
0000
0000
00f6
cafe
240f
0000
0000
00f8
cafe
280f
0000
0000
00fa
cafe
2c0f
0000
0000
00e9
cafe
300f
0000
0000
00fe
cafe
340f
0000
0000
00f7
cafe
380f
0000
0000
00f8
cafe
3c0f
0000
0000
0100
cafe
200f
0000
0000
00f3
cafe
240f
0000
0000
00f7
cafe
280f
0000
0000
00fb
cafe
2c0f
0000
0000
00f6
cafe
300f
0000
0000
00e3
cafe
340f
0000
0000
00f1
cafe
380f
0000
0000
00e2
cafe
3c0f
0000
0000
00e8
cafe
200f
0000
0000
00e3
cafe
240f
0000
0000
00ea
cafe
280f
0000
0000
00f7
cafe
2c0f
0000
0000
0101
cafe
300f
0000
0000
00f2
cafe
340f
0000
0000
00e9
cafe
380f
0000
0000
00ea
cafe
3c0f
0000
0000
00e4
cafe
200f
0000
0000
00e5
cafe
240f
0000
0000
00e5
cafe
280f
0000
0000
00e7
cafe
2c0f
0000
0000
00e4
cafe
300f
0000
0000
00df
cafe
340f
0000
0000
00e6
cafe
380f
0000
0000
00e4
-
cafe
3c0f
0000
0000
0101
cafe
200f
0000
0000
00f5
cafe
240f
0000
0000
00f7
cafe
280f
0000
0000
00ed
cafe
2c0f
0000
0000
00ef
cafe
300f
0000
0000
00e5
cafe
340f
0000
0000
00e1
cafe
380f
0000
0000
00eb
cafe
3c0f
0000
0000
00f5
cafe
200f
0000
0000
00f4
cafe
240f
0000
0000
00f8
cafe
280f
0000
0000
00f7
cafe
2c0f
0000
0000
00f0
cafe
300f
0000
0000
00f3
cafe
340f
0000
0000
00f6
cafe
380f
0000
0000
00ff
cafe
3c0f
0000
0000
00f5
cafe
200f
0000
0000
00f4
cafe
240f
0000
0000
00ec
cafe
280f
0000
0000
00e8
cafe
2c0f
0000
0000
00ed
cafe
300f
0000
0000
00ee
cafe
340f
0000
0000
00e0
cafe
380f
0000
0000
00e2
cafe
3c0f
0000
0000
00f3
cafe
200f
0000
0000
00f2
cafe
240f
0000
0000
00ea
cafe
280f
0000
0000
00e3
cafe
2c0f
0000
0000
00e3
cafe
300f
0000
0000
00ec
cafe
340f
0000
0000
00ee
cafe
380f
0000
0000
00f0
cafe
3c0f
0000
0000
00e4
cafe
200f
0000
0000
00ea
cafe
240f
0000
0000
00ee
cafe
280f
0000
0000
00f2
cafe
2c0f
0000
0000
00f8
cafe
300f
0000
0000
00f7
cafe
340f
0000
0000
0104
cafe
380f
0000
0000
00f0
cafe
3c0f
0000
0000
00e4
cafe
200f
0000
0000
00f4
cafe
240f
0000
0000
00e4
cafe
280f
0000
0000
00ee
cafe
2c0f
0000
0000
00ec
cafe
300f
0000
0000
00e8
cafe
340f
0000
0000
00e7
cafe
380f
0000
0000
00f0
cafe
3c0f
0000
0000
00f2
cafe
200f
0000
0000
00f0
cafe
240f
0000
0000
00ef
cafe
-
280f
0000
0000
00f6
cafe
2c0f
0000
0000
00e6
cafe
300f
0000
0000
00f0
cafe
340f
0000
0000
00ec
cafe
380f
0000
0000
00f4
cafe
3c0f
0000
0000
00ee
cafe
200f
0000
0000
00f7
cafe
240f
0000
0000
00ef
cafe
280f
0000
0000
00f7
cafe
2c0f
0000
0000
00f0
cafe
300f
0000
0000
00f9
cafe
340f
0000
0000
00fb
cafe
380f
0000
0000
00f7
cafe
3c0f
0000
0000
00fb
cafe
200f
0000
0000
00f2
cafe
240f
0000
0000
00fb
cafe
280f
0000
0000
00f7
cafe
2c0f
0000
0000
00f8
cafe
300f
0000
0000
00f5
cafe
340f
0000
0000
00ef
cafe
380f
0000
0000
00ec
cafe
3c0f
0000
0000
00f2
cafe
200f
0000
0000
00fa
cafe
240f
0000
0000
00fe
cafe
280f
0000
0000
00f3
cafe
2c0f
0000
0000
00eb
cafe
300f
0000
0000
00f4
cafe
340f
0000
0000
00f2
cafe
380f
0000
0000
00f5
cafe
3c0f
0000
0000
00f8
cafe
200f
0000
0000
00ef
cafe
240f
0000
0000
00fb
cafe
280f
0000
0000
00f7
cafe
2c0f
0000
0000
00f9
cafe
300f
0000
0000
00ff
cafe
340f
0000
0000
00fa
cafe
380f
0000
0000
00fe
cafe
3c0f
0000
0000
00fe
cafe
200f
0000
0000
0104
cafe
240f
0000
0000
00f4
cafe
280f
0000
0000
00f7
cafe
2c0f
0000
0000
0103
cafe
300f
0000
0000
00f2
cafe
340f
0000
0000
00ed
cafe
380f
0000
0000
00f5
cafe
3c0f
0000
0000
00f4
cafe
200f
0000
0000
00f1
cafe
240f
0000
0000
00fa
cafe
280f
0000
0000
00ea
cafe
2c0f
0000
0000
00ee
cafe
300f
0000
0000
00f6
cafe
340f
-
0000
0000
00f2
cafe
380f
0000
0000
00e8
cafe
3c0f
0000
0000
00ee
cafe
200f
0000
0000
00e5
cafe
240f
0000
0000
00de
cafe
280f
0000
0000
00ed
cafe
2c0f
0000
0000
00f0
cafe
300f
0000
0000
00ec
cafe
340f
0000
0000
00e5
cafe
380f
0000
0000
00ea
cafe
3c0f
0000
0000
00e8
cafe
200f
0000
0000
00e9
cafe
240f
0000
0000
00e8
cafe
280f
0000
0000
00ed
cafe
2c0f
0000
0000
00f5
cafe
300f
0000
0000
00fa
cafe
340f
0000
0000
00f5
cafe
380f
0000
0000
00f2
cafe
3c0f
0000
0000
00e6
cafe
200f
0000
0000
00e0
cafe
240f
0000
0000
00ea
cafe
280f
0000
0000
00f2
cafe
2c0f
0000
0000
00ef
cafe
300f
0000
0000
00f0
cafe
340f
0000
0000
00f1
cafe
380f
0000
0000
00ed
cafe
3c0f
0000
0000
00f3
cafe
200f
0000
0000
00fc
cafe
240f
0000
0000
00eb
cafe
280f
0000
0000
00ef
cafe
2c0f
0000
0000
00eb
cafe
300f
0000
0000
00e2
cafe
340f
0000
0000
00ea
cafe
380f
0000
0000
00f4
cafe
3c0f
0000
0000
0100
cafe
200f
0000
0000
00f2
cafe
240f
0000
0000
00ee
cafe
280f
0000
0000
00f7
cafe
2c0f
0000
0000
00ef
cafe
300f
0000
0000
00e3
cafe
340f
0000
0000
00e9
cafe
380f
0000
0000
00e6
cafe
3c0f
0000
0000
00e8
cafe
200f
0000
0000
00ea
cafe
240f
0000
0000
00e7
cafe
280f
0000
0000
00e5
cafe
2c0f
0000
0000
00e8
cafe
300f
0000
0000
00dd
cafe
340f
0000
0000
00d7
cafe
380f
0000
0000
00e6
cafe
3c0f
0000
0000
00e6
cafe
200f
0000
-
0000
00e4
cafe
240f
0000
0000
00e4
cafe
280f
0000
0000
00e8
cafe
2c0f
0000
0000
00f1
cafe
300f
0000
0000
00ee
cafe
340f
0000
0000
00e8
cafe
380f
0000
0000
00f1
cafe
3c0f
0000
0000
00f2
cafe
200f
0000
0000
00f6
cafe
240f
0000
0000
0100
cafe
280f
0000
0000
00ef
cafe
2c0f
0000
0000
00f4
cafe
300f
0000
0000
00f8
cafe
340f
0000
0000
00f2
cafe
380f
0000
0000
00f7
cafe
3c0f
0000
0000
00eb
cafe
200f
0000
0000
00ee
cafe
240f
0000
0000
00e8
cafe
280f
0000
0000
00dd
cafe
2c0f
0000
0000
00e2
cafe
300f
0000
0000
00e6
cafe
340f
0000
0000
00e9
cafe
380f
0000
0000
00e4
cafe
3c0f
0000
0000
00f6
cafe
200f
0000
0000
00e6
cafe
240f
0000
0000
00f0
cafe
280f
0000
0000
00ed
cafe
2c0f
0000
0000
00e9
cafe
300f
0000
0000
00f3
cafe
340f
0000
0000
00ec
cafe
380f
0000
0000
00ef
cafe
3c0f
0000
0000
00f1
cafe
200f
0000
0000
00ee
cafe
240f
0000
0000
00ee
cafe
280f
0000
0000
00ef
cafe
2c0f
0000
0000
00f6
cafe
300f
0000
0000
00f6
cafe
340f
0000
0000
00f4
cafe
380f
0000
0000
0100
cafe
3c0f
0000
0000
00f4
cafe
200f
0000
0000
00eb
cafe
240f
0000
0000
00eb
cafe
280f
0000
0000
00f1
cafe
2c0f
0000
0000
00fc
cafe
300f
0000
0000
00f0
cafe
340f
0000
0000
00eb
cafe
380f
0000
0000
00ea
cafe
3c0f
0000
0000
00e5
cafe
200f
0000
0000
00d9
cafe
240f
0000
0000
00de
cafe
280f
0000
0000
00e0
cafe
2c0f
0000
0000
-
00ed
cafe
300f
0000
0000
00e6
cafe
340f
0000
0000
00ef
cafe
380f
0000
0000
00f7
cafe
3c0f
0000
0000
00f3
cafe
200f
0000
0000
00ec
cafe
240f
0000
0000
00f8
cafe
280f
0000
0000
00f9
cafe
2c0f
0000
0000
00f1
cafe
300f
0000
0000
00f6
cafe
340f
0000
0000
00f5
cafe
380f
0000
0000
00f6
cafe
3c0f
0000
0000
00fe
cafe
200f
0000
0000
00f6
cafe
240f
0000
0000
00ea
cafe
280f
0000
0000
00ea
cafe
2c0f
0000
0000
00ee
cafe
300f
0000
0000
00e8
cafe
340f
0000
0000
00eb
cafe
380f
0000
0000
00e3
cafe
3c0f
0000
0000
00e4
cafe
200f
0000
0000
00ef
cafe
240f
0000
0000
00e7
cafe
280f
0000
0000
00f3
cafe
2c0f
0000
0000
00f5
cafe
300f
0000
0000
00f0
cafe
340f
0000
0000
00ee
cafe
380f
0000
0000
00ee
cafe
3c0f
0000
0000
00ef
cafe
200f
0000
0000
00e9
cafe
240f
0000
0000
00e0
cafe
280f
0000
0000
00e9
cafe
2c0f
0000
0000
00e2
cafe
300f
0000
0000
00e4
cafe
340f
0000
0000
00e0
cafe
380f
0000
0000
00e3
cafe
3c0f
0000
0000
00f7
cafe
200f
0000
0000
00ed
cafe
240f
0000
0000
00f3
cafe
280f
0000
0000
00f4
cafe
2c0f
0000
0000
00fd
cafe
300f
0000
0000
00fc
cafe
340f
0000
0000
00f5
cafe
380f
0000
0000
00f3
cafe
3c0f
0000
0000
00eb
cafe
200f
0000
0000
00f6
cafe
240f
0000
0000
00ea
cafe
280f
0000
0000
00ef
cafe
2c0f
0000
0000
00f0
cafe
300f
0000
0000
00f7
cafe
340f
0000
0000
00f6
cafe
380f
0000
0000
00f8
-
cafe
3c0f
0000
0000
00f8
cafe
200f
0000
0000
00f9
cafe
240f
0000
0000
00e7
cafe
280f
0000
0000
00ec
cafe
2c0f
0000
0000
00ee
cafe
300f
0000
0000
00ee
cafe
340f
0000
0000
00e8
cafe
380f
0000
0000
00e6
cafe
3c0f
0000
0000
00f5
cafe
200f
0000
0000
00f5
cafe
240f
0000
0000
00f5
cafe
280f
0000
0000
00ea
cafe
2c0f
0000
0000
00ed
cafe
300f
0000
0000
00ed
cafe
340f
0000
0000
00e9
cafe
380f
0000
0000
00e7
cafe
3c0f
0000
0000
00e4
cafe
200f
0000
0000
00eb
cafe
240f
0000
0000
00ea
cafe
280f
0000
0000
00ed
cafe
2c0f
0000
0000
00e9
cafe
300f
0000
0000
00f6
cafe
340f
0000
0000
00ed
cafe
380f
0000
0000
00ef
cafe
3c0f
0000
0000
00f0
cafe
200f
0000
0000
00f8
cafe
240f
0000
0000
00f9
cafe
280f
0000
0000
00e9
cafe
2c0f
0000
0000
00f3
cafe
300f
0000
0000
00e9
cafe
340f
0000
0000
00ee
cafe
380f
0000
0000
00ed
cafe
3c0f
0000
0000
00eb
cafe
200f
0000
0000
00ee
cafe
240f
0000
0000
00f2
cafe
280f
0000
0000
00f8
cafe
2c0f
0000
0000
00f2
cafe
300f
0000
0000
00f7
cafe
340f
0000
0000
00ed
cafe
380f
0000
0000
00f4
cafe
3c0f
0000
0000
00fb
cafe
200f
0000
0000
00f2
cafe
240f
0000
0000
00f4
cafe
280f
0000
0000
00fb
cafe
2c0f
0000
0000
0101
cafe
300f
0000
0000
00fd
cafe
340f
0000
0000
0102
cafe
380f
0000
0000
00f8
cafe
3c0f
0000
0000
0100
cafe
200f
0000
0000
00f5
cafe
240f
0000
0000
00ea
cafe
-
280f
0000
0000
00eb
cafe
2c0f
0000
0000
00e8
cafe
300f
0000
0000
00f3
cafe
340f
0000
0000
00fc
cafe
380f
0000
0000
00f4
cafe
3c0f
0000
0000
00f5
cafe
200f
0000
0000
00ea
cafe
240f
0000
0000
00ea
cafe
280f
0000
0000
00ef
cafe
2c0f
0000
0000
00ef
cafe
300f
0000
0000
00e2
cafe
340f
0000
0000
00ed
cafe
380f
0000
0000
00e3
cafe
3c0f
0000
0000
00eb
cafe
200f
0000
0000
00f1
cafe
240f
0000
0000
00ef
cafe
280f
0000
0000
00e4
cafe
2c0f
0000
0000
00f5
cafe
300f
0000
0000
00e9
cafe
340f
0000
0000
00f4
cafe
380f
0000
0000
00ea
cafe
3c0f
0000
0000
00e6
cafe
200f
0000
0000
00f4
cafe
240f
0000
0000
00eb
cafe
280f
0000
0000
00f2
cafe
2c0f
0000
0000
00f0
cafe
300f
0000
0000
00f4
cafe
340f
0000
0000
00f3
cafe
380f
0000
0000
00eb
cafe
3c0f
0000
0000
00ee
cafe
200f
0000
0000
00e2
cafe
240f
0000
0000
00e0
cafe
280f
0000
0000
00ee
cafe
2c0f
0000
0000
00e5
cafe
300f
0000
0000
00e7
cafe
340f
0000
0000
00e5
cafe
380f
0000
0000
00f4
cafe
3c0f
0000
0000
00ef
cafe
200f
0000
0000
00f5
cafe
240f
0000
0000
00e8
cafe
280f
0000
0000
00e4
cafe
2c0f
0000
0000
00e3
cafe
300f
0000
0000
00eb
cafe
340f
0000
0000
00e3
cafe
380f
0000
0000
00f1
cafe
3c0f
0000
0000
00f4
cafe
200f
0000
0000
00e2
cafe
240f
0000
0000
00e5
cafe
280f
0000
0000
00e5
cafe
2c0f
0000
0000
00e4
cafe
300f
0000
0000
00ec
cafe
340f
-
0000
0000
00e3
cafe
380f
0000
0000
00ef
cafe
3c0f
0000
0000
00f4
cafe
200f
0000
0000
00e5
cafe
240f
0000
0000
00f2
cafe
280f
0000
0000
00f8
cafe
2c0f
0000
0000
00ed
cafe
300f
0000
0000
00ee
cafe
340f
0000
0000
00f9
cafe
380f
0000
0000
00e8
cafe
3c0f
0000
0000
00f3
cafe
200f
0000
0000
00ef
cafe
240f
0000
0000
00ff
cafe
280f
0000
0000
00fe
cafe
2c0f
0000
0000
0106
cafe
300f
0000
0000
00fb
cafe
340f
0000
0000
00f2
cafe
380f
0000
0000
00f3
cafe
3c0f
0000
0000
00f3
cafe
200f
0000
0000
00eb
cafe
240f
0000
0000
00f8
cafe
280f
0000
0000
00ef
cafe
2c0f
0000
0000
00ea
cafe
300f
0000
0000
00eb
cafe
340f
0000
0000
00ef
cafe
380f
0000
0000
00df
cafe
3c0f
0000
0000
00de
cafe
200f
0000
0000
00e6
cafe
240f
0000
0000
00f7
cafe
280f
0000
0000
00f0
cafe
2c0f
0000
0000
00f4
cafe
300f
0000
0000
00f6
cafe
340f
0000
0000
00f1
cafe
380f
0000
0000
00fd
cafe
3c0f
0000
0000
00f8
cafe
200f
0000
0000
00ee
cafe
240f
0000
0000
00ec
cafe
280f
0000
0000
00ef
cafe
2c0f
0000
0000
00ff
cafe
300f
0000
0000
00f5
cafe
340f
0000
0000
00ef
cafe
380f
0000
0000
00f0
cafe
3c0f
0000
0000
00ff
cafe
200f
0000
0000
00fb
cafe
240f
0000
0000
00f8
cafe
280f
0000
0000
00fb
cafe
2c0f
0000
0000
00f4
cafe
300f
0000
0000
00fa
cafe
340f
0000
0000
00fa
cafe
380f
0000
0000
00f8
cafe
3c0f
0000
0000
00f2
cafe
200f
0000
-
0000
00ef
cafe
240f
0000
0000
00e9
cafe
280f
0000
0000
00f3
cafe
2c0f
0000
0000
00e8
cafe
300f
0000
0000
00ec
cafe
340f
0000
0000
00e7
cafe
380f
0000
0000
00f0
cafe
3c0f
0000
0000
00ee
cafe
200f
0000
0000
00ef
cafe
240f
0000
0000
00f2
cafe
280f
0000
0000
00ea
cafe
2c0f
0000
0000
00ef
cafe
300f
0000
0000
00e9
cafe
340f
0000
0000
00eb
cafe
380f
0000
0000
00f2
cafe
3c0f
0000
0000
00f5
cafe
200f
0000
0000
00ea
cafe
240f
0000
0000
00f3
cafe
280f
0000
0000
00e9
cafe
2c0f
0000
0000
00e9
cafe
300f
0000
0000
00f0
cafe
340f
0000
0000
00f1
cafe
380f
0000
0000
00f6
cafe
3c0f
0000
0000
00f5
cafe
200f
0000
0000
00fa
cafe
240f
0000
0000
0100
cafe
280f
0000
0000
00fb
cafe
2c0f
0000
0000
00f0
cafe
300f
0000
0000
00f7
cafe
340f
0000
0000
00f4
cafe
380f
0000
0000
00e9
cafe
3c0f
0000
0000
00e8
cafe
200f
0000
0000
00f0
cafe
240f
0000
0000
00f0
cafe
280f
0000
0000
00f4
cafe
2c0f
0000
0000
00ee
cafe
300f
0000
0000
00f6
cafe
340f
0000
0000
00e8
cafe
380f
0000
0000
00f8
cafe
3c0f
0000
0000
00ef
cafe
200f
0000
0000
0101
cafe
240f
0000
0000
00f7
cafe
280f
0000
0000
00fa
cafe
2c0f
0000
0000
00f6
cafe
300f
0000
0000
0100
cafe
340f
0000
0000
00ef
cafe
380f
0000
0000
00eb
cafe
3c0f
0000
0000
00f2
cafe
200f
0000
0000
00ee
cafe
240f
0000
0000
00e3
cafe
280f
0000
0000
00ec
cafe
2c0f
0000
0000
-
00e9
cafe
300f
0000
0000
00ef
cafe
340f
0000
0000
00e7
cafe
380f
0000
0000
00e7
cafe
3c0f
0000
0000
00f5
cafe
200f
0000
0000
00e7
cafe
240f
0000
0000
00e2
cafe
280f
0000
0000
00eb
cafe
2c0f
0000
0000
00e6
cafe
300f
0000
0000
00e5
cafe
340f
0000
0000
00eb
cafe
380f
0000
0000
00f7
cafe
3c0f
0000
0000
00ea
cafe
200f
0000
0000
00f2
cafe
240f
0000
0000
00f4
cafe
280f
0000
0000
00fd
cafe
2c0f
0000
0000
00f2
cafe
300f
0000
0000
00ec
cafe
340f
0000
0000
00eb
cafe
380f
0000
0000
00f2
cafe
3c0f
0000
0000
00ed
cafe
200f
0000
0000
00f0
cafe
240f
0000
0000
00ee
cafe
280f
0000
0000
00e5
cafe
2c0f
0000
0000
00f0
cafe
300f
0000
0000
00e9
cafe
340f
0000
0000
00e4
cafe
380f
0000
0000
00de
cafe
3c0f
0000
0000
00db
cafe
200f
0000
0000
00d8
cafe
240f
0000
0000
00e1
cafe
280f
0000
0000
00f2
cafe
2c0f
0000
0000
00eb
cafe
300f
0000
0000
00e2
cafe
340f
0000
0000
00f0
cafe
380f
0000
0000
00e4
cafe
3c0f
0000
0000
00fe
cafe
200f
0000
0000
00e8
cafe
240f
0000
0000
00e3
cafe
280f
0000
0000
00f0
cafe
2c0f
0000
0000
00ea
cafe
300f
0000
0000
00ef
cafe
340f
0000
0000
00e1
cafe
380f
0000
0000
00e3
cafe
3c0f
0000
0000
00df
cafe
200f
0000
0000
00f0
cafe
240f
0000
0000
00e7
cafe
280f
0000
0000
00f0
cafe
2c0f
0000
0000
00f3
cafe
300f
0000
0000
00f3
cafe
340f
0000
0000
00ef
cafe
380f
0000
0000
00e8
-
cafe
3c0f
0000
0000
00e9
cafe
200f
0000
0000
00ee
cafe
240f
0000
0000
00e7
cafe
280f
0000
0000
00e2
cafe
2c0f
0000
0000
00e3
cafe
300f
0000
0000
00de
cafe
340f
0000
0000
00df
cafe
380f
0000
0000
00e6
cafe
3c0f
0000
0000
00ed
cafe
200f
0000
0000
00e4
cafe
240f
0000
0000
00ea
cafe
280f
0000
0000
00ea
cafe
2c0f
0000
0000
00f4
cafe
300f
0000
0000
00e8
cafe
340f
0000
0000
00e6
cafe
380f
0000
0000
00eb
cafe
3c0f
0000
0000
00ee
cafe
200f
0000
0000
00e8
cafe
240f
0000
0000
00f4
cafe
280f
0000
0000
00e7
cafe
2c0f
0000
0000
00e8
cafe
300f
0000
0000
00e6
cafe
340f
0000
0000
00f1
cafe
380f
0000
0000
00e9
cafe
3c0f
0000
0000
00e7
cafe
200f
0000
0000
00ea
cafe
240f
0000
0000
00e5
cafe
280f
0000
0000
00ed
cafe
2c0f
0000
0000
00f0
cafe
300f
0000
0000
00f5
cafe
340f
0000
0000
00f0
cafe
380f
0000
0000
00f9
cafe
3c0f
0000
0000
00f7
cafe
200f
0000
0000
00ed
cafe
240f
0000
0000
00ed
cafe
280f
0000
0000
00de
cafe
2c0f
0000
0000
00dc
cafe
300f
0000
0000
00e4
cafe
340f
0000
0000
00de
cafe
380f
0000
0000
00ef
cafe
3c0f
0000
0000
00f7
cafe
200f
0000
0000
00f0
cafe
240f
0000
0000
0100
cafe
280f
0000
0000
00fd
cafe
2c0f
0000
0000
00f2
cafe
300f
0000
0000
00f9
cafe
340f
0000
0000
00f8
cafe
380f
0000
0000
00f9
cafe
3c0f
0000
0000
00f3
cafe
200f
0000
0000
00fc
cafe
240f
0000
0000
00ff
cafe
-
280f
0000
0000
00fb
cafe
2c0f
0000
0000
00fd
cafe
300f
0000
0000
00f9
cafe
340f
0000
0000
00fd
cafe
380f
0000
0000
0101
cafe
3c0f
0000
0000
00f2
cafe
200f
0000
0000
00ec
cafe
240f
0000
0000
00f1
cafe
280f
0000
0000
00f2
cafe
2c0f
0000
0000
00f0
cafe
300f
0000
0000
00f1
cafe
340f
0000
0000
00f1
cafe
380f
0000
0000
00f8
cafe
3c0f
0000
0000
00f2
cafe
200f
0000
0000
00ef
cafe
240f
0000
0000
00df
cafe
280f
0000
0000
00de
cafe
2c0f
0000
0000
00ef
cafe
300f
0000
0000
00df
cafe
340f
0000
0000
00ec
cafe
380f
0000
0000
00e9
cafe
3c0f
0000
0000
00ec
cafe
200f
0000
0000
00ea
cafe
240f
0000
0000
00f5
cafe
280f
0000
0000
00e4
cafe
2c0f
0000
0000
00df
cafe
300f
0000
0000
00eb
cafe
340f
0000
0000
00e7
cafe
380f
0000
0000
00e8
cafe
3c0f
0000
0000
00ed
cafe
200f
0000
0000
00e4
cafe
240f
0000
0000
00e8
cafe
280f
0000
0000
00e8
cafe
2c0f
0000
0000
00e5
cafe
300f
0000
0000
00e4
cafe
340f
0000
0000
00e4
cafe
380f
0000
0000
00e3
cafe
3c0f
0000
0000
00e7
cafe
200f
0000
0000
00f0
cafe
240f
0000
0000
00f8
cafe
280f
0000
0000
00f0
cafe
2c0f
0000
0000
00ea
cafe
300f
0000
0000
00e9
cafe
340f
0000
0000
00e4
cafe
380f
0000
0000
00eb
cafe
3c0f
0000
0000
00e9
cafe
200f
0000
0000
00e6
cafe
240f
0000
0000
00e9
cafe
280f
0000
0000
00e8
cafe
2c0f
0000
0000
00ed
cafe
300f
0000
0000
00e7
cafe
340f
-
0000
0000
00f2
cafe
380f
0000
0000
00f9
cafe
3c0f
0000
0000
00f5
cafe
200f
0000
0000
00f0
cafe
240f
0000
0000
00f3
cafe
280f
0000
0000
00f4
cafe
2c0f
0000
0000
00e3
cafe
300f
0000
0000
00e3
cafe
340f
0000
0000
00e3
cafe
380f
0000
0000
00e5
cafe
3c0f
0000
0000
00e3
cafe
200f
0000
0000
00dd
cafe
240f
0000
0000
00ed
cafe
280f
0000
0000
00eb
cafe
2c0f
0000
0000
00e3
cafe
300f
0000
0000
00e6
cafe
340f
0000
0000
00eb
cafe
380f
0000
0000
00f5
cafe
3c0f
0000
0000
00f7
cafe
200f
0000
0000
00ee
cafe
240f
0000
0000
00ef
cafe
280f
0000
0000
00ef
cafe
2c0f
0000
0000
00e7
cafe
300f
0000
0000
00e9
cafe
340f
0000
0000
00dc
cafe
380f
0000
0000
00e8
cafe
3c0f
0000
0000
00de
cafe
200f
0000
0000
00e2
cafe
240f
0000
0000
00e4
cafe
280f
0000
0000
00ea
cafe
2c0f
0000
0000
00ea
cafe
300f
0000
0000
00f2
cafe
340f
0000
0000
00ee
cafe
380f
0000
0000
00f8
cafe
3c0f
0000
0000
00ec
cafe
200f
0000
0000
00e5
cafe
240f
0000
0000
00eb
cafe
280f
0000
0000
00f0
cafe
2c0f
0000
0000
00f0
cafe
300f
0000
0000
00ea
cafe
340f
0000
0000
00f4
cafe
380f
0000
0000
00f4
cafe
3c0f
0000
0000
00fc
cafe
200f
0000
0000
00f1
cafe
240f
0000
0000
00f2
cafe
280f
0000
0000
00f8
cafe
2c0f
0000
0000
00e7
cafe
300f
0000
0000
00f1
cafe
340f
0000
0000
00f3
cafe
380f
0000
0000
00f2
cafe
3c0f
0000
0000
00ed
cafe
200f
0000
-
0000
00fd
cafe
240f
0000
0000
00ee
cafe
280f
0000
0000
00f8
cafe
2c0f
0000
0000
00f5
cafe
300f
0000
0000
00f8
cafe
340f
0000
0000
00e6
cafe
380f
0000
0000
00e7
cafe
3c0f
0000
0000
00df
cafe
200f
0000
0000
00e9
cafe
240f
0000
0000
00e6
cafe
280f
0000
0000
00e6
cafe
2c0f
0000
0000
00e1
cafe
300f
0000
0000
00f0
cafe
340f
0000
0000
00e8
cafe
380f
0000
0000
00df
cafe
3c0f
0000
0000
00ef
cafe
200f
0000
0000
00e9
cafe
240f
0000
0000
00f0
cafe
280f
0000
0000
00f2
cafe
2c0f
0000
0000
00e8
cafe
300f
0000
0000
00e0
cafe
340f
0000
0000
00f4
cafe
380f
0000
0000
00f6
cafe
3c0f
0000
0000
00f1
cafe
200f
0000
0000
00e3
cafe
240f
0000
0000
00e8
cafe
280f
0000
0000
00ed
cafe
2c0f
0000
0000
00f4
cafe
300f
0000
0000
00fb
cafe
340f
0000
0000
00f8
cafe
380f
0000
0000
0104
cafe
3c0f
0000
0000
0107
cafe
200f
0000
0000
0102
cafe
240f
0000
0000
00fe
cafe
280f
0000
0000
0104
cafe
2c0f
0000
0000
0107
cafe
300f
0000
0000
0104
cafe
340f
0000
0000
010b
cafe
380f
0000
0000
0100
cafe
3c0f
0000
0000
00f3
cafe
200f
0000
0000
0101
cafe
240f
0000
0000
00f5
cafe
280f
0000
0000
0100
cafe
2c0f
0000
0000
00f4
cafe
300f
0000
0000
00f3
cafe
340f
0000
0000
00ee
cafe
380f
0000
0000
00f1
cafe
3c0f
0000
0000
00fb
cafe
200f
0000
0000
00fc
cafe
240f
0000
0000
0104
cafe
280f
0000
0000
0103
cafe
2c0f
0000
0000
-
0102
cafe
300f
0000
0000
0105
cafe
340f
0000
0000
00f9
cafe
380f
0000
0000
0102
cafe
3c0f
0000
0000
0102
cafe
200f
0000
0000
00f3
cafe
240f
0000
0000
00ff
cafe
280f
0000
0000
00fa
cafe
2c0f
0000
0000
00ed
cafe
300f
0000
0000
00e6
cafe
340f
0000
0000
00ea
cafe
380f
0000
0000
00f3
cafe
3c0f
0000
0000
00e9
cafe
200f
0000
0000
00f5
cafe
240f
0000
0000
00f7
cafe
280f
0000
0000
00ed
cafe
2c0f
0000
0000
00e7
cafe
300f
0000
0000
00e4
cafe
340f
0000
0000
00f7
cafe
380f
0000
0000
00eb
cafe
3c0f
0000
0000
00e6
cafe
200f
0000
0000
00e3
cafe
240f
0000
0000
00ea
cafe
280f
0000
0000
00e7
cafe
2c0f
0000
0000
00e2
cafe
300f
0000
0000
00e0
cafe
340f
0000
0000
00dd
cafe
380f
0000
0000
00f7
cafe
3c0f
0000
0000
00f1
cafe
200f
0000
0000
00f9
cafe
240f
0000
0000
00fa
cafe
280f
0000
0000
00e9
cafe
2c0f
0000
0000
00f5
cafe
300f
0000
0000
00fa
cafe
340f
0000
0000
00f2
cafe
380f
0000
0000
00fc
cafe
3c0f
0000
0000
00f4
cafe
200f
0000
0000
00f0
cafe
240f
0000
0000
00f6
cafe
280f
0000
0000
00f9
cafe
2c0f
0000
0000
00f0
cafe
300f
0000
0000
00f2
cafe
340f
0000
0000
00f2
cafe
380f
0000
0000
00e5
cafe
3c0f
0000
0000
00ec
cafe
200f
0000
0000
00f1
cafe
240f
0000
0000
00ec
cafe
280f
0000
0000
00ea
cafe
2c0f
0000
0000
00f0
cafe
300f
0000
0000
00ee
cafe
340f
0000
0000
00ee
cafe
380f
0000
0000
00ef
-
