3415
0000
0000
0188
cafe
3815
0000
0000
018e
cafe
3c15
0000
0000
018b
cafe
2015
0000
0000
018e
cafe
2415
0000
0000
018b
cafe
2815
0000
0000
0197
cafe
2c15
0000
0000
0190
cafe
3015
0000
0000
0183
cafe
3415
0000
0000
0184
cafe
3815
0000
0000
017b
cafe
3c15
0000
0000
017e
cafe
2015
0000
0000
0181
cafe
2415
0000
0000
017e
cafe
2815
0000
0000
0186
cafe
2c15
0000
0000
018d
cafe
3015
0000
0000
0188
cafe
3415
0000
0000
018c
cafe
3815
0000
0000
018b
cafe
3c15
0000
0000
018e
cafe
2015
0000
0000
0189
cafe
2415
0000
0000
017c
cafe
2815
0000
0000
018a
cafe
2c15
0000
0000
018b
cafe
3015
0000
0000
018d
cafe
3415
0000
0000
0196
cafe
3815
0000
0000
0190
cafe
3c15
0000
0000
0195
cafe
2015
0000
0000
018e
cafe
2415
0000
0000
0188
cafe
2815
0000
0000
0191
cafe
2c15
0000
0000
0198
cafe
3015
0000
0000
0194
cafe
3415
0000
0000
018c
cafe
3815
0000
0000
018f
cafe
3c15
0000
0000
018b
cafe
2015
0000
0000
0191
cafe
2415
0000
0000
018b
cafe
2815
0000
0000
0196
cafe
2c15
0000
0000
018f
cafe
3015
0000
0000
019a
cafe
3415
0000
0000
019a
cafe
3815
0000
0000
0198
cafe
3c15
0000
0000
0193
cafe
2015
0000
0000
0192
cafe
2415
0000
0000
0190
cafe
2815
0000
0000
0188
cafe
2c15
0000
0000
018c
cafe
3015
0000
0000
0191
cafe
3415
0000
0000
0191
cafe
3815
0000
0000
0195
cafe
3c15
0000
0000
0194
cafe
2015
-
0000
0000
018c
cafe
2415
0000
0000
018c
cafe
2815
0000
0000
018f
cafe
2c15
0000
0000
0191
cafe
3015
0000
0000
0195
cafe
3415
0000
0000
0194
cafe
3815
0000
0000
0191
cafe
3c15
0000
0000
0185
cafe
2015
0000
0000
017e
cafe
2415
0000
0000
017a
cafe
2815
0000
0000
017e
cafe
2c15
0000
0000
0189
cafe
3015
0000
0000
0180
cafe
3415
0000
0000
0181
cafe
3815
0000
0000
0180
cafe
3c15
0000
0000
0184
cafe
2015
0000
0000
0182
cafe
2415
0000
0000
017d
cafe
2815
0000
0000
017b
cafe
2c15
0000
0000
0185
cafe
3015
0000
0000
017e
cafe
3415
0000
0000
0177
cafe
3815
0000
0000
0178
cafe
3c15
0000
0000
017d
cafe
2015
0000
0000
017c
cafe
2415
0000
0000
0181
cafe
2815
0000
0000
0186
cafe
2c15
0000
0000
0183
cafe
3015
0000
0000
0184
cafe
3415
0000
0000
018b
cafe
3815
0000
0000
0191
cafe
3c15
0000
0000
0193
cafe
2015
0000
0000
0196
cafe
2415
0000
0000
018a
cafe
2815
0000
0000
018c
cafe
2c15
0000
0000
0189
cafe
3015
0000
0000
0184
cafe
3415
0000
0000
0184
cafe
3815
0000
0000
0191
cafe
3c15
0000
0000
0193
cafe
2015
0000
0000
018c
cafe
2415
0000
0000
018e
cafe
2815
0000
0000
018d
cafe
2c15
0000
0000
0187
cafe
3015
0000
0000
018a
cafe
3415
0000
0000
017f
cafe
3815
0000
0000
0181
cafe
3c15
0000
0000
017b
cafe
2015
0000
0000
0189
cafe
2415
0000
0000
0194
cafe
2815
0000
0000
0190
cafe
2c15
0000
-
0000
0190
cafe
3015
0000
0000
018e
cafe
3415
0000
0000
018a
cafe
3815
0000
0000
0184
cafe
3c15
0000
0000
0187
cafe
2015
0000
0000
0185
cafe
2415
0000
0000
0189
cafe
2815
0000
0000
0187
cafe
2c15
0000
0000
0181
cafe
3015
0000
0000
0187
cafe
3415
0000
0000
018c
cafe
3815
0000
0000
018e
cafe
3c15
0000
0000
0189
cafe
2015
0000
0000
018b
cafe
2415
0000
0000
018a
cafe
2815
0000
0000
0186
cafe
2c15
0000
0000
018c
cafe
3015
0000
0000
0193
cafe
3415
0000
0000
0192
cafe
3815
0000
0000
0190
cafe
3c15
0000
0000
0197
cafe
2015
0000
0000
0196
cafe
2415
0000
0000
018f
cafe
2815
0000
0000
018c
cafe
2c15
0000
0000
018e
cafe
3015
0000
0000
018e
cafe
3415
0000
0000
0187
cafe
3815
0000
0000
0183
cafe
3c15
0000
0000
017a
cafe
2015
0000
0000
0187
cafe
2415
0000
0000
0181
cafe
2815
0000
0000
0180
cafe
2c15
0000
0000
0181
cafe
3015
0000
0000
017f
cafe
3415
0000
0000
0177
cafe
3815
0000
0000
017c
cafe
3c15
0000
0000
017c
cafe
2015
0000
0000
017e
cafe
2415
0000
0000
0184
cafe
2815
0000
0000
0184
cafe
2c15
0000
0000
0181
cafe
3015
0000
0000
0186
cafe
3415
0000
0000
0189
cafe
3815
0000
0000
0186
cafe
3c15
0000
0000
0187
cafe
2015
0000
0000
0187
cafe
2415
0000
0000
018d
cafe
2815
0000
0000
018e
cafe
2c15
0000
0000
018c
cafe
3015
0000
0000
0190
cafe
3415
0000
0000
018c
cafe
3815
0000
0000
-
0187
cafe
3c15
0000
0000
018b
cafe
2015
0000
0000
0189
cafe
2415
0000
0000
018c
cafe
2815
0000
0000
0184
cafe
2c15
0000
0000
017e
cafe
3015
0000
0000
0179
cafe
3415
0000
0000
017b
cafe
3815
0000
0000
0185
cafe
3c15
0000
0000
018e
cafe
2015
0000
0000
0193
cafe
2415
0000
0000
0192
cafe
2815
0000
0000
018d
cafe
2c15
0000
0000
0190
cafe
3015
0000
0000
018b
cafe
3415
0000
0000
0186
cafe
3815
0000
0000
0185
cafe
3c15
0000
0000
0190
cafe
2015
0000
0000
0181
cafe
2415
0000
0000
0180
cafe
2815
0000
0000
0183
cafe
2c15
0000
0000
0182
cafe
3015
0000
0000
017f
cafe
3415
0000
0000
0185
cafe
3815
0000
0000
0186
cafe
3c15
0000
0000
0187
cafe
2015
0000
0000
0178
cafe
2415
0000
0000
0182
cafe
2815
0000
0000
0182
cafe
2c15
0000
0000
0183
cafe
3015
0000
0000
0189
cafe
3415
0000
0000
0188
cafe
3815
0000
0000
0186
cafe
3c15
0000
0000
0182
cafe
2015
0000
0000
017e
cafe
2415
0000
0000
0180
cafe
2815
0000
0000
0187
cafe
2c15
0000
0000
0187
cafe
3015
0000
0000
0184
cafe
3415
0000
0000
0186
cafe
3815
0000
0000
0181
cafe
3c15
0000
0000
018e
cafe
2015
0000
0000
018c
cafe
2415
0000
0000
018d
cafe
2815
0000
0000
0190
cafe
2c15
0000
0000
0192
cafe
3015
0000
0000
0192
cafe
3415
0000
0000
018f
cafe
3815
0000
0000
0188
cafe
3c15
0000
0000
018a
cafe
2015
0000
0000
0182
cafe
2415
0000
0000
0187
-
cafe
2815
0000
0000
018c
cafe
2c15
0000
0000
018f
cafe
3015
0000
0000
0191
cafe
3415
0000
0000
018f
cafe
3815
0000
0000
018c
cafe
3c15
0000
0000
0189
cafe
2015
0000
0000
018f
cafe
2415
0000
0000
0196
cafe
2815
0000
0000
0191
cafe
2c15
0000
0000
018b
cafe
3015
0000
0000
0181
cafe
3415
0000
0000
0189
cafe
3815
0000
0000
0181
cafe
3c15
0000
0000
0187
cafe
2015
0000
0000
0188
cafe
2415
0000
0000
0189
cafe
2815
0000
0000
0186
cafe
2c15
0000
0000
0183
cafe
3015
0000
0000
0181
cafe
3415
0000
0000
0186
cafe
3815
0000
0000
018b
cafe
3c15
0000
0000
0189
cafe
2015
0000
0000
0188
cafe
2415
0000
0000
0181
cafe
2815
0000
0000
018e
cafe
2c15
0000
0000
018c
cafe
3015
0000
0000
0187
cafe
3415
0000
0000
0184
cafe
3815
0000
0000
0181
cafe
3c15
0000
0000
0183
cafe
2015
0000
0000
0189
cafe
2415
0000
0000
018d
cafe
2815
0000
0000
018c
cafe
2c15
0000
0000
018f
cafe
3015
0000
0000
0190
cafe
3415
0000
0000
018f
cafe
3815
0000
0000
0191
cafe
3c15
0000
0000
018d
cafe
2015
0000
0000
018d
cafe
2415
0000
0000
0193
cafe
2815
0000
0000
018f
cafe
2c15
0000
0000
0189
cafe
3015
0000
0000
018a
cafe
3415
0000
0000
018a
cafe
3815
0000
0000
0191
cafe
3c15
0000
0000
018e
cafe
2015
0000
0000
0187
cafe
2415
0000
0000
0185
cafe
2815
0000
0000
017f
cafe
2c15
0000
0000
017e
cafe
3015
0000
0000
017f
cafe
-
3415
0000
0000
0181
cafe
3815
0000
0000
0187
cafe
3c15
0000
0000
018e
cafe
2015
0000
0000
018d
cafe
2415
0000
0000
0190
cafe
2815
0000
0000
0188
cafe
2c15
0000
0000
0182
cafe
3015
0000
0000
0183
cafe
3415
0000
0000
018e
cafe
3815
0000
0000
018a
cafe
3c15
0000
0000
0185
cafe
2015
0000
0000
018a
cafe
2415
0000
0000
0190
cafe
2815
0000
0000
018e
cafe
2c15
0000
0000
018a
cafe
3015
0000
0000
018f
cafe
3415
0000
0000
0188
cafe
3815
0000
0000
0189
cafe
3c15
0000
0000
0189
cafe
2015
0000
0000
018c
cafe
2415
0000
0000
018d
cafe
2815
0000
0000
0183
cafe
2c15
0000
0000
0188
cafe
3015
0000
0000
0182
cafe
3415
0000
0000
0183
cafe
3815
0000
0000
018b
cafe
3c15
0000
0000
0190
cafe
2015
0000
0000
018b
cafe
2415
0000
0000
0183
cafe
2815
0000
0000
0185
cafe
2c15
0000
0000
0185
cafe
3015
0000
0000
0188
cafe
3415
0000
0000
0187
cafe
3815
0000
0000
0183
cafe
3c15
0000
0000
0182
cafe
2015
0000
0000
0185
cafe
2415
0000
0000
0188
cafe
2815
0000
0000
018c
cafe
2c15
0000
0000
0190
cafe
3015
0000
0000
0188
cafe
3415
0000
0000
0186
cafe
3815
0000
0000
017c
cafe
3c15
0000
0000
0183
cafe
2015
0000
0000
0183
cafe
2415
0000
0000
0181
cafe
2815
0000
0000
0189
cafe
2c15
0000
0000
0192
cafe
3015
0000
0000
018c
cafe
3415
0000
0000
0192
cafe
3815
0000
0000
018f
cafe
3c15
0000
0000
018a
cafe
2015
-
0000
0000
0188
cafe
2415
0000
0000
018d
cafe
2815
0000
0000
018a
cafe
2c15
0000
0000
0194
cafe
3015
0000
0000
018c
cafe
3415
0000
0000
0188
cafe
3815
0000
0000
0186
cafe
3c15
0000
0000
018a
cafe
2015
0000
0000
018a
cafe
2415
0000
0000
018f
cafe
2815
0000
0000
0191
cafe
2c15
0000
0000
018b
cafe
3015
0000
0000
018d
cafe
3415
0000
0000
018a
cafe
3815
0000
0000
018d
cafe
3c15
0000
0000
018e
cafe
2015
0000
0000
018b
cafe
2415
0000
0000
018e
cafe
2815
0000
0000
018c
cafe
2c15
0000
0000
018b
cafe
3015
0000
0000
0191
cafe
3415
0000
0000
0190
cafe
3815
0000
0000
018e
cafe
3c15
0000
0000
0191
cafe
2015
0000
0000
018b
cafe
2415
0000
0000
0183
cafe
2815
0000
0000
018a
cafe
2c15
0000
0000
017f
cafe
3015
0000
0000
017c
cafe
3415
0000
0000
0185
cafe
3815
0000
0000
0189
cafe
3c15
0000
0000
0184
cafe
2015
0000
0000
0186
cafe
2415
0000
0000
0185
cafe
2815
0000
0000
018e
cafe
2c15
0000
0000
018d
cafe
3015
0000
0000
0193
cafe
3415
0000
0000
0192
cafe
3815
0000
0000
018e
cafe
3c15
0000
0000
0190
cafe
2015
0000
0000
0196
cafe
2415
0000
0000
0193
cafe
2815
0000
0000
018e
cafe
2c15
0000
0000
0186
cafe
3015
0000
0000
0185
cafe
3415
0000
0000
018b
cafe
3815
0000
0000
0187
cafe
3c15
0000
0000
018c
cafe
2015
0000
0000
0188
cafe
2415
0000
0000
0185
cafe
2815
0000
0000
0189
cafe
2c15
0000
-
0000
018d
cafe
3015
0000
0000
0196
cafe
3415
0000
0000
0196
cafe
3815
0000
0000
0192
cafe
3c15
0000
0000
0195
cafe
2015
0000
0000
0198
cafe
2415
0000
0000
0193
cafe
2815
0000
0000
0190
cafe
2c15
0000
0000
018f
cafe
3015
0000
0000
018d
cafe
3415
0000
0000
018c
cafe
3815
0000
0000
0192
cafe
3c15
0000
0000
018b
cafe
2015
0000
0000
0190
cafe
2415
0000
0000
0187
cafe
2815
0000
0000
018a
cafe
2c15
0000
0000
018d
cafe
3015
0000
0000
0189
cafe
3415
0000
0000
0182
cafe
3815
0000
0000
0188
cafe
3c15
0000
0000
0182
cafe
2015
0000
0000
017b
cafe
2415
0000
0000
017f
cafe
2815
0000
0000
0183
cafe
2c15
0000
0000
0182
cafe
3015
0000
0000
0185
cafe
3415
0000
0000
018f
cafe
3815
0000
0000
0191
cafe
3c15
0000
0000
018c
cafe
2015
0000
0000
017d
cafe
2415
0000
0000
0180
cafe
2815
0000
0000
017e
cafe
2c15
0000
0000
018c
cafe
3015
0000
0000
018b
cafe
3415
0000
0000
0188
cafe
3815
0000
0000
018a
cafe
3c15
0000
0000
0187
cafe
2015
0000
0000
0183
cafe
2415
0000
0000
0183
cafe
2815
0000
0000
0185
cafe
2c15
0000
0000
018d
cafe
3015
0000
0000
0186
cafe
3415
0000
0000
018e
cafe
3815
0000
0000
0185
cafe
3c15
0000
0000
0185
cafe
2015
0000
0000
0186
cafe
2415
0000
0000
0183
cafe
2815
0000
0000
018a
cafe
2c15
0000
0000
0192
cafe
3015
0000
0000
0190
cafe
3415
0000
0000
018d
cafe
3815
0000
0000
-
0191
cafe
3c15
0000
0000
0193
cafe
2015
0000
0000
0193
cafe
2415
0000
0000
0198
cafe
2815
0000
0000
0190
cafe
2c15
0000
0000
018e
cafe
3015
0000
0000
018f
cafe
3415
0000
0000
0195
cafe
3815
0000
0000
018a
cafe
3c15
0000
0000
018e
cafe
2015
0000
0000
018b
cafe
2415
0000
0000
018a
cafe
2815
0000
0000
018c
cafe
2c15
0000
0000
0186
cafe
3015
0000
0000
0183
cafe
3415
0000
0000
018d
cafe
3815
0000
0000
0185
cafe
3c15
0000
0000
0180
cafe
2015
0000
0000
017c
cafe
2415
0000
0000
0182
cafe
2815
0000
0000
018b
cafe
2c15
0000
0000
018e
cafe
3015
0000
0000
0192
cafe
3415
0000
0000
0190
cafe
3815
0000
0000
0190
cafe
3c15
0000
0000
0187
cafe
2015
0000
0000
0183
cafe
2415
0000
0000
0184
cafe
2815
0000
0000
0181
cafe
2c15
0000
0000
0181
cafe
3015
0000
0000
017c
cafe
3415
0000
0000
0183
cafe
3815
0000
0000
0191
cafe
3c15
0000
0000
018d
cafe
2015
0000
0000
0189
cafe
2415
0000
0000
018a
cafe
2815
0000
0000
018b
cafe
2c15
0000
0000
0188
cafe
3015
0000
0000
0180
cafe
3415
0000
0000
017b
cafe
3815
0000
0000
017d
cafe
3c15
0000
0000
017f
cafe
2015
0000
0000
017b
cafe
2415
0000
0000
017f
cafe
2815
0000
0000
017d
cafe
2c15
0000
0000
0189
cafe
3015
0000
0000
018c
cafe
3415
0000
0000
0183
cafe
3815
0000
0000
017e
cafe
3c15
0000
0000
017c
cafe
2015
0000
0000
0179
cafe
2415
0000
0000
0179
-
cafe
2815
0000
0000
0174
cafe
2c15
0000
0000
017b
cafe
3015
0000
0000
0178
cafe
3415
0000
0000
017b
cafe
3815
0000
0000
017f
cafe
3c15
0000
0000
0185
cafe
2015
0000
0000
018c
cafe
2415
0000
0000
0192
cafe
2815
0000
0000
0190
cafe
2c15
0000
0000
0185
cafe
3015
0000
0000
018c
cafe
3415
0000
0000
018b
cafe
3815
0000
0000
0184
cafe
3c15
0000
0000
017f
cafe
2015
0000
0000
017f
cafe
2415
0000
0000
0183
cafe
2815
0000
0000
0183
cafe
2c15
0000
0000
0185
cafe
3015
0000
0000
0191
cafe
3415
0000
0000
018f
cafe
3815
0000
0000
0189
cafe
3c15
0000
0000
017d
cafe
2015
0000
0000
0182
cafe
2415
0000
0000
0186
cafe
2815
0000
0000
0182
cafe
2c15
0000
0000
0188
cafe
3015
0000
0000
0191
cafe
3415
0000
0000
0191
cafe
3815
0000
0000
0194
cafe
3c15
0000
0000
0193
cafe
2015
0000
0000
0192
cafe
2415
0000
0000
0190
cafe
2815
0000
0000
0195
cafe
2c15
0000
0000
0196
cafe
3015
0000
0000
018f
cafe
3415
0000
0000
018e
cafe
3815
0000
0000
0198
cafe
3c15
0000
0000
019b
cafe
2015
0000
0000
0192
cafe
2415
0000
0000
0189
cafe
2815
0000
0000
018f
cafe
2c15
0000
0000
0196
cafe
3015
0000
0000
018e
cafe
3415
0000
0000
0190
cafe
3815
0000
0000
0191
cafe
3c15
0000
0000
0196
cafe
2015
0000
0000
0192
cafe
2415
0000
0000
0193
cafe
2815
0000
0000
0190
cafe
2c15
0000
0000
018f
cafe
3015
0000
0000
0195
cafe
-
3415
0000
0000
0191
cafe
3815
0000
0000
018d
cafe
3c15
0000
0000
018c
cafe
2015
0000
0000
0189
cafe
2415
0000
0000
018b
cafe
2815
0000
0000
018f
cafe
2c15
0000
0000
0195
cafe
3015
0000
0000
0191
cafe
3415
0000
0000
0188
cafe
3815
0000
0000
0182
cafe
3c15
0000
0000
0182
cafe
2015
0000
0000
0182
cafe
2415
0000
0000
0182
cafe
2815
0000
0000
0183
cafe
2c15
0000
0000
0189
cafe
3015
0000
0000
018d
cafe
3415
0000
0000
0187
cafe
3815
0000
0000
0186
cafe
3c15
0000
0000
0192
cafe
2015
0000
0000
018b
cafe
2415
0000
0000
0183
cafe
2815
0000
0000
0184
cafe
2c15
0000
0000
0185
cafe
3015
0000
0000
018e
cafe
3415
0000
0000
0189
cafe
3815
0000
0000
017d
cafe
3c15
0000
0000
017e
cafe
2015
0000
0000
0180
cafe
2415
0000
0000
017b
cafe
2815
0000
0000
0181
cafe
2c15
0000
0000
0180
cafe
3015
0000
0000
0183
cafe
3415
0000
0000
018a
cafe
3815
0000
0000
018a
cafe
3c15
0000
0000
0182
cafe
2015
0000
0000
0185
cafe
2415
0000
0000
0184
cafe
2815
0000
0000
017a
cafe
2c15
0000
0000
0179
cafe
3015
0000
0000
0178
cafe
3415
0000
0000
0173
cafe
3815
0000
0000
017c
cafe
3c15
0000
0000
017b
cafe
2015
0000
0000
017c
cafe
2415
0000
0000
017d
cafe
2815
0000
0000
0184
cafe
2c15
0000
0000
0185
cafe
3015
0000
0000
017e
cafe
3415
0000
0000
018a
cafe
3815
0000
0000
0180
cafe
3c15
0000
0000
0183
cafe
2015
-
0000
0000
0182
cafe
2415
0000
0000
018e
cafe
2815
0000
0000
018a
cafe
2c15
0000
0000
018c
cafe
3015
0000
0000
018b
cafe
3415
0000
0000
0186
cafe
3815
0000
0000
0180
cafe
3c15
0000
0000
017b
cafe
2015
0000
0000
017a
cafe
2415
0000
0000
0189
cafe
2815
0000
0000
018b
cafe
2c15
0000
0000
0194
cafe
3015
0000
0000
0196
cafe
3415
0000
0000
0191
cafe
3815
0000
0000
0188
cafe
3c15
0000
0000
018b
cafe
2015
0000
0000
018c
cafe
2415
0000
0000
0195
cafe
2815
0000
0000
0187
cafe
2c15
0000
0000
018c
cafe
3015
0000
0000
018d
cafe
3415
0000
0000
0191
cafe
3815
0000
0000
018e
cafe
3c15
0000
0000
0192
cafe
2015
0000
0000
0190
cafe
2415
0000
0000
018f
cafe
2815
0000
0000
0189
cafe
2c15
0000
0000
018d
cafe
3015
0000
0000
0192
cafe
3415
0000
0000
0195
cafe
3815
0000
0000
0194
cafe
3c15
0000
0000
018b
cafe
2015
0000
0000
018d
cafe
2415
0000
0000
0193
cafe
2815
0000
0000
0187
cafe
2c15
0000
0000
0187
cafe
3015
0000
0000
0185
cafe
3415
0000
0000
0185
cafe
3815
0000
0000
0192
cafe
3c15
0000
0000
018e
cafe
2015
0000
0000
018a
cafe
2415
0000
0000
0189
cafe
2815
0000
0000
018a
cafe
2c15
0000
0000
018b
cafe
3015
0000
0000
0189
cafe
3415
0000
0000
018c
cafe
3815
0000
0000
0184
cafe
3c15
0000
0000
0182
cafe
2015
0000
0000
0184
cafe
2415
0000
0000
0186
cafe
2815
0000
0000
0184
cafe
2c15
0000
-
0000
017d
cafe
3015
0000
0000
0181
cafe
3415
0000
0000
0185
cafe
3815
0000
0000
0181
cafe
3c15
0000
0000
0184
cafe
2015
0000
0000
018d
cafe
2415
0000
0000
0187
cafe
2815
0000
0000
0187
cafe
2c15
0000
0000
018b
cafe
3015
0000
0000
0186
cafe
3415
0000
0000
018d
cafe
3815
0000
0000
0188
cafe
3c15
0000
0000
0186
cafe
2015
0000
0000
0188
cafe
2415
0000
0000
0184
cafe
2815
0000
0000
018e
cafe
2c15
0000
0000
0192
cafe
3015
0000
0000
018b
cafe
3415
0000
0000
0191
cafe
3815
0000
0000
018c
cafe
3c15
0000
0000
018b
cafe
2015
0000
0000
0187
cafe
2415
0000
0000
018d
cafe
2815
0000
0000
0194
cafe
2c15
0000
0000
0193
cafe
3015
0000
0000
0192
cafe
3415
0000
0000
019a
cafe
3815
0000
0000
0194
cafe
3c15
0000
0000
0186
cafe
2015
0000
0000
0184
cafe
2415
0000
0000
0181
cafe
2815
0000
0000
0181
cafe
2c15
0000
0000
018c
cafe
3015
0000
0000
0191
cafe
3415
0000
0000
0193
cafe
3815
0000
0000
0191
cafe
3c15
0000
0000
0190
cafe
2015
0000
0000
018d
cafe
2415
0000
0000
018f
cafe
2815
0000
0000
0197
cafe
2c15
0000
0000
018f
cafe
3015
0000
0000
0188
cafe
3415
0000
0000
0189
cafe
3815
0000
0000
0189
cafe
3c15
0000
0000
018c
cafe
2015
0000
0000
018b
cafe
2415
0000
0000
0189
cafe
2815
0000
0000
0181
cafe
2c15
0000
0000
0182
cafe
3015
0000
0000
018e
cafe
3415
0000
0000
0188
cafe
3815
0000
0000
-
0186
cafe
3c15
0000
0000
017e
cafe
2015
0000
0000
0185
cafe
2415
0000
0000
0182
cafe
2815
0000
0000
0182
cafe
2c15
0000
0000
017e
cafe
3015
0000
0000
017f
cafe
3415
0000
0000
0174
cafe
3815
0000
0000
0180
cafe
3c15
0000
0000
017f
cafe
2015
0000
0000
017f
cafe
2415
0000
0000
0188
cafe
2815
0000
0000
018a
cafe
2c15
0000
0000
018c
cafe
3015
0000
0000
0190
cafe
3415
0000
0000
018d
cafe
3815
0000
0000
0188
cafe
3c15
0000
0000
018a
cafe
2015
0000
0000
0186
cafe
2415
0000
0000
0192
cafe
2815
0000
0000
0185
cafe
2c15
0000
0000
018b
cafe
3015
0000
0000
018b
cafe
3415
0000
0000
0190
cafe
3815
0000
0000
018e
cafe
3c15
0000
0000
0185
cafe
2015
0000
0000
0185
cafe
2415
0000
0000
0185
cafe
2815
0000
0000
018e
cafe
2c15
0000
0000
018c
cafe
3015
0000
0000
018f
cafe
3415
0000
0000
0190
cafe
3815
0000
0000
018e
cafe
3c15
0000
0000
018c
cafe
2015
0000
0000
018d
cafe
2415
0000
0000
018d
cafe
2815
0000
0000
018e
cafe
2c15
0000
0000
0191
cafe
3015
0000
0000
018a
cafe
3415
0000
0000
0183
cafe
3815
0000
0000
0187
cafe
3c15
0000
0000
018a
cafe
2015
0000
0000
0186
cafe
2415
0000
0000
0188
cafe
2815
0000
0000
018b
cafe
2c15
0000
0000
018e
cafe
3015
0000
0000
018a
cafe
3415
0000
0000
0189
cafe
3815
0000
0000
018b
cafe
3c15
0000
0000
018f
cafe
2015
0000
0000
0193
cafe
2415
0000
0000
0194
-
cafe
2815
0000
0000
0191
cafe
2c15
0000
0000
018e
cafe
3015
0000
0000
0196
cafe
3415
0000
0000
018f
cafe
3815
0000
0000
0192
cafe
3c15
0000
0000
018b
cafe
2015
0000
0000
018d
cafe
2415
0000
0000
018b
cafe
2815
0000
0000
0189
cafe
2c15
0000
0000
018e
cafe
3015
0000
0000
0191
cafe
3415
0000
0000
0190
cafe
3815
0000
0000
0186
cafe
3c15
0000
0000
018a
cafe
2015
0000
0000
017f
cafe
2415
0000
0000
0187
cafe
2815
0000
0000
0188
cafe
2c15
0000
0000
018b
cafe
3015
0000
0000
018a
cafe
3415
0000
0000
018b
cafe
3815
0000
0000
0187
cafe
3c15
0000
0000
0186
cafe
2015
0000
0000
0185
cafe
2415
0000
0000
0183
cafe
2815
0000
0000
017e
cafe
2c15
0000
0000
017d
cafe
3015
0000
0000
017f
cafe
3415
0000
0000
018f
cafe
3815
0000
0000
018e
cafe
3c15
0000
0000
018b
cafe
2015
0000
0000
018c
cafe
2415
0000
0000
018b
cafe
2815
0000
0000
0190
cafe
2c15
0000
0000
0192
cafe
3015
0000
0000
018d
cafe
3415
0000
0000
018a
cafe
3815
0000
0000
018b
cafe
3c15
0000
0000
0191
cafe
2015
0000
0000
0195
cafe
2415
0000
0000
0191
cafe
2815
0000
0000
018f
cafe
2c15
0000
0000
018f
cafe
3015
0000
0000
018b
cafe
3415
0000
0000
018c
cafe
3815
0000
0000
018a
cafe
3c15
0000
0000
0187
cafe
2015
0000
0000
0183
cafe
2415
0000
0000
017e
cafe
2815
0000
0000
0180
cafe
2c15
0000
0000
017d
cafe
3015
0000
0000
017b
cafe
-
3415
0000
0000
0176
cafe
3815
0000
0000
0179
cafe
3c15
0000
0000
017d
cafe
2015
0000
0000
0180
cafe
2415
0000
0000
0181
cafe
2815
0000
0000
017f
cafe
2c15
0000
0000
017f
cafe
3015
0000
0000
0180
cafe
3415
0000
0000
017e
cafe
3815
0000
0000
0186
cafe
3c15
0000
0000
017e
cafe
2015
0000
0000
0184
cafe
2415
0000
0000
0187
cafe
2815
0000
0000
0197
cafe
2c15
0000
0000
0194
cafe
3015
0000
0000
018f
cafe
3415
0000
0000
018d
cafe
3815
0000
0000
0193
cafe
3c15
0000
0000
018a
cafe
2015
0000
0000
0199
cafe
2415
0000
0000
0197
cafe
2815
0000
0000
0196
cafe
2c15
0000
0000
0193
cafe
3015
0000
0000
018d
cafe
3415
0000
0000
018e
cafe
3815
0000
0000
0191
cafe
3c15
0000
0000
0188
cafe
2015
0000
0000
018e
cafe
2415
0000
0000
0186
cafe
2815
0000
0000
018a
cafe
2c15
0000
0000
0180
cafe
3015
0000
0000
0186
cafe
3415
0000
0000
0182
cafe
3815
0000
0000
0190
cafe
3c15
0000
0000
018a
cafe
2015
0000
0000
0188
cafe
2415
0000
0000
018b
cafe
2815
0000
0000
0180
cafe
2c15
0000
0000
0184
cafe
3015
0000
0000
0185
cafe
3415
0000
0000
017b
cafe
3815
0000
0000
0184
cafe
3c15
0000
0000
0188
cafe
2015
0000
0000
018b
cafe
2415
0000
0000
0190
cafe
2815
0000
0000
0191
cafe
2c15
0000
0000
0193
cafe
3015
0000
0000
0196
cafe
3415
0000
0000
0195
cafe
3815
0000
0000
0195
cafe
3c15
0000
0000
0183
cafe
2015
-
0000
0000
0184
cafe
2415
0000
0000
0181
cafe
2815
0000
0000
0181
cafe
2c15
0000
0000
0183
cafe
3015
0000
0000
0190
cafe
3415
0000
0000
0192
cafe
3815
0000
0000
0192
cafe
3c15
0000
0000
018d
cafe
2015
0000
0000
018c
cafe
2415
0000
0000
0184
cafe
2815
0000
0000
018a
cafe
2c15
0000
0000
0188
cafe
3015
0000
0000
0185
cafe
3415
0000
0000
018c
cafe
3815
0000
0000
017f
cafe
3c15
0000
0000
0189
cafe
2015
0000
0000
018c
cafe
2415
0000
0000
018c
cafe
2815
0000
0000
018f
cafe
2c15
0000
0000
018d
cafe
3015
0000
0000
0188
cafe
3415
0000
0000
0187
cafe
3815
0000
0000
0187
cafe
3c15
0000
0000
018e
cafe
2015
0000
0000
0190
cafe
2415
0000
0000
018f
cafe
2815
0000
0000
0193
cafe
2c15
0000
0000
018b
cafe
3015
0000
0000
0186
cafe
3415
0000
0000
0184
cafe
3815
0000
0000
0185
cafe
3c15
0000
0000
0187
cafe
2015
0000
0000
018d
cafe
2415
0000
0000
0196
cafe
2815
0000
0000
019b
cafe
2c15
0000
0000
0190
cafe
3015
0000
0000
0183
cafe
3415
0000
0000
0183
cafe
3815
0000
0000
018a
cafe
3c15
0000
0000
0191
cafe
2015
0000
0000
0194
cafe
2415
0000
0000
0191
cafe
2815
0000
0000
0193
cafe
2c15
0000
0000
018f
cafe
3015
0000
0000
018d
cafe
3415
0000
0000
0187
cafe
3815
0000
0000
018a
cafe
3c15
0000
0000
017f
cafe
2015
0000
0000
017b
cafe
2415
0000
0000
0181
cafe
2815
0000
0000
0181
cafe
2c15
0000
-
0000
0185
cafe
3015
0000
0000
0189
cafe
3415
0000
0000
018f
cafe
3815
0000
0000
018b
cafe
3c15
0000
0000
018a
cafe
2015
0000
0000
018e
cafe
2415
0000
0000
0190
cafe
2815
0000
0000
0185
cafe
2c15
0000
0000
0190
cafe
3015
0000
0000
0192
cafe
3415
0000
0000
018b
cafe
3815
0000
0000
0186
cafe
3c15
0000
0000
0189
cafe
2015
0000
0000
0187
cafe
2415
0000
0000
018b
cafe
2815
0000
0000
0188
cafe
2c15
0000
0000
018a
cafe
3015
0000
0000
018c
cafe
3415
0000
0000
018e
cafe
3815
0000
0000
0188
cafe
3c15
0000
0000
018c
cafe
2015
0000
0000
018e
cafe
2415
0000
0000
0189
cafe
2815
0000
0000
0185
cafe
2c15
0000
0000
0188
cafe
3015
0000
0000
0187
cafe
3415
0000
0000
019c
cafe
3815
0000
0000
019d
cafe
3c15
0000
0000
0198
cafe
2015
0000
0000
0199
cafe
2415
0000
0000
0199
cafe
2815
0000
0000
0199
cafe
2c15
0000
0000
0196
cafe
3015
0000
0000
0191
cafe
3415
0000
0000
0194
cafe
3815
0000
0000
018d
cafe
3c15
0000
0000
018c
cafe
2015
0000
0000
018f
cafe
2415
0000
0000
0184
cafe
2815
0000
0000
0188
cafe
2c15
0000
0000
0189
cafe
3015
0000
0000
0187
cafe
3415
0000
0000
0186
cafe
3815
0000
0000
0184
cafe
3c15
0000
0000
0188
cafe
2015
0000
0000
0182
cafe
2415
0000
0000
0183
cafe
2815
0000
0000
017a
cafe
2c15
0000
0000
0179
cafe
3015
0000
0000
017c
cafe
3415
0000
0000
0180
cafe
3815
0000
0000
-
017c
cafe
3c15
0000
0000
017c
cafe
2015
0000
0000
017f
cafe
2415
0000
0000
0182
cafe
2815
0000
0000
0183
cafe
2c15
0000
0000
0180
cafe
3015
0000
0000
0188
cafe
3415
0000
0000
0186
cafe
3815
0000
0000
017c
cafe
3c15
0000
0000
017b
cafe
2015
0000
0000
0175
cafe
2415
0000
0000
0175
cafe
2815
0000
0000
017a
cafe
2c15
0000
0000
017b
cafe
3015
0000
0000
0182
cafe
3415
0000
0000
017d
cafe
3815
0000
0000
0187
cafe
3c15
0000
0000
0189
cafe
2015
0000
0000
0186
cafe
2415
0000
0000
0188
cafe
2815
0000
0000
017c
cafe
2c15
0000
0000
0187
cafe
3015
0000
0000
017f
cafe
3415
0000
0000
0185
cafe
3815
0000
0000
018a
cafe
3c15
0000
0000
018b
cafe
2015
0000
0000
018a
cafe
2415
0000
0000
0190
cafe
2815
0000
0000
0193
cafe
2c15
0000
0000
018e
cafe
3015
0000
0000
018c
cafe
3415
0000
0000
0186
cafe
3815
0000
0000
0184
cafe
3c15
0000
0000
0184
cafe
2015
0000
0000
0181
cafe
2415
0000
0000
0181
cafe
2815
0000
0000
0185
cafe
2c15
0000
0000
0186
cafe
3015
0000
0000
0180
cafe
3415
0000
0000
0185
cafe
3815
0000
0000
018e
cafe
3c15
0000
0000
018c
cafe
2015
0000
0000
0198
cafe
2415
0000
0000
0195
cafe
2815
0000
0000
0194
cafe
2c15
0000
0000
0191
cafe
3015
0000
0000
018c
cafe
3415
0000
0000
0193
cafe
3815
0000
0000
018e
cafe
3c15
0000
0000
0187
cafe
2015
0000
0000
0189
cafe
2415
0000
0000
018f
-
cafe
2815
0000
0000
018e
cafe
2c15
0000
0000
018d
cafe
3015
0000
0000
018c
cafe
3415
0000
0000
018b
cafe
3815
0000
0000
0182
cafe
3c15
0000
0000
0188
cafe
2015
0000
0000
0182
cafe
2415
0000
0000
017c
cafe
2815
0000
0000
0180
cafe
2c15
0000
0000
0180
cafe
3015
0000
0000
018a
cafe
3415
0000
0000
0190
cafe
3815
0000
0000
018e
cafe
3c15
0000
0000
018d
cafe
2015
0000
0000
018e
cafe
2415
0000
0000
018e
cafe
2815
0000
0000
0191
cafe
2c15
0000
0000
018a
cafe
3015
0000
0000
0187
cafe
3415
0000
0000
0187
cafe
3815
0000
0000
0183
cafe
3c15
0000
0000
0185
cafe
2015
0000
0000
0184
cafe
2415
0000
0000
0183
cafe
2815
0000
0000
0185
cafe
2c15
0000
0000
0186
cafe
3015
0000
0000
018b
cafe
3415
0000
0000
018a
cafe
3815
0000
0000
018f
cafe
3c15
0000
0000
0190
cafe
2015
0000
0000
0193
cafe
2415
0000
0000
0190
cafe
2815
0000
0000
0192
cafe
2c15
0000
0000
018c
cafe
3015
0000
0000
018b
cafe
3415
0000
0000
0193
cafe
3815
0000
0000
0188
cafe
3c15
0000
0000
018c
cafe
2015
0000
0000
0185
cafe
2415
0000
0000
0189
cafe
2815
0000
0000
0187
cafe
2c15
0000
0000
018a
cafe
3015
0000
0000
018f
cafe
3415
0000
0000
018f
cafe
3815
0000
0000
0187
cafe
3c15
0000
0000
0184
cafe
2015
0000
0000
0186
cafe
2415
0000
0000
0184
cafe
2815
0000
0000
0187
cafe
2c15
0000
0000
018b
cafe
3015
0000
0000
0189
cafe
-
3415
0000
0000
018d
cafe
3815
0000
0000
0192
cafe
3c15
0000
0000
0186
cafe
2015
0000
0000
0183
cafe
2415
0000
0000
0187
cafe
2815
0000
0000
0189
cafe
2c15
0000
0000
0181
cafe
3015
0000
0000
0180
cafe
3415
0000
0000
017a
cafe
3815
0000
0000
017d
cafe
3c15
0000
0000
017f
cafe
2015
0000
0000
0183
cafe
2415
0000
0000
0185
cafe
2815
0000
0000
017e
cafe
2c15
0000
0000
0182
cafe
3015
0000
0000
0187
cafe
3415
0000
0000
017e
cafe
3815
0000
0000
0185
cafe
3c15
0000
0000
0190
cafe
2015
0000
0000
018d
cafe
2415
0000
0000
0196
cafe
2815
0000
0000
0190
cafe
2c15
0000
0000
018e
cafe
3015
0000
0000
018f
cafe
3415
0000
0000
0191
cafe
3815
0000
0000
0191
cafe
3c15
0000
0000
018c
cafe
2015
0000
0000
018b
cafe
2415
0000
0000
018a
cafe
2815
0000
0000
018c
cafe
2c15
0000
0000
0191
cafe
3015
0000
0000
018f
cafe
3415
0000
0000
0199
cafe
3815
0000
0000
0197
cafe
3c15
0000
0000
018e
cafe
2015
0000
0000
0190
cafe
2415
0000
0000
019f
cafe
2815
0000
0000
01a0
cafe
2c15
0000
0000
01a1
cafe
3015
0000
0000
0192
cafe
3415
0000
0000
0190
cafe
3815
0000
0000
0194
cafe
3c15
0000
0000
0190
cafe
2015
0000
0000
018b
cafe
2415
0000
0000
018b
cafe
2815
0000
0000
0187
cafe
2c15
0000
0000
0193
cafe
3015
0000
0000
0188
cafe
3415
0000
0000
0184
cafe
3815
0000
0000
0187
cafe
3c15
0000
0000
017c
cafe
2015
-
0000
0000
0187
cafe
2415
0000
0000
018b
cafe
2815
0000
0000
0186
cafe
2c15
0000
0000
0185
cafe
3015
0000
0000
0187
cafe
3415
0000
0000
0180
cafe
3815
0000
0000
018c
cafe
3c15
0000
0000
018b
cafe
2015
0000
0000
0188
cafe
2415
0000
0000
0181
cafe
2815
0000
0000
0182
cafe
2c15
0000
0000
0186
cafe
3015
0000
0000
0186
cafe
3415
0000
0000
0189
cafe
3815
0000
0000
0187
cafe
3c15
0000
0000
0188
cafe
2015
0000
0000
0188
cafe
2415
0000
0000
0184
cafe
2815
0000
0000
018d
cafe
2c15
0000
0000
0188
cafe
3015
0000
0000
018b
cafe
3415
0000
0000
018d
cafe
3815
0000
0000
0187
cafe
3c15
0000
0000
0189
cafe
2015
0000
0000
018e
cafe
2415
0000
0000
0181
cafe
2815
0000
0000
017e
cafe
2c15
0000
0000
017d
cafe
3015
0000
0000
0181
cafe
3415
0000
0000
0179
cafe
3815
0000
0000
017f
cafe
3c15
0000
0000
017e
cafe
2015
0000
0000
018d
cafe
2415
0000
0000
018a
cafe
2815
0000
0000
018d
cafe
2c15
0000
0000
0190
cafe
3015
0000
0000
018d
cafe
3415
0000
0000
0197
cafe
3815
0000
0000
0196
cafe
3c15
0000
0000
019a
cafe
2015
0000
0000
0195
cafe
2415
0000
0000
0193
cafe
2815
0000
0000
018d
cafe
2c15
0000
0000
018a
cafe
3015
0000
0000
018a
cafe
3415
0000
0000
018a
cafe
3815
0000
0000
0191
cafe
3c15
0000
0000
018f
cafe
2015
0000
0000
0187
cafe
2415
0000
0000
0182
cafe
2815
0000
0000
0181
cafe
2c15
0000
-
0000
0187
cafe
3015
0000
0000
0188
cafe
3415
0000
0000
0189
cafe
3815
0000
0000
0181
cafe
3c15
0000
0000
0191
cafe
2015
0000
0000
0191
cafe
2415
0000
0000
0186
cafe
2815
0000
0000
018b
cafe
2c15
0000
0000
0189
cafe
3015
0000
0000
0188
cafe
3415
0000
0000
018a
cafe
3815
0000
0000
0186
cafe
3c15
0000
0000
018a
cafe
2015
0000
0000
0190
cafe
2415
0000
0000
0188
cafe
2815
0000
0000
018f
cafe
2c15
0000
0000
018b
cafe
3015
0000
0000
018d
cafe
3415
0000
0000
0188
cafe
3815
0000
0000
018b
cafe
3c15
0000
0000
0185
cafe
2015
0000
0000
0191
cafe
2415
0000
0000
0197
cafe
2815
0000
0000
019a
cafe
2c15
0000
0000
0197
cafe
3015
0000
0000
0195
cafe
3415
0000
0000
019b
cafe
3815
0000
0000
019a
cafe
3c15
0000
0000
0190
cafe
2015
0000
0000
0189
cafe
2415
0000
0000
0183
cafe
2815
0000
0000
018a
cafe
2c15
0000
0000
0185
cafe
3015
0000
0000
018b
cafe
3415
0000
0000
018f
cafe
3815
0000
0000
0193
cafe
3c15
0000
0000
0186
cafe
2015
0000
0000
0189
cafe
2415
0000
0000
0187
cafe
2815
0000
0000
0184
cafe
2c15
0000
0000
0185
cafe
3015
0000
0000
0180
cafe
3415
0000
0000
0185
cafe
3815
0000
0000
0188
cafe
3c15
0000
0000
0184
cafe
2015
0000
0000
0182
cafe
2415
0000
0000
0185
cafe
2815
0000
0000
0188
cafe
2c15
0000
0000
017f
cafe
3015
0000
0000
017c
cafe
3415
0000
0000
017d
cafe
3815
0000
0000
-
0185
cafe
3c15
0000
0000
018f
cafe
2015
0000
0000
018e
cafe
2415
0000
0000
018e
cafe
2815
0000
0000
0188
cafe
2c15
0000
0000
0191
cafe
3015
0000
0000
018b
cafe
3415
0000
0000
0193
cafe
3815
0000
0000
0196
cafe
3c15
0000
0000
019a
cafe
2015
0000
0000
0196
cafe
2415
0000
0000
018c
cafe
2815
0000
0000
0188
cafe
2c15
0000
0000
0190
cafe
3015
0000
0000
018d
cafe
3415
0000
0000
0195
cafe
3815
0000
0000
018f
cafe
3c15
0000
0000
0185
cafe
2015
0000
0000
0190
cafe
2415
0000
0000
018e
cafe
2815
0000
0000
018a
cafe
2c15
0000
0000
0190
cafe
3015
0000
0000
0190
cafe
3415
0000
0000
018b
cafe
3815
0000
0000
018e
cafe
3c15
0000
0000
019b
cafe
2015
0000
0000
019d
cafe
2415
0000
0000
0193
cafe
2815
0000
0000
0197
cafe
2c15
0000
0000
0195
cafe
3015
0000
0000
0196
cafe
3415
0000
0000
0193
cafe
3815
0000
0000
0197
cafe
3c15
0000
0000
0191
cafe
2015
0000
0000
0199
cafe
2415
0000
0000
0195
cafe
2815
0000
0000
0192
cafe
2c15
0000
0000
0197
cafe
3015
0000
0000
0197
cafe
3415
0000
0000
0191
cafe
3815
0000
0000
0195
cafe
3c15
0000
0000
0190
cafe
2015
0000
0000
018b
cafe
2415
0000
0000
018b
cafe
2815
0000
0000
017e
cafe
2c15
0000
0000
0179
cafe
3015
0000
0000
017d
cafe
3415
0000
0000
0181
cafe
3815
0000
0000
0182
cafe
3c15
0000
0000
0189
cafe
2015
0000
0000
0188
cafe
2415
0000
0000
018e
-
cafe
2815
0000
0000
0192
cafe
2c15
0000
0000
0187
cafe
3015
0000
0000
0187
cafe
3415
0000
0000
0187
cafe
3815
0000
0000
0185
cafe
3c15
0000
0000
0187
cafe
2015
0000
0000
0186
cafe
2415
0000
0000
0188
cafe
2815
0000
0000
0182
cafe
2c15
0000
0000
0180
cafe
3015
0000
0000
0187
cafe
3415
0000
0000
0187
cafe
3815
0000
0000
0184
cafe
3c15
0000
0000
0185
cafe
2015
0000
0000
0184
cafe
2415
0000
0000
0187
cafe
2815
0000
0000
0185
cafe
2c15
0000
0000
0185
cafe
3015
0000
0000
0180
cafe
3415
0000
0000
0181
cafe
3815
0000
0000
0181
cafe
3c15
0000
0000
0185
cafe
2015
0000
0000
0186
cafe
2415
0000
0000
0190
cafe
2815
0000
0000
018d
cafe
2c15
0000
0000
0188
cafe
3015
0000
0000
0189
cafe
3415
0000
0000
018e
cafe
3815
0000
0000
0184
cafe
3c15
0000
0000
018b
cafe
2015
0000
0000
0191
cafe
2415
0000
0000
0192
cafe
2815
0000
0000
0192
cafe
2c15
0000
0000
0187
cafe
3015
0000
0000
017f
cafe
3415
0000
0000
0186
cafe
3815
0000
0000
0188
cafe
3c15
0000
0000
0185
cafe
2015
0000
0000
0184
cafe
2415
0000
0000
0189
cafe
2815
0000
0000
0187
cafe
2c15
0000
0000
018b
cafe
3015
0000
0000
0194
cafe
3415
0000
0000
018d
cafe
3815
0000
0000
0192
cafe
3c15
0000
0000
0194
cafe
2015
0000
0000
018e
cafe
2415
0000
0000
0188
cafe
2815
0000
0000
0186
cafe
2c15
0000
0000
018b
cafe
3015
0000
0000
018f
cafe
-
3415
0000
0000
0192
cafe
3815
0000
0000
018d
cafe
3c15
0000
0000
018b
cafe
2015
0000
0000
018d
cafe
2415
0000
0000
0191
cafe
2815
0000
0000
0191
cafe
2c15
0000
0000
018c
cafe
3015
0000
0000
018b
cafe
3415
0000
0000
0189
cafe
3815
0000
0000
018e
cafe
3c15
0000
0000
0193
cafe
2015
0000
0000
0194
cafe
2415
0000
0000
0196
cafe
2815
0000
0000
018d
cafe
2c15
0000
0000
0188
cafe
3015
0000
0000
0185
cafe
3415
0000
0000
018d
cafe
3815
0000
0000
0190
cafe
3c15
0000
0000
0195
cafe
2015
0000
0000
0196
cafe
2415
0000
0000
019d
cafe
2815
0000
0000
01a7
cafe
2c15
0000
0000
019c
cafe
3015
0000
0000
0195
cafe
3415
0000
0000
0194
cafe
3815
0000
0000
018c
cafe
3c15
0000
0000
0186
cafe
2015
0000
0000
0186
cafe
2415
0000
0000
018b
cafe
2815
0000
0000
0193
cafe
2c15
0000
0000
0193
cafe
3015
0000
0000
0197
cafe
3415
0000
0000
019a
cafe
3815
0000
0000
018e
cafe
3c15
0000
0000
018b
cafe
2015
0000
0000
0190
cafe
2415
0000
0000
018e
cafe
2815
0000
0000
018e
cafe
2c15
0000
0000
0190
cafe
3015
0000
0000
0182
cafe
3415
0000
0000
0187
cafe
3815
0000
0000
018c
cafe
3c15
0000
0000
018d
cafe
2015
0000
0000
018f
cafe
2415
0000
0000
018d
cafe
2815
0000
0000
018a
cafe
2c15
0000
0000
0183
cafe
3015
0000
0000
018d
cafe
3415
0000
0000
019b
cafe
3815
0000
0000
019b
cafe
3c15
0000
0000
018f
cafe
2015
-
0000
0000
0191
cafe
2415
0000
0000
018b
cafe
2815
0000
0000
0191
cafe
2c15
0000
0000
0193
cafe
3015
0000
0000
018e
cafe
3415
0000
0000
018c
cafe
3815
0000
0000
0191
cafe
3c15
0000
0000
0195
cafe
2015
0000
0000
0191
cafe
2415
0000
0000
018e
cafe
2815
0000
0000
018d
cafe
2c15
0000
0000
0189
cafe
3015
0000
0000
018f
cafe
3415
0000
0000
0190
cafe
3815
0000
0000
0198
cafe
3c15
0000
0000
018d
cafe
2015
0000
0000
0191
cafe
2415
0000
0000
0196
cafe
2815
0000
0000
0198
cafe
2c15
0000
0000
018c
cafe
3015
0000
0000
018d
cafe
3415
0000
0000
0189
cafe
3815
0000
0000
018f
cafe
3c15
0000
0000
018b
cafe
2015
0000
0000
0192
cafe
2415
0000
0000
0199
cafe
2815
0000
0000
0195
cafe
2c15
0000
0000
0194
cafe
3015
0000
0000
018b
cafe
3415
0000
0000
0181
cafe
3815
0000
0000
017f
cafe
3c15
0000
0000
0181
cafe
2015
0000
0000
0187
cafe
2415
0000
0000
0184
cafe
2815
0000
0000
0184
cafe
2c15
0000
0000
0181
cafe
3015
0000
0000
0183
cafe
3415
0000
0000
0191
cafe
3815
0000
0000
0190
cafe
3c15
0000
0000
0189
cafe
2015
0000
0000
0180
cafe
2415
0000
0000
0180
cafe
2815
0000
0000
0179
cafe
2c15
0000
0000
017c
cafe
3015
0000
0000
0184
cafe
3415
0000
0000
017c
cafe
3815
0000
0000
0179
cafe
3c15
0000
0000
017f
cafe
2015
0000
0000
0183
cafe
2415
0000
0000
0185
cafe
2815
0000
0000
017b
cafe
2c15
0000
-
0000
017e
cafe
3015
0000
0000
0180
cafe
3415
0000
0000
018a
cafe
3815
0000
0000
017d
cafe
3c15
0000
0000
0181
cafe
2015
0000
0000
0182
cafe
2415
0000
0000
018b
cafe
2815
0000
0000
018e
cafe
2c15
0000
0000
0186
cafe
3015
0000
0000
0182
cafe
3415
0000
0000
0181
cafe
3815
0000
0000
0189
cafe
3c15
0000
0000
018b
cafe
2015
0000
0000
0185
cafe
2415
0000
0000
0187
cafe
2815
0000
0000
017f
cafe
2c15
0000
0000
0184
cafe
3015
0000
0000
0187
cafe
3415
0000
0000
0187
cafe
3815
0000
0000
0190
cafe
3c15
0000
0000
018b
cafe
2015
0000
0000
0196
cafe
2415
0000
0000
0187
cafe
2815
0000
0000
0190
cafe
2c15
0000
0000
0190
cafe
3015
0000
0000
0192
cafe
3415
0000
0000
0193
cafe
3815
0000
0000
0194
cafe
3c15
0000
0000
018a
cafe
2015
0000
0000
018c
cafe
2415
0000
0000
0189
cafe
2815
0000
0000
0186
cafe
2c15
0000
0000
0188
cafe
3015
0000
0000
0191
cafe
3415
0000
0000
0196
cafe
3815
0000
0000
0197
cafe
3c15
0000
0000
0197
cafe
2015
0000
0000
019e
cafe
2415
0000
0000
0191
cafe
2815
0000
0000
0190
cafe
2c15
0000
0000
018c
cafe
3015
0000
0000
0195
cafe
3415
0000
0000
0195
cafe
3815
0000
0000
0193
cafe
3c15
0000
0000
0193
cafe
2015
0000
0000
018d
cafe
2415
0000
0000
018c
cafe
2815
0000
0000
018f
cafe
2c15
0000
0000
0193
cafe
3015
0000
0000
0193
cafe
3415
0000
0000
0195
cafe
3815
0000
0000
-
01a2
cafe
3c15
0000
0000
0199
cafe
2015
0000
0000
0196
cafe
2415
0000
0000
018d
cafe
2815
0000
0000
018d
cafe
2c15
0000
0000
0189
cafe
3015
0000
0000
0192
cafe
3415
0000
0000
0193
cafe
3815
0000
0000
0188
cafe
3c15
0000
0000
018b
cafe
2015
0000
0000
0191
cafe
2415
0000
0000
0195
cafe
2815
0000
0000
0196
cafe
2c15
0000
0000
0197
cafe
3015
0000
0000
018f
cafe
3415
0000
0000
0187
cafe
3815
0000
0000
0187
cafe
3c15
0000
0000
0188
cafe
2015
0000
0000
0189
cafe
2415
0000
0000
0190
cafe
2815
0000
0000
018e
cafe
2c15
0000
0000
0192
cafe
3015
0000
0000
018e
cafe
3415
0000
0000
0191
cafe
3815
0000
0000
018f
cafe
3c15
0000
0000
0197
cafe
2015
0000
0000
0193
cafe
2415
0000
0000
0194
cafe
2815
0000
0000
019a
cafe
2c15
0000
0000
0192
cafe
3015
0000
0000
018e
cafe
3415
0000
0000
0192
cafe
3815
0000
0000
0194
cafe
3c15
0000
0000
0197
cafe
2015
0000
0000
0197
cafe
2415
0000
0000
0188
cafe
2815
0000
0000
0188
cafe
2c15
0000
0000
018e
cafe
3015
0000
0000
0192
cafe
3415
0000
0000
0191
cafe
3815
0000
0000
019a
cafe
3c15
0000
0000
0192
cafe
2015
0000
0000
0187
cafe
2415
0000
0000
0180
cafe
2815
0000
0000
0184
cafe
2c15
0000
0000
018d
cafe
3015
0000
0000
0194
cafe
3415
0000
0000
018e
cafe
3815
0000
0000
018d
cafe
3c15
0000
0000
0182
cafe
2015
0000
0000
0176
cafe
2415
0000
0000
0187
-
cafe
2815
0000
0000
0189
cafe
2c15
0000
0000
018a
cafe
3015
0000
0000
018a
cafe
3415
0000
0000
018b
cafe
3815
0000
0000
018d
cafe
3c15
0000
0000
0192
cafe
2015
0000
0000
0184
cafe
2415
0000
0000
0188
cafe
2815
0000
0000
017d
cafe
2c15
0000
0000
017d
cafe
3015
0000
0000
017a
cafe
3415
0000
0000
0180
cafe
3815
0000
0000
017f
cafe
3c15
0000
0000
017d
cafe
2015
0000
0000
0188
cafe
2415
0000
0000
0180
cafe
2815
0000
0000
017f
cafe
2c15
0000
0000
0180
cafe
3015
0000
0000
017f
cafe
3415
0000
0000
0188
cafe
3815
0000
0000
0188
cafe
3c15
0000
0000
0187
cafe
2015
0000
0000
018f
cafe
2415
0000
0000
0185
cafe
2815
0000
0000
0178
cafe
2c15
0000
0000
0173
cafe
3015
0000
0000
017f
cafe
3415
0000
0000
0188
cafe
3815
0000
0000
018a
cafe
3c15
0000
0000
0188
cafe
2015
0000
0000
018a
cafe
2415
0000
0000
018c
cafe
2815
0000
0000
0192
cafe
2c15
0000
0000
0190
cafe
3015
0000
0000
018d
cafe
3415
0000
0000
0192
cafe
3815
0000
0000
0190
cafe
3c15
0000
0000
0189
cafe
2015
0000
0000
0180
cafe
2415
0000
0000
0183
cafe
2815
0000
0000
018a
cafe
2c15
0000
0000
0187
cafe
3015
0000
0000
0188
cafe
3415
0000
0000
018c
cafe
3815
0000
0000
018c
cafe
3c15
0000
0000
0188
cafe
2015
0000
0000
0197
cafe
2415
0000
0000
018c
cafe
2815
0000
0000
0189
cafe
2c15
0000
0000
0187
cafe
3015
0000
0000
017e
cafe
-
3415
0000
0000
0181
cafe
3815
0000
0000
0185
cafe
3c15
0000
0000
0187
cafe
2015
0000
0000
017e
cafe
2415
0000
0000
0184
cafe
2815
0000
0000
0181
cafe
2c15
0000
0000
0180
cafe
3015
0000
0000
018f
cafe
3415
0000
0000
0192
cafe
3815
0000
0000
018f
cafe
3c15
0000
0000
0184
cafe
2015
0000
0000
018b
cafe
2415
0000
0000
018c
cafe
2815
0000
0000
0189
cafe
2c15
0000
0000
0191
cafe
3015
0000
0000
018b
cafe
3415
0000
0000
0192
cafe
3815
0000
0000
018c
cafe
3c15
0000
0000
018f
cafe
2015
0000
0000
018c
cafe
2415
0000
0000
0182
cafe
2815
0000
0000
0187
cafe
2c15
0000
0000
0187
cafe
3015
0000
0000
0181
cafe
3415
0000
0000
017f
cafe
3815
0000
0000
0185
cafe
3c15
0000
0000
0187
cafe
2015
0000
0000
0182
cafe
2415
0000
0000
0186
cafe
2815
0000
0000
0189
cafe
2c15
0000
0000
0187
cafe
3015
0000
0000
0185
cafe
3415
0000
0000
017b
cafe
3815
0000
0000
017c
cafe
3c15
0000
0000
0187
cafe
2015
0000
0000
0181
cafe
2415
0000
0000
0185
cafe
2815
0000
0000
018a
cafe
2c15
0000
0000
018b
cafe
3015
0000
0000
018d
cafe
3415
0000
0000
018d
cafe
3815
0000
0000
0195
cafe
3c15
0000
0000
0195
cafe
2015
0000
0000
0199
cafe
2415
0000
0000
0196
cafe
2815
0000
0000
0199
cafe
2c15
0000
0000
018d
cafe
3015
0000
0000
0181
cafe
3415
0000
0000
018e
cafe
3815
0000
0000
018e
cafe
3c15
0000
0000
0182
cafe
2015
-
0000
0000
0182
cafe
2415
0000
0000
0180
cafe
2815
0000
0000
0188
cafe
2c15
0000
0000
018b
cafe
3015
0000
0000
0196
cafe
3415
0000
0000
0198
cafe
3815
0000
0000
0192
cafe
3c15
0000
0000
0191
cafe
2015
0000
0000
0193
cafe
2415
0000
0000
0190
cafe
2815
0000
0000
0185
cafe
2c15
0000
0000
018a
cafe
3015
0000
0000
0182
cafe
3415
0000
0000
0182
cafe
3815
0000
0000
0181
cafe
3c15
0000
0000
018e
cafe
2015
0000
0000
0190
cafe
2415
0000
0000
0191
cafe
2815
0000
0000
0193
cafe
2c15
0000
0000
018e
cafe
3015
0000
0000
0189
cafe
3415
0000
0000
0188
cafe
3815
0000
0000
0187
cafe
3c15
0000
0000
0189
cafe
2015
0000
0000
0189
cafe
2415
0000
0000
0183
cafe
2815
0000
0000
0189
cafe
2c15
0000
0000
0190
cafe
3015
0000
0000
0184
cafe
3415
0000
0000
0188
cafe
3815
0000
0000
0183
cafe
3c15
0000
0000
018b
cafe
2015
0000
0000
0190
cafe
2415
0000
0000
0190
cafe
2815
0000
0000
0194
cafe
2c15
0000
0000
0190
cafe
3015
0000
0000
018b
cafe
3415
0000
0000
018a
cafe
3815
0000
0000
018e
cafe
3c15
0000
0000
018d
cafe
2015
0000
0000
018f
cafe
2415
0000
0000
0191
cafe
2815
0000
0000
018a
cafe
2c15
0000
0000
0183
cafe
3015
0000
0000
018b
cafe
3415
0000
0000
0185
cafe
3815
0000
0000
018c
cafe
3c15
0000
0000
018a
cafe
2015
0000
0000
0183
cafe
2415
0000
0000
018c
cafe
2815
0000
0000
017f
cafe
2c15
0000
-
0000
017e
cafe
3015
0000
0000
0181
cafe
3415
0000
0000
0188
cafe
3815
0000
0000
0189
cafe
3c15
0000
0000
0187
cafe
2015
0000
0000
0188
cafe
2415
0000
0000
0189
cafe
2815
0000
0000
018b
cafe
2c15
0000
0000
0186
cafe
3015
0000
0000
0184
cafe
3415
0000
0000
0188
cafe
3815
0000
0000
0181
cafe
3c15
0000
0000
017f
cafe
2015
0000
0000
0185
cafe
2415
0000
0000
0184
cafe
2815
0000
0000
0187
cafe
2c15
0000
0000
0189
cafe
3015
0000
0000
018c
cafe
3415
0000
0000
0186
cafe
3815
0000
0000
018b
cafe
3c15
0000
0000
0182
cafe
2015
0000
0000
0181
cafe
2415
0000
0000
0188
cafe
2815
0000
0000
018d
cafe
2c15
0000
0000
0187
cafe
3015
0000
0000
0183
cafe
3415
0000
0000
017e
cafe
3815
0000
0000
017d
cafe
3c15
0000
0000
017d
cafe
2015
0000
0000
017f
cafe
2415
0000
0000
0189
cafe
2815
0000
0000
018c
cafe
2c15
0000
0000
0194
cafe
3015
0000
0000
018c
cafe
3415
0000
0000
018b
cafe
3815
0000
0000
0188
cafe
3c15
0000
0000
0185
cafe
2015
0000
0000
0188
cafe
2415
0000
0000
018a
cafe
2815
0000
0000
0184
cafe
2c15
0000
0000
017f
cafe
3015
0000
0000
0176
cafe
3415
0000
0000
017f
cafe
3815
0000
0000
017c
cafe
3c15
0000
0000
0189
cafe
2015
0000
0000
0184
cafe
2415
0000
0000
0183
cafe
2815
0000
0000
017f
cafe
2c15
0000
0000
017c
cafe
3015
0000
0000
0189
cafe
3415
0000
0000
018e
cafe
3815
0000
0000
-
018a
cafe
3c15
0000
0000
0190
cafe
2015
0000
0000
0196
cafe
2415
0000
0000
019c
cafe
2815
0000
0000
0192
cafe
2c15
0000
0000
0188
cafe
3015
0000
0000
0182
cafe
3415
0000
0000
0190
cafe
3815
0000
0000
0190
cafe
3c15
0000
0000
018f
cafe
2015
0000
0000
0188
cafe
2415
0000
0000
0184
cafe
2815
0000
0000
0183
cafe
2c15
0000
0000
0185
cafe
3015
0000
0000
0187
cafe
3415
0000
0000
0187
cafe
3815
0000
0000
018a
cafe
3c15
0000
0000
018d
cafe
2015
0000
0000
018f
cafe
2415
0000
0000
0193
cafe
2815
0000
0000
0195
cafe
2c15
0000
0000
018e
cafe
3015
0000
0000
0185
cafe
3415
0000
0000
0182
cafe
3815
0000
0000
018b
cafe
3c15
0000
0000
018e
cafe
2015
0000
0000
018c
cafe
2415
0000
0000
018c
cafe
2815
0000
0000
0187
cafe
2c15
0000
0000
018c
cafe
3015
0000
0000
0187
cafe
3415
0000
0000
0188
cafe
3815
0000
0000
0184
cafe
3c15
0000
0000
0180
cafe
2015
0000
0000
0183
cafe
2415
0000
0000
0189
cafe
2815
0000
0000
0185
cafe
2c15
0000
0000
0182
cafe
3015
0000
0000
0185
cafe
3415
0000
0000
0187
cafe
3815
0000
0000
0185
cafe
3c15
0000
0000
0182
cafe
2015
0000
0000
0187
cafe
2415
0000
0000
0184
cafe
2815
0000
0000
018d
cafe
2c15
0000
0000
018e
cafe
3015
0000
0000
0191
cafe
3415
0000
0000
0186
cafe
3815
0000
0000
0183
cafe
3c15
0000
0000
0180
cafe
2015
0000
0000
0182
cafe
2415
0000
0000
0188
-
cafe
2815
0000
0000
0196
cafe
2c15
0000
0000
019a
cafe
3015
0000
0000
0195
cafe
3415
0000
0000
0190
cafe
3815
0000
0000
018f
cafe
3c15
0000
0000
0199
cafe
2015
0000
0000
0194
cafe
2415
0000
0000
019a
cafe
2815
0000
0000
019c
cafe
2c15
0000
0000
0197
cafe
3015
0000
0000
0190
cafe
3415
0000
0000
0190
cafe
3815
0000
0000
018d
cafe
3c15
0000
0000
018e
cafe
2015
0000
0000
0198
cafe
2415
0000
0000
0196
cafe
2815
0000
0000
0191
cafe
2c15
0000
0000
0196
cafe
3015
0000
0000
0192
cafe
3415
0000
0000
0191
cafe
3815
0000
0000
0187
cafe
3c15
0000
0000
0189
cafe
2015
0000
0000
0189
cafe
2415
0000
0000
018e
cafe
2815
0000
0000
0195
cafe
2c15
0000
0000
0186
cafe
3015
0000
0000
018a
cafe
3415
0000
0000
018c
cafe
3815
0000
0000
0183
cafe
3c15
0000
0000
018a
cafe
2015
0000
0000
018b
cafe
2415
0000
0000
018a
cafe
2815
0000
0000
018e
cafe
2c15
0000
0000
0186
cafe
3015
0000
0000
0181
cafe
3415
0000
0000
017e
cafe
3815
0000
0000
017d
cafe
3c15
0000
0000
017f
cafe
2015
0000
0000
017f
cafe
2415
0000
0000
0185
cafe
2815
0000
0000
0183
cafe
2c15
0000
0000
0181
cafe
3015
0000
0000
0178
cafe
3415
0000
0000
0176
cafe
3815
0000
0000
017b
cafe
3c15
0000
0000
0178
cafe
2015
0000
0000
0175
cafe
2415
0000
0000
0176
cafe
2815
0000
0000
0177
cafe
2c15
0000
0000
0176
cafe
3015
0000
0000
0182
cafe
-
3415
0000
0000
017f
cafe
3815
0000
0000
0183
cafe
3c15
0000
0000
0187
cafe
2015
0000
0000
018e
cafe
2415
0000
0000
018e
cafe
2815
0000
0000
0189
cafe
2c15
0000
0000
0183
cafe
3015
0000
0000
0184
cafe
3415
0000
0000
0185
cafe
3815
0000
0000
017d
cafe
3c15
0000
0000
017d
cafe
2015
0000
0000
017c
cafe
2415
0000
0000
0184
cafe
2815
0000
0000
0180
cafe
2c15
0000
0000
017e
cafe
3015
0000
0000
0182
cafe
3415
0000
0000
0186
cafe
3815
0000
0000
0193
cafe
3c15
0000
0000
018d
cafe
2015
0000
0000
0187
cafe
2415
0000
0000
0184
cafe
2815
0000
0000
0187
cafe
2c15
0000
0000
0189
cafe
3015
0000
0000
0194
cafe
3415
0000
0000
0195
cafe
3815
0000
0000
0195
cafe
3c15
0000
0000
0194
cafe
2015
0000
0000
0197
cafe
2415
0000
0000
0192
cafe
2815
0000
0000
0190
cafe
2c15
0000
0000
018e
cafe
3015
0000
0000
0190
cafe
3415
0000
0000
0187
cafe
3815
0000
0000
0187
cafe
3c15
0000
0000
0188
cafe
2015
0000
0000
018c
cafe
2415
0000
0000
0194
cafe
2815
0000
0000
0192
cafe
2c15
0000
0000
0191
cafe
3015
0000
0000
0194
cafe
3415
0000
0000
0197
cafe
3815
0000
0000
0198
cafe
3c15
0000
0000
0195
cafe
2015
0000
0000
0195
cafe
2415
0000
0000
018c
cafe
2815
0000
0000
018d
cafe
2c15
0000
0000
0188
cafe
3015
0000
0000
0184
cafe
3415
0000
0000
0182
cafe
3815
0000
0000
0185
cafe
3c15
0000
0000
0187
cafe
2015
-
0000
0000
0182
cafe
2415
0000
0000
018a
cafe
2815
0000
0000
0186
cafe
2c15
0000
0000
0180
cafe
3015
0000
0000
0187
cafe
3415
0000
0000
0190
cafe
3815
0000
0000
018f
cafe
3c15
0000
0000
0189
cafe
2015
0000
0000
018f
cafe
2415
0000
0000
0189
cafe
2815
0000
0000
018f
cafe
2c15
0000
0000
0193
cafe
3015
0000
0000
0190
cafe
3415
0000
0000
0192
cafe
3815
0000
0000
018e
cafe
3c15
0000
0000
0189
cafe
2015
0000
0000
018e
cafe
2415
0000
0000
018c
cafe
2815
0000
0000
018c
cafe
2c15
0000
0000
0180
cafe
3015
0000
0000
0184
cafe
3415
0000
0000
0192
cafe
3815
0000
0000
018b
cafe
3c15
0000
0000
018d
cafe
2015
0000
0000
0187
cafe
2415
0000
0000
0185
cafe
2815
0000
0000
0191
cafe
2c15
0000
0000
0187
cafe
3015
0000
0000
017d
cafe
3415
0000
0000
0184
cafe
3815
0000
0000
0183
cafe
3c15
0000
0000
0189
cafe
2015
0000
0000
0192
cafe
2415
0000
0000
0190
cafe
2815
0000
0000
018c
cafe
2c15
0000
0000
0187
cafe
3015
0000
0000
018e
cafe
3415
0000
0000
0192
cafe
3815
0000
0000
0192
cafe
3c15
0000
0000
0184
cafe
2015
0000
0000
018c
cafe
2415
0000
0000
0196
cafe
2815
0000
0000
0191
cafe
2c15
0000
0000
0190
cafe
3015
0000
0000
018f
cafe
3415
0000
0000
0190
cafe
3815
0000
0000
0197
cafe
3c15
0000
0000
0193
cafe
2015
0000
0000
0195
cafe
2415
0000
0000
018f
cafe
2815
0000
0000
0189
cafe
2c15
0000
-
0000
018f
cafe
3015
0000
0000
0194
cafe
3415
0000
0000
0192
cafe
3815
0000
0000
0194
cafe
3c15
0000
0000
018d
cafe
2015
0000
0000
0185
cafe
2415
0000
0000
018e
cafe
2815
0000
0000
0185
cafe
2c15
0000
0000
018c
cafe
3015
0000
0000
0188
cafe
3415
0000
0000
018c
cafe
3815
0000
0000
0192
cafe
3c15
0000
0000
0186
cafe
2015
0000
0000
0185
cafe
2415
0000
0000
0188
cafe
2815
0000
0000
018d
cafe
2c15
0000
0000
0189
cafe
3015
0000
0000
0181
cafe
3415
0000
0000
0186
cafe
3815
0000
0000
0186
cafe
3c15
0000
0000
0184
cafe
2015
0000
0000
018a
cafe
2415
0000
0000
0187
cafe
2815
0000
0000
0187
cafe
2c15
0000
0000
0182
cafe
3015
0000
0000
018b
cafe
3415
0000
0000
018a
cafe
3815
0000
0000
0189
cafe
3c15
0000
0000
0187
cafe
2015
0000
0000
0187
cafe
2415
0000
0000
0185
cafe
2815
0000
0000
0183
cafe
2c15
0000
0000
0181
cafe
3015
0000
0000
0181
cafe
3415
0000
0000
0187
cafe
3815
0000
0000
0188
cafe
3c15
0000
0000
0189
cafe
2015
0000
0000
018b
cafe
2415
0000
0000
018c
cafe
2815
0000
0000
0188
cafe
2c15
0000
0000
0187
cafe
3015
0000
0000
018a
cafe
3415
0000
0000
0188
cafe
3815
0000
0000
017f
cafe
3c15
0000
0000
0183
cafe
2015
0000
0000
0187
cafe
2415
0000
0000
0188
cafe
2815
0000
0000
018a
cafe
2c15
0000
0000
0189
cafe
3015
0000
0000
0183
cafe
3415
0000
0000
018d
cafe
3815
0000
0000
-
018f
cafe
3c15
0000
0000
018b
cafe
2015
0000
0000
0194
cafe
2415
0000
0000
0185
cafe
2815
0000
0000
0184
cafe
2c15
0000
0000
0187
cafe
3015
0000
0000
0183
cafe
3415
0000
0000
0187
cafe
3815
0000
0000
018b
cafe
3c15
0000
0000
0182
cafe
2015
0000
0000
0183
cafe
2415
0000
0000
017f
cafe
2815
0000
0000
0181
cafe
2c15
0000
0000
0187
cafe
3015
0000
0000
018d
cafe
3415
0000
0000
0195
cafe
3815
0000
0000
0195
cafe
3c15
0000
0000
0199
cafe
2015
0000
0000
0191
cafe
2415
0000
0000
0191
cafe
2815
0000
0000
0192
cafe
2c15
0000
0000
018f
cafe
3015
0000
0000
0196
cafe
3415
0000
0000
018f
cafe
3815
0000
0000
018a
cafe
3c15
0000
0000
0190
cafe
2015
0000
0000
018e
cafe
2415
0000
0000
018d
cafe
2815
0000
0000
0196
cafe
2c15
0000
0000
0196
cafe
3015
0000
0000
0190
cafe
3415
0000
0000
018d
cafe
3815
0000
0000
0189
cafe
3c15
0000
0000
0193
cafe
2015
0000
0000
0193
cafe
2415
0000
0000
0192
cafe
2815
0000
0000
0194
cafe
2c15
0000
0000
0195
cafe
3015
0000
0000
0190
cafe
3415
0000
0000
0190
cafe
3815
0000
0000
018c
cafe
3c15
0000
0000
018c
cafe
2015
0000
0000
0190
cafe
2415
0000
0000
018a
cafe
2815
0000
0000
0185
cafe
2c15
0000
0000
0182
cafe
3015
0000
0000
0186
cafe
3415
0000
0000
0188
cafe
3815
0000
0000
0186
cafe
3c15
0000
0000
0184
cafe
2015
0000
0000
0182
cafe
2415
0000
0000
018c
-
cafe
2815
0000
0000
0188
cafe
2c15
0000
0000
017d
cafe
3015
0000
0000
0181
cafe
3415
0000
0000
0189
cafe
3815
0000
0000
0190
cafe
3c15
0000
0000
0188
cafe
2015
0000
0000
018c
cafe
2415
0000
0000
018c
cafe
2815
0000
0000
018b
cafe
2c15
0000
0000
0183
cafe
3015
0000
0000
0186
cafe
3415
0000
0000
0189
cafe
3815
0000
0000
018c
cafe
3c15
0000
0000
0193
cafe
2015
0000
0000
018d
cafe
2415
0000
0000
0189
cafe
2815
0000
0000
018b
cafe
2c15
0000
0000
018c
cafe
3015
0000
0000
0186
cafe
3415
0000
0000
0181
cafe
3815
0000
0000
018c
cafe
3c15
0000
0000
018c
cafe
2015
0000
0000
0196
cafe
2415
0000
0000
0190
cafe
2815
0000
0000
018e
cafe
2c15
0000
0000
018d
cafe
3015
0000
0000
0197
cafe
3415
0000
0000
019b
cafe
3815
0000
0000
0192
cafe
3c15
0000
0000
0191
cafe
2015
0000
0000
0196
cafe
2415
0000
0000
019d
cafe
2815
0000
0000
018d
cafe
2c15
0000
0000
018f
cafe
3015
0000
0000
0192
cafe
3415
0000
0000
0191
cafe
3815
0000
0000
018d
cafe
3c15
0000
0000
018b
cafe
2015
0000
0000
0189
cafe
2415
0000
0000
0183
cafe
2815
0000
0000
0189
cafe
2c15
0000
0000
0185
cafe
3015
0000
0000
0189
cafe
3415
0000
0000
018a
cafe
3815
0000
0000
0185
cafe
3c15
0000
0000
018d
cafe
2015
0000
0000
017f
cafe
2415
0000
0000
0185
cafe
2815
0000
0000
017d
cafe
2c15
0000
0000
017e
cafe
3015
0000
0000
0181
cafe
-
3415
0000
0000
0188
cafe
3815
0000
0000
0189
cafe
3c15
0000
0000
0189
cafe
2015
0000
0000
0182
cafe
2415
0000
0000
0186
cafe
2815
0000
0000
0187
cafe
2c15
0000
0000
018d
cafe
3015
0000
0000
0180
cafe
3415
0000
0000
0178
cafe
3815
0000
0000
0176
cafe
3c15
0000
0000
0176
cafe
2015
0000
0000
017c
cafe
2415
0000
0000
017f
cafe
2815
0000
0000
017e
cafe
2c15
0000
0000
0180
cafe
3015
0000
0000
0185
cafe
3415
0000
0000
0179
cafe
3815
0000
0000
0179
cafe
3c15
0000
0000
0182
cafe
2015
0000
0000
0189
cafe
2415
0000
0000
0182
cafe
2815
0000
0000
017e
cafe
2c15
0000
0000
017e
cafe
3015
0000
0000
0185
cafe
3415
0000
0000
0187
cafe
3815
0000
0000
018b
cafe
3c15
0000
0000
0185
cafe
2015
0000
0000
0185
cafe
2415
0000
0000
0184
cafe
2815
0000
0000
0181
cafe
2c15
0000
0000
0184
cafe
3015
0000
0000
0187
cafe
3415
0000
0000
017d
cafe
3815
0000
0000
017d
cafe
3c15
0000
0000
018a
cafe
2015
0000
0000
0189
cafe
2415
0000
0000
0188
cafe
2815
0000
0000
0186
cafe
2c15
0000
0000
0186
cafe
3015
0000
0000
0188
cafe
3415
0000
0000
0191
cafe
3815
0000
0000
0192
cafe
3c15
0000
0000
0191
cafe
2015
0000
0000
018c
cafe
2415
0000
0000
018d
cafe
2815
0000
0000
018d
cafe
2c15
0000
0000
0186
cafe
3015
0000
0000
017e
cafe
3415
0000
0000
0182
cafe
3815
0000
0000
0189
cafe
3c15
0000
0000
0188
cafe
2015
-
0000
0000
0186
cafe
2415
0000
0000
0185
cafe
2815
0000
0000
0183
cafe
2c15
0000
0000
0185
cafe
3015
0000
0000
0190
cafe
3415
0000
0000
018e
cafe
3815
0000
0000
0193
cafe
3c15
0000
0000
018d
cafe
2015
0000
0000
0181
cafe
2415
0000
0000
0186
cafe
2815
0000
0000
018b
cafe
2c15
0000
0000
0188
cafe
3015
0000
0000
018f
cafe
3415
0000
0000
018c
cafe
3815
0000
0000
0185
cafe
3c15
0000
0000
0185
cafe
2015
0000
0000
0186
cafe
2415
0000
0000
018e
cafe
2815
0000
0000
0192
cafe
2c15
0000
0000
0192
cafe
3015
0000
0000
0186
cafe
3415
0000
0000
0189
cafe
3815
0000
0000
018d
cafe
3c15
0000
0000
0199
cafe
2015
0000
0000
0197
cafe
2415
0000
0000
0197
cafe
2815
0000
0000
0193
cafe
2c15
0000
0000
0195
cafe
3015
0000
0000
0190
cafe
3415
0000
0000
0196
cafe
3815
0000
0000
0191
cafe
3c15
0000
0000
0196
cafe
2015
0000
0000
0196
cafe
2415
0000
0000
0194
cafe
2815
0000
0000
018e
cafe
2c15
0000
0000
0198
cafe
3015
0000
0000
0198
cafe
3415
0000
0000
019b
cafe
3815
0000
0000
0195
cafe
3c15
0000
0000
0191
cafe
2015
0000
0000
0196
cafe
2415
0000
0000
018f
cafe
2815
0000
0000
0193
cafe
2c15
0000
0000
0190
cafe
3015
0000
0000
0198
cafe
3415
0000
0000
0193
cafe
3815
0000
0000
0195
cafe
3c15
0000
0000
018a
cafe
2015
0000
0000
018e
cafe
2415
0000
0000
018f
cafe
2815
0000
0000
0190
cafe
2c15
0000
-
0000
018f
cafe
3015
0000
0000
018b
cafe
3415
0000
0000
018a
cafe
3815
0000
0000
018b
cafe
3c15
0000
0000
017b
cafe
2015
0000
0000
017e
cafe
2415
0000
0000
0185
cafe
2815
0000
0000
0184
cafe
2c15
0000
0000
0185
cafe
3015
0000
0000
0181
cafe
3415
0000
0000
0180
cafe
3815
0000
0000
0187
cafe
3c15
0000
0000
0188
cafe
2015
0000
0000
018c
cafe
2415
0000
0000
018d
cafe
2815
0000
0000
0184
cafe
2c15
0000
0000
0181
cafe
3015
0000
0000
0182
cafe
3415
0000
0000
018c
cafe
3815
0000
0000
0189
cafe
3c15
0000
0000
018c
cafe
2015
0000
0000
0194
cafe
2415
0000
0000
018d
cafe
2815
0000
0000
0189
cafe
2c15
0000
0000
0187
cafe
3015
0000
0000
0183
cafe
3415
0000
0000
0183
cafe
3815
0000
0000
0184
cafe
3c15
0000
0000
0182
cafe
2015
0000
0000
0185
cafe
2415
0000
0000
0180
cafe
2815
0000
0000
0186
cafe
2c15
0000
0000
018a
cafe
3015
0000
0000
018f
cafe
3415
0000
0000
0191
cafe
3815
0000
0000
0191
cafe
3c15
0000
0000
0191
cafe
2015
0000
0000
0192
cafe
2415
0000
0000
0188
cafe
2815
0000
0000
0187
cafe
2c15
0000
0000
0188
cafe
3015
0000
0000
0182
cafe
3415
0000
0000
0188
cafe
3815
0000
0000
018e
cafe
3c15
0000
0000
0190
cafe
2015
0000
0000
018f
cafe
2415
0000
0000
0195
cafe
2815
0000
0000
0194
cafe
2c15
0000
0000
018d
cafe
3015
0000
0000
0190
cafe
3415
0000
0000
0193
cafe
3815
0000
0000
-
0190
cafe
3c15
0000
0000
018d
cafe
2015
0000
0000
0189
cafe
2415
0000
0000
018d
cafe
2815
0000
0000
0188
cafe
2c15
0000
0000
0184
cafe
3015
0000
0000
0186
cafe
3415
0000
0000
018c
cafe
3815
0000
0000
0183
cafe
3c15
0000
0000
0189
cafe
2015
0000
0000
0181
cafe
2415
0000
0000
0186
cafe
2815
0000
0000
018d
cafe
2c15
0000
0000
0189
cafe
3015
0000
0000
0189
cafe
3415
0000
0000
018b
cafe
3815
0000
0000
0193
cafe
3c15
0000
0000
0197
cafe
2015
0000
0000
018c
cafe
2415
0000
0000
0190
cafe
2815
0000
0000
0189
cafe
2c15
0000
0000
0181
cafe
3015
0000
0000
0183
cafe
3415
0000
0000
017f
cafe
3815
0000
0000
018b
cafe
3c15
0000
0000
018d
cafe
2015
0000
0000
0197
cafe
2415
0000
0000
018f
cafe
2815
0000
0000
0188
cafe
2c15
0000
0000
0182
cafe
3015
0000
0000
017f
cafe
3415
0000
0000
017b
cafe
3815
0000
0000
017b
cafe
3c15
0000
0000
017d
cafe
2015
0000
0000
017d
cafe
2415
0000
0000
017a
cafe
2815
0000
0000
017e
cafe
2c15
0000
0000
017f
cafe
3015
0000
0000
0182
cafe
3415
0000
0000
0182
cafe
3815
0000
0000
0189
cafe
3c15
0000
0000
0185
cafe
2015
0000
0000
0185
cafe
2415
0000
0000
0188
cafe
2815
0000
0000
0180
cafe
2c15
0000
0000
0181
cafe
3015
0000
0000
0186
cafe
3415
0000
0000
0189
cafe
3815
0000
0000
018d
cafe
3c15
0000
0000
018e
cafe
2015
0000
0000
0189
cafe
2415
0000
0000
0187
-
