3419
0000
0000
010f
cafe
3819
0000
0000
010d
cafe
3c19
0000
0000
0104
cafe
2019
0000
0000
010c
cafe
2419
0000
0000
010a
cafe
2819
0000
0000
0112
cafe
2c19
0000
0000
0114
cafe
3019
0000
0000
010d
cafe
3419
0000
0000
010f
cafe
3819
0000
0000
010c
cafe
3c19
0000
0000
010f
cafe
2019
0000
0000
0107
cafe
2419
0000
0000
0102
cafe
2819
0000
0000
0102
cafe
2c19
0000
0000
00fe
cafe
3019
0000
0000
0103
cafe
3419
0000
0000
0101
cafe
3819
0000
0000
0102
cafe
3c19
0000
0000
00fe
cafe
2019
0000
0000
0101
cafe
2419
0000
0000
0100
cafe
2819
0000
0000
010d
cafe
2c19
0000
0000
0114
cafe
3019
0000
0000
0107
cafe
3419
0000
0000
0105
cafe
3819
0000
0000
00fe
cafe
3c19
0000
0000
00fe
cafe
2019
0000
0000
00f8
cafe
2419
0000
0000
0101
cafe
2819
0000
0000
0109
cafe
2c19
0000
0000
0103
cafe
3019
0000
0000
00fc
cafe
3419
0000
0000
00fd
cafe
3819
0000
0000
0103
cafe
3c19
0000
0000
00fc
cafe
2019
0000
0000
00fd
cafe
2419
0000
0000
00fe
cafe
2819
0000
0000
00ff
cafe
2c19
0000
0000
0104
cafe
3019
0000
0000
0103
cafe
3419
0000
0000
00fd
cafe
3819
0000
0000
0105
cafe
3c19
0000
0000
0109
cafe
2019
0000
0000
0106
cafe
2419
0000
0000
010b
cafe
2819
0000
0000
010a
cafe
2c19
0000
0000
0103
cafe
3019
0000
0000
0107
cafe
3419
0000
0000
010d
cafe
3819
0000
0000
010a
cafe
3c19
0000
0000
010c
cafe
2019
-
0000
0000
0106
cafe
2419
0000
0000
0101
cafe
2819
0000
0000
0105
cafe
2c19
0000
0000
010a
cafe
3019
0000
0000
010a
cafe
3419
0000
0000
0103
cafe
3819
0000
0000
0107
cafe
3c19
0000
0000
0102
cafe
2019
0000
0000
0101
cafe
2419
0000
0000
0105
cafe
2819
0000
0000
0108
cafe
2c19
0000
0000
0100
cafe
3019
0000
0000
00fb
cafe
3419
0000
0000
00fb
cafe
3819
0000
0000
00fb
cafe
3c19
0000
0000
00fd
cafe
2019
0000
0000
00f8
cafe
2419
0000
0000
0104
cafe
2819
0000
0000
00ff
cafe
2c19
0000
0000
0103
cafe
3019
0000
0000
0102
cafe
3419
0000
0000
0101
cafe
3819
0000
0000
0109
cafe
3c19
0000
0000
0108
cafe
2019
0000
0000
0104
cafe
2419
0000
0000
0109
cafe
2819
0000
0000
0104
cafe
2c19
0000
0000
010d
cafe
3019
0000
0000
010b
cafe
3419
0000
0000
0110
cafe
3819
0000
0000
010f
cafe
3c19
0000
0000
0113
cafe
2019
0000
0000
0107
cafe
2419
0000
0000
0107
cafe
2819
0000
0000
010d
cafe
2c19
0000
0000
010b
cafe
3019
0000
0000
010a
cafe
3419
0000
0000
010f
cafe
3819
0000
0000
0106
cafe
3c19
0000
0000
0106
cafe
2019
0000
0000
0108
cafe
2419
0000
0000
0102
cafe
2819
0000
0000
0101
cafe
2c19
0000
0000
00fe
cafe
3019
0000
0000
00ff
cafe
3419
0000
0000
0103
cafe
3819
0000
0000
0103
cafe
3c19
0000
0000
0105
cafe
2019
0000
0000
0109
cafe
2419
0000
0000
00ff
cafe
2819
0000
0000
0102
cafe
2c19
0000
-
0000
0102
cafe
3019
0000
0000
010c
cafe
3419
0000
0000
010c
cafe
3819
0000
0000
010a
cafe
3c19
0000
0000
0111
cafe
2019
0000
0000
0111
cafe
2419
0000
0000
0113
cafe
2819
0000
0000
0109
cafe
2c19
0000
0000
0109
cafe
3019
0000
0000
0103
cafe
3419
0000
0000
010d
cafe
3819
0000
0000
010b
cafe
3c19
0000
0000
0107
cafe
2019
0000
0000
0103
cafe
2419
0000
0000
0103
cafe
2819
0000
0000
00ff
cafe
2c19
0000
0000
0103
cafe
3019
0000
0000
0103
cafe
3419
0000
0000
0106
cafe
3819
0000
0000
00fe
cafe
3c19
0000
0000
00ff
cafe
2019
0000
0000
0103
cafe
2419
0000
0000
0104
cafe
2819
0000
0000
0104
cafe
2c19
0000
0000
0103
cafe
3019
0000
0000
0105
cafe
3419
0000
0000
0104
cafe
3819
0000
0000
0103
cafe
3c19
0000
0000
0106
cafe
2019
0000
0000
0103
cafe
2419
0000
0000
0101
cafe
2819
0000
0000
0105
cafe
2c19
0000
0000
0104
cafe
3019
0000
0000
0105
cafe
3419
0000
0000
0101
cafe
3819
0000
0000
0103
cafe
3c19
0000
0000
00f1
cafe
2019
0000
0000
00fb
cafe
2419
0000
0000
00fd
cafe
2819
0000
0000
0100
cafe
2c19
0000
0000
00fe
cafe
3019
0000
0000
0101
cafe
3419
0000
0000
0102
cafe
3819
0000
0000
0104
cafe
3c19
0000
0000
0101
cafe
2019
0000
0000
0103
cafe
2419
0000
0000
0102
cafe
2819
0000
0000
00ff
cafe
2c19
0000
0000
0109
cafe
3019
0000
0000
0109
cafe
3419
0000
0000
0101
cafe
3819
0000
0000
-
0103
cafe
3c19
0000
0000
0101
cafe
2019
0000
0000
00fa
cafe
2419
0000
0000
0102
cafe
2819
0000
0000
0109
cafe
2c19
0000
0000
00ff
cafe
3019
0000
0000
0104
cafe
3419
0000
0000
00f8
cafe
3819
0000
0000
0100
cafe
3c19
0000
0000
00fb
cafe
2019
0000
0000
0100
cafe
2419
0000
0000
00fa
cafe
2819
0000
0000
00fa
cafe
2c19
0000
0000
00fa
cafe
3019
0000
0000
00fa
cafe
3419
0000
0000
00f7
cafe
3819
0000
0000
00fd
cafe
3c19
0000
0000
00f9
cafe
2019
0000
0000
00fe
cafe
2419
0000
0000
00fd
cafe
2819
0000
0000
00ff
cafe
2c19
0000
0000
010a
cafe
3019
0000
0000
010c
cafe
3419
0000
0000
010d
cafe
3819
0000
0000
010e
cafe
3c19
0000
0000
0107
cafe
2019
0000
0000
0100
cafe
2419
0000
0000
0104
cafe
2819
0000
0000
0102
cafe
2c19
0000
0000
0100
cafe
3019
0000
0000
00ff
cafe
3419
0000
0000
0106
cafe
3819
0000
0000
00fa
cafe
3c19
0000
0000
00fb
cafe
2019
0000
0000
0104
cafe
2419
0000
0000
0106
cafe
2819
0000
0000
010a
cafe
2c19
0000
0000
010b
cafe
3019
0000
0000
0107
cafe
3419
0000
0000
0104
cafe
3819
0000
0000
0107
cafe
3c19
0000
0000
0106
cafe
2019
0000
0000
0104
cafe
2419
0000
0000
0102
cafe
2819
0000
0000
00ff
cafe
2c19
0000
0000
0103
cafe
3019
0000
0000
0104
cafe
3419
0000
0000
00fc
cafe
3819
0000
0000
00fe
cafe
3c19
0000
0000
00f9
cafe
2019
0000
0000
0101
cafe
2419
0000
0000
00ff
-
cafe
2819
0000
0000
0100
cafe
2c19
0000
0000
0104
cafe
3019
0000
0000
0101
cafe
3419
0000
0000
00fb
cafe
3819
0000
0000
0105
cafe
3c19
0000
0000
0103
cafe
2019
0000
0000
00fc
cafe
2419
0000
0000
00fe
cafe
2819
0000
0000
0107
cafe
2c19
0000
0000
0106
cafe
3019
0000
0000
010a
cafe
3419
0000
0000
010d
cafe
3819
0000
0000
010a
cafe
3c19
0000
0000
010d
cafe
2019
0000
0000
010a
cafe
2419
0000
0000
0109
cafe
2819
0000
0000
010c
cafe
2c19
0000
0000
010e
cafe
3019
0000
0000
0111
cafe
3419
0000
0000
0111
cafe
3819
0000
0000
010e
cafe
3c19
0000
0000
010f
cafe
2019
0000
0000
0104
cafe
2419
0000
0000
0106
cafe
2819
0000
0000
0108
cafe
2c19
0000
0000
0104
cafe
3019
0000
0000
0103
cafe
3419
0000
0000
0105
cafe
3819
0000
0000
0108
cafe
3c19
0000
0000
0101
cafe
2019
0000
0000
00fe
cafe
2419
0000
0000
00fa
cafe
2819
0000
0000
00fe
cafe
2c19
0000
0000
0100
cafe
3019
0000
0000
0102
cafe
3419
0000
0000
00fc
cafe
3819
0000
0000
0101
cafe
3c19
0000
0000
00ff
cafe
2019
0000
0000
0102
cafe
2419
0000
0000
0103
cafe
2819
0000
0000
0107
cafe
2c19
0000
0000
0100
cafe
3019
0000
0000
0102
cafe
3419
0000
0000
0109
cafe
3819
0000
0000
0107
cafe
3c19
0000
0000
00fc
cafe
2019
0000
0000
0106
cafe
2419
0000
0000
010b
cafe
2819
0000
0000
0109
cafe
2c19
0000
0000
0102
cafe
3019
0000
0000
0106
cafe
-
3419
0000
0000
0103
cafe
3819
0000
0000
010f
cafe
3c19
0000
0000
010d
cafe
2019
0000
0000
0104
cafe
2419
0000
0000
0104
cafe
2819
0000
0000
0108
cafe
2c19
0000
0000
0106
cafe
3019
0000
0000
0103
cafe
3419
0000
0000
0108
cafe
3819
0000
0000
0101
cafe
3c19
0000
0000
00fe
cafe
2019
0000
0000
00ff
cafe
2419
0000
0000
0101
cafe
2819
0000
0000
0103
cafe
2c19
0000
0000
0107
cafe
3019
0000
0000
0108
cafe
3419
0000
0000
0105
cafe
3819
0000
0000
0102
cafe
3c19
0000
0000
010c
cafe
2019
0000
0000
0103
cafe
2419
0000
0000
0109
cafe
2819
0000
0000
010e
cafe
2c19
0000
0000
010c
cafe
3019
0000
0000
0107
cafe
3419
0000
0000
0114
cafe
3819
0000
0000
0114
cafe
3c19
0000
0000
0109
cafe
2019
0000
0000
0102
cafe
2419
0000
0000
00fe
cafe
2819
0000
0000
00fd
cafe
2c19
0000
0000
0102
cafe
3019
0000
0000
00fb
cafe
3419
0000
0000
0109
cafe
3819
0000
0000
010a
cafe
3c19
0000
0000
0105
cafe
2019
0000
0000
0104
cafe
2419
0000
0000
010a
cafe
2819
0000
0000
010d
cafe
2c19
0000
0000
010d
cafe
3019
0000
0000
0111
cafe
3419
0000
0000
010c
cafe
3819
0000
0000
010c
cafe
3c19
0000
0000
0105
cafe
2019
0000
0000
0107
cafe
2419
0000
0000
0109
cafe
2819
0000
0000
0105
cafe
2c19
0000
0000
0108
cafe
3019
0000
0000
0108
cafe
3419
0000
0000
0104
cafe
3819
0000
0000
0101
cafe
3c19
0000
0000
0102
cafe
2019
-
0000
0000
00fd
cafe
2419
0000
0000
0104
cafe
2819
0000
0000
0107
cafe
2c19
0000
0000
0102
cafe
3019
0000
0000
00fe
cafe
3419
0000
0000
0102
cafe
3819
0000
0000
0108
cafe
3c19
0000
0000
0111
cafe
2019
0000
0000
0109
cafe
2419
0000
0000
010d
cafe
2819
0000
0000
0110
cafe
2c19
0000
0000
0108
cafe
3019
0000
0000
0108
cafe
3419
0000
0000
0101
cafe
3819
0000
0000
0106
cafe
3c19
0000
0000
010a
cafe
2019
0000
0000
00fe
cafe
2419
0000
0000
00f9
cafe
2819
0000
0000
00f4
cafe
2c19
0000
0000
00fb
cafe
3019
0000
0000
00fb
cafe
3419
0000
0000
00fe
cafe
3819
0000
0000
0100
cafe
3c19
0000
0000
00ff
cafe
2019
0000
0000
0104
cafe
2419
0000
0000
0104
cafe
2819
0000
0000
0101
cafe
2c19
0000
0000
0103
cafe
3019
0000
0000
0103
cafe
3419
0000
0000
0109
cafe
3819
0000
0000
0107
cafe
3c19
0000
0000
0109
cafe
2019
0000
0000
0109
cafe
2419
0000
0000
0106
cafe
2819
0000
0000
0102
cafe
2c19
0000
0000
0104
cafe
3019
0000
0000
0107
cafe
3419
0000
0000
0105
cafe
3819
0000
0000
0102
cafe
3c19
0000
0000
0102
cafe
2019
0000
0000
0103
cafe
2419
0000
0000
010a
cafe
2819
0000
0000
010d
cafe
2c19
0000
0000
0106
cafe
3019
0000
0000
010a
cafe
3419
0000
0000
0108
cafe
3819
0000
0000
0105
cafe
3c19
0000
0000
0109
cafe
2019
0000
0000
0109
cafe
2419
0000
0000
0104
cafe
2819
0000
0000
0102
cafe
2c19
0000
-
0000
00ff
cafe
3019
0000
0000
00ff
cafe
3419
0000
0000
0105
cafe
3819
0000
0000
00f8
cafe
3c19
0000
0000
0100
cafe
2019
0000
0000
0105
cafe
2419
0000
0000
010d
cafe
2819
0000
0000
0108
cafe
2c19
0000
0000
010a
cafe
3019
0000
0000
0108
cafe
3419
0000
0000
0107
cafe
3819
0000
0000
0108
cafe
3c19
0000
0000
0109
cafe
2019
0000
0000
010a
cafe
2419
0000
0000
010a
cafe
2819
0000
0000
0106
cafe
2c19
0000
0000
00ff
cafe
3019
0000
0000
00ff
cafe
3419
0000
0000
0103
cafe
3819
0000
0000
0107
cafe
3c19
0000
0000
0103
cafe
2019
0000
0000
00f9
cafe
2419
0000
0000
00fb
cafe
2819
0000
0000
00f8
cafe
2c19
0000
0000
00fc
cafe
3019
0000
0000
00fc
cafe
3419
0000
0000
00fc
cafe
3819
0000
0000
0101
cafe
3c19
0000
0000
00ff
cafe
2019
0000
0000
00fc
cafe
2419
0000
0000
00fa
cafe
2819
0000
0000
0103
cafe
2c19
0000
0000
0103
cafe
3019
0000
0000
0100
cafe
3419
0000
0000
0103
cafe
3819
0000
0000
0100
cafe
3c19
0000
0000
0103
cafe
2019
0000
0000
00fd
cafe
2419
0000
0000
00fd
cafe
2819
0000
0000
00ff
cafe
2c19
0000
0000
0104
cafe
3019
0000
0000
00fe
cafe
3419
0000
0000
00fe
cafe
3819
0000
0000
00fd
cafe
3c19
0000
0000
0100
cafe
2019
0000
0000
0101
cafe
2419
0000
0000
00fa
cafe
2819
0000
0000
00fc
cafe
2c19
0000
0000
00fc
cafe
3019
0000
0000
0100
cafe
3419
0000
0000
0100
cafe
3819
0000
0000
-
0108
cafe
3c19
0000
0000
010e
cafe
2019
0000
0000
010b
cafe
2419
0000
0000
0101
cafe
2819
0000
0000
0101
cafe
2c19
0000
0000
0102
cafe
3019
0000
0000
0106
cafe
3419
0000
0000
010d
cafe
3819
0000
0000
0109
cafe
3c19
0000
0000
010e
cafe
2019
0000
0000
010c
cafe
2419
0000
0000
0111
cafe
2819
0000
0000
0110
cafe
2c19
0000
0000
0109
cafe
3019
0000
0000
0106
cafe
3419
0000
0000
0108
cafe
3819
0000
0000
00ff
cafe
3c19
0000
0000
0100
cafe
2019
0000
0000
00fd
cafe
2419
0000
0000
0100
cafe
2819
0000
0000
00fb
cafe
2c19
0000
0000
0105
cafe
3019
0000
0000
010a
cafe
3419
0000
0000
0110
cafe
3819
0000
0000
010c
cafe
3c19
0000
0000
0108
cafe
2019
0000
0000
010a
cafe
2419
0000
0000
0103
cafe
2819
0000
0000
0103
cafe
2c19
0000
0000
00ff
cafe
3019
0000
0000
00fe
cafe
3419
0000
0000
0107
cafe
3819
0000
0000
0100
cafe
3c19
0000
0000
00fd
cafe
2019
0000
0000
00fa
cafe
2419
0000
0000
00f9
cafe
2819
0000
0000
00fe
cafe
2c19
0000
0000
00ff
cafe
3019
0000
0000
0104
cafe
3419
0000
0000
010b
cafe
3819
0000
0000
0107
cafe
3c19
0000
0000
0108
cafe
2019
0000
0000
010c
cafe
2419
0000
0000
0112
cafe
2819
0000
0000
010d
cafe
2c19
0000
0000
0108
cafe
3019
0000
0000
0103
cafe
3419
0000
0000
010a
cafe
3819
0000
0000
0107
cafe
3c19
0000
0000
010b
cafe
2019
0000
0000
0108
cafe
2419
0000
0000
010b
-
cafe
2819
0000
0000
010c
cafe
2c19
0000
0000
010c
cafe
3019
0000
0000
0106
cafe
3419
0000
0000
0104
cafe
3819
0000
0000
0104
cafe
3c19
0000
0000
00fd
cafe
2019
0000
0000
0100
cafe
2419
0000
0000
0107
cafe
2819
0000
0000
0109
cafe
2c19
0000
0000
0104
cafe
3019
0000
0000
010c
cafe
3419
0000
0000
0110
cafe
3819
0000
0000
0106
cafe
3c19
0000
0000
010b
cafe
2019
0000
0000
0108
cafe
2419
0000
0000
0102
cafe
2819
0000
0000
0102
cafe
2c19
0000
0000
0105
cafe
3019
0000
0000
0103
cafe
3419
0000
0000
00fd
cafe
3819
0000
0000
0102
cafe
3c19
0000
0000
0101
cafe
2019
0000
0000
00fd
cafe
2419
0000
0000
00fa
cafe
2819
0000
0000
00fb
cafe
2c19
0000
0000
00ff
cafe
3019
0000
0000
00f7
cafe
3419
0000
0000
00fb
cafe
3819
0000
0000
0100
cafe
3c19
0000
0000
00f2
cafe
2019
0000
0000
00fa
cafe
2419
0000
0000
00fc
cafe
2819
0000
0000
0104
cafe
2c19
0000
0000
0108
cafe
3019
0000
0000
0110
cafe
3419
0000
0000
0108
cafe
3819
0000
0000
0103
cafe
3c19
0000
0000
0100
cafe
2019
0000
0000
00fb
cafe
2419
0000
0000
00f9
cafe
2819
0000
0000
0105
cafe
2c19
0000
0000
0108
cafe
3019
0000
0000
0108
cafe
3419
0000
0000
0105
cafe
3819
0000
0000
0104
cafe
3c19
0000
0000
0103
cafe
2019
0000
0000
0105
cafe
2419
0000
0000
0101
cafe
2819
0000
0000
00f9
cafe
2c19
0000
0000
00f5
cafe
3019
0000
0000
00f8
cafe
-
3419
0000
0000
00f9
cafe
3819
0000
0000
00ee
cafe
3c19
0000
0000
00f4
cafe
2019
0000
0000
00fd
cafe
2419
0000
0000
00fa
cafe
2819
0000
0000
00f7
cafe
2c19
0000
0000
00fb
cafe
3019
0000
0000
0102
cafe
3419
0000
0000
00fc
cafe
3819
0000
0000
00fd
cafe
3c19
0000
0000
00ff
cafe
2019
0000
0000
00fa
cafe
2419
0000
0000
00fe
cafe
2819
0000
0000
0100
cafe
2c19
0000
0000
0106
cafe
3019
0000
0000
0101
cafe
3419
0000
0000
00f5
cafe
3819
0000
0000
0104
cafe
3c19
0000
0000
010d
cafe
2019
0000
0000
010e
cafe
2419
0000
0000
0105
cafe
2819
0000
0000
0105
cafe
2c19
0000
0000
0108
cafe
3019
0000
0000
00fc
cafe
3419
0000
0000
0100
cafe
3819
0000
0000
0100
cafe
3c19
0000
0000
0104
cafe
2019
0000
0000
0106
cafe
2419
0000
0000
0102
cafe
2819
0000
0000
010a
cafe
2c19
0000
0000
010c
cafe
3019
0000
0000
0105
cafe
3419
0000
0000
0109
cafe
3819
0000
0000
0106
cafe
3c19
0000
0000
0101
cafe
2019
0000
0000
0100
cafe
2419
0000
0000
00fc
cafe
2819
0000
0000
00fe
cafe
2c19
0000
0000
0108
cafe
3019
0000
0000
0102
cafe
3419
0000
0000
010b
cafe
3819
0000
0000
0109
cafe
3c19
0000
0000
010a
cafe
2019
0000
0000
010c
cafe
2419
0000
0000
0110
cafe
2819
0000
0000
010e
cafe
2c19
0000
0000
0109
cafe
3019
0000
0000
0106
cafe
3419
0000
0000
0103
cafe
3819
0000
0000
0103
cafe
3c19
0000
0000
0106
cafe
2019
-
0000
0000
0108
cafe
2419
0000
0000
0103
cafe
2819
0000
0000
0106
cafe
2c19
0000
0000
0104
cafe
3019
0000
0000
00ff
cafe
3419
0000
0000
0101
cafe
3819
0000
0000
0101
cafe
3c19
0000
0000
010b
cafe
2019
0000
0000
0108
cafe
2419
0000
0000
0101
cafe
2819
0000
0000
0105
cafe
2c19
0000
0000
0107
cafe
3019
0000
0000
0106
cafe
3419
0000
0000
0104
cafe
3819
0000
0000
0104
cafe
3c19
0000
0000
010c
cafe
2019
0000
0000
0111
cafe
2419
0000
0000
010b
cafe
2819
0000
0000
0107
cafe
2c19
0000
0000
0101
cafe
3019
0000
0000
0101
cafe
3419
0000
0000
00fd
cafe
3819
0000
0000
0101
cafe
3c19
0000
0000
00fe
cafe
2019
0000
0000
0109
cafe
2419
0000
0000
00ff
cafe
2819
0000
0000
00fe
cafe
2c19
0000
0000
00f7
cafe
3019
0000
0000
00fc
cafe
3419
0000
0000
00f9
cafe
3819
0000
0000
0101
cafe
3c19
0000
0000
00f5
cafe
2019
0000
0000
00f3
cafe
2419
0000
0000
00f3
cafe
2819
0000
0000
00f7
cafe
2c19
0000
0000
00ff
cafe
3019
0000
0000
00ff
cafe
3419
0000
0000
00fc
cafe
3819
0000
0000
00ff
cafe
3c19
0000
0000
00fe
cafe
2019
0000
0000
0102
cafe
2419
0000
0000
0104
cafe
2819
0000
0000
0106
cafe
2c19
0000
0000
0108
cafe
3019
0000
0000
0105
cafe
3419
0000
0000
0105
cafe
3819
0000
0000
0105
cafe
3c19
0000
0000
0107
cafe
2019
0000
0000
0101
cafe
2419
0000
0000
0107
cafe
2819
0000
0000
0105
cafe
2c19
0000
-
0000
0102
cafe
3019
0000
0000
00f6
cafe
3419
0000
0000
00f9
cafe
3819
0000
0000
00fc
cafe
3c19
0000
0000
00f9
cafe
2019
0000
0000
0101
cafe
2419
0000
0000
0103
cafe
2819
0000
0000
0101
cafe
2c19
0000
0000
00ff
cafe
3019
0000
0000
010b
cafe
3419
0000
0000
0109
cafe
3819
0000
0000
010c
cafe
3c19
0000
0000
0114
cafe
2019
0000
0000
0114
cafe
2419
0000
0000
0119
cafe
2819
0000
0000
0107
cafe
2c19
0000
0000
0107
cafe
3019
0000
0000
0101
cafe
3419
0000
0000
00fc
cafe
3819
0000
0000
00fd
cafe
3c19
0000
0000
00ff
cafe
2019
0000
0000
0101
cafe
2419
0000
0000
0105
cafe
2819
0000
0000
010b
cafe
2c19
0000
0000
010c
cafe
3019
0000
0000
0103
cafe
3419
0000
0000
0108
cafe
3819
0000
0000
0109
cafe
3c19
0000
0000
010b
cafe
2019
0000
0000
010f
cafe
2419
0000
0000
010c
cafe
2819
0000
0000
0113
cafe
2c19
0000
0000
0112
cafe
3019
0000
0000
010b
cafe
3419
0000
0000
010f
cafe
3819
0000
0000
0107
cafe
3c19
0000
0000
0105
cafe
2019
0000
0000
010e
cafe
2419
0000
0000
0103
cafe
2819
0000
0000
0100
cafe
2c19
0000
0000
00fb
cafe
3019
0000
0000
00fc
cafe
3419
0000
0000
010a
cafe
3819
0000
0000
0107
cafe
3c19
0000
0000
0107
cafe
2019
0000
0000
0107
cafe
2419
0000
0000
0106
cafe
2819
0000
0000
0107
cafe
2c19
0000
0000
0109
cafe
3019
0000
0000
010b
cafe
3419
0000
0000
0112
cafe
3819
0000
0000
-
0114
cafe
3c19
0000
0000
010e
cafe
2019
0000
0000
0107
cafe
2419
0000
0000
0107
cafe
2819
0000
0000
0108
cafe
2c19
0000
0000
010d
cafe
3019
0000
0000
0116
cafe
3419
0000
0000
0116
cafe
3819
0000
0000
010e
cafe
3c19
0000
0000
010a
cafe
2019
0000
0000
0103
cafe
2419
0000
0000
0101
cafe
2819
0000
0000
010a
cafe
2c19
0000
0000
0103
cafe
3019
0000
0000
0103
cafe
3419
0000
0000
0108
cafe
3819
0000
0000
0108
cafe
3c19
0000
0000
0104
cafe
2019
0000
0000
0103
cafe
2419
0000
0000
0104
cafe
2819
0000
0000
0109
cafe
2c19
0000
0000
0102
cafe
3019
0000
0000
00fb
cafe
3419
0000
0000
0101
cafe
3819
0000
0000
0107
cafe
3c19
0000
0000
0107
cafe
2019
0000
0000
0107
cafe
2419
0000
0000
0108
cafe
2819
0000
0000
0107
cafe
2c19
0000
0000
0100
cafe
3019
0000
0000
00fa
cafe
3419
0000
0000
00f8
cafe
3819
0000
0000
00f8
cafe
3c19
0000
0000
00fa
cafe
2019
0000
0000
00fd
cafe
2419
0000
0000
0106
cafe
2819
0000
0000
0103
cafe
2c19
0000
0000
0106
cafe
3019
0000
0000
00ff
cafe
3419
0000
0000
0104
cafe
3819
0000
0000
0107
cafe
3c19
0000
0000
0106
cafe
2019
0000
0000
0105
cafe
2419
0000
0000
00fe
cafe
2819
0000
0000
0108
cafe
2c19
0000
0000
0111
cafe
3019
0000
0000
010a
cafe
3419
0000
0000
010b
cafe
3819
0000
0000
0109
cafe
3c19
0000
0000
0102
cafe
2019
0000
0000
010b
cafe
2419
0000
0000
0109
-
cafe
2819
0000
0000
0108
cafe
2c19
0000
0000
0103
cafe
3019
0000
0000
0104
cafe
3419
0000
0000
00fc
cafe
3819
0000
0000
00f9
cafe
3c19
0000
0000
0106
cafe
2019
0000
0000
010a
cafe
2419
0000
0000
0105
cafe
2819
0000
0000
0105
cafe
2c19
0000
0000
010a
cafe
3019
0000
0000
0102
cafe
3419
0000
0000
00fd
cafe
3819
0000
0000
00fb
cafe
3c19
0000
0000
00fe
cafe
2019
0000
0000
00fe
cafe
2419
0000
0000
00fb
cafe
2819
0000
0000
00fc
cafe
2c19
0000
0000
0102
cafe
3019
0000
0000
0101
cafe
3419
0000
0000
00fe
cafe
3819
0000
0000
0109
cafe
3c19
0000
0000
010a
cafe
2019
0000
0000
0104
cafe
2419
0000
0000
0108
cafe
2819
0000
0000
0106
cafe
2c19
0000
0000
00fb
cafe
3019
0000
0000
010b
cafe
3419
0000
0000
010c
cafe
3819
0000
0000
010c
cafe
3c19
0000
0000
0108
cafe
2019
0000
0000
010a
cafe
2419
0000
0000
0105
cafe
2819
0000
0000
00f8
cafe
2c19
0000
0000
0102
cafe
3019
0000
0000
00f8
cafe
3419
0000
0000
0102
cafe
3819
0000
0000
0100
cafe
3c19
0000
0000
0105
cafe
2019
0000
0000
0108
cafe
2419
0000
0000
00fd
cafe
2819
0000
0000
00fd
cafe
2c19
0000
0000
00f5
cafe
3019
0000
0000
00f4
cafe
3419
0000
0000
00f7
cafe
3819
0000
0000
00fc
cafe
3c19
0000
0000
0102
cafe
2019
0000
0000
0103
cafe
2419
0000
0000
0104
cafe
2819
0000
0000
00fe
cafe
2c19
0000
0000
0100
cafe
3019
0000
0000
0104
cafe
-
3419
0000
0000
0104
cafe
3819
0000
0000
0105
cafe
3c19
0000
0000
0113
cafe
2019
0000
0000
0110
cafe
2419
0000
0000
010f
cafe
2819
0000
0000
0105
cafe
2c19
0000
0000
0108
cafe
3019
0000
0000
010d
cafe
3419
0000
0000
0111
cafe
3819
0000
0000
010d
cafe
3c19
0000
0000
0107
cafe
2019
0000
0000
0103
cafe
2419
0000
0000
0106
cafe
2819
0000
0000
00f7
cafe
2c19
0000
0000
00fc
cafe
3019
0000
0000
0100
cafe
3419
0000
0000
0102
cafe
3819
0000
0000
0107
cafe
3c19
0000
0000
0107
cafe
2019
0000
0000
00ff
cafe
2419
0000
0000
0103
cafe
2819
0000
0000
0106
cafe
2c19
0000
0000
0103
cafe
3019
0000
0000
00fa
cafe
3419
0000
0000
00f5
cafe
3819
0000
0000
00f6
cafe
3c19
0000
0000
00f8
cafe
2019
0000
0000
0107
cafe
2419
0000
0000
00ff
cafe
2819
0000
0000
00fc
cafe
2c19
0000
0000
00fe
cafe
3019
0000
0000
0100
cafe
3419
0000
0000
00fb
cafe
3819
0000
0000
00fe
cafe
3c19
0000
0000
0102
cafe
2019
0000
0000
00fb
cafe
2419
0000
0000
00fa
cafe
2819
0000
0000
0100
cafe
2c19
0000
0000
00ff
cafe
3019
0000
0000
00f7
cafe
3419
0000
0000
00fa
cafe
3819
0000
0000
00fe
cafe
3c19
0000
0000
0102
cafe
2019
0000
0000
00fc
cafe
2419
0000
0000
00fd
cafe
2819
0000
0000
00fd
cafe
2c19
0000
0000
00ff
cafe
3019
0000
0000
00fe
cafe
3419
0000
0000
0108
cafe
3819
0000
0000
010d
cafe
3c19
0000
0000
0107
cafe
2019
-
0000
0000
010a
cafe
2419
0000
0000
010b
cafe
2819
0000
0000
010c
cafe
2c19
0000
0000
0108
cafe
3019
0000
0000
0106
cafe
3419
0000
0000
0105
cafe
3819
0000
0000
0107
cafe
3c19
0000
0000
0102
cafe
2019
0000
0000
0102
cafe
2419
0000
0000
0100
cafe
2819
0000
0000
0100
cafe
2c19
0000
0000
0100
cafe
3019
0000
0000
0107
cafe
3419
0000
0000
0105
cafe
3819
0000
0000
0100
cafe
3c19
0000
0000
0102
cafe
2019
0000
0000
0106
cafe
2419
0000
0000
0105
cafe
2819
0000
0000
0105
cafe
2c19
0000
0000
0107
cafe
3019
0000
0000
0104
cafe
3419
0000
0000
010c
cafe
3819
0000
0000
0103
cafe
3c19
0000
0000
0106
cafe
2019
0000
0000
0101
cafe
2419
0000
0000
00fe
cafe
2819
0000
0000
0106
cafe
2c19
0000
0000
010b
cafe
3019
0000
0000
0109
cafe
3419
0000
0000
00fd
cafe
3819
0000
0000
00ff
cafe
3c19
0000
0000
0105
cafe
2019
0000
0000
0106
cafe
2419
0000
0000
0102
cafe
2819
0000
0000
00fd
cafe
2c19
0000
0000
0105
cafe
3019
0000
0000
0106
cafe
3419
0000
0000
0105
cafe
3819
0000
0000
0101
cafe
3c19
0000
0000
00ff
cafe
2019
0000
0000
0106
cafe
2419
0000
0000
0100
cafe
2819
0000
0000
00fc
cafe
2c19
0000
0000
00fb
cafe
3019
0000
0000
0100
cafe
3419
0000
0000
00fe
cafe
3819
0000
0000
0103
cafe
3c19
0000
0000
00fe
cafe
2019
0000
0000
0103
cafe
2419
0000
0000
010c
cafe
2819
0000
0000
010c
cafe
2c19
0000
-
0000
0101
cafe
3019
0000
0000
0102
cafe
3419
0000
0000
0108
cafe
3819
0000
0000
0107
cafe
3c19
0000
0000
0101
cafe
2019
0000
0000
00fe
cafe
2419
0000
0000
0101
cafe
2819
0000
0000
0102
cafe
2c19
0000
0000
0102
cafe
3019
0000
0000
0106
cafe
3419
0000
0000
0101
cafe
3819
0000
0000
00ff
cafe
3c19
0000
0000
0104
cafe
2019
0000
0000
0105
cafe
2419
0000
0000
0107
cafe
2819
0000
0000
010d
cafe
2c19
0000
0000
0110
cafe
3019
0000
0000
0115
cafe
3419
0000
0000
0110
cafe
3819
0000
0000
0113
cafe
3c19
0000
0000
0118
cafe
2019
0000
0000
0110
cafe
2419
0000
0000
010f
cafe
2819
0000
0000
010e
cafe
2c19
0000
0000
0106
cafe
3019
0000
0000
0107
cafe
3419
0000
0000
0108
cafe
3819
0000
0000
0108
cafe
3c19
0000
0000
00fd
cafe
2019
0000
0000
00fc
cafe
2419
0000
0000
0104
cafe
2819
0000
0000
0110
cafe
2c19
0000
0000
010d
cafe
3019
0000
0000
0104
cafe
3419
0000
0000
00ff
cafe
3819
0000
0000
0101
cafe
3c19
0000
0000
0103
cafe
2019
0000
0000
00ff
cafe
2419
0000
0000
0100
cafe
2819
0000
0000
0103
cafe
2c19
0000
0000
00fc
cafe
3019
0000
0000
00fb
cafe
3419
0000
0000
00f8
cafe
3819
0000
0000
00ff
cafe
3c19
0000
0000
00fe
cafe
2019
0000
0000
00fa
cafe
2419
0000
0000
0103
cafe
2819
0000
0000
00ff
cafe
2c19
0000
0000
0104
cafe
3019
0000
0000
00fe
cafe
3419
0000
0000
00fd
cafe
3819
0000
0000
-
0102
cafe
3c19
0000
0000
0106
cafe
2019
0000
0000
0104
cafe
2419
0000
0000
00ff
cafe
2819
0000
0000
0100
cafe
2c19
0000
0000
00fc
cafe
3019
0000
0000
00fc
cafe
3419
0000
0000
00ff
cafe
3819
0000
0000
0109
cafe
3c19
0000
0000
0102
cafe
2019
0000
0000
00fc
cafe
2419
0000
0000
00f7
cafe
2819
0000
0000
00f5
cafe
2c19
0000
0000
00f9
cafe
3019
0000
0000
0100
cafe
3419
0000
0000
0101
cafe
3819
0000
0000
00fd
cafe
3c19
0000
0000
0109
cafe
2019
0000
0000
0106
cafe
2419
0000
0000
0110
cafe
2819
0000
0000
010d
cafe
2c19
0000
0000
0107
cafe
3019
0000
0000
0106
cafe
3419
0000
0000
0109
cafe
3819
0000
0000
010d
cafe
3c19
0000
0000
010a
cafe
2019
0000
0000
00fe
cafe
2419
0000
0000
0108
cafe
2819
0000
0000
0103
cafe
2c19
0000
0000
00ff
cafe
3019
0000
0000
00ff
cafe
3419
0000
0000
00fa
cafe
3819
0000
0000
00f9
cafe
3c19
0000
0000
00fd
cafe
2019
0000
0000
0105
cafe
2419
0000
0000
0109
cafe
2819
0000
0000
010a
cafe
2c19
0000
0000
00ff
cafe
3019
0000
0000
0104
cafe
3419
0000
0000
00fd
cafe
3819
0000
0000
00fa
cafe
3c19
0000
0000
00fe
cafe
2019
0000
0000
0102
cafe
2419
0000
0000
00fa
cafe
2819
0000
0000
00fe
cafe
2c19
0000
0000
0101
cafe
3019
0000
0000
0107
cafe
3419
0000
0000
0104
cafe
3819
0000
0000
0104
cafe
3c19
0000
0000
010e
cafe
2019
0000
0000
0110
cafe
2419
0000
0000
010f
-
cafe
2819
0000
0000
0109
cafe
2c19
0000
0000
010d
cafe
3019
0000
0000
010d
cafe
3419
0000
0000
010f
cafe
3819
0000
0000
010b
cafe
3c19
0000
0000
010f
cafe
2019
0000
0000
0106
cafe
2419
0000
0000
010c
cafe
2819
0000
0000
010e
cafe
2c19
0000
0000
010f
cafe
3019
0000
0000
0107
cafe
3419
0000
0000
00fe
cafe
3819
0000
0000
00ff
cafe
3c19
0000
0000
00fa
cafe
2019
0000
0000
00f8
cafe
2419
0000
0000
00f8
cafe
2819
0000
0000
00fd
cafe
2c19
0000
0000
00fd
cafe
3019
0000
0000
00fc
cafe
3419
0000
0000
00fe
cafe
3819
0000
0000
00fe
cafe
3c19
0000
0000
0101
cafe
2019
0000
0000
0100
cafe
2419
0000
0000
0107
cafe
2819
0000
0000
0106
cafe
2c19
0000
0000
00fe
cafe
3019
0000
0000
00f7
cafe
3419
0000
0000
00fc
cafe
3819
0000
0000
00f7
cafe
3c19
0000
0000
00f4
cafe
2019
0000
0000
0100
cafe
2419
0000
0000
00ff
cafe
2819
0000
0000
00fb
cafe
2c19
0000
0000
00fe
cafe
3019
0000
0000
00fa
cafe
3419
0000
0000
00fb
cafe
3819
0000
0000
00f4
cafe
3c19
0000
0000
00fc
cafe
2019
0000
0000
00fb
cafe
2419
0000
0000
00f3
cafe
2819
0000
0000
00ef
cafe
2c19
0000
0000
00fc
cafe
3019
0000
0000
00fd
cafe
3419
0000
0000
00fb
cafe
3819
0000
0000
00fb
cafe
3c19
0000
0000
0100
cafe
2019
0000
0000
00fd
cafe
2419
0000
0000
0103
cafe
2819
0000
0000
0101
cafe
2c19
0000
0000
00fe
cafe
3019
0000
0000
0102
cafe
-
3419
0000
0000
0108
cafe
3819
0000
0000
010a
cafe
3c19
0000
0000
0107
cafe
2019
0000
0000
00f8
cafe
2419
0000
0000
00fd
cafe
2819
0000
0000
00ff
cafe
2c19
0000
0000
00ff
cafe
3019
0000
0000
00f8
cafe
3419
0000
0000
00f6
cafe
3819
0000
0000
00fe
cafe
3c19
0000
0000
00f4
cafe
2019
0000
0000
00ff
cafe
2419
0000
0000
0105
cafe
2819
0000
0000
0105
cafe
2c19
0000
0000
0102
cafe
3019
0000
0000
00ff
cafe
3419
0000
0000
0100
cafe
3819
0000
0000
00f5
cafe
3c19
0000
0000
00f0
cafe
2019
0000
0000
00f8
cafe
2419
0000
0000
00f6
cafe
2819
0000
0000
00f6
cafe
2c19
0000
0000
00fa
cafe
3019
0000
0000
00fb
cafe
3419
0000
0000
00fa
cafe
3819
0000
0000
0101
cafe
3c19
0000
0000
00fc
cafe
2019
0000
0000
00f9
cafe
2419
0000
0000
00f8
cafe
2819
0000
0000
00fe
cafe
2c19
0000
0000
0109
cafe
3019
0000
0000
00ff
cafe
3419
0000
0000
0100
cafe
3819
0000
0000
0101
cafe
3c19
0000
0000
00fd
cafe
2019
0000
0000
0101
cafe
2419
0000
0000
0107
cafe
2819
0000
0000
0105
cafe
2c19
0000
0000
010c
cafe
3019
0000
0000
010d
cafe
3419
0000
0000
010a
cafe
3819
0000
0000
00ff
cafe
3c19
0000
0000
00ff
cafe
2019
0000
0000
0105
cafe
2419
0000
0000
0109
cafe
2819
0000
0000
0108
cafe
2c19
0000
0000
00fe
cafe
3019
0000
0000
0104
cafe
3419
0000
0000
0104
cafe
3819
0000
0000
010b
cafe
3c19
0000
0000
0108
cafe
2019
-
0000
0000
0106
cafe
2419
0000
0000
0105
cafe
2819
0000
0000
00ff
cafe
2c19
0000
0000
00fd
cafe
3019
0000
0000
00fe
cafe
3419
0000
0000
0106
cafe
3819
0000
0000
0105
cafe
3c19
0000
0000
010c
cafe
2019
0000
0000
010a
cafe
2419
0000
0000
0104
cafe
2819
0000
0000
0104
cafe
2c19
0000
0000
00fa
cafe
3019
0000
0000
00f9
cafe
3419
0000
0000
0100
cafe
3819
0000
0000
0101
cafe
3c19
0000
0000
010a
cafe
2019
0000
0000
0107
cafe
2419
0000
0000
0106
cafe
2819
0000
0000
0105
cafe
2c19
0000
0000
010a
cafe
3019
0000
0000
0109
cafe
3419
0000
0000
0103
cafe
3819
0000
0000
010a
cafe
3c19
0000
0000
010a
cafe
2019
0000
0000
00fe
cafe
2419
0000
0000
0105
cafe
2819
0000
0000
0109
cafe
2c19
0000
0000
0107
cafe
3019
0000
0000
00fa
cafe
3419
0000
0000
00fe
cafe
3819
0000
0000
00ff
cafe
3c19
0000
0000
0106
cafe
2019
0000
0000
0107
cafe
2419
0000
0000
0112
cafe
2819
0000
0000
0113
cafe
2c19
0000
0000
0110
cafe
3019
0000
0000
0108
cafe
3419
0000
0000
0101
cafe
3819
0000
0000
0107
cafe
3c19
0000
0000
010b
cafe
2019
0000
0000
010c
cafe
2419
0000
0000
0109
cafe
2819
0000
0000
0108
cafe
2c19
0000
0000
010a
cafe
3019
0000
0000
0107
cafe
3419
0000
0000
010c
cafe
3819
0000
0000
0107
cafe
3c19
0000
0000
0109
cafe
2019
0000
0000
0103
cafe
2419
0000
0000
0105
cafe
2819
0000
0000
0105
cafe
2c19
0000
-
0000
0105
cafe
3019
0000
0000
010b
cafe
3419
0000
0000
0103
cafe
3819
0000
0000
0109
cafe
3c19
0000
0000
0107
cafe
2019
0000
0000
0104
cafe
2419
0000
0000
0104
cafe
2819
0000
0000
0103
cafe
2c19
0000
0000
0101
cafe
3019
0000
0000
0106
cafe
3419
0000
0000
0100
cafe
3819
0000
0000
0107
cafe
3c19
0000
0000
010d
cafe
2019
0000
0000
010d
cafe
2419
0000
0000
0106
cafe
2819
0000
0000
0103
cafe
2c19
0000
0000
00ff
cafe
3019
0000
0000
00ff
cafe
3419
0000
0000
00fe
cafe
3819
0000
0000
00f9
cafe
3c19
0000
0000
00f7
cafe
2019
0000
0000
0100
cafe
2419
0000
0000
0101
cafe
2819
0000
0000
0109
cafe
2c19
0000
0000
010e
cafe
3019
0000
0000
010f
cafe
3419
0000
0000
0110
cafe
3819
0000
0000
0109
cafe
3c19
0000
0000
010d
cafe
2019
0000
0000
010b
cafe
2419
0000
0000
0109
cafe
2819
0000
0000
010f
cafe
2c19
0000
0000
0118
cafe
3019
0000
0000
0113
cafe
3419
0000
0000
010b
cafe
3819
0000
0000
0105
cafe
3c19
0000
0000
0102
cafe
2019
0000
0000
0100
cafe
2419
0000
0000
0101
cafe
2819
0000
0000
00fa
cafe
2c19
0000
0000
0103
cafe
3019
0000
0000
0104
cafe
3419
0000
0000
0103
cafe
3819
0000
0000
0100
cafe
3c19
0000
0000
00fa
cafe
2019
0000
0000
00ff
cafe
2419
0000
0000
00f9
cafe
2819
0000
0000
00f7
cafe
2c19
0000
0000
00ef
cafe
3019
0000
0000
00f5
cafe
3419
0000
0000
00f7
cafe
3819
0000
0000
-
00fd
cafe
3c19
0000
0000
00ff
cafe
2019
0000
0000
00ff
cafe
2419
0000
0000
0106
cafe
2819
0000
0000
00fa
cafe
2c19
0000
0000
00f5
cafe
3019
0000
0000
00fb
cafe
3419
0000
0000
0104
cafe
3819
0000
0000
0105
cafe
3c19
0000
0000
0108
cafe
2019
0000
0000
0106
cafe
2419
0000
0000
0105
cafe
2819
0000
0000
0106
cafe
2c19
0000
0000
010c
cafe
3019
0000
0000
0106
cafe
3419
0000
0000
0106
cafe
3819
0000
0000
0105
cafe
3c19
0000
0000
0109
cafe
2019
0000
0000
0108
cafe
2419
0000
0000
0109
cafe
2819
0000
0000
0106
cafe
2c19
0000
0000
0103
cafe
3019
0000
0000
0102
cafe
3419
0000
0000
00ff
cafe
3819
0000
0000
00fe
cafe
3c19
0000
0000
0103
cafe
2019
0000
0000
0108
cafe
2419
0000
0000
0107
cafe
2819
0000
0000
0106
cafe
2c19
0000
0000
010a
cafe
3019
0000
0000
010c
cafe
3419
0000
0000
0105
cafe
3819
0000
0000
00fe
cafe
3c19
0000
0000
00f8
cafe
2019
0000
0000
00fd
cafe
2419
0000
0000
0101
cafe
2819
0000
0000
0103
cafe
2c19
0000
0000
0106
cafe
3019
0000
0000
0109
cafe
3419
0000
0000
010e
cafe
3819
0000
0000
010b
cafe
3c19
0000
0000
010b
cafe
2019
0000
0000
00fd
cafe
2419
0000
0000
00f9
cafe
2819
0000
0000
010e
cafe
2c19
0000
0000
0105
cafe
3019
0000
0000
0108
cafe
3419
0000
0000
0103
cafe
3819
0000
0000
0105
cafe
3c19
0000
0000
0108
cafe
2019
0000
0000
00fe
cafe
2419
0000
0000
0105
-
cafe
2819
0000
0000
0103
cafe
2c19
0000
0000
010a
cafe
3019
0000
0000
0110
cafe
3419
0000
0000
010e
cafe
3819
0000
0000
0108
cafe
3c19
0000
0000
010a
cafe
2019
0000
0000
0109
cafe
2419
0000
0000
0105
cafe
2819
0000
0000
0104
cafe
2c19
0000
0000
0107
cafe
3019
0000
0000
010e
cafe
3419
0000
0000
010e
cafe
3819
0000
0000
0103
cafe
3c19
0000
0000
0105
cafe
2019
0000
0000
00fe
cafe
2419
0000
0000
0101
cafe
2819
0000
0000
0109
cafe
2c19
0000
0000
0103
cafe
3019
0000
0000
0107
cafe
3419
0000
0000
0108
cafe
3819
0000
0000
010a
cafe
3c19
0000
0000
0108
cafe
2019
0000
0000
0107
cafe
2419
0000
0000
0105
cafe
2819
0000
0000
0104
cafe
2c19
0000
0000
00ff
cafe
3019
0000
0000
00fb
cafe
3419
0000
0000
00fb
cafe
3819
0000
0000
0102
cafe
3c19
0000
0000
0105
cafe
2019
0000
0000
0100
cafe
2419
0000
0000
00fe
cafe
2819
0000
0000
00fb
cafe
2c19
0000
0000
0106
cafe
3019
0000
0000
0102
cafe
3419
0000
0000
0101
cafe
3819
0000
0000
0100
cafe
3c19
0000
0000
00ff
cafe
2019
0000
0000
00f9
cafe
2419
0000
0000
00fc
cafe
2819
0000
0000
00ff
cafe
2c19
0000
0000
0103
cafe
3019
0000
0000
0101
cafe
3419
0000
0000
0104
cafe
3819
0000
0000
0109
cafe
3c19
0000
0000
0109
cafe
2019
0000
0000
0101
cafe
2419
0000
0000
00f7
cafe
2819
0000
0000
00fd
cafe
2c19
0000
0000
00fb
cafe
3019
0000
0000
0102
cafe
-
3419
0000
0000
00fe
cafe
3819
0000
0000
0104
cafe
3c19
0000
0000
0105
cafe
2019
0000
0000
0107
cafe
2419
0000
0000
0103
cafe
2819
0000
0000
00ff
cafe
2c19
0000
0000
00ff
cafe
3019
0000
0000
00fb
cafe
3419
0000
0000
00fd
cafe
3819
0000
0000
00fe
cafe
3c19
0000
0000
0101
cafe
2019
0000
0000
0104
cafe
2419
0000
0000
010d
cafe
2819
0000
0000
010c
cafe
2c19
0000
0000
010e
cafe
3019
0000
0000
0110
cafe
3419
0000
0000
0113
cafe
3819
0000
0000
010f
cafe
3c19
0000
0000
0110
cafe
2019
0000
0000
010d
cafe
2419
0000
0000
0107
cafe
2819
0000
0000
0109
cafe
2c19
0000
0000
0107
cafe
3019
0000
0000
0111
cafe
3419
0000
0000
010b
cafe
3819
0000
0000
010c
cafe
3c19
0000
0000
010b
cafe
2019
0000
0000
0103
cafe
2419
0000
0000
0103
cafe
2819
0000
0000
0101
cafe
2c19
0000
0000
0106
cafe
3019
0000
0000
0106
cafe
3419
0000
0000
00fd
cafe
3819
0000
0000
00fd
cafe
3c19
0000
0000
00f8
cafe
2019
0000
0000
00fc
cafe
2419
0000
0000
00fb
cafe
2819
0000
0000
00f6
cafe
2c19
0000
0000
00fb
cafe
3019
0000
0000
00f9
cafe
3419
0000
0000
00f2
cafe
3819
0000
0000
00f8
cafe
3c19
0000
0000
00f3
cafe
2019
0000
0000
00f1
cafe
2419
0000
0000
00fd
cafe
2819
0000
0000
00fc
cafe
2c19
0000
0000
0100
cafe
3019
0000
0000
0100
cafe
3419
0000
0000
0103
cafe
3819
0000
0000
0103
cafe
3c19
0000
0000
00fb
cafe
2019
-
0000
0000
00f6
cafe
2419
0000
0000
00f9
cafe
2819
0000
0000
0101
cafe
2c19
0000
0000
0104
cafe
3019
0000
0000
0106
cafe
3419
0000
0000
0103
cafe
3819
0000
0000
00fa
cafe
3c19
0000
0000
00ff
cafe
2019
0000
0000
00fc
cafe
2419
0000
0000
0105
cafe
2819
0000
0000
0105
cafe
2c19
0000
0000
0106
cafe
3019
0000
0000
0102
cafe
3419
0000
0000
0102
cafe
3819
0000
0000
0102
cafe
3c19
0000
0000
0102
cafe
2019
0000
0000
0104
cafe
2419
0000
0000
0100
cafe
2819
0000
0000
0100
cafe
2c19
0000
0000
0103
cafe
3019
0000
0000
0107
cafe
3419
0000
0000
0106
cafe
3819
0000
0000
00f8
cafe
3c19
0000
0000
00ed
cafe
2019
0000
0000
00f5
cafe
2419
0000
0000
00fe
cafe
2819
0000
0000
0100
cafe
2c19
0000
0000
00fe
cafe
3019
0000
0000
00fd
cafe
3419
0000
0000
00fd
cafe
3819
0000
0000
0100
cafe
3c19
0000
0000
00fc
cafe
2019
0000
0000
0101
cafe
2419
0000
0000
0106
cafe
2819
0000
0000
010e
cafe
2c19
0000
0000
0108
cafe
3019
0000
0000
0106
cafe
3419
0000
0000
0103
cafe
3819
0000
0000
0101
cafe
3c19
0000
0000
0101
cafe
2019
0000
0000
00fe
cafe
2419
0000
0000
0103
cafe
2819
0000
0000
0103
cafe
2c19
0000
0000
0102
cafe
3019
0000
0000
0103
cafe
3419
0000
0000
00f7
cafe
3819
0000
0000
00fa
cafe
3c19
0000
0000
00f7
cafe
2019
0000
0000
00fd
cafe
2419
0000
0000
00f7
cafe
2819
0000
0000
00fc
cafe
2c19
0000
-
0000
00fc
cafe
3019
0000
0000
0102
cafe
3419
0000
0000
0102
cafe
3819
0000
0000
0103
cafe
3c19
0000
0000
0109
cafe
2019
0000
0000
0109
cafe
2419
0000
0000
0105
cafe
2819
0000
0000
00fd
cafe
2c19
0000
0000
00fc
cafe
3019
0000
0000
0103
cafe
3419
0000
0000
0103
cafe
3819
0000
0000
00ff
cafe
3c19
0000
0000
00f8
cafe
2019
0000
0000
00fc
cafe
2419
0000
0000
0108
cafe
2819
0000
0000
0104
cafe
2c19
0000
0000
0105
cafe
3019
0000
0000
010b
cafe
3419
0000
0000
0111
cafe
3819
0000
0000
010e
cafe
3c19
0000
0000
010b
cafe
2019
0000
0000
0105
cafe
2419
0000
0000
00fa
cafe
2819
0000
0000
00ff
cafe
2c19
0000
0000
00fc
cafe
3019
0000
0000
00f5
cafe
3419
0000
0000
00f3
cafe
3819
0000
0000
00f6
cafe
3c19
0000
0000
00f9
cafe
2019
0000
0000
00f5
cafe
2419
0000
0000
00fb
cafe
2819
0000
0000
00f9
cafe
2c19
0000
0000
00ff
cafe
3019
0000
0000
0107
cafe
3419
0000
0000
010f
cafe
3819
0000
0000
0105
cafe
3c19
0000
0000
010c
cafe
2019
0000
0000
0106
cafe
2419
0000
0000
0105
cafe
2819
0000
0000
0107
cafe
2c19
0000
0000
0105
cafe
3019
0000
0000
0101
cafe
3419
0000
0000
00fd
cafe
3819
0000
0000
00fe
cafe
3c19
0000
0000
00ff
cafe
2019
0000
0000
00fb
cafe
2419
0000
0000
00fc
cafe
2819
0000
0000
00f8
cafe
2c19
0000
0000
00fd
cafe
3019
0000
0000
00f5
cafe
3419
0000
0000
0103
cafe
3819
0000
0000
-
0106
cafe
3c19
0000
0000
0101
cafe
2019
0000
0000
0105
cafe
2419
0000
0000
0113
cafe
2819
0000
0000
0112
cafe
2c19
0000
0000
0107
cafe
3019
0000
0000
0111
cafe
3419
0000
0000
010d
cafe
3819
0000
0000
010f
cafe
3c19
0000
0000
0108
cafe
2019
0000
0000
010b
cafe
2419
0000
0000
0107
cafe
2819
0000
0000
0104
cafe
2c19
0000
0000
0101
cafe
3019
0000
0000
0109
cafe
3419
0000
0000
010c
cafe
3819
0000
0000
0105
cafe
3c19
0000
0000
0103
cafe
2019
0000
0000
0108
cafe
2419
0000
0000
0105
cafe
2819
0000
0000
0100
cafe
2c19
0000
0000
00fd
cafe
3019
0000
0000
00fe
cafe
3419
0000
0000
00fa
cafe
3819
0000
0000
00fe
cafe
3c19
0000
0000
00f6
cafe
2019
0000
0000
00f7
cafe
2419
0000
0000
00fb
cafe
2819
0000
0000
00fd
cafe
2c19
0000
0000
00f7
cafe
3019
0000
0000
0102
cafe
3419
0000
0000
0105
cafe
3819
0000
0000
010a
cafe
3c19
0000
0000
0109
cafe
2019
0000
0000
00fd
cafe
2419
0000
0000
0102
cafe
2819
0000
0000
0108
cafe
2c19
0000
0000
0100
cafe
3019
0000
0000
00fe
cafe
3419
0000
0000
00f7
cafe
3819
0000
0000
00f4
cafe
3c19
0000
0000
00f6
cafe
2019
0000
0000
00f7
cafe
2419
0000
0000
00f7
cafe
2819
0000
0000
00fb
cafe
2c19
0000
0000
00fd
cafe
3019
0000
0000
00fd
cafe
3419
0000
0000
0103
cafe
3819
0000
0000
0103
cafe
3c19
0000
0000
0101
cafe
2019
0000
0000
0102
cafe
2419
0000
0000
00ff
-
cafe
2819
0000
0000
0102
cafe
2c19
0000
0000
00ff
cafe
3019
0000
0000
0103
cafe
3419
0000
0000
0109
cafe
3819
0000
0000
0102
cafe
3c19
0000
0000
0104
cafe
2019
0000
0000
00ff
cafe
2419
0000
0000
00f7
cafe
2819
0000
0000
00fe
cafe
2c19
0000
0000
0100
cafe
3019
0000
0000
0103
cafe
3419
0000
0000
0106
cafe
3819
0000
0000
010c
cafe
3c19
0000
0000
0104
cafe
2019
0000
0000
0102
cafe
2419
0000
0000
0101
cafe
2819
0000
0000
00ff
cafe
2c19
0000
0000
00fd
cafe
3019
0000
0000
00f7
cafe
3419
0000
0000
00fe
cafe
3819
0000
0000
00ff
cafe
3c19
0000
0000
00fb
cafe
2019
0000
0000
00fa
cafe
2419
0000
0000
00fd
cafe
2819
0000
0000
00fb
cafe
2c19
0000
0000
00f8
cafe
3019
0000
0000
00fd
cafe
3419
0000
0000
00f9
cafe
3819
0000
0000
00f7
cafe
3c19
0000
0000
00f7
cafe
2019
0000
0000
00f8
cafe
2419
0000
0000
00f1
cafe
2819
0000
0000
00f4
cafe
2c19
0000
0000
00f8
cafe
3019
0000
0000
00f9
cafe
3419
0000
0000
00fe
cafe
3819
0000
0000
00fd
cafe
3c19
0000
0000
00f1
cafe
2019
0000
0000
00f7
cafe
2419
0000
0000
00f8
cafe
2819
0000
0000
00f6
cafe
2c19
0000
0000
00f2
cafe
3019
0000
0000
00f4
cafe
3419
0000
0000
00f3
cafe
3819
0000
0000
00fb
cafe
3c19
0000
0000
00f4
cafe
2019
0000
0000
00fc
cafe
2419
0000
0000
00ff
cafe
2819
0000
0000
0108
cafe
2c19
0000
0000
010c
cafe
3019
0000
0000
0107
cafe
-
3419
0000
0000
010e
cafe
3819
0000
0000
010b
cafe
3c19
0000
0000
010f
cafe
2019
0000
0000
010c
cafe
2419
0000
0000
0103
cafe
2819
0000
0000
0105
cafe
2c19
0000
0000
0108
cafe
3019
0000
0000
0102
cafe
3419
0000
0000
010a
cafe
3819
0000
0000
0108
cafe
3c19
0000
0000
0109
cafe
2019
0000
0000
0107
cafe
2419
0000
0000
0106
cafe
2819
0000
0000
0104
cafe
2c19
0000
0000
0104
cafe
3019
0000
0000
00ff
cafe
3419
0000
0000
0103
cafe
3819
0000
0000
0106
cafe
3c19
0000
0000
0107
cafe
2019
0000
0000
0109
cafe
2419
0000
0000
0106
cafe
2819
0000
0000
0102
cafe
2c19
0000
0000
0105
cafe
3019
0000
0000
010a
cafe
3419
0000
0000
0111
cafe
3819
0000
0000
010f
cafe
3c19
0000
0000
0111
cafe
2019
0000
0000
010d
cafe
2419
0000
0000
0111
cafe
2819
0000
0000
010b
cafe
2c19
0000
0000
0105
cafe
3019
0000
0000
0105
cafe
3419
0000
0000
0101
cafe
3819
0000
0000
00fc
cafe
3c19
0000
0000
00f6
cafe
2019
0000
0000
00f7
cafe
2419
0000
0000
00fe
cafe
2819
0000
0000
0106
cafe
2c19
0000
0000
010d
cafe
3019
0000
0000
0106
cafe
3419
0000
0000
010a
cafe
3819
0000
0000
010d
cafe
3c19
0000
0000
0110
cafe
2019
0000
0000
0107
cafe
2419
0000
0000
0103
cafe
2819
0000
0000
0106
cafe
2c19
0000
0000
010b
cafe
3019
0000
0000
010e
cafe
3419
0000
0000
0104
cafe
3819
0000
0000
0102
cafe
3c19
0000
0000
00fa
cafe
2019
-
0000
0000
0101
cafe
2419
0000
0000
0108
cafe
2819
0000
0000
010b
cafe
2c19
0000
0000
010f
cafe
3019
0000
0000
0113
cafe
3419
0000
0000
010a
cafe
3819
0000
0000
010a
cafe
3c19
0000
0000
010f
cafe
2019
0000
0000
0103
cafe
2419
0000
0000
0105
cafe
2819
0000
0000
0107
cafe
2c19
0000
0000
00fe
cafe
3019
0000
0000
0101
cafe
3419
0000
0000
00ff
cafe
3819
0000
0000
00fd
cafe
3c19
0000
0000
0104
cafe
2019
0000
0000
00fe
cafe
2419
0000
0000
0108
cafe
2819
0000
0000
010b
cafe
2c19
0000
0000
010c
cafe
3019
0000
0000
0109
cafe
3419
0000
0000
010f
cafe
3819
0000
0000
0108
cafe
3c19
0000
0000
0109
cafe
2019
0000
0000
010c
cafe
2419
0000
0000
0102
cafe
2819
0000
0000
00fd
cafe
2c19
0000
0000
00fc
cafe
3019
0000
0000
00fe
cafe
3419
0000
0000
00fd
cafe
3819
0000
0000
0105
cafe
3c19
0000
0000
0106
cafe
2019
0000
0000
010b
cafe
2419
0000
0000
00ff
cafe
2819
0000
0000
0102
cafe
2c19
0000
0000
00fd
cafe
3019
0000
0000
00fc
cafe
3419
0000
0000
0109
cafe
3819
0000
0000
0100
cafe
3c19
0000
0000
00fe
cafe
2019
0000
0000
00ff
cafe
2419
0000
0000
00fb
cafe
2819
0000
0000
00fa
cafe
2c19
0000
0000
00ff
cafe
3019
0000
0000
0107
cafe
3419
0000
0000
00fd
cafe
3819
0000
0000
00fa
cafe
3c19
0000
0000
00f7
cafe
2019
0000
0000
00f5
cafe
2419
0000
0000
00fc
cafe
2819
0000
0000
00f6
cafe
2c19
0000
-
0000
00fb
cafe
3019
0000
0000
00f4
cafe
3419
0000
0000
00fc
cafe
3819
0000
0000
00fd
cafe
3c19
0000
0000
00fe
cafe
2019
0000
0000
0101
cafe
2419
0000
0000
00fb
cafe
2819
0000
0000
00f2
cafe
2c19
0000
0000
00ee
cafe
3019
0000
0000
00f2
cafe
3419
0000
0000
00fa
cafe
3819
0000
0000
0100
cafe
3c19
0000
0000
0100
cafe
2019
0000
0000
0104
cafe
2419
0000
0000
0109
cafe
2819
0000
0000
010a
cafe
2c19
0000
0000
010b
cafe
3019
0000
0000
0106
cafe
3419
0000
0000
0105
cafe
3819
0000
0000
0100
cafe
3c19
0000
0000
0106
cafe
2019
0000
0000
010e
cafe
2419
0000
0000
0107
cafe
2819
0000
0000
010b
cafe
2c19
0000
0000
0104
cafe
3019
0000
0000
0108
cafe
3419
0000
0000
0102
cafe
3819
0000
0000
0108
cafe
3c19
0000
0000
0109
cafe
2019
0000
0000
0107
cafe
2419
0000
0000
010c
cafe
2819
0000
0000
010c
cafe
2c19
0000
0000
0104
cafe
3019
0000
0000
00ff
cafe
3419
0000
0000
00fe
cafe
3819
0000
0000
00fc
cafe
3c19
0000
0000
00fd
cafe
2019
0000
0000
00fc
cafe
2419
0000
0000
00f8
cafe
2819
0000
0000
0100
cafe
2c19
0000
0000
00fe
cafe
3019
0000
0000
00ff
cafe
3419
0000
0000
00ff
cafe
3819
0000
0000
00ff
cafe
3c19
0000
0000
0108
cafe
2019
0000
0000
010a
cafe
2419
0000
0000
0103
cafe
2819
0000
0000
00fb
cafe
2c19
0000
0000
00fb
cafe
3019
0000
0000
0105
cafe
3419
0000
0000
0110
cafe
3819
0000
0000
-
0102
cafe
3c19
0000
0000
0103
cafe
2019
0000
0000
0103
cafe
2419
0000
0000
010b
cafe
2819
0000
0000
0105
cafe
2c19
0000
0000
00ff
cafe
3019
0000
0000
00f8
cafe
3419
0000
0000
00ff
cafe
3819
0000
0000
00fe
cafe
3c19
0000
0000
00f6
cafe
2019
0000
0000
00f8
cafe
2419
0000
0000
00f6
cafe
2819
0000
0000
00fe
cafe
2c19
0000
0000
0103
cafe
3019
0000
0000
0103
cafe
3419
0000
0000
0100
cafe
3819
0000
0000
00f6
cafe
3c19
0000
0000
00fc
cafe
2019
0000
0000
00fe
cafe
2419
0000
0000
00fe
cafe
2819
0000
0000
0103
cafe
2c19
0000
0000
0103
cafe
3019
0000
0000
0102
cafe
3419
0000
0000
0108
cafe
3819
0000
0000
010b
cafe
3c19
0000
0000
0106
cafe
2019
0000
0000
0100
cafe
2419
0000
0000
00f9
cafe
2819
0000
0000
0105
cafe
2c19
0000
0000
0105
cafe
3019
0000
0000
0102
cafe
3419
0000
0000
0104
cafe
3819
0000
0000
0106
cafe
3c19
0000
0000
010e
cafe
2019
0000
0000
0114
cafe
2419
0000
0000
0113
cafe
2819
0000
0000
010a
cafe
2c19
0000
0000
010c
cafe
3019
0000
0000
0105
cafe
3419
0000
0000
00f9
cafe
3819
0000
0000
00f7
cafe
3c19
0000
0000
00f5
cafe
2019
0000
0000
0107
cafe
2419
0000
0000
0105
cafe
2819
0000
0000
010b
cafe
2c19
0000
0000
010a
cafe
3019
0000
0000
010e
cafe
3419
0000
0000
0107
cafe
3819
0000
0000
0104
cafe
3c19
0000
0000
0107
cafe
2019
0000
0000
0105
cafe
2419
0000
0000
00fb
-
cafe
2819
0000
0000
00fa
cafe
2c19
0000
0000
00f7
cafe
3019
0000
0000
00fd
cafe
3419
0000
0000
00fb
cafe
3819
0000
0000
00f4
cafe
3c19
0000
0000
00ff
cafe
2019
0000
0000
0104
cafe
2419
0000
0000
0107
cafe
2819
0000
0000
0101
cafe
2c19
0000
0000
0101
cafe
3019
0000
0000
00fe
cafe
3419
0000
0000
0109
cafe
3819
0000
0000
010d
cafe
3c19
0000
0000
0114
cafe
2019
0000
0000
0114
cafe
2419
0000
0000
010b
cafe
2819
0000
0000
0103
cafe
2c19
0000
0000
0103
cafe
3019
0000
0000
0106
cafe
3419
0000
0000
0105
cafe
3819
0000
0000
0105
cafe
3c19
0000
0000
0101
cafe
2019
0000
0000
0100
cafe
2419
0000
0000
0106
cafe
2819
0000
0000
0102
cafe
2c19
0000
0000
0104
cafe
3019
0000
0000
0108
cafe
3419
0000
0000
0108
cafe
3819
0000
0000
0100
cafe
3c19
0000
0000
0103
cafe
2019
0000
0000
0104
cafe
2419
0000
0000
010c
cafe
2819
0000
0000
010b
cafe
2c19
0000
0000
0105
cafe
3019
0000
0000
0100
cafe
3419
0000
0000
00f6
cafe
3819
0000
0000
0100
cafe
3c19
0000
0000
0105
cafe
2019
0000
0000
0102
cafe
2419
0000
0000
010a
cafe
2819
0000
0000
0109
cafe
2c19
0000
0000
0105
cafe
3019
0000
0000
0103
cafe
3419
0000
0000
0109
cafe
3819
0000
0000
010b
cafe
3c19
0000
0000
0101
cafe
2019
0000
0000
0108
cafe
2419
0000
0000
0107
cafe
2819
0000
0000
010a
cafe
2c19
0000
0000
0107
cafe
3019
0000
0000
00fb
cafe
-
3419
0000
0000
00fd
cafe
3819
0000
0000
00fe
cafe
3c19
0000
0000
00fc
cafe
2019
0000
0000
00fa
cafe
2419
0000
0000
00fc
cafe
2819
0000
0000
00fd
cafe
2c19
0000
0000
00f7
cafe
3019
0000
0000
00f4
cafe
3419
0000
0000
00f5
cafe
3819
0000
0000
00fd
cafe
3c19
0000
0000
00ff
cafe
2019
0000
0000
0104
cafe
2419
0000
0000
00ff
cafe
2819
0000
0000
00fa
cafe
2c19
0000
0000
0100
cafe
3019
0000
0000
0106
cafe
3419
0000
0000
0100
cafe
3819
0000
0000
0104
cafe
3c19
0000
0000
00f9
cafe
2019
0000
0000
0102
cafe
2419
0000
0000
00ff
cafe
2819
0000
0000
00fd
cafe
2c19
0000
0000
00fb
cafe
3019
0000
0000
0102
cafe
3419
0000
0000
0101
cafe
3819
0000
0000
00fc
cafe
3c19
0000
0000
00fd
cafe
2019
0000
0000
00fc
cafe
2419
0000
0000
0100
cafe
2819
0000
0000
00fd
cafe
2c19
0000
0000
00fa
cafe
3019
0000
0000
00fa
cafe
3419
0000
0000
00f8
cafe
3819
0000
0000
00fc
cafe
3c19
0000
0000
00f9
cafe
2019
0000
0000
00f8
cafe
2419
0000
0000
00f4
cafe
2819
0000
0000
00f8
cafe
2c19
0000
0000
0102
cafe
3019
0000
0000
0106
cafe
3419
0000
0000
0101
cafe
3819
0000
0000
00f9
cafe
3c19
0000
0000
00ff
cafe
2019
0000
0000
0103
cafe
2419
0000
0000
00fd
cafe
2819
0000
0000
0101
cafe
2c19
0000
0000
0100
cafe
3019
0000
0000
010a
cafe
3419
0000
0000
0106
cafe
3819
0000
0000
0103
cafe
3c19
0000
0000
010c
cafe
2019
-
0000
0000
0111
cafe
2419
0000
0000
0111
cafe
2819
0000
0000
010f
cafe
2c19
0000
0000
0106
cafe
3019
0000
0000
0103
cafe
3419
0000
0000
0103
cafe
3819
0000
0000
0105
cafe
3c19
0000
0000
00ff
cafe
2019
0000
0000
0105
cafe
2419
0000
0000
00f7
cafe
2819
0000
0000
00f5
cafe
2c19
0000
0000
0102
cafe
3019
0000
0000
00fd
cafe
3419
0000
0000
0106
cafe
3819
0000
0000
0107
cafe
3c19
0000
0000
010b
cafe
2019
0000
0000
010e
cafe
2419
0000
0000
010d
cafe
2819
0000
0000
0100
cafe
2c19
0000
0000
0104
cafe
3019
0000
0000
0107
cafe
3419
0000
0000
010b
cafe
3819
0000
0000
0112
cafe
3c19
0000
0000
0108
cafe
2019
0000
0000
0108
cafe
2419
0000
0000
0102
cafe
2819
0000
0000
00f7
cafe
2c19
0000
0000
0103
cafe
3019
0000
0000
0103
cafe
3419
0000
0000
0105
cafe
3819
0000
0000
010b
cafe
3c19
0000
0000
0107
cafe
2019
0000
0000
0103
cafe
2419
0000
0000
010d
cafe
2819
0000
0000
0109
cafe
2c19
0000
0000
0102
cafe
3019
0000
0000
0109
cafe
3419
0000
0000
010d
cafe
3819
0000
0000
010c
cafe
3c19
0000
0000
010c
cafe
2019
0000
0000
00fe
cafe
2419
0000
0000
0107
cafe
2819
0000
0000
0100
cafe
2c19
0000
0000
0108
cafe
3019
0000
0000
0105
cafe
3419
0000
0000
0102
cafe
3819
0000
0000
0104
cafe
3c19
0000
0000
0100
cafe
2019
0000
0000
00f8
cafe
2419
0000
0000
00f5
cafe
2819
0000
0000
00f6
cafe
2c19
0000
-
0000
00fb
cafe
3019
0000
0000
00ff
cafe
3419
0000
0000
0100
cafe
3819
0000
0000
0101
cafe
3c19
0000
0000
00ff
cafe
2019
0000
0000
0103
cafe
2419
0000
0000
0110
cafe
2819
0000
0000
0109
cafe
2c19
0000
0000
010c
cafe
3019
0000
0000
0107
cafe
3419
0000
0000
0107
cafe
3819
0000
0000
00fe
cafe
3c19
0000
0000
0102
cafe
2019
0000
0000
0106
cafe
2419
0000
0000
0100
cafe
2819
0000
0000
0107
cafe
2c19
0000
0000
0102
cafe
3019
0000
0000
00fa
cafe
3419
0000
0000
0100
cafe
3819
0000
0000
00fd
cafe
3c19
0000
0000
0105
cafe
2019
0000
0000
0111
cafe
2419
0000
0000
010e
cafe
2819
0000
0000
0103
cafe
2c19
0000
0000
0102
cafe
3019
0000
0000
0100
cafe
3419
0000
0000
00fc
cafe
3819
0000
0000
00fe
cafe
3c19
0000
0000
00f8
cafe
2019
0000
0000
00fc
cafe
2419
0000
0000
010b
cafe
2819
0000
0000
010c
cafe
2c19
0000
0000
010c
cafe
3019
0000
0000
010a
cafe
3419
0000
0000
010e
cafe
3819
0000
0000
0108
cafe
3c19
0000
0000
0106
cafe
2019
0000
0000
0104
cafe
2419
0000
0000
0102
cafe
2819
0000
0000
00ff
cafe
2c19
0000
0000
0102
cafe
3019
0000
0000
010a
cafe
3419
0000
0000
0109
cafe
3819
0000
0000
010f
cafe
3c19
0000
0000
0112
cafe
2019
0000
0000
0119
cafe
2419
0000
0000
0113
cafe
2819
0000
0000
0113
cafe
2c19
0000
0000
0117
cafe
3019
0000
0000
0115
cafe
3419
0000
0000
0113
cafe
3819
0000
0000
-
0110
cafe
3c19
0000
0000
0105
cafe
2019
0000
0000
0102
cafe
2419
0000
0000
00f9
cafe
2819
0000
0000
0103
cafe
2c19
0000
0000
0100
cafe
3019
0000
0000
0103
cafe
3419
0000
0000
0106
cafe
3819
0000
0000
010f
cafe
3c19
0000
0000
010a
cafe
2019
0000
0000
010a
cafe
2419
0000
0000
0101
cafe
2819
0000
0000
0101
cafe
2c19
0000
0000
00fa
cafe
3019
0000
0000
0103
cafe
3419
0000
0000
0107
cafe
3819
0000
0000
010a
cafe
3c19
0000
0000
010c
cafe
2019
0000
0000
010a
cafe
2419
0000
0000
010a
cafe
2819
0000
0000
00ff
cafe
2c19
0000
0000
00fd
cafe
3019
0000
0000
0101
cafe
3419
0000
0000
0101
cafe
3819
0000
0000
00ff
cafe
3c19
0000
0000
00fc
cafe
2019
0000
0000
0101
cafe
2419
0000
0000
0100
cafe
2819
0000
0000
00fc
cafe
2c19
0000
0000
00fd
cafe
3019
0000
0000
00f6
cafe
3419
0000
0000
00fd
cafe
3819
0000
0000
00f8
cafe
3c19
0000
0000
00fa
cafe
2019
0000
0000
00fb
cafe
2419
0000
0000
00f7
cafe
2819
0000
0000
00f0
cafe
2c19
0000
0000
00f3
cafe
3019
0000
0000
00fc
cafe
3419
0000
0000
00fb
cafe
3819
0000
0000
00fe
cafe
3c19
0000
0000
00fd
cafe
2019
0000
0000
00fc
cafe
2419
0000
0000
00f2
cafe
2819
0000
0000
00f7
cafe
2c19
0000
0000
00ff
cafe
3019
0000
0000
0100
cafe
3419
0000
0000
00fb
cafe
3819
0000
0000
00f5
cafe
3c19
0000
0000
00f7
cafe
2019
0000
0000
00fe
cafe
2419
0000
0000
00f9
-
cafe
2819
0000
0000
00f6
cafe
2c19
0000
0000
00ff
cafe
3019
0000
0000
0100
cafe
3419
0000
0000
0105
cafe
3819
0000
0000
00ff
cafe
3c19
0000
0000
00fa
cafe
2019
0000
0000
0102
cafe
2419
0000
0000
00fe
cafe
2819
0000
0000
0103
cafe
2c19
0000
0000
0109
cafe
3019
0000
0000
010c
cafe
3419
0000
0000
0108
cafe
3819
0000
0000
0104
cafe
3c19
0000
0000
0106
cafe
2019
0000
0000
0102
cafe
2419
0000
0000
0104
cafe
2819
0000
0000
0106
cafe
2c19
0000
0000
0109
cafe
3019
0000
0000
010a
cafe
3419
0000
0000
010b
cafe
3819
0000
0000
0110
cafe
3c19
0000
0000
010b
cafe
2019
0000
0000
010f
cafe
2419
0000
0000
0105
cafe
2819
0000
0000
010b
cafe
2c19
0000
0000
010e
cafe
3019
0000
0000
010b
cafe
3419
0000
0000
0116
cafe
3819
0000
0000
010f
cafe
3c19
0000
0000
0108
cafe
2019
0000
0000
00fd
cafe
2419
0000
0000
00ff
cafe
2819
0000
0000
0101
cafe
2c19
0000
0000
00fc
cafe
3019
0000
0000
00f8
cafe
3419
0000
0000
00f8
cafe
3819
0000
0000
00fe
cafe
3c19
0000
0000
0109
cafe
2019
0000
0000
0105
cafe
2419
0000
0000
0101
cafe
2819
0000
0000
00ff
cafe
2c19
0000
0000
0102
cafe
3019
0000
0000
00fa
cafe
3419
0000
0000
00fe
cafe
3819
0000
0000
00f6
cafe
3c19
0000
0000
00fb
cafe
2019
0000
0000
0104
cafe
2419
0000
0000
0102
cafe
2819
0000
0000
0105
cafe
2c19
0000
0000
0103
cafe
3019
0000
0000
0101
cafe
-
3419
0000
0000
0103
cafe
3819
0000
0000
0107
cafe
3c19
0000
0000
010e
cafe
2019
0000
0000
010b
cafe
2419
0000
0000
0107
cafe
2819
0000
0000
0102
cafe
2c19
0000
0000
0103
cafe
3019
0000
0000
0108
cafe
3419
0000
0000
010b
cafe
3819
0000
0000
0102
cafe
3c19
0000
0000
0103
cafe
2019
0000
0000
0108
cafe
2419
0000
0000
0102
cafe
2819
0000
0000
0100
cafe
2c19
0000
0000
0103
cafe
3019
0000
0000
0107
cafe
3419
0000
0000
010f
cafe
3819
0000
0000
010c
cafe
3c19
0000
0000
0107
cafe
2019
0000
0000
0104
cafe
2419
0000
0000
0101
cafe
2819
0000
0000
00fb
cafe
2c19
0000
0000
0102
cafe
3019
0000
0000
0103
cafe
3419
0000
0000
00fe
cafe
3819
0000
0000
0104
cafe
3c19
0000
0000
00fd
cafe
2019
0000
0000
00f9
cafe
2419
0000
0000
00fb
cafe
2819
0000
0000
00f7
cafe
2c19
0000
0000
00f8
cafe
3019
0000
0000
0100
cafe
3419
0000
0000
0104
cafe
3819
0000
0000
010b
cafe
3c19
0000
0000
0110
cafe
2019
0000
0000
0109
cafe
2419
0000
0000
0101
cafe
2819
0000
0000
0111
cafe
2c19
0000
0000
0117
cafe
3019
0000
0000
0113
cafe
3419
0000
0000
0109
cafe
3819
0000
0000
0109
cafe
3c19
0000
0000
0106
cafe
2019
0000
0000
010e
cafe
2419
0000
0000
0108
cafe
2819
0000
0000
0104
cafe
2c19
0000
0000
010a
cafe
3019
0000
0000
0103
cafe
3419
0000
0000
0100
cafe
3819
0000
0000
0103
cafe
3c19
0000
0000
010a
cafe
2019
-
0000
0000
010e
cafe
2419
0000
0000
0100
cafe
2819
0000
0000
00ff
cafe
2c19
0000
0000
00f8
cafe
3019
0000
0000
00f9
cafe
3419
0000
0000
00ff
cafe
3819
0000
0000
00fe
cafe
3c19
0000
0000
00fa
cafe
2019
0000
0000
00fb
cafe
2419
0000
0000
00fd
cafe
2819
0000
0000
00fe
cafe
2c19
0000
0000
00fa
cafe
3019
0000
0000
0104
cafe
3419
0000
0000
0104
cafe
3819
0000
0000
010c
cafe
3c19
0000
0000
0110
cafe
2019
0000
0000
0116
cafe
2419
0000
0000
010f
cafe
2819
0000
0000
0105
cafe
2c19
0000
0000
0102
cafe
3019
0000
0000
0105
cafe
3419
0000
0000
010b
cafe
3819
0000
0000
0107
cafe
3c19
0000
0000
0108
cafe
2019
0000
0000
0107
cafe
2419
0000
0000
0100
cafe
2819
0000
0000
00fe
cafe
2c19
0000
0000
00f9
cafe
3019
0000
0000
00fc
cafe
3419
0000
0000
00fe
cafe
3819
0000
0000
0108
cafe
3c19
0000
0000
0101
cafe
2019
0000
0000
00ff
cafe
2419
0000
0000
0102
cafe
2819
0000
0000
00fe
cafe
2c19
0000
0000
00f9
cafe
3019
0000
0000
00f5
cafe
3419
0000
0000
00f1
cafe
3819
0000
0000
00f1
cafe
3c19
0000
0000
00ec
cafe
2019
0000
0000
00ee
cafe
2419
0000
0000
00f1
cafe
2819
0000
0000
00ef
cafe
2c19
0000
0000
00f3
cafe
3019
0000
0000
00f9
cafe
3419
0000
0000
00fa
cafe
3819
0000
0000
0103
cafe
3c19
0000
0000
00fb
cafe
2019
0000
0000
00fb
cafe
2419
0000
0000
0103
cafe
2819
0000
0000
0102
cafe
2c19
0000
-
0000
00fc
cafe
3019
0000
0000
0100
cafe
3419
0000
0000
00fa
cafe
3819
0000
0000
00f9
cafe
3c19
0000
0000
00fb
cafe
2019
0000
0000
00fd
cafe
2419
0000
0000
00f6
cafe
2819
0000
0000
00fa
cafe
2c19
0000
0000
0101
cafe
3019
0000
0000
0105
cafe
3419
0000
0000
0103
cafe
3819
0000
0000
0104
cafe
3c19
0000
0000
010a
cafe
2019
0000
0000
010b
cafe
2419
0000
0000
0104
cafe
2819
0000
0000
0109
cafe
2c19
0000
0000
0102
cafe
3019
0000
0000
00f8
cafe
3419
0000
0000
00f7
cafe
3819
0000
0000
00f3
cafe
3c19
0000
0000
00fb
cafe
2019
0000
0000
0102
cafe
2419
0000
0000
0102
cafe
2819
0000
0000
0105
cafe
2c19
0000
0000
0108
cafe
3019
0000
0000
0106
cafe
3419
0000
0000
00fb
cafe
3819
0000
0000
00fb
cafe
3c19
0000
0000
00f7
cafe
2019
0000
0000
0107
cafe
2419
0000
0000
0103
cafe
2819
0000
0000
0103
cafe
2c19
0000
0000
00fe
cafe
3019
0000
0000
00fc
cafe
3419
0000
0000
00f9
cafe
3819
0000
0000
00fb
cafe
3c19
0000
0000
00f9
cafe
2019
0000
0000
0108
cafe
2419
0000
0000
0104
cafe
2819
0000
0000
00fe
cafe
2c19
0000
0000
00fa
cafe
3019
0000
0000
00fe
cafe
3419
0000
0000
010c
cafe
3819
0000
0000
010a
cafe
3c19
0000
0000
00fc
cafe
2019
0000
0000
0102
cafe
2419
0000
0000
010b
cafe
2819
0000
0000
0111
cafe
2c19
0000
0000
010c
cafe
3019
0000
0000
0109
cafe
3419
0000
0000
0104
cafe
3819
0000
0000
-
0104
cafe
3c19
0000
0000
0100
cafe
2019
0000
0000
00fc
cafe
2419
0000
0000
00ff
cafe
2819
0000
0000
00fc
cafe
2c19
0000
0000
0105
cafe
3019
0000
0000
0106
cafe
3419
0000
0000
0103
cafe
3819
0000
0000
010b
cafe
3c19
0000
0000
0106
cafe
2019
0000
0000
0108
cafe
2419
0000
0000
0109
cafe
2819
0000
0000
010f
cafe
2c19
0000
0000
010c
cafe
3019
0000
0000
0102
cafe
3419
0000
0000
0103
cafe
3819
0000
0000
0104
cafe
3c19
0000
0000
0102
cafe
2019
0000
0000
0108
cafe
2419
0000
0000
0108
cafe
2819
0000
0000
0103
cafe
2c19
0000
0000
0100
cafe
3019
0000
0000
00fd
cafe
3419
0000
0000
0107
cafe
3819
0000
0000
010a
cafe
3c19
0000
0000
0108
cafe
2019
0000
0000
010e
cafe
2419
0000
0000
0109
cafe
2819
0000
0000
010f
cafe
2c19
0000
0000
0113
cafe
3019
0000
0000
010d
cafe
3419
0000
0000
0110
cafe
3819
0000
0000
0114
cafe
3c19
0000
0000
0114
cafe
2019
0000
0000
0117
cafe
2419
0000
0000
0111
cafe
2819
0000
0000
0114
cafe
2c19
0000
0000
010b
cafe
3019
0000
0000
010c
cafe
3419
0000
0000
010f
cafe
3819
0000
0000
0109
cafe
3c19
0000
0000
0105
cafe
2019
0000
0000
0103
cafe
2419
0000
0000
0102
cafe
2819
0000
0000
00ff
cafe
2c19
0000
0000
0105
cafe
3019
0000
0000
00fe
cafe
3419
0000
0000
0100
cafe
3819
0000
0000
0102
cafe
3c19
0000
0000
010a
cafe
2019
0000
0000
010b
cafe
2419
0000
0000
0104
-
