2c15
0000
0000
00bd
cafe
300e
0000
0000
0156
cafe
341e
0000
0000
01ec
cafe
3806
0000
0000
0134
cafe
3c16
0000
0000
0099
cafe
200f
0000
0000
01d0
cafe
241f
0000
0000
0101
cafe
2807
0000
0000
0120
cafe
2c17
0000
0000
00fd
cafe
3008
0000
0000
0176
cafe
3418
0000
0000
00cc
cafe
3800
0000
0000
00c0
cafe
3c10
0000
0000
00c6
cafe
2009
0000
0000
014f
cafe
2419
0000
0000
008a
cafe
2801
0000
0000
014d
cafe
2c11
0000
0000
01cf
cafe
300a
0000
0000
015f
cafe
341a
0000
0000
01e5
cafe
3802
0000
0000
010f
cafe
3c12
0000
0000
00de
cafe
200b
0000
0000
0167
cafe
241b
0000
0000
0194
cafe
2803
0000
0000
0178
cafe
2c13
0000
0000
0195
cafe
300c
0000
0000
0134
cafe
341c
0000
0000
014b
cafe
3804
0000
0000
0116
cafe
3c14
0000
0000
0103
cafe
200d
0000
0000
00d1
cafe
241d
0000
0000
01bd
cafe
2805
0000
0000
014c
cafe
2c15
0000
0000
00b8
cafe
300e
0000
0000
0157
cafe
341e
0000
0000
01f4
cafe
3806
0000
0000
012a
cafe
3c16
0000
0000
0098
cafe
200f
0000
0000
01d0
cafe
241f
0000
0000
00f8
cafe
2807
0000
0000
0120
cafe
2c17
0000
0000
0104
cafe
3008
0000
0000
017d
cafe
3418
0000
0000
00cd
cafe
3800
0000
0000
00c4
cafe
3c10
0000
0000
00c3
cafe
2009
0000
0000
014e
cafe
2419
0000
0000
0091
cafe
2801
0000
0000
0150
cafe
2c11
0000
0000
01d3
cafe
300a
0000
0000
0164
cafe
341a
0000
0000
01e7
cafe
3802
-
0000
0000
0110
cafe
3c12
0000
0000
00e8
cafe
200b
0000
0000
0164
cafe
241b
0000
0000
018e
cafe
2803
0000
0000
0179
cafe
2c13
0000
0000
0192
cafe
300c
0000
0000
0131
cafe
341c
0000
0000
014f
cafe
3804
0000
0000
011d
cafe
3c14
0000
0000
0105
cafe
200d
0000
0000
00d2
cafe
241d
0000
0000
01bb
cafe
2805
0000
0000
014c
cafe
2c15
0000
0000
00bc
cafe
300e
0000
0000
0156
cafe
341e
0000
0000
01ef
cafe
3806
0000
0000
012e
cafe
3c16
0000
0000
0094
cafe
200f
0000
0000
01cf
cafe
241f
0000
0000
0100
cafe
2807
0000
0000
0127
cafe
2c17
0000
0000
0106
cafe
3008
0000
0000
0178
cafe
3418
0000
0000
00cd
cafe
3800
0000
0000
00bb
cafe
3c10
0000
0000
00c7
cafe
2009
0000
0000
0152
cafe
2419
0000
0000
008c
cafe
2801
0000
0000
0159
cafe
2c11
0000
0000
01d0
cafe
300a
0000
0000
0167
cafe
341a
0000
0000
01e8
cafe
3802
0000
0000
010c
cafe
3c12
0000
0000
00e3
cafe
200b
0000
0000
0164
cafe
241b
0000
0000
0189
cafe
2803
0000
0000
0185
cafe
2c13
0000
0000
0194
cafe
300c
0000
0000
0138
cafe
341c
0000
0000
014d
cafe
3804
0000
0000
0115
cafe
3c14
0000
0000
0108
cafe
200d
0000
0000
00d4
cafe
241d
0000
0000
01b7
cafe
2805
0000
0000
014f
cafe
2c15
0000
0000
00b9
cafe
300e
0000
0000
0150
cafe
341e
0000
0000
01f5
cafe
3806
0000
0000
012f
cafe
3c16
0000
0000
009a
cafe
200f
0000
0000
01d0
cafe
241f
0000
-
0000
0106
cafe
2807
0000
0000
0128
cafe
2c17
0000
0000
0104
cafe
3008
0000
0000
0179
cafe
3418
0000
0000
00cf
cafe
3800
0000
0000
00bb
cafe
3c10
0000
0000
00c2
cafe
2009
0000
0000
0155
cafe
2419
0000
0000
008a
cafe
2801
0000
0000
014f
cafe
2c11
0000
0000
01c6
cafe
300a
0000
0000
0164
cafe
341a
0000
0000
01f2
cafe
3802
0000
0000
0109
cafe
3c12
0000
0000
00e8
cafe
200b
0000
0000
0165
cafe
241b
0000
0000
0194
cafe
2803
0000
0000
0184
cafe
2c13
0000
0000
019b
cafe
300c
0000
0000
0137
cafe
341c
0000
0000
0140
cafe
3804
0000
0000
0116
cafe
3c14
0000
0000
010b
cafe
200d
0000
0000
00d3
cafe
241d
0000
0000
01b1
cafe
2805
0000
0000
0151
cafe
2c15
0000
0000
00c1
cafe
300e
0000
0000
015c
cafe
341e
0000
0000
01f4
cafe
3806
0000
0000
012f
cafe
3c16
0000
0000
009b
cafe
200f
0000
0000
01cf
cafe
241f
0000
0000
0109
cafe
2807
0000
0000
0127
cafe
2c17
0000
0000
0101
cafe
3008
0000
0000
0175
cafe
3418
0000
0000
00ce
cafe
3800
0000
0000
00bf
cafe
3c10
0000
0000
00c4
cafe
2009
0000
0000
0151
cafe
2419
0000
0000
008b
cafe
2801
0000
0000
014f
cafe
2c11
0000
0000
01c1
cafe
300a
0000
0000
016a
cafe
341a
0000
0000
01e9
cafe
3802
0000
0000
0108
cafe
3c12
0000
0000
00e2
cafe
200b
0000
0000
0162
cafe
241b
0000
0000
0195
cafe
2803
0000
0000
0188
cafe
2c13
0000
0000
018f
cafe
300c
0000
0000
-
013e
cafe
341c
0000
0000
014a
cafe
3804
0000
0000
011f
cafe
3c14
0000
0000
010f
cafe
200d
0000
0000
00d9
cafe
241d
0000
0000
01b0
cafe
2805
0000
0000
014e
cafe
2c15
0000
0000
00c2
cafe
300e
0000
0000
0163
cafe
341e
0000
0000
01ee
cafe
3806
0000
0000
0130
cafe
3c16
0000
0000
0090
cafe
200f
0000
0000
01d3
cafe
241f
0000
0000
0108
cafe
2807
0000
0000
0128
cafe
2c17
0000
0000
00fe
cafe
3008
0000
0000
0173
cafe
3418
0000
0000
00cf
cafe
3800
0000
0000
00c2
cafe
3c10
0000
0000
00c5
cafe
2009
0000
0000
0156
cafe
2419
0000
0000
0091
cafe
2801
0000
0000
0152
cafe
2c11
0000
0000
01c5
cafe
300a
0000
0000
016d
cafe
341a
0000
0000
01ea
cafe
3802
0000
0000
010c
cafe
3c12
0000
0000
00e8
cafe
200b
0000
0000
0163
cafe
241b
0000
0000
01a0
cafe
2803
0000
0000
0181
cafe
2c13
0000
0000
0192
cafe
300c
0000
0000
0137
cafe
341c
0000
0000
0148
cafe
3804
0000
0000
0115
cafe
3c14
0000
0000
0105
cafe
200d
0000
0000
00de
cafe
241d
0000
0000
01b9
cafe
2805
0000
0000
014f
cafe
2c15
0000
0000
00c4
cafe
300e
0000
0000
0162
cafe
341e
0000
0000
01f2
cafe
3806
0000
0000
0139
cafe
3c16
0000
0000
0096
cafe
200f
0000
0000
01c9
cafe
241f
0000
0000
0102
cafe
2807
0000
0000
0124
cafe
2c17
0000
0000
00fd
cafe
3008
0000
0000
0179
cafe
3418
0000
0000
00d3
cafe
3800
0000
0000
00c4
cafe
3c10
0000
0000
00c9
-
cafe
2009
0000
0000
015e
cafe
2419
0000
0000
0086
cafe
2801
0000
0000
014f
cafe
2c11
0000
0000
01c6
cafe
300a
0000
0000
016c
cafe
341a
0000
0000
01e8
cafe
3802
0000
0000
0112
cafe
3c12
0000
0000
00ef
cafe
200b
0000
0000
015e
cafe
241b
0000
0000
0199
cafe
2803
0000
0000
017d
cafe
2c13
0000
0000
0193
cafe
300c
0000
0000
0134
cafe
341c
0000
0000
014c
cafe
3804
0000
0000
0118
cafe
3c14
0000
0000
010a
cafe
200d
0000
0000
00d1
cafe
241d
0000
0000
01ba
cafe
2805
0000
0000
0150
cafe
2c15
0000
0000
00b6
cafe
300e
0000
0000
0164
cafe
341e
0000
0000
01e8
cafe
3806
0000
0000
0131
cafe
3c16
0000
0000
009a
cafe
200f
0000
0000
01d5
cafe
241f
0000
0000
0109
cafe
2807
0000
0000
011c
cafe
2c17
0000
0000
0102
cafe
3008
0000
0000
0181
cafe
3418
0000
0000
00d8
cafe
3800
0000
0000
00cb
cafe
3c10
0000
0000
00c9
cafe
2009
0000
0000
015f
cafe
2419
0000
0000
0091
cafe
2801
0000
0000
0152
cafe
2c11
0000
0000
01cc
cafe
300a
0000
0000
0168
cafe
341a
0000
0000
01ec
cafe
3802
0000
0000
0108
cafe
3c12
0000
0000
00eb
cafe
200b
0000
0000
0155
cafe
241b
0000
0000
0191
cafe
2803
0000
0000
0180
cafe
2c13
0000
0000
0194
cafe
300c
0000
0000
013f
cafe
341c
0000
0000
014f
cafe
3804
0000
0000
0123
cafe
3c14
0000
0000
0110
cafe
200d
0000
0000
00d8
cafe
241d
0000
0000
01bb
cafe
2805
0000
0000
0148
cafe
-
2c15
0000
0000
00b8
cafe
300e
0000
0000
015d
cafe
341e
0000
0000
01e7
cafe
3806
0000
0000
0137
cafe
3c16
0000
0000
009f
cafe
200f
0000
0000
01d1
cafe
241f
0000
0000
010b
cafe
2807
0000
0000
0117
cafe
2c17
0000
0000
00f7
cafe
3008
0000
0000
0181
cafe
3418
0000
0000
00d5
cafe
3800
0000
0000
00c7
cafe
3c10
0000
0000
00c7
cafe
2009
0000
0000
0156
cafe
2419
0000
0000
0087
cafe
2801
0000
0000
0146
cafe
2c11
0000
0000
01cd
cafe
300a
0000
0000
0162
cafe
341a
0000
0000
01ef
cafe
3802
0000
0000
010c
cafe
3c12
0000
0000
00e8
cafe
200b
0000
0000
0158
cafe
241b
0000
0000
0193
cafe
2803
0000
0000
0180
cafe
2c13
0000
0000
018a
cafe
300c
0000
0000
0140
cafe
341c
0000
0000
014f
cafe
3804
0000
0000
0128
cafe
3c14
0000
0000
010d
cafe
200d
0000
0000
00cf
cafe
241d
0000
0000
01b6
cafe
2805
0000
0000
0148
cafe
2c15
0000
0000
00b0
cafe
300e
0000
0000
014d
cafe
341e
0000
0000
01dc
cafe
3806
0000
0000
0134
cafe
3c16
0000
0000
0098
cafe
200f
0000
0000
01d5
cafe
241f
0000
0000
010f
cafe
2807
0000
0000
011c
cafe
2c17
0000
0000
0100
cafe
3008
0000
0000
017b
cafe
3418
0000
0000
00d3
cafe
3800
0000
0000
00c4
cafe
3c10
0000
0000
00c4
cafe
2009
0000
0000
0157
cafe
2419
0000
0000
0088
cafe
2801
0000
0000
013e
cafe
2c11
0000
0000
01d9
cafe
300a
0000
0000
015e
cafe
341a
0000
0000
01f4
cafe
3802
-
0000
0000
0112
cafe
3c12
0000
0000
00ef
cafe
200b
0000
0000
015a
cafe
241b
0000
0000
018f
cafe
2803
0000
0000
0185
cafe
2c13
0000
0000
018e
cafe
300c
0000
0000
0148
cafe
341c
0000
0000
014e
cafe
3804
0000
0000
0127
cafe
3c14
0000
0000
0107
cafe
200d
0000
0000
00c7
cafe
241d
0000
0000
01b3
cafe
2805
0000
0000
014b
cafe
2c15
0000
0000
00b5
cafe
300e
0000
0000
0147
cafe
341e
0000
0000
01db
cafe
3806
0000
0000
0135
cafe
3c16
0000
0000
0093
cafe
200f
0000
0000
01d6
cafe
241f
0000
0000
0113
cafe
2807
0000
0000
0118
cafe
2c17
0000
0000
0101
cafe
3008
0000
0000
017b
cafe
3418
0000
0000
00d9
cafe
3800
0000
0000
00c4
cafe
3c10
0000
0000
00bd
cafe
2009
0000
0000
015d
cafe
2419
0000
0000
008b
cafe
2801
0000
0000
013d
cafe
2c11
0000
0000
01da
cafe
300a
0000
0000
0161
cafe
341a
0000
0000
01f3
cafe
3802
0000
0000
010c
cafe
3c12
0000
0000
00ef
cafe
200b
0000
0000
015b
cafe
241b
0000
0000
018c
cafe
2803
0000
0000
017b
cafe
2c13
0000
0000
0190
cafe
300c
0000
0000
0144
cafe
341c
0000
0000
0147
cafe
3804
0000
0000
0127
cafe
3c14
0000
0000
0114
cafe
200d
0000
0000
00c7
cafe
241d
0000
0000
01b6
cafe
2805
0000
0000
014e
cafe
2c15
0000
0000
00b6
cafe
300e
0000
0000
014c
cafe
341e
0000
0000
01e0
cafe
3806
0000
0000
0135
cafe
3c16
0000
0000
0096
cafe
200f
0000
0000
01cf
cafe
241f
0000
-
0000
011c
cafe
2807
0000
0000
011c
cafe
2c17
0000
0000
00f6
cafe
3008
0000
0000
017a
cafe
3418
0000
0000
00db
cafe
3800
0000
0000
00cd
cafe
3c10
0000
0000
00c1
cafe
2009
0000
0000
015d
cafe
2419
0000
0000
008d
cafe
2801
0000
0000
013f
cafe
2c11
0000
0000
01d6
cafe
300a
0000
0000
015c
cafe
341a
0000
0000
01f7
cafe
3802
0000
0000
010c
cafe
3c12
0000
0000
00f3
cafe
200b
0000
0000
015b
cafe
241b
0000
0000
0186
cafe
2803
0000
0000
017a
cafe
2c13
0000
0000
0186
cafe
300c
0000
0000
014a
cafe
341c
0000
0000
0146
cafe
3804
0000
0000
011f
cafe
3c14
0000
0000
0115
cafe
200d
0000
0000
00cc
cafe
241d
0000
0000
01b1
cafe
2805
0000
0000
014e
cafe
2c15
0000
0000
00b7
cafe
300e
0000
0000
0145
cafe
341e
0000
0000
01ed
cafe
3806
0000
0000
0132
cafe
3c16
0000
0000
0096
cafe
200f
0000
0000
01d7
cafe
241f
0000
0000
010c
cafe
2807
0000
0000
0119
cafe
2c17
0000
0000
00ff
cafe
3008
0000
0000
0173
cafe
3418
0000
0000
00e0
cafe
3800
0000
0000
00c9
cafe
3c10
0000
0000
00bc
cafe
2009
0000
0000
015c
cafe
2419
0000
0000
007f
cafe
2801
0000
0000
0140
cafe
2c11
0000
0000
01cc
cafe
300a
0000
0000
015e
cafe
341a
0000
0000
0200
cafe
3802
0000
0000
010c
cafe
3c12
0000
0000
00f6
cafe
200b
0000
0000
015b
cafe
241b
0000
0000
018b
cafe
2803
0000
0000
0184
cafe
2c13
0000
0000
018d
cafe
300c
0000
0000
-
0145
cafe
341c
0000
0000
0156
cafe
3804
0000
0000
011b
cafe
3c14
0000
0000
0118
cafe
200d
0000
0000
00c9
cafe
241d
0000
0000
01b3
cafe
2805
0000
0000
014f
cafe
2c15
0000
0000
00af
cafe
300e
0000
0000
014e
cafe
341e
0000
0000
01ee
cafe
3806
0000
0000
013c
cafe
3c16
0000
0000
009b
cafe
200f
0000
0000
01e2
cafe
241f
0000
0000
00fe
cafe
2807
0000
0000
011e
cafe
2c17
0000
0000
0103
cafe
3008
0000
0000
0171
cafe
3418
0000
0000
00de
cafe
3800
0000
0000
00d3
cafe
3c10
0000
0000
00bf
cafe
2009
0000
0000
0162
cafe
2419
0000
0000
008b
cafe
2801
0000
0000
0139
cafe
2c11
0000
0000
01d2
cafe
300a
0000
0000
0165
cafe
341a
0000
0000
01f7
cafe
3802
0000
0000
0114
cafe
3c12
0000
0000
00f2
cafe
200b
0000
0000
0166
cafe
241b
0000
0000
0187
cafe
2803
0000
0000
017e
cafe
2c13
0000
0000
019c
cafe
300c
0000
0000
0144
cafe
341c
0000
0000
0151
cafe
3804
0000
0000
011d
cafe
3c14
0000
0000
011a
cafe
200d
0000
0000
00cc
cafe
241d
0000
0000
01b7
cafe
2805
0000
0000
0158
cafe
2c15
0000
0000
00b5
cafe
300e
0000
0000
0156
cafe
341e
0000
0000
01ec
cafe
3806
0000
0000
0135
cafe
3c16
0000
0000
0097
cafe
200f
0000
0000
01d2
cafe
241f
0000
0000
0104
cafe
2807
0000
0000
0115
cafe
2c17
0000
0000
00f9
cafe
3008
0000
0000
016c
cafe
3418
0000
0000
00e9
cafe
3800
0000
0000
00d6
cafe
3c10
0000
0000
00bf
-
cafe
2009
0000
0000
0160
cafe
2419
0000
0000
0086
cafe
2801
0000
0000
0132
cafe
2c11
0000
0000
01d6
cafe
300a
0000
0000
015f
cafe
341a
0000
0000
01e7
cafe
3802
0000
0000
0110
cafe
3c12
0000
0000
00ee
cafe
200b
0000
0000
0169
cafe
241b
0000
0000
018a
cafe
2803
0000
0000
0181
cafe
2c13
0000
0000
0196
cafe
300c
0000
0000
0142
cafe
341c
0000
0000
015a
cafe
3804
0000
0000
011e
cafe
3c14
0000
0000
0117
cafe
200d
0000
0000
00d8
cafe
241d
0000
0000
01b4
cafe
2805
0000
0000
0155
cafe
2c15
0000
0000
00b4
cafe
300e
0000
0000
0160
cafe
341e
0000
0000
01e7
cafe
3806
0000
0000
0134
cafe
3c16
0000
0000
008f
cafe
200f
0000
0000
01cf
cafe
241f
0000
0000
010c
cafe
2807
0000
0000
011b
cafe
2c17
0000
0000
0109
cafe
3008
0000
0000
016c
cafe
3418
0000
0000
00e9
cafe
3800
0000
0000
00d6
cafe
3c10
0000
0000
00c7
cafe
2009
0000
0000
015f
cafe
2419
0000
0000
0081
cafe
2801
0000
0000
0135
cafe
2c11
0000
0000
01cd
cafe
300a
0000
0000
0165
cafe
341a
0000
0000
01e9
cafe
3802
0000
0000
010f
cafe
3c12
0000
0000
00f0
cafe
200b
0000
0000
0168
cafe
241b
0000
0000
018a
cafe
2803
0000
0000
017d
cafe
2c13
0000
0000
0191
cafe
300c
0000
0000
0146
cafe
341c
0000
0000
0152
cafe
3804
0000
0000
0120
cafe
3c14
0000
0000
0115
cafe
200d
0000
0000
00d4
cafe
241d
0000
0000
01b7
cafe
2805
0000
0000
015e
cafe
-
2c15
0000
0000
00b6
cafe
300e
0000
0000
0163
cafe
341e
0000
0000
01ea
cafe
3806
0000
0000
0137
cafe
3c16
0000
0000
0092
cafe
200f
0000
0000
01d9
cafe
241f
0000
0000
010f
cafe
2807
0000
0000
0117
cafe
2c17
0000
0000
010a
cafe
3008
0000
0000
0173
cafe
3418
0000
0000
00e9
cafe
3800
0000
0000
00d2
cafe
3c10
0000
0000
00d0
cafe
2009
0000
0000
0162
cafe
2419
0000
0000
0088
cafe
2801
0000
0000
013b
cafe
2c11
0000
0000
01cc
cafe
300a
0000
0000
0164
cafe
341a
0000
0000
01e8
cafe
3802
0000
0000
0119
cafe
3c12
0000
0000
00ef
cafe
200b
0000
0000
016b
cafe
241b
0000
0000
018a
cafe
2803
0000
0000
0178
cafe
2c13
0000
0000
0197
cafe
300c
0000
0000
0145
cafe
341c
0000
0000
0153
cafe
3804
0000
0000
011d
cafe
3c14
0000
0000
0110
cafe
200d
0000
0000
00d5
cafe
241d
0000
0000
01bd
cafe
2805
0000
0000
0158
cafe
2c15
0000
0000
00b8
cafe
300e
0000
0000
015c
cafe
341e
0000
0000
01ea
cafe
3806
0000
0000
0136
cafe
3c16
0000
0000
0096
cafe
200f
0000
0000
01dc
cafe
241f
0000
0000
0109
cafe
2807
0000
0000
0119
cafe
2c17
0000
0000
0105
cafe
3008
0000
0000
0176
cafe
3418
0000
0000
00e9
cafe
3800
0000
0000
00d2
cafe
3c10
0000
0000
00d2
cafe
2009
0000
0000
0170
cafe
2419
0000
0000
008b
cafe
2801
0000
0000
013a
cafe
2c11
0000
0000
01cc
cafe
300a
0000
0000
0162
cafe
341a
0000
0000
01eb
cafe
3802
-
0000
0000
011b
cafe
3c12
0000
0000
00f3
cafe
200b
0000
0000
016b
cafe
241b
0000
0000
018e
cafe
2803
0000
0000
0176
cafe
2c13
0000
0000
0195
cafe
300c
0000
0000
014b
cafe
341c
0000
0000
0155
cafe
3804
0000
0000
0123
cafe
3c14
0000
0000
0115
cafe
200d
0000
0000
00d0
cafe
241d
0000
0000
01bb
cafe
2805
0000
0000
014f
cafe
2c15
0000
0000
00b6
cafe
300e
0000
0000
0162
cafe
341e
0000
0000
01e6
cafe
3806
0000
0000
0131
cafe
3c16
0000
0000
00a4
cafe
200f
0000
0000
01d2
cafe
241f
0000
0000
010c
cafe
2807
0000
0000
0118
cafe
2c17
0000
0000
00f3
cafe
3008
0000
0000
017b
cafe
3418
0000
0000
00eb
cafe
3800
0000
0000
00d0
cafe
3c10
0000
0000
00cf
cafe
2009
0000
0000
0165
cafe
2419
0000
0000
007e
cafe
2801
0000
0000
013c
cafe
2c11
0000
0000
01c8
cafe
300a
0000
0000
0163
cafe
341a
0000
0000
01e8
cafe
3802
0000
0000
0113
cafe
3c12
0000
0000
00f1
cafe
200b
0000
0000
0169
cafe
241b
0000
0000
0193
cafe
2803
0000
0000
0178
cafe
2c13
0000
0000
0197
cafe
300c
0000
0000
0152
cafe
341c
0000
0000
015b
cafe
3804
0000
0000
0125
cafe
3c14
0000
0000
0125
cafe
200d
0000
0000
00e2
cafe
241d
0000
0000
01bd
cafe
2805
0000
0000
015e
cafe
2c15
0000
0000
00b9
cafe
300e
0000
0000
016c
cafe
341e
0000
0000
01dc
cafe
3806
0000
0000
0134
cafe
3c16
0000
0000
00ab
cafe
200f
0000
0000
01d0
cafe
241f
0000
-
0000
010e
cafe
2807
0000
0000
0123
cafe
2c17
0000
0000
00f9
cafe
3008
0000
0000
017d
cafe
3418
0000
0000
00ec
cafe
3800
0000
0000
00cc
cafe
3c10
0000
0000
00e7
cafe
2009
0000
0000
017a
cafe
2419
0000
0000
0083
cafe
2801
0000
0000
0140
cafe
2c11
0000
0000
01d8
cafe
300a
0000
0000
017a
cafe
341a
0000
0000
01e2
cafe
3802
0000
0000
0112
cafe
3c12
0000
0000
00f9
cafe
200b
0000
0000
0167
cafe
241b
0000
0000
0195
cafe
2803
0000
0000
0185
cafe
2c13
0000
0000
019c
cafe
300c
0000
0000
014e
cafe
341c
0000
0000
0153
cafe
3804
0000
0000
0127
cafe
3c14
0000
0000
012a
cafe
200d
0000
0000
00df
cafe
241d
0000
0000
01bf
cafe
2805
0000
0000
0163
cafe
2c15
0000
0000
00b8
cafe
300e
0000
0000
0167
cafe
341e
0000
0000
01e3
cafe
3806
0000
0000
0133
cafe
3c16
0000
0000
00aa
cafe
200f
0000
0000
01d1
cafe
241f
0000
0000
010e
cafe
2807
0000
0000
0123
cafe
2c17
0000
0000
00fa
cafe
3008
0000
0000
0174
cafe
3418
0000
0000
00ec
cafe
3800
0000
0000
00bf
cafe
3c10
0000
0000
00e0
cafe
2009
0000
0000
016a
cafe
2419
0000
0000
0077
cafe
2801
0000
0000
0148
cafe
2c11
0000
0000
01c2
cafe
300a
0000
0000
0174
cafe
341a
0000
0000
01e8
cafe
3802
0000
0000
0107
cafe
3c12
0000
0000
00f0
cafe
200b
0000
0000
0162
cafe
241b
0000
0000
0191
cafe
2803
0000
0000
0188
cafe
2c13
0000
0000
0199
cafe
300c
0000
0000
-
013e
cafe
341c
0000
0000
0140
cafe
3804
0000
0000
0124
cafe
3c14
0000
0000
0121
cafe
200d
0000
0000
00d4
cafe
241d
0000
0000
01c7
cafe
2805
0000
0000
015e
cafe
2c15
0000
0000
00c4
cafe
300e
0000
0000
0165
cafe
341e
0000
0000
01e1
cafe
3806
0000
0000
012e
cafe
3c16
0000
0000
00a0
cafe
200f
0000
0000
01d5
cafe
241f
0000
0000
0108
cafe
2807
0000
0000
0129
cafe
2c17
0000
0000
00ef
cafe
3008
0000
0000
0172
cafe
3418
0000
0000
00ea
cafe
3800
0000
0000
00bc
cafe
3c10
0000
0000
00d7
cafe
2009
0000
0000
0158
cafe
2419
0000
0000
007f
cafe
2801
0000
0000
014a
cafe
2c11
0000
0000
01c8
cafe
300a
0000
0000
0171
cafe
341a
0000
0000
01e5
cafe
3802
0000
0000
0107
cafe
3c12
0000
0000
00ef
cafe
200b
0000
0000
0169
cafe
241b
0000
0000
0193
cafe
2803
0000
0000
0189
cafe
2c13
0000
0000
0195
cafe
300c
0000
0000
0141
cafe
341c
0000
0000
013f
cafe
3804
0000
0000
011c
cafe
3c14
0000
0000
0121
cafe
200d
0000
0000
00cf
cafe
241d
0000
0000
01ce
cafe
2805
0000
0000
015a
cafe
2c15
0000
0000
00c2
cafe
300e
0000
0000
0159
cafe
341e
0000
0000
01e4
cafe
3806
0000
0000
0131
cafe
3c16
0000
0000
009e
cafe
200f
0000
0000
01d6
cafe
241f
0000
0000
00ff
cafe
2807
0000
0000
0122
cafe
2c17
0000
0000
00eb
cafe
3008
0000
0000
0172
cafe
3418
0000
0000
00e8
cafe
3800
0000
0000
00c3
cafe
3c10
0000
0000
00c7
-
cafe
2009
0000
0000
0152
cafe
2419
0000
0000
0084
cafe
2801
0000
0000
0146
cafe
2c11
0000
0000
01cc
cafe
300a
0000
0000
0169
cafe
341a
0000
0000
01e1
cafe
3802
0000
0000
0109
cafe
3c12
0000
0000
00f0
cafe
200b
0000
0000
0166
cafe
241b
0000
0000
019a
cafe
2803
0000
0000
018a
cafe
2c13
0000
0000
0195
cafe
300c
0000
0000
0145
cafe
341c
0000
0000
0147
cafe
3804
0000
0000
0123
cafe
3c14
0000
0000
0123
cafe
200d
0000
0000
00cb
cafe
241d
0000
0000
01ca
cafe
2805
0000
0000
0153
cafe
2c15
0000
0000
00b9
cafe
300e
0000
0000
015c
cafe
341e
0000
0000
01dd
cafe
3806
0000
0000
0132
cafe
3c16
0000
0000
0090
cafe
200f
0000
0000
01cc
cafe
241f
0000
0000
0103
cafe
2807
0000
0000
0116
cafe
2c17
0000
0000
00f4
cafe
3008
0000
0000
0174
cafe
3418
0000
0000
00dc
cafe
3800
0000
0000
00bf
cafe
3c10
0000
0000
00cd
cafe
2009
0000
0000
0159
cafe
2419
0000
0000
008b
cafe
2801
0000
0000
014b
cafe
2c11
0000
0000
01c3
cafe
300a
0000
0000
015f
cafe
341a
0000
0000
01e5
cafe
3802
0000
0000
010c
cafe
3c12
0000
0000
00e7
cafe
200b
0000
0000
016b
cafe
241b
0000
0000
0198
cafe
2803
0000
0000
018e
cafe
2c13
0000
0000
018f
cafe
300c
0000
0000
0148
cafe
341c
0000
0000
014a
cafe
3804
0000
0000
011f
cafe
3c14
0000
0000
0118
cafe
200d
0000
0000
00cc
cafe
241d
0000
0000
01cb
cafe
2805
0000
0000
014e
cafe
-
2c15
0000
0000
00bb
cafe
300e
0000
0000
015c
cafe
341e
0000
0000
01e8
cafe
3806
0000
0000
013e
cafe
3c16
0000
0000
008a
cafe
200f
0000
0000
01c5
cafe
241f
0000
0000
010a
cafe
2807
0000
0000
0108
cafe
2c17
0000
0000
00fb
cafe
3008
0000
0000
0175
cafe
3418
0000
0000
00db
cafe
3800
0000
0000
00c0
cafe
3c10
0000
0000
00c4
cafe
2009
0000
0000
014f
cafe
2419
0000
0000
0082
cafe
2801
0000
0000
0146
cafe
2c11
0000
0000
01c0
cafe
300a
0000
0000
0155
cafe
341a
0000
0000
01e1
cafe
3802
0000
0000
0106
cafe
3c12
0000
0000
00ed
cafe
200b
0000
0000
016a
cafe
241b
0000
0000
0190
cafe
2803
0000
0000
0196
cafe
2c13
0000
0000
01a1
cafe
300c
0000
0000
014c
cafe
341c
0000
0000
0142
cafe
3804
0000
0000
011c
cafe
3c14
0000
0000
0118
cafe
200d
0000
0000
00d0
cafe
241d
0000
0000
01ca
cafe
2805
0000
0000
014f
cafe
2c15
0000
0000
00ae
cafe
300e
0000
0000
0155
cafe
341e
0000
0000
01e2
cafe
3806
0000
0000
0147
cafe
3c16
0000
0000
008e
cafe
200f
0000
0000
01c8
cafe
241f
0000
0000
0113
cafe
2807
0000
0000
0104
cafe
2c17
0000
0000
00fe
cafe
3008
0000
0000
0175
cafe
3418
0000
0000
00df
cafe
3800
0000
0000
00be
cafe
3c10
0000
0000
00c3
cafe
2009
0000
0000
014f
cafe
2419
0000
0000
0089
cafe
2801
0000
0000
014d
cafe
2c11
0000
0000
01cc
cafe
300a
0000
0000
015c
cafe
341a
0000
0000
01de
cafe
3802
-
0000
0000
0102
cafe
3c12
0000
0000
00e1
cafe
200b
0000
0000
0166
cafe
241b
0000
0000
018e
cafe
2803
0000
0000
0188
cafe
2c13
0000
0000
0198
cafe
300c
0000
0000
0143
cafe
341c
0000
0000
013f
cafe
3804
0000
0000
011e
cafe
3c14
0000
0000
0121
cafe
200d
0000
0000
00d3
cafe
241d
0000
0000
01cb
cafe
2805
0000
0000
0156
cafe
2c15
0000
0000
00b8
cafe
300e
0000
0000
015c
cafe
341e
0000
0000
01db
cafe
3806
0000
0000
013f
cafe
3c16
0000
0000
0090
cafe
200f
0000
0000
01cf
cafe
241f
0000
0000
010e
cafe
2807
0000
0000
010f
cafe
2c17
0000
0000
0101
cafe
3008
0000
0000
0176
cafe
3418
0000
0000
00e5
cafe
3800
0000
0000
00c1
cafe
3c10
0000
0000
00ca
cafe
2009
0000
0000
014d
cafe
2419
0000
0000
007f
cafe
2801
0000
0000
014e
cafe
2c11
0000
0000
01c4
cafe
300a
0000
0000
0157
cafe
341a
0000
0000
01e2
cafe
3802
0000
0000
0106
cafe
3c12
0000
0000
00e6
cafe
200b
0000
0000
0162
cafe
241b
0000
0000
0190
cafe
2803
0000
0000
0182
cafe
2c13
0000
0000
0188
cafe
300c
0000
0000
0141
cafe
341c
0000
0000
013e
cafe
3804
0000
0000
0122
cafe
3c14
0000
0000
011d
cafe
200d
0000
0000
00d4
cafe
241d
0000
0000
01ca
cafe
2805
0000
0000
014a
cafe
2c15
0000
0000
00b1
cafe
300e
0000
0000
014c
cafe
341e
0000
0000
01f5
cafe
3806
0000
0000
013f
cafe
3c16
0000
0000
008b
cafe
200f
0000
0000
01d8
cafe
241f
0000
-
0000
0104
cafe
2807
0000
0000
0117
cafe
2c17
0000
0000
00fe
cafe
3008
0000
0000
016c
cafe
3418
0000
0000
00e6
cafe
3800
0000
0000
00bf
cafe
3c10
0000
0000
00c5
cafe
2009
0000
0000
0156
cafe
2419
0000
0000
007e
cafe
2801
0000
0000
0148
cafe
2c11
0000
0000
01c3
cafe
300a
0000
0000
0161
cafe
341a
0000
0000
01d0
cafe
3802
0000
0000
00ff
cafe
3c12
0000
0000
00f1
cafe
200b
0000
0000
0156
cafe
241b
0000
0000
0193
cafe
2803
0000
0000
0184
cafe
2c13
0000
0000
0184
cafe
300c
0000
0000
0142
cafe
341c
0000
0000
014a
cafe
3804
0000
0000
0122
cafe
3c14
0000
0000
0113
cafe
200d
0000
0000
00cf
cafe
241d
0000
0000
01cb
cafe
2805
0000
0000
0152
cafe
2c15
0000
0000
00ae
cafe
300e
0000
0000
014c
cafe
341e
0000
0000
01eb
cafe
3806
0000
0000
0136
cafe
3c16
0000
0000
0087
cafe
200f
0000
0000
01dd
cafe
241f
0000
0000
010b
cafe
2807
0000
0000
0117
cafe
2c17
0000
0000
0107
cafe
3008
0000
0000
0175
cafe
3418
0000
0000
00e7
cafe
3800
0000
0000
00c8
cafe
3c10
0000
0000
00c8
cafe
2009
0000
0000
015a
cafe
2419
0000
0000
0089
cafe
2801
0000
0000
0142
cafe
2c11
0000
0000
01c3
cafe
300a
0000
0000
015a
cafe
341a
0000
0000
01de
cafe
3802
0000
0000
00ff
cafe
3c12
0000
0000
00f6
cafe
200b
0000
0000
015c
cafe
241b
0000
0000
0186
cafe
2803
0000
0000
0183
cafe
2c13
0000
0000
0186
cafe
300c
0000
0000
-
013e
cafe
341c
0000
0000
014b
cafe
3804
0000
0000
011f
cafe
3c14
0000
0000
0112
cafe
200d
0000
0000
00ca
cafe
241d
0000
0000
01bd
cafe
2805
0000
0000
014e
cafe
2c15
0000
0000
00aa
cafe
300e
0000
0000
014e
cafe
341e
0000
0000
01e6
cafe
3806
0000
0000
0136
cafe
3c16
0000
0000
0088
cafe
200f
0000
0000
01dc
cafe
241f
0000
0000
0107
cafe
2807
0000
0000
0113
cafe
2c17
0000
0000
010a
cafe
3008
0000
0000
0179
cafe
3418
0000
0000
00e6
cafe
3800
0000
0000
00cc
cafe
3c10
0000
0000
00c5
cafe
2009
0000
0000
015c
cafe
2419
0000
0000
0080
cafe
2801
0000
0000
0141
cafe
2c11
0000
0000
01c8
cafe
300a
0000
0000
0158
cafe
341a
0000
0000
01d9
cafe
3802
0000
0000
010b
cafe
3c12
0000
0000
00ec
cafe
200b
0000
0000
0161
cafe
241b
0000
0000
018c
cafe
2803
0000
0000
0188
cafe
2c13
0000
0000
018a
cafe
300c
0000
0000
0148
cafe
341c
0000
0000
0152
cafe
3804
0000
0000
011e
cafe
3c14
0000
0000
0118
cafe
200d
0000
0000
00d3
cafe
241d
0000
0000
01c4
cafe
2805
0000
0000
014d
cafe
2c15
0000
0000
00ab
cafe
300e
0000
0000
0151
cafe
341e
0000
0000
01eb
cafe
3806
0000
0000
013d
cafe
3c16
0000
0000
0093
cafe
200f
0000
0000
01d9
cafe
241f
0000
0000
0106
cafe
2807
0000
0000
0114
cafe
2c17
0000
0000
010a
cafe
3008
0000
0000
017f
cafe
3418
0000
0000
00e7
cafe
3800
0000
0000
00c8
cafe
3c10
0000
0000
00d0
-
cafe
2009
0000
0000
0158
cafe
2419
0000
0000
0081
cafe
2801
0000
0000
0142
cafe
2c11
0000
0000
01cb
cafe
300a
0000
0000
015e
cafe
341a
0000
0000
01d6
cafe
3802
0000
0000
00fd
cafe
3c12
0000
0000
00f4
cafe
200b
0000
0000
0162
cafe
241b
0000
0000
0191
cafe
2803
0000
0000
0186
cafe
2c13
0000
0000
018f
cafe
300c
0000
0000
014e
cafe
341c
0000
0000
014b
cafe
3804
0000
0000
011e
cafe
3c14
0000
0000
0117
cafe
200d
0000
0000
00cc
cafe
241d
0000
0000
01ca
cafe
2805
0000
0000
0156
cafe
2c15
0000
0000
00a0
cafe
300e
0000
0000
0157
cafe
341e
0000
0000
01f2
cafe
3806
0000
0000
0138
cafe
3c16
0000
0000
008f
cafe
200f
0000
0000
01e0
cafe
241f
0000
0000
0105
cafe
2807
0000
0000
0118
cafe
2c17
0000
0000
0104
cafe
3008
0000
0000
018a
cafe
3418
0000
0000
00e3
cafe
3800
0000
0000
00ca
cafe
3c10
0000
0000
00d2
cafe
2009
0000
0000
016b
cafe
2419
0000
0000
0089
cafe
2801
0000
0000
013f
cafe
2c11
0000
0000
01d4
cafe
300a
0000
0000
016e
cafe
341a
0000
0000
01dc
cafe
3802
0000
0000
0106
cafe
3c12
0000
0000
0102
cafe
200b
0000
0000
0162
cafe
241b
0000
0000
0196
cafe
2803
0000
0000
018f
cafe
2c13
0000
0000
019f
cafe
300c
0000
0000
0160
cafe
341c
0000
0000
0147
cafe
3804
0000
0000
011e
cafe
3c14
0000
0000
0124
cafe
200d
0000
0000
00dc
cafe
241d
0000
0000
01c1
cafe
2805
0000
0000
0161
cafe
-
2c15
0000
0000
00b7
cafe
300e
0000
0000
015c
cafe
341e
0000
0000
01fa
cafe
3806
0000
0000
0143
cafe
3c16
0000
0000
009f
cafe
200f
0000
0000
01e6
cafe
241f
0000
0000
0102
cafe
2807
0000
0000
0124
cafe
2c17
0000
0000
0105
cafe
3008
0000
0000
0184
cafe
3418
0000
0000
00df
cafe
3800
0000
0000
00cb
cafe
3c10
0000
0000
00d0
cafe
2009
0000
0000
016e
cafe
2419
0000
0000
0084
cafe
2801
0000
0000
013b
cafe
2c11
0000
0000
01d1
cafe
300a
0000
0000
016c
cafe
341a
0000
0000
01e4
cafe
3802
0000
0000
0109
cafe
3c12
0000
0000
0105
cafe
200b
0000
0000
0169
cafe
241b
0000
0000
0195
cafe
2803
0000
0000
018c
cafe
2c13
0000
0000
019a
cafe
300c
0000
0000
015d
cafe
341c
0000
0000
014d
cafe
3804
0000
0000
0119
cafe
3c14
0000
0000
0120
cafe
200d
0000
0000
00c9
cafe
241d
0000
0000
01b1
cafe
2805
0000
0000
0159
cafe
2c15
0000
0000
00af
cafe
300e
0000
0000
0158
cafe
341e
0000
0000
01f1
cafe
3806
0000
0000
0134
cafe
3c16
0000
0000
009e
cafe
200f
0000
0000
01e2
cafe
241f
0000
0000
010d
cafe
2807
0000
0000
011d
cafe
2c17
0000
0000
0102
cafe
3008
0000
0000
0180
cafe
3418
0000
0000
00ce
cafe
3800
0000
0000
00c6
cafe
3c10
0000
0000
00c8
cafe
2009
0000
0000
0167
cafe
2419
0000
0000
0088
cafe
2801
0000
0000
013c
cafe
2c11
0000
0000
01cf
cafe
300a
0000
0000
015b
cafe
341a
0000
0000
01d8
cafe
3802
-
0000
0000
0106
cafe
3c12
0000
0000
00fd
cafe
200b
0000
0000
0169
cafe
241b
0000
0000
019b
cafe
2803
0000
0000
0187
cafe
2c13
0000
0000
018d
cafe
300c
0000
0000
015a
cafe
341c
0000
0000
014e
cafe
3804
0000
0000
0119
cafe
3c14
0000
0000
0125
cafe
200d
0000
0000
00d0
cafe
241d
0000
0000
01af
cafe
2805
0000
0000
015e
cafe
2c15
0000
0000
00a7
cafe
300e
0000
0000
015d
cafe
341e
0000
0000
01f6
cafe
3806
0000
0000
0136
cafe
3c16
0000
0000
009e
cafe
200f
0000
0000
01e5
cafe
241f
0000
0000
0107
cafe
2807
0000
0000
011b
cafe
2c17
0000
0000
00f9
cafe
3008
0000
0000
0180
cafe
3418
0000
0000
00d9
cafe
3800
0000
0000
00c4
cafe
3c10
0000
0000
00d4
cafe
2009
0000
0000
015f
cafe
2419
0000
0000
008d
cafe
2801
0000
0000
0142
cafe
2c11
0000
0000
01cb
cafe
300a
0000
0000
0157
cafe
341a
0000
0000
01d2
cafe
3802
0000
0000
0102
cafe
3c12
0000
0000
00f7
cafe
200b
0000
0000
0168
cafe
241b
0000
0000
019f
cafe
2803
0000
0000
0189
cafe
2c13
0000
0000
0196
cafe
300c
0000
0000
015a
cafe
341c
0000
0000
0153
cafe
3804
0000
0000
0120
cafe
3c14
0000
0000
011c
cafe
200d
0000
0000
00c3
cafe
241d
0000
0000
01ab
cafe
2805
0000
0000
0155
cafe
2c15
0000
0000
00a4
cafe
300e
0000
0000
015f
cafe
341e
0000
0000
01ee
cafe
3806
0000
0000
0132
cafe
3c16
0000
0000
009e
cafe
200f
0000
0000
01e0
cafe
241f
0000
-
0000
0106
cafe
2807
0000
0000
011c
cafe
2c17
0000
0000
00f9
cafe
3008
0000
0000
0182
cafe
3418
0000
0000
00d9
cafe
3800
0000
0000
00c8
cafe
3c10
0000
0000
00ce
cafe
2009
0000
0000
0160
cafe
2419
0000
0000
0088
cafe
2801
0000
0000
0140
cafe
2c11
0000
0000
01c5
cafe
300a
0000
0000
015d
cafe
341a
0000
0000
01ce
cafe
3802
0000
0000
0100
cafe
3c12
0000
0000
00f7
cafe
200b
0000
0000
0169
cafe
241b
0000
0000
019c
cafe
2803
0000
0000
0181
cafe
2c13
0000
0000
0190
cafe
300c
0000
0000
0154
cafe
341c
0000
0000
0153
cafe
3804
0000
0000
0121
cafe
3c14
0000
0000
011d
cafe
200d
0000
0000
00cf
cafe
241d
0000
0000
01b4
cafe
2805
0000
0000
0154
cafe
2c15
0000
0000
00a9
cafe
300e
0000
0000
0157
cafe
341e
0000
0000
01eb
cafe
3806
0000
0000
0129
cafe
3c16
0000
0000
009f
cafe
200f
0000
0000
01e1
cafe
241f
0000
0000
010b
cafe
2807
0000
0000
011f
cafe
2c17
0000
0000
00f9
cafe
3008
0000
0000
0180
cafe
3418
0000
0000
00d9
cafe
3800
0000
0000
00cc
cafe
3c10
0000
0000
00d4
cafe
2009
0000
0000
0162
cafe
2419
0000
0000
008e
cafe
2801
0000
0000
013d
cafe
2c11
0000
0000
01c4
cafe
300a
0000
0000
0162
cafe
341a
0000
0000
01d0
cafe
3802
0000
0000
0101
cafe
3c12
0000
0000
00e8
cafe
200b
0000
0000
0163
cafe
241b
0000
0000
0199
cafe
2803
0000
0000
0180
cafe
2c13
0000
0000
0190
cafe
300c
0000
0000
-
0150
cafe
341c
0000
0000
014d
cafe
3804
0000
0000
011d
cafe
3c14
0000
0000
011c
cafe
200d
0000
0000
00d3
cafe
241d
0000
0000
01bb
cafe
2805
0000
0000
0155
cafe
2c15
0000
0000
00b4
cafe
300e
0000
0000
015b
cafe
341e
0000
0000
01ec
cafe
3806
0000
0000
0136
cafe
3c16
0000
0000
0099
cafe
200f
0000
0000
01e5
cafe
241f
0000
0000
0109
cafe
2807
0000
0000
011c
cafe
2c17
0000
0000
0105
cafe
3008
0000
0000
0185
cafe
3418
0000
0000
00de
cafe
3800
0000
0000
00d3
cafe
3c10
0000
0000
00cd
cafe
2009
0000
0000
0161
cafe
2419
0000
0000
0091
cafe
2801
0000
0000
0139
cafe
2c11
0000
0000
01ca
cafe
300a
0000
0000
0167
cafe
341a
0000
0000
01d6
cafe
3802
0000
0000
0103
cafe
3c12
0000
0000
00ee
cafe
200b
0000
0000
0164
cafe
241b
0000
0000
0199
cafe
2803
0000
0000
0185
cafe
2c13
0000
0000
0199
cafe
300c
0000
0000
0143
cafe
341c
0000
0000
014b
cafe
3804
0000
0000
0116
cafe
3c14
0000
0000
0111
cafe
200d
0000
0000
00cb
cafe
241d
0000
0000
01be
cafe
2805
0000
0000
0153
cafe
2c15
0000
0000
00b2
cafe
300e
0000
0000
0162
cafe
341e
0000
0000
01e7
cafe
3806
0000
0000
0134
cafe
3c16
0000
0000
009d
cafe
200f
0000
0000
01e0
cafe
241f
0000
0000
0102
cafe
2807
0000
0000
011a
cafe
2c17
0000
0000
00ff
cafe
3008
0000
0000
0189
cafe
3418
0000
0000
00cf
cafe
3800
0000
0000
00cd
cafe
3c10
0000
0000
00cc
-
cafe
2009
0000
0000
015a
cafe
2419
0000
0000
0093
cafe
2801
0000
0000
013b
cafe
2c11
0000
0000
01bf
cafe
300a
0000
0000
0164
cafe
341a
0000
0000
01dc
cafe
3802
0000
0000
0103
cafe
3c12
0000
0000
00e5
cafe
200b
0000
0000
0163
cafe
241b
0000
0000
0192
cafe
2803
0000
0000
0180
cafe
2c13
0000
0000
0198
cafe
300c
0000
0000
014e
cafe
341c
0000
0000
0147
cafe
3804
0000
0000
011a
cafe
3c14
0000
0000
011b
cafe
200d
0000
0000
00ca
cafe
241d
0000
0000
01b3
cafe
2805
0000
0000
0153
cafe
2c15
0000
0000
00ae
cafe
300e
0000
0000
015d
cafe
341e
0000
0000
01f2
cafe
3806
0000
0000
012c
cafe
3c16
0000
0000
00a0
cafe
200f
0000
0000
01e0
cafe
241f
0000
0000
0105
cafe
2807
0000
0000
0122
cafe
2c17
0000
0000
00fc
cafe
3008
0000
0000
0186
cafe
3418
0000
0000
00d2
cafe
3800
0000
0000
00c9
cafe
3c10
0000
0000
00cf
cafe
2009
0000
0000
0155
cafe
2419
0000
0000
0093
cafe
2801
0000
0000
0142
cafe
2c11
0000
0000
01c1
cafe
300a
0000
0000
0160
cafe
341a
0000
0000
01e6
cafe
3802
0000
0000
0103
cafe
3c12
0000
0000
00e1
cafe
200b
0000
0000
0164
cafe
241b
0000
0000
0193
cafe
2803
0000
0000
0180
cafe
2c13
0000
0000
0191
cafe
300c
0000
0000
0152
cafe
341c
0000
0000
0147
cafe
3804
0000
0000
0118
cafe
3c14
0000
0000
0118
cafe
200d
0000
0000
00c7
cafe
241d
0000
0000
01b5
cafe
2805
0000
0000
0151
cafe
-
2c15
0000
0000
00ae
cafe
300e
0000
0000
0155
cafe
341e
0000
0000
01e4
cafe
3806
0000
0000
0134
cafe
3c16
0000
0000
0099
cafe
200f
0000
0000
01e2
cafe
241f
0000
0000
010c
cafe
2807
0000
0000
011f
cafe
2c17
0000
0000
00fb
cafe
3008
0000
0000
0181
cafe
3418
0000
0000
00d4
cafe
3800
0000
0000
00c4
cafe
3c10
0000
0000
00ce
cafe
2009
0000
0000
0156
cafe
2419
0000
0000
008f
cafe
2801
0000
0000
013b
cafe
2c11
0000
0000
01c4
cafe
300a
0000
0000
0160
cafe
341a
0000
0000
01df
cafe
3802
0000
0000
0114
cafe
3c12
0000
0000
00ec
cafe
200b
0000
0000
0167
cafe
241b
0000
0000
0195
cafe
2803
0000
0000
0180
cafe
2c13
0000
0000
018d
cafe
300c
0000
0000
014b
cafe
341c
0000
0000
0147
cafe
3804
0000
0000
0119
cafe
3c14
0000
0000
011b
cafe
200d
0000
0000
00d0
cafe
241d
0000
0000
01bf
cafe
2805
0000
0000
014f
cafe
2c15
0000
0000
00ac
cafe
300e
0000
0000
014c
cafe
341e
0000
0000
01de
cafe
3806
0000
0000
0139
cafe
3c16
0000
0000
009a
cafe
200f
0000
0000
01e1
cafe
241f
0000
0000
0104
cafe
2807
0000
0000
0118
cafe
2c17
0000
0000
00fa
cafe
3008
0000
0000
0179
cafe
3418
0000
0000
00d1
cafe
3800
0000
0000
00c7
cafe
3c10
0000
0000
00ce
cafe
2009
0000
0000
0167
cafe
2419
0000
0000
008f
cafe
2801
0000
0000
013e
cafe
2c11
0000
0000
01c0
cafe
300a
0000
0000
015f
cafe
341a
0000
0000
01e1
cafe
3802
-
0000
0000
0115
cafe
3c12
0000
0000
00e7
cafe
200b
0000
0000
016a
cafe
241b
0000
0000
0192
cafe
2803
0000
0000
017d
cafe
2c13
0000
0000
0192
cafe
300c
0000
0000
0145
cafe
341c
0000
0000
0145
cafe
3804
0000
0000
011a
cafe
3c14
0000
0000
0113
cafe
200d
0000
0000
00cc
cafe
241d
0000
0000
01bc
cafe
2805
0000
0000
014c
cafe
2c15
0000
0000
00b2
cafe
300e
0000
0000
0150
cafe
341e
0000
0000
01e5
cafe
3806
0000
0000
0133
cafe
3c16
0000
0000
009d
cafe
200f
0000
0000
01db
cafe
241f
0000
0000
0109
cafe
2807
0000
0000
0117
cafe
2c17
0000
0000
00ef
cafe
3008
0000
0000
0176
cafe
3418
0000
0000
00d2
cafe
3800
0000
0000
00bd
cafe
3c10
0000
0000
00cb
cafe
2009
0000
0000
015e
cafe
2419
0000
0000
008d
cafe
2801
0000
0000
0142
cafe
2c11
0000
0000
01b9
cafe
300a
0000
0000
0156
cafe
341a
0000
0000
01df
cafe
3802
0000
0000
0110
cafe
3c12
0000
0000
00ef
cafe
200b
0000
0000
0174
cafe
241b
0000
0000
0195
cafe
2803
0000
0000
0188
cafe
2c13
0000
0000
0192
cafe
300c
0000
0000
013f
cafe
341c
0000
0000
0144
cafe
3804
0000
0000
011e
cafe
3c14
0000
0000
0115
cafe
200d
0000
0000
00c7
cafe
241d
0000
0000
01bb
cafe
2805
0000
0000
0146
cafe
2c15
0000
0000
00a9
cafe
300e
0000
0000
0147
cafe
341e
0000
0000
01e9
cafe
3806
0000
0000
012e
cafe
3c16
0000
0000
0099
cafe
200f
0000
0000
01dc
cafe
241f
0000
-
0000
0107
cafe
2807
0000
0000
0111
cafe
2c17
0000
0000
00f2
cafe
3008
0000
0000
0171
cafe
3418
0000
0000
00db
cafe
3800
0000
0000
00b6
cafe
3c10
0000
0000
00c6
cafe
2009
0000
0000
0157
cafe
2419
0000
0000
0082
cafe
2801
0000
0000
014a
cafe
2c11
0000
0000
01b6
cafe
300a
0000
0000
014d
cafe
341a
0000
0000
01e3
cafe
3802
0000
0000
0107
cafe
3c12
0000
0000
00e7
cafe
200b
0000
0000
016a
cafe
241b
0000
0000
0191
cafe
2803
0000
0000
0183
cafe
2c13
0000
0000
0186
cafe
300c
0000
0000
0149
cafe
341c
0000
0000
0144
cafe
3804
0000
0000
011a
cafe
3c14
0000
0000
010f
cafe
200d
0000
0000
00c9
cafe
241d
0000
0000
01bd
cafe
2805
0000
0000
014b
cafe
2c15
0000
0000
00b1
cafe
300e
0000
0000
014e
cafe
341e
0000
0000
01ec
cafe
3806
0000
0000
012d
cafe
3c16
0000
0000
0099
cafe
200f
0000
0000
01e1
cafe
241f
0000
0000
0101
cafe
2807
0000
0000
0119
cafe
2c17
0000
0000
00f6
cafe
3008
0000
0000
017d
cafe
3418
0000
0000
00d0
cafe
3800
0000
0000
00bf
cafe
3c10
0000
0000
00d2
cafe
2009
0000
0000
015e
cafe
2419
0000
0000
0089
cafe
2801
0000
0000
0148
cafe
2c11
0000
0000
01c6
cafe
300a
0000
0000
015a
cafe
341a
0000
0000
01db
cafe
3802
0000
0000
010c
cafe
3c12
0000
0000
00eb
cafe
200b
0000
0000
0161
cafe
241b
0000
0000
019a
cafe
2803
0000
0000
017f
cafe
2c13
0000
0000
018d
cafe
300c
0000
0000
-
0144
cafe
341c
0000
0000
014b
cafe
3804
0000
0000
0119
cafe
3c14
0000
0000
0114
cafe
200d
0000
0000
00ce
cafe
241d
0000
0000
01be
cafe
2805
0000
0000
014d
cafe
2c15
0000
0000
00af
cafe
300e
0000
0000
0151
cafe
341e
0000
0000
01e0
cafe
3806
0000
0000
012c
cafe
3c16
0000
0000
0099
cafe
200f
0000
0000
01df
cafe
241f
0000
0000
0108
cafe
2807
0000
0000
011a
cafe
2c17
0000
0000
00f7
cafe
3008
0000
0000
0179
cafe
3418
0000
0000
00ca
cafe
3800
0000
0000
00b8
cafe
3c10
0000
0000
00c4
cafe
2009
0000
0000
0159
cafe
2419
0000
0000
0098
cafe
2801
0000
0000
014a
cafe
2c11
0000
0000
01c3
cafe
300a
0000
0000
0155
cafe
341a
0000
0000
01db
cafe
3802
0000
0000
0111
cafe
3c12
0000
0000
00eb
cafe
200b
0000
0000
0163
cafe
241b
0000
0000
0198
cafe
2803
0000
0000
017a
cafe
2c13
0000
0000
018b
cafe
300c
0000
0000
0141
cafe
341c
0000
0000
014c
cafe
3804
0000
0000
0120
cafe
3c14
0000
0000
0114
cafe
200d
0000
0000
00c3
cafe
241d
0000
0000
01c2
cafe
2805
0000
0000
0149
cafe
2c15
0000
0000
00a9
cafe
300e
0000
0000
014f
cafe
341e
0000
0000
01e7
cafe
3806
0000
0000
012b
cafe
3c16
0000
0000
008a
cafe
200f
0000
0000
01dd
cafe
241f
0000
0000
0100
cafe
2807
0000
0000
0114
cafe
2c17
0000
0000
00fc
cafe
3008
0000
0000
017b
cafe
3418
0000
0000
00cd
cafe
3800
0000
0000
00bf
cafe
3c10
0000
0000
00c7
-
cafe
2009
0000
0000
0157
cafe
2419
0000
0000
0091
cafe
2801
0000
0000
0145
cafe
2c11
0000
0000
01bc
cafe
300a
0000
0000
015b
cafe
341a
0000
0000
01df
cafe
3802
0000
0000
010e
cafe
3c12
0000
0000
00f1
cafe
200b
0000
0000
016b
cafe
241b
0000
0000
0195
cafe
2803
0000
0000
0175
cafe
2c13
0000
0000
018f
cafe
300c
0000
0000
0145
cafe
341c
0000
0000
0142
cafe
3804
0000
0000
0124
cafe
3c14
0000
0000
0110
cafe
200d
0000
0000
00c0
cafe
241d
0000
0000
01cd
cafe
2805
0000
0000
0151
cafe
2c15
0000
0000
00a5
cafe
300e
0000
0000
014a
cafe
341e
0000
0000
01eb
cafe
3806
0000
0000
012a
cafe
3c16
0000
0000
0096
cafe
200f
0000
0000
01ea
cafe
241f
0000
0000
00ff
cafe
2807
0000
0000
0116
cafe
2c17
0000
0000
0102
cafe
3008
0000
0000
0172
cafe
3418
0000
0000
00d3
cafe
3800
0000
0000
00c8
cafe
3c10
0000
0000
00d4
cafe
2009
0000
0000
015e
cafe
2419
0000
0000
0090
cafe
2801
0000
0000
0145
cafe
2c11
0000
0000
01bf
cafe
300a
0000
0000
0158
cafe
341a
0000
0000
01e7
cafe
3802
0000
0000
0112
cafe
3c12
0000
0000
00f7
cafe
200b
0000
0000
0177
cafe
241b
0000
0000
018f
cafe
2803
0000
0000
017b
cafe
2c13
0000
0000
0186
cafe
300c
0000
0000
013b
cafe
341c
0000
0000
0144
cafe
3804
0000
0000
0122
cafe
3c14
0000
0000
0118
cafe
200d
0000
0000
00ce
cafe
241d
0000
0000
01be
cafe
2805
0000
0000
0147
cafe
-
2c15
0000
0000
00a9
cafe
300e
0000
0000
0149
cafe
341e
0000
0000
01ef
cafe
3806
0000
0000
012b
cafe
3c16
0000
0000
009d
cafe
200f
0000
0000
01e4
cafe
241f
0000
0000
00ff
cafe
2807
0000
0000
0121
cafe
2c17
0000
0000
00fd
cafe
3008
0000
0000
0174
cafe
3418
0000
0000
00c8
cafe
3800
0000
0000
00c2
cafe
3c10
0000
0000
00dd
cafe
2009
0000
0000
015b
cafe
2419
0000
0000
0089
cafe
2801
0000
0000
0142
cafe
2c11
0000
0000
01be
cafe
300a
0000
0000
0159
cafe
341a
0000
0000
01e9
cafe
3802
0000
0000
010d
cafe
3c12
0000
0000
00f8
cafe
200b
0000
0000
016c
cafe
241b
0000
0000
018a
cafe
2803
0000
0000
017b
cafe
2c13
0000
0000
0183
cafe
300c
0000
0000
0135
cafe
341c
0000
0000
014b
cafe
3804
0000
0000
011a
cafe
3c14
0000
0000
0116
cafe
200d
0000
0000
00cd
cafe
241d
0000
0000
01c0
cafe
2805
0000
0000
014e
cafe
2c15
0000
0000
00ac
cafe
300e
0000
0000
014d
cafe
341e
0000
0000
01f1
cafe
3806
0000
0000
0126
cafe
3c16
0000
0000
009a
cafe
200f
0000
0000
01e4
cafe
241f
0000
0000
00fd
cafe
2807
0000
0000
0116
cafe
2c17
0000
0000
00f8
cafe
3008
0000
0000
017c
cafe
3418
0000
0000
00ca
cafe
3800
0000
0000
00c0
cafe
3c10
0000
0000
00d2
cafe
2009
0000
0000
0154
cafe
2419
0000
0000
0090
cafe
2801
0000
0000
014b
cafe
2c11
0000
0000
01c4
cafe
300a
0000
0000
015b
cafe
341a
0000
0000
01ea
cafe
3802
-
0000
0000
010a
cafe
3c12
0000
0000
00f4
cafe
200b
0000
0000
0165
cafe
241b
0000
0000
018a
cafe
2803
0000
0000
017b
cafe
2c13
0000
0000
0183
cafe
300c
0000
0000
0131
cafe
341c
0000
0000
0149
cafe
3804
0000
0000
0122
cafe
3c14
0000
0000
0110
cafe
200d
0000
0000
00d3
cafe
241d
0000
0000
01bb
cafe
2805
0000
0000
0149
cafe
2c15
0000
0000
00af
cafe
300e
0000
0000
014e
cafe
341e
0000
0000
01fb
cafe
3806
0000
0000
0127
cafe
3c16
0000
0000
009e
cafe
200f
0000
0000
01ec
cafe
241f
0000
0000
00fd
cafe
2807
0000
0000
011e
cafe
2c17
0000
0000
00f7
cafe
3008
0000
0000
0178
cafe
3418
0000
0000
00d2
cafe
3800
0000
0000
00c6
cafe
3c10
0000
0000
00cb
cafe
2009
0000
0000
015c
cafe
2419
0000
0000
008f
cafe
2801
0000
0000
0149
cafe
2c11
0000
0000
01d5
cafe
300a
0000
0000
016e
cafe
341a
0000
0000
01ed
cafe
3802
0000
0000
0114
cafe
3c12
0000
0000
00ff
cafe
200b
0000
0000
0177
cafe
241b
0000
0000
018a
cafe
2803
0000
0000
0177
cafe
2c13
0000
0000
0196
cafe
300c
0000
0000
0142
cafe
341c
0000
0000
0150
cafe
3804
0000
0000
0120
cafe
3c14
0000
0000
0115
cafe
200d
0000
0000
00da
cafe
241d
0000
0000
01c4
cafe
2805
0000
0000
014b
cafe
2c15
0000
0000
00aa
cafe
300e
0000
0000
014c
cafe
341e
0000
0000
0200
cafe
3806
0000
0000
0128
cafe
3c16
0000
0000
009e
cafe
200f
0000
0000
01d8
cafe
241f
0000
-
0000
00fb
cafe
2807
0000
0000
011b
cafe
2c17
0000
0000
00eb
cafe
3008
0000
0000
0174
cafe
3418
0000
0000
00d2
cafe
3800
0000
0000
00ca
cafe
3c10
0000
0000
00d1
cafe
2009
0000
0000
015c
cafe
2419
0000
0000
008c
cafe
2801
0000
0000
0145
cafe
2c11
0000
0000
01cb
cafe
300a
0000
0000
016a
cafe
341a
0000
0000
01e1
cafe
3802
0000
0000
0116
cafe
3c12
0000
0000
00f4
cafe
200b
0000
0000
0166
cafe
241b
0000
0000
018e
cafe
2803
0000
0000
016e
cafe
2c13
0000
0000
0191
cafe
300c
0000
0000
013b
cafe
341c
0000
0000
014d
cafe
3804
0000
0000
0124
cafe
3c14
0000
0000
0124
cafe
200d
0000
0000
00d8
cafe
241d
0000
0000
01c7
cafe
2805
0000
0000
0143
cafe
2c15
0000
0000
00a4
cafe
300e
0000
0000
014a
cafe
341e
0000
0000
01f6
cafe
3806
0000
0000
0122
cafe
3c16
0000
0000
00a1
cafe
200f
0000
0000
01ce
cafe
241f
0000
0000
00fe
cafe
2807
0000
0000
011c
cafe
2c17
0000
0000
00e5
cafe
3008
0000
0000
0175
cafe
3418
0000
0000
00d0
cafe
3800
0000
0000
00d1
cafe
3c10
0000
0000
00ca
cafe
2009
0000
0000
0160
cafe
2419
0000
0000
0086
cafe
2801
0000
0000
0141
cafe
2c11
0000
0000
01c0
cafe
300a
0000
0000
015c
cafe
341a
0000
0000
01ea
cafe
3802
0000
0000
010c
cafe
3c12
0000
0000
00f0
cafe
200b
0000
0000
0160
cafe
241b
0000
0000
018d
cafe
2803
0000
0000
016d
cafe
2c13
0000
0000
0194
cafe
300c
0000
0000
-
0142
cafe
341c
0000
0000
014b
cafe
3804
0000
0000
011e
cafe
3c14
0000
0000
0120
cafe
200d
0000
0000
00d8
cafe
241d
0000
0000
01c4
cafe
2805
0000
0000
014c
cafe
2c15
0000
0000
00a5
cafe
300e
0000
0000
0152
cafe
341e
0000
0000
01fa
cafe
3806
0000
0000
0121
cafe
3c16
0000
0000
00a5
cafe
200f
0000
0000
01cf
cafe
241f
0000
0000
00f4
cafe
2807
0000
0000
011d
cafe
2c17
0000
0000
00ed
cafe
3008
0000
0000
0170
cafe
3418
0000
0000
00cf
cafe
3800
0000
0000
00c8
cafe
3c10
0000
0000
00c8
cafe
2009
0000
0000
0168
cafe
2419
0000
0000
0083
cafe
2801
0000
0000
014a
cafe
2c11
0000
0000
01c1
cafe
300a
0000
0000
0155
cafe
341a
0000
0000
01ee
cafe
3802
0000
0000
010a
cafe
3c12
0000
0000
00f4
cafe
200b
0000
0000
0165
cafe
241b
0000
0000
018a
cafe
2803
0000
0000
016c
cafe
2c13
0000
0000
0195
cafe
300c
0000
0000
0134
cafe
341c
0000
0000
014e
cafe
3804
0000
0000
011c
cafe
3c14
0000
0000
0121
cafe
200d
0000
0000
00d6
cafe
241d
0000
0000
01bd
cafe
2805
0000
0000
014c
cafe
2c15
0000
0000
00a8
cafe
300e
0000
0000
0152
cafe
341e
0000
0000
01fe
cafe
3806
0000
0000
0118
cafe
3c16
0000
0000
00a6
cafe
200f
0000
0000
01cd
cafe
241f
0000
0000
00f7
cafe
2807
0000
0000
0122
cafe
2c17
0000
0000
00e7
cafe
3008
0000
0000
0176
cafe
3418
0000
0000
00db
cafe
3800
0000
0000
00c8
cafe
3c10
0000
0000
00cb
-
cafe
2009
0000
0000
015c
cafe
2419
0000
0000
007f
cafe
2801
0000
0000
014d
cafe
2c11
0000
0000
01c2
cafe
300a
0000
0000
0154
cafe
341a
0000
0000
01f3
cafe
3802
0000
0000
0108
cafe
3c12
0000
0000
00f3
cafe
200b
0000
0000
0167
cafe
241b
0000
0000
017c
cafe
2803
0000
0000
016d
cafe
2c13
0000
0000
0187
cafe
300c
0000
0000
0134
cafe
341c
0000
0000
0148
cafe
3804
0000
0000
0120
cafe
3c14
0000
0000
011e
cafe
200d
0000
0000
00d3
cafe
241d
0000
0000
01bb
cafe
2805
0000
0000
0147
cafe
2c15
0000
0000
009e
cafe
300e
0000
0000
014e
cafe
341e
0000
0000
01fd
cafe
3806
0000
0000
011c
cafe
3c16
0000
0000
0095
cafe
200f
0000
0000
01cd
cafe
241f
0000
0000
00f7
cafe
2807
0000
0000
0127
cafe
2c17
0000
0000
00ee
cafe
3008
0000
0000
0176
cafe
3418
0000
0000
00e2
cafe
3800
0000
0000
00c4
cafe
3c10
0000
0000
00d2
cafe
2009
0000
0000
0160
cafe
2419
0000
0000
0080
cafe
2801
0000
0000
0149
cafe
2c11
0000
0000
01c8
cafe
300a
0000
0000
0154
cafe
341a
0000
0000
01ee
cafe
3802
0000
0000
0104
cafe
3c12
0000
0000
00f3
cafe
200b
0000
0000
016d
cafe
241b
0000
0000
0184
cafe
2803
0000
0000
016b
cafe
2c13
0000
0000
0189
cafe
300c
0000
0000
0143
cafe
341c
0000
0000
0156
cafe
3804
0000
0000
0120
cafe
3c14
0000
0000
011f
cafe
200d
0000
0000
00d3
cafe
241d
0000
0000
01b9
cafe
2805
0000
0000
0147
cafe
-
2c15
0000
0000
00a1
cafe
300e
0000
0000
0150
cafe
341e
0000
0000
01fa
cafe
3806
0000
0000
0129
cafe
3c16
0000
0000
0099
cafe
200f
0000
0000
01cf
cafe
241f
0000
0000
00ff
cafe
2807
0000
0000
012b
cafe
2c17
0000
0000
00f3
cafe
3008
0000
0000
017f
cafe
3418
0000
0000
00e2
cafe
3800
0000
0000
00c9
cafe
3c10
0000
0000
00db
cafe
2009
0000
0000
0161
cafe
2419
0000
0000
0089
cafe
2801
0000
0000
0147
cafe
2c11
0000
0000
01c0
cafe
300a
0000
0000
0153
cafe
341a
0000
0000
01ed
cafe
3802
0000
0000
0110
cafe
3c12
0000
0000
00fd
cafe
200b
0000
0000
017a
cafe
241b
0000
0000
0189
cafe
2803
0000
0000
016e
cafe
2c13
0000
0000
018d
cafe
300c
0000
0000
014f
cafe
341c
0000
0000
0151
cafe
3804
0000
0000
012b
cafe
3c14
0000
0000
0124
cafe
200d
0000
0000
00d6
cafe
241d
0000
0000
01bf
cafe
2805
0000
0000
0140
cafe
2c15
0000
0000
00a7
cafe
300e
0000
0000
015c
cafe
341e
0000
0000
01fb
cafe
3806
0000
0000
012c
cafe
3c16
0000
0000
009f
cafe
200f
0000
0000
01da
cafe
241f
0000
0000
00fa
cafe
2807
0000
0000
0136
cafe
2c17
0000
0000
00ef
cafe
3008
0000
0000
0179
cafe
3418
0000
0000
00d5
cafe
3800
0000
0000
00cb
cafe
3c10
0000
0000
00da
cafe
2009
0000
0000
015e
cafe
2419
0000
0000
0088
cafe
2801
0000
0000
0144
cafe
2c11
0000
0000
01c5
cafe
300a
0000
0000
0158
cafe
341a
0000
0000
01e6
cafe
3802
-
0000
0000
0110
cafe
3c12
0000
0000
00fc
cafe
200b
0000
0000
016d
cafe
241b
0000
0000
0199
cafe
2803
0000
0000
0172
cafe
2c13
0000
0000
018c
cafe
300c
0000
0000
0149
cafe
341c
0000
0000
0146
cafe
3804
0000
0000
0125
cafe
3c14
0000
0000
0117
cafe
200d
0000
0000
00db
cafe
241d
0000
0000
01be
cafe
2805
0000
0000
0140
cafe
2c15
0000
0000
00b7
cafe
300e
0000
0000
015c
cafe
341e
0000
0000
01f6
cafe
3806
0000
0000
012d
cafe
3c16
0000
0000
0090
cafe
200f
0000
0000
01dc
cafe
241f
0000
0000
0103
cafe
2807
0000
0000
0134
cafe
2c17
0000
0000
00f2
cafe
3008
0000
0000
0181
cafe
3418
0000
0000
00d3
cafe
3800
0000
0000
00c6
cafe
3c10
0000
0000
00d0
cafe
2009
0000
0000
0159
cafe
2419
0000
0000
0089
cafe
2801
0000
0000
0141
cafe
2c11
0000
0000
01c7
cafe
300a
0000
0000
0160
cafe
341a
0000
0000
01e0
cafe
3802
0000
0000
0114
cafe
3c12
0000
0000
00fc
cafe
200b
0000
0000
0166
cafe
241b
0000
0000
01a0
cafe
2803
0000
0000
0170
cafe
2c13
0000
0000
0190
cafe
300c
0000
0000
0148
cafe
341c
0000
0000
0151
cafe
3804
0000
0000
0125
cafe
3c14
0000
0000
010f
cafe
200d
0000
0000
00d3
cafe
241d
0000
0000
01bc
cafe
2805
0000
0000
0147
cafe
2c15
0000
0000
00bb
cafe
300e
0000
0000
015a
cafe
341e
0000
0000
01f6
cafe
3806
0000
0000
0132
cafe
3c16
0000
0000
0097
cafe
200f
0000
0000
01dd
cafe
241f
0000
-
0000
0103
cafe
2807
0000
0000
0133
cafe
2c17
0000
0000
00f7
cafe
3008
0000
0000
0185
cafe
3418
0000
0000
00d5
cafe
3800
0000
0000
00c8
cafe
3c10
0000
0000
00d8
cafe
2009
0000
0000
0154
cafe
2419
0000
0000
008b
cafe
2801
0000
0000
0139
cafe
2c11
0000
0000
01c6
cafe
300a
0000
0000
0168
cafe
341a
0000
0000
01d9
cafe
3802
0000
0000
0114
cafe
3c12
0000
0000
00f9
cafe
200b
0000
0000
015d
cafe
241b
0000
0000
0197
cafe
2803
0000
0000
0175
cafe
2c13
0000
0000
018a
cafe
300c
0000
0000
0140
cafe
341c
0000
0000
014f
cafe
3804
0000
0000
0121
cafe
3c14
0000
0000
010d
cafe
200d
0000
0000
00ce
cafe
241d
0000
0000
01be
cafe
2805
0000
0000
014a
cafe
2c15
0000
0000
00b6
cafe
300e
0000
0000
015a
cafe
341e
0000
0000
01f3
cafe
3806
0000
0000
011f
cafe
3c16
0000
0000
0097
cafe
200f
0000
0000
01d2
cafe
241f
0000
0000
0107
cafe
2807
0000
0000
012e
cafe
2c17
0000
0000
00f4
cafe
3008
0000
0000
0186
cafe
3418
0000
0000
00d5
cafe
3800
0000
0000
00d7
cafe
3c10
0000
0000
00d1
cafe
2009
0000
0000
014c
cafe
2419
0000
0000
008c
cafe
2801
0000
0000
0132
cafe
2c11
0000
0000
01c6
cafe
300a
0000
0000
0164
cafe
341a
0000
0000
01dd
cafe
3802
0000
0000
0111
cafe
3c12
0000
0000
00fc
cafe
200b
0000
0000
015b
cafe
241b
0000
0000
0199
cafe
2803
0000
0000
0173
cafe
2c13
0000
0000
0186
cafe
300c
0000
0000
-
013d
cafe
341c
0000
0000
0154
cafe
3804
0000
0000
011f
cafe
3c14
0000
0000
0116
cafe
200d
0000
0000
00c9
cafe
241d
0000
0000
01bf
cafe
2805
0000
0000
014a
cafe
2c15
0000
0000
00aa
cafe
300e
0000
0000
0153
cafe
341e
0000
0000
01e8
cafe
3806
0000
0000
0124
cafe
3c16
0000
0000
0097
cafe
200f
0000
0000
01d9
cafe
241f
0000
0000
010c
cafe
2807
0000
0000
012d
cafe
2c17
0000
0000
00ee
cafe
3008
0000
0000
0185
cafe
3418
0000
0000
00d5
cafe
3800
0000
0000
00d0
cafe
3c10
0000
0000
00cb
cafe
2009
0000
0000
014a
cafe
2419
0000
0000
008a
cafe
2801
0000
0000
0138
cafe
2c11
0000
0000
01c7
cafe
300a
0000
0000
0160
cafe
341a
0000
0000
01d8
cafe
3802
0000
0000
010e
cafe
3c12
0000
0000
00f9
cafe
200b
0000
0000
0167
cafe
241b
0000
0000
019b
cafe
2803
0000
0000
017a
cafe
2c13
0000
0000
017e
cafe
300c
0000
0000
0142
cafe
341c
0000
0000
014e
cafe
3804
0000
0000
011b
cafe
3c14
0000
0000
010f
cafe
200d
0000
0000
00ca
cafe
241d
0000
0000
01c2
cafe
2805
0000
0000
0149
cafe
2c15
0000
0000
00b6
cafe
300e
0000
0000
0156
cafe
341e
0000
0000
01e8
cafe
3806
0000
0000
0132
cafe
3c16
0000
0000
0094
cafe
200f
0000
0000
01de
cafe
241f
0000
0000
0103
cafe
2807
0000
0000
0129
cafe
2c17
0000
0000
00f9
cafe
3008
0000
0000
0183
cafe
3418
0000
0000
00d7
cafe
3800
0000
0000
00d4
cafe
3c10
0000
0000
00c7
-
cafe
2009
0000
0000
014b
cafe
2419
0000
0000
0082
cafe
2801
0000
0000
013c
cafe
2c11
0000
0000
01c2
cafe
300a
0000
0000
015d
cafe
341a
0000
0000
01dc
cafe
3802
0000
0000
0107
cafe
3c12
0000
0000
00fc
cafe
200b
0000
0000
0164
cafe
241b
0000
0000
019a
cafe
2803
0000
0000
0180
cafe
2c13
0000
0000
0184
cafe
300c
0000
0000
0135
cafe
341c
0000
0000
0150
cafe
3804
0000
0000
010f
cafe
3c14
0000
0000
010b
cafe
200d
0000
0000
00ca
cafe
241d
0000
0000
01bd
cafe
2805
0000
0000
0153
cafe
2c15
0000
0000
00af
cafe
300e
0000
0000
0159
cafe
341e
0000
0000
01e1
cafe
3806
0000
0000
0131
cafe
3c16
0000
0000
008e
cafe
200f
0000
0000
01d5
cafe
241f
0000
0000
00fd
cafe
2807
0000
0000
0126
cafe
2c17
0000
0000
00fd
cafe
3008
0000
0000
0182
cafe
3418
0000
0000
00d0
cafe
3800
0000
0000
00d6
cafe
3c10
0000
0000
00c7
cafe
2009
0000
0000
014e
cafe
2419
0000
0000
007f
cafe
2801
0000
0000
0141
cafe
2c11
0000
0000
01b9
cafe
300a
0000
0000
015f
cafe
341a
0000
0000
01d9
cafe
3802
0000
0000
0109
cafe
3c12
0000
0000
00f2
cafe
200b
0000
0000
015a
cafe
241b
0000
0000
019c
cafe
2803
0000
0000
016e
cafe
2c13
0000
0000
0187
cafe
300c
0000
0000
0132
cafe
341c
0000
0000
0159
cafe
3804
0000
0000
010c
cafe
3c14
0000
0000
0107
cafe
200d
0000
0000
00c9
cafe
241d
0000
0000
01b7
cafe
2805
0000
0000
015e
cafe
-
