300b
5556
06d4
01c3
cafe
341b
5556
06d4
016f
cafe
3803
5556
06d4
01f5
cafe
3c13
5556
06d8
017d
cafe
200c
5556
06d8
0201
cafe
241c
5556
06d8
01a5
cafe
2804
5556
06d8
01d1
cafe
2c14
5556
06dc
00b1
cafe
300d
5556
06dc
017d
cafe
341d
5556
06dc
01e8
cafe
3805
5556
06dc
019b
cafe
3c15
5556
06e0
01b5
cafe
200e
5556
06e0
0119
cafe
241e
5556
06e0
01a0
cafe
2806
5556
06e0
01ba
cafe
2c16
5556
06e4
01b7
cafe
300f
5556
06e4
0148
cafe
341f
5556
06e4
0106
cafe
3807
5556
06e4
01bd
cafe
3c17
5556
06e8
01ea
cafe
2008
5556
06e8
01a7
cafe
2418
5556
06e8
01a7
cafe
2800
5556
06e8
01ef
cafe
2c10
5556
06ec
0192
cafe
3009
5556
06ec
01c7
cafe
3419
5556
06ec
01cd
cafe
3801
5556
06ec
01be
cafe
3c11
5556
06f0
01bf
cafe
200a
5556
06f0
0149
cafe
241a
5556
06f0
00c6
cafe
2802
5556
06f0
01af
cafe
2c12
5556
06f4
01ce
cafe
300b
5556
06f4
01bf
cafe
341b
5556
06f4
0169
cafe
3803
5556
06f4
01fc
cafe
3c13
5556
06f8
0183
cafe
200c
5556
06f8
020b
cafe
241c
5556
06f8
01af
cafe
2804
5556
06f8
01d0
cafe
2c14
5556
06fc
00bd
cafe
300d
5556
06fc
017a
cafe
341d
5556
06fc
01e5
cafe
3805
5556
06fc
019d
cafe
3c15
5556
0700
01b1
cafe
200e
5556
0700
0115
cafe
241e
5556
0700
0194
cafe
2806
5556
0700
01c0
cafe
2c16
5556
0704
01b8
cafe
300f
5556
0704
0151
cafe
341f
5556
0704
010d
cafe
3807
5556
0704
01ba
cafe
3c17
-
5556
0708
01f0
cafe
2008
5556
0708
01a9
cafe
2418
5556
0708
01b3
cafe
2800
5556
0708
01f3
cafe
2c10
5556
070c
01a4
cafe
3009
5556
070c
01d2
cafe
3419
5556
070c
01c6
cafe
3801
5556
070c
01b9
cafe
3c11
5556
0710
01be
cafe
200a
5556
0710
014e
cafe
241a
5556
0710
00b9
cafe
2802
5556
0710
01ad
cafe
2c12
5556
0714
01cd
cafe
300b
5556
0714
01b6
cafe
341b
5556
0714
016d
cafe
3803
5556
0714
01fd
cafe
3c13
5556
0718
0176
cafe
200c
5556
0718
0205
cafe
241c
5556
0718
01ad
cafe
2804
5556
0718
01ce
cafe
2c14
5556
071c
00b6
cafe
300d
5556
071c
0177
cafe
341d
5556
071c
01e9
cafe
3805
5556
071c
019f
cafe
3c15
5556
0720
01a2
cafe
200e
5556
0720
011a
cafe
241e
5556
0720
0196
cafe
2806
5556
0720
01b4
cafe
2c16
5556
0724
01be
cafe
300f
5556
0724
014d
cafe
341f
5556
0724
010a
cafe
3807
5556
0724
01bb
cafe
3c17
5556
0728
01f9
cafe
2008
5556
0728
01b5
cafe
2418
5556
0728
01b1
cafe
2800
5556
0728
01f9
cafe
2c10
5556
072c
01ab
cafe
3009
5556
072c
01d5
cafe
3419
5556
072c
01cd
cafe
3801
5556
072c
01bf
cafe
3c11
5556
0730
01bf
cafe
200a
5556
0730
0147
cafe
241a
5556
0730
00bd
cafe
2802
5556
0730
01b2
cafe
2c12
5556
0734
01c9
cafe
300b
5556
0734
01b9
cafe
341b
5556
0734
0168
cafe
3803
5556
0734
01f5
cafe
3c13
5556
0738
0179
cafe
200c
5556
0738
0202
cafe
241c
5556
0738
01af
cafe
2804
5556
-
0738
01d2
cafe
2c14
5556
073c
00b9
cafe
300d
5556
073c
0171
cafe
341d
5556
073c
01ef
cafe
3805
5556
073c
0199
cafe
3c15
5556
0740
01a6
cafe
200e
5556
0740
0122
cafe
241e
5556
0740
019c
cafe
2806
5556
0740
01b4
cafe
2c16
5556
0744
01bf
cafe
300f
5556
0744
0143
cafe
341f
5556
0744
0105
cafe
3807
5556
0744
01ba
cafe
3c17
5556
0748
01ed
cafe
2008
5556
0748
01b1
cafe
2418
5556
0748
01ad
cafe
2800
5556
0748
01fb
cafe
2c10
5556
074c
01ab
cafe
3009
5556
074c
01e3
cafe
3419
5556
074c
01d9
cafe
3801
5556
074c
01b9
cafe
3c11
5556
0750
01bb
cafe
200a
5556
0750
0152
cafe
241a
5556
0750
00c1
cafe
2802
5556
0750
01b4
cafe
2c12
5556
0754
01d3
cafe
300b
5556
0754
01b7
cafe
341b
5556
0754
0163
cafe
3803
5556
0754
01f1
cafe
3c13
5556
0758
0179
cafe
200c
5556
0758
01ff
cafe
241c
5556
0758
01ac
cafe
2804
5556
0758
01cd
cafe
2c14
5556
075c
00b8
cafe
300d
5556
075c
017e
cafe
341d
5556
075c
01ee
cafe
3805
5556
075c
0194
cafe
3c15
5556
0760
01af
cafe
200e
5556
0760
011a
cafe
241e
5556
0760
01a2
cafe
2806
5556
0760
01aa
cafe
2c16
5556
0764
01b8
cafe
300f
5556
0764
014e
cafe
341f
5556
0764
0103
cafe
3807
5556
0764
01c5
cafe
3c17
5556
0768
01ee
cafe
2008
5556
0768
01ae
cafe
2418
5556
0768
01ad
cafe
2800
5556
0768
0202
cafe
2c10
5556
076c
01a7
cafe
3009
5556
076c
01e3
cafe
3419
5556
076c
-
01db
cafe
3801
5556
076c
01c0
cafe
3c11
5556
0770
01ba
cafe
200a
5556
0770
014d
cafe
241a
5556
0770
00bd
cafe
2802
5556
0770
01b7
cafe
2c12
5556
0774
01c9
cafe
300b
5556
0774
01b7
cafe
341b
5556
0774
0167
cafe
3803
5556
0774
01f1
cafe
3c13
5556
0778
0174
cafe
200c
5556
0778
01fc
cafe
241c
5556
0778
01a7
cafe
2804
5556
0778
01cc
cafe
2c14
5556
077c
00bc
cafe
300d
5556
077c
017b
cafe
341d
5556
077c
01ec
cafe
3805
5556
077c
0197
cafe
3c15
5556
0780
01a9
cafe
200e
5556
0780
0122
cafe
241e
5556
0780
01a5
cafe
2806
5556
0780
01aa
cafe
2c16
5556
0784
01b1
cafe
300f
5556
0784
0153
cafe
341f
5556
0784
0104
cafe
3807
5556
0784
01c0
cafe
3c17
5556
0788
01f6
cafe
2008
5556
0788
01a6
cafe
2418
5556
0788
01ab
cafe
2800
5556
0788
01fc
cafe
2c10
5556
078c
01a5
cafe
3009
5556
078c
01d8
cafe
3419
5556
078c
01d6
cafe
3801
5556
078c
01c0
cafe
3c11
5556
0790
01b2
cafe
200a
5556
0790
015b
cafe
241a
5556
0790
00c1
cafe
2802
5556
0790
01bd
cafe
2c12
5556
0794
01c5
cafe
300b
5556
0794
01b6
cafe
341b
5556
0794
0164
cafe
3803
5556
0794
01ed
cafe
3c13
5556
0798
017f
cafe
200c
5556
0798
0205
cafe
241c
5556
0798
01ab
cafe
2804
5556
0798
01ce
cafe
2c14
5556
079c
00bf
cafe
300d
5556
079c
0173
cafe
341d
5556
079c
01e6
cafe
3805
5556
079c
0199
cafe
3c15
5556
07a0
01af
cafe
200e
5556
07a0
0125
-
cafe
241e
5556
07a0
01a9
cafe
2806
5556
07a0
01ae
cafe
2c16
5556
07a4
01be
cafe
300f
5556
07a4
014e
cafe
341f
5556
07a4
0107
cafe
3807
5556
07a4
01bc
cafe
3c17
5556
07a8
01ed
cafe
2008
5556
07a8
01a2
cafe
2418
5556
07a8
01b1
cafe
2800
5556
07a8
01fb
cafe
2c10
5556
07ac
019e
cafe
3009
5556
07ac
01d3
cafe
3419
5556
07ac
01cf
cafe
3801
5556
07ac
01c1
cafe
3c11
5556
07b0
01ac
cafe
200a
5556
07b0
015d
cafe
241a
5556
07b0
00b9
cafe
2802
5556
07b0
01ba
cafe
2c12
5556
07b4
01c1
cafe
300b
5556
07b4
01b1
cafe
341b
5556
07b4
0172
cafe
3803
5556
07b4
01ed
cafe
3c13
5556
07b8
0182
cafe
200c
5556
07b8
0204
cafe
241c
5556
07b8
01a8
cafe
2804
5556
07b8
01d4
cafe
2c14
5556
07bc
00bb
cafe
300d
5556
07bc
0171
cafe
341d
5556
07bc
01ef
cafe
3805
5556
07bc
019c
cafe
3c15
5556
07c0
01ad
cafe
200e
5556
07c0
0132
cafe
241e
5556
07c0
01ab
cafe
2806
5556
07c0
01c0
cafe
2c16
5556
07c4
01c5
cafe
300f
5556
07c4
014d
cafe
341f
5556
07c4
0105
cafe
3807
5556
07c4
01b7
cafe
3c17
5556
07c8
01f5
cafe
2008
5556
07c8
01ab
cafe
2418
5556
07c8
01af
cafe
2800
5556
07c8
0200
cafe
2c10
5556
07cc
019f
cafe
3009
5556
07cc
01cf
cafe
3419
5556
07cc
01c6
cafe
3801
5556
07cc
01bf
cafe
3c11
5556
07d0
01ad
cafe
200a
5556
07d0
0157
cafe
241a
5556
07d0
00b9
cafe
2802
5556
07d0
01bb
cafe
2c12
5556
07d4
01ca
cafe
-
300b
5556
07d4
01b3
cafe
341b
5556
07d4
016c
cafe
3803
5556
07d4
01e8
cafe
3c13
5556
07d8
0181
cafe
200c
5556
07d8
0205
cafe
241c
5556
07d8
01aa
cafe
2804
5556
07d8
01d6
cafe
2c14
5556
07dc
00ba
cafe
300d
5556
07dc
016f
cafe
341d
5556
07dc
01f2
cafe
3805
5556
07dc
0198
cafe
3c15
5556
07e0
01a7
cafe
200e
5556
07e0
0132
cafe
241e
5556
07e0
01b3
cafe
2806
5556
07e0
01bd
cafe
2c16
5556
07e4
01bf
cafe
300f
5556
07e4
0143
cafe
341f
5556
07e4
00fe
cafe
3807
5556
07e4
01b5
cafe
3c17
5556
07e8
01f9
cafe
2008
5556
07e8
01af
cafe
2418
5556
07e8
01b6
cafe
2800
5556
07e8
0206
cafe
2c10
5556
07ec
01a3
cafe
3009
5556
07ec
01d5
cafe
3419
5556
07ec
01c6
cafe
3801
5556
07ec
01be
cafe
3c11
5556
07f0
01aa
cafe
200a
5556
07f0
015a
cafe
241a
5556
07f0
00ba
cafe
2802
5556
07f0
01b9
cafe
2c12
5556
07f4
01d1
cafe
300b
5556
07f4
01af
cafe
341b
5556
07f4
016e
cafe
3803
5556
07f4
01f0
cafe
3c13
5556
07f8
017f
cafe
200c
5556
07f8
0207
cafe
241c
5556
07f8
01a9
cafe
2804
5556
07f8
01d8
cafe
2c14
5556
07fc
00b7
cafe
300d
5556
07fc
016d
cafe
341d
5556
07fc
01f0
cafe
3805
5556
07fc
0192
cafe
3c15
5556
0800
01ad
cafe
200e
5556
0800
0126
cafe
241e
5556
0800
01ab
cafe
2806
5556
0800
01b8
cafe
2c16
5556
0804
01ba
cafe
300f
5556
0804
013e
cafe
341f
5556
0804
00ff
cafe
3807
5556
0804
01b9
cafe
3c17
-
5556
0808
01f7
cafe
2008
5556
0808
01ad
cafe
2418
5556
0808
01b5
cafe
2800
5556
0808
020c
cafe
2c10
5556
080c
01a5
cafe
3009
5556
080c
01d7
cafe
3419
5556
080c
01c6
cafe
3801
5556
080c
01b3
cafe
3c11
5556
0810
01a9
cafe
200a
5556
0810
015b
cafe
241a
5556
0810
00c5
cafe
2802
5556
0810
01bb
cafe
2c12
5556
0814
01cd
cafe
300b
5556
0814
01a8
cafe
341b
5556
0814
0175
cafe
3803
5556
0814
01ea
cafe
3c13
5556
0818
0187
cafe
200c
5556
0818
0208
cafe
241c
5556
0818
01ab
cafe
2804
5556
0818
01d7
cafe
2c14
5556
081c
00b1
cafe
300d
5556
081c
0171
cafe
341d
5556
081c
01ee
cafe
3805
5556
081c
019a
cafe
3c15
5556
0820
01ae
cafe
200e
5556
0820
012b
cafe
241e
5556
0820
01b0
cafe
2806
5556
0820
01ba
cafe
2c16
5556
0824
01be
cafe
300f
5556
0824
014f
cafe
341f
5556
0824
00f5
cafe
3807
5556
0824
01b5
cafe
3c17
5556
0828
01fe
cafe
2008
5556
0828
01ad
cafe
2418
5556
0828
01a6
cafe
2800
5556
0828
0203
cafe
2c10
5556
082c
01a3
cafe
3009
5556
082c
01d8
cafe
3419
5556
082c
01cd
cafe
3801
5556
082c
01b5
cafe
3c11
5556
0830
01b4
cafe
200a
5556
0830
015c
cafe
241a
5556
0830
00c3
cafe
2802
5556
0830
01bb
cafe
2c12
5556
0834
01cb
cafe
300b
5556
0834
01b3
cafe
341b
5556
0834
0172
cafe
3803
5556
0834
01ec
cafe
3c13
5556
0838
0185
cafe
200c
5556
0838
0202
cafe
241c
5556
0838
01ad
cafe
2804
5556
-
0838
01d4
cafe
2c14
5556
083c
00ac
cafe
300d
5556
083c
0172
cafe
341d
5556
083c
01f0
cafe
3805
5556
083c
019a
cafe
3c15
5556
0840
01b8
cafe
200e
5556
0840
0129
cafe
241e
5556
0840
01ae
cafe
2806
5556
0840
01ba
cafe
2c16
5556
0844
01bb
cafe
300f
5556
0844
015b
cafe
341f
5556
0844
00fc
cafe
3807
5556
0844
01b5
cafe
3c17
5556
0848
01fa
cafe
2008
5556
0848
01a5
cafe
2418
5556
0848
01ad
cafe
2800
5556
0848
0201
cafe
2c10
5556
084c
01a0
cafe
3009
5556
084c
01d7
cafe
3419
5556
084c
01cb
cafe
3801
5556
084c
01b6
cafe
3c11
5556
0850
01b1
cafe
200a
5556
0850
015d
cafe
241a
5556
0850
00c7
cafe
2802
5556
0850
01bb
cafe
2c12
5556
0854
01c6
cafe
300b
5556
0854
01ab
cafe
341b
5556
0854
0170
cafe
3803
5556
0854
01e6
cafe
3c13
5556
0858
017d
cafe
200c
5556
0858
01fa
cafe
241c
5556
0858
01a9
cafe
2804
5556
0858
01d1
cafe
2c14
5556
085c
00a3
cafe
300d
5556
085c
0170
cafe
341d
5556
085c
01e4
cafe
3805
5556
085c
0197
cafe
3c15
5556
0860
01c2
cafe
200e
5556
0860
0125
cafe
241e
5556
0860
01af
cafe
2806
5556
0860
01c4
cafe
2c16
5556
0864
01b6
cafe
300f
5556
0864
0157
cafe
341f
5556
0864
00fd
cafe
3807
5556
0864
01ba
cafe
3c17
5556
0868
01ff
cafe
2008
5556
0868
01a3
cafe
2418
5556
0868
01b1
cafe
2800
5556
0868
01fd
cafe
2c10
5556
086c
01a3
cafe
3009
5556
086c
01d7
cafe
3419
5556
086c
-
01ce
cafe
3801
5556
086c
01bf
cafe
3c11
5556
0870
01aa
cafe
200a
5556
0870
0162
cafe
241a
5556
0870
00c8
cafe
2802
5556
0870
01bc
cafe
2c12
5556
0874
01c1
cafe
300b
5556
0874
01aa
cafe
341b
5556
0874
0171
cafe
3803
5556
0874
01e5
cafe
3c13
5556
0878
0177
cafe
200c
5556
0878
01ff
cafe
241c
5556
0878
01ac
cafe
2804
5556
0878
01d2
cafe
2c14
5556
087c
00a9
cafe
300d
5556
087c
016f
cafe
341d
5556
087c
01dd
cafe
3805
5556
087c
018d
cafe
3c15
5556
0880
01bf
cafe
200e
5556
0880
012b
cafe
241e
5556
0880
01b1
cafe
2806
5556
0880
01bd
cafe
2c16
5556
0884
01b2
cafe
300f
5556
0884
0148
cafe
341f
5556
0884
00f5
cafe
3807
5556
0884
01bd
cafe
3c17
5556
0888
0202
cafe
2008
5556
0888
01a1
cafe
2418
5556
0888
01ad
cafe
2800
5556
0888
0206
cafe
2c10
5556
088c
01a9
cafe
3009
5556
088c
01da
cafe
3419
5556
088c
01d2
cafe
3801
5556
088c
01c5
cafe
3c11
5556
0890
01b0
cafe
200a
5556
0890
015b
cafe
241a
5556
0890
00be
cafe
2802
5556
0890
01b6
cafe
2c12
5556
0894
01bd
cafe
300b
5556
0894
01af
cafe
341b
5556
0894
016f
cafe
3803
5556
0894
01e6
cafe
3c13
5556
0898
0173
cafe
200c
5556
0898
01fe
cafe
241c
5556
0898
01b0
cafe
2804
5556
0898
01d1
cafe
2c14
5556
089c
00af
cafe
300d
5556
089c
0177
cafe
341d
5556
089c
01e1
cafe
3805
5556
089c
0196
cafe
3c15
5556
08a0
01c1
cafe
200e
5556
08a0
0130
-
cafe
241e
5556
08a0
01af
cafe
2806
5556
08a0
01bc
cafe
2c16
5556
08a4
01af
cafe
300f
5556
08a4
0141
cafe
341f
5556
08a4
00f8
cafe
3807
5556
08a4
01b1
cafe
3c17
5556
08a8
01fb
cafe
2008
5556
08a8
019c
cafe
2418
5556
08a8
01ad
cafe
2800
5556
08a8
0203
cafe
2c10
5556
08ac
01aa
cafe
3009
5556
08ac
01dc
cafe
3419
5556
08ac
01d3
cafe
3801
5556
08ac
01bf
cafe
3c11
5556
08b0
01ad
cafe
200a
5556
08b0
015f
cafe
241a
5556
08b0
00c5
cafe
2802
5556
08b0
01be
cafe
2c12
5556
08b4
01c7
cafe
300b
5556
08b4
01b5
cafe
341b
5556
08b4
016e
cafe
3803
5556
08b4
01e2
cafe
3c13
5556
08b8
0179
cafe
200c
5556
08b8
020a
cafe
241c
5556
08b8
01a5
cafe
2804
5556
08b8
01d2
cafe
2c14
5556
08bc
00ae
cafe
300d
5556
08bc
017d
cafe
341d
5556
08bc
01e6
cafe
3805
5556
08bc
01a0
cafe
3c15
5556
08c0
01c4
cafe
200e
5556
08c0
0135
cafe
241e
5556
08c0
01a8
cafe
2806
5556
08c0
01c5
cafe
2c16
5556
08c4
01b2
cafe
300f
5556
08c4
013e
cafe
341f
5556
08c4
0103
cafe
3807
5556
08c4
01b1
cafe
3c17
5556
08c8
01fa
cafe
2008
5556
08c8
019f
cafe
2418
5556
08c8
01a1
cafe
2800
5556
08c8
0202
cafe
2c10
5556
08cc
01a9
cafe
3009
5556
08cc
01db
cafe
3419
5556
08cc
01d5
cafe
3801
5556
08cc
01c7
cafe
3c11
5556
08d0
01af
cafe
200a
5556
08d0
0157
cafe
241a
5556
08d0
00bd
cafe
2802
5556
08d0
01b1
cafe
2c12
5556
08d4
01b9
cafe
-
300b
5556
08d4
01b5
cafe
341b
5556
08d4
017a
cafe
3803
5556
08d4
01ea
cafe
3c13
5556
08d8
0183
cafe
200c
5556
08d8
0201
cafe
241c
5556
08d8
01a9
cafe
2804
5556
08d8
01d0
cafe
2c14
5556
08dc
00ae
cafe
300d
5556
08dc
017b
cafe
341d
5556
08dc
01e6
cafe
3805
5556
08dc
0197
cafe
3c15
5556
08e0
01b8
cafe
200e
5556
08e0
0130
cafe
241e
5556
08e0
01a9
cafe
2806
5556
08e0
01c3
cafe
2c16
5556
08e4
01b7
cafe
300f
5556
08e4
0146
cafe
341f
5556
08e4
0102
cafe
3807
5556
08e4
01b4
cafe
3c17
5556
08e8
01f7
cafe
2008
5556
08e8
01a2
cafe
2418
5556
08e8
019f
cafe
2800
5556
08e8
01fa
cafe
2c10
5556
08ec
01a5
cafe
3009
5556
08ec
01e0
cafe
3419
5556
08ec
01d2
cafe
3801
5556
08ec
01c8
cafe
3c11
5556
08f0
01b4
cafe
200a
5556
08f0
0156
cafe
241a
5556
08f0
00c2
cafe
2802
5556
08f0
01b5
cafe
2c12
5556
08f4
01c0
cafe
300b
5556
08f4
01ba
cafe
341b
5556
08f4
0170
cafe
3803
5556
08f4
01e8
cafe
3c13
5556
08f8
0180
cafe
200c
5556
08f8
0201
cafe
241c
5556
08f8
01ab
cafe
2804
5556
08f8
01d0
cafe
2c14
5556
08fc
00ad
cafe
300d
5556
08fc
017d
cafe
341d
5556
08fc
01e3
cafe
3805
5556
08fc
0194
cafe
3c15
5556
0900
01bc
cafe
200e
5556
0900
0129
cafe
241e
5556
0900
01b3
cafe
2806
5556
0900
01c1
cafe
2c16
5556
0904
01ba
cafe
300f
5556
0904
014d
cafe
341f
5556
0904
0101
cafe
3807
5556
0904
01b9
cafe
3c17
-
5556
0908
01f6
cafe
2008
5556
0908
01a0
cafe
2418
5556
0908
01aa
cafe
2800
5556
0908
01fb
cafe
2c10
5556
090c
01a4
cafe
3009
5556
090c
01d6
cafe
3419
5556
090c
01ca
cafe
3801
5556
090c
01c9
cafe
3c11
5556
0910
01b3
cafe
200a
5556
0910
014f
cafe
241a
5556
0910
00c0
cafe
2802
5556
0910
01b3
cafe
2c12
5556
0914
01cd
cafe
300b
5556
0914
01bf
cafe
341b
5556
0914
0175
cafe
3803
5556
0914
01f0
cafe
3c13
5556
0918
0182
cafe
200c
5556
0918
0203
cafe
241c
5556
0918
01ab
cafe
2804
5556
0918
01d0
cafe
2c14
5556
091c
00ad
cafe
300d
5556
091c
0174
cafe
341d
5556
091c
01e4
cafe
3805
5556
091c
019c
cafe
3c15
5556
0920
01b7
cafe
200e
5556
0920
011c
cafe
241e
5556
0920
01b3
cafe
2806
5556
0920
01bc
cafe
2c16
5556
0924
01bc
cafe
300f
5556
0924
014d
cafe
341f
5556
0924
0104
cafe
3807
5556
0924
01bb
cafe
3c17
5556
0928
01f4
cafe
2008
5556
0928
019d
cafe
2418
5556
0928
01ab
cafe
2800
5556
0928
01fe
cafe
2c10
5556
092c
019e
cafe
3009
5556
092c
01e9
cafe
3419
5556
092c
01c5
cafe
3801
5556
092c
01c7
cafe
3c11
5556
0930
01c4
cafe
200a
5556
0930
0159
cafe
241a
5556
0930
00c7
cafe
2802
5556
0930
01bc
cafe
2c12
5556
0934
01cb
cafe
300b
5556
0934
01c2
cafe
341b
5556
0934
0170
cafe
3803
5556
0934
01eb
cafe
3c13
5556
0938
0181
cafe
200c
5556
0938
0202
cafe
241c
5556
0938
01ad
cafe
2804
5556
-
0938
01d3
cafe
2c14
5556
093c
00aa
cafe
300d
5556
093c
0163
cafe
341d
5556
093c
01dd
cafe
3805
5556
093c
0197
cafe
3c15
5556
0940
01b9
cafe
200e
5556
0940
0119
cafe
241e
5556
0940
01b1
cafe
2806
5556
0940
01b0
cafe
2c16
5556
0944
01b7
cafe
300f
5556
0944
0155
cafe
341f
5556
0944
00f7
cafe
3807
5556
0944
01bc
cafe
3c17
5556
0948
01ef
cafe
2008
5556
0948
0197
cafe
2418
5556
0948
01aa
cafe
2800
5556
0948
0204
cafe
2c10
5556
094c
0197
cafe
3009
5556
094c
01e8
cafe
3419
5556
094c
01cd
cafe
3801
5556
094c
01cd
cafe
3c11
5556
0950
01c1
cafe
200a
5556
0950
015c
cafe
241a
5556
0950
00c9
cafe
2802
5556
0950
01b8
cafe
2c12
5556
0954
01ca
cafe
300b
5556
0954
01b8
cafe
341b
5556
0954
0168
cafe
3803
5556
0954
01ea
cafe
3c13
5556
0958
0179
cafe
200c
5556
0958
0204
cafe
241c
5556
0958
01b4
cafe
2804
5556
0958
01cd
cafe
2c14
5556
095c
00ad
cafe
300d
5556
095c
0169
cafe
341d
5556
095c
01df
cafe
3805
5556
095c
019d
cafe
3c15
5556
0960
01b4
cafe
200e
5556
0960
011c
cafe
241e
5556
0960
01b4
cafe
2806
5556
0960
01ab
cafe
2c16
5556
0964
01b2
cafe
300f
5556
0964
0158
cafe
341f
5556
0964
00f9
cafe
3807
5556
0964
01c5
cafe
3c17
5556
0968
01f4
cafe
2008
5556
0968
019b
cafe
2418
5556
0968
01ac
cafe
2800
5556
0968
0201
cafe
2c10
5556
096c
0199
cafe
3009
5556
096c
01e7
cafe
3419
5556
096c
-
01d5
cafe
3801
5556
096c
01d4
cafe
3c11
5556
0970
01c0
cafe
200a
5556
0970
0160
cafe
241a
5556
0970
00d1
cafe
2802
5556
0970
01b4
cafe
2c12
5556
0974
01c5
cafe
300b
5556
0974
01b3
cafe
341b
5556
0974
015c
cafe
3803
5556
0974
01ec
cafe
3c13
5556
0978
0182
cafe
200c
5556
0978
020d
cafe
241c
5556
0978
01af
cafe
2804
5556
0978
01d0
cafe
2c14
5556
097c
00ae
cafe
300d
5556
097c
0165
cafe
341d
5556
097c
01e1
cafe
3805
5556
097c
019d
cafe
3c15
5556
0980
01b6
cafe
200e
5556
0980
0122
cafe
241e
5556
0980
01ad
cafe
2806
5556
0980
01ab
cafe
2c16
5556
0984
01b8
cafe
300f
5556
0984
0157
cafe
341f
5556
0984
00fc
cafe
3807
5556
0984
01c5
cafe
3c17
5556
0988
01f6
cafe
2008
5556
0988
01a4
cafe
2418
5556
0988
01a6
cafe
2800
5556
0988
0204
cafe
2c10
5556
098c
01a6
cafe
3009
5556
098c
01e2
cafe
3419
5556
098c
01d3
cafe
3801
5556
098c
01cf
cafe
3c11
5556
0990
01b9
cafe
200a
5556
0990
015c
cafe
241a
5556
0990
00d7
cafe
2802
5556
0990
01ba
cafe
2c12
5556
0994
01c2
cafe
300b
5556
0994
01b1
cafe
341b
5556
0994
0161
cafe
3803
5556
0994
01e4
cafe
3c13
5556
0998
0178
cafe
200c
5556
0998
0200
cafe
241c
5556
0998
01b1
cafe
2804
5556
0998
01d1
cafe
2c14
5556
099c
00ac
cafe
300d
5556
099c
016d
cafe
341d
5556
099c
01dd
cafe
3805
5556
099c
0199
cafe
3c15
5556
09a0
01b3
cafe
200e
5556
09a0
0125
-
cafe
241e
5556
09a0
01b4
cafe
2806
5556
09a0
01b4
cafe
2c16
5556
09a4
01b7
cafe
300f
5556
09a4
014f
cafe
341f
5556
09a4
00f8
cafe
3807
5556
09a4
01be
cafe
3c17
5556
09a8
01fe
cafe
2008
5556
09a8
019f
cafe
2418
5556
09a8
01a1
cafe
2800
5556
09a8
0201
cafe
2c10
5556
09ac
01ac
cafe
3009
5556
09ac
01db
cafe
3419
5556
09ac
01d2
cafe
3801
5556
09ac
01d2
cafe
3c11
5556
09b0
01b7
cafe
200a
5556
09b0
015c
cafe
241a
5556
09b0
00d3
cafe
2802
5556
09b0
01b8
cafe
2c12
5556
09b4
01cd
cafe
300b
5556
09b4
01b8
cafe
341b
5556
09b4
016b
cafe
3803
5556
09b4
01dc
cafe
3c13
5556
09b8
0172
cafe
200c
5556
09b8
0200
cafe
241c
5556
09b8
01b3
cafe
2804
5556
09b8
01d3
cafe
2c14
5556
09bc
00ac
cafe
300d
5556
09bc
0173
cafe
341d
5556
09bc
01d7
cafe
3805
5556
09bc
0191
cafe
3c15
5556
09c0
01b7
cafe
200e
5556
09c0
012a
cafe
241e
5556
09c0
01a9
cafe
2806
5556
09c0
01ba
cafe
2c16
5556
09c4
01b8
cafe
300f
5556
09c4
014a
cafe
341f
5556
09c4
00ff
cafe
3807
5556
09c4
01c4
cafe
3c17
5556
09c8
01fa
cafe
2008
5556
09c8
01a1
cafe
2418
5556
09c8
019f
cafe
2800
5556
09c8
01fd
cafe
2c10
5556
09cc
01a8
cafe
3009
5556
09cc
01df
cafe
3419
5556
09cc
01d0
cafe
3801
5556
09cc
01d3
cafe
3c11
5556
09d0
01c1
cafe
200a
5556
09d0
0153
cafe
241a
5556
09d0
00d6
cafe
2802
5556
09d0
01b8
cafe
2c12
5556
09d4
01d3
cafe
-
300b
5556
09d4
01bc
cafe
341b
5556
09d4
016b
cafe
3803
5556
09d4
01e6
cafe
3c13
5556
09d8
016c
cafe
200c
5556
09d8
0206
cafe
241c
5556
09d8
01bc
cafe
2804
5556
09d8
01d2
cafe
2c14
5556
09dc
00a2
cafe
300d
5556
09dc
0176
cafe
341d
5556
09dc
01d9
cafe
3805
5556
09dc
0198
cafe
3c15
5556
09e0
01b3
cafe
200e
5556
09e0
0124
cafe
241e
5556
09e0
01b5
cafe
2806
5556
09e0
01b3
cafe
2c16
5556
09e4
01bf
cafe
300f
5556
09e4
014b
cafe
341f
5556
09e4
00ee
cafe
3807
5556
09e4
01cb
cafe
3c17
5556
09e8
01f6
cafe
2008
5556
09e8
01ad
cafe
2418
5556
09e8
01a4
cafe
2800
5556
09e8
0200
cafe
2c10
5556
09ec
019b
cafe
3009
5556
09ec
01d6
cafe
3419
5556
09ec
01ce
cafe
3801
5556
09ec
01cc
cafe
3c11
5556
09f0
01c3
cafe
200a
5556
09f0
0158
cafe
241a
5556
09f0
00d5
cafe
2802
5556
09f0
01b7
cafe
2c12
5556
09f4
01dd
cafe
300b
5556
09f4
01be
cafe
341b
5556
09f4
0171
cafe
3803
5556
09f4
01ed
cafe
3c13
5556
09f8
0170
cafe
200c
5556
09f8
0204
cafe
241c
5556
09f8
01bc
cafe
2804
5556
09f8
01d3
cafe
2c14
5556
09fc
00a8
cafe
300d
5556
09fc
0173
cafe
341d
5556
09fc
01d6
cafe
3805
5556
09fc
0193
cafe
3c15
5556
0a00
01b9
cafe
200e
5556
0a00
0121
cafe
241e
5556
0a00
01b7
cafe
2806
5556
0a00
01b5
cafe
2c16
5556
0a04
01bf
cafe
300f
5556
0a04
0151
cafe
341f
5556
0a04
00f2
cafe
3807
5556
0a04
01cf
cafe
3c17
-
5556
0a08
01ff
cafe
2008
5556
0a08
01a9
cafe
2418
5556
0a08
01a8
cafe
2800
5556
0a08
0201
cafe
2c10
5556
0a0c
01a3
cafe
3009
5556
0a0c
01c8
cafe
3419
5556
0a0c
01cd
cafe
3801
5556
0a0c
01cc
cafe
3c11
5556
0a10
01c1
cafe
200a
5556
0a10
0153
cafe
241a
5556
0a10
00c5
cafe
2802
5556
0a10
01ba
cafe
2c12
5556
0a14
01cf
cafe
300b
5556
0a14
01ba
cafe
341b
5556
0a14
0178
cafe
3803
5556
0a14
01e6
cafe
3c13
5556
0a18
016f
cafe
200c
5556
0a18
0205
cafe
241c
5556
0a18
01b8
cafe
2804
5556
0a18
01d1
cafe
2c14
5556
0a1c
009d
cafe
300d
5556
0a1c
0179
cafe
341d
5556
0a1c
01da
cafe
3805
5556
0a1c
0195
cafe
3c15
5556
0a20
01bb
cafe
200e
5556
0a20
0120
cafe
241e
5556
0a20
01b5
cafe
2806
5556
0a20
01b5
cafe
2c16
5556
0a24
01b6
cafe
300f
5556
0a24
0144
cafe
341f
5556
0a24
00ed
cafe
3807
5556
0a24
01c5
cafe
3c17
5556
0a28
0202
cafe
2008
5556
0a28
01af
cafe
2418
5556
0a28
01a6
cafe
2800
5556
0a28
0201
cafe
2c10
5556
0a2c
01a2
cafe
3009
5556
0a2c
01cf
cafe
3419
5556
0a2c
01d0
cafe
3801
5556
0a2c
01cc
cafe
3c11
5556
0a30
01ba
cafe
200a
5556
0a30
0155
cafe
241a
5556
0a30
00d0
cafe
2802
5556
0a30
01be
cafe
2c12
5556
0a34
01d8
cafe
300b
5556
0a34
01c0
cafe
341b
5556
0a34
0178
cafe
3803
5556
0a34
01eb
cafe
3c13
5556
0a38
0171
cafe
200c
5556
0a38
0205
cafe
241c
5556
0a38
01b0
cafe
2804
5556
-
0a38
01cf
cafe
2c14
5556
0a3c
00ad
cafe
300d
5556
0a3c
017d
cafe
341d
5556
0a3c
01dd
cafe
3805
5556
0a3c
0196
cafe
3c15
5556
0a40
01b0
cafe
200e
5556
0a40
012c
cafe
241e
5556
0a40
01ab
cafe
2806
5556
0a40
01c4
cafe
2c16
5556
0a44
01b3
cafe
300f
5556
0a44
0143
cafe
341f
5556
0a44
0101
cafe
3807
5556
0a44
01be
cafe
3c17
5556
0a48
01fe
cafe
2008
5556
0a48
01ad
cafe
2418
5556
0a48
01a8
cafe
2800
5556
0a48
0201
cafe
2c10
5556
0a4c
01a5
cafe
3009
5556
0a4c
01cf
cafe
3419
5556
0a4c
01d8
cafe
3801
5556
0a4c
01cd
cafe
3c11
5556
0a50
01bd
cafe
200a
5556
0a50
014e
cafe
241a
5556
0a50
00d2
cafe
2802
5556
0a50
01bd
cafe
2c12
5556
0a54
01ce
cafe
300b
5556
0a54
01c1
cafe
341b
5556
0a54
0171
cafe
3803
5556
0a54
01ec
cafe
3c13
5556
0a58
0175
cafe
200c
5556
0a58
01f8
cafe
241c
5556
0a58
01b4
cafe
2804
5556
0a58
01cc
cafe
2c14
5556
0a5c
00aa
cafe
300d
5556
0a5c
017d
cafe
341d
5556
0a5c
01e8
cafe
3805
5556
0a5c
019b
cafe
3c15
5556
0a60
01b0
cafe
200e
5556
0a60
0120
cafe
241e
5556
0a60
01aa
cafe
2806
5556
0a60
01b5
cafe
2c16
5556
0a64
01b5
cafe
300f
5556
0a64
014e
cafe
341f
5556
0a64
00f7
cafe
3807
5556
0a64
01bd
cafe
3c17
5556
0a68
01fd
cafe
2008
5556
0a68
01b1
cafe
2418
5556
0a68
01a7
cafe
2800
5556
0a68
01f7
cafe
2c10
5556
0a6c
01a6
cafe
3009
5556
0a6c
01d9
cafe
3419
5556
0a6c
-
01d7
cafe
3801
5556
0a6c
01d5
cafe
3c11
5556
0a70
01c0
cafe
200a
5556
0a70
0150
cafe
241a
5556
0a70
00cd
cafe
2802
5556
0a70
01b5
cafe
2c12
5556
0a74
01d5
cafe
300b
5556
0a74
01c2
cafe
341b
5556
0a74
016f
cafe
3803
5556
0a74
01f6
cafe
3c13
5556
0a78
0176
cafe
200c
5556
0a78
01fd
cafe
241c
5556
0a78
01b1
cafe
2804
5556
0a78
01cb
cafe
2c14
5556
0a7c
00ad
cafe
300d
5556
0a7c
0186
cafe
341d
5556
0a7c
01ec
cafe
3805
5556
0a7c
0194
cafe
3c15
5556
0a80
01b4
cafe
200e
5556
0a80
012c
cafe
241e
5556
0a80
01a7
cafe
2806
5556
0a80
01be
cafe
2c16
5556
0a84
01b2
cafe
300f
5556
0a84
0150
cafe
341f
5556
0a84
00fb
cafe
3807
5556
0a84
01c1
cafe
3c17
5556
0a88
0200
cafe
2008
5556
0a88
01ad
cafe
2418
5556
0a88
01ad
cafe
2800
5556
0a88
01f4
cafe
2c10
5556
0a8c
01a3
cafe
3009
5556
0a8c
01d3
cafe
3419
5556
0a8c
01ce
cafe
3801
5556
0a8c
01d4
cafe
3c11
5556
0a90
01bc
cafe
200a
5556
0a90
0151
cafe
241a
5556
0a90
00d4
cafe
2802
5556
0a90
01bf
cafe
2c12
5556
0a94
01d0
cafe
300b
5556
0a94
01b9
cafe
341b
5556
0a94
0166
cafe
3803
5556
0a94
01f3
cafe
3c13
5556
0a98
0179
cafe
200c
5556
0a98
01f5
cafe
241c
5556
0a98
01a7
cafe
2804
5556
0a98
01cc
cafe
2c14
5556
0a9c
00a6
cafe
300d
5556
0a9c
0181
cafe
341d
5556
0a9c
01e9
cafe
3805
5556
0a9c
0195
cafe
3c15
5556
0aa0
01b9
cafe
200e
5556
0aa0
012b
-
cafe
241e
5556
0aa0
01ab
cafe
2806
5556
0aa0
01b8
cafe
2c16
5556
0aa4
01ae
cafe
300f
5556
0aa4
014a
cafe
341f
5556
0aa4
0103
cafe
3807
5556
0aa4
01c8
cafe
3c17
5556
0aa8
01fd
cafe
2008
5556
0aa8
01ad
cafe
2418
5556
0aa8
01a6
cafe
2800
5556
0aa8
01f7
cafe
2c10
5556
0aac
01a0
cafe
3009
5556
0aac
01d0
cafe
3419
5556
0aac
01d4
cafe
3801
5556
0aac
01cf
cafe
3c11
5556
0ab0
01b7
cafe
200a
5556
0ab0
0153
cafe
241a
5556
0ab0
00cd
cafe
2802
5556
0ab0
01c0
cafe
2c12
5556
0ab4
01ce
cafe
300b
5556
0ab4
01b3
cafe
341b
5556
0ab4
0168
cafe
3803
5556
0ab4
01f2
cafe
3c13
5556
0ab8
017e
cafe
200c
5556
0ab8
0208
cafe
241c
5556
0ab8
01a5
cafe
2804
5556
0ab8
01c0
cafe
2c14
5556
0abc
00ab
cafe
300d
5556
0abc
017b
cafe
341d
5556
0abc
01ea
cafe
3805
5556
0abc
01a1
cafe
3c15
5556
0ac0
01b3
cafe
200e
5556
0ac0
012d
cafe
241e
5556
0ac0
01a5
cafe
2806
5556
0ac0
01b3
cafe
2c16
5556
0ac4
01af
cafe
300f
5556
0ac4
014b
cafe
341f
5556
0ac4
00f8
cafe
3807
5556
0ac4
01cf
cafe
3c17
5556
0ac8
0204
cafe
2008
5556
0ac8
01ad
cafe
2418
5556
0ac8
01a5
cafe
2800
5556
0ac8
01f7
cafe
2c10
5556
0acc
01a6
cafe
3009
5556
0acc
01d0
cafe
3419
5556
0acc
01d3
cafe
3801
5556
0acc
01ca
cafe
3c11
5556
0ad0
01a9
cafe
200a
5556
0ad0
0154
cafe
241a
5556
0ad0
00d6
cafe
2802
5556
0ad0
01ba
cafe
2c12
5556
0ad4
01cd
cafe
-
300b
5556
0ad4
01b1
cafe
341b
5556
0ad4
0165
cafe
3803
5556
0ad4
01ed
cafe
3c13
5556
0ad8
0183
cafe
200c
5556
0ad8
0203
cafe
241c
5556
0ad8
019e
cafe
2804
5556
0ad8
01b9
cafe
2c14
5556
0adc
00a0
cafe
300d
5556
0adc
0183
cafe
341d
5556
0adc
01ed
cafe
3805
5556
0adc
01a3
cafe
3c15
5556
0ae0
01b6
cafe
200e
5556
0ae0
0133
cafe
241e
5556
0ae0
01a8
cafe
2806
5556
0ae0
01b2
cafe
2c16
5556
0ae4
01b8
cafe
300f
5556
0ae4
0148
cafe
341f
5556
0ae4
00fa
cafe
3807
5556
0ae4
01d1
cafe
3c17
5556
0ae8
01f4
cafe
2008
5556
0ae8
01a5
cafe
2418
5556
0ae8
01a8
cafe
2800
5556
0ae8
01fa
cafe
2c10
5556
0aec
019b
cafe
3009
5556
0aec
01d6
cafe
3419
5556
0aec
01d3
cafe
3801
5556
0aec
01cd
cafe
3c11
5556
0af0
01b4
cafe
200a
5556
0af0
0156
cafe
241a
5556
0af0
00da
cafe
2802
5556
0af0
01b7
cafe
2c12
5556
0af4
01d4
cafe
300b
5556
0af4
01ac
cafe
341b
5556
0af4
016d
cafe
3803
5556
0af4
01e3
cafe
3c13
5556
0af8
0189
cafe
200c
5556
0af8
0203
cafe
241c
5556
0af8
019f
cafe
2804
5556
0af8
01c5
cafe
2c14
5556
0afc
00a3
cafe
300d
5556
0afc
0178
cafe
341d
5556
0afc
01e6
cafe
3805
5556
0afc
019e
cafe
3c15
5556
0b00
01b5
cafe
200e
5556
0b00
012d
cafe
241e
5556
0b00
01a9
cafe
2806
5556
0b00
01b2
cafe
2c16
5556
0b04
01bf
cafe
300f
5556
0b04
0150
cafe
341f
5556
0b04
00fa
cafe
3807
5556
0b04
01cc
cafe
3c17
-
5556
0b08
01fa
cafe
2008
5556
0b08
01a4
cafe
2418
5556
0b08
01ac
cafe
2800
5556
0b08
01f9
cafe
2c10
5556
0b0c
01a5
cafe
3009
5556
0b0c
01d9
cafe
3419
5556
0b0c
01ca
cafe
3801
5556
0b0c
01cc
cafe
3c11
5556
0b10
01ae
cafe
200a
5556
0b10
0151
cafe
241a
5556
0b10
00cd
cafe
2802
5556
0b10
01bd
cafe
2c12
5556
0b14
01cf
cafe
300b
5556
0b14
01ad
cafe
341b
5556
0b14
016d
cafe
3803
5556
0b14
01e2
cafe
3c13
5556
0b18
017c
cafe
200c
5556
0b18
0203
cafe
241c
5556
0b18
01a2
cafe
2804
5556
0b18
01c8
cafe
2c14
5556
0b1c
009e
cafe
300d
5556
0b1c
017e
cafe
341d
5556
0b1c
01f1
cafe
3805
5556
0b1c
0197
cafe
3c15
5556
0b20
01b4
cafe
200e
5556
0b20
0130
cafe
241e
5556
0b20
01ab
cafe
2806
5556
0b20
01b0
cafe
2c16
5556
0b24
01bd
cafe
300f
5556
0b24
014b
cafe
341f
5556
0b24
00f3
cafe
3807
5556
0b24
01cb
cafe
3c17
5556
0b28
01fc
cafe
2008
5556
0b28
01a0
cafe
2418
5556
0b28
01a9
cafe
2800
5556
0b28
01fd
cafe
2c10
5556
0b2c
01a3
cafe
3009
5556
0b2c
01d4
cafe
3419
5556
0b2c
01ce
cafe
3801
5556
0b2c
01c4
cafe
3c11
5556
0b30
01ad
cafe
200a
5556
0b30
0150
cafe
241a
5556
0b30
00d5
cafe
2802
5556
0b30
01c4
cafe
2c12
5556
0b34
01d2
cafe
300b
5556
0b34
01b8
cafe
341b
5556
0b34
0170
cafe
3803
5556
0b34
01de
cafe
3c13
5556
0b38
0179
cafe
200c
5556
0b38
01fc
cafe
241c
5556
0b38
01a6
cafe
2804
5556
-
0b38
01c5
cafe
2c14
5556
0b3c
00a9
cafe
300d
5556
0b3c
0179
cafe
341d
5556
0b3c
01ef
cafe
3805
5556
0b3c
0199
cafe
3c15
5556
0b40
01b4
cafe
200e
5556
0b40
013b
cafe
241e
5556
0b40
01a8
cafe
2806
5556
0b40
01ae
cafe
2c16
5556
0b44
01c0
cafe
300f
5556
0b44
014d
cafe
341f
5556
0b44
00f9
cafe
3807
5556
0b44
01d1
cafe
3c17
5556
0b48
01f8
cafe
2008
5556
0b48
01a6
cafe
2418
5556
0b48
01ab
cafe
2800
5556
0b48
01f0
cafe
2c10
5556
0b4c
01a3
cafe
3009
5556
0b4c
01d0
cafe
3419
5556
0b4c
01cd
cafe
3801
5556
0b4c
01c6
cafe
3c11
5556
0b50
01b5
cafe
200a
5556
0b50
0153
cafe
241a
5556
0b50
00d8
cafe
2802
5556
0b50
01c0
cafe
2c12
5556
0b54
01d0
cafe
300b
5556
0b54
01ba
cafe
341b
5556
0b54
0173
cafe
3803
5556
0b54
01eb
cafe
3c13
5556
0b58
017b
cafe
200c
5556
0b58
0205
cafe
241c
5556
0b58
01ab
cafe
2804
5556
0b58
01d1
cafe
2c14
5556
0b5c
00a0
cafe
300d
5556
0b5c
017b
cafe
341d
5556
0b5c
01eb
cafe
3805
5556
0b5c
0199
cafe
3c15
5556
0b60
01bb
cafe
200e
5556
0b60
013a
cafe
241e
5556
0b60
01a6
cafe
2806
5556
0b60
01ab
cafe
2c16
5556
0b64
01c0
cafe
300f
5556
0b64
0145
cafe
341f
5556
0b64
00f5
cafe
3807
5556
0b64
01ce
cafe
3c17
5556
0b68
01fb
cafe
2008
5556
0b68
01a4
cafe
2418
5556
0b68
01b1
cafe
2800
5556
0b68
01ef
cafe
2c10
5556
0b6c
019d
cafe
3009
5556
0b6c
01c9
cafe
3419
5556
0b6c
-
01cb
cafe
3801
5556
0b6c
01c1
cafe
3c11
5556
0b70
01b1
cafe
200a
5556
0b70
0158
cafe
241a
5556
0b70
00ce
cafe
2802
5556
0b70
01b7
cafe
2c12
5556
0b74
01d7
cafe
300b
5556
0b74
01ba
cafe
341b
5556
0b74
0177
cafe
3803
5556
0b74
01ed
cafe
3c13
5556
0b78
017d
cafe
200c
5556
0b78
0201
cafe
241c
5556
0b78
01ab
cafe
2804
5556
0b78
01d3
cafe
2c14
5556
0b7c
00a0
cafe
300d
5556
0b7c
0175
cafe
341d
5556
0b7c
01e8
cafe
3805
5556
0b7c
019e
cafe
3c15
5556
0b80
01b3
cafe
200e
5556
0b80
013f
cafe
241e
5556
0b80
01a4
cafe
2806
5556
0b80
01b3
cafe
2c16
5556
0b84
01c7
cafe
300f
5556
0b84
014b
cafe
341f
5556
0b84
00f4
cafe
3807
5556
0b84
01cd
cafe
3c17
5556
0b88
0203
cafe
2008
5556
0b88
01a2
cafe
2418
5556
0b88
01b6
cafe
2800
5556
0b88
01f3
cafe
2c10
5556
0b8c
0199
cafe
3009
5556
0b8c
01d1
cafe
3419
5556
0b8c
01c2
cafe
3801
5556
0b8c
01c1
cafe
3c11
5556
0b90
01b1
cafe
200a
5556
0b90
0155
cafe
241a
5556
0b90
00d0
cafe
2802
5556
0b90
01b7
cafe
2c12
5556
0b94
01d7
cafe
300b
5556
0b94
01a9
cafe
341b
5556
0b94
0173
cafe
3803
5556
0b94
01e7
cafe
3c13
5556
0b98
0178
cafe
200c
5556
0b98
01fa
cafe
241c
5556
0b98
01ae
cafe
2804
5556
0b98
01cc
cafe
2c14
5556
0b9c
009d
cafe
300d
5556
0b9c
0177
cafe
341d
5556
0b9c
01ec
cafe
3805
5556
0b9c
019e
cafe
3c15
5556
0ba0
01b9
cafe
200e
5556
0ba0
013c
-
cafe
241e
5556
0ba0
01a1
cafe
2806
5556
0ba0
01b6
cafe
2c16
5556
0ba4
01bf
cafe
300f
5556
0ba4
0147
cafe
341f
5556
0ba4
00ed
cafe
3807
5556
0ba4
01c2
cafe
3c17
5556
0ba8
020d
cafe
2008
5556
0ba8
01a1
cafe
2418
5556
0ba8
01ae
cafe
2800
5556
0ba8
01f3
cafe
2c10
5556
0bac
019f
cafe
3009
5556
0bac
01ce
cafe
3419
5556
0bac
01c0
cafe
3801
5556
0bac
01c5
cafe
3c11
5556
0bb0
01b1
cafe
200a
5556
0bb0
0159
cafe
241a
5556
0bb0
00d3
cafe
2802
5556
0bb0
01b3
cafe
2c12
5556
0bb4
01d3
cafe
300b
5556
0bb4
01b9
cafe
341b
5556
0bb4
0169
cafe
3803
5556
0bb4
01eb
cafe
3c13
5556
0bb8
0179
cafe
200c
5556
0bb8
01ff
cafe
241c
5556
0bb8
01b5
cafe
2804
5556
0bb8
01c5
cafe
2c14
5556
0bbc
00a1
cafe
300d
5556
0bbc
017c
cafe
341d
5556
0bbc
01ec
cafe
3805
5556
0bbc
01a7
cafe
3c15
5556
0bc0
01bd
cafe
200e
5556
0bc0
0132
cafe
241e
5556
0bc0
019c
cafe
2806
5556
0bc0
01b5
cafe
2c16
5556
0bc4
01b4
cafe
300f
5556
0bc4
013e
cafe
341f
5556
0bc4
00f3
cafe
3807
5556
0bc4
01c2
cafe
3c17
5556
0bc8
0203
cafe
2008
5556
0bc8
01a6
cafe
2418
5556
0bc8
01ae
cafe
2800
5556
0bc8
01f8
cafe
2c10
5556
0bcc
01a1
cafe
3009
5556
0bcc
01c8
cafe
3419
5556
0bcc
01c7
cafe
3801
5556
0bcc
01c8
cafe
3c11
5556
0bd0
01af
cafe
200a
5556
0bd0
0156
cafe
241a
5556
0bd0
00c9
cafe
2802
5556
0bd0
01ad
cafe
2c12
5556
0bd4
01d1
cafe
-
300b
5556
0bd4
01b7
cafe
341b
5556
0bd4
0172
cafe
3803
5556
0bd4
01e8
cafe
3c13
5556
0bd8
0176
cafe
200c
5556
0bd8
0207
cafe
241c
5556
0bd8
01bd
cafe
2804
5556
0bd8
01c7
cafe
2c14
5556
0bdc
00a8
cafe
300d
5556
0bdc
017d
cafe
341d
5556
0bdc
01e0
cafe
3805
5556
0bdc
01a3
cafe
3c15
5556
0be0
01be
cafe
200e
5556
0be0
012e
cafe
241e
5556
0be0
019f
cafe
2806
5556
0be0
01c0
cafe
2c16
5556
0be4
01b3
cafe
300f
5556
0be4
0141
cafe
341f
5556
0be4
0102
cafe
3807
5556
0be4
01c4
cafe
3c17
5556
0be8
020a
cafe
2008
5556
0be8
019f
cafe
2418
5556
0be8
01a8
cafe
2800
5556
0be8
01f7
cafe
2c10
5556
0bec
01a0
cafe
3009
5556
0bec
01c4
cafe
3419
5556
0bec
01c0
cafe
3801
5556
0bec
01cc
cafe
3c11
5556
0bf0
01b3
cafe
200a
5556
0bf0
014c
cafe
241a
5556
0bf0
00d4
cafe
2802
5556
0bf0
01a9
cafe
2c12
5556
0bf4
01ce
cafe
300b
5556
0bf4
01b5
cafe
341b
5556
0bf4
0170
cafe
3803
5556
0bf4
01ef
cafe
3c13
5556
0bf8
017a
cafe
200c
5556
0bf8
020b
cafe
241c
5556
0bf8
01ba
cafe
2804
5556
0bf8
01d0
cafe
2c14
5556
0bfc
00a0
cafe
300d
5556
0bfc
0177
cafe
341d
5556
0bfc
01df
cafe
3805
5556
0bfc
01ab
cafe
3c15
5556
0c00
01be
cafe
200e
5556
0c00
0124
cafe
241e
5556
0c00
019e
cafe
2806
5556
0c00
01c1
cafe
2c16
5556
0c04
01bf
cafe
300f
5556
0c04
0145
cafe
341f
5556
0c04
0107
cafe
3807
5556
0c04
01c2
cafe
3c17
-
5556
0c08
020b
cafe
2008
5556
0c08
01a2
cafe
2418
5556
0c08
01a6
cafe
2800
5556
0c08
01fd
cafe
2c10
5556
0c0c
01a2
cafe
3009
5556
0c0c
01c8
cafe
3419
5556
0c0c
01cb
cafe
3801
5556
0c0c
01c3
cafe
3c11
5556
0c10
01a3
cafe
200a
5556
0c10
0155
cafe
241a
5556
0c10
00c8
cafe
2802
5556
0c10
01aa
cafe
2c12
5556
0c14
01d1
cafe
300b
5556
0c14
01b1
cafe
341b
5556
0c14
016f
cafe
3803
5556
0c14
01ed
cafe
3c13
5556
0c18
017e
cafe
200c
5556
0c18
020e
cafe
241c
5556
0c18
01bd
cafe
2804
5556
0c18
01cb
cafe
2c14
5556
0c1c
00a2
cafe
300d
5556
0c1c
0175
cafe
341d
5556
0c1c
01de
cafe
3805
5556
0c1c
01aa
cafe
3c15
5556
0c20
01b7
cafe
200e
5556
0c20
0127
cafe
241e
5556
0c20
01a4
cafe
2806
5556
0c20
01c6
cafe
2c16
5556
0c24
01ba
cafe
300f
5556
0c24
0148
cafe
341f
5556
0c24
0101
cafe
3807
5556
0c24
01be
cafe
3c17
5556
0c28
020d
cafe
2008
5556
0c28
01a2
cafe
2418
5556
0c28
01a6
cafe
2800
5556
0c28
01f9
cafe
2c10
5556
0c2c
01a3
cafe
3009
5556
0c2c
01cc
cafe
3419
5556
0c2c
01cc
cafe
3801
5556
0c2c
01c5
cafe
3c11
5556
0c30
01a9
cafe
200a
5556
0c30
015d
cafe
241a
5556
0c30
00c5
cafe
2802
5556
0c30
01b3
cafe
2c12
5556
0c34
01d3
cafe
300b
5556
0c34
01bc
cafe
341b
5556
0c34
0175
cafe
3803
5556
0c34
01ea
cafe
3c13
5556
0c38
017f
cafe
200c
5556
0c38
0203
cafe
241c
5556
0c38
01b3
cafe
2804
5556
-
0c38
01cb
cafe
2c14
5556
0c3c
00a3
cafe
300d
5556
0c3c
0175
cafe
341d
5556
0c3c
01da
cafe
3805
5556
0c3c
01a0
cafe
3c15
5556
0c40
01b7
cafe
200e
5556
0c40
0121
cafe
241e
5556
0c40
01af
cafe
2806
5556
0c40
01bc
cafe
2c16
5556
0c44
01b9
cafe
300f
5556
0c44
014c
cafe
341f
5556
0c44
00ff
cafe
3807
5556
0c44
01bb
cafe
3c17
5556
0c48
020d
cafe
2008
5556
0c48
01a8
cafe
2418
5556
0c48
01a2
cafe
2800
5556
0c48
01ef
cafe
2c10
5556
0c4c
019d
cafe
3009
5556
0c4c
01d5
cafe
3419
5556
0c4c
01db
cafe
3801
5556
0c4c
01ce
cafe
3c11
5556
0c50
01af
cafe
200a
5556
0c50
0158
cafe
241a
5556
0c50
00d0
cafe
2802
5556
0c50
01b6
cafe
2c12
5556
0c54
01d0
cafe
300b
5556
0c54
01be
cafe
341b
5556
0c54
016e
cafe
3803
5556
0c54
01ee
cafe
3c13
5556
0c58
0181
cafe
200c
5556
0c58
01fb
cafe
241c
5556
0c58
01b2
cafe
2804
5556
0c58
01cc
cafe
2c14
5556
0c5c
00ab
cafe
300d
5556
0c5c
0181
cafe
341d
5556
0c5c
01e3
cafe
3805
5556
0c5c
019c
cafe
3c15
5556
0c60
01af
cafe
200e
5556
0c60
0123
cafe
241e
5556
0c60
01b1
cafe
2806
5556
0c60
01b8
cafe
2c16
5556
0c64
01b5
cafe
300f
5556
0c64
0145
cafe
341f
5556
0c64
00fe
cafe
3807
5556
0c64
01ba
cafe
3c17
5556
0c68
0200
cafe
2008
5556
0c68
019b
cafe
2418
5556
0c68
01aa
cafe
2800
5556
0c68
01f2
cafe
2c10
5556
0c6c
0197
cafe
3009
5556
0c6c
01d5
cafe
3419
5556
0c6c
-
01de
cafe
3801
5556
0c6c
01cb
cafe
3c11
5556
0c70
01b8
cafe
200a
5556
0c70
0164
cafe
241a
5556
0c70
00d3
cafe
2802
5556
0c70
01b7
cafe
2c12
5556
0c74
01d2
cafe
300b
5556
0c74
01bd
cafe
341b
5556
0c74
0165
cafe
3803
5556
0c74
01e7
cafe
3c13
5556
0c78
017e
cafe
200c
5556
0c78
01f7
cafe
241c
5556
0c78
01a8
cafe
2804
5556
0c78
01c8
cafe
2c14
5556
0c7c
00aa
cafe
300d
5556
0c7c
016b
cafe
341d
5556
0c7c
01df
cafe
3805
5556
0c7c
019c
cafe
3c15
5556
0c80
01a2
cafe
200e
5556
0c80
011d
cafe
241e
5556
0c80
01a9
cafe
2806
5556
0c80
01ad
cafe
2c16
5556
0c84
01ba
cafe
300f
5556
0c84
0147
cafe
341f
5556
0c84
0104
cafe
3807
5556
0c84
01c4
cafe
3c17
5556
0c88
0200
cafe
2008
5556
0c88
019f
cafe
2418
5556
0c88
01a9
cafe
2800
5556
0c88
0201
cafe
2c10
5556
0c8c
01a2
cafe
3009
5556
0c8c
01d9
cafe
3419
5556
0c8c
01df
cafe
3801
5556
0c8c
01cc
cafe
3c11
5556
0c90
01bd
cafe
200a
5556
0c90
015d
cafe
241a
5556
0c90
00c9
cafe
2802
5556
0c90
01ba
cafe
2c12
5556
0c94
01d6
cafe
300b
5556
0c94
01c3
cafe
341b
5556
0c94
0172
cafe
3803
5556
0c94
01eb
cafe
3c13
5556
0c98
018c
cafe
200c
5556
0c98
0208
cafe
241c
5556
0c98
01ae
cafe
2804
5556
0c98
01cf
cafe
2c14
5556
0c9c
00b6
cafe
300d
5556
0c9c
0186
cafe
341d
5556
0c9c
01e9
cafe
3805
5556
0c9c
019d
cafe
3c15
5556
0ca0
01a7
cafe
200e
5556
0ca0
012a
-
cafe
241e
5556
0ca0
01a6
cafe
2806
5556
0ca0
01bd
cafe
2c16
5556
0ca4
01c8
cafe
300f
5556
0ca4
0147
cafe
341f
5556
0ca4
0103
cafe
3807
5556
0ca4
01c2
cafe
3c17
5556
0ca8
01f5
cafe
2008
5556
0ca8
019b
cafe
2418
5556
0ca8
01a6
cafe
2800
5556
0ca8
0204
cafe
2c10
5556
0cac
019f
cafe
3009
5556
0cac
01d0
cafe
3419
5556
0cac
01d9
cafe
3801
5556
0cac
01c0
cafe
3c11
5556
0cb0
01b9
cafe
200a
5556
0cb0
0154
cafe
241a
5556
0cb0
00c6
cafe
2802
5556
0cb0
01b6
cafe
2c12
5556
0cb4
01d1
cafe
300b
5556
0cb4
01c3
cafe
341b
5556
0cb4
0176
cafe
3803
5556
0cb4
01ef
cafe
3c13
5556
0cb8
0182
cafe
200c
5556
0cb8
0208
cafe
241c
5556
0cb8
01b3
cafe
2804
5556
0cb8
01d3
cafe
2c14
5556
0cbc
00c0
cafe
300d
5556
0cbc
017e
cafe
341d
5556
0cbc
01e6
cafe
3805
5556
0cbc
0195
cafe
3c15
5556
0cc0
01a5
cafe
200e
5556
0cc0
012a
cafe
241e
5556
0cc0
01a0
cafe
2806
5556
0cc0
01bc
cafe
2c16
5556
0cc4
01c3
cafe
300f
5556
0cc4
014a
cafe
341f
5556
0cc4
010b
cafe
3807
5556
0cc4
01b7
cafe
3c17
5556
0cc8
01f5
cafe
2008
5556
0cc8
019b
cafe
2418
5556
0cc8
01a7
cafe
2800
5556
0cc8
0201
cafe
2c10
5556
0ccc
019e
cafe
3009
5556
0ccc
01cb
cafe
3419
5556
0ccc
01d5
cafe
3801
5556
0ccc
01c4
cafe
3c11
5556
0cd0
01b4
cafe
200a
5556
0cd0
0151
cafe
241a
5556
0cd0
00c6
cafe
2802
5556
0cd0
01b1
cafe
2c12
5556
0cd4
01d2
cafe
-
300b
5556
0cd4
01ce
cafe
341b
5556
0cd4
0173
cafe
3803
5556
0cd4
01f9
cafe
3c13
5556
0cd8
0183
cafe
200c
5556
0cd8
0201
cafe
241c
5556
0cd8
01b5
cafe
2804
5556
0cd8
01d0
cafe
2c14
5556
0cdc
00ae
cafe
300d
5556
0cdc
0181
cafe
341d
5556
0cdc
01e1
cafe
3805
5556
0cdc
0193
cafe
3c15
5556
0ce0
01a9
cafe
200e
5556
0ce0
0128
cafe
241e
5556
0ce0
019c
cafe
2806
5556
0ce0
01be
cafe
2c16
5556
0ce4
01b6
cafe
300f
5556
0ce4
014e
cafe
341f
5556
0ce4
0105
cafe
3807
5556
0ce4
01b7
cafe
3c17
5556
0ce8
01f4
cafe
2008
5556
0ce8
01a7
cafe
2418
5556
0ce8
01a6
cafe
2800
5556
0ce8
0201
cafe
2c10
5556
0cec
01a3
cafe
3009
5556
0cec
01c9
cafe
3419
5556
0cec
01de
cafe
3801
5556
0cec
01cb
cafe
3c11
5556
0cf0
01ae
cafe
200a
5556
0cf0
014b
cafe
241a
5556
0cf0
00be
cafe
2802
5556
0cf0
01b1
cafe
2c12
5556
0cf4
01cb
cafe
300b
5556
0cf4
01be
cafe
341b
5556
0cf4
016e
cafe
3803
5556
0cf4
01ff
cafe
3c13
5556
0cf8
0183
cafe
200c
5556
0cf8
0203
cafe
241c
5556
0cf8
01b6
cafe
2804
5556
0cf8
01d7
cafe
2c14
5556
0cfc
00a8
cafe
300d
5556
0cfc
0181
cafe
341d
5556
0cfc
01da
cafe
3805
5556
0cfc
018d
cafe
3c15
5556
0d00
01b8
cafe
200e
5556
0d00
0123
cafe
241e
5556
0d00
01a2
cafe
2806
5556
0d00
01b5
cafe
2c16
5556
0d04
01b3
cafe
300f
5556
0d04
0153
cafe
341f
5556
0d04
0104
cafe
3807
5556
0d04
01b4
cafe
3c17
-
5556
0d08
01f9
cafe
2008
5556
0d08
01aa
cafe
2418
5556
0d08
01a4
cafe
2800
5556
0d08
01fd
cafe
2c10
5556
0d0c
01a1
cafe
3009
5556
0d0c
01cd
cafe
3419
5556
0d0c
01e0
cafe
3801
5556
0d0c
01ce
cafe
3c11
5556
0d10
01a9
cafe
200a
5556
0d10
0149
cafe
241a
5556
0d10
00ca
cafe
2802
5556
0d10
01b7
cafe
2c12
5556
0d14
01d0
cafe
300b
5556
0d14
01c3
cafe
341b
5556
0d14
016b
cafe
3803
5556
0d14
01fc
cafe
3c13
5556
0d18
0186
cafe
200c
5556
0d18
0204
cafe
241c
5556
0d18
01b3
cafe
2804
5556
0d18
01d8
cafe
2c14
5556
0d1c
00af
cafe
300d
5556
0d1c
0178
cafe
341d
5556
0d1c
01e1
cafe
3805
5556
0d1c
0186
cafe
3c15
5556
0d20
01b9
cafe
200e
5556
0d20
0125
cafe
241e
5556
0d20
019e
cafe
2806
5556
0d20
01b3
cafe
2c16
5556
0d24
01b6
cafe
300f
5556
0d24
015b
cafe
341f
5556
0d24
0108
cafe
3807
5556
0d24
01b9
cafe
3c17
5556
0d28
01fd
cafe
2008
5556
0d28
01ab
cafe
2418
5556
0d28
01a2
cafe
2800
5556
0d28
0202
cafe
2c10
5556
0d2c
01a1
cafe
3009
5556
0d2c
01d6
cafe
3419
5556
0d2c
01da
cafe
3801
5556
0d2c
01cc
cafe
3c11
5556
0d30
01a6
cafe
200a
5556
0d30
014b
cafe
241a
5556
0d30
00d0
cafe
2802
5556
0d30
01be
cafe
2c12
5556
0d34
01cf
cafe
300b
5556
0d34
01c4
cafe
341b
5556
0d34
016e
cafe
3803
5556
0d34
01fa
cafe
3c13
5556
0d38
0187
cafe
200c
5556
0d38
0209
cafe
241c
5556
0d38
01a6
cafe
2804
5556
-
0d38
01d3
cafe
2c14
5556
0d3c
00b2
cafe
300d
5556
0d3c
0181
cafe
341d
5556
0d3c
01eb
cafe
3805
5556
0d3c
0189
cafe
3c15
5556
0d40
01b1
cafe
200e
5556
0d40
0125
cafe
241e
5556
0d40
019b
cafe
2806
5556
0d40
01b7
cafe
2c16
5556
0d44
01be
cafe
300f
5556
0d44
014c
cafe
341f
5556
0d44
0103
cafe
3807
5556
0d44
01b9
cafe
3c17
5556
0d48
01f7
cafe
2008
5556
0d48
019f
cafe
2418
5556
0d48
01a3
cafe
2800
5556
0d48
01fb
cafe
2c10
5556
0d4c
01a5
cafe
3009
5556
0d4c
01d8
cafe
3419
5556
0d4c
01dc
cafe
3801
5556
0d4c
01cf
cafe
3c11
5556
0d50
01a5
cafe
200a
5556
0d50
0151
cafe
241a
5556
0d50
00d6
cafe
2802
5556
0d50
01c1
cafe
2c12
5556
0d54
01d1
cafe
300b
5556
0d54
01be
cafe
341b
5556
0d54
016e
cafe
3803
5556
0d54
01f4
cafe
3c13
5556
0d58
0185
cafe
200c
5556
0d58
01ff
cafe
241c
5556
0d58
01a5
cafe
2804
5556
0d58
01d3
cafe
2c14
5556
0d5c
00b1
cafe
300d
5556
0d5c
017e
cafe
341d
5556
0d5c
01e2
cafe
3805
5556
0d5c
018b
cafe
3c15
5556
0d60
01ad
cafe
200e
5556
0d60
0128
cafe
241e
5556
0d60
0196
cafe
2806
5556
0d60
01c1
cafe
2c16
5556
0d64
01c6
cafe
300f
5556
0d64
0152
cafe
341f
5556
0d64
0105
cafe
3807
5556
0d64
01be
cafe
3c17
5556
0d68
01f5
cafe
2008
5556
0d68
019d
cafe
2418
5556
0d68
01a5
cafe
2800
5556
0d68
01fa
cafe
2c10
5556
0d6c
01ae
cafe
3009
5556
0d6c
01d7
cafe
3419
5556
0d6c
-
01d1
cafe
3801
5556
0d6c
01c8
cafe
3c11
5556
0d70
01a5
cafe
200a
5556
0d70
0153
cafe
241a
5556
0d70
00cb
cafe
2802
5556
0d70
01c2
cafe
2c12
5556
0d74
01c9
cafe
300b
5556
0d74
01bd
cafe
341b
5556
0d74
0177
cafe
3803
5556
0d74
01fa
cafe
3c13
5556
0d78
0187
cafe
200c
5556
0d78
01ff
cafe
241c
5556
0d78
01a9
cafe
2804
5556
0d78
01d5
cafe
2c14
5556
0d7c
00ad
cafe
300d
5556
0d7c
017a
cafe
341d
5556
0d7c
01e6
cafe
3805
5556
0d7c
018f
cafe
3c15
5556
0d80
01af
cafe
200e
5556
0d80
0122
cafe
241e
5556
0d80
0199
cafe
2806
5556
0d80
01c1
cafe
2c16
5556
0d84
01c1
cafe
300f
5556
0d84
015a
cafe
341f
5556
0d84
00ff
cafe
3807
5556
0d84
01af
cafe
3c17
5556
0d88
01fd
cafe
2008
5556
0d88
0199
cafe
2418
5556
0d88
019f
cafe
2800
5556
0d88
01f0
cafe
2c10
5556
0d8c
01aa
cafe
3009
5556
0d8c
01d6
cafe
3419
5556
0d8c
01d2
cafe
3801
5556
0d8c
01c9
cafe
3c11
5556
0d90
01b4
cafe
200a
5556
0d90
0156
cafe
241a
5556
0d90
00d3
cafe
2802
5556
0d90
01c2
cafe
2c12
5556
0d94
01cb
cafe
300b
5556
0d94
01c3
cafe
341b
5556
0d94
016d
cafe
3803
5556
0d94
01fc
cafe
3c13
5556
0d98
0183
cafe
200c
5556
0d98
01f9
cafe
241c
5556
0d98
01aa
cafe
2804
5556
0d98
01d6
cafe
2c14
5556
0d9c
00a7
cafe
300d
5556
0d9c
017c
cafe
341d
5556
0d9c
01df
cafe
3805
5556
0d9c
018d
cafe
3c15
5556
0da0
01b1
cafe
200e
5556
0da0
0120
-
cafe
241e
5556
0da0
01a8
cafe
2806
5556
0da0
01c4
cafe
2c16
5556
0da4
01bd
cafe
300f
5556
0da4
0155
cafe
341f
5556
0da4
00ff
cafe
3807
5556
0da4
01b0
cafe
3c17
5556
0da8
01ff
cafe
2008
5556
0da8
019f
cafe
2418
5556
0da8
01a2
cafe
2800
5556
0da8
01f3
cafe
2c10
5556
0dac
01af
cafe
3009
5556
0dac
01d2
cafe
3419
5556
0dac
01ce
cafe
3801
5556
0dac
01ce
cafe
3c11
5556
0db0
01aa
cafe
200a
5556
0db0
0152
cafe
241a
5556
0db0
00d5
cafe
2802
5556
0db0
01bd
cafe
2c12
5556
0db4
01cc
cafe
300b
5556
0db4
01c1
cafe
341b
5556
0db4
0176
cafe
3803
5556
0db4
01f3
cafe
3c13
5556
0db8
017c
cafe
200c
5556
0db8
01f9
cafe
241c
5556
0db8
01a6
cafe
2804
5556
0db8
01d2
cafe
2c14
5556
0dbc
00ad
cafe
300d
5556
0dbc
017d
cafe
341d
5556
0dbc
01e7
cafe
3805
5556
0dbc
0191
cafe
3c15
5556
0dc0
01b4
cafe
200e
5556
0dc0
011d
cafe
241e
5556
0dc0
01a7
cafe
2806
5556
0dc0
01c0
cafe
2c16
5556
0dc4
01c1
cafe
300f
5556
0dc4
0159
cafe
341f
5556
0dc4
00ff
cafe
3807
5556
0dc4
01af
cafe
3c17
5556
0dc8
01fd
cafe
2008
5556
0dc8
019d
cafe
2418
5556
0dc8
019b
cafe
2800
5556
0dc8
01ff
cafe
2c10
5556
0dcc
01a3
cafe
3009
5556
0dcc
01d5
cafe
3419
5556
0dcc
01d1
cafe
3801
5556
0dcc
01ca
cafe
3c11
5556
0dd0
01af
cafe
200a
5556
0dd0
014d
cafe
241a
5556
0dd0
00d2
cafe
2802
5556
0dd0
01c8
cafe
2c12
5556
0dd4
01c6
cafe
-
300b
5556
0dd4
01c1
cafe
341b
5556
0dd4
0170
cafe
3803
5556
0dd4
01ec
cafe
3c13
5556
0dd8
0185
cafe
200c
5556
0dd8
01fa
cafe
241c
5556
0dd8
01a6
cafe
2804
5556
0dd8
01d0
cafe
2c14
5556
0ddc
00ae
cafe
300d
5556
0ddc
018b
cafe
341d
5556
0ddc
01e6
cafe
3805
5556
0ddc
0190
cafe
3c15
5556
0de0
01b0
cafe
200e
5556
0de0
0124
cafe
241e
5556
0de0
01aa
cafe
2806
5556
0de0
01be
cafe
2c16
5556
0de4
01bb
cafe
300f
5556
0de4
014c
cafe
341f
5556
0de4
0101
cafe
3807
5556
0de4
01b8
cafe
3c17
5556
0de8
01f8
cafe
2008
5556
0de8
019f
cafe
2418
5556
0de8
019e
cafe
2800
5556
0de8
01f6
cafe
2c10
5556
0dec
0195
cafe
3009
5556
0dec
01d6
cafe
3419
5556
0dec
01d7
cafe
3801
5556
0dec
01cf
cafe
3c11
5556
0df0
01bb
cafe
200a
5556
0df0
014f
cafe
241a
5556
0df0
00d3
cafe
2802
5556
0df0
01c4
cafe
2c12
5556
0df4
01c6
cafe
300b
5556
0df4
01be
cafe
341b
5556
0df4
016d
cafe
3803
5556
0df4
01ef
cafe
3c13
5556
0df8
0190
cafe
200c
5556
0df8
01f6
cafe
241c
5556
0df8
01aa
cafe
2804
5556
0df8
01d2
cafe
2c14
5556
0dfc
00aa
cafe
300d
5556
0dfc
0189
cafe
341d
5556
0dfc
01e3
cafe
3805
5556
0dfc
0193
cafe
3c15
5556
0e00
01ba
cafe
200e
5556
0e00
0121
cafe
241e
5556
0e00
01ab
cafe
2806
5556
0e00
01c0
cafe
2c16
5556
0e04
01c3
cafe
300f
5556
0e04
014b
cafe
341f
5556
0e04
00fc
cafe
3807
5556
0e04
01b3
cafe
3c17
-
5556
0e08
01f3
cafe
2008
5556
0e08
01a7
cafe
2418
5556
0e08
01ad
cafe
2800
5556
0e08
01f2
cafe
2c10
5556
0e0c
019d
cafe
3009
5556
0e0c
01d0
cafe
3419
5556
0e0c
01d1
cafe
3801
5556
0e0c
01cd
cafe
3c11
5556
0e10
01b5
cafe
200a
5556
0e10
015e
cafe
241a
5556
0e10
00db
cafe
2802
5556
0e10
01ca
cafe
2c12
5556
0e14
01c3
cafe
300b
5556
0e14
01a8
cafe
341b
5556
0e14
0169
cafe
3803
5556
0e14
01e8
cafe
3c13
5556
0e18
0191
cafe
200c
5556
0e18
01f0
cafe
241c
5556
0e18
01af
cafe
2804
5556
0e18
01cc
cafe
2c14
5556
0e1c
00ad
cafe
300d
5556
0e1c
0185
cafe
341d
5556
0e1c
01e3
cafe
3805
5556
0e1c
0193
cafe
3c15
5556
0e20
01b6
cafe
200e
5556
0e20
011f
cafe
241e
5556
0e20
01a0
cafe
2806
5556
0e20
01bd
cafe
2c16
5556
0e24
01c0
cafe
300f
5556
0e24
015b
cafe
341f
5556
0e24
0105
cafe
3807
5556
0e24
01b9
cafe
3c17
5556
0e28
01f4
cafe
2008
5556
0e28
01ae
cafe
2418
5556
0e28
01ad
cafe
2800
5556
0e28
01fe
cafe
2c10
5556
0e2c
01a5
cafe
3009
5556
0e2c
01d2
cafe
3419
5556
0e2c
01ca
cafe
3801
5556
0e2c
01ca
cafe
3c11
5556
0e30
01a7
cafe
200a
5556
0e30
015f
cafe
241a
5556
0e30
00d9
cafe
2802
5556
0e30
01bd
cafe
2c12
5556
0e34
01cc
cafe
300b
5556
0e34
01a9
cafe
341b
5556
0e34
0169
cafe
3803
5556
0e34
01eb
cafe
3c13
5556
0e38
0186
cafe
200c
5556
0e38
01ea
cafe
241c
5556
0e38
01b0
cafe
2804
5556
-
0e38
01cd
cafe
2c14
5556
0e3c
00b1
cafe
300d
5556
0e3c
018a
cafe
341d
5556
0e3c
01df
cafe
3805
5556
0e3c
018a
cafe
3c15
5556
0e40
01b8
cafe
200e
5556
0e40
0126
cafe
241e
5556
0e40
01a2
cafe
2806
5556
0e40
01ba
cafe
2c16
5556
0e44
01c1
cafe
300f
5556
0e44
015a
cafe
341f
5556
0e44
0105
cafe
3807
5556
0e44
01bb
cafe
3c17
5556
0e48
01eb
cafe
2008
5556
0e48
01b8
cafe
2418
5556
0e48
01af
cafe
2800
5556
0e48
0203
cafe
2c10
5556
0e4c
019f
cafe
3009
5556
0e4c
01d6
cafe
3419
5556
0e4c
01d2
cafe
3801
5556
0e4c
01c9
cafe
3c11
5556
0e50
01a7
cafe
200a
5556
0e50
015f
cafe
241a
5556
0e50
00d7
cafe
2802
5556
0e50
01b7
cafe
2c12
5556
0e54
01bf
cafe
300b
5556
0e54
01b1
cafe
341b
5556
0e54
0166
cafe
3803
5556
0e54
01eb
cafe
3c13
5556
0e58
0193
cafe
200c
5556
0e58
01fa
cafe
241c
5556
0e58
01a4
cafe
2804
5556
0e58
01d6
cafe
2c14
5556
0e5c
00b5
cafe
300d
5556
0e5c
0183
cafe
341d
5556
0e5c
01e5
cafe
3805
5556
0e5c
018f
cafe
3c15
5556
0e60
01b7
cafe
200e
5556
0e60
0127
cafe
241e
5556
0e60
019e
cafe
2806
5556
0e60
01b8
cafe
2c16
5556
0e64
01bc
cafe
300f
5556
0e64
0155
cafe
341f
5556
0e64
010c
cafe
3807
5556
0e64
01b9
cafe
3c17
5556
0e68
01f5
cafe
2008
5556
0e68
01b9
cafe
2418
5556
0e68
01af
cafe
2800
5556
0e68
01fd
cafe
2c10
5556
0e6c
0198
cafe
3009
5556
0e6c
01d5
cafe
3419
5556
0e6c
-
01d2
cafe
3801
5556
0e6c
01d9
cafe
3c11
5556
0e70
01b3
cafe
200a
5556
0e70
0150
cafe
241a
5556
0e70
00d1
cafe
2802
5556
0e70
01af
cafe
2c12
5556
0e74
01c3
cafe
300b
5556
0e74
01b5
cafe
341b
5556
0e74
016e
cafe
3803
5556
0e74
01ec
cafe
3c13
5556
0e78
0192
cafe
200c
5556
0e78
0205
cafe
241c
5556
0e78
01a5
cafe
2804
5556
0e78
01d2
cafe
2c14
5556
0e7c
00af
cafe
300d
5556
0e7c
0182
cafe
341d
5556
0e7c
01e4
cafe
3805
5556
0e7c
0195
cafe
3c15
5556
0e80
01b5
cafe
200e
5556
0e80
0124
cafe
241e
5556
0e80
019d
cafe
2806
5556
0e80
01ba
cafe
2c16
5556
0e84
01bd
cafe
300f
5556
0e84
014b
cafe
341f
5556
0e84
0106
cafe
3807
5556
0e84
01b8
cafe
3c17
5556
0e88
01f7
cafe
2008
5556
0e88
01a7
cafe
2418
5556
0e88
01ab
cafe
2800
5556
0e88
01fe
cafe
2c10
5556
0e8c
019c
cafe
3009
5556
0e8c
01d5
cafe
3419
5556
0e8c
01d7
cafe
3801
5556
0e8c
01d4
cafe
3c11
5556
0e90
01b2
cafe
200a
5556
0e90
014e
cafe
241a
5556
0e90
00d9
cafe
2802
5556
0e90
01b1
cafe
2c12
5556
0e94
01c7
cafe
300b
5556
0e94
01be
cafe
341b
5556
0e94
016a
cafe
3803
5556
0e94
01f1
cafe
3c13
5556
0e98
0192
cafe
200c
5556
0e98
0209
cafe
241c
5556
0e98
01b1
cafe
2804
5556
0e98
01d5
cafe
2c14
5556
0e9c
00af
cafe
300d
5556
0e9c
0180
cafe
341d
5556
0e9c
01e6
cafe
3805
5556
0e9c
019a
cafe
3c15
5556
0ea0
01b3
cafe
200e
5556
0ea0
0129
-
cafe
241e
5556
0ea0
0197
cafe
2806
5556
0ea0
01bb
cafe
2c16
5556
0ea4
01bf
cafe
300f
5556
0ea4
014f
cafe
341f
5556
0ea4
0101
cafe
3807
5556
0ea4
01bb
cafe
3c17
5556
0ea8
01fb
cafe
2008
5556
0ea8
01a3
cafe
2418
5556
0ea8
01ac
cafe
2800
5556
0ea8
01ff
cafe
2c10
5556
0eac
01a3
cafe
3009
5556
0eac
01da
cafe
3419
5556
0eac
01d0
cafe
3801
5556
0eac
01d5
cafe
3c11
5556
0eb0
01ac
cafe
200a
5556
0eb0
014e
cafe
241a
5556
0eb0
00e1
cafe
2802
5556
0eb0
01b4
cafe
2c12
5556
0eb4
01c3
cafe
300b
5556
0eb4
01be
cafe
341b
5556
0eb4
0166
cafe
3803
5556
0eb4
01f2
cafe
3c13
5556
0eb8
0193
cafe
200c
5556
0eb8
0204
cafe
241c
5556
0eb8
01b1
cafe
2804
5556
0eb8
01ce
cafe
2c14
5556
0ebc
00ab
cafe
300d
5556
0ebc
0181
cafe
341d
5556
0ebc
01da
cafe
3805
5556
0ebc
018a
cafe
3c15
5556
0ec0
01b8
cafe
200e
5556
0ec0
012c
cafe
241e
5556
0ec0
01a4
cafe
2806
5556
0ec0
01b5
cafe
2c16
5556
0ec4
01b4
cafe
300f
5556
0ec4
0146
cafe
341f
5556
0ec4
00f6
cafe
3807
5556
0ec4
01b8
cafe
3c17
5556
0ec8
01f5
cafe
2008
5556
0ec8
01a5
cafe
2418
5556
0ec8
01b2
cafe
2800
5556
0ec8
01fb
cafe
2c10
5556
0ecc
0199
cafe
3009
5556
0ecc
01da
cafe
3419
5556
0ecc
01d1
cafe
3801
5556
0ecc
01cf
cafe
3c11
5556
0ed0
01b5
cafe
200a
5556
0ed0
0157
cafe
241a
5556
0ed0
00e6
cafe
2802
5556
0ed0
01b8
cafe
2c12
5556
0ed4
01ca
cafe
-
