300b
5556
2394
01dd
cafe
341b
5556
2394
012e
cafe
3803
5556
2394
0131
cafe
3c13
5556
2398
013d
cafe
200c
5556
2398
01d6
cafe
241c
5556
2398
0124
cafe
2804
5556
2398
0219
cafe
2c14
5556
239c
0165
cafe
300d
5556
239c
0100
cafe
341d
5556
239c
0214
cafe
3805
5556
239c
019d
cafe
3c15
5556
23a0
01b9
cafe
200e
5556
23a0
018b
cafe
241e
5556
23a0
0128
cafe
2806
5556
23a0
01ae
cafe
2c16
5556
23a4
01dc
cafe
300f
5556
23a4
014e
cafe
341f
5556
23a4
01a3
cafe
3807
5556
23a4
013e
cafe
3c17
5556
23a8
01ef
cafe
2008
5556
23a8
0193
cafe
2418
5556
23a8
016e
cafe
2800
5556
23a8
01e4
cafe
2c10
5556
23ac
01bb
cafe
3009
5556
23ac
0117
cafe
3419
5556
23ac
0191
cafe
3801
5556
23ac
0213
cafe
3c11
5556
23b0
0154
cafe
200a
5556
23b0
01bd
cafe
241a
5556
23b0
017a
cafe
2802
5556
23b0
0153
cafe
2c12
5556
23b4
017b
cafe
300b
5556
23b4
01c6
cafe
341b
5556
23b4
0134
cafe
3803
5556
23b4
0136
cafe
3c13
5556
23b8
013a
cafe
200c
5556
23b8
01e8
cafe
241c
5556
23b8
012a
cafe
2804
5556
23b8
0233
cafe
2c14
5556
23bc
016a
cafe
300d
5556
23bc
010c
cafe
341d
5556
23bc
0216
cafe
3805
5556
23bc
01ae
cafe
3c15
5556
23c0
01d1
cafe
200e
5556
23c0
0192
cafe
241e
5556
23c0
0127
cafe
2806
5556
23c0
01ac
cafe
2c16
5556
23c4
01d7
cafe
300f
5556
23c4
0148
cafe
341f
5556
23c4
0195
cafe
3807
5556
23c4
0137
cafe
3c17
-
5556
23c8
01e8
cafe
2008
5556
23c8
0180
cafe
2418
5556
23c8
0179
cafe
2800
5556
23c8
01e0
cafe
2c10
5556
23cc
01a1
cafe
3009
5556
23cc
010b
cafe
3419
5556
23cc
017c
cafe
3801
5556
23cc
01fe
cafe
3c11
5556
23d0
0167
cafe
200a
5556
23d0
01b4
cafe
241a
5556
23d0
0170
cafe
2802
5556
23d0
014a
cafe
2c12
5556
23d4
0165
cafe
300b
5556
23d4
01c7
cafe
341b
5556
23d4
012c
cafe
3803
5556
23d4
013e
cafe
3c13
5556
23d8
0140
cafe
200c
5556
23d8
01de
cafe
241c
5556
23d8
012f
cafe
2804
5556
23d8
022c
cafe
2c14
5556
23dc
017e
cafe
300d
5556
23dc
0113
cafe
341d
5556
23dc
021d
cafe
3805
5556
23dc
01a0
cafe
3c15
5556
23e0
01dd
cafe
200e
5556
23e0
01a4
cafe
241e
5556
23e0
0128
cafe
2806
5556
23e0
01b4
cafe
2c16
5556
23e4
01de
cafe
300f
5556
23e4
0159
cafe
341f
5556
23e4
018d
cafe
3807
5556
23e4
0146
cafe
3c17
5556
23e8
01f0
cafe
2008
5556
23e8
0189
cafe
2418
5556
23e8
016b
cafe
2800
5556
23e8
01c9
cafe
2c10
5556
23ec
01ab
cafe
3009
5556
23ec
011a
cafe
3419
5556
23ec
0175
cafe
3801
5556
23ec
0216
cafe
3c11
5556
23f0
015a
cafe
200a
5556
23f0
01a3
cafe
241a
5556
23f0
0174
cafe
2802
5556
23f0
0153
cafe
2c12
5556
23f4
016f
cafe
300b
5556
23f4
01c7
cafe
341b
5556
23f4
012f
cafe
3803
5556
23f4
0123
cafe
3c13
5556
23f8
013f
cafe
200c
5556
23f8
01d6
cafe
241c
5556
23f8
013e
cafe
2804
5556
-
23f8
0226
cafe
2c14
5556
23fc
0176
cafe
300d
5556
23fc
010c
cafe
341d
5556
23fc
021c
cafe
3805
5556
23fc
01a7
cafe
3c15
5556
2400
01d0
cafe
200e
5556
2400
01a3
cafe
241e
5556
2400
0130
cafe
2806
5556
2400
01ac
cafe
2c16
5556
2404
01c5
cafe
300f
5556
2404
0141
cafe
341f
5556
2404
0187
cafe
3807
5556
2404
0149
cafe
3c17
5556
2408
01e6
cafe
2008
5556
2408
01a1
cafe
2418
5556
2408
017e
cafe
2800
5556
2408
01cd
cafe
2c10
5556
240c
01b0
cafe
3009
5556
240c
011c
cafe
3419
5556
240c
0170
cafe
3801
5556
240c
021a
cafe
3c11
5556
2410
017c
cafe
200a
5556
2410
0199
cafe
241a
5556
2410
0163
cafe
2802
5556
2410
0154
cafe
2c12
5556
2414
016e
cafe
300b
5556
2414
01b9
cafe
341b
5556
2414
0133
cafe
3803
5556
2414
013a
cafe
3c13
5556
2418
0133
cafe
200c
5556
2418
01cd
cafe
241c
5556
2418
012c
cafe
2804
5556
2418
0227
cafe
2c14
5556
241c
0171
cafe
300d
5556
241c
00ee
cafe
341d
5556
241c
0224
cafe
3805
5556
241c
01a2
cafe
3c15
5556
2420
01c0
cafe
200e
5556
2420
019c
cafe
241e
5556
2420
0135
cafe
2806
5556
2420
01b8
cafe
2c16
5556
2424
01cb
cafe
300f
5556
2424
014f
cafe
341f
5556
2424
0191
cafe
3807
5556
2424
0150
cafe
3c17
5556
2428
01ec
cafe
2008
5556
2428
01a0
cafe
2418
5556
2428
0171
cafe
2800
5556
2428
01d5
cafe
2c10
5556
242c
01b9
cafe
3009
5556
242c
0125
cafe
3419
5556
242c
-
0187
cafe
3801
5556
242c
0200
cafe
3c11
5556
2430
016c
cafe
200a
5556
2430
01ba
cafe
241a
5556
2430
0174
cafe
2802
5556
2430
0161
cafe
2c12
5556
2434
016e
cafe
300b
5556
2434
01bd
cafe
341b
5556
2434
012f
cafe
3803
5556
2434
0144
cafe
3c13
5556
2438
015b
cafe
200c
5556
2438
01d6
cafe
241c
5556
2438
0122
cafe
2804
5556
2438
0245
cafe
2c14
5556
243c
0176
cafe
300d
5556
243c
0109
cafe
341d
5556
243c
022b
cafe
3805
5556
243c
01a9
cafe
3c15
5556
2440
01c5
cafe
200e
5556
2440
0182
cafe
241e
5556
2440
013a
cafe
2806
5556
2440
01bc
cafe
2c16
5556
2444
01ec
cafe
300f
5556
2444
0141
cafe
341f
5556
2444
018b
cafe
3807
5556
2444
0136
cafe
3c17
5556
2448
01de
cafe
2008
5556
2448
0194
cafe
2418
5556
2448
0164
cafe
2800
5556
2448
01ca
cafe
2c10
5556
244c
01af
cafe
3009
5556
244c
0113
cafe
3419
5556
244c
017e
cafe
3801
5556
244c
0207
cafe
3c11
5556
2450
0176
cafe
200a
5556
2450
01c0
cafe
241a
5556
2450
016c
cafe
2802
5556
2450
0153
cafe
2c12
5556
2454
0170
cafe
300b
5556
2454
01b7
cafe
341b
5556
2454
0122
cafe
3803
5556
2454
014d
cafe
3c13
5556
2458
0156
cafe
200c
5556
2458
01dc
cafe
241c
5556
2458
012f
cafe
2804
5556
2458
0222
cafe
2c14
5556
245c
0161
cafe
300d
5556
245c
0106
cafe
341d
5556
245c
0224
cafe
3805
5556
245c
01aa
cafe
3c15
5556
2460
01c5
cafe
200e
5556
2460
018b
-
cafe
241e
5556
2460
0136
cafe
2806
5556
2460
01c3
cafe
2c16
5556
2464
01d5
cafe
300f
5556
2464
0156
cafe
341f
5556
2464
0198
cafe
3807
5556
2464
0126
cafe
3c17
5556
2468
01e2
cafe
2008
5556
2468
0183
cafe
2418
5556
2468
016e
cafe
2800
5556
2468
01c4
cafe
2c10
5556
246c
01b1
cafe
3009
5556
246c
010a
cafe
3419
5556
246c
017a
cafe
3801
5556
246c
01f5
cafe
3c11
5556
2470
0169
cafe
200a
5556
2470
01c7
cafe
241a
5556
2470
016d
cafe
2802
5556
2470
0155
cafe
2c12
5556
2474
0170
cafe
300b
5556
2474
01cf
cafe
341b
5556
2474
0141
cafe
3803
5556
2474
0146
cafe
3c13
5556
2478
0149
cafe
200c
5556
2478
01d7
cafe
241c
5556
2478
0135
cafe
2804
5556
2478
022e
cafe
2c14
5556
247c
0176
cafe
300d
5556
247c
00fc
cafe
341d
5556
247c
0211
cafe
3805
5556
247c
01a7
cafe
3c15
5556
2480
01bd
cafe
200e
5556
2480
019d
cafe
241e
5556
2480
012b
cafe
2806
5556
2480
01c0
cafe
2c16
5556
2484
01d8
cafe
300f
5556
2484
0143
cafe
341f
5556
2484
0197
cafe
3807
5556
2484
0130
cafe
3c17
5556
2488
01e6
cafe
2008
5556
2488
0194
cafe
2418
5556
2488
0174
cafe
2800
5556
2488
01d2
cafe
2c10
5556
248c
01ae
cafe
3009
5556
248c
011d
cafe
3419
5556
248c
018a
cafe
3801
5556
248c
0207
cafe
3c11
5556
2490
0163
cafe
200a
5556
2490
01b2
cafe
241a
5556
2490
0168
cafe
2802
5556
2490
015a
cafe
2c12
5556
2494
0166
cafe
-
300b
5556
2494
01bd
cafe
341b
5556
2494
012c
cafe
3803
5556
2494
0137
cafe
3c13
5556
2498
0141
cafe
200c
5556
2498
01e3
cafe
241c
5556
2498
0133
cafe
2804
5556
2498
0223
cafe
2c14
5556
249c
0156
cafe
300d
5556
249c
0102
cafe
341d
5556
249c
020c
cafe
3805
5556
249c
0199
cafe
3c15
5556
24a0
01cb
cafe
200e
5556
24a0
0194
cafe
241e
5556
24a0
012f
cafe
2806
5556
24a0
01bc
cafe
2c16
5556
24a4
01db
cafe
300f
5556
24a4
0144
cafe
341f
5556
24a4
01a0
cafe
3807
5556
24a4
0153
cafe
3c17
5556
24a8
01ed
cafe
2008
5556
24a8
01a0
cafe
2418
5556
24a8
0174
cafe
2800
5556
24a8
01d8
cafe
2c10
5556
24ac
01b1
cafe
3009
5556
24ac
011e
cafe
3419
5556
24ac
0179
cafe
3801
5556
24ac
0207
cafe
3c11
5556
24b0
0159
cafe
200a
5556
24b0
01a9
cafe
241a
5556
24b0
0183
cafe
2802
5556
24b0
015e
cafe
2c12
5556
24b4
0165
cafe
300b
5556
24b4
01c1
cafe
341b
5556
24b4
012c
cafe
3803
5556
24b4
0132
cafe
3c13
5556
24b8
0135
cafe
200c
5556
24b8
01d9
cafe
241c
5556
24b8
0137
cafe
2804
5556
24b8
020e
cafe
2c14
5556
24bc
0164
cafe
300d
5556
24bc
00ff
cafe
341d
5556
24bc
0204
cafe
3805
5556
24bc
01a5
cafe
3c15
5556
24c0
01be
cafe
200e
5556
24c0
0183
cafe
241e
5556
24c0
0128
cafe
2806
5556
24c0
01ae
cafe
2c16
5556
24c4
01e9
cafe
300f
5556
24c4
0155
cafe
341f
5556
24c4
01a0
cafe
3807
5556
24c4
013e
cafe
3c17
-
5556
24c8
01f0
cafe
2008
5556
24c8
01ab
cafe
2418
5556
24c8
0167
cafe
2800
5556
24c8
01d5
cafe
2c10
5556
24cc
01b7
cafe
3009
5556
24cc
0122
cafe
3419
5556
24cc
0183
cafe
3801
5556
24cc
01fd
cafe
3c11
5556
24d0
0178
cafe
200a
5556
24d0
01af
cafe
241a
5556
24d0
016c
cafe
2802
5556
24d0
0148
cafe
2c12
5556
24d4
017c
cafe
300b
5556
24d4
01cf
cafe
341b
5556
24d4
0138
cafe
3803
5556
24d4
0139
cafe
3c13
5556
24d8
0141
cafe
200c
5556
24d8
01da
cafe
241c
5556
24d8
0137
cafe
2804
5556
24d8
020d
cafe
2c14
5556
24dc
0171
cafe
300d
5556
24dc
00f9
cafe
341d
5556
24dc
0212
cafe
3805
5556
24dc
01a4
cafe
3c15
5556
24e0
01c0
cafe
200e
5556
24e0
0196
cafe
241e
5556
24e0
012d
cafe
2806
5556
24e0
01aa
cafe
2c16
5556
24e4
01e5
cafe
300f
5556
24e4
0139
cafe
341f
5556
24e4
019f
cafe
3807
5556
24e4
013f
cafe
3c17
5556
24e8
01e2
cafe
2008
5556
24e8
018c
cafe
2418
5556
24e8
0168
cafe
2800
5556
24e8
01e1
cafe
2c10
5556
24ec
01bc
cafe
3009
5556
24ec
011e
cafe
3419
5556
24ec
017a
cafe
3801
5556
24ec
0202
cafe
3c11
5556
24f0
016d
cafe
200a
5556
24f0
01b4
cafe
241a
5556
24f0
0177
cafe
2802
5556
24f0
014d
cafe
2c12
5556
24f4
0176
cafe
300b
5556
24f4
01c7
cafe
341b
5556
24f4
012f
cafe
3803
5556
24f4
013d
cafe
3c13
5556
24f8
014e
cafe
200c
5556
24f8
01ea
cafe
241c
5556
24f8
0133
cafe
2804
5556
-
24f8
0215
cafe
2c14
5556
24fc
0160
cafe
300d
5556
24fc
0105
cafe
341d
5556
24fc
0218
cafe
3805
5556
24fc
01ab
cafe
3c15
5556
2500
01cf
cafe
200e
5556
2500
0194
cafe
241e
5556
2500
012d
cafe
2806
5556
2500
01c5
cafe
2c16
5556
2504
01e6
cafe
300f
5556
2504
0140
cafe
341f
5556
2504
0199
cafe
3807
5556
2504
0125
cafe
3c17
5556
2508
01ed
cafe
2008
5556
2508
0188
cafe
2418
5556
2508
014f
cafe
2800
5556
2508
01d5
cafe
2c10
5556
250c
0196
cafe
3009
5556
250c
0115
cafe
3419
5556
250c
017c
cafe
3801
5556
250c
01f4
cafe
3c11
5556
2510
0157
cafe
200a
5556
2510
01a6
cafe
241a
5556
2510
0178
cafe
2802
5556
2510
0156
cafe
2c12
5556
2514
0174
cafe
300b
5556
2514
01d2
cafe
341b
5556
2514
013a
cafe
3803
5556
2514
0139
cafe
3c13
5556
2518
014f
cafe
200c
5556
2518
01e9
cafe
241c
5556
2518
0134
cafe
2804
5556
2518
021c
cafe
2c14
5556
251c
0167
cafe
300d
5556
251c
0106
cafe
341d
5556
251c
0219
cafe
3805
5556
251c
019b
cafe
3c15
5556
2520
01db
cafe
200e
5556
2520
018d
cafe
241e
5556
2520
0131
cafe
2806
5556
2520
01ab
cafe
2c16
5556
2524
01f8
cafe
300f
5556
2524
013e
cafe
341f
5556
2524
019b
cafe
3807
5556
2524
0146
cafe
3c17
5556
2528
01f8
cafe
2008
5556
2528
0194
cafe
2418
5556
2528
016b
cafe
2800
5556
2528
01cd
cafe
2c10
5556
252c
01ae
cafe
3009
5556
252c
0118
cafe
3419
5556
252c
-
0183
cafe
3801
5556
252c
0208
cafe
3c11
5556
2530
016c
cafe
200a
5556
2530
01a8
cafe
241a
5556
2530
016a
cafe
2802
5556
2530
016f
cafe
2c12
5556
2534
0170
cafe
300b
5556
2534
01ab
cafe
341b
5556
2534
0140
cafe
3803
5556
2534
0132
cafe
3c13
5556
2538
013f
cafe
200c
5556
2538
01de
cafe
241c
5556
2538
0132
cafe
2804
5556
2538
0226
cafe
2c14
5556
253c
0162
cafe
300d
5556
253c
0116
cafe
341d
5556
253c
0212
cafe
3805
5556
253c
01a8
cafe
3c15
5556
2540
01d7
cafe
200e
5556
2540
0190
cafe
241e
5556
2540
0126
cafe
2806
5556
2540
01c7
cafe
2c16
5556
2544
01e8
cafe
300f
5556
2544
0153
cafe
341f
5556
2544
019a
cafe
3807
5556
2544
013d
cafe
3c17
5556
2548
01f2
cafe
2008
5556
2548
0198
cafe
2418
5556
2548
0174
cafe
2800
5556
2548
01ca
cafe
2c10
5556
254c
01b6
cafe
3009
5556
254c
0122
cafe
3419
5556
254c
0182
cafe
3801
5556
254c
0205
cafe
3c11
5556
2550
016c
cafe
200a
5556
2550
019a
cafe
241a
5556
2550
0160
cafe
2802
5556
2550
0153
cafe
2c12
5556
2554
0165
cafe
300b
5556
2554
01c6
cafe
341b
5556
2554
0138
cafe
3803
5556
2554
0143
cafe
3c13
5556
2558
0135
cafe
200c
5556
2558
01d2
cafe
241c
5556
2558
0142
cafe
2804
5556
2558
0224
cafe
2c14
5556
255c
0161
cafe
300d
5556
255c
0103
cafe
341d
5556
255c
021a
cafe
3805
5556
255c
01a5
cafe
3c15
5556
2560
01d2
cafe
200e
5556
2560
018b
-
cafe
241e
5556
2560
013a
cafe
2806
5556
2560
01b4
cafe
2c16
5556
2564
01fe
cafe
300f
5556
2564
015d
cafe
341f
5556
2564
0186
cafe
3807
5556
2564
014c
cafe
3c17
5556
2568
01ef
cafe
2008
5556
2568
019d
cafe
2418
5556
2568
0177
cafe
2800
5556
2568
01cb
cafe
2c10
5556
256c
01ae
cafe
3009
5556
256c
010e
cafe
3419
5556
256c
0166
cafe
3801
5556
256c
020e
cafe
3c11
5556
2570
0164
cafe
200a
5556
2570
018a
cafe
241a
5556
2570
0163
cafe
2802
5556
2570
0158
cafe
2c12
5556
2574
015a
cafe
300b
5556
2574
01e2
cafe
341b
5556
2574
0128
cafe
3803
5556
2574
0129
cafe
3c13
5556
2578
0137
cafe
200c
5556
2578
01d6
cafe
241c
5556
2578
0153
cafe
2804
5556
2578
020d
cafe
2c14
5556
257c
0166
cafe
300d
5556
257c
0103
cafe
341d
5556
257c
020c
cafe
3805
5556
257c
01a4
cafe
3c15
5556
2580
01c8
cafe
200e
5556
2580
0186
cafe
241e
5556
2580
0128
cafe
2806
5556
2580
01b4
cafe
2c16
5556
2584
01e5
cafe
300f
5556
2584
0156
cafe
341f
5556
2584
019b
cafe
3807
5556
2584
0141
cafe
3c17
5556
2588
01ed
cafe
2008
5556
2588
0186
cafe
2418
5556
2588
0173
cafe
2800
5556
2588
01d9
cafe
2c10
5556
258c
01b4
cafe
3009
5556
258c
0117
cafe
3419
5556
258c
0175
cafe
3801
5556
258c
0200
cafe
3c11
5556
2590
016c
cafe
200a
5556
2590
019e
cafe
241a
5556
2590
0163
cafe
2802
5556
2590
0150
cafe
2c12
5556
2594
0160
cafe
-
300b
5556
2594
01b6
cafe
341b
5556
2594
0133
cafe
3803
5556
2594
012c
cafe
3c13
5556
2598
013e
cafe
200c
5556
2598
01f1
cafe
241c
5556
2598
0125
cafe
2804
5556
2598
0211
cafe
2c14
5556
259c
016a
cafe
300d
5556
259c
010e
cafe
341d
5556
259c
022c
cafe
3805
5556
259c
0194
cafe
3c15
5556
25a0
01d8
cafe
200e
5556
25a0
0181
cafe
241e
5556
25a0
0122
cafe
2806
5556
25a0
01b1
cafe
2c16
5556
25a4
01f9
cafe
300f
5556
25a4
014b
cafe
341f
5556
25a4
01a0
cafe
3807
5556
25a4
0140
cafe
3c17
5556
25a8
01dc
cafe
2008
5556
25a8
0180
cafe
2418
5556
25a8
0168
cafe
2800
5556
25a8
01cf
cafe
2c10
5556
25ac
01b3
cafe
3009
5556
25ac
011c
cafe
3419
5556
25ac
0171
cafe
3801
5556
25ac
020e
cafe
3c11
5556
25b0
0166
cafe
200a
5556
25b0
019f
cafe
241a
5556
25b0
0172
cafe
2802
5556
25b0
015c
cafe
2c12
5556
25b4
0160
cafe
300b
5556
25b4
01d0
cafe
341b
5556
25b4
012b
cafe
3803
5556
25b4
0129
cafe
3c13
5556
25b8
0141
cafe
200c
5556
25b8
01d3
cafe
241c
5556
25b8
011a
cafe
2804
5556
25b8
0211
cafe
2c14
5556
25bc
0166
cafe
300d
5556
25bc
0114
cafe
341d
5556
25bc
0229
cafe
3805
5556
25bc
01a0
cafe
3c15
5556
25c0
01cf
cafe
200e
5556
25c0
0485
cafe
241e
5556
25c0
041b
cafe
2806
5556
25c0
04bb
cafe
2c16
5556
25c4
04e5
cafe
300f
5556
25c4
0809
cafe
341f
5556
25c4
089e
cafe
3807
5556
25c4
0807
cafe
3c17
-
5556
25c8
08bf
cafe
2008
5556
25c8
0941
cafe
2418
5556
25c8
092d
cafe
2800
5556
25c8
0987
cafe
2c10
5556
25cc
0970
cafe
3009
5556
25cc
091a
cafe
3419
5556
25cc
096b
cafe
3801
5556
25cc
09d7
cafe
3c11
5556
25d0
0976
cafe
200a
5556
25d0
09af
cafe
241a
5556
25d0
094a
cafe
2802
5556
25d0
0922
cafe
2c12
5556
25d4
0983
cafe
300b
5556
25d4
0998
cafe
341b
5556
25d4
08ef
cafe
3803
5556
25d4
08d0
cafe
3c13
5556
25d8
092c
cafe
200c
5556
25d8
09a4
cafe
241c
5556
25d8
08dd
cafe
2804
5556
25d8
09aa
cafe
2c14
5556
25dc
092e
cafe
300d
5556
25dc
0898
cafe
341d
5556
25dc
09a4
cafe
3805
5556
25dc
092f
cafe
3c15
5556
25e0
0970
cafe
200e
5556
25e0
091f
cafe
241e
5556
25e0
08c3
cafe
2806
5556
25e0
0933
cafe
2c16
5556
25e4
096d
cafe
300f
5556
25e4
08b4
cafe
341f
5556
25e4
0928
cafe
3807
5556
25e4
08a7
cafe
3c17
5556
25e8
0955
cafe
2008
5556
25e8
08ec
cafe
2418
5556
25e8
08d7
cafe
2800
5556
25e8
092c
cafe
2c10
5556
25ec
0919
cafe
3009
5556
25ec
087d
cafe
3419
5556
25ec
08d4
cafe
3801
5556
25ec
094b
cafe
3c11
5556
25f0
08be
cafe
200a
5556
25f0
090b
cafe
241a
5556
25f0
08bd
cafe
2802
5556
25f0
0880
cafe
2c12
5556
25f4
08cd
cafe
300b
5556
25f4
0909
cafe
341b
5556
25f4
084f
cafe
3803
5556
25f4
0837
cafe
3c13
5556
25f8
0873
cafe
200c
5556
25f8
0914
cafe
241c
5556
25f8
084d
cafe
2804
5556
-
25f8
0922
cafe
2c14
5556
25fc
0878
cafe
300d
5556
25fc
07f4
cafe
341d
5556
25fc
091c
cafe
3805
5556
25fc
089e
cafe
3c15
5556
2600
08e1
cafe
200e
5556
2600
0881
cafe
241e
5556
2600
082b
cafe
2806
5556
2600
089f
cafe
2c16
5556
2604
08de
cafe
300f
5556
2604
0842
cafe
341f
5556
2604
0892
cafe
3807
5556
2604
0830
cafe
3c17
5556
2608
08f3
cafe
2008
5556
2608
087c
cafe
2418
5556
2608
0849
cafe
2800
5556
2608
089c
cafe
2c10
5556
260c
089c
cafe
3009
5556
260c
07e9
cafe
3419
5556
260c
0849
cafe
3801
5556
260c
08de
cafe
3c11
5556
2610
083f
cafe
200a
5556
2610
0883
cafe
241a
5556
2610
084b
cafe
2802
5556
2610
07f4
cafe
2c12
5556
2614
0852
cafe
300b
5556
2614
088b
cafe
341b
5556
2614
07e3
cafe
3803
5556
2614
07c3
cafe
3c13
5556
2618
07fb
cafe
200c
5556
2618
089e
cafe
241c
5556
2618
07c2
cafe
2804
5556
2618
08a5
cafe
2c14
5556
261c
080d
cafe
300d
5556
261c
076e
cafe
341d
5556
261c
08a1
cafe
3805
5556
261c
0813
cafe
3c15
5556
2620
0846
cafe
200e
5556
2620
080d
cafe
241e
5556
2620
07c7
cafe
2806
5556
2620
0827
cafe
2c16
5556
2624
0865
cafe
300f
5556
2624
07c5
cafe
341f
5556
2624
0815
cafe
3807
5556
2624
07b1
cafe
3c17
5556
2628
0879
cafe
2008
5556
2628
0803
cafe
2418
5556
2628
07e5
cafe
2800
5556
2628
0841
cafe
2c10
5556
262c
082b
cafe
3009
5556
262c
0778
cafe
3419
5556
262c
-
07d4
cafe
3801
5556
262c
0840
cafe
3c11
5556
2630
07c9
cafe
200a
5556
2630
080f
cafe
241a
5556
2630
07a7
cafe
2802
5556
2630
0787
cafe
2c12
5556
2634
07d9
cafe
300b
5556
2634
07fd
cafe
341b
5556
2634
075f
cafe
3803
5556
2634
074d
cafe
3c13
5556
2638
077f
cafe
200c
5556
2638
083c
cafe
241c
5556
2638
0757
cafe
2804
5556
2638
0830
cafe
2c14
5556
263c
079f
cafe
300d
5556
263c
06ed
cafe
341d
5556
263c
083e
cafe
3805
5556
263c
0791
cafe
3c15
5556
2640
07d8
cafe
200e
5556
2640
07a9
cafe
241e
5556
2640
0736
cafe
2806
5556
2640
07c1
cafe
2c16
5556
2644
07e9
cafe
300f
5556
2644
074f
cafe
341f
5556
2644
0795
cafe
3807
5556
2644
0730
cafe
3c17
5556
2648
0806
cafe
2008
5556
2648
0780
cafe
2418
5556
2648
0756
cafe
2800
5556
2648
07b8
cafe
2c10
5556
264c
07c2
cafe
3009
5556
264c
06f3
cafe
3419
5556
264c
0757
cafe
3801
5556
264c
07d9
cafe
3c11
5556
2650
073d
cafe
200a
5556
2650
0778
cafe
241a
5556
2650
0746
cafe
2802
5556
2650
070b
cafe
2c12
5556
2654
0745
cafe
300b
5556
2654
079e
cafe
341b
5556
2654
06f8
cafe
3803
5556
2654
06d8
cafe
3c13
5556
2658
0717
cafe
200c
5556
2658
07d6
cafe
241c
5556
2658
06e6
cafe
2804
5556
2658
07cb
cafe
2c14
5556
265c
0732
cafe
300d
5556
265c
069e
cafe
341d
5556
265c
07d9
cafe
3805
5556
265c
072d
cafe
3c15
5556
2660
0775
cafe
200e
5556
2660
0742
-
cafe
241e
5556
2660
06d9
cafe
2806
5556
2660
0753
cafe
2c16
5556
2664
0782
cafe
300f
5556
2664
0710
cafe
341f
5556
2664
070a
cafe
3807
5556
2664
06d4
cafe
3c17
5556
2668
07b4
cafe
2008
5556
2668
0726
cafe
2418
5556
2668
06e8
cafe
2800
5556
2668
0751
cafe
2c10
5556
266c
072e
cafe
3009
5556
266c
0667
cafe
3419
5556
266c
06f5
cafe
3801
5556
266c
0762
cafe
3c11
5556
2670
06c8
cafe
200a
5556
2670
0714
cafe
241a
5556
2670
06da
cafe
2802
5556
2670
06a0
cafe
2c12
5556
2674
06d2
cafe
300b
5556
2674
0723
cafe
341b
5556
2674
067f
cafe
3803
5556
2674
0661
cafe
3c13
5556
2678
06ae
cafe
200c
5556
2678
076b
cafe
241c
5556
2678
066c
cafe
2804
5556
2678
074e
cafe
2c14
5556
267c
06c6
cafe
300d
5556
267c
061f
cafe
341d
5556
267c
076d
cafe
3805
5556
267c
06d7
cafe
3c15
5556
2680
070c
cafe
200e
5556
2680
06d8
cafe
241e
5556
2680
0676
cafe
2806
5556
2680
06d8
cafe
2c16
5556
2684
0721
cafe
300f
5556
2684
0686
cafe
341f
5556
2684
0693
cafe
3807
5556
2684
0671
cafe
3c17
5556
2688
072c
cafe
2008
5556
2688
06c1
cafe
2418
5556
2688
0686
cafe
2800
5556
2688
06f4
cafe
2c10
5556
268c
06e0
cafe
3009
5556
268c
0621
cafe
3419
5556
268c
06a2
cafe
3801
5556
268c
06ff
cafe
3c11
5556
2690
066f
cafe
200a
5556
2690
06b1
cafe
241a
5556
2690
0683
cafe
2802
5556
2690
062c
cafe
2c12
5556
2694
0679
cafe
-
300b
5556
2694
06c4
cafe
341b
5556
2694
060f
cafe
3803
5556
2694
0610
cafe
3c13
5556
2698
0634
cafe
200c
5556
2698
06ee
cafe
241c
5556
2698
05f4
cafe
2804
5556
2698
06f3
cafe
2c14
5556
269c
0645
cafe
300d
5556
269c
0597
cafe
341d
5556
269c
0705
cafe
3805
5556
269c
066c
cafe
3c15
5556
26a0
0692
cafe
200e
5556
26a0
0668
cafe
241e
5556
26a0
05f9
cafe
2806
5556
26a0
066c
cafe
2c16
5556
26a4
06b7
cafe
300f
5556
26a4
062f
cafe
341f
5556
26a4
0640
cafe
3807
5556
26a4
060c
cafe
3c17
5556
26a8
06dd
cafe
2008
5556
26a8
065e
cafe
2418
5556
26a8
0624
cafe
2800
5556
26a8
0697
cafe
2c10
5556
26ac
068d
cafe
3009
5556
26ac
05b9
cafe
3419
5556
26ac
0628
cafe
3801
5556
26ac
069e
cafe
3c11
5556
26b0
0600
cafe
200a
5556
26b0
066f
cafe
241a
5556
26b0
062f
cafe
2802
5556
26b0
05c3
cafe
2c12
5556
26b4
0626
cafe
300b
5556
26b4
066a
cafe
341b
5556
26b4
05ca
cafe
3803
5556
26b4
05c5
cafe
3c13
5556
26b8
05d4
cafe
200c
5556
26b8
0698
cafe
241c
5556
26b8
05a9
cafe
2804
5556
26b8
0693
cafe
2c14
5556
26bc
05f5
cafe
300d
5556
26bc
054b
cafe
341d
5556
26bc
06a1
cafe
3805
5556
26bc
0609
cafe
3c15
5556
26c0
0634
cafe
200e
5556
26c0
0617
cafe
241e
5556
26c0
05a4
cafe
2806
5556
26c0
061e
cafe
2c16
5556
26c4
065b
cafe
300f
5556
26c4
05c1
cafe
341f
5556
26c4
05df
cafe
3807
5556
26c4
05a8
cafe
3c17
-
5556
26c8
0673
cafe
2008
5556
26c8
0608
cafe
2418
5556
26c8
05bd
cafe
2800
5556
26c8
063b
cafe
2c10
5556
26cc
061a
cafe
3009
5556
26cc
054d
cafe
3419
5556
26cc
05d3
cafe
3801
5556
26cc
064e
cafe
3c11
5556
26d0
05a7
cafe
200a
5556
26d0
0615
cafe
241a
5556
26d0
05cd
cafe
2802
5556
26d0
055a
cafe
2c12
5556
26d4
05cb
cafe
300b
5556
26d4
0611
cafe
341b
5556
26d4
0571
cafe
3803
5556
26d4
0563
cafe
3c13
5556
26d8
0583
cafe
200c
5556
26d8
064d
cafe
241c
5556
26d8
054c
cafe
2804
5556
26d8
064e
cafe
2c14
5556
26dc
05a7
cafe
300d
5556
26dc
04f8
cafe
341d
5556
26dc
0654
cafe
3805
5556
26dc
05c5
cafe
3c15
5556
26e0
05ef
cafe
200e
5556
26e0
05c1
cafe
241e
5556
26e0
0543
cafe
2806
5556
26e0
05b5
cafe
2c16
5556
26e4
05fd
cafe
300f
5556
26e4
057f
cafe
341f
5556
26e4
0596
cafe
3807
5556
26e4
054e
cafe
3c17
5556
26e8
061c
cafe
2008
5556
26e8
059e
cafe
2418
5556
26e8
0573
cafe
2800
5556
26e8
05e2
cafe
2c10
5556
26ec
05b6
cafe
3009
5556
26ec
04fd
cafe
3419
5556
26ec
057b
cafe
3801
5556
26ec
05e8
cafe
3c11
5556
26f0
0543
cafe
200a
5556
26f0
05a7
cafe
241a
5556
26f0
0574
cafe
2802
5556
26f0
04fe
cafe
2c12
5556
26f4
0573
cafe
300b
5556
26f4
05bb
cafe
341b
5556
26f4
0503
cafe
3803
5556
26f4
0512
cafe
3c13
5556
26f8
0527
cafe
200c
5556
26f8
05f5
cafe
241c
5556
26f8
04f8
cafe
2804
5556
-
26f8
05df
cafe
2c14
5556
26fc
0548
cafe
300d
5556
26fc
04c0
cafe
341d
5556
26fc
060c
cafe
3805
5556
26fc
057b
cafe
3c15
5556
2700
059c
cafe
200e
5556
2700
0573
cafe
241e
5556
2700
04fe
cafe
2806
5556
2700
057a
cafe
2c16
5556
2704
05b1
cafe
300f
5556
2704
0504
cafe
341f
5556
2704
052f
cafe
3807
5556
2704
04f8
cafe
3c17
5556
2708
05c4
cafe
2008
5556
2708
0542
cafe
2418
5556
2708
050b
cafe
2800
5556
2708
0594
cafe
2c10
5556
270c
055a
cafe
3009
5556
270c
04d1
cafe
3419
5556
270c
052b
cafe
3801
5556
270c
05ab
cafe
3c11
5556
2710
0512
cafe
200a
5556
2710
0578
cafe
241a
5556
2710
0520
cafe
2802
5556
2710
04c0
cafe
2c12
5556
2714
0530
cafe
300b
5556
2714
0576
cafe
341b
5556
2714
04c1
cafe
3803
5556
2714
04bc
cafe
3c13
5556
2718
04dd
cafe
200c
5556
2718
05af
cafe
241c
5556
2718
04b6
cafe
2804
5556
2718
05a8
cafe
2c14
5556
271c
0509
cafe
300d
5556
271c
0452
cafe
341d
5556
271c
05a6
cafe
3805
5556
271c
0523
cafe
3c15
5556
2720
053d
cafe
200e
5556
2720
0518
cafe
241e
5556
2720
04a6
cafe
2806
5556
2720
0528
cafe
2c16
5556
2724
0562
cafe
300f
5556
2724
04b8
cafe
341f
5556
2724
04dc
cafe
3807
5556
2724
04ae
cafe
3c17
5556
2728
0585
cafe
2008
5556
2728
050f
cafe
2418
5556
2728
04ce
cafe
2800
5556
2728
053f
cafe
2c10
5556
272c
052a
cafe
3009
5556
272c
0474
cafe
3419
5556
272c
-
04e5
cafe
3801
5556
272c
0560
cafe
3c11
5556
2730
04b2
cafe
200a
5556
2730
052f
cafe
241a
5556
2730
04d3
cafe
2802
5556
2730
0464
cafe
2c12
5556
2734
04c5
cafe
300b
5556
2734
051f
cafe
341b
5556
2734
0488
cafe
3803
5556
2734
0471
cafe
3c13
5556
2738
048b
cafe
200c
5556
2738
0562
cafe
241c
5556
2738
0463
cafe
2804
5556
2738
0555
cafe
2c14
5556
273c
04b9
cafe
300d
5556
273c
0409
cafe
341d
5556
273c
0560
cafe
3805
5556
273c
04e6
cafe
3c15
5556
2740
04f0
cafe
200e
5556
2740
04da
cafe
241e
5556
2740
0470
cafe
2806
5556
2740
04e7
cafe
2c16
5556
2744
0516
cafe
300f
5556
2744
048a
cafe
341f
5556
2744
049a
cafe
3807
5556
2744
046d
cafe
3c17
5556
2748
0545
cafe
2008
5556
2748
04c4
cafe
2418
5556
2748
0490
cafe
2800
5556
2748
04ee
cafe
2c10
5556
274c
04ed
cafe
3009
5556
274c
043c
cafe
3419
5556
274c
0498
cafe
3801
5556
274c
051f
cafe
3c11
5556
2750
048d
cafe
200a
5556
2750
04f9
cafe
241a
5556
2750
0498
cafe
2802
5556
2750
0430
cafe
2c12
5556
2754
04b1
cafe
300b
5556
2754
04e7
cafe
341b
5556
2754
0451
cafe
3803
5556
2754
0430
cafe
3c13
5556
2758
0446
cafe
200c
5556
2758
0525
cafe
241c
5556
2758
0423
cafe
2804
5556
2758
0523
cafe
2c14
5556
275c
0480
cafe
300d
5556
275c
03cf
cafe
341d
5556
275c
0521
cafe
3805
5556
275c
04a2
cafe
3c15
5556
2760
04b1
cafe
200e
5556
2760
0487
-
cafe
241e
5556
2760
0408
cafe
2806
5556
2760
0492
cafe
2c16
5556
2764
04b7
cafe
300f
5556
2764
042c
cafe
341f
5556
2764
0466
cafe
3807
5556
2764
0418
cafe
3c17
5556
2768
04fd
cafe
2008
5556
2768
0483
cafe
2418
5556
2768
0433
cafe
2800
5556
2768
04b5
cafe
2c10
5556
276c
0495
cafe
3009
5556
276c
03fb
cafe
3419
5556
276c
0465
cafe
3801
5556
276c
04d1
cafe
3c11
5556
2770
043a
cafe
200a
5556
2770
0495
cafe
241a
5556
2770
044d
cafe
2802
5556
2770
03fd
cafe
2c12
5556
2774
046d
cafe
300b
5556
2774
04a0
cafe
341b
5556
2774
0414
cafe
3803
5556
2774
03ed
cafe
3c13
5556
2778
0412
cafe
200c
5556
2778
04f2
cafe
241c
5556
2778
03e6
cafe
2804
5556
2778
04e6
cafe
2c14
5556
277c
0444
cafe
300d
5556
277c
03a2
cafe
341d
5556
277c
04eb
cafe
3805
5556
277c
0464
cafe
3c15
5556
2780
0464
cafe
200e
5556
2780
0442
cafe
241e
5556
2780
03d0
cafe
2806
5556
2780
045e
cafe
2c16
5556
2784
047d
cafe
300f
5556
2784
0409
cafe
341f
5556
2784
042b
cafe
3807
5556
2784
03eb
cafe
3c17
5556
2788
04c6
cafe
2008
5556
2788
0439
cafe
2418
5556
2788
03f8
cafe
2800
5556
2788
047a
cafe
2c10
5556
278c
045e
cafe
3009
5556
278c
03c4
cafe
3419
5556
278c
0429
cafe
3801
5556
278c
0494
cafe
3c11
5556
2790
03f9
cafe
200a
5556
2790
0469
cafe
241a
5556
2790
0413
cafe
2802
5556
2790
03c8
cafe
2c12
5556
2794
0415
cafe
-
300b
5556
2794
0471
cafe
341b
5556
2794
03d6
cafe
3803
5556
2794
03b6
cafe
3c13
5556
2798
03c2
cafe
200c
5556
2798
04ab
cafe
241c
5556
2798
03a0
cafe
2804
5556
2798
049f
cafe
2c14
5556
279c
0404
cafe
300d
5556
279c
0363
cafe
341d
5556
279c
04b0
cafe
3805
5556
279c
041c
cafe
3c15
5556
27a0
0428
cafe
200e
5556
27a0
0418
cafe
241e
5556
27a0
03a8
cafe
2806
5556
27a0
042f
cafe
2c16
5556
27a4
0462
cafe
300f
5556
27a4
03c8
cafe
341f
5556
27a4
03e2
cafe
3807
5556
27a4
03b3
cafe
3c17
5556
27a8
0487
cafe
2008
5556
27a8
0409
cafe
2418
5556
27a8
03c0
cafe
2800
5556
27a8
0440
cafe
2c10
5556
27ac
0425
cafe
3009
5556
27ac
0388
cafe
3419
5556
27ac
03f6
cafe
3801
5556
27ac
0472
cafe
3c11
5556
27b0
03ce
cafe
200a
5556
27b0
041c
cafe
241a
5556
27b0
03f2
cafe
2802
5556
27b0
0381
cafe
2c12
5556
27b4
03d2
cafe
300b
5556
27b4
043c
cafe
341b
5556
27b4
039b
cafe
3803
5556
27b4
0389
cafe
3c13
5556
27b8
039e
cafe
200c
5556
27b8
0479
cafe
241c
5556
27b8
036a
cafe
2804
5556
27b8
0454
cafe
2c14
5556
27bc
03c4
cafe
300d
5556
27bc
031d
cafe
341d
5556
27bc
0478
cafe
3805
5556
27bc
03f3
cafe
3c15
5556
27c0
03fc
cafe
200e
5556
27c0
03df
cafe
241e
5556
27c0
035b
cafe
2806
5556
27c0
03f6
cafe
2c16
5556
27c4
0418
cafe
300f
5556
27c4
0390
cafe
341f
5556
27c4
03be
cafe
3807
5556
27c4
038b
cafe
3c17
-
5556
27c8
0450
cafe
2008
5556
27c8
03e6
cafe
2418
5556
27c8
039c
cafe
2800
5556
27c8
0416
cafe
2c10
5556
27cc
03f3
cafe
3009
5556
27cc
0343
cafe
3419
5556
27cc
03be
cafe
3801
5556
27cc
0434
cafe
3c11
5556
27d0
039a
cafe
200a
5556
27d0
03fb
cafe
241a
5556
27d0
03aa
cafe
2802
5556
27d0
0350
cafe
2c12
5556
27d4
039f
cafe
300b
5556
27d4
0403
cafe
341b
5556
27d4
034a
cafe
3803
5556
27d4
034a
cafe
3c13
5556
27d8
0376
cafe
200c
5556
27d8
043b
cafe
241c
5556
27d8
0330
cafe
2804
5556
27d8
0434
cafe
2c14
5556
27dc
0390
cafe
300d
5556
27dc
02d6
cafe
341d
5556
27dc
044c
cafe
3805
5556
27dc
03c7
cafe
3c15
5556
27e0
03c7
cafe
200e
5556
27e0
03b0
cafe
241e
5556
27e0
0338
cafe
2806
5556
27e0
03d4
cafe
2c16
5556
27e4
03f2
cafe
300f
5556
27e4
0377
cafe
341f
5556
27e4
0373
cafe
3807
5556
27e4
0358
cafe
3c17
5556
27e8
0430
cafe
2008
5556
27e8
0397
cafe
2418
5556
27e8
0367
cafe
2800
5556
27e8
03d8
cafe
2c10
5556
27ec
03bd
cafe
3009
5556
27ec
0320
cafe
3419
5556
27ec
0395
cafe
3801
5556
27ec
03f8
cafe
3c11
5556
27f0
035b
cafe
200a
5556
27f0
03d8
cafe
241a
5556
27f0
0385
cafe
2802
5556
27f0
032b
cafe
2c12
5556
27f4
0382
cafe
300b
5556
27f4
03d6
cafe
341b
5556
27f4
0336
cafe
3803
5556
27f4
0319
cafe
3c13
5556
27f8
0340
cafe
200c
5556
27f8
0404
cafe
241c
5556
27f8
030b
cafe
2804
5556
-
27f8
0402
cafe
2c14
5556
27fc
035a
cafe
300d
5556
27fc
02c9
cafe
341d
5556
27fc
042f
cafe
3805
5556
27fc
038a
cafe
3c15
5556
2800
039c
cafe
200e
5556
2800
038a
cafe
241e
5556
2800
02fe
cafe
2806
5556
2800
0396
cafe
2c16
5556
2804
03ce
cafe
300f
5556
2804
0329
cafe
341f
5556
2804
0352
cafe
3807
5556
2804
030d
cafe
3c17
5556
2808
03f4
cafe
2008
5556
2808
0389
cafe
2418
5556
2808
0331
cafe
2800
5556
2808
03bd
cafe
2c10
5556
280c
039a
cafe
3009
5556
280c
02fb
cafe
3419
5556
280c
0368
cafe
3801
5556
280c
03b9
cafe
3c11
5556
2810
033f
cafe
200a
5556
2810
0395
cafe
241a
5556
2810
0345
cafe
2802
5556
2810
0308
cafe
2c12
5556
2814
035d
cafe
300b
5556
2814
03a2
cafe
341b
5556
2814
02f7
cafe
3803
5556
2814
02f7
cafe
3c13
5556
2818
031c
cafe
200c
5556
2818
03e4
cafe
241c
5556
2818
02dc
cafe
2804
5556
2818
03d3
cafe
2c14
5556
281c
0335
cafe
300d
5556
281c
02ba
cafe
341d
5556
281c
03f1
cafe
3805
5556
281c
036d
cafe
3c15
5556
2820
0384
cafe
200e
5556
2820
035a
cafe
241e
5556
2820
02e7
cafe
2806
5556
2820
0367
cafe
2c16
5556
2824
039d
cafe
300f
5556
2824
030b
cafe
341f
5556
2824
033d
cafe
3807
5556
2824
0304
cafe
3c17
5556
2828
03cb
cafe
2008
5556
2828
0359
cafe
2418
5556
2828
0310
cafe
2800
5556
2828
0379
cafe
2c10
5556
282c
0364
cafe
3009
5556
282c
02cb
cafe
3419
5556
282c
-
0331
cafe
3801
5556
282c
03a4
cafe
3c11
5556
2830
02ff
cafe
200a
5556
2830
037e
cafe
241a
5556
2830
0321
cafe
2802
5556
2830
02d7
cafe
2c12
5556
2834
0324
cafe
300b
5556
2834
0392
cafe
341b
5556
2834
02e2
cafe
3803
5556
2834
02da
cafe
3c13
5556
2838
02ea
cafe
200c
5556
2838
03ce
cafe
241c
5556
2838
02b2
cafe
2804
5556
2838
03c9
cafe
2c14
5556
283c
0325
cafe
300d
5556
283c
0270
cafe
341d
5556
283c
03be
cafe
3805
5556
283c
033a
cafe
3c15
5556
2840
033b
cafe
200e
5556
2840
0331
cafe
241e
5556
2840
02be
cafe
2806
5556
2840
0351
cafe
2c16
5556
2844
0363
cafe
300f
5556
2844
02e0
cafe
341f
5556
2844
0302
cafe
3807
5556
2844
02c8
cafe
3c17
5556
2848
03a4
cafe
2008
5556
2848
0325
cafe
2418
5556
2848
02e7
cafe
2800
5556
2848
035b
cafe
2c10
5556
284c
0341
cafe
3009
5556
284c
02c0
cafe
3419
5556
284c
0312
cafe
3801
5556
284c
0391
cafe
3c11
5556
2850
02e5
cafe
200a
5556
2850
0346
cafe
241a
5556
2850
02f0
cafe
2802
5556
2850
02bd
cafe
2c12
5556
2854
02f9
cafe
300b
5556
2854
0353
cafe
341b
5556
2854
02c7
cafe
3803
5556
2854
02ad
cafe
3c13
5556
2858
02ad
cafe
200c
5556
2858
0382
cafe
241c
5556
2858
0297
cafe
2804
5556
2858
0392
cafe
2c14
5556
285c
02e6
cafe
300d
5556
285c
0247
cafe
341d
5556
285c
03a2
cafe
3805
5556
285c
0323
cafe
3c15
5556
2860
0319
cafe
200e
5556
2860
0300
-
cafe
241e
5556
2860
029d
cafe
2806
5556
2860
0321
cafe
2c16
5556
2864
0349
cafe
300f
5556
2864
02df
cafe
341f
5556
2864
02e2
cafe
3807
5556
2864
02c6
cafe
3c17
5556
2868
0394
cafe
2008
5556
2868
031c
cafe
2418
5556
2868
02e8
cafe
2800
5556
2868
0354
cafe
2c10
5556
286c
0343
cafe
3009
5556
286c
0293
cafe
3419
5556
286c
02e8
cafe
3801
5556
286c
0354
cafe
3c11
5556
2870
02d0
cafe
200a
5556
2870
0316
cafe
241a
5556
2870
02d1
cafe
2802
5556
2870
029b
cafe
2c12
5556
2874
02ea
cafe
300b
5556
2874
0332
cafe
341b
5556
2874
02b8
cafe
3803
5556
2874
0293
cafe
3c13
5556
2878
0291
cafe
200c
5556
2878
0360
cafe
241c
5556
2878
0288
cafe
2804
5556
2878
036c
cafe
2c14
5556
287c
02d3
cafe
300d
5556
287c
0223
cafe
341d
5556
287c
0384
cafe
3805
5556
287c
02fb
cafe
3c15
5556
2880
02f5
cafe
200e
5556
2880
02e3
cafe
241e
5556
2880
0286
cafe
2806
5556
2880
02f4
cafe
2c16
5556
2884
0329
cafe
300f
5556
2884
02ab
cafe
341f
5556
2884
02ca
cafe
3807
5556
2884
0285
cafe
3c17
5556
2888
0374
cafe
2008
5556
2888
02ec
cafe
2418
5556
2888
02af
cafe
2800
5556
2888
0346
cafe
2c10
5556
288c
0307
cafe
3009
5556
288c
027c
cafe
3419
5556
288c
02d1
cafe
3801
5556
288c
0344
cafe
3c11
5556
2890
02ac
cafe
200a
5556
2890
030b
cafe
241a
5556
2890
02aa
cafe
2802
5556
2890
027d
cafe
2c12
5556
2894
02c7
cafe
-
300b
5556
2894
031c
cafe
341b
5556
2894
0279
cafe
3803
5556
2894
026b
cafe
3c13
5556
2898
0289
cafe
200c
5556
2898
0361
cafe
241c
5556
2898
0256
cafe
2804
5556
2898
034b
cafe
2c14
5556
289c
02ae
cafe
300d
5556
289c
021a
cafe
341d
5556
289c
035e
cafe
3805
5556
289c
02f6
cafe
3c15
5556
28a0
02e7
cafe
200e
5556
28a0
02da
cafe
241e
5556
28a0
0251
cafe
2806
5556
28a0
02e0
cafe
2c16
5556
28a4
0318
cafe
300f
5556
28a4
0288
cafe
341f
5556
28a4
0297
cafe
3807
5556
28a4
025e
cafe
3c17
5556
28a8
0363
cafe
2008
5556
28a8
02a7
cafe
2418
5556
28a8
027b
cafe
2800
5556
28a8
02fc
cafe
2c10
5556
28ac
02ad
cafe
3009
5556
28ac
021e
cafe
3419
5556
28ac
0294
cafe
3801
5556
28ac
030d
cafe
3c11
5556
28b0
025f
cafe
200a
5556
28b0
02e1
cafe
241a
5556
28b0
028e
cafe
2802
5556
28b0
0251
cafe
2c12
5556
28b4
02ac
cafe
300b
5556
28b4
02fc
cafe
341b
5556
28b4
025e
cafe
3803
5556
28b4
025f
cafe
3c13
5556
28b8
0275
cafe
200c
5556
28b8
031e
cafe
241c
5556
28b8
0258
cafe
2804
5556
28b8
0346
cafe
2c14
5556
28bc
0288
cafe
300d
5556
28bc
01e7
cafe
341d
5556
28bc
0345
cafe
3805
5556
28bc
02cc
cafe
3c15
5556
28c0
02a4
cafe
200e
5556
28c0
02a9
cafe
241e
5556
28c0
0227
cafe
2806
5556
28c0
02c4
cafe
2c16
5556
28c4
02de
cafe
300f
5556
28c4
026a
cafe
341f
5556
28c4
028a
cafe
3807
5556
28c4
024e
cafe
3c17
-
5556
28c8
032d
cafe
2008
5556
28c8
029b
cafe
2418
5556
28c8
0262
cafe
2800
5556
28c8
02eb
cafe
2c10
5556
28cc
02ce
cafe
3009
5556
28cc
023e
cafe
3419
5556
28cc
02a0
cafe
3801
5556
28cc
0300
cafe
3c11
5556
28d0
0272
cafe
200a
5556
28d0
02e1
cafe
241a
5556
28d0
028d
cafe
2802
5556
28d0
022c
cafe
2c12
5556
28d4
0284
cafe
300b
5556
28d4
02d4
cafe
341b
5556
28d4
023f
cafe
3803
5556
28d4
0233
cafe
3c13
5556
28d8
0256
cafe
200c
5556
28d8
030e
cafe
241c
5556
28d8
0234
cafe
2804
5556
28d8
032a
cafe
2c14
5556
28dc
026a
cafe
300d
5556
28dc
01e4
cafe
341d
5556
28dc
032b
cafe
3805
5556
28dc
02b1
cafe
3c15
5556
28e0
029f
cafe
200e
5556
28e0
029e
cafe
241e
5556
28e0
0232
cafe
2806
5556
28e0
02a2
cafe
2c16
5556
28e4
02da
cafe
300f
5556
28e4
025b
cafe
341f
5556
28e4
025a
cafe
3807
5556
28e4
0241
cafe
3c17
5556
28e8
0319
cafe
2008
5556
28e8
0290
cafe
2418
5556
28e8
0259
cafe
2800
5556
28e8
02c7
cafe
2c10
5556
28ec
02ab
cafe
3009
5556
28ec
0211
cafe
3419
5556
28ec
0292
cafe
3801
5556
28ec
02f8
cafe
3c11
5556
28f0
0257
cafe
200a
5556
28f0
02a9
cafe
241a
5556
28f0
0245
cafe
2802
5556
28f0
020f
cafe
2c12
5556
28f4
027b
cafe
300b
5556
28f4
02ab
cafe
341b
5556
28f4
0226
cafe
3803
5556
28f4
0226
cafe
3c13
5556
28f8
0228
cafe
200c
5556
28f8
02ff
cafe
241c
5556
28f8
021a
cafe
2804
5556
-
28f8
0306
cafe
2c14
5556
28fc
025c
cafe
300d
5556
28fc
01d0
cafe
341d
5556
28fc
0305
cafe
3805
5556
28fc
0291
cafe
3c15
5556
2900
0294
cafe
200e
5556
2900
0276
cafe
241e
5556
2900
020f
cafe
2806
5556
2900
0291
cafe
2c16
5556
2904
02ca
cafe
300f
5556
2904
024b
cafe
341f
5556
2904
0261
cafe
3807
5556
2904
0233
cafe
3c17
5556
2908
02f8
cafe
2008
5556
2908
0290
cafe
2418
5556
2908
0242
cafe
2800
5556
2908
02b1
cafe
2c10
5556
290c
0293
cafe
3009
5556
290c
01f6
cafe
3419
5556
290c
0266
cafe
3801
5556
290c
02e4
cafe
3c11
5556
2910
024c
cafe
200a
5556
2910
02a0
cafe
241a
5556
2910
024d
cafe
2802
5556
2910
0206
cafe
2c12
5556
2914
025a
cafe
300b
5556
2914
02b5
cafe
341b
5556
2914
0204
cafe
3803
5556
2914
020f
cafe
3c13
5556
2918
0212
cafe
200c
5556
2918
02d9
cafe
241c
5556
2918
01ef
cafe
2804
5556
2918
02eb
cafe
2c14
5556
291c
0246
cafe
300d
5556
291c
01a9
cafe
341d
5556
291c
02f4
cafe
3805
5556
291c
027c
cafe
3c15
5556
2920
0277
cafe
200e
5556
2920
0258
cafe
241e
5556
2920
01f5
cafe
2806
5556
2920
0262
cafe
2c16
5556
2924
0284
cafe
300f
5556
2924
0228
cafe
341f
5556
2924
0243
cafe
3807
5556
2924
020c
cafe
3c17
5556
2928
02df
cafe
2008
5556
2928
026d
cafe
2418
5556
2928
0234
cafe
2800
5556
2928
02a8
cafe
2c10
5556
292c
0281
cafe
3009
5556
292c
01e8
cafe
3419
5556
292c
-
0256
cafe
3801
5556
292c
02b6
cafe
3c11
5556
2930
0245
cafe
200a
5556
2930
029d
cafe
241a
5556
2930
023f
cafe
2802
5556
2930
0207
cafe
2c12
5556
2934
025b
cafe
300b
5556
2934
029c
cafe
341b
5556
2934
01e8
cafe
3803
5556
2934
0201
cafe
3c13
5556
2938
020d
cafe
200c
5556
2938
02bd
cafe
241c
5556
2938
01d3
cafe
2804
5556
2938
02cb
cafe
2c14
5556
293c
022b
cafe
300d
5556
293c
018f
cafe
341d
5556
293c
02eb
cafe
3805
5556
293c
0261
cafe
3c15
5556
2940
0268
cafe
200e
5556
2940
0253
cafe
241e
5556
2940
01f3
cafe
2806
5556
2940
024c
cafe
2c16
5556
2944
029f
cafe
300f
5556
2944
020c
cafe
341f
5556
2944
022e
cafe
3807
5556
2944
0206
cafe
3c17
5556
2948
02b9
cafe
2008
5556
2948
025d
cafe
2418
5556
2948
0225
cafe
2800
5556
2948
029c
cafe
2c10
5556
294c
0266
cafe
3009
5556
294c
01de
cafe
3419
5556
294c
022f
cafe
3801
5556
294c
02a1
cafe
3c11
5556
2950
0233
cafe
200a
5556
2950
0286
cafe
241a
5556
2950
021c
cafe
2802
5556
2950
01e5
cafe
2c12
5556
2954
023e
cafe
300b
5556
2954
0271
cafe
341b
5556
2954
01de
cafe
3803
5556
2954
01da
cafe
3c13
5556
2958
01f9
cafe
200c
5556
2958
02a4
cafe
241c
5556
2958
01c0
cafe
2804
5556
2958
02cf
cafe
2c14
5556
295c
0224
cafe
300d
5556
295c
01a0
cafe
341d
5556
295c
02d1
cafe
3805
5556
295c
0251
cafe
3c15
5556
2960
0257
cafe
200e
5556
2960
0230
-
cafe
241e
5556
2960
01df
cafe
2806
5556
2960
0254
cafe
2c16
5556
2964
027d
cafe
300f
5556
2964
01ec
cafe
341f
5556
2964
0218
cafe
3807
5556
2964
01e8
cafe
3c17
5556
2968
0294
cafe
2008
5556
2968
022e
cafe
2418
5556
2968
020a
cafe
2800
5556
2968
0273
cafe
2c10
5556
296c
0249
cafe
3009
5556
296c
01c3
cafe
3419
5556
296c
0229
cafe
3801
5556
296c
02a5
cafe
3c11
5556
2970
0204
cafe
200a
5556
2970
025c
cafe
241a
5556
2970
0222
cafe
2802
5556
2970
01db
cafe
2c12
5556
2974
0223
cafe
300b
5556
2974
0285
cafe
341b
5556
2974
01cc
cafe
3803
5556
2974
01d3
cafe
3c13
5556
2978
01e3
cafe
200c
5556
2978
029f
cafe
241c
5556
2978
01a5
cafe
2804
5556
2978
02b1
cafe
2c14
5556
297c
020d
cafe
300d
5556
297c
017d
cafe
341d
5556
297c
02ad
cafe
3805
5556
297c
022f
cafe
3c15
5556
2980
0244
cafe
200e
5556
2980
0227
cafe
241e
5556
2980
01af
cafe
2806
5556
2980
0242
cafe
2c16
5556
2984
0273
cafe
300f
5556
2984
01ec
cafe
341f
5556
2984
021b
cafe
3807
5556
2984
01d5
cafe
3c17
5556
2988
0293
cafe
2008
5556
2988
0229
cafe
2418
5556
2988
0204
cafe
2800
5556
2988
0254
cafe
2c10
5556
298c
0252
cafe
3009
5556
298c
01b7
cafe
3419
5556
298c
021c
cafe
3801
5556
298c
028f
cafe
3c11
5556
2990
01f9
cafe
200a
5556
2990
025b
cafe
241a
5556
2990
01fd
cafe
2802
5556
2990
01c8
cafe
2c12
5556
2994
0214
cafe
-
300b
5556
2994
025f
cafe
341b
5556
2994
01c4
cafe
3803
5556
2994
01d4
cafe
3c13
5556
2998
01d8
cafe
200c
5556
2998
028d
cafe
241c
5556
2998
019f
cafe
2804
5556
2998
02a2
cafe
2c14
5556
299c
01ea
cafe
300d
5556
299c
016f
cafe
341d
5556
299c
029b
cafe
3805
5556
299c
0237
cafe
3c15
5556
29a0
0240
cafe
200e
5556
29a0
0221
cafe
241e
5556
29a0
01ac
cafe
2806
5556
29a0
0224
cafe
2c16
5556
29a4
026b
cafe
300f
5556
29a4
01dd
cafe
341f
5556
29a4
0205
cafe
3807
5556
29a4
01d3
cafe
3c17
5556
29a8
027f
cafe
2008
5556
29a8
022c
cafe
2418
5556
29a8
01f9
cafe
2800
5556
29a8
0251
cafe
2c10
5556
29ac
023f
cafe
3009
5556
29ac
019a
cafe
3419
5556
29ac
0219
cafe
3801
5556
29ac
0272
cafe
3c11
5556
29b0
01e2
cafe
200a
5556
29b0
0239
cafe
241a
5556
29b0
01fc
cafe
2802
5556
29b0
01c8
cafe
2c12
5556
29b4
01f0
cafe
300b
5556
29b4
0250
cafe
341b
5556
29b4
01b5
cafe
3803
5556
29b4
01bf
cafe
3c13
5556
29b8
01c6
cafe
200c
5556
29b8
0273
cafe
241c
5556
29b8
018a
cafe
2804
5556
29b8
028b
cafe
2c14
5556
29bc
01e4
cafe
300d
5556
29bc
015a
cafe
341d
5556
29bc
029e
cafe
3805
5556
29bc
0225
cafe
3c15
5556
29c0
021f
cafe
200e
5556
29c0
020b
cafe
241e
5556
29c0
018a
cafe
2806
5556
29c0
0221
cafe
2c16
5556
29c4
0256
cafe
300f
5556
29c4
01c9
cafe
341f
5556
29c4
0204
cafe
3807
5556
29c4
01a3
cafe
3c17
-
5556
29c8
0275
cafe
2008
5556
29c8
021c
cafe
2418
5556
29c8
01e1
cafe
2800
5556
29c8
0243
cafe
2c10
5556
29cc
0237
cafe
3009
5556
29cc
0187
cafe
3419
5556
29cc
01f9
cafe
3801
5556
29cc
0263
cafe
3c11
5556
29d0
01da
cafe
200a
5556
29d0
0236
cafe
241a
5556
29d0
01ce
cafe
2802
5556
29d0
01bc
cafe
2c12
5556
29d4
01f4
cafe
300b
5556
29d4
024f
cafe
341b
5556
29d4
019c
cafe
3803
5556
29d4
0194
cafe
3c13
5556
29d8
01bf
cafe
200c
5556
29d8
027b
cafe
241c
5556
29d8
018e
cafe
2804
5556
29d8
0284
cafe
2c14
5556
29dc
01e3
cafe
300d
5556
29dc
014e
cafe
341d
5556
29dc
028b
cafe
3805
5556
29dc
0213
cafe
3c15
5556
29e0
0219
cafe
200e
5556
29e0
0204
cafe
241e
5556
29e0
018a
cafe
2806
5556
29e0
021a
cafe
2c16
5556
29e4
0240
cafe
300f
5556
29e4
01ae
cafe
341f
5556
29e4
01ee
cafe
3807
5556
29e4
01a8
cafe
3c17
5556
29e8
0263
cafe
2008
5556
29e8
0201
cafe
2418
5556
29e8
01d8
cafe
2800
5556
29e8
0243
cafe
2c10
5556
29ec
0206
cafe
3009
5556
29ec
017b
cafe
3419
5556
29ec
01df
cafe
3801
5556
29ec
025c
cafe
3c11
5556
29f0
01cf
cafe
200a
5556
29f0
0229
cafe
241a
5556
29f0
01db
cafe
2802
5556
29f0
01af
cafe
2c12
5556
29f4
01da
cafe
300b
5556
29f4
0245
cafe
341b
5556
29f4
0188
cafe
3803
5556
29f4
019e
cafe
3c13
5556
29f8
01aa
cafe
200c
5556
29f8
0264
cafe
241c
5556
29f8
018c
cafe
2804
5556
-
29f8
0288
cafe
2c14
5556
29fc
01d4
cafe
300d
5556
29fc
0158
cafe
341d
5556
29fc
0283
cafe
3805
5556
29fc
0213
cafe
3c15
5556
2a00
0203
cafe
200e
5556
2a00
01eb
cafe
241e
5556
2a00
0180
cafe
2806
5556
2a00
0211
cafe
2c16
5556
2a04
024f
cafe
300f
5556
2a04
01a3
cafe
341f
5556
2a04
01d8
cafe
3807
5556
2a04
01b2
cafe
3c17
5556
2a08
0250
cafe
2008
5556
2a08
01ff
cafe
2418
5556
2a08
01ce
cafe
2800
5556
2a08
0232
cafe
2c10
5556
2a0c
021a
cafe
3009
5556
2a0c
0175
cafe
3419
5556
2a0c
01d6
cafe
3801
5556
2a0c
0242
cafe
3c11
5556
2a10
01c3
cafe
200a
5556
2a10
020d
cafe
241a
5556
2a10
01bc
cafe
2802
5556
2a10
019d
cafe
2c12
5556
2a14
01cc
cafe
300b
5556
2a14
023a
cafe
341b
5556
2a14
017c
cafe
3803
5556
2a14
0192
cafe
3c13
5556
2a18
01b5
cafe
200c
5556
2a18
0259
cafe
241c
5556
2a18
017b
cafe
2804
5556
2a18
0271
cafe
2c14
5556
2a1c
01c3
cafe
300d
5556
2a1c
014b
cafe
341d
5556
2a1c
0276
cafe
3805
5556
2a1c
0202
cafe
3c15
5556
2a20
0200
cafe
200e
5556
2a20
01da
cafe
241e
5556
2a20
017a
cafe
2806
5556
2a20
0205
cafe
2c16
5556
2a24
0245
cafe
300f
5556
2a24
01ae
cafe
341f
5556
2a24
01ce
cafe
3807
5556
2a24
018e
cafe
3c17
5556
2a28
0259
cafe
2008
5556
2a28
01f7
cafe
2418
5556
2a28
01b9
cafe
2800
5556
2a28
022c
cafe
2c10
5556
2a2c
0219
cafe
3009
5556
2a2c
0172
cafe
3419
5556
2a2c
-
01ce
cafe
3801
5556
2a2c
0250
cafe
3c11
5556
2a30
01bb
cafe
200a
5556
2a30
020d
cafe
241a
5556
2a30
01c1
cafe
2802
5556
2a30
0189
cafe
2c12
5556
2a34
01d5
cafe
300b
5556
2a34
0224
cafe
341b
5556
2a34
0184
cafe
3803
5556
2a34
0186
cafe
3c13
5556
2a38
018a
cafe
200c
5556
2a38
025a
cafe
241c
5556
2a38
016c
cafe
2804
5556
2a38
0252
cafe
2c14
5556
2a3c
019c
cafe
300d
5556
2a3c
012d
cafe
341d
5556
2a3c
026c
cafe
3805
5556
2a3c
01f7
cafe
3c15
5556
2a40
01f2
cafe
200e
5556
2a40
01da
cafe
241e
5556
2a40
016d
cafe
2806
5556
2a40
01de
cafe
2c16
5556
2a44
022a
cafe
300f
5556
2a44
0182
cafe
341f
5556
2a44
01ce
cafe
3807
5556
2a44
019e
cafe
3c17
5556
2a48
024e
cafe
2008
5556
2a48
01e9
cafe
2418
5556
2a48
01b6
cafe
2800
5556
2a48
0214
cafe
2c10
5556
2a4c
020a
cafe
3009
5556
2a4c
016a
cafe
3419
5556
2a4c
01d2
cafe
3801
5556
2a4c
024f
cafe
3c11
5556
2a50
01ad
cafe
200a
5556
2a50
01f6
cafe
241a
5556
2a50
01a2
cafe
2802
5556
2a50
0176
cafe
2c12
5556
2a54
01af
cafe
300b
5556
2a54
0216
cafe
341b
5556
2a54
016c
cafe
3803
5556
2a54
0177
cafe
3c13
5556
2a58
016d
cafe
200c
5556
2a58
0247
cafe
241c
5556
2a58
016c
cafe
2804
5556
2a58
0255
cafe
2c14
5556
2a5c
01b0
cafe
300d
5556
2a5c
0121
cafe
341d
5556
2a5c
0263
cafe
3805
5556
2a5c
01e0
cafe
3c15
5556
2a60
01e1
cafe
200e
5556
2a60
01bb
-
cafe
241e
5556
2a60
0167
cafe
2806
5556
2a60
01e8
cafe
2c16
5556
2a64
021d
cafe
300f
5556
2a64
0195
cafe
341f
5556
2a64
01c4
cafe
3807
5556
2a64
017c
cafe
3c17
5556
2a68
0244
cafe
2008
5556
2a68
01d2
cafe
2418
5556
2a68
01ac
cafe
2800
5556
2a68
020f
cafe
2c10
5556
2a6c
01f5
cafe
3009
5556
2a6c
016c
cafe
3419
5556
2a6c
01cc
cafe
3801
5556
2a6c
0238
cafe
3c11
5556
2a70
01ab
cafe
200a
5556
2a70
01f0
cafe
241a
5556
2a70
01a3
cafe
2802
5556
2a70
0173
cafe
2c12
5556
2a74
01ce
cafe
300b
5556
2a74
0212
cafe
341b
5556
2a74
0162
cafe
3803
5556
2a74
0162
cafe
3c13
5556
2a78
0179
cafe
200c
5556
2a78
022e
cafe
241c
5556
2a78
0148
cafe
2804
5556
2a78
025c
cafe
2c14
5556
2a7c
01a6
cafe
300d
5556
2a7c
0118
cafe
341d
5556
2a7c
0267
cafe
3805
5556
2a7c
01d8
cafe
3c15
5556
2a80
01e3
cafe
200e
5556
2a80
01ca
cafe
241e
5556
2a80
0152
cafe
2806
5556
2a80
01d7
cafe
2c16
5556
2a84
0202
cafe
300f
5556
2a84
0166
cafe
341f
5556
2a84
01a8
cafe
3807
5556
2a84
0165
cafe
3c17
5556
2a88
0235
cafe
2008
5556
2a88
01c1
cafe
2418
5556
2a88
01a6
cafe
2800
5556
2a88
01fd
cafe
2c10
5556
2a8c
01ef
cafe
3009
5556
2a8c
015c
cafe
3419
5556
2a8c
01b4
cafe
3801
5556
2a8c
0237
cafe
3c11
5556
2a90
0195
cafe
200a
5556
2a90
01f1
cafe
241a
5556
2a90
01b0
cafe
2802
5556
2a90
0177
cafe
2c12
5556
2a94
01ae
cafe
-
300b
5556
2a94
0218
cafe
341b
5556
2a94
0163
cafe
3803
5556
2a94
0160
cafe
3c13
5556
2a98
018a
cafe
200c
5556
2a98
0234
cafe
241c
5556
2a98
014d
cafe
2804
5556
2a98
024e
cafe
2c14
5556
2a9c
0195
cafe
300d
5556
2a9c
0127
cafe
341d
5556
2a9c
0257
cafe
3805
5556
2a9c
01ea
cafe
3c15
5556
2aa0
0201
cafe
200e
5556
2aa0
01b3
cafe
241e
5556
2aa0
0155
cafe
2806
5556
2aa0
01e0
cafe
2c16
5556
2aa4
0201
cafe
300f
5556
2aa4
015f
cafe
341f
5556
2aa4
01a5
cafe
3807
5556
2aa4
015d
cafe
3c17
5556
2aa8
0227
cafe
2008
5556
2aa8
01b6
cafe
2418
5556
2aa8
01a0
cafe
2800
5556
2aa8
01f3
cafe
2c10
5556
2aac
01dd
cafe
3009
5556
2aac
0136
cafe
3419
5556
2aac
019d
cafe
3801
5556
2aac
021f
cafe
3c11
5556
2ab0
0179
cafe
200a
5556
2ab0
01c7
cafe
241a
5556
2ab0
01a8
cafe
2802
5556
2ab0
0162
cafe
2c12
5556
2ab4
019a
cafe
300b
5556
2ab4
01f2
cafe
341b
5556
2ab4
0156
cafe
3803
5556
2ab4
0163
cafe
3c13
5556
2ab8
0170
cafe
200c
5556
2ab8
022d
cafe
241c
5556
2ab8
0152
cafe
2804
5556
2ab8
024f
cafe
2c14
5556
2abc
0191
cafe
300d
5556
2abc
0131
cafe
341d
5556
2abc
023c
cafe
3805
5556
2abc
01cb
cafe
3c15
5556
2ac0
0201
cafe
200e
5556
2ac0
01e7
cafe
241e
5556
2ac0
014b
cafe
2806
5556
2ac0
01e1
cafe
2c16
5556
2ac4
020c
cafe
300f
5556
2ac4
0163
cafe
341f
5556
2ac4
01aa
cafe
3807
5556
2ac4
016c
cafe
3c17
-
5556
2ac8
0221
cafe
2008
5556
2ac8
01c0
cafe
2418
5556
2ac8
0189
cafe
2800
5556
2ac8
01f4
cafe
2c10
5556
2acc
01c7
cafe
3009
5556
2acc
013d
cafe
3419
5556
2acc
01a4
cafe
3801
5556
2acc
021d
cafe
3c11
5556
2ad0
016c
cafe
200a
5556
2ad0
01c4
cafe
241a
5556
2ad0
0185
cafe
2802
5556
2ad0
0158
cafe
2c12
5556
2ad4
0179
cafe
300b
5556
2ad4
01f3
cafe
341b
5556
2ad4
013e
cafe
3803
5556
2ad4
0161
cafe
3c13
5556
2ad8
015e
cafe
200c
5556
2ad8
0214
cafe
241c
5556
2ad8
0149
cafe
2804
5556
2ad8
0259
cafe
2c14
5556
2adc
0189
cafe
300d
5556
2adc
0121
cafe
341d
5556
2adc
0239
cafe
3805
5556
2adc
01d0
cafe
3c15
5556
2ae0
01fa
cafe
200e
5556
2ae0
01c3
cafe
241e
5556
2ae0
014f
cafe
2806
5556
2ae0
01e0
cafe
2c16
5556
2ae4
0214
cafe
300f
5556
2ae4
0175
cafe
341f
5556
2ae4
01a2
cafe
3807
5556
2ae4
0155
cafe
3c17
5556
2ae8
0214
cafe
2008
5556
2ae8
01b0
cafe
2418
5556
2ae8
0196
cafe
2800
5556
2ae8
01ec
cafe
2c10
5556
2aec
01d6
cafe
3009
5556
2aec
0141
cafe
3419
5556
2aec
0198
cafe
3801
5556
2aec
021d
cafe
3c11
5556
2af0
0195
cafe
200a
5556
2af0
01c4
cafe
241a
5556
2af0
0177
cafe
2802
5556
2af0
0165
cafe
2c12
5556
2af4
0186
cafe
300b
5556
2af4
01df
cafe
341b
5556
2af4
0142
cafe
3803
5556
2af4
0143
cafe
3c13
5556
2af8
0147
cafe
200c
5556
2af8
0203
cafe
241c
5556
2af8
0141
cafe
2804
5556
-
2af8
0248
cafe
2c14
5556
2afc
0170
cafe
300d
5556
2afc
010c
cafe
341d
5556
2afc
0238
cafe
3805
5556
2afc
01bc
cafe
3c15
5556
2b00
01ef
cafe
200e
5556
2b00
01ad
cafe
241e
5556
2b00
014c
cafe
2806
5556
2b00
01da
cafe
2c16
5556
2b04
0210
cafe
300f
5556
2b04
0171
cafe
341f
5556
2b04
01a0
cafe
3807
5556
2b04
014a
cafe
3c17
5556
2b08
0215
cafe
2008
5556
2b08
01b6
cafe
2418
5556
2b08
017e
cafe
2800
5556
2b08
01e4
cafe
2c10
5556
2b0c
01d2
cafe
3009
5556
2b0c
0141
cafe
3419
5556
2b0c
019e
cafe
3801
5556
2b0c
0217
cafe
3c11
5556
2b10
016f
cafe
200a
5556
2b10
01bf
cafe
241a
5556
2b10
016f
cafe
2802
5556
2b10
0156
cafe
2c12
5556
2b14
0191
cafe
300b
5556
2b14
01e3
cafe
341b
5556
2b14
014a
cafe
3803
5556
2b14
0142
cafe
3c13
5556
2b18
014f
cafe
200c
5556
2b18
01fe
cafe
241c
5556
2b18
0144
cafe
2804
5556
2b18
0237
cafe
2c14
5556
2b1c
0174
cafe
300d
5556
2b1c
00f9
cafe
341d
5556
2b1c
021c
cafe
3805
5556
2b1c
01af
cafe
3c15
5556
2b20
01d0
cafe
200e
5556
2b20
0193
cafe
241e
5556
2b20
0125
cafe
2806
5556
2b20
01b5
cafe
2c16
5556
2b24
01ef
cafe
300f
5556
2b24
0158
cafe
341f
5556
2b24
01a6
cafe
3807
5556
2b24
0163
cafe
3c17
5556
2b28
01fa
cafe
2008
5556
2b28
01a3
cafe
2418
5556
2b28
0187
cafe
2800
5556
2b28
01dc
cafe
2c10
5556
2b2c
01d1
cafe
3009
5556
2b2c
0145
cafe
3419
5556
2b2c
-
019c
cafe
3801
5556
2b2c
0216
cafe
3c11
5556
2b30
018a
cafe
200a
5556
2b30
01d2
cafe
241a
5556
2b30
018a
cafe
2802
5556
2b30
0162
cafe
2c12
5556
2b34
01aa
cafe
300b
5556
2b34
01f2
cafe
341b
5556
2b34
0148
cafe
3803
5556
2b34
013e
cafe
3c13
5556
2b38
0151
cafe
200c
5556
2b38
0204
cafe
241c
5556
2b38
013c
cafe
2804
5556
2b38
0233
cafe
2c14
5556
2b3c
0189
cafe
300d
5556
2b3c
00ff
cafe
341d
5556
2b3c
0224
cafe
3805
5556
2b3c
01b4
cafe
3c15
5556
2b40
01d3
cafe
200e
5556
2b40
0190
cafe
241e
5556
2b40
0134
cafe
2806
5556
2b40
01c8
cafe
2c16
5556
2b44
0200
cafe
300f
5556
2b44
0141
cafe
341f
5556
2b44
0195
cafe
3807
5556
2b44
0134
cafe
3c17
5556
2b48
01e6
cafe
2008
5556
2b48
0170
cafe
2418
5556
2b48
0153
cafe
2800
5556
2b48
01c0
cafe
2c10
5556
2b4c
0193
cafe
3009
5556
2b4c
0122
cafe
3419
5556
2b4c
017b
cafe
3801
5556
2b4c
020b
cafe
3c11
5556
2b50
015a
cafe
200a
5556
2b50
01ab
cafe
241a
5556
2b50
0172
cafe
2802
5556
2b50
0160
cafe
2c12
5556
2b54
016d
cafe
300b
5556
2b54
01ef
cafe
341b
5556
2b54
0138
cafe
3803
5556
2b54
013d
cafe
3c13
5556
2b58
015c
cafe
200c
5556
2b58
021e
cafe
241c
5556
2b58
0147
cafe
2804
5556
2b58
0242
cafe
2c14
5556
2b5c
018a
cafe
300d
5556
2b5c
0101
cafe
341d
5556
2b5c
0215
cafe
3805
5556
2b5c
01ae
cafe
3c15
5556
2b60
01df
cafe
200e
5556
2b60
01a3
-
cafe
241e
5556
2b60
0137
cafe
2806
5556
2b60
01cf
cafe
2c16
5556
2b64
01fa
cafe
300f
5556
2b64
0168
cafe
341f
5556
2b64
0197
cafe
3807
5556
2b64
0148
cafe
3c17
5556
2b68
01ed
cafe
2008
5556
2b68
019a
cafe
2418
5556
2b68
018c
cafe
2800
5556
2b68
01d4
cafe
2c10
5556
2b6c
01b2
cafe
3009
5556
2b6c
0121
cafe
3419
5556
2b6c
0182
cafe
3801
5556
2b6c
0201
cafe
3c11
5556
2b70
017d
cafe
200a
5556
2b70
01aa
cafe
241a
5556
2b70
016d
cafe
2802
5556
2b70
0162
cafe
2c12
5556
2b74
0173
cafe
300b
5556
2b74
01dd
cafe
341b
5556
2b74
0139
cafe
3803
5556
2b74
013b
cafe
3c13
5556
2b78
0150
cafe
200c
5556
2b78
01ec
cafe
241c
5556
2b78
012a
cafe
2804
5556
2b78
021b
cafe
2c14
5556
2b7c
017e
cafe
300d
5556
2b7c
00f7
cafe
341d
5556
2b7c
0210
cafe
3805
5556
2b7c
01b1
cafe
3c15
5556
2b80
01d8
cafe
200e
5556
2b80
019c
cafe
241e
5556
2b80
0128
cafe
2806
5556
2b80
01cb
cafe
2c16
5556
2b84
01eb
cafe
300f
5556
2b84
0146
cafe
341f
5556
2b84
0188
cafe
3807
5556
2b84
0138
cafe
3c17
5556
2b88
01f1
cafe
2008
5556
2b88
019e
cafe
2418
5556
2b88
016b
cafe
2800
5556
2b88
01ce
cafe
2c10
5556
2b8c
01ba
cafe
3009
5556
2b8c
0118
cafe
3419
5556
2b8c
0193
cafe
3801
5556
2b8c
01f2
cafe
3c11
5556
2b90
016b
cafe
200a
5556
2b90
01b3
cafe
241a
5556
2b90
0181
cafe
2802
5556
2b90
0159
cafe
2c12
5556
2b94
016b
cafe
-
