300b
5556
0594
0159
cafe
341b
5556
0594
010c
cafe
3803
5556
0594
01f5
cafe
3c13
5556
0598
01ba
cafe
200c
5556
0598
0177
cafe
241c
5556
0598
021f
cafe
2804
5556
0598
01b7
cafe
2c14
5556
059c
0264
cafe
300d
5556
059c
01f0
cafe
341d
5556
059c
01f9
cafe
3805
5556
059c
01ab
cafe
3c15
5556
05a0
0199
cafe
200e
5556
05a0
017f
cafe
241e
5556
05a0
0200
cafe
2806
5556
05a0
012a
cafe
2c16
5556
05a4
016f
cafe
300f
5556
05a4
0199
cafe
341f
5556
05a4
0204
cafe
3807
5556
05a4
018b
cafe
3c17
5556
05a8
015c
cafe
2008
5556
05a8
0161
cafe
2418
5556
05a8
01b7
cafe
2800
5556
05a8
012d
cafe
2c10
5556
05ac
010f
cafe
3009
5556
05ac
013c
cafe
3419
5556
05ac
0175
cafe
3801
5556
05ac
0177
cafe
3c11
5556
05b0
014d
cafe
200a
5556
05b0
01cd
cafe
241a
5556
05b0
01ed
cafe
2802
5556
05b0
011b
cafe
2c12
5556
05b4
0172
cafe
300b
5556
05b4
0158
cafe
341b
5556
05b4
010e
cafe
3803
5556
05b4
01e5
cafe
3c13
5556
05b8
01c2
cafe
200c
5556
05b8
0172
cafe
241c
5556
05b8
020e
cafe
2804
5556
05b8
01ba
cafe
2c14
5556
05bc
0269
cafe
300d
5556
05bc
01f8
cafe
341d
5556
05bc
01fa
cafe
3805
5556
05bc
01ae
cafe
3c15
5556
05c0
019f
cafe
200e
5556
05c0
017d
cafe
241e
5556
05c0
0208
cafe
2806
5556
05c0
012c
cafe
2c16
5556
05c4
016f
cafe
300f
5556
05c4
01a3
cafe
341f
5556
05c4
0202
cafe
3807
5556
05c4
018b
cafe
3c17
-
5556
05c8
015c
cafe
2008
5556
05c8
015d
cafe
2418
5556
05c8
01c3
cafe
2800
5556
05c8
012d
cafe
2c10
5556
05cc
0109
cafe
3009
5556
05cc
013a
cafe
3419
5556
05cc
016f
cafe
3801
5556
05cc
0181
cafe
3c11
5556
05d0
0148
cafe
200a
5556
05d0
01d9
cafe
241a
5556
05d0
01ed
cafe
2802
5556
05d0
011f
cafe
2c12
5556
05d4
017a
cafe
300b
5556
05d4
0153
cafe
341b
5556
05d4
010a
cafe
3803
5556
05d4
01e3
cafe
3c13
5556
05d8
01c5
cafe
200c
5556
05d8
0175
cafe
241c
5556
05d8
0210
cafe
2804
5556
05d8
01bc
cafe
2c14
5556
05dc
0263
cafe
300d
5556
05dc
01ed
cafe
341d
5556
05dc
01f0
cafe
3805
5556
05dc
01b1
cafe
3c15
5556
05e0
01a1
cafe
200e
5556
05e0
0177
cafe
241e
5556
05e0
0202
cafe
2806
5556
05e0
0131
cafe
2c16
5556
05e4
0171
cafe
300f
5556
05e4
01a7
cafe
341f
5556
05e4
0203
cafe
3807
5556
05e4
0185
cafe
3c17
5556
05e8
015a
cafe
2008
5556
05e8
015d
cafe
2418
5556
05e8
01c2
cafe
2800
5556
05e8
0132
cafe
2c10
5556
05ec
010b
cafe
3009
5556
05ec
0144
cafe
3419
5556
05ec
0176
cafe
3801
5556
05ec
0179
cafe
3c11
5556
05f0
0147
cafe
200a
5556
05f0
01d1
cafe
241a
5556
05f0
01f1
cafe
2802
5556
05f0
011d
cafe
2c12
5556
05f4
017c
cafe
300b
5556
05f4
0157
cafe
341b
5556
05f4
0106
cafe
3803
5556
05f4
01e0
cafe
3c13
5556
05f8
01c6
cafe
200c
5556
05f8
0178
cafe
241c
5556
05f8
0210
cafe
2804
5556
-
05f8
01ba
cafe
2c14
5556
05fc
0260
cafe
300d
5556
05fc
01e8
cafe
341d
5556
05fc
01ec
cafe
3805
5556
05fc
01b3
cafe
3c15
5556
0600
01a1
cafe
200e
5556
0600
017b
cafe
241e
5556
0600
0208
cafe
2806
5556
0600
0132
cafe
2c16
5556
0604
016d
cafe
300f
5556
0604
019f
cafe
341f
5556
0604
01fd
cafe
3807
5556
0604
018f
cafe
3c17
5556
0608
015a
cafe
2008
5556
0608
015b
cafe
2418
5556
0608
01c3
cafe
2800
5556
0608
012b
cafe
2c10
5556
060c
0105
cafe
3009
5556
060c
0144
cafe
3419
5556
060c
017b
cafe
3801
5556
060c
0181
cafe
3c11
5556
0610
014c
cafe
200a
5556
0610
01cb
cafe
241a
5556
0610
01f3
cafe
2802
5556
0610
0119
cafe
2c12
5556
0614
0178
cafe
300b
5556
0614
0152
cafe
341b
5556
0614
0106
cafe
3803
5556
0614
01ec
cafe
3c13
5556
0618
01c3
cafe
200c
5556
0618
0179
cafe
241c
5556
0618
0213
cafe
2804
5556
0618
01b7
cafe
2c14
5556
061c
0263
cafe
300d
5556
061c
01ee
cafe
341d
5556
061c
01f8
cafe
3805
5556
061c
01af
cafe
3c15
5556
0620
01a2
cafe
200e
5556
0620
0182
cafe
241e
5556
0620
0204
cafe
2806
5556
0620
013a
cafe
2c16
5556
0624
0167
cafe
300f
5556
0624
019f
cafe
341f
5556
0624
01fd
cafe
3807
5556
0624
0187
cafe
3c17
5556
0628
0159
cafe
2008
5556
0628
0155
cafe
2418
5556
0628
01c1
cafe
2800
5556
0628
012e
cafe
2c10
5556
062c
0108
cafe
3009
5556
062c
0140
cafe
3419
5556
062c
-
017c
cafe
3801
5556
062c
0182
cafe
3c11
5556
0630
013e
cafe
200a
5556
0630
01d0
cafe
241a
5556
0630
01ec
cafe
2802
5556
0630
010f
cafe
2c12
5556
0634
017b
cafe
300b
5556
0634
014f
cafe
341b
5556
0634
0103
cafe
3803
5556
0634
01f7
cafe
3c13
5556
0638
01c1
cafe
200c
5556
0638
0178
cafe
241c
5556
0638
0211
cafe
2804
5556
0638
01bb
cafe
2c14
5556
063c
025d
cafe
300d
5556
063c
01ef
cafe
341d
5556
063c
01f4
cafe
3805
5556
063c
01a6
cafe
3c15
5556
0640
019f
cafe
200e
5556
0640
0182
cafe
241e
5556
0640
0208
cafe
2806
5556
0640
013b
cafe
2c16
5556
0644
0160
cafe
300f
5556
0644
019e
cafe
341f
5556
0644
0201
cafe
3807
5556
0644
0180
cafe
3c17
5556
0648
015a
cafe
2008
5556
0648
0162
cafe
2418
5556
0648
01c7
cafe
2800
5556
0648
0124
cafe
2c10
5556
064c
0107
cafe
3009
5556
064c
0136
cafe
3419
5556
064c
017c
cafe
3801
5556
064c
0181
cafe
3c11
5556
0650
0142
cafe
200a
5556
0650
01d0
cafe
241a
5556
0650
01e7
cafe
2802
5556
0650
010d
cafe
2c12
5556
0654
016f
cafe
300b
5556
0654
0146
cafe
341b
5556
0654
00fb
cafe
3803
5556
0654
01ed
cafe
3c13
5556
0658
01bf
cafe
200c
5556
0658
0178
cafe
241c
5556
0658
020e
cafe
2804
5556
0658
01ba
cafe
2c14
5556
065c
026c
cafe
300d
5556
065c
01f4
cafe
341d
5556
065c
01f8
cafe
3805
5556
065c
01af
cafe
3c15
5556
0660
01a7
cafe
200e
5556
0660
0185
-
cafe
241e
5556
0660
0200
cafe
2806
5556
0660
0140
cafe
2c16
5556
0664
015a
cafe
300f
5556
0664
019e
cafe
341f
5556
0664
0207
cafe
3807
5556
0664
017d
cafe
3c17
5556
0668
015c
cafe
2008
5556
0668
016a
cafe
2418
5556
0668
01c8
cafe
2800
5556
0668
0127
cafe
2c10
5556
066c
0109
cafe
3009
5556
066c
0137
cafe
3419
5556
066c
0173
cafe
3801
5556
066c
0182
cafe
3c11
5556
0670
0144
cafe
200a
5556
0670
01cd
cafe
241a
5556
0670
01f6
cafe
2802
5556
0670
0119
cafe
2c12
5556
0674
0165
cafe
300b
5556
0674
0147
cafe
341b
5556
0674
00f2
cafe
3803
5556
0674
01e1
cafe
3c13
5556
0678
01c4
cafe
200c
5556
0678
017a
cafe
241c
5556
0678
0213
cafe
2804
5556
0678
01be
cafe
2c14
5556
067c
0264
cafe
300d
5556
067c
01ef
cafe
341d
5556
067c
01fb
cafe
3805
5556
067c
01ae
cafe
3c15
5556
0680
01aa
cafe
200e
5556
0680
0183
cafe
241e
5556
0680
01fc
cafe
2806
5556
0680
0141
cafe
2c16
5556
0684
0161
cafe
300f
5556
0684
019e
cafe
341f
5556
0684
020a
cafe
3807
5556
0684
0177
cafe
3c17
5556
0688
0162
cafe
2008
5556
0688
016f
cafe
2418
5556
0688
01c5
cafe
2800
5556
0688
0126
cafe
2c10
5556
068c
010e
cafe
3009
5556
068c
0132
cafe
3419
5556
068c
0175
cafe
3801
5556
068c
017f
cafe
3c11
5556
0690
013d
cafe
200a
5556
0690
01c8
cafe
241a
5556
0690
01ef
cafe
2802
5556
0690
011c
cafe
2c12
5556
0694
0158
cafe
-
300b
5556
0694
014e
cafe
341b
5556
0694
00f6
cafe
3803
5556
0694
01e4
cafe
3c13
5556
0698
01be
cafe
200c
5556
0698
0170
cafe
241c
5556
0698
0212
cafe
2804
5556
0698
01c5
cafe
2c14
5556
069c
0265
cafe
300d
5556
069c
01e9
cafe
341d
5556
069c
01f9
cafe
3805
5556
069c
01a5
cafe
3c15
5556
06a0
01aa
cafe
200e
5556
06a0
0187
cafe
241e
5556
06a0
01f9
cafe
2806
5556
06a0
013c
cafe
2c16
5556
06a4
016d
cafe
300f
5556
06a4
01a0
cafe
341f
5556
06a4
0204
cafe
3807
5556
06a4
017f
cafe
3c17
5556
06a8
0157
cafe
2008
5556
06a8
0173
cafe
2418
5556
06a8
01c0
cafe
2800
5556
06a8
012b
cafe
2c10
5556
06ac
0120
cafe
3009
5556
06ac
0138
cafe
3419
5556
06ac
0178
cafe
3801
5556
06ac
017f
cafe
3c11
5556
06b0
013c
cafe
200a
5556
06b0
01d3
cafe
241a
5556
06b0
01f6
cafe
2802
5556
06b0
0112
cafe
2c12
5556
06b4
0165
cafe
300b
5556
06b4
0151
cafe
341b
5556
06b4
00f7
cafe
3803
5556
06b4
01eb
cafe
3c13
5556
06b8
01be
cafe
200c
5556
06b8
0173
cafe
241c
5556
06b8
0210
cafe
2804
5556
06b8
01c8
cafe
2c14
5556
06bc
025b
cafe
300d
5556
06bc
01e8
cafe
341d
5556
06bc
0200
cafe
3805
5556
06bc
01b4
cafe
3c15
5556
06c0
01ab
cafe
200e
5556
06c0
0187
cafe
241e
5556
06c0
01fd
cafe
2806
5556
06c0
013a
cafe
2c16
5556
06c4
0175
cafe
300f
5556
06c4
0199
cafe
341f
5556
06c4
0208
cafe
3807
5556
06c4
017b
cafe
3c17
-
5556
06c8
014d
cafe
2008
5556
06c8
0172
cafe
2418
5556
06c8
01bd
cafe
2800
5556
06c8
012d
cafe
2c10
5556
06cc
0115
cafe
3009
5556
06cc
012e
cafe
3419
5556
06cc
0171
cafe
3801
5556
06cc
0180
cafe
3c11
5556
06d0
013b
cafe
200a
5556
06d0
01cf
cafe
241a
5556
06d0
01f0
cafe
2802
5556
06d0
0119
cafe
2c12
5556
06d4
016b
cafe
300b
5556
06d4
0153
cafe
341b
5556
06d4
00fb
cafe
3803
5556
06d4
01ec
cafe
3c13
5556
06d8
01bc
cafe
200c
5556
06d8
016f
cafe
241c
5556
06d8
020c
cafe
2804
5556
06d8
01b9
cafe
2c14
5556
06dc
025a
cafe
300d
5556
06dc
01ee
cafe
341d
5556
06dc
01fe
cafe
3805
5556
06dc
01af
cafe
3c15
5556
06e0
01aa
cafe
200e
5556
06e0
0184
cafe
241e
5556
06e0
0202
cafe
2806
5556
06e0
0149
cafe
2c16
5556
06e4
0175
cafe
300f
5556
06e4
01a3
cafe
341f
5556
06e4
0208
cafe
3807
5556
06e4
017b
cafe
3c17
5556
06e8
0152
cafe
2008
5556
06e8
0172
cafe
2418
5556
06e8
01c9
cafe
2800
5556
06e8
0121
cafe
2c10
5556
06ec
0110
cafe
3009
5556
06ec
0136
cafe
3419
5556
06ec
016f
cafe
3801
5556
06ec
0184
cafe
3c11
5556
06f0
013e
cafe
200a
5556
06f0
01cc
cafe
241a
5556
06f0
01ec
cafe
2802
5556
06f0
0122
cafe
2c12
5556
06f4
0170
cafe
300b
5556
06f4
014e
cafe
341b
5556
06f4
00ff
cafe
3803
5556
06f4
01eb
cafe
3c13
5556
06f8
01ba
cafe
200c
5556
06f8
016b
cafe
241c
5556
06f8
0209
cafe
2804
5556
-
06f8
01ba
cafe
2c14
5556
06fc
0264
cafe
300d
5556
06fc
01fa
cafe
341d
5556
06fc
0202
cafe
3805
5556
06fc
01ae
cafe
3c15
5556
0700
01a0
cafe
200e
5556
0700
017f
cafe
241e
5556
0700
0203
cafe
2806
5556
0700
013b
cafe
2c16
5556
0704
017b
cafe
300f
5556
0704
0194
cafe
341f
5556
0704
0209
cafe
3807
5556
0704
017f
cafe
3c17
5556
0708
0152
cafe
2008
5556
0708
0167
cafe
2418
5556
0708
01c4
cafe
2800
5556
0708
0122
cafe
2c10
5556
070c
010f
cafe
3009
5556
070c
013c
cafe
3419
5556
070c
0172
cafe
3801
5556
070c
0184
cafe
3c11
5556
0710
013a
cafe
200a
5556
0710
01c2
cafe
241a
5556
0710
01ed
cafe
2802
5556
0710
0123
cafe
2c12
5556
0714
0173
cafe
300b
5556
0714
0150
cafe
341b
5556
0714
00fd
cafe
3803
5556
0714
01f2
cafe
3c13
5556
0718
01c0
cafe
200c
5556
0718
016b
cafe
241c
5556
0718
0201
cafe
2804
5556
0718
01b2
cafe
2c14
5556
071c
025e
cafe
300d
5556
071c
01fe
cafe
341d
5556
071c
0205
cafe
3805
5556
071c
01a9
cafe
3c15
5556
0720
01a7
cafe
200e
5556
0720
017d
cafe
241e
5556
0720
0201
cafe
2806
5556
0720
013a
cafe
2c16
5556
0724
0170
cafe
300f
5556
0724
019b
cafe
341f
5556
0724
020f
cafe
3807
5556
0724
0189
cafe
3c17
5556
0728
0156
cafe
2008
5556
0728
0165
cafe
2418
5556
0728
01c1
cafe
2800
5556
0728
0119
cafe
2c10
5556
072c
0116
cafe
3009
5556
072c
0141
cafe
3419
5556
072c
-
016f
cafe
3801
5556
072c
0187
cafe
3c11
5556
0730
013a
cafe
200a
5556
0730
01c0
cafe
241a
5556
0730
01ea
cafe
2802
5556
0730
0116
cafe
2c12
5556
0734
0167
cafe
300b
5556
0734
0156
cafe
341b
5556
0734
0103
cafe
3803
5556
0734
01f5
cafe
3c13
5556
0738
01c5
cafe
200c
5556
0738
0170
cafe
241c
5556
0738
0205
cafe
2804
5556
0738
01b6
cafe
2c14
5556
073c
0261
cafe
300d
5556
073c
01f5
cafe
341d
5556
073c
0200
cafe
3805
5556
073c
01aa
cafe
3c15
5556
0740
01a1
cafe
200e
5556
0740
0184
cafe
241e
5556
0740
0200
cafe
2806
5556
0740
0134
cafe
2c16
5556
0744
0171
cafe
300f
5556
0744
0196
cafe
341f
5556
0744
020a
cafe
3807
5556
0744
018b
cafe
3c17
5556
0748
0153
cafe
2008
5556
0748
0160
cafe
2418
5556
0748
01bd
cafe
2800
5556
0748
011f
cafe
2c10
5556
074c
0117
cafe
3009
5556
074c
0142
cafe
3419
5556
074c
016e
cafe
3801
5556
074c
0183
cafe
3c11
5556
0750
0143
cafe
200a
5556
0750
01be
cafe
241a
5556
0750
01e9
cafe
2802
5556
0750
0110
cafe
2c12
5556
0754
0170
cafe
300b
5556
0754
0158
cafe
341b
5556
0754
0101
cafe
3803
5556
0754
01f7
cafe
3c13
5556
0758
01c2
cafe
200c
5556
0758
0168
cafe
241c
5556
0758
0206
cafe
2804
5556
0758
01b9
cafe
2c14
5556
075c
0259
cafe
300d
5556
075c
01f9
cafe
341d
5556
075c
01fd
cafe
3805
5556
075c
01ad
cafe
3c15
5556
0760
0196
cafe
200e
5556
0760
017d
-
cafe
241e
5556
0760
0202
cafe
2806
5556
0760
0134
cafe
2c16
5556
0764
0174
cafe
300f
5556
0764
019a
cafe
341f
5556
0764
0201
cafe
3807
5556
0764
0186
cafe
3c17
5556
0768
0154
cafe
2008
5556
0768
0158
cafe
2418
5556
0768
01bd
cafe
2800
5556
0768
0122
cafe
2c10
5556
076c
0114
cafe
3009
5556
076c
013c
cafe
3419
5556
076c
0170
cafe
3801
5556
076c
0187
cafe
3c11
5556
0770
0142
cafe
200a
5556
0770
01c3
cafe
241a
5556
0770
01e9
cafe
2802
5556
0770
0114
cafe
2c12
5556
0774
0177
cafe
300b
5556
0774
0161
cafe
341b
5556
0774
010a
cafe
3803
5556
0774
01f4
cafe
3c13
5556
0778
01c9
cafe
200c
5556
0778
016c
cafe
241c
5556
0778
0208
cafe
2804
5556
0778
01b5
cafe
2c14
5556
077c
025a
cafe
300d
5556
077c
01f6
cafe
341d
5556
077c
01fc
cafe
3805
5556
077c
01ad
cafe
3c15
5556
0780
019f
cafe
200e
5556
0780
017a
cafe
241e
5556
0780
0201
cafe
2806
5556
0780
0140
cafe
2c16
5556
0784
0169
cafe
300f
5556
0784
01a4
cafe
341f
5556
0784
01ff
cafe
3807
5556
0784
0185
cafe
3c17
5556
0788
0161
cafe
2008
5556
0788
015f
cafe
2418
5556
0788
01c3
cafe
2800
5556
0788
0123
cafe
2c10
5556
078c
0113
cafe
3009
5556
078c
0143
cafe
3419
5556
078c
016d
cafe
3801
5556
078c
018a
cafe
3c11
5556
0790
013b
cafe
200a
5556
0790
01bb
cafe
241a
5556
0790
01f0
cafe
2802
5556
0790
0117
cafe
2c12
5556
0794
0175
cafe
-
300b
5556
0794
0158
cafe
341b
5556
0794
0105
cafe
3803
5556
0794
01fa
cafe
3c13
5556
0798
01c5
cafe
200c
5556
0798
016e
cafe
241c
5556
0798
0212
cafe
2804
5556
0798
01af
cafe
2c14
5556
079c
0254
cafe
300d
5556
079c
01fe
cafe
341d
5556
079c
01f9
cafe
3805
5556
079c
019e
cafe
3c15
5556
07a0
0197
cafe
200e
5556
07a0
0178
cafe
241e
5556
07a0
01fd
cafe
2806
5556
07a0
0145
cafe
2c16
5556
07a4
016e
cafe
300f
5556
07a4
01a4
cafe
341f
5556
07a4
01f8
cafe
3807
5556
07a4
0183
cafe
3c17
5556
07a8
015d
cafe
2008
5556
07a8
0167
cafe
2418
5556
07a8
01c0
cafe
2800
5556
07a8
011f
cafe
2c10
5556
07ac
011d
cafe
3009
5556
07ac
013e
cafe
3419
5556
07ac
0173
cafe
3801
5556
07ac
018c
cafe
3c11
5556
07b0
0135
cafe
200a
5556
07b0
01c4
cafe
241a
5556
07b0
01ed
cafe
2802
5556
07b0
0118
cafe
2c12
5556
07b4
0178
cafe
300b
5556
07b4
0155
cafe
341b
5556
07b4
0105
cafe
3803
5556
07b4
01ea
cafe
3c13
5556
07b8
01c4
cafe
200c
5556
07b8
0171
cafe
241c
5556
07b8
0210
cafe
2804
5556
07b8
01b3
cafe
2c14
5556
07bc
025e
cafe
300d
5556
07bc
01fd
cafe
341d
5556
07bc
01fa
cafe
3805
5556
07bc
019f
cafe
3c15
5556
07c0
0195
cafe
200e
5556
07c0
01e8
cafe
241e
5556
07c0
0269
cafe
2806
5556
07c0
01b2
cafe
2c16
5556
07c4
01dd
cafe
300f
5556
07c4
032c
cafe
341f
5556
07c4
0397
cafe
3807
5556
07c4
030d
cafe
3c17
-
5556
07c8
02e1
cafe
2008
5556
07c8
03f1
cafe
2418
5556
07c8
0451
cafe
2800
5556
07c8
03a6
cafe
2c10
5556
07cc
03b1
cafe
3009
5556
07cc
04a1
cafe
3419
5556
07cc
04d7
cafe
3801
5556
07cc
04df
cafe
3c11
5556
07d0
04a9
cafe
200a
5556
07d0
05f8
cafe
241a
5556
07d0
0609
cafe
2802
5556
07d0
0526
cafe
2c12
5556
07d4
05a4
cafe
300b
5556
07d4
0612
cafe
341b
5556
07d4
05af
cafe
3803
5556
07d4
068d
cafe
3c13
5556
07d8
0686
cafe
200c
5556
07d8
06ac
cafe
241c
5556
07d8
073e
cafe
2804
5556
07d8
06d5
cafe
2c14
5556
07dc
0798
cafe
300d
5556
07dc
078f
cafe
341d
5556
07dc
0787
cafe
3805
5556
07dc
072d
cafe
3c15
5556
07e0
073a
cafe
200e
5556
07e0
076c
cafe
241e
5556
07e0
07e8
cafe
2806
5556
07e0
0724
cafe
2c16
5556
07e4
0766
cafe
300f
5556
07e4
07d0
cafe
341f
5556
07e4
084d
cafe
3807
5556
07e4
07ae
cafe
3c17
5556
07e8
0787
cafe
2008
5556
07e8
07cd
cafe
2418
5556
07e8
082f
cafe
2800
5556
07e8
077a
cafe
2c10
5556
07ec
078f
cafe
3009
5556
07ec
07cf
cafe
3419
5556
07ec
07ff
cafe
3801
5556
07ec
080b
cafe
3c11
5556
07f0
07eb
cafe
200a
5556
07f0
0898
cafe
241a
5556
07f0
08af
cafe
2802
5556
07f0
07ae
cafe
2c12
5556
07f4
0841
cafe
300b
5556
07f4
082b
cafe
341b
5556
07f4
07d2
cafe
3803
5556
07f4
08bb
cafe
3c13
5556
07f8
08ae
cafe
200c
5556
07f8
0870
cafe
241c
5556
07f8
0918
cafe
2804
5556
-
07f8
0892
cafe
2c14
5556
07fc
095e
cafe
300d
5556
07fc
08f8
cafe
341d
5556
07fc
08f2
cafe
3805
5556
07fc
089f
cafe
3c15
5556
0800
08ad
cafe
200e
5556
0800
0896
cafe
241e
5556
0800
0919
cafe
2806
5556
0800
0840
cafe
2c16
5556
0804
088e
cafe
300f
5556
0804
08b7
cafe
341f
5556
0804
0942
cafe
3807
5556
0804
0894
cafe
3c17
5556
0808
0874
cafe
2008
5556
0808
0884
cafe
2418
5556
0808
08e8
cafe
2800
5556
0808
0837
cafe
2c10
5556
080c
0847
cafe
3009
5556
080c
085d
cafe
3419
5556
080c
089b
cafe
3801
5556
080c
0898
cafe
3c11
5556
0810
086b
cafe
200a
5556
0810
0909
cafe
241a
5556
0810
091e
cafe
2802
5556
0810
0819
cafe
2c12
5556
0814
08af
cafe
300b
5556
0814
0874
cafe
341b
5556
0814
081a
cafe
3803
5556
0814
090d
cafe
3c13
5556
0818
0908
cafe
200c
5556
0818
08a3
cafe
241c
5556
0818
0949
cafe
2804
5556
0818
08d1
cafe
2c14
5556
081c
0999
cafe
300d
5556
081c
0927
cafe
341d
5556
081c
091d
cafe
3805
5556
081c
08c6
cafe
3c15
5556
0820
08d3
cafe
200e
5556
0820
08c1
cafe
241e
5556
0820
093d
cafe
2806
5556
0820
084f
cafe
2c16
5556
0824
08a0
cafe
300f
5556
0824
08c1
cafe
341f
5556
0824
094b
cafe
3807
5556
0824
089a
cafe
3c17
5556
0828
0886
cafe
2008
5556
0828
0875
cafe
2418
5556
0828
08e7
cafe
2800
5556
0828
0829
cafe
2c10
5556
082c
0834
cafe
3009
5556
082c
0857
cafe
3419
5556
082c
-
0881
cafe
3801
5556
082c
0877
cafe
3c11
5556
0830
0850
cafe
200a
5556
0830
08e9
cafe
241a
5556
0830
08fa
cafe
2802
5556
0830
07f3
cafe
2c12
5556
0834
088e
cafe
300b
5556
0834
0855
cafe
341b
5556
0834
07f1
cafe
3803
5556
0834
08f2
cafe
3c13
5556
0838
08e4
cafe
200c
5556
0838
0879
cafe
241c
5556
0838
0918
cafe
2804
5556
0838
08a2
cafe
2c14
5556
083c
097a
cafe
300d
5556
083c
08fe
cafe
341d
5556
083c
08fd
cafe
3805
5556
083c
0896
cafe
3c15
5556
0840
08ab
cafe
200e
5556
0840
0889
cafe
241e
5556
0840
0909
cafe
2806
5556
0840
0817
cafe
2c16
5556
0844
086b
cafe
300f
5556
0844
0896
cafe
341f
5556
0844
091a
cafe
3807
5556
0844
084f
cafe
3c17
5556
0848
084b
cafe
2008
5556
0848
083b
cafe
2418
5556
0848
08aa
cafe
2800
5556
0848
07e6
cafe
2c10
5556
084c
07ea
cafe
3009
5556
084c
0819
cafe
3419
5556
084c
0844
cafe
3801
5556
084c
0843
cafe
3c11
5556
0850
0814
cafe
200a
5556
0850
08ae
cafe
241a
5556
0850
08b8
cafe
2802
5556
0850
07af
cafe
2c12
5556
0854
0852
cafe
300b
5556
0854
080a
cafe
341b
5556
0854
07ae
cafe
3803
5556
0854
08ba
cafe
3c13
5556
0858
08a1
cafe
200c
5556
0858
0836
cafe
241c
5556
0858
08df
cafe
2804
5556
0858
0859
cafe
2c14
5556
085c
0945
cafe
300d
5556
085c
08bf
cafe
341d
5556
085c
08af
cafe
3805
5556
085c
0854
cafe
3c15
5556
0860
0869
cafe
200e
5556
0860
083d
-
cafe
241e
5556
0860
08bf
cafe
2806
5556
0860
07d1
cafe
2c16
5556
0864
082a
cafe
300f
5556
0864
0856
cafe
341f
5556
0864
08d1
cafe
3807
5556
0864
080d
cafe
3c17
5556
0868
0803
cafe
2008
5556
0868
07fd
cafe
2418
5556
0868
086c
cafe
2800
5556
0868
079d
cafe
2c10
5556
086c
07a3
cafe
3009
5556
086c
07c6
cafe
3419
5556
086c
07f9
cafe
3801
5556
086c
0800
cafe
3c11
5556
0870
07d6
cafe
200a
5556
0870
0882
cafe
241a
5556
0870
0880
cafe
2802
5556
0870
0772
cafe
2c12
5556
0874
0814
cafe
300b
5556
0874
07bc
cafe
341b
5556
0874
0759
cafe
3803
5556
0874
086b
cafe
3c13
5556
0878
084e
cafe
200c
5556
0878
07f5
cafe
241c
5556
0878
0895
cafe
2804
5556
0878
080e
cafe
2c14
5556
087c
08ff
cafe
300d
5556
087c
086f
cafe
341d
5556
087c
0865
cafe
3805
5556
087c
0807
cafe
3c15
5556
0880
0825
cafe
200e
5556
0880
07f1
cafe
241e
5556
0880
087f
cafe
2806
5556
0880
0797
cafe
2c16
5556
0884
07e5
cafe
300f
5556
0884
080f
cafe
341f
5556
0884
0890
cafe
3807
5556
0884
07c5
cafe
3c17
5556
0888
07be
cafe
2008
5556
0888
07c9
cafe
2418
5556
0888
0829
cafe
2800
5556
0888
075e
cafe
2c10
5556
088c
075e
cafe
3009
5556
088c
0779
cafe
3419
5556
088c
07a9
cafe
3801
5556
088c
07b9
cafe
3c11
5556
0890
0792
cafe
200a
5556
0890
0834
cafe
241a
5556
0890
083f
cafe
2802
5556
0890
0723
cafe
2c12
5556
0894
07cd
cafe
-
300b
5556
0894
0772
cafe
341b
5556
0894
0712
cafe
3803
5556
0894
0824
cafe
3c13
5556
0898
0810
cafe
200c
5556
0898
07b0
cafe
241c
5556
0898
084f
cafe
2804
5556
0898
07c1
cafe
2c14
5556
089c
08bc
cafe
300d
5556
089c
0828
cafe
341d
5556
089c
0822
cafe
3805
5556
089c
07c9
cafe
3c15
5556
08a0
07e6
cafe
200e
5556
08a0
07ac
cafe
241e
5556
08a0
082f
cafe
2806
5556
08a0
0755
cafe
2c16
5556
08a4
0795
cafe
300f
5556
08a4
07cd
cafe
341f
5556
08a4
0850
cafe
3807
5556
08a4
0777
cafe
3c17
5556
08a8
077c
cafe
2008
5556
08a8
077b
cafe
2418
5556
08a8
07e0
cafe
2800
5556
08a8
071e
cafe
2c10
5556
08ac
071f
cafe
3009
5556
08ac
072f
cafe
3419
5556
08ac
076e
cafe
3801
5556
08ac
0773
cafe
3c11
5556
08b0
073b
cafe
200a
5556
08b0
07ed
cafe
241a
5556
08b0
0801
cafe
2802
5556
08b0
06dd
cafe
2c12
5556
08b4
0783
cafe
300b
5556
08b4
0739
cafe
341b
5556
08b4
06cf
cafe
3803
5556
08b4
07db
cafe
3c13
5556
08b8
07d6
cafe
200c
5556
08b8
0774
cafe
241c
5556
08b8
0807
cafe
2804
5556
08b8
0777
cafe
2c14
5556
08bc
0881
cafe
300d
5556
08bc
07e9
cafe
341d
5556
08bc
07dd
cafe
3805
5556
08bc
0786
cafe
3c15
5556
08c0
07af
cafe
200e
5556
08c0
0776
cafe
241e
5556
08c0
07e9
cafe
2806
5556
08c0
070e
cafe
2c16
5556
08c4
0742
cafe
300f
5556
08c4
0787
cafe
341f
5556
08c4
0807
cafe
3807
5556
08c4
0734
cafe
3c17
-
5556
08c8
0736
cafe
2008
5556
08c8
0737
cafe
2418
5556
08c8
079c
cafe
2800
5556
08c8
06df
cafe
2c10
5556
08cc
06df
cafe
3009
5556
08cc
06ee
cafe
3419
5556
08cc
0729
cafe
3801
5556
08cc
0732
cafe
3c11
5556
08d0
06f1
cafe
200a
5556
08d0
07a7
cafe
241a
5556
08d0
07c1
cafe
2802
5556
08d0
0691
cafe
2c12
5556
08d4
0743
cafe
300b
5556
08d4
06f3
cafe
341b
5556
08d4
068b
cafe
3803
5556
08d4
07a0
cafe
3c13
5556
08d8
0787
cafe
200c
5556
08d8
072f
cafe
241c
5556
08d8
07c7
cafe
2804
5556
08d8
073f
cafe
2c14
5556
08dc
0844
cafe
300d
5556
08dc
07aa
cafe
341d
5556
08dc
0796
cafe
3805
5556
08dc
0744
cafe
3c15
5556
08e0
0770
cafe
200e
5556
08e0
0736
cafe
241e
5556
08e0
07a8
cafe
2806
5556
08e0
06c6
cafe
2c16
5556
08e4
070c
cafe
300f
5556
08e4
074b
cafe
341f
5556
08e4
07c3
cafe
3807
5556
08e4
06f0
cafe
3c17
5556
08e8
06f8
cafe
2008
5556
08e8
06f2
cafe
2418
5556
08e8
0752
cafe
2800
5556
08e8
0695
cafe
2c10
5556
08ec
0694
cafe
3009
5556
08ec
06b7
cafe
3419
5556
08ec
06e2
cafe
3801
5556
08ec
06ee
cafe
3c11
5556
08f0
06b3
cafe
200a
5556
08f0
0761
cafe
241a
5556
08f0
0787
cafe
2802
5556
08f0
064b
cafe
2c12
5556
08f4
06fb
cafe
300b
5556
08f4
06b1
cafe
341b
5556
08f4
0651
cafe
3803
5556
08f4
0761
cafe
3c13
5556
08f8
0750
cafe
200c
5556
08f8
06f6
cafe
241c
5556
08f8
0785
cafe
2804
5556
-
08f8
06fa
cafe
2c14
5556
08fc
0806
cafe
300d
5556
08fc
076c
cafe
341d
5556
08fc
0755
cafe
3805
5556
08fc
0700
cafe
3c15
5556
0900
072f
cafe
200e
5556
0900
06f7
cafe
241e
5556
0900
076d
cafe
2806
5556
0900
068b
cafe
2c16
5556
0904
06d3
cafe
300f
5556
0904
0712
cafe
341f
5556
0904
0780
cafe
3807
5556
0904
06b1
cafe
3c17
5556
0908
06b9
cafe
2008
5556
0908
06b2
cafe
2418
5556
0908
071a
cafe
2800
5556
0908
0651
cafe
2c10
5556
090c
0653
cafe
3009
5556
090c
067b
cafe
3419
5556
090c
06a0
cafe
3801
5556
090c
06ac
cafe
3c11
5556
0910
0677
cafe
200a
5556
0910
0726
cafe
241a
5556
0910
0743
cafe
2802
5556
0910
0611
cafe
2c12
5556
0914
06c4
cafe
300b
5556
0914
0673
cafe
341b
5556
0914
0611
cafe
3803
5556
0914
0717
cafe
3c13
5556
0918
070e
cafe
200c
5556
0918
06b6
cafe
241c
5556
0918
0741
cafe
2804
5556
0918
06c1
cafe
2c14
5556
091c
07c9
cafe
300d
5556
091c
072c
cafe
341d
5556
091c
0717
cafe
3805
5556
091c
06c0
cafe
3c15
5556
0920
06f3
cafe
200e
5556
0920
06ba
cafe
241e
5556
0920
0724
cafe
2806
5556
0920
0646
cafe
2c16
5556
0924
0691
cafe
300f
5556
0924
06d4
cafe
341f
5556
0924
0751
cafe
3807
5556
0924
0670
cafe
3c17
5556
0928
0677
cafe
2008
5556
0928
067c
cafe
2418
5556
0928
06e8
cafe
2800
5556
0928
060f
cafe
2c10
5556
092c
061e
cafe
3009
5556
092c
063e
cafe
3419
5556
092c
-
065f
cafe
3801
5556
092c
066d
cafe
3c11
5556
0930
0637
cafe
200a
5556
0930
06ee
cafe
241a
5556
0930
0711
cafe
2802
5556
0930
05e1
cafe
2c12
5556
0934
068f
cafe
300b
5556
0934
0631
cafe
341b
5556
0934
05d3
cafe
3803
5556
0934
06db
cafe
3c13
5556
0938
06cd
cafe
200c
5556
0938
0670
cafe
241c
5556
0938
0706
cafe
2804
5556
0938
0686
cafe
2c14
5556
093c
078f
cafe
300d
5556
093c
0702
cafe
341d
5556
093c
06dd
cafe
3805
5556
093c
0685
cafe
3c15
5556
0940
06b9
cafe
200e
5556
0940
0680
cafe
241e
5556
0940
06e8
cafe
2806
5556
0940
060e
cafe
2c16
5556
0944
065b
cafe
300f
5556
0944
0699
cafe
341f
5556
0944
0717
cafe
3807
5556
0944
062f
cafe
3c17
5556
0948
0641
cafe
2008
5556
0948
063e
cafe
2418
5556
0948
06aa
cafe
2800
5556
0948
05d2
cafe
2c10
5556
094c
05d9
cafe
3009
5556
094c
05fe
cafe
3419
5556
094c
0629
cafe
3801
5556
094c
062d
cafe
3c11
5556
0950
05fe
cafe
200a
5556
0950
06b2
cafe
241a
5556
0950
06d9
cafe
2802
5556
0950
0596
cafe
2c12
5556
0954
0655
cafe
300b
5556
0954
0602
cafe
341b
5556
0954
0598
cafe
3803
5556
0954
06ab
cafe
3c13
5556
0958
0692
cafe
200c
5556
0958
0638
cafe
241c
5556
0958
06cb
cafe
2804
5556
0958
0649
cafe
2c14
5556
095c
075b
cafe
300d
5556
095c
06cc
cafe
341d
5556
095c
069d
cafe
3805
5556
095c
0650
cafe
3c15
5556
0960
0682
cafe
200e
5556
0960
0640
-
cafe
241e
5556
0960
06b1
cafe
2806
5556
0960
05d4
cafe
2c16
5556
0964
061d
cafe
300f
5556
0964
065f
cafe
341f
5556
0964
06de
cafe
3807
5556
0964
05f9
cafe
3c17
5556
0968
0614
cafe
2008
5556
0968
0600
cafe
2418
5556
0968
066e
cafe
2800
5556
0968
059e
cafe
2c10
5556
096c
05a6
cafe
3009
5556
096c
05c9
cafe
3419
5556
096c
05ee
cafe
3801
5556
096c
05f6
cafe
3c11
5556
0970
05bd
cafe
200a
5556
0970
0678
cafe
241a
5556
0970
0699
cafe
2802
5556
0970
055a
cafe
2c12
5556
0974
0617
cafe
300b
5556
0974
05cd
cafe
341b
5556
0974
055e
cafe
3803
5556
0974
0671
cafe
3c13
5556
0978
0657
cafe
200c
5556
0978
0609
cafe
241c
5556
0978
0695
cafe
2804
5556
0978
0612
cafe
2c14
5556
097c
0720
cafe
300d
5556
097c
0694
cafe
341d
5556
097c
0663
cafe
3805
5556
097c
0618
cafe
3c15
5556
0980
064b
cafe
200e
5556
0980
0617
cafe
241e
5556
0980
067f
cafe
2806
5556
0980
05a9
cafe
2c16
5556
0984
05ed
cafe
300f
5556
0984
0624
cafe
341f
5556
0984
06a8
cafe
3807
5556
0984
05c1
cafe
3c17
5556
0988
05da
cafe
2008
5556
0988
05bb
cafe
2418
5556
0988
0639
cafe
2800
5556
0988
0568
cafe
2c10
5556
098c
056d
cafe
3009
5556
098c
0591
cafe
3419
5556
098c
05b4
cafe
3801
5556
098c
05c5
cafe
3c11
5556
0990
057e
cafe
200a
5556
0990
0644
cafe
241a
5556
0990
065c
cafe
2802
5556
0990
051f
cafe
2c12
5556
0994
05df
cafe
-
300b
5556
0994
0593
cafe
341b
5556
0994
0533
cafe
3803
5556
0994
063a
cafe
3c13
5556
0998
061a
cafe
200c
5556
0998
05d1
cafe
241c
5556
0998
0657
cafe
2804
5556
0998
05db
cafe
2c14
5556
099c
06eb
cafe
300d
5556
099c
0668
cafe
341d
5556
099c
0620
cafe
3805
5556
099c
05db
cafe
3c15
5556
09a0
061c
cafe
200e
5556
09a0
05e9
cafe
241e
5556
09a0
0645
cafe
2806
5556
09a0
0571
cafe
2c16
5556
09a4
05be
cafe
300f
5556
09a4
05f2
cafe
341f
5556
09a4
0679
cafe
3807
5556
09a4
058b
cafe
3c17
5556
09a8
059c
cafe
2008
5556
09a8
0583
cafe
2418
5556
09a8
0602
cafe
2800
5556
09a8
0531
cafe
2c10
5556
09ac
052e
cafe
3009
5556
09ac
055a
cafe
3419
5556
09ac
0585
cafe
3801
5556
09ac
0595
cafe
3c11
5556
09b0
0548
cafe
200a
5556
09b0
0615
cafe
241a
5556
09b0
062c
cafe
2802
5556
09b0
04f1
cafe
2c12
5556
09b4
05aa
cafe
300b
5556
09b4
055a
cafe
341b
5556
09b4
04f9
cafe
3803
5556
09b4
0606
cafe
3c13
5556
09b8
05e1
cafe
200c
5556
09b8
05a1
cafe
241c
5556
09b8
0624
cafe
2804
5556
09b8
05a1
cafe
2c14
5556
09bc
06b2
cafe
300d
5556
09bc
0628
cafe
341d
5556
09bc
05ee
cafe
3805
5556
09bc
05ae
cafe
3c15
5556
09c0
05e2
cafe
200e
5556
09c0
05b4
cafe
241e
5556
09c0
060a
cafe
2806
5556
09c0
052b
cafe
2c16
5556
09c4
0583
cafe
300f
5556
09c4
05bd
cafe
341f
5556
09c4
0642
cafe
3807
5556
09c4
055c
cafe
3c17
-
5556
09c8
0569
cafe
2008
5556
09c8
0551
cafe
2418
5556
09c8
05ce
cafe
2800
5556
09c8
0502
cafe
2c10
5556
09cc
0500
cafe
3009
5556
09cc
0538
cafe
3419
5556
09cc
0557
cafe
3801
5556
09cc
0560
cafe
3c11
5556
09d0
050c
cafe
200a
5556
09d0
05f0
cafe
241a
5556
09d0
05fe
cafe
2802
5556
09d0
04bb
cafe
2c12
5556
09d4
0580
cafe
300b
5556
09d4
052a
cafe
341b
5556
09d4
04ba
cafe
3803
5556
09d4
05ce
cafe
3c13
5556
09d8
05b4
cafe
200c
5556
09d8
0569
cafe
241c
5556
09d8
05fb
cafe
2804
5556
09d8
0576
cafe
2c14
5556
09dc
0691
cafe
300d
5556
09dc
05ee
cafe
341d
5556
09dc
05ba
cafe
3805
5556
09dc
0576
cafe
3c15
5556
09e0
05ad
cafe
200e
5556
09e0
057b
cafe
241e
5556
09e0
05d3
cafe
2806
5556
09e0
04f5
cafe
2c16
5556
09e4
0541
cafe
300f
5556
09e4
0592
cafe
341f
5556
09e4
0611
cafe
3807
5556
09e4
0529
cafe
3c17
5556
09e8
0533
cafe
2008
5556
09e8
0518
cafe
2418
5556
09e8
059f
cafe
2800
5556
09e8
04cf
cafe
2c10
5556
09ec
04cd
cafe
3009
5556
09ec
0503
cafe
3419
5556
09ec
0526
cafe
3801
5556
09ec
0530
cafe
3c11
5556
09f0
04d9
cafe
200a
5556
09f0
05c5
cafe
241a
5556
09f0
05c8
cafe
2802
5556
09f0
0490
cafe
2c12
5556
09f4
0547
cafe
300b
5556
09f4
04fd
cafe
341b
5556
09f4
048d
cafe
3803
5556
09f4
059a
cafe
3c13
5556
09f8
058a
cafe
200c
5556
09f8
0533
cafe
241c
5556
09f8
05ca
cafe
2804
5556
-
09f8
053b
cafe
2c14
5556
09fc
0662
cafe
300d
5556
09fc
05c5
cafe
341d
5556
09fc
058d
cafe
3805
5556
09fc
0544
cafe
3c15
5556
0a00
0580
cafe
200e
5556
0a00
054b
cafe
241e
5556
0a00
05a9
cafe
2806
5556
0a00
04d1
cafe
2c16
5556
0a04
050f
cafe
300f
5556
0a04
0573
cafe
341f
5556
0a04
05dc
cafe
3807
5556
0a04
04f7
cafe
3c17
5556
0a08
050e
cafe
2008
5556
0a08
04e8
cafe
2418
5556
0a08
0579
cafe
2800
5556
0a08
049d
cafe
2c10
5556
0a0c
0498
cafe
3009
5556
0a0c
04d1
cafe
3419
5556
0a0c
04f4
cafe
3801
5556
0a0c
04f8
cafe
3c11
5556
0a10
04aa
cafe
200a
5556
0a10
058b
cafe
241a
5556
0a10
058d
cafe
2802
5556
0a10
0460
cafe
2c12
5556
0a14
0518
cafe
300b
5556
0a14
04ca
cafe
341b
5556
0a14
0463
cafe
3803
5556
0a14
056e
cafe
3c13
5556
0a18
0561
cafe
200c
5556
0a18
050f
cafe
241c
5556
0a18
059e
cafe
2804
5556
0a18
0513
cafe
2c14
5556
0a1c
0637
cafe
300d
5556
0a1c
0593
cafe
341d
5556
0a1c
0560
cafe
3805
5556
0a1c
051a
cafe
3c15
5556
0a20
0553
cafe
200e
5556
0a20
0517
cafe
241e
5556
0a20
057d
cafe
2806
5556
0a20
04a0
cafe
2c16
5556
0a24
04e4
cafe
300f
5556
0a24
0548
cafe
341f
5556
0a24
05b0
cafe
3807
5556
0a24
04d6
cafe
3c17
5556
0a28
04df
cafe
2008
5556
0a28
04bd
cafe
2418
5556
0a28
0544
cafe
2800
5556
0a28
0470
cafe
2c10
5556
0a2c
0461
cafe
3009
5556
0a2c
04a1
cafe
3419
5556
0a2c
-
04bd
cafe
3801
5556
0a2c
04d5
cafe
3c11
5556
0a30
047f
cafe
200a
5556
0a30
055a
cafe
241a
5556
0a30
0567
cafe
2802
5556
0a30
0432
cafe
2c12
5556
0a34
04e1
cafe
300b
5556
0a34
04a2
cafe
341b
5556
0a34
0439
cafe
3803
5556
0a34
053e
cafe
3c13
5556
0a38
053e
cafe
200c
5556
0a38
04df
cafe
241c
5556
0a38
056a
cafe
2804
5556
0a38
04e1
cafe
2c14
5556
0a3c
0602
cafe
300d
5556
0a3c
0566
cafe
341d
5556
0a3c
0539
cafe
3805
5556
0a3c
04f2
cafe
3c15
5556
0a40
0529
cafe
200e
5556
0a40
04ee
cafe
241e
5556
0a40
0553
cafe
2806
5556
0a40
0476
cafe
2c16
5556
0a44
04b7
cafe
300f
5556
0a44
051e
cafe
341f
5556
0a44
0580
cafe
3807
5556
0a44
04b1
cafe
3c17
5556
0a48
04b7
cafe
2008
5556
0a48
0494
cafe
2418
5556
0a48
0519
cafe
2800
5556
0a48
0448
cafe
2c10
5556
0a4c
043f
cafe
3009
5556
0a4c
0472
cafe
3419
5556
0a4c
0493
cafe
3801
5556
0a4c
04a9
cafe
3c11
5556
0a50
0450
cafe
200a
5556
0a50
052f
cafe
241a
5556
0a50
0539
cafe
2802
5556
0a50
040d
cafe
2c12
5556
0a54
04b5
cafe
300b
5556
0a54
046e
cafe
341b
5556
0a54
040b
cafe
3803
5556
0a54
0514
cafe
3c13
5556
0a58
0516
cafe
200c
5556
0a58
04b1
cafe
241c
5556
0a58
0535
cafe
2804
5556
0a58
04b7
cafe
2c14
5556
0a5c
05d1
cafe
300d
5556
0a5c
0540
cafe
341d
5556
0a5c
0511
cafe
3805
5556
0a5c
04cb
cafe
3c15
5556
0a60
0501
cafe
200e
5556
0a60
04c6
-
cafe
241e
5556
0a60
052c
cafe
2806
5556
0a60
044b
cafe
2c16
5556
0a64
048c
cafe
300f
5556
0a64
04e8
cafe
341f
5556
0a64
055b
cafe
3807
5556
0a64
0476
cafe
3c17
5556
0a68
0489
cafe
2008
5556
0a68
0473
cafe
2418
5556
0a68
04f0
cafe
2800
5556
0a68
0421
cafe
2c10
5556
0a6c
0416
cafe
3009
5556
0a6c
0445
cafe
3419
5556
0a6c
046d
cafe
3801
5556
0a6c
0484
cafe
3c11
5556
0a70
042e
cafe
200a
5556
0a70
0504
cafe
241a
5556
0a70
050d
cafe
2802
5556
0a70
03ec
cafe
2c12
5556
0a74
0492
cafe
300b
5556
0a74
0447
cafe
341b
5556
0a74
03dd
cafe
3803
5556
0a74
04e4
cafe
3c13
5556
0a78
04ec
cafe
200c
5556
0a78
048a
cafe
241c
5556
0a78
0505
cafe
2804
5556
0a78
048f
cafe
2c14
5556
0a7c
05b2
cafe
300d
5556
0a7c
051a
cafe
341d
5556
0a7c
04eb
cafe
3805
5556
0a7c
049e
cafe
3c15
5556
0a80
04d9
cafe
200e
5556
0a80
049f
cafe
241e
5556
0a80
04fe
cafe
2806
5556
0a80
041d
cafe
2c16
5556
0a84
045e
cafe
300f
5556
0a84
04bb
cafe
341f
5556
0a84
0532
cafe
3807
5556
0a84
0451
cafe
3c17
5556
0a88
0458
cafe
2008
5556
0a88
0449
cafe
2418
5556
0a88
04c7
cafe
2800
5556
0a88
03f6
cafe
2c10
5556
0a8c
03eb
cafe
3009
5556
0a8c
0420
cafe
3419
5556
0a8c
0444
cafe
3801
5556
0a8c
0454
cafe
3c11
5556
0a90
0406
cafe
200a
5556
0a90
04df
cafe
241a
5556
0a90
04ea
cafe
2802
5556
0a90
03be
cafe
2c12
5556
0a94
0470
cafe
-
300b
5556
0a94
042c
cafe
341b
5556
0a94
03b3
cafe
3803
5556
0a94
04bf
cafe
3c13
5556
0a98
04bd
cafe
200c
5556
0a98
0467
cafe
241c
5556
0a98
04df
cafe
2804
5556
0a98
0474
cafe
2c14
5556
0a9c
0592
cafe
300d
5556
0a9c
04f8
cafe
341d
5556
0a9c
04c6
cafe
3805
5556
0a9c
0478
cafe
3c15
5556
0aa0
04b5
cafe
200e
5556
0aa0
047b
cafe
241e
5556
0aa0
04e2
cafe
2806
5556
0aa0
03f2
cafe
2c16
5556
0aa4
0435
cafe
300f
5556
0aa4
048e
cafe
341f
5556
0aa4
0505
cafe
3807
5556
0aa4
0430
cafe
3c17
5556
0aa8
0431
cafe
2008
5556
0aa8
0421
cafe
2418
5556
0aa8
049a
cafe
2800
5556
0aa8
03cd
cafe
2c10
5556
0aac
03c1
cafe
3009
5556
0aac
03fd
cafe
3419
5556
0aac
041f
cafe
3801
5556
0aac
0433
cafe
3c11
5556
0ab0
03e0
cafe
200a
5556
0ab0
04ae
cafe
241a
5556
0ab0
04c5
cafe
2802
5556
0ab0
039f
cafe
2c12
5556
0ab4
044b
cafe
300b
5556
0ab4
0408
cafe
341b
5556
0ab4
0398
cafe
3803
5556
0ab4
0494
cafe
3c13
5556
0ab8
048f
cafe
200c
5556
0ab8
043a
cafe
241c
5556
0ab8
04bf
cafe
2804
5556
0ab8
044b
cafe
2c14
5556
0abc
0566
cafe
300d
5556
0abc
04de
cafe
341d
5556
0abc
049b
cafe
3805
5556
0abc
0450
cafe
3c15
5556
0ac0
0494
cafe
200e
5556
0ac0
0460
cafe
241e
5556
0ac0
04b7
cafe
2806
5556
0ac0
03c3
cafe
2c16
5556
0ac4
0413
cafe
300f
5556
0ac4
0466
cafe
341f
5556
0ac4
04de
cafe
3807
5556
0ac4
040a
cafe
3c17
-
5556
0ac8
0414
cafe
2008
5556
0ac8
0404
cafe
2418
5556
0ac8
0470
cafe
2800
5556
0ac8
03a0
cafe
2c10
5556
0acc
039e
cafe
3009
5556
0acc
03e2
cafe
3419
5556
0acc
0407
cafe
3801
5556
0acc
040e
cafe
3c11
5556
0ad0
03b7
cafe
200a
5556
0ad0
0486
cafe
241a
5556
0ad0
049e
cafe
2802
5556
0ad0
0377
cafe
2c12
5556
0ad4
042b
cafe
300b
5556
0ad4
03e0
cafe
341b
5556
0ad4
036f
cafe
3803
5556
0ad4
0472
cafe
3c13
5556
0ad8
0465
cafe
200c
5556
0ad8
040d
cafe
241c
5556
0ad8
0496
cafe
2804
5556
0ad8
0422
cafe
2c14
5556
0adc
0544
cafe
300d
5556
0adc
04b1
cafe
341d
5556
0adc
047a
cafe
3805
5556
0adc
042c
cafe
3c15
5556
0ae0
045d
cafe
200e
5556
0ae0
043b
cafe
241e
5556
0ae0
0499
cafe
2806
5556
0ae0
039d
cafe
2c16
5556
0ae4
03eb
cafe
300f
5556
0ae4
0447
cafe
341f
5556
0ae4
04b3
cafe
3807
5556
0ae4
03ee
cafe
3c17
5556
0ae8
03fc
cafe
2008
5556
0ae8
03e3
cafe
2418
5556
0ae8
044e
cafe
2800
5556
0ae8
0377
cafe
2c10
5556
0aec
037b
cafe
3009
5556
0aec
03b8
cafe
3419
5556
0aec
03e1
cafe
3801
5556
0aec
03f1
cafe
3c11
5556
0af0
03a1
cafe
200a
5556
0af0
0464
cafe
241a
5556
0af0
0471
cafe
2802
5556
0af0
034e
cafe
2c12
5556
0af4
03ff
cafe
300b
5556
0af4
03c9
cafe
341b
5556
0af4
0356
cafe
3803
5556
0af4
0455
cafe
3c13
5556
0af8
043e
cafe
200c
5556
0af8
03f6
cafe
241c
5556
0af8
0481
cafe
2804
5556
-
0af8
0400
cafe
2c14
5556
0afc
0522
cafe
300d
5556
0afc
048e
cafe
341d
5556
0afc
0457
cafe
3805
5556
0afc
040e
cafe
3c15
5556
0b00
043c
cafe
200e
5556
0b00
0416
cafe
241e
5556
0b00
0471
cafe
2806
5556
0b00
0381
cafe
2c16
5556
0b04
03c6
cafe
300f
5556
0b04
0422
cafe
341f
5556
0b04
0490
cafe
3807
5556
0b04
03c9
cafe
3c17
5556
0b08
03cb
cafe
2008
5556
0b08
03be
cafe
2418
5556
0b08
042e
cafe
2800
5556
0b08
0357
cafe
2c10
5556
0b0c
035a
cafe
3009
5556
0b0c
039a
cafe
3419
5556
0b0c
03c6
cafe
3801
5556
0b0c
03d1
cafe
3c11
5556
0b10
037e
cafe
200a
5556
0b10
0444
cafe
241a
5556
0b10
045b
cafe
2802
5556
0b10
032f
cafe
2c12
5556
0b14
03e0
cafe
300b
5556
0b14
03a4
cafe
341b
5556
0b14
0332
cafe
3803
5556
0b14
0437
cafe
3c13
5556
0b18
0415
cafe
200c
5556
0b18
03d1
cafe
241c
5556
0b18
045b
cafe
2804
5556
0b18
03d8
cafe
2c14
5556
0b1c
0509
cafe
300d
5556
0b1c
0460
cafe
341d
5556
0b1c
0435
cafe
3805
5556
0b1c
03e5
cafe
3c15
5556
0b20
0421
cafe
200e
5556
0b20
03f2
cafe
241e
5556
0b20
0451
cafe
2806
5556
0b20
0366
cafe
2c16
5556
0b24
03aa
cafe
300f
5556
0b24
03fc
cafe
341f
5556
0b24
0473
cafe
3807
5556
0b24
03a9
cafe
3c17
5556
0b28
03ad
cafe
2008
5556
0b28
0398
cafe
2418
5556
0b28
040a
cafe
2800
5556
0b28
0330
cafe
2c10
5556
0b2c
0340
cafe
3009
5556
0b2c
037a
cafe
3419
5556
0b2c
-
03a3
cafe
3801
5556
0b2c
03ad
cafe
3c11
5556
0b30
035b
cafe
200a
5556
0b30
042a
cafe
241a
5556
0b30
0434
cafe
2802
5556
0b30
0311
cafe
2c12
5556
0b34
03c2
cafe
300b
5556
0b34
0383
cafe
341b
5556
0b34
030b
cafe
3803
5556
0b34
0419
cafe
3c13
5556
0b38
03f4
cafe
200c
5556
0b38
03ba
cafe
241c
5556
0b38
0441
cafe
2804
5556
0b38
03c6
cafe
2c14
5556
0b3c
04e9
cafe
300d
5556
0b3c
044e
cafe
341d
5556
0b3c
0413
cafe
3805
5556
0b3c
03bd
cafe
3c15
5556
0b40
03fe
cafe
200e
5556
0b40
03d4
cafe
241e
5556
0b40
0433
cafe
2806
5556
0b40
034b
cafe
2c16
5556
0b44
038d
cafe
300f
5556
0b44
03e8
cafe
341f
5556
0b44
0442
cafe
3807
5556
0b44
038f
cafe
3c17
5556
0b48
0389
cafe
2008
5556
0b48
037d
cafe
2418
5556
0b48
03e7
cafe
2800
5556
0b48
0313
cafe
2c10
5556
0b4c
031a
cafe
3009
5556
0b4c
0350
cafe
3419
5556
0b4c
0387
cafe
3801
5556
0b4c
038b
cafe
3c11
5556
0b50
033c
cafe
200a
5556
0b50
0407
cafe
241a
5556
0b50
0416
cafe
2802
5556
0b50
02f1
cafe
2c12
5556
0b54
03a0
cafe
300b
5556
0b54
0358
cafe
341b
5556
0b54
02f0
cafe
3803
5556
0b54
0402
cafe
3c13
5556
0b58
03c9
cafe
200c
5556
0b58
039a
cafe
241c
5556
0b58
041f
cafe
2804
5556
0b58
03a0
cafe
2c14
5556
0b5c
04c5
cafe
300d
5556
0b5c
042d
cafe
341d
5556
0b5c
03f9
cafe
3805
5556
0b5c
039f
cafe
3c15
5556
0b60
03e7
cafe
200e
5556
0b60
03af
-
cafe
241e
5556
0b60
041d
cafe
2806
5556
0b60
032f
cafe
2c16
5556
0b64
0366
cafe
300f
5556
0b64
03d4
cafe
341f
5556
0b64
0421
cafe
3807
5556
0b64
0373
cafe
3c17
5556
0b68
0367
cafe
2008
5556
0b68
0351
cafe
2418
5556
0b68
03cd
cafe
2800
5556
0b68
02fa
cafe
2c10
5556
0b6c
030b
cafe
3009
5556
0b6c
0337
cafe
3419
5556
0b6c
0369
cafe
3801
5556
0b6c
0366
cafe
3c11
5556
0b70
0327
cafe
200a
5556
0b70
03dd
cafe
241a
5556
0b70
03fc
cafe
2802
5556
0b70
02cc
cafe
2c12
5556
0b74
0382
cafe
300b
5556
0b74
033d
cafe
341b
5556
0b74
02cf
cafe
3803
5556
0b74
03e5
cafe
3c13
5556
0b78
03bb
cafe
200c
5556
0b78
0372
cafe
241c
5556
0b78
0407
cafe
2804
5556
0b78
037c
cafe
2c14
5556
0b7c
04a0
cafe
300d
5556
0b7c
0406
cafe
341d
5556
0b7c
03d6
cafe
3805
5556
0b7c
0392
cafe
3c15
5556
0b80
03d3
cafe
200e
5556
0b80
0389
cafe
241e
5556
0b80
03ee
cafe
2806
5556
0b80
0317
cafe
2c16
5556
0b84
034e
cafe
300f
5556
0b84
03ca
cafe
341f
5556
0b84
0403
cafe
3807
5556
0b84
035b
cafe
3c17
5556
0b88
034a
cafe
2008
5556
0b88
0334
cafe
2418
5556
0b88
03b1
cafe
2800
5556
0b88
02dd
cafe
2c10
5556
0b8c
02ee
cafe
3009
5556
0b8c
0324
cafe
3419
5556
0b8c
0346
cafe
3801
5556
0b8c
034d
cafe
3c11
5556
0b90
0308
cafe
200a
5556
0b90
03c7
cafe
241a
5556
0b90
03de
cafe
2802
5556
0b90
02ac
cafe
2c12
5556
0b94
0361
cafe
-
300b
5556
0b94
031e
cafe
341b
5556
0b94
02b8
cafe
3803
5556
0b94
03cb
cafe
3c13
5556
0b98
03a6
cafe
200c
5556
0b98
0350
cafe
241c
5556
0b98
03eb
cafe
2804
5556
0b98
0362
cafe
2c14
5556
0b9c
0482
cafe
300d
5556
0b9c
03ec
cafe
341d
5556
0b9c
03b2
cafe
3805
5556
0b9c
036f
cafe
3c15
5556
0ba0
03bc
cafe
200e
5556
0ba0
0367
cafe
241e
5556
0ba0
03da
cafe
2806
5556
0ba0
02f8
cafe
2c16
5556
0ba4
0333
cafe
300f
5556
0ba4
03a7
cafe
341f
5556
0ba4
03e5
cafe
3807
5556
0ba4
0346
cafe
3c17
5556
0ba8
032f
cafe
2008
5556
0ba8
031a
cafe
2418
5556
0ba8
03a1
cafe
2800
5556
0ba8
02bb
cafe
2c10
5556
0bac
02d0
cafe
3009
5556
0bac
030b
cafe
3419
5556
0bac
032e
cafe
3801
5556
0bac
0331
cafe
3c11
5556
0bb0
02fa
cafe
200a
5556
0bb0
03aa
cafe
241a
5556
0bb0
03c4
cafe
2802
5556
0bb0
029b
cafe
2c12
5556
0bb4
034c
cafe
300b
5556
0bb4
030f
cafe
341b
5556
0bb4
029a
cafe
3803
5556
0bb4
03a9
cafe
3c13
5556
0bb8
038d
cafe
200c
5556
0bb8
0335
cafe
241c
5556
0bb8
03d2
cafe
2804
5556
0bb8
0349
cafe
2c14
5556
0bbc
0463
cafe
300d
5556
0bbc
03dc
cafe
341d
5556
0bbc
039b
cafe
3805
5556
0bbc
0355
cafe
3c15
5556
0bc0
03a1
cafe
200e
5556
0bc0
034d
cafe
241e
5556
0bc0
03bc
cafe
2806
5556
0bc0
02e0
cafe
2c16
5556
0bc4
0316
cafe
300f
5556
0bc4
0381
cafe
341f
5556
0bc4
03cf
cafe
3807
5556
0bc4
032c
cafe
3c17
-
5556
0bc8
0316
cafe
2008
5556
0bc8
0307
cafe
2418
5556
0bc8
037e
cafe
2800
5556
0bc8
02a1
cafe
2c10
5556
0bcc
02b1
cafe
3009
5556
0bcc
02e8
cafe
3419
5556
0bcc
0316
cafe
3801
5556
0bcc
031d
cafe
3c11
5556
0bd0
02da
cafe
200a
5556
0bd0
039f
cafe
241a
5556
0bd0
03ae
cafe
2802
5556
0bd0
0287
cafe
2c12
5556
0bd4
032f
cafe
300b
5556
0bd4
02ec
cafe
341b
5556
0bd4
0289
cafe
3803
5556
0bd4
0396
cafe
3c13
5556
0bd8
0377
cafe
200c
5556
0bd8
0320
cafe
241c
5556
0bd8
03ba
cafe
2804
5556
0bd8
0333
cafe
2c14
5556
0bdc
0454
cafe
300d
5556
0bdc
03ba
cafe
341d
5556
0bdc
0380
cafe
3805
5556
0bdc
0338
cafe
3c15
5556
0be0
0380
cafe
200e
5556
0be0
0326
cafe
241e
5556
0be0
03a2
cafe
2806
5556
0be0
02c5
cafe
2c16
5556
0be4
0301
cafe
300f
5556
0be4
0368
cafe
341f
5556
0be4
03b5
cafe
3807
5556
0be4
030f
cafe
3c17
5556
0be8
02f5
cafe
2008
5556
0be8
02f3
cafe
2418
5556
0be8
0363
cafe
2800
5556
0be8
028b
cafe
2c10
5556
0bec
029e
cafe
3009
5556
0bec
02ca
cafe
3419
5556
0bec
02f8
cafe
3801
5556
0bec
0303
cafe
3c11
5556
0bf0
02c1
cafe
200a
5556
0bf0
0385
cafe
241a
5556
0bf0
0395
cafe
2802
5556
0bf0
0267
cafe
2c12
5556
0bf4
0311
cafe
300b
5556
0bf4
02db
cafe
341b
5556
0bf4
026f
cafe
3803
5556
0bf4
037e
cafe
3c13
5556
0bf8
035c
cafe
200c
5556
0bf8
030c
cafe
241c
5556
0bf8
03a5
cafe
2804
5556
-
0bf8
031b
cafe
2c14
5556
0bfc
043d
cafe
300d
5556
0bfc
03a8
cafe
341d
5556
0bfc
036f
cafe
3805
5556
0bfc
0326
cafe
3c15
5556
0c00
0363
cafe
200e
5556
0c00
0317
cafe
241e
5556
0c00
0384
cafe
2806
5556
0c00
02aa
cafe
2c16
5556
0c04
02ec
cafe
300f
5556
0c04
0351
cafe
341f
5556
0c04
0398
cafe
3807
5556
0c04
02fc
cafe
3c17
5556
0c08
02e5
cafe
2008
5556
0c08
02d8
cafe
2418
5556
0c08
0349
cafe
2800
5556
0c08
027e
cafe
2c10
5556
0c0c
028b
cafe
3009
5556
0c0c
02af
cafe
3419
5556
0c0c
02ea
cafe
3801
5556
0c0c
02e7
cafe
3c11
5556
0c10
02a4
cafe
200a
5556
0c10
0374
cafe
241a
5556
0c10
037a
cafe
2802
5556
0c10
0253
cafe
2c12
5556
0c14
02fd
cafe
300b
5556
0c14
02bf
cafe
341b
5556
0c14
024f
cafe
3803
5556
0c14
035c
cafe
3c13
5556
0c18
033d
cafe
200c
5556
0c18
02ed
cafe
241c
5556
0c18
0393
cafe
2804
5556
0c18
0305
cafe
2c14
5556
0c1c
0422
cafe
300d
5556
0c1c
038b
cafe
341d
5556
0c1c
035e
cafe
3805
5556
0c1c
0314
cafe
3c15
5556
0c20
0351
cafe
200e
5556
0c20
0304
cafe
241e
5556
0c20
036e
cafe
2806
5556
0c20
029a
cafe
2c16
5556
0c24
02d7
cafe
300f
5556
0c24
0343
cafe
341f
5556
0c24
0378
cafe
3807
5556
0c24
02de
cafe
3c17
5556
0c28
02cf
cafe
2008
5556
0c28
02c1
cafe
2418
5556
0c28
0334
cafe
2800
5556
0c28
026d
cafe
2c10
5556
0c2c
027f
cafe
3009
5556
0c2c
0299
cafe
3419
5556
0c2c
-
02d7
cafe
3801
5556
0c2c
02d5
cafe
3c11
5556
0c30
0289
cafe
200a
5556
0c30
0355
cafe
241a
5556
0c30
0366
cafe
2802
5556
0c30
023b
cafe
2c12
5556
0c34
02e3
cafe
300b
5556
0c34
02b0
cafe
341b
5556
0c34
0231
cafe
3803
5556
0c34
0345
cafe
3c13
5556
0c38
0329
cafe
200c
5556
0c38
02d2
cafe
241c
5556
0c38
0375
cafe
2804
5556
0c38
02ed
cafe
2c14
5556
0c3c
03fb
cafe
300d
5556
0c3c
036e
cafe
341d
5556
0c3c
0348
cafe
3805
5556
0c3c
02fa
cafe
3c15
5556
0c40
032f
cafe
200e
5556
0c40
02f2
cafe
241e
5556
0c40
0355
cafe
2806
5556
0c40
028b
cafe
2c16
5556
0c44
02c4
cafe
300f
5556
0c44
0329
cafe
341f
5556
0c44
0370
cafe
3807
5556
0c44
02d1
cafe
3c17
5556
0c48
02bb
cafe
2008
5556
0c48
02af
cafe
2418
5556
0c48
0323
cafe
2800
5556
0c48
0256
cafe
2c10
5556
0c4c
0261
cafe
3009
5556
0c4c
0281
cafe
3419
5556
0c4c
02bd
cafe
3801
5556
0c4c
02bf
cafe
3c11
5556
0c50
0276
cafe
200a
5556
0c50
0341
cafe
241a
5556
0c50
034f
cafe
2802
5556
0c50
021d
cafe
2c12
5556
0c54
02d6
cafe
300b
5556
0c54
0296
cafe
341b
5556
0c54
021d
cafe
3803
5556
0c54
033e
cafe
3c13
5556
0c58
0314
cafe
200c
5556
0c58
02bf
cafe
241c
5556
0c58
0363
cafe
2804
5556
0c58
02cf
cafe
2c14
5556
0c5c
03e8
cafe
300d
5556
0c5c
035a
cafe
341d
5556
0c5c
032d
cafe
3805
5556
0c5c
02e3
cafe
3c15
5556
0c60
0314
cafe
200e
5556
0c60
02da
-
cafe
241e
5556
0c60
0342
cafe
2806
5556
0c60
0279
cafe
2c16
5556
0c64
02a9
cafe
300f
5556
0c64
0307
cafe
341f
5556
0c64
0355
cafe
3807
5556
0c64
02bb
cafe
3c17
5556
0c68
02a7
cafe
2008
5556
0c68
029a
cafe
2418
5556
0c68
0313
cafe
2800
5556
0c68
0243
cafe
2c10
5556
0c6c
024b
cafe
3009
5556
0c6c
0269
cafe
3419
5556
0c6c
02a0
cafe
3801
5556
0c6c
02a4
cafe
3c11
5556
0c70
0262
cafe
200a
5556
0c70
0330
cafe
241a
5556
0c70
033b
cafe
2802
5556
0c70
0210
cafe
2c12
5556
0c74
02bf
cafe
300b
5556
0c74
028e
cafe
341b
5556
0c74
020e
cafe
3803
5556
0c74
0326
cafe
3c13
5556
0c78
0301
cafe
200c
5556
0c78
02ae
cafe
241c
5556
0c78
0351
cafe
2804
5556
0c78
02bc
cafe
2c14
5556
0c7c
03dc
cafe
300d
5556
0c7c
034b
cafe
341d
5556
0c7c
0317
cafe
3805
5556
0c7c
02d0
cafe
3c15
5556
0c80
02ff
cafe
200e
5556
0c80
02d4
cafe
241e
5556
0c80
032e
cafe
2806
5556
0c80
0265
cafe
2c16
5556
0c84
028e
cafe
300f
5556
0c84
02ef
cafe
341f
5556
0c84
034a
cafe
3807
5556
0c84
02ac
cafe
3c17
5556
0c88
0293
cafe
2008
5556
0c88
0288
cafe
2418
5556
0c88
0302
cafe
2800
5556
0c88
0229
cafe
2c10
5556
0c8c
0235
cafe
3009
5556
0c8c
024f
cafe
3419
5556
0c8c
0295
cafe
3801
5556
0c8c
0299
cafe
3c11
5556
0c90
0250
cafe
200a
5556
0c90
0316
cafe
241a
5556
0c90
0328
cafe
2802
5556
0c90
0207
cafe
2c12
5556
0c94
02ac
cafe
-
300b
5556
0c94
0273
cafe
341b
5556
0c94
0200
cafe
3803
5556
0c94
030e
cafe
3c13
5556
0c98
02ec
cafe
200c
5556
0c98
029e
cafe
241c
5556
0c98
0336
cafe
2804
5556
0c98
02af
cafe
2c14
5556
0c9c
03c9
cafe
300d
5556
0c9c
0331
cafe
341d
5556
0c9c
0303
cafe
3805
5556
0c9c
02bc
cafe
3c15
5556
0ca0
02e8
cafe
200e
5556
0ca0
02bb
cafe
241e
5556
0ca0
0317
cafe
2806
5556
0ca0
025a
cafe
2c16
5556
0ca4
0281
cafe
300f
5556
0ca4
02de
cafe
341f
5556
0ca4
0336
cafe
3807
5556
0ca4
0299
cafe
3c17
5556
0ca8
0287
cafe
2008
5556
0ca8
0283
cafe
2418
5556
0ca8
02ee
cafe
2800
5556
0ca8
0220
cafe
2c10
5556
0cac
0222
cafe
3009
5556
0cac
023d
cafe
3419
5556
0cac
027b
cafe
3801
5556
0cac
0283
cafe
3c11
5556
0cb0
0246
cafe
200a
5556
0cb0
0303
cafe
241a
5556
0cb0
0317
cafe
2802
5556
0cb0
01ee
cafe
2c12
5556
0cb4
0295
cafe
300b
5556
0cb4
0261
cafe
341b
5556
0cb4
01f1
cafe
3803
5556
0cb4
0300
cafe
3c13
5556
0cb8
02dd
cafe
200c
5556
0cb8
0290
cafe
241c
5556
0cb8
0322
cafe
2804
5556
0cb8
02a0
cafe
2c14
5556
0cbc
03b1
cafe
300d
5556
0cbc
031a
cafe
341d
5556
0cbc
02f7
cafe
3805
5556
0cbc
02ac
cafe
3c15
5556
0cc0
02dc
cafe
200e
5556
0cc0
02b1
cafe
241e
5556
0cc0
02fd
cafe
2806
5556
0cc0
024a
cafe
2c16
5556
0cc4
0273
cafe
300f
5556
0cc4
02c8
cafe
341f
5556
0cc4
0324
cafe
3807
5556
0cc4
0288
cafe
3c17
-
5556
0cc8
026a
cafe
2008
5556
0cc8
0268
cafe
2418
5556
0cc8
02e3
cafe
2800
5556
0cc8
020c
cafe
2c10
5556
0ccc
0211
cafe
3009
5556
0ccc
022e
cafe
3419
5556
0ccc
0266
cafe
3801
5556
0ccc
0275
cafe
3c11
5556
0cd0
0237
cafe
200a
5556
0cd0
02ee
cafe
241a
5556
0cd0
0308
cafe
2802
5556
0cd0
01d3
cafe
2c12
5556
0cd4
0289
cafe
300b
5556
0cd4
0254
cafe
341b
5556
0cd4
01de
cafe
3803
5556
0cd4
02f6
cafe
3c13
5556
0cd8
02cf
cafe
200c
5556
0cd8
027f
cafe
241c
5556
0cd8
030a
cafe
2804
5556
0cd8
028d
cafe
2c14
5556
0cdc
039a
cafe
300d
5556
0cdc
0308
cafe
341d
5556
0cdc
02e6
cafe
3805
5556
0cdc
029e
cafe
3c15
5556
0ce0
02cb
cafe
200e
5556
0ce0
029c
cafe
241e
5556
0ce0
02ef
cafe
2806
5556
0ce0
023d
cafe
2c16
5556
0ce4
0265
cafe
300f
5556
0ce4
02b6
cafe
341f
5556
0ce4
0313
cafe
3807
5556
0ce4
027a
cafe
3c17
5556
0ce8
025b
cafe
2008
5556
0ce8
0257
cafe
2418
5556
0ce8
02c9
cafe
2800
5556
0ce8
01f0
cafe
2c10
5556
0cec
01ff
cafe
3009
5556
0cec
0221
cafe
3419
5556
0cec
0256
cafe
3801
5556
0cec
0263
cafe
3c11
5556
0cf0
0222
cafe
200a
5556
0cf0
02e3
cafe
241a
5556
0cf0
02f6
cafe
2802
5556
0cf0
01cb
cafe
2c12
5556
0cf4
0275
cafe
300b
5556
0cf4
0243
cafe
341b
5556
0cf4
01cb
cafe
3803
5556
0cf4
02e3
cafe
3c13
5556
0cf8
02ba
cafe
200c
5556
0cf8
0274
cafe
241c
5556
0cf8
02f5
cafe
2804
5556
-
0cf8
027e
cafe
2c14
5556
0cfc
038c
cafe
300d
5556
0cfc
02ef
cafe
341d
5556
0cfc
02d8
cafe
3805
5556
0cfc
028c
cafe
3c15
5556
0d00
02c1
cafe
200e
5556
0d00
0286
cafe
241e
5556
0d00
02e4
cafe
2806
5556
0d00
021e
cafe
2c16
5556
0d04
0251
cafe
300f
5556
0d04
0295
cafe
341f
5556
0d04
02fe
cafe
3807
5556
0d04
0266
cafe
3c17
5556
0d08
024b
cafe
2008
5556
0d08
024a
cafe
2418
5556
0d08
02b7
cafe
2800
5556
0d08
01dd
cafe
2c10
5556
0d0c
01f3
cafe
3009
5556
0d0c
0218
cafe
3419
5556
0d0c
024f
cafe
3801
5556
0d0c
025a
cafe
3c11
5556
0d10
021b
cafe
200a
5556
0d10
02dc
cafe
241a
5556
0d10
02eb
cafe
2802
5556
0d10
01c7
cafe
2c12
5556
0d14
0270
cafe
300b
5556
0d14
022d
cafe
341b
5556
0d14
01bc
cafe
3803
5556
0d14
02d1
cafe
3c13
5556
0d18
02a7
cafe
200c
5556
0d18
0271
cafe
241c
5556
0d18
02f2
cafe
2804
5556
0d18
0279
cafe
2c14
5556
0d1c
0375
cafe
300d
5556
0d1c
02e2
cafe
341d
5556
0d1c
02c5
cafe
3805
5556
0d1c
0279
cafe
3c15
5556
0d20
02ad
cafe
200e
5556
0d20
0271
cafe
241e
5556
0d20
02d6
cafe
2806
5556
0d20
020b
cafe
2c16
5556
0d24
0241
cafe
300f
5556
0d24
0285
cafe
341f
5556
0d24
02eb
cafe
3807
5556
0d24
0252
cafe
3c17
5556
0d28
0240
cafe
2008
5556
0d28
0235
cafe
2418
5556
0d28
02ac
cafe
2800
5556
0d28
01d3
cafe
2c10
5556
0d2c
01e6
cafe
3009
5556
0d2c
020b
cafe
3419
5556
0d2c
-
0239
cafe
3801
5556
0d2c
0242
cafe
3c11
5556
0d30
0209
cafe
200a
5556
0d30
02cd
cafe
241a
5556
0d30
02cf
cafe
2802
5556
0d30
01c1
cafe
2c12
5556
0d34
025d
cafe
300b
5556
0d34
0222
cafe
341b
5556
0d34
01ad
cafe
3803
5556
0d34
02c4
cafe
3c13
5556
0d38
029e
cafe
200c
5556
0d38
025d
cafe
241c
5556
0d38
02d4
cafe
2804
5556
0d38
0263
cafe
2c14
5556
0d3c
036f
cafe
300d
5556
0d3c
02df
cafe
341d
5556
0d3c
02c4
cafe
3805
5556
0d3c
0272
cafe
3c15
5556
0d40
029f
cafe
200e
5556
0d40
0264
cafe
241e
5556
0d40
02c9
cafe
2806
5556
0d40
0200
cafe
2c16
5556
0d44
022d
cafe
300f
5556
0d44
0281
cafe
341f
5556
0d44
02df
cafe
3807
5556
0d44
0245
cafe
3c17
5556
0d48
0232
cafe
2008
5556
0d48
0220
cafe
2418
5556
0d48
0297
cafe
2800
5556
0d48
01bf
cafe
2c10
5556
0d4c
01d5
cafe
3009
5556
0d4c
0206
cafe
3419
5556
0d4c
022e
cafe
3801
5556
0d4c
0234
cafe
3c11
5556
0d50
01f7
cafe
200a
5556
0d50
02b4
cafe
241a
5556
0d50
02c0
cafe
2802
5556
0d50
01a8
cafe
2c12
5556
0d54
0249
cafe
300b
5556
0d54
020e
cafe
341b
5556
0d54
019f
cafe
3803
5556
0d54
02b0
cafe
3c13
5556
0d58
028d
cafe
200c
5556
0d58
0237
cafe
241c
5556
0d58
02c9
cafe
2804
5556
0d58
0254
cafe
2c14
5556
0d5c
0356
cafe
300d
5556
0d5c
02d6
cafe
341d
5556
0d5c
02b8
cafe
3805
5556
0d5c
0264
cafe
3c15
5556
0d60
0295
cafe
200e
5556
0d60
0266
-
cafe
241e
5556
0d60
02af
cafe
2806
5556
0d60
01f5
cafe
2c16
5556
0d64
0224
cafe
300f
5556
0d64
0283
cafe
341f
5556
0d64
02db
cafe
3807
5556
0d64
023b
cafe
3c17
5556
0d68
0223
cafe
2008
5556
0d68
0215
cafe
2418
5556
0d68
0288
cafe
2800
5556
0d68
01b3
cafe
2c10
5556
0d6c
01bf
cafe
3009
5556
0d6c
01f2
cafe
3419
5556
0d6c
0226
cafe
3801
5556
0d6c
022c
cafe
3c11
5556
0d70
01e4
cafe
200a
5556
0d70
029a
cafe
241a
5556
0d70
02b7
cafe
2802
5556
0d70
01a3
cafe
2c12
5556
0d74
0239
cafe
300b
5556
0d74
0201
cafe
341b
5556
0d74
0192
cafe
3803
5556
0d74
02ad
cafe
3c13
5556
0d78
0280
cafe
200c
5556
0d78
0230
cafe
241c
5556
0d78
02b8
cafe
2804
5556
0d78
0243
cafe
2c14
5556
0d7c
033f
cafe
300d
5556
0d7c
02c7
cafe
341d
5556
0d7c
02aa
cafe
3805
5556
0d7c
0253
cafe
3c15
5556
0d80
028a
cafe
200e
5556
0d80
024e
cafe
241e
5556
0d80
02a3
cafe
2806
5556
0d80
01e6
cafe
2c16
5556
0d84
0213
cafe
300f
5556
0d84
0278
cafe
341f
5556
0d84
02cb
cafe
3807
5556
0d84
0228
cafe
3c17
5556
0d88
021e
cafe
2008
5556
0d88
0210
cafe
2418
5556
0d88
027b
cafe
2800
5556
0d88
01a9
cafe
2c10
5556
0d8c
01bd
cafe
3009
5556
0d8c
01eb
cafe
3419
5556
0d8c
021a
cafe
3801
5556
0d8c
0220
cafe
3c11
5556
0d90
01dc
cafe
200a
5556
0d90
0290
cafe
241a
5556
0d90
02a8
cafe
2802
5556
0d90
0196
cafe
2c12
5556
0d94
0235
cafe
-
