2c0f
5556
0684
0093
cafe
301f
5556
0684
00d8
cafe
3407
5556
0684
00ef
cafe
3817
5556
0688
0177
cafe
3c08
5556
0688
0164
cafe
2018
5556
0688
01d6
cafe
2400
5556
0688
0159
cafe
2810
5556
068c
0161
cafe
2c09
5556
068c
00d8
cafe
3019
5556
068c
0156
cafe
3401
5556
068c
01d1
cafe
3811
5556
0690
00d3
cafe
3c0a
5556
0690
0187
cafe
201a
5556
0690
01ac
cafe
2402
5556
0690
01ae
cafe
2812
5556
0694
011c
cafe
2c0b
5556
0694
0160
cafe
301b
5556
0694
00ec
cafe
3403
5556
0694
00f1
cafe
3813
5556
0698
0118
cafe
3c0c
5556
0698
0181
cafe
201c
5556
0698
0180
cafe
2404
5556
0698
006c
cafe
2814
5556
069c
01ce
cafe
2c0d
5556
069c
00f4
cafe
301d
5556
069c
00cf
cafe
3405
5556
069c
0168
cafe
3815
5556
06a0
00c0
cafe
3c0e
5556
06a0
01ae
cafe
201e
5556
06a0
015a
cafe
2406
5556
06a0
020e
cafe
2816
5556
06a4
00e0
cafe
2c0f
5556
06a4
0090
cafe
301f
5556
06a4
00ca
cafe
3407
5556
06a4
00ed
cafe
3817
5556
06a8
0169
cafe
3c08
5556
06a8
016d
cafe
2018
5556
06a8
01e7
cafe
2400
5556
06a8
0153
cafe
2810
5556
06ac
016d
cafe
2c09
5556
06ac
00ce
cafe
3019
5556
06ac
0140
cafe
3401
5556
06ac
01cd
cafe
3811
5556
06b0
00d4
cafe
3c0a
5556
06b0
0193
cafe
201a
5556
06b0
01b7
cafe
2402
5556
06b0
01a3
cafe
2812
5556
06b4
0119
cafe
2c0b
5556
06b4
014e
cafe
301b
5556
06b4
00dc
cafe
3403
5556
06b4
00ed
cafe
3813
-
5556
06b8
0111
cafe
3c0c
5556
06b8
0170
cafe
201c
5556
06b8
0192
cafe
2404
5556
06b8
0062
cafe
2814
5556
06bc
01c5
cafe
2c0d
5556
06bc
00f8
cafe
301d
5556
06bc
00c5
cafe
3405
5556
06bc
0175
cafe
3815
5556
06c0
00c7
cafe
3c0e
5556
06c0
01aa
cafe
201e
5556
06c0
0161
cafe
2406
5556
06c0
01f3
cafe
2816
5556
06c4
00e2
cafe
2c0f
5556
06c4
007a
cafe
301f
5556
06c4
00db
cafe
3407
5556
06c4
010c
cafe
3817
5556
06c8
0171
cafe
3c08
5556
06c8
0171
cafe
2018
5556
06c8
01dd
cafe
2400
5556
06c8
0174
cafe
2810
5556
06cc
0154
cafe
2c09
5556
06cc
00d5
cafe
3019
5556
06cc
0142
cafe
3401
5556
06cc
01c8
cafe
3811
5556
06d0
00db
cafe
3c0a
5556
06d0
0189
cafe
201a
5556
06d0
01b4
cafe
2402
5556
06d0
01bc
cafe
2812
5556
06d4
0128
cafe
2c0b
5556
06d4
0133
cafe
301b
5556
06d4
00ed
cafe
3403
5556
06d4
00e4
cafe
3813
5556
06d8
010a
cafe
3c0c
5556
06d8
017e
cafe
201c
5556
06d8
0173
cafe
2404
5556
06d8
006d
cafe
2814
5556
06dc
01ce
cafe
2c0d
5556
06dc
00f0
cafe
301d
5556
06dc
00c5
cafe
3405
5556
06dc
0178
cafe
3815
5556
06e0
00c7
cafe
3c0e
5556
06e0
01a6
cafe
201e
5556
06e0
0166
cafe
2406
5556
06e0
0208
cafe
2816
5556
06e4
00e4
cafe
2c0f
5556
06e4
008d
cafe
301f
5556
06e4
00c9
cafe
3407
5556
06e4
00e9
cafe
3817
5556
06e8
016a
cafe
3c08
5556
06e8
016d
cafe
2018
5556
06e8
01d2
cafe
2400
5556
-
06e8
0172
cafe
2810
5556
06ec
015b
cafe
2c09
5556
06ec
00cc
cafe
3019
5556
06ec
0159
cafe
3401
5556
06ec
01cc
cafe
3811
5556
06f0
00d0
cafe
3c0a
5556
06f0
0185
cafe
201a
5556
06f0
01a8
cafe
2402
5556
06f0
01bf
cafe
2812
5556
06f4
0129
cafe
2c0b
5556
06f4
014c
cafe
301b
5556
06f4
00ee
cafe
3403
5556
06f4
00ee
cafe
3813
5556
06f8
0109
cafe
3c0c
5556
06f8
017c
cafe
201c
5556
06f8
018e
cafe
2404
5556
06f8
007e
cafe
2814
5556
06fc
01bb
cafe
2c0d
5556
06fc
00f6
cafe
301d
5556
06fc
00c2
cafe
3405
5556
06fc
016d
cafe
3815
5556
0700
00c6
cafe
3c0e
5556
0700
01a1
cafe
201e
5556
0700
0176
cafe
2406
5556
0700
0209
cafe
2816
5556
0704
00d6
cafe
2c0f
5556
0704
008d
cafe
301f
5556
0704
00c6
cafe
3407
5556
0704
00ea
cafe
3817
5556
0708
0185
cafe
3c08
5556
0708
0160
cafe
2018
5556
0708
01d6
cafe
2400
5556
0708
017f
cafe
2810
5556
070c
014d
cafe
2c09
5556
070c
00dc
cafe
3019
5556
070c
0138
cafe
3401
5556
070c
01a3
cafe
3811
5556
0710
00d4
cafe
3c0a
5556
0710
018e
cafe
201a
5556
0710
01ab
cafe
2402
5556
0710
01ae
cafe
2812
5556
0714
0112
cafe
2c0b
5556
0714
014c
cafe
301b
5556
0714
00cb
cafe
3403
5556
0714
00eb
cafe
3813
5556
0718
0107
cafe
3c0c
5556
0718
0185
cafe
201c
5556
0718
0186
cafe
2404
5556
0718
0058
cafe
2814
5556
071c
01cc
cafe
2c0d
5556
071c
00f1
cafe
301d
5556
071c
-
00d6
cafe
3405
5556
071c
0181
cafe
3815
5556
0720
00ce
cafe
3c0e
5556
0720
01b0
cafe
201e
5556
0720
0163
cafe
2406
5556
0720
0201
cafe
2816
5556
0724
00cb
cafe
2c0f
5556
0724
0091
cafe
301f
5556
0724
00cc
cafe
3407
5556
0724
00ed
cafe
3817
5556
0728
0189
cafe
3c08
5556
0728
0175
cafe
2018
5556
0728
01d5
cafe
2400
5556
0728
0179
cafe
2810
5556
072c
0160
cafe
2c09
5556
072c
00cd
cafe
3019
5556
072c
0144
cafe
3401
5556
072c
01bb
cafe
3811
5556
0730
00d8
cafe
3c0a
5556
0730
0184
cafe
201a
5556
0730
01ba
cafe
2402
5556
0730
01aa
cafe
2812
5556
0734
0126
cafe
2c0b
5556
0734
0154
cafe
301b
5556
0734
00e0
cafe
3403
5556
0734
00e4
cafe
3813
5556
0738
0107
cafe
3c0c
5556
0738
0186
cafe
201c
5556
0738
019b
cafe
2404
5556
0738
006b
cafe
2814
5556
073c
01c4
cafe
2c0d
5556
073c
00ea
cafe
301d
5556
073c
00c7
cafe
3405
5556
073c
017c
cafe
3815
5556
0740
00c3
cafe
3c0e
5556
0740
01ae
cafe
201e
5556
0740
016b
cafe
2406
5556
0740
01f4
cafe
2816
5556
0744
00df
cafe
2c0f
5556
0744
0096
cafe
301f
5556
0744
00c3
cafe
3407
5556
0744
00e6
cafe
3817
5556
0748
0170
cafe
3c08
5556
0748
0180
cafe
2018
5556
0748
01f0
cafe
2400
5556
0748
017a
cafe
2810
5556
074c
0163
cafe
2c09
5556
074c
00d0
cafe
3019
5556
074c
0147
cafe
3401
5556
074c
01b3
cafe
3811
5556
0750
00db
cafe
3c0a
5556
0750
017b
-
cafe
201a
5556
0750
01aa
cafe
2402
5556
0750
01aa
cafe
2812
5556
0754
0113
cafe
2c0b
5556
0754
0142
cafe
301b
5556
0754
00ca
cafe
3403
5556
0754
00e3
cafe
3813
5556
0758
00ff
cafe
3c0c
5556
0758
017a
cafe
201c
5556
0758
019c
cafe
2404
5556
0758
0070
cafe
2814
5556
075c
01c7
cafe
2c0d
5556
075c
00ec
cafe
301d
5556
075c
00d9
cafe
3405
5556
075c
0173
cafe
3815
5556
0760
00ce
cafe
3c0e
5556
0760
019f
cafe
201e
5556
0760
0154
cafe
2406
5556
0760
01f8
cafe
2816
5556
0764
00dc
cafe
2c0f
5556
0764
008f
cafe
301f
5556
0764
00d6
cafe
3407
5556
0764
00ed
cafe
3817
5556
0768
016d
cafe
3c08
5556
0768
0179
cafe
2018
5556
0768
01da
cafe
2400
5556
0768
0174
cafe
2810
5556
076c
0154
cafe
2c09
5556
076c
00d0
cafe
3019
5556
076c
014f
cafe
3401
5556
076c
01c2
cafe
3811
5556
0770
00e3
cafe
3c0a
5556
0770
0182
cafe
201a
5556
0770
01af
cafe
2402
5556
0770
019a
cafe
2812
5556
0774
012d
cafe
2c0b
5556
0774
0149
cafe
301b
5556
0774
00d1
cafe
3403
5556
0774
00e5
cafe
3813
5556
0778
0117
cafe
3c0c
5556
0778
017d
cafe
201c
5556
0778
01a2
cafe
2404
5556
0778
0075
cafe
2814
5556
077c
01d1
cafe
2c0d
5556
077c
00e7
cafe
301d
5556
077c
00c8
cafe
3405
5556
077c
0171
cafe
3815
5556
0780
00be
cafe
3c0e
5556
0780
01ad
cafe
201e
5556
0780
014d
cafe
2406
5556
0780
020b
cafe
2816
5556
0784
00e4
cafe
-
2c0f
5556
0784
0086
cafe
301f
5556
0784
00cf
cafe
3407
5556
0784
00f2
cafe
3817
5556
0788
0170
cafe
3c08
5556
0788
0171
cafe
2018
5556
0788
01d9
cafe
2400
5556
0788
016f
cafe
2810
5556
078c
014e
cafe
2c09
5556
078c
00cf
cafe
3019
5556
078c
014e
cafe
3401
5556
078c
01b8
cafe
3811
5556
0790
00d8
cafe
3c0a
5556
0790
0187
cafe
201a
5556
0790
01b6
cafe
2402
5556
0790
01b4
cafe
2812
5556
0794
0120
cafe
2c0b
5556
0794
0158
cafe
301b
5556
0794
00d0
cafe
3403
5556
0794
00f8
cafe
3813
5556
0798
0116
cafe
3c0c
5556
0798
018a
cafe
201c
5556
0798
0198
cafe
2404
5556
0798
0072
cafe
2814
5556
079c
01e7
cafe
2c0d
5556
079c
00e8
cafe
301d
5556
079c
00e1
cafe
3405
5556
079c
0171
cafe
3815
5556
07a0
00c5
cafe
3c0e
5556
07a0
01a6
cafe
201e
5556
07a0
0158
cafe
2406
5556
07a0
020c
cafe
2816
5556
07a4
00ee
cafe
2c0f
5556
07a4
007e
cafe
301f
5556
07a4
00d1
cafe
3407
5556
07a4
00e7
cafe
3817
5556
07a8
016a
cafe
3c08
5556
07a8
0168
cafe
2018
5556
07a8
01dd
cafe
2400
5556
07a8
0165
cafe
2810
5556
07ac
0159
cafe
2c09
5556
07ac
00d4
cafe
3019
5556
07ac
0147
cafe
3401
5556
07ac
01b0
cafe
3811
5556
07b0
00ca
cafe
3c0a
5556
07b0
0183
cafe
201a
5556
07b0
01ab
cafe
2402
5556
07b0
01aa
cafe
2812
5556
07b4
011e
cafe
2c0b
5556
07b4
0137
cafe
301b
5556
07b4
00da
cafe
3403
5556
07b4
00ee
cafe
3813
-
5556
07b8
0106
cafe
3c0c
5556
07b8
0177
cafe
201c
5556
07b8
019b
cafe
2404
5556
07b8
006e
cafe
2814
5556
07bc
01cb
cafe
2c0d
5556
07bc
00f7
cafe
301d
5556
07bc
00c3
cafe
3405
5556
07bc
017a
cafe
3815
5556
07c0
00ca
cafe
3c0e
5556
07c0
01b0
cafe
201e
5556
07c0
0162
cafe
2406
5556
07c0
0202
cafe
2816
5556
07c4
00da
cafe
2c0f
5556
07c4
0098
cafe
301f
5556
07c4
00ea
cafe
3407
5556
07c4
0100
cafe
3817
5556
07c8
0169
cafe
3c08
5556
07c8
0163
cafe
2018
5556
07c8
01ea
cafe
2400
5556
07c8
0177
cafe
2810
5556
07cc
0156
cafe
2c09
5556
07cc
00cd
cafe
3019
5556
07cc
013e
cafe
3401
5556
07cc
01ab
cafe
3811
5556
07d0
00d5
cafe
3c0a
5556
07d0
016f
cafe
201a
5556
07d0
01b8
cafe
2402
5556
07d0
01b3
cafe
2812
5556
07d4
0113
cafe
2c0b
5556
07d4
014d
cafe
301b
5556
07d4
00cf
cafe
3403
5556
07d4
00f8
cafe
3813
5556
07d8
0102
cafe
3c0c
5556
07d8
016e
cafe
201c
5556
07d8
018b
cafe
2404
5556
07d8
0062
cafe
2814
5556
07dc
01d1
cafe
2c0d
5556
07dc
00ef
cafe
301d
5556
07dc
00d4
cafe
3405
5556
07dc
017c
cafe
3815
5556
07e0
00cf
cafe
3c0e
5556
07e0
01a2
cafe
201e
5556
07e0
0168
cafe
2406
5556
07e0
0208
cafe
2816
5556
07e4
00df
cafe
2c0f
5556
07e4
0096
cafe
301f
5556
07e4
00dd
cafe
3407
5556
07e4
00f5
cafe
3817
5556
07e8
0168
cafe
3c08
5556
07e8
0163
cafe
2018
5556
07e8
01fa
cafe
2400
5556
-
07e8
0173
cafe
2810
5556
07ec
016b
cafe
2c09
5556
07ec
00be
cafe
3019
5556
07ec
013f
cafe
3401
5556
07ec
01c1
cafe
3811
5556
07f0
00c7
cafe
3c0a
5556
07f0
0174
cafe
201a
5556
07f0
01ae
cafe
2402
5556
07f0
0199
cafe
2812
5556
07f4
010b
cafe
2c0b
5556
07f4
014d
cafe
301b
5556
07f4
00cb
cafe
3403
5556
07f4
00ee
cafe
3813
5556
07f8
00f2
cafe
3c0c
5556
07f8
0176
cafe
201c
5556
07f8
01a1
cafe
2404
5556
07f8
0071
cafe
2814
5556
07fc
01c6
cafe
2c0d
5556
07fc
00fb
cafe
301d
5556
07fc
00cb
cafe
3405
5556
07fc
017b
cafe
3815
5556
0800
00cc
cafe
3c0e
5556
0800
01af
cafe
201e
5556
0800
0153
cafe
2406
5556
0800
01f7
cafe
2816
5556
0804
00de
cafe
2c0f
5556
0804
008f
cafe
301f
5556
0804
00db
cafe
3407
5556
0804
00fd
cafe
3817
5556
0808
016d
cafe
3c08
5556
0808
0166
cafe
2018
5556
0808
01dd
cafe
2400
5556
0808
0171
cafe
2810
5556
080c
0164
cafe
2c09
5556
080c
00df
cafe
3019
5556
080c
0139
cafe
3401
5556
080c
01ca
cafe
3811
5556
0810
00d0
cafe
3c0a
5556
0810
0182
cafe
201a
5556
0810
01b0
cafe
2402
5556
0810
01ac
cafe
2812
5556
0814
0117
cafe
2c0b
5556
0814
0149
cafe
301b
5556
0814
00d7
cafe
3403
5556
0814
00dc
cafe
3813
5556
0818
00ff
cafe
3c0c
5556
0818
0165
cafe
201c
5556
0818
017f
cafe
2404
5556
0818
0060
cafe
2814
5556
081c
01df
cafe
2c0d
5556
081c
00e6
cafe
301d
5556
081c
-
00d8
cafe
3405
5556
081c
016f
cafe
3815
5556
0820
00d3
cafe
3c0e
5556
0820
01ae
cafe
201e
5556
0820
0155
cafe
2406
5556
0820
0201
cafe
2816
5556
0824
00ee
cafe
2c0f
5556
0824
008c
cafe
301f
5556
0824
00e2
cafe
3407
5556
0824
00f6
cafe
3817
5556
0828
0176
cafe
3c08
5556
0828
0155
cafe
2018
5556
0828
01ea
cafe
2400
5556
0828
017a
cafe
2810
5556
082c
015d
cafe
2c09
5556
082c
00cc
cafe
3019
5556
082c
013b
cafe
3401
5556
082c
01ba
cafe
3811
5556
0830
00ce
cafe
3c0a
5556
0830
0182
cafe
201a
5556
0830
01a5
cafe
2402
5556
0830
019c
cafe
2812
5556
0834
011b
cafe
2c0b
5556
0834
0158
cafe
301b
5556
0834
00d7
cafe
3403
5556
0834
00eb
cafe
3813
5556
0838
010f
cafe
3c0c
5556
0838
0175
cafe
201c
5556
0838
0181
cafe
2404
5556
0838
005e
cafe
2814
5556
083c
01c0
cafe
2c0d
5556
083c
00fa
cafe
301d
5556
083c
00d0
cafe
3405
5556
083c
0179
cafe
3815
5556
0840
00d8
cafe
3c0e
5556
0840
01ad
cafe
201e
5556
0840
0158
cafe
2406
5556
0840
021c
cafe
2816
5556
0844
00ef
cafe
2c0f
5556
0844
0097
cafe
301f
5556
0844
00dc
cafe
3407
5556
0844
00f4
cafe
3817
5556
0848
0165
cafe
3c08
5556
0848
0158
cafe
2018
5556
0848
01f0
cafe
2400
5556
0848
0174
cafe
2810
5556
084c
015e
cafe
2c09
5556
084c
00d6
cafe
3019
5556
084c
0136
cafe
3401
5556
084c
01bf
cafe
3811
5556
0850
00b0
cafe
3c0a
5556
0850
0184
-
cafe
201a
5556
0850
01ac
cafe
2402
5556
0850
0198
cafe
2812
5556
0854
0114
cafe
2c0b
5556
0854
0151
cafe
301b
5556
0854
00d2
cafe
3403
5556
0854
00e6
cafe
3813
5556
0858
010e
cafe
3c0c
5556
0858
0177
cafe
201c
5556
0858
018f
cafe
2404
5556
0858
0062
cafe
2814
5556
085c
01c4
cafe
2c0d
5556
085c
00fb
cafe
301d
5556
085c
00e3
cafe
3405
5556
085c
016e
cafe
3815
5556
0860
00d1
cafe
3c0e
5556
0860
01b6
cafe
201e
5556
0860
014d
cafe
2406
5556
0860
0216
cafe
2816
5556
0864
00d7
cafe
2c0f
5556
0864
0092
cafe
301f
5556
0864
00e0
cafe
3407
5556
0864
00f3
cafe
3817
5556
0868
0175
cafe
3c08
5556
0868
015a
cafe
2018
5556
0868
01d4
cafe
2400
5556
0868
017a
cafe
2810
5556
086c
0169
cafe
2c09
5556
086c
00d6
cafe
3019
5556
086c
014d
cafe
3401
5556
086c
01c0
cafe
3811
5556
0870
00d6
cafe
3c0a
5556
0870
017c
cafe
201a
5556
0870
01ae
cafe
2402
5556
0870
01a6
cafe
2812
5556
0874
011c
cafe
2c0b
5556
0874
0148
cafe
301b
5556
0874
00cb
cafe
3403
5556
0874
00f0
cafe
3813
5556
0878
0105
cafe
3c0c
5556
0878
0157
cafe
201c
5556
0878
018d
cafe
2404
5556
0878
0057
cafe
2814
5556
087c
01d5
cafe
2c0d
5556
087c
0109
cafe
301d
5556
087c
00d2
cafe
3405
5556
087c
0176
cafe
3815
5556
0880
00c5
cafe
3c0e
5556
0880
01b5
cafe
201e
5556
0880
0160
cafe
2406
5556
0880
0206
cafe
2816
5556
0884
00f4
cafe
-
2c0f
5556
0884
008e
cafe
301f
5556
0884
00d7
cafe
3407
5556
0884
0100
cafe
3817
5556
0888
0168
cafe
3c08
5556
0888
015d
cafe
2018
5556
0888
01e9
cafe
2400
5556
0888
0168
cafe
2810
5556
088c
0166
cafe
2c09
5556
088c
00e1
cafe
3019
5556
088c
0156
cafe
3401
5556
088c
01c0
cafe
3811
5556
0890
00dd
cafe
3c0a
5556
0890
0190
cafe
201a
5556
0890
01bc
cafe
2402
5556
0890
01b7
cafe
2812
5556
0894
0122
cafe
2c0b
5556
0894
014f
cafe
301b
5556
0894
00db
cafe
3403
5556
0894
00e6
cafe
3813
5556
0898
010d
cafe
3c0c
5556
0898
0187
cafe
201c
5556
0898
0181
cafe
2404
5556
0898
006c
cafe
2814
5556
089c
01d4
cafe
2c0d
5556
089c
00f8
cafe
301d
5556
089c
00df
cafe
3405
5556
089c
0186
cafe
3815
5556
08a0
00ca
cafe
3c0e
5556
08a0
01b4
cafe
201e
5556
08a0
0156
cafe
2406
5556
08a0
020c
cafe
2816
5556
08a4
00f4
cafe
2c0f
5556
08a4
0084
cafe
301f
5556
08a4
00db
cafe
3407
5556
08a4
00e7
cafe
3817
5556
08a8
0157
cafe
3c08
5556
08a8
015d
cafe
2018
5556
08a8
01de
cafe
2400
5556
08a8
017e
cafe
2810
5556
08ac
0162
cafe
2c09
5556
08ac
00cb
cafe
3019
5556
08ac
013d
cafe
3401
5556
08ac
01d2
cafe
3811
5556
08b0
00db
cafe
3c0a
5556
08b0
0492
cafe
201a
5556
08b0
04bc
cafe
2402
5556
08b0
04b8
cafe
2812
5556
08b4
0420
cafe
2c0b
5556
08b4
081d
cafe
301b
5556
08b4
07d2
cafe
3403
5556
08b4
0799
cafe
3813
-
5556
08b8
07e5
cafe
3c0c
5556
08b8
0957
cafe
201c
5556
08b8
0960
cafe
2404
5556
08b8
082a
cafe
2814
5556
08bc
09bb
cafe
2c0d
5556
08bc
090f
cafe
301d
5556
08bc
08d2
cafe
3405
5556
08bc
0964
cafe
3815
5556
08c0
08ec
cafe
3c0e
5556
08c0
09f1
cafe
201e
5556
08c0
094c
cafe
2406
5556
08c0
0a09
cafe
2816
5556
08c4
08f9
cafe
2c0f
5556
08c4
08a6
cafe
301f
5556
08c4
08aa
cafe
3407
5556
08c4
08ac
cafe
3817
5556
08c8
0958
cafe
3c08
5556
08c8
095b
cafe
2018
5556
08c8
09ae
cafe
2400
5556
08c8
092b
cafe
2810
5556
08cc
094f
cafe
2c09
5556
08cc
087b
cafe
3019
5556
08cc
0901
cafe
3401
5556
08cc
094a
cafe
3811
5556
08d0
0899
cafe
3c0a
5556
08d0
094f
cafe
201a
5556
08d0
094e
cafe
2402
5556
08d0
092c
cafe
2812
5556
08d4
08ca
cafe
2c0b
5556
08d4
08db
cafe
301b
5556
08d4
086a
cafe
3403
5556
08d4
0828
cafe
3813
5556
08d8
08b8
cafe
3c0c
5556
08d8
091a
cafe
201c
5556
08d8
0911
cafe
2404
5556
08d8
07c0
cafe
2814
5556
08dc
0974
cafe
2c0d
5556
08dc
0861
cafe
301d
5556
08dc
083d
cafe
3405
5556
08dc
08c2
cafe
3815
5556
08e0
0856
cafe
3c0e
5556
08e0
0952
cafe
201e
5556
08e0
08c7
cafe
2406
5556
08e0
0975
cafe
2816
5556
08e4
0862
cafe
2c0f
5556
08e4
07e4
cafe
301f
5556
08e4
082e
cafe
3407
5556
08e4
082f
cafe
3817
5556
08e8
08ba
cafe
3c08
5556
08e8
08c3
cafe
2018
5556
08e8
092b
cafe
2400
5556
-
08e8
08a5
cafe
2810
5556
08ec
08bc
cafe
2c09
5556
08ec
07ee
cafe
3019
5556
08ec
0872
cafe
3401
5556
08ec
08c2
cafe
3811
5556
08f0
0819
cafe
3c0a
5556
08f0
08c7
cafe
201a
5556
08f0
08d1
cafe
2402
5556
08f0
08ac
cafe
2812
5556
08f4
0851
cafe
2c0b
5556
08f4
085c
cafe
301b
5556
08f4
07d1
cafe
3403
5556
08f4
07b1
cafe
3813
5556
08f8
083b
cafe
3c0c
5556
08f8
0891
cafe
201c
5556
08f8
0886
cafe
2404
5556
08f8
0744
cafe
2814
5556
08fc
08e6
cafe
2c0d
5556
08fc
07fa
cafe
301d
5556
08fc
07b1
cafe
3405
5556
08fc
0839
cafe
3815
5556
0900
07c6
cafe
3c0e
5556
0900
08c4
cafe
201e
5556
0900
0857
cafe
2406
5556
0900
08f8
cafe
2816
5556
0904
07d0
cafe
2c0f
5556
0904
075d
cafe
301f
5556
0904
07b0
cafe
3407
5556
0904
078f
cafe
3817
5556
0908
0851
cafe
3c08
5556
0908
0829
cafe
2018
5556
0908
08b7
cafe
2400
5556
0908
0831
cafe
2810
5556
090c
0835
cafe
2c09
5556
090c
0787
cafe
3019
5556
090c
07e9
cafe
3401
5556
090c
0853
cafe
3811
5556
0910
078a
cafe
3c0a
5556
0910
0845
cafe
201a
5556
0910
0868
cafe
2402
5556
0910
0832
cafe
2812
5556
0914
07cf
cafe
2c0b
5556
0914
07e8
cafe
301b
5556
0914
0763
cafe
3403
5556
0914
072c
cafe
3813
5556
0918
07c1
cafe
3c0c
5556
0918
0811
cafe
201c
5556
0918
0811
cafe
2404
5556
0918
06d6
cafe
2814
5556
091c
088f
cafe
2c0d
5556
091c
077d
cafe
301d
5556
091c
-
0730
cafe
3405
5556
091c
07d6
cafe
3815
5556
0920
0757
cafe
3c0e
5556
0920
085f
cafe
201e
5556
0920
07c7
cafe
2406
5556
0920
0884
cafe
2816
5556
0924
075d
cafe
2c0f
5556
0924
06e5
cafe
301f
5556
0924
0735
cafe
3407
5556
0924
0725
cafe
3817
5556
0928
07d3
cafe
3c08
5556
0928
07cc
cafe
2018
5556
0928
0840
cafe
2400
5556
0928
07a5
cafe
2810
5556
092c
07cd
cafe
2c09
5556
092c
06ef
cafe
3019
5556
092c
076f
cafe
3401
5556
092c
07e9
cafe
3811
5556
0930
071f
cafe
3c0a
5556
0930
07e4
cafe
201a
5556
0930
07fa
cafe
2402
5556
0930
07c1
cafe
2812
5556
0934
0760
cafe
2c0b
5556
0934
0773
cafe
301b
5556
0934
06e5
cafe
3403
5556
0934
06b4
cafe
3813
5556
0938
0736
cafe
3c0c
5556
0938
078e
cafe
201c
5556
0938
079f
cafe
2404
5556
0938
0662
cafe
2814
5556
093c
0812
cafe
2c0d
5556
093c
06ec
cafe
301d
5556
093c
06ae
cafe
3405
5556
093c
074b
cafe
3815
5556
0940
06e7
cafe
3c0e
5556
0940
080a
cafe
201e
5556
0940
075e
cafe
2406
5556
0940
080a
cafe
2816
5556
0944
06eb
cafe
2c0f
5556
0944
0672
cafe
301f
5556
0944
06cc
cafe
3407
5556
0944
06be
cafe
3817
5556
0948
076c
cafe
3c08
5556
0948
0762
cafe
2018
5556
0948
07c9
cafe
2400
5556
0948
072b
cafe
2810
5556
094c
0753
cafe
2c09
5556
094c
068b
cafe
3019
5556
094c
0701
cafe
3401
5556
094c
0783
cafe
3811
5556
0950
06bc
cafe
3c0a
5556
0950
075b
-
cafe
201a
5556
0950
078b
cafe
2402
5556
0950
0757
cafe
2812
5556
0954
06ed
cafe
2c0b
5556
0954
0701
cafe
301b
5556
0954
0684
cafe
3403
5556
0954
065a
cafe
3813
5556
0958
06d3
cafe
3c0c
5556
0958
0734
cafe
201c
5556
0958
071c
cafe
2404
5556
0958
05fb
cafe
2814
5556
095c
07a8
cafe
2c0d
5556
095c
0699
cafe
301d
5556
095c
0650
cafe
3405
5556
095c
06e9
cafe
3815
5556
0960
0673
cafe
3c0e
5556
0960
0792
cafe
201e
5556
0960
06e9
cafe
2406
5556
0960
07b5
cafe
2816
5556
0964
0685
cafe
2c0f
5556
0964
05fb
cafe
301f
5556
0964
0654
cafe
3407
5556
0964
064e
cafe
3817
5556
0968
06f6
cafe
3c08
5556
0968
06ed
cafe
2018
5556
0968
0770
cafe
2400
5556
0968
06b7
cafe
2810
5556
096c
06f6
cafe
2c09
5556
096c
0622
cafe
3019
5556
096c
068f
cafe
3401
5556
096c
0722
cafe
3811
5556
0970
065a
cafe
3c0a
5556
0970
0700
cafe
201a
5556
0970
0711
cafe
2402
5556
0970
06e3
cafe
2812
5556
0974
0677
cafe
2c0b
5556
0974
0697
cafe
301b
5556
0974
060e
cafe
3403
5556
0974
05f9
cafe
3813
5556
0978
0662
cafe
3c0c
5556
0978
06ce
cafe
201c
5556
0978
06d4
cafe
2404
5556
0978
0596
cafe
2814
5556
097c
073f
cafe
2c0d
5556
097c
0624
cafe
301d
5556
097c
05d9
cafe
3405
5556
097c
067e
cafe
3815
5556
0980
0616
cafe
3c0e
5556
0980
0726
cafe
201e
5556
0980
0686
cafe
2406
5556
0980
0731
cafe
2816
5556
0984
061d
cafe
-
2c0f
5556
0984
0597
cafe
301f
5556
0984
05ef
cafe
3407
5556
0984
05ea
cafe
3817
5556
0988
06a6
cafe
3c08
5556
0988
0684
cafe
2018
5556
0988
0703
cafe
2400
5556
0988
0665
cafe
2810
5556
098c
0691
cafe
2c09
5556
098c
05b7
cafe
3019
5556
098c
063a
cafe
3401
5556
098c
06a9
cafe
3811
5556
0990
05e3
cafe
3c0a
5556
0990
06a3
cafe
201a
5556
0990
06ba
cafe
2402
5556
0990
0681
cafe
2812
5556
0994
0626
cafe
2c0b
5556
0994
0628
cafe
301b
5556
0994
05ab
cafe
3403
5556
0994
058d
cafe
3813
5556
0998
05f7
cafe
3c0c
5556
0998
0668
cafe
201c
5556
0998
0674
cafe
2404
5556
0998
0527
cafe
2814
5556
099c
06d0
cafe
2c0d
5556
099c
05c5
cafe
301d
5556
099c
055d
cafe
3405
5556
099c
0615
cafe
3815
5556
09a0
05b2
cafe
3c0e
5556
09a0
06c4
cafe
201e
5556
09a0
0625
cafe
2406
5556
09a0
06e8
cafe
2816
5556
09a4
05c0
cafe
2c0f
5556
09a4
0546
cafe
301f
5556
09a4
05a6
cafe
3407
5556
09a4
0588
cafe
3817
5556
09a8
0644
cafe
3c08
5556
09a8
0626
cafe
2018
5556
09a8
06b2
cafe
2400
5556
09a8
05fc
cafe
2810
5556
09ac
0624
cafe
2c09
5556
09ac
0551
cafe
3019
5556
09ac
05ca
cafe
3401
5556
09ac
065d
cafe
3811
5556
09b0
0599
cafe
3c0a
5556
09b0
063d
cafe
201a
5556
09b0
0675
cafe
2402
5556
09b0
062b
cafe
2812
5556
09b4
05c5
cafe
2c0b
5556
09b4
05dd
cafe
301b
5556
09b4
0547
cafe
3403
5556
09b4
052c
cafe
3813
-
5556
09b8
05a0
cafe
3c0c
5556
09b8
0619
cafe
201c
5556
09b8
061a
cafe
2404
5556
09b8
04d6
cafe
2814
5556
09bc
067b
cafe
2c0d
5556
09bc
0572
cafe
301d
5556
09bc
0506
cafe
3405
5556
09bc
05c7
cafe
3815
5556
09c0
054e
cafe
3c0e
5556
09c0
066e
cafe
201e
5556
09c0
05b7
cafe
2406
5556
09c0
0682
cafe
2816
5556
09c4
054d
cafe
2c0f
5556
09c4
04e4
cafe
301f
5556
09c4
053e
cafe
3407
5556
09c4
0529
cafe
3817
5556
09c8
05e2
cafe
3c08
5556
09c8
05cd
cafe
2018
5556
09c8
0656
cafe
2400
5556
09c8
05a5
cafe
2810
5556
09cc
05db
cafe
2c09
5556
09cc
0512
cafe
3019
5556
09cc
0585
cafe
3401
5556
09cc
0609
cafe
3811
5556
09d0
053b
cafe
3c0a
5556
09d0
05ef
cafe
201a
5556
09d0
0614
cafe
2402
5556
09d0
05c8
cafe
2812
5556
09d4
0558
cafe
2c0b
5556
09d4
0586
cafe
301b
5556
09d4
0504
cafe
3403
5556
09d4
04e5
cafe
3813
5556
09d8
054f
cafe
3c0c
5556
09d8
05af
cafe
201c
5556
09d8
05c6
cafe
2404
5556
09d8
0477
cafe
2814
5556
09dc
061f
cafe
2c0d
5556
09dc
052e
cafe
301d
5556
09dc
04b2
cafe
3405
5556
09dc
0575
cafe
3815
5556
09e0
0507
cafe
3c0e
5556
09e0
0625
cafe
201e
5556
09e0
056b
cafe
2406
5556
09e0
0639
cafe
2816
5556
09e4
04fc
cafe
2c0f
5556
09e4
0482
cafe
301f
5556
09e4
04e1
cafe
3407
5556
09e4
04e0
cafe
3817
5556
09e8
0597
cafe
3c08
5556
09e8
056d
cafe
2018
5556
09e8
05ff
cafe
2400
5556
-
09e8
0543
cafe
2810
5556
09ec
0571
cafe
2c09
5556
09ec
04ad
cafe
3019
5556
09ec
0536
cafe
3401
5556
09ec
05c6
cafe
3811
5556
09f0
04ea
cafe
3c0a
5556
09f0
0596
cafe
201a
5556
09f0
05c1
cafe
2402
5556
09f0
0581
cafe
2812
5556
09f4
0504
cafe
2c0b
5556
09f4
0542
cafe
301b
5556
09f4
04b5
cafe
3403
5556
09f4
0482
cafe
3813
5556
09f8
0507
cafe
3c0c
5556
09f8
0564
cafe
201c
5556
09f8
057f
cafe
2404
5556
09f8
042a
cafe
2814
5556
09fc
05ba
cafe
2c0d
5556
09fc
04bc
cafe
301d
5556
09fc
0452
cafe
3405
5556
09fc
0528
cafe
3815
5556
0a00
04ac
cafe
3c0e
5556
0a00
05e1
cafe
201e
5556
0a00
0513
cafe
2406
5556
0a00
05f4
cafe
2816
5556
0a04
04c4
cafe
2c0f
5556
0a04
0438
cafe
301f
5556
0a04
0492
cafe
3407
5556
0a04
0482
cafe
3817
5556
0a08
0536
cafe
3c08
5556
0a08
0531
cafe
2018
5556
0a08
05cb
cafe
2400
5556
0a08
04e2
cafe
2810
5556
0a0c
0535
cafe
2c09
5556
0a0c
0452
cafe
3019
5556
0a0c
04d2
cafe
3401
5556
0a0c
057f
cafe
3811
5556
0a10
0497
cafe
3c0a
5556
0a10
0554
cafe
201a
5556
0a10
0582
cafe
2402
5556
0a10
052c
cafe
2812
5556
0a14
04bf
cafe
2c0b
5556
0a14
04de
cafe
301b
5556
0a14
044c
cafe
3403
5556
0a14
043f
cafe
3813
5556
0a18
04c8
cafe
3c0c
5556
0a18
0510
cafe
201c
5556
0a18
052b
cafe
2404
5556
0a18
03d6
cafe
2814
5556
0a1c
0581
cafe
2c0d
5556
0a1c
0472
cafe
301d
5556
0a1c
-
0416
cafe
3405
5556
0a1c
04e9
cafe
3815
5556
0a20
0454
cafe
3c0e
5556
0a20
059a
cafe
201e
5556
0a20
04bc
cafe
2406
5556
0a20
05b8
cafe
2816
5556
0a24
046e
cafe
2c0f
5556
0a24
03f5
cafe
301f
5556
0a24
044c
cafe
3407
5556
0a24
043b
cafe
3817
5556
0a28
04ff
cafe
3c08
5556
0a28
04ed
cafe
2018
5556
0a28
057c
cafe
2400
5556
0a28
04ae
cafe
2810
5556
0a2c
04e7
cafe
2c09
5556
0a2c
040c
cafe
3019
5556
0a2c
0480
cafe
3401
5556
0a2c
0520
cafe
3811
5556
0a30
0438
cafe
3c0a
5556
0a30
0506
cafe
201a
5556
0a30
0536
cafe
2402
5556
0a30
04ef
cafe
2812
5556
0a34
047f
cafe
2c0b
5556
0a34
04aa
cafe
301b
5556
0a34
0413
cafe
3403
5556
0a34
03ea
cafe
3813
5556
0a38
0473
cafe
3c0c
5556
0a38
04d3
cafe
201c
5556
0a38
04ef
cafe
2404
5556
0a38
039b
cafe
2814
5556
0a3c
0553
cafe
2c0d
5556
0a3c
042b
cafe
301d
5556
0a3c
03cf
cafe
3405
5556
0a3c
04ad
cafe
3815
5556
0a40
040b
cafe
3c0e
5556
0a40
0541
cafe
201e
5556
0a40
0493
cafe
2406
5556
0a40
0569
cafe
2816
5556
0a44
041b
cafe
2c0f
5556
0a44
03b6
cafe
301f
5556
0a44
0408
cafe
3407
5556
0a44
040e
cafe
3817
5556
0a48
04b0
cafe
3c08
5556
0a48
04a4
cafe
2018
5556
0a48
0531
cafe
2400
5556
0a48
045c
cafe
2810
5556
0a4c
048b
cafe
2c09
5556
0a4c
03d6
cafe
3019
5556
0a4c
0453
cafe
3401
5556
0a4c
04e8
cafe
3811
5556
0a50
03fb
cafe
3c0a
5556
0a50
04cd
-
cafe
201a
5556
0a50
04ed
cafe
2402
5556
0a50
04a3
cafe
2812
5556
0a54
0434
cafe
2c0b
5556
0a54
0455
cafe
301b
5556
0a54
03d6
cafe
3403
5556
0a54
03b4
cafe
3813
5556
0a58
042a
cafe
3c0c
5556
0a58
048e
cafe
201c
5556
0a58
04be
cafe
2404
5556
0a58
034a
cafe
2814
5556
0a5c
0502
cafe
2c0d
5556
0a5c
03f5
cafe
301d
5556
0a5c
037c
cafe
3405
5556
0a5c
0450
cafe
3815
5556
0a60
03d9
cafe
3c0e
5556
0a60
0507
cafe
201e
5556
0a60
043a
cafe
2406
5556
0a60
0528
cafe
2816
5556
0a64
03dc
cafe
2c0f
5556
0a64
0364
cafe
301f
5556
0a64
03ca
cafe
3407
5556
0a64
03bd
cafe
3817
5556
0a68
0474
cafe
3c08
5556
0a68
046e
cafe
2018
5556
0a68
04f3
cafe
2400
5556
0a68
042a
cafe
2810
5556
0a6c
046e
cafe
2c09
5556
0a6c
0392
cafe
3019
5556
0a6c
0409
cafe
3401
5556
0a6c
049e
cafe
3811
5556
0a70
03c6
cafe
3c0a
5556
0a70
0486
cafe
201a
5556
0a70
04a1
cafe
2402
5556
0a70
046e
cafe
2812
5556
0a74
03f7
cafe
2c0b
5556
0a74
0429
cafe
301b
5556
0a74
03ac
cafe
3403
5556
0a74
0380
cafe
3813
5556
0a78
03e6
cafe
3c0c
5556
0a78
0448
cafe
201c
5556
0a78
0473
cafe
2404
5556
0a78
0311
cafe
2814
5556
0a7c
04ab
cafe
2c0d
5556
0a7c
03bf
cafe
301d
5556
0a7c
0351
cafe
3405
5556
0a7c
0422
cafe
3815
5556
0a80
039a
cafe
3c0e
5556
0a80
04d0
cafe
201e
5556
0a80
0429
cafe
2406
5556
0a80
04dd
cafe
2816
5556
0a84
03a4
cafe
-
2c0f
5556
0a84
032b
cafe
301f
5556
0a84
0385
cafe
3407
5556
0a84
037d
cafe
3817
5556
0a88
0444
cafe
3c08
5556
0a88
042f
cafe
2018
5556
0a88
04a6
cafe
2400
5556
0a88
03f1
cafe
2810
5556
0a8c
0427
cafe
2c09
5556
0a8c
034b
cafe
3019
5556
0a8c
03e3
cafe
3401
5556
0a8c
046e
cafe
3811
5556
0a90
0384
cafe
3c0a
5556
0a90
0455
cafe
201a
5556
0a90
045d
cafe
2402
5556
0a90
0445
cafe
2812
5556
0a94
03b8
cafe
2c0b
5556
0a94
03e3
cafe
301b
5556
0a94
0360
cafe
3403
5556
0a94
033e
cafe
3813
5556
0a98
03b6
cafe
3c0c
5556
0a98
041a
cafe
201c
5556
0a98
042e
cafe
2404
5556
0a98
02d0
cafe
2814
5556
0a9c
0474
cafe
2c0d
5556
0a9c
038b
cafe
301d
5556
0a9c
0324
cafe
3405
5556
0a9c
03e7
cafe
3815
5556
0aa0
0355
cafe
3c0e
5556
0aa0
048e
cafe
201e
5556
0aa0
03d1
cafe
2406
5556
0aa0
04b8
cafe
2816
5556
0aa4
0373
cafe
2c0f
5556
0aa4
02fb
cafe
301f
5556
0aa4
0352
cafe
3407
5556
0aa4
034f
cafe
3817
5556
0aa8
0407
cafe
3c08
5556
0aa8
03e8
cafe
2018
5556
0aa8
0467
cafe
2400
5556
0aa8
03b8
cafe
2810
5556
0aac
03d5
cafe
2c09
5556
0aac
0324
cafe
3019
5556
0aac
03a9
cafe
3401
5556
0aac
0426
cafe
3811
5556
0ab0
034e
cafe
3c0a
5556
0ab0
0408
cafe
201a
5556
0ab0
0430
cafe
2402
5556
0ab0
03f2
cafe
2812
5556
0ab4
038f
cafe
2c0b
5556
0ab4
03af
cafe
301b
5556
0ab4
0325
cafe
3403
5556
0ab4
0303
cafe
3813
-
5556
0ab8
036a
cafe
3c0c
5556
0ab8
03d1
cafe
201c
5556
0ab8
03f6
cafe
2404
5556
0ab8
02aa
cafe
2814
5556
0abc
0457
cafe
2c0d
5556
0abc
035a
cafe
301d
5556
0abc
02d6
cafe
3405
5556
0abc
03c5
cafe
3815
5556
0ac0
031a
cafe
3c0e
5556
0ac0
0469
cafe
201e
5556
0ac0
03a6
cafe
2406
5556
0ac0
049b
cafe
2816
5556
0ac4
0339
cafe
2c0f
5556
0ac4
02b7
cafe
301f
5556
0ac4
0327
cafe
3407
5556
0ac4
030f
cafe
3817
5556
0ac8
03da
cafe
3c08
5556
0ac8
03bd
cafe
2018
5556
0ac8
0440
cafe
2400
5556
0ac8
0393
cafe
2810
5556
0acc
03b6
cafe
2c09
5556
0acc
02ef
cafe
3019
5556
0acc
036e
cafe
3401
5556
0acc
0407
cafe
3811
5556
0ad0
0326
cafe
3c0a
5556
0ad0
03d7
cafe
201a
5556
0ad0
03ff
cafe
2402
5556
0ad0
03cd
cafe
2812
5556
0ad4
034d
cafe
2c0b
5556
0ad4
038e
cafe
301b
5556
0ad4
02f2
cafe
3403
5556
0ad4
02df
cafe
3813
5556
0ad8
0350
cafe
3c0c
5556
0ad8
03a0
cafe
201c
5556
0ad8
03c0
cafe
2404
5556
0ad8
028a
cafe
2814
5556
0adc
0420
cafe
2c0d
5556
0adc
0323
cafe
301d
5556
0adc
029a
cafe
3405
5556
0adc
0390
cafe
3815
5556
0ae0
0300
cafe
3c0e
5556
0ae0
041b
cafe
201e
5556
0ae0
0366
cafe
2406
5556
0ae0
0450
cafe
2816
5556
0ae4
0302
cafe
2c0f
5556
0ae4
0290
cafe
301f
5556
0ae4
02ff
cafe
3407
5556
0ae4
02e8
cafe
3817
5556
0ae8
03a9
cafe
3c08
5556
0ae8
0385
cafe
2018
5556
0ae8
040e
cafe
2400
5556
-
0ae8
033f
cafe
2810
5556
0aec
037f
cafe
2c09
5556
0aec
02c3
cafe
3019
5556
0aec
0337
cafe
3401
5556
0aec
03dd
cafe
3811
5556
0af0
02f2
cafe
3c0a
5556
0af0
03a8
cafe
201a
5556
0af0
03d8
cafe
2402
5556
0af0
0390
cafe
2812
5556
0af4
0329
cafe
2c0b
5556
0af4
034f
cafe
301b
5556
0af4
02c4
cafe
3403
5556
0af4
02a1
cafe
3813
5556
0af8
0303
cafe
3c0c
5556
0af8
0368
cafe
201c
5556
0af8
0392
cafe
2404
5556
0af8
025a
cafe
2814
5556
0afc
03d3
cafe
2c0d
5556
0afc
030d
cafe
301d
5556
0afc
027b
cafe
3405
5556
0afc
0352
cafe
3815
5556
0b00
02e8
cafe
3c0e
5556
0b00
03fd
cafe
201e
5556
0b00
0336
cafe
2406
5556
0b00
0434
cafe
2816
5556
0b04
02cc
cafe
2c0f
5556
0b04
0259
cafe
301f
5556
0b04
02c2
cafe
3407
5556
0b04
02c3
cafe
3817
5556
0b08
0387
cafe
3c08
5556
0b08
035c
cafe
2018
5556
0b08
03f6
cafe
2400
5556
0b08
031c
cafe
2810
5556
0b0c
036b
cafe
2c09
5556
0b0c
0285
cafe
3019
5556
0b0c
0304
cafe
3401
5556
0b0c
039d
cafe
3811
5556
0b10
02be
cafe
3c0a
5556
0b10
037c
cafe
201a
5556
0b10
0399
cafe
2402
5556
0b10
0381
cafe
2812
5556
0b14
0300
cafe
2c0b
5556
0b14
031a
cafe
301b
5556
0b14
02ab
cafe
3403
5556
0b14
0282
cafe
3813
5556
0b18
02df
cafe
3c0c
5556
0b18
0350
cafe
201c
5556
0b18
0373
cafe
2404
5556
0b18
0225
cafe
2814
5556
0b1c
03be
cafe
2c0d
5556
0b1c
02c8
cafe
301d
5556
0b1c
-
023c
cafe
3405
5556
0b1c
0335
cafe
3815
5556
0b20
02a1
cafe
3c0e
5556
0b20
03ba
cafe
201e
5556
0b20
0307
cafe
2406
5556
0b20
03ef
cafe
2816
5556
0b24
029d
cafe
2c0f
5556
0b24
0240
cafe
301f
5556
0b24
0296
cafe
3407
5556
0b24
029b
cafe
3817
5556
0b28
0362
cafe
3c08
5556
0b28
0331
cafe
2018
5556
0b28
03d2
cafe
2400
5556
0b28
0307
cafe
2810
5556
0b2c
032e
cafe
2c09
5556
0b2c
027b
cafe
3019
5556
0b2c
02f4
cafe
3401
5556
0b2c
036f
cafe
3811
5556
0b30
02a5
cafe
3c0a
5556
0b30
0351
cafe
201a
5556
0b30
0369
cafe
2402
5556
0b30
033d
cafe
2812
5556
0b34
02d8
cafe
2c0b
5556
0b34
02f0
cafe
301b
5556
0b34
0273
cafe
3403
5556
0b34
0259
cafe
3813
5556
0b38
02bb
cafe
3c0c
5556
0b38
032b
cafe
201c
5556
0b38
0338
cafe
2404
5556
0b38
0202
cafe
2814
5556
0b3c
0398
cafe
2c0d
5556
0b3c
02a7
cafe
301d
5556
0b3c
024a
cafe
3405
5556
0b3c
030d
cafe
3815
5556
0b40
028c
cafe
3c0e
5556
0b40
0385
cafe
201e
5556
0b40
02d2
cafe
2406
5556
0b40
03c0
cafe
2816
5556
0b44
027e
cafe
2c0f
5556
0b44
0213
cafe
301f
5556
0b44
0273
cafe
3407
5556
0b44
0275
cafe
3817
5556
0b48
0320
cafe
3c08
5556
0b48
02f8
cafe
2018
5556
0b48
038f
cafe
2400
5556
0b48
02e2
cafe
2810
5556
0b4c
0301
cafe
2c09
5556
0b4c
0250
cafe
3019
5556
0b4c
02cf
cafe
3401
5556
0b4c
0345
cafe
3811
5556
0b50
025f
cafe
3c0a
5556
0b50
0336
-
cafe
201a
5556
0b50
0357
cafe
2402
5556
0b50
032f
cafe
2812
5556
0b54
02ae
cafe
2c0b
5556
0b54
02cc
cafe
301b
5556
0b54
0243
cafe
3403
5556
0b54
0248
cafe
3813
5556
0b58
02a2
cafe
3c0c
5556
0b58
030d
cafe
201c
5556
0b58
032c
cafe
2404
5556
0b58
01d5
cafe
2814
5556
0b5c
037e
cafe
2c0d
5556
0b5c
027d
cafe
301d
5556
0b5c
020b
cafe
3405
5556
0b5c
02e9
cafe
3815
5556
0b60
0269
cafe
3c0e
5556
0b60
037f
cafe
201e
5556
0b60
02c6
cafe
2406
5556
0b60
03aa
cafe
2816
5556
0b64
0252
cafe
2c0f
5556
0b64
01ee
cafe
301f
5556
0b64
0240
cafe
3407
5556
0b64
0254
cafe
3817
5556
0b68
0302
cafe
3c08
5556
0b68
02dc
cafe
2018
5556
0b68
0365
cafe
2400
5556
0b68
02c7
cafe
2810
5556
0b6c
02e5
cafe
2c09
5556
0b6c
022e
cafe
3019
5556
0b6c
02a8
cafe
3401
5556
0b6c
0337
cafe
3811
5556
0b70
0257
cafe
3c0a
5556
0b70
030f
cafe
201a
5556
0b70
0321
cafe
2402
5556
0b70
02f5
cafe
2812
5556
0b74
027e
cafe
2c0b
5556
0b74
02a1
cafe
301b
5556
0b74
0234
cafe
3403
5556
0b74
0227
cafe
3813
5556
0b78
0278
cafe
3c0c
5556
0b78
02db
cafe
201c
5556
0b78
0302
cafe
2404
5556
0b78
01b6
cafe
2814
5556
0b7c
0359
cafe
2c0d
5556
0b7c
0266
cafe
301d
5556
0b7c
01ea
cafe
3405
5556
0b7c
02d6
cafe
3815
5556
0b80
0224
cafe
3c0e
5556
0b80
034d
cafe
201e
5556
0b80
029c
cafe
2406
5556
0b80
0375
cafe
2816
5556
0b84
0238
cafe
-
2c0f
5556
0b84
01d9
cafe
301f
5556
0b84
0211
cafe
3407
5556
0b84
0241
cafe
3817
5556
0b88
02d6
cafe
3c08
5556
0b88
02cb
cafe
2018
5556
0b88
033f
cafe
2400
5556
0b88
0292
cafe
2810
5556
0b8c
02bd
cafe
2c09
5556
0b8c
0200
cafe
3019
5556
0b8c
0283
cafe
3401
5556
0b8c
030d
cafe
3811
5556
0b90
0225
cafe
3c0a
5556
0b90
02e8
cafe
201a
5556
0b90
030e
cafe
2402
5556
0b90
02e8
cafe
2812
5556
0b94
0264
cafe
2c0b
5556
0b94
0297
cafe
301b
5556
0b94
0216
cafe
3403
5556
0b94
0208
cafe
3813
5556
0b98
024e
cafe
3c0c
5556
0b98
02b8
cafe
201c
5556
0b98
02ef
cafe
2404
5556
0b98
0189
cafe
2814
5556
0b9c
032c
cafe
2c0d
5556
0b9c
0239
cafe
301d
5556
0b9c
01db
cafe
3405
5556
0b9c
02b7
cafe
3815
5556
0ba0
021f
cafe
3c0e
5556
0ba0
032a
cafe
201e
5556
0ba0
0293
cafe
2406
5556
0ba0
0360
cafe
2816
5556
0ba4
0223
cafe
2c0f
5556
0ba4
01b4
cafe
301f
5556
0ba4
0206
cafe
3407
5556
0ba4
0210
cafe
3817
5556
0ba8
02bb
cafe
3c08
5556
0ba8
02b3
cafe
2018
5556
0ba8
0338
cafe
2400
5556
0ba8
0279
cafe
2810
5556
0bac
0299
cafe
2c09
5556
0bac
01ea
cafe
3019
5556
0bac
0276
cafe
3401
5556
0bac
02fa
cafe
3811
5556
0bb0
020b
cafe
3c0a
5556
0bb0
02ca
cafe
201a
5556
0bb0
02f2
cafe
2402
5556
0bb0
02d3
cafe
2812
5556
0bb4
023d
cafe
2c0b
5556
0bb4
0271
cafe
301b
5556
0bb4
01f8
cafe
3403
5556
0bb4
01f9
cafe
3813
-
5556
0bb8
024b
cafe
3c0c
5556
0bb8
02ac
cafe
201c
5556
0bb8
02c7
cafe
2404
5556
0bb8
0172
cafe
2814
5556
0bbc
030d
cafe
2c0d
5556
0bbc
0211
cafe
301d
5556
0bbc
01b7
cafe
3405
5556
0bbc
0289
cafe
3815
5556
0bc0
01e8
cafe
3c0e
5556
0bc0
0314
cafe
201e
5556
0bc0
026f
cafe
2406
5556
0bc0
0350
cafe
2816
5556
0bc4
01fe
cafe
2c0f
5556
0bc4
018e
cafe
301f
5556
0bc4
01e2
cafe
3407
5556
0bc4
01f2
cafe
3817
5556
0bc8
029c
cafe
3c08
5556
0bc8
028c
cafe
2018
5556
0bc8
0316
cafe
2400
5556
0bc8
0265
cafe
2810
5556
0bcc
0278
cafe
2c09
5556
0bcc
01d2
cafe
3019
5556
0bcc
0241
cafe
3401
5556
0bcc
02d8
cafe
3811
5556
0bd0
01f6
cafe
3c0a
5556
0bd0
02a6
cafe
201a
5556
0bd0
02c7
cafe
2402
5556
0bd0
02aa
cafe
2812
5556
0bd4
021e
cafe
2c0b
5556
0bd4
025b
cafe
301b
5556
0bd4
01e0
cafe
3403
5556
0bd4
01d2
cafe
3813
5556
0bd8
024a
cafe
3c0c
5556
0bd8
028a
cafe
201c
5556
0bd8
02a9
cafe
2404
5556
0bd8
0160
cafe
2814
5556
0bdc
02f8
cafe
2c0d
5556
0bdc
01f3
cafe
301d
5556
0bdc
0199
cafe
3405
5556
0bdc
0282
cafe
3815
5556
0be0
01c3
cafe
3c0e
5556
0be0
02ff
cafe
201e
5556
0be0
0242
cafe
2406
5556
0be0
032a
cafe
2816
5556
0be4
01ec
cafe
2c0f
5556
0be4
0174
cafe
301f
5556
0be4
01dd
cafe
3407
5556
0be4
01dc
cafe
3817
5556
0be8
0287
cafe
3c08
5556
0be8
0270
cafe
2018
5556
0be8
02ed
cafe
2400
5556
-
0be8
0258
cafe
2810
5556
0bec
0264
cafe
2c09
5556
0bec
01b3
cafe
3019
5556
0bec
0236
cafe
3401
5556
0bec
02cd
cafe
3811
5556
0bf0
01c4
cafe
3c0a
5556
0bf0
0292
cafe
201a
5556
0bf0
02af
cafe
2402
5556
0bf0
0292
cafe
2812
5556
0bf4
020b
cafe
2c0b
5556
0bf4
024e
cafe
301b
5556
0bf4
01c5
cafe
3403
5556
0bf4
01bd
cafe
3813
5556
0bf8
0222
cafe
3c0c
5556
0bf8
027d
cafe
201c
5556
0bf8
0284
cafe
2404
5556
0bf8
0137
cafe
2814
5556
0bfc
02de
cafe
2c0d
5556
0bfc
01ce
cafe
301d
5556
0bfc
018f
cafe
3405
5556
0bfc
027b
cafe
3815
5556
0c00
01ad
cafe
3c0e
5556
0c00
02e6
cafe
201e
5556
0c00
023c
cafe
2406
5556
0c00
0317
cafe
2816
5556
0c04
01dd
cafe
2c0f
5556
0c04
0158
cafe
301f
5556
0c04
01b5
cafe
3407
5556
0c04
01d7
cafe
3817
5556
0c08
0267
cafe
3c08
5556
0c08
0250
cafe
2018
5556
0c08
02ce
cafe
2400
5556
0c08
0228
cafe
2810
5556
0c0c
0254
cafe
2c09
5556
0c0c
019f
cafe
3019
5556
0c0c
0218
cafe
3401
5556
0c0c
02b8
cafe
3811
5556
0c10
01c4
cafe
3c0a
5556
0c10
027c
cafe
201a
5556
0c10
029e
cafe
2402
5556
0c10
027b
cafe
2812
5556
0c14
0210
cafe
2c0b
5556
0c14
0232
cafe
301b
5556
0c14
01ab
cafe
3403
5556
0c14
01ba
cafe
3813
5556
0c18
0208
cafe
3c0c
5556
0c18
0248
cafe
201c
5556
0c18
0283
cafe
2404
5556
0c18
0135
cafe
2814
5556
0c1c
02ce
cafe
2c0d
5556
0c1c
01bc
cafe
301d
5556
0c1c
-
016a
cafe
3405
5556
0c1c
024a
cafe
3815
5556
0c20
01aa
cafe
3c0e
5556
0c20
02d3
cafe
201e
5556
0c20
021e
cafe
2406
5556
0c20
02f8
cafe
2816
5556
0c24
01cb
cafe
2c0f
5556
0c24
0150
cafe
301f
5556
0c24
01b6
cafe
3407
5556
0c24
01c2
cafe
3817
5556
0c28
024e
cafe
3c08
5556
0c28
0241
cafe
2018
5556
0c28
02bd
cafe
2400
5556
0c28
0221
cafe
2810
5556
0c2c
022b
cafe
2c09
5556
0c2c
0184
cafe
3019
5556
0c2c
0206
cafe
3401
5556
0c2c
029c
cafe
3811
5556
0c30
01a8
cafe
3c0a
5556
0c30
0263
cafe
201a
5556
0c30
0298
cafe
2402
5556
0c30
0266
cafe
2812
5556
0c34
01ef
cafe
2c0b
5556
0c34
021a
cafe
301b
5556
0c34
019e
cafe
3403
5556
0c34
0190
cafe
3813
5556
0c38
01f8
cafe
3c0c
5556
0c38
0246
cafe
201c
5556
0c38
0268
cafe
2404
5556
0c38
0124
cafe
2814
5556
0c3c
02b0
cafe
2c0d
5556
0c3c
01b4
cafe
301d
5556
0c3c
0162
cafe
3405
5556
0c3c
0230
cafe
3815
5556
0c40
018a
cafe
3c0e
5556
0c40
02a0
cafe
201e
5556
0c40
0202
cafe
2406
5556
0c40
02db
cafe
2816
5556
0c44
01a9
cafe
2c0f
5556
0c44
0150
cafe
301f
5556
0c44
0191
cafe
3407
5556
0c44
01aa
cafe
3817
5556
0c48
023a
cafe
3c08
5556
0c48
0235
cafe
2018
5556
0c48
02c9
cafe
2400
5556
0c48
020b
cafe
2810
5556
0c4c
0230
cafe
2c09
5556
0c4c
0176
cafe
3019
5556
0c4c
01e0
cafe
3401
5556
0c4c
0281
cafe
3811
5556
0c50
019c
cafe
3c0a
5556
0c50
024e
-
cafe
201a
5556
0c50
0272
cafe
2402
5556
0c50
0256
cafe
2812
5556
0c54
01ce
cafe
2c0b
5556
0c54
01f4
cafe
301b
5556
0c54
0183
cafe
3403
5556
0c54
0184
cafe
3813
5556
0c58
01c3
cafe
3c0c
5556
0c58
0236
cafe
201c
5556
0c58
0246
cafe
2404
5556
0c58
010b
cafe
2814
5556
0c5c
029a
cafe
2c0d
5556
0c5c
01a3
cafe
301d
5556
0c5c
0154
cafe
3405
5556
0c5c
022b
cafe
3815
5556
0c60
017c
cafe
3c0e
5556
0c60
02a5
cafe
201e
5556
0c60
0207
cafe
2406
5556
0c60
02d6
cafe
2816
5556
0c64
01a7
cafe
2c0f
5556
0c64
0125
cafe
301f
5556
0c64
0173
cafe
3407
5556
0c64
0180
cafe
3817
5556
0c68
022f
cafe
3c08
5556
0c68
0223
cafe
2018
5556
0c68
029f
cafe
2400
5556
0c68
01ec
cafe
2810
5556
0c6c
0214
cafe
2c09
5556
0c6c
015a
cafe
3019
5556
0c6c
01ee
cafe
3401
5556
0c6c
026e
cafe
3811
5556
0c70
018b
cafe
3c0a
5556
0c70
0243
cafe
201a
5556
0c70
0270
cafe
2402
5556
0c70
0246
cafe
2812
5556
0c74
01cd
cafe
2c0b
5556
0c74
01ff
cafe
301b
5556
0c74
0180
cafe
3403
5556
0c74
0192
cafe
3813
5556
0c78
01b7
cafe
3c0c
5556
0c78
0212
cafe
201c
5556
0c78
023c
cafe
2404
5556
0c78
0106
cafe
2814
5556
0c7c
027b
cafe
2c0d
5556
0c7c
0190
cafe
301d
5556
0c7c
013f
cafe
3405
5556
0c7c
0204
cafe
3815
5556
0c80
016d
cafe
3c0e
5556
0c80
028a
cafe
201e
5556
0c80
01e4
cafe
2406
5556
0c80
02be
cafe
2816
5556
0c84
0192
cafe
-
2c0f
5556
0c84
0118
cafe
301f
5556
0c84
015b
cafe
3407
5556
0c84
0179
cafe
3817
5556
0c88
021c
cafe
3c08
5556
0c88
0209
cafe
2018
5556
0c88
0280
cafe
2400
5556
0c88
01e8
cafe
2810
5556
0c8c
0208
cafe
2c09
5556
0c8c
0139
cafe
3019
5556
0c8c
01ca
cafe
3401
5556
0c8c
0258
cafe
3811
5556
0c90
0177
cafe
3c0a
5556
0c90
022f
cafe
201a
5556
0c90
0244
cafe
2402
5556
0c90
0241
cafe
2812
5556
0c94
01b6
cafe
2c0b
5556
0c94
01d1
cafe
301b
5556
0c94
016a
cafe
3403
5556
0c94
0157
cafe
3813
5556
0c98
01a0
cafe
3c0c
5556
0c98
020f
cafe
201c
5556
0c98
0223
cafe
2404
5556
0c98
00fc
cafe
2814
5556
0c9c
026c
cafe
2c0d
5556
0c9c
017f
cafe
301d
5556
0c9c
0137
cafe
3405
5556
0c9c
0202
cafe
3815
5556
0ca0
0160
cafe
3c0e
5556
0ca0
0278
cafe
201e
5556
0ca0
01cf
cafe
2406
5556
0ca0
02a4
cafe
2816
5556
0ca4
0170
cafe
2c0f
5556
0ca4
011b
cafe
301f
5556
0ca4
0161
cafe
3407
5556
0ca4
017d
cafe
3817
5556
0ca8
0207
cafe
3c08
5556
0ca8
0200
cafe
2018
5556
0ca8
026e
cafe
2400
5556
0ca8
01da
cafe
2810
5556
0cac
01e1
cafe
2c09
5556
0cac
013e
cafe
3019
5556
0cac
01b3
cafe
3401
5556
0cac
024d
cafe
3811
5556
0cb0
0173
cafe
3c0a
5556
0cb0
0208
cafe
201a
5556
0cb0
0236
cafe
2402
5556
0cb0
0221
cafe
2812
5556
0cb4
01a2
cafe
2c0b
5556
0cb4
01d2
cafe
301b
5556
0cb4
0158
cafe
3403
5556
0cb4
0164
cafe
3813
-
5556
0cb8
0192
cafe
3c0c
5556
0cb8
01f7
cafe
201c
5556
0cb8
0216
cafe
2404
5556
0cb8
00d8
cafe
2814
5556
0cbc
025d
cafe
2c0d
5556
0cbc
0177
cafe
301d
5556
0cbc
012c
cafe
3405
5556
0cbc
01e8
cafe
3815
5556
0cc0
0147
cafe
3c0e
5556
0cc0
025e
cafe
201e
5556
0cc0
01c4
cafe
2406
5556
0cc0
02a7
cafe
2816
5556
0cc4
017b
cafe
2c0f
5556
0cc4
0106
cafe
301f
5556
0cc4
015b
cafe
3407
5556
0cc4
0161
cafe
3817
5556
0cc8
0202
cafe
3c08
5556
0cc8
01fc
cafe
2018
5556
0cc8
027a
cafe
2400
5556
0cc8
01d5
cafe
2810
5556
0ccc
01e4
cafe
2c09
5556
0ccc
012c
cafe
3019
5556
0ccc
019f
cafe
3401
5556
0ccc
023c
cafe
3811
5556
0cd0
0160
cafe
3c0a
5556
0cd0
0215
cafe
201a
5556
0cd0
022e
cafe
2402
5556
0cd0
020d
cafe
2812
5556
0cd4
0193
cafe
2c0b
5556
0cd4
01cf
cafe
301b
5556
0cd4
0141
cafe
3403
5556
0cd4
014c
cafe
3813
5556
0cd8
018f
cafe
3c0c
5556
0cd8
01f4
cafe
201c
5556
0cd8
0215
cafe
2404
5556
0cd8
00d7
cafe
2814
5556
0cdc
0241
cafe
2c0d
5556
0cdc
0161
cafe
301d
5556
0cdc
011c
cafe
3405
5556
0cdc
01f3
cafe
3815
5556
0ce0
0138
cafe
3c0e
5556
0ce0
0252
cafe
201e
5556
0ce0
01b6
cafe
2406
5556
0ce0
0289
cafe
2816
5556
0ce4
015b
cafe
2c0f
5556
0ce4
00de
cafe
301f
5556
0ce4
0145
cafe
3407
5556
0ce4
0150
cafe
3817
5556
0ce8
01f7
cafe
3c08
5556
0ce8
01f3
cafe
2018
5556
0ce8
026b
cafe
2400
5556
-
0ce8
01cb
cafe
2810
5556
0cec
01da
cafe
2c09
5556
0cec
0128
cafe
3019
5556
0cec
01a1
cafe
3401
5556
0cec
022e
cafe
3811
5556
0cf0
0149
cafe
3c0a
5556
0cf0
0209
cafe
201a
5556
0cf0
0216
cafe
2402
5556
0cf0
0203
cafe
2812
5556
0cf4
0174
cafe
2c0b
5556
0cf4
01a7
cafe
301b
5556
0cf4
0132
cafe
3403
5556
0cf4
0140
cafe
3813
5556
0cf8
018e
cafe
3c0c
5556
0cf8
01e5
cafe
201c
5556
0cf8
0212
cafe
2404
5556
0cf8
00d1
cafe
2814
5556
0cfc
022e
cafe
2c0d
5556
0cfc
0142
cafe
301d
5556
0cfc
010f
cafe
3405
5556
0cfc
01d7
cafe
3815
5556
0d00
0135
cafe
3c0e
5556
0d00
0242
cafe
201e
5556
0d00
01ab
cafe
2406
5556
0d00
0281
cafe
2816
5556
0d04
0156
cafe
2c0f
5556
0d04
00ef
cafe
301f
5556
0d04
0135
cafe
3407
5556
0d04
014b
cafe
3817
5556
0d08
01ec
cafe
3c08
5556
0d08
01d6
cafe
2018
5556
0d08
0255
cafe
2400
5556
0d08
01b8
cafe
2810
5556
0d0c
01cf
cafe
2c09
5556
0d0c
0116
cafe
3019
5556
0d0c
0199
cafe
3401
5556
0d0c
0225
cafe
3811
5556
0d10
0138
cafe
3c0a
5556
0d10
0209
cafe
201a
5556
0d10
0201
cafe
2402
5556
0d10
01f2
cafe
2812
5556
0d14
0173
cafe
2c0b
5556
0d14
01a5
cafe
301b
5556
0d14
012e
cafe
3403
5556
0d14
0137
cafe
3813
5556
0d18
016b
cafe
3c0c
5556
0d18
01cf
cafe
201c
5556
0d18
0203
cafe
2404
5556
0d18
00b6
cafe
2814
5556
0d1c
0215
cafe
2c0d
5556
0d1c
0150
cafe
301d
5556
0d1c
-
0116
cafe
3405
5556
0d1c
01d7
cafe
3815
5556
0d20
0128
cafe
3c0e
5556
0d20
0233
cafe
201e
5556
0d20
01a8
cafe
2406
5556
0d20
027a
cafe
2816
5556
0d24
013f
cafe
2c0f
5556
0d24
00e5
cafe
301f
5556
0d24
012a
cafe
3407
5556
0d24
0141
cafe
3817
5556
0d28
01ce
cafe
3c08
5556
0d28
01b6
cafe
2018
5556
0d28
0252
cafe
2400
5556
0d28
01a9
cafe
2810
5556
0d2c
01ca
cafe
2c09
5556
0d2c
011d
cafe
3019
5556
0d2c
017c
cafe
3401
5556
0d2c
0217
cafe
3811
5556
0d30
0128
cafe
3c0a
5556
0d30
01ee
cafe
201a
5556
0d30
020d
cafe
2402
5556
0d30
01eb
cafe
2812
5556
0d34
0180
cafe
2c0b
5556
0d34
01a3
cafe
301b
5556
0d34
0127
cafe
3403
5556
0d34
013f
cafe
3813
5556
0d38
015e
cafe
3c0c
5556
0d38
01cf
cafe
201c
5556
0d38
020a
cafe
2404
5556
0d38
00aa
cafe
2814
5556
0d3c
021a
cafe
2c0d
5556
0d3c
0146
cafe
301d
5556
0d3c
0104
cafe
3405
5556
0d3c
01c3
cafe
3815
5556
0d40
0124
cafe
3c0e
5556
0d40
022d
cafe
201e
5556
0d40
0197
cafe
2406
5556
0d40
026f
cafe
2816
5556
0d44
012b
cafe
2c0f
5556
0d44
00ce
cafe
301f
5556
0d44
0111
cafe
3407
5556
0d44
0147
cafe
3817
5556
0d48
01c5
cafe
3c08
5556
0d48
01b4
cafe
2018
5556
0d48
023b
cafe
2400
5556
0d48
01a1
cafe
2810
5556
0d4c
019f
cafe
2c09
5556
0d4c
0107
cafe
3019
5556
0d4c
0176
cafe
3401
5556
0d4c
0206
cafe
3811
5556
0d50
0129
cafe
3c0a
5556
0d50
01e9
-
cafe
201a
5556
0d50
0203
cafe
2402
5556
0d50
01dd
cafe
2812
5556
0d54
016a
cafe
2c0b
5556
0d54
018e
cafe
301b
5556
0d54
0108
cafe
3403
5556
0d54
0129
cafe
3813
5556
0d58
014b
cafe
3c0c
5556
0d58
01c9
cafe
201c
5556
0d58
01e8
cafe
2404
5556
0d58
00a3
cafe
2814
5556
0d5c
022a
cafe
2c0d
5556
0d5c
013b
cafe
301d
5556
0d5c
0102
cafe
3405
5556
0d5c
01c6
cafe
3815
5556
0d60
0129
cafe
3c0e
5556
0d60
0210
cafe
201e
5556
0d60
0194
cafe
2406
5556
0d60
025a
cafe
2816
5556
0d64
012d
cafe
2c0f
5556
0d64
00be
cafe
301f
5556
0d64
0112
cafe
3407
5556
0d64
0127
cafe
3817
5556
0d68
01c0
cafe
3c08
5556
0d68
01ac
cafe
2018
5556
0d68
0224
cafe
2400
5556
0d68
01a6
cafe
2810
5556
0d6c
0198
cafe
2c09
5556
0d6c
00f8
cafe
3019
5556
0d6c
017c
cafe
3401
5556
0d6c
0201
cafe
3811
5556
0d70
012c
cafe
3c0a
5556
0d70
01e7
cafe
201a
5556
0d70
01da
cafe
2402
5556
0d70
01d8
cafe
2812
5556
0d74
015c
cafe
2c0b
5556
0d74
018e
cafe
301b
5556
0d74
0119
cafe
3403
5556
0d74
0117
cafe
3813
5556
0d78
013e
cafe
3c0c
5556
0d78
01bd
cafe
201c
5556
0d78
01eb
cafe
2404
5556
0d78
009e
cafe
2814
5556
0d7c
0211
cafe
2c0d
5556
0d7c
0124
cafe
301d
5556
0d7c
00f5
cafe
3405
5556
0d7c
019f
cafe
3815
5556
0d80
010d
cafe
3c0e
5556
0d80
0203
cafe
201e
5556
0d80
017e
cafe
2406
5556
0d80
0249
cafe
2816
5556
0d84
011c
cafe
-
2c0f
5556
0d84
00bf
cafe
301f
5556
0d84
011c
cafe
3407
5556
0d84
0127
cafe
3817
5556
0d88
01ac
cafe
3c08
5556
0d88
01ab
cafe
2018
5556
0d88
022e
cafe
2400
5556
0d88
018b
cafe
2810
5556
0d8c
0194
cafe
2c09
5556
0d8c
00fa
cafe
3019
5556
0d8c
0168
cafe
3401
5556
0d8c
01f3
cafe
3811
5556
0d90
0117
cafe
3c0a
5556
0d90
01ca
cafe
201a
5556
0d90
01d0
cafe
2402
5556
0d90
01d4
cafe
2812
5556
0d94
0150
cafe
2c0b
5556
0d94
017e
cafe
301b
5556
0d94
00f0
cafe
3403
5556
0d94
0113
cafe
3813
5556
0d98
013f
cafe
3c0c
5556
0d98
01b2
cafe
201c
5556
0d98
01e5
cafe
2404
5556
0d98
0094
cafe
2814
5556
0d9c
0201
cafe
2c0d
5556
0d9c
0128
cafe
301d
5556
0d9c
00ed
cafe
3405
5556
0d9c
01ab
cafe
3815
5556
0da0
010c
cafe
3c0e
5556
0da0
01fc
cafe
201e
5556
0da0
0182
cafe
2406
5556
0da0
023e
cafe
2816
5556
0da4
0130
cafe
2c0f
5556
0da4
00a5
cafe
301f
5556
0da4
010c
cafe
3407
5556
0da4
012e
cafe
3817
5556
0da8
01a6
cafe
3c08
5556
0da8
019d
cafe
2018
5556
0da8
0229
cafe
2400
5556
0da8
0181
cafe
2810
5556
0dac
018a
cafe
2c09
5556
0dac
00ec
cafe
3019
5556
0dac
0169
cafe
3401
5556
0dac
01ef
cafe
3811
5556
0db0
0121
cafe
3c0a
5556
0db0
01b5
cafe
201a
5556
0db0
01e2
cafe
2402
5556
0db0
01b8
cafe
2812
5556
0db4
0144
cafe
2c0b
5556
0db4
0163
cafe
301b
5556
0db4
0103
cafe
3403
5556
0db4
010f
cafe
3813
-
5556
0db8
0153
cafe
3c0c
5556
0db8
01a4
cafe
201c
5556
0db8
01d3
cafe
2404
5556
0db8
008c
cafe
2814
5556
0dbc
0204
cafe
2c0d
5556
0dbc
0124
cafe
301d
5556
0dbc
00e2
cafe
3405
5556
0dbc
019e
cafe
3815
5556
0dc0
00ea
cafe
3c0e
5556
0dc0
0208
cafe
201e
5556
0dc0
017d
cafe
2406
5556
0dc0
023f
cafe
2816
5556
0dc4
0113
cafe
2c0f
5556
0dc4
0097
cafe
301f
5556
0dc4
010f
cafe
3407
5556
0dc4
011c
cafe
3817
5556
0dc8
019b
cafe
3c08
5556
0dc8
019c
cafe
2018
5556
0dc8
021c
cafe
2400
5556
0dc8
0190
cafe
2810
5556
0dcc
0197
cafe
2c09
5556
0dcc
00da
cafe
3019
5556
0dcc
0158
cafe
3401
5556
0dcc
01d8
cafe
3811
5556
0dd0
0109
cafe
3c0a
5556
0dd0
01a6
cafe
201a
5556
0dd0
01d2
cafe
2402
5556
0dd0
01c3
cafe
2812
5556
0dd4
0144
cafe
2c0b
5556
0dd4
018b
cafe
301b
5556
0dd4
00f7
cafe
3403
5556
0dd4
00f8
cafe
3813
5556
0dd8
0142
cafe
3c0c
5556
0dd8
01ab
cafe
201c
5556
0dd8
01ca
cafe
2404
5556
0dd8
0084
cafe
2814
5556
0ddc
0207
cafe
2c0d
5556
0ddc
0111
cafe
301d
5556
0ddc
00ed
cafe
3405
5556
0ddc
0188
cafe
3815
5556
0de0
00fc
cafe
3c0e
5556
0de0
01ec
cafe
201e
5556
0de0
015c
cafe
2406
5556
0de0
0234
cafe
2816
5556
0de4
011c
cafe
2c0f
5556
0de4
00a7
cafe
301f
5556
0de4
0108
cafe
3407
5556
0de4
0121
cafe
3817
5556
0de8
0198
cafe
3c08
5556
0de8
0194
cafe
2018
5556
0de8
0204
cafe
2400
5556
-
0de8
0180
cafe
2810
5556
0dec
0181
cafe
2c09
5556
0dec
00d1
cafe
3019
5556
0dec
014c
cafe
3401
5556
0dec
01cd
cafe
3811
5556
0df0
00fc
cafe
3c0a
5556
0df0
01a4
cafe
201a
5556
0df0
01d9
cafe
2402
5556
0df0
01c8
cafe
2812
5556
0df4
013f
cafe
2c0b
5556
0df4
0172
cafe
301b
5556
0df4
00d8
cafe
3403
5556
0df4
0105
cafe
3813
5556
0df8
0127
cafe
3c0c
5556
0df8
0198
cafe
201c
5556
0df8
01b6
cafe
2404
5556
0df8
007a
cafe
2814
5556
0dfc
01eb
cafe
2c0d
5556
0dfc
0115
cafe
301d
5556
0dfc
00dd
cafe
3405
5556
0dfc
0183
cafe
3815
5556
0e00
00f5
cafe
3c0e
5556
0e00
01eb
cafe
201e
5556
0e00
0168
cafe
2406
5556
0e00
0226
cafe
2816
5556
0e04
0110
cafe
2c0f
5556
0e04
00a7
cafe
301f
5556
0e04
00f0
cafe
3407
5556
0e04
010d
cafe
3817
5556
0e08
0190
cafe
3c08
5556
0e08
0188
cafe
2018
5556
0e08
0202
cafe
2400
5556
0e08
0197
cafe
2810
5556
0e0c
017e
cafe
2c09
5556
0e0c
00df
cafe
3019
5556
0e0c
0154
cafe
3401
5556
0e0c
01d2
cafe
3811
5556
0e10
00ff
cafe
3c0a
5556
0e10
01a6
cafe
201a
5556
0e10
01c7
cafe
2402
5556
0e10
01cb
cafe
2812
5556
0e14
0136
cafe
2c0b
5556
0e14
0160
cafe
301b
5556
0e14
00dc
cafe
3403
5556
0e14
00db
cafe
3813
5556
0e18
0125
cafe
3c0c
5556
0e18
0192
cafe
201c
5556
0e18
01b2
cafe
2404
5556
0e18
006d
cafe
2814
5556
0e1c
01e7
cafe
2c0d
5556
0e1c
0100
cafe
301d
5556
0e1c
-
00d8
cafe
3405
5556
0e1c
0178
cafe
3815
5556
0e20
00e9
cafe
3c0e
5556
0e20
01dc
cafe
201e
5556
0e20
015d
cafe
2406
5556
0e20
022c
cafe
2816
5556
0e24
00fe
cafe
2c0f
5556
0e24
00a2
cafe
301f
5556
0e24
00e8
cafe
3407
5556
0e24
0112
cafe
3817
5556
0e28
017d
cafe
3c08
5556
0e28
0165
cafe
2018
5556
0e28
0204
cafe
2400
5556
0e28
0171
cafe
2810
5556
0e2c
0173
cafe
2c09
5556
0e2c
00e4
cafe
3019
5556
0e2c
0159
cafe
3401
5556
0e2c
01e7
cafe
3811
5556
0e30
00f7
cafe
3c0a
5556
0e30
01a0
cafe
201a
5556
0e30
01bd
cafe
2402
5556
0e30
01c8
cafe
2812
5556
0e34
012d
cafe
2c0b
5556
0e34
0167
cafe
301b
5556
0e34
00db
cafe
3403
5556
0e34
00e7
cafe
3813
5556
0e38
0125
cafe
3c0c
5556
0e38
0196
cafe
201c
5556
0e38
01b8
cafe
2404
5556
0e38
0069
cafe
2814
5556
0e3c
01de
cafe
2c0d
5556
0e3c
0101
cafe
301d
5556
0e3c
00c4
cafe
3405
5556
0e3c
017e
cafe
3815
5556
0e40
00f6
cafe
3c0e
5556
0e40
01cd
cafe
201e
5556
0e40
0155
cafe
2406
5556
0e40
021b
cafe
2816
5556
0e44
00f0
cafe
2c0f
5556
0e44
009c
cafe
301f
5556
0e44
00cd
cafe
3407
5556
0e44
0107
cafe
3817
5556
0e48
0185
cafe
3c08
5556
0e48
017b
cafe
2018
5556
0e48
0209
cafe
2400
5556
0e48
0174
cafe
2810
5556
0e4c
0169
cafe
2c09
5556
0e4c
00e4
cafe
3019
5556
0e4c
0147
cafe
3401
5556
0e4c
01cb
cafe
3811
5556
0e50
00f0
cafe
3c0a
5556
0e50
0192
-
cafe
201a
5556
0e50
01bb
cafe
2402
5556
0e50
01ca
cafe
2812
5556
0e54
0134
cafe
2c0b
5556
0e54
0155
cafe
301b
5556
0e54
00e3
cafe
3403
5556
0e54
00ed
cafe
3813
5556
0e58
0121
cafe
3c0c
5556
0e58
019e
cafe
201c
5556
0e58
01a4
cafe
2404
5556
0e58
0070
cafe
2814
5556
0e5c
01da
cafe
2c0d
5556
0e5c
010a
cafe
301d
5556
0e5c
00d0
cafe
3405
5556
0e5c
0174
cafe
3815
5556
0e60
00da
cafe
3c0e
5556
0e60
01c1
cafe
201e
5556
0e60
0156
cafe
2406
5556
0e60
0226
cafe
2816
5556
0e64
00e3
cafe
2c0f
5556
0e64
00a0
cafe
301f
5556
0e64
00d2
cafe
3407
5556
0e64
0105
cafe
3817
5556
0e68
017f
cafe
3c08
5556
0e68
0170
cafe
2018
5556
0e68
01e3
cafe
2400
5556
0e68
017a
cafe
2810
5556
0e6c
0177
cafe
2c09
5556
0e6c
00d5
cafe
3019
5556
0e6c
014d
cafe
3401
5556
0e6c
01d7
cafe
3811
5556
0e70
00ea
cafe
3c0a
5556
0e70
0198
cafe
201a
5556
0e70
01bd
cafe
2402
5556
0e70
01a8
cafe
2812
5556
0e74
012a
cafe
2c0b
5556
0e74
0148
cafe
301b
5556
0e74
00dd
cafe
3403
5556
0e74
00e4
cafe
3813
5556
0e78
010e
cafe
3c0c
5556
0e78
0195
cafe
201c
5556
0e78
01ad
cafe
2404
5556
0e78
0066
cafe
2814
5556
0e7c
01e1
cafe
2c0d
5556
0e7c
0106
cafe
301d
5556
0e7c
00cb
cafe
3405
5556
0e7c
0187
cafe
3815
5556
0e80
00dd
cafe
3c0e
5556
0e80
01cb
cafe
201e
5556
0e80
015b
cafe
2406
5556
0e80
0218
cafe
2816
5556
0e84
00e4
cafe
-
