3c1f
0000
0000
00bc
cafe
201f
0000
0000
00ba
cafe
241f
0000
0000
00b4
cafe
281f
0000
0000
00b9
cafe
2c1f
0000
0000
00c4
cafe
301f
0000
0000
00c1
cafe
341f
0000
0000
00c5
cafe
381f
0000
0000
00cd
cafe
3c1f
0000
0000
00c6
cafe
201f
0000
0000
00c9
cafe
241f
0000
0000
00c7
cafe
281f
0000
0000
00c5
cafe
2c1f
0000
0000
00bb
cafe
301f
0000
0000
00b0
cafe
341f
0000
0000
00c2
cafe
381f
0000
0000
00ae
cafe
3c1f
0000
0000
00b5
cafe
201f
0000
0000
00b9
cafe
241f
0000
0000
00cf
cafe
281f
0000
0000
00da
cafe
2c1f
0000
0000
00d0
cafe
301f
0000
0000
00d1
cafe
341f
0000
0000
00d6
cafe
381f
0000
0000
00d8
cafe
3c1f
0000
0000
00d9
cafe
201f
0000
0000
00c1
cafe
241f
0000
0000
00cc
cafe
281f
0000
0000
00c7
cafe
2c1f
0000
0000
00c0
cafe
301f
0000
0000
00c5
cafe
341f
0000
0000
00c2
cafe
381f
0000
0000
00c7
cafe
3c1f
0000
0000
00c9
cafe
201f
0000
0000
00c7
cafe
241f
0000
0000
00d4
cafe
281f
0000
0000
00cd
cafe
2c1f
0000
0000
00d5
cafe
301f
0000
0000
00cc
cafe
341f
0000
0000
00ca
cafe
381f
0000
0000
00d1
cafe
3c1f
0000
0000
00d0
cafe
201f
0000
0000
00d8
cafe
241f
0000
0000
00d5
cafe
281f
0000
0000
00d9
cafe
2c1f
0000
0000
00d1
cafe
301f
0000
0000
00d4
cafe
341f
0000
0000
00d7
cafe
381f
0000
0000
00c6
cafe
3c1f
0000
0000
00bb
cafe
201f
0000
0000
00c5
cafe
241f
0000
0000
00be
cafe
281f
-
0000
0000
00b7
cafe
2c1f
0000
0000
00b9
cafe
301f
0000
0000
00bc
cafe
341f
0000
0000
00bb
cafe
381f
0000
0000
00be
cafe
3c1f
0000
0000
00be
cafe
201f
0000
0000
00c2
cafe
241f
0000
0000
00bc
cafe
281f
0000
0000
00c7
cafe
2c1f
0000
0000
00c2
cafe
301f
0000
0000
00bc
cafe
341f
0000
0000
00c8
cafe
381f
0000
0000
00c8
cafe
3c1f
0000
0000
00c8
cafe
201f
0000
0000
00cd
cafe
241f
0000
0000
00c7
cafe
281f
0000
0000
00c8
cafe
2c1f
0000
0000
00c6
cafe
301f
0000
0000
00ca
cafe
341f
0000
0000
00c5
cafe
381f
0000
0000
00b4
cafe
3c1f
0000
0000
00c1
cafe
201f
0000
0000
00b3
cafe
241f
0000
0000
00b4
cafe
281f
0000
0000
00bd
cafe
2c1f
0000
0000
00b0
cafe
301f
0000
0000
00b0
cafe
341f
0000
0000
00b4
cafe
381f
0000
0000
00b1
cafe
3c1f
0000
0000
00b1
cafe
201f
0000
0000
00b5
cafe
241f
0000
0000
00be
cafe
281f
0000
0000
00a8
cafe
2c1f
0000
0000
00b5
cafe
301f
0000
0000
00bc
cafe
341f
0000
0000
00bc
cafe
381f
0000
0000
00bf
cafe
3c1f
0000
0000
00b9
cafe
201f
0000
0000
00c1
cafe
241f
0000
0000
00c1
cafe
281f
0000
0000
00c3
cafe
2c1f
0000
0000
00ce
cafe
301f
0000
0000
00bf
cafe
341f
0000
0000
00b9
cafe
381f
0000
0000
00c3
cafe
3c1f
0000
0000
00b8
cafe
201f
0000
0000
00b4
cafe
241f
0000
0000
00b5
cafe
281f
0000
0000
00b8
cafe
2c1f
0000
0000
00bb
cafe
301f
0000
0000
00c2
cafe
341f
0000
-
0000
00c1
cafe
381f
0000
0000
00be
cafe
3c1f
0000
0000
00c6
cafe
201f
0000
0000
00c6
cafe
241f
0000
0000
00bb
cafe
281f
0000
0000
00c5
cafe
2c1f
0000
0000
00c0
cafe
301f
0000
0000
00ba
cafe
341f
0000
0000
00b6
cafe
381f
0000
0000
00b5
cafe
3c1f
0000
0000
00b2
cafe
201f
0000
0000
00b1
cafe
241f
0000
0000
00b0
cafe
281f
0000
0000
00b8
cafe
2c1f
0000
0000
00aa
cafe
301f
0000
0000
00ac
cafe
341f
0000
0000
00ad
cafe
381f
0000
0000
009e
cafe
3c1f
0000
0000
00a5
cafe
201f
0000
0000
00aa
cafe
241f
0000
0000
00a7
cafe
281f
0000
0000
00b3
cafe
2c1f
0000
0000
00b1
cafe
301f
0000
0000
00b4
cafe
341f
0000
0000
00b6
cafe
381f
0000
0000
00c5
cafe
3c1f
0000
0000
00c9
cafe
201f
0000
0000
00b4
cafe
241f
0000
0000
00c4
cafe
281f
0000
0000
00bc
cafe
2c1f
0000
0000
00b6
cafe
301f
0000
0000
00bb
cafe
341f
0000
0000
00bd
cafe
381f
0000
0000
00bc
cafe
3c1f
0000
0000
00bc
cafe
201f
0000
0000
00c2
cafe
241f
0000
0000
00c7
cafe
281f
0000
0000
00bc
cafe
2c1f
0000
0000
00c3
cafe
301f
0000
0000
00b4
cafe
341f
0000
0000
00b0
cafe
381f
0000
0000
00ae
cafe
3c1f
0000
0000
00ab
cafe
201f
0000
0000
00ae
cafe
241f
0000
0000
00ab
cafe
281f
0000
0000
00b2
cafe
2c1f
0000
0000
00ad
cafe
301f
0000
0000
00ad
cafe
341f
0000
0000
00b9
cafe
381f
0000
0000
00ad
cafe
3c1f
0000
0000
009f
cafe
201f
0000
0000
-
00ad
cafe
241f
0000
0000
00ac
cafe
281f
0000
0000
00b0
cafe
2c1f
0000
0000
00b4
cafe
301f
0000
0000
00b3
cafe
341f
0000
0000
00b0
cafe
381f
0000
0000
00b9
cafe
3c1f
0000
0000
00bc
cafe
201f
0000
0000
00c4
cafe
241f
0000
0000
00c4
cafe
281f
0000
0000
00cc
cafe
2c1f
0000
0000
00c0
cafe
301f
0000
0000
00bb
cafe
341f
0000
0000
00c7
cafe
381f
0000
0000
00bf
cafe
3c1f
0000
0000
00bd
cafe
201f
0000
0000
00c2
cafe
241f
0000
0000
00bd
cafe
281f
0000
0000
00c1
cafe
2c1f
0000
0000
00c1
cafe
301f
0000
0000
00c9
cafe
341f
0000
0000
00c2
cafe
381f
0000
0000
00ac
cafe
3c1f
0000
0000
00be
cafe
201f
0000
0000
00b4
cafe
241f
0000
0000
00b7
cafe
281f
0000
0000
00b9
cafe
2c1f
0000
0000
00b4
cafe
301f
0000
0000
00ba
cafe
341f
0000
0000
00b6
cafe
381f
0000
0000
00ba
cafe
3c1f
0000
0000
00bb
cafe
201f
0000
0000
00bc
cafe
241f
0000
0000
00be
cafe
281f
0000
0000
00ad
cafe
2c1f
0000
0000
00b7
cafe
301f
0000
0000
00b8
cafe
341f
0000
0000
00b4
cafe
381f
0000
0000
00ba
cafe
3c1f
0000
0000
00bf
cafe
201f
0000
0000
00ce
cafe
241f
0000
0000
00c2
cafe
281f
0000
0000
00c8
cafe
2c1f
0000
0000
00d3
cafe
301f
0000
0000
00c7
cafe
341f
0000
0000
00ca
cafe
381f
0000
0000
00d2
cafe
3c1f
0000
0000
00cd
cafe
201f
0000
0000
00c2
cafe
241f
0000
0000
00c1
cafe
281f
0000
0000
00c4
cafe
2c1f
0000
0000
00be
-
cafe
301f
0000
0000
00c3
cafe
341f
0000
0000
00b9
cafe
381f
0000
0000
00b9
cafe
3c1f
0000
0000
00ba
cafe
201f
0000
0000
00bb
cafe
241f
0000
0000
00ac
cafe
281f
0000
0000
00b5
cafe
2c1f
0000
0000
00b7
cafe
301f
0000
0000
00ad
cafe
341f
0000
0000
00b5
cafe
381f
0000
0000
00ba
cafe
3c1f
0000
0000
00b2
cafe
201f
0000
0000
00b8
cafe
241f
0000
0000
00b8
cafe
281f
0000
0000
00c2
cafe
2c1f
0000
0000
00b6
cafe
301f
0000
0000
00b9
cafe
341f
0000
0000
00bf
cafe
381f
0000
0000
00b0
cafe
3c1f
0000
0000
00bb
cafe
201f
0000
0000
00bc
cafe
241f
0000
0000
00c0
cafe
281f
0000
0000
00c5
cafe
2c1f
0000
0000
00c3
cafe
301f
0000
0000
00c4
cafe
341f
0000
0000
00c7
cafe
381f
0000
0000
00ce
cafe
3c1f
0000
0000
00d3
cafe
201f
0000
0000
00b6
cafe
241f
0000
0000
00cd
cafe
281f
0000
0000
00c2
cafe
2c1f
0000
0000
00bd
cafe
301f
0000
0000
00bb
cafe
341f
0000
0000
00b4
cafe
381f
0000
0000
00b6
cafe
3c1f
0000
0000
00ab
cafe
201f
0000
0000
00ab
cafe
241f
0000
0000
00aa
cafe
281f
0000
0000
00a4
cafe
2c1f
0000
0000
00b2
cafe
301f
0000
0000
00a4
cafe
341f
0000
0000
00a7
cafe
381f
0000
0000
00b2
cafe
3c1f
0000
0000
00af
cafe
201f
0000
0000
00b5
cafe
241f
0000
0000
00b3
cafe
281f
0000
0000
00ba
cafe
2c1f
0000
0000
00b8
cafe
301f
0000
0000
00bb
cafe
341f
0000
0000
00bd
cafe
381f
0000
0000
00bb
cafe
-
3c1f
0000
0000
00ae
cafe
201f
0000
0000
00bc
cafe
241f
0000
0000
00b8
cafe
281f
0000
0000
00b4
cafe
2c1f
0000
0000
00b7
cafe
301f
0000
0000
00b2
cafe
341f
0000
0000
00b3
cafe
381f
0000
0000
00b1
cafe
3c1f
0000
0000
00b5
cafe
201f
0000
0000
00bb
cafe
241f
0000
0000
00b6
cafe
281f
0000
0000
00ba
cafe
2c1f
0000
0000
00b0
cafe
301f
0000
0000
00b0
cafe
341f
0000
0000
00c0
cafe
381f
0000
0000
00ba
cafe
3c1f
0000
0000
00b8
cafe
201f
0000
0000
00bd
cafe
241f
0000
0000
00b9
cafe
281f
0000
0000
00c3
cafe
2c1f
0000
0000
00be
cafe
301f
0000
0000
00c9
cafe
341f
0000
0000
00bb
cafe
381f
0000
0000
00ae
cafe
3c1f
0000
0000
00bf
cafe
201f
0000
0000
00b4
cafe
241f
0000
0000
00af
cafe
281f
0000
0000
00b1
cafe
2c1f
0000
0000
00b5
cafe
301f
0000
0000
00b6
cafe
341f
0000
0000
00b6
cafe
381f
0000
0000
00be
cafe
3c1f
0000
0000
00b6
cafe
201f
0000
0000
00b6
cafe
241f
0000
0000
00c3
cafe
281f
0000
0000
00b5
cafe
2c1f
0000
0000
00c5
cafe
301f
0000
0000
00c7
cafe
341f
0000
0000
00c1
cafe
381f
0000
0000
00bf
cafe
3c1f
0000
0000
00c4
cafe
201f
0000
0000
00c6
cafe
241f
0000
0000
00be
cafe
281f
0000
0000
00c7
cafe
2c1f
0000
0000
00cc
cafe
301f
0000
0000
00c5
cafe
341f
0000
0000
00c4
cafe
381f
0000
0000
00ca
cafe
3c1f
0000
0000
00c3
cafe
201f
0000
0000
00c6
cafe
241f
0000
0000
00cc
cafe
281f
-
0000
0000
00c1
cafe
2c1f
0000
0000
00be
cafe
301f
0000
0000
00ba
cafe
341f
0000
0000
00b8
cafe
381f
0000
0000
00bc
cafe
3c1f
0000
0000
00b5
cafe
201f
0000
0000
00ba
cafe
241f
0000
0000
00ac
cafe
281f
0000
0000
00b1
cafe
2c1f
0000
0000
00ba
cafe
301f
0000
0000
00b2
cafe
341f
0000
0000
00ba
cafe
381f
0000
0000
00be
cafe
3c1f
0000
0000
00bb
cafe
201f
0000
0000
00c8
cafe
241f
0000
0000
00c5
cafe
281f
0000
0000
00cf
cafe
2c1f
0000
0000
00c6
cafe
301f
0000
0000
00ce
cafe
341f
0000
0000
00cf
cafe
381f
0000
0000
00c9
cafe
3c1f
0000
0000
00d2
cafe
201f
0000
0000
00cf
cafe
241f
0000
0000
00d0
cafe
281f
0000
0000
00d0
cafe
2c1f
0000
0000
00cc
cafe
301f
0000
0000
00ce
cafe
341f
0000
0000
00c7
cafe
381f
0000
0000
00c7
cafe
3c1f
0000
0000
00c4
cafe
201f
0000
0000
00a9
cafe
241f
0000
0000
00c4
cafe
281f
0000
0000
00b8
cafe
2c1f
0000
0000
00b3
cafe
301f
0000
0000
00b4
cafe
341f
0000
0000
00b8
cafe
381f
0000
0000
00bd
cafe
3c1f
0000
0000
00bb
cafe
201f
0000
0000
00bb
cafe
241f
0000
0000
00c2
cafe
281f
0000
0000
00bc
cafe
2c1f
0000
0000
00c3
cafe
301f
0000
0000
00bd
cafe
341f
0000
0000
00be
cafe
381f
0000
0000
00c2
cafe
3c1f
0000
0000
00c7
cafe
201f
0000
0000
00c6
cafe
241f
0000
0000
00c3
cafe
281f
0000
0000
00c6
cafe
2c1f
0000
0000
00c5
cafe
301f
0000
0000
00cb
cafe
341f
0000
-
0000
00cd
cafe
381f
0000
0000
00c9
cafe
3c1f
0000
0000
00bc
cafe
201f
0000
0000
00c8
cafe
241f
0000
0000
00c4
cafe
281f
0000
0000
00bd
cafe
2c1f
0000
0000
00c2
cafe
301f
0000
0000
00bf
cafe
341f
0000
0000
00c2
cafe
381f
0000
0000
00cb
cafe
3c1f
0000
0000
00c7
cafe
201f
0000
0000
00cc
cafe
241f
0000
0000
00c8
cafe
281f
0000
0000
00d4
cafe
2c1f
0000
0000
00cd
cafe
301f
0000
0000
00c9
cafe
341f
0000
0000
00da
cafe
381f
0000
0000
00cf
cafe
3c1f
0000
0000
00cf
cafe
201f
0000
0000
00ce
cafe
241f
0000
0000
00cb
cafe
281f
0000
0000
00cc
cafe
2c1f
0000
0000
00c8
cafe
301f
0000
0000
00d4
cafe
341f
0000
0000
00c4
cafe
381f
0000
0000
00b8
cafe
3c1f
0000
0000
00c4
cafe
201f
0000
0000
00b5
cafe
241f
0000
0000
00b2
cafe
281f
0000
0000
00aa
cafe
2c1f
0000
0000
00ae
cafe
301f
0000
0000
00b4
cafe
341f
0000
0000
00b9
cafe
381f
0000
0000
00ba
cafe
3c1f
0000
0000
00bd
cafe
201f
0000
0000
00c0
cafe
241f
0000
0000
00c7
cafe
281f
0000
0000
00b6
cafe
2c1f
0000
0000
00c3
cafe
301f
0000
0000
00c7
cafe
341f
0000
0000
00ca
cafe
381f
0000
0000
00cc
cafe
3c1f
0000
0000
00cd
cafe
201f
0000
0000
00ce
cafe
241f
0000
0000
00d0
cafe
281f
0000
0000
00d5
cafe
2c1f
0000
0000
00dc
cafe
301f
0000
0000
00d1
cafe
341f
0000
0000
00c7
cafe
381f
0000
0000
00d2
cafe
3c1f
0000
0000
00cb
cafe
201f
0000
0000
-
00c5
cafe
241f
0000
0000
00ca
cafe
281f
0000
0000
00c6
cafe
2c1f
0000
0000
00c7
cafe
301f
0000
0000
00c8
cafe
341f
0000
0000
00bf
cafe
381f
0000
0000
00c1
cafe
3c1f
0000
0000
00bb
cafe
201f
0000
0000
00c3
cafe
241f
0000
0000
00b0
cafe
281f
0000
0000
00bf
cafe
2c1f
0000
0000
00c4
cafe
301f
0000
0000
00b6
cafe
341f
0000
0000
00bb
cafe
381f
0000
0000
00bd
cafe
3c1f
0000
0000
00c2
cafe
201f
0000
0000
00ca
cafe
241f
0000
0000
00c3
cafe
281f
0000
0000
00ce
cafe
2c1f
0000
0000
00c5
cafe
301f
0000
0000
00ca
cafe
341f
0000
0000
00cc
cafe
381f
0000
0000
00bc
cafe
3c1f
0000
0000
00c8
cafe
201f
0000
0000
00c7
cafe
241f
0000
0000
00c8
cafe
281f
0000
0000
00ce
cafe
2c1f
0000
0000
00ce
cafe
301f
0000
0000
00d8
cafe
341f
0000
0000
00d4
cafe
381f
0000
0000
00d1
cafe
3c1f
0000
0000
00d4
cafe
201f
0000
0000
00bd
cafe
241f
0000
0000
00d2
cafe
281f
0000
0000
00c5
cafe
2c1f
0000
0000
00c9
cafe
301f
0000
0000
00c7
cafe
341f
0000
0000
00c5
cafe
381f
0000
0000
00c4
cafe
3c1f
0000
0000
00c1
cafe
201f
0000
0000
00c0
cafe
241f
0000
0000
00c7
cafe
281f
0000
0000
00b9
cafe
2c1f
0000
0000
00c1
cafe
301f
0000
0000
00bb
cafe
341f
0000
0000
00b8
cafe
381f
0000
0000
00bc
cafe
3c1f
0000
0000
00c5
cafe
201f
0000
0000
00c0
cafe
241f
0000
0000
00c5
cafe
281f
0000
0000
00c8
cafe
2c1f
0000
0000
00c4
-
cafe
301f
0000
0000
00c6
cafe
341f
0000
0000
00c8
cafe
381f
0000
0000
00c7
cafe
3c1f
0000
0000
00bc
cafe
201f
0000
0000
00ce
cafe
241f
0000
0000
00ce
cafe
281f
0000
0000
00c7
cafe
2c1f
0000
0000
00cb
cafe
301f
0000
0000
00cb
cafe
341f
0000
0000
00cf
cafe
381f
0000
0000
00d7
cafe
3c1f
0000
0000
00cb
cafe
201f
0000
0000
00d4
cafe
241f
0000
0000
00ca
cafe
281f
0000
0000
00d4
cafe
2c1f
0000
0000
00c6
cafe
301f
0000
0000
00bf
cafe
341f
0000
0000
00c9
cafe
381f
0000
0000
00c6
cafe
3c1f
0000
0000
00c9
cafe
201f
0000
0000
00c7
cafe
241f
0000
0000
00c9
cafe
281f
0000
0000
00c3
cafe
2c1f
0000
0000
00c2
cafe
301f
0000
0000
00cc
cafe
341f
0000
0000
00bb
cafe
381f
0000
0000
00ac
cafe
3c1f
0000
0000
00bb
cafe
201f
0000
0000
00b6
cafe
241f
0000
0000
00c0
cafe
281f
0000
0000
00c0
cafe
2c1f
0000
0000
00c4
cafe
301f
0000
0000
00c3
cafe
341f
0000
0000
00cb
cafe
381f
0000
0000
00cc
cafe
3c1f
0000
0000
00ca
cafe
201f
0000
0000
00d0
cafe
241f
0000
0000
00d8
cafe
281f
0000
0000
00c5
cafe
2c1f
0000
0000
00cb
cafe
301f
0000
0000
00ca
cafe
341f
0000
0000
00c4
cafe
381f
0000
0000
00bd
cafe
3c1f
0000
0000
00bb
cafe
201f
0000
0000
00b6
cafe
241f
0000
0000
00b6
cafe
281f
0000
0000
00bb
cafe
2c1f
0000
0000
00bf
cafe
301f
0000
0000
00b5
cafe
341f
0000
0000
00ae
cafe
381f
0000
0000
00b6
cafe
-
3c1f
0000
0000
00b8
cafe
201f
0000
0000
00bc
cafe
241f
0000
0000
00c6
cafe
281f
0000
0000
00c4
cafe
2c1f
0000
0000
00c7
cafe
301f
0000
0000
00cb
cafe
341f
0000
0000
00c1
cafe
381f
0000
0000
00c3
cafe
3c1f
0000
0000
00c5
cafe
201f
0000
0000
00d0
cafe
241f
0000
0000
00b9
cafe
281f
0000
0000
00c7
cafe
2c1f
0000
0000
00c5
cafe
301f
0000
0000
00bb
cafe
341f
0000
0000
00c0
cafe
381f
0000
0000
00bb
cafe
3c1f
0000
0000
00bc
cafe
201f
0000
0000
00b6
cafe
241f
0000
0000
00b3
cafe
281f
0000
0000
00c4
cafe
2c1f
0000
0000
00b4
cafe
301f
0000
0000
00bd
cafe
341f
0000
0000
00bd
cafe
381f
0000
0000
00b2
cafe
3c1f
0000
0000
00c0
cafe
201f
0000
0000
00ba
cafe
241f
0000
0000
00b2
cafe
281f
0000
0000
00b8
cafe
2c1f
0000
0000
00b7
cafe
301f
0000
0000
00be
cafe
341f
0000
0000
00bb
cafe
381f
0000
0000
00c9
cafe
3c1f
0000
0000
00c5
cafe
201f
0000
0000
00b3
cafe
241f
0000
0000
00c0
cafe
281f
0000
0000
00b9
cafe
2c1f
0000
0000
00b7
cafe
301f
0000
0000
00b6
cafe
341f
0000
0000
00b6
cafe
381f
0000
0000
00b5
cafe
3c1f
0000
0000
00b1
cafe
201f
0000
0000
00ba
cafe
241f
0000
0000
00c0
cafe
281f
0000
0000
00bd
cafe
2c1f
0000
0000
00cb
cafe
301f
0000
0000
00c9
cafe
341f
0000
0000
00bf
cafe
381f
0000
0000
00c1
cafe
3c1f
0000
0000
00c3
cafe
201f
0000
0000
00c2
cafe
241f
0000
0000
00c5
cafe
281f
-
0000
0000
00cc
cafe
2c1f
0000
0000
00cb
cafe
301f
0000
0000
00d3
cafe
341f
0000
0000
00db
cafe
381f
0000
0000
00d7
cafe
3c1f
0000
0000
00c7
cafe
201f
0000
0000
00d4
cafe
241f
0000
0000
00ca
cafe
281f
0000
0000
00bf
cafe
2c1f
0000
0000
00cd
cafe
301f
0000
0000
00c5
cafe
341f
0000
0000
00c4
cafe
381f
0000
0000
00c3
cafe
3c1f
0000
0000
00ba
cafe
201f
0000
0000
00c4
cafe
241f
0000
0000
00c0
cafe
281f
0000
0000
00c9
cafe
2c1f
0000
0000
00be
cafe
301f
0000
0000
00c0
cafe
341f
0000
0000
00cc
cafe
381f
0000
0000
00c1
cafe
3c1f
0000
0000
00c6
cafe
201f
0000
0000
00ca
cafe
241f
0000
0000
00cc
cafe
281f
0000
0000
00cb
cafe
2c1f
0000
0000
00cb
cafe
301f
0000
0000
00d9
cafe
341f
0000
0000
00cc
cafe
381f
0000
0000
00c2
cafe
3c1f
0000
0000
00d1
cafe
201f
0000
0000
00c1
cafe
241f
0000
0000
00c9
cafe
281f
0000
0000
00c6
cafe
2c1f
0000
0000
00c6
cafe
301f
0000
0000
00c8
cafe
341f
0000
0000
00ca
cafe
381f
0000
0000
00c7
cafe
3c1f
0000
0000
00c4
cafe
201f
0000
0000
00ca
cafe
241f
0000
0000
00cb
cafe
281f
0000
0000
00c0
cafe
2c1f
0000
0000
00bc
cafe
301f
0000
0000
00c4
cafe
341f
0000
0000
00c0
cafe
381f
0000
0000
00be
cafe
3c1f
0000
0000
00c0
cafe
201f
0000
0000
00bf
cafe
241f
0000
0000
00bc
cafe
281f
0000
0000
00c0
cafe
2c1f
0000
0000
00bc
cafe
301f
0000
0000
00b7
cafe
341f
0000
-
0000
00b0
cafe
381f
0000
0000
00b9
cafe
3c1f
0000
0000
00ae
cafe
201f
0000
0000
00ab
cafe
241f
0000
0000
00b1
cafe
281f
0000
0000
00ac
cafe
2c1f
0000
0000
00ad
cafe
301f
0000
0000
00b2
cafe
341f
0000
0000
00b6
cafe
381f
0000
0000
00b7
cafe
3c1f
0000
0000
00b6
cafe
201f
0000
0000
00c2
cafe
241f
0000
0000
00ad
cafe
281f
0000
0000
00bb
cafe
2c1f
0000
0000
00bf
cafe
301f
0000
0000
00bc
cafe
341f
0000
0000
00c5
cafe
381f
0000
0000
00c0
cafe
3c1f
0000
0000
00be
cafe
201f
0000
0000
00c4
cafe
241f
0000
0000
00c3
cafe
281f
0000
0000
00cd
cafe
2c1f
0000
0000
00b2
cafe
301f
0000
0000
00b4
cafe
341f
0000
0000
00b0
cafe
381f
0000
0000
00a4
cafe
3c1f
0000
0000
00ae
cafe
201f
0000
0000
00a7
cafe
241f
0000
0000
00a8
cafe
281f
0000
0000
00ae
cafe
2c1f
0000
0000
00b2
cafe
301f
0000
0000
00b5
cafe
341f
0000
0000
00b5
cafe
381f
0000
0000
00bc
cafe
3c1f
0000
0000
00be
cafe
201f
0000
0000
00ad
cafe
241f
0000
0000
00b9
cafe
281f
0000
0000
00b6
cafe
2c1f
0000
0000
00b2
cafe
301f
0000
0000
00b3
cafe
341f
0000
0000
00b5
cafe
381f
0000
0000
00b7
cafe
3c1f
0000
0000
00c0
cafe
201f
0000
0000
00c1
cafe
241f
0000
0000
00c9
cafe
281f
0000
0000
00c6
cafe
2c1f
0000
0000
00c2
cafe
301f
0000
0000
00c6
cafe
341f
0000
0000
00c2
cafe
381f
0000
0000
00c5
cafe
3c1f
0000
0000
00ca
cafe
201f
0000
0000
-
00c8
cafe
241f
0000
0000
00cd
cafe
281f
0000
0000
00cc
cafe
2c1f
0000
0000
00cd
cafe
301f
0000
0000
00ce
cafe
341f
0000
0000
00cc
cafe
381f
0000
0000
00ce
cafe
3c1f
0000
0000
022d
cafe
201f
0000
0000
02a2
cafe
241f
0000
0000
029a
cafe
281f
0000
0000
0285
cafe
2c1f
0000
0000
0279
cafe
301f
0000
0000
0260
cafe
341f
0000
0000
024d
cafe
381f
0000
0000
023a
cafe
3c1f
0000
0000
0229
cafe
201f
0000
0000
0220
cafe
241f
0000
0000
0207
cafe
281f
0000
0000
0204
cafe
2c1f
0000
0000
01eb
cafe
301f
0000
0000
01e1
cafe
341f
0000
0000
01db
cafe
381f
0000
0000
01c8
cafe
3c1f
0000
0000
01c9
cafe
201f
0000
0000
01b9
cafe
241f
0000
0000
01b6
cafe
281f
0000
0000
01b2
cafe
2c1f
0000
0000
01a8
cafe
301f
0000
0000
01b0
cafe
341f
0000
0000
019d
cafe
381f
0000
0000
0186
cafe
3c1f
0000
0000
018e
cafe
201f
0000
0000
017c
cafe
241f
0000
0000
0173
cafe
281f
0000
0000
016d
cafe
2c1f
0000
0000
0164
cafe
301f
0000
0000
0160
cafe
341f
0000
0000
0154
cafe
381f
0000
0000
0147
cafe
3c1f
0000
0000
013f
cafe
201f
0000
0000
013c
cafe
241f
0000
0000
013e
cafe
281f
0000
0000
0125
cafe
2c1f
0000
0000
011e
cafe
301f
0000
0000
011f
cafe
341f
0000
0000
0115
cafe
381f
0000
0000
0106
cafe
3c1f
0000
0000
0102
cafe
201f
0000
0000
00fc
cafe
241f
0000
0000
00f6
cafe
281f
0000
0000
00f5
cafe
2c1f
0000
0000
00f9
-
cafe
301f
0000
0000
00eb
cafe
341f
0000
0000
00e1
cafe
381f
0000
0000
00e4
cafe
3c1f
0000
0000
00d6
cafe
201f
0000
0000
00de
cafe
241f
0000
0000
00dd
cafe
281f
0000
0000
00d2
cafe
2c1f
0000
0000
00d5
cafe
301f
0000
0000
00d3
cafe
341f
0000
0000
00d7
cafe
381f
0000
0000
00d4
cafe
3c1f
0000
0000
00d0
cafe
201f
0000
0000
00e0
cafe
241f
0000
0000
00c6
cafe
281f
0000
0000
00d1
cafe
2c1f
0000
0000
00d4
cafe
301f
0000
0000
00cc
cafe
341f
0000
0000
00d0
cafe
381f
0000
0000
00cb
cafe
3c1f
0000
0000
00c8
cafe
201f
0000
0000
00c5
cafe
241f
0000
0000
00bc
cafe
281f
0000
0000
00c7
cafe
2c1f
0000
0000
00af
cafe
301f
0000
0000
00b8
cafe
341f
0000
0000
00b5
cafe
381f
0000
0000
00a6
cafe
3c1f
0000
0000
00ad
cafe
201f
0000
0000
00a9
cafe
241f
0000
0000
00ab
cafe
281f
0000
0000
00a3
cafe
2c1f
0000
0000
00a6
cafe
301f
0000
0000
00a0
cafe
341f
0000
0000
009b
cafe
381f
0000
0000
00a4
cafe
3c1f
0000
0000
00a2
cafe
201f
0000
0000
0090
cafe
241f
0000
0000
00a6
cafe
281f
0000
0000
00a7
cafe
2c1f
0000
0000
00a4
cafe
301f
0000
0000
00a2
cafe
341f
0000
0000
0097
cafe
381f
0000
0000
0090
cafe
3c1f
0000
0000
0096
cafe
201f
0000
0000
0092
cafe
241f
0000
0000
0096
cafe
281f
0000
0000
008b
cafe
2c1f
0000
0000
008c
cafe
301f
0000
0000
008a
cafe
341f
0000
0000
0085
cafe
381f
0000
0000
008f
cafe
-
3c1f
0000
0000
0096
cafe
201f
0000
0000
0089
cafe
241f
0000
0000
008e
cafe
281f
0000
0000
0094
cafe
2c1f
0000
0000
009a
cafe
301f
0000
0000
00a0
cafe
341f
0000
0000
00a3
cafe
381f
0000
0000
00a8
cafe
3c1f
0000
0000
0094
cafe
201f
0000
0000
00af
cafe
241f
0000
0000
00ac
cafe
281f
0000
0000
00a4
cafe
2c1f
0000
0000
00a2
cafe
301f
0000
0000
0098
cafe
341f
0000
0000
009b
cafe
381f
0000
0000
0097
cafe
3c1f
0000
0000
0092
cafe
201f
0000
0000
0095
cafe
241f
0000
0000
008b
cafe
281f
0000
0000
00a0
cafe
2c1f
0000
0000
008d
cafe
301f
0000
0000
008c
cafe
341f
0000
0000
0096
cafe
381f
0000
0000
0098
cafe
3c1f
0000
0000
0098
cafe
201f
0000
0000
0096
cafe
241f
0000
0000
009b
cafe
281f
0000
0000
009b
cafe
2c1f
0000
0000
00a0
cafe
301f
0000
0000
00ac
cafe
341f
0000
0000
00a3
cafe
381f
0000
0000
009c
cafe
3c1f
0000
0000
00aa
cafe
201f
0000
0000
00a4
cafe
241f
0000
0000
009f
cafe
281f
0000
0000
009c
cafe
2c1f
0000
0000
0098
cafe
301f
0000
0000
0098
cafe
341f
0000
0000
0099
cafe
381f
0000
0000
0092
cafe
3c1f
0000
0000
0091
cafe
201f
0000
0000
0092
cafe
241f
0000
0000
009a
cafe
281f
0000
0000
008a
cafe
2c1f
0000
0000
0090
cafe
301f
0000
0000
0097
cafe
341f
0000
0000
0098
cafe
381f
0000
0000
0094
cafe
3c1f
0000
0000
0096
cafe
201f
0000
0000
0092
cafe
241f
0000
0000
009a
cafe
281f
-
0000
0000
0098
cafe
2c1f
0000
0000
00a4
cafe
301f
0000
0000
009c
cafe
341f
0000
0000
0095
cafe
381f
0000
0000
00a2
cafe
3c1f
0000
0000
0090
cafe
201f
0000
0000
0093
cafe
241f
0000
0000
0099
cafe
281f
0000
0000
0092
cafe
2c1f
0000
0000
0099
cafe
301f
0000
0000
0098
cafe
341f
0000
0000
00a2
cafe
381f
0000
0000
00a1
cafe
3c1f
0000
0000
00a1
cafe
201f
0000
0000
00ab
cafe
241f
0000
0000
0091
cafe
281f
0000
0000
009f
cafe
2c1f
0000
0000
0099
cafe
301f
0000
0000
0099
cafe
341f
0000
0000
009c
cafe
381f
0000
0000
009b
cafe
3c1f
0000
0000
009a
cafe
201f
0000
0000
0096
cafe
241f
0000
0000
0098
cafe
281f
0000
0000
00a8
cafe
2c1f
0000
0000
0094
cafe
301f
0000
0000
0097
cafe
341f
0000
0000
009c
cafe
381f
0000
0000
0095
cafe
3c1f
0000
0000
0099
cafe
201f
0000
0000
0094
cafe
241f
0000
0000
0093
cafe
281f
0000
0000
0092
cafe
2c1f
0000
0000
0093
cafe
301f
0000
0000
0093
cafe
341f
0000
0000
009b
cafe
381f
0000
0000
00a7
cafe
3c1f
0000
0000
00a3
cafe
201f
0000
0000
0095
cafe
241f
0000
0000
00a9
cafe
281f
0000
0000
00a9
cafe
2c1f
0000
0000
00a2
cafe
301f
0000
0000
00a1
cafe
341f
0000
0000
009d
cafe
381f
0000
0000
009d
cafe
3c1f
0000
0000
009e
cafe
201f
0000
0000
009b
cafe
241f
0000
0000
00a5
cafe
281f
0000
0000
009b
cafe
2c1f
0000
0000
009a
cafe
301f
0000
0000
009a
cafe
341f
0000
-
0000
0093
cafe
381f
0000
0000
009d
cafe
3c1f
0000
0000
009f
cafe
201f
0000
0000
0094
cafe
241f
0000
0000
00a1
cafe
281f
0000
0000
009e
cafe
2c1f
0000
0000
009d
cafe
301f
0000
0000
0097
cafe
341f
0000
0000
009e
cafe
381f
0000
0000
00a0
cafe
3c1f
0000
0000
008b
cafe
201f
0000
0000
009e
cafe
241f
0000
0000
0096
cafe
281f
0000
0000
0097
cafe
2c1f
0000
0000
009e
cafe
301f
0000
0000
0097
cafe
341f
0000
0000
0097
cafe
381f
0000
0000
0097
cafe
3c1f
0000
0000
009c
cafe
201f
0000
0000
00a4
cafe
241f
0000
0000
0096
cafe
281f
0000
0000
00a5
cafe
2c1f
0000
0000
0098
cafe
301f
0000
0000
009a
cafe
341f
0000
0000
00a3
cafe
381f
0000
0000
00a2
cafe
3c1f
0000
0000
00a8
cafe
201f
0000
0000
00a9
cafe
241f
0000
0000
00ae
cafe
281f
0000
0000
00ad
cafe
2c1f
0000
0000
00ab
cafe
301f
0000
0000
00b4
cafe
341f
0000
0000
009e
cafe
381f
0000
0000
009a
cafe
3c1f
0000
0000
00a8
cafe
201f
0000
0000
00a2
cafe
241f
0000
0000
009b
cafe
281f
0000
0000
0098
cafe
2c1f
0000
0000
009a
cafe
301f
0000
0000
0095
cafe
341f
0000
0000
0097
cafe
381f
0000
0000
009a
cafe
3c1f
0000
0000
0098
cafe
201f
0000
0000
0094
cafe
241f
0000
0000
0098
cafe
281f
0000
0000
0094
cafe
2c1f
0000
0000
0098
cafe
301f
0000
0000
0098
cafe
341f
0000
0000
008e
cafe
381f
0000
0000
0096
cafe
3c1f
0000
0000
00a0
cafe
201f
0000
0000
-
00a2
cafe
241f
0000
0000
00a5
cafe
281f
0000
0000
00a5
cafe
2c1f
0000
0000
00b7
cafe
301f
0000
0000
00b0
cafe
341f
0000
0000
00a7
cafe
381f
0000
0000
00bb
cafe
3c1f
0000
0000
00aa
cafe
201f
0000
0000
00ad
cafe
241f
0000
0000
00b4
cafe
281f
0000
0000
00b4
cafe
2c1f
0000
0000
00b9
cafe
301f
0000
0000
00b4
cafe
341f
0000
0000
00b1
cafe
381f
0000
0000
00ac
cafe
3c1f
0000
0000
00b0
cafe
201f
0000
0000
00b2
cafe
241f
0000
0000
009a
cafe
281f
0000
0000
00b0
cafe
2c1f
0000
0000
00ac
cafe
301f
0000
0000
00a4
cafe
341f
0000
0000
00a2
cafe
381f
0000
0000
00a5
cafe
3c1f
0000
0000
00ac
cafe
201f
0000
0000
00ac
cafe
241f
0000
0000
00b0
cafe
281f
0000
0000
00b8
cafe
2c1f
0000
0000
00aa
cafe
301f
0000
0000
00b0
cafe
341f
0000
0000
00ad
cafe
381f
0000
0000
00a7
cafe
3c1f
0000
0000
00a9
cafe
201f
0000
0000
00ae
cafe
241f
0000
0000
00aa
cafe
281f
0000
0000
00a7
cafe
2c1f
0000
0000
00b0
cafe
301f
0000
0000
00ae
cafe
341f
0000
0000
00b2
cafe
381f
0000
0000
00b9
cafe
3c1f
0000
0000
00ba
cafe
201f
0000
0000
00ae
cafe
241f
0000
0000
00bc
cafe
281f
0000
0000
00bf
cafe
2c1f
0000
0000
00bc
cafe
301f
0000
0000
00bc
cafe
341f
0000
0000
00bf
cafe
381f
0000
0000
00b8
cafe
3c1f
0000
0000
00b3
cafe
201f
0000
0000
00ae
cafe
241f
0000
0000
00b1
cafe
281f
0000
0000
00a3
cafe
2c1f
0000
0000
009e
-
cafe
301f
0000
0000
00a2
cafe
341f
0000
0000
009b
cafe
381f
0000
0000
00a6
cafe
3c1f
0000
0000
009e
cafe
201f
0000
0000
009f
cafe
241f
0000
0000
00a6
cafe
281f
0000
0000
00a3
cafe
2c1f
0000
0000
00a6
cafe
301f
0000
0000
00a8
cafe
341f
0000
0000
00b1
cafe
381f
0000
0000
00b0
cafe
3c1f
0000
0000
009d
cafe
201f
0000
0000
00b6
cafe
241f
0000
0000
00b9
cafe
281f
0000
0000
00b4
cafe
2c1f
0000
0000
00b6
cafe
301f
0000
0000
00bc
cafe
341f
0000
0000
00ba
cafe
381f
0000
0000
00bc
cafe
3c1f
0000
0000
00b9
cafe
201f
0000
0000
00bc
cafe
241f
0000
0000
00b4
cafe
281f
0000
0000
00c1
cafe
2c1f
0000
0000
00b2
cafe
301f
0000
0000
00af
cafe
341f
0000
0000
00b8
cafe
381f
0000
0000
00b0
cafe
3c1f
0000
0000
00a8
cafe
201f
0000
0000
00ac
cafe
241f
0000
0000
00b0
cafe
281f
0000
0000
00a9
cafe
2c1f
0000
0000
00b0
cafe
301f
0000
0000
00b1
cafe
341f
0000
0000
00ac
cafe
381f
0000
0000
00a2
cafe
3c1f
0000
0000
00a7
cafe
201f
0000
0000
00a5
cafe
241f
0000
0000
00a0
cafe
281f
0000
0000
00a4
cafe
2c1f
0000
0000
00a2
cafe
301f
0000
0000
00a3
cafe
341f
0000
0000
00a7
cafe
381f
0000
0000
00a7
cafe
3c1f
0000
0000
00af
cafe
201f
0000
0000
00ad
cafe
241f
0000
0000
00b1
cafe
281f
0000
0000
00ab
cafe
2c1f
0000
0000
00b1
cafe
301f
0000
0000
00b8
cafe
341f
0000
0000
00b4
cafe
381f
0000
0000
00b4
cafe
-
3c1f
0000
0000
00ba
cafe
201f
0000
0000
00c3
cafe
241f
0000
0000
00b8
cafe
281f
0000
0000
00be
cafe
2c1f
0000
0000
00d1
cafe
301f
0000
0000
00c2
cafe
341f
0000
0000
00b4
cafe
381f
0000
0000
00c6
cafe
3c1f
0000
0000
00b5
cafe
201f
0000
0000
00b7
cafe
241f
0000
0000
00b5
cafe
281f
0000
0000
00a9
cafe
2c1f
0000
0000
00ad
cafe
301f
0000
0000
00a6
cafe
341f
0000
0000
00a8
cafe
381f
0000
0000
00a6
cafe
3c1f
0000
0000
00a9
cafe
201f
0000
0000
00aa
cafe
241f
0000
0000
006f
cafe
281f
0000
0000
0083
cafe
2c1f
0000
0000
0088
cafe
301f
0000
0000
0086
cafe
341f
0000
0000
008c
cafe
381f
0000
0000
008b
cafe
3c1f
0000
0000
0090
cafe
201f
0000
0000
0095
cafe
241f
0000
0000
00a1
cafe
281f
0000
0000
00a8
cafe
2c1f
0000
0000
009b
cafe
301f
0000
0000
00a5
cafe
341f
0000
0000
00ad
cafe
381f
0000
0000
00aa
cafe
3c1f
0000
0000
00ae
cafe
201f
0000
0000
00b2
cafe
241f
0000
0000
00b0
cafe
281f
0000
0000
00b1
cafe
2c1f
0000
0000
00b8
cafe
301f
0000
0000
00b6
cafe
341f
0000
0000
00b7
cafe
381f
0000
0000
00b8
cafe
3c1f
0000
0000
00ba
cafe
201f
0000
0000
00a6
cafe
241f
0000
0000
00aa
cafe
281f
0000
0000
00a3
cafe
2c1f
0000
0000
0094
cafe
301f
0000
0000
00a2
cafe
341f
0000
0000
0093
cafe
381f
0000
0000
0093
cafe
3c1f
0000
0000
00a4
cafe
201f
0000
0000
009d
cafe
241f
0000
0000
00b1
cafe
281f
-
0000
0000
00a4
cafe
2c1f
0000
0000
00aa
cafe
301f
0000
0000
00aa
cafe
341f
0000
0000
00a4
cafe
381f
0000
0000
00ae
cafe
3c1f
0000
0000
00af
cafe
201f
0000
0000
00a8
cafe
241f
0000
0000
00ac
cafe
281f
0000
0000
00a6
cafe
2c1f
0000
0000
00a5
cafe
301f
0000
0000
00b2
cafe
341f
0000
0000
00b6
cafe
381f
0000
0000
00b6
cafe
3c1f
0000
0000
00a0
cafe
201f
0000
0000
00b8
cafe
241f
0000
0000
00b2
cafe
281f
0000
0000
00b5
cafe
2c1f
0000
0000
00ba
cafe
301f
0000
0000
00bf
cafe
341f
0000
0000
00c0
cafe
381f
0000
0000
00bf
cafe
3c1f
0000
0000
00c4
cafe
201f
0000
0000
00c4
cafe
241f
0000
0000
00b6
cafe
281f
0000
0000
00c1
cafe
2c1f
0000
0000
00b4
cafe
301f
0000
0000
00aa
cafe
341f
0000
0000
00b4
cafe
381f
0000
0000
00b2
cafe
3c1f
0000
0000
00ae
cafe
201f
0000
0000
00af
cafe
241f
0000
0000
00b4
cafe
281f
0000
0000
00aa
cafe
2c1f
0000
0000
00ab
cafe
301f
0000
0000
00b4
cafe
341f
0000
0000
00a5
cafe
381f
0000
0000
00a9
cafe
3c1f
0000
0000
00b1
cafe
201f
0000
0000
00a5
cafe
241f
0000
0000
00b0
cafe
281f
0000
0000
00b5
cafe
2c1f
0000
0000
00b9
cafe
301f
0000
0000
00bb
cafe
341f
0000
0000
00be
cafe
381f
0000
0000
00bf
cafe
3c1f
0000
0000
00cb
cafe
201f
0000
0000
00c2
cafe
241f
0000
0000
00c3
cafe
281f
0000
0000
00be
cafe
2c1f
0000
0000
00c0
cafe
301f
0000
0000
00d2
cafe
341f
0000
-
0000
00cb
cafe
381f
0000
0000
00cc
cafe
3c1f
0000
0000
00d0
cafe
201f
0000
0000
00ce
cafe
241f
0000
0000
00d6
cafe
281f
0000
0000
00cf
cafe
2c1f
0000
0000
00da
cafe
301f
0000
0000
00c6
cafe
341f
0000
0000
00bb
cafe
381f
0000
0000
00cf
cafe
3c1f
0000
0000
00bb
cafe
201f
0000
0000
00c0
cafe
241f
0000
0000
00c1
cafe
281f
0000
0000
00bb
cafe
2c1f
0000
0000
00bd
cafe
301f
0000
0000
00ba
cafe
341f
0000
0000
00ba
cafe
381f
0000
0000
00b3
cafe
3c1f
0000
0000
00b5
cafe
201f
0000
0000
00bc
cafe
241f
0000
0000
00a9
cafe
281f
0000
0000
00b4
cafe
2c1f
0000
0000
00b6
cafe
301f
0000
0000
00b7
cafe
341f
0000
0000
00b6
cafe
381f
0000
0000
00bb
cafe
3c1f
0000
0000
00c3
cafe
201f
0000
0000
00bb
cafe
241f
0000
0000
00be
cafe
281f
0000
0000
00c4
cafe
2c1f
0000
0000
00ca
cafe
301f
0000
0000
00bd
cafe
341f
0000
0000
00c2
cafe
381f
0000
0000
00c6
cafe
3c1f
0000
0000
00be
cafe
201f
0000
0000
00c4
cafe
241f
0000
0000
00c1
cafe
281f
0000
0000
00bb
cafe
2c1f
0000
0000
00be
cafe
301f
0000
0000
00c0
cafe
341f
0000
0000
00c1
cafe
381f
0000
0000
00b7
cafe
3c1f
0000
0000
00bd
cafe
201f
0000
0000
00ac
cafe
241f
0000
0000
00b3
cafe
281f
0000
0000
00b8
cafe
2c1f
0000
0000
00b2
cafe
301f
0000
0000
00b9
cafe
341f
0000
0000
00b6
cafe
381f
0000
0000
00ba
cafe
3c1f
0000
0000
00c0
cafe
201f
0000
0000
-
00bc
cafe
241f
0000
0000
00c9
cafe
281f
0000
0000
00c0
cafe
2c1f
0000
0000
00c0
cafe
301f
0000
0000
00bc
cafe
341f
0000
0000
00ae
cafe
381f
0000
0000
00bb
cafe
3c1f
0000
0000
00b3
cafe
201f
0000
0000
00bd
cafe
241f
0000
0000
00b9
cafe
281f
0000
0000
00bd
cafe
2c1f
0000
0000
00be
cafe
301f
0000
0000
00ba
cafe
341f
0000
0000
00c0
cafe
381f
0000
0000
00bf
cafe
3c1f
0000
0000
00b0
cafe
201f
0000
0000
00d0
cafe
241f
0000
0000
00c5
cafe
281f
0000
0000
00c3
cafe
2c1f
0000
0000
00c2
cafe
301f
0000
0000
00be
cafe
341f
0000
0000
00cf
cafe
381f
0000
0000
00be
cafe
3c1f
0000
0000
00b1
cafe
201f
0000
0000
00c3
cafe
241f
0000
0000
00b3
cafe
281f
0000
0000
00b7
cafe
2c1f
0000
0000
00ad
cafe
301f
0000
0000
00ac
cafe
341f
0000
0000
00b0
cafe
381f
0000
0000
00b8
cafe
3c1f
0000
0000
00b4
cafe
201f
0000
0000
00b8
cafe
241f
0000
0000
00be
cafe
281f
0000
0000
00ba
cafe
2c1f
0000
0000
00c2
cafe
301f
0000
0000
00c3
cafe
341f
0000
0000
00c3
cafe
381f
0000
0000
00b7
cafe
3c1f
0000
0000
00c7
cafe
201f
0000
0000
00c5
cafe
241f
0000
0000
00c4
cafe
281f
0000
0000
00c9
cafe
2c1f
0000
0000
00c2
cafe
301f
0000
0000
00c4
cafe
341f
0000
0000
00cd
cafe
381f
0000
0000
00cb
cafe
3c1f
0000
0000
00d0
cafe
201f
0000
0000
00c7
cafe
241f
0000
0000
00c9
cafe
281f
0000
0000
00be
cafe
2c1f
0000
0000
00bd
-
cafe
301f
0000
0000
00cc
cafe
341f
0000
0000
00bf
cafe
381f
0000
0000
00c0
cafe
3c1f
0000
0000
00c3
cafe
201f
0000
0000
00bb
cafe
241f
0000
0000
00bf
cafe
281f
0000
0000
00be
cafe
2c1f
0000
0000
00ce
cafe
301f
0000
0000
00c2
cafe
341f
0000
0000
00bf
cafe
381f
0000
0000
00ca
cafe
3c1f
0000
0000
00ba
cafe
201f
0000
0000
00c3
cafe
241f
0000
0000
00b7
cafe
281f
0000
0000
00c2
cafe
2c1f
0000
0000
00c7
cafe
301f
0000
0000
00bc
cafe
341f
0000
0000
00c3
cafe
381f
0000
0000
00be
cafe
3c1f
0000
0000
00bd
cafe
201f
0000
0000
00bd
cafe
241f
0000
0000
00a3
cafe
281f
0000
0000
00b8
cafe
2c1f
0000
0000
00b9
cafe
301f
0000
0000
00bb
cafe
341f
0000
0000
00c3
cafe
381f
0000
0000
00c2
cafe
3c1f
0000
0000
00cc
cafe
201f
0000
0000
00ce
cafe
241f
0000
0000
00d6
cafe
281f
0000
0000
00e1
cafe
2c1f
0000
0000
00d7
cafe
301f
0000
0000
00d2
cafe
341f
0000
0000
00d5
cafe
381f
0000
0000
00c9
cafe
3c1f
0000
0000
00cb
cafe
201f
0000
0000
00d1
cafe
241f
0000
0000
00c3
cafe
281f
0000
0000
00be
cafe
2c1f
0000
0000
00bf
cafe
301f
0000
0000
00bd
cafe
341f
0000
0000
00c3
cafe
381f
0000
0000
00bd
cafe
3c1f
0000
0000
0000
cafe
201f
0000
0000
0000
cafe
241f
0000
0000
0000
cafe
281f
0000
0000
0000
cafe
2c1f
0000
0000
0000
cafe
301f
0000
0000
0000
cafe
341f
0000
0000
0000
cafe
381f
0000
0000
0000
cafe
-
3c1f
0000
0000
0000
cafe
201f
0000
0000
0000
cafe
241f
0000
0000
0000
cafe
281f
0000
0000
0000
cafe
2c1f
0000
0000
0000
cafe
301f
0000
0000
0000
cafe
341f
0000
0000
0000
cafe
381f
0000
0000
0011
cafe
3c1f
0000
0000
0011
cafe
201f
0000
0000
0024
cafe
241f
0000
0000
0038
cafe
281f
0000
0000
0045
cafe
2c1f
0000
0000
0051
cafe
301f
0000
0000
0058
cafe
341f
0000
0000
0067
cafe
381f
0000
0000
006c
cafe
3c1f
0000
0000
0067
cafe
201f
0000
0000
0082
cafe
241f
0000
0000
0085
cafe
281f
0000
0000
008a
cafe
2c1f
0000
0000
008c
cafe
301f
0000
0000
0097
cafe
341f
0000
0000
009e
cafe
381f
0000
0000
0099
cafe
3c1f
0000
0000
00a5
cafe
201f
0000
0000
00ae
cafe
241f
0000
0000
00ab
cafe
281f
0000
0000
00b7
cafe
2c1f
0000
0000
00b2
cafe
301f
0000
0000
00bd
cafe
341f
0000
0000
00c1
cafe
381f
0000
0000
00cc
cafe
3c1f
0000
0000
00d1
cafe
201f
0000
0000
00da
cafe
241f
0000
0000
00e0
cafe
281f
0000
0000
00dc
cafe
2c1f
0000
0000
00e0
cafe
301f
0000
0000
00e7
cafe
341f
0000
0000
00e5
cafe
381f
0000
0000
00d5
cafe
3c1f
0000
0000
00ea
cafe
201f
0000
0000
00e4
cafe
241f
0000
0000
00db
cafe
281f
0000
0000
00ec
cafe
2c1f
0000
0000
00ee
cafe
301f
0000
0000
00eb
cafe
341f
0000
0000
00f2
cafe
381f
0000
0000
00f6
cafe
3c1f
0000
0000
0106
cafe
201f
0000
0000
00f1
cafe
241f
0000
0000
0102
cafe
281f
-
0000
0000
00fb
cafe
2c1f
0000
0000
00f4
cafe
301f
0000
0000
00fb
cafe
341f
0000
0000
00f4
cafe
381f
0000
0000
00f9
cafe
3c1f
0000
0000
00f7
cafe
201f
0000
0000
00f6
cafe
241f
0000
0000
00ef
cafe
281f
0000
0000
00ea
cafe
2c1f
0000
0000
00f2
cafe
301f
0000
0000
00e4
cafe
341f
0000
0000
00d6
cafe
381f
0000
0000
00e4
cafe
3c1f
0000
0000
00dc
cafe
201f
0000
0000
00da
cafe
241f
0000
0000
00e0
cafe
281f
0000
0000
00e0
cafe
2c1f
0000
0000
00e5
cafe
301f
0000
0000
00e4
cafe
341f
0000
0000
00ea
cafe
381f
0000
0000
00ea
cafe
3c1f
0000
0000
00ed
cafe
201f
0000
0000
00e7
cafe
241f
0000
0000
00de
cafe
281f
0000
0000
00e6
cafe
2c1f
0000
0000
00ed
cafe
301f
0000
0000
00e8
cafe
341f
0000
0000
00eb
cafe
381f
0000
0000
00e8
cafe
3c1f
0000
0000
00f0
cafe
201f
0000
0000
00ee
cafe
241f
0000
0000
00f7
cafe
281f
0000
0000
0105
cafe
2c1f
0000
0000
00f9
cafe
301f
0000
0000
00f1
cafe
341f
0000
0000
00f0
cafe
381f
0000
0000
00ec
cafe
3c1f
0000
0000
00e4
cafe
201f
0000
0000
00ee
cafe
241f
0000
0000
00e6
cafe
281f
0000
0000
00da
cafe
2c1f
0000
0000
00e9
cafe
301f
0000
0000
00e0
cafe
341f
0000
0000
00dc
cafe
381f
0000
0000
00dc
cafe
3c1f
0000
0000
00db
cafe
201f
0000
0000
00c6
cafe
241f
0000
0000
00d2
cafe
281f
0000
0000
00d3
cafe
2c1f
0000
0000
00cd
cafe
301f
0000
0000
00d0
cafe
341f
0000
-
0000
00d2
cafe
381f
0000
0000
00d7
cafe
3c1f
0000
0000
00e2
cafe
201f
0000
0000
00e3
cafe
241f
0000
0000
00f5
cafe
281f
0000
0000
00e7
cafe
2c1f
0000
0000
00f2
cafe
301f
0000
0000
00ec
cafe
341f
0000
0000
00eb
cafe
381f
0000
0000
00f4
cafe
3c1f
0000
0000
00f2
cafe
201f
0000
0000
00f7
cafe
241f
0000
0000
00fb
cafe
281f
0000
0000
00fa
cafe
2c1f
0000
0000
00f6
cafe
301f
0000
0000
00f2
cafe
341f
0000
0000
00f7
cafe
381f
0000
0000
00e9
cafe
3c1f
0000
0000
00d8
cafe
201f
0000
0000
00e9
cafe
241f
0000
0000
00e4
cafe
281f
0000
0000
00e7
cafe
2c1f
0000
0000
00e1
cafe
301f
0000
0000
00e4
cafe
341f
0000
0000
00e9
cafe
381f
0000
0000
00ec
cafe
3c1f
0000
0000
00f2
cafe
201f
0000
0000
00f4
cafe
241f
0000
0000
00ee
cafe
281f
0000
0000
00f6
cafe
2c1f
0000
0000
00e7
cafe
301f
0000
0000
00e6
cafe
341f
0000
0000
00e5
cafe
381f
0000
0000
00e0
cafe
3c1f
0000
0000
00db
cafe
201f
0000
0000
00ea
cafe
241f
0000
0000
00e4
cafe
281f
0000
0000
00df
cafe
2c1f
0000
0000
00dd
cafe
301f
0000
0000
00e2
cafe
341f
0000
0000
00e1
cafe
381f
0000
0000
00d1
cafe
3c1f
0000
0000
00de
cafe
201f
0000
0000
00da
cafe
241f
0000
0000
00d6
cafe
281f
0000
0000
00de
cafe
2c1f
0000
0000
00da
cafe
301f
0000
0000
00d8
cafe
341f
0000
0000
00dc
cafe
381f
0000
0000
00df
cafe
3c1f
0000
0000
00df
cafe
201f
0000
0000
-
00d9
cafe
241f
0000
0000
00db
cafe
281f
0000
0000
00d4
cafe
2c1f
0000
0000
00d3
cafe
301f
0000
0000
00d8
cafe
341f
0000
0000
00cd
cafe
381f
0000
0000
00d3
cafe
3c1f
0000
0000
00d4
cafe
201f
0000
0000
00d6
cafe
241f
0000
0000
00d4
cafe
281f
0000
0000
00d2
cafe
2c1f
0000
0000
00de
cafe
301f
0000
0000
00cf
cafe
341f
0000
0000
00cc
cafe
381f
0000
0000
00d9
cafe
3c1f
0000
0000
00d0
cafe
201f
0000
0000
00d6
cafe
241f
0000
0000
00d7
cafe
281f
0000
0000
00d4
cafe
2c1f
0000
0000
00ce
cafe
301f
0000
0000
00d4
cafe
341f
0000
0000
00d5
cafe
381f
0000
0000
00cc
cafe
3c1f
0000
0000
00d1
cafe
201f
0000
0000
00d9
cafe
241f
0000
0000
00ca
cafe
281f
0000
0000
00cb
cafe
2c1f
0000
0000
00d5
cafe
301f
0000
0000
00d0
cafe
341f
0000
0000
00cc
cafe
381f
0000
0000
00cf
cafe
3c1f
0000
0000
00ce
cafe
201f
0000
0000
00c4
cafe
241f
0000
0000
00c5
cafe
281f
0000
0000
00d0
cafe
2c1f
0000
0000
00cf
cafe
301f
0000
0000
00c4
cafe
341f
0000
0000
00d3
cafe
381f
0000
0000
00d0
cafe
3c1f
0000
0000
00cf
cafe
201f
0000
0000
00d9
cafe
241f
0000
0000
00d7
cafe
281f
0000
0000
00dc
cafe
2c1f
0000
0000
00d7
cafe
301f
0000
0000
00d2
cafe
341f
0000
0000
00d4
cafe
381f
0000
0000
00d0
cafe
3c1f
0000
0000
00d8
cafe
201f
0000
0000
00be
cafe
241f
0000
0000
00cb
cafe
281f
0000
0000
00d0
cafe
2c1f
0000
0000
00c8
-
cafe
301f
0000
0000
00cc
cafe
341f
0000
0000
00c9
cafe
381f
0000
0000
00cd
cafe
3c1f
0000
0000
00d0
cafe
201f
0000
0000
00ce
cafe
241f
0000
0000
00da
cafe
281f
0000
0000
00ca
cafe
2c1f
0000
0000
00d0
cafe
301f
0000
0000
00d5
cafe
341f
0000
0000
00c8
cafe
381f
0000
0000
00cf
cafe
3c1f
0000
0000
00ce
cafe
201f
0000
0000
00d4
cafe
241f
0000
0000
00d2
cafe
281f
0000
0000
00dc
cafe
2c1f
0000
0000
00d7
cafe
301f
0000
0000
00d0
cafe
341f
0000
0000
00d0
cafe
381f
0000
0000
00ce
cafe
3c1f
0000
0000
00c0
cafe
201f
0000
0000
00cd
cafe
241f
0000
0000
00c8
cafe
281f
0000
0000
00c9
cafe
2c1f
0000
0000
00c4
cafe
301f
0000
0000
00c8
cafe
341f
0000
0000
00c6
cafe
381f
0000
0000
00c8
cafe
3c1f
0000
0000
00cb
cafe
201f
0000
0000
00cd
cafe
241f
0000
0000
00c6
cafe
281f
0000
0000
00c0
cafe
2c1f
0000
0000
00cd
cafe
301f
0000
0000
00c4
cafe
341f
0000
0000
00cd
cafe
381f
0000
0000
00d3
cafe
3c1f
0000
0000
00ca
cafe
201f
0000
0000
00d4
cafe
241f
0000
0000
00d7
cafe
281f
0000
0000
00d7
cafe
2c1f
0000
0000
00d8
cafe
301f
0000
0000
00e0
cafe
341f
0000
0000
00d8
cafe
381f
0000
0000
00c0
cafe
3c1f
0000
0000
00d3
cafe
201f
0000
0000
00c5
cafe
241f
0000
0000
00bb
cafe
281f
0000
0000
00bc
cafe
2c1f
0000
0000
00ac
cafe
301f
0000
0000
00a9
cafe
341f
0000
0000
00a6
cafe
381f
0000
0000
00a5
cafe
-
3c1f
0000
0000
00ad
cafe
201f
0000
0000
00a4
cafe
241f
0000
0000
00b1
cafe
281f
0000
0000
00a3
cafe
2c1f
0000
0000
00a8
cafe
301f
0000
0000
00af
cafe
341f
0000
0000
00ac
cafe
381f
0000
0000
00b2
cafe
3c1f
0000
0000
00b9
cafe
201f
0000
0000
00be
cafe
241f
0000
0000
00bd
cafe
281f
0000
0000
00c5
cafe
2c1f
0000
0000
00d0
cafe
301f
0000
0000
00d2
cafe
341f
0000
0000
00ca
cafe
381f
0000
0000
00d9
cafe
3c1f
0000
0000
00d3
cafe
201f
0000
0000
00c9
cafe
241f
0000
0000
00cb
cafe
281f
0000
0000
00cd
cafe
2c1f
0000
0000
00c7
cafe
301f
0000
0000
00cc
cafe
341f
0000
0000
00d1
cafe
381f
0000
0000
00d5
cafe
3c1f
0000
0000
00d8
cafe
201f
0000
0000
00dc
cafe
241f
0000
0000
00c8
cafe
281f
0000
0000
00d1
cafe
2c1f
0000
0000
00d3
cafe
301f
0000
0000
00c7
cafe
341f
0000
0000
00c2
cafe
381f
0000
0000
00c6
cafe
3c1f
0000
0000
00c4
cafe
201f
0000
0000
00c4
cafe
241f
0000
0000
00c7
cafe
281f
0000
0000
00cc
cafe
2c1f
0000
0000
00c1
cafe
301f
0000
0000
00b2
cafe
341f
0000
0000
00b7
cafe
381f
0000
0000
00ae
cafe
3c1f
0000
0000
00b0
cafe
201f
0000
0000
00b7
cafe
241f
0000
0000
00af
cafe
281f
0000
0000
00b9
cafe
2c1f
0000
0000
00b9
cafe
301f
0000
0000
00bc
cafe
341f
0000
0000
00c0
cafe
381f
0000
0000
00bc
cafe
3c1f
0000
0000
00c7
cafe
201f
0000
0000
00ad
cafe
241f
0000
0000
00c8
cafe
281f
-
0000
0000
00c9
cafe
2c1f
0000
0000
00c3
cafe
301f
0000
0000
00c3
cafe
341f
0000
0000
00c7
cafe
381f
0000
0000
00d0
cafe
3c1f
0000
0000
00cd
cafe
201f
0000
0000
00cd
cafe
241f
0000
0000
00d8
cafe
281f
0000
0000
00c5
cafe
2c1f
0000
0000
00c7
cafe
301f
0000
0000
00bd
cafe
341f
0000
0000
00a8
cafe
381f
0000
0000
00b0
cafe
3c1f
0000
0000
00a9
cafe
201f
0000
0000
00a8
cafe
241f
0000
0000
00aa
cafe
281f
0000
0000
00ad
cafe
2c1f
0000
0000
00a7
cafe
301f
0000
0000
00aa
cafe
341f
0000
0000
00b2
cafe
381f
0000
0000
00ac
cafe
3c1f
0000
0000
009e
cafe
201f
0000
0000
00b3
cafe
241f
0000
0000
00b5
cafe
281f
0000
0000
00b8
cafe
2c1f
0000
0000
00bb
cafe
301f
0000
0000
00be
cafe
341f
0000
0000
00b5
cafe
381f
0000
0000
00c1
cafe
3c1f
0000
0000
00c8
cafe
201f
0000
0000
00d1
cafe
241f
0000
0000
00c7
cafe
281f
0000
0000
00c8
cafe
2c1f
0000
0000
00c5
cafe
301f
0000
0000
00c1
cafe
341f
0000
0000
00cc
cafe
381f
0000
0000
00cf
cafe
3c1f
0000
0000
00c8
cafe
201f
0000
0000
00d1
cafe
241f
0000
0000
00cd
cafe
281f
0000
0000
00d1
cafe
2c1f
0000
0000
00d3
cafe
301f
0000
0000
00dd
cafe
341f
0000
0000
00d7
cafe
381f
0000
0000
00ba
cafe
3c1f
0000
0000
00d0
cafe
201f
0000
0000
00c4
cafe
241f
0000
0000
00c0
cafe
281f
0000
0000
00c4
cafe
2c1f
0000
0000
00c0
cafe
301f
0000
0000
00c8
cafe
341f
0000
-
0000
00c5
cafe
381f
0000
0000
00c8
cafe
3c1f
0000
0000
00ce
cafe
201f
0000
0000
00c3
cafe
241f
0000
0000
00d3
cafe
281f
0000
0000
00c4
cafe
2c1f
0000
0000
00c0
cafe
301f
0000
0000
00ca
cafe
341f
0000
0000
00c3
cafe
381f
0000
0000
00c1
cafe
3c1f
0000
0000
00c5
cafe
201f
0000
0000
00cc
cafe
241f
0000
0000
00c8
cafe
281f
0000
0000
00ca
cafe
2c1f
0000
0000
00d6
cafe
301f
0000
0000
00cd
cafe
341f
0000
0000
00c2
cafe
381f
0000
0000
00d3
cafe
3c1f
0000
0000
00ca
cafe
201f
0000
0000
00c5
cafe
241f
0000
0000
00bd
cafe
281f
0000
0000
00c0
cafe
2c1f
0000
0000
00bc
cafe
301f
0000
0000
00c7
cafe
341f
0000
0000
00c2
cafe
381f
0000
0000
00c3
cafe
3c1f
0000
0000
00bf
cafe
201f
0000
0000
00c6
cafe
241f
0000
0000
00ba
cafe
281f
0000
0000
00c0
cafe
2c1f
0000
0000
00cb
cafe
301f
0000
0000
00cb
cafe
341f
0000
0000
00c3
cafe
381f
0000
0000
00d0
cafe
3c1f
0000
0000
00c9
cafe
201f
0000
0000
00ca
cafe
241f
0000
0000
00cd
cafe
281f
0000
0000
00d6
cafe
2c1f
0000
0000
00cd
cafe
301f
0000
0000
00c1
cafe
341f
0000
0000
00d1
cafe
381f
0000
0000
00c4
cafe
3c1f
0000
0000
00c2
cafe
201f
0000
0000
00cc
cafe
241f
0000
0000
00cb
cafe
281f
0000
0000
00d5
cafe
2c1f
0000
0000
00d8
cafe
301f
0000
0000
00db
cafe
341f
0000
0000
00d7
cafe
381f
0000
0000
00de
cafe
3c1f
0000
0000
00e1
cafe
201f
0000
0000
-
00c8
cafe
241f
0000
0000
00db
cafe
281f
0000
0000
00d6
cafe
2c1f
0000
0000
00cf
cafe
301f
0000
0000
00d7
cafe
341f
0000
0000
00d2
cafe
381f
0000
0000
00d0
cafe
3c1f
0000
0000
00cb
cafe
201f
0000
0000
00c4
cafe
241f
0000
0000
00ce
cafe
281f
0000
0000
00bf
cafe
2c1f
0000
0000
00c0
cafe
301f
0000
0000
00bb
cafe
341f
0000
0000
00b8
cafe
381f
0000
0000
00b9
cafe
3c1f
0000
0000
00b9
cafe
201f
0000
0000
00ba
cafe
241f
0000
0000
00b7
cafe
281f
0000
0000
00c2
cafe
2c1f
0000
0000
00c1
cafe
301f
0000
0000
00bf
cafe
341f
0000
0000
00c4
cafe
381f
0000
0000
00c7
cafe
3c1f
0000
0000
00b4
cafe
201f
0000
0000
00c5
cafe
241f
0000
0000
00ca
cafe
281f
0000
0000
00cc
cafe
2c1f
0000
0000
00c5
cafe
301f
0000
0000
00d0
cafe
341f
0000
0000
00d0
cafe
381f
0000
0000
00d8
cafe
3c1f
0000
0000
00da
cafe
201f
0000
0000
00df
cafe
241f
0000
0000
00d6
cafe
281f
0000
0000
00d7
cafe
2c1f
0000
0000
00d5
cafe
301f
0000
0000
00cb
cafe
341f
0000
0000
00cc
cafe
381f
0000
0000
00cb
cafe
3c1f
0000
0000
00c3
cafe
201f
0000
0000
00c8
cafe
241f
0000
0000
00be
cafe
281f
0000
0000
00c1
cafe
2c1f
0000
0000
00be
cafe
301f
0000
0000
00c7
cafe
341f
0000
0000
00be
cafe
381f
0000
0000
00a8
cafe
3c1f
0000
0000
00bb
cafe
201f
0000
0000
00af
cafe
241f
0000
0000
00ac
cafe
281f
0000
0000
00b0
cafe
2c1f
0000
0000
00ac
-
cafe
301f
0000
0000
00b1
cafe
341f
0000
0000
00ab
cafe
381f
0000
0000
00b0
cafe
3c1f
0000
0000
00b3
cafe
201f
0000
0000
00a6
cafe
241f
0000
0000
00b2
cafe
281f
0000
0000
00a6
cafe
2c1f
0000
0000
00b3
cafe
301f
0000
0000
00b9
cafe
341f
0000
0000
00b8
cafe
381f
0000
0000
00bc
cafe
3c1f
0000
0000
00bc
cafe
201f
0000
0000
00c2
cafe
241f
0000
0000
00bf
cafe
281f
0000
0000
00c8
cafe
2c1f
0000
0000
00d2
cafe
301f
0000
0000
00d0
cafe
341f
0000
0000
00c9
cafe
381f
0000
0000
00da
cafe
3c1f
0000
0000
00d3
cafe
201f
0000
0000
00d3
cafe
241f
0000
0000
00ce
cafe
281f
0000
0000
00ca
cafe
2c1f
0000
0000
00bd
cafe
301f
0000
0000
00c1
cafe
341f
0000
0000
00b8
cafe
381f
0000
0000
00b6
cafe
3c1f
0000
0000
00b4
cafe
201f
0000
0000
00b8
cafe
241f
0000
0000
00a8
cafe
281f
0000
0000
00ac
cafe
2c1f
0000
0000
00b1
cafe
301f
0000
0000
00ac
cafe
341f
0000
0000
00aa
cafe
381f
0000
0000
00ad
cafe
3c1f
0000
0000
00b0
cafe
201f
0000
0000
00b5
cafe
241f
0000
0000
00b5
cafe
281f
0000
0000
00c2
cafe
2c1f
0000
0000
00bc
cafe
301f
0000
0000
00ba
cafe
341f
0000
0000
00cc
cafe
381f
0000
0000
00be
cafe
3c1f
0000
0000
00ca
cafe
201f
0000
0000
00cf
cafe
241f
0000
0000
00cb
cafe
281f
0000
0000
00d8
cafe
2c1f
0000
0000
00d2
cafe
301f
0000
0000
00d2
cafe
341f
0000
0000
00d2
cafe
381f
0000
0000
00d3
cafe
-
3c1f
0000
0000
00d5
cafe
201f
0000
0000
00be
cafe
241f
0000
0000
00d0
cafe
281f
0000
0000
00ce
cafe
2c1f
0000
0000
00ce
cafe
301f
0000
0000
00c6
cafe
341f
0000
0000
00c0
cafe
381f
0000
0000
00c3
cafe
3c1f
0000
0000
00c4
cafe
201f
0000
0000
00c7
cafe
241f
0000
0000
00c8
cafe
281f
0000
0000
00c0
cafe
2c1f
0000
0000
00ca
cafe
301f
0000
0000
00c9
cafe
341f
0000
0000
00c6
cafe
381f
0000
0000
00c6
cafe
3c1f
0000
0000
00c9
cafe
201f
0000
0000
00c6
cafe
241f
0000
0000
00c5
cafe
281f
0000
0000
00ca
cafe
2c1f
0000
0000
00c8
cafe
301f
0000
0000
00c8
cafe
341f
0000
0000
00ca
cafe
381f
0000
0000
00d1
cafe
3c1f
0000
0000
00bb
cafe
201f
0000
0000
00c7
cafe
241f
0000
0000
00c7
cafe
281f
0000
0000
00ba
cafe
2c1f
0000
0000
00c2
cafe
301f
0000
0000
00c1
cafe
341f
0000
0000
00be
cafe
381f
0000
0000
00c2
cafe
3c1f
0000
0000
00c6
cafe
201f
0000
0000
00d0
cafe
241f
0000
0000
00c6
cafe
281f
0000
0000
00cf
cafe
2c1f
0000
0000
00c7
cafe
301f
0000
0000
00b9
cafe
341f
0000
0000
00c0
cafe
381f
0000
0000
00c4
cafe
3c1f
0000
0000
00ba
cafe
201f
0000
0000
00b9
cafe
241f
0000
0000
00b7
cafe
281f
0000
0000
00b9
cafe
2c1f
0000
0000
00b4
cafe
301f
0000
0000
00bd
cafe
341f
0000
0000
00b6
cafe
381f
0000
0000
00a3
cafe
3c1f
0000
0000
00b8
cafe
201f
0000
0000
00b1
cafe
241f
0000
0000
00a9
cafe
281f
-
0000
0000
00ad
cafe
2c1f
0000
0000
00ad
cafe
301f
0000
0000
00ae
cafe
341f
0000
0000
00a9
cafe
381f
0000
0000
00b0
cafe
3c1f
0000
0000
00b5
cafe
201f
0000
0000
00b0
cafe
241f
0000
0000
00b6
cafe
281f
0000
0000
00ab
cafe
2c1f
0000
0000
00ae
cafe
301f
0000
0000
00b2
cafe
341f
0000
0000
00b2
cafe
381f
0000
0000
00b2
cafe
3c1f
0000
0000
00b5
cafe
201f
0000
0000
00c0
cafe
241f
0000
0000
00b9
cafe
281f
0000
0000
00be
cafe
2c1f
0000
0000
00ca
cafe
301f
0000
0000
00c0
cafe
341f
0000
0000
00b3
cafe
381f
0000
0000
00bc
cafe
3c1f
0000
0000
00af
cafe
201f
0000
0000
00ae
cafe
241f
0000
0000
00ad
cafe
281f
0000
0000
00a8
cafe
2c1f
0000
0000
00ac
cafe
301f
0000
0000
00b3
cafe
341f
0000
0000
00af
cafe
381f
0000
0000
00b2
cafe
3c1f
0000
0000
00b3
cafe
201f
0000
0000
00bc
cafe
241f
0000
0000
00b4
cafe
281f
0000
0000
00ba
cafe
2c1f
0000
0000
00c5
cafe
301f
0000
0000
00bf
cafe
341f
0000
0000
00c2
cafe
381f
0000
0000
00c4
cafe
3c1f
0000
0000
00c2
cafe
201f
0000
0000
00d0
cafe
241f
0000
0000
00d1
cafe
281f
0000
0000
00da
cafe
2c1f
0000
0000
00cc
cafe
301f
0000
0000
00c5
cafe
341f
0000
0000
00cd
cafe
381f
0000
0000
00b7
cafe
3c1f
0000
0000
00c0
cafe
201f
0000
0000
00bd
cafe
241f
0000
0000
00bb
cafe
281f
0000
0000
00c0
cafe
2c1f
0000
0000
00bc
cafe
301f
0000
0000
00c3
cafe
341f
0000
-
0000
00c0
cafe
381f
0000
0000
00bc
cafe
3c1f
0000
0000
00bf
cafe
201f
0000
0000
00a3
cafe
241f
0000
0000
00bc
cafe
281f
0000
0000
00b6
cafe
2c1f
0000
0000
00b0
cafe
301f
0000
0000
00b7
cafe
341f
0000
0000
00b9
cafe
381f
0000
0000
00b7
cafe
3c1f
0000
0000
00b6
cafe
201f
0000
0000
00bc
cafe
241f
0000
0000
00bb
cafe
281f
0000
0000
00b0
cafe
2c1f
0000
0000
00b2
cafe
301f
0000
0000
00ac
cafe
341f
0000
0000
00a9
cafe
381f
0000
0000
00b0
cafe
3c1f
0000
0000
00b7
cafe
201f
0000
0000
00b7
cafe
241f
0000
0000
00bc
cafe
281f
0000
0000
00c9
cafe
2c1f
0000
0000
00c3
cafe
301f
0000
0000
00c6
cafe
341f
0000
0000
00cb
cafe
381f
0000
0000
00ce
cafe
3c1f
0000
0000
00bf
cafe
201f
0000
0000
00cc
cafe
241f
0000
0000
00ca
cafe
281f
0000
0000
00c4
cafe
2c1f
0000
0000
00c9
cafe
301f
0000
0000
00cc
cafe
341f
0000
0000
00c0
cafe
381f
0000
0000
00cb
cafe
3c1f
0000
0000
00c3
cafe
201f
0000
0000
00d2
cafe
241f
0000
0000
00c3
cafe
281f
0000
0000
00c7
cafe
2c1f
0000
0000
00bd
cafe
301f
0000
0000
00b8
cafe
341f
0000
0000
00ca
cafe
381f
0000
0000
00c0
cafe
3c1f
0000
0000
00c4
cafe
201f
0000
0000
00bc
cafe
241f
0000
0000
00bc
cafe
281f
0000
0000
00c2
cafe
2c1f
0000
0000
00c4
cafe
301f
0000
0000
00cf
cafe
341f
0000
0000
00c2
cafe
381f
0000
0000
00b1
cafe
3c1f
0000
0000
00c2
cafe
201f
0000
0000
-
00b4
cafe
241f
0000
0000
00b4
cafe
281f
0000
0000
00b9
cafe
2c1f
0000
0000
00bd
cafe
301f
0000
0000
00c4
cafe
341f
0000
0000
00c4
cafe
381f
0000
0000
00c3
cafe
3c1f
0000
0000
00c4
cafe
201f
0000
0000
00c0
cafe
241f
0000
0000
00cc
cafe
281f
0000
0000
00bc
cafe
2c1f
0000
0000
00c8
cafe
301f
0000
0000
00d0
cafe
341f
0000
0000
00ce
cafe
381f
0000
0000
00cc
cafe
3c1f
0000
0000
00cc
cafe
201f
0000
0000
00cb
cafe
241f
0000
0000
00c5
cafe
281f
0000
0000
00cc
cafe
2c1f
0000
0000
00c9
cafe
301f
0000
0000
00c1
cafe
341f
0000
0000
00b6
cafe
381f
0000
0000
00be
cafe
3c1f
0000
0000
00b5
cafe
201f
0000
0000
00ae
cafe
241f
0000
0000
00ae
cafe
281f
0000
0000
00b1
cafe
2c1f
0000
0000
00af
cafe
301f
0000
0000
00b5
cafe
341f
0000
0000
00b0
cafe
381f
0000
0000
00b0
cafe
3c1f
0000
0000
00ae
cafe
201f
0000
0000
00b5
cafe
241f
0000
0000
00a8
cafe
281f
0000
0000
00b3
cafe
2c1f
0000
0000
00be
cafe
301f
0000
0000
00bd
cafe
341f
0000
0000
00c1
cafe
381f
0000
0000
00c3
cafe
3c1f
0000
0000
00c0
cafe
201f
0000
0000
00c9
cafe
241f
0000
0000
00c1
cafe
281f
0000
0000
00d1
cafe
2c1f
0000
0000
00c0
cafe
301f
0000
0000
00c3
cafe
341f
0000
0000
00cf
cafe
381f
0000
0000
00ca
cafe
3c1f
0000
0000
00d7
cafe
201f
0000
0000
00d4
cafe
241f
0000
0000
00d2
cafe
281f
0000
0000
00d8
cafe
2c1f
0000
0000
00d1
-
cafe
301f
0000
0000
00d0
cafe
341f
0000
0000
00c2
cafe
381f
0000
0000
00c8
cafe
3c1f
0000
0000
00c9
cafe
201f
0000
0000
00b5
cafe
241f
0000
0000
00c6
cafe
281f
0000
0000
00c0
cafe
2c1f
0000
0000
00ba
cafe
301f
0000
0000
00b9
cafe
341f
0000
0000
00bf
cafe
381f
0000
0000
00bc
cafe
3c1f
0000
0000
00bf
cafe
201f
0000
0000
00c2
cafe
241f
0000
0000
00c9
cafe
281f
0000
0000
00c0
cafe
2c1f
0000
0000
00c1
cafe
301f
0000
0000
00b6
cafe
341f
0000
0000
00b8
cafe
381f
0000
0000
00c6
cafe
3c1f
0000
0000
00c1
cafe
201f
0000
0000
00c2
cafe
241f
0000
0000
00c1
cafe
281f
0000
0000
00c5
cafe
2c1f
0000
0000
00bc
cafe
301f
0000
0000
00c2
cafe
341f
0000
0000
00be
cafe
381f
0000
0000
00ba
cafe
3c1f
0000
0000
00a7
cafe
201f
0000
0000
00b7
cafe
241f
0000
0000
00be
cafe
281f
0000
0000
00b8
cafe
2c1f
0000
0000
00bc
cafe
301f
0000
0000
00bb
cafe
341f
0000
0000
00b7
cafe
381f
0000
0000
00b5
cafe
3c1f
0000
0000
00b0
cafe
201f
0000
0000
00ba
cafe
241f
0000
0000
00ac
cafe
281f
0000
0000
00bc
cafe
2c1f
0000
0000
00ae
cafe
301f
0000
0000
00a8
cafe
341f
0000
0000
00bc
cafe
381f
0000
0000
00b2
cafe
3c1f
0000
0000
00bb
cafe
201f
0000
0000
00be
cafe
241f
0000
0000
00bf
cafe
281f
0000
0000
00c0
cafe
2c1f
0000
0000
00bf
cafe
301f
0000
0000
00c9
cafe
341f
0000
0000
00c3
cafe
381f
0000
0000
00b0
cafe
-
3c1f
0000
0000
00cb
cafe
201f
0000
0000
00cb
cafe
241f
0000
0000
00c5
cafe
281f
0000
0000
00c8
cafe
2c1f
0000
0000
00ca
cafe
301f
0000
0000
00cc
cafe
341f
0000
0000
00cc
cafe
381f
0000
0000
00d1
cafe
3c1f
0000
0000
00d1
cafe
201f
0000
0000
00d2
cafe
241f
0000
0000
00d3
cafe
281f
0000
0000
00c3
cafe
2c1f
0000
0000
00c4
cafe
301f
0000
0000
00c7
cafe
341f
0000
0000
00c4
cafe
381f
0000
0000
00ba
cafe
3c1f
0000
0000
00b8
cafe
201f
0000
0000
00ba
cafe
241f
0000
0000
00af
cafe
281f
0000
0000
00b9
cafe
2c1f
0000
0000
00c0
cafe
301f
0000
0000
00bd
cafe
341f
0000
0000
00b6
cafe
381f
0000
0000
00c4
cafe
3c1f
0000
0000
00b9
cafe
201f
0000
0000
00b3
cafe
241f
0000
0000
00b8
cafe
281f
0000
0000
00b8
cafe
2c1f
0000
0000
00bb
cafe
301f
0000
0000
00bc
cafe
341f
0000
0000
00bd
cafe
381f
0000
0000
00bf
cafe
3c1f
0000
0000
00bb
cafe
201f
0000
0000
00c2
cafe
241f
0000
0000
00b5
cafe
281f
0000
0000
00c0
cafe
2c1f
0000
0000
00c4
cafe
301f
0000
0000
00bf
cafe
341f
0000
0000
00bf
cafe
381f
0000
0000
00bd
cafe
3c1f
0000
0000
00ba
cafe
201f
0000
0000
00c2
cafe
241f
0000
0000
00ba
cafe
281f
0000
0000
00c9
cafe
2c1f
0000
0000
00bb
cafe
301f
0000
0000
00b6
cafe
341f
0000
0000
00c0
cafe
381f
0000
0000
00b1
cafe
3c1f
0000
0000
00bb
cafe
201f
0000
0000
00b2
cafe
241f
0000
0000
00b3
cafe
281f
-
0000
0000
00b8
cafe
2c1f
0000
0000
00bd
cafe
301f
0000
0000
00c6
cafe
341f
0000
0000
00c5
cafe
381f
0000
0000
00ce
cafe
3c1f
0000
0000
00d1
cafe
201f
0000
0000
00b8
cafe
241f
0000
0000
00c8
cafe
281f
0000
0000
00bc
cafe
2c1f
0000
0000
00c2
cafe
301f
0000
0000
00c3
cafe
341f
0000
0000
00c2
cafe
381f
0000
0000
00c3
cafe
3c1f
0000
0000
00c8
cafe
201f
0000
0000
00d0
cafe
241f
0000
0000
00d0
cafe
281f
0000
0000
00d0
cafe
2c1f
0000
0000
00d5
cafe
301f
0000
0000
00d1
cafe
341f
0000
0000
00d2
cafe
381f
0000
0000
00d2
cafe
3c1f
0000
0000
00d4
cafe
201f
0000
0000
00cc
cafe
241f
0000
0000
00d0
cafe
281f
0000
0000
00ce
cafe
2c1f
0000
0000
00cd
cafe
301f
0000
0000
00d1
cafe
341f
0000
0000
00cf
cafe
381f
0000
0000
00cc
cafe
3c1f
0000
0000
00ba
cafe
201f
0000
0000
00c8
cafe
241f
0000
0000
00c3
cafe
281f
0000
0000
00ae
cafe
2c1f
0000
0000
00b7
cafe
301f
0000
0000
00b4
cafe
341f
0000
0000
00b5
cafe
381f
0000
0000
00b8
cafe
3c1f
0000
0000
00b4
cafe
201f
0000
0000
00bd
cafe
241f
0000
0000
00b0
cafe
281f
0000
0000
00b8
cafe
2c1f
0000
0000
00af
cafe
301f
0000
0000
00ac
cafe
341f
0000
0000
00b9
cafe
381f
0000
0000
00b2
cafe
3c1f
0000
0000
00b6
cafe
201f
0000
0000
00bb
cafe
241f
0000
0000
00b9
cafe
281f
0000
0000
00b9
cafe
2c1f
0000
0000
00b3
cafe
301f
0000
0000
00cf
cafe
341f
0000
-
0000
00c5
cafe
381f
0000
0000
00be
cafe
3c1f
0000
0000
00ce
cafe
201f
0000
0000
00c2
cafe
241f
0000
0000
00c8
cafe
281f
0000
0000
00c5
cafe
2c1f
0000
0000
00c4
cafe
301f
0000
0000
00c9
cafe
341f
0000
0000
00c4
cafe
381f
0000
0000
00c9
cafe
3c1f
0000
0000
00c9
cafe
201f
0000
0000
00ca
cafe
241f
0000
0000
00cb
cafe
281f
0000
0000
00bc
cafe
2c1f
0000
0000
00bf
cafe
301f
0000
0000
00bf
cafe
341f
0000
0000
00c0
cafe
381f
0000
0000
00c1
cafe
3c1f
0000
0000
00c8
cafe
201f
0000
0000
00c7
cafe
241f
0000
0000
00cb
cafe
281f
0000
0000
00cd
cafe
2c1f
0000
0000
00d6
cafe
301f
0000
0000
00c9
cafe
341f
0000
0000
00bb
cafe
381f
0000
0000
00c3
cafe
3c1f
0000
0000
00ba
cafe
201f
0000
0000
00b0
cafe
241f
0000
0000
00b8
cafe
281f
0000
0000
00b4
cafe
2c1f
0000
0000
00af
cafe
301f
0000
0000
00b8
cafe
341f
0000
0000
00ba
cafe
381f
0000
0000
00be
cafe
3c1f
0000
0000
00c1
cafe
201f
0000
0000
00ca
cafe
241f
0000
0000
00b7
cafe
281f
0000
0000
00c6
cafe
2c1f
0000
0000
00d6
cafe
301f
0000
0000
00d1
cafe
341f
0000
0000
00da
cafe
381f
0000
0000
00d6
cafe
3c1f
0000
0000
00d1
cafe
201f
0000
0000
00cc
cafe
241f
0000
0000
00cc
cafe
281f
0000
0000
00d4
cafe
2c1f
0000
0000
00ca
cafe
301f
0000
0000
00c7
cafe
341f
0000
0000
00be
cafe
381f
0000
0000
00b5
cafe
3c1f
0000
0000
00c3
cafe
201f
0000
0000
-
00b7
cafe
241f
0000
0000
00b8
cafe
281f
0000
0000
00b3
cafe
2c1f
0000
0000
00b3
cafe
301f
0000
0000
00b3
cafe
341f
0000
0000
00ac
cafe
381f
0000
0000
00b6
cafe
3c1f
0000
0000
00af
cafe
201f
0000
0000
009e
cafe
241f
0000
0000
00b5
cafe
281f
0000
0000
00b8
cafe
2c1f
0000
0000
00b8
cafe
301f
0000
0000
00b5
cafe
341f
0000
0000
00bf
cafe
381f
0000
0000
00c3
cafe
3c1f
0000
0000
00cd
cafe
201f
0000
0000
00d0
cafe
241f
0000
0000
00d7
cafe
281f
0000
0000
00cb
cafe
2c1f
0000
0000
00d8
cafe
301f
0000
0000
00d0
cafe
341f
0000
0000
00c7
cafe
381f
0000
0000
00cd
cafe
3c1f
0000
0000
00c9
cafe
201f
0000
0000
00c6
cafe
241f
0000
0000
00c3
cafe
281f
0000
0000
00c4
cafe
2c1f
0000
0000
00bb
cafe
301f
0000
0000
00c4
cafe
341f
0000
0000
00c9
cafe
381f
0000
0000
00be
cafe
3c1f
0000
0000
00a8
cafe
201f
0000
0000
00ba
cafe
241f
0000
0000
00b8
cafe
281f
0000
0000
00b2
cafe
2c1f
0000
0000
00ba
cafe
301f
0000
0000
00bc
cafe
341f
0000
0000
00c2
cafe
381f
0000
0000
00c4
cafe
3c1f
0000
0000
00c7
cafe
201f
0000
0000
00cd
cafe
241f
0000
0000
00bc
cafe
281f
0000
0000
00c3
cafe
2c1f
0000
0000
00b6
cafe
301f
0000
0000
00b3
cafe
341f
0000
0000
00c2
cafe
381f
0000
0000
00b8
cafe
3c1f
0000
0000
00b9
cafe
201f
0000
0000
00c0
cafe
241f
0000
0000
00c4
cafe
281f
0000
0000
00c3
cafe
2c1f
0000
0000
00c4
-
