2400
0000
0000
01a5
cafe
2800
0000
0000
01a4
cafe
2c00
0000
0000
01a4
cafe
3000
0000
0000
01a1
cafe
3400
0000
0000
01a0
cafe
3800
0000
0000
01a0
cafe
3c00
0000
0000
019e
cafe
2000
0000
0000
01a2
cafe
2400
0000
0000
01a1
cafe
2800
0000
0000
01a0
cafe
2c00
0000
0000
01a1
cafe
3000
0000
0000
019f
cafe
3400
0000
0000
019c
cafe
3800
0000
0000
01a0
cafe
3c00
0000
0000
019d
cafe
2000
0000
0000
019b
cafe
2400
0000
0000
01a0
cafe
2800
0000
0000
01a0
cafe
2c00
0000
0000
019e
cafe
3000
0000
0000
019a
cafe
3400
0000
0000
019a
cafe
3800
0000
0000
01a0
cafe
3c00
0000
0000
019e
cafe
2000
0000
0000
01a4
cafe
2400
0000
0000
01a4
cafe
2800
0000
0000
01a5
cafe
2c00
0000
0000
01a9
cafe
3000
0000
0000
01a9
cafe
3400
0000
0000
01a5
cafe
3800
0000
0000
01a5
cafe
3c00
0000
0000
019f
cafe
2000
0000
0000
01a3
cafe
2400
0000
0000
01a6
cafe
2800
0000
0000
01a4
cafe
2c00
0000
0000
019e
cafe
3000
0000
0000
019c
cafe
3400
0000
0000
019e
cafe
3800
0000
0000
01a6
cafe
3c00
0000
0000
01a1
cafe
2000
0000
0000
019c
cafe
2400
0000
0000
0198
cafe
2800
0000
0000
0198
cafe
2c00
0000
0000
019c
cafe
3000
0000
0000
0196
cafe
3400
0000
0000
0195
cafe
3800
0000
0000
0198
cafe
3c00
0000
0000
0196
cafe
2000
0000
0000
0199
cafe
2400
0000
0000
0196
cafe
2800
0000
0000
0196
cafe
2c00
0000
0000
019e
cafe
3000
-
0000
0000
019b
cafe
3400
0000
0000
019c
cafe
3800
0000
0000
019d
cafe
3c00
0000
0000
01a0
cafe
2000
0000
0000
01a1
cafe
2400
0000
0000
019d
cafe
2800
0000
0000
01a1
cafe
2c00
0000
0000
019b
cafe
3000
0000
0000
01a1
cafe
3400
0000
0000
019e
cafe
3800
0000
0000
01a2
cafe
3c00
0000
0000
01a1
cafe
2000
0000
0000
019e
cafe
2400
0000
0000
01a0
cafe
2800
0000
0000
019f
cafe
2c00
0000
0000
0195
cafe
3000
0000
0000
018f
cafe
3400
0000
0000
0195
cafe
3800
0000
0000
0198
cafe
3c00
0000
0000
0196
cafe
2000
0000
0000
019e
cafe
2400
0000
0000
0199
cafe
2800
0000
0000
019b
cafe
2c00
0000
0000
019a
cafe
3000
0000
0000
0197
cafe
3400
0000
0000
0196
cafe
3800
0000
0000
0195
cafe
3c00
0000
0000
0195
cafe
2000
0000
0000
0193
cafe
2400
0000
0000
019a
cafe
2800
0000
0000
019d
cafe
2c00
0000
0000
019d
cafe
3000
0000
0000
019d
cafe
3400
0000
0000
019f
cafe
3800
0000
0000
019f
cafe
3c00
0000
0000
01a8
cafe
2000
0000
0000
019f
cafe
2400
0000
0000
01a0
cafe
2800
0000
0000
01a0
cafe
2c00
0000
0000
019d
cafe
3000
0000
0000
019b
cafe
3400
0000
0000
0199
cafe
3800
0000
0000
0198
cafe
3c00
0000
0000
0195
cafe
2000
0000
0000
0191
cafe
2400
0000
0000
018e
cafe
2800
0000
0000
0190
cafe
2c00
0000
0000
018f
cafe
3000
0000
0000
0193
cafe
3400
0000
0000
0198
cafe
3800
0000
0000
0198
cafe
3c00
0000
-
0000
0196
cafe
2000
0000
0000
0191
cafe
2400
0000
0000
0192
cafe
2800
0000
0000
0193
cafe
2c00
0000
0000
0197
cafe
3000
0000
0000
0196
cafe
3400
0000
0000
0194
cafe
3800
0000
0000
0197
cafe
3c00
0000
0000
0199
cafe
2000
0000
0000
019e
cafe
2400
0000
0000
019b
cafe
2800
0000
0000
0198
cafe
2c00
0000
0000
0199
cafe
3000
0000
0000
019b
cafe
3400
0000
0000
0199
cafe
3800
0000
0000
019a
cafe
3c00
0000
0000
019b
cafe
2000
0000
0000
0199
cafe
2400
0000
0000
019e
cafe
2800
0000
0000
0195
cafe
2c00
0000
0000
019a
cafe
3000
0000
0000
019b
cafe
3400
0000
0000
0198
cafe
3800
0000
0000
019c
cafe
3c00
0000
0000
019d
cafe
2000
0000
0000
0198
cafe
2400
0000
0000
0199
cafe
2800
0000
0000
019c
cafe
2c00
0000
0000
01a0
cafe
3000
0000
0000
019c
cafe
3400
0000
0000
019e
cafe
3800
0000
0000
0199
cafe
3c00
0000
0000
019f
cafe
2000
0000
0000
019f
cafe
2400
0000
0000
019e
cafe
2800
0000
0000
019d
cafe
2c00
0000
0000
019d
cafe
3000
0000
0000
019d
cafe
3400
0000
0000
01a1
cafe
3800
0000
0000
019d
cafe
3c00
0000
0000
019f
cafe
2000
0000
0000
01a1
cafe
2400
0000
0000
01a1
cafe
2800
0000
0000
019d
cafe
2c00
0000
0000
01a8
cafe
3000
0000
0000
01a9
cafe
3400
0000
0000
01a8
cafe
3800
0000
0000
01a4
cafe
3c00
0000
0000
01a2
cafe
2000
0000
0000
01a0
cafe
2400
0000
0000
019e
cafe
2800
0000
0000
-
019f
cafe
2c00
0000
0000
019f
cafe
3000
0000
0000
01a4
cafe
3400
0000
0000
01a0
cafe
3800
0000
0000
019c
cafe
3c00
0000
0000
019b
cafe
2000
0000
0000
019d
cafe
2400
0000
0000
019f
cafe
2800
0000
0000
01a1
cafe
2c00
0000
0000
019e
cafe
3000
0000
0000
01a0
cafe
3400
0000
0000
019e
cafe
3800
0000
0000
01a0
cafe
3c00
0000
0000
01a2
cafe
2000
0000
0000
019d
cafe
2400
0000
0000
01a2
cafe
2800
0000
0000
01a2
cafe
2c00
0000
0000
01a2
cafe
3000
0000
0000
01aa
cafe
3400
0000
0000
01a7
cafe
3800
0000
0000
01a8
cafe
3c00
0000
0000
01a4
cafe
2000
0000
0000
01a8
cafe
2400
0000
0000
01a3
cafe
2800
0000
0000
01a4
cafe
2c00
0000
0000
01a1
cafe
3000
0000
0000
01a1
cafe
3400
0000
0000
01a3
cafe
3800
0000
0000
01a2
cafe
3c00
0000
0000
01a2
cafe
2000
0000
0000
01a1
cafe
2400
0000
0000
019f
cafe
2800
0000
0000
01a6
cafe
2c00
0000
0000
01a6
cafe
3000
0000
0000
01a6
cafe
3400
0000
0000
01a5
cafe
3800
0000
0000
01a4
cafe
3c00
0000
0000
01a2
cafe
2000
0000
0000
01a0
cafe
2400
0000
0000
01a4
cafe
2800
0000
0000
01a3
cafe
2c00
0000
0000
019d
cafe
3000
0000
0000
019c
cafe
3400
0000
0000
019a
cafe
3800
0000
0000
019b
cafe
3c00
0000
0000
019e
cafe
2000
0000
0000
01a3
cafe
2400
0000
0000
01a2
cafe
2800
0000
0000
019e
cafe
2c00
0000
0000
019f
cafe
3000
0000
0000
01a1
cafe
3400
0000
0000
01a4
-
cafe
3800
0000
0000
01a0
cafe
3c00
0000
0000
01a0
cafe
2000
0000
0000
01a2
cafe
2400
0000
0000
01a1
cafe
2800
0000
0000
01a3
cafe
2c00
0000
0000
01a2
cafe
3000
0000
0000
01a2
cafe
3400
0000
0000
01a6
cafe
3800
0000
0000
01a3
cafe
3c00
0000
0000
01a3
cafe
2000
0000
0000
019e
cafe
2400
0000
0000
019a
cafe
2800
0000
0000
019c
cafe
2c00
0000
0000
019e
cafe
3000
0000
0000
019c
cafe
3400
0000
0000
01a1
cafe
3800
0000
0000
019d
cafe
3c00
0000
0000
019b
cafe
2000
0000
0000
019f
cafe
2400
0000
0000
0196
cafe
2800
0000
0000
019d
cafe
2c00
0000
0000
019a
cafe
3000
0000
0000
0196
cafe
3400
0000
0000
0199
cafe
3800
0000
0000
0197
cafe
3c00
0000
0000
0193
cafe
2000
0000
0000
0198
cafe
2400
0000
0000
0196
cafe
2800
0000
0000
019b
cafe
2c00
0000
0000
019b
cafe
3000
0000
0000
019e
cafe
3400
0000
0000
0199
cafe
3800
0000
0000
01a0
cafe
3c00
0000
0000
019d
cafe
2000
0000
0000
01a4
cafe
2400
0000
0000
01a2
cafe
2800
0000
0000
01a0
cafe
2c00
0000
0000
019f
cafe
3000
0000
0000
01a6
cafe
3400
0000
0000
019c
cafe
3800
0000
0000
019b
cafe
3c00
0000
0000
0198
cafe
2000
0000
0000
0197
cafe
2400
0000
0000
0195
cafe
2800
0000
0000
0193
cafe
2c00
0000
0000
0199
cafe
3000
0000
0000
0194
cafe
3400
0000
0000
0192
cafe
3800
0000
0000
0191
cafe
3c00
0000
0000
0195
cafe
2000
0000
0000
0198
cafe
-
2400
0000
0000
0199
cafe
2800
0000
0000
019a
cafe
2c00
0000
0000
019d
cafe
3000
0000
0000
019c
cafe
3400
0000
0000
019d
cafe
3800
0000
0000
0199
cafe
3c00
0000
0000
019f
cafe
2000
0000
0000
01a5
cafe
2400
0000
0000
01a5
cafe
2800
0000
0000
01a5
cafe
2c00
0000
0000
01a8
cafe
3000
0000
0000
01a5
cafe
3400
0000
0000
01a9
cafe
3800
0000
0000
01ab
cafe
3c00
0000
0000
01a2
cafe
2000
0000
0000
019d
cafe
2400
0000
0000
019f
cafe
2800
0000
0000
019f
cafe
2c00
0000
0000
01a0
cafe
3000
0000
0000
01a1
cafe
3400
0000
0000
019c
cafe
3800
0000
0000
01a0
cafe
3c00
0000
0000
01a0
cafe
2000
0000
0000
01a2
cafe
2400
0000
0000
019d
cafe
2800
0000
0000
019f
cafe
2c00
0000
0000
019f
cafe
3000
0000
0000
019f
cafe
3400
0000
0000
01a2
cafe
3800
0000
0000
01a1
cafe
3c00
0000
0000
01a0
cafe
2000
0000
0000
01a3
cafe
2400
0000
0000
01a0
cafe
2800
0000
0000
01a0
cafe
2c00
0000
0000
01a3
cafe
3000
0000
0000
019d
cafe
3400
0000
0000
01a0
cafe
3800
0000
0000
01a8
cafe
3c00
0000
0000
01a6
cafe
2000
0000
0000
01a2
cafe
2400
0000
0000
01a6
cafe
2800
0000
0000
019d
cafe
2c00
0000
0000
019f
cafe
3000
0000
0000
019a
cafe
3400
0000
0000
019d
cafe
3800
0000
0000
019c
cafe
3c00
0000
0000
0197
cafe
2000
0000
0000
0196
cafe
2400
0000
0000
019b
cafe
2800
0000
0000
019c
cafe
2c00
0000
0000
0198
cafe
3000
-
0000
0000
0195
cafe
3400
0000
0000
0199
cafe
3800
0000
0000
0198
cafe
3c00
0000
0000
0199
cafe
2000
0000
0000
019e
cafe
2400
0000
0000
019a
cafe
2800
0000
0000
019f
cafe
2c00
0000
0000
019a
cafe
3000
0000
0000
0199
cafe
3400
0000
0000
019b
cafe
3800
0000
0000
019d
cafe
3c00
0000
0000
019c
cafe
2000
0000
0000
01a0
cafe
2400
0000
0000
01a0
cafe
2800
0000
0000
01a5
cafe
2c00
0000
0000
01aa
cafe
3000
0000
0000
01a7
cafe
3400
0000
0000
01a7
cafe
3800
0000
0000
01a3
cafe
3c00
0000
0000
019f
cafe
2000
0000
0000
01a3
cafe
2400
0000
0000
01a2
cafe
2800
0000
0000
01a4
cafe
2c00
0000
0000
01a4
cafe
3000
0000
0000
01a5
cafe
3400
0000
0000
019f
cafe
3800
0000
0000
01a0
cafe
3c00
0000
0000
019e
cafe
2000
0000
0000
019d
cafe
2400
0000
0000
019e
cafe
2800
0000
0000
019f
cafe
2c00
0000
0000
019b
cafe
3000
0000
0000
01a2
cafe
3400
0000
0000
01a7
cafe
3800
0000
0000
01a3
cafe
3c00
0000
0000
01a6
cafe
2000
0000
0000
01a5
cafe
2400
0000
0000
01a9
cafe
2800
0000
0000
01a4
cafe
2c00
0000
0000
01a7
cafe
3000
0000
0000
01a2
cafe
3400
0000
0000
01a2
cafe
3800
0000
0000
01a7
cafe
3c00
0000
0000
01a4
cafe
2000
0000
0000
01a3
cafe
2400
0000
0000
019f
cafe
2800
0000
0000
019d
cafe
2c00
0000
0000
019e
cafe
3000
0000
0000
01a1
cafe
3400
0000
0000
01a3
cafe
3800
0000
0000
01a4
cafe
3c00
0000
-
0000
01a5
cafe
2000
0000
0000
01a7
cafe
2400
0000
0000
01a5
cafe
2800
0000
0000
01a6
cafe
2c00
0000
0000
01a5
cafe
3000
0000
0000
01a4
cafe
3400
0000
0000
01a1
cafe
3800
0000
0000
019b
cafe
3c00
0000
0000
019e
cafe
2000
0000
0000
0197
cafe
2400
0000
0000
0196
cafe
2800
0000
0000
019b
cafe
2c00
0000
0000
019e
cafe
3000
0000
0000
01a1
cafe
3400
0000
0000
01a1
cafe
3800
0000
0000
019d
cafe
3c00
0000
0000
019f
cafe
2000
0000
0000
01a0
cafe
2400
0000
0000
01a1
cafe
2800
0000
0000
019e
cafe
2c00
0000
0000
019b
cafe
3000
0000
0000
0196
cafe
3400
0000
0000
0195
cafe
3800
0000
0000
019c
cafe
3c00
0000
0000
019f
cafe
2000
0000
0000
01a2
cafe
2400
0000
0000
019e
cafe
2800
0000
0000
01a0
cafe
2c00
0000
0000
01a1
cafe
3000
0000
0000
019f
cafe
3400
0000
0000
01a4
cafe
3800
0000
0000
01a0
cafe
3c00
0000
0000
01a1
cafe
2000
0000
0000
019d
cafe
2400
0000
0000
0199
cafe
2800
0000
0000
019d
cafe
2c00
0000
0000
019a
cafe
3000
0000
0000
019e
cafe
3400
0000
0000
0198
cafe
3800
0000
0000
0198
cafe
3c00
0000
0000
0197
cafe
2000
0000
0000
0198
cafe
2400
0000
0000
019a
cafe
2800
0000
0000
019b
cafe
2c00
0000
0000
01a2
cafe
3000
0000
0000
019e
cafe
3400
0000
0000
019b
cafe
3800
0000
0000
01a0
cafe
3c00
0000
0000
019e
cafe
2000
0000
0000
01a2
cafe
2400
0000
0000
01a2
cafe
2800
0000
0000
-
01a2
cafe
2c00
0000
0000
01a3
cafe
3000
0000
0000
01a9
cafe
3400
0000
0000
01ab
cafe
3800
0000
0000
01a2
cafe
3c00
0000
0000
0198
cafe
2000
0000
0000
01a2
cafe
2400
0000
0000
01a4
cafe
2800
0000
0000
01a7
cafe
2c00
0000
0000
01a7
cafe
3000
0000
0000
01a2
cafe
3400
0000
0000
019f
cafe
3800
0000
0000
01a0
cafe
3c00
0000
0000
0198
cafe
2000
0000
0000
019c
cafe
2400
0000
0000
019c
cafe
2800
0000
0000
019d
cafe
2c00
0000
0000
01a0
cafe
3000
0000
0000
01a2
cafe
3400
0000
0000
01a2
cafe
3800
0000
0000
01a5
cafe
3c00
0000
0000
01a2
cafe
2000
0000
0000
019e
cafe
2400
0000
0000
019c
cafe
2800
0000
0000
01a0
cafe
2c00
0000
0000
019d
cafe
3000
0000
0000
019d
cafe
3400
0000
0000
01a0
cafe
3800
0000
0000
01a0
cafe
3c00
0000
0000
019c
cafe
2000
0000
0000
019f
cafe
2400
0000
0000
019e
cafe
2800
0000
0000
019f
cafe
2c00
0000
0000
019f
cafe
3000
0000
0000
01a2
cafe
3400
0000
0000
01a1
cafe
3800
0000
0000
019c
cafe
3c00
0000
0000
019d
cafe
2000
0000
0000
019d
cafe
2400
0000
0000
01a0
cafe
2800
0000
0000
019c
cafe
2c00
0000
0000
019f
cafe
3000
0000
0000
01a0
cafe
3400
0000
0000
019e
cafe
3800
0000
0000
01a2
cafe
3c00
0000
0000
019c
cafe
2000
0000
0000
019a
cafe
2400
0000
0000
019d
cafe
2800
0000
0000
019c
cafe
2c00
0000
0000
019b
cafe
3000
0000
0000
019c
cafe
3400
0000
0000
019e
-
cafe
3800
0000
0000
019c
cafe
3c00
0000
0000
019f
cafe
2000
0000
0000
01a8
cafe
2400
0000
0000
01a1
cafe
2800
0000
0000
01a6
cafe
2c00
0000
0000
01a3
cafe
3000
0000
0000
01a6
cafe
3400
0000
0000
01a8
cafe
3800
0000
0000
019a
cafe
3c00
0000
0000
01a0
cafe
2000
0000
0000
01a0
cafe
2400
0000
0000
01a3
cafe
2800
0000
0000
01a1
cafe
2c00
0000
0000
019a
cafe
3000
0000
0000
01a2
cafe
3400
0000
0000
01a1
cafe
3800
0000
0000
01a0
cafe
3c00
0000
0000
01a0
cafe
2000
0000
0000
01a0
cafe
2400
0000
0000
01a2
cafe
2800
0000
0000
01a1
cafe
2c00
0000
0000
01a5
cafe
3000
0000
0000
01a4
cafe
3400
0000
0000
019c
cafe
3800
0000
0000
019b
cafe
3c00
0000
0000
019d
cafe
2000
0000
0000
01a1
cafe
2400
0000
0000
01a1
cafe
2800
0000
0000
019c
cafe
2c00
0000
0000
019a
cafe
3000
0000
0000
019a
cafe
3400
0000
0000
0199
cafe
3800
0000
0000
019a
cafe
3c00
0000
0000
0199
cafe
2000
0000
0000
0199
cafe
2400
0000
0000
0198
cafe
2800
0000
0000
019b
cafe
2c00
0000
0000
019e
cafe
3000
0000
0000
019c
cafe
3400
0000
0000
019d
cafe
3800
0000
0000
019c
cafe
3c00
0000
0000
0199
cafe
2000
0000
0000
019d
cafe
2400
0000
0000
0199
cafe
2800
0000
0000
019b
cafe
2c00
0000
0000
01a1
cafe
3000
0000
0000
01a0
cafe
3400
0000
0000
01a3
cafe
3800
0000
0000
01a1
cafe
3c00
0000
0000
01a0
cafe
2000
0000
0000
01a2
cafe
-
2400
0000
0000
01a2
cafe
2800
0000
0000
019e
cafe
2c00
0000
0000
01a0
cafe
3000
0000
0000
019c
cafe
3400
0000
0000
019e
cafe
3800
0000
0000
01a0
cafe
3c00
0000
0000
01a0
cafe
2000
0000
0000
019d
cafe
2400
0000
0000
019e
cafe
2800
0000
0000
019f
cafe
2c00
0000
0000
019f
cafe
3000
0000
0000
01a1
cafe
3400
0000
0000
019c
cafe
3800
0000
0000
01a1
cafe
3c00
0000
0000
019f
cafe
2000
0000
0000
01a0
cafe
2400
0000
0000
019d
cafe
2800
0000
0000
019b
cafe
2c00
0000
0000
0198
cafe
3000
0000
0000
019d
cafe
3400
0000
0000
019d
cafe
3800
0000
0000
01a4
cafe
3c00
0000
0000
01a1
cafe
2000
0000
0000
01a2
cafe
2400
0000
0000
01a4
cafe
2800
0000
0000
019d
cafe
2c00
0000
0000
01a3
cafe
3000
0000
0000
01a0
cafe
3400
0000
0000
01a1
cafe
3800
0000
0000
019f
cafe
3c00
0000
0000
01a1
cafe
2000
0000
0000
01a3
cafe
2400
0000
0000
01a1
cafe
2800
0000
0000
01a0
cafe
2c00
0000
0000
01a1
cafe
3000
0000
0000
019d
cafe
3400
0000
0000
019b
cafe
3800
0000
0000
0196
cafe
3c00
0000
0000
019c
cafe
2000
0000
0000
019e
cafe
2400
0000
0000
019f
cafe
2800
0000
0000
01a0
cafe
2c00
0000
0000
01a3
cafe
3000
0000
0000
01a4
cafe
3400
0000
0000
01a5
cafe
3800
0000
0000
01a7
cafe
3c00
0000
0000
01ab
cafe
2000
0000
0000
01a8
cafe
2400
0000
0000
01aa
cafe
2800
0000
0000
01a2
cafe
2c00
0000
0000
01a2
cafe
3000
-
0000
0000
01a2
cafe
3400
0000
0000
01a4
cafe
3800
0000
0000
019e
cafe
3c00
0000
0000
019c
cafe
2000
0000
0000
019a
cafe
2400
0000
0000
019b
cafe
2800
0000
0000
0195
cafe
2c00
0000
0000
019a
cafe
3000
0000
0000
0194
cafe
3400
0000
0000
019b
cafe
3800
0000
0000
019f
cafe
3c00
0000
0000
01a2
cafe
2000
0000
0000
01a1
cafe
2400
0000
0000
01a2
cafe
2800
0000
0000
01a0
cafe
2c00
0000
0000
01a6
cafe
3000
0000
0000
01a1
cafe
3400
0000
0000
01a2
cafe
3800
0000
0000
01a1
cafe
3c00
0000
0000
019c
cafe
2000
0000
0000
0198
cafe
2400
0000
0000
019b
cafe
2800
0000
0000
019e
cafe
2c00
0000
0000
01a0
cafe
3000
0000
0000
019e
cafe
3400
0000
0000
01a3
cafe
3800
0000
0000
01a2
cafe
3c00
0000
0000
01a8
cafe
2000
0000
0000
01a6
cafe
2400
0000
0000
01a2
cafe
2800
0000
0000
01a1
cafe
2c00
0000
0000
019e
cafe
3000
0000
0000
019c
cafe
3400
0000
0000
019f
cafe
3800
0000
0000
019d
cafe
3c00
0000
0000
019b
cafe
2000
0000
0000
0199
cafe
2400
0000
0000
01a0
cafe
2800
0000
0000
01a3
cafe
2c00
0000
0000
019e
cafe
3000
0000
0000
019c
cafe
3400
0000
0000
0196
cafe
3800
0000
0000
019a
cafe
3c00
0000
0000
019c
cafe
2000
0000
0000
019e
cafe
2400
0000
0000
01a0
cafe
2800
0000
0000
019c
cafe
2c00
0000
0000
0197
cafe
3000
0000
0000
0198
cafe
3400
0000
0000
019a
cafe
3800
0000
0000
0196
cafe
3c00
0000
-
0000
019d
cafe
2000
0000
0000
019d
cafe
2400
0000
0000
019c
cafe
2800
0000
0000
01a1
cafe
2c00
0000
0000
019e
cafe
3000
0000
0000
01a1
cafe
3400
0000
0000
01a0
cafe
3800
0000
0000
019f
cafe
3c00
0000
0000
019d
cafe
2000
0000
0000
019c
cafe
2400
0000
0000
019d
cafe
2800
0000
0000
019a
cafe
2c00
0000
0000
019d
cafe
3000
0000
0000
01a2
cafe
3400
0000
0000
01a2
cafe
3800
0000
0000
01a3
cafe
3c00
0000
0000
019d
cafe
2000
0000
0000
01a1
cafe
2400
0000
0000
01a2
cafe
2800
0000
0000
01a0
cafe
2c00
0000
0000
01aa
cafe
3000
0000
0000
01a4
cafe
3400
0000
0000
01a6
cafe
3800
0000
0000
019f
cafe
3c00
0000
0000
01a0
cafe
2000
0000
0000
019b
cafe
2400
0000
0000
0198
cafe
2800
0000
0000
019c
cafe
2c00
0000
0000
019d
cafe
3000
0000
0000
019f
cafe
3400
0000
0000
019e
cafe
3800
0000
0000
019c
cafe
3c00
0000
0000
01a0
cafe
2000
0000
0000
019f
cafe
2400
0000
0000
019e
cafe
2800
0000
0000
019d
cafe
2c00
0000
0000
019e
cafe
3000
0000
0000
01a5
cafe
3400
0000
0000
019d
cafe
3800
0000
0000
01a0
cafe
3c00
0000
0000
01a2
cafe
2000
0000
0000
01a8
cafe
2400
0000
0000
01a5
cafe
2800
0000
0000
01aa
cafe
2c00
0000
0000
01a6
cafe
3000
0000
0000
01a8
cafe
3400
0000
0000
01a4
cafe
3800
0000
0000
01a5
cafe
3c00
0000
0000
01a6
cafe
2000
0000
0000
019d
cafe
2400
0000
0000
019e
cafe
2800
0000
0000
-
01a2
cafe
2c00
0000
0000
01a1
cafe
3000
0000
0000
01a0
cafe
3400
0000
0000
019b
cafe
3800
0000
0000
019b
cafe
3c00
0000
0000
019b
cafe
2000
0000
0000
0199
cafe
2400
0000
0000
0197
cafe
2800
0000
0000
019e
cafe
2c00
0000
0000
019c
cafe
3000
0000
0000
019a
cafe
3400
0000
0000
0196
cafe
3800
0000
0000
0196
cafe
3c00
0000
0000
0199
cafe
2000
0000
0000
019a
cafe
2400
0000
0000
019f
cafe
2800
0000
0000
019f
cafe
2c00
0000
0000
019b
cafe
3000
0000
0000
019a
cafe
3400
0000
0000
01a1
cafe
3800
0000
0000
0198
cafe
3c00
0000
0000
019c
cafe
2000
0000
0000
019f
cafe
2400
0000
0000
019d
cafe
2800
0000
0000
019c
cafe
2c00
0000
0000
019a
cafe
3000
0000
0000
019b
cafe
3400
0000
0000
01a3
cafe
3800
0000
0000
019f
cafe
3c00
0000
0000
019e
cafe
2000
0000
0000
019f
cafe
2400
0000
0000
019d
cafe
2800
0000
0000
019c
cafe
2c00
0000
0000
0197
cafe
3000
0000
0000
019b
cafe
3400
0000
0000
019a
cafe
3800
0000
0000
0197
cafe
3c00
0000
0000
019b
cafe
2000
0000
0000
0199
cafe
2400
0000
0000
019d
cafe
2800
0000
0000
019a
cafe
2c00
0000
0000
0199
cafe
3000
0000
0000
019b
cafe
3400
0000
0000
0199
cafe
3800
0000
0000
019d
cafe
3c00
0000
0000
019b
cafe
2000
0000
0000
0198
cafe
2400
0000
0000
019c
cafe
2800
0000
0000
019d
cafe
2c00
0000
0000
01a2
cafe
3000
0000
0000
019f
cafe
3400
0000
0000
01a4
-
cafe
3800
0000
0000
01a3
cafe
3c00
0000
0000
01a2
cafe
2000
0000
0000
019f
cafe
2400
0000
0000
01a0
cafe
2800
0000
0000
019d
cafe
2c00
0000
0000
019c
cafe
3000
0000
0000
019d
cafe
3400
0000
0000
01a0
cafe
3800
0000
0000
019f
cafe
3c00
0000
0000
01a0
cafe
2000
0000
0000
019c
cafe
2400
0000
0000
019f
cafe
2800
0000
0000
01a4
cafe
2c00
0000
0000
01a2
cafe
3000
0000
0000
019f
cafe
3400
0000
0000
019f
cafe
3800
0000
0000
01a2
cafe
3c00
0000
0000
019e
cafe
2000
0000
0000
019f
cafe
2400
0000
0000
019f
cafe
2800
0000
0000
019c
cafe
2c00
0000
0000
019b
cafe
3000
0000
0000
019b
cafe
3400
0000
0000
019d
cafe
3800
0000
0000
019a
cafe
3c00
0000
0000
01a2
cafe
2000
0000
0000
019d
cafe
2400
0000
0000
01a3
cafe
2800
0000
0000
01a2
cafe
2c00
0000
0000
01a3
cafe
3000
0000
0000
01a3
cafe
3400
0000
0000
01a5
cafe
3800
0000
0000
01a1
cafe
3c00
0000
0000
019d
cafe
2000
0000
0000
019e
cafe
2400
0000
0000
01a0
cafe
2800
0000
0000
019e
cafe
2c00
0000
0000
019f
cafe
3000
0000
0000
01a1
cafe
3400
0000
0000
01a2
cafe
3800
0000
0000
019c
cafe
3c00
0000
0000
019d
cafe
2000
0000
0000
019b
cafe
2400
0000
0000
019b
cafe
2800
0000
0000
019d
cafe
2c00
0000
0000
0195
cafe
3000
0000
0000
0193
cafe
3400
0000
0000
0195
cafe
3800
0000
0000
0194
cafe
3c00
0000
0000
0197
cafe
2000
0000
0000
0197
cafe
-
2400
0000
0000
0191
cafe
2800
0000
0000
0197
cafe
2c00
0000
0000
0199
cafe
3000
0000
0000
019c
cafe
3400
0000
0000
019d
cafe
3800
0000
0000
019e
cafe
3c00
0000
0000
019b
cafe
2000
0000
0000
019e
cafe
2400
0000
0000
01a3
cafe
2800
0000
0000
019f
cafe
2c00
0000
0000
019d
cafe
3000
0000
0000
019d
cafe
3400
0000
0000
019f
cafe
3800
0000
0000
019d
cafe
3c00
0000
0000
019d
cafe
2000
0000
0000
019e
cafe
2400
0000
0000
019a
cafe
2800
0000
0000
019b
cafe
2c00
0000
0000
019f
cafe
3000
0000
0000
019f
cafe
3400
0000
0000
019a
cafe
3800
0000
0000
0199
cafe
3c00
0000
0000
0198
cafe
2000
0000
0000
019d
cafe
2400
0000
0000
019f
cafe
2800
0000
0000
01a1
cafe
2c00
0000
0000
019c
cafe
3000
0000
0000
019b
cafe
3400
0000
0000
0197
cafe
3800
0000
0000
018f
cafe
3c00
0000
0000
019b
cafe
2000
0000
0000
019c
cafe
2400
0000
0000
0198
cafe
2800
0000
0000
019c
cafe
2c00
0000
0000
0196
cafe
3000
0000
0000
0195
cafe
3400
0000
0000
0199
cafe
3800
0000
0000
019a
cafe
3c00
0000
0000
019a
cafe
2000
0000
0000
019d
cafe
2400
0000
0000
01a1
cafe
2800
0000
0000
019b
cafe
2c00
0000
0000
019d
cafe
3000
0000
0000
01a2
cafe
3400
0000
0000
01a0
cafe
3800
0000
0000
019c
cafe
3c00
0000
0000
019c
cafe
2000
0000
0000
019f
cafe
2400
0000
0000
019c
cafe
2800
0000
0000
0196
cafe
2c00
0000
0000
0196
cafe
3000
-
0000
0000
0198
cafe
3400
0000
0000
019e
cafe
3800
0000
0000
019f
cafe
3c00
0000
0000
019f
cafe
2000
0000
0000
01a3
cafe
2400
0000
0000
01a1
cafe
2800
0000
0000
01a2
cafe
2c00
0000
0000
01a5
cafe
3000
0000
0000
01a2
cafe
3400
0000
0000
01a0
cafe
3800
0000
0000
01a0
cafe
3c00
0000
0000
019f
cafe
2000
0000
0000
01a0
cafe
2400
0000
0000
01a0
cafe
2800
0000
0000
01a2
cafe
2c00
0000
0000
019e
cafe
3000
0000
0000
019f
cafe
3400
0000
0000
01a2
cafe
3800
0000
0000
019e
cafe
3c00
0000
0000
019b
cafe
2000
0000
0000
019e
cafe
2400
0000
0000
019e
cafe
2800
0000
0000
019e
cafe
2c00
0000
0000
019b
cafe
3000
0000
0000
019b
cafe
3400
0000
0000
019a
cafe
3800
0000
0000
019b
cafe
3c00
0000
0000
019c
cafe
2000
0000
0000
019c
cafe
2400
0000
0000
01a1
cafe
2800
0000
0000
019e
cafe
2c00
0000
0000
01a1
cafe
3000
0000
0000
01a1
cafe
3400
0000
0000
01a4
cafe
3800
0000
0000
01a1
cafe
3c00
0000
0000
019f
cafe
2000
0000
0000
01a3
cafe
2400
0000
0000
01a1
cafe
2800
0000
0000
01a0
cafe
2c00
0000
0000
019d
cafe
3000
0000
0000
019e
cafe
3400
0000
0000
019b
cafe
3800
0000
0000
019d
cafe
3c00
0000
0000
019e
cafe
2000
0000
0000
0198
cafe
2400
0000
0000
019f
cafe
2800
0000
0000
01a4
cafe
2c00
0000
0000
019c
cafe
3000
0000
0000
01a3
cafe
3400
0000
0000
01a9
cafe
3800
0000
0000
01a5
cafe
3c00
0000
-
0000
01a4
cafe
2000
0000
0000
01a4
cafe
2400
0000
0000
01a2
cafe
2800
0000
0000
01a7
cafe
2c00
0000
0000
01a9
cafe
3000
0000
0000
019e
cafe
3400
0000
0000
019e
cafe
3800
0000
0000
01a0
cafe
3c00
0000
0000
01a2
cafe
2000
0000
0000
019f
cafe
2400
0000
0000
01a5
cafe
2800
0000
0000
019f
cafe
2c00
0000
0000
019e
cafe
3000
0000
0000
019b
cafe
3400
0000
0000
0199
cafe
3800
0000
0000
019d
cafe
3c00
0000
0000
0198
cafe
2000
0000
0000
0197
cafe
2400
0000
0000
019c
cafe
2800
0000
0000
019d
cafe
2c00
0000
0000
019a
cafe
3000
0000
0000
019f
cafe
3400
0000
0000
019e
cafe
3800
0000
0000
01a0
cafe
3c00
0000
0000
019e
cafe
2000
0000
0000
01a1
cafe
2400
0000
0000
01a2
cafe
2800
0000
0000
01a1
cafe
2c00
0000
0000
01a4
cafe
3000
0000
0000
019d
cafe
3400
0000
0000
01a0
cafe
3800
0000
0000
01a6
cafe
3c00
0000
0000
01a8
cafe
2000
0000
0000
01a5
cafe
2400
0000
0000
01a5
cafe
2800
0000
0000
01a2
cafe
2c00
0000
0000
01a5
cafe
3000
0000
0000
01a5
cafe
3400
0000
0000
01a0
cafe
3800
0000
0000
01a3
cafe
3c00
0000
0000
01a1
cafe
2000
0000
0000
01a2
cafe
2400
0000
0000
01a0
cafe
2800
0000
0000
019d
cafe
2c00
0000
0000
0198
cafe
3000
0000
0000
019b
cafe
3400
0000
0000
019b
cafe
3800
0000
0000
019f
cafe
3c00
0000
0000
0196
cafe
2000
0000
0000
0197
cafe
2400
0000
0000
0196
cafe
2800
0000
0000
-
019a
cafe
2c00
0000
0000
0198
cafe
3000
0000
0000
019b
cafe
3400
0000
0000
0199
cafe
3800
0000
0000
019b
cafe
3c00
0000
0000
01a0
cafe
2000
0000
0000
0199
cafe
2400
0000
0000
019b
cafe
2800
0000
0000
01a0
cafe
2c00
0000
0000
01a2
cafe
3000
0000
0000
01a5
cafe
3400
0000
0000
019f
cafe
3800
0000
0000
01a3
cafe
3c00
0000
0000
019e
cafe
2000
0000
0000
019c
cafe
2400
0000
0000
0199
cafe
2800
0000
0000
019b
cafe
2c00
0000
0000
01a0
cafe
3000
0000
0000
019e
cafe
3400
0000
0000
019a
cafe
3800
0000
0000
0195
cafe
3c00
0000
0000
0194
cafe
2000
0000
0000
019b
cafe
2400
0000
0000
0199
cafe
2800
0000
0000
0193
cafe
2c00
0000
0000
0198
cafe
3000
0000
0000
0195
cafe
3400
0000
0000
0197
cafe
3800
0000
0000
0199
cafe
3c00
0000
0000
0199
cafe
2000
0000
0000
019e
cafe
2400
0000
0000
019b
cafe
2800
0000
0000
01a0
cafe
2c00
0000
0000
019e
cafe
3000
0000
0000
019f
cafe
3400
0000
0000
019f
cafe
3800
0000
0000
01a7
cafe
3c00
0000
0000
01a3
cafe
2000
0000
0000
01a0
cafe
2400
0000
0000
019f
cafe
2800
0000
0000
019a
cafe
2c00
0000
0000
019c
cafe
3000
0000
0000
01a1
cafe
3400
0000
0000
01a1
cafe
3800
0000
0000
01a5
cafe
3c00
0000
0000
01a0
cafe
2000
0000
0000
01a0
cafe
2400
0000
0000
019e
cafe
2800
0000
0000
01a5
cafe
2c00
0000
0000
01a2
cafe
3000
0000
0000
019a
cafe
3400
0000
0000
019b
-
cafe
3800
0000
0000
019c
cafe
3c00
0000
0000
01a0
cafe
2000
0000
0000
019e
cafe
2400
0000
0000
019f
cafe
2800
0000
0000
019e
cafe
2c00
0000
0000
01a1
cafe
3000
0000
0000
019e
cafe
3400
0000
0000
019d
cafe
3800
0000
0000
019e
cafe
3c00
0000
0000
01a3
cafe
2000
0000
0000
019c
cafe
2400
0000
0000
019c
cafe
2800
0000
0000
019b
cafe
2c00
0000
0000
01a2
cafe
3000
0000
0000
01a4
cafe
3400
0000
0000
01a0
cafe
3800
0000
0000
01a3
cafe
3c00
0000
0000
01a3
cafe
2000
0000
0000
01a1
cafe
2400
0000
0000
01a0
cafe
2800
0000
0000
01a3
cafe
2c00
0000
0000
01a0
cafe
3000
0000
0000
01a0
cafe
3400
0000
0000
019e
cafe
3800
0000
0000
019a
cafe
3c00
0000
0000
019a
cafe
2000
0000
0000
019a
cafe
2400
0000
0000
019d
cafe
2800
0000
0000
019c
cafe
2c00
0000
0000
019e
cafe
3000
0000
0000
0199
cafe
3400
0000
0000
01a4
cafe
3800
0000
0000
019e
cafe
3c00
0000
0000
019e
cafe
2000
0000
0000
0194
cafe
2400
0000
0000
0197
cafe
2800
0000
0000
0194
cafe
2c00
0000
0000
0195
cafe
3000
0000
0000
018f
cafe
3400
0000
0000
0191
cafe
3800
0000
0000
0194
cafe
3c00
0000
0000
0196
cafe
2000
0000
0000
019b
cafe
2400
0000
0000
0196
cafe
2800
0000
0000
0198
cafe
2c00
0000
0000
019a
cafe
3000
0000
0000
0194
cafe
3400
0000
0000
019d
cafe
3800
0000
0000
01a0
cafe
3c00
0000
0000
01a1
cafe
2000
0000
0000
01a1
cafe
-
2400
0000
0000
019b
cafe
2800
0000
0000
019e
cafe
2c00
0000
0000
01a0
cafe
3000
0000
0000
019d
cafe
3400
0000
0000
019c
cafe
3800
0000
0000
019a
cafe
3c00
0000
0000
019c
cafe
2000
0000
0000
019c
cafe
2400
0000
0000
0199
cafe
2800
0000
0000
0198
cafe
2c00
0000
0000
0194
cafe
3000
0000
0000
0194
cafe
3400
0000
0000
0198
cafe
3800
0000
0000
019e
cafe
3c00
0000
0000
0198
cafe
2000
0000
0000
0194
cafe
2400
0000
0000
0195
cafe
2800
0000
0000
019c
cafe
2c00
0000
0000
019e
cafe
3000
0000
0000
019d
cafe
3400
0000
0000
019d
cafe
3800
0000
0000
019d
cafe
3c00
0000
0000
019d
cafe
2000
0000
0000
01a1
cafe
2400
0000
0000
01a1
cafe
2800
0000
0000
019e
cafe
2c00
0000
0000
019b
cafe
3000
0000
0000
019e
cafe
3400
0000
0000
019f
cafe
3800
0000
0000
0199
cafe
3c00
0000
0000
019b
cafe
2000
0000
0000
019b
cafe
2400
0000
0000
0199
cafe
2800
0000
0000
019d
cafe
2c00
0000
0000
019c
cafe
3000
0000
0000
01a2
cafe
3400
0000
0000
019f
cafe
3800
0000
0000
019c
cafe
3c00
0000
0000
0197
cafe
2000
0000
0000
0196
cafe
2400
0000
0000
0193
cafe
2800
0000
0000
0193
cafe
2c00
0000
0000
0197
cafe
3000
0000
0000
019e
cafe
3400
0000
0000
019f
cafe
3800
0000
0000
01a1
cafe
3c00
0000
0000
01a0
cafe
2000
0000
0000
01a2
cafe
2400
0000
0000
01a6
cafe
2800
0000
0000
01a3
cafe
2c00
0000
0000
01a6
cafe
3000
-
0000
0000
01a3
cafe
3400
0000
0000
01a2
cafe
3800
0000
0000
01a0
cafe
3c00
0000
0000
019f
cafe
2000
0000
0000
01a0
cafe
2400
0000
0000
01a6
cafe
2800
0000
0000
01a1
cafe
2c00
0000
0000
019f
cafe
3000
0000
0000
01a6
cafe
3400
0000
0000
01a2
cafe
3800
0000
0000
01a2
cafe
3c00
0000
0000
01a1
cafe
2000
0000
0000
0197
cafe
2400
0000
0000
019b
cafe
2800
0000
0000
019a
cafe
2c00
0000
0000
0197
cafe
3000
0000
0000
019b
cafe
3400
0000
0000
019c
cafe
3800
0000
0000
019d
cafe
3c00
0000
0000
0196
cafe
2000
0000
0000
0194
cafe
2400
0000
0000
0196
cafe
2800
0000
0000
019b
cafe
2c00
0000
0000
019b
cafe
3000
0000
0000
01a1
cafe
3400
0000
0000
019f
cafe
3800
0000
0000
01a0
cafe
3c00
0000
0000
01a0
cafe
2000
0000
0000
019d
cafe
2400
0000
0000
019d
cafe
2800
0000
0000
019f
cafe
2c00
0000
0000
019e
cafe
3000
0000
0000
019e
cafe
3400
0000
0000
019d
cafe
3800
0000
0000
019b
cafe
3c00
0000
0000
019c
cafe
2000
0000
0000
0199
cafe
2400
0000
0000
019b
cafe
2800
0000
0000
01a1
cafe
2c00
0000
0000
019e
cafe
3000
0000
0000
019d
cafe
3400
0000
0000
019a
cafe
3800
0000
0000
019d
cafe
3c00
0000
0000
0197
cafe
2000
0000
0000
019a
cafe
2400
0000
0000
019a
cafe
2800
0000
0000
019f
cafe
2c00
0000
0000
01a5
cafe
3000
0000
0000
019e
cafe
3400
0000
0000
01a3
cafe
3800
0000
0000
01a7
cafe
3c00
0000
-
0000
01a2
cafe
2000
0000
0000
01a6
cafe
2400
0000
0000
01a1
cafe
2800
0000
0000
01a3
cafe
2c00
0000
0000
01a0
cafe
3000
0000
0000
01a4
cafe
3400
0000
0000
01a5
cafe
3800
0000
0000
01a3
cafe
3c00
0000
0000
01a1
cafe
2000
0000
0000
01a2
cafe
2400
0000
0000
01a1
cafe
2800
0000
0000
019f
cafe
2c00
0000
0000
01a4
cafe
3000
0000
0000
01a3
cafe
3400
0000
0000
01a4
cafe
3800
0000
0000
019f
cafe
3c00
0000
0000
01a2
cafe
2000
0000
0000
01a6
cafe
2400
0000
0000
019f
cafe
2800
0000
0000
01a1
cafe
2c00
0000
0000
01a0
cafe
3000
0000
0000
019e
cafe
3400
0000
0000
019b
cafe
3800
0000
0000
019b
cafe
3c00
0000
0000
019b
cafe
2000
0000
0000
019b
cafe
2400
0000
0000
019b
cafe
2800
0000
0000
019c
cafe
2c00
0000
0000
019c
cafe
3000
0000
0000
0199
cafe
3400
0000
0000
01a0
cafe
3800
0000
0000
01a1
cafe
3c00
0000
0000
019f
cafe
2000
0000
0000
01a3
cafe
2400
0000
0000
01a4
cafe
2800
0000
0000
01a5
cafe
2c00
0000
0000
019d
cafe
3000
0000
0000
01a1
cafe
3400
0000
0000
01a3
cafe
3800
0000
0000
01a1
cafe
3c00
0000
0000
01a3
cafe
2000
0000
0000
01a5
cafe
2400
0000
0000
01a5
cafe
2800
0000
0000
01ad
cafe
2c00
0000
0000
01a7
cafe
3000
0000
0000
01a3
cafe
3400
0000
0000
019f
cafe
3800
0000
0000
01a1
cafe
3c00
0000
0000
019a
cafe
2000
0000
0000
0195
cafe
2400
0000
0000
0197
cafe
2800
0000
0000
-
0196
cafe
2c00
0000
0000
0194
cafe
3000
0000
0000
0199
cafe
3400
0000
0000
0194
cafe
3800
0000
0000
0198
cafe
3c00
0000
0000
0197
cafe
2000
0000
0000
019d
cafe
2400
0000
0000
019e
cafe
2800
0000
0000
019a
cafe
2c00
0000
0000
0199
cafe
3000
0000
0000
0198
cafe
3400
0000
0000
0198
cafe
3800
0000
0000
0198
cafe
3c00
0000
0000
019a
cafe
2000
0000
0000
019b
cafe
2400
0000
0000
0194
cafe
2800
0000
0000
0195
cafe
2c00
0000
0000
0191
cafe
3000
0000
0000
0196
cafe
3400
0000
0000
0192
cafe
3800
0000
0000
0192
cafe
3c00
0000
0000
0198
cafe
2000
0000
0000
019b
cafe
2400
0000
0000
019d
cafe
2800
0000
0000
01a0
cafe
2c00
0000
0000
01a6
cafe
3000
0000
0000
01a5
cafe
3400
0000
0000
01a2
cafe
3800
0000
0000
01a2
cafe
3c00
0000
0000
01a6
cafe
2000
0000
0000
01a2
cafe
2400
0000
0000
01a2
cafe
2800
0000
0000
01a3
cafe
2c00
0000
0000
019f
cafe
3000
0000
0000
01a3
cafe
3400
0000
0000
01a1
cafe
3800
0000
0000
01a1
cafe
3c00
0000
0000
01a0
cafe
2000
0000
0000
019d
cafe
2400
0000
0000
019a
cafe
2800
0000
0000
019a
cafe
2c00
0000
0000
019b
cafe
3000
0000
0000
019b
cafe
3400
0000
0000
019e
cafe
3800
0000
0000
019b
cafe
3c00
0000
0000
019e
cafe
2000
0000
0000
019c
cafe
2400
0000
0000
019a
cafe
2800
0000
0000
01a4
cafe
2c00
0000
0000
01a1
cafe
3000
0000
0000
01a4
cafe
3400
0000
0000
01a2
-
cafe
3800
0000
0000
01a4
cafe
3c00
0000
0000
01ae
cafe
2000
0000
0000
01aa
cafe
2400
0000
0000
01a7
cafe
2800
0000
0000
01a3
cafe
2c00
0000
0000
019f
cafe
3000
0000
0000
01a1
cafe
3400
0000
0000
01a5
cafe
3800
0000
0000
01a0
cafe
3c00
0000
0000
019b
cafe
2000
0000
0000
019a
cafe
2400
0000
0000
019b
cafe
2800
0000
0000
0196
cafe
2c00
0000
0000
0198
cafe
3000
0000
0000
0195
cafe
3400
0000
0000
0197
cafe
3800
0000
0000
0193
cafe
3c00
0000
0000
0195
cafe
2000
0000
0000
0198
cafe
2400
0000
0000
0195
cafe
2800
0000
0000
0192
cafe
2c00
0000
0000
0198
cafe
3000
0000
0000
019c
cafe
3400
0000
0000
019c
cafe
3800
0000
0000
01a0
cafe
3c00
0000
0000
01a0
cafe
2000
0000
0000
01a7
cafe
2400
0000
0000
01a3
cafe
2800
0000
0000
01a1
cafe
2c00
0000
0000
01a0
cafe
3000
0000
0000
01a3
cafe
3400
0000
0000
01a3
cafe
3800
0000
0000
01a9
cafe
3c00
0000
0000
01a2
cafe
2000
0000
0000
01a7
cafe
2400
0000
0000
01a7
cafe
2800
0000
0000
01a6
cafe
2c00
0000
0000
01a5
cafe
3000
0000
0000
01a4
cafe
3400
0000
0000
01a6
cafe
3800
0000
0000
01a3
cafe
3c00
0000
0000
019f
cafe
2000
0000
0000
01a3
cafe
2400
0000
0000
01a3
cafe
2800
0000
0000
01a2
cafe
2c00
0000
0000
01a4
cafe
3000
0000
0000
019d
cafe
3400
0000
0000
01a0
cafe
3800
0000
0000
019d
cafe
3c00
0000
0000
019e
cafe
2000
0000
0000
019e
cafe
-
2400
0000
0000
019d
cafe
2800
0000
0000
019e
cafe
2c00
0000
0000
019d
cafe
3000
0000
0000
019d
cafe
3400
0000
0000
019e
cafe
3800
0000
0000
0199
cafe
3c00
0000
0000
019c
cafe
2000
0000
0000
019c
cafe
2400
0000
0000
0199
cafe
2800
0000
0000
019e
cafe
2c00
0000
0000
0199
cafe
3000
0000
0000
019f
cafe
3400
0000
0000
019e
cafe
3800
0000
0000
01a2
cafe
3c00
0000
0000
01a1
cafe
2000
0000
0000
019f
cafe
2400
0000
0000
01a4
cafe
2800
0000
0000
019b
cafe
2c00
0000
0000
019e
cafe
3000
0000
0000
019c
cafe
3400
0000
0000
019c
cafe
3800
0000
0000
019d
cafe
3c00
0000
0000
0197
cafe
2000
0000
0000
019b
cafe
2400
0000
0000
0193
cafe
2800
0000
0000
0191
cafe
2c00
0000
0000
0194
cafe
3000
0000
0000
0197
cafe
3400
0000
0000
0197
cafe
3800
0000
0000
0198
cafe
3c00
0000
0000
0194
cafe
2000
0000
0000
0194
cafe
2400
0000
0000
0197
cafe
2800
0000
0000
0197
cafe
2c00
0000
0000
019a
cafe
3000
0000
0000
019d
cafe
3400
0000
0000
019e
cafe
3800
0000
0000
0197
cafe
3c00
0000
0000
019c
cafe
2000
0000
0000
01a4
cafe
2400
0000
0000
019e
cafe
2800
0000
0000
01a2
cafe
2c00
0000
0000
019f
cafe
3000
0000
0000
019e
cafe
3400
0000
0000
01a2
cafe
3800
0000
0000
019f
cafe
3c00
0000
0000
01a0
cafe
2000
0000
0000
019f
cafe
2400
0000
0000
019f
cafe
2800
0000
0000
019e
cafe
2c00
0000
0000
019d
cafe
3000
-
0000
0000
0196
cafe
3400
0000
0000
0197
cafe
3800
0000
0000
0195
cafe
3c00
0000
0000
0195
cafe
2000
0000
0000
019a
cafe
2400
0000
0000
0197
cafe
2800
0000
0000
0198
cafe
2c00
0000
0000
0197
cafe
3000
0000
0000
019c
cafe
3400
0000
0000
019f
cafe
3800
0000
0000
019e
cafe
3c00
0000
0000
01a3
cafe
2000
0000
0000
019e
cafe
2400
0000
0000
01a4
cafe
2800
0000
0000
019e
cafe
2c00
0000
0000
019c
cafe
3000
0000
0000
01a5
cafe
3400
0000
0000
01a0
cafe
3800
0000
0000
01a5
cafe
3c00
0000
0000
01a1
cafe
2000
0000
0000
01a0
cafe
2400
0000
0000
01a1
cafe
2800
0000
0000
01a0
cafe
2c00
0000
0000
01a3
cafe
3000
0000
0000
01a1
cafe
3400
0000
0000
01a1
cafe
3800
0000
0000
019f
cafe
3c00
0000
0000
019e
cafe
2000
0000
0000
01a3
cafe
2400
0000
0000
019e
cafe
2800
0000
0000
019c
cafe
2c00
0000
0000
0196
cafe
3000
0000
0000
0198
cafe
3400
0000
0000
0198
cafe
3800
0000
0000
0191
cafe
3c00
0000
0000
0191
cafe
2000
0000
0000
0192
cafe
2400
0000
0000
0195
cafe
2800
0000
0000
0199
cafe
2c00
0000
0000
0199
cafe
3000
0000
0000
019a
cafe
3400
0000
0000
018e
cafe
3800
0000
0000
0198
cafe
3c00
0000
0000
019c
cafe
2000
0000
0000
019f
cafe
2400
0000
0000
01a3
cafe
2800
0000
0000
01a6
cafe
2c00
0000
0000
01a0
cafe
3000
0000
0000
01a1
cafe
3400
0000
0000
019c
cafe
3800
0000
0000
019c
cafe
3c00
0000
-
0000
019b
cafe
2000
0000
0000
0198
cafe
2400
0000
0000
019a
cafe
2800
0000
0000
019f
cafe
2c00
0000
0000
019c
cafe
3000
0000
0000
0198
cafe
3400
0000
0000
0198
cafe
3800
0000
0000
0198
cafe
3c00
0000
0000
0194
cafe
2000
0000
0000
0196
cafe
2400
0000
0000
0198
cafe
2800
0000
0000
019c
cafe
2c00
0000
0000
0197
cafe
3000
0000
0000
0197
cafe
3400
0000
0000
0197
cafe
3800
0000
0000
019a
cafe
3c00
0000
0000
019e
cafe
2000
0000
0000
01a0
cafe
2400
0000
0000
01a3
cafe
2800
0000
0000
01a3
cafe
2c00
0000
0000
019f
cafe
3000
0000
0000
01a2
cafe
3400
0000
0000
01a5
cafe
3800
0000
0000
01a3
cafe
3c00
0000
0000
01a0
cafe
2000
0000
0000
01a6
cafe
2400
0000
0000
01a8
cafe
2800
0000
0000
01a6
cafe
2c00
0000
0000
01ab
cafe
3000
0000
0000
01a7
cafe
3400
0000
0000
01a1
cafe
3800
0000
0000
01a7
cafe
3c00
0000
0000
01a6
cafe
2000
0000
0000
019f
cafe
2400
0000
0000
01a1
cafe
2800
0000
0000
019d
cafe
2c00
0000
0000
019e
cafe
3000
0000
0000
01a1
cafe
3400
0000
0000
019f
cafe
3800
0000
0000
01a0
cafe
3c00
0000
0000
019f
cafe
2000
0000
0000
019d
cafe
2400
0000
0000
019b
cafe
2800
0000
0000
019d
cafe
2c00
0000
0000
019c
cafe
3000
0000
0000
0198
cafe
3400
0000
0000
019d
cafe
3800
0000
0000
019c
cafe
3c00
0000
0000
019c
cafe
2000
0000
0000
01a0
cafe
2400
0000
0000
0197
cafe
2800
0000
0000
-
019a
cafe
2c00
0000
0000
0199
cafe
3000
0000
0000
019b
cafe
3400
0000
0000
01a0
cafe
3800
0000
0000
019f
cafe
3c00
0000
0000
01a1
cafe
2000
0000
0000
01a3
cafe
2400
0000
0000
01a5
cafe
2800
0000
0000
01a3
cafe
2c00
0000
0000
01a0
cafe
3000
0000
0000
01a8
cafe
3400
0000
0000
01a5
cafe
3800
0000
0000
01a5
cafe
3c00
0000
0000
019f
cafe
2000
0000
0000
01a4
cafe
2400
0000
0000
01a7
cafe
2800
0000
0000
01a3
cafe
2c00
0000
0000
019f
cafe
3000
0000
0000
019f
cafe
3400
0000
0000
019e
cafe
3800
0000
0000
0198
cafe
3c00
0000
0000
019a
cafe
2000
0000
0000
019a
cafe
2400
0000
0000
019d
cafe
2800
0000
0000
01a0
cafe
2c00
0000
0000
019d
cafe
3000
0000
0000
019c
cafe
3400
0000
0000
0198
cafe
3800
0000
0000
0199
cafe
3c00
0000
0000
019b
cafe
2000
0000
0000
019a
cafe
2400
0000
0000
0196
cafe
2800
0000
0000
0197
cafe
2c00
0000
0000
0197
cafe
3000
0000
0000
019f
cafe
3400
0000
0000
01a4
cafe
3800
0000
0000
01a3
cafe
3c00
0000
0000
019f
cafe
2000
0000
0000
019d
cafe
2400
0000
0000
01a1
cafe
2800
0000
0000
019c
cafe
2c00
0000
0000
019a
cafe
3000
0000
0000
019d
cafe
3400
0000
0000
019b
cafe
3800
0000
0000
019b
cafe
3c00
0000
0000
019b
cafe
2000
0000
0000
0194
cafe
2400
0000
0000
0196
cafe
2800
0000
0000
0198
cafe
2c00
0000
0000
0198
cafe
3000
0000
0000
019b
cafe
3400
0000
0000
019d
-
cafe
3800
0000
0000
019c
cafe
3c00
0000
0000
019c
cafe
2000
0000
0000
0196
cafe
2400
0000
0000
019c
cafe
2800
0000
0000
01a0
cafe
2c00
0000
0000
019f
cafe
3000
0000
0000
01a0
cafe
3400
0000
0000
019f
cafe
3800
0000
0000
019d
cafe
3c00
0000
0000
01a1
cafe
2000
0000
0000
019c
cafe
2400
0000
0000
019c
cafe
2800
0000
0000
0199
cafe
2c00
0000
0000
019e
cafe
3000
0000
0000
019d
cafe
3400
0000
0000
019b
cafe
3800
0000
0000
01a2
cafe
3c00
0000
0000
019b
cafe
2000
0000
0000
019c
cafe
2400
0000
0000
019f
cafe
2800
0000
0000
019d
cafe
2c00
0000
0000
019d
cafe
3000
0000
0000
019f
cafe
3400
0000
0000
01a1
cafe
3800
0000
0000
019c
cafe
3c00
0000
0000
01a0
cafe
2000
0000
0000
0199
cafe
2400
0000
0000
019d
cafe
2800
0000
0000
01a4
cafe
2c00
0000
0000
01a8
cafe
3000
0000
0000
01a3
cafe
3400
0000
0000
01a7
cafe
3800
0000
0000
01a3
cafe
3c00
0000
0000
01a7
cafe
2000
0000
0000
01a4
cafe
2400
0000
0000
01a4
cafe
2800
0000
0000
019e
cafe
2c00
0000
0000
01a0
cafe
3000
0000
0000
019b
cafe
3400
0000
0000
01a1
cafe
3800
0000
0000
01a3
cafe
3c00
0000
0000
01a0
cafe
2000
0000
0000
01a1
cafe
2400
0000
0000
01a3
cafe
2800
0000
0000
01a4
cafe
2c00
0000
0000
01a6
cafe
3000
0000
0000
01a2
cafe
3400
0000
0000
019e
cafe
3800
0000
0000
01a3
cafe
3c00
0000
0000
019e
cafe
2000
0000
0000
019c
cafe
-
2400
0000
0000
019c
cafe
2800
0000
0000
019e
cafe
2c00
0000
0000
019d
cafe
3000
0000
0000
019d
cafe
3400
0000
0000
019d
cafe
3800
0000
0000
0199
cafe
3c00
0000
0000
0199
cafe
2000
0000
0000
0197
cafe
2400
0000
0000
0197
cafe
2800
0000
0000
0199
cafe
2c00
0000
0000
019b
cafe
3000
0000
0000
019c
cafe
3400
0000
0000
019d
cafe
3800
0000
0000
01a2
cafe
3c00
0000
0000
01a2
cafe
2000
0000
0000
019e
cafe
2400
0000
0000
01a0
cafe
2800
0000
0000
01a5
cafe
2c00
0000
0000
01ab
cafe
3000
0000
0000
01a7
cafe
3400
0000
0000
01a2
cafe
3800
0000
0000
019e
cafe
3c00
0000
0000
019e
cafe
2000
0000
0000
019e
cafe
2400
0000
0000
01a3
cafe
2800
0000
0000
019f
cafe
2c00
0000
0000
019f
cafe
3000
0000
0000
019d
cafe
3400
0000
0000
01a3
cafe
3800
0000
0000
0199
cafe
3c00
0000
0000
01a0
cafe
2000
0000
0000
01a4
cafe
2400
0000
0000
01a3
cafe
2800
0000
0000
01a5
cafe
2c00
0000
0000
01a2
cafe
3000
0000
0000
019f
cafe
3400
0000
0000
0199
cafe
3800
0000
0000
019b
cafe
3c00
0000
0000
01a3
cafe
2000
0000
0000
01a0
cafe
2400
0000
0000
019d
cafe
2800
0000
0000
01a5
cafe
2c00
0000
0000
01aa
cafe
3000
0000
0000
01aa
cafe
3400
0000
0000
01a6
cafe
3800
0000
0000
01a4
cafe
3c00
0000
0000
01a6
cafe
2000
0000
0000
01a0
cafe
2400
0000
0000
01a1
cafe
2800
0000
0000
01a5
cafe
2c00
0000
0000
019e
cafe
3000
-
0000
0000
019e
cafe
3400
0000
0000
0199
cafe
3800
0000
0000
019a
cafe
3c00
0000
0000
019e
cafe
2000
0000
0000
019f
cafe
2400
0000
0000
0197
cafe
2800
0000
0000
019c
cafe
2c00
0000
0000
019c
cafe
3000
0000
0000
019c
cafe
3400
0000
0000
0197
cafe
3800
0000
0000
019d
cafe
3c00
0000
0000
019e
cafe
2000
0000
0000
019e
cafe
2400
0000
0000
019f
cafe
2800
0000
0000
019e
cafe
2c00
0000
0000
019c
cafe
3000
0000
0000
0198
cafe
3400
0000
0000
0195
cafe
3800
0000
0000
019c
cafe
3c00
0000
0000
0198
cafe
2000
0000
0000
019d
cafe
2400
0000
0000
0199
cafe
2800
0000
0000
019f
cafe
2c00
0000
0000
01a2
cafe
3000
0000
0000
01a5
cafe
3400
0000
0000
01a2
cafe
3800
0000
0000
01a4
cafe
3c00
0000
0000
01a2
cafe
2000
0000
0000
01a5
cafe
2400
0000
0000
01a4
cafe
2800
0000
0000
01aa
cafe
2c00
0000
0000
01a8
cafe
3000
0000
0000
01a4
cafe
3400
0000
0000
01a0
cafe
3800
0000
0000
01a0
cafe
3c00
0000
0000
01a2
cafe
2000
0000
0000
019f
cafe
2400
0000
0000
01a0
cafe
2800
0000
0000
019d
cafe
2c00
0000
0000
01a1
cafe
3000
0000
0000
019a
cafe
3400
0000
0000
01a0
cafe
3800
0000
0000
01a0
cafe
3c00
0000
0000
019c
cafe
2000
0000
0000
0195
cafe
2400
0000
0000
0195
cafe
2800
0000
0000
0197
cafe
2c00
0000
0000
0192
cafe
3000
0000
0000
0191
cafe
3400
0000
0000
018f
cafe
3800
0000
0000
018f
cafe
3c00
0000
-
0000
0191
cafe
2000
0000
0000
0193
cafe
2400
0000
0000
0196
cafe
2800
0000
0000
0199
cafe
2c00
0000
0000
019b
cafe
3000
0000
0000
019e
cafe
3400
0000
0000
019d
cafe
3800
0000
0000
01a0
cafe
3c00
0000
0000
01a3
cafe
2000
0000
0000
019d
cafe
2400
0000
0000
01a5
cafe
2800
0000
0000
01aa
cafe
2c00
0000
0000
01a1
cafe
3000
0000
0000
019f
cafe
3400
0000
0000
01a3
cafe
3800
0000
0000
01a0
cafe
3c00
0000
0000
019f
cafe
2000
0000
0000
01a0
cafe
2400
0000
0000
01a1
cafe
2800
0000
0000
019d
cafe
2c00
0000
0000
019e
cafe
3000
0000
0000
01a0
cafe
3400
0000
0000
01a0
cafe
3800
0000
0000
019f
cafe
3c00
0000
0000
019f
cafe
2000
0000
0000
019d
cafe
2400
0000
0000
019b
cafe
2800
0000
0000
019b
cafe
2c00
0000
0000
01a1
cafe
3000
0000
0000
01a0
cafe
3400
0000
0000
019a
cafe
3800
0000
0000
0194
cafe
3c00
0000
0000
0198
cafe
2000
0000
0000
0198
cafe
2400
0000
0000
019a
cafe
2800
0000
0000
0199
cafe
2c00
0000
0000
0196
cafe
3000
0000
0000
019a
cafe
3400
0000
0000
019d
cafe
3800
0000
0000
019a
cafe
3c00
0000
0000
0198
cafe
2000
0000
0000
0199
cafe
2400
0000
0000
019b
cafe
2800
0000
0000
0199
cafe
2c00
0000
0000
019d
cafe
3000
0000
0000
0198
cafe
3400
0000
0000
0198
cafe
3800
0000
0000
0197
cafe
3c00
0000
0000
0196
cafe
2000
0000
0000
019d
cafe
2400
0000
0000
019e
cafe
2800
0000
0000
-
019a
cafe
2c00
0000
0000
019f
cafe
3000
0000
0000
019e
cafe
3400
0000
0000
01a0
cafe
3800
0000
0000
01a0
cafe
3c00
0000
0000
01a3
cafe
2000
0000
0000
01a0
cafe
2400
0000
0000
019e
cafe
2800
0000
0000
01a1
cafe
2c00
0000
0000
019e
cafe
3000
0000
0000
019f
cafe
3400
0000
0000
019a
cafe
3800
0000
0000
019d
cafe
3c00
0000
0000
01a0
cafe
2000
0000
0000
019b
cafe
2400
0000
0000
019d
cafe
2800
0000
0000
0199
cafe
2c00
0000
0000
019d
cafe
3000
0000
0000
01a0
cafe
3400
0000
0000
01a5
cafe
3800
0000
0000
01a3
cafe
3c00
0000
0000
01a6
cafe
2000
0000
0000
01aa
cafe
2400
0000
0000
01a8
cafe
2800
0000
0000
01a5
cafe
2c00
0000
0000
01a1
cafe
3000
0000
0000
01a1
cafe
3400
0000
0000
019f
cafe
3800
0000
0000
019f
cafe
3c00
0000
0000
019b
cafe
2000
0000
0000
019c
cafe
2400
0000
0000
0198
cafe
2800
0000
0000
0199
cafe
2c00
0000
0000
0199
cafe
3000
0000
0000
019e
cafe
3400
0000
0000
0199
cafe
3800
0000
0000
01a3
cafe
3c00
0000
0000
019b
cafe
2000
0000
0000
019b
cafe
2400
0000
0000
01a3
cafe
2800
0000
0000
0197
cafe
2c00
0000
0000
0194
cafe
3000
0000
0000
0199
cafe
3400
0000
0000
019a
cafe
3800
0000
0000
0198
cafe
3c00
0000
0000
019c
cafe
2000
0000
0000
019d
cafe
2400
0000
0000
019e
cafe
2800
0000
0000
019f
cafe
2c00
0000
0000
019d
cafe
3000
0000
0000
019e
cafe
3400
0000
0000
019b
-
cafe
3800
0000
0000
01a6
cafe
3c00
0000
0000
01ad
cafe
2000
0000
0000
01ae
cafe
2400
0000
0000
01a5
cafe
2800
0000
0000
01a8
cafe
2c00
0000
0000
01a6
cafe
3000
0000
0000
019f
cafe
3400
0000
0000
019b
cafe
3800
0000
0000
019a
cafe
3c00
0000
0000
019a
cafe
2000
0000
0000
019a
cafe
2400
0000
0000
019c
cafe
2800
0000
0000
0194
cafe
2c00
0000
0000
0198
cafe
3000
0000
0000
0199
cafe
3400
0000
0000
0198
cafe
3800
0000
0000
019d
cafe
3c00
0000
0000
0198
cafe
2000
0000
0000
0199
cafe
2400
0000
0000
019b
cafe
2800
0000
0000
01a1
cafe
2c00
0000
0000
019a
cafe
3000
0000
0000
019a
cafe
3400
0000
0000
01a0
cafe
3800
0000
0000
019f
cafe
3c00
0000
0000
019d
cafe
2000
0000
0000
01a1
cafe
2400
0000
0000
01a3
cafe
2800
0000
0000
01a9
cafe
2c00
0000
0000
01a5
cafe
3000
0000
0000
01a5
cafe
3400
0000
0000
01a7
cafe
3800
0000
0000
01aa
cafe
3c00
0000
0000
01ae
cafe
2000
0000
0000
01b0
cafe
2400
0000
0000
01a5
cafe
2800
0000
0000
01aa
cafe
2c00
0000
0000
01a4
cafe
3000
0000
0000
01a3
cafe
3400
0000
0000
019f
cafe
3800
0000
0000
0197
cafe
3c00
0000
0000
0196
cafe
2000
0000
0000
019a
cafe
2400
0000
0000
019a
cafe
2800
0000
0000
019c
cafe
2c00
0000
0000
019e
cafe
3000
0000
0000
019b
cafe
3400
0000
0000
019d
cafe
3800
0000
0000
0199
cafe
3c00
0000
0000
019b
cafe
2000
0000
0000
01a2
cafe
-
2400
0000
0000
019b
cafe
2800
0000
0000
01a0
cafe
2c00
0000
0000
019d
cafe
3000
0000
0000
01a1
cafe
3400
0000
0000
019f
cafe
3800
0000
0000
019e
cafe
3c00
0000
0000
01a3
cafe
2000
0000
0000
01a2
cafe
2400
0000
0000
01a7
cafe
2800
0000
0000
01a9
cafe
2c00
0000
0000
01a6
cafe
3000
0000
0000
01a9
cafe
3400
0000
0000
01a3
cafe
3800
0000
0000
019f
cafe
3c00
0000
0000
019b
cafe
2000
0000
0000
019b
cafe
2400
0000
0000
0197
cafe
2800
0000
0000
0197
cafe
2c00
0000
0000
0197
cafe
3000
0000
0000
0198
cafe
3400
0000
0000
0195
cafe
3800
0000
0000
019d
cafe
3c00
0000
0000
019a
cafe
2000
0000
0000
01a0
cafe
2400
0000
0000
01a0
cafe
2800
0000
0000
01a3
cafe
2c00
0000
0000
01a0
cafe
3000
0000
0000
019f
cafe
3400
0000
0000
019e
cafe
3800
0000
0000
019e
cafe
3c00
0000
0000
01a1
cafe
2000
0000
0000
01a0
cafe
2400
0000
0000
01a1
cafe
2800
0000
0000
01a3
cafe
2c00
0000
0000
01a2
cafe
3000
0000
0000
01a3
cafe
3400
0000
0000
01a0
cafe
3800
0000
0000
019f
cafe
3c00
0000
0000
01a4
cafe
2000
0000
0000
01a3
cafe
2400
0000
0000
01a5
cafe
2800
0000
0000
019c
cafe
2c00
0000
0000
019f
cafe
3000
0000
0000
019d
cafe
3400
0000
0000
019d
cafe
3800
0000
0000
019d
cafe
3c00
0000
0000
019c
cafe
2000
0000
0000
01a3
cafe
2400
0000
0000
01a0
cafe
2800
0000
0000
019b
cafe
2c00
0000
0000
019c
cafe
3000
-
0000
0000
0199
cafe
3400
0000
0000
019f
cafe
3800
0000
0000
019c
cafe
3c00
0000
0000
019c
cafe
2000
0000
0000
019d
cafe
2400
0000
0000
01a0
cafe
2800
0000
0000
01a0
cafe
2c00
0000
0000
01a1
cafe
3000
0000
0000
019d
cafe
3400
0000
0000
019b
cafe
3800
0000
0000
019e
cafe
3c00
0000
0000
01a1
cafe
2000
0000
0000
01a0
cafe
2400
0000
0000
019c
cafe
2800
0000
0000
019f
cafe
2c00
0000
0000
019d
cafe
3000
0000
0000
019a
cafe
3400
0000
0000
019c
cafe
3800
0000
0000
01a0
cafe
3c00
0000
0000
019d
cafe
2000
0000
0000
019d
cafe
2400
0000
0000
019d
cafe
2800
0000
0000
019a
cafe
2c00
0000
0000
019b
cafe
3000
0000
0000
0198
cafe
3400
0000
0000
0197
cafe
3800
0000
0000
0196
cafe
3c00
0000
0000
0197
cafe
2000
0000
0000
019a
cafe
2400
0000
0000
0197
cafe
2800
0000
0000
0196
cafe
2c00
0000
0000
0198
cafe
3000
0000
0000
0195
cafe
3400
0000
0000
0194
cafe
3800
0000
0000
0199
cafe
3c00
0000
0000
019a
cafe
2000
0000
0000
0199
cafe
2400
0000
0000
019f
cafe
2800
0000
0000
019a
cafe
2c00
0000
0000
01a2
cafe
3000
0000
0000
01a0
cafe
3400
0000
0000
019d
cafe
3800
0000
0000
019e
cafe
3c00
0000
0000
019c
cafe
2000
0000
0000
01a4
cafe
2400
0000
0000
01a1
cafe
2800
0000
0000
01a0
cafe
2c00
0000
0000
01a7
cafe
3000
0000
0000
01a7
cafe
3400
0000
0000
01a4
cafe
3800
0000
0000
01a6
cafe
3c00
0000
-
0000
01a3
cafe
2000
0000
0000
01a1
cafe
2400
0000
0000
01a2
cafe
2800
0000
0000
01a2
cafe
2c00
0000
0000
019e
cafe
3000
0000
0000
019d
cafe
3400
0000
0000
019c
cafe
3800
0000
0000
0199
cafe
3c00
0000
0000
0198
cafe
2000
0000
0000
0196
cafe
2400
0000
0000
019b
cafe
2800
0000
0000
019d
cafe
2c00
0000
0000
019e
cafe
3000
0000
0000
019e
cafe
3400
0000
0000
019e
cafe
3800
0000
0000
0199
cafe
3c00
0000
0000
019f
cafe
2000
0000
0000
0199
cafe
2400
0000
0000
01a1
cafe
2800
0000
0000
01a4
cafe
2c00
0000
0000
01a5
cafe
3000
0000
0000
01a3
cafe
3400
0000
0000
019e
cafe
3800
0000
0000
019e
cafe
3c00
0000
0000
01a2
cafe
2000
0000
0000
019b
cafe
2400
0000
0000
0197
cafe
2800
0000
0000
0197
cafe
2c00
0000
0000
0195
cafe
3000
0000
0000
0195
cafe
3400
0000
0000
019f
cafe
3800
0000
0000
019a
cafe
3c00
0000
0000
01a0
cafe
2000
0000
0000
019a
cafe
2400
0000
0000
019d
cafe
2800
0000
0000
0199
cafe
2c00
0000
0000
0199
cafe
3000
0000
0000
019d
cafe
3400
0000
0000
01a0
cafe
3800
0000
0000
01a2
cafe
3c00
0000
0000
01a4
cafe
2000
0000
0000
019f
cafe
2400
0000
0000
01a1
cafe
2800
0000
0000
019c
cafe
2c00
0000
0000
019e
cafe
3000
0000
0000
01a1
cafe
3400
0000
0000
019f
cafe
3800
0000
0000
01a1
cafe
3c00
0000
0000
01a4
cafe
2000
0000
0000
01a2
cafe
2400
0000
0000
01a2
cafe
2800
0000
0000
-
01a2
cafe
2c00
0000
0000
019f
cafe
3000
0000
0000
01a2
cafe
3400
0000
0000
019d
cafe
3800
0000
0000
01a1
cafe
3c00
0000
0000
019f
cafe
2000
0000
0000
01a2
cafe
2400
0000
0000
01a2
cafe
2800
0000
0000
01a1
cafe
2c00
0000
0000
019d
cafe
3000
0000
0000
01a1
cafe
3400
0000
0000
0198
cafe
3800
0000
0000
0197
cafe
3c00
0000
0000
019b
cafe
2000
0000
0000
019f
cafe
2400
0000
0000
019f
cafe
2800
0000
0000
01a1
cafe
2c00
0000
0000
01a3
cafe
3000
0000
0000
019d
cafe
3400
0000
0000
019e
cafe
3800
0000
0000
0198
cafe
3c00
0000
0000
0198
cafe
2000
0000
0000
0196
cafe
2400
0000
0000
019a
cafe
2800
0000
0000
019d
cafe
2c00
0000
0000
0198
cafe
3000
0000
0000
0196
cafe
3400
0000
0000
0198
cafe
3800
0000
0000
0198
cafe
3c00
0000
0000
0193
cafe
2000
0000
0000
0192
cafe
2400
0000
0000
0197
cafe
2800
0000
0000
0193
cafe
2c00
0000
0000
0196
cafe
3000
0000
0000
019b
cafe
3400
0000
0000
0192
cafe
3800
0000
0000
0199
cafe
3c00
0000
0000
0198
cafe
2000
0000
0000
0199
cafe
2400
0000
0000
019c
cafe
2800
0000
0000
019d
cafe
2c00
0000
0000
0196
cafe
3000
0000
0000
019b
cafe
3400
0000
0000
0199
cafe
3800
0000
0000
0197
cafe
3c00
0000
0000
0198
cafe
2000
0000
0000
0198
cafe
2400
0000
0000
0195
cafe
2800
0000
0000
019c
cafe
2c00
0000
0000
0198
cafe
3000
0000
0000
019e
cafe
3400
0000
0000
01a4
-
cafe
3800
0000
0000
01a2
cafe
3c00
0000
0000
01a2
cafe
2000
0000
0000
01a2
cafe
2400
0000
0000
01a6
cafe
2800
0000
0000
01a3
cafe
2c00
0000
0000
01a4
cafe
3000
0000
0000
01a4
cafe
3400
0000
0000
01a1
cafe
3800
0000
0000
019f
cafe
3c00
0000
0000
01a0
cafe
2000
0000
0000
019e
cafe
2400
0000
0000
019e
cafe
2800
0000
0000
019d
cafe
2c00
0000
0000
019c
cafe
3000
0000
0000
019d
cafe
3400
0000
0000
019f
cafe
3800
0000
0000
019c
cafe
3c00
0000
0000
01a3
cafe
2000
0000
0000
019b
cafe
2400
0000
0000
019d
cafe
2800
0000
0000
019d
cafe
2c00
0000
0000
01a2
cafe
3000
0000
0000
01a0
cafe
3400
0000
0000
019b
cafe
3800
0000
0000
019e
cafe
3c00
0000
0000
019d
cafe
2000
0000
0000
019f
cafe
2400
0000
0000
01a0
cafe
2800
0000
0000
019e
cafe
2c00
0000
0000
01a0
cafe
3000
0000
0000
019e
cafe
3400
0000
0000
019f
cafe
3800
0000
0000
019a
cafe
3c00
0000
0000
019e
cafe
2000
0000
0000
019d
cafe
2400
0000
0000
019b
cafe
2800
0000
0000
019e
cafe
2c00
0000
0000
019a
cafe
3000
0000
0000
019b
cafe
3400
0000
0000
019d
cafe
3800
0000
0000
019c
cafe
3c00
0000
0000
019f
cafe
2000
0000
0000
019a
cafe
2400
0000
0000
019b
cafe
2800
0000
0000
0196
cafe
2c00
0000
0000
0199
cafe
3000
0000
0000
019a
cafe
3400
0000
0000
0198
cafe
3800
0000
0000
019c
cafe
3c00
0000
0000
0194
cafe
2000
0000
0000
019a
cafe
-
2400
0000
0000
019c
cafe
2800
0000
0000
019f
cafe
2c00
0000
0000
019d
cafe
3000
0000
0000
019b
cafe
3400
0000
0000
019f
cafe
3800
0000
0000
0196
cafe
3c00
0000
0000
019c
cafe
2000
0000
0000
019d
cafe
2400
0000
0000
01a2
cafe
2800
0000
0000
0199
cafe
2c00
0000
0000
019b
cafe
3000
0000
0000
01a1
cafe
3400
0000
0000
019f
cafe
3800
0000
0000
01a4
cafe
3c00
0000
0000
019f
cafe
2000
0000
0000
01a1
cafe
2400
0000
0000
01a1
cafe
2800
0000
0000
01a0
cafe
2c00
0000
0000
01a4
cafe
3000
0000
0000
01a2
cafe
3400
0000
0000
01a0
cafe
3800
0000
0000
01a2
cafe
3c00
0000
0000
019d
cafe
2000
0000
0000
01a1
cafe
2400
0000
0000
019d
cafe
2800
0000
0000
01a1
cafe
2c00
0000
0000
019e
cafe
3000
0000
0000
019e
cafe
3400
0000
0000
01a1
cafe
3800
0000
0000
01a1
cafe
3c00
0000
0000
01a4
cafe
2000
0000
0000
019e
cafe
2400
0000
0000
01a1
cafe
2800
0000
0000
01a2
cafe
2c00
0000
0000
019c
cafe
3000
0000
0000
0199
cafe
3400
0000
0000
019f
cafe
3800
0000
0000
019e
cafe
3c00
0000
0000
01a5
cafe
2000
0000
0000
019e
cafe
2400
0000
0000
019d
cafe
2800
0000
0000
019f
cafe
2c00
0000
0000
019b
cafe
3000
0000
0000
01a1
cafe
3400
0000
0000
019f
cafe
3800
0000
0000
01a3
cafe
3c00
0000
0000
01a1
cafe
2000
0000
0000
01a1
cafe
2400
0000
0000
019f
cafe
2800
0000
0000
01a1
cafe
2c00
0000
0000
01a3
cafe
3000
-
0000
0000
01a7
cafe
3400
0000
0000
01a7
cafe
3800
0000
0000
01a2
cafe
3c00
0000
0000
01a0
cafe
2000
0000
0000
019d
cafe
2400
0000
0000
01a3
cafe
2800
0000
0000
019f
cafe
2c00
0000
0000
01a5
cafe
3000
0000
0000
01a0
cafe
3400
0000
0000
019f
cafe
3800
0000
0000
019d
cafe
3c00
0000
0000
019b
cafe
2000
0000
0000
019d
cafe
2400
0000
0000
019a
cafe
2800
0000
0000
0196
cafe
2c00
0000
0000
0195
cafe
3000
0000
0000
0196
cafe
3400
0000
0000
0199
cafe
3800
0000
0000
0198
cafe
3c00
0000
0000
0196
cafe
2000
0000
0000
0195
cafe
2400
0000
0000
0193
cafe
2800
0000
0000
0197
cafe
2c00
0000
0000
0197
cafe
3000
0000
0000
0196
cafe
3400
0000
0000
0197
cafe
3800
0000
0000
0199
cafe
3c00
0000
0000
0199
cafe
2000
0000
0000
019c
cafe
2400
0000
0000
019d
cafe
2800
0000
0000
019e
cafe
2c00
0000
0000
019b
cafe
3000
0000
0000
019d
cafe
3400
0000
0000
019c
cafe
3800
0000
0000
0199
cafe
3c00
0000
0000
0195
cafe
2000
0000
0000
0193
cafe
2400
0000
0000
0198
cafe
2800
0000
0000
0197
cafe
2c00
0000
0000
019e
cafe
3000
0000
0000
0198
cafe
3400
0000
0000
0194
cafe
3800
0000
0000
0195
cafe
3c00
0000
0000
0196
cafe
2000
0000
0000
0198
cafe
2400
0000
0000
019c
cafe
2800
0000
0000
0197
cafe
2c00
0000
0000
019b
cafe
3000
0000
0000
019c
cafe
3400
0000
0000
019e
cafe
3800
0000
0000
019f
cafe
3c00
0000
-
0000
019e
cafe
2000
0000
0000
019e
cafe
2400
0000
0000
019b
cafe
2800
0000
0000
019c
cafe
2c00
0000
0000
019b
cafe
3000
0000
0000
019f
cafe
3400
0000
0000
01a1
cafe
3800
0000
0000
01a1
cafe
3c00
0000
0000
01a4
cafe
2000
0000
0000
01a1
cafe
2400
0000
0000
01a2
cafe
2800
0000
0000
01a2
cafe
2c00
0000
0000
019e
cafe
3000
0000
0000
01a5
cafe
3400
0000
0000
01a3
cafe
3800
0000
0000
01a2
cafe
3c00
0000
0000
019a
cafe
2000
0000
0000
0198
cafe
2400
0000
0000
019e
cafe
2800
0000
0000
0199
cafe
2c00
0000
0000
019b
cafe
3000
0000
0000
0195
cafe
3400
0000
0000
019c
cafe
3800
0000
0000
019d
cafe
3c00
0000
0000
019a
cafe
2000
0000
0000
019c
cafe
2400
0000
0000
0198
cafe
2800
0000
0000
019b
cafe
2c00
0000
0000
01a0
cafe
3000
0000
0000
019d
cafe
3400
0000
0000
019e
cafe
3800
0000
0000
019e
cafe
3c00
0000
0000
019a
cafe
2000
0000
0000
019c
cafe
2400
0000
0000
019e
cafe
2800
0000
0000
019b
cafe
2c00
0000
0000
019f
cafe
3000
0000
0000
01a2
cafe
3400
0000
0000
01a4
cafe
3800
0000
0000
01a8
cafe
3c00
0000
0000
01a6
cafe
2000
0000
0000
01a6
cafe
2400
0000
0000
01aa
cafe
2800
0000
0000
01a8
cafe
2c00
0000
0000
01a2
cafe
3000
0000
0000
01a3
cafe
3400
0000
0000
019f
cafe
3800
0000
0000
019f
cafe
3c00
0000
0000
019b
cafe
2000
0000
0000
019c
cafe
2400
0000
0000
019d
cafe
2800
0000
0000
-
019b
cafe
2c00
0000
0000
019c
cafe
3000
0000
0000
019d
cafe
3400
0000
0000
019b
cafe
3800
0000
0000
0196
cafe
3c00
0000
0000
0192
cafe
2000
0000
0000
0199
cafe
2400
0000
0000
0196
cafe
2800
0000
0000
019b
cafe
2c00
0000
0000
0197
cafe
3000
0000
0000
019b
cafe
3400
0000
0000
0199
cafe
3800
0000
0000
019b
cafe
3c00
0000
0000
01a1
cafe
2000
0000
0000
01a4
cafe
2400
0000
0000
01a8
cafe
2800
0000
0000
01a8
cafe
2c00
0000
0000
01a6
cafe
3000
0000
0000
01a5
cafe
3400
0000
0000
01a6
cafe
3800
0000
0000
01ab
cafe
3c00
0000
0000
01a5
cafe
2000
0000
0000
01a9
cafe
2400
0000
0000
019e
cafe
2800
0000
0000
01a5
cafe
2c00
0000
0000
01a6
cafe
3000
0000
0000
01a5
cafe
3400
0000
0000
019e
cafe
3800
0000
0000
01a1
cafe
3c00
0000
0000
01a1
cafe
2000
0000
0000
019f
cafe
2400
0000
0000
019f
cafe
2800
0000
0000
01a1
cafe
2c00
0000
0000
01a0
cafe
3000
0000
0000
019c
cafe
3400
0000
0000
01a2
cafe
3800
0000
0000
01a1
cafe
3c00
0000
0000
01a3
cafe
2000
0000
0000
019e
cafe
2400
0000
0000
01a4
cafe
2800
0000
0000
01a1
cafe
2c00
0000
0000
019c
cafe
3000
0000
0000
0197
cafe
3400
0000
0000
019a
cafe
3800
0000
0000
0198
cafe
3c00
0000
0000
0197
cafe
2000
0000
0000
0198
cafe
2400
0000
0000
019b
cafe
2800
0000
0000
019f
cafe
2c00
0000
0000
01a3
cafe
3000
0000
0000
01a5
cafe
3400
0000
0000
019f
-
