300e
5556
0580
01c2
cafe
341e
5556
0580
00d6
cafe
3806
5556
0580
0234
cafe
3c16
5556
0584
01a5
cafe
200f
5556
0584
0212
cafe
241f
5556
0584
0122
cafe
2807
5556
0584
01e6
cafe
2c17
5556
0588
016b
cafe
3008
5556
0588
0175
cafe
3418
5556
0588
016d
cafe
3800
5556
0588
0141
cafe
3c10
5556
058c
01d3
cafe
2009
5556
058c
00ed
cafe
2419
5556
058c
015e
cafe
2801
5556
058c
0153
cafe
2c11
5556
0590
015e
cafe
300a
5556
0590
0151
cafe
341a
5556
0590
00d3
cafe
3802
5556
0590
01b8
cafe
3c12
5556
0594
0140
cafe
200b
5556
0594
0172
cafe
241b
5556
0594
01b1
cafe
2803
5556
0594
01e2
cafe
2c13
5556
0598
017c
cafe
300c
5556
0598
016b
cafe
341c
5556
0598
0167
cafe
3804
5556
0598
0178
cafe
3c14
5556
059c
0187
cafe
200d
5556
059c
01db
cafe
241d
5556
059c
01c3
cafe
2805
5556
059c
01a7
cafe
2c15
5556
05a0
00ae
cafe
300e
5556
05a0
01c3
cafe
341e
5556
05a0
00d9
cafe
3806
5556
05a0
022e
cafe
3c16
5556
05a4
01a1
cafe
200f
5556
05a4
020e
cafe
241f
5556
05a4
0121
cafe
2807
5556
05a4
01e5
cafe
2c17
5556
05a8
016d
cafe
3008
5556
05a8
0170
cafe
3418
5556
05a8
016c
cafe
3800
5556
05a8
0144
cafe
3c10
5556
05ac
01d0
cafe
2009
5556
05ac
00f0
cafe
2419
5556
05ac
0164
cafe
2801
5556
05ac
0153
cafe
2c11
5556
05b0
0162
cafe
300a
5556
05b0
0154
cafe
341a
5556
05b0
00d8
cafe
3802
5556
05b0
01b8
cafe
3c12
-
5556
05b4
013f
cafe
200b
5556
05b4
0177
cafe
241b
5556
05b4
01b2
cafe
2803
5556
05b4
01e8
cafe
2c13
5556
05b8
017c
cafe
300c
5556
05b8
0169
cafe
341c
5556
05b8
016b
cafe
3804
5556
05b8
0177
cafe
3c14
5556
05bc
0181
cafe
200d
5556
05bc
01da
cafe
241d
5556
05bc
01bd
cafe
2805
5556
05bc
01a1
cafe
2c15
5556
05c0
00b3
cafe
300e
5556
05c0
01c9
cafe
341e
5556
05c0
00d8
cafe
3806
5556
05c0
022c
cafe
3c16
5556
05c4
019e
cafe
200f
5556
05c4
020b
cafe
241f
5556
05c4
011e
cafe
2807
5556
05c4
01e7
cafe
2c17
5556
05c8
0172
cafe
3008
5556
05c8
016b
cafe
3418
5556
05c8
0169
cafe
3800
5556
05c8
0144
cafe
3c10
5556
05cc
01cc
cafe
2009
5556
05cc
00f0
cafe
2419
5556
05cc
0165
cafe
2801
5556
05cc
0152
cafe
2c11
5556
05d0
015f
cafe
300a
5556
05d0
0158
cafe
341a
5556
05d0
00e1
cafe
3802
5556
05d0
01b7
cafe
3c12
5556
05d4
0143
cafe
200b
5556
05d4
017c
cafe
241b
5556
05d4
01ac
cafe
2803
5556
05d4
01e9
cafe
2c13
5556
05d8
017d
cafe
300c
5556
05d8
016e
cafe
341c
5556
05d8
016a
cafe
3804
5556
05d8
0178
cafe
3c14
5556
05dc
0184
cafe
200d
5556
05dc
01da
cafe
241d
5556
05dc
01b8
cafe
2805
5556
05dc
019f
cafe
2c15
5556
05e0
00b0
cafe
300e
5556
05e0
01c5
cafe
341e
5556
05e0
00d4
cafe
3806
5556
05e0
022f
cafe
3c16
5556
05e4
019b
cafe
200f
5556
05e4
020c
cafe
241f
5556
05e4
0122
cafe
2807
5556
-
05e4
01e7
cafe
2c17
5556
05e8
0171
cafe
3008
5556
05e8
016e
cafe
3418
5556
05e8
016d
cafe
3800
5556
05e8
0147
cafe
3c10
5556
05ec
01cd
cafe
2009
5556
05ec
00ec
cafe
2419
5556
05ec
0166
cafe
2801
5556
05ec
0152
cafe
2c11
5556
05f0
0159
cafe
300a
5556
05f0
0157
cafe
341a
5556
05f0
00de
cafe
3802
5556
05f0
01b6
cafe
3c12
5556
05f4
0145
cafe
200b
5556
05f4
0173
cafe
241b
5556
05f4
01a7
cafe
2803
5556
05f4
01e4
cafe
2c13
5556
05f8
017e
cafe
300c
5556
05f8
0171
cafe
341c
5556
05f8
0170
cafe
3804
5556
05f8
017c
cafe
3c14
5556
05fc
0187
cafe
200d
5556
05fc
01d4
cafe
241d
5556
05fc
01be
cafe
2805
5556
05fc
01a9
cafe
2c15
5556
0600
00ac
cafe
300e
5556
0600
01c8
cafe
341e
5556
0600
00d5
cafe
3806
5556
0600
0231
cafe
3c16
5556
0604
019f
cafe
200f
5556
0604
0212
cafe
241f
5556
0604
011c
cafe
2807
5556
0604
01e0
cafe
2c17
5556
0608
0173
cafe
3008
5556
0608
0171
cafe
3418
5556
0608
016f
cafe
3800
5556
0608
0149
cafe
3c10
5556
060c
01ce
cafe
2009
5556
060c
00e4
cafe
2419
5556
060c
0161
cafe
2801
5556
060c
014f
cafe
2c11
5556
0610
0158
cafe
300a
5556
0610
0152
cafe
341a
5556
0610
00da
cafe
3802
5556
0610
01ae
cafe
3c12
5556
0614
0148
cafe
200b
5556
0614
0176
cafe
241b
5556
0614
01a9
cafe
2803
5556
0614
01e9
cafe
2c13
5556
0618
017e
cafe
300c
5556
0618
0173
cafe
341c
5556
0618
-
0174
cafe
3804
5556
0618
017d
cafe
3c14
5556
061c
0189
cafe
200d
5556
061c
01da
cafe
241d
5556
061c
01bc
cafe
2805
5556
061c
01a8
cafe
2c15
5556
0620
00ae
cafe
300e
5556
0620
01c2
cafe
341e
5556
0620
00db
cafe
3806
5556
0620
0234
cafe
3c16
5556
0624
019b
cafe
200f
5556
0624
0212
cafe
241f
5556
0624
0119
cafe
2807
5556
0624
01e0
cafe
2c17
5556
0628
0174
cafe
3008
5556
0628
0176
cafe
3418
5556
0628
016c
cafe
3800
5556
0628
014f
cafe
3c10
5556
062c
01cb
cafe
2009
5556
062c
00e8
cafe
2419
5556
062c
0168
cafe
2801
5556
062c
014b
cafe
2c11
5556
0630
015c
cafe
300a
5556
0630
0154
cafe
341a
5556
0630
00d5
cafe
3802
5556
0630
01af
cafe
3c12
5556
0634
0149
cafe
200b
5556
0634
016a
cafe
241b
5556
0634
01a8
cafe
2803
5556
0634
01e9
cafe
2c13
5556
0638
0182
cafe
300c
5556
0638
0173
cafe
341c
5556
0638
016f
cafe
3804
5556
0638
0181
cafe
3c14
5556
063c
0187
cafe
200d
5556
063c
01dc
cafe
241d
5556
063c
01bc
cafe
2805
5556
063c
01a2
cafe
2c15
5556
0640
00b3
cafe
300e
5556
0640
01b9
cafe
341e
5556
0640
00de
cafe
3806
5556
0640
022f
cafe
3c16
5556
0644
019c
cafe
200f
5556
0644
020f
cafe
241f
5556
0644
0117
cafe
2807
5556
0644
01df
cafe
2c17
5556
0648
0174
cafe
3008
5556
0648
0179
cafe
3418
5556
0648
016e
cafe
3800
5556
0648
0150
cafe
3c10
5556
064c
01cd
cafe
2009
5556
064c
00ed
-
cafe
2419
5556
064c
015e
cafe
2801
5556
064c
014b
cafe
2c11
5556
0650
0161
cafe
300a
5556
0650
0151
cafe
341a
5556
0650
00d4
cafe
3802
5556
0650
01b4
cafe
3c12
5556
0654
0146
cafe
200b
5556
0654
016a
cafe
241b
5556
0654
01ab
cafe
2803
5556
0654
01e8
cafe
2c13
5556
0658
0182
cafe
300c
5556
0658
017a
cafe
341c
5556
0658
0173
cafe
3804
5556
0658
0180
cafe
3c14
5556
065c
018a
cafe
200d
5556
065c
01d9
cafe
241d
5556
065c
01c4
cafe
2805
5556
065c
01a2
cafe
2c15
5556
0660
00b7
cafe
300e
5556
0660
01ba
cafe
341e
5556
0660
00d4
cafe
3806
5556
0660
022d
cafe
3c16
5556
0664
0199
cafe
200f
5556
0664
020d
cafe
241f
5556
0664
011f
cafe
2807
5556
0664
01e4
cafe
2c17
5556
0668
0175
cafe
3008
5556
0668
0175
cafe
3418
5556
0668
016d
cafe
3800
5556
0668
014a
cafe
3c10
5556
066c
01ce
cafe
2009
5556
066c
00f1
cafe
2419
5556
066c
015f
cafe
2801
5556
066c
0151
cafe
2c11
5556
0670
015e
cafe
300a
5556
0670
0154
cafe
341a
5556
0670
00cf
cafe
3802
5556
0670
01b7
cafe
3c12
5556
0674
0144
cafe
200b
5556
0674
016a
cafe
241b
5556
0674
01b3
cafe
2803
5556
0674
01eb
cafe
2c13
5556
0678
0188
cafe
300c
5556
0678
0177
cafe
341c
5556
0678
0174
cafe
3804
5556
0678
0179
cafe
3c14
5556
067c
018b
cafe
200d
5556
067c
01db
cafe
241d
5556
067c
01c6
cafe
2805
5556
067c
01a8
cafe
2c15
5556
0680
00b6
cafe
-
300e
5556
0680
01b7
cafe
341e
5556
0680
00d3
cafe
3806
5556
0680
0226
cafe
3c16
5556
0684
019a
cafe
200f
5556
0684
0212
cafe
241f
5556
0684
011e
cafe
2807
5556
0684
01e4
cafe
2c17
5556
0688
0170
cafe
3008
5556
0688
0178
cafe
3418
5556
0688
016f
cafe
3800
5556
0688
014c
cafe
3c10
5556
068c
01cb
cafe
2009
5556
068c
00ef
cafe
2419
5556
068c
015d
cafe
2801
5556
068c
0154
cafe
2c11
5556
0690
0160
cafe
300a
5556
0690
014a
cafe
341a
5556
0690
00d5
cafe
3802
5556
0690
01ba
cafe
3c12
5556
0694
0146
cafe
200b
5556
0694
016b
cafe
241b
5556
0694
01b7
cafe
2803
5556
0694
01ee
cafe
2c13
5556
0698
0185
cafe
300c
5556
0698
017a
cafe
341c
5556
0698
0176
cafe
3804
5556
0698
0175
cafe
3c14
5556
069c
018b
cafe
200d
5556
069c
01d7
cafe
241d
5556
069c
01c2
cafe
2805
5556
069c
01aa
cafe
2c15
5556
06a0
00b2
cafe
300e
5556
06a0
01b1
cafe
341e
5556
06a0
00db
cafe
3806
5556
06a0
0229
cafe
3c16
5556
06a4
019f
cafe
200f
5556
06a4
0216
cafe
241f
5556
06a4
0118
cafe
2807
5556
06a4
01e2
cafe
2c17
5556
06a8
0173
cafe
3008
5556
06a8
017e
cafe
3418
5556
06a8
0173
cafe
3800
5556
06a8
0149
cafe
3c10
5556
06ac
01c7
cafe
2009
5556
06ac
00eb
cafe
2419
5556
06ac
0159
cafe
2801
5556
06ac
0154
cafe
2c11
5556
06b0
0160
cafe
300a
5556
06b0
0150
cafe
341a
5556
06b0
00d4
cafe
3802
5556
06b0
01bb
cafe
3c12
-
5556
06b4
0142
cafe
200b
5556
06b4
0166
cafe
241b
5556
06b4
01b0
cafe
2803
5556
06b4
01eb
cafe
2c13
5556
06b8
0185
cafe
300c
5556
06b8
0178
cafe
341c
5556
06b8
017c
cafe
3804
5556
06b8
0175
cafe
3c14
5556
06bc
018a
cafe
200d
5556
06bc
01da
cafe
241d
5556
06bc
01bc
cafe
2805
5556
06bc
01aa
cafe
2c15
5556
06c0
00b3
cafe
300e
5556
06c0
01b1
cafe
341e
5556
06c0
00de
cafe
3806
5556
06c0
022c
cafe
3c16
5556
06c4
01a3
cafe
200f
5556
06c4
0215
cafe
241f
5556
06c4
0119
cafe
2807
5556
06c4
01e2
cafe
2c17
5556
06c8
0171
cafe
3008
5556
06c8
0180
cafe
3418
5556
06c8
0177
cafe
3800
5556
06c8
0150
cafe
3c10
5556
06cc
01c7
cafe
2009
5556
06cc
00e9
cafe
2419
5556
06cc
015c
cafe
2801
5556
06cc
0152
cafe
2c11
5556
06d0
0166
cafe
300a
5556
06d0
014b
cafe
341a
5556
06d0
00d9
cafe
3802
5556
06d0
01c0
cafe
3c12
5556
06d4
0146
cafe
200b
5556
06d4
0165
cafe
241b
5556
06d4
01ac
cafe
2803
5556
06d4
01ee
cafe
2c13
5556
06d8
0180
cafe
300c
5556
06d8
017a
cafe
341c
5556
06d8
017e
cafe
3804
5556
06d8
0178
cafe
3c14
5556
06dc
0187
cafe
200d
5556
06dc
01dd
cafe
241d
5556
06dc
01bf
cafe
2805
5556
06dc
01a7
cafe
2c15
5556
06e0
00b5
cafe
300e
5556
06e0
01b4
cafe
341e
5556
06e0
00d9
cafe
3806
5556
06e0
022b
cafe
3c16
5556
06e4
01a9
cafe
200f
5556
06e4
0214
cafe
241f
5556
06e4
011d
cafe
2807
5556
-
06e4
01e4
cafe
2c17
5556
06e8
0176
cafe
3008
5556
06e8
017a
cafe
3418
5556
06e8
017a
cafe
3800
5556
06e8
014f
cafe
3c10
5556
06ec
01c9
cafe
2009
5556
06ec
00ec
cafe
2419
5556
06ec
015a
cafe
2801
5556
06ec
0152
cafe
2c11
5556
06f0
0161
cafe
300a
5556
06f0
014f
cafe
341a
5556
06f0
00d7
cafe
3802
5556
06f0
01bf
cafe
3c12
5556
06f4
014d
cafe
200b
5556
06f4
016f
cafe
241b
5556
06f4
01ad
cafe
2803
5556
06f4
01f0
cafe
2c13
5556
06f8
0180
cafe
300c
5556
06f8
0178
cafe
341c
5556
06f8
0177
cafe
3804
5556
06f8
0176
cafe
3c14
5556
06fc
0187
cafe
200d
5556
06fc
01d9
cafe
241d
5556
06fc
01c5
cafe
2805
5556
06fc
01ae
cafe
2c15
5556
0700
00b0
cafe
300e
5556
0700
01b9
cafe
341e
5556
0700
00d8
cafe
3806
5556
0700
0233
cafe
3c16
5556
0704
01a8
cafe
200f
5556
0704
0216
cafe
241f
5556
0704
0118
cafe
2807
5556
0704
01de
cafe
2c17
5556
0708
017b
cafe
3008
5556
0708
0174
cafe
3418
5556
0708
0175
cafe
3800
5556
0708
0152
cafe
3c10
5556
070c
01c8
cafe
2009
5556
070c
00ec
cafe
2419
5556
070c
015b
cafe
2801
5556
070c
0155
cafe
2c11
5556
0710
015a
cafe
300a
5556
0710
0151
cafe
341a
5556
0710
00db
cafe
3802
5556
0710
01b7
cafe
3c12
5556
0714
014d
cafe
200b
5556
0714
0175
cafe
241b
5556
0714
01ab
cafe
2803
5556
0714
01f0
cafe
2c13
5556
0718
0183
cafe
300c
5556
0718
0177
cafe
341c
5556
0718
-
0175
cafe
3804
5556
0718
0177
cafe
3c14
5556
071c
0184
cafe
200d
5556
071c
01db
cafe
241d
5556
071c
01bc
cafe
2805
5556
071c
01b0
cafe
2c15
5556
0720
00b7
cafe
300e
5556
0720
01ba
cafe
341e
5556
0720
00d6
cafe
3806
5556
0720
0230
cafe
3c16
5556
0724
01a8
cafe
200f
5556
0724
0213
cafe
241f
5556
0724
011b
cafe
2807
5556
0724
01df
cafe
2c17
5556
0728
0176
cafe
3008
5556
0728
0176
cafe
3418
5556
0728
016f
cafe
3800
5556
0728
0150
cafe
3c10
5556
072c
01c8
cafe
2009
5556
072c
00ea
cafe
2419
5556
072c
015e
cafe
2801
5556
072c
0157
cafe
2c11
5556
0730
015a
cafe
300a
5556
0730
0150
cafe
341a
5556
0730
00db
cafe
3802
5556
0730
01b8
cafe
3c12
5556
0734
014b
cafe
200b
5556
0734
0179
cafe
241b
5556
0734
01b4
cafe
2803
5556
0734
01ed
cafe
2c13
5556
0738
0182
cafe
300c
5556
0738
017b
cafe
341c
5556
0738
0172
cafe
3804
5556
0738
017a
cafe
3c14
5556
073c
0188
cafe
200d
5556
073c
01de
cafe
241d
5556
073c
01bb
cafe
2805
5556
073c
01ae
cafe
2c15
5556
0740
00b0
cafe
300e
5556
0740
01bf
cafe
341e
5556
0740
00d3
cafe
3806
5556
0740
0233
cafe
3c16
5556
0744
01a7
cafe
200f
5556
0744
020f
cafe
241f
5556
0744
011f
cafe
2807
5556
0744
01dd
cafe
2c17
5556
0748
017a
cafe
3008
5556
0748
0176
cafe
3418
5556
0748
016d
cafe
3800
5556
0748
014b
cafe
3c10
5556
074c
01d1
cafe
2009
5556
074c
00ee
-
cafe
2419
5556
074c
015c
cafe
2801
5556
074c
0159
cafe
2c11
5556
0750
0156
cafe
300a
5556
0750
0154
cafe
341a
5556
0750
00db
cafe
3802
5556
0750
01ba
cafe
3c12
5556
0754
0149
cafe
200b
5556
0754
017b
cafe
241b
5556
0754
01b5
cafe
2803
5556
0754
01ee
cafe
2c13
5556
0758
0184
cafe
300c
5556
0758
0175
cafe
341c
5556
0758
0173
cafe
3804
5556
0758
0179
cafe
3c14
5556
075c
018d
cafe
200d
5556
075c
01db
cafe
241d
5556
075c
01b6
cafe
2805
5556
075c
01ac
cafe
2c15
5556
0760
00ac
cafe
300e
5556
0760
01c0
cafe
341e
5556
0760
00cc
cafe
3806
5556
0760
0238
cafe
3c16
5556
0764
01a6
cafe
200f
5556
0764
0212
cafe
241f
5556
0764
0123
cafe
2807
5556
0764
01da
cafe
2c17
5556
0768
0179
cafe
3008
5556
0768
0172
cafe
3418
5556
0768
016f
cafe
3800
5556
0768
0151
cafe
3c10
5556
076c
01c9
cafe
2009
5556
076c
00ea
cafe
2419
5556
076c
015e
cafe
2801
5556
076c
0154
cafe
2c11
5556
0770
0157
cafe
300a
5556
0770
0159
cafe
341a
5556
0770
00df
cafe
3802
5556
0770
01c0
cafe
3c12
5556
0774
0149
cafe
200b
5556
0774
017c
cafe
241b
5556
0774
01b9
cafe
2803
5556
0774
01eb
cafe
2c13
5556
0778
0184
cafe
300c
5556
0778
017b
cafe
341c
5556
0778
0178
cafe
3804
5556
0778
017c
cafe
3c14
5556
077c
018e
cafe
200d
5556
077c
01dc
cafe
241d
5556
077c
01b6
cafe
2805
5556
077c
01af
cafe
2c15
5556
0780
00ab
cafe
-
300e
5556
0780
01c3
cafe
341e
5556
0780
00d0
cafe
3806
5556
0780
0238
cafe
3c16
5556
0784
01a4
cafe
200f
5556
0784
0211
cafe
241f
5556
0784
0123
cafe
2807
5556
0784
01d7
cafe
2c17
5556
0788
0181
cafe
3008
5556
0788
0171
cafe
3418
5556
0788
016e
cafe
3800
5556
0788
0153
cafe
3c10
5556
078c
01cf
cafe
2009
5556
078c
00ef
cafe
2419
5556
078c
0161
cafe
2801
5556
078c
0152
cafe
2c11
5556
0790
0156
cafe
300a
5556
0790
0161
cafe
341a
5556
0790
00df
cafe
3802
5556
0790
01c5
cafe
3c12
5556
0794
0144
cafe
200b
5556
0794
0175
cafe
241b
5556
0794
01b7
cafe
2803
5556
0794
01e6
cafe
2c13
5556
0798
0187
cafe
300c
5556
0798
0173
cafe
341c
5556
0798
0177
cafe
3804
5556
0798
017a
cafe
3c14
5556
079c
0192
cafe
200d
5556
079c
01d7
cafe
241d
5556
079c
01b4
cafe
2805
5556
079c
01af
cafe
2c15
5556
07a0
00a9
cafe
300e
5556
07a0
01c8
cafe
341e
5556
07a0
00cf
cafe
3806
5556
07a0
023a
cafe
3c16
5556
07a4
01a6
cafe
200f
5556
07a4
0210
cafe
241f
5556
07a4
0124
cafe
2807
5556
07a4
01d1
cafe
2c17
5556
07a8
0177
cafe
3008
5556
07a8
0175
cafe
3418
5556
07a8
0171
cafe
3800
5556
07a8
0152
cafe
3c10
5556
07ac
01ca
cafe
2009
5556
07ac
0126
cafe
2419
5556
07ac
0198
cafe
2801
5556
07ac
018c
cafe
2c11
5556
07b0
0189
cafe
300a
5556
07b0
022b
cafe
341a
5556
07b0
01a9
cafe
3802
5556
07b0
028c
cafe
3c12
-
5556
07b4
0211
cafe
200b
5556
07b4
02d9
cafe
241b
5556
07b4
0318
cafe
2803
5556
07b4
0342
cafe
2c13
5556
07b8
02f3
cafe
300c
5556
07b8
0366
cafe
341c
5556
07b8
0364
cafe
3804
5556
07b8
035e
cafe
3c14
5556
07bc
0387
cafe
200d
5556
07bc
044e
cafe
241d
5556
07bc
0418
cafe
2805
5556
07bc
040f
cafe
2c15
5556
07c0
031d
cafe
300e
5556
07c0
04ac
cafe
341e
5556
07c0
03a8
cafe
3806
5556
07c0
050f
cafe
3c16
5556
07c4
048c
cafe
200f
5556
07c4
0559
cafe
241f
5556
07c4
0465
cafe
2807
5556
07c4
0509
cafe
2c17
5556
07c8
04bc
cafe
3008
5556
07c8
0519
cafe
3418
5556
07c8
051a
cafe
3800
5556
07c8
04ed
cafe
3c10
5556
07cc
057f
cafe
2009
5556
07cc
04e7
cafe
2419
5556
07cc
0558
cafe
2801
5556
07cc
0547
cafe
2c11
5556
07d0
0556
cafe
300a
5556
07d0
05af
cafe
341a
5556
07d0
052c
cafe
3802
5556
07d0
05fb
cafe
3c12
5556
07d4
0598
cafe
200b
5556
07d4
0611
cafe
241b
5556
07d4
0643
cafe
2803
5556
07d4
066a
cafe
2c13
5556
07d8
062e
cafe
300c
5556
07d8
0656
cafe
341c
5556
07d8
064d
cafe
3804
5556
07d8
063f
cafe
3c14
5556
07dc
0687
cafe
200d
5556
07dc
0706
cafe
241d
5556
07dc
06cc
cafe
2805
5556
07dc
06b4
cafe
2c15
5556
07e0
05d2
cafe
300e
5556
07e0
072c
cafe
341e
5556
07e0
0629
cafe
3806
5556
07e0
077b
cafe
3c16
5556
07e4
0710
cafe
200f
5556
07e4
07a0
cafe
241f
5556
07e4
06af
cafe
2807
5556
-
07e4
074b
cafe
2c17
5556
07e8
0707
cafe
3008
5556
07e8
072a
cafe
3418
5556
07e8
072f
cafe
3800
5556
07e8
0703
cafe
3c10
5556
07ec
0798
cafe
2009
5556
07ec
06ca
cafe
2419
5556
07ec
0743
cafe
2801
5556
07ec
0728
cafe
2c11
5556
07f0
073b
cafe
300a
5556
07f0
076d
cafe
341a
5556
07f0
06e1
cafe
3802
5556
07f0
07bb
cafe
3c12
5556
07f4
075f
cafe
200b
5556
07f4
07a7
cafe
241b
5556
07f4
07d8
cafe
2803
5556
07f4
07f8
cafe
2c13
5556
07f8
07c4
cafe
300c
5556
07f8
07cc
cafe
341c
5556
07f8
07b6
cafe
3804
5556
07f8
07a8
cafe
3c14
5556
07fc
07f4
cafe
200d
5556
07fc
0850
cafe
241d
5556
07fc
0824
cafe
2805
5556
07fc
0807
cafe
2c15
5556
0800
071f
cafe
300e
5556
0800
085d
cafe
341e
5556
0800
075e
cafe
3806
5556
0800
08ab
cafe
3c16
5556
0804
0841
cafe
200f
5556
0804
08b7
cafe
241f
5556
0804
07d1
cafe
2807
5556
0804
0864
cafe
2c17
5556
0808
081f
cafe
3008
5556
0808
0828
cafe
3418
5556
0808
0831
cafe
3800
5556
0808
0808
cafe
3c10
5556
080c
0899
cafe
2009
5556
080c
07ae
cafe
2419
5556
080c
0829
cafe
2801
5556
080c
0819
cafe
2c11
5556
0810
081d
cafe
300a
5556
0810
083e
cafe
341a
5556
0810
07b4
cafe
3802
5556
0810
0895
cafe
3c12
5556
0814
0838
cafe
200b
5556
0814
0866
cafe
241b
5556
0814
089c
cafe
2803
5556
0814
08b8
cafe
2c13
5556
0818
088a
cafe
300c
5556
0818
0881
cafe
341c
5556
0818
-
086d
cafe
3804
5556
0818
085b
cafe
3c14
5556
081c
08ac
cafe
200d
5556
081c
08f5
cafe
241d
5556
081c
08c5
cafe
2805
5556
081c
08ae
cafe
2c15
5556
0820
07c3
cafe
300e
5556
0820
08f2
cafe
341e
5556
0820
07fc
cafe
3806
5556
0820
093f
cafe
3c16
5556
0824
08d9
cafe
200f
5556
0824
0941
cafe
241f
5556
0824
0851
cafe
2807
5556
0824
08f1
cafe
2c17
5556
0828
08a8
cafe
3008
5556
0828
08a3
cafe
3418
5556
0828
08a9
cafe
3800
5556
0828
0885
cafe
3c10
5556
082c
0910
cafe
2009
5556
082c
0817
cafe
2419
5556
082c
0893
cafe
2801
5556
082c
0887
cafe
2c11
5556
0830
088a
cafe
300a
5556
0830
08a2
cafe
341a
5556
0830
0819
cafe
3802
5556
0830
08fa
cafe
3c12
5556
0834
08a0
cafe
200b
5556
0834
08bc
cafe
241b
5556
0834
08f9
cafe
2803
5556
0834
0915
cafe
2c13
5556
0838
08e6
cafe
300c
5556
0838
08d5
cafe
341c
5556
0838
08bc
cafe
3804
5556
0838
08a7
cafe
3c14
5556
083c
0901
cafe
200d
5556
083c
093b
cafe
241d
5556
083c
090f
cafe
2805
5556
083c
08fb
cafe
2c15
5556
0840
0805
cafe
300e
5556
0840
092e
cafe
341e
5556
0840
083d
cafe
3806
5556
0840
0984
cafe
3c16
5556
0844
091b
cafe
200f
5556
0844
097b
cafe
241f
5556
0844
088c
cafe
2807
5556
0844
092b
cafe
2c17
5556
0848
08e2
cafe
3008
5556
0848
08d2
cafe
3418
5556
0848
08db
cafe
3800
5556
0848
08ba
cafe
3c10
5556
084c
0942
cafe
2009
5556
084c
083a
-
cafe
2419
5556
084c
08b8
cafe
2801
5556
084c
08b2
cafe
2c11
5556
0850
08b4
cafe
300a
5556
0850
08c7
cafe
341a
5556
0850
0844
cafe
3802
5556
0850
0920
cafe
3c12
5556
0854
08c8
cafe
200b
5556
0854
08e3
cafe
241b
5556
0854
0917
cafe
2803
5556
0854
0934
cafe
2c13
5556
0858
0902
cafe
300c
5556
0858
08f0
cafe
341c
5556
0858
08d5
cafe
3804
5556
0858
08c3
cafe
3c14
5556
085c
0921
cafe
200d
5556
085c
095b
cafe
241d
5556
085c
0928
cafe
2805
5556
085c
0911
cafe
2c15
5556
0860
0820
cafe
300e
5556
0860
094b
cafe
341e
5556
0860
0854
cafe
3806
5556
0860
099e
cafe
3c16
5556
0864
0933
cafe
200f
5556
0864
0993
cafe
241f
5556
0864
089c
cafe
2807
5556
0864
0942
cafe
2c17
5556
0868
08f2
cafe
3008
5556
0868
08e0
cafe
3418
5556
0868
08e8
cafe
3800
5556
0868
08c9
cafe
3c10
5556
086c
0950
cafe
2009
5556
086c
083c
cafe
2419
5556
086c
08cb
cafe
2801
5556
086c
08b6
cafe
2c11
5556
0870
08c1
cafe
300a
5556
0870
08ca
cafe
341a
5556
0870
084c
cafe
3802
5556
0870
0927
cafe
3c12
5556
0874
08d3
cafe
200b
5556
0874
08e9
cafe
241b
5556
0874
0919
cafe
2803
5556
0874
0938
cafe
2c13
5556
0878
090a
cafe
300c
5556
0878
08f9
cafe
341c
5556
0878
08db
cafe
3804
5556
0878
08c7
cafe
3c14
5556
087c
0926
cafe
200d
5556
087c
0958
cafe
241d
5556
087c
0920
cafe
2805
5556
087c
0910
cafe
2c15
5556
0880
0821
cafe
-
300e
5556
0880
0951
cafe
341e
5556
0880
0858
cafe
3806
5556
0880
09a2
cafe
3c16
5556
0884
0939
cafe
200f
5556
0884
0993
cafe
241f
5556
0884
089f
cafe
2807
5556
0884
093f
cafe
2c17
5556
0888
08eb
cafe
3008
5556
0888
08dc
cafe
3418
5556
0888
08e0
cafe
3800
5556
0888
08c1
cafe
3c10
5556
088c
0951
cafe
2009
5556
088c
0830
cafe
2419
5556
088c
08c4
cafe
2801
5556
088c
08b4
cafe
2c11
5556
0890
08b7
cafe
300a
5556
0890
08c1
cafe
341a
5556
0890
0843
cafe
3802
5556
0890
0920
cafe
3c12
5556
0894
08c6
cafe
200b
5556
0894
08df
cafe
241b
5556
0894
090a
cafe
2803
5556
0894
092e
cafe
2c13
5556
0898
08ff
cafe
300c
5556
0898
08ef
cafe
341c
5556
0898
08c9
cafe
3804
5556
0898
08b8
cafe
3c14
5556
089c
091b
cafe
200d
5556
089c
0946
cafe
241d
5556
089c
0914
cafe
2805
5556
089c
0905
cafe
2c15
5556
08a0
0812
cafe
300e
5556
08a0
094a
cafe
341e
5556
08a0
0848
cafe
3806
5556
08a0
099a
cafe
3c16
5556
08a4
092f
cafe
200f
5556
08a4
0986
cafe
241f
5556
08a4
088f
cafe
2807
5556
08a4
0933
cafe
2c17
5556
08a8
08db
cafe
3008
5556
08a8
08d5
cafe
3418
5556
08a8
08d5
cafe
3800
5556
08a8
08ae
cafe
3c10
5556
08ac
094a
cafe
2009
5556
08ac
0820
cafe
2419
5556
08ac
08b6
cafe
2801
5556
08ac
08a5
cafe
2c11
5556
08b0
08a8
cafe
300a
5556
08b0
08b7
cafe
341a
5556
08b0
0835
cafe
3802
5556
08b0
0910
cafe
3c12
-
5556
08b4
08bb
cafe
200b
5556
08b4
08cf
cafe
241b
5556
08b4
08f9
cafe
2803
5556
08b4
0921
cafe
2c13
5556
08b8
08f1
cafe
300c
5556
08b8
08e5
cafe
341c
5556
08b8
08b9
cafe
3804
5556
08b8
08a5
cafe
3c14
5556
08bc
0914
cafe
200d
5556
08bc
093b
cafe
241d
5556
08bc
0906
cafe
2805
5556
08bc
08f0
cafe
2c15
5556
08c0
07f8
cafe
300e
5556
08c0
0944
cafe
341e
5556
08c0
0830
cafe
3806
5556
08c0
098b
cafe
3c16
5556
08c4
091e
cafe
200f
5556
08c4
096b
cafe
241f
5556
08c4
0873
cafe
2807
5556
08c4
0922
cafe
2c17
5556
08c8
08c9
cafe
3008
5556
08c8
08c0
cafe
3418
5556
08c8
08bd
cafe
3800
5556
08c8
0898
cafe
3c10
5556
08cc
093a
cafe
2009
5556
08cc
080a
cafe
2419
5556
08cc
08a4
cafe
2801
5556
08cc
0887
cafe
2c11
5556
08d0
089a
cafe
300a
5556
08d0
089d
cafe
341a
5556
08d0
0817
cafe
3802
5556
08d0
08ff
cafe
3c12
5556
08d4
08a9
cafe
200b
5556
08d4
08bf
cafe
241b
5556
08d4
08f0
cafe
2803
5556
08d4
090e
cafe
2c13
5556
08d8
08d9
cafe
300c
5556
08d8
08d6
cafe
341c
5556
08d8
089d
cafe
3804
5556
08d8
0890
cafe
3c14
5556
08dc
08fd
cafe
200d
5556
08dc
0931
cafe
241d
5556
08dc
08f5
cafe
2805
5556
08dc
08e3
cafe
2c15
5556
08e0
07e8
cafe
300e
5556
08e0
0932
cafe
341e
5556
08e0
0822
cafe
3806
5556
08e0
0977
cafe
3c16
5556
08e4
0911
cafe
200f
5556
08e4
0958
cafe
241f
5556
08e4
0854
cafe
2807
5556
-
08e4
090e
cafe
2c17
5556
08e8
08b1
cafe
3008
5556
08e8
08a8
cafe
3418
5556
08e8
089e
cafe
3800
5556
08e8
087a
cafe
3c10
5556
08ec
0922
cafe
2009
5556
08ec
07f1
cafe
2419
5556
08ec
0890
cafe
2801
5556
08ec
0877
cafe
2c11
5556
08f0
0889
cafe
300a
5556
08f0
0889
cafe
341a
5556
08f0
0803
cafe
3802
5556
08f0
08e7
cafe
3c12
5556
08f4
0898
cafe
200b
5556
08f4
08ac
cafe
241b
5556
08f4
08db
cafe
2803
5556
08f4
08f7
cafe
2c13
5556
08f8
08c8
cafe
300c
5556
08f8
08c4
cafe
341c
5556
08f8
0888
cafe
3804
5556
08f8
0885
cafe
3c14
5556
08fc
08e6
cafe
200d
5556
08fc
091b
cafe
241d
5556
08fc
08e0
cafe
2805
5556
08fc
08d0
cafe
2c15
5556
0900
07d2
cafe
300e
5556
0900
0914
cafe
341e
5556
0900
0800
cafe
3806
5556
0900
0966
cafe
3c16
5556
0904
08f8
cafe
200f
5556
0904
093f
cafe
241f
5556
0904
083b
cafe
2807
5556
0904
08f5
cafe
2c17
5556
0908
0897
cafe
3008
5556
0908
088a
cafe
3418
5556
0908
0884
cafe
3800
5556
0908
0861
cafe
3c10
5556
090c
090e
cafe
2009
5556
090c
07dc
cafe
2419
5556
090c
0879
cafe
2801
5556
090c
085a
cafe
2c11
5556
0910
0874
cafe
300a
5556
0910
086e
cafe
341a
5556
0910
07f3
cafe
3802
5556
0910
08d5
cafe
3c12
5556
0914
0881
cafe
200b
5556
0914
0895
cafe
241b
5556
0914
08c1
cafe
2803
5556
0914
08dc
cafe
2c13
5556
0918
08b2
cafe
300c
5556
0918
08ae
cafe
341c
5556
0918
-
0869
cafe
3804
5556
0918
086c
cafe
3c14
5556
091c
08d3
cafe
200d
5556
091c
0907
cafe
241d
5556
091c
08c3
cafe
2805
5556
091c
08bd
cafe
2c15
5556
0920
07bd
cafe
300e
5556
0920
08fb
cafe
341e
5556
0920
07e9
cafe
3806
5556
0920
094f
cafe
3c16
5556
0924
08de
cafe
200f
5556
0924
092d
cafe
241f
5556
0924
0828
cafe
2807
5556
0924
08da
cafe
2c17
5556
0928
0881
cafe
3008
5556
0928
086d
cafe
3418
5556
0928
086c
cafe
3800
5556
0928
084b
cafe
3c10
5556
092c
08f9
cafe
2009
5556
092c
07bd
cafe
2419
5556
092c
085b
cafe
2801
5556
092c
083f
cafe
2c11
5556
0930
0856
cafe
300a
5556
0930
0845
cafe
341a
5556
0930
07d9
cafe
3802
5556
0930
08b5
cafe
3c12
5556
0934
0863
cafe
200b
5556
0934
086f
cafe
241b
5556
0934
08a7
cafe
2803
5556
0934
08be
cafe
2c13
5556
0938
088a
cafe
300c
5556
0938
088b
cafe
341c
5556
0938
0848
cafe
3804
5556
0938
0847
cafe
3c14
5556
093c
08b3
cafe
200d
5556
093c
08e7
cafe
241d
5556
093c
08a5
cafe
2805
5556
093c
08a7
cafe
2c15
5556
0940
079b
cafe
300e
5556
0940
08e3
cafe
341e
5556
0940
07cf
cafe
3806
5556
0940
0936
cafe
3c16
5556
0944
08bd
cafe
200f
5556
0944
0919
cafe
241f
5556
0944
080c
cafe
2807
5556
0944
08c3
cafe
2c17
5556
0948
0868
cafe
3008
5556
0948
0856
cafe
3418
5556
0948
0855
cafe
3800
5556
0948
0834
cafe
3c10
5556
094c
08e6
cafe
2009
5556
094c
07a3
-
cafe
2419
5556
094c
0847
cafe
2801
5556
094c
0826
cafe
2c11
5556
0950
084a
cafe
300a
5556
0950
0837
cafe
341a
5556
0950
07bf
cafe
3802
5556
0950
089f
cafe
3c12
5556
0954
0853
cafe
200b
5556
0954
0859
cafe
241b
5556
0954
0898
cafe
2803
5556
0954
08ac
cafe
2c13
5556
0958
087e
cafe
300c
5556
0958
0879
cafe
341c
5556
0958
0834
cafe
3804
5556
0958
0834
cafe
3c14
5556
095c
08a0
cafe
200d
5556
095c
08d4
cafe
241d
5556
095c
088b
cafe
2805
5556
095c
0894
cafe
2c15
5556
0960
077c
cafe
300e
5556
0960
08c6
cafe
341e
5556
0960
07b9
cafe
3806
5556
0960
0922
cafe
3c16
5556
0964
08a8
cafe
200f
5556
0964
0900
cafe
241f
5556
0964
07f3
cafe
2807
5556
0964
08aa
cafe
2c17
5556
0968
084b
cafe
3008
5556
0968
083c
cafe
3418
5556
0968
083c
cafe
3800
5556
0968
081b
cafe
3c10
5556
096c
08c8
cafe
2009
5556
096c
077b
cafe
2419
5556
096c
0829
cafe
2801
5556
096c
080d
cafe
2c11
5556
0970
0830
cafe
300a
5556
0970
0822
cafe
341a
5556
0970
07a2
cafe
3802
5556
0970
0881
cafe
3c12
5556
0974
0835
cafe
200b
5556
0974
0847
cafe
241b
5556
0974
0884
cafe
2803
5556
0974
0891
cafe
2c13
5556
0978
086e
cafe
300c
5556
0978
086a
cafe
341c
5556
0978
081a
cafe
3804
5556
0978
0827
cafe
3c14
5556
097c
0898
cafe
200d
5556
097c
08c0
cafe
241d
5556
097c
0871
cafe
2805
5556
097c
087d
cafe
2c15
5556
0980
0760
cafe
-
300e
5556
0980
08b2
cafe
341e
5556
0980
079e
cafe
3806
5556
0980
090c
cafe
3c16
5556
0984
089a
cafe
200f
5556
0984
08f1
cafe
241f
5556
0984
07db
cafe
2807
5556
0984
089b
cafe
2c17
5556
0988
0836
cafe
3008
5556
0988
0824
cafe
3418
5556
0988
0823
cafe
3800
5556
0988
07fe
cafe
3c10
5556
098c
08b2
cafe
2009
5556
098c
0762
cafe
2419
5556
098c
080d
cafe
2801
5556
098c
07f5
cafe
2c11
5556
0990
081b
cafe
300a
5556
0990
0819
cafe
341a
5556
0990
0789
cafe
3802
5556
0990
086f
cafe
3c12
5556
0994
0822
cafe
200b
5556
0994
0837
cafe
241b
5556
0994
0870
cafe
2803
5556
0994
0882
cafe
2c13
5556
0998
085d
cafe
300c
5556
0998
0854
cafe
341c
5556
0998
0802
cafe
3804
5556
0998
0814
cafe
3c14
5556
099c
0880
cafe
200d
5556
099c
08a9
cafe
241d
5556
099c
085f
cafe
2805
5556
099c
0863
cafe
2c15
5556
09a0
0754
cafe
300e
5556
09a0
08a6
cafe
341e
5556
09a0
0780
cafe
3806
5556
09a0
08f9
cafe
3c16
5556
09a4
0884
cafe
200f
5556
09a4
08de
cafe
241f
5556
09a4
07c2
cafe
2807
5556
09a4
0883
cafe
2c17
5556
09a8
081e
cafe
3008
5556
09a8
080e
cafe
3418
5556
09a8
0809
cafe
3800
5556
09a8
07e8
cafe
3c10
5556
09ac
089f
cafe
2009
5556
09ac
0744
cafe
2419
5556
09ac
07f3
cafe
2801
5556
09ac
07d6
cafe
2c11
5556
09b0
0803
cafe
300a
5556
09b0
0804
cafe
341a
5556
09b0
0775
cafe
3802
5556
09b0
0856
cafe
3c12
-
5556
09b4
0801
cafe
200b
5556
09b4
0826
cafe
241b
5556
09b4
0859
cafe
2803
5556
09b4
086c
cafe
2c13
5556
09b8
084e
cafe
300c
5556
09b8
0857
cafe
341c
5556
09b8
07eb
cafe
3804
5556
09b8
080e
cafe
3c14
5556
09bc
0883
cafe
200d
5556
09bc
08c0
cafe
241d
5556
09bc
084c
cafe
2805
5556
09bc
0862
cafe
2c15
5556
09c0
075d
cafe
300e
5556
09c0
08bd
cafe
341e
5556
09c0
0763
cafe
3806
5556
09c0
090a
cafe
3c16
5556
09c4
088c
cafe
200f
5556
09c4
0905
cafe
241f
5556
09c4
07af
cafe
2807
5556
09c4
088c
cafe
2c17
5556
09c8
082a
cafe
3008
5556
09c8
0821
cafe
3418
5556
09c8
080c
cafe
3800
5556
09c8
07da
cafe
3c10
5556
09cc
08be
cafe
2009
5556
09cc
0750
cafe
2419
5556
09cc
07f3
cafe
2801
5556
09cc
07c6
cafe
2c11
5556
09d0
081c
cafe
300a
5556
09d0
0816
cafe
341a
5556
09d0
0768
cafe
3802
5556
09d0
084e
cafe
3c12
5556
09d4
081a
cafe
200b
5556
09d4
0836
cafe
241b
5556
09d4
0852
cafe
2803
5556
09d4
0866
cafe
2c13
5556
09d8
0869
cafe
300c
5556
09d8
0879
cafe
341c
5556
09d8
07e0
cafe
3804
5556
09d8
0812
cafe
3c14
5556
09dc
0895
cafe
200d
5556
09dc
08ce
cafe
241d
5556
09dc
0840
cafe
2805
5556
09dc
085d
cafe
2c15
5556
09e0
075c
cafe
300e
5556
09e0
08d0
cafe
341e
5556
09e0
074a
cafe
3806
5556
09e0
090d
cafe
3c16
5556
09e4
088d
cafe
200f
5556
09e4
0909
cafe
241f
5556
09e4
0795
cafe
2807
5556
-
09e4
088b
cafe
2c17
5556
09e8
082d
cafe
3008
5556
09e8
081f
cafe
3418
5556
09e8
07fe
cafe
3800
5556
09e8
07c1
cafe
3c10
5556
09ec
08c2
cafe
2009
5556
09ec
0751
cafe
2419
5556
09ec
07eb
cafe
2801
5556
09ec
07b4
cafe
2c11
5556
09f0
081f
cafe
300a
5556
09f0
0819
cafe
341a
5556
09f0
0760
cafe
3802
5556
09f0
0845
cafe
3c12
5556
09f4
0824
cafe
200b
5556
09f4
083c
cafe
241b
5556
09f4
0844
cafe
2803
5556
09f4
085b
cafe
2c13
5556
09f8
0874
cafe
300c
5556
09f8
0880
cafe
341c
5556
09f8
07c4
cafe
3804
5556
09f8
080d
cafe
3c14
5556
09fc
0896
cafe
200d
5556
09fc
08cb
cafe
241d
5556
09fc
082c
cafe
2805
5556
09fc
0852
cafe
2c15
5556
0a00
0756
cafe
300e
5556
0a00
08c4
cafe
341e
5556
0a00
072d
cafe
3806
5556
0a00
08fa
cafe
3c16
5556
0a04
087d
cafe
200f
5556
0a04
0900
cafe
241f
5556
0a04
0778
cafe
2807
5556
0a04
087d
cafe
2c17
5556
0a08
081d
cafe
3008
5556
0a08
080e
cafe
3418
5556
0a08
07ee
cafe
3800
5556
0a08
07a4
cafe
3c10
5556
0a0c
08b5
cafe
2009
5556
0a0c
0744
cafe
2419
5556
0a0c
07d8
cafe
2801
5556
0a0c
079c
cafe
2c11
5556
0a10
0819
cafe
300a
5556
0a10
080a
cafe
341a
5556
0a10
074b
cafe
3802
5556
0a10
082f
cafe
3c12
5556
0a14
081c
cafe
200b
5556
0a14
0835
cafe
241b
5556
0a14
0834
cafe
2803
5556
0a14
0843
cafe
2c13
5556
0a18
0867
cafe
300c
5556
0a18
0872
cafe
341c
5556
0a18
-
07b5
cafe
3804
5556
0a18
07fc
cafe
3c14
5556
0a1c
0885
cafe
200d
5556
0a1c
08bd
cafe
241d
5556
0a1c
0815
cafe
2805
5556
0a1c
083f
cafe
2c15
5556
0a20
0746
cafe
300e
5556
0a20
08b4
cafe
341e
5556
0a20
071c
cafe
3806
5556
0a20
08e4
cafe
3c16
5556
0a24
0868
cafe
200f
5556
0a24
08e8
cafe
241f
5556
0a24
075b
cafe
2807
5556
0a24
0865
cafe
2c17
5556
0a28
0804
cafe
3008
5556
0a28
07fc
cafe
3418
5556
0a28
07df
cafe
3800
5556
0a28
0790
cafe
3c10
5556
0a2c
08a8
cafe
2009
5556
0a2c
072e
cafe
2419
5556
0a2c
07c7
cafe
2801
5556
0a2c
0783
cafe
2c11
5556
0a30
0807
cafe
300a
5556
0a30
07fc
cafe
341a
5556
0a30
072f
cafe
3802
5556
0a30
081e
cafe
3c12
5556
0a34
080a
cafe
200b
5556
0a34
082a
cafe
241b
5556
0a34
0822
cafe
2803
5556
0a34
082e
cafe
2c13
5556
0a38
085b
cafe
300c
5556
0a38
0864
cafe
341c
5556
0a38
0799
cafe
3804
5556
0a38
07ee
cafe
3c14
5556
0a3c
086e
cafe
200d
5556
0a3c
08a7
cafe
241d
5556
0a3c
07fc
cafe
2805
5556
0a3c
082f
cafe
2c15
5556
0a40
0731
cafe
300e
5556
0a40
08a2
cafe
341e
5556
0a40
06ff
cafe
3806
5556
0a40
08ce
cafe
3c16
5556
0a44
0851
cafe
200f
5556
0a44
08d8
cafe
241f
5556
0a44
0746
cafe
2807
5556
0a44
084f
cafe
2c17
5556
0a48
07f2
cafe
3008
5556
0a48
07f1
cafe
3418
5556
0a48
07cb
cafe
3800
5556
0a48
0777
cafe
3c10
5556
0a4c
0898
cafe
2009
5556
0a4c
071d
-
cafe
2419
5556
0a4c
07b5
cafe
2801
5556
0a4c
076c
cafe
2c11
5556
0a50
0805
cafe
300a
5556
0a50
07f5
cafe
341a
5556
0a50
0721
cafe
3802
5556
0a50
080e
cafe
3c12
5556
0a54
0808
cafe
200b
5556
0a54
0817
cafe
241b
5556
0a54
080b
cafe
2803
5556
0a54
081c
cafe
2c13
5556
0a58
084c
cafe
300c
5556
0a58
0856
cafe
341c
5556
0a58
0785
cafe
3804
5556
0a58
07d4
cafe
3c14
5556
0a5c
085f
cafe
200d
5556
0a5c
0895
cafe
241d
5556
0a5c
07e8
cafe
2805
5556
0a5c
081b
cafe
2c15
5556
0a60
0718
cafe
300e
5556
0a60
0895
cafe
341e
5556
0a60
06e7
cafe
3806
5556
0a60
08be
cafe
3c16
5556
0a64
0840
cafe
200f
5556
0a64
08cc
cafe
241f
5556
0a64
0730
cafe
2807
5556
0a64
0844
cafe
2c17
5556
0a68
07df
cafe
3008
5556
0a68
07ef
cafe
3418
5556
0a68
07bf
cafe
3800
5556
0a68
076a
cafe
3c10
5556
0a6c
089b
cafe
2009
5556
0a6c
0719
cafe
2419
5556
0a6c
07ac
cafe
2801
5556
0a6c
0753
cafe
2c11
5556
0a70
0805
cafe
300a
5556
0a70
07df
cafe
341a
5556
0a70
0707
cafe
3802
5556
0a70
07f7
cafe
3c12
5556
0a74
07f8
cafe
200b
5556
0a74
0802
cafe
241b
5556
0a74
07f8
cafe
2803
5556
0a74
080a
cafe
2c13
5556
0a78
0833
cafe
300c
5556
0a78
083c
cafe
341c
5556
0a78
0766
cafe
3804
5556
0a78
07bc
cafe
3c14
5556
0a7c
0849
cafe
200d
5556
0a7c
087c
cafe
241d
5556
0a7c
07cb
cafe
2805
5556
0a7c
07fe
cafe
2c15
5556
0a80
06f9
cafe
-
300e
5556
0a80
087a
cafe
341e
5556
0a80
06cf
cafe
3806
5556
0a80
08ab
cafe
3c16
5556
0a84
0824
cafe
200f
5556
0a84
08b5
cafe
241f
5556
0a84
071d
cafe
2807
5556
0a84
082e
cafe
2c17
5556
0a88
07c5
cafe
3008
5556
0a88
07d1
cafe
3418
5556
0a88
07a1
cafe
3800
5556
0a88
0757
cafe
3c10
5556
0a8c
088c
cafe
2009
5556
0a8c
06fa
cafe
2419
5556
0a8c
0792
cafe
2801
5556
0a8c
073d
cafe
2c11
5556
0a90
07e8
cafe
300a
5556
0a90
07bf
cafe
341a
5556
0a90
06f2
cafe
3802
5556
0a90
07da
cafe
3c12
5556
0a94
07df
cafe
200b
5556
0a94
07e8
cafe
241b
5556
0a94
07dd
cafe
2803
5556
0a94
07ef
cafe
2c13
5556
0a98
0814
cafe
300c
5556
0a98
0820
cafe
341c
5556
0a98
074d
cafe
3804
5556
0a98
0799
cafe
3c14
5556
0a9c
0830
cafe
200d
5556
0a9c
0862
cafe
241d
5556
0a9c
07b0
cafe
2805
5556
0a9c
07e7
cafe
2c15
5556
0aa0
06df
cafe
300e
5556
0aa0
086c
cafe
341e
5556
0aa0
06b6
cafe
3806
5556
0aa0
088e
cafe
3c16
5556
0aa4
080c
cafe
200f
5556
0aa4
089d
cafe
241f
5556
0aa4
0702
cafe
2807
5556
0aa4
081e
cafe
2c17
5556
0aa8
07b0
cafe
3008
5556
0aa8
07c4
cafe
3418
5556
0aa8
0785
cafe
3800
5556
0aa8
073b
cafe
3c10
5556
0aac
0880
cafe
2009
5556
0aac
06de
cafe
2419
5556
0aac
077a
cafe
2801
5556
0aac
072a
cafe
2c11
5556
0ab0
07cd
cafe
300a
5556
0ab0
07a3
cafe
341a
5556
0ab0
06db
cafe
3802
5556
0ab0
07c3
cafe
3c12
-
5556
0ab4
07c0
cafe
200b
5556
0ab4
07cb
cafe
241b
5556
0ab4
07c4
cafe
2803
5556
0ab4
07d4
cafe
2c13
5556
0ab8
07f4
cafe
300c
5556
0ab8
080f
cafe
341c
5556
0ab8
072f
cafe
3804
5556
0ab8
077e
cafe
3c14
5556
0abc
0817
cafe
200d
5556
0abc
084b
cafe
241d
5556
0abc
079b
cafe
2805
5556
0abc
07d8
cafe
2c15
5556
0ac0
06d2
cafe
300e
5556
0ac0
0869
cafe
341e
5556
0ac0
06a0
cafe
3806
5556
0ac0
0883
cafe
3c16
5556
0ac4
07fe
cafe
200f
5556
0ac4
0894
cafe
241f
5556
0ac4
06ec
cafe
2807
5556
0ac4
080c
cafe
2c17
5556
0ac8
07a2
cafe
3008
5556
0ac8
07ad
cafe
3418
5556
0ac8
0770
cafe
3800
5556
0ac8
0724
cafe
3c10
5556
0acc
0870
cafe
2009
5556
0acc
06c1
cafe
2419
5556
0acc
0761
cafe
2801
5556
0acc
0712
cafe
2c11
5556
0ad0
07aa
cafe
300a
5556
0ad0
078e
cafe
341a
5556
0ad0
06c8
cafe
3802
5556
0ad0
07b0
cafe
3c12
5556
0ad4
07a9
cafe
200b
5556
0ad4
07a7
cafe
241b
5556
0ad4
07ab
cafe
2803
5556
0ad4
07bd
cafe
2c13
5556
0ad8
07db
cafe
300c
5556
0ad8
07f8
cafe
341c
5556
0ad8
071b
cafe
3804
5556
0ad8
0765
cafe
3c14
5556
0adc
0805
cafe
200d
5556
0adc
0846
cafe
241d
5556
0adc
0780
cafe
2805
5556
0adc
07cb
cafe
2c15
5556
0ae0
06bf
cafe
300e
5556
0ae0
0863
cafe
341e
5556
0ae0
068b
cafe
3806
5556
0ae0
087c
cafe
3c16
5556
0ae4
07f8
cafe
200f
5556
0ae4
0885
cafe
241f
5556
0ae4
06d1
cafe
2807
5556
-
0ae4
07f5
cafe
2c17
5556
0ae8
078c
cafe
3008
5556
0ae8
0795
cafe
3418
5556
0ae8
0757
cafe
3800
5556
0ae8
070a
cafe
3c10
5556
0aec
0856
cafe
2009
5556
0aec
06a3
cafe
2419
5556
0aec
074a
cafe
2801
5556
0aec
06fa
cafe
2c11
5556
0af0
0787
cafe
300a
5556
0af0
0769
cafe
341a
5556
0af0
06a7
cafe
3802
5556
0af0
079a
cafe
3c12
5556
0af4
0785
cafe
200b
5556
0af4
0784
cafe
241b
5556
0af4
0793
cafe
2803
5556
0af4
07a1
cafe
2c13
5556
0af8
07b9
cafe
300c
5556
0af8
07d4
cafe
341c
5556
0af8
06f9
cafe
3804
5556
0af8
074b
cafe
3c14
5556
0afc
07e2
cafe
200d
5556
0afc
081c
cafe
241d
5556
0afc
076e
cafe
2805
5556
0afc
07aa
cafe
2c15
5556
0b00
0697
cafe
300e
5556
0b00
0835
cafe
341e
5556
0b00
0671
cafe
3806
5556
0b00
085c
cafe
3c16
5556
0b04
07d3
cafe
200f
5556
0b04
085f
cafe
241f
5556
0b04
06b6
cafe
2807
5556
0b04
07d8
cafe
2c17
5556
0b08
076b
cafe
3008
5556
0b08
077a
cafe
3418
5556
0b08
0732
cafe
3800
5556
0b08
06f2
cafe
3c10
5556
0b0c
083b
cafe
2009
5556
0b0c
0689
cafe
2419
5556
0b0c
0735
cafe
2801
5556
0b0c
06df
cafe
2c11
5556
0b10
0768
cafe
300a
5556
0b10
0750
cafe
341a
5556
0b10
0699
cafe
3802
5556
0b10
0785
cafe
3c12
5556
0b14
076a
cafe
200b
5556
0b14
076a
cafe
241b
5556
0b14
077f
cafe
2803
5556
0b14
0789
cafe
2c13
5556
0b18
07a0
cafe
300c
5556
0b18
07bf
cafe
341c
5556
0b18
-
06d7
cafe
3804
5556
0b18
072e
cafe
3c14
5556
0b1c
07d2
cafe
200d
5556
0b1c
07fa
cafe
241d
5556
0b1c
075d
cafe
2805
5556
0b1c
0798
cafe
2c15
5556
0b20
0675
cafe
300e
5556
0b20
0815
cafe
341e
5556
0b20
0657
cafe
3806
5556
0b20
0845
cafe
3c16
5556
0b24
07b3
cafe
200f
5556
0b24
0844
cafe
241f
5556
0b24
06a0
cafe
2807
5556
0b24
07c2
cafe
2c17
5556
0b28
0751
cafe
3008
5556
0b28
075f
cafe
3418
5556
0b28
071f
cafe
3800
5556
0b28
06d9
cafe
3c10
5556
0b2c
0829
cafe
2009
5556
0b2c
066a
cafe
2419
5556
0b2c
071a
cafe
2801
5556
0b2c
06c3
cafe
2c11
5556
0b30
074e
cafe
300a
5556
0b30
0742
cafe
341a
5556
0b30
067c
cafe
3802
5556
0b30
0771
cafe
3c12
5556
0b34
0759
cafe
200b
5556
0b34
0755
cafe
241b
5556
0b34
0771
cafe
2803
5556
0b34
0776
cafe
2c13
5556
0b38
078a
cafe
300c
5556
0b38
07ab
cafe
341c
5556
0b38
06c1
cafe
3804
5556
0b38
071b
cafe
3c14
5556
0b3c
07bf
cafe
200d
5556
0b3c
07ee
cafe
241d
5556
0b3c
0746
cafe
2805
5556
0b3c
0782
cafe
2c15
5556
0b40
0661
cafe
300e
5556
0b40
0810
cafe
341e
5556
0b40
0640
cafe
3806
5556
0b40
0834
cafe
3c16
5556
0b44
07a1
cafe
200f
5556
0b44
0833
cafe
241f
5556
0b44
068d
cafe
2807
5556
0b44
07b1
cafe
2c17
5556
0b48
073d
cafe
3008
5556
0b48
074b
cafe
3418
5556
0b48
070d
cafe
3800
5556
0b48
06c8
cafe
3c10
5556
0b4c
0814
cafe
2009
5556
0b4c
065a
-
cafe
2419
5556
0b4c
0700
cafe
2801
5556
0b4c
06b4
cafe
2c11
5556
0b50
073a
cafe
300a
5556
0b50
0729
cafe
341a
5556
0b50
0663
cafe
3802
5556
0b50
075b
cafe
3c12
5556
0b54
0742
cafe
200b
5556
0b54
073d
cafe
241b
5556
0b54
0760
cafe
2803
5556
0b54
075f
cafe
2c13
5556
0b58
077d
cafe
300c
5556
0b58
079e
cafe
341c
5556
0b58
06a7
cafe
3804
5556
0b58
0708
cafe
3c14
5556
0b5c
07b6
cafe
200d
5556
0b5c
07e0
cafe
241d
5556
0b5c
0735
cafe
2805
5556
0b5c
0771
cafe
2c15
5556
0b60
0651
cafe
300e
5556
0b60
080c
cafe
341e
5556
0b60
0626
cafe
3806
5556
0b60
0822
cafe
3c16
5556
0b64
0794
cafe
200f
5556
0b64
081e
cafe
241f
5556
0b64
066f
cafe
2807
5556
0b64
07a2
cafe
2c17
5556
0b68
072a
cafe
3008
5556
0b68
0734
cafe
3418
5556
0b68
06f4
cafe
3800
5556
0b68
06af
cafe
3c10
5556
0b6c
07fb
cafe
2009
5556
0b6c
063e
cafe
2419
5556
0b6c
06e7
cafe
2801
5556
0b6c
069a
cafe
2c11
5556
0b70
0724
cafe
300a
5556
0b70
070b
cafe
341a
5556
0b70
064f
cafe
3802
5556
0b70
0745
cafe
3c12
5556
0b74
0726
cafe
200b
5556
0b74
0726
cafe
241b
5556
0b74
074d
cafe
2803
5556
0b74
0748
cafe
2c13
5556
0b78
076a
cafe
300c
5556
0b78
0790
cafe
341c
5556
0b78
0691
cafe
3804
5556
0b78
06f3
cafe
3c14
5556
0b7c
07ab
cafe
200d
5556
0b7c
07d4
cafe
241d
5556
0b7c
0720
cafe
2805
5556
0b7c
0767
cafe
2c15
5556
0b80
0640
cafe
-
300e
5556
0b80
07f4
cafe
341e
5556
0b80
0615
cafe
3806
5556
0b80
080f
cafe
3c16
5556
0b84
0781
cafe
200f
5556
0b84
0807
cafe
241f
5556
0b84
0657
cafe
2807
5556
0b84
0794
cafe
2c17
5556
0b88
0710
cafe
3008
5556
0b88
071b
cafe
3418
5556
0b88
06dc
cafe
3800
5556
0b88
069a
cafe
3c10
5556
0b8c
07de
cafe
2009
5556
0b8c
0626
cafe
2419
5556
0b8c
06d2
cafe
2801
5556
0b8c
0688
cafe
2c11
5556
0b90
070e
cafe
300a
5556
0b90
06f3
cafe
341a
5556
0b90
0637
cafe
3802
5556
0b90
0729
cafe
3c12
5556
0b94
0712
cafe
200b
5556
0b94
070e
cafe
241b
5556
0b94
0730
cafe
2803
5556
0b94
0733
cafe
2c13
5556
0b98
074f
cafe
300c
5556
0b98
0784
cafe
341c
5556
0b98
067f
cafe
3804
5556
0b98
06d5
cafe
3c14
5556
0b9c
079c
cafe
200d
5556
0b9c
07ba
cafe
241d
5556
0b9c
070d
cafe
2805
5556
0b9c
0754
cafe
2c15
5556
0ba0
0626
cafe
300e
5556
0ba0
07e6
cafe
341e
5556
0ba0
0604
cafe
3806
5556
0ba0
07fa
cafe
3c16
5556
0ba4
0765
cafe
200f
5556
0ba4
07f0
cafe
241f
5556
0ba4
063b
cafe
2807
5556
0ba4
077c
cafe
2c17
5556
0ba8
06f8
cafe
3008
5556
0ba8
0701
cafe
3418
5556
0ba8
06c7
cafe
3800
5556
0ba8
0686
cafe
3c10
5556
0bac
07c0
cafe
2009
5556
0bac
060a
cafe
2419
5556
0bac
06bc
cafe
2801
5556
0bac
0674
cafe
2c11
5556
0bb0
06f4
cafe
300a
5556
0bb0
06d6
cafe
341a
5556
0bb0
061e
cafe
3802
5556
0bb0
071a
cafe
3c12
-
5556
0bb4
06f4
cafe
200b
5556
0bb4
06fa
cafe
241b
5556
0bb4
0717
cafe
2803
5556
0bb4
071e
cafe
2c13
5556
0bb8
073a
cafe
300c
5556
0bb8
0773
cafe
341c
5556
0bb8
066b
cafe
3804
5556
0bb8
06bc
cafe
3c14
5556
0bbc
0785
cafe
200d
5556
0bbc
079e
cafe
241d
5556
0bbc
06ef
cafe
2805
5556
0bbc
0741
cafe
2c15
5556
0bc0
0613
cafe
300e
5556
0bc0
07d6
cafe
341e
5556
0bc0
05ec
cafe
3806
5556
0bc0
07ee
cafe
3c16
5556
0bc4
0754
cafe
200f
5556
0bc4
07dc
cafe
241f
5556
0bc4
062c
cafe
2807
5556
0bc4
0768
cafe
2c17
5556
0bc8
06e2
cafe
3008
5556
0bc8
06ef
cafe
3418
5556
0bc8
06b0
cafe
3800
5556
0bc8
066a
cafe
3c10
5556
0bcc
07af
cafe
2009
5556
0bcc
05f1
cafe
2419
5556
0bcc
06a3
cafe
2801
5556
0bcc
065d
cafe
2c11
5556
0bd0
06de
cafe
300a
5556
0bd0
06c9
cafe
341a
5556
0bd0
0608
cafe
3802
5556
0bd0
0701
cafe
3c12
5556
0bd4
06e7
cafe
200b
5556
0bd4
06ea
cafe
241b
5556
0bd4
0709
cafe
2803
5556
0bd4
0707
cafe
2c13
5556
0bd8
0732
cafe
300c
5556
0bd8
076e
cafe
341c
5556
0bd8
0652
cafe
3804
5556
0bd8
06ae
cafe
3c14
5556
0bdc
077b
cafe
200d
5556
0bdc
0799
cafe
241d
5556
0bdc
06dd
cafe
2805
5556
0bdc
0739
cafe
2c15
5556
0be0
0602
cafe
300e
5556
0be0
07c2
cafe
341e
5556
0be0
05d5
cafe
3806
5556
0be0
07d9
cafe
3c16
5556
0be4
0742
cafe
200f
5556
0be4
07c0
cafe
241f
5556
0be4
0611
cafe
2807
5556
-
0be4
074d
cafe
2c17
5556
0be8
06c8
cafe
3008
5556
0be8
06d5
cafe
3418
5556
0be8
0699
cafe
3800
5556
0be8
0655
cafe
3c10
5556
0bec
079a
cafe
2009
5556
0bec
05d9
cafe
2419
5556
0bec
0690
cafe
2801
5556
0bec
0644
cafe
2c11
5556
0bf0
06c5
cafe
300a
5556
0bf0
06aa
cafe
341a
5556
0bf0
05e9
cafe
3802
5556
0bf0
06e6
cafe
3c12
5556
0bf4
06ce
cafe
200b
5556
0bf4
06d4
cafe
241b
5556
0bf4
06f0
cafe
2803
5556
0bf4
06f4
cafe
2c13
5556
0bf8
0714
cafe
300c
5556
0bf8
0751
cafe
341c
5556
0bf8
0642
cafe
3804
5556
0bf8
0698
cafe
3c14
5556
0bfc
0765
cafe
200d
5556
0bfc
0783
cafe
241d
5556
0bfc
06c8
cafe
2805
5556
0bfc
0721
cafe
2c15
5556
0c00
05e4
cafe
300e
5556
0c00
07ab
cafe
341e
5556
0c00
05c3
cafe
3806
5556
0c00
07bc
cafe
3c16
5556
0c04
0727
cafe
200f
5556
0c04
07a6
cafe
241f
5556
0c04
05f8
cafe
2807
5556
0c04
0737
cafe
2c17
5556
0c08
06b7
cafe
3008
5556
0c08
06bf
cafe
3418
5556
0c08
0683
cafe
3800
5556
0c08
0644
cafe
3c10
5556
0c0c
0781
cafe
2009
5556
0c0c
05bb
cafe
2419
5556
0c0c
067b
cafe
2801
5556
0c0c
062f
cafe
2c11
5556
0c10
06ae
cafe
300a
5556
0c10
0692
cafe
341a
5556
0c10
05d4
cafe
3802
5556
0c10
06d1
cafe
3c12
5556
0c14
06af
cafe
200b
5556
0c14
06b6
cafe
241b
5556
0c14
06df
cafe
2803
5556
0c14
06dd
cafe
2c13
5556
0c18
06f6
cafe
300c
5556
0c18
072b
cafe
341c
5556
0c18
-
062b
cafe
3804
5556
0c18
067e
cafe
3c14
5556
0c1c
0749
cafe
200d
5556
0c1c
0764
cafe
241d
5556
0c1c
06aa
cafe
2805
5556
0c1c
0709
cafe
2c15
5556
0c20
05c3
cafe
300e
5556
0c20
0793
cafe
341e
5556
0c20
05b1
cafe
3806
5556
0c20
07a3
cafe
3c16
5556
0c24
070b
cafe
200f
5556
0c24
0794
cafe
241f
5556
0c24
05df
cafe
2807
5556
0c24
071c
cafe
2c17
5556
0c28
069f
cafe
3008
5556
0c28
06a7
cafe
3418
5556
0c28
066b
cafe
3800
5556
0c28
062f
cafe
3c10
5556
0c2c
0767
cafe
2009
5556
0c2c
05a9
cafe
2419
5556
0c2c
0669
cafe
2801
5556
0c2c
0618
cafe
2c11
5556
0c30
0697
cafe
300a
5556
0c30
0679
cafe
341a
5556
0c30
05c4
cafe
3802
5556
0c30
06ba
cafe
3c12
5556
0c34
06a0
cafe
200b
5556
0c34
06a0
cafe
241b
5556
0c34
06ca
cafe
2803
5556
0c34
06ce
cafe
2c13
5556
0c38
06e7
cafe
300c
5556
0c38
0717
cafe
341c
5556
0c38
0613
cafe
3804
5556
0c38
066a
cafe
3c14
5556
0c3c
0738
cafe
200d
5556
0c3c
0757
cafe
241d
5556
0c3c
069e
cafe
2805
5556
0c3c
06fb
cafe
2c15
5556
0c40
05b0
cafe
300e
5556
0c40
0786
cafe
341e
5556
0c40
059b
cafe
3806
5556
0c40
0792
cafe
3c16
5556
0c44
06ff
cafe
200f
5556
0c44
0785
cafe
241f
5556
0c44
05cd
cafe
2807
5556
0c44
0709
cafe
2c17
5556
0c48
068e
cafe
3008
5556
0c48
0694
cafe
3418
5556
0c48
0654
cafe
3800
5556
0c48
061f
cafe
3c10
5556
0c4c
0755
cafe
2009
5556
0c4c
0590
-
cafe
2419
5556
0c4c
064d
cafe
2801
5556
0c4c
0605
cafe
2c11
5556
0c50
0681
cafe
300a
5556
0c50
065b
cafe
341a
5556
0c50
05b5
cafe
3802
5556
0c50
06a1
cafe
3c12
5556
0c54
068a
cafe
200b
5556
0c54
068e
cafe
241b
5556
0c54
06b5
cafe
2803
5556
0c54
06b8
cafe
2c13
5556
0c58
06d5
cafe
300c
5556
0c58
070d
cafe
341c
5556
0c58
05fe
cafe
3804
5556
0c58
065f
cafe
3c14
5556
0c5c
0724
cafe
200d
5556
0c5c
0742
cafe
241d
5556
0c5c
068a
cafe
2805
5556
0c5c
06f0
cafe
2c15
5556
0c60
059e
cafe
300e
5556
0c60
0771
cafe
341e
5556
0c60
0585
cafe
3806
5556
0c60
0781
cafe
3c16
5556
0c64
06ed
cafe
200f
5556
0c64
0775
cafe
241f
5556
0c64
05bb
cafe
2807
5556
0c64
06f5
cafe
2c17
5556
0c68
0679
cafe
3008
5556
0c68
0686
cafe
3418
5556
0c68
0641
cafe
3800
5556
0c68
060f
cafe
3c10
5556
0c6c
0748
cafe
2009
5556
0c6c
0578
cafe
2419
5556
0c6c
063d
cafe
2801
5556
0c6c
05f1
cafe
2c11
5556
0c70
066b
cafe
300a
5556
0c70
064d
cafe
341a
5556
0c70
0596
cafe
3802
5556
0c70
0687
cafe
3c12
5556
0c74
067e
cafe
200b
5556
0c74
068b
cafe
241b
5556
0c74
06a7
cafe
2803
5556
0c74
06a8
cafe
2c13
5556
0c78
06ca
cafe
300c
5556
0c78
0710
cafe
341c
5556
0c78
05ec
cafe
3804
5556
0c78
0657
cafe
3c14
5556
0c7c
071b
cafe
200d
5556
0c7c
0734
cafe
241d
5556
0c7c
0671
cafe
2805
5556
0c7c
06de
cafe
2c15
5556
0c80
0590
cafe
-
300e
5556
0c80
0759
cafe
341e
5556
0c80
056c
cafe
3806
5556
0c80
0771
cafe
3c16
5556
0c84
06dc
cafe
200f
5556
0c84
0764
cafe
241f
5556
0c84
05a6
cafe
2807
5556
0c84
06e1
cafe
2c17
5556
0c88
0662
cafe
3008
5556
0c88
066e
cafe
3418
5556
0c88
062c
cafe
3800
5556
0c88
05f9
cafe
3c10
5556
0c8c
0732
cafe
2009
5556
0c8c
0560
cafe
2419
5556
0c8c
062b
cafe
2801
5556
0c8c
05dd
cafe
2c11
5556
0c90
064e
cafe
300a
5556
0c90
062d
cafe
341a
5556
0c90
057e
cafe
3802
5556
0c90
066d
cafe
3c12
5556
0c94
065f
cafe
200b
5556
0c94
066e
cafe
241b
5556
0c94
0691
cafe
2803
5556
0c94
0696
cafe
2c13
5556
0c98
06ac
cafe
300c
5556
0c98
06f0
cafe
341c
5556
0c98
05d1
cafe
3804
5556
0c98
063c
cafe
3c14
5556
0c9c
06fc
cafe
200d
5556
0c9c
071b
cafe
241d
5556
0c9c
065c
cafe
2805
5556
0c9c
06c5
cafe
2c15
5556
0ca0
0570
cafe
300e
5556
0ca0
073f
cafe
341e
5556
0ca0
0558
cafe
3806
5556
0ca0
0765
cafe
3c16
5556
0ca4
06c7
cafe
200f
5556
0ca4
0752
cafe
241f
5556
0ca4
0591
cafe
2807
5556
0ca4
06c7
cafe
2c17
5556
0ca8
0649
cafe
3008
5556
0ca8
065c
cafe
3418
5556
0ca8
061b
cafe
3800
5556
0ca8
05e3
cafe
3c10
5556
0cac
0721
cafe
2009
5556
0cac
054b
cafe
2419
5556
0cac
0613
cafe
2801
5556
0cac
05c5
cafe
2c11
5556
0cb0
063a
cafe
300a
5556
0cb0
061a
cafe
341a
5556
0cb0
056b
cafe
3802
5556
0cb0
065b
cafe
3c12
-
5556
0cb4
0646
cafe
200b
5556
0cb4
065b
cafe
241b
5556
0cb4
067d
cafe
2803
5556
0cb4
0686
cafe
2c13
5556
0cb8
069c
cafe
300c
5556
0cb8
06da
cafe
341c
5556
0cb8
05bb
cafe
3804
5556
0cb8
062c
cafe
3c14
5556
0cbc
06ea
cafe
200d
5556
0cbc
0706
cafe
241d
5556
0cbc
064b
cafe
2805
5556
0cbc
06b2
cafe
2c15
5556
0cc0
0562
cafe
300e
5556
0cc0
0732
cafe
341e
5556
0cc0
053f
cafe
3806
5556
0cc0
0753
cafe
3c16
5556
0cc4
06b4
cafe
200f
5556
0cc4
0734
cafe
241f
5556
0cc4
057b
cafe
2807
5556
0cc4
06b4
cafe
2c17
5556
0cc8
0632
cafe
3008
5556
0cc8
0646
cafe
3418
5556
0cc8
0604
cafe
3800
5556
0cc8
05cb
cafe
3c10
5556
0ccc
070c
cafe
2009
5556
0ccc
053a
cafe
2419
5556
0ccc
05fd
cafe
2801
5556
0ccc
05a9
cafe
2c11
5556
0cd0
062d
cafe
300a
5556
0cd0
0607
cafe
341a
5556
0cd0
0557
cafe
3802
5556
0cd0
064b
cafe
3c12
5556
0cd4
0632
cafe
200b
5556
0cd4
0641
cafe
241b
5556
0cd4
066e
cafe
2803
5556
0cd4
0675
cafe
2c13
5556
0cd8
068e
cafe
300c
5556
0cd8
06cb
cafe
341c
5556
0cd8
05a7
cafe
3804
5556
0cd8
0615
cafe
3c14
5556
0cdc
06d6
cafe
200d
5556
0cdc
06f0
cafe
241d
5556
0cdc
0636
cafe
2805
5556
0cdc
06a1
cafe
2c15
5556
0ce0
054e
cafe
300e
5556
0ce0
0723
cafe
341e
5556
0ce0
052b
cafe
3806
5556
0ce0
073d
cafe
3c16
5556
0ce4
06a1
cafe
200f
5556
0ce4
0721
cafe
241f
5556
0ce4
0568
cafe
2807
5556
-
0ce4
06a1
cafe
2c17
5556
0ce8
0623
cafe
3008
5556
0ce8
0633
cafe
3418
5556
0ce8
05e9
cafe
3800
5556
0ce8
05b5
cafe
3c10
5556
0cec
06f7
cafe
2009
5556
0cec
051d
cafe
2419
5556
0cec
05f1
cafe
2801
5556
0cec
0598
cafe
2c11
5556
0cf0
0617
cafe
300a
5556
0cf0
05f5
cafe
341a
5556
0cf0
0544
cafe
3802
5556
0cf0
063e
cafe
3c12
5556
0cf4
061f
cafe
200b
5556
0cf4
062f
cafe
241b
5556
0cf4
065b
cafe
2803
5556
0cf4
065f
cafe
2c13
5556
0cf8
067b
cafe
300c
5556
0cf8
06b6
cafe
341c
5556
0cf8
0595
cafe
3804
5556
0cf8
0605
cafe
3c14
5556
0cfc
06c4
cafe
200d
5556
0cfc
06e6
cafe
241d
5556
0cfc
0624
cafe
2805
5556
0cfc
068e
cafe
2c15
5556
0d00
0539
cafe
300e
5556
0d00
0715
cafe
341e
5556
0d00
0510
cafe
3806
5556
0d00
0728
cafe
3c16
5556
0d04
068d
cafe
200f
5556
0d04
070d
cafe
241f
5556
0d04
0554
cafe
2807
5556
0d04
0693
cafe
2c17
5556
0d08
060d
cafe
3008
5556
0d08
0625
cafe
3418
5556
0d08
05cd
cafe
3800
5556
0d08
05a1
cafe
3c10
5556
0d0c
06e9
cafe
2009
5556
0d0c
0508
cafe
2419
5556
0d0c
05e0
cafe
2801
5556
0d0c
058c
cafe
2c11
5556
0d10
05ff
cafe
300a
5556
0d10
05df
cafe
341a
5556
0d10
052d
cafe
3802
5556
0d10
0630
cafe
3c12
5556
0d14
0603
cafe
200b
5556
0d14
061b
cafe
241b
5556
0d14
064b
cafe
2803
5556
0d14
0648
cafe
2c13
5556
0d18
0670
cafe
300c
5556
0d18
06a7
cafe
341c
5556
0d18
-
057a
cafe
3804
5556
0d18
05ef
cafe
3c14
5556
0d1c
06b1
cafe
200d
5556
0d1c
06ce
cafe
241d
5556
0d1c
0612
cafe
2805
5556
0d1c
067d
cafe
2c15
5556
0d20
0525
cafe
300e
5556
0d20
0704
cafe
341e
5556
0d20
04f8
cafe
3806
5556
0d20
0715
cafe
3c16
5556
0d24
067c
cafe
200f
5556
0d24
06fa
cafe
241f
5556
0d24
0542
cafe
2807
5556
0d24
0682
cafe
2c17
5556
0d28
05fa
cafe
3008
5556
0d28
060e
cafe
3418
5556
0d28
05bb
cafe
3800
5556
0d28
058a
cafe
3c10
5556
0d2c
06d5
cafe
2009
5556
0d2c
04f1
cafe
2419
5556
0d2c
05d0
cafe
2801
5556
0d2c
057a
cafe
2c11
5556
0d30
05eb
cafe
300a
5556
0d30
05ce
cafe
341a
5556
0d30
0518
cafe
3802
5556
0d30
0617
cafe
3c12
5556
0d34
05e9
cafe
200b
5556
0d34
0605
cafe
241b
5556
0d34
063a
cafe
2803
5556
0d34
0633
cafe
2c13
5556
0d38
065b
cafe
300c
5556
0d38
0693
cafe
341c
5556
0d38
0565
cafe
3804
5556
0d38
05e1
cafe
3c14
5556
0d3c
069a
cafe
200d
5556
0d3c
06bb
cafe
241d
5556
0d3c
0601
cafe
2805
5556
0d3c
0668
cafe
2c15
5556
0d40
0514
cafe
300e
5556
0d40
06f4
cafe
341e
5556
0d40
04e7
cafe
3806
5556
0d40
06fe
cafe
3c16
5556
0d44
0668
cafe
200f
5556
0d44
06e3
cafe
241f
5556
0d44
052b
cafe
2807
5556
0d44
0675
cafe
2c17
5556
0d48
05e3
cafe
3008
5556
0d48
05f9
cafe
3418
5556
0d48
05a2
cafe
3800
5556
0d48
0573
cafe
3c10
5556
0d4c
06c4
cafe
2009
5556
0d4c
04e0
-
cafe
2419
5556
0d4c
05c0
cafe
2801
5556
0d4c
0567
cafe
2c11
5556
0d50
05d6
cafe
300a
5556
0d50
05bd
cafe
341a
5556
0d50
04ff
cafe
3802
5556
0d50
0603
cafe
3c12
5556
0d54
05d6
cafe
200b
5556
0d54
05ed
cafe
241b
5556
0d54
0626
cafe
2803
5556
0d54
0622
cafe
2c13
5556
0d58
0642
cafe
300c
5556
0d58
0674
cafe
341c
5556
0d58
0550
cafe
3804
5556
0d58
05c7
cafe
3c14
5556
0d5c
0681
cafe
200d
5556
0d5c
06a6
cafe
241d
5556
0d5c
05ef
cafe
2805
5556
0d5c
0651
cafe
2c15
5556
0d60
04ff
cafe
300e
5556
0d60
06e2
cafe
341e
5556
0d60
04d2
cafe
3806
5556
0d60
06ec
cafe
3c16
5556
0d64
0651
cafe
200f
5556
0d64
06d2
cafe
241f
5556
0d64
050f
cafe
2807
5556
0d64
0662
cafe
2c17
5556
0d68
05d2
cafe
3008
5556
0d68
05e3
cafe
3418
5556
0d68
058d
cafe
3800
5556
0d68
0560
cafe
3c10
5556
0d6c
06af
cafe
2009
5556
0d6c
04c9
cafe
2419
5556
0d6c
05aa
cafe
2801
5556
0d6c
0552
cafe
2c11
5556
0d70
05c4
cafe
300a
5556
0d70
05a5
cafe
341a
5556
0d70
04e8
cafe
3802
5556
0d70
05f3
cafe
3c12
5556
0d74
05c3
cafe
200b
5556
0d74
05d4
cafe
241b
5556
0d74
060f
cafe
2803
5556
0d74
0611
cafe
2c13
5556
0d78
0623
cafe
300c
5556
0d78
064b
cafe
341c
5556
0d78
0539
cafe
3804
5556
0d78
05a3
cafe
3c14
5556
0d7c
0659
cafe
200d
5556
0d7c
0666
cafe
241d
5556
0d7c
05d5
cafe
2805
5556
0d7c
0626
cafe
2c15
5556
0d80
04c0
cafe
-
