2414
0000
0000
0128
cafe
2814
0000
0000
012c
cafe
2c14
0000
0000
012c
cafe
3014
0000
0000
012d
cafe
3414
0000
0000
0132
cafe
3814
0000
0000
0130
cafe
3c14
0000
0000
012d
cafe
2014
0000
0000
0126
cafe
2414
0000
0000
0125
cafe
2814
0000
0000
0125
cafe
2c14
0000
0000
0122
cafe
3014
0000
0000
011f
cafe
3414
0000
0000
0124
cafe
3814
0000
0000
012a
cafe
3c14
0000
0000
012c
cafe
2014
0000
0000
012e
cafe
2414
0000
0000
012d
cafe
2814
0000
0000
014b
cafe
2c14
0000
0000
0171
cafe
3014
0000
0000
0180
cafe
3414
0000
0000
0183
cafe
3814
0000
0000
0189
cafe
3c14
0000
0000
018d
cafe
2014
0000
0000
0193
cafe
2414
0000
0000
0191
cafe
2814
0000
0000
018f
cafe
2c14
0000
0000
0182
cafe
3014
0000
0000
0176
cafe
3414
0000
0000
016e
cafe
3814
0000
0000
0169
cafe
3c14
0000
0000
0167
cafe
2014
0000
0000
0167
cafe
2414
0000
0000
0166
cafe
2814
0000
0000
0169
cafe
2c14
0000
0000
016b
cafe
3014
0000
0000
016f
cafe
3414
0000
0000
016e
cafe
3814
0000
0000
0175
cafe
3c14
0000
0000
0174
cafe
2014
0000
0000
016b
cafe
2414
0000
0000
016d
cafe
2814
0000
0000
016d
cafe
2c14
0000
0000
016d
cafe
3014
0000
0000
0161
cafe
3414
0000
0000
015d
cafe
3814
0000
0000
0156
cafe
3c14
0000
0000
0152
cafe
2014
0000
0000
014d
cafe
2414
0000
0000
014d
cafe
2814
0000
0000
014c
cafe
2c14
0000
0000
014a
cafe
3014
-
0000
0000
014b
cafe
3414
0000
0000
0149
cafe
3814
0000
0000
0147
cafe
3c14
0000
0000
0143
cafe
2014
0000
0000
0142
cafe
2414
0000
0000
013a
cafe
2814
0000
0000
0138
cafe
2c14
0000
0000
013e
cafe
3014
0000
0000
0143
cafe
3414
0000
0000
0143
cafe
3814
0000
0000
0143
cafe
3c14
0000
0000
0143
cafe
2014
0000
0000
0147
cafe
2414
0000
0000
0144
cafe
2814
0000
0000
013e
cafe
2c14
0000
0000
0141
cafe
3014
0000
0000
0140
cafe
3414
0000
0000
0135
cafe
3814
0000
0000
0132
cafe
3c14
0000
0000
0131
cafe
2014
0000
0000
012b
cafe
2414
0000
0000
0123
cafe
2814
0000
0000
0122
cafe
2c14
0000
0000
011e
cafe
3014
0000
0000
011c
cafe
3414
0000
0000
011b
cafe
3814
0000
0000
0121
cafe
3c14
0000
0000
011b
cafe
2014
0000
0000
011e
cafe
2414
0000
0000
0122
cafe
2814
0000
0000
012a
cafe
2c14
0000
0000
0127
cafe
3014
0000
0000
0129
cafe
3414
0000
0000
0131
cafe
3814
0000
0000
0137
cafe
3c14
0000
0000
0142
cafe
2014
0000
0000
0143
cafe
2414
0000
0000
0141
cafe
2814
0000
0000
0145
cafe
2c14
0000
0000
0149
cafe
3014
0000
0000
014b
cafe
3414
0000
0000
014b
cafe
3814
0000
0000
014a
cafe
3c14
0000
0000
014a
cafe
2014
0000
0000
0142
cafe
2414
0000
0000
0133
cafe
2814
0000
0000
012e
cafe
2c14
0000
0000
0125
cafe
3014
0000
0000
011e
cafe
3414
0000
0000
0116
cafe
3814
0000
0000
010e
cafe
3c14
0000
-
0000
010b
cafe
2014
0000
0000
010c
cafe
2414
0000
0000
0104
cafe
2814
0000
0000
0107
cafe
2c14
0000
0000
010b
cafe
3014
0000
0000
0109
cafe
3414
0000
0000
010c
cafe
3814
0000
0000
0114
cafe
3c14
0000
0000
0119
cafe
2014
0000
0000
0118
cafe
2414
0000
0000
011a
cafe
2814
0000
0000
011a
cafe
2c14
0000
0000
011b
cafe
3014
0000
0000
0116
cafe
3414
0000
0000
0116
cafe
3814
0000
0000
011d
cafe
3c14
0000
0000
011e
cafe
2014
0000
0000
0125
cafe
2414
0000
0000
0127
cafe
2814
0000
0000
0128
cafe
2c14
0000
0000
0125
cafe
3014
0000
0000
0129
cafe
3414
0000
0000
0125
cafe
3814
0000
0000
012c
cafe
3c14
0000
0000
012a
cafe
2014
0000
0000
012c
cafe
2414
0000
0000
0130
cafe
2814
0000
0000
0133
cafe
2c14
0000
0000
0132
cafe
3014
0000
0000
0135
cafe
3414
0000
0000
0138
cafe
3814
0000
0000
0132
cafe
3c14
0000
0000
0132
cafe
2014
0000
0000
012e
cafe
2414
0000
0000
012f
cafe
2814
0000
0000
012c
cafe
2c14
0000
0000
012b
cafe
3014
0000
0000
012c
cafe
3414
0000
0000
012a
cafe
3814
0000
0000
012d
cafe
3c14
0000
0000
012c
cafe
2014
0000
0000
012b
cafe
2414
0000
0000
012b
cafe
2814
0000
0000
012b
cafe
2c14
0000
0000
0131
cafe
3014
0000
0000
0133
cafe
3414
0000
0000
0138
cafe
3814
0000
0000
0138
cafe
3c14
0000
0000
0135
cafe
2014
0000
0000
0131
cafe
2414
0000
0000
012c
cafe
2814
0000
0000
-
0125
cafe
2c14
0000
0000
011d
cafe
3014
0000
0000
0121
cafe
3414
0000
0000
011c
cafe
3814
0000
0000
011d
cafe
3c14
0000
0000
0117
cafe
2014
0000
0000
0113
cafe
2414
0000
0000
010c
cafe
2814
0000
0000
010b
cafe
2c14
0000
0000
010a
cafe
3014
0000
0000
010e
cafe
3414
0000
0000
0117
cafe
3814
0000
0000
0121
cafe
3c14
0000
0000
011f
cafe
2014
0000
0000
011e
cafe
2414
0000
0000
0121
cafe
2814
0000
0000
011b
cafe
2c14
0000
0000
0115
cafe
3014
0000
0000
010d
cafe
3414
0000
0000
010e
cafe
3814
0000
0000
010e
cafe
3c14
0000
0000
0113
cafe
2014
0000
0000
0117
cafe
2414
0000
0000
011b
cafe
2814
0000
0000
011b
cafe
2c14
0000
0000
0122
cafe
3014
0000
0000
0124
cafe
3414
0000
0000
0126
cafe
3814
0000
0000
0127
cafe
3c14
0000
0000
0128
cafe
2014
0000
0000
0129
cafe
2414
0000
0000
012a
cafe
2814
0000
0000
0131
cafe
2c14
0000
0000
0136
cafe
3014
0000
0000
0130
cafe
3414
0000
0000
012d
cafe
3814
0000
0000
0128
cafe
3c14
0000
0000
012b
cafe
2014
0000
0000
0130
cafe
2414
0000
0000
012d
cafe
2814
0000
0000
012b
cafe
2c14
0000
0000
0128
cafe
3014
0000
0000
0123
cafe
3414
0000
0000
0123
cafe
3814
0000
0000
0117
cafe
3c14
0000
0000
011a
cafe
2014
0000
0000
0119
cafe
2414
0000
0000
0116
cafe
2814
0000
0000
011b
cafe
2c14
0000
0000
011d
cafe
3014
0000
0000
011b
cafe
3414
0000
0000
011b
-
cafe
3814
0000
0000
0119
cafe
3c14
0000
0000
0114
cafe
2014
0000
0000
0115
cafe
2414
0000
0000
0123
cafe
2814
0000
0000
0121
cafe
2c14
0000
0000
011f
cafe
3014
0000
0000
0123
cafe
3414
0000
0000
0129
cafe
3814
0000
0000
012e
cafe
3c14
0000
0000
012e
cafe
2014
0000
0000
012f
cafe
2414
0000
0000
012d
cafe
2814
0000
0000
0130
cafe
2c14
0000
0000
012e
cafe
3014
0000
0000
012f
cafe
3414
0000
0000
0132
cafe
3814
0000
0000
0130
cafe
3c14
0000
0000
0129
cafe
2014
0000
0000
0129
cafe
2414
0000
0000
012a
cafe
2814
0000
0000
0129
cafe
2c14
0000
0000
0126
cafe
3014
0000
0000
0126
cafe
3414
0000
0000
0127
cafe
3814
0000
0000
0127
cafe
3c14
0000
0000
0122
cafe
2014
0000
0000
012a
cafe
2414
0000
0000
012e
cafe
2814
0000
0000
0130
cafe
2c14
0000
0000
012d
cafe
3014
0000
0000
0125
cafe
3414
0000
0000
0128
cafe
3814
0000
0000
0128
cafe
3c14
0000
0000
0128
cafe
2014
0000
0000
0129
cafe
2414
0000
0000
012b
cafe
2814
0000
0000
0127
cafe
2c14
0000
0000
0125
cafe
3014
0000
0000
0124
cafe
3414
0000
0000
012a
cafe
3814
0000
0000
012c
cafe
3c14
0000
0000
0133
cafe
2014
0000
0000
013a
cafe
2414
0000
0000
013c
cafe
2814
0000
0000
013f
cafe
2c14
0000
0000
0146
cafe
3014
0000
0000
0150
cafe
3414
0000
0000
0154
cafe
3814
0000
0000
0157
cafe
3c14
0000
0000
0158
cafe
2014
0000
0000
0157
cafe
-
2414
0000
0000
0152
cafe
2814
0000
0000
0152
cafe
2c14
0000
0000
014b
cafe
3014
0000
0000
014a
cafe
3414
0000
0000
0144
cafe
3814
0000
0000
0142
cafe
3c14
0000
0000
0143
cafe
2014
0000
0000
0140
cafe
2414
0000
0000
0140
cafe
2814
0000
0000
0140
cafe
2c14
0000
0000
0141
cafe
3014
0000
0000
0146
cafe
3414
0000
0000
014a
cafe
3814
0000
0000
0147
cafe
3c14
0000
0000
0146
cafe
2014
0000
0000
014b
cafe
2414
0000
0000
0150
cafe
2814
0000
0000
0156
cafe
2c14
0000
0000
0158
cafe
3014
0000
0000
0155
cafe
3414
0000
0000
0155
cafe
3814
0000
0000
0150
cafe
3c14
0000
0000
0153
cafe
2014
0000
0000
0156
cafe
2414
0000
0000
0155
cafe
2814
0000
0000
0155
cafe
2c14
0000
0000
0158
cafe
3014
0000
0000
015f
cafe
3414
0000
0000
015d
cafe
3814
0000
0000
015b
cafe
3c14
0000
0000
0153
cafe
2014
0000
0000
0151
cafe
2414
0000
0000
014e
cafe
2814
0000
0000
014f
cafe
2c14
0000
0000
014b
cafe
3014
0000
0000
014c
cafe
3414
0000
0000
0146
cafe
3814
0000
0000
0144
cafe
3c14
0000
0000
0142
cafe
2014
0000
0000
0143
cafe
2414
0000
0000
013b
cafe
2814
0000
0000
0141
cafe
2c14
0000
0000
0147
cafe
3014
0000
0000
0151
cafe
3414
0000
0000
0155
cafe
3814
0000
0000
0158
cafe
3c14
0000
0000
0153
cafe
2014
0000
0000
014a
cafe
2414
0000
0000
0146
cafe
2814
0000
0000
0141
cafe
2c14
0000
0000
013d
cafe
3014
-
0000
0000
0137
cafe
3414
0000
0000
012e
cafe
3814
0000
0000
012c
cafe
3c14
0000
0000
0132
cafe
2014
0000
0000
0131
cafe
2414
0000
0000
0130
cafe
2814
0000
0000
0134
cafe
2c14
0000
0000
0139
cafe
3014
0000
0000
0137
cafe
3414
0000
0000
0136
cafe
3814
0000
0000
013d
cafe
3c14
0000
0000
0143
cafe
2014
0000
0000
014e
cafe
2414
0000
0000
0153
cafe
2814
0000
0000
014f
cafe
2c14
0000
0000
0146
cafe
3014
0000
0000
0147
cafe
3414
0000
0000
0140
cafe
3814
0000
0000
0141
cafe
3c14
0000
0000
0141
cafe
2014
0000
0000
0140
cafe
2414
0000
0000
013b
cafe
2814
0000
0000
0136
cafe
2c14
0000
0000
0132
cafe
3014
0000
0000
0133
cafe
3414
0000
0000
0135
cafe
3814
0000
0000
0135
cafe
3c14
0000
0000
012d
cafe
2014
0000
0000
0126
cafe
2414
0000
0000
0127
cafe
2814
0000
0000
0126
cafe
2c14
0000
0000
0126
cafe
3014
0000
0000
0124
cafe
3414
0000
0000
0121
cafe
3814
0000
0000
0121
cafe
3c14
0000
0000
0120
cafe
2014
0000
0000
011f
cafe
2414
0000
0000
0125
cafe
2814
0000
0000
0129
cafe
2c14
0000
0000
0132
cafe
3014
0000
0000
0134
cafe
3414
0000
0000
0136
cafe
3814
0000
0000
0132
cafe
3c14
0000
0000
0133
cafe
2014
0000
0000
0139
cafe
2414
0000
0000
0138
cafe
2814
0000
0000
013d
cafe
2c14
0000
0000
0147
cafe
3014
0000
0000
014a
cafe
3414
0000
0000
0146
cafe
3814
0000
0000
0141
cafe
3c14
0000
-
0000
0142
cafe
2014
0000
0000
0142
cafe
2414
0000
0000
0144
cafe
2814
0000
0000
013b
cafe
2c14
0000
0000
0142
cafe
3014
0000
0000
0147
cafe
3414
0000
0000
0141
cafe
3814
0000
0000
0144
cafe
3c14
0000
0000
0144
cafe
2014
0000
0000
0141
cafe
2414
0000
0000
0143
cafe
2814
0000
0000
013c
cafe
2c14
0000
0000
0142
cafe
3014
0000
0000
0142
cafe
3414
0000
0000
013d
cafe
3814
0000
0000
0139
cafe
3c14
0000
0000
0133
cafe
2014
0000
0000
012f
cafe
2414
0000
0000
0122
cafe
2814
0000
0000
0126
cafe
2c14
0000
0000
0119
cafe
3014
0000
0000
0117
cafe
3414
0000
0000
0118
cafe
3814
0000
0000
011a
cafe
3c14
0000
0000
0118
cafe
2014
0000
0000
0119
cafe
2414
0000
0000
011a
cafe
2814
0000
0000
011a
cafe
2c14
0000
0000
011a
cafe
3014
0000
0000
0118
cafe
3414
0000
0000
011d
cafe
3814
0000
0000
011d
cafe
3c14
0000
0000
011b
cafe
2014
0000
0000
0123
cafe
2414
0000
0000
0128
cafe
2814
0000
0000
0129
cafe
2c14
0000
0000
0125
cafe
3014
0000
0000
012e
cafe
3414
0000
0000
012d
cafe
3814
0000
0000
012b
cafe
3c14
0000
0000
0126
cafe
2014
0000
0000
0123
cafe
2414
0000
0000
0122
cafe
2814
0000
0000
011d
cafe
2c14
0000
0000
0112
cafe
3014
0000
0000
0108
cafe
3414
0000
0000
0107
cafe
3814
0000
0000
00ff
cafe
3c14
0000
0000
0108
cafe
2014
0000
0000
0106
cafe
2414
0000
0000
0107
cafe
2814
0000
0000
-
0107
cafe
2c14
0000
0000
0117
cafe
3014
0000
0000
0117
cafe
3414
0000
0000
0113
cafe
3814
0000
0000
0117
cafe
3c14
0000
0000
011b
cafe
2014
0000
0000
0123
cafe
2414
0000
0000
0127
cafe
2814
0000
0000
012a
cafe
2c14
0000
0000
0133
cafe
3014
0000
0000
0130
cafe
3414
0000
0000
012f
cafe
3814
0000
0000
0133
cafe
3c14
0000
0000
012e
cafe
2014
0000
0000
0129
cafe
2414
0000
0000
0122
cafe
2814
0000
0000
011d
cafe
2c14
0000
0000
0117
cafe
3014
0000
0000
0118
cafe
3414
0000
0000
010f
cafe
3814
0000
0000
010e
cafe
3c14
0000
0000
0102
cafe
2014
0000
0000
0105
cafe
2414
0000
0000
0101
cafe
2814
0000
0000
0107
cafe
2c14
0000
0000
010b
cafe
3014
0000
0000
0114
cafe
3414
0000
0000
0116
cafe
3814
0000
0000
011a
cafe
3c14
0000
0000
011d
cafe
2014
0000
0000
0124
cafe
2414
0000
0000
0121
cafe
2814
0000
0000
0125
cafe
2c14
0000
0000
011f
cafe
3014
0000
0000
011a
cafe
3414
0000
0000
011e
cafe
3814
0000
0000
011e
cafe
3c14
0000
0000
0124
cafe
2014
0000
0000
0126
cafe
2414
0000
0000
012c
cafe
2814
0000
0000
0128
cafe
2c14
0000
0000
012c
cafe
3014
0000
0000
0129
cafe
3414
0000
0000
012b
cafe
3814
0000
0000
0135
cafe
3c14
0000
0000
0135
cafe
2014
0000
0000
0135
cafe
2414
0000
0000
013b
cafe
2814
0000
0000
013b
cafe
2c14
0000
0000
013e
cafe
3014
0000
0000
013c
cafe
3414
0000
0000
013a
-
cafe
3814
0000
0000
0140
cafe
3c14
0000
0000
013d
cafe
2014
0000
0000
0139
cafe
2414
0000
0000
0134
cafe
2814
0000
0000
0139
cafe
2c14
0000
0000
013a
cafe
3014
0000
0000
0139
cafe
3414
0000
0000
0137
cafe
3814
0000
0000
0139
cafe
3c14
0000
0000
0136
cafe
2014
0000
0000
0137
cafe
2414
0000
0000
0138
cafe
2814
0000
0000
0134
cafe
2c14
0000
0000
0133
cafe
3014
0000
0000
0131
cafe
3414
0000
0000
012f
cafe
3814
0000
0000
012d
cafe
3c14
0000
0000
012c
cafe
2014
0000
0000
0125
cafe
2414
0000
0000
0128
cafe
2814
0000
0000
0128
cafe
2c14
0000
0000
012b
cafe
3014
0000
0000
012b
cafe
3414
0000
0000
0132
cafe
3814
0000
0000
0133
cafe
3c14
0000
0000
013b
cafe
2014
0000
0000
0140
cafe
2414
0000
0000
0143
cafe
2814
0000
0000
0144
cafe
2c14
0000
0000
0142
cafe
3014
0000
0000
0139
cafe
3414
0000
0000
0136
cafe
3814
0000
0000
0136
cafe
3c14
0000
0000
0139
cafe
2014
0000
0000
0130
cafe
2414
0000
0000
012e
cafe
2814
0000
0000
0126
cafe
2c14
0000
0000
0129
cafe
3014
0000
0000
0120
cafe
3414
0000
0000
0122
cafe
3814
0000
0000
0124
cafe
3c14
0000
0000
012d
cafe
2014
0000
0000
0132
cafe
2414
0000
0000
013f
cafe
2814
0000
0000
013f
cafe
2c14
0000
0000
0144
cafe
3014
0000
0000
0148
cafe
3414
0000
0000
014d
cafe
3814
0000
0000
0146
cafe
3c14
0000
0000
0148
cafe
2014
0000
0000
0142
cafe
-
2414
0000
0000
0144
cafe
2814
0000
0000
013e
cafe
2c14
0000
0000
013e
cafe
3014
0000
0000
0140
cafe
3414
0000
0000
0146
cafe
3814
0000
0000
0147
cafe
3c14
0000
0000
014c
cafe
2014
0000
0000
0146
cafe
2414
0000
0000
0146
cafe
2814
0000
0000
0145
cafe
2c14
0000
0000
0142
cafe
3014
0000
0000
0136
cafe
3414
0000
0000
0138
cafe
3814
0000
0000
0131
cafe
3c14
0000
0000
0133
cafe
2014
0000
0000
0134
cafe
2414
0000
0000
0132
cafe
2814
0000
0000
0134
cafe
2c14
0000
0000
013a
cafe
3014
0000
0000
013b
cafe
3414
0000
0000
0139
cafe
3814
0000
0000
0136
cafe
3c14
0000
0000
0135
cafe
2014
0000
0000
0130
cafe
2414
0000
0000
012f
cafe
2814
0000
0000
0134
cafe
2c14
0000
0000
013b
cafe
3014
0000
0000
0142
cafe
3414
0000
0000
0148
cafe
3814
0000
0000
014c
cafe
3c14
0000
0000
0150
cafe
2014
0000
0000
0156
cafe
2414
0000
0000
0156
cafe
2814
0000
0000
0157
cafe
2c14
0000
0000
0153
cafe
3014
0000
0000
0151
cafe
3414
0000
0000
0157
cafe
3814
0000
0000
0155
cafe
3c14
0000
0000
0150
cafe
2014
0000
0000
014d
cafe
2414
0000
0000
014d
cafe
2814
0000
0000
0153
cafe
2c14
0000
0000
0154
cafe
3014
0000
0000
0155
cafe
3414
0000
0000
0152
cafe
3814
0000
0000
014f
cafe
3c14
0000
0000
014b
cafe
2014
0000
0000
0142
cafe
2414
0000
0000
013c
cafe
2814
0000
0000
012e
cafe
2c14
0000
0000
0128
cafe
3014
-
0000
0000
0122
cafe
3414
0000
0000
0114
cafe
3814
0000
0000
010c
cafe
3c14
0000
0000
010e
cafe
2014
0000
0000
010c
cafe
2414
0000
0000
010f
cafe
2814
0000
0000
010b
cafe
2c14
0000
0000
0112
cafe
3014
0000
0000
0117
cafe
3414
0000
0000
0126
cafe
3814
0000
0000
012f
cafe
3c14
0000
0000
0139
cafe
2014
0000
0000
013c
cafe
2414
0000
0000
0144
cafe
2814
0000
0000
014c
cafe
2c14
0000
0000
014c
cafe
3014
0000
0000
014d
cafe
3414
0000
0000
0148
cafe
3814
0000
0000
0148
cafe
3c14
0000
0000
0149
cafe
2014
0000
0000
0144
cafe
2414
0000
0000
0143
cafe
2814
0000
0000
0142
cafe
2c14
0000
0000
013d
cafe
3014
0000
0000
0139
cafe
3414
0000
0000
0137
cafe
3814
0000
0000
0134
cafe
3c14
0000
0000
012f
cafe
2014
0000
0000
0128
cafe
2414
0000
0000
0128
cafe
2814
0000
0000
012c
cafe
2c14
0000
0000
0139
cafe
3014
0000
0000
013f
cafe
3414
0000
0000
013c
cafe
3814
0000
0000
013a
cafe
3c14
0000
0000
0139
cafe
2014
0000
0000
0138
cafe
2414
0000
0000
0132
cafe
2814
0000
0000
0129
cafe
2c14
0000
0000
012a
cafe
3014
0000
0000
0129
cafe
3414
0000
0000
012d
cafe
3814
0000
0000
012d
cafe
3c14
0000
0000
0132
cafe
2014
0000
0000
0132
cafe
2414
0000
0000
0134
cafe
2814
0000
0000
0137
cafe
2c14
0000
0000
0138
cafe
3014
0000
0000
0133
cafe
3414
0000
0000
012d
cafe
3814
0000
0000
012c
cafe
3c14
0000
-
0000
012f
cafe
2014
0000
0000
012c
cafe
2414
0000
0000
012c
cafe
2814
0000
0000
012d
cafe
2c14
0000
0000
0131
cafe
3014
0000
0000
0133
cafe
3414
0000
0000
0136
cafe
3814
0000
0000
012d
cafe
3c14
0000
0000
012c
cafe
2014
0000
0000
0127
cafe
2414
0000
0000
0123
cafe
2814
0000
0000
0124
cafe
2c14
0000
0000
011d
cafe
3014
0000
0000
011b
cafe
3414
0000
0000
0117
cafe
3814
0000
0000
0115
cafe
3c14
0000
0000
0110
cafe
2014
0000
0000
0111
cafe
2414
0000
0000
0114
cafe
2814
0000
0000
0118
cafe
2c14
0000
0000
0118
cafe
3014
0000
0000
011a
cafe
3414
0000
0000
0119
cafe
3814
0000
0000
0125
cafe
3c14
0000
0000
012c
cafe
2014
0000
0000
0132
cafe
2414
0000
0000
012e
cafe
2814
0000
0000
0130
cafe
2c14
0000
0000
0134
cafe
3014
0000
0000
0135
cafe
3414
0000
0000
013b
cafe
3814
0000
0000
013f
cafe
3c14
0000
0000
013d
cafe
2014
0000
0000
0140
cafe
2414
0000
0000
013b
cafe
2814
0000
0000
0138
cafe
2c14
0000
0000
0136
cafe
3014
0000
0000
0135
cafe
3414
0000
0000
012d
cafe
3814
0000
0000
0128
cafe
3c14
0000
0000
0127
cafe
2014
0000
0000
0127
cafe
2414
0000
0000
0122
cafe
2814
0000
0000
012a
cafe
2c14
0000
0000
012a
cafe
3014
0000
0000
012f
cafe
3414
0000
0000
012c
cafe
3814
0000
0000
0135
cafe
3c14
0000
0000
0133
cafe
2014
0000
0000
0135
cafe
2414
0000
0000
0134
cafe
2814
0000
0000
-
0132
cafe
2c14
0000
0000
0136
cafe
3014
0000
0000
0136
cafe
3414
0000
0000
0133
cafe
3814
0000
0000
0133
cafe
3c14
0000
0000
012d
cafe
2014
0000
0000
012b
cafe
2414
0000
0000
0130
cafe
2814
0000
0000
012b
cafe
2c14
0000
0000
012a
cafe
3014
0000
0000
012f
cafe
3414
0000
0000
0132
cafe
3814
0000
0000
0135
cafe
3c14
0000
0000
0138
cafe
2014
0000
0000
0137
cafe
2414
0000
0000
0135
cafe
2814
0000
0000
0130
cafe
2c14
0000
0000
0126
cafe
3014
0000
0000
0128
cafe
3414
0000
0000
0122
cafe
3814
0000
0000
012b
cafe
3c14
0000
0000
012b
cafe
2014
0000
0000
0136
cafe
2414
0000
0000
012f
cafe
2814
0000
0000
0134
cafe
2c14
0000
0000
0137
cafe
3014
0000
0000
013f
cafe
3414
0000
0000
013b
cafe
3814
0000
0000
013b
cafe
3c14
0000
0000
013c
cafe
2014
0000
0000
013d
cafe
2414
0000
0000
0135
cafe
2814
0000
0000
0131
cafe
2c14
0000
0000
013d
cafe
3014
0000
0000
013b
cafe
3414
0000
0000
0137
cafe
3814
0000
0000
0135
cafe
3c14
0000
0000
0135
cafe
2014
0000
0000
0133
cafe
2414
0000
0000
012b
cafe
2814
0000
0000
012b
cafe
2c14
0000
0000
0126
cafe
3014
0000
0000
0122
cafe
3414
0000
0000
0120
cafe
3814
0000
0000
011f
cafe
3c14
0000
0000
011e
cafe
2014
0000
0000
0119
cafe
2414
0000
0000
0118
cafe
2814
0000
0000
0112
cafe
2c14
0000
0000
0111
cafe
3014
0000
0000
0110
cafe
3414
0000
0000
0111
-
cafe
3814
0000
0000
0110
cafe
3c14
0000
0000
0113
cafe
2014
0000
0000
011b
cafe
2414
0000
0000
011d
cafe
2814
0000
0000
0120
cafe
2c14
0000
0000
011f
cafe
3014
0000
0000
0125
cafe
3414
0000
0000
0128
cafe
3814
0000
0000
012b
cafe
3c14
0000
0000
012f
cafe
2014
0000
0000
012e
cafe
2414
0000
0000
012b
cafe
2814
0000
0000
012c
cafe
2c14
0000
0000
0134
cafe
3014
0000
0000
0135
cafe
3414
0000
0000
0134
cafe
3814
0000
0000
0135
cafe
3c14
0000
0000
0136
cafe
2014
0000
0000
013c
cafe
2414
0000
0000
0141
cafe
2814
0000
0000
013f
cafe
2c14
0000
0000
0140
cafe
3014
0000
0000
013f
cafe
3414
0000
0000
013e
cafe
3814
0000
0000
013c
cafe
3c14
0000
0000
0141
cafe
2014
0000
0000
013f
cafe
2414
0000
0000
013c
cafe
2814
0000
0000
012f
cafe
2c14
0000
0000
0128
cafe
3014
0000
0000
012c
cafe
3414
0000
0000
012c
cafe
3814
0000
0000
012c
cafe
3c14
0000
0000
012f
cafe
2014
0000
0000
0131
cafe
2414
0000
0000
0132
cafe
2814
0000
0000
0131
cafe
2c14
0000
0000
0132
cafe
3014
0000
0000
0138
cafe
3414
0000
0000
013b
cafe
3814
0000
0000
013a
cafe
3c14
0000
0000
0140
cafe
2014
0000
0000
0140
cafe
2414
0000
0000
013f
cafe
2814
0000
0000
0138
cafe
2c14
0000
0000
0134
cafe
3014
0000
0000
0135
cafe
3414
0000
0000
013a
cafe
3814
0000
0000
013a
cafe
3c14
0000
0000
013a
cafe
2014
0000
0000
0137
cafe
-
2414
0000
0000
0138
cafe
2814
0000
0000
0135
cafe
2c14
0000
0000
012f
cafe
3014
0000
0000
012d
cafe
3414
0000
0000
012a
cafe
3814
0000
0000
012b
cafe
3c14
0000
0000
012a
cafe
2014
0000
0000
0129
cafe
2414
0000
0000
0126
cafe
2814
0000
0000
0127
cafe
2c14
0000
0000
0128
cafe
3014
0000
0000
012e
cafe
3414
0000
0000
012f
cafe
3814
0000
0000
0132
cafe
3c14
0000
0000
0133
cafe
2014
0000
0000
0132
cafe
2414
0000
0000
0137
cafe
2814
0000
0000
0137
cafe
2c14
0000
0000
0137
cafe
3014
0000
0000
0137
cafe
3414
0000
0000
0132
cafe
3814
0000
0000
0137
cafe
3c14
0000
0000
0131
cafe
2014
0000
0000
0131
cafe
2414
0000
0000
012f
cafe
2814
0000
0000
012a
cafe
2c14
0000
0000
0121
cafe
3014
0000
0000
011b
cafe
3414
0000
0000
0119
cafe
3814
0000
0000
011c
cafe
3c14
0000
0000
0127
cafe
2014
0000
0000
0127
cafe
2414
0000
0000
0126
cafe
2814
0000
0000
0133
cafe
2c14
0000
0000
013d
cafe
3014
0000
0000
0143
cafe
3414
0000
0000
0149
cafe
3814
0000
0000
0150
cafe
3c14
0000
0000
0153
cafe
2014
0000
0000
0153
cafe
2414
0000
0000
0155
cafe
2814
0000
0000
0147
cafe
2c14
0000
0000
0148
cafe
3014
0000
0000
013f
cafe
3414
0000
0000
0142
cafe
3814
0000
0000
02d1
cafe
3c14
0000
0000
038b
cafe
2014
0000
0000
03b7
cafe
2414
0000
0000
03bf
cafe
2814
0000
0000
03b8
cafe
2c14
0000
0000
03a4
cafe
3014
-
0000
0000
0398
cafe
3414
0000
0000
038f
cafe
3814
0000
0000
0376
cafe
3c14
0000
0000
036a
cafe
2014
0000
0000
0361
cafe
2414
0000
0000
035b
cafe
2814
0000
0000
0350
cafe
2c14
0000
0000
034d
cafe
3014
0000
0000
0347
cafe
3414
0000
0000
0342
cafe
3814
0000
0000
0344
cafe
3c14
0000
0000
033d
cafe
2014
0000
0000
0339
cafe
2414
0000
0000
0336
cafe
2814
0000
0000
0334
cafe
2c14
0000
0000
032c
cafe
3014
0000
0000
0329
cafe
3414
0000
0000
031e
cafe
3814
0000
0000
031b
cafe
3c14
0000
0000
030b
cafe
2014
0000
0000
0305
cafe
2414
0000
0000
02f9
cafe
2814
0000
0000
02f1
cafe
2c14
0000
0000
02e9
cafe
3014
0000
0000
02df
cafe
3414
0000
0000
02da
cafe
3814
0000
0000
02ce
cafe
3c14
0000
0000
02c5
cafe
2014
0000
0000
02b6
cafe
2414
0000
0000
02b2
cafe
2814
0000
0000
02a9
cafe
2c14
0000
0000
02a2
cafe
3014
0000
0000
0299
cafe
3414
0000
0000
0287
cafe
3814
0000
0000
027c
cafe
3c14
0000
0000
0273
cafe
2014
0000
0000
0267
cafe
2414
0000
0000
0260
cafe
2814
0000
0000
025a
cafe
2c14
0000
0000
024d
cafe
3014
0000
0000
0243
cafe
3414
0000
0000
0239
cafe
3814
0000
0000
0230
cafe
3c14
0000
0000
022a
cafe
2014
0000
0000
0223
cafe
2414
0000
0000
0220
cafe
2814
0000
0000
0225
cafe
2c14
0000
0000
021d
cafe
3014
0000
0000
021f
cafe
3414
0000
0000
021c
cafe
3814
0000
0000
0215
cafe
3c14
0000
-
0000
0212
cafe
2014
0000
0000
020e
cafe
2414
0000
0000
020c
cafe
2814
0000
0000
0208
cafe
2c14
0000
0000
0201
cafe
3014
0000
0000
01fb
cafe
3414
0000
0000
0202
cafe
3814
0000
0000
01fd
cafe
3c14
0000
0000
01fb
cafe
2014
0000
0000
01f1
cafe
2414
0000
0000
01eb
cafe
2814
0000
0000
01e6
cafe
2c14
0000
0000
01dd
cafe
3014
0000
0000
01da
cafe
3414
0000
0000
01cf
cafe
3814
0000
0000
01c6
cafe
3c14
0000
0000
01bf
cafe
2014
0000
0000
01b3
cafe
2414
0000
0000
01aa
cafe
2814
0000
0000
019f
cafe
2c14
0000
0000
0192
cafe
3014
0000
0000
0189
cafe
3414
0000
0000
0183
cafe
3814
0000
0000
017e
cafe
3c14
0000
0000
017f
cafe
2014
0000
0000
017f
cafe
2414
0000
0000
0178
cafe
2814
0000
0000
017a
cafe
2c14
0000
0000
016f
cafe
3014
0000
0000
0169
cafe
3414
0000
0000
0162
cafe
3814
0000
0000
015f
cafe
3c14
0000
0000
0163
cafe
2014
0000
0000
0167
cafe
2414
0000
0000
0164
cafe
2814
0000
0000
0165
cafe
2c14
0000
0000
0163
cafe
3014
0000
0000
0160
cafe
3414
0000
0000
015c
cafe
3814
0000
0000
0152
cafe
3c14
0000
0000
0149
cafe
2014
0000
0000
0143
cafe
2414
0000
0000
013d
cafe
2814
0000
0000
013b
cafe
2c14
0000
0000
0137
cafe
3014
0000
0000
0137
cafe
3414
0000
0000
0139
cafe
3814
0000
0000
0138
cafe
3c14
0000
0000
0136
cafe
2014
0000
0000
0138
cafe
2414
0000
0000
0134
cafe
2814
0000
0000
-
0135
cafe
2c14
0000
0000
0130
cafe
3014
0000
0000
0131
cafe
3414
0000
0000
0131
cafe
3814
0000
0000
0130
cafe
3c14
0000
0000
012d
cafe
2014
0000
0000
012c
cafe
2414
0000
0000
0123
cafe
2814
0000
0000
0125
cafe
2c14
0000
0000
0128
cafe
3014
0000
0000
0123
cafe
3414
0000
0000
0128
cafe
3814
0000
0000
0129
cafe
3c14
0000
0000
0127
cafe
2014
0000
0000
0126
cafe
2414
0000
0000
0122
cafe
2814
0000
0000
0125
cafe
2c14
0000
0000
011e
cafe
3014
0000
0000
0120
cafe
3414
0000
0000
0119
cafe
3814
0000
0000
0112
cafe
3c14
0000
0000
010c
cafe
2014
0000
0000
010d
cafe
2414
0000
0000
010d
cafe
2814
0000
0000
010f
cafe
2c14
0000
0000
00ff
cafe
3014
0000
0000
00f9
cafe
3414
0000
0000
00f8
cafe
3814
0000
0000
00fb
cafe
3c14
0000
0000
00f6
cafe
2014
0000
0000
00f4
cafe
2414
0000
0000
00f6
cafe
2814
0000
0000
0101
cafe
2c14
0000
0000
00fe
cafe
3014
0000
0000
0102
cafe
3414
0000
0000
010e
cafe
3814
0000
0000
0111
cafe
3c14
0000
0000
0114
cafe
2014
0000
0000
0112
cafe
2414
0000
0000
0114
cafe
2814
0000
0000
0112
cafe
2c14
0000
0000
010a
cafe
3014
0000
0000
0109
cafe
3414
0000
0000
0102
cafe
3814
0000
0000
0102
cafe
3c14
0000
0000
00f9
cafe
2014
0000
0000
00f5
cafe
2414
0000
0000
00f5
cafe
2814
0000
0000
00f5
cafe
2c14
0000
0000
00ed
cafe
3014
0000
0000
00de
cafe
3414
0000
0000
00e1
-
cafe
3814
0000
0000
00df
cafe
3c14
0000
0000
00d7
cafe
2014
0000
0000
00d5
cafe
2414
0000
0000
00d3
cafe
2814
0000
0000
00d1
cafe
2c14
0000
0000
00d2
cafe
3014
0000
0000
00da
cafe
3414
0000
0000
00df
cafe
3814
0000
0000
00df
cafe
3c14
0000
0000
00e2
cafe
2014
0000
0000
00e7
cafe
2414
0000
0000
00e9
cafe
2814
0000
0000
00f0
cafe
2c14
0000
0000
00f5
cafe
3014
0000
0000
00f4
cafe
3414
0000
0000
00f9
cafe
3814
0000
0000
0101
cafe
3c14
0000
0000
0101
cafe
2014
0000
0000
0107
cafe
2414
0000
0000
0103
cafe
2814
0000
0000
00fe
cafe
2c14
0000
0000
00fb
cafe
3014
0000
0000
0101
cafe
3414
0000
0000
00fa
cafe
3814
0000
0000
00f6
cafe
3c14
0000
0000
00f1
cafe
2014
0000
0000
00e9
cafe
2414
0000
0000
00e1
cafe
2814
0000
0000
00e0
cafe
2c14
0000
0000
00e2
cafe
3014
0000
0000
00e1
cafe
3414
0000
0000
00df
cafe
3814
0000
0000
00df
cafe
3c14
0000
0000
00e6
cafe
2014
0000
0000
00e5
cafe
2414
0000
0000
00e1
cafe
2814
0000
0000
00df
cafe
2c14
0000
0000
00e2
cafe
3014
0000
0000
00e3
cafe
3414
0000
0000
00e5
cafe
3814
0000
0000
00e5
cafe
3c14
0000
0000
00ed
cafe
2014
0000
0000
00ed
cafe
2414
0000
0000
00f1
cafe
2814
0000
0000
00f2
cafe
2c14
0000
0000
00f6
cafe
3014
0000
0000
00f8
cafe
3414
0000
0000
00f9
cafe
3814
0000
0000
00fa
cafe
3c14
0000
0000
00f1
cafe
2014
0000
0000
00f2
cafe
-
2414
0000
0000
00f5
cafe
2814
0000
0000
00f6
cafe
2c14
0000
0000
00f8
cafe
3014
0000
0000
00fc
cafe
3414
0000
0000
00fb
cafe
3814
0000
0000
00f5
cafe
3c14
0000
0000
00ee
cafe
2014
0000
0000
00eb
cafe
2414
0000
0000
00e9
cafe
2814
0000
0000
00e8
cafe
2c14
0000
0000
00e7
cafe
3014
0000
0000
00e5
cafe
3414
0000
0000
00e7
cafe
3814
0000
0000
00e4
cafe
3c14
0000
0000
00e6
cafe
2014
0000
0000
00e5
cafe
2414
0000
0000
00e7
cafe
2814
0000
0000
00d3
cafe
2c14
0000
0000
00a8
cafe
3014
0000
0000
009b
cafe
3414
0000
0000
0096
cafe
3814
0000
0000
008f
cafe
3c14
0000
0000
008e
cafe
2014
0000
0000
0090
cafe
2414
0000
0000
0090
cafe
2814
0000
0000
0095
cafe
2c14
0000
0000
009d
cafe
3014
0000
0000
009d
cafe
3414
0000
0000
00a3
cafe
3814
0000
0000
00ab
cafe
3c14
0000
0000
00ad
cafe
2014
0000
0000
00ad
cafe
2414
0000
0000
00ab
cafe
2814
0000
0000
00ab
cafe
2c14
0000
0000
00b4
cafe
3014
0000
0000
00ba
cafe
3414
0000
0000
00bb
cafe
3814
0000
0000
00bf
cafe
3c14
0000
0000
00bf
cafe
2014
0000
0000
00bf
cafe
2414
0000
0000
00bd
cafe
2814
0000
0000
00ba
cafe
2c14
0000
0000
00c1
cafe
3014
0000
0000
00c0
cafe
3414
0000
0000
00cb
cafe
3814
0000
0000
00cd
cafe
3c14
0000
0000
00d5
cafe
2014
0000
0000
00d1
cafe
2414
0000
0000
00d2
cafe
2814
0000
0000
00d8
cafe
2c14
0000
0000
00dd
cafe
3014
-
0000
0000
00dd
cafe
3414
0000
0000
00e0
cafe
3814
0000
0000
00e2
cafe
3c14
0000
0000
00e8
cafe
2014
0000
0000
00e7
cafe
2414
0000
0000
00e3
cafe
2814
0000
0000
00dc
cafe
2c14
0000
0000
00d9
cafe
3014
0000
0000
00d7
cafe
3414
0000
0000
00ce
cafe
3814
0000
0000
00d2
cafe
3c14
0000
0000
00cf
cafe
2014
0000
0000
00cc
cafe
2414
0000
0000
00ca
cafe
2814
0000
0000
00cc
cafe
2c14
0000
0000
00cb
cafe
3014
0000
0000
00d3
cafe
3414
0000
0000
00d7
cafe
3814
0000
0000
00dc
cafe
3c14
0000
0000
00da
cafe
2014
0000
0000
00da
cafe
2414
0000
0000
00db
cafe
2814
0000
0000
00e1
cafe
2c14
0000
0000
00e8
cafe
3014
0000
0000
00ed
cafe
3414
0000
0000
00ed
cafe
3814
0000
0000
00f0
cafe
3c14
0000
0000
00ef
cafe
2014
0000
0000
00ee
cafe
2414
0000
0000
00f5
cafe
2814
0000
0000
00f3
cafe
2c14
0000
0000
00ff
cafe
3014
0000
0000
0102
cafe
3414
0000
0000
0105
cafe
3814
0000
0000
0104
cafe
3c14
0000
0000
0101
cafe
2014
0000
0000
00fc
cafe
2414
0000
0000
00fa
cafe
2814
0000
0000
00f5
cafe
2c14
0000
0000
00f6
cafe
3014
0000
0000
00fb
cafe
3414
0000
0000
00fe
cafe
3814
0000
0000
0101
cafe
3c14
0000
0000
0100
cafe
2014
0000
0000
0106
cafe
2414
0000
0000
010a
cafe
2814
0000
0000
0109
cafe
2c14
0000
0000
0102
cafe
3014
0000
0000
00f8
cafe
3414
0000
0000
00f2
cafe
3814
0000
0000
00e9
cafe
3c14
0000
-
0000
00e9
cafe
2014
0000
0000
00e7
cafe
2414
0000
0000
00e4
cafe
2814
0000
0000
00ee
cafe
2c14
0000
0000
00e9
cafe
3014
0000
0000
00e3
cafe
3414
0000
0000
00de
cafe
3814
0000
0000
00e5
cafe
3c14
0000
0000
00e9
cafe
2014
0000
0000
00ea
cafe
2414
0000
0000
00e6
cafe
2814
0000
0000
00e8
cafe
2c14
0000
0000
00e9
cafe
3014
0000
0000
00eb
cafe
3414
0000
0000
00e9
cafe
3814
0000
0000
00e6
cafe
3c14
0000
0000
00e7
cafe
2014
0000
0000
00e6
cafe
2414
0000
0000
00df
cafe
2814
0000
0000
00e4
cafe
2c14
0000
0000
00e8
cafe
3014
0000
0000
00e0
cafe
3414
0000
0000
00e4
cafe
3814
0000
0000
00ea
cafe
3c14
0000
0000
00eb
cafe
2014
0000
0000
00eb
cafe
2414
0000
0000
00ee
cafe
2814
0000
0000
00ec
cafe
2c14
0000
0000
00f2
cafe
3014
0000
0000
00f6
cafe
3414
0000
0000
00fb
cafe
3814
0000
0000
00fc
cafe
3c14
0000
0000
00fc
cafe
2014
0000
0000
00f9
cafe
2414
0000
0000
00fa
cafe
2814
0000
0000
00f9
cafe
2c14
0000
0000
00ff
cafe
3014
0000
0000
0108
cafe
3414
0000
0000
010c
cafe
3814
0000
0000
010c
cafe
3c14
0000
0000
0110
cafe
2014
0000
0000
010f
cafe
2414
0000
0000
010e
cafe
2814
0000
0000
010d
cafe
2c14
0000
0000
010d
cafe
3014
0000
0000
010e
cafe
3414
0000
0000
010a
cafe
3814
0000
0000
0109
cafe
3c14
0000
0000
0105
cafe
2014
0000
0000
0100
cafe
2414
0000
0000
00fe
cafe
2814
0000
0000
-
00fb
cafe
2c14
0000
0000
00f9
cafe
3014
0000
0000
00f6
cafe
3414
0000
0000
00f8
cafe
3814
0000
0000
00f5
cafe
3c14
0000
0000
00f5
cafe
2014
0000
0000
00fd
cafe
2414
0000
0000
0100
cafe
2814
0000
0000
0103
cafe
2c14
0000
0000
0107
cafe
3014
0000
0000
0108
cafe
3414
0000
0000
010c
cafe
3814
0000
0000
010a
cafe
3c14
0000
0000
010d
cafe
2014
0000
0000
0111
cafe
2414
0000
0000
010c
cafe
2814
0000
0000
010d
cafe
2c14
0000
0000
010e
cafe
3014
0000
0000
0112
cafe
3414
0000
0000
010e
cafe
3814
0000
0000
0108
cafe
3c14
0000
0000
0110
cafe
2014
0000
0000
010f
cafe
2414
0000
0000
0109
cafe
2814
0000
0000
0100
cafe
2c14
0000
0000
00ff
cafe
3014
0000
0000
0107
cafe
3414
0000
0000
0103
cafe
3814
0000
0000
0101
cafe
3c14
0000
0000
0106
cafe
2014
0000
0000
0107
cafe
2414
0000
0000
0108
cafe
2814
0000
0000
00fb
cafe
2c14
0000
0000
00f6
cafe
3014
0000
0000
00f3
cafe
3414
0000
0000
00f6
cafe
3814
0000
0000
00f9
cafe
3c14
0000
0000
0100
cafe
2014
0000
0000
0108
cafe
2414
0000
0000
0107
cafe
2814
0000
0000
010b
cafe
2c14
0000
0000
010d
cafe
3014
0000
0000
010b
cafe
3414
0000
0000
0114
cafe
3814
0000
0000
011a
cafe
3c14
0000
0000
0118
cafe
2014
0000
0000
011d
cafe
2414
0000
0000
0113
cafe
2814
0000
0000
0117
cafe
2c14
0000
0000
0110
cafe
3014
0000
0000
010e
cafe
3414
0000
0000
0112
-
cafe
3814
0000
0000
0112
cafe
3c14
0000
0000
0112
cafe
2014
0000
0000
0113
cafe
2414
0000
0000
0110
cafe
2814
0000
0000
0112
cafe
2c14
0000
0000
0112
cafe
3014
0000
0000
0113
cafe
3414
0000
0000
0110
cafe
3814
0000
0000
010e
cafe
3c14
0000
0000
0112
cafe
2014
0000
0000
0115
cafe
2414
0000
0000
0125
cafe
2814
0000
0000
0120
cafe
2c14
0000
0000
011e
cafe
3014
0000
0000
0123
cafe
3414
0000
0000
0121
cafe
3814
0000
0000
0120
cafe
3c14
0000
0000
011c
cafe
2014
0000
0000
0118
cafe
2414
0000
0000
0113
cafe
2814
0000
0000
0112
cafe
2c14
0000
0000
010f
cafe
3014
0000
0000
010c
cafe
3414
0000
0000
0110
cafe
3814
0000
0000
0117
cafe
3c14
0000
0000
011f
cafe
2014
0000
0000
012b
cafe
2414
0000
0000
012e
cafe
2814
0000
0000
0131
cafe
2c14
0000
0000
0136
cafe
3014
0000
0000
0136
cafe
3414
0000
0000
0136
cafe
3814
0000
0000
0136
cafe
3c14
0000
0000
0134
cafe
2014
0000
0000
0137
cafe
2414
0000
0000
0137
cafe
2814
0000
0000
012f
cafe
2c14
0000
0000
012f
cafe
3014
0000
0000
012b
cafe
3414
0000
0000
0127
cafe
3814
0000
0000
0121
cafe
3c14
0000
0000
011c
cafe
2014
0000
0000
0118
cafe
2414
0000
0000
0118
cafe
2814
0000
0000
0118
cafe
2c14
0000
0000
0113
cafe
3014
0000
0000
0116
cafe
3414
0000
0000
0119
cafe
3814
0000
0000
0117
cafe
3c14
0000
0000
011a
cafe
2014
0000
0000
0116
cafe
-
2414
0000
0000
0118
cafe
2814
0000
0000
0118
cafe
2c14
0000
0000
0118
cafe
3014
0000
0000
0120
cafe
3414
0000
0000
0127
cafe
3814
0000
0000
012e
cafe
3c14
0000
0000
0130
cafe
2014
0000
0000
0134
cafe
2414
0000
0000
013b
cafe
2814
0000
0000
0139
cafe
2c14
0000
0000
0137
cafe
3014
0000
0000
013e
cafe
3414
0000
0000
0137
cafe
3814
0000
0000
0131
cafe
3c14
0000
0000
012c
cafe
2014
0000
0000
012c
cafe
2414
0000
0000
012c
cafe
2814
0000
0000
012c
cafe
2c14
0000
0000
012f
cafe
3014
0000
0000
0132
cafe
3414
0000
0000
012e
cafe
3814
0000
0000
0134
cafe
3c14
0000
0000
0137
cafe
2014
0000
0000
013b
cafe
2414
0000
0000
013b
cafe
2814
0000
0000
0139
cafe
2c14
0000
0000
013e
cafe
3014
0000
0000
0139
cafe
3414
0000
0000
0133
cafe
3814
0000
0000
0136
cafe
3c14
0000
0000
013b
cafe
2014
0000
0000
0138
cafe
2414
0000
0000
0135
cafe
2814
0000
0000
012f
cafe
2c14
0000
0000
012e
cafe
3014
0000
0000
012a
cafe
3414
0000
0000
012c
cafe
3814
0000
0000
0131
cafe
3c14
0000
0000
012f
cafe
2014
0000
0000
0128
cafe
2414
0000
0000
012a
cafe
2814
0000
0000
0128
cafe
2c14
0000
0000
0128
cafe
3014
0000
0000
0123
cafe
3414
0000
0000
012b
cafe
3814
0000
0000
0129
cafe
3c14
0000
0000
012c
cafe
2014
0000
0000
0126
cafe
2414
0000
0000
012b
cafe
2814
0000
0000
0124
cafe
2c14
0000
0000
0124
cafe
3014
-
0000
0000
0126
cafe
3414
0000
0000
011f
cafe
3814
0000
0000
011a
cafe
3c14
0000
0000
011b
cafe
2014
0000
0000
011b
cafe
2414
0000
0000
011f
cafe
2814
0000
0000
011c
cafe
2c14
0000
0000
0117
cafe
3014
0000
0000
0115
cafe
3414
0000
0000
0116
cafe
3814
0000
0000
0119
cafe
3c14
0000
0000
0115
cafe
2014
0000
0000
0112
cafe
2414
0000
0000
0112
cafe
2814
0000
0000
0111
cafe
2c14
0000
0000
0112
cafe
3014
0000
0000
011b
cafe
3414
0000
0000
0125
cafe
3814
0000
0000
0126
cafe
3c14
0000
0000
0128
cafe
2014
0000
0000
012e
cafe
2414
0000
0000
0126
cafe
2814
0000
0000
012b
cafe
2c14
0000
0000
0128
cafe
3014
0000
0000
0130
cafe
3414
0000
0000
012a
cafe
3814
0000
0000
012d
cafe
3c14
0000
0000
0129
cafe
2014
0000
0000
0123
cafe
2414
0000
0000
0125
cafe
2814
0000
0000
0127
cafe
2c14
0000
0000
012a
cafe
3014
0000
0000
011e
cafe
3414
0000
0000
0123
cafe
3814
0000
0000
011d
cafe
3c14
0000
0000
0117
cafe
2014
0000
0000
0116
cafe
2414
0000
0000
0111
cafe
2814
0000
0000
0115
cafe
2c14
0000
0000
0114
cafe
3014
0000
0000
010f
cafe
3414
0000
0000
0117
cafe
3814
0000
0000
0119
cafe
3c14
0000
0000
011f
cafe
2014
0000
0000
0122
cafe
2414
0000
0000
0121
cafe
2814
0000
0000
011f
cafe
2c14
0000
0000
0125
cafe
3014
0000
0000
0120
cafe
3414
0000
0000
011e
cafe
3814
0000
0000
0123
cafe
3c14
0000
-
0000
011f
cafe
2014
0000
0000
0122
cafe
2414
0000
0000
0123
cafe
2814
0000
0000
0122
cafe
2c14
0000
0000
0122
cafe
3014
0000
0000
0129
cafe
3414
0000
0000
012a
cafe
3814
0000
0000
012d
cafe
3c14
0000
0000
0128
cafe
2014
0000
0000
0123
cafe
2414
0000
0000
0120
cafe
2814
0000
0000
011c
cafe
2c14
0000
0000
011f
cafe
3014
0000
0000
0123
cafe
3414
0000
0000
012a
cafe
3814
0000
0000
0129
cafe
3c14
0000
0000
0128
cafe
2014
0000
0000
012c
cafe
2414
0000
0000
0126
cafe
2814
0000
0000
0122
cafe
2c14
0000
0000
0125
cafe
3014
0000
0000
0124
cafe
3414
0000
0000
0123
cafe
3814
0000
0000
011b
cafe
3c14
0000
0000
010f
cafe
2014
0000
0000
010d
cafe
2414
0000
0000
0106
cafe
2814
0000
0000
0102
cafe
2c14
0000
0000
0100
cafe
3014
0000
0000
00fd
cafe
3414
0000
0000
00fd
cafe
3814
0000
0000
0000
cafe
3c14
0000
0000
0000
cafe
2014
0000
0000
0000
cafe
2414
0000
0000
0000
cafe
2814
0000
0000
0000
cafe
2c14
0000
0000
0000
cafe
3014
0000
0000
0000
cafe
3414
0000
0000
0000
cafe
3814
0000
0000
0000
cafe
3c14
0000
0000
0000
cafe
2014
0000
0000
0000
cafe
2414
0000
0000
0000
cafe
2814
0000
0000
0000
cafe
2c14
0000
0000
0000
cafe
3014
0000
0000
0000
cafe
3414
0000
0000
0000
cafe
3814
0000
0000
0000
cafe
3c14
0000
0000
0000
cafe
2014
0000
0000
0000
cafe
2414
0000
0000
0000
cafe
2814
0000
0000
-
0000
cafe
2c14
0000
0000
0000
cafe
3014
0000
0000
0000
cafe
3414
0000
0000
0000
cafe
3814
0000
0000
0000
cafe
3c14
0000
0000
000f
cafe
2014
0000
0000
001f
cafe
2414
0000
0000
002b
cafe
2814
0000
0000
0033
cafe
2c14
0000
0000
003b
cafe
3014
0000
0000
0040
cafe
3414
0000
0000
0047
cafe
3814
0000
0000
004d
cafe
3c14
0000
0000
0051
cafe
2014
0000
0000
0062
cafe
2414
0000
0000
0067
cafe
2814
0000
0000
0071
cafe
2c14
0000
0000
007f
cafe
3014
0000
0000
0084
cafe
3414
0000
0000
008f
cafe
3814
0000
0000
009c
cafe
3c14
0000
0000
00a1
cafe
2014
0000
0000
00ae
cafe
2414
0000
0000
00b2
cafe
2814
0000
0000
00b1
cafe
2c14
0000
0000
00b7
cafe
3014
0000
0000
00b9
cafe
3414
0000
0000
00b7
cafe
3814
0000
0000
00b5
cafe
3c14
0000
0000
00b9
cafe
2014
0000
0000
00be
cafe
2414
0000
0000
00c5
cafe
2814
0000
0000
00cd
cafe
2c14
0000
0000
00d0
cafe
3014
0000
0000
00d8
cafe
3414
0000
0000
00dd
cafe
3814
0000
0000
00e7
cafe
3c14
0000
0000
00ee
cafe
2014
0000
0000
00ef
cafe
2414
0000
0000
00f6
cafe
2814
0000
0000
0101
cafe
2c14
0000
0000
0104
cafe
3014
0000
0000
010b
cafe
3414
0000
0000
010f
cafe
3814
0000
0000
010f
cafe
3c14
0000
0000
010c
cafe
2014
0000
0000
010e
cafe
2414
0000
0000
0114
cafe
2814
0000
0000
0118
cafe
2c14
0000
0000
0113
cafe
3014
0000
0000
0112
cafe
3414
0000
0000
011a
-
cafe
3814
0000
0000
0118
cafe
3c14
0000
0000
011d
cafe
2014
0000
0000
011f
cafe
2414
0000
0000
011f
cafe
2814
0000
0000
0123
cafe
2c14
0000
0000
012a
cafe
3014
0000
0000
0130
cafe
3414
0000
0000
0136
cafe
3814
0000
0000
013d
cafe
3c14
0000
0000
0140
cafe
2014
0000
0000
0145
cafe
2414
0000
0000
0145
cafe
2814
0000
0000
0149
cafe
2c14
0000
0000
014c
cafe
3014
0000
0000
0152
cafe
3414
0000
0000
015b
cafe
3814
0000
0000
0160
cafe
3c14
0000
0000
0161
cafe
2014
0000
0000
0162
cafe
2414
0000
0000
015b
cafe
2814
0000
0000
015b
cafe
2c14
0000
0000
015a
cafe
3014
0000
0000
0159
cafe
3414
0000
0000
0155
cafe
3814
0000
0000
015c
cafe
3c14
0000
0000
015b
cafe
2014
0000
0000
015f
cafe
2414
0000
0000
0157
cafe
2814
0000
0000
015f
cafe
2c14
0000
0000
015f
cafe
3014
0000
0000
0157
cafe
3414
0000
0000
0155
cafe
3814
0000
0000
0157
cafe
3c14
0000
0000
015a
cafe
2014
0000
0000
015d
cafe
2414
0000
0000
0160
cafe
2814
0000
0000
0164
cafe
2c14
0000
0000
0165
cafe
3014
0000
0000
0167
cafe
3414
0000
0000
0166
cafe
3814
0000
0000
0166
cafe
3c14
0000
0000
0168
cafe
2014
0000
0000
016d
cafe
2414
0000
0000
0173
cafe
2814
0000
0000
0177
cafe
2c14
0000
0000
017d
cafe
3014
0000
0000
0181
cafe
3414
0000
0000
0186
cafe
3814
0000
0000
0189
cafe
3c14
0000
0000
0196
cafe
2014
0000
0000
018f
cafe
-
2414
0000
0000
018e
cafe
2814
0000
0000
018b
cafe
2c14
0000
0000
0188
cafe
3014
0000
0000
0181
cafe
3414
0000
0000
0185
cafe
3814
0000
0000
0188
cafe
3c14
0000
0000
018f
cafe
2014
0000
0000
0190
cafe
2414
0000
0000
018e
cafe
2814
0000
0000
0190
cafe
2c14
0000
0000
0191
cafe
3014
0000
0000
018c
cafe
3414
0000
0000
0185
cafe
3814
0000
0000
0181
cafe
3c14
0000
0000
0183
cafe
2014
0000
0000
0184
cafe
2414
0000
0000
017f
cafe
2814
0000
0000
017d
cafe
2c14
0000
0000
017d
cafe
3014
0000
0000
017f
cafe
3414
0000
0000
0181
cafe
3814
0000
0000
0185
cafe
3c14
0000
0000
0188
cafe
2014
0000
0000
018b
cafe
2414
0000
0000
018c
cafe
2814
0000
0000
0195
cafe
2c14
0000
0000
0198
cafe
3014
0000
0000
019c
cafe
3414
0000
0000
019b
cafe
3814
0000
0000
0197
cafe
3c14
0000
0000
0192
cafe
2014
0000
0000
0198
cafe
2414
0000
0000
0190
cafe
2814
0000
0000
0186
cafe
2c14
0000
0000
0183
cafe
3014
0000
0000
018c
cafe
3414
0000
0000
018d
cafe
3814
0000
0000
0192
cafe
3c14
0000
0000
0190
cafe
2014
0000
0000
0189
cafe
2414
0000
0000
0188
cafe
2814
0000
0000
018b
cafe
2c14
0000
0000
018e
cafe
3014
0000
0000
0194
cafe
3414
0000
0000
0191
cafe
3814
0000
0000
0191
cafe
3c14
0000
0000
018b
cafe
2014
0000
0000
0190
cafe
2414
0000
0000
0192
cafe
2814
0000
0000
018e
cafe
2c14
0000
0000
0190
cafe
3014
-
0000
0000
0188
cafe
3414
0000
0000
018a
cafe
3814
0000
0000
018d
cafe
3c14
0000
0000
0192
cafe
2014
0000
0000
018b
cafe
2414
0000
0000
018d
cafe
2814
0000
0000
018b
cafe
2c14
0000
0000
0186
cafe
3014
0000
0000
0188
cafe
3414
0000
0000
017b
cafe
3814
0000
0000
0172
cafe
3c14
0000
0000
016b
cafe
2014
0000
0000
016a
cafe
2414
0000
0000
0168
cafe
2814
0000
0000
0166
cafe
2c14
0000
0000
0169
cafe
3014
0000
0000
0169
cafe
3414
0000
0000
016c
cafe
3814
0000
0000
0167
cafe
3c14
0000
0000
0164
cafe
2014
0000
0000
016b
cafe
2414
0000
0000
0166
cafe
2814
0000
0000
015f
cafe
2c14
0000
0000
015d
cafe
3014
0000
0000
015f
cafe
3414
0000
0000
0163
cafe
3814
0000
0000
0160
cafe
3c14
0000
0000
0163
cafe
2014
0000
0000
0167
cafe
2414
0000
0000
0165
cafe
2814
0000
0000
0161
cafe
2c14
0000
0000
015c
cafe
3014
0000
0000
0158
cafe
3414
0000
0000
0155
cafe
3814
0000
0000
014c
cafe
3c14
0000
0000
014a
cafe
2014
0000
0000
0149
cafe
2414
0000
0000
0147
cafe
2814
0000
0000
0147
cafe
2c14
0000
0000
014a
cafe
3014
0000
0000
014c
cafe
3414
0000
0000
0147
cafe
3814
0000
0000
0143
cafe
3c14
0000
0000
0143
cafe
2014
0000
0000
0146
cafe
2414
0000
0000
0145
cafe
2814
0000
0000
0146
cafe
2c14
0000
0000
0149
cafe
3014
0000
0000
014e
cafe
3414
0000
0000
0153
cafe
3814
0000
0000
0155
cafe
3c14
0000
-
0000
015c
cafe
2014
0000
0000
0166
cafe
2414
0000
0000
016d
cafe
2814
0000
0000
0173
cafe
2c14
0000
0000
0172
cafe
3014
0000
0000
0175
cafe
3414
0000
0000
0175
cafe
3814
0000
0000
0175
cafe
3c14
0000
0000
0173
cafe
2014
0000
0000
016b
cafe
2414
0000
0000
0167
cafe
2814
0000
0000
0162
cafe
2c14
0000
0000
0162
cafe
3014
0000
0000
0160
cafe
3414
0000
0000
015e
cafe
3814
0000
0000
015f
cafe
3c14
0000
0000
015b
cafe
2014
0000
0000
0159
cafe
2414
0000
0000
0163
cafe
2814
0000
0000
015a
cafe
2c14
0000
0000
0156
cafe
3014
0000
0000
0151
cafe
3414
0000
0000
0148
cafe
3814
0000
0000
0143
cafe
3c14
0000
0000
0144
cafe
2014
0000
0000
013e
cafe
2414
0000
0000
013f
cafe
2814
0000
0000
013f
cafe
2c14
0000
0000
013c
cafe
3014
0000
0000
013e
cafe
3414
0000
0000
0149
cafe
3814
0000
0000
014f
cafe
3c14
0000
0000
0159
cafe
2014
0000
0000
0159
cafe
2414
0000
0000
015f
cafe
2814
0000
0000
015c
cafe
2c14
0000
0000
0165
cafe
3014
0000
0000
0169
cafe
3414
0000
0000
0167
cafe
3814
0000
0000
0167
cafe
3c14
0000
0000
016c
cafe
2014
0000
0000
0169
cafe
2414
0000
0000
016a
cafe
2814
0000
0000
0167
cafe
2c14
0000
0000
016a
cafe
3014
0000
0000
016a
cafe
3414
0000
0000
016d
cafe
3814
0000
0000
0169
cafe
3c14
0000
0000
0169
cafe
2014
0000
0000
0173
cafe
2414
0000
0000
016c
cafe
2814
0000
0000
-
0169
cafe
2c14
0000
0000
0168
cafe
3014
0000
0000
016a
cafe
3414
0000
0000
0160
cafe
3814
0000
0000
0159
cafe
3c14
0000
0000
0153
cafe
2014
0000
0000
0155
cafe
2414
0000
0000
0156
cafe
2814
0000
0000
0159
cafe
2c14
0000
0000
015b
cafe
3014
0000
0000
0160
cafe
3414
0000
0000
0164
cafe
3814
0000
0000
0160
cafe
3c14
0000
0000
016c
cafe
2014
0000
0000
0170
cafe
2414
0000
0000
0175
cafe
2814
0000
0000
0178
cafe
2c14
0000
0000
016c
cafe
3014
0000
0000
016e
cafe
3414
0000
0000
016d
cafe
3814
0000
0000
016a
cafe
3c14
0000
0000
0165
cafe
2014
0000
0000
015e
cafe
2414
0000
0000
0157
cafe
2814
0000
0000
0157
cafe
2c14
0000
0000
0157
cafe
3014
0000
0000
0159
cafe
3414
0000
0000
014e
cafe
3814
0000
0000
014a
cafe
3c14
0000
0000
0149
cafe
2014
0000
0000
014b
cafe
2414
0000
0000
0151
cafe
2814
0000
0000
014c
cafe
2c14
0000
0000
014b
cafe
3014
0000
0000
014e
cafe
3414
0000
0000
014e
cafe
3814
0000
0000
0149
cafe
3c14
0000
0000
0149
cafe
2014
0000
0000
0142
cafe
2414
0000
0000
0144
cafe
2814
0000
0000
013d
cafe
2c14
0000
0000
0136
cafe
3014
0000
0000
012f
cafe
3414
0000
0000
0130
cafe
3814
0000
0000
012c
cafe
3c14
0000
0000
012f
cafe
2014
0000
0000
012d
cafe
2414
0000
0000
012d
cafe
2814
0000
0000
012e
cafe
2c14
0000
0000
0130
cafe
3014
0000
0000
0130
cafe
3414
0000
0000
0133
-
cafe
3814
0000
0000
0134
cafe
3c14
0000
0000
0139
cafe
2014
0000
0000
0142
cafe
2414
0000
0000
0148
cafe
2814
0000
0000
014e
cafe
2c14
0000
0000
0152
cafe
3014
0000
0000
014f
cafe
3414
0000
0000
014e
cafe
3814
0000
0000
014d
cafe
3c14
0000
0000
0151
cafe
2014
0000
0000
0155
cafe
2414
0000
0000
015e
cafe
2814
0000
0000
015c
cafe
2c14
0000
0000
0151
cafe
3014
0000
0000
0153
cafe
3414
0000
0000
014d
cafe
3814
0000
0000
014d
cafe
3c14
0000
0000
014f
cafe
2014
0000
0000
014e
cafe
2414
0000
0000
0152
cafe
2814
0000
0000
0152
cafe
2c14
0000
0000
0153
cafe
3014
0000
0000
0152
cafe
3414
0000
0000
014a
cafe
3814
0000
0000
014d
cafe
3c14
0000
0000
014f
cafe
2014
0000
0000
014e
cafe
2414
0000
0000
0145
cafe
2814
0000
0000
0145
cafe
2c14
0000
0000
0146
cafe
3014
0000
0000
0141
cafe
3414
0000
0000
013b
cafe
3814
0000
0000
013a
cafe
3c14
0000
0000
013e
cafe
2014
0000
0000
0141
cafe
2414
0000
0000
0144
cafe
2814
0000
0000
0142
cafe
2c14
0000
0000
0145
cafe
3014
0000
0000
0143
cafe
3414
0000
0000
0144
cafe
3814
0000
0000
0143
cafe
3c14
0000
0000
0142
cafe
2014
0000
0000
0140
cafe
2414
0000
0000
0141
cafe
2814
0000
0000
0143
cafe
2c14
0000
0000
014a
cafe
3014
0000
0000
0151
cafe
3414
0000
0000
0154
cafe
3814
0000
0000
0158
cafe
3c14
0000
0000
015a
cafe
2014
0000
0000
0157
cafe
-
2414
0000
0000
0159
cafe
2814
0000
0000
015c
cafe
2c14
0000
0000
015d
cafe
3014
0000
0000
0164
cafe
3414
0000
0000
0163
cafe
3814
0000
0000
0162
cafe
3c14
0000
0000
015f
cafe
2014
0000
0000
0163
cafe
2414
0000
0000
0163
cafe
2814
0000
0000
0167
cafe
2c14
0000
0000
0163
cafe
3014
0000
0000
0165
cafe
3414
0000
0000
015f
cafe
3814
0000
0000
015f
cafe
3c14
0000
0000
015d
cafe
2014
0000
0000
0156
cafe
2414
0000
0000
0154
cafe
2814
0000
0000
014d
cafe
2c14
0000
0000
0144
cafe
3014
0000
0000
0141
cafe
3414
0000
0000
0141
cafe
3814
0000
0000
013f
cafe
3c14
0000
0000
013e
cafe
2014
0000
0000
0145
cafe
2414
0000
0000
0145
cafe
2814
0000
0000
0147
cafe
2c14
0000
0000
014a
cafe
3014
0000
0000
0148
cafe
3414
0000
0000
014b
cafe
3814
0000
0000
014f
cafe
3c14
0000
0000
0153
cafe
2014
0000
0000
0154
cafe
2414
0000
0000
0155
cafe
2814
0000
0000
0156
cafe
2c14
0000
0000
0158
cafe
3014
0000
0000
0155
cafe
3414
0000
0000
0151
cafe
3814
0000
0000
0153
cafe
3c14
0000
0000
0150
cafe
2014
0000
0000
014d
cafe
2414
0000
0000
014f
cafe
2814
0000
0000
0151
cafe
2c14
0000
0000
0150
cafe
3014
0000
0000
0154
cafe
3414
0000
0000
0152
cafe
3814
0000
0000
014d
cafe
3c14
0000
0000
0150
cafe
2014
0000
0000
0150
cafe
2414
0000
0000
014f
cafe
2814
0000
0000
014e
cafe
2c14
0000
0000
014e
cafe
3014
-
0000
0000
014f
cafe
3414
0000
0000
0152
cafe
3814
0000
0000
014e
cafe
3c14
0000
0000
0152
cafe
2014
0000
0000
0152
cafe
2414
0000
0000
0151
cafe
2814
0000
0000
014a
cafe
2c14
0000
0000
014b
cafe
3014
0000
0000
014d
cafe
3414
0000
0000
0150
cafe
3814
0000
0000
0153
cafe
3c14
0000
0000
0155
cafe
2014
0000
0000
0156
cafe
2414
0000
0000
0152
cafe
2814
0000
0000
0157
cafe
2c14
0000
0000
0157
cafe
3014
0000
0000
015c
cafe
3414
0000
0000
015d
cafe
3814
0000
0000
015c
cafe
3c14
0000
0000
015e
cafe
2014
0000
0000
015b
cafe
2414
0000
0000
015d
cafe
2814
0000
0000
015c
cafe
2c14
0000
0000
0157
cafe
3014
0000
0000
014d
cafe
3414
0000
0000
0148
cafe
3814
0000
0000
0147
cafe
3c14
0000
0000
014a
cafe
2014
0000
0000
0150
cafe
2414
0000
0000
0153
cafe
2814
0000
0000
0149
cafe
2c14
0000
0000
0149
cafe
3014
0000
0000
0149
cafe
3414
0000
0000
014a
cafe
3814
0000
0000
0146
cafe
3c14
0000
0000
0142
cafe
2014
0000
0000
0143
cafe
2414
0000
0000
013d
cafe
2814
0000
0000
013f
cafe
2c14
0000
0000
013a
cafe
3014
0000
0000
0141
cafe
3414
0000
0000
013f
cafe
3814
0000
0000
0143
cafe
3c14
0000
0000
013f
cafe
2014
0000
0000
013c
cafe
2414
0000
0000
0143
cafe
2814
0000
0000
0146
cafe
2c14
0000
0000
0147
cafe
3014
0000
0000
014d
cafe
3414
0000
0000
0147
cafe
3814
0000
0000
0144
cafe
3c14
0000
-
0000
0141
cafe
2014
0000
0000
013d
cafe
2414
0000
0000
013b
cafe
2814
0000
0000
0136
cafe
2c14
0000
0000
0132
cafe
3014
0000
0000
0129
cafe
3414
0000
0000
012c
cafe
3814
0000
0000
0128
cafe
3c14
0000
0000
0128
cafe
2014
0000
0000
0124
cafe
2414
0000
0000
0121
cafe
2814
0000
0000
011c
cafe
2c14
0000
0000
0120
cafe
3014
0000
0000
011d
cafe
3414
0000
0000
0118
cafe
3814
0000
0000
011b
cafe
3c14
0000
0000
0124
cafe
2014
0000
0000
0129
cafe
2414
0000
0000
0132
cafe
2814
0000
0000
0134
cafe
2c14
0000
0000
013c
cafe
3014
0000
0000
013f
cafe
3414
0000
0000
0141
cafe
3814
0000
0000
0142
cafe
3c14
0000
0000
0142
cafe
2014
0000
0000
0140
cafe
2414
0000
0000
013d
cafe
2814
0000
0000
013f
cafe
2c14
0000
0000
013b
cafe
3014
0000
0000
0138
cafe
3414
0000
0000
0138
cafe
3814
0000
0000
013b
cafe
3c14
0000
0000
0138
cafe
2014
0000
0000
0138
cafe
2414
0000
0000
013a
cafe
2814
0000
0000
013d
cafe
2c14
0000
0000
0140
cafe
3014
0000
0000
0145
cafe
3414
0000
0000
0147
cafe
3814
0000
0000
0146
cafe
3c14
0000
0000
013f
cafe
2014
0000
0000
013e
cafe
2414
0000
0000
0136
cafe
2814
0000
0000
0132
cafe
2c14
0000
0000
0131
cafe
3014
0000
0000
0133
cafe
3414
0000
0000
0137
cafe
3814
0000
0000
0136
cafe
3c14
0000
0000
0138
cafe
2014
0000
0000
0137
cafe
2414
0000
0000
012b
cafe
2814
0000
0000
-
012c
cafe
2c14
0000
0000
012a
cafe
3014
0000
0000
012c
cafe
3414
0000
0000
0128
cafe
3814
0000
0000
0129
cafe
3c14
0000
0000
0133
cafe
2014
0000
0000
013d
cafe
2414
0000
0000
0140
cafe
2814
0000
0000
013f
cafe
2c14
0000
0000
0140
cafe
3014
0000
0000
0140
cafe
3414
0000
0000
0146
cafe
3814
0000
0000
0149
cafe
3c14
0000
0000
0151
cafe
2014
0000
0000
014e
cafe
2414
0000
0000
014f
cafe
2814
0000
0000
0150
cafe
2c14
0000
0000
0151
cafe
3014
0000
0000
014d
cafe
3414
0000
0000
014d
cafe
3814
0000
0000
0142
cafe
3c14
0000
0000
013d
cafe
2014
0000
0000
0141
cafe
2414
0000
0000
013c
cafe
2814
0000
0000
0139
cafe
2c14
0000
0000
0134
cafe
3014
0000
0000
012f
cafe
3414
0000
0000
012e
cafe
3814
0000
0000
012e
cafe
3c14
0000
0000
0127
cafe
2014
0000
0000
0128
cafe
2414
0000
0000
0129
cafe
2814
0000
0000
0127
cafe
2c14
0000
0000
0121
cafe
3014
0000
0000
0123
cafe
3414
0000
0000
0126
cafe
3814
0000
0000
012b
cafe
3c14
0000
0000
0131
cafe
2014
0000
0000
0136
cafe
2414
0000
0000
0135
cafe
2814
0000
0000
0133
cafe
2c14
0000
0000
0136
cafe
3014
0000
0000
0139
cafe
3414
0000
0000
013c
cafe
3814
0000
0000
0139
cafe
3c14
0000
0000
0138
cafe
2014
0000
0000
0138
cafe
2414
0000
0000
0137
cafe
2814
0000
0000
0138
cafe
2c14
0000
0000
0138
cafe
3014
0000
0000
0133
cafe
3414
0000
0000
012c
-
cafe
3814
0000
0000
012b
cafe
3c14
0000
0000
012f
cafe
2014
0000
0000
012e
cafe
2414
0000
0000
012f
cafe
2814
0000
0000
012f
cafe
2c14
0000
0000
012e
cafe
3014
0000
0000
012f
cafe
3414
0000
0000
0137
cafe
3814
0000
0000
0135
cafe
3c14
0000
0000
0132
cafe
2014
0000
0000
0135
cafe
2414
0000
0000
0136
cafe
2814
0000
0000
0137
cafe
2c14
0000
0000
0136
cafe
3014
0000
0000
0135
cafe
3414
0000
0000
0139
cafe
3814
0000
0000
0135
cafe
3c14
0000
0000
0133
cafe
2014
0000
0000
0130
cafe
2414
0000
0000
0131
cafe
2814
0000
0000
0132
cafe
2c14
0000
0000
0133
cafe
3014
0000
0000
012a
cafe
3414
0000
0000
0127
cafe
3814
0000
0000
012e
cafe
3c14
0000
0000
0131
cafe
2014
0000
0000
012f
cafe
2414
0000
0000
0135
cafe
2814
0000
0000
012e
cafe
2c14
0000
0000
0131
cafe
3014
0000
0000
012d
cafe
3414
0000
0000
012e
cafe
3814
0000
0000
0128
cafe
3c14
0000
0000
012b
cafe
2014
0000
0000
012b
cafe
2414
0000
0000
0132
cafe
2814
0000
0000
012e
cafe
2c14
0000
0000
0137
cafe
3014
0000
0000
0134
cafe
3414
0000
0000
0134
cafe
3814
0000
0000
0131
cafe
3c14
0000
0000
0135
cafe
2014
0000
0000
0133
cafe
2414
0000
0000
0130
cafe
2814
0000
0000
012e
cafe
2c14
0000
0000
012c
cafe
3014
0000
0000
0126
cafe
3414
0000
0000
011c
cafe
3814
0000
0000
0119
cafe
3c14
0000
0000
0116
cafe
2014
0000
0000
0113
cafe
-
2414
0000
0000
010f
cafe
2814
0000
0000
010e
cafe
2c14
0000
0000
010f
cafe
3014
0000
0000
0115
cafe
3414
0000
0000
0112
cafe
3814
0000
0000
0118
cafe
3c14
0000
0000
0118
cafe
2014
0000
0000
011b
cafe
2414
0000
0000
0122
cafe
2814
0000
0000
012f
cafe
2c14
0000
0000
012e
cafe
3014
0000
0000
0130
cafe
3414
0000
0000
0136
cafe
3814
0000
0000
0135
cafe
3c14
0000
0000
0134
cafe
2014
0000
0000
0130
cafe
2414
0000
0000
012f
cafe
2814
0000
0000
0133
cafe
2c14
0000
0000
0131
cafe
3014
0000
0000
0133
cafe
3414
0000
0000
0134
cafe
3814
0000
0000
0131
cafe
3c14
0000
0000
0133
cafe
2014
0000
0000
0133
cafe
2414
0000
0000
012c
cafe
2814
0000
0000
012b
cafe
2c14
0000
0000
0129
cafe
3014
0000
0000
0127
cafe
3414
0000
0000
0128
cafe
3814
0000
0000
0127
cafe
3c14
0000
0000
0121
cafe
2014
0000
0000
011e
cafe
2414
0000
0000
011b
cafe
2814
0000
0000
0114
cafe
2c14
0000
0000
0110
cafe
3014
0000
0000
0116
cafe
3414
0000
0000
011e
cafe
3814
0000
0000
011f
cafe
3c14
0000
0000
0123
cafe
2014
0000
0000
0128
cafe
2414
0000
0000
012e
cafe
2814
0000
0000
012f
cafe
2c14
0000
0000
012b
cafe
3014
0000
0000
012c
cafe
3414
0000
0000
0129
cafe
3814
0000
0000
012b
cafe
3c14
0000
0000
012b
cafe
2014
0000
0000
012c
cafe
2414
0000
0000
0128
cafe
2814
0000
0000
0126
cafe
2c14
0000
0000
0127
cafe
3014
-
0000
0000
0123
cafe
3414
0000
0000
011d
cafe
3814
0000
0000
0121
cafe
3c14
0000
0000
0123
cafe
2014
0000
0000
0125
cafe
2414
0000
0000
012b
cafe
2814
0000
0000
0131
cafe
2c14
0000
0000
0137
cafe
3014
0000
0000
013e
cafe
3414
0000
0000
0140
cafe
3814
0000
0000
0141
cafe
3c14
0000
0000
013e
cafe
2014
0000
0000
013c
cafe
2414
0000
0000
0138
cafe
2814
0000
0000
0134
cafe
2c14
0000
0000
012e
cafe
3014
0000
0000
012a
cafe
3414
0000
0000
0124
cafe
3814
0000
0000
0127
cafe
3c14
0000
0000
0127
cafe
2014
0000
0000
012a
cafe
2414
0000
0000
0123
cafe
2814
0000
0000
0126
cafe
2c14
0000
0000
0127
cafe
3014
0000
0000
012c
cafe
3414
0000
0000
012a
cafe
3814
0000
0000
0126
cafe
3c14
0000
0000
0129
cafe
2014
0000
0000
0130
cafe
2414
0000
0000
0136
cafe
2814
0000
0000
0136
cafe
2c14
0000
0000
0134
cafe
3014
0000
0000
012d
cafe
3414
0000
0000
012e
cafe
3814
0000
0000
012a
cafe
3c14
0000
0000
012e
cafe
2014
0000
0000
0133
cafe
2414
0000
0000
0133
cafe
2814
0000
0000
0132
cafe
2c14
0000
0000
0130
cafe
3014
0000
0000
0129
cafe
3414
0000
0000
012e
cafe
3814
0000
0000
0134
cafe
3c14
0000
0000
0137
cafe
2014
0000
0000
012f
cafe
2414
0000
0000
0130
cafe
2814
0000
0000
0136
cafe
2c14
0000
0000
013c
cafe
3014
0000
0000
0139
cafe
3414
0000
0000
0139
cafe
3814
0000
0000
0139
cafe
3c14
0000
-
0000
0139
cafe
2014
0000
0000
0139
cafe
2414
0000
0000
0134
cafe
2814
0000
0000
0139
cafe
2c14
0000
0000
0138
cafe
3014
0000
0000
013a
cafe
3414
0000
0000
013d
cafe
3814
0000
0000
013b
cafe
3c14
0000
0000
013b
cafe
2014
0000
0000
013e
cafe
2414
0000
0000
013f
cafe
2814
0000
0000
0142
cafe
2c14
0000
0000
013f
cafe
3014
0000
0000
013f
cafe
3414
0000
0000
0140
cafe
3814
0000
0000
0146
cafe
3c14
0000
0000
0147
cafe
2014
0000
0000
0146
cafe
2414
0000
0000
014a
cafe
2814
0000
0000
014c
cafe
2c14
0000
0000
014c
cafe
3014
0000
0000
014a
cafe
3414
0000
0000
0142
cafe
3814
0000
0000
0143
cafe
3c14
0000
0000
0141
cafe
2014
0000
0000
013c
cafe
2414
0000
0000
0137
cafe
2814
0000
0000
0135
cafe
2c14
0000
0000
0137
cafe
3014
0000
0000
0139
cafe
3414
0000
0000
0143
cafe
3814
0000
0000
0140
cafe
3c14
0000
0000
0140
cafe
2014
0000
0000
013b
cafe
2414
0000
0000
0132
cafe
2814
0000
0000
0130
cafe
2c14
0000
0000
012f
cafe
3014
0000
0000
012f
cafe
3414
0000
0000
012f
cafe
3814
0000
0000
012c
cafe
3c14
0000
0000
012b
cafe
2014
0000
0000
0129
cafe
2414
0000
0000
0122
cafe
2814
0000
0000
0120
cafe
2c14
0000
0000
0121
cafe
3014
0000
0000
011f
cafe
3414
0000
0000
0121
cafe
3814
0000
0000
011e
cafe
3c14
0000
0000
011d
cafe
2014
0000
0000
0123
cafe
2414
0000
0000
0124
cafe
2814
0000
0000
-
0122
cafe
2c14
0000
0000
012a
cafe
3014
0000
0000
012f
cafe
3414
0000
0000
012f
cafe
3814
0000
0000
012e
cafe
3c14
0000
0000
012e
cafe
2014
0000
0000
0130
cafe
2414
0000
0000
012b
cafe
2814
0000
0000
0126
cafe
2c14
0000
0000
0127
cafe
3014
0000
0000
012c
cafe
3414
0000
0000
012a
cafe
3814
0000
0000
012f
cafe
3c14
0000
0000
012e
cafe
2014
0000
0000
012f
cafe
2414
0000
0000
0134
cafe
2814
0000
0000
013a
cafe
2c14
0000
0000
0137
cafe
3014
0000
0000
0134
cafe
3414
0000
0000
0131
cafe
3814
0000
0000
0131
cafe
3c14
0000
0000
0131
cafe
2014
0000
0000
012e
cafe
2414
0000
0000
0129
cafe
2814
0000
0000
0127
cafe
2c14
0000
0000
0123
cafe
3014
0000
0000
011d
cafe
3414
0000
0000
0123
cafe
3814
0000
0000
011f
cafe
3c14
0000
0000
011c
cafe
2014
0000
0000
011c
cafe
2414
0000
0000
0118
cafe
2814
0000
0000
0115
cafe
2c14
0000
0000
0113
cafe
3014
0000
0000
011c
cafe
3414
0000
0000
0125
cafe
3814
0000
0000
0128
cafe
3c14
0000
0000
0129
cafe
2014
0000
0000
0129
cafe
2414
0000
0000
0128
cafe
2814
0000
0000
0129
cafe
2c14
0000
0000
0126
cafe
3014
0000
0000
012e
cafe
3414
0000
0000
0135
cafe
3814
0000
0000
0134
cafe
3c14
0000
0000
0134
cafe
2014
0000
0000
0139
cafe
2414
0000
0000
013e
cafe
2814
0000
0000
0147
cafe
2c14
0000
0000
0150
cafe
3014
0000
0000
0148
cafe
3414
0000
0000
014b
-
