281f
0000
0000
00d2
cafe
2c1f
0000
0000
00bc
cafe
301f
0000
0000
00b1
cafe
341f
0000
0000
00b1
cafe
381f
0000
0000
00b2
cafe
3c1f
0000
0000
00b5
cafe
201f
0000
0000
00b3
cafe
241f
0000
0000
00bc
cafe
281f
0000
0000
00b9
cafe
2c1f
0000
0000
00bb
cafe
301f
0000
0000
00c8
cafe
341f
0000
0000
00cc
cafe
381f
0000
0000
00c8
cafe
3c1f
0000
0000
00c8
cafe
201f
0000
0000
00c8
cafe
241f
0000
0000
00db
cafe
281f
0000
0000
00cc
cafe
2c1f
0000
0000
0105
cafe
301f
0000
0000
0101
cafe
341f
0000
0000
0100
cafe
381f
0000
0000
00fa
cafe
3c1f
0000
0000
00ff
cafe
201f
0000
0000
00fe
cafe
241f
0000
0000
00fe
cafe
281f
0000
0000
00fa
cafe
2c1f
0000
0000
0104
cafe
301f
0000
0000
0104
cafe
341f
0000
0000
00f8
cafe
381f
0000
0000
00ff
cafe
3c1f
0000
0000
00e7
cafe
201f
0000
0000
00f3
cafe
241f
0000
0000
00fd
cafe
281f
0000
0000
00f5
cafe
2c1f
0000
0000
00f0
cafe
301f
0000
0000
00f0
cafe
341f
0000
0000
00e6
cafe
381f
0000
0000
00e4
cafe
3c1f
0000
0000
00e8
cafe
201f
0000
0000
00f0
cafe
241f
0000
0000
00e9
cafe
281f
0000
0000
00e8
cafe
2c1f
0000
0000
00f3
cafe
301f
0000
0000
00ed
cafe
341f
0000
0000
00eb
cafe
381f
0000
0000
00e5
cafe
3c1f
0000
0000
00d9
cafe
201f
0000
0000
00d6
cafe
241f
0000
0000
00e3
cafe
281f
0000
0000
00de
cafe
2c1f
0000
0000
00da
cafe
301f
0000
0000
00cf
cafe
341f
-
0000
0000
00d9
cafe
381f
0000
0000
00ee
cafe
3c1f
0000
0000
00ec
cafe
201f
0000
0000
00f2
cafe
241f
0000
0000
00f3
cafe
281f
0000
0000
0106
cafe
2c1f
0000
0000
00fd
cafe
301f
0000
0000
00f8
cafe
341f
0000
0000
00f4
cafe
381f
0000
0000
00f6
cafe
3c1f
0000
0000
00f5
cafe
201f
0000
0000
00fa
cafe
241f
0000
0000
00fa
cafe
281f
0000
0000
00f0
cafe
2c1f
0000
0000
00f2
cafe
301f
0000
0000
00e9
cafe
341f
0000
0000
00d4
cafe
381f
0000
0000
00ce
cafe
3c1f
0000
0000
00c8
cafe
201f
0000
0000
00cd
cafe
241f
0000
0000
00b9
cafe
281f
0000
0000
00c0
cafe
2c1f
0000
0000
00c2
cafe
301f
0000
0000
00cb
cafe
341f
0000
0000
00c2
cafe
381f
0000
0000
00cd
cafe
3c1f
0000
0000
00bb
cafe
201f
0000
0000
00cb
cafe
241f
0000
0000
00c7
cafe
281f
0000
0000
00da
cafe
2c1f
0000
0000
00d4
cafe
301f
0000
0000
00db
cafe
341f
0000
0000
00d9
cafe
381f
0000
0000
00d4
cafe
3c1f
0000
0000
00ce
cafe
201f
0000
0000
00d6
cafe
241f
0000
0000
00e9
cafe
281f
0000
0000
00f0
cafe
2c1f
0000
0000
00ef
cafe
301f
0000
0000
00ec
cafe
341f
0000
0000
00f8
cafe
381f
0000
0000
00f6
cafe
3c1f
0000
0000
00ec
cafe
201f
0000
0000
00e1
cafe
241f
0000
0000
00ef
cafe
281f
0000
0000
00f0
cafe
2c1f
0000
0000
00e8
cafe
301f
0000
0000
00e9
cafe
341f
0000
0000
00ea
cafe
381f
0000
0000
00dd
cafe
3c1f
0000
0000
00e0
cafe
201f
0000
-
0000
00e3
cafe
241f
0000
0000
00d9
cafe
281f
0000
0000
00d9
cafe
2c1f
0000
0000
00d0
cafe
301f
0000
0000
00d1
cafe
341f
0000
0000
00cc
cafe
381f
0000
0000
00cb
cafe
3c1f
0000
0000
00c4
cafe
201f
0000
0000
00b8
cafe
241f
0000
0000
00c0
cafe
281f
0000
0000
00b4
cafe
2c1f
0000
0000
00b2
cafe
301f
0000
0000
00b1
cafe
341f
0000
0000
00a9
cafe
381f
0000
0000
00bb
cafe
3c1f
0000
0000
00b1
cafe
201f
0000
0000
00b4
cafe
241f
0000
0000
00ae
cafe
281f
0000
0000
00af
cafe
2c1f
0000
0000
00bc
cafe
301f
0000
0000
00bd
cafe
341f
0000
0000
00c4
cafe
381f
0000
0000
00cd
cafe
3c1f
0000
0000
00c7
cafe
201f
0000
0000
00cc
cafe
241f
0000
0000
00d3
cafe
281f
0000
0000
00cc
cafe
2c1f
0000
0000
00ce
cafe
301f
0000
0000
00c9
cafe
341f
0000
0000
00d1
cafe
381f
0000
0000
00cc
cafe
3c1f
0000
0000
00cb
cafe
201f
0000
0000
00cf
cafe
241f
0000
0000
00c8
cafe
281f
0000
0000
00d5
cafe
2c1f
0000
0000
00d4
cafe
301f
0000
0000
00db
cafe
341f
0000
0000
00d3
cafe
381f
0000
0000
00d1
cafe
3c1f
0000
0000
00d6
cafe
201f
0000
0000
00d6
cafe
241f
0000
0000
00d1
cafe
281f
0000
0000
00cf
cafe
2c1f
0000
0000
00c6
cafe
301f
0000
0000
00c9
cafe
341f
0000
0000
00ca
cafe
381f
0000
0000
00cc
cafe
3c1f
0000
0000
00ca
cafe
201f
0000
0000
00c6
cafe
241f
0000
0000
00c4
cafe
281f
0000
0000
00bc
cafe
2c1f
0000
0000
-
00c4
cafe
301f
0000
0000
00b8
cafe
341f
0000
0000
00b8
cafe
381f
0000
0000
00bd
cafe
3c1f
0000
0000
00b0
cafe
201f
0000
0000
00bd
cafe
241f
0000
0000
00c9
cafe
281f
0000
0000
00d0
cafe
2c1f
0000
0000
00d4
cafe
301f
0000
0000
00d2
cafe
341f
0000
0000
00d4
cafe
381f
0000
0000
00da
cafe
3c1f
0000
0000
00c9
cafe
201f
0000
0000
00e1
cafe
241f
0000
0000
00de
cafe
281f
0000
0000
00e0
cafe
2c1f
0000
0000
00de
cafe
301f
0000
0000
00db
cafe
341f
0000
0000
00cf
cafe
381f
0000
0000
00d4
cafe
3c1f
0000
0000
00d7
cafe
201f
0000
0000
00db
cafe
241f
0000
0000
00d3
cafe
281f
0000
0000
00d6
cafe
2c1f
0000
0000
00d2
cafe
301f
0000
0000
00ca
cafe
341f
0000
0000
00cd
cafe
381f
0000
0000
00c8
cafe
3c1f
0000
0000
00bd
cafe
201f
0000
0000
00b6
cafe
241f
0000
0000
00ba
cafe
281f
0000
0000
00af
cafe
2c1f
0000
0000
00aa
cafe
301f
0000
0000
00b4
cafe
341f
0000
0000
00c3
cafe
381f
0000
0000
00b9
cafe
3c1f
0000
0000
00c4
cafe
201f
0000
0000
00ca
cafe
241f
0000
0000
00c4
cafe
281f
0000
0000
00c8
cafe
2c1f
0000
0000
00cb
cafe
301f
0000
0000
00ca
cafe
341f
0000
0000
00c7
cafe
381f
0000
0000
00d6
cafe
3c1f
0000
0000
00cd
cafe
201f
0000
0000
00d3
cafe
241f
0000
0000
00dc
cafe
281f
0000
0000
00d6
cafe
2c1f
0000
0000
00d3
cafe
301f
0000
0000
00bc
cafe
341f
0000
0000
00bc
cafe
381f
0000
0000
00be
-
cafe
3c1f
0000
0000
00c1
cafe
201f
0000
0000
00c1
cafe
241f
0000
0000
00bc
cafe
281f
0000
0000
00b7
cafe
2c1f
0000
0000
00a9
cafe
301f
0000
0000
00bf
cafe
341f
0000
0000
00bb
cafe
381f
0000
0000
00b1
cafe
3c1f
0000
0000
00be
cafe
201f
0000
0000
00b8
cafe
241f
0000
0000
00c1
cafe
281f
0000
0000
00bd
cafe
2c1f
0000
0000
00c1
cafe
301f
0000
0000
00be
cafe
341f
0000
0000
00c5
cafe
381f
0000
0000
00bd
cafe
3c1f
0000
0000
00c3
cafe
201f
0000
0000
00c7
cafe
241f
0000
0000
00cc
cafe
281f
0000
0000
00be
cafe
2c1f
0000
0000
00d5
cafe
301f
0000
0000
00d8
cafe
341f
0000
0000
00d0
cafe
381f
0000
0000
00d6
cafe
3c1f
0000
0000
00da
cafe
201f
0000
0000
00d3
cafe
241f
0000
0000
00d6
cafe
281f
0000
0000
00cc
cafe
2c1f
0000
0000
00c1
cafe
301f
0000
0000
00c5
cafe
341f
0000
0000
00c2
cafe
381f
0000
0000
00b7
cafe
3c1f
0000
0000
00ad
cafe
201f
0000
0000
00b4
cafe
241f
0000
0000
00bb
cafe
281f
0000
0000
00a8
cafe
2c1f
0000
0000
00a7
cafe
301f
0000
0000
009e
cafe
341f
0000
0000
009b
cafe
381f
0000
0000
009c
cafe
3c1f
0000
0000
0098
cafe
201f
0000
0000
00a2
cafe
241f
0000
0000
0098
cafe
281f
0000
0000
009e
cafe
2c1f
0000
0000
00ae
cafe
301f
0000
0000
00a4
cafe
341f
0000
0000
00ab
cafe
381f
0000
0000
00b0
cafe
3c1f
0000
0000
00b8
cafe
201f
0000
0000
00bf
cafe
241f
0000
0000
00c4
cafe
-
281f
0000
0000
00d2
cafe
2c1f
0000
0000
00c7
cafe
301f
0000
0000
00ce
cafe
341f
0000
0000
00db
cafe
381f
0000
0000
00d6
cafe
3c1f
0000
0000
00e9
cafe
201f
0000
0000
00e2
cafe
241f
0000
0000
00da
cafe
281f
0000
0000
00db
cafe
2c1f
0000
0000
00d3
cafe
301f
0000
0000
00c4
cafe
341f
0000
0000
00cb
cafe
381f
0000
0000
00c1
cafe
3c1f
0000
0000
00b8
cafe
201f
0000
0000
00aa
cafe
241f
0000
0000
00a6
cafe
281f
0000
0000
00ac
cafe
2c1f
0000
0000
009f
cafe
301f
0000
0000
00a2
cafe
341f
0000
0000
00a9
cafe
381f
0000
0000
009e
cafe
3c1f
0000
0000
00a8
cafe
201f
0000
0000
00a2
cafe
241f
0000
0000
009e
cafe
281f
0000
0000
0092
cafe
2c1f
0000
0000
009e
cafe
301f
0000
0000
009b
cafe
341f
0000
0000
0095
cafe
381f
0000
0000
00a4
cafe
3c1f
0000
0000
0096
cafe
201f
0000
0000
009b
cafe
241f
0000
0000
00a7
cafe
281f
0000
0000
00b6
cafe
2c1f
0000
0000
00b5
cafe
301f
0000
0000
00af
cafe
341f
0000
0000
00b9
cafe
381f
0000
0000
00ae
cafe
3c1f
0000
0000
00b4
cafe
201f
0000
0000
00aa
cafe
241f
0000
0000
00ac
cafe
281f
0000
0000
00ae
cafe
2c1f
0000
0000
00ad
cafe
301f
0000
0000
00ba
cafe
341f
0000
0000
00b0
cafe
381f
0000
0000
00c1
cafe
3c1f
0000
0000
00c1
cafe
201f
0000
0000
00bc
cafe
241f
0000
0000
00bd
cafe
281f
0000
0000
00c6
cafe
2c1f
0000
0000
00cc
cafe
301f
0000
0000
00bc
cafe
341f
-
0000
0000
00bc
cafe
381f
0000
0000
00c4
cafe
3c1f
0000
0000
00be
cafe
201f
0000
0000
00b8
cafe
241f
0000
0000
00bb
cafe
281f
0000
0000
00b5
cafe
2c1f
0000
0000
00c3
cafe
301f
0000
0000
00c1
cafe
341f
0000
0000
00bb
cafe
381f
0000
0000
00ca
cafe
3c1f
0000
0000
00c0
cafe
201f
0000
0000
00cb
cafe
241f
0000
0000
00bf
cafe
281f
0000
0000
00c2
cafe
2c1f
0000
0000
00bc
cafe
301f
0000
0000
00b4
cafe
341f
0000
0000
00b7
cafe
381f
0000
0000
00ad
cafe
3c1f
0000
0000
00a2
cafe
201f
0000
0000
00a2
cafe
241f
0000
0000
0099
cafe
281f
0000
0000
0096
cafe
2c1f
0000
0000
00a6
cafe
301f
0000
0000
00a1
cafe
341f
0000
0000
00ab
cafe
381f
0000
0000
00b4
cafe
3c1f
0000
0000
00af
cafe
201f
0000
0000
00b4
cafe
241f
0000
0000
00b1
cafe
281f
0000
0000
00b4
cafe
2c1f
0000
0000
00b8
cafe
301f
0000
0000
00b8
cafe
341f
0000
0000
00ae
cafe
381f
0000
0000
00b8
cafe
3c1f
0000
0000
00b3
cafe
201f
0000
0000
00b6
cafe
241f
0000
0000
00c2
cafe
281f
0000
0000
00bc
cafe
2c1f
0000
0000
00c5
cafe
301f
0000
0000
00c7
cafe
341f
0000
0000
00c2
cafe
381f
0000
0000
00c3
cafe
3c1f
0000
0000
00c9
cafe
201f
0000
0000
00c0
cafe
241f
0000
0000
00c0
cafe
281f
0000
0000
00ab
cafe
2c1f
0000
0000
00bb
cafe
301f
0000
0000
00bd
cafe
341f
0000
0000
00ba
cafe
381f
0000
0000
00be
cafe
3c1f
0000
0000
00c4
cafe
201f
0000
-
0000
00c6
cafe
241f
0000
0000
00bd
cafe
281f
0000
0000
00b6
cafe
2c1f
0000
0000
00b8
cafe
301f
0000
0000
00c5
cafe
341f
0000
0000
00b4
cafe
381f
0000
0000
00b5
cafe
3c1f
0000
0000
00ad
cafe
201f
0000
0000
00b8
cafe
241f
0000
0000
00bb
cafe
281f
0000
0000
00b9
cafe
2c1f
0000
0000
00ad
cafe
301f
0000
0000
00af
cafe
341f
0000
0000
00a8
cafe
381f
0000
0000
00aa
cafe
3c1f
0000
0000
00b5
cafe
201f
0000
0000
00ab
cafe
241f
0000
0000
00c4
cafe
281f
0000
0000
00c0
cafe
2c1f
0000
0000
00bb
cafe
301f
0000
0000
00cd
cafe
341f
0000
0000
00c3
cafe
381f
0000
0000
00c9
cafe
3c1f
0000
0000
00cf
cafe
201f
0000
0000
00d4
cafe
241f
0000
0000
00d4
cafe
281f
0000
0000
00d3
cafe
2c1f
0000
0000
00be
cafe
301f
0000
0000
00c3
cafe
341f
0000
0000
00b6
cafe
381f
0000
0000
00c7
cafe
3c1f
0000
0000
00b7
cafe
201f
0000
0000
00bb
cafe
241f
0000
0000
00bf
cafe
281f
0000
0000
00c4
cafe
2c1f
0000
0000
00c8
cafe
301f
0000
0000
00ca
cafe
341f
0000
0000
00d2
cafe
381f
0000
0000
00d3
cafe
3c1f
0000
0000
00ca
cafe
201f
0000
0000
00cb
cafe
241f
0000
0000
00d7
cafe
281f
0000
0000
00d6
cafe
2c1f
0000
0000
00da
cafe
301f
0000
0000
00d1
cafe
341f
0000
0000
00ca
cafe
381f
0000
0000
00d1
cafe
3c1f
0000
0000
00c4
cafe
201f
0000
0000
00c7
cafe
241f
0000
0000
00cd
cafe
281f
0000
0000
00c9
cafe
2c1f
0000
0000
-
00c3
cafe
301f
0000
0000
00d0
cafe
341f
0000
0000
00cc
cafe
381f
0000
0000
00ce
cafe
3c1f
0000
0000
00c8
cafe
201f
0000
0000
00d8
cafe
241f
0000
0000
00c3
cafe
281f
0000
0000
00d4
cafe
2c1f
0000
0000
00c4
cafe
301f
0000
0000
00cd
cafe
341f
0000
0000
00bf
cafe
381f
0000
0000
00bf
cafe
3c1f
0000
0000
00c5
cafe
201f
0000
0000
00c2
cafe
241f
0000
0000
00c9
cafe
281f
0000
0000
00c8
cafe
2c1f
0000
0000
00c2
cafe
301f
0000
0000
00c1
cafe
341f
0000
0000
00b6
cafe
381f
0000
0000
00b5
cafe
3c1f
0000
0000
00ca
cafe
201f
0000
0000
00b9
cafe
241f
0000
0000
00b5
cafe
281f
0000
0000
00c6
cafe
2c1f
0000
0000
00c8
cafe
301f
0000
0000
00d3
cafe
341f
0000
0000
00da
cafe
381f
0000
0000
00dd
cafe
3c1f
0000
0000
00d8
cafe
201f
0000
0000
00d3
cafe
241f
0000
0000
00ce
cafe
281f
0000
0000
00cf
cafe
2c1f
0000
0000
00da
cafe
301f
0000
0000
00d3
cafe
341f
0000
0000
00d3
cafe
381f
0000
0000
00dc
cafe
3c1f
0000
0000
00d8
cafe
201f
0000
0000
00e2
cafe
241f
0000
0000
00d8
cafe
281f
0000
0000
00dc
cafe
2c1f
0000
0000
00de
cafe
301f
0000
0000
00d1
cafe
341f
0000
0000
00de
cafe
381f
0000
0000
00cb
cafe
3c1f
0000
0000
00c7
cafe
201f
0000
0000
00cc
cafe
241f
0000
0000
00bf
cafe
281f
0000
0000
00dc
cafe
2c1f
0000
0000
00c0
cafe
301f
0000
0000
00bc
cafe
341f
0000
0000
00bf
cafe
381f
0000
0000
00bd
-
cafe
3c1f
0000
0000
00c5
cafe
201f
0000
0000
00cf
cafe
241f
0000
0000
00cb
cafe
281f
0000
0000
00bc
cafe
2c1f
0000
0000
00b3
cafe
301f
0000
0000
00c0
cafe
341f
0000
0000
00c5
cafe
381f
0000
0000
00b6
cafe
3c1f
0000
0000
00b9
cafe
201f
0000
0000
00bf
cafe
241f
0000
0000
00c0
cafe
281f
0000
0000
00b7
cafe
2c1f
0000
0000
00cf
cafe
301f
0000
0000
00bc
cafe
341f
0000
0000
00c6
cafe
381f
0000
0000
00c6
cafe
3c1f
0000
0000
00b8
cafe
201f
0000
0000
00c6
cafe
241f
0000
0000
00b7
cafe
281f
0000
0000
00c7
cafe
2c1f
0000
0000
00c3
cafe
301f
0000
0000
00be
cafe
341f
0000
0000
00b9
cafe
381f
0000
0000
00b7
cafe
3c1f
0000
0000
00ae
cafe
201f
0000
0000
00ac
cafe
241f
0000
0000
00af
cafe
281f
0000
0000
00b5
cafe
2c1f
0000
0000
00ac
cafe
301f
0000
0000
00ae
cafe
341f
0000
0000
00ba
cafe
381f
0000
0000
00b8
cafe
3c1f
0000
0000
00c4
cafe
201f
0000
0000
00b9
cafe
241f
0000
0000
00b8
cafe
281f
0000
0000
00b2
cafe
2c1f
0000
0000
00bb
cafe
301f
0000
0000
00be
cafe
341f
0000
0000
00c1
cafe
381f
0000
0000
00bd
cafe
3c1f
0000
0000
00be
cafe
201f
0000
0000
00c1
cafe
241f
0000
0000
00c2
cafe
281f
0000
0000
00bd
cafe
2c1f
0000
0000
00c3
cafe
301f
0000
0000
00d0
cafe
341f
0000
0000
00c5
cafe
381f
0000
0000
00c3
cafe
3c1f
0000
0000
00bc
cafe
201f
0000
0000
00ca
cafe
241f
0000
0000
00ce
cafe
-
281f
0000
0000
00c8
cafe
2c1f
0000
0000
00c2
cafe
301f
0000
0000
00bb
cafe
341f
0000
0000
00c2
cafe
381f
0000
0000
00bc
cafe
3c1f
0000
0000
00b6
cafe
201f
0000
0000
00b3
cafe
241f
0000
0000
00b7
cafe
281f
0000
0000
00ac
cafe
2c1f
0000
0000
00ba
cafe
301f
0000
0000
00b2
cafe
341f
0000
0000
00b3
cafe
381f
0000
0000
00ab
cafe
3c1f
0000
0000
00b5
cafe
201f
0000
0000
00af
cafe
241f
0000
0000
00ac
cafe
281f
0000
0000
00b8
cafe
2c1f
0000
0000
00b6
cafe
301f
0000
0000
00b9
cafe
341f
0000
0000
00cc
cafe
381f
0000
0000
00d2
cafe
3c1f
0000
0000
00c7
cafe
201f
0000
0000
00d9
cafe
241f
0000
0000
00d8
cafe
281f
0000
0000
00da
cafe
2c1f
0000
0000
00d4
cafe
301f
0000
0000
00d8
cafe
341f
0000
0000
00d4
cafe
381f
0000
0000
00d3
cafe
3c1f
0000
0000
00c5
cafe
201f
0000
0000
00de
cafe
241f
0000
0000
00d0
cafe
281f
0000
0000
00c8
cafe
2c1f
0000
0000
00c0
cafe
301f
0000
0000
00c3
cafe
341f
0000
0000
00b3
cafe
381f
0000
0000
00b5
cafe
3c1f
0000
0000
00ae
cafe
201f
0000
0000
00a3
cafe
241f
0000
0000
00a8
cafe
281f
0000
0000
00a2
cafe
2c1f
0000
0000
00a9
cafe
301f
0000
0000
00ad
cafe
341f
0000
0000
00b5
cafe
381f
0000
0000
00ce
cafe
3c1f
0000
0000
00d6
cafe
201f
0000
0000
00da
cafe
241f
0000
0000
00d2
cafe
281f
0000
0000
00c6
cafe
2c1f
0000
0000
00da
cafe
301f
0000
0000
00d9
cafe
341f
-
0000
0000
00e3
cafe
381f
0000
0000
00e8
cafe
3c1f
0000
0000
00f0
cafe
201f
0000
0000
00f9
cafe
241f
0000
0000
00fc
cafe
281f
0000
0000
00f9
cafe
2c1f
0000
0000
00e1
cafe
301f
0000
0000
00d1
cafe
341f
0000
0000
00dd
cafe
381f
0000
0000
00db
cafe
3c1f
0000
0000
00df
cafe
201f
0000
0000
00d5
cafe
241f
0000
0000
00cf
cafe
281f
0000
0000
00cb
cafe
2c1f
0000
0000
00c1
cafe
301f
0000
0000
00bf
cafe
341f
0000
0000
00bd
cafe
381f
0000
0000
00b4
cafe
3c1f
0000
0000
00c4
cafe
201f
0000
0000
00bd
cafe
241f
0000
0000
00d0
cafe
281f
0000
0000
00cc
cafe
2c1f
0000
0000
00cb
cafe
301f
0000
0000
00d3
cafe
341f
0000
0000
00d6
cafe
381f
0000
0000
00dd
cafe
3c1f
0000
0000
00db
cafe
201f
0000
0000
00d6
cafe
241f
0000
0000
00de
cafe
281f
0000
0000
00d4
cafe
2c1f
0000
0000
00d6
cafe
301f
0000
0000
00d9
cafe
341f
0000
0000
00d1
cafe
381f
0000
0000
00d3
cafe
3c1f
0000
0000
00d5
cafe
201f
0000
0000
00de
cafe
241f
0000
0000
00e3
cafe
281f
0000
0000
00d7
cafe
2c1f
0000
0000
00d8
cafe
301f
0000
0000
00f0
cafe
341f
0000
0000
00e9
cafe
381f
0000
0000
00eb
cafe
3c1f
0000
0000
00da
cafe
201f
0000
0000
00f4
cafe
241f
0000
0000
00eb
cafe
281f
0000
0000
00e0
cafe
2c1f
0000
0000
00dd
cafe
301f
0000
0000
00d3
cafe
341f
0000
0000
00dc
cafe
381f
0000
0000
00d7
cafe
3c1f
0000
0000
00d4
cafe
201f
0000
-
0000
00c0
cafe
241f
0000
0000
00b9
cafe
281f
0000
0000
00b6
cafe
2c1f
0000
0000
00aa
cafe
301f
0000
0000
009e
cafe
341f
0000
0000
009b
cafe
381f
0000
0000
00a2
cafe
3c1f
0000
0000
00a8
cafe
201f
0000
0000
00a0
cafe
241f
0000
0000
00ad
cafe
281f
0000
0000
009f
cafe
2c1f
0000
0000
00b5
cafe
301f
0000
0000
00be
cafe
341f
0000
0000
00bd
cafe
381f
0000
0000
00bc
cafe
3c1f
0000
0000
00c0
cafe
201f
0000
0000
00c2
cafe
241f
0000
0000
00cf
cafe
281f
0000
0000
00d7
cafe
2c1f
0000
0000
00e3
cafe
301f
0000
0000
00e4
cafe
341f
0000
0000
00e5
cafe
381f
0000
0000
00e3
cafe
3c1f
0000
0000
00ce
cafe
201f
0000
0000
00d8
cafe
241f
0000
0000
00d3
cafe
281f
0000
0000
00cf
cafe
2c1f
0000
0000
00d1
cafe
301f
0000
0000
00d0
cafe
341f
0000
0000
00c2
cafe
381f
0000
0000
00c1
cafe
3c1f
0000
0000
00ba
cafe
201f
0000
0000
00bc
cafe
241f
0000
0000
00b7
cafe
281f
0000
0000
00b6
cafe
2c1f
0000
0000
00ac
cafe
301f
0000
0000
00a8
cafe
341f
0000
0000
00b5
cafe
381f
0000
0000
00c1
cafe
3c1f
0000
0000
00ae
cafe
201f
0000
0000
00bd
cafe
241f
0000
0000
00c3
cafe
281f
0000
0000
00bc
cafe
2c1f
0000
0000
00c1
cafe
301f
0000
0000
00c8
cafe
341f
0000
0000
00d0
cafe
381f
0000
0000
00c7
cafe
3c1f
0000
0000
00c7
cafe
201f
0000
0000
00cb
cafe
241f
0000
0000
00ca
cafe
281f
0000
0000
00b5
cafe
2c1f
0000
0000
-
00c0
cafe
301f
0000
0000
00c1
cafe
341f
0000
0000
00c7
cafe
381f
0000
0000
00d0
cafe
3c1f
0000
0000
00d3
cafe
201f
0000
0000
00b7
cafe
241f
0000
0000
00c6
cafe
281f
0000
0000
00c2
cafe
2c1f
0000
0000
00bd
cafe
301f
0000
0000
00d0
cafe
341f
0000
0000
00c1
cafe
381f
0000
0000
00d1
cafe
3c1f
0000
0000
00cb
cafe
201f
0000
0000
00c6
cafe
241f
0000
0000
00c0
cafe
281f
0000
0000
00c3
cafe
2c1f
0000
0000
00cd
cafe
301f
0000
0000
00cd
cafe
341f
0000
0000
00d0
cafe
381f
0000
0000
00c2
cafe
3c1f
0000
0000
00c2
cafe
201f
0000
0000
00cb
cafe
241f
0000
0000
00da
cafe
281f
0000
0000
00cd
cafe
2c1f
0000
0000
00c2
cafe
301f
0000
0000
00c2
cafe
341f
0000
0000
00c8
cafe
381f
0000
0000
00cc
cafe
3c1f
0000
0000
00c5
cafe
201f
0000
0000
00c8
cafe
241f
0000
0000
00cc
cafe
281f
0000
0000
00ce
cafe
2c1f
0000
0000
00ce
cafe
301f
0000
0000
00d0
cafe
341f
0000
0000
00cc
cafe
381f
0000
0000
00e1
cafe
3c1f
0000
0000
00e2
cafe
201f
0000
0000
00d9
cafe
241f
0000
0000
00db
cafe
281f
0000
0000
00d2
cafe
2c1f
0000
0000
00d7
cafe
301f
0000
0000
00d6
cafe
341f
0000
0000
00d2
cafe
381f
0000
0000
00e3
cafe
3c1f
0000
0000
00d2
cafe
201f
0000
0000
00c6
cafe
241f
0000
0000
00cc
cafe
281f
0000
0000
00c4
cafe
2c1f
0000
0000
00bd
cafe
301f
0000
0000
00b9
cafe
341f
0000
0000
00c5
cafe
381f
0000
0000
00bc
-
cafe
3c1f
0000
0000
00bf
cafe
201f
0000
0000
00c1
cafe
241f
0000
0000
00ad
cafe
281f
0000
0000
00ad
cafe
2c1f
0000
0000
00b9
cafe
301f
0000
0000
00b8
cafe
341f
0000
0000
00b9
cafe
381f
0000
0000
00c0
cafe
3c1f
0000
0000
00bf
cafe
201f
0000
0000
00b9
cafe
241f
0000
0000
00bb
cafe
281f
0000
0000
00b4
cafe
2c1f
0000
0000
00c7
cafe
301f
0000
0000
00ba
cafe
341f
0000
0000
00be
cafe
381f
0000
0000
00b5
cafe
3c1f
0000
0000
03ab
cafe
201f
0000
0000
03a1
cafe
241f
0000
0000
0393
cafe
281f
0000
0000
0383
cafe
2c1f
0000
0000
0373
cafe
301f
0000
0000
0362
cafe
341f
0000
0000
0353
cafe
381f
0000
0000
0353
cafe
3c1f
0000
0000
0344
cafe
201f
0000
0000
0340
cafe
241f
0000
0000
0331
cafe
281f
0000
0000
032f
cafe
2c1f
0000
0000
0313
cafe
301f
0000
0000
0320
cafe
341f
0000
0000
0310
cafe
381f
0000
0000
0307
cafe
3c1f
0000
0000
0302
cafe
201f
0000
0000
02ed
cafe
241f
0000
0000
02eb
cafe
281f
0000
0000
02d4
cafe
2c1f
0000
0000
02c5
cafe
301f
0000
0000
02ba
cafe
341f
0000
0000
02a4
cafe
381f
0000
0000
0298
cafe
3c1f
0000
0000
0292
cafe
201f
0000
0000
027c
cafe
241f
0000
0000
027a
cafe
281f
0000
0000
0281
cafe
2c1f
0000
0000
0284
cafe
301f
0000
0000
0273
cafe
341f
0000
0000
0270
cafe
381f
0000
0000
0270
cafe
3c1f
0000
0000
0260
cafe
201f
0000
0000
026b
cafe
241f
0000
0000
0254
cafe
-
281f
0000
0000
0241
cafe
2c1f
0000
0000
0238
cafe
301f
0000
0000
0225
cafe
341f
0000
0000
0225
cafe
381f
0000
0000
0219
cafe
3c1f
0000
0000
020d
cafe
201f
0000
0000
0202
cafe
241f
0000
0000
01fc
cafe
281f
0000
0000
01f7
cafe
2c1f
0000
0000
01e7
cafe
301f
0000
0000
01df
cafe
341f
0000
0000
01e6
cafe
381f
0000
0000
01e2
cafe
3c1f
0000
0000
01cc
cafe
201f
0000
0000
01d4
cafe
241f
0000
0000
01cb
cafe
281f
0000
0000
01bc
cafe
2c1f
0000
0000
01b1
cafe
301f
0000
0000
01b3
cafe
341f
0000
0000
01af
cafe
381f
0000
0000
01ab
cafe
3c1f
0000
0000
019c
cafe
201f
0000
0000
0194
cafe
241f
0000
0000
019c
cafe
281f
0000
0000
0185
cafe
2c1f
0000
0000
017b
cafe
301f
0000
0000
017a
cafe
341f
0000
0000
016a
cafe
381f
0000
0000
0168
cafe
3c1f
0000
0000
0168
cafe
201f
0000
0000
016a
cafe
241f
0000
0000
0157
cafe
281f
0000
0000
0151
cafe
2c1f
0000
0000
0160
cafe
301f
0000
0000
0156
cafe
341f
0000
0000
0144
cafe
381f
0000
0000
014e
cafe
3c1f
0000
0000
0142
cafe
201f
0000
0000
0130
cafe
241f
0000
0000
013c
cafe
281f
0000
0000
013b
cafe
2c1f
0000
0000
012a
cafe
301f
0000
0000
011b
cafe
341f
0000
0000
011f
cafe
381f
0000
0000
010f
cafe
3c1f
0000
0000
0100
cafe
201f
0000
0000
0108
cafe
241f
0000
0000
0103
cafe
281f
0000
0000
00ec
cafe
2c1f
0000
0000
00e4
cafe
301f
0000
0000
00e4
cafe
341f
-
0000
0000
00d0
cafe
381f
0000
0000
00da
cafe
3c1f
0000
0000
00d5
cafe
201f
0000
0000
00d8
cafe
241f
0000
0000
00d8
cafe
281f
0000
0000
00dc
cafe
2c1f
0000
0000
00e9
cafe
301f
0000
0000
00e8
cafe
341f
0000
0000
00ec
cafe
381f
0000
0000
00fe
cafe
3c1f
0000
0000
00f2
cafe
201f
0000
0000
00f1
cafe
241f
0000
0000
00fa
cafe
281f
0000
0000
00ef
cafe
2c1f
0000
0000
00f1
cafe
301f
0000
0000
00e7
cafe
341f
0000
0000
00e8
cafe
381f
0000
0000
00d2
cafe
3c1f
0000
0000
00c8
cafe
201f
0000
0000
00cf
cafe
241f
0000
0000
00bc
cafe
281f
0000
0000
00bb
cafe
2c1f
0000
0000
00ba
cafe
301f
0000
0000
00ac
cafe
341f
0000
0000
00b3
cafe
381f
0000
0000
00a1
cafe
3c1f
0000
0000
0099
cafe
201f
0000
0000
0098
cafe
241f
0000
0000
0092
cafe
281f
0000
0000
0096
cafe
2c1f
0000
0000
0096
cafe
301f
0000
0000
0098
cafe
341f
0000
0000
009d
cafe
381f
0000
0000
0092
cafe
3c1f
0000
0000
00a0
cafe
201f
0000
0000
009f
cafe
241f
0000
0000
00a2
cafe
281f
0000
0000
009e
cafe
2c1f
0000
0000
00a4
cafe
301f
0000
0000
0092
cafe
341f
0000
0000
0090
cafe
381f
0000
0000
0091
cafe
3c1f
0000
0000
009d
cafe
201f
0000
0000
0095
cafe
241f
0000
0000
008a
cafe
281f
0000
0000
0087
cafe
2c1f
0000
0000
0091
cafe
301f
0000
0000
0092
cafe
341f
0000
0000
008f
cafe
381f
0000
0000
0097
cafe
3c1f
0000
0000
0098
cafe
201f
0000
-
0000
008b
cafe
241f
0000
0000
0081
cafe
281f
0000
0000
006e
cafe
2c1f
0000
0000
007f
cafe
301f
0000
0000
0074
cafe
341f
0000
0000
0071
cafe
381f
0000
0000
007c
cafe
3c1f
0000
0000
006f
cafe
201f
0000
0000
006c
cafe
241f
0000
0000
0073
cafe
281f
0000
0000
0076
cafe
2c1f
0000
0000
005d
cafe
301f
0000
0000
0062
cafe
341f
0000
0000
0063
cafe
381f
0000
0000
005e
cafe
3c1f
0000
0000
0059
cafe
201f
0000
0000
0061
cafe
241f
0000
0000
0060
cafe
281f
0000
0000
005c
cafe
2c1f
0000
0000
0064
cafe
301f
0000
0000
0061
cafe
341f
0000
0000
005e
cafe
381f
0000
0000
0064
cafe
3c1f
0000
0000
006e
cafe
201f
0000
0000
005d
cafe
241f
0000
0000
0060
cafe
281f
0000
0000
005e
cafe
2c1f
0000
0000
005e
cafe
301f
0000
0000
0060
cafe
341f
0000
0000
0056
cafe
381f
0000
0000
005e
cafe
3c1f
0000
0000
0065
cafe
201f
0000
0000
0065
cafe
241f
0000
0000
0060
cafe
281f
0000
0000
0056
cafe
2c1f
0000
0000
0058
cafe
301f
0000
0000
0058
cafe
341f
0000
0000
004f
cafe
381f
0000
0000
0057
cafe
3c1f
0000
0000
0052
cafe
201f
0000
0000
0050
cafe
241f
0000
0000
004f
cafe
281f
0000
0000
0048
cafe
2c1f
0000
0000
0045
cafe
301f
0000
0000
003d
cafe
341f
0000
0000
003a
cafe
381f
0000
0000
0030
cafe
3c1f
0000
0000
002e
cafe
201f
0000
0000
0040
cafe
241f
0000
0000
0032
cafe
281f
0000
0000
0048
cafe
2c1f
0000
0000
-
0047
cafe
301f
0000
0000
0043
cafe
341f
0000
0000
004d
cafe
381f
0000
0000
0056
cafe
3c1f
0000
0000
005a
cafe
201f
0000
0000
004f
cafe
241f
0000
0000
0049
cafe
281f
0000
0000
0059
cafe
2c1f
0000
0000
005f
cafe
301f
0000
0000
005a
cafe
341f
0000
0000
0050
cafe
381f
0000
0000
004b
cafe
3c1f
0000
0000
004c
cafe
201f
0000
0000
004a
cafe
241f
0000
0000
0056
cafe
281f
0000
0000
0043
cafe
2c1f
0000
0000
0046
cafe
301f
0000
0000
004e
cafe
341f
0000
0000
0040
cafe
381f
0000
0000
0033
cafe
3c1f
0000
0000
003e
cafe
201f
0000
0000
003f
cafe
241f
0000
0000
0044
cafe
281f
0000
0000
004a
cafe
2c1f
0000
0000
004c
cafe
301f
0000
0000
004a
cafe
341f
0000
0000
0042
cafe
381f
0000
0000
004d
cafe
3c1f
0000
0000
0049
cafe
201f
0000
0000
0052
cafe
241f
0000
0000
004e
cafe
281f
0000
0000
0056
cafe
2c1f
0000
0000
0064
cafe
301f
0000
0000
0065
cafe
341f
0000
0000
0058
cafe
381f
0000
0000
0059
cafe
3c1f
0000
0000
0061
cafe
201f
0000
0000
005d
cafe
241f
0000
0000
0067
cafe
281f
0000
0000
0056
cafe
2c1f
0000
0000
0062
cafe
301f
0000
0000
0064
cafe
341f
0000
0000
006c
cafe
381f
0000
0000
0067
cafe
3c1f
0000
0000
0078
cafe
201f
0000
0000
0071
cafe
241f
0000
0000
0070
cafe
281f
0000
0000
0080
cafe
2c1f
0000
0000
0071
cafe
301f
0000
0000
006f
cafe
341f
0000
0000
0070
cafe
381f
0000
0000
0068
-
cafe
3c1f
0000
0000
0064
cafe
201f
0000
0000
0064
cafe
241f
0000
0000
005f
cafe
281f
0000
0000
0060
cafe
2c1f
0000
0000
0060
cafe
301f
0000
0000
0062
cafe
341f
0000
0000
0065
cafe
381f
0000
0000
0063
cafe
3c1f
0000
0000
005d
cafe
201f
0000
0000
005e
cafe
241f
0000
0000
0053
cafe
281f
0000
0000
0056
cafe
2c1f
0000
0000
0060
cafe
301f
0000
0000
006a
cafe
341f
0000
0000
006b
cafe
381f
0000
0000
006e
cafe
3c1f
0000
0000
006e
cafe
201f
0000
0000
006f
cafe
241f
0000
0000
006e
cafe
281f
0000
0000
0064
cafe
2c1f
0000
0000
0063
cafe
301f
0000
0000
0061
cafe
341f
0000
0000
0059
cafe
381f
0000
0000
0059
cafe
3c1f
0000
0000
0059
cafe
201f
0000
0000
0068
cafe
241f
0000
0000
0074
cafe
281f
0000
0000
0072
cafe
2c1f
0000
0000
0066
cafe
301f
0000
0000
0064
cafe
341f
0000
0000
006e
cafe
381f
0000
0000
0060
cafe
3c1f
0000
0000
005c
cafe
201f
0000
0000
0063
cafe
241f
0000
0000
0064
cafe
281f
0000
0000
0062
cafe
2c1f
0000
0000
005f
cafe
301f
0000
0000
005f
cafe
341f
0000
0000
0058
cafe
381f
0000
0000
005d
cafe
3c1f
0000
0000
0065
cafe
201f
0000
0000
005e
cafe
241f
0000
0000
005b
cafe
281f
0000
0000
0061
cafe
2c1f
0000
0000
005c
cafe
301f
0000
0000
005d
cafe
341f
0000
0000
006b
cafe
381f
0000
0000
007f
cafe
3c1f
0000
0000
006e
cafe
201f
0000
0000
0081
cafe
241f
0000
0000
0085
cafe
-
281f
0000
0000
0080
cafe
2c1f
0000
0000
0081
cafe
301f
0000
0000
0081
cafe
341f
0000
0000
008c
cafe
381f
0000
0000
0090
cafe
3c1f
0000
0000
0091
cafe
201f
0000
0000
009a
cafe
241f
0000
0000
00a4
cafe
281f
0000
0000
00a8
cafe
2c1f
0000
0000
00a5
cafe
301f
0000
0000
00a8
cafe
341f
0000
0000
00aa
cafe
381f
0000
0000
00a3
cafe
3c1f
0000
0000
009d
cafe
201f
0000
0000
00a5
cafe
241f
0000
0000
009b
cafe
281f
0000
0000
0091
cafe
2c1f
0000
0000
007f
cafe
301f
0000
0000
006f
cafe
341f
0000
0000
006d
cafe
381f
0000
0000
005e
cafe
3c1f
0000
0000
006a
cafe
201f
0000
0000
005d
cafe
241f
0000
0000
0056
cafe
281f
0000
0000
005e
cafe
2c1f
0000
0000
005c
cafe
301f
0000
0000
004e
cafe
341f
0000
0000
0057
cafe
381f
0000
0000
0054
cafe
3c1f
0000
0000
0058
cafe
201f
0000
0000
0066
cafe
241f
0000
0000
0059
cafe
281f
0000
0000
0060
cafe
2c1f
0000
0000
006b
cafe
301f
0000
0000
006b
cafe
341f
0000
0000
006f
cafe
381f
0000
0000
006a
cafe
3c1f
0000
0000
007b
cafe
201f
0000
0000
0082
cafe
241f
0000
0000
0090
cafe
281f
0000
0000
008d
cafe
2c1f
0000
0000
0096
cafe
301f
0000
0000
0096
cafe
341f
0000
0000
008e
cafe
381f
0000
0000
0090
cafe
3c1f
0000
0000
0094
cafe
201f
0000
0000
0094
cafe
241f
0000
0000
0099
cafe
281f
0000
0000
0097
cafe
2c1f
0000
0000
0092
cafe
301f
0000
0000
0087
cafe
341f
-
0000
0000
007f
cafe
381f
0000
0000
0084
cafe
3c1f
0000
0000
0074
cafe
201f
0000
0000
008a
cafe
241f
0000
0000
007c
cafe
281f
0000
0000
0066
cafe
2c1f
0000
0000
007f
cafe
301f
0000
0000
0072
cafe
341f
0000
0000
0075
cafe
381f
0000
0000
0071
cafe
3c1f
0000
0000
006f
cafe
201f
0000
0000
006e
cafe
241f
0000
0000
0071
cafe
281f
0000
0000
0089
cafe
2c1f
0000
0000
0092
cafe
301f
0000
0000
0085
cafe
341f
0000
0000
0093
cafe
381f
0000
0000
008a
cafe
3c1f
0000
0000
008a
cafe
201f
0000
0000
0097
cafe
241f
0000
0000
008c
cafe
281f
0000
0000
008e
cafe
2c1f
0000
0000
0092
cafe
301f
0000
0000
00a7
cafe
341f
0000
0000
00a4
cafe
381f
0000
0000
00a6
cafe
3c1f
0000
0000
00ae
cafe
201f
0000
0000
009b
cafe
241f
0000
0000
00b4
cafe
281f
0000
0000
00aa
cafe
2c1f
0000
0000
009e
cafe
301f
0000
0000
0099
cafe
341f
0000
0000
0096
cafe
381f
0000
0000
0095
cafe
3c1f
0000
0000
009f
cafe
201f
0000
0000
0098
cafe
241f
0000
0000
0096
cafe
281f
0000
0000
0086
cafe
2c1f
0000
0000
0095
cafe
301f
0000
0000
0097
cafe
341f
0000
0000
008b
cafe
381f
0000
0000
0093
cafe
3c1f
0000
0000
008e
cafe
201f
0000
0000
008d
cafe
241f
0000
0000
0094
cafe
281f
0000
0000
0098
cafe
2c1f
0000
0000
009f
cafe
301f
0000
0000
009b
cafe
341f
0000
0000
0094
cafe
381f
0000
0000
0092
cafe
3c1f
0000
0000
0097
cafe
201f
0000
-
0000
008f
cafe
241f
0000
0000
009d
cafe
281f
0000
0000
00a2
cafe
2c1f
0000
0000
009f
cafe
301f
0000
0000
009b
cafe
341f
0000
0000
00a0
cafe
381f
0000
0000
0094
cafe
3c1f
0000
0000
00a0
cafe
201f
0000
0000
008c
cafe
241f
0000
0000
0084
cafe
281f
0000
0000
0093
cafe
2c1f
0000
0000
0080
cafe
301f
0000
0000
0074
cafe
341f
0000
0000
0078
cafe
381f
0000
0000
0080
cafe
3c1f
0000
0000
0078
cafe
201f
0000
0000
0080
cafe
241f
0000
0000
007a
cafe
281f
0000
0000
0083
cafe
2c1f
0000
0000
007a
cafe
301f
0000
0000
0082
cafe
341f
0000
0000
0085
cafe
381f
0000
0000
007f
cafe
3c1f
0000
0000
0098
cafe
201f
0000
0000
0082
cafe
241f
0000
0000
0087
cafe
281f
0000
0000
0090
cafe
2c1f
0000
0000
008c
cafe
301f
0000
0000
009c
cafe
341f
0000
0000
00a0
cafe
381f
0000
0000
00a1
cafe
3c1f
0000
0000
00ac
cafe
201f
0000
0000
0095
cafe
241f
0000
0000
009d
cafe
281f
0000
0000
00a5
cafe
2c1f
0000
0000
008c
cafe
301f
0000
0000
0096
cafe
341f
0000
0000
0097
cafe
381f
0000
0000
0091
cafe
3c1f
0000
0000
00a0
cafe
201f
0000
0000
00a8
cafe
241f
0000
0000
00a2
cafe
281f
0000
0000
00aa
cafe
2c1f
0000
0000
00a7
cafe
301f
0000
0000
0093
cafe
341f
0000
0000
009d
cafe
381f
0000
0000
0092
cafe
3c1f
0000
0000
0090
cafe
201f
0000
0000
008c
cafe
241f
0000
0000
0092
cafe
281f
0000
0000
008e
cafe
2c1f
0000
0000
-
0090
cafe
301f
0000
0000
0092
cafe
341f
0000
0000
008a
cafe
381f
0000
0000
0096
cafe
3c1f
0000
0000
0092
cafe
201f
0000
0000
0096
cafe
241f
0000
0000
008f
cafe
281f
0000
0000
00a3
cafe
2c1f
0000
0000
009a
cafe
301f
0000
0000
00a3
cafe
341f
0000
0000
00a5
cafe
381f
0000
0000
00a9
cafe
3c1f
0000
0000
00b0
cafe
201f
0000
0000
00b0
cafe
241f
0000
0000
00ae
cafe
281f
0000
0000
00ae
cafe
2c1f
0000
0000
00bd
cafe
301f
0000
0000
00c2
cafe
341f
0000
0000
00c5
cafe
381f
0000
0000
00c0
cafe
3c1f
0000
0000
00c4
cafe
201f
0000
0000
00d3
cafe
241f
0000
0000
00cd
cafe
281f
0000
0000
00ca
cafe
2c1f
0000
0000
00dc
cafe
301f
0000
0000
00cf
cafe
341f
0000
0000
00d0
cafe
381f
0000
0000
00c8
cafe
3c1f
0000
0000
00b8
cafe
201f
0000
0000
00be
cafe
241f
0000
0000
00ae
cafe
281f
0000
0000
00af
cafe
2c1f
0000
0000
00bf
cafe
301f
0000
0000
00ae
cafe
341f
0000
0000
00b2
cafe
381f
0000
0000
00ad
cafe
3c1f
0000
0000
00b2
cafe
201f
0000
0000
00b4
cafe
241f
0000
0000
00b1
cafe
281f
0000
0000
00a9
cafe
2c1f
0000
0000
00ac
cafe
301f
0000
0000
00b8
cafe
341f
0000
0000
00b3
cafe
381f
0000
0000
00b1
cafe
3c1f
0000
0000
00bd
cafe
201f
0000
0000
00b9
cafe
241f
0000
0000
00cb
cafe
281f
0000
0000
00bc
cafe
2c1f
0000
0000
00c2
cafe
301f
0000
0000
00c3
cafe
341f
0000
0000
00c1
cafe
381f
0000
0000
00d3
-
cafe
3c1f
0000
0000
00c4
cafe
201f
0000
0000
00df
cafe
241f
0000
0000
00da
cafe
281f
0000
0000
00d5
cafe
2c1f
0000
0000
00d4
cafe
301f
0000
0000
00d1
cafe
341f
0000
0000
00d1
cafe
381f
0000
0000
00d7
cafe
3c1f
0000
0000
00cd
cafe
201f
0000
0000
00c5
cafe
241f
0000
0000
00bc
cafe
281f
0000
0000
00b7
cafe
2c1f
0000
0000
00c3
cafe
301f
0000
0000
00b0
cafe
341f
0000
0000
00b9
cafe
381f
0000
0000
00bd
cafe
3c1f
0000
0000
00bb
cafe
201f
0000
0000
00b5
cafe
241f
0000
0000
00ac
cafe
281f
0000
0000
00ad
cafe
2c1f
0000
0000
00ae
cafe
301f
0000
0000
00ad
cafe
341f
0000
0000
00b7
cafe
381f
0000
0000
00b7
cafe
3c1f
0000
0000
00d4
cafe
201f
0000
0000
00d3
cafe
241f
0000
0000
00d2
cafe
281f
0000
0000
00c6
cafe
2c1f
0000
0000
00cb
cafe
301f
0000
0000
00cf
cafe
341f
0000
0000
00c2
cafe
381f
0000
0000
00b9
cafe
3c1f
0000
0000
00b6
cafe
201f
0000
0000
00b5
cafe
241f
0000
0000
00b6
cafe
281f
0000
0000
00b5
cafe
2c1f
0000
0000
00b0
cafe
301f
0000
0000
00ae
cafe
341f
0000
0000
00ae
cafe
381f
0000
0000
00b7
cafe
3c1f
0000
0000
00b3
cafe
201f
0000
0000
00ae
cafe
241f
0000
0000
00aa
cafe
281f
0000
0000
00a5
cafe
2c1f
0000
0000
00a2
cafe
301f
0000
0000
009e
cafe
341f
0000
0000
009e
cafe
381f
0000
0000
00a9
cafe
3c1f
0000
0000
0098
cafe
201f
0000
0000
00a1
cafe
241f
0000
0000
00ab
cafe
-
281f
0000
0000
00b1
cafe
2c1f
0000
0000
00b0
cafe
301f
0000
0000
00ac
cafe
341f
0000
0000
00ba
cafe
381f
0000
0000
00a8
cafe
3c1f
0000
0000
00a6
cafe
201f
0000
0000
00ac
cafe
241f
0000
0000
00bf
cafe
281f
0000
0000
00c0
cafe
2c1f
0000
0000
00c8
cafe
301f
0000
0000
00c5
cafe
341f
0000
0000
00cd
cafe
381f
0000
0000
00cf
cafe
3c1f
0000
0000
00d2
cafe
201f
0000
0000
00ce
cafe
241f
0000
0000
00cc
cafe
281f
0000
0000
00e6
cafe
2c1f
0000
0000
00d6
cafe
301f
0000
0000
00d5
cafe
341f
0000
0000
00ce
cafe
381f
0000
0000
00c4
cafe
3c1f
0000
0000
00c4
cafe
201f
0000
0000
00b6
cafe
241f
0000
0000
00bc
cafe
281f
0000
0000
00c0
cafe
2c1f
0000
0000
00c0
cafe
301f
0000
0000
00b8
cafe
341f
0000
0000
00b3
cafe
381f
0000
0000
00c2
cafe
3c1f
0000
0000
00b8
cafe
201f
0000
0000
00c3
cafe
241f
0000
0000
00ba
cafe
281f
0000
0000
00b9
cafe
2c1f
0000
0000
00bb
cafe
301f
0000
0000
00b4
cafe
341f
0000
0000
00af
cafe
381f
0000
0000
00a9
cafe
3c1f
0000
0000
009e
cafe
201f
0000
0000
00a0
cafe
241f
0000
0000
00a7
cafe
281f
0000
0000
00aa
cafe
2c1f
0000
0000
00b7
cafe
301f
0000
0000
00ba
cafe
341f
0000
0000
00cc
cafe
381f
0000
0000
00cb
cafe
3c1f
0000
0000
00cd
cafe
201f
0000
0000
00da
cafe
241f
0000
0000
00d3
cafe
281f
0000
0000
00dc
cafe
2c1f
0000
0000
00dc
cafe
301f
0000
0000
00cc
cafe
341f
-
0000
0000
00cc
cafe
381f
0000
0000
00c7
cafe
3c1f
0000
0000
0000
cafe
201f
0000
0000
0000
cafe
241f
0000
0000
0000
cafe
281f
0000
0000
0000
cafe
2c1f
0000
0000
0000
cafe
301f
0000
0000
0000
cafe
341f
0000
0000
0000
cafe
381f
0000
0000
0000
cafe
3c1f
0000
0000
0000
cafe
201f
0000
0000
0000
cafe
241f
0000
0000
0000
cafe
281f
0000
0000
0000
cafe
2c1f
0000
0000
0000
cafe
301f
0000
0000
0000
cafe
341f
0000
0000
0000
cafe
381f
0000
0000
0000
cafe
3c1f
0000
0000
0000
cafe
201f
0000
0000
0000
cafe
241f
0000
0000
0000
cafe
281f
0000
0000
0000
cafe
2c1f
0000
0000
0000
cafe
301f
0000
0000
0000
cafe
341f
0000
0000
0000
cafe
381f
0000
0000
0000
cafe
3c1f
0000
0000
0000
cafe
201f
0000
0000
0000
cafe
241f
0000
0000
0000
cafe
281f
0000
0000
0000
cafe
2c1f
0000
0000
0000
cafe
301f
0000
0000
0000
cafe
341f
0000
0000
000c
cafe
381f
0000
0000
001b
cafe
3c1f
0000
0000
001b
cafe
201f
0000
0000
002c
cafe
241f
0000
0000
003a
cafe
281f
0000
0000
003f
cafe
2c1f
0000
0000
0047
cafe
301f
0000
0000
003e
cafe
341f
0000
0000
0052
cafe
381f
0000
0000
0047
cafe
3c1f
0000
0000
004f
cafe
201f
0000
0000
005f
cafe
241f
0000
0000
0055
cafe
281f
0000
0000
0068
cafe
2c1f
0000
0000
0070
cafe
301f
0000
0000
007a
cafe
341f
0000
0000
0073
cafe
381f
0000
0000
0075
cafe
3c1f
0000
0000
0079
cafe
201f
0000
-
0000
0084
cafe
241f
0000
0000
007d
cafe
281f
0000
0000
0090
cafe
2c1f
0000
0000
009a
cafe
301f
0000
0000
00a6
cafe
341f
0000
0000
00a9
cafe
381f
0000
0000
00a4
cafe
3c1f
0000
0000
00ae
cafe
201f
0000
0000
00b8
cafe
241f
0000
0000
00b7
cafe
281f
0000
0000
00c1
cafe
2c1f
0000
0000
00d4
cafe
301f
0000
0000
00d9
cafe
341f
0000
0000
00dd
cafe
381f
0000
0000
00e7
cafe
3c1f
0000
0000
00ef
cafe
201f
0000
0000
00f9
cafe
241f
0000
0000
00f0
cafe
281f
0000
0000
00ee
cafe
2c1f
0000
0000
00ef
cafe
301f
0000
0000
00f6
cafe
341f
0000
0000
00eb
cafe
381f
0000
0000
00f4
cafe
3c1f
0000
0000
00eb
cafe
201f
0000
0000
00ee
cafe
241f
0000
0000
00e8
cafe
281f
0000
0000
00da
cafe
2c1f
0000
0000
00e2
cafe
301f
0000
0000
00e4
cafe
341f
0000
0000
00dc
cafe
381f
0000
0000
00d6
cafe
3c1f
0000
0000
00dc
cafe
201f
0000
0000
00df
cafe
241f
0000
0000
00c8
cafe
281f
0000
0000
00e8
cafe
2c1f
0000
0000
00f3
cafe
301f
0000
0000
00fc
cafe
341f
0000
0000
011d
cafe
381f
0000
0000
0117
cafe
3c1f
0000
0000
0118
cafe
201f
0000
0000
0128
cafe
241f
0000
0000
0132
cafe
281f
0000
0000
0122
cafe
2c1f
0000
0000
012c
cafe
301f
0000
0000
0135
cafe
341f
0000
0000
0142
cafe
381f
0000
0000
0136
cafe
3c1f
0000
0000
013a
cafe
201f
0000
0000
0143
cafe
241f
0000
0000
0140
cafe
281f
0000
0000
0137
cafe
2c1f
0000
0000
-
0132
cafe
301f
0000
0000
0130
cafe
341f
0000
0000
0136
cafe
381f
0000
0000
0135
cafe
3c1f
0000
0000
0134
cafe
201f
0000
0000
014b
cafe
241f
0000
0000
012e
cafe
281f
0000
0000
013c
cafe
2c1f
0000
0000
0132
cafe
301f
0000
0000
0135
cafe
341f
0000
0000
011d
cafe
381f
0000
0000
0126
cafe
3c1f
0000
0000
0120
cafe
201f
0000
0000
011c
cafe
241f
0000
0000
010e
cafe
281f
0000
0000
0115
cafe
2c1f
0000
0000
010f
cafe
301f
0000
0000
0105
cafe
341f
0000
0000
0117
cafe
381f
0000
0000
0118
cafe
3c1f
0000
0000
0118
cafe
201f
0000
0000
011b
cafe
241f
0000
0000
011f
cafe
281f
0000
0000
0123
cafe
2c1f
0000
0000
0120
cafe
301f
0000
0000
0120
cafe
341f
0000
0000
0125
cafe
381f
0000
0000
0127
cafe
3c1f
0000
0000
0131
cafe
201f
0000
0000
0145
cafe
241f
0000
0000
013a
cafe
281f
0000
0000
0151
cafe
2c1f
0000
0000
0148
cafe
301f
0000
0000
014b
cafe
341f
0000
0000
014e
cafe
381f
0000
0000
014f
cafe
3c1f
0000
0000
014e
cafe
201f
0000
0000
0150
cafe
241f
0000
0000
014d
cafe
281f
0000
0000
013f
cafe
2c1f
0000
0000
012d
cafe
301f
0000
0000
012e
cafe
341f
0000
0000
0121
cafe
381f
0000
0000
010f
cafe
3c1f
0000
0000
010a
cafe
201f
0000
0000
0102
cafe
241f
0000
0000
00f2
cafe
281f
0000
0000
00f5
cafe
2c1f
0000
0000
00f4
cafe
301f
0000
0000
00fb
cafe
341f
0000
0000
00fc
cafe
381f
0000
0000
00fc
-
cafe
3c1f
0000
0000
00fc
cafe
201f
0000
0000
0116
cafe
241f
0000
0000
0111
cafe
281f
0000
0000
0118
cafe
2c1f
0000
0000
0117
cafe
301f
0000
0000
0123
cafe
341f
0000
0000
0127
cafe
381f
0000
0000
011a
cafe
3c1f
0000
0000
011e
cafe
201f
0000
0000
0130
cafe
241f
0000
0000
0131
cafe
281f
0000
0000
0132
cafe
2c1f
0000
0000
0131
cafe
301f
0000
0000
0124
cafe
341f
0000
0000
0113
cafe
381f
0000
0000
011b
cafe
3c1f
0000
0000
010f
cafe
201f
0000
0000
010a
cafe
241f
0000
0000
0116
cafe
281f
0000
0000
0106
cafe
2c1f
0000
0000
010b
cafe
301f
0000
0000
0104
cafe
341f
0000
0000
0107
cafe
381f
0000
0000
0101
cafe
3c1f
0000
0000
0104
cafe
201f
0000
0000
0104
cafe
241f
0000
0000
00fe
cafe
281f
0000
0000
00fe
cafe
2c1f
0000
0000
010a
cafe
301f
0000
0000
010c
cafe
341f
0000
0000
00f8
cafe
381f
0000
0000
0102
cafe
3c1f
0000
0000
00fc
cafe
201f
0000
0000
00fa
cafe
241f
0000
0000
00ec
cafe
281f
0000
0000
0106
cafe
2c1f
0000
0000
0102
cafe
301f
0000
0000
00f1
cafe
341f
0000
0000
0100
cafe
381f
0000
0000
00fc
cafe
3c1f
0000
0000
0105
cafe
201f
0000
0000
0110
cafe
241f
0000
0000
0109
cafe
281f
0000
0000
0108
cafe
2c1f
0000
0000
0102
cafe
301f
0000
0000
00f7
cafe
341f
0000
0000
00f2
cafe
381f
0000
0000
00df
cafe
3c1f
0000
0000
00ed
cafe
201f
0000
0000
00e0
cafe
241f
0000
0000
00e3
cafe
-
281f
0000
0000
00dc
cafe
2c1f
0000
0000
00d4
cafe
301f
0000
0000
00d4
cafe
341f
0000
0000
00cf
cafe
381f
0000
0000
00d7
cafe
3c1f
0000
0000
00d3
cafe
201f
0000
0000
00e3
cafe
241f
0000
0000
00e0
cafe
281f
0000
0000
00dc
cafe
2c1f
0000
0000
00e8
cafe
301f
0000
0000
00e6
cafe
341f
0000
0000
00ec
cafe
381f
0000
0000
00f0
cafe
3c1f
0000
0000
00fe
cafe
201f
0000
0000
0101
cafe
241f
0000
0000
0105
cafe
281f
0000
0000
00fc
cafe
2c1f
0000
0000
0114
cafe
301f
0000
0000
00ee
cafe
341f
0000
0000
0103
cafe
381f
0000
0000
00ff
cafe
3c1f
0000
0000
00fc
cafe
201f
0000
0000
00ee
cafe
241f
0000
0000
00ee
cafe
281f
0000
0000
00f4
cafe
2c1f
0000
0000
00f0
cafe
301f
0000
0000
00f0
cafe
341f
0000
0000
00ee
cafe
381f
0000
0000
00eb
cafe
3c1f
0000
0000
00ee
cafe
201f
0000
0000
00eb
cafe
241f
0000
0000
00dc
cafe
281f
0000
0000
00d2
cafe
2c1f
0000
0000
00d2
cafe
301f
0000
0000
00d2
cafe
341f
0000
0000
00d9
cafe
381f
0000
0000
00db
cafe
3c1f
0000
0000
00e0
cafe
201f
0000
0000
00d5
cafe
241f
0000
0000
00ce
cafe
281f
0000
0000
00dc
cafe
2c1f
0000
0000
00cf
cafe
301f
0000
0000
00d0
cafe
341f
0000
0000
00dd
cafe
381f
0000
0000
00de
cafe
3c1f
0000
0000
00e9
cafe
201f
0000
0000
00f5
cafe
241f
0000
0000
00f4
cafe
281f
0000
0000
010b
cafe
2c1f
0000
0000
0104
cafe
301f
0000
0000
0110
cafe
341f
-
0000
0000
0114
cafe
381f
0000
0000
0115
cafe
3c1f
0000
0000
0118
cafe
201f
0000
0000
010c
cafe
241f
0000
0000
010a
cafe
281f
0000
0000
00ff
cafe
2c1f
0000
0000
00fd
cafe
301f
0000
0000
00f7
cafe
341f
0000
0000
00f4
cafe
381f
0000
0000
00f6
cafe
3c1f
0000
0000
00eb
cafe
201f
0000
0000
00e1
cafe
241f
0000
0000
00dc
cafe
281f
0000
0000
00d8
cafe
2c1f
0000
0000
00e6
cafe
301f
0000
0000
00e6
cafe
341f
0000
0000
00db
cafe
381f
0000
0000
00e1
cafe
3c1f
0000
0000
00e2
cafe
201f
0000
0000
00e4
cafe
241f
0000
0000
00f1
cafe
281f
0000
0000
00f2
cafe
2c1f
0000
0000
00fd
cafe
301f
0000
0000
00fc
cafe
341f
0000
0000
00f0
cafe
381f
0000
0000
00f5
cafe
3c1f
0000
0000
00fb
cafe
201f
0000
0000
00eb
cafe
241f
0000
0000
00f5
cafe
281f
0000
0000
00e3
cafe
2c1f
0000
0000
00e7
cafe
301f
0000
0000
00de
cafe
341f
0000
0000
00da
cafe
381f
0000
0000
00e5
cafe
3c1f
0000
0000
00d1
cafe
201f
0000
0000
00d1
cafe
241f
0000
0000
00cc
cafe
281f
0000
0000
00d6
cafe
2c1f
0000
0000
00cc
cafe
301f
0000
0000
00cd
cafe
341f
0000
0000
00cd
cafe
381f
0000
0000
00d0
cafe
3c1f
0000
0000
00dd
cafe
201f
0000
0000
00d3
cafe
241f
0000
0000
00d3
cafe
281f
0000
0000
00cf
cafe
2c1f
0000
0000
00cc
cafe
301f
0000
0000
00cf
cafe
341f
0000
0000
00d2
cafe
381f
0000
0000
00d2
cafe
3c1f
0000
0000
00e0
cafe
201f
0000
-
0000
00e3
cafe
241f
0000
0000
00d7
cafe
281f
0000
0000
00d4
cafe
2c1f
0000
0000
00db
cafe
301f
0000
0000
00e0
cafe
341f
0000
0000
00e1
cafe
381f
0000
0000
00cd
cafe
3c1f
0000
0000
00cf
cafe
201f
0000
0000
00c5
cafe
241f
0000
0000
00c3
cafe
281f
0000
0000
00c0
cafe
2c1f
0000
0000
00c6
cafe
301f
0000
0000
00cf
cafe
341f
0000
0000
00d3
cafe
381f
0000
0000
00bf
cafe
3c1f
0000
0000
00c8
cafe
201f
0000
0000
00c4
cafe
241f
0000
0000
00c1
cafe
281f
0000
0000
00d7
cafe
2c1f
0000
0000
00cd
cafe
301f
0000
0000
00d8
cafe
341f
0000
0000
00d9
cafe
381f
0000
0000
00d7
cafe
3c1f
0000
0000
00e4
cafe
201f
0000
0000
00d4
cafe
241f
0000
0000
00ce
cafe
281f
0000
0000
00db
cafe
2c1f
0000
0000
00d2
cafe
301f
0000
0000
00d0
cafe
341f
0000
0000
00d2
cafe
381f
0000
0000
00cf
cafe
3c1f
0000
0000
00e1
cafe
201f
0000
0000
00cf
cafe
241f
0000
0000
00d4
cafe
281f
0000
0000
00d9
cafe
2c1f
0000
0000
00d6
cafe
301f
0000
0000
00e4
cafe
341f
0000
0000
00e2
cafe
381f
0000
0000
00db
cafe
3c1f
0000
0000
00e9
cafe
201f
0000
0000
00de
cafe
241f
0000
0000
00e5
cafe
281f
0000
0000
00d6
cafe
2c1f
0000
0000
00e5
cafe
301f
0000
0000
00c8
cafe
341f
0000
0000
00d2
cafe
381f
0000
0000
00d2
cafe
3c1f
0000
0000
00bf
cafe
201f
0000
0000
00c3
cafe
241f
0000
0000
00c6
cafe
281f
0000
0000
00c7
cafe
2c1f
0000
0000
-
00c3
cafe
301f
0000
0000
00c2
cafe
341f
0000
0000
00bb
cafe
381f
0000
0000
00ca
cafe
3c1f
0000
0000
00cd
cafe
201f
0000
0000
00d1
cafe
241f
0000
0000
00d4
cafe
281f
0000
0000
00cf
cafe
2c1f
0000
0000
00ce
cafe
301f
0000
0000
00d5
cafe
341f
0000
0000
00e2
cafe
381f
0000
0000
00d8
cafe
3c1f
0000
0000
00d8
cafe
201f
0000
0000
00e1
cafe
241f
0000
0000
00dd
cafe
281f
0000
0000
00d0
cafe
2c1f
0000
0000
00d8
cafe
301f
0000
0000
00d6
cafe
341f
0000
0000
00c9
cafe
381f
0000
0000
00c8
cafe
3c1f
0000
0000
00cb
cafe
201f
0000
0000
00c9
cafe
241f
0000
0000
00b7
cafe
281f
0000
0000
00b2
cafe
2c1f
0000
0000
00b6
cafe
301f
0000
0000
00c4
cafe
341f
0000
0000
00d6
cafe
381f
0000
0000
00cb
cafe
3c1f
0000
0000
00d0
cafe
201f
0000
0000
00d5
cafe
241f
0000
0000
00d9
cafe
281f
0000
0000
00d1
cafe
2c1f
0000
0000
00d8
cafe
301f
0000
0000
00d0
cafe
341f
0000
0000
00d1
cafe
381f
0000
0000
00d2
cafe
3c1f
0000
0000
00db
cafe
201f
0000
0000
00da
cafe
241f
0000
0000
00da
cafe
281f
0000
0000
00e5
cafe
2c1f
0000
0000
00e8
cafe
301f
0000
0000
00e8
cafe
341f
0000
0000
00e9
cafe
381f
0000
0000
00db
cafe
3c1f
0000
0000
00da
cafe
201f
0000
0000
00d8
cafe
241f
0000
0000
00dc
cafe
281f
0000
0000
00e2
cafe
2c1f
0000
0000
00d6
cafe
301f
0000
0000
00dd
cafe
341f
0000
0000
00dc
cafe
381f
0000
0000
00d7
-
cafe
3c1f
0000
0000
00de
cafe
201f
0000
0000
00ce
cafe
241f
0000
0000
00dc
cafe
281f
0000
0000
00cc
cafe
2c1f
0000
0000
00c8
cafe
301f
0000
0000
00cb
cafe
341f
0000
0000
00bd
cafe
381f
0000
0000
00bf
cafe
3c1f
0000
0000
00c5
cafe
201f
0000
0000
00c1
cafe
241f
0000
0000
00c1
cafe
281f
0000
0000
00c3
cafe
2c1f
0000
0000
00c9
cafe
301f
0000
0000
00c9
cafe
341f
0000
0000
00d6
cafe
381f
0000
0000
00d6
cafe
3c1f
0000
0000
00d8
cafe
201f
0000
0000
00d8
cafe
241f
0000
0000
00d9
cafe
281f
0000
0000
00ea
cafe
2c1f
0000
0000
00df
cafe
301f
0000
0000
00d1
cafe
341f
0000
0000
00d6
cafe
381f
0000
0000
00d4
cafe
3c1f
0000
0000
00ce
cafe
201f
0000
0000
00d3
cafe
241f
0000
0000
00d1
cafe
281f
0000
0000
00c9
cafe
2c1f
0000
0000
00c5
cafe
301f
0000
0000
00c0
cafe
341f
0000
0000
00c1
cafe
381f
0000
0000
00c1
cafe
3c1f
0000
0000
00c1
cafe
201f
0000
0000
00c4
cafe
241f
0000
0000
00bc
cafe
281f
0000
0000
00b5
cafe
2c1f
0000
0000
00ad
cafe
301f
0000
0000
00a8
cafe
341f
0000
0000
00aa
cafe
381f
0000
0000
00af
cafe
3c1f
0000
0000
00a8
cafe
201f
0000
0000
00a8
cafe
241f
0000
0000
00b4
cafe
281f
0000
0000
00b4
cafe
2c1f
0000
0000
00c4
cafe
301f
0000
0000
00c2
cafe
341f
0000
0000
00c2
cafe
381f
0000
0000
00cc
cafe
3c1f
0000
0000
00cf
cafe
201f
0000
0000
00d6
cafe
241f
0000
0000
00d2
cafe
-
281f
0000
0000
00df
cafe
2c1f
0000
0000
00e5
cafe
301f
0000
0000
00dc
cafe
341f
0000
0000
00df
cafe
381f
0000
0000
00d3
cafe
3c1f
0000
0000
00ce
cafe
201f
0000
0000
00c3
cafe
241f
0000
0000
00c7
cafe
281f
0000
0000
00c4
cafe
2c1f
0000
0000
00c4
cafe
301f
0000
0000
00bf
cafe
341f
0000
0000
00b3
cafe
381f
0000
0000
00ae
cafe
3c1f
0000
0000
00ad
cafe
201f
0000
0000
00b2
cafe
241f
0000
0000
00a6
cafe
281f
0000
0000
00b7
cafe
2c1f
0000
0000
00a7
cafe
301f
0000
0000
00aa
cafe
341f
0000
0000
009f
cafe
381f
0000
0000
009e
cafe
3c1f
0000
0000
009f
cafe
201f
0000
0000
00a4
cafe
241f
0000
0000
00ae
cafe
281f
0000
0000
00af
cafe
2c1f
0000
0000
00b0
cafe
301f
0000
0000
00bf
cafe
341f
0000
0000
00be
cafe
381f
0000
0000
00bf
cafe
3c1f
0000
0000
00c6
cafe
201f
0000
0000
00ca
cafe
241f
0000
0000
00cd
cafe
281f
0000
0000
00c4
cafe
2c1f
0000
0000
00d4
cafe
301f
0000
0000
00db
cafe
341f
0000
0000
00d3
cafe
381f
0000
0000
00d0
cafe
3c1f
0000
0000
00d2
cafe
201f
0000
0000
00c6
cafe
241f
0000
0000
00d0
cafe
281f
0000
0000
00e0
cafe
2c1f
0000
0000
00ce
cafe
301f
0000
0000
00ce
cafe
341f
0000
0000
00d6
cafe
381f
0000
0000
00c6
cafe
3c1f
0000
0000
00bf
cafe
201f
0000
0000
00ca
cafe
241f
0000
0000
00bb
cafe
281f
0000
0000
00c8
cafe
2c1f
0000
0000
00bf
cafe
301f
0000
0000
00b2
cafe
341f
-
0000
0000
00c4
cafe
381f
0000
0000
00c3
cafe
3c1f
0000
0000
00b8
cafe
201f
0000
0000
00c1
cafe
241f
0000
0000
00d4
cafe
281f
0000
0000
00d7
cafe
2c1f
0000
0000
00d2
cafe
301f
0000
0000
00c3
cafe
341f
0000
0000
00d2
cafe
381f
0000
0000
00d8
cafe
3c1f
0000
0000
00da
cafe
201f
0000
0000
00d5
cafe
241f
0000
0000
00cb
cafe
281f
0000
0000
00de
cafe
2c1f
0000
0000
00dd
cafe
301f
0000
0000
00e9
cafe
341f
0000
0000
00ef
cafe
381f
0000
0000
00e4
cafe
3c1f
0000
0000
00d0
cafe
201f
0000
0000
00ce
cafe
241f
0000
0000
00c0
cafe
281f
0000
0000
00b7
cafe
2c1f
0000
0000
00b4
cafe
301f
0000
0000
00b1
cafe
341f
0000
0000
00b2
cafe
381f
0000
0000
00b8
cafe
3c1f
0000
0000
00ac
cafe
201f
0000
0000
00b7
cafe
241f
0000
0000
00b7
cafe
281f
0000
0000
00ae
cafe
2c1f
0000
0000
00ba
cafe
301f
0000
0000
00ac
cafe
341f
0000
0000
00b3
cafe
381f
0000
0000
00ac
cafe
3c1f
0000
0000
00b4
cafe
201f
0000
0000
00bc
cafe
241f
0000
0000
00bb
cafe
281f
0000
0000
00bf
cafe
2c1f
0000
0000
00c8
cafe
301f
0000
0000
00c6
cafe
341f
0000
0000
00d9
cafe
381f
0000
0000
00d2
cafe
3c1f
0000
0000
00d9
cafe
201f
0000
0000
00d6
cafe
241f
0000
0000
00dd
cafe
281f
0000
0000
00d8
cafe
2c1f
0000
0000
00d5
cafe
301f
0000
0000
00d0
cafe
341f
0000
0000
00cf
cafe
381f
0000
0000
00bf
cafe
3c1f
0000
0000
00c1
cafe
201f
0000
-
0000
00a8
cafe
241f
0000
0000
00b0
cafe
281f
0000
0000
00a5
cafe
2c1f
0000
0000
00ac
cafe
301f
0000
0000
00aa
cafe
341f
0000
0000
00a8
cafe
381f
0000
0000
00ae
cafe
3c1f
0000
0000
00bf
cafe
201f
0000
0000
00b0
cafe
241f
0000
0000
00b9
cafe
281f
0000
0000
00c0
cafe
2c1f
0000
0000
00b5
cafe
301f
0000
0000
00be
cafe
341f
0000
0000
00bf
cafe
381f
0000
0000
00c4
cafe
3c1f
0000
0000
00bf
cafe
201f
0000
0000
00b9
cafe
241f
0000
0000
00c6
cafe
281f
0000
0000
00c8
cafe
2c1f
0000
0000
00d3
cafe
301f
0000
0000
00d2
cafe
341f
0000
0000
00c7
cafe
381f
0000
0000
00cc
cafe
3c1f
0000
0000
00cb
cafe
201f
0000
0000
00ca
cafe
241f
0000
0000
00cd
cafe
281f
0000
0000
00d2
cafe
2c1f
0000
0000
00e2
cafe
301f
0000
0000
00dd
cafe
341f
0000
0000
0101
cafe
381f
0000
0000
00ee
cafe
3c1f
0000
0000
00e6
cafe
201f
0000
0000
00dc
cafe
241f
0000
0000
00d4
cafe
281f
0000
0000
00cb
cafe
2c1f
0000
0000
00cd
cafe
301f
0000
0000
00d1
cafe
341f
0000
0000
00c8
cafe
381f
0000
0000
00c8
cafe
3c1f
0000
0000
00c0
cafe
201f
0000
0000
00c1
cafe
241f
0000
0000
00c5
cafe
281f
0000
0000
00c8
cafe
2c1f
0000
0000
00d9
cafe
301f
0000
0000
00c0
cafe
341f
0000
0000
00c1
cafe
381f
0000
0000
00cb
cafe
3c1f
0000
0000
00c0
cafe
201f
0000
0000
00c5
cafe
241f
0000
0000
00c7
cafe
281f
0000
0000
00bb
cafe
2c1f
0000
0000
-
00bc
cafe
301f
0000
0000
00c4
cafe
341f
0000
0000
00c9
cafe
381f
0000
0000
00d3
cafe
3c1f
0000
0000
00c9
cafe
201f
0000
0000
00d7
cafe
241f
0000
0000
00d4
cafe
281f
0000
0000
00d3
cafe
2c1f
0000
0000
00d0
cafe
301f
0000
0000
00ce
cafe
341f
0000
0000
00d5
cafe
381f
0000
0000
00e0
cafe
3c1f
0000
0000
00d5
cafe
201f
0000
0000
00dc
cafe
241f
0000
0000
00d6
cafe
281f
0000
0000
00ca
cafe
2c1f
0000
0000
00ca
cafe
301f
0000
0000
00c0
cafe
341f
0000
0000
00b5
cafe
381f
0000
0000
00ac
cafe
3c1f
0000
0000
00ac
cafe
201f
0000
0000
00b0
cafe
241f
0000
0000
00b0
cafe
281f
0000
0000
00b3
cafe
2c1f
0000
0000
00ac
cafe
301f
0000
0000
009f
cafe
341f
0000
0000
009c
cafe
381f
0000
0000
00ad
cafe
3c1f
0000
0000
00a5
cafe
201f
0000
0000
00b1
cafe
241f
0000
0000
00be
cafe
281f
0000
0000
00c0
cafe
2c1f
0000
0000
00cf
cafe
301f
0000
0000
00c9
cafe
341f
0000
0000
00da
cafe
381f
0000
0000
00d1
cafe
3c1f
0000
0000
00ce
cafe
201f
0000
0000
00df
cafe
241f
0000
0000
00e8
cafe
281f
0000
0000
00cf
cafe
2c1f
0000
0000
00cb
cafe
301f
0000
0000
00c6
cafe
341f
0000
0000
00bd
cafe
381f
0000
0000
00ba
cafe
3c1f
0000
0000
00b5
cafe
201f
0000
0000
00b8
cafe
241f
0000
0000
00bc
cafe
281f
0000
0000
00b2
cafe
2c1f
0000
0000
00b9
cafe
301f
0000
0000
00b8
cafe
341f
0000
0000
00b7
cafe
381f
0000
0000
00a4
-
cafe
3c1f
0000
0000
00b4
cafe
201f
0000
0000
00af
cafe
241f
0000
0000
00a0
cafe
281f
0000
0000
00b1
cafe
2c1f
0000
0000
00bb
cafe
301f
0000
0000
00be
cafe
341f
0000
0000
00b8
cafe
381f
0000
0000
00a2
cafe
3c1f
0000
0000
00c2
cafe
201f
0000
0000
00bf
cafe
241f
0000
0000
00b6
cafe
281f
0000
0000
00b7
cafe
2c1f
0000
0000
00a3
cafe
301f
0000
0000
00aa
cafe
341f
0000
0000
00b5
cafe
381f
0000
0000
00b6
cafe
3c1f
0000
0000
00b9
cafe
201f
0000
0000
00c0
cafe
241f
0000
0000
00c8
cafe
281f
0000
0000
00d9
cafe
2c1f
0000
0000
00cd
cafe
301f
0000
0000
00d0
cafe
341f
0000
0000
00c8
cafe
381f
0000
0000
00c5
cafe
3c1f
0000
0000
00d8
cafe
201f
0000
0000
00cb
cafe
241f
0000
0000
00ca
cafe
281f
0000
0000
00c0
cafe
2c1f
0000
0000
00c3
cafe
301f
0000
0000
00ac
cafe
341f
0000
0000
00bf
cafe
381f
0000
0000
00b5
cafe
3c1f
0000
0000
00ac
cafe
201f
0000
0000
00b1
cafe
241f
0000
0000
00bb
cafe
281f
0000
0000
00b0
cafe
2c1f
0000
0000
00af
cafe
301f
0000
0000
00b5
cafe
341f
0000
0000
00b5
cafe
381f
0000
0000
00b4
cafe
3c1f
0000
0000
00b8
cafe
201f
0000
0000
00bd
cafe
241f
0000
0000
00c0
cafe
281f
0000
0000
00c3
cafe
2c1f
0000
0000
00c4
cafe
301f
0000
0000
00b8
cafe
341f
0000
0000
00b7
cafe
381f
0000
0000
00bd
cafe
3c1f
0000
0000
00c1
cafe
201f
0000
0000
00c9
cafe
241f
0000
0000
00c6
cafe
-
281f
0000
0000
00c6
cafe
2c1f
0000
0000
00ba
cafe
301f
0000
0000
00cb
cafe
341f
0000
0000
00c5
cafe
381f
0000
0000
00c3
cafe
3c1f
0000
0000
00df
cafe
201f
0000
0000
00d9
cafe
241f
0000
0000
00dc
cafe
281f
0000
0000
00e9
cafe
2c1f
0000
0000
00e7
cafe
301f
0000
0000
00e2
cafe
341f
0000
0000
00e0
cafe
381f
0000
0000
00d9
cafe
3c1f
0000
0000
00da
cafe
201f
0000
0000
00cb
cafe
241f
0000
0000
00c6
cafe
281f
0000
0000
00d0
cafe
2c1f
0000
0000
00bf
cafe
301f
0000
0000
00c1
cafe
341f
0000
0000
00b4
cafe
381f
0000
0000
00ac
cafe
3c1f
0000
0000
00b2
cafe
201f
0000
0000
00a8
cafe
241f
0000
0000
00bc
cafe
281f
0000
0000
00b5
cafe
2c1f
0000
0000
00ba
cafe
301f
0000
0000
00b6
cafe
341f
0000
0000
00a8
cafe
381f
0000
0000
00b6
cafe
3c1f
0000
0000
00b3
cafe
201f
0000
0000
00b5
cafe
241f
0000
0000
00c6
cafe
281f
0000
0000
00ce
cafe
2c1f
0000
0000
00dc
cafe
301f
0000
0000
00d2
cafe
341f
0000
0000
00d7
cafe
381f
0000
0000
00d7
cafe
3c1f
0000
0000
00d5
cafe
201f
0000
0000
00df
cafe
241f
0000
0000
00db
cafe
281f
0000
0000
00e4
cafe
2c1f
0000
0000
00dc
cafe
301f
0000
0000
00d8
cafe
341f
0000
0000
00d2
cafe
381f
0000
0000
00be
cafe
3c1f
0000
0000
00bc
cafe
201f
0000
0000
00b5
cafe
241f
0000
0000
00ae
cafe
281f
0000
0000
00aa
cafe
2c1f
0000
0000
00ac
cafe
301f
0000
0000
00ae
cafe
341f
-
0000
0000
00a9
cafe
381f
0000
0000
00aa
cafe
3c1f
0000
0000
00a8
cafe
201f
0000
0000
00a2
cafe
241f
0000
0000
00b2
cafe
281f
0000
0000
00a9
cafe
2c1f
0000
0000
00b6
cafe
301f
0000
0000
00b5
cafe
341f
0000
0000
00ba
cafe
381f
0000
0000
00af
cafe
3c1f
0000
0000
00b6
cafe
201f
0000
0000
00bd
cafe
241f
0000
0000
00bb
cafe
281f
0000
0000
00bd
cafe
2c1f
0000
0000
00c5
cafe
301f
0000
0000
00b8
cafe
341f
0000
0000
00c2
cafe
381f
0000
0000
00c2
cafe
3c1f
0000
0000
00ba
cafe
201f
0000
0000
00c0
cafe
241f
0000
0000
00c2
cafe
281f
0000
0000
00cd
cafe
2c1f
0000
0000
00d1
cafe
301f
0000
0000
00d9
cafe
341f
0000
0000
00e4
cafe
381f
0000
0000
00d9
cafe
3c1f
0000
0000
00db
cafe
201f
0000
0000
00e2
cafe
241f
0000
0000
00de
cafe
281f
0000
0000
00e1
cafe
2c1f
0000
0000
00e9
cafe
301f
0000
0000
00d2
cafe
341f
0000
0000
00e4
cafe
381f
0000
0000
00db
cafe
3c1f
0000
0000
00d8
cafe
201f
0000
0000
00d8
cafe
241f
0000
0000
00d9
cafe
281f
0000
0000
00ce
cafe
2c1f
0000
0000
00da
cafe
301f
0000
0000
00e2
cafe
341f
0000
0000
00cc
cafe
381f
0000
0000
00bb
cafe
3c1f
0000
0000
00bc
cafe
201f
0000
0000
00c2
cafe
241f
0000
0000
00b3
cafe
281f
0000
0000
00b4
cafe
2c1f
0000
0000
00b4
cafe
301f
0000
0000
00b4
cafe
341f
0000
0000
00c1
cafe
381f
0000
0000
00d2
cafe
3c1f
0000
0000
00ba
cafe
201f
0000
-
0000
00ba
cafe
241f
0000
0000
00b4
cafe
281f
0000
0000
00b1
cafe
2c1f
0000
0000
00af
cafe
301f
0000
0000
00bc
cafe
341f
0000
0000
00c4
cafe
381f
0000
0000
00c2
cafe
3c1f
0000
0000
00be
cafe
201f
0000
0000
00c5
cafe
241f
0000
0000
00c4
cafe
281f
0000
0000
00b5
cafe
2c1f
0000
0000
00b3
cafe
301f
0000
0000
00b5
cafe
341f
0000
0000
00bc
cafe
381f
0000
0000
00c4
cafe
3c1f
0000
0000
00b8
cafe
201f
0000
0000
00c2
cafe
241f
0000
0000
00be
cafe
281f
0000
0000
00c3
cafe
2c1f
0000
0000
00bd
cafe
301f
0000
0000
00b8
cafe
341f
0000
0000
00c4
cafe
381f
0000
0000
00c9
cafe
3c1f
0000
0000
00d6
cafe
201f
0000
0000
00ce
cafe
241f
0000
0000
00d9
cafe
281f
0000
0000
00d0
cafe
2c1f
0000
0000
00dd
cafe
301f
0000
0000
00d1
cafe
341f
0000
0000
00cc
cafe
381f
0000
0000
00d5
cafe
3c1f
0000
0000
00d2
cafe
201f
0000
0000
00c7
cafe
241f
0000
0000
00cf
cafe
281f
0000
0000
00ce
cafe
2c1f
0000
0000
00cc
cafe
301f
0000
0000
00c7
cafe
341f
0000
0000
00cc
cafe
381f
0000
0000
00c8
cafe
3c1f
0000
0000
00b9
cafe
201f
0000
0000
00b3
cafe
241f
0000
0000
00ad
cafe
281f
0000
0000
00b5
cafe
2c1f
0000
0000
00b8
cafe
301f
0000
0000
00b1
cafe
341f
0000
0000
00b8
cafe
381f
0000
0000
00bb
cafe
3c1f
0000
0000
00c3
cafe
201f
0000
0000
00c8
cafe
241f
0000
0000
00c5
cafe
281f
0000
0000
00d3
cafe
2c1f
0000
0000
-
00de
cafe
301f
0000
0000
00e0
cafe
341f
0000
0000
00d7
cafe
381f
0000
0000
00c5
cafe
3c1f
0000
0000
00bc
cafe
201f
0000
0000
00bd
cafe
241f
0000
0000
00af
cafe
281f
0000
0000
00bc
cafe
2c1f
0000
0000
00b8
cafe
301f
0000
0000
00bc
cafe
341f
0000
0000
00c4
cafe
381f
0000
0000
00ca
cafe
3c1f
0000
0000
00ce
cafe
201f
0000
0000
00c8
cafe
241f
0000
0000
00c8
cafe
281f
0000
0000
00d9
cafe
2c1f
0000
0000
00dc
cafe
301f
0000
0000
00ce
cafe
341f
0000
0000
00db
cafe
381f
0000
0000
00d7
cafe
3c1f
0000
0000
00d3
cafe
201f
0000
0000
00d4
cafe
241f
0000
0000
00d0
cafe
281f
0000
0000
00d0
cafe
2c1f
0000
0000
00c9
cafe
301f
0000
0000
00c8
cafe
341f
0000
0000
00b8
cafe
381f
0000
0000
00bb
cafe
3c1f
0000
0000
00b6
cafe
201f
0000
0000
00bf
cafe
241f
0000
0000
00c0
cafe
281f
0000
0000
00b0
cafe
2c1f
0000
0000
00b7
cafe
301f
0000
0000
00aa
cafe
341f
0000
0000
00a2
cafe
381f
0000
0000
00ad
cafe
3c1f
0000
0000
00ac
cafe
201f
0000
0000
00ac
cafe
241f
0000
0000
00b8
cafe
281f
0000
0000
00c2
cafe
2c1f
0000
0000
00c9
cafe
301f
0000
0000
00c1
cafe
341f
0000
0000
00c7
cafe
381f
0000
0000
00cc
cafe
3c1f
0000
0000
00c6
cafe
201f
0000
0000
00cf
cafe
241f
0000
0000
00d6
cafe
281f
0000
0000
00d8
cafe
2c1f
0000
0000
00df
cafe
301f
0000
0000
00d5
cafe
341f
0000
0000
00da
cafe
381f
0000
0000
00dd
-
