2c1f
0000
0000
017c
cafe
301f
0000
0000
0177
cafe
341f
0000
0000
0178
cafe
381f
0000
0000
0179
cafe
3c1f
0000
0000
017c
cafe
201f
0000
0000
0170
cafe
241f
0000
0000
0170
cafe
281f
0000
0000
0175
cafe
2c1f
0000
0000
0181
cafe
301f
0000
0000
0182
cafe
341f
0000
0000
0181
cafe
381f
0000
0000
017a
cafe
3c1f
0000
0000
017d
cafe
201f
0000
0000
0181
cafe
241f
0000
0000
0180
cafe
281f
0000
0000
017c
cafe
2c1f
0000
0000
0179
cafe
301f
0000
0000
0178
cafe
341f
0000
0000
0181
cafe
381f
0000
0000
0184
cafe
3c1f
0000
0000
0175
cafe
201f
0000
0000
0179
cafe
241f
0000
0000
017c
cafe
281f
0000
0000
0174
cafe
2c1f
0000
0000
017d
cafe
301f
0000
0000
0185
cafe
341f
0000
0000
0185
cafe
381f
0000
0000
0186
cafe
3c1f
0000
0000
018a
cafe
201f
0000
0000
0185
cafe
241f
0000
0000
018d
cafe
281f
0000
0000
0190
cafe
2c1f
0000
0000
018b
cafe
301f
0000
0000
018f
cafe
341f
0000
0000
0195
cafe
381f
0000
0000
0193
cafe
3c1f
0000
0000
018d
cafe
201f
0000
0000
018d
cafe
241f
0000
0000
0195
cafe
281f
0000
0000
018d
cafe
2c1f
0000
0000
0185
cafe
301f
0000
0000
0181
cafe
341f
0000
0000
0180
cafe
381f
0000
0000
0179
cafe
3c1f
0000
0000
017c
cafe
201f
0000
0000
0177
cafe
241f
0000
0000
016c
cafe
281f
0000
0000
016f
cafe
2c1f
0000
0000
0170
cafe
301f
0000
0000
016a
cafe
341f
0000
0000
0172
cafe
381f
-
0000
0000
017d
cafe
3c1f
0000
0000
0177
cafe
201f
0000
0000
016f
cafe
241f
0000
0000
0172
cafe
281f
0000
0000
016d
cafe
2c1f
0000
0000
016d
cafe
301f
0000
0000
016c
cafe
341f
0000
0000
0165
cafe
381f
0000
0000
0179
cafe
3c1f
0000
0000
017a
cafe
201f
0000
0000
0175
cafe
241f
0000
0000
0176
cafe
281f
0000
0000
017e
cafe
2c1f
0000
0000
0178
cafe
301f
0000
0000
0171
cafe
341f
0000
0000
0172
cafe
381f
0000
0000
016f
cafe
3c1f
0000
0000
0167
cafe
201f
0000
0000
016e
cafe
241f
0000
0000
0164
cafe
281f
0000
0000
015b
cafe
2c1f
0000
0000
015f
cafe
301f
0000
0000
0164
cafe
341f
0000
0000
0164
cafe
381f
0000
0000
0165
cafe
3c1f
0000
0000
0167
cafe
201f
0000
0000
0166
cafe
241f
0000
0000
0168
cafe
281f
0000
0000
0170
cafe
2c1f
0000
0000
0174
cafe
301f
0000
0000
016d
cafe
341f
0000
0000
0170
cafe
381f
0000
0000
016a
cafe
3c1f
0000
0000
016e
cafe
201f
0000
0000
016e
cafe
241f
0000
0000
016c
cafe
281f
0000
0000
0167
cafe
2c1f
0000
0000
016c
cafe
301f
0000
0000
0171
cafe
341f
0000
0000
0175
cafe
381f
0000
0000
0171
cafe
3c1f
0000
0000
0171
cafe
201f
0000
0000
0170
cafe
241f
0000
0000
0169
cafe
281f
0000
0000
0173
cafe
2c1f
0000
0000
0176
cafe
301f
0000
0000
0177
cafe
341f
0000
0000
017d
cafe
381f
0000
0000
017d
cafe
3c1f
0000
0000
0182
cafe
201f
0000
0000
017a
cafe
241f
0000
-
0000
017a
cafe
281f
0000
0000
0178
cafe
2c1f
0000
0000
017f
cafe
301f
0000
0000
0181
cafe
341f
0000
0000
017d
cafe
381f
0000
0000
017a
cafe
3c1f
0000
0000
0179
cafe
201f
0000
0000
0173
cafe
241f
0000
0000
0173
cafe
281f
0000
0000
016b
cafe
2c1f
0000
0000
016c
cafe
301f
0000
0000
0167
cafe
341f
0000
0000
0165
cafe
381f
0000
0000
0161
cafe
3c1f
0000
0000
0164
cafe
201f
0000
0000
0161
cafe
241f
0000
0000
015a
cafe
281f
0000
0000
0164
cafe
2c1f
0000
0000
0173
cafe
301f
0000
0000
0179
cafe
341f
0000
0000
0181
cafe
381f
0000
0000
017f
cafe
3c1f
0000
0000
0180
cafe
201f
0000
0000
0174
cafe
241f
0000
0000
0175
cafe
281f
0000
0000
0177
cafe
2c1f
0000
0000
016f
cafe
301f
0000
0000
016e
cafe
341f
0000
0000
0170
cafe
381f
0000
0000
0171
cafe
3c1f
0000
0000
0175
cafe
201f
0000
0000
0175
cafe
241f
0000
0000
0170
cafe
281f
0000
0000
0171
cafe
2c1f
0000
0000
0177
cafe
301f
0000
0000
017c
cafe
341f
0000
0000
017a
cafe
381f
0000
0000
0179
cafe
3c1f
0000
0000
017e
cafe
201f
0000
0000
017a
cafe
241f
0000
0000
0189
cafe
281f
0000
0000
018a
cafe
2c1f
0000
0000
0188
cafe
301f
0000
0000
0189
cafe
341f
0000
0000
018a
cafe
381f
0000
0000
018b
cafe
3c1f
0000
0000
0181
cafe
201f
0000
0000
017c
cafe
241f
0000
0000
0180
cafe
281f
0000
0000
017a
cafe
2c1f
0000
0000
017a
cafe
301f
0000
0000
-
0172
cafe
341f
0000
0000
0170
cafe
381f
0000
0000
0171
cafe
3c1f
0000
0000
016f
cafe
201f
0000
0000
0177
cafe
241f
0000
0000
0177
cafe
281f
0000
0000
0171
cafe
2c1f
0000
0000
0166
cafe
301f
0000
0000
0169
cafe
341f
0000
0000
0169
cafe
381f
0000
0000
016c
cafe
3c1f
0000
0000
0172
cafe
201f
0000
0000
0171
cafe
241f
0000
0000
016e
cafe
281f
0000
0000
0175
cafe
2c1f
0000
0000
0174
cafe
301f
0000
0000
016f
cafe
341f
0000
0000
016b
cafe
381f
0000
0000
016f
cafe
3c1f
0000
0000
016c
cafe
201f
0000
0000
0170
cafe
241f
0000
0000
016c
cafe
281f
0000
0000
0160
cafe
2c1f
0000
0000
0164
cafe
301f
0000
0000
0169
cafe
341f
0000
0000
0166
cafe
381f
0000
0000
0165
cafe
3c1f
0000
0000
0162
cafe
201f
0000
0000
0168
cafe
241f
0000
0000
0165
cafe
281f
0000
0000
0166
cafe
2c1f
0000
0000
0160
cafe
301f
0000
0000
0162
cafe
341f
0000
0000
0171
cafe
381f
0000
0000
0171
cafe
3c1f
0000
0000
0172
cafe
201f
0000
0000
0171
cafe
241f
0000
0000
0170
cafe
281f
0000
0000
0172
cafe
2c1f
0000
0000
0170
cafe
301f
0000
0000
016f
cafe
341f
0000
0000
016a
cafe
381f
0000
0000
0166
cafe
3c1f
0000
0000
0163
cafe
201f
0000
0000
0163
cafe
241f
0000
0000
0168
cafe
281f
0000
0000
0168
cafe
2c1f
0000
0000
0167
cafe
301f
0000
0000
016d
cafe
341f
0000
0000
0167
cafe
381f
0000
0000
016e
cafe
3c1f
0000
0000
016b
-
cafe
201f
0000
0000
0164
cafe
241f
0000
0000
0161
cafe
281f
0000
0000
0166
cafe
2c1f
0000
0000
0165
cafe
301f
0000
0000
0162
cafe
341f
0000
0000
015c
cafe
381f
0000
0000
015f
cafe
3c1f
0000
0000
0163
cafe
201f
0000
0000
0162
cafe
241f
0000
0000
016a
cafe
281f
0000
0000
0167
cafe
2c1f
0000
0000
0170
cafe
301f
0000
0000
0171
cafe
341f
0000
0000
017a
cafe
381f
0000
0000
0171
cafe
3c1f
0000
0000
0180
cafe
201f
0000
0000
0179
cafe
241f
0000
0000
017c
cafe
281f
0000
0000
017d
cafe
2c1f
0000
0000
0183
cafe
301f
0000
0000
017f
cafe
341f
0000
0000
0182
cafe
381f
0000
0000
0184
cafe
3c1f
0000
0000
0186
cafe
201f
0000
0000
018c
cafe
241f
0000
0000
0185
cafe
281f
0000
0000
0184
cafe
2c1f
0000
0000
017e
cafe
301f
0000
0000
0179
cafe
341f
0000
0000
0172
cafe
381f
0000
0000
0167
cafe
3c1f
0000
0000
0167
cafe
201f
0000
0000
016a
cafe
241f
0000
0000
0167
cafe
281f
0000
0000
0172
cafe
2c1f
0000
0000
0169
cafe
301f
0000
0000
0167
cafe
341f
0000
0000
0176
cafe
381f
0000
0000
0173
cafe
3c1f
0000
0000
016d
cafe
201f
0000
0000
0171
cafe
241f
0000
0000
016e
cafe
281f
0000
0000
016d
cafe
2c1f
0000
0000
016f
cafe
301f
0000
0000
0168
cafe
341f
0000
0000
0167
cafe
381f
0000
0000
0167
cafe
3c1f
0000
0000
0163
cafe
201f
0000
0000
0165
cafe
241f
0000
0000
0165
cafe
281f
0000
0000
016a
cafe
-
2c1f
0000
0000
016a
cafe
301f
0000
0000
0170
cafe
341f
0000
0000
0175
cafe
381f
0000
0000
0179
cafe
3c1f
0000
0000
0179
cafe
201f
0000
0000
0181
cafe
241f
0000
0000
017d
cafe
281f
0000
0000
0182
cafe
2c1f
0000
0000
0182
cafe
301f
0000
0000
017c
cafe
341f
0000
0000
017f
cafe
381f
0000
0000
017d
cafe
3c1f
0000
0000
017a
cafe
201f
0000
0000
0180
cafe
241f
0000
0000
0178
cafe
281f
0000
0000
0170
cafe
2c1f
0000
0000
0176
cafe
301f
0000
0000
0177
cafe
341f
0000
0000
0176
cafe
381f
0000
0000
017d
cafe
3c1f
0000
0000
0175
cafe
201f
0000
0000
0176
cafe
241f
0000
0000
017f
cafe
281f
0000
0000
017b
cafe
2c1f
0000
0000
017b
cafe
301f
0000
0000
017b
cafe
341f
0000
0000
017a
cafe
381f
0000
0000
0172
cafe
3c1f
0000
0000
016a
cafe
201f
0000
0000
016a
cafe
241f
0000
0000
015f
cafe
281f
0000
0000
0167
cafe
2c1f
0000
0000
0165
cafe
301f
0000
0000
0166
cafe
341f
0000
0000
016a
cafe
381f
0000
0000
0170
cafe
3c1f
0000
0000
016b
cafe
201f
0000
0000
016a
cafe
241f
0000
0000
0171
cafe
281f
0000
0000
016f
cafe
2c1f
0000
0000
016c
cafe
301f
0000
0000
0164
cafe
341f
0000
0000
016d
cafe
381f
0000
0000
0168
cafe
3c1f
0000
0000
0169
cafe
201f
0000
0000
016a
cafe
241f
0000
0000
0165
cafe
281f
0000
0000
016f
cafe
2c1f
0000
0000
016c
cafe
301f
0000
0000
016b
cafe
341f
0000
0000
0168
cafe
381f
-
0000
0000
0167
cafe
3c1f
0000
0000
016b
cafe
201f
0000
0000
016c
cafe
241f
0000
0000
016f
cafe
281f
0000
0000
0172
cafe
2c1f
0000
0000
016d
cafe
301f
0000
0000
0172
cafe
341f
0000
0000
0178
cafe
381f
0000
0000
0173
cafe
3c1f
0000
0000
016a
cafe
201f
0000
0000
0169
cafe
241f
0000
0000
0167
cafe
281f
0000
0000
016b
cafe
2c1f
0000
0000
0169
cafe
301f
0000
0000
0168
cafe
341f
0000
0000
016a
cafe
381f
0000
0000
0163
cafe
3c1f
0000
0000
0163
cafe
201f
0000
0000
0169
cafe
241f
0000
0000
016d
cafe
281f
0000
0000
016e
cafe
2c1f
0000
0000
016a
cafe
301f
0000
0000
0169
cafe
341f
0000
0000
016d
cafe
381f
0000
0000
016a
cafe
3c1f
0000
0000
0163
cafe
201f
0000
0000
0166
cafe
241f
0000
0000
0168
cafe
281f
0000
0000
016a
cafe
2c1f
0000
0000
0166
cafe
301f
0000
0000
016e
cafe
341f
0000
0000
0169
cafe
381f
0000
0000
016e
cafe
3c1f
0000
0000
0173
cafe
201f
0000
0000
017b
cafe
241f
0000
0000
0178
cafe
281f
0000
0000
0175
cafe
2c1f
0000
0000
016f
cafe
301f
0000
0000
016d
cafe
341f
0000
0000
0173
cafe
381f
0000
0000
0178
cafe
3c1f
0000
0000
0177
cafe
201f
0000
0000
0179
cafe
241f
0000
0000
0181
cafe
281f
0000
0000
017e
cafe
2c1f
0000
0000
017e
cafe
301f
0000
0000
017b
cafe
341f
0000
0000
017e
cafe
381f
0000
0000
017b
cafe
3c1f
0000
0000
017b
cafe
201f
0000
0000
017b
cafe
241f
0000
-
0000
017d
cafe
281f
0000
0000
017d
cafe
2c1f
0000
0000
017a
cafe
301f
0000
0000
017f
cafe
341f
0000
0000
0182
cafe
381f
0000
0000
0170
cafe
3c1f
0000
0000
0170
cafe
201f
0000
0000
016f
cafe
241f
0000
0000
016a
cafe
281f
0000
0000
016c
cafe
2c1f
0000
0000
0164
cafe
301f
0000
0000
0160
cafe
341f
0000
0000
015d
cafe
381f
0000
0000
015c
cafe
3c1f
0000
0000
0159
cafe
201f
0000
0000
0155
cafe
241f
0000
0000
015b
cafe
281f
0000
0000
0157
cafe
2c1f
0000
0000
0154
cafe
301f
0000
0000
0157
cafe
341f
0000
0000
0156
cafe
381f
0000
0000
0155
cafe
3c1f
0000
0000
015c
cafe
201f
0000
0000
0162
cafe
241f
0000
0000
0169
cafe
281f
0000
0000
016d
cafe
2c1f
0000
0000
0171
cafe
301f
0000
0000
0172
cafe
341f
0000
0000
0176
cafe
381f
0000
0000
017c
cafe
3c1f
0000
0000
017e
cafe
201f
0000
0000
0174
cafe
241f
0000
0000
0174
cafe
281f
0000
0000
017a
cafe
2c1f
0000
0000
017e
cafe
301f
0000
0000
0179
cafe
341f
0000
0000
0178
cafe
381f
0000
0000
0174
cafe
3c1f
0000
0000
0171
cafe
201f
0000
0000
016b
cafe
241f
0000
0000
0166
cafe
281f
0000
0000
0160
cafe
2c1f
0000
0000
0161
cafe
301f
0000
0000
0157
cafe
341f
0000
0000
015e
cafe
381f
0000
0000
015a
cafe
3c1f
0000
0000
0158
cafe
201f
0000
0000
015b
cafe
241f
0000
0000
015a
cafe
281f
0000
0000
015f
cafe
2c1f
0000
0000
015f
cafe
301f
0000
0000
-
015e
cafe
341f
0000
0000
0165
cafe
381f
0000
0000
016a
cafe
3c1f
0000
0000
0173
cafe
201f
0000
0000
0173
cafe
241f
0000
0000
0170
cafe
281f
0000
0000
0177
cafe
2c1f
0000
0000
017f
cafe
301f
0000
0000
018a
cafe
341f
0000
0000
018e
cafe
381f
0000
0000
018d
cafe
3c1f
0000
0000
018e
cafe
201f
0000
0000
0192
cafe
241f
0000
0000
0192
cafe
281f
0000
0000
0190
cafe
2c1f
0000
0000
018f
cafe
301f
0000
0000
0190
cafe
341f
0000
0000
018d
cafe
381f
0000
0000
0185
cafe
3c1f
0000
0000
0180
cafe
201f
0000
0000
0172
cafe
241f
0000
0000
016d
cafe
281f
0000
0000
016e
cafe
2c1f
0000
0000
016a
cafe
301f
0000
0000
016b
cafe
341f
0000
0000
0160
cafe
381f
0000
0000
0160
cafe
3c1f
0000
0000
015a
cafe
201f
0000
0000
015e
cafe
241f
0000
0000
0165
cafe
281f
0000
0000
016a
cafe
2c1f
0000
0000
0171
cafe
301f
0000
0000
0174
cafe
341f
0000
0000
0179
cafe
381f
0000
0000
0176
cafe
3c1f
0000
0000
0176
cafe
201f
0000
0000
0172
cafe
241f
0000
0000
0179
cafe
281f
0000
0000
017a
cafe
2c1f
0000
0000
017f
cafe
301f
0000
0000
0175
cafe
341f
0000
0000
017c
cafe
381f
0000
0000
017e
cafe
3c1f
0000
0000
017e
cafe
201f
0000
0000
017f
cafe
241f
0000
0000
017e
cafe
281f
0000
0000
0178
cafe
2c1f
0000
0000
017b
cafe
301f
0000
0000
017b
cafe
341f
0000
0000
017c
cafe
381f
0000
0000
017c
cafe
3c1f
0000
0000
0176
-
cafe
201f
0000
0000
0174
cafe
241f
0000
0000
0175
cafe
281f
0000
0000
017c
cafe
2c1f
0000
0000
0179
cafe
301f
0000
0000
016d
cafe
341f
0000
0000
0174
cafe
381f
0000
0000
016c
cafe
3c1f
0000
0000
0170
cafe
201f
0000
0000
0171
cafe
241f
0000
0000
016f
cafe
281f
0000
0000
0171
cafe
2c1f
0000
0000
016d
cafe
301f
0000
0000
016d
cafe
341f
0000
0000
0175
cafe
381f
0000
0000
0178
cafe
3c1f
0000
0000
017a
cafe
201f
0000
0000
0173
cafe
241f
0000
0000
017f
cafe
281f
0000
0000
017f
cafe
2c1f
0000
0000
0174
cafe
301f
0000
0000
0176
cafe
341f
0000
0000
017d
cafe
381f
0000
0000
017f
cafe
3c1f
0000
0000
0181
cafe
201f
0000
0000
0183
cafe
241f
0000
0000
0184
cafe
281f
0000
0000
017d
cafe
2c1f
0000
0000
0180
cafe
301f
0000
0000
017b
cafe
341f
0000
0000
017b
cafe
381f
0000
0000
017b
cafe
3c1f
0000
0000
0174
cafe
201f
0000
0000
0172
cafe
241f
0000
0000
0173
cafe
281f
0000
0000
0170
cafe
2c1f
0000
0000
0170
cafe
301f
0000
0000
016a
cafe
341f
0000
0000
016b
cafe
381f
0000
0000
016e
cafe
3c1f
0000
0000
0171
cafe
201f
0000
0000
016e
cafe
241f
0000
0000
0170
cafe
281f
0000
0000
0179
cafe
2c1f
0000
0000
0185
cafe
301f
0000
0000
0181
cafe
341f
0000
0000
0171
cafe
381f
0000
0000
0179
cafe
3c1f
0000
0000
0172
cafe
201f
0000
0000
0179
cafe
241f
0000
0000
0174
cafe
281f
0000
0000
0179
cafe
-
2c1f
0000
0000
017b
cafe
301f
0000
0000
0180
cafe
341f
0000
0000
0182
cafe
381f
0000
0000
018b
cafe
3c1f
0000
0000
018d
cafe
201f
0000
0000
0186
cafe
241f
0000
0000
0189
cafe
281f
0000
0000
018b
cafe
2c1f
0000
0000
0189
cafe
301f
0000
0000
017f
cafe
341f
0000
0000
0181
cafe
381f
0000
0000
0178
cafe
3c1f
0000
0000
0173
cafe
201f
0000
0000
016c
cafe
241f
0000
0000
0164
cafe
281f
0000
0000
015f
cafe
2c1f
0000
0000
0161
cafe
301f
0000
0000
015e
cafe
341f
0000
0000
015e
cafe
381f
0000
0000
015a
cafe
3c1f
0000
0000
015d
cafe
201f
0000
0000
0160
cafe
241f
0000
0000
015c
cafe
281f
0000
0000
0161
cafe
2c1f
0000
0000
0165
cafe
301f
0000
0000
015e
cafe
341f
0000
0000
015b
cafe
381f
0000
0000
015d
cafe
3c1f
0000
0000
0160
cafe
201f
0000
0000
0162
cafe
241f
0000
0000
0159
cafe
281f
0000
0000
0160
cafe
2c1f
0000
0000
0168
cafe
301f
0000
0000
0168
cafe
341f
0000
0000
0172
cafe
381f
0000
0000
0171
cafe
3c1f
0000
0000
0176
cafe
201f
0000
0000
0170
cafe
241f
0000
0000
016f
cafe
281f
0000
0000
0167
cafe
2c1f
0000
0000
016a
cafe
301f
0000
0000
0174
cafe
341f
0000
0000
0173
cafe
381f
0000
0000
0176
cafe
3c1f
0000
0000
017d
cafe
201f
0000
0000
017b
cafe
241f
0000
0000
0179
cafe
281f
0000
0000
017e
cafe
2c1f
0000
0000
017b
cafe
301f
0000
0000
0172
cafe
341f
0000
0000
0176
cafe
381f
-
0000
0000
0174
cafe
3c1f
0000
0000
016f
cafe
201f
0000
0000
0170
cafe
241f
0000
0000
0169
cafe
281f
0000
0000
016e
cafe
2c1f
0000
0000
016d
cafe
301f
0000
0000
0170
cafe
341f
0000
0000
016e
cafe
381f
0000
0000
016f
cafe
3c1f
0000
0000
0174
cafe
201f
0000
0000
0177
cafe
241f
0000
0000
0178
cafe
281f
0000
0000
017b
cafe
2c1f
0000
0000
017b
cafe
301f
0000
0000
017b
cafe
341f
0000
0000
0175
cafe
381f
0000
0000
0164
cafe
3c1f
0000
0000
015d
cafe
201f
0000
0000
0152
cafe
241f
0000
0000
0154
cafe
281f
0000
0000
0152
cafe
2c1f
0000
0000
015c
cafe
301f
0000
0000
0163
cafe
341f
0000
0000
0168
cafe
381f
0000
0000
016e
cafe
3c1f
0000
0000
016d
cafe
201f
0000
0000
016d
cafe
241f
0000
0000
0177
cafe
281f
0000
0000
0177
cafe
2c1f
0000
0000
0185
cafe
301f
0000
0000
0187
cafe
341f
0000
0000
017d
cafe
381f
0000
0000
0180
cafe
3c1f
0000
0000
0179
cafe
201f
0000
0000
017b
cafe
241f
0000
0000
0177
cafe
281f
0000
0000
0173
cafe
2c1f
0000
0000
016f
cafe
301f
0000
0000
0171
cafe
341f
0000
0000
016d
cafe
381f
0000
0000
016e
cafe
3c1f
0000
0000
0176
cafe
201f
0000
0000
0176
cafe
241f
0000
0000
017f
cafe
281f
0000
0000
0184
cafe
2c1f
0000
0000
018a
cafe
301f
0000
0000
017e
cafe
341f
0000
0000
0181
cafe
381f
0000
0000
0187
cafe
3c1f
0000
0000
0181
cafe
201f
0000
0000
017e
cafe
241f
0000
-
0000
0178
cafe
281f
0000
0000
017d
cafe
2c1f
0000
0000
017d
cafe
301f
0000
0000
017b
cafe
341f
0000
0000
0179
cafe
381f
0000
0000
0172
cafe
3c1f
0000
0000
0171
cafe
201f
0000
0000
0168
cafe
241f
0000
0000
015e
cafe
281f
0000
0000
015f
cafe
2c1f
0000
0000
0160
cafe
301f
0000
0000
0161
cafe
341f
0000
0000
0161
cafe
381f
0000
0000
0166
cafe
3c1f
0000
0000
0166
cafe
201f
0000
0000
015c
cafe
241f
0000
0000
015c
cafe
281f
0000
0000
0160
cafe
2c1f
0000
0000
0168
cafe
301f
0000
0000
0170
cafe
341f
0000
0000
0171
cafe
381f
0000
0000
0166
cafe
3c1f
0000
0000
016a
cafe
201f
0000
0000
0175
cafe
241f
0000
0000
016f
cafe
281f
0000
0000
017c
cafe
2c1f
0000
0000
0177
cafe
301f
0000
0000
017d
cafe
341f
0000
0000
0183
cafe
381f
0000
0000
0185
cafe
3c1f
0000
0000
017d
cafe
201f
0000
0000
017d
cafe
241f
0000
0000
0176
cafe
281f
0000
0000
0178
cafe
2c1f
0000
0000
0170
cafe
301f
0000
0000
0170
cafe
341f
0000
0000
016f
cafe
381f
0000
0000
0172
cafe
3c1f
0000
0000
0175
cafe
201f
0000
0000
017e
cafe
241f
0000
0000
0177
cafe
281f
0000
0000
0172
cafe
2c1f
0000
0000
0179
cafe
301f
0000
0000
017d
cafe
341f
0000
0000
0177
cafe
381f
0000
0000
0179
cafe
3c1f
0000
0000
0177
cafe
201f
0000
0000
0179
cafe
241f
0000
0000
0176
cafe
281f
0000
0000
017b
cafe
2c1f
0000
0000
0179
cafe
301f
0000
0000
-
016f
cafe
341f
0000
0000
016b
cafe
381f
0000
0000
0163
cafe
3c1f
0000
0000
0161
cafe
201f
0000
0000
015d
cafe
241f
0000
0000
0153
cafe
281f
0000
0000
0154
cafe
2c1f
0000
0000
0157
cafe
301f
0000
0000
0154
cafe
341f
0000
0000
0157
cafe
381f
0000
0000
015b
cafe
3c1f
0000
0000
0159
cafe
201f
0000
0000
0168
cafe
241f
0000
0000
0164
cafe
281f
0000
0000
0176
cafe
2c1f
0000
0000
0176
cafe
301f
0000
0000
0176
cafe
341f
0000
0000
0178
cafe
381f
0000
0000
0182
cafe
3c1f
0000
0000
0180
cafe
201f
0000
0000
017b
cafe
241f
0000
0000
0170
cafe
281f
0000
0000
0170
cafe
2c1f
0000
0000
0172
cafe
301f
0000
0000
016e
cafe
341f
0000
0000
016b
cafe
381f
0000
0000
0167
cafe
3c1f
0000
0000
0169
cafe
201f
0000
0000
0172
cafe
241f
0000
0000
016f
cafe
281f
0000
0000
0169
cafe
2c1f
0000
0000
0169
cafe
301f
0000
0000
0162
cafe
341f
0000
0000
0165
cafe
381f
0000
0000
0168
cafe
3c1f
0000
0000
0169
cafe
201f
0000
0000
016c
cafe
241f
0000
0000
016f
cafe
281f
0000
0000
016d
cafe
2c1f
0000
0000
016e
cafe
301f
0000
0000
0174
cafe
341f
0000
0000
0175
cafe
381f
0000
0000
0175
cafe
3c1f
0000
0000
0171
cafe
201f
0000
0000
017a
cafe
241f
0000
0000
0185
cafe
281f
0000
0000
0186
cafe
2c1f
0000
0000
0187
cafe
301f
0000
0000
0180
cafe
341f
0000
0000
0178
cafe
381f
0000
0000
0171
cafe
3c1f
0000
0000
0175
-
cafe
201f
0000
0000
0175
cafe
241f
0000
0000
017a
cafe
281f
0000
0000
0179
cafe
2c1f
0000
0000
0177
cafe
301f
0000
0000
0178
cafe
341f
0000
0000
0177
cafe
381f
0000
0000
0171
cafe
3c1f
0000
0000
0174
cafe
201f
0000
0000
016b
cafe
241f
0000
0000
0167
cafe
281f
0000
0000
0164
cafe
2c1f
0000
0000
0162
cafe
301f
0000
0000
0165
cafe
341f
0000
0000
0166
cafe
381f
0000
0000
0167
cafe
3c1f
0000
0000
0164
cafe
201f
0000
0000
0162
cafe
241f
0000
0000
0166
cafe
281f
0000
0000
016e
cafe
2c1f
0000
0000
0173
cafe
301f
0000
0000
0170
cafe
341f
0000
0000
0172
cafe
381f
0000
0000
0177
cafe
3c1f
0000
0000
0174
cafe
201f
0000
0000
017a
cafe
241f
0000
0000
0177
cafe
281f
0000
0000
0178
cafe
2c1f
0000
0000
017c
cafe
301f
0000
0000
017a
cafe
341f
0000
0000
0176
cafe
381f
0000
0000
0181
cafe
3c1f
0000
0000
017b
cafe
201f
0000
0000
0179
cafe
241f
0000
0000
0181
cafe
281f
0000
0000
0177
cafe
2c1f
0000
0000
0175
cafe
301f
0000
0000
0174
cafe
341f
0000
0000
0171
cafe
381f
0000
0000
0176
cafe
3c1f
0000
0000
0172
cafe
201f
0000
0000
0169
cafe
241f
0000
0000
0163
cafe
281f
0000
0000
0163
cafe
2c1f
0000
0000
016a
cafe
301f
0000
0000
0168
cafe
341f
0000
0000
0168
cafe
381f
0000
0000
0168
cafe
3c1f
0000
0000
0164
cafe
201f
0000
0000
0169
cafe
241f
0000
0000
0176
cafe
281f
0000
0000
0179
cafe
-
2c1f
0000
0000
0182
cafe
301f
0000
0000
0180
cafe
341f
0000
0000
0188
cafe
381f
0000
0000
0187
cafe
3c1f
0000
0000
0184
cafe
201f
0000
0000
0182
cafe
241f
0000
0000
017e
cafe
281f
0000
0000
0188
cafe
2c1f
0000
0000
0188
cafe
301f
0000
0000
017f
cafe
341f
0000
0000
0175
cafe
381f
0000
0000
017c
cafe
3c1f
0000
0000
0180
cafe
201f
0000
0000
017f
cafe
241f
0000
0000
0181
cafe
281f
0000
0000
0178
cafe
2c1f
0000
0000
016d
cafe
301f
0000
0000
016d
cafe
341f
0000
0000
0172
cafe
381f
0000
0000
016a
cafe
3c1f
0000
0000
0167
cafe
201f
0000
0000
0164
cafe
241f
0000
0000
0165
cafe
281f
0000
0000
0165
cafe
2c1f
0000
0000
0168
cafe
301f
0000
0000
016d
cafe
341f
0000
0000
0170
cafe
381f
0000
0000
0172
cafe
3c1f
0000
0000
0169
cafe
201f
0000
0000
0167
cafe
241f
0000
0000
02f0
cafe
281f
0000
0000
0353
cafe
2c1f
0000
0000
0345
cafe
301f
0000
0000
0333
cafe
341f
0000
0000
032d
cafe
381f
0000
0000
0316
cafe
3c1f
0000
0000
02fa
cafe
201f
0000
0000
02ea
cafe
241f
0000
0000
02dc
cafe
281f
0000
0000
02c8
cafe
2c1f
0000
0000
02af
cafe
301f
0000
0000
0299
cafe
341f
0000
0000
0289
cafe
381f
0000
0000
0274
cafe
3c1f
0000
0000
0269
cafe
201f
0000
0000
0259
cafe
241f
0000
0000
0250
cafe
281f
0000
0000
0241
cafe
2c1f
0000
0000
0231
cafe
301f
0000
0000
0229
cafe
341f
0000
0000
0216
cafe
381f
-
0000
0000
0212
cafe
3c1f
0000
0000
0204
cafe
201f
0000
0000
01f9
cafe
241f
0000
0000
01fa
cafe
281f
0000
0000
01eb
cafe
2c1f
0000
0000
01e2
cafe
301f
0000
0000
01d9
cafe
341f
0000
0000
01d3
cafe
381f
0000
0000
01cd
cafe
3c1f
0000
0000
01ca
cafe
201f
0000
0000
01bf
cafe
241f
0000
0000
01bc
cafe
281f
0000
0000
01b5
cafe
2c1f
0000
0000
01ae
cafe
301f
0000
0000
01aa
cafe
341f
0000
0000
01a6
cafe
381f
0000
0000
01a1
cafe
3c1f
0000
0000
019a
cafe
201f
0000
0000
019e
cafe
241f
0000
0000
019d
cafe
281f
0000
0000
0196
cafe
2c1f
0000
0000
018f
cafe
301f
0000
0000
018b
cafe
341f
0000
0000
0187
cafe
381f
0000
0000
0182
cafe
3c1f
0000
0000
0184
cafe
201f
0000
0000
017d
cafe
241f
0000
0000
0182
cafe
281f
0000
0000
0186
cafe
2c1f
0000
0000
017a
cafe
301f
0000
0000
017d
cafe
341f
0000
0000
0178
cafe
381f
0000
0000
0171
cafe
3c1f
0000
0000
016d
cafe
201f
0000
0000
0165
cafe
241f
0000
0000
0162
cafe
281f
0000
0000
015b
cafe
2c1f
0000
0000
0153
cafe
301f
0000
0000
0154
cafe
341f
0000
0000
0150
cafe
381f
0000
0000
0157
cafe
3c1f
0000
0000
014b
cafe
201f
0000
0000
014d
cafe
241f
0000
0000
0152
cafe
281f
0000
0000
0154
cafe
2c1f
0000
0000
0156
cafe
301f
0000
0000
0159
cafe
341f
0000
0000
0157
cafe
381f
0000
0000
015f
cafe
3c1f
0000
0000
0161
cafe
201f
0000
0000
0160
cafe
241f
0000
-
0000
015e
cafe
281f
0000
0000
0161
cafe
2c1f
0000
0000
015a
cafe
301f
0000
0000
0153
cafe
341f
0000
0000
0159
cafe
381f
0000
0000
014e
cafe
3c1f
0000
0000
0148
cafe
201f
0000
0000
014c
cafe
241f
0000
0000
014f
cafe
281f
0000
0000
0154
cafe
2c1f
0000
0000
014f
cafe
301f
0000
0000
0152
cafe
341f
0000
0000
0155
cafe
381f
0000
0000
0155
cafe
3c1f
0000
0000
015b
cafe
201f
0000
0000
0151
cafe
241f
0000
0000
014d
cafe
281f
0000
0000
0156
cafe
2c1f
0000
0000
0153
cafe
301f
0000
0000
0154
cafe
341f
0000
0000
014f
cafe
381f
0000
0000
0150
cafe
3c1f
0000
0000
0156
cafe
201f
0000
0000
0153
cafe
241f
0000
0000
0158
cafe
281f
0000
0000
0156
cafe
2c1f
0000
0000
0154
cafe
301f
0000
0000
0154
cafe
341f
0000
0000
0157
cafe
381f
0000
0000
0158
cafe
3c1f
0000
0000
0153
cafe
201f
0000
0000
0150
cafe
241f
0000
0000
014d
cafe
281f
0000
0000
014e
cafe
2c1f
0000
0000
014a
cafe
301f
0000
0000
0149
cafe
341f
0000
0000
014a
cafe
381f
0000
0000
014f
cafe
3c1f
0000
0000
014b
cafe
201f
0000
0000
0149
cafe
241f
0000
0000
0149
cafe
281f
0000
0000
0143
cafe
2c1f
0000
0000
0145
cafe
301f
0000
0000
0143
cafe
341f
0000
0000
0143
cafe
381f
0000
0000
0144
cafe
3c1f
0000
0000
013a
cafe
201f
0000
0000
013e
cafe
241f
0000
0000
013b
cafe
281f
0000
0000
0138
cafe
2c1f
0000
0000
0137
cafe
301f
0000
0000
-
0130
cafe
341f
0000
0000
012f
cafe
381f
0000
0000
012b
cafe
3c1f
0000
0000
012b
cafe
201f
0000
0000
0126
cafe
241f
0000
0000
0126
cafe
281f
0000
0000
012a
cafe
2c1f
0000
0000
0129
cafe
301f
0000
0000
0132
cafe
341f
0000
0000
0136
cafe
381f
0000
0000
0140
cafe
3c1f
0000
0000
0145
cafe
201f
0000
0000
0151
cafe
241f
0000
0000
014e
cafe
281f
0000
0000
0151
cafe
2c1f
0000
0000
015d
cafe
301f
0000
0000
015b
cafe
341f
0000
0000
015d
cafe
381f
0000
0000
0163
cafe
3c1f
0000
0000
0164
cafe
201f
0000
0000
015c
cafe
241f
0000
0000
015a
cafe
281f
0000
0000
0152
cafe
2c1f
0000
0000
0152
cafe
301f
0000
0000
0152
cafe
341f
0000
0000
014f
cafe
381f
0000
0000
014b
cafe
3c1f
0000
0000
014c
cafe
201f
0000
0000
014a
cafe
241f
0000
0000
0147
cafe
281f
0000
0000
013b
cafe
2c1f
0000
0000
013d
cafe
301f
0000
0000
013c
cafe
341f
0000
0000
0140
cafe
381f
0000
0000
013a
cafe
3c1f
0000
0000
0141
cafe
201f
0000
0000
0144
cafe
241f
0000
0000
014c
cafe
281f
0000
0000
014d
cafe
2c1f
0000
0000
014f
cafe
301f
0000
0000
0150
cafe
341f
0000
0000
0151
cafe
381f
0000
0000
015d
cafe
3c1f
0000
0000
0156
cafe
201f
0000
0000
0154
cafe
241f
0000
0000
0154
cafe
281f
0000
0000
0155
cafe
2c1f
0000
0000
0152
cafe
301f
0000
0000
015b
cafe
341f
0000
0000
0155
cafe
381f
0000
0000
0152
cafe
3c1f
0000
0000
0149
-
cafe
201f
0000
0000
0142
cafe
241f
0000
0000
013f
cafe
281f
0000
0000
0144
cafe
2c1f
0000
0000
0143
cafe
301f
0000
0000
0140
cafe
341f
0000
0000
013a
cafe
381f
0000
0000
0130
cafe
3c1f
0000
0000
012f
cafe
201f
0000
0000
0127
cafe
241f
0000
0000
012a
cafe
281f
0000
0000
012e
cafe
2c1f
0000
0000
0135
cafe
301f
0000
0000
0145
cafe
341f
0000
0000
0149
cafe
381f
0000
0000
0149
cafe
3c1f
0000
0000
0150
cafe
201f
0000
0000
0155
cafe
241f
0000
0000
0155
cafe
281f
0000
0000
015f
cafe
2c1f
0000
0000
015f
cafe
301f
0000
0000
0158
cafe
341f
0000
0000
015b
cafe
381f
0000
0000
015c
cafe
3c1f
0000
0000
015f
cafe
201f
0000
0000
015d
cafe
241f
0000
0000
015f
cafe
281f
0000
0000
0167
cafe
2c1f
0000
0000
0161
cafe
301f
0000
0000
0165
cafe
341f
0000
0000
016f
cafe
381f
0000
0000
016a
cafe
3c1f
0000
0000
0170
cafe
201f
0000
0000
0173
cafe
241f
0000
0000
016e
cafe
281f
0000
0000
0170
cafe
2c1f
0000
0000
0163
cafe
301f
0000
0000
0168
cafe
341f
0000
0000
0162
cafe
381f
0000
0000
0166
cafe
3c1f
0000
0000
016d
cafe
201f
0000
0000
0168
cafe
241f
0000
0000
016b
cafe
281f
0000
0000
0167
cafe
2c1f
0000
0000
0168
cafe
301f
0000
0000
0162
cafe
341f
0000
0000
015e
cafe
381f
0000
0000
0157
cafe
3c1f
0000
0000
015e
cafe
201f
0000
0000
015a
cafe
241f
0000
0000
015b
cafe
281f
0000
0000
0159
cafe
-
2c1f
0000
0000
0151
cafe
301f
0000
0000
0152
cafe
341f
0000
0000
0155
cafe
381f
0000
0000
0158
cafe
3c1f
0000
0000
0156
cafe
201f
0000
0000
0158
cafe
241f
0000
0000
0156
cafe
281f
0000
0000
015b
cafe
2c1f
0000
0000
015e
cafe
301f
0000
0000
015e
cafe
341f
0000
0000
0163
cafe
381f
0000
0000
0164
cafe
3c1f
0000
0000
0162
cafe
201f
0000
0000
0165
cafe
241f
0000
0000
0166
cafe
281f
0000
0000
0168
cafe
2c1f
0000
0000
015e
cafe
301f
0000
0000
015c
cafe
341f
0000
0000
0152
cafe
381f
0000
0000
0144
cafe
3c1f
0000
0000
013f
cafe
201f
0000
0000
013a
cafe
241f
0000
0000
0141
cafe
281f
0000
0000
0142
cafe
2c1f
0000
0000
013e
cafe
301f
0000
0000
013e
cafe
341f
0000
0000
0141
cafe
381f
0000
0000
0150
cafe
3c1f
0000
0000
0152
cafe
201f
0000
0000
0152
cafe
241f
0000
0000
014f
cafe
281f
0000
0000
0157
cafe
2c1f
0000
0000
0160
cafe
301f
0000
0000
015f
cafe
341f
0000
0000
015e
cafe
381f
0000
0000
0162
cafe
3c1f
0000
0000
015f
cafe
201f
0000
0000
015e
cafe
241f
0000
0000
0157
cafe
281f
0000
0000
0155
cafe
2c1f
0000
0000
0156
cafe
301f
0000
0000
014e
cafe
341f
0000
0000
014a
cafe
381f
0000
0000
014c
cafe
3c1f
0000
0000
0152
cafe
201f
0000
0000
015a
cafe
241f
0000
0000
0157
cafe
281f
0000
0000
0160
cafe
2c1f
0000
0000
015d
cafe
301f
0000
0000
0160
cafe
341f
0000
0000
015b
cafe
381f
-
0000
0000
0158
cafe
3c1f
0000
0000
0157
cafe
201f
0000
0000
0157
cafe
241f
0000
0000
0158
cafe
281f
0000
0000
015a
cafe
2c1f
0000
0000
0156
cafe
301f
0000
0000
0155
cafe
341f
0000
0000
0160
cafe
381f
0000
0000
0166
cafe
3c1f
0000
0000
0160
cafe
201f
0000
0000
0159
cafe
241f
0000
0000
0154
cafe
281f
0000
0000
0152
cafe
2c1f
0000
0000
014f
cafe
301f
0000
0000
0150
cafe
341f
0000
0000
014d
cafe
381f
0000
0000
0148
cafe
3c1f
0000
0000
0149
cafe
201f
0000
0000
0141
cafe
241f
0000
0000
0141
cafe
281f
0000
0000
0146
cafe
2c1f
0000
0000
014a
cafe
301f
0000
0000
0150
cafe
341f
0000
0000
0153
cafe
381f
0000
0000
015a
cafe
3c1f
0000
0000
015a
cafe
201f
0000
0000
0160
cafe
241f
0000
0000
0163
cafe
281f
0000
0000
016d
cafe
2c1f
0000
0000
016a
cafe
301f
0000
0000
0168
cafe
341f
0000
0000
0174
cafe
381f
0000
0000
0174
cafe
3c1f
0000
0000
017c
cafe
201f
0000
0000
0179
cafe
241f
0000
0000
0173
cafe
281f
0000
0000
016f
cafe
2c1f
0000
0000
016c
cafe
301f
0000
0000
0165
cafe
341f
0000
0000
0164
cafe
381f
0000
0000
016a
cafe
3c1f
0000
0000
0168
cafe
201f
0000
0000
0162
cafe
241f
0000
0000
015c
cafe
281f
0000
0000
015f
cafe
2c1f
0000
0000
0155
cafe
301f
0000
0000
0152
cafe
341f
0000
0000
0157
cafe
381f
0000
0000
015f
cafe
3c1f
0000
0000
0164
cafe
201f
0000
0000
0170
cafe
241f
0000
-
0000
0171
cafe
281f
0000
0000
0179
cafe
2c1f
0000
0000
0185
cafe
301f
0000
0000
018a
cafe
341f
0000
0000
018d
cafe
381f
0000
0000
018e
cafe
3c1f
0000
0000
0189
cafe
201f
0000
0000
018f
cafe
241f
0000
0000
0192
cafe
281f
0000
0000
0189
cafe
2c1f
0000
0000
0183
cafe
301f
0000
0000
0177
cafe
341f
0000
0000
0171
cafe
381f
0000
0000
0169
cafe
3c1f
0000
0000
015d
cafe
201f
0000
0000
0158
cafe
241f
0000
0000
0151
cafe
281f
0000
0000
0150
cafe
2c1f
0000
0000
0152
cafe
301f
0000
0000
0150
cafe
341f
0000
0000
0153
cafe
381f
0000
0000
015c
cafe
3c1f
0000
0000
015d
cafe
201f
0000
0000
015f
cafe
241f
0000
0000
0160
cafe
281f
0000
0000
0169
cafe
2c1f
0000
0000
0164
cafe
301f
0000
0000
0169
cafe
341f
0000
0000
016a
cafe
381f
0000
0000
0169
cafe
3c1f
0000
0000
0170
cafe
201f
0000
0000
0170
cafe
241f
0000
0000
017b
cafe
281f
0000
0000
017f
cafe
2c1f
0000
0000
0187
cafe
301f
0000
0000
018b
cafe
341f
0000
0000
0194
cafe
381f
0000
0000
0192
cafe
3c1f
0000
0000
0199
cafe
201f
0000
0000
0193
cafe
241f
0000
0000
0196
cafe
281f
0000
0000
0190
cafe
2c1f
0000
0000
018d
cafe
301f
0000
0000
0186
cafe
341f
0000
0000
0183
cafe
381f
0000
0000
0177
cafe
3c1f
0000
0000
0179
cafe
201f
0000
0000
0177
cafe
241f
0000
0000
016e
cafe
281f
0000
0000
016e
cafe
2c1f
0000
0000
016e
cafe
301f
0000
0000
-
016c
cafe
341f
0000
0000
016b
cafe
381f
0000
0000
016e
cafe
3c1f
0000
0000
016a
cafe
201f
0000
0000
0169
cafe
241f
0000
0000
0165
cafe
281f
0000
0000
0166
cafe
2c1f
0000
0000
016a
cafe
301f
0000
0000
016e
cafe
341f
0000
0000
0175
cafe
381f
0000
0000
017a
cafe
3c1f
0000
0000
017c
cafe
201f
0000
0000
0189
cafe
241f
0000
0000
018f
cafe
281f
0000
0000
018f
cafe
2c1f
0000
0000
018e
cafe
301f
0000
0000
018e
cafe
341f
0000
0000
018b
cafe
381f
0000
0000
0185
cafe
3c1f
0000
0000
0187
cafe
201f
0000
0000
0184
cafe
241f
0000
0000
017b
cafe
281f
0000
0000
0173
cafe
2c1f
0000
0000
0177
cafe
301f
0000
0000
0179
cafe
341f
0000
0000
0171
cafe
381f
0000
0000
017a
cafe
3c1f
0000
0000
017d
cafe
201f
0000
0000
0185
cafe
241f
0000
0000
0182
cafe
281f
0000
0000
017c
cafe
2c1f
0000
0000
0176
cafe
301f
0000
0000
017b
cafe
341f
0000
0000
0176
cafe
381f
0000
0000
0173
cafe
3c1f
0000
0000
0174
cafe
201f
0000
0000
0169
cafe
241f
0000
0000
0164
cafe
281f
0000
0000
0167
cafe
2c1f
0000
0000
0171
cafe
301f
0000
0000
0176
cafe
341f
0000
0000
0172
cafe
381f
0000
0000
0179
cafe
3c1f
0000
0000
0179
cafe
201f
0000
0000
0179
cafe
241f
0000
0000
0179
cafe
281f
0000
0000
0173
cafe
2c1f
0000
0000
016e
cafe
301f
0000
0000
0178
cafe
341f
0000
0000
017c
cafe
381f
0000
0000
017e
cafe
3c1f
0000
0000
017d
-
cafe
201f
0000
0000
017d
cafe
241f
0000
0000
017e
cafe
281f
0000
0000
0185
cafe
2c1f
0000
0000
0191
cafe
301f
0000
0000
018e
cafe
341f
0000
0000
018b
cafe
381f
0000
0000
018d
cafe
3c1f
0000
0000
0192
cafe
201f
0000
0000
0192
cafe
241f
0000
0000
0191
cafe
281f
0000
0000
0188
cafe
2c1f
0000
0000
018c
cafe
301f
0000
0000
0186
cafe
341f
0000
0000
0188
cafe
381f
0000
0000
0181
cafe
3c1f
0000
0000
017c
cafe
201f
0000
0000
0173
cafe
241f
0000
0000
016f
cafe
281f
0000
0000
0162
cafe
2c1f
0000
0000
0166
cafe
301f
0000
0000
0163
cafe
341f
0000
0000
0163
cafe
381f
0000
0000
0166
cafe
3c1f
0000
0000
0163
cafe
201f
0000
0000
0165
cafe
241f
0000
0000
0164
cafe
281f
0000
0000
0167
cafe
2c1f
0000
0000
0168
cafe
301f
0000
0000
0168
cafe
341f
0000
0000
016a
cafe
381f
0000
0000
016f
cafe
3c1f
0000
0000
016f
cafe
201f
0000
0000
0172
cafe
241f
0000
0000
0174
cafe
281f
0000
0000
016f
cafe
2c1f
0000
0000
016b
cafe
301f
0000
0000
0171
cafe
341f
0000
0000
0171
cafe
381f
0000
0000
0174
cafe
3c1f
0000
0000
0178
cafe
201f
0000
0000
016c
cafe
241f
0000
0000
016a
cafe
281f
0000
0000
016b
cafe
2c1f
0000
0000
016f
cafe
301f
0000
0000
0171
cafe
341f
0000
0000
0175
cafe
381f
0000
0000
0170
cafe
3c1f
0000
0000
0175
cafe
201f
0000
0000
016e
cafe
241f
0000
0000
0178
cafe
281f
0000
0000
0178
cafe
-
2c1f
0000
0000
0177
cafe
301f
0000
0000
0179
cafe
341f
0000
0000
017f
cafe
381f
0000
0000
017d
cafe
3c1f
0000
0000
0177
cafe
201f
0000
0000
017a
cafe
241f
0000
0000
0179
cafe
281f
0000
0000
017b
cafe
2c1f
0000
0000
017f
cafe
301f
0000
0000
0181
cafe
341f
0000
0000
017b
cafe
381f
0000
0000
0183
cafe
3c1f
0000
0000
0178
cafe
201f
0000
0000
0172
cafe
241f
0000
0000
0172
cafe
281f
0000
0000
0174
cafe
2c1f
0000
0000
0170
cafe
301f
0000
0000
016f
cafe
341f
0000
0000
016f
cafe
381f
0000
0000
0169
cafe
3c1f
0000
0000
016a
cafe
201f
0000
0000
0163
cafe
241f
0000
0000
0166
cafe
281f
0000
0000
0163
cafe
2c1f
0000
0000
0167
cafe
301f
0000
0000
0161
cafe
341f
0000
0000
0165
cafe
381f
0000
0000
0163
cafe
3c1f
0000
0000
016a
cafe
201f
0000
0000
016f
cafe
241f
0000
0000
016c
cafe
281f
0000
0000
016c
cafe
2c1f
0000
0000
016a
cafe
301f
0000
0000
0178
cafe
341f
0000
0000
0175
cafe
381f
0000
0000
0170
cafe
3c1f
0000
0000
0175
cafe
201f
0000
0000
0174
cafe
241f
0000
0000
0172
cafe
281f
0000
0000
017a
cafe
2c1f
0000
0000
0176
cafe
301f
0000
0000
0175
cafe
341f
0000
0000
016d
cafe
381f
0000
0000
016f
cafe
3c1f
0000
0000
0178
cafe
201f
0000
0000
0170
cafe
241f
0000
0000
016d
cafe
281f
0000
0000
016e
cafe
2c1f
0000
0000
0170
cafe
301f
0000
0000
0171
cafe
341f
0000
0000
016e
cafe
381f
-
0000
0000
0170
cafe
3c1f
0000
0000
0174
cafe
201f
0000
0000
0175
cafe
241f
0000
0000
016f
cafe
281f
0000
0000
016c
cafe
2c1f
0000
0000
016b
cafe
301f
0000
0000
0178
cafe
341f
0000
0000
0175
cafe
381f
0000
0000
017a
cafe
3c1f
0000
0000
017f
cafe
201f
0000
0000
017c
cafe
241f
0000
0000
017e
cafe
281f
0000
0000
0179
cafe
2c1f
0000
0000
017c
cafe
301f
0000
0000
0183
cafe
341f
0000
0000
0181
cafe
381f
0000
0000
0174
cafe
3c1f
0000
0000
017e
cafe
201f
0000
0000
017c
cafe
241f
0000
0000
0179
cafe
281f
0000
0000
017c
cafe
2c1f
0000
0000
0173
cafe
301f
0000
0000
0173
cafe
341f
0000
0000
0176
cafe
381f
0000
0000
017c
cafe
3c1f
0000
0000
017f
cafe
201f
0000
0000
017b
cafe
241f
0000
0000
0182
cafe
281f
0000
0000
0183
cafe
2c1f
0000
0000
0181
cafe
301f
0000
0000
0183
cafe
341f
0000
0000
017e
cafe
381f
0000
0000
0182
cafe
3c1f
0000
0000
0181
cafe
201f
0000
0000
0179
cafe
241f
0000
0000
0173
cafe
281f
0000
0000
0169
cafe
2c1f
0000
0000
0168
cafe
301f
0000
0000
0168
cafe
341f
0000
0000
0163
cafe
381f
0000
0000
0165
cafe
3c1f
0000
0000
0165
cafe
201f
0000
0000
0165
cafe
241f
0000
0000
016a
cafe
281f
0000
0000
016c
cafe
2c1f
0000
0000
0173
cafe
301f
0000
0000
0173
cafe
341f
0000
0000
0177
cafe
381f
0000
0000
0177
cafe
3c1f
0000
0000
0177
cafe
201f
0000
0000
016b
cafe
241f
0000
-
0000
016e
cafe
281f
0000
0000
016d
cafe
2c1f
0000
0000
016a
cafe
301f
0000
0000
0170
cafe
341f
0000
0000
016e
cafe
381f
0000
0000
016a
cafe
3c1f
0000
0000
016b
cafe
201f
0000
0000
0175
cafe
241f
0000
0000
0174
cafe
281f
0000
0000
0175
cafe
2c1f
0000
0000
0176
cafe
301f
0000
0000
0180
cafe
341f
0000
0000
0180
cafe
381f
0000
0000
0182
cafe
3c1f
0000
0000
0179
cafe
201f
0000
0000
017b
cafe
241f
0000
0000
0002
cafe
281f
0000
0000
0000
cafe
2c1f
0000
0000
0000
cafe
301f
0000
0000
0000
cafe
341f
0000
0000
0000
cafe
381f
0000
0000
0000
cafe
3c1f
0000
0000
000d
cafe
201f
0000
0000
0031
cafe
241f
0000
0000
004a
cafe
281f
0000
0000
005d
cafe
2c1f
0000
0000
0073
cafe
301f
0000
0000
008d
cafe
341f
0000
0000
009d
cafe
381f
0000
0000
00ad
cafe
3c1f
0000
0000
00c0
cafe
201f
0000
0000
00cd
cafe
241f
0000
0000
00e0
cafe
281f
0000
0000
00e9
cafe
2c1f
0000
0000
00f3
cafe
301f
0000
0000
0103
cafe
341f
0000
0000
010a
cafe
381f
0000
0000
011a
cafe
3c1f
0000
0000
0126
cafe
201f
0000
0000
0132
cafe
241f
0000
0000
0133
cafe
281f
0000
0000
013b
cafe
2c1f
0000
0000
0142
cafe
301f
0000
0000
0142
cafe
341f
0000
0000
014a
cafe
381f
0000
0000
014c
cafe
3c1f
0000
0000
014f
cafe
201f
0000
0000
0157
cafe
241f
0000
0000
015a
cafe
281f
0000
0000
015e
cafe
2c1f
0000
0000
015e
cafe
301f
0000
0000
-
015c
cafe
341f
0000
0000
0160
cafe
381f
0000
0000
0164
cafe
3c1f
0000
0000
0174
cafe
201f
0000
0000
017f
cafe
241f
0000
0000
0183
cafe
281f
0000
0000
017f
cafe
2c1f
0000
0000
0188
cafe
301f
0000
0000
0191
cafe
341f
0000
0000
0192
cafe
381f
0000
0000
019c
cafe
3c1f
0000
0000
01a0
cafe
201f
0000
0000
019f
cafe
241f
0000
0000
019d
cafe
281f
0000
0000
019c
cafe
2c1f
0000
0000
019d
cafe
301f
0000
0000
0196
cafe
341f
0000
0000
0194
cafe
381f
0000
0000
0198
cafe
3c1f
0000
0000
0191
cafe
201f
0000
0000
0193
cafe
241f
0000
0000
018b
cafe
281f
0000
0000
018d
cafe
2c1f
0000
0000
018e
cafe
301f
0000
0000
0198
cafe
341f
0000
0000
0191
cafe
381f
0000
0000
0191
cafe
3c1f
0000
0000
0187
cafe
201f
0000
0000
018f
cafe
241f
0000
0000
0191
cafe
281f
0000
0000
0192
cafe
2c1f
0000
0000
019d
cafe
301f
0000
0000
019a
cafe
341f
0000
0000
019a
cafe
381f
0000
0000
019d
cafe
3c1f
0000
0000
019d
cafe
201f
0000
0000
019e
cafe
241f
0000
0000
01a0
cafe
281f
0000
0000
01a0
cafe
2c1f
0000
0000
0199
cafe
301f
0000
0000
01a1
cafe
341f
0000
0000
019d
cafe
381f
0000
0000
0198
cafe
3c1f
0000
0000
019a
cafe
201f
0000
0000
019b
cafe
241f
0000
0000
019e
cafe
281f
0000
0000
01a1
cafe
2c1f
0000
0000
01a8
cafe
301f
0000
0000
01b0
cafe
341f
0000
0000
01a7
cafe
381f
0000
0000
01a9
cafe
3c1f
0000
0000
01a9
-
cafe
201f
0000
0000
01a0
cafe
241f
0000
0000
01a6
cafe
281f
0000
0000
01a3
cafe
2c1f
0000
0000
019f
cafe
301f
0000
0000
01a1
cafe
341f
0000
0000
019a
cafe
381f
0000
0000
0190
cafe
3c1f
0000
0000
0195
cafe
201f
0000
0000
0191
cafe
241f
0000
0000
0194
cafe
281f
0000
0000
018f
cafe
2c1f
0000
0000
0191
cafe
301f
0000
0000
0188
cafe
341f
0000
0000
0184
cafe
381f
0000
0000
018b
cafe
3c1f
0000
0000
0190
cafe
201f
0000
0000
0195
cafe
241f
0000
0000
0193
cafe
281f
0000
0000
019d
cafe
2c1f
0000
0000
0198
cafe
301f
0000
0000
019d
cafe
341f
0000
0000
019c
cafe
381f
0000
0000
01a7
cafe
3c1f
0000
0000
01a9
cafe
201f
0000
0000
01af
cafe
241f
0000
0000
01a5
cafe
281f
0000
0000
01a6
cafe
2c1f
0000
0000
01a4
cafe
301f
0000
0000
01a9
cafe
341f
0000
0000
01a2
cafe
381f
0000
0000
01a2
cafe
3c1f
0000
0000
019e
cafe
201f
0000
0000
0197
cafe
241f
0000
0000
01a2
cafe
281f
0000
0000
0197
cafe
2c1f
0000
0000
0197
cafe
301f
0000
0000
0190
cafe
341f
0000
0000
018e
cafe
381f
0000
0000
0188
cafe
3c1f
0000
0000
0189
cafe
201f
0000
0000
0188
cafe
241f
0000
0000
0188
cafe
281f
0000
0000
0182
cafe
2c1f
0000
0000
018f
cafe
301f
0000
0000
018f
cafe
341f
0000
0000
018c
cafe
381f
0000
0000
018b
cafe
3c1f
0000
0000
0189
cafe
201f
0000
0000
018f
cafe
241f
0000
0000
0196
cafe
281f
0000
0000
0190
cafe
-
2c1f
0000
0000
018f
cafe
301f
0000
0000
0190
cafe
341f
0000
0000
0195
cafe
381f
0000
0000
019d
cafe
3c1f
0000
0000
019c
cafe
201f
0000
0000
0197
cafe
241f
0000
0000
019b
cafe
281f
0000
0000
019d
cafe
2c1f
0000
0000
019b
cafe
301f
0000
0000
019d
cafe
341f
0000
0000
019f
cafe
381f
0000
0000
0199
cafe
3c1f
0000
0000
0195
cafe
201f
0000
0000
0189
cafe
241f
0000
0000
0189
cafe
281f
0000
0000
017d
cafe
2c1f
0000
0000
0176
cafe
301f
0000
0000
017f
cafe
341f
0000
0000
0188
cafe
381f
0000
0000
018e
cafe
3c1f
0000
0000
018e
cafe
201f
0000
0000
0190
cafe
241f
0000
0000
0194
cafe
281f
0000
0000
0199
cafe
2c1f
0000
0000
0199
cafe
301f
0000
0000
019b
cafe
341f
0000
0000
019f
cafe
381f
0000
0000
01a3
cafe
3c1f
0000
0000
019b
cafe
201f
0000
0000
0194
cafe
241f
0000
0000
018d
cafe
281f
0000
0000
0187
cafe
2c1f
0000
0000
0179
cafe
301f
0000
0000
0175
cafe
341f
0000
0000
0172
cafe
381f
0000
0000
016b
cafe
3c1f
0000
0000
016f
cafe
201f
0000
0000
0170
cafe
241f
0000
0000
0174
cafe
281f
0000
0000
0171
cafe
2c1f
0000
0000
0174
cafe
301f
0000
0000
0175
cafe
341f
0000
0000
017a
cafe
381f
0000
0000
0179
cafe
3c1f
0000
0000
0179
cafe
201f
0000
0000
0184
cafe
241f
0000
0000
0180
cafe
281f
0000
0000
0188
cafe
2c1f
0000
0000
018e
cafe
301f
0000
0000
0194
cafe
341f
0000
0000
0198
cafe
381f
-
0000
0000
0194
cafe
3c1f
0000
0000
0194
cafe
201f
0000
0000
0193
cafe
241f
0000
0000
0193
cafe
281f
0000
0000
018f
cafe
2c1f
0000
0000
018e
cafe
301f
0000
0000
0186
cafe
341f
0000
0000
0189
cafe
381f
0000
0000
0184
cafe
3c1f
0000
0000
0187
cafe
201f
0000
0000
0185
cafe
241f
0000
0000
0186
cafe
281f
0000
0000
018a
cafe
2c1f
0000
0000
0187
cafe
301f
0000
0000
017e
cafe
341f
0000
0000
0176
cafe
381f
0000
0000
0176
cafe
3c1f
0000
0000
0179
cafe
201f
0000
0000
0170
cafe
241f
0000
0000
0171
cafe
281f
0000
0000
0174
cafe
2c1f
0000
0000
0178
cafe
301f
0000
0000
0179
cafe
341f
0000
0000
017e
cafe
381f
0000
0000
0177
cafe
3c1f
0000
0000
0176
cafe
201f
0000
0000
017d
cafe
241f
0000
0000
0180
cafe
281f
0000
0000
0185
cafe
2c1f
0000
0000
0187
cafe
301f
0000
0000
0181
cafe
341f
0000
0000
0183
cafe
381f
0000
0000
0189
cafe
3c1f
0000
0000
0186
cafe
201f
0000
0000
018a
cafe
241f
0000
0000
0184
cafe
281f
0000
0000
0182
cafe
2c1f
0000
0000
0181
cafe
301f
0000
0000
0184
cafe
341f
0000
0000
0182
cafe
381f
0000
0000
017d
cafe
3c1f
0000
0000
0177
cafe
201f
0000
0000
017b
cafe
241f
0000
0000
0178
cafe
281f
0000
0000
0176
cafe
2c1f
0000
0000
0178
cafe
301f
0000
0000
0178
cafe
341f
0000
0000
0176
cafe
381f
0000
0000
0174
cafe
3c1f
0000
0000
0176
cafe
201f
0000
0000
0170
cafe
241f
0000
-
0000
0173
cafe
281f
0000
0000
0175
cafe
2c1f
0000
0000
0179
cafe
301f
0000
0000
0173
cafe
341f
0000
0000
0177
cafe
381f
0000
0000
0173
cafe
3c1f
0000
0000
0171
cafe
201f
0000
0000
016b
cafe
241f
0000
0000
016e
cafe
281f
0000
0000
0172
cafe
2c1f
0000
0000
0173
cafe
301f
0000
0000
0177
cafe
341f
0000
0000
017f
cafe
381f
0000
0000
0182
cafe
3c1f
0000
0000
017d
cafe
201f
0000
0000
017f
cafe
241f
0000
0000
0174
cafe
281f
0000
0000
0179
cafe
2c1f
0000
0000
0176
cafe
301f
0000
0000
0174
cafe
341f
0000
0000
0172
cafe
381f
0000
0000
0171
cafe
3c1f
0000
0000
0176
cafe
201f
0000
0000
016e
cafe
241f
0000
0000
0167
cafe
281f
0000
0000
0161
cafe
2c1f
0000
0000
0168
cafe
301f
0000
0000
0169
cafe
341f
0000
0000
0175
cafe
381f
0000
0000
017a
cafe
3c1f
0000
0000
0176
cafe
201f
0000
0000
017a
cafe
241f
0000
0000
017c
cafe
281f
0000
0000
0181
cafe
2c1f
0000
0000
017e
cafe
301f
0000
0000
017c
cafe
341f
0000
0000
017b
cafe
381f
0000
0000
0178
cafe
3c1f
0000
0000
017b
cafe
201f
0000
0000
017e
cafe
241f
0000
0000
017c
cafe
281f
0000
0000
0178
cafe
2c1f
0000
0000
0173
cafe
301f
0000
0000
0172
cafe
341f
0000
0000
0176
cafe
381f
0000
0000
0170
cafe
3c1f
0000
0000
016a
cafe
201f
0000
0000
016b
cafe
241f
0000
0000
0168
cafe
281f
0000
0000
016f
cafe
2c1f
0000
0000
0169
cafe
301f
0000
0000
-
0160
cafe
341f
0000
0000
015b
cafe
381f
0000
0000
015a
cafe
3c1f
0000
0000
0156
cafe
201f
0000
0000
0152
cafe
241f
0000
0000
0153
cafe
281f
0000
0000
0157
cafe
2c1f
0000
0000
0155
cafe
301f
0000
0000
0150
cafe
341f
0000
0000
0158
cafe
381f
0000
0000
0161
cafe
3c1f
0000
0000
015d
cafe
201f
0000
0000
0167
cafe
241f
0000
0000
0160
cafe
281f
0000
0000
0165
cafe
2c1f
0000
0000
016a
cafe
301f
0000
0000
0161
cafe
341f
0000
0000
0165
cafe
381f
0000
0000
016d
cafe
3c1f
0000
0000
017b
cafe
201f
0000
0000
0177
cafe
241f
0000
0000
0179
cafe
281f
0000
0000
017e
cafe
2c1f
0000
0000
0180
cafe
301f
0000
0000
0179
cafe
341f
0000
0000
017e
cafe
381f
0000
0000
017c
cafe
3c1f
0000
0000
0173
cafe
201f
0000
0000
0173
cafe
241f
0000
0000
0171
cafe
281f
0000
0000
016a
cafe
2c1f
0000
0000
016b
cafe
301f
0000
0000
016e
cafe
341f
0000
0000
0165
cafe
381f
0000
0000
0161
cafe
3c1f
0000
0000
0161
cafe
201f
0000
0000
016a
cafe
241f
0000
0000
016e
cafe
281f
0000
0000
016d
cafe
2c1f
0000
0000
0176
cafe
301f
0000
0000
0170
cafe
341f
0000
0000
016e
cafe
381f
0000
0000
0172
cafe
3c1f
0000
0000
0174
cafe
201f
0000
0000
016e
cafe
241f
0000
0000
0170
cafe
281f
0000
0000
0171
cafe
2c1f
0000
0000
016a
cafe
301f
0000
0000
0171
cafe
341f
0000
0000
0175
cafe
381f
0000
0000
0176
cafe
3c1f
0000
0000
0183
-
cafe
201f
0000
0000
0186
cafe
241f
0000
0000
018a
cafe
281f
0000
0000
018a
cafe
2c1f
0000
0000
018b
cafe
301f
0000
0000
0192
cafe
341f
0000
0000
0192
cafe
381f
0000
0000
018e
cafe
3c1f
0000
0000
018e
cafe
201f
0000
0000
018b
cafe
241f
0000
0000
0181
cafe
281f
0000
0000
0178
cafe
2c1f
0000
0000
0177
cafe
301f
0000
0000
0174
cafe
341f
0000
0000
016b
cafe
381f
0000
0000
0161
cafe
3c1f
0000
0000
015f
cafe
201f
0000
0000
0160
cafe
241f
0000
0000
0160
cafe
281f
0000
0000
016d
cafe
2c1f
0000
0000
016f
cafe
301f
0000
0000
016c
cafe
341f
0000
0000
0166
cafe
381f
0000
0000
016e
cafe
3c1f
0000
0000
0171
cafe
201f
0000
0000
0177
cafe
241f
0000
0000
017f
cafe
281f
0000
0000
0178
cafe
2c1f
0000
0000
017d
cafe
301f
0000
0000
017a
cafe
341f
0000
0000
017c
cafe
381f
0000
0000
017c
cafe
3c1f
0000
0000
017f
cafe
201f
0000
0000
0185
cafe
241f
0000
0000
0182
cafe
281f
0000
0000
017f
cafe
2c1f
0000
0000
0179
cafe
301f
0000
0000
0171
cafe
341f
0000
0000
016e
cafe
381f
0000
0000
0165
cafe
3c1f
0000
0000
0167
cafe
201f
0000
0000
016b
cafe
241f
0000
0000
0167
cafe
281f
0000
0000
016d
cafe
2c1f
0000
0000
016c
cafe
301f
0000
0000
0174
cafe
341f
0000
0000
0174
cafe
381f
0000
0000
0176
cafe
3c1f
0000
0000
0176
cafe
201f
0000
0000
0179
cafe
241f
0000
0000
0172
cafe
281f
0000
0000
017a
cafe
-
2c1f
0000
0000
0173
cafe
301f
0000
0000
0171
cafe
341f
0000
0000
016f
cafe
381f
0000
0000
0175
cafe
3c1f
0000
0000
017b
cafe
201f
0000
0000
0177
cafe
241f
0000
0000
0172
cafe
281f
0000
0000
0171
cafe
2c1f
0000
0000
0176
cafe
301f
0000
0000
0178
cafe
341f
0000
0000
016e
cafe
381f
0000
0000
016e
cafe
3c1f
0000
0000
016d
cafe
201f
0000
0000
0172
cafe
241f
0000
0000
0172
cafe
281f
0000
0000
016f
cafe
2c1f
0000
0000
016c
cafe
301f
0000
0000
016d
cafe
341f
0000
0000
0173
cafe
381f
0000
0000
0175
cafe
3c1f
0000
0000
017d
cafe
201f
0000
0000
017a
cafe
241f
0000
0000
017a
cafe
281f
0000
0000
017a
cafe
2c1f
0000
0000
0175
cafe
301f
0000
0000
017b
cafe
341f
0000
0000
0182
cafe
381f
0000
0000
0178
cafe
3c1f
0000
0000
0175
cafe
201f
0000
0000
0178
cafe
241f
0000
0000
0170
cafe
281f
0000
0000
0177
cafe
2c1f
0000
0000
016e
cafe
301f
0000
0000
0170
cafe
341f
0000
0000
017d
cafe
381f
0000
0000
017d
cafe
3c1f
0000
0000
0170
cafe
201f
0000
0000
016c
cafe
241f
0000
0000
016d
cafe
281f
0000
0000
0172
cafe
2c1f
0000
0000
016a
cafe
301f
0000
0000
0169
cafe
341f
0000
0000
016d
cafe
381f
0000
0000
016c
cafe
3c1f
0000
0000
0170
cafe
201f
0000
0000
016e
cafe
241f
0000
0000
0175
cafe
281f
0000
0000
0176
cafe
2c1f
0000
0000
0174
cafe
301f
0000
0000
0177
cafe
341f
0000
0000
017a
cafe
381f
-
0000
0000
017d
cafe
3c1f
0000
0000
0183
cafe
201f
0000
0000
017d
cafe
241f
0000
0000
0175
cafe
281f
0000
0000
0173
cafe
2c1f
0000
0000
0171
cafe
301f
0000
0000
016e
cafe
341f
0000
0000
016b
cafe
381f
0000
0000
016a
cafe
3c1f
0000
0000
0174
cafe
201f
0000
0000
016e
cafe
241f
0000
0000
0174
cafe
281f
0000
0000
0172
cafe
2c1f
0000
0000
016e
cafe
301f
0000
0000
017c
cafe
341f
0000
0000
0176
cafe
381f
0000
0000
0176
cafe
3c1f
0000
0000
0181
cafe
201f
0000
0000
0182
cafe
241f
0000
0000
017e
cafe
281f
0000
0000
0188
cafe
2c1f
0000
0000
017f
cafe
301f
0000
0000
017f
cafe
341f
0000
0000
0182
cafe
381f
0000
0000
0187
cafe
3c1f
0000
0000
0184
cafe
201f
0000
0000
0185
cafe
241f
0000
0000
0185
cafe
281f
0000
0000
0188
cafe
2c1f
0000
0000
0189
cafe
301f
0000
0000
0192
cafe
341f
0000
0000
018d
cafe
381f
0000
0000
0190
cafe
3c1f
0000
0000
0185
cafe
201f
0000
0000
0181
cafe
241f
0000
0000
017f
cafe
281f
0000
0000
0178
cafe
2c1f
0000
0000
0176
cafe
301f
0000
0000
0176
cafe
341f
0000
0000
0179
cafe
381f
0000
0000
0178
cafe
3c1f
0000
0000
0178
cafe
201f
0000
0000
0178
cafe
241f
0000
0000
017d
cafe
281f
0000
0000
0183
cafe
2c1f
0000
0000
017a
cafe
301f
0000
0000
0178
cafe
341f
0000
0000
0175
cafe
381f
0000
0000
016a
cafe
3c1f
0000
0000
016c
cafe
201f
0000
0000
0173
cafe
241f
0000
-
0000
0170
cafe
281f
0000
0000
016b
cafe
2c1f
0000
0000
0173
cafe
301f
0000
0000
0171
cafe
341f
0000
0000
016e
cafe
381f
0000
0000
016f
cafe
3c1f
0000
0000
016c
cafe
201f
0000
0000
016f
cafe
241f
0000
0000
0177
cafe
281f
0000
0000
0179
cafe
2c1f
0000
0000
016e
cafe
301f
0000
0000
0169
cafe
341f
0000
0000
016c
cafe
381f
0000
0000
016d
cafe
3c1f
0000
0000
016b
cafe
201f
0000
0000
0169
cafe
241f
0000
0000
0167
cafe
281f
0000
0000
0172
cafe
2c1f
0000
0000
0172
cafe
301f
0000
0000
0170
cafe
341f
0000
0000
016d
cafe
381f
0000
0000
0174
cafe
3c1f
0000
0000
0171
cafe
201f
0000
0000
0179
cafe
241f
0000
0000
017f
cafe
281f
0000
0000
0188
cafe
2c1f
0000
0000
0184
cafe
301f
0000
0000
0182
cafe
341f
0000
0000
018a
cafe
381f
0000
0000
018f
cafe
3c1f
0000
0000
0187
cafe
201f
0000
0000
0177
cafe
241f
0000
0000
0176
cafe
281f
0000
0000
0174
cafe
2c1f
0000
0000
0175
cafe
301f
0000
0000
017b
cafe
341f
0000
0000
0176
cafe
381f
0000
0000
017f
cafe
3c1f
0000
0000
0181
cafe
201f
0000
0000
0181
cafe
241f
0000
0000
018c
cafe
281f
0000
0000
018c
cafe
2c1f
0000
0000
018a
cafe
301f
0000
0000
018e
cafe
341f
0000
0000
018a
cafe
381f
0000
0000
018f
cafe
3c1f
0000
0000
018d
cafe
201f
0000
0000
0188
cafe
241f
0000
0000
0180
cafe
281f
0000
0000
0183
cafe
2c1f
0000
0000
017e
cafe
301f
0000
0000
-
0177
cafe
341f
0000
0000
0178
cafe
381f
0000
0000
0175
cafe
3c1f
0000
0000
0176
cafe
201f
0000
0000
0173
cafe
241f
0000
0000
016d
cafe
281f
0000
0000
0170
cafe
2c1f
0000
0000
0178
cafe
301f
0000
0000
017e
cafe
341f
0000
0000
0178
cafe
381f
0000
0000
0175
cafe
3c1f
0000
0000
017b
cafe
201f
0000
0000
017b
cafe
241f
0000
0000
017e
cafe
281f
0000
0000
0177
cafe
2c1f
0000
0000
0177
cafe
301f
0000
0000
0172
cafe
341f
0000
0000
0176
cafe
381f
0000
0000
0175
cafe
3c1f
0000
0000
0177
cafe
201f
0000
0000
016f
cafe
241f
0000
0000
0173
cafe
281f
0000
0000
0173
cafe
2c1f
0000
0000
017d
cafe
301f
0000
0000
0177
cafe
341f
0000
0000
0174
cafe
381f
0000
0000
0177
cafe
3c1f
0000
0000
0176
cafe
201f
0000
0000
0171
cafe
241f
0000
0000
0171
cafe
281f
0000
0000
0171
cafe
2c1f
0000
0000
0171
cafe
301f
0000
0000
016b
cafe
341f
0000
0000
0165
cafe
381f
0000
0000
0164
cafe
3c1f
0000
0000
016b
cafe
201f
0000
0000
015e
cafe
241f
0000
0000
0162
cafe
281f
0000
0000
0166
cafe
2c1f
0000
0000
0167
cafe
301f
0000
0000
016c
cafe
341f
0000
0000
0170
cafe
381f
0000
0000
016c
cafe
3c1f
0000
0000
0173
cafe
201f
0000
0000
0172
cafe
241f
0000
0000
016d
cafe
281f
0000
0000
016b
cafe
2c1f
0000
0000
0168
cafe
301f
0000
0000
0167
cafe
341f
0000
0000
0169
cafe
381f
0000
0000
0165
cafe
3c1f
0000
0000
0160
-
cafe
201f
0000
0000
0160
cafe
241f
0000
0000
015f
cafe
281f
0000
0000
015b
cafe
2c1f
0000
0000
0160
cafe
301f
0000
0000
015e
cafe
341f
0000
0000
015f
cafe
381f
0000
0000
016c
cafe
3c1f
0000
0000
0175
cafe
201f
0000
0000
0175
cafe
241f
0000
0000
0176
cafe
281f
0000
0000
0179
cafe
2c1f
0000
0000
0177
cafe
301f
0000
0000
0176
cafe
341f
0000
0000
0176
cafe
381f
0000
0000
0173
cafe
3c1f
0000
0000
016f
cafe
201f
0000
0000
0162
cafe
241f
0000
0000
0160
cafe
281f
0000
0000
015e
cafe
2c1f
0000
0000
0165
cafe
301f
0000
0000
0161
cafe
341f
0000
0000
016d
cafe
381f
0000
0000
0171
cafe
3c1f
0000
0000
0178
cafe
201f
0000
0000
0175
cafe
241f
0000
0000
017e
cafe
281f
0000
0000
017e
cafe
2c1f
0000
0000
0181
cafe
301f
0000
0000
017e
cafe
341f
0000
0000
0179
cafe
381f
0000
0000
017f
cafe
3c1f
0000
0000
017d
cafe
201f
0000
0000
0180
cafe
241f
0000
0000
017d
cafe
281f
0000
0000
017c
cafe
2c1f
0000
0000
0181
cafe
301f
0000
0000
017e
cafe
341f
0000
0000
0181
cafe
381f
0000
0000
0179
cafe
3c1f
0000
0000
0180
cafe
201f
0000
0000
0180
cafe
241f
0000
0000
0178
cafe
281f
0000
0000
0172
cafe
2c1f
0000
0000
016b
cafe
301f
0000
0000
0163
cafe
341f
0000
0000
0165
cafe
381f
0000
0000
0162
cafe
3c1f
0000
0000
0166
cafe
201f
0000
0000
016d
cafe
241f
0000
0000
0165
cafe
281f
0000
0000
0166
cafe
-
2c1f
0000
0000
0166
cafe
301f
0000
0000
016a
cafe
341f
0000
0000
016d
cafe
381f
0000
0000
0166
cafe
3c1f
0000
0000
016a
cafe
201f
0000
0000
016d
cafe
241f
0000
0000
016c
cafe
281f
0000
0000
016a
cafe
2c1f
0000
0000
016b
cafe
301f
0000
0000
016b
cafe
341f
0000
0000
0167
cafe
381f
0000
0000
015d
cafe
3c1f
0000
0000
015b
cafe
201f
0000
0000
0160
cafe
241f
0000
0000
015d
cafe
281f
0000
0000
0161
cafe
2c1f
0000
0000
016a
cafe
301f
0000
0000
0169
cafe
341f
0000
0000
0174
cafe
381f
0000
0000
0174
cafe
3c1f
0000
0000
0178
cafe
201f
0000
0000
0174
cafe
241f
0000
0000
0173
cafe
281f
0000
0000
0178
cafe
2c1f
0000
0000
017b
cafe
301f
0000
0000
017d
cafe
341f
0000
0000
017d
cafe
381f
0000
0000
017e
cafe
3c1f
0000
0000
017d
cafe
201f
0000
0000
0178
cafe
241f
0000
0000
0179
cafe
281f
0000
0000
0177
cafe
2c1f
0000
0000
0175
cafe
301f
0000
0000
016e
cafe
341f
0000
0000
0169
cafe
381f
0000
0000
0164
cafe
3c1f
0000
0000
015f
cafe
201f
0000
0000
015b
cafe
241f
0000
0000
015e
cafe
281f
0000
0000
0162
cafe
2c1f
0000
0000
0162
cafe
301f
0000
0000
0167
cafe
341f
0000
0000
016e
cafe
381f
0000
0000
0174
cafe
3c1f
0000
0000
0178
cafe
201f
0000
0000
017c
cafe
241f
0000
0000
017a
cafe
281f
0000
0000
0181
cafe
2c1f
0000
0000
018c
cafe
301f
0000
0000
018e
cafe
341f
0000
0000
0192
cafe
381f
-
0000
0000
0192
cafe
3c1f
0000
0000
0189
cafe
201f
0000
0000
018c
cafe
241f
0000
0000
017f
cafe
281f
0000
0000
017b
cafe
2c1f
0000
0000
0172
cafe
301f
0000
0000
016a
cafe
341f
0000
0000
0165
cafe
381f
0000
0000
0169
cafe
3c1f
0000
0000
0164
cafe
201f
0000
0000
0164
cafe
241f
0000
0000
016e
cafe
281f
0000
0000
016e
cafe
2c1f
0000
0000
0173
cafe
301f
0000
0000
0179
cafe
341f
0000
0000
016e
cafe
381f
0000
0000
0171
cafe
3c1f
0000
0000
016c
cafe
201f
0000
0000
0175
cafe
241f
0000
0000
016f
cafe
281f
0000
0000
0179
cafe
2c1f
0000
0000
0174
cafe
301f
0000
0000
0173
cafe
341f
0000
0000
0170
cafe
381f
0000
0000
0172
cafe
3c1f
0000
0000
0174
cafe
201f
0000
0000
0177
cafe
241f
0000
0000
0180
cafe
281f
0000
0000
017c
cafe
2c1f
0000
0000
0180
cafe
301f
0000
0000
0183
cafe
341f
0000
0000
0184
cafe
381f
0000
0000
0185
cafe
3c1f
0000
0000
0189
cafe
201f
0000
0000
0183
cafe
241f
0000
0000
017d
cafe
281f
0000
0000
0178
cafe
2c1f
0000
0000
016d
cafe
301f
0000
0000
016b
cafe
341f
0000
0000
0166
cafe
381f
0000
0000
0167
cafe
3c1f
0000
0000
016b
cafe
201f
0000
0000
0170
cafe
241f
0000
0000
016a
cafe
281f
0000
0000
016a
cafe
2c1f
0000
0000
0166
cafe
301f
0000
0000
0165
cafe
341f
0000
0000
0161
cafe
381f
0000
0000
0166
cafe
3c1f
0000
0000
016b
cafe
201f
0000
0000
0172
cafe
241f
0000
-
0000
016f
cafe
281f
0000
0000
016f
cafe
2c1f
0000
0000
0175
cafe
301f
0000
0000
017e
cafe
341f
0000
0000
0182
cafe
381f
0000
0000
018a
cafe
3c1f
0000
0000
0194
cafe
201f
0000
0000
0198
cafe
241f
0000
0000
01a0
cafe
281f
0000
0000
019a
cafe
2c1f
0000
0000
019a
cafe
301f
0000
0000
019d
cafe
341f
0000
0000
0192
cafe
381f
0000
0000
018f
cafe
3c1f
0000
0000
018d
cafe
201f
0000
0000
0187
cafe
241f
0000
0000
0184
cafe
281f
0000
0000
017b
cafe
2c1f
0000
0000
0178
cafe
301f
0000
0000
017d
cafe
341f
0000
0000
0175
cafe
381f
0000
0000
016e
cafe
3c1f
0000
0000
0169
cafe
201f
0000
0000
0169
cafe
241f
0000
0000
0166
cafe
281f
0000
0000
0167
cafe
2c1f
0000
0000
0165
cafe
301f
0000
0000
0166
cafe
341f
0000
0000
0161
cafe
381f
0000
0000
015e
cafe
3c1f
0000
0000
0159
cafe
201f
0000
0000
0162
cafe
241f
0000
0000
015f
cafe
281f
0000
0000
0166
cafe
2c1f
0000
0000
0169
cafe
301f
0000
0000
0178
cafe
341f
0000
0000
0179
cafe
381f
0000
0000
017b
cafe
3c1f
0000
0000
0172
cafe
201f
0000
0000
017a
cafe
241f
0000
0000
0186
cafe
281f
0000
0000
0183
cafe
2c1f
0000
0000
0186
cafe
301f
0000
0000
0186
cafe
341f
0000
0000
0180
cafe
381f
0000
0000
0181
cafe
3c1f
0000
0000
0187
cafe
201f
0000
0000
017d
cafe
241f
0000
0000
017e
cafe
281f
0000
0000
0171
cafe
2c1f
0000
0000
0166
cafe
301f
0000
0000
-
0166
cafe
341f
0000
0000
0165
cafe
381f
0000
0000
0159
cafe
3c1f
0000
0000
0157
cafe
201f
0000
0000
015b
cafe
241f
0000
0000
0154
cafe
281f
0000
0000
0153
cafe
2c1f
0000
0000
014f
cafe
301f
0000
0000
0153
cafe
341f
0000
0000
0159
cafe
381f
0000
0000
0151
cafe
3c1f
0000
0000
0156
cafe
201f
0000
0000
015a
cafe
241f
0000
0000
0162
cafe
281f
0000
0000
0168
cafe
2c1f
0000
0000
016a
cafe
301f
0000
0000
0169
cafe
341f
0000
0000
016d
cafe
381f
0000
0000
0171
cafe
3c1f
0000
0000
016c
cafe
201f
0000
0000
015f
cafe
241f
0000
0000
015f
cafe
281f
0000
0000
015e
cafe
2c1f
0000
0000
015b
cafe
301f
0000
0000
015c
cafe
341f
0000
0000
015f
cafe
381f
0000
0000
015e
cafe
3c1f
0000
0000
0164
cafe
201f
0000
0000
0171
cafe
241f
0000
0000
016b
cafe
281f
0000
0000
0166
cafe
2c1f
0000
0000
0162
cafe
301f
0000
0000
016b
cafe
341f
0000
0000
0165
cafe
381f
0000
0000
016e
cafe
3c1f
0000
0000
0163
cafe
201f
0000
0000
0160
cafe
241f
0000
0000
0161
cafe
281f
0000
0000
0168
cafe
2c1f
0000
0000
0164
cafe
301f
0000
0000
016a
cafe
341f
0000
0000
0170
cafe
381f
0000
0000
016d
cafe
3c1f
0000
0000
016e
cafe
201f
0000
0000
017a
cafe
241f
0000
0000
0172
cafe
281f
0000
0000
016d
cafe
2c1f
0000
0000
016c
cafe
301f
0000
0000
016b
cafe
341f
0000
0000
016e
cafe
381f
0000
0000
0171
cafe
3c1f
0000
0000
0174
-
