2c13
0000
0000
0000
cafe
300c
0000
0000
0000
cafe
341c
0000
0000
0000
cafe
3804
0000
0000
0000
cafe
3c14
0000
0000
0000
cafe
200d
0000
0000
0000
cafe
241d
0000
0000
0000
cafe
2805
0000
0000
0000
cafe
2c15
0000
0000
0000
cafe
300e
0000
0000
0000
cafe
341e
0000
0000
0000
cafe
3806
0000
0000
0000
cafe
3c16
0000
0000
0000
cafe
200f
0000
0000
0000
cafe
241f
0000
0000
0000
cafe
2807
0000
0000
0000
cafe
2c17
0000
0000
0000
cafe
3008
0000
0000
0000
cafe
3418
0000
0000
0000
cafe
3800
0000
0000
0000
cafe
3c10
0000
0000
0000
cafe
2009
0000
0000
0000
cafe
2419
0000
0000
0000
cafe
2801
0000
0000
0000
cafe
2c11
0000
0000
0000
cafe
300a
0000
0000
0000
cafe
341a
0000
0000
0000
cafe
3802
0000
0000
0000
cafe
3c12
0000
0000
0000
cafe
200b
0000
0000
0000
cafe
241b
0000
0000
0000
cafe
2803
0000
0000
0000
cafe
2c13
0000
0000
0000
cafe
300c
0000
0000
0000
cafe
341c
0000
0000
0000
cafe
3804
0000
0000
0000
cafe
3c14
0000
0000
0000
cafe
200d
0000
0000
0000
cafe
241d
0000
0000
0000
cafe
2805
0000
0000
0000
cafe
2c15
0000
0000
0000
cafe
300e
0000
0000
0000
cafe
341e
0000
0000
0000
cafe
3806
0000
0000
0000
cafe
3c16
0000
0000
0000
cafe
200f
0000
0000
0000
cafe
241f
0000
0000
0000
cafe
2807
0000
0000
0000
cafe
2c17
0000
0000
0000
cafe
3008
0000
0000
0000
cafe
3418
0000
0000
0000
cafe
3800
-
0000
0000
0000
cafe
3c10
0000
0000
0000
cafe
2009
0000
0000
0000
cafe
2419
0000
0000
0000
cafe
2801
0000
0000
0000
cafe
2c11
0000
0000
0000
cafe
300a
0000
0000
0000
cafe
341a
0000
0000
0000
cafe
3802
0000
0000
0000
cafe
3c12
0000
0000
0000
cafe
200b
0000
0000
0000
cafe
241b
0000
0000
0000
cafe
2803
0000
0000
0000
cafe
2c13
0000
0000
0000
cafe
300c
0000
0000
0000
cafe
341c
0000
0000
0000
cafe
3804
0000
0000
0000
cafe
3c14
0000
0000
0000
cafe
200d
0000
0000
0000
cafe
241d
0000
0000
0000
cafe
2805
0000
0000
0000
cafe
2c15
0000
0000
0000
cafe
300e
0000
0000
0000
cafe
341e
0000
0000
0000
cafe
3806
0000
0000
0000
cafe
3c16
0000
0000
0000
cafe
200f
0000
0000
0000
cafe
241f
0000
0000
0000
cafe
2807
0000
0000
0000
cafe
2c17
0000
0000
0000
cafe
3008
0000
0000
0000
cafe
3418
0000
0000
0000
cafe
3800
0000
0000
0000
cafe
3c10
0000
0000
0000
cafe
2009
0000
0000
0000
cafe
2419
0000
0000
0000
cafe
2801
0000
0000
0000
cafe
2c11
0000
0000
0000
cafe
300a
0000
0000
0000
cafe
341a
0000
0000
0000
cafe
3802
0000
0000
0000
cafe
3c12
0000
0000
0000
cafe
200b
0000
0000
0000
cafe
241b
0000
0000
0000
cafe
2803
0000
0000
0000
cafe
2c13
0000
0000
0000
cafe
300c
0000
0000
0000
cafe
341c
0000
0000
0000
cafe
3804
0000
0000
0000
cafe
3c14
0000
0000
0000
cafe
200d
0000
0000
0000
cafe
241d
0000
-
0000
0000
cafe
2805
0000
0000
0000
cafe
2c15
0000
0000
0000
cafe
300e
0000
0000
0000
cafe
341e
0000
0000
0000
cafe
3806
0000
0000
0000
cafe
3c16
0000
0000
0000
cafe
200f
0000
0000
0000
cafe
241f
0000
0000
0000
cafe
2807
0000
0000
0000
cafe
2c17
0000
0000
0000
cafe
3008
0000
0000
0000
cafe
3418
0000
0000
0000
cafe
3800
0000
0000
0000
cafe
3c10
0000
0000
0000
cafe
2009
0000
0000
0000
cafe
2419
0000
0000
0000
cafe
2801
0000
0000
0000
cafe
2c11
0000
0000
0000
cafe
300a
0000
0000
0000
cafe
341a
0000
0000
0000
cafe
3802
0000
0000
0000
cafe
3c12
0000
0000
0000
cafe
200b
0000
0000
0000
cafe
241b
0000
0000
0000
cafe
2803
0000
0000
0000
cafe
2c13
0000
0000
0000
cafe
300c
0000
0000
0000
cafe
341c
0000
0000
0000
cafe
3804
0000
0000
0000
cafe
3c14
0000
0000
0000
cafe
200d
0000
0000
0000
cafe
241d
0000
0000
0000
cafe
2805
0000
0000
0000
cafe
2c15
0000
0000
0000
cafe
300e
0000
0000
0000
cafe
341e
0000
0000
0000
cafe
3806
0000
0000
0000
cafe
3c16
0000
0000
0000
cafe
200f
0000
0000
0000
cafe
241f
0000
0000
0000
cafe
2807
0000
0000
0000
cafe
2c17
0000
0000
0000
cafe
3008
0000
0000
0000
cafe
3418
0000
0000
0000
cafe
3800
0000
0000
0000
cafe
3c10
0000
0000
0000
cafe
2009
0000
0000
0000
cafe
2419
0000
0000
0000
cafe
2801
0000
0000
0000
cafe
2c11
0000
0000
0000
cafe
300a
0000
0000
-
0000
cafe
341a
0000
0000
0000
cafe
3802
0000
0000
0000
cafe
3c12
0000
0000
0000
cafe
200b
0000
0000
0000
cafe
241b
0000
0000
0000
cafe
2803
0000
0000
0000
cafe
2c13
0000
0000
0000
cafe
300c
0000
0000
0000
cafe
341c
0000
0000
0000
cafe
3804
0000
0000
0000
cafe
3c14
0000
0000
0000
cafe
200d
0000
0000
0000
cafe
241d
0000
0000
0000
cafe
2805
0000
0000
0000
cafe
2c15
0000
0000
0000
cafe
300e
0000
0000
0000
cafe
341e
0000
0000
0000
cafe
3806
0000
0000
0000
cafe
3c16
0000
0000
0000
cafe
200f
0000
0000
0000
cafe
241f
0000
0000
0000
cafe
2807
0000
0000
0000
cafe
2c17
0000
0000
0000
cafe
3008
0000
0000
0000
cafe
3418
0000
0000
0000
cafe
3800
0000
0000
0000
cafe
3c10
0000
0000
0000
cafe
2009
0000
0000
0000
cafe
2419
0000
0000
0000
cafe
2801
0000
0000
0000
cafe
2c11
0000
0000
0000
cafe
300a
0000
0000
0000
cafe
341a
0000
0000
0000
cafe
3802
0000
0000
0000
cafe
3c12
0000
0000
0000
cafe
200b
0000
0000
0000
cafe
241b
0000
0000
0000
cafe
2803
0000
0000
0000
cafe
2c13
0000
0000
0000
cafe
300c
0000
0000
0000
cafe
341c
0000
0000
0000
cafe
3804
0000
0000
0000
cafe
3c14
0000
0000
0000
cafe
200d
0000
0000
0000
cafe
241d
0000
0000
0000
cafe
2805
0000
0000
0000
cafe
2c15
0000
0000
0000
cafe
300e
0000
0000
0000
cafe
341e
0000
0000
0000
cafe
3806
0000
0000
0000
cafe
3c16
0000
0000
0000
-
cafe
200f
0000
0000
0000
cafe
241f
0000
0000
0000
cafe
2807
0000
0000
0000
cafe
2c17
0000
0000
0000
cafe
3008
0000
0000
0000
cafe
3418
0000
0000
0000
cafe
3800
0000
0000
0000
cafe
3c10
0000
0000
0000
cafe
2009
0000
0000
0000
cafe
2419
0000
0000
0000
cafe
2801
0000
0000
0000
cafe
2c11
0000
0000
0000
cafe
300a
0000
0000
0000
cafe
341a
0000
0000
0000
cafe
3802
0000
0000
0000
cafe
3c12
0000
0000
0000
cafe
200b
0000
0000
0000
cafe
241b
0000
0000
0000
cafe
2803
0000
0000
0000
cafe
2c13
0000
0000
0000
cafe
300c
0000
0000
0000
cafe
341c
0000
0000
0000
cafe
3804
0000
0000
0000
cafe
3c14
0000
0000
0000
cafe
200d
0000
0000
0000
cafe
241d
0000
0000
0000
cafe
2805
0000
0000
0000
cafe
2c15
0000
0000
0000
cafe
300e
0000
0000
0000
cafe
341e
0000
0000
0000
cafe
3806
0000
0000
0000
cafe
3c16
0000
0000
0000
cafe
200f
0000
0000
0000
cafe
241f
0000
0000
0000
cafe
2807
0000
0000
0000
cafe
2c17
0000
0000
0000
cafe
3008
0000
0000
0000
cafe
3418
0000
0000
0000
cafe
3800
0000
0000
0000
cafe
3c10
0000
0000
0000
cafe
2009
0000
0000
0000
cafe
2419
0000
0000
0000
cafe
2801
0000
0000
0000
cafe
2c11
0000
0000
0000
cafe
300a
0000
0000
0000
cafe
341a
0000
0000
0000
cafe
3802
0000
0000
0000
cafe
3c12
0000
0000
0000
cafe
200b
0000
0000
0000
cafe
241b
0000
0000
0000
cafe
2803
0000
0000
0000
cafe
-
2c13
0000
0000
0000
cafe
300c
0000
0000
0000
cafe
341c
0000
0000
0000
cafe
3804
0000
0000
0000
cafe
3c14
0000
0000
0000
cafe
200d
0000
0000
0000
cafe
241d
0000
0000
0000
cafe
2805
0000
0000
0000
cafe
2c15
0000
0000
0000
cafe
300e
0000
0000
0000
cafe
341e
0000
0000
0000
cafe
3806
0000
0000
0000
cafe
3c16
0000
0000
0000
cafe
200f
0000
0000
0000
cafe
241f
0000
0000
0000
cafe
2807
0000
0000
0000
cafe
2c17
0000
0000
0000
cafe
3008
0000
0000
0000
cafe
3418
0000
0000
0000
cafe
3800
0000
0000
0000
cafe
3c10
0000
0000
0000
cafe
2009
0000
0000
0000
cafe
2419
0000
0000
0000
cafe
2801
0000
0000
0000
cafe
2c11
0000
0000
0000
cafe
300a
0000
0000
0000
cafe
341a
0000
0000
0000
cafe
3802
0000
0000
0000
cafe
3c12
0000
0000
0000
cafe
200b
0000
0000
0000
cafe
241b
0000
0000
0000
cafe
2803
0000
0000
0000
cafe
2c13
0000
0000
0000
cafe
300c
0000
0000
0000
cafe
341c
0000
0000
0000
cafe
3804
0000
0000
0000
cafe
3c14
0000
0000
0000
cafe
200d
0000
0000
0000
cafe
241d
0000
0000
0000
cafe
2805
0000
0000
0000
cafe
2c15
0000
0000
0000
cafe
300e
0000
0000
0000
cafe
341e
0000
0000
0000
cafe
3806
0000
0000
0000
cafe
3c16
0000
0000
0000
cafe
200f
0000
0000
0000
cafe
241f
0000
0000
0000
cafe
2807
0000
0000
0000
cafe
2c17
0000
0000
0000
cafe
3008
0000
0000
0000
cafe
3418
0000
0000
0000
cafe
3800
-
0000
0000
0000
cafe
3c10
0000
0000
0000
cafe
2009
0000
0000
0000
cafe
2419
0000
0000
0000
cafe
2801
0000
0000
0000
cafe
2c11
0000
0000
0000
cafe
300a
0000
0000
0000
cafe
341a
0000
0000
0000
cafe
3802
0000
0000
0000
cafe
3c12
0000
0000
0000
cafe
200b
0000
0000
0000
cafe
241b
0000
0000
0000
cafe
2803
0000
0000
0000
cafe
2c13
0000
0000
0000
cafe
300c
0000
0000
0000
cafe
341c
0000
0000
0000
cafe
3804
0000
0000
0000
cafe
3c14
0000
0000
0000
cafe
200d
0000
0000
0000
cafe
241d
0000
0000
0000
cafe
2805
0000
0000
0000
cafe
2c15
0000
0000
0000
cafe
300e
0000
0000
0000
cafe
341e
0000
0000
0000
cafe
3806
0000
0000
0000
cafe
3c16
0000
0000
0000
cafe
200f
0000
0000
0000
cafe
241f
0000
0000
0000
cafe
2807
0000
0000
0000
cafe
2c17
0000
0000
0000
cafe
3008
0000
0000
0000
cafe
3418
0000
0000
0000
cafe
3800
0000
0000
0000
cafe
3c10
0000
0000
0000
cafe
2009
0000
0000
0000
cafe
2419
0000
0000
0000
cafe
2801
0000
0000
0000
cafe
2c11
0000
0000
0000
cafe
300a
0000
0000
0000
cafe
341a
0000
0000
0000
cafe
3802
0000
0000
0000
cafe
3c12
0000
0000
0000
cafe
200b
0000
0000
0000
cafe
241b
0000
0000
0000
cafe
2803
0000
0000
0000
cafe
2c13
0000
0000
0000
cafe
300c
0000
0000
0000
cafe
341c
0000
0000
0000
cafe
3804
0000
0000
0000
cafe
3c14
0000
0000
0000
cafe
200d
0000
0000
0000
cafe
241d
0000
-
0000
0000
cafe
2805
0000
0000
0000
cafe
2c15
0000
0000
0000
cafe
300e
0000
0000
0000
cafe
341e
0000
0000
0000
cafe
3806
0000
0000
0000
cafe
3c16
0000
0000
0000
cafe
200f
0000
0000
0000
cafe
241f
0000
0000
0000
cafe
2807
0000
0000
0000
cafe
2c17
0000
0000
0000
cafe
3008
0000
0000
0000
cafe
3418
0000
0000
0000
cafe
3800
0000
0000
0000
cafe
3c10
0000
0000
0000
cafe
2009
0000
0000
0000
cafe
2419
0000
0000
0000
cafe
2801
0000
0000
0000
cafe
2c11
0000
0000
0000
cafe
300a
0000
0000
0000
cafe
341a
0000
0000
0000
cafe
3802
0000
0000
0000
cafe
3c12
0000
0000
0000
cafe
200b
0000
0000
0000
cafe
241b
0000
0000
0000
cafe
2803
0000
0000
0000
cafe
2c13
0000
0000
0000
cafe
300c
0000
0000
0000
cafe
341c
0000
0000
0000
cafe
3804
0000
0000
0000
cafe
3c14
0000
0000
0000
cafe
200d
0000
0000
0000
cafe
241d
0000
0000
0000
cafe
2805
0000
0000
0000
cafe
2c15
0000
0000
0000
cafe
300e
0000
0000
0000
cafe
341e
0000
0000
0000
cafe
3806
0000
0000
0000
cafe
3c16
0000
0000
0000
cafe
200f
0000
0000
0000
cafe
241f
0000
0000
0000
cafe
2807
0000
0000
0000
cafe
2c17
0000
0000
0000
cafe
3008
0000
0000
0000
cafe
3418
0000
0000
0000
cafe
3800
0000
0000
0000
cafe
3c10
0000
0000
0000
cafe
2009
0000
0000
0000
cafe
2419
0000
0000
0000
cafe
2801
0000
0000
0000
cafe
2c11
0000
0000
0000
cafe
300a
0000
0000
-
0000
cafe
341a
0000
0000
0000
cafe
3802
0000
0000
0000
cafe
3c12
0000
0000
0000
cafe
200b
0000
0000
0000
cafe
241b
0000
0000
0000
cafe
2803
0000
0000
0000
cafe
2c13
0000
0000
0000
cafe
300c
0000
0000
0000
cafe
341c
0000
0000
0000
cafe
3804
0000
0000
0000
cafe
3c14
0000
0000
0000
cafe
200d
0000
0000
0000
cafe
241d
0000
0000
0000
cafe
2805
0000
0000
0000
cafe
2c15
0000
0000
0000
cafe
300e
0000
0000
0000
cafe
341e
0000
0000
0000
cafe
3806
0000
0000
0000
cafe
3c16
0000
0000
0000
cafe
200f
0000
0000
0000
cafe
241f
0000
0000
0000
cafe
2807
0000
0000
0000
cafe
2c17
0000
0000
0000
cafe
3008
0000
0000
0000
cafe
3418
0000
0000
0000
cafe
3800
0000
0000
0000
cafe
3c10
0000
0000
0000
cafe
2009
0000
0000
0000
cafe
2419
0000
0000
0000
cafe
2801
0000
0000
0000
cafe
2c11
0000
0000
0000
cafe
300a
0000
0000
0000
cafe
341a
0000
0000
0000
cafe
3802
0000
0000
0000
cafe
3c12
0000
0000
0000
cafe
200b
0000
0000
0000
cafe
241b
0000
0000
0000
cafe
2803
0000
0000
0000
cafe
2c13
0000
0000
0000
cafe
300c
0000
0000
0000
cafe
341c
0000
0000
0000
cafe
3804
0000
0000
0000
cafe
3c14
0000
0000
0000
cafe
200d
0000
0000
0000
cafe
241d
0000
0000
0000
cafe
2805
0000
0000
0000
cafe
2c15
0000
0000
0000
cafe
300e
0000
0000
0000
cafe
341e
0000
0000
0000
cafe
3806
0000
0000
0000
cafe
3c16
0000
0000
0000
-
cafe
200f
0000
0000
0000
cafe
241f
0000
0000
0000
cafe
2807
0000
0000
0000
cafe
2c17
0000
0000
0000
cafe
3008
0000
0000
0000
cafe
3418
0000
0000
0000
cafe
3800
0000
0000
0000
cafe
3c10
0000
0000
0000
cafe
2009
0000
0000
0000
cafe
2419
0000
0000
0000
cafe
2801
0000
0000
0000
cafe
2c11
0000
0000
0000
cafe
300a
0000
0000
0000
cafe
341a
0000
0000
0000
cafe
3802
0000
0000
0000
cafe
3c12
0000
0000
0000
cafe
200b
0000
0000
0000
cafe
241b
0000
0000
0000
cafe
2803
0000
0000
0000
cafe
2c13
0000
0000
0000
cafe
300c
0000
0000
0000
cafe
341c
0000
0000
0000
cafe
3804
0000
0000
0000
cafe
3c14
0000
0000
0000
cafe
200d
0000
0000
0000
cafe
241d
0000
0000
0000
cafe
2805
0000
0000
0000
cafe
2c15
0000
0000
0000
cafe
300e
0000
0000
0000
cafe
341e
0000
0000
0000
cafe
3806
0000
0000
0000
cafe
3c16
0000
0000
0000
cafe
200f
0000
0000
0000
cafe
241f
0000
0000
0000
cafe
2807
0000
0000
0000
cafe
2c17
0000
0000
0000
cafe
3008
0000
0000
0000
cafe
3418
0000
0000
0000
cafe
3800
0000
0000
0000
cafe
3c10
0000
0000
0000
cafe
2009
0000
0000
0000
cafe
2419
0000
0000
0000
cafe
2801
0000
0000
0000
cafe
2c11
0000
0000
0000
cafe
300a
0000
0000
0000
cafe
341a
0000
0000
0000
cafe
3802
0000
0000
0000
cafe
3c12
0000
0000
0000
cafe
200b
0000
0000
0000
cafe
241b
0000
0000
0000
cafe
2803
0000
0000
0000
cafe
-
2c13
0000
0000
0000
cafe
300c
0000
0000
0000
cafe
341c
0000
0000
0000
cafe
3804
0000
0000
0000
cafe
3c14
0000
0000
0000
cafe
200d
0000
0000
0000
cafe
241d
0000
0000
0000
cafe
2805
0000
0000
0000
cafe
2c15
0000
0000
0000
cafe
300e
0000
0000
0000
cafe
341e
0000
0000
0000
cafe
3806
0000
0000
0000
cafe
3c16
0000
0000
0000
cafe
200f
0000
0000
0000
cafe
241f
0000
0000
0000
cafe
2807
0000
0000
0000
cafe
2c17
0000
0000
0000
cafe
3008
0000
0000
0000
cafe
3418
0000
0000
0000
cafe
3800
0000
0000
0000
cafe
3c10
0000
0000
0000
cafe
2009
0000
0000
0000
cafe
2419
0000
0000
0000
cafe
2801
0000
0000
0000
cafe
2c11
0000
0000
0000
cafe
300a
0000
0000
0000
cafe
341a
0000
0000
0000
cafe
3802
0000
0000
0000
cafe
3c12
0000
0000
0000
cafe
200b
0000
0000
0000
cafe
241b
0000
0000
0000
cafe
2803
0000
0000
0000
cafe
2c13
0000
0000
0000
cafe
300c
0000
0000
0000
cafe
341c
0000
0000
0000
cafe
3804
0000
0000
0000
cafe
3c14
0000
0000
0000
cafe
200d
0000
0000
0000
cafe
241d
0000
0000
0000
cafe
2805
0000
0000
0000
cafe
2c15
0000
0000
0000
cafe
300e
0000
0000
0000
cafe
341e
0000
0000
0000
cafe
3806
0000
0000
0000
cafe
3c16
0000
0000
0000
cafe
200f
0000
0000
0000
cafe
241f
0000
0000
0000
cafe
2807
0000
0000
0000
cafe
2c17
0000
0000
0000
cafe
3008
0000
0000
0000
cafe
3418
0000
0000
0000
cafe
3800
-
0000
0000
0000
cafe
3c10
0000
0000
0000
cafe
2009
0000
0000
0000
cafe
2419
0000
0000
0000
cafe
2801
0000
0000
0000
cafe
2c11
0000
0000
0000
cafe
300a
0000
0000
0000
cafe
341a
0000
0000
0000
cafe
3802
0000
0000
0000
cafe
3c12
0000
0000
0000
cafe
200b
0000
0000
0000
cafe
241b
0000
0000
0000
cafe
2803
0000
0000
0000
cafe
2c13
0000
0000
0000
cafe
300c
0000
0000
0000
cafe
341c
0000
0000
0000
cafe
3804
0000
0000
0000
cafe
3c14
0000
0000
0000
cafe
200d
0000
0000
0000
cafe
241d
0000
0000
0000
cafe
2805
0000
0000
0000
cafe
2c15
0000
0000
0000
cafe
300e
0000
0000
0000
cafe
341e
0000
0000
0000
cafe
3806
0000
0000
0000
cafe
3c16
0000
0000
0000
cafe
200f
0000
0000
0000
cafe
241f
0000
0000
0000
cafe
2807
0000
0000
0000
cafe
2c17
0000
0000
0000
cafe
3008
0000
0000
0000
cafe
3418
0000
0000
0000
cafe
3800
0000
0000
0000
cafe
3c10
0000
0000
0000
cafe
2009
0000
0000
0000
cafe
2419
0000
0000
0000
cafe
2801
0000
0000
0000
cafe
2c11
0000
0000
0000
cafe
300a
0000
0000
0000
cafe
341a
0000
0000
0000
cafe
3802
0000
0000
0000
cafe
3c12
0000
0000
0000
cafe
200b
0000
0000
0000
cafe
241b
0000
0000
0000
cafe
2803
0000
0000
0000
cafe
2c13
0000
0000
0000
cafe
300c
0000
0000
0000
cafe
341c
0000
0000
0000
cafe
3804
0000
0000
0000
cafe
3c14
0000
0000
0000
cafe
200d
0000
0000
0000
cafe
241d
0000
-
0000
0000
cafe
2805
0000
0000
0000
cafe
2c15
0000
0000
0000
cafe
300e
0000
0000
0000
cafe
341e
0000
0000
0000
cafe
3806
0000
0000
0000
cafe
3c16
0000
0000
0000
cafe
200f
0000
0000
0000
cafe
241f
0000
0000
0000
cafe
2807
0000
0000
0000
cafe
2c17
0000
0000
0000
cafe
3008
0000
0000
0000
cafe
3418
0000
0000
0000
cafe
3800
0000
0000
0000
cafe
3c10
0000
0000
0000
cafe
2009
0000
0000
0000
cafe
2419
0000
0000
0000
cafe
2801
0000
0000
0000
cafe
2c11
0000
0000
0000
cafe
300a
0000
0000
0000
cafe
341a
0000
0000
0000
cafe
3802
0000
0000
0000
cafe
3c12
0000
0000
0000
cafe
200b
0000
0000
0000
cafe
241b
0000
0000
0000
cafe
2803
0000
0000
0000
cafe
2c13
0000
0000
0000
cafe
300c
0000
0000
0000
cafe
341c
0000
0000
0000
cafe
3804
0000
0000
0000
cafe
3c14
0000
0000
0000
cafe
200d
0000
0000
0000
cafe
241d
0000
0000
0000
cafe
2805
0000
0000
0000
cafe
2c15
0000
0000
0000
cafe
300e
0000
0000
0000
cafe
341e
0000
0000
0000
cafe
3806
0000
0000
0000
cafe
3c16
0000
0000
0000
cafe
200f
0000
0000
0000
cafe
241f
0000
0000
0000
cafe
2807
0000
0000
0000
cafe
2c17
0000
0000
0000
cafe
3008
0000
0000
0000
cafe
3418
0000
0000
0000
cafe
3800
0000
0000
0000
cafe
3c10
0000
0000
0000
cafe
2009
0000
0000
0000
cafe
2419
0000
0000
0000
cafe
2801
0000
0000
0000
cafe
2c11
0000
0000
0000
cafe
300a
0000
0000
-
0000
cafe
341a
0000
0000
0000
cafe
3802
0000
0000
0000
cafe
3c12
0000
0000
0000
cafe
200b
0000
0000
0000
cafe
241b
0000
0000
0000
cafe
2803
0000
0000
0000
cafe
2c13
0000
0000
0000
cafe
300c
0000
0000
0000
cafe
341c
0000
0000
0000
cafe
3804
0000
0000
0000
cafe
3c14
0000
0000
0000
cafe
200d
0000
0000
0000
cafe
241d
0000
0000
0000
cafe
2805
0000
0000
0000
cafe
2c15
0000
0000
0000
cafe
300e
0000
0000
0000
cafe
341e
0000
0000
0000
cafe
3806
0000
0000
0000
cafe
3c16
0000
0000
0000
cafe
200f
0000
0000
0000
cafe
241f
0000
0000
0000
cafe
2807
0000
0000
0000
cafe
2c17
0000
0000
0000
cafe
3008
0000
0000
0000
cafe
3418
0000
0000
0000
cafe
3800
0000
0000
0000
cafe
3c10
0000
0000
0000
cafe
2009
0000
0000
0000
cafe
2419
0000
0000
0000
cafe
2801
0000
0000
0000
cafe
2c11
0000
0000
0000
cafe
300a
0000
0000
0000
cafe
341a
0000
0000
0000
cafe
3802
0000
0000
0000
cafe
3c12
0000
0000
0000
cafe
200b
0000
0000
0000
cafe
241b
0000
0000
0000
cafe
2803
0000
0000
0000
cafe
2c13
0000
0000
0000
cafe
300c
0000
0000
0000
cafe
341c
0000
0000
0000
cafe
3804
0000
0000
0000
cafe
3c14
0000
0000
0000
cafe
200d
0000
0000
0000
cafe
241d
0000
0000
0000
cafe
2805
0000
0000
0000
cafe
2c15
0000
0000
0000
cafe
300e
0000
0000
0000
cafe
341e
0000
0000
0000
cafe
3806
0000
0000
0000
cafe
3c16
0000
0000
0000
-
cafe
200f
0000
0000
0000
cafe
241f
0000
0000
0000
cafe
2807
0000
0000
0000
cafe
2c17
0000
0000
0000
cafe
3008
0000
0000
0000
cafe
3418
0000
0000
0000
cafe
3800
0000
0000
0000
cafe
3c10
0000
0000
0000
cafe
2009
0000
0000
0000
cafe
2419
0000
0000
0000
cafe
2801
0000
0000
0000
cafe
2c11
0000
0000
0000
cafe
300a
0000
0000
0000
cafe
341a
0000
0000
0000
cafe
3802
0000
0000
0000
cafe
3c12
0000
0000
0000
cafe
200b
0000
0000
0000
cafe
241b
0000
0000
0000
cafe
2803
0000
0000
0000
cafe
2c13
0000
0000
0000
cafe
300c
0000
0000
0000
cafe
341c
0000
0000
0000
cafe
3804
0000
0000
0000
cafe
3c14
0000
0000
0000
cafe
200d
0000
0000
0000
cafe
241d
0000
0000
0000
cafe
2805
0000
0000
0000
cafe
2c15
0000
0000
0000
cafe
300e
0000
0000
0000
cafe
341e
0000
0000
0000
cafe
3806
0000
0000
0000
cafe
3c16
0000
0000
0000
cafe
200f
0000
0000
0000
cafe
241f
0000
0000
0000
cafe
2807
0000
0000
0000
cafe
2c17
0000
0000
0000
cafe
3008
0000
0000
0000
cafe
3418
0000
0000
0000
cafe
3800
0000
0000
0000
cafe
3c10
0000
0000
0000
cafe
2009
0000
0000
0000
cafe
2419
0000
0000
0000
cafe
2801
0000
0000
0000
cafe
2c11
0000
0000
0000
cafe
300a
0000
0000
0000
cafe
341a
0000
0000
0000
cafe
3802
0000
0000
0000
cafe
3c12
0000
0000
0000
cafe
200b
0000
0000
0000
cafe
241b
0000
0000
0000
cafe
2803
0000
0000
0000
cafe
-
2c13
0000
0000
0000
cafe
300c
0000
0000
0000
cafe
341c
0000
0000
0000
cafe
3804
0000
0000
0000
cafe
3c14
0000
0000
0000
cafe
200d
0000
0000
0000
cafe
241d
0000
0000
0000
cafe
2805
0000
0000
0000
cafe
2c15
0000
0000
0000
cafe
300e
0000
0000
0000
cafe
341e
0000
0000
0000
cafe
3806
0000
0000
0000
cafe
3c16
0000
0000
0000
cafe
200f
0000
0000
0000
cafe
241f
0000
0000
0000
cafe
2807
0000
0000
0000
cafe
2c17
0000
0000
0000
cafe
3008
0000
0000
0000
cafe
3418
0000
0000
0000
cafe
3800
0000
0000
0000
cafe
3c10
0000
0000
0000
cafe
2009
0000
0000
0000
cafe
2419
0000
0000
0000
cafe
2801
0000
0000
0000
cafe
2c11
0000
0000
0000
cafe
300a
0000
0000
0000
cafe
341a
0000
0000
0000
cafe
3802
0000
0000
0000
cafe
3c12
0000
0000
0000
cafe
200b
0000
0000
0000
cafe
241b
0000
0000
0000
cafe
2803
0000
0000
0000
cafe
2c13
0000
0000
0000
cafe
300c
0000
0000
0000
cafe
341c
0000
0000
0000
cafe
3804
0000
0000
0000
cafe
3c14
0000
0000
0000
cafe
200d
0000
0000
0000
cafe
241d
0000
0000
0000
cafe
2805
0000
0000
0000
cafe
2c15
0000
0000
0000
cafe
300e
0000
0000
0000
cafe
341e
0000
0000
0000
cafe
3806
0000
0000
0000
cafe
3c16
0000
0000
0000
cafe
200f
0000
0000
0000
cafe
241f
0000
0000
0000
cafe
2807
0000
0000
0000
cafe
2c17
0000
0000
0000
cafe
3008
0000
0000
0000
cafe
3418
0000
0000
0000
cafe
3800
-
0000
0000
0000
cafe
3c10
0000
0000
0000
cafe
2009
0000
0000
0000
cafe
2419
0000
0000
0000
cafe
2801
0000
0000
0000
cafe
2c11
0000
0000
0000
cafe
300a
0000
0000
0000
cafe
341a
0000
0000
0000
cafe
3802
0000
0000
0000
cafe
3c12
0000
0000
0000
cafe
200b
0000
0000
0000
cafe
241b
0000
0000
0000
cafe
2803
0000
0000
0000
cafe
2c13
0000
0000
0000
cafe
300c
0000
0000
0000
cafe
341c
0000
0000
0000
cafe
3804
0000
0000
0000
cafe
3c14
0000
0000
0000
cafe
200d
0000
0000
0000
cafe
241d
0000
0000
0000
cafe
2805
0000
0000
0000
cafe
2c15
0000
0000
0000
cafe
300e
0000
0000
0000
cafe
341e
0000
0000
0000
cafe
3806
0000
0000
0000
cafe
3c16
0000
0000
0000
cafe
200f
0000
0000
0000
cafe
241f
0000
0000
0000
cafe
2807
0000
0000
0000
cafe
2c17
0000
0000
0000
cafe
3008
0000
0000
0000
cafe
3418
0000
0000
0000
cafe
3800
0000
0000
0000
cafe
3c10
0000
0000
0000
cafe
2009
0000
0000
0000
cafe
2419
0000
0000
0000
cafe
2801
0000
0000
0000
cafe
2c11
0000
0000
0000
cafe
300a
0000
0000
0000
cafe
341a
0000
0000
0000
cafe
3802
0000
0000
0000
cafe
3c12
0000
0000
0000
cafe
200b
0000
0000
0000
cafe
241b
0000
0000
0000
cafe
2803
0000
0000
0000
cafe
2c13
0000
0000
0000
cafe
300c
0000
0000
0000
cafe
341c
0000
0000
0000
cafe
3804
0000
0000
0000
cafe
3c14
0000
0000
0000
cafe
200d
0000
0000
0000
cafe
241d
0000
-
0000
0000
cafe
2805
0000
0000
0000
cafe
2c15
0000
0000
0000
cafe
300e
0000
0000
0000
cafe
341e
0000
0000
0000
cafe
3806
0000
0000
0000
cafe
3c16
0000
0000
0000
cafe
200f
0000
0000
0000
cafe
241f
0000
0000
0000
cafe
2807
0000
0000
0000
cafe
2c17
0000
0000
0000
cafe
3008
0000
0000
0000
cafe
3418
0000
0000
0000
cafe
3800
0000
0000
0000
cafe
3c10
0000
0000
0000
cafe
2009
0000
0000
0000
cafe
2419
0000
0000
0000
cafe
2801
0000
0000
0000
cafe
2c11
0000
0000
0000
cafe
300a
0000
0000
0000
cafe
341a
0000
0000
0000
cafe
3802
0000
0000
0000
cafe
3c12
0000
0000
0000
cafe
200b
0000
0000
0000
cafe
241b
0000
0000
0000
cafe
2803
0000
0000
0000
cafe
2c13
0000
0000
0000
cafe
300c
0000
0000
0000
cafe
341c
0000
0000
0000
cafe
3804
0000
0000
0000
cafe
3c14
0000
0000
0000
cafe
200d
0000
0000
0000
cafe
241d
0000
0000
0000
cafe
2805
0000
0000
0000
cafe
2c15
0000
0000
0000
cafe
300e
0000
0000
0000
cafe
341e
0000
0000
0000
cafe
3806
0000
0000
0000
cafe
3c16
0000
0000
0000
cafe
200f
0000
0000
0000
cafe
241f
0000
0000
0000
cafe
2807
0000
0000
0000
cafe
2c17
0000
0000
0000
cafe
3008
0000
0000
0000
cafe
3418
0000
0000
0000
cafe
3800
0000
0000
0000
cafe
3c10
0000
0000
0000
cafe
2009
0000
0000
0000
cafe
2419
0000
0000
0000
cafe
2801
0000
0000
0000
cafe
2c11
0000
0000
0000
cafe
300a
0000
0000
-
0000
cafe
341a
0000
0000
0000
cafe
3802
0000
0000
0000
cafe
3c12
0000
0000
0000
cafe
200b
0000
0000
0000
cafe
241b
0000
0000
0000
cafe
2803
0000
0000
0000
cafe
2c13
0000
0000
0000
cafe
300c
0000
0000
0000
cafe
341c
0000
0000
0000
cafe
3804
0000
0000
0000
cafe
3c14
0000
0000
0000
cafe
200d
0000
0000
0000
cafe
241d
0000
0000
0000
cafe
2805
0000
0000
0000
cafe
2c15
0000
0000
0000
cafe
300e
0000
0000
0000
cafe
341e
0000
0000
0000
cafe
3806
0000
0000
0000
cafe
3c16
0000
0000
0000
cafe
200f
0000
0000
0000
cafe
241f
0000
0000
0000
cafe
2807
0000
0000
0000
cafe
2c17
0000
0000
0000
cafe
3008
0000
0000
0000
cafe
3418
0000
0000
0000
cafe
3800
0000
0000
0000
cafe
3c10
0000
0000
0000
cafe
2009
0000
0000
0000
cafe
2419
0000
0000
0000
cafe
2801
0000
0000
0000
cafe
2c11
0000
0000
0000
cafe
300a
0000
0000
0000
cafe
341a
0000
0000
0000
cafe
3802
0000
0000
0000
cafe
3c12
0000
0000
0000
cafe
200b
0000
0000
0000
cafe
241b
0000
0000
0000
cafe
2803
0000
0000
0000
cafe
2c13
0000
0000
0000
cafe
300c
0000
0000
0000
cafe
341c
0000
0000
0000
cafe
3804
0000
0000
0000
cafe
3c14
0000
0000
0000
cafe
200d
0000
0000
0000
cafe
241d
0000
0000
0000
cafe
2805
0000
0000
0000
cafe
2c15
0000
0000
0000
cafe
300e
0000
0000
0000
cafe
341e
0000
0000
0000
cafe
3806
0000
0000
0000
cafe
3c16
0000
0000
0000
-
cafe
200f
0000
0000
0000
cafe
241f
0000
0000
0000
cafe
2807
0000
0000
0000
cafe
2c17
0000
0000
0000
cafe
3008
0000
0000
0000
cafe
3418
0000
0000
0000
cafe
3800
0000
0000
0000
cafe
3c10
0000
0000
0000
cafe
2009
0000
0000
0000
cafe
2419
0000
0000
0000
cafe
2801
0000
0000
0000
cafe
2c11
0000
0000
0000
cafe
300a
0000
0000
0000
cafe
341a
0000
0000
0000
cafe
3802
0000
0000
0000
cafe
3c12
0000
0000
0000
cafe
200b
0000
0000
0000
cafe
241b
0000
0000
0000
cafe
2803
0000
0000
0000
cafe
2c13
0000
0000
0000
cafe
300c
0000
0000
0000
cafe
341c
0000
0000
0000
cafe
3804
0000
0000
0000
cafe
3c14
0000
0000
0000
cafe
200d
0000
0000
0000
cafe
241d
0000
0000
0000
cafe
2805
0000
0000
0000
cafe
2c15
0000
0000
0000
cafe
300e
0000
0000
0000
cafe
341e
0000
0000
0000
cafe
3806
0000
0000
0000
cafe
3c16
0000
0000
0000
cafe
200f
0000
0000
0000
cafe
241f
0000
0000
0000
cafe
2807
0000
0000
0000
cafe
2c17
0000
0000
0000
cafe
3008
0000
0000
0000
cafe
3418
0000
0000
0000
cafe
3800
0000
0000
0000
cafe
3c10
0000
0000
0000
cafe
2009
0000
0000
0000
cafe
2419
0000
0000
0000
cafe
2801
0000
0000
0000
cafe
2c11
0000
0000
0000
cafe
300a
0000
0000
0000
cafe
341a
0000
0000
0000
cafe
3802
0000
0000
0000
cafe
3c12
0000
0000
0000
cafe
200b
0000
0000
0000
cafe
241b
0000
0000
0000
cafe
2803
0000
0000
0000
cafe
-
2c13
0000
0000
0000
cafe
300c
0000
0000
0000
cafe
341c
0000
0000
0000
cafe
3804
0000
0000
0000
cafe
3c14
0000
0000
0000
cafe
200d
0000
0000
0000
cafe
241d
0000
0000
0000
cafe
2805
0000
0000
0000
cafe
2c15
0000
0000
0000
cafe
300e
0000
0000
0000
cafe
341e
0000
0000
0000
cafe
3806
0000
0000
0000
cafe
3c16
0000
0000
0000
cafe
200f
0000
0000
0000
cafe
241f
0000
0000
0000
cafe
2807
0000
0000
0000
cafe
2c17
0000
0000
0000
cafe
3008
0000
0000
0000
cafe
3418
0000
0000
0000
cafe
3800
0000
0000
0000
cafe
3c10
0000
0000
0000
cafe
2009
0000
0000
0000
cafe
2419
0000
0000
0000
cafe
2801
0000
0000
0000
cafe
2c11
0000
0000
0000
cafe
300a
0000
0000
0000
cafe
341a
0000
0000
0000
cafe
3802
0000
0000
0000
cafe
3c12
0000
0000
0000
cafe
200b
0000
0000
0000
cafe
241b
0000
0000
0000
cafe
2803
0000
0000
0000
cafe
2c13
0000
0000
0000
cafe
300c
0000
0000
0000
cafe
341c
0000
0000
0000
cafe
3804
0000
0000
0000
cafe
3c14
0000
0000
0000
cafe
200d
0000
0000
0000
cafe
241d
0000
0000
0000
cafe
2805
0000
0000
0000
cafe
2c15
0000
0000
0000
cafe
300e
0000
0000
0000
cafe
341e
0000
0000
0000
cafe
3806
0000
0000
0000
cafe
3c16
0000
0000
0000
cafe
200f
0000
0000
0000
cafe
241f
0000
0000
0000
cafe
2807
0000
0000
0000
cafe
2c17
0000
0000
0000
cafe
3008
0000
0000
0000
cafe
3418
0000
0000
0000
cafe
3800
-
0000
0000
0000
cafe
3c10
0000
0000
0000
cafe
2009
0000
0000
0000
cafe
2419
0000
0000
0000
cafe
2801
0000
0000
0000
cafe
2c11
0000
0000
0000
cafe
300a
0000
0000
0000
cafe
341a
0000
0000
0000
cafe
3802
0000
0000
0000
cafe
3c12
0000
0000
0000
cafe
200b
0000
0000
0000
cafe
241b
0000
0000
0000
cafe
2803
0000
0000
0000
cafe
2c13
0000
0000
0000
cafe
300c
0000
0000
0000
cafe
341c
0000
0000
0000
cafe
3804
0000
0000
0000
cafe
3c14
0000
0000
0000
cafe
200d
0000
0000
0000
cafe
241d
0000
0000
0000
cafe
2805
0000
0000
0000
cafe
2c15
0000
0000
0000
cafe
300e
0000
0000
0000
cafe
341e
0000
0000
0000
cafe
3806
0000
0000
0000
cafe
3c16
0000
0000
0000
cafe
200f
0000
0000
0000
cafe
241f
0000
0000
0000
cafe
2807
0000
0000
0000
cafe
2c17
0000
0000
0000
cafe
3008
0000
0000
0000
cafe
3418
0000
0000
0000
cafe
3800
0000
0000
0000
cafe
3c10
0000
0000
0000
cafe
2009
0000
0000
0000
cafe
2419
0000
0000
0000
cafe
2801
0000
0000
0000
cafe
2c11
0000
0000
0000
cafe
300a
0000
0000
0000
cafe
341a
0000
0000
0000
cafe
3802
0000
0000
0000
cafe
3c12
0000
0000
0000
cafe
200b
0000
0000
0000
cafe
241b
0000
0000
0000
cafe
2803
0000
0000
0000
cafe
2c13
0000
0000
0000
cafe
300c
0000
0000
0000
cafe
341c
0000
0000
0000
cafe
3804
0000
0000
0000
cafe
3c14
0000
0000
0000
cafe
200d
0000
0000
0000
cafe
241d
0000
-
0000
0000
cafe
2805
0000
0000
0000
cafe
2c15
0000
0000
0000
cafe
300e
0000
0000
0000
cafe
341e
0000
0000
0000
cafe
3806
0000
0000
0000
cafe
3c16
0000
0000
0000
cafe
200f
0000
0000
0000
cafe
241f
0000
0000
0000
cafe
2807
0000
0000
0000
cafe
2c17
0000
0000
0000
cafe
3008
0000
0000
0000
cafe
3418
0000
0000
0000
cafe
3800
0000
0000
0000
cafe
3c10
0000
0000
0000
cafe
2009
0000
0000
0000
cafe
2419
0000
0000
0000
cafe
2801
0000
0000
0000
cafe
2c11
0000
0000
0000
cafe
300a
0000
0000
0000
cafe
341a
0000
0000
0000
cafe
3802
0000
0000
0000
cafe
3c12
0000
0000
0000
cafe
200b
0000
0000
0000
cafe
241b
0000
0000
0000
cafe
2803
0000
0000
0000
cafe
2c13
0000
0000
0000
cafe
300c
0000
0000
0000
cafe
341c
0000
0000
0000
cafe
3804
0000
0000
0000
cafe
3c14
0000
0000
0000
cafe
200d
0000
0000
0000
cafe
241d
0000
0000
0000
cafe
2805
0000
0000
0000
cafe
2c15
0000
0000
0000
cafe
300e
0000
0000
0000
cafe
341e
0000
0000
0000
cafe
3806
0000
0000
0000
cafe
3c16
0000
0000
0000
cafe
200f
0000
0000
0000
cafe
241f
0000
0000
0000
cafe
2807
0000
0000
0000
cafe
2c17
0000
0000
0000
cafe
3008
0000
0000
0000
cafe
3418
0000
0000
0000
cafe
3800
0000
0000
0000
cafe
3c10
0000
0000
0000
cafe
2009
0000
0000
0000
cafe
2419
0000
0000
0000
cafe
2801
0000
0000
0000
cafe
2c11
0000
0000
0000
cafe
300a
0000
0000
-
0000
cafe
341a
0000
0000
0000
cafe
3802
0000
0000
0000
cafe
3c12
0000
0000
0000
cafe
200b
0000
0000
0000
cafe
241b
0000
0000
0000
cafe
2803
0000
0000
0000
cafe
2c13
0000
0000
0000
cafe
300c
0000
0000
0000
cafe
341c
0000
0000
0000
cafe
3804
0000
0000
0000
cafe
3c14
0000
0000
0000
cafe
200d
0000
0000
0000
cafe
241d
0000
0000
0000
cafe
2805
0000
0000
0000
cafe
2c15
0000
0000
0000
cafe
300e
0000
0000
0000
cafe
341e
0000
0000
0000
cafe
3806
0000
0000
0000
cafe
3c16
0000
0000
0000
cafe
200f
0000
0000
0000
cafe
241f
0000
0000
0000
cafe
2807
0000
0000
0000
cafe
2c17
0000
0000
0000
cafe
3008
0000
0000
0000
cafe
3418
0000
0000
0000
cafe
3800
0000
0000
0000
cafe
3c10
0000
0000
0000
cafe
2009
0000
0000
0000
cafe
2419
0000
0000
0000
cafe
2801
0000
0000
0000
cafe
2c11
0000
0000
0000
cafe
300a
0000
0000
0000
cafe
341a
0000
0000
0000
cafe
3802
0000
0000
0000
cafe
3c12
0000
0000
0000
cafe
200b
0000
0000
0000
cafe
241b
0000
0000
0000
cafe
2803
0000
0000
0000
cafe
2c13
0000
0000
0000
cafe
300c
0000
0000
0000
cafe
341c
0000
0000
0000
cafe
3804
0000
0000
0000
cafe
3c14
0000
0000
0000
cafe
200d
0000
0000
0000
cafe
241d
0000
0000
0000
cafe
2805
0000
0000
0000
cafe
2c15
0000
0000
0000
cafe
300e
0000
0000
0000
cafe
341e
0000
0000
0000
cafe
3806
0000
0000
0000
cafe
3c16
0000
0000
0000
-
cafe
200f
0000
0000
0000
cafe
241f
0000
0000
0000
cafe
2807
0000
0000
0000
cafe
2c17
0000
0000
0000
cafe
3008
0000
0000
0000
cafe
3418
0000
0000
0000
cafe
3800
0000
0000
0000
cafe
3c10
0000
0000
0000
cafe
2009
0000
0000
0000
cafe
2419
0000
0000
0000
cafe
2801
0000
0000
0000
cafe
2c11
0000
0000
0000
cafe
300a
0000
0000
0000
cafe
341a
0000
0000
0000
cafe
3802
0000
0000
0000
cafe
3c12
0000
0000
0000
cafe
200b
0000
0000
0000
cafe
241b
0000
0000
0000
cafe
2803
0000
0000
0000
cafe
2c13
0000
0000
0000
cafe
300c
0000
0000
0000
cafe
341c
0000
0000
0000
cafe
3804
0000
0000
0000
cafe
3c14
0000
0000
0000
cafe
200d
0000
0000
0000
cafe
241d
0000
0000
0000
cafe
2805
0000
0000
0000
cafe
2c15
0000
0000
0000
cafe
300e
0000
0000
0000
cafe
341e
0000
0000
0000
cafe
3806
0000
0000
0000
cafe
3c16
0000
0000
0000
cafe
200f
0000
0000
0000
cafe
241f
0000
0000
0000
cafe
2807
0000
0000
0000
cafe
2c17
0000
0000
0000
cafe
3008
0000
0000
0000
cafe
3418
0000
0000
0000
cafe
3800
0000
0000
0000
cafe
3c10
0000
0000
0000
cafe
2009
0000
0000
0000
cafe
2419
0000
0000
0000
cafe
2801
0000
0000
0000
cafe
2c11
0000
0000
0000
cafe
300a
0000
0000
0000
cafe
341a
0000
0000
0000
cafe
3802
0000
0000
0000
cafe
3c12
0000
0000
0000
cafe
200b
0000
0000
0000
cafe
241b
0000
0000
0000
cafe
2803
0000
0000
0000
cafe
-
2c13
0000
0000
0000
cafe
300c
0000
0000
0000
cafe
341c
0000
0000
0000
cafe
3804
0000
0000
0000
cafe
3c14
0000
0000
0000
cafe
200d
0000
0000
0000
cafe
241d
0000
0000
0000
cafe
2805
0000
0000
0000
cafe
2c15
0000
0000
0000
cafe
300e
0000
0000
0000
cafe
341e
0000
0000
0000
cafe
3806
0000
0000
0000
cafe
3c16
0000
0000
0000
cafe
200f
0000
0000
0000
cafe
241f
0000
0000
0000
cafe
2807
0000
0000
0000
cafe
2c17
0000
0000
0000
cafe
3008
0000
0000
0000
cafe
3418
0000
0000
0000
cafe
3800
0000
0000
0000
cafe
3c10
0000
0000
0000
cafe
2009
0000
0000
0000
cafe
2419
0000
0000
0000
cafe
2801
0000
0000
0000
cafe
2c11
0000
0000
0000
cafe
300a
0000
0000
0000
cafe
341a
0000
0000
0000
cafe
3802
0000
0000
0000
cafe
3c12
0000
0000
0000
cafe
200b
0000
0000
0000
cafe
241b
0000
0000
0000
cafe
2803
0000
0000
0000
cafe
2c13
0000
0000
0000
cafe
300c
0000
0000
0000
cafe
341c
0000
0000
0000
cafe
3804
0000
0000
0000
cafe
3c14
0000
0000
0000
cafe
200d
0000
0000
0000
cafe
241d
0000
0000
0000
cafe
2805
0000
0000
0000
cafe
2c15
0000
0000
0000
cafe
300e
0000
0000
0000
cafe
341e
0000
0000
0000
cafe
3806
0000
0000
0000
cafe
3c16
0000
0000
0000
cafe
200f
0000
0000
0000
cafe
241f
0000
0000
0000
cafe
2807
0000
0000
0000
cafe
2c17
0000
0000
0000
cafe
3008
0000
0000
0000
cafe
3418
0000
0000
0000
cafe
3800
-
0000
0000
0000
cafe
3c10
0000
0000
0000
cafe
2009
0000
0000
0000
cafe
2419
0000
0000
0000
cafe
2801
0000
0000
0000
cafe
2c11
0000
0000
0000
cafe
300a
0000
0000
0000
cafe
341a
0000
0000
0000
cafe
3802
0000
0000
0000
cafe
3c12
0000
0000
0000
cafe
200b
0000
0000
0000
cafe
241b
0000
0000
0000
cafe
2803
0000
0000
0000
cafe
2c13
0000
0000
0000
cafe
300c
0000
0000
0000
cafe
341c
0000
0000
0000
cafe
3804
0000
0000
0000
cafe
3c14
0000
0000
0000
cafe
200d
0000
0000
0000
cafe
241d
0000
0000
0000
cafe
2805
0000
0000
0000
cafe
2c15
0000
0000
0000
cafe
300e
0000
0000
0000
cafe
341e
0000
0000
0000
cafe
3806
0000
0000
0000
cafe
3c16
0000
0000
0000
cafe
200f
0000
0000
0000
cafe
241f
0000
0000
0000
cafe
2807
0000
0000
0000
cafe
2c17
0000
0000
0000
cafe
3008
0000
0000
0000
cafe
3418
0000
0000
0000
cafe
3800
0000
0000
0000
cafe
3c10
0000
0000
0000
cafe
2009
0000
0000
0000
cafe
2419
0000
0000
0000
cafe
2801
0000
0000
0000
cafe
2c11
0000
0000
0000
cafe
300a
0000
0000
0000
cafe
341a
0000
0000
0000
cafe
3802
0000
0000
0000
cafe
3c12
0000
0000
0000
cafe
200b
0000
0000
0000
cafe
241b
0000
0000
0000
cafe
2803
0000
0000
0000
cafe
2c13
0000
0000
0000
cafe
300c
0000
0000
0000
cafe
341c
0000
0000
0000
cafe
3804
0000
0000
0000
cafe
3c14
0000
0000
0000
cafe
200d
0000
0000
0000
cafe
241d
0000
-
0000
0000
cafe
2805
0000
0000
0000
cafe
2c15
0000
0000
0000
cafe
300e
0000
0000
0000
cafe
341e
0000
0000
0000
cafe
3806
0000
0000
0000
cafe
3c16
0000
0000
0000
cafe
200f
0000
0000
0000
cafe
241f
0000
0000
0000
cafe
2807
0000
0000
0000
cafe
2c17
0000
0000
0000
cafe
3008
0000
0000
0000
cafe
3418
0000
0000
0000
cafe
3800
0000
0000
0000
cafe
3c10
0000
0000
0000
cafe
2009
0000
0000
0000
cafe
2419
0000
0000
0000
cafe
2801
0000
0000
0000
cafe
2c11
0000
0000
0000
cafe
300a
0000
0000
0000
cafe
341a
0000
0000
0000
cafe
3802
0000
0000
0000
cafe
3c12
0000
0000
0000
cafe
200b
0000
0000
0000
cafe
241b
0000
0000
0000
cafe
2803
0000
0000
0000
cafe
2c13
0000
0000
0000
cafe
300c
0000
0000
0000
cafe
341c
0000
0000
0000
cafe
3804
0000
0000
0000
cafe
3c14
0000
0000
0000
cafe
200d
0000
0000
0000
cafe
241d
0000
0000
0000
cafe
2805
0000
0000
0000
cafe
2c15
0000
0000
0000
cafe
300e
0000
0000
0000
cafe
341e
0000
0000
0000
cafe
3806
0000
0000
0000
cafe
3c16
0000
0000
0000
cafe
200f
0000
0000
0000
cafe
241f
0000
0000
0000
cafe
2807
0000
0000
0000
cafe
2c17
0000
0000
0000
cafe
3008
0000
0000
0000
cafe
3418
0000
0000
0000
cafe
3800
0000
0000
0000
cafe
3c10
0000
0000
0000
cafe
2009
0000
0000
0000
cafe
2419
0000
0000
0000
cafe
2801
0000
0000
0000
cafe
2c11
0000
0000
0000
cafe
300a
0000
0000
-
0000
cafe
341a
0000
0000
0000
cafe
3802
0000
0000
0000
cafe
3c12
0000
0000
0000
cafe
200b
0000
0000
0000
cafe
241b
0000
0000
0000
cafe
2803
0000
0000
0000
cafe
2c13
0000
0000
0000
cafe
300c
0000
0000
0000
cafe
341c
0000
0000
0000
cafe
3804
0000
0000
0000
cafe
3c14
0000
0000
0000
cafe
200d
0000
0000
0000
cafe
241d
0000
0000
0000
cafe
2805
0000
0000
0000
cafe
2c15
0000
0000
0000
cafe
300e
0000
0000
0000
cafe
341e
0000
0000
0000
cafe
3806
0000
0000
0000
cafe
3c16
0000
0000
0000
cafe
200f
0000
0000
0000
cafe
241f
0000
0000
0000
cafe
2807
0000
0000
0000
cafe
2c17
0000
0000
0000
cafe
3008
0000
0000
0000
cafe
3418
0000
0000
0000
cafe
3800
0000
0000
0000
cafe
3c10
0000
0000
0000
cafe
2009
0000
0000
0000
cafe
2419
0000
0000
0000
cafe
2801
0000
0000
0000
cafe
2c11
0000
0000
0000
cafe
300a
0000
0000
0000
cafe
341a
0000
0000
0000
cafe
3802
0000
0000
0000
cafe
3c12
0000
0000
0000
cafe
200b
0000
0000
0000
cafe
241b
0000
0000
0000
cafe
2803
0000
0000
0000
cafe
2c13
0000
0000
0000
cafe
300c
0000
0000
0000
cafe
341c
0000
0000
0000
cafe
3804
0000
0000
0000
cafe
3c14
0000
0000
0000
cafe
200d
0000
0000
0000
cafe
241d
0000
0000
0000
cafe
2805
0000
0000
0000
cafe
2c15
0000
0000
0000
cafe
300e
0000
0000
0000
cafe
341e
0000
0000
0000
cafe
3806
0000
0000
0000
cafe
3c16
0000
0000
0000
-
cafe
200f
0000
0000
0000
cafe
241f
0000
0000
0000
cafe
2807
0000
0000
0000
cafe
2c17
0000
0000
0000
cafe
3008
0000
0000
0000
cafe
3418
0000
0000
0000
cafe
3800
0000
0000
0000
cafe
3c10
0000
0000
0000
cafe
2009
0000
0000
0000
cafe
2419
0000
0000
0000
cafe
2801
0000
0000
0000
cafe
2c11
0000
0000
0000
cafe
300a
0000
0000
0000
cafe
341a
0000
0000
0000
cafe
3802
0000
0000
0000
cafe
3c12
0000
0000
0000
cafe
200b
0000
0000
0000
cafe
241b
0000
0000
0000
cafe
2803
0000
0000
0000
cafe
2c13
0000
0000
0000
cafe
300c
0000
0000
0000
cafe
341c
0000
0000
0000
cafe
3804
0000
0000
0000
cafe
3c14
0000
0000
0000
cafe
200d
0000
0000
0000
cafe
241d
0000
0000
0000
cafe
2805
0000
0000
0000
cafe
2c15
0000
0000
0000
cafe
300e
0000
0000
0000
cafe
341e
0000
0000
0000
cafe
3806
0000
0000
0000
cafe
3c16
0000
0000
0000
cafe
200f
0000
0000
0000
cafe
241f
0000
0000
0000
cafe
2807
0000
0000
0000
cafe
2c17
0000
0000
0000
cafe
3008
0000
0000
0000
cafe
3418
0000
0000
0000
cafe
3800
0000
0000
0000
cafe
3c10
0000
0000
0000
cafe
2009
0000
0000
0000
cafe
2419
0000
0000
0000
cafe
2801
0000
0000
0000
cafe
2c11
0000
0000
0000
cafe
300a
0000
0000
0000
cafe
341a
0000
0000
0000
cafe
3802
0000
0000
0000
cafe
3c12
0000
0000
0000
cafe
200b
0000
0000
0000
cafe
241b
0000
0000
0000
cafe
2803
0000
0000
0000
cafe
-
2c13
0000
0000
0000
cafe
300c
0000
0000
0000
cafe
341c
0000
0000
0000
cafe
3804
0000
0000
0000
cafe
3c14
0000
0000
0000
cafe
200d
0000
0000
0000
cafe
241d
0000
0000
0000
cafe
2805
0000
0000
0000
cafe
2c15
0000
0000
0000
cafe
300e
0000
0000
0000
cafe
341e
0000
0000
0000
cafe
3806
0000
0000
0000
cafe
3c16
0000
0000
0000
cafe
200f
0000
0000
0000
cafe
241f
0000
0000
0000
cafe
2807
0000
0000
0000
cafe
2c17
0000
0000
0000
cafe
3008
0000
0000
0000
cafe
3418
0000
0000
0000
cafe
3800
0000
0000
0000
cafe
3c10
0000
0000
0000
cafe
2009
0000
0000
0000
cafe
2419
0000
0000
0000
cafe
2801
0000
0000
0000
cafe
2c11
0000
0000
0000
cafe
300a
0000
0000
0000
cafe
341a
0000
0000
0000
cafe
3802
0000
0000
0000
cafe
3c12
0000
0000
0000
cafe
200b
0000
0000
0000
cafe
241b
0000
0000
0000
cafe
2803
0000
0000
0000
cafe
2c13
0000
0000
0000
cafe
300c
0000
0000
0000
cafe
341c
0000
0000
0000
cafe
3804
0000
0000
0000
cafe
3c14
0000
0000
0000
cafe
200d
0000
0000
0000
cafe
241d
0000
0000
0000
cafe
2805
0000
0000
0000
cafe
2c15
0000
0000
0000
cafe
300e
0000
0000
0000
cafe
341e
0000
0000
0000
cafe
3806
0000
0000
0000
cafe
3c16
0000
0000
0000
cafe
200f
0000
0000
0000
cafe
241f
0000
0000
0000
cafe
2807
0000
0000
0000
cafe
2c17
0000
0000
0000
cafe
3008
0000
0000
0000
cafe
3418
0000
0000
0000
cafe
3800
-
0000
0000
0000
cafe
3c10
0000
0000
0000
cafe
2009
0000
0000
0000
cafe
2419
0000
0000
0000
cafe
2801
0000
0000
0000
cafe
2c11
0000
0000
0000
cafe
300a
0000
0000
0000
cafe
341a
0000
0000
0000
cafe
3802
0000
0000
0000
cafe
3c12
0000
0000
0000
cafe
200b
0000
0000
0000
cafe
241b
0000
0000
0000
cafe
2803
0000
0000
0000
cafe
2c13
0000
0000
0000
cafe
300c
0000
0000
0000
cafe
341c
0000
0000
0000
cafe
3804
0000
0000
0000
cafe
3c14
0000
0000
0000
cafe
200d
0000
0000
0000
cafe
241d
0000
0000
0000
cafe
2805
0000
0000
0000
cafe
2c15
0000
0000
0000
cafe
300e
0000
0000
0000
cafe
341e
0000
0000
0000
cafe
3806
0000
0000
0000
cafe
3c16
0000
0000
0000
cafe
200f
0000
0000
0000
cafe
241f
0000
0000
0000
cafe
2807
0000
0000
0000
cafe
2c17
0000
0000
0000
cafe
3008
0000
0000
0000
cafe
3418
0000
0000
0000
cafe
3800
0000
0000
0000
cafe
3c10
0000
0000
0000
cafe
2009
0000
0000
0000
cafe
2419
0000
0000
0000
cafe
2801
0000
0000
0000
cafe
2c11
0000
0000
0000
cafe
300a
0000
0000
0000
cafe
341a
0000
0000
0000
cafe
3802
0000
0000
0000
cafe
3c12
0000
0000
0000
cafe
200b
0000
0000
0000
cafe
241b
0000
0000
0000
cafe
2803
0000
0000
0000
cafe
2c13
0000
0000
0000
cafe
300c
0000
0000
0000
cafe
341c
0000
0000
0000
cafe
3804
0000
0000
0000
cafe
3c14
0000
0000
0000
cafe
200d
0000
0000
0000
cafe
241d
0000
-
0000
0000
cafe
2805
0000
0000
0000
cafe
2c15
0000
0000
0000
cafe
300e
0000
0000
0000
cafe
341e
0000
0000
0000
cafe
3806
0000
0000
0000
cafe
3c16
0000
0000
0000
cafe
200f
0000
0000
0000
cafe
241f
0000
0000
0000
cafe
2807
0000
0000
0000
cafe
2c17
0000
0000
0000
cafe
3008
0000
0000
0000
cafe
3418
0000
0000
0000
cafe
3800
0000
0000
0000
cafe
3c10
0000
0000
0000
cafe
2009
0000
0000
0000
cafe
2419
0000
0000
0000
cafe
2801
0000
0000
0000
cafe
2c11
0000
0000
0000
cafe
300a
0000
0000
0000
cafe
341a
0000
0000
0000
cafe
3802
0000
0000
0000
cafe
3c12
0000
0000
0000
cafe
200b
0000
0000
0000
cafe
241b
0000
0000
0000
cafe
2803
0000
0000
0000
cafe
2c13
0000
0000
0000
cafe
300c
0000
0000
0000
cafe
341c
0000
0000
0000
cafe
3804
0000
0000
0000
cafe
3c14
0000
0000
0000
cafe
200d
0000
0000
0000
cafe
241d
0000
0000
0000
cafe
2805
0000
0000
0000
cafe
2c15
0000
0000
0000
cafe
300e
0000
0000
0000
cafe
341e
0000
0000
0000
cafe
3806
0000
0000
0000
cafe
3c16
0000
0000
0000
cafe
200f
0000
0000
0000
cafe
241f
0000
0000
0000
cafe
2807
0000
0000
0000
cafe
2c17
0000
0000
0000
cafe
3008
0000
0000
0000
cafe
3418
0000
0000
0000
cafe
3800
0000
0000
0000
cafe
3c10
0000
0000
0000
cafe
2009
0000
0000
0000
cafe
2419
0000
0000
0000
cafe
2801
0000
0000
0000
cafe
2c11
0000
0000
0000
cafe
300a
0000
0000
-
0000
cafe
341a
0000
0000
0000
cafe
3802
0000
0000
0000
cafe
3c12
0000
0000
0000
cafe
200b
0000
0000
0000
cafe
241b
0000
0000
0000
cafe
2803
0000
0000
0000
cafe
2c13
0000
0000
0000
cafe
300c
0000
0000
0000
cafe
341c
0000
0000
0000
cafe
3804
0000
0000
0000
cafe
3c14
0000
0000
0000
cafe
200d
0000
0000
0000
cafe
241d
0000
0000
0000
cafe
2805
0000
0000
0000
cafe
2c15
0000
0000
0000
cafe
300e
0000
0000
0000
cafe
341e
0000
0000
0000
cafe
3806
0000
0000
0000
cafe
3c16
0000
0000
0000
cafe
200f
0000
0000
0000
cafe
241f
0000
0000
0000
cafe
2807
0000
0000
0000
cafe
2c17
0000
0000
0000
cafe
3008
0000
0000
0000
cafe
3418
0000
0000
0000
cafe
3800
0000
0000
0000
cafe
3c10
0000
0000
0000
cafe
2009
0000
0000
0000
cafe
2419
0000
0000
0000
cafe
2801
0000
0000
0000
cafe
2c11
0000
0000
0000
cafe
300a
0000
0000
0000
cafe
341a
0000
0000
0000
cafe
3802
0000
0000
0000
cafe
3c12
0000
0000
0000
cafe
200b
0000
0000
0000
cafe
241b
0000
0000
0000
cafe
2803
0000
0000
0000
cafe
2c13
0000
0000
0000
cafe
300c
0000
0000
0000
cafe
341c
0000
0000
0000
cafe
3804
0000
0000
0000
cafe
3c14
0000
0000
0000
cafe
200d
0000
0000
0000
cafe
241d
0000
0000
0000
cafe
2805
0000
0000
0000
cafe
2c15
0000
0000
0000
cafe
300e
0000
0000
0000
cafe
341e
0000
0000
0000
cafe
3806
0000
0000
0000
cafe
3c16
0000
0000
0000
-
cafe
200f
0000
0000
0000
cafe
241f
0000
0000
0000
cafe
2807
0000
0000
0000
cafe
2c17
0000
0000
0000
cafe
3008
0000
0000
0000
cafe
3418
0000
0000
0000
cafe
3800
0000
0000
0000
cafe
3c10
0000
0000
0000
cafe
2009
0000
0000
0000
cafe
2419
0000
0000
0000
cafe
2801
0000
0000
0000
cafe
2c11
0000
0000
0000
cafe
300a
0000
0000
0000
cafe
341a
0000
0000
0000
cafe
3802
0000
0000
0000
cafe
3c12
0000
0000
0000
cafe
200b
0000
0000
0000
cafe
241b
0000
0000
0000
cafe
2803
0000
0000
0000
cafe
2c13
0000
0000
0000
cafe
300c
0000
0000
0000
cafe
341c
0000
0000
0000
cafe
3804
0000
0000
0000
cafe
3c14
0000
0000
0000
cafe
200d
0000
0000
0000
cafe
241d
0000
0000
0000
cafe
2805
0000
0000
0000
cafe
2c15
0000
0000
0000
cafe
300e
0000
0000
0000
cafe
341e
0000
0000
0000
cafe
3806
0000
0000
0000
cafe
3c16
0000
0000
0000
cafe
200f
0000
0000
0000
cafe
241f
0000
0000
0000
cafe
2807
0000
0000
0000
cafe
2c17
0000
0000
0000
cafe
3008
0000
0000
0000
cafe
3418
0000
0000
0000
cafe
3800
0000
0000
0000
cafe
3c10
0000
0000
0000
cafe
2009
0000
0000
0000
cafe
2419
0000
0000
0000
cafe
2801
0000
0000
0000
cafe
2c11
0000
0000
0000
cafe
300a
0000
0000
0000
cafe
341a
0000
0000
0000
cafe
3802
0000
0000
0000
cafe
3c12
0000
0000
0000
cafe
200b
0000
0000
0000
cafe
241b
0000
0000
0000
cafe
2803
0000
0000
0000
cafe
-
2c13
0000
0000
0000
cafe
300c
0000
0000
0000
cafe
341c
0000
0000
0000
cafe
3804
0000
0000
0000
cafe
3c14
0000
0000
0000
cafe
200d
0000
0000
0000
cafe
241d
0000
0000
0000
cafe
2805
0000
0000
0000
cafe
2c15
0000
0000
0000
cafe
300e
0000
0000
0000
cafe
341e
0000
0000
0000
cafe
3806
0000
0000
0000
cafe
3c16
0000
0000
0000
cafe
200f
0000
0000
0000
cafe
241f
0000
0000
0000
cafe
2807
0000
0000
0000
cafe
2c17
0000
0000
0000
cafe
3008
0000
0000
0000
cafe
3418
0000
0000
0000
cafe
3800
0000
0000
0000
cafe
3c10
0000
0000
0000
cafe
2009
0000
0000
0000
cafe
2419
0000
0000
0000
cafe
2801
0000
0000
0000
cafe
2c11
0000
0000
0000
cafe
300a
0000
0000
0000
cafe
341a
0000
0000
0000
cafe
3802
0000
0000
0000
cafe
3c12
0000
0000
0000
cafe
200b
0000
0000
0000
cafe
241b
0000
0000
0000
cafe
2803
0000
0000
0000
cafe
2c13
0000
0000
0000
cafe
300c
0000
0000
0000
cafe
341c
0000
0000
0000
cafe
3804
0000
0000
0000
cafe
3c14
0000
0000
0000
cafe
200d
0000
0000
0000
cafe
241d
0000
0000
0000
cafe
2805
0000
0000
0000
cafe
2c15
0000
0000
0000
cafe
300e
0000
0000
0000
cafe
341e
0000
0000
0000
cafe
3806
0000
0000
0000
cafe
3c16
0000
0000
0000
cafe
200f
0000
0000
0000
cafe
241f
0000
0000
0000
cafe
2807
0000
0000
0000
cafe
2c17
0000
0000
0000
cafe
3008
0000
0000
0000
cafe
3418
0000
0000
0000
cafe
3800
-
0000
0000
0000
cafe
3c10
0000
0000
0000
cafe
2009
0000
0000
0000
cafe
2419
0000
0000
0000
cafe
2801
0000
0000
0000
cafe
2c11
0000
0000
0000
cafe
300a
0000
0000
0000
cafe
341a
0000
0000
0000
cafe
3802
0000
0000
0000
cafe
3c12
0000
0000
0000
cafe
200b
0000
0000
0000
cafe
241b
0000
0000
0000
cafe
2803
0000
0000
0000
cafe
2c13
0000
0000
0000
cafe
300c
0000
0000
0000
cafe
341c
0000
0000
0000
cafe
3804
0000
0000
0000
cafe
3c14
0000
0000
0000
cafe
200d
0000
0000
0000
cafe
241d
0000
0000
0000
cafe
2805
0000
0000
0000
cafe
2c15
0000
0000
0000
cafe
300e
0000
0000
0000
cafe
341e
0000
0000
0000
cafe
3806
0000
0000
0000
cafe
3c16
0000
0000
0000
cafe
200f
0000
0000
0000
cafe
241f
0000
0000
0000
cafe
2807
0000
0000
0000
cafe
2c17
0000
0000
0000
cafe
3008
0000
0000
0000
cafe
3418
0000
0000
0000
cafe
3800
0000
0000
0000
cafe
3c10
0000
0000
0000
cafe
2009
0000
0000
0000
cafe
2419
0000
0000
0000
cafe
2801
0000
0000
0000
cafe
2c11
0000
0000
0000
cafe
300a
0000
0000
0000
cafe
341a
0000
0000
0000
cafe
3802
0000
0000
0000
cafe
3c12
0000
0000
0000
cafe
200b
0000
0000
0000
cafe
241b
0000
0000
0000
cafe
2803
0000
0000
0000
cafe
2c13
0000
0000
0000
cafe
300c
0000
0000
0000
cafe
341c
0000
0000
0000
cafe
3804
0000
0000
0000
cafe
3c14
0000
0000
0000
cafe
200d
0000
0000
0000
cafe
241d
0000
-
0000
0000
cafe
2805
0000
0000
0000
cafe
2c15
0000
0000
0000
cafe
300e
0000
0000
0000
cafe
341e
0000
0000
0000
cafe
3806
0000
0000
0000
cafe
3c16
0000
0000
0000
cafe
200f
0000
0000
0000
cafe
241f
0000
0000
0000
cafe
2807
0000
0000
0000
cafe
2c17
0000
0000
0000
cafe
3008
0000
0000
0000
cafe
3418
0000
0000
0000
cafe
3800
0000
0000
0000
cafe
3c10
0000
0000
0000
cafe
2009
0000
0000
0000
cafe
2419
0000
0000
0000
cafe
2801
0000
0000
0000
cafe
2c11
0000
0000
0000
cafe
300a
0000
0000
0000
cafe
341a
0000
0000
0000
cafe
3802
0000
0000
0000
cafe
3c12
0000
0000
0000
cafe
200b
0000
0000
0000
cafe
241b
0000
0000
0000
cafe
2803
0000
0000
0000
cafe
2c13
0000
0000
0000
cafe
300c
0000
0000
0000
cafe
341c
0000
0000
0000
cafe
3804
0000
0000
0000
cafe
3c14
0000
0000
0000
cafe
200d
0000
0000
0000
cafe
241d
0000
0000
0000
cafe
2805
0000
0000
0000
cafe
2c15
0000
0000
0000
cafe
300e
0000
0000
0000
cafe
341e
0000
0000
0000
cafe
3806
0000
0000
0000
cafe
3c16
0000
0000
0000
cafe
200f
0000
0000
0000
cafe
241f
0000
0000
0000
cafe
2807
0000
0000
0000
cafe
2c17
0000
0000
0000
cafe
3008
0000
0000
0000
cafe
3418
0000
0000
0000
cafe
3800
0000
0000
0000
cafe
3c10
0000
0000
0000
cafe
2009
0000
0000
0000
cafe
2419
0000
0000
0000
cafe
2801
0000
0000
0000
cafe
2c11
0000
0000
0000
cafe
300a
0000
0000
-
0000
cafe
341a
0000
0000
0000
cafe
3802
0000
0000
0000
cafe
3c12
0000
0000
0000
cafe
200b
0000
0000
0000
cafe
241b
0000
0000
0000
cafe
2803
0000
0000
0000
cafe
2c13
0000
0000
0000
cafe
300c
0000
0000
0000
cafe
341c
0000
0000
0000
cafe
3804
0000
0000
0000
cafe
3c14
0000
0000
0000
cafe
200d
0000
0000
0000
cafe
241d
0000
0000
0000
cafe
2805
0000
0000
0000
cafe
2c15
0000
0000
0000
cafe
300e
0000
0000
0000
cafe
341e
0000
0000
0000
cafe
3806
0000
0000
0000
cafe
3c16
0000
0000
0000
cafe
200f
0000
0000
0000
cafe
241f
0000
0000
0000
cafe
2807
0000
0000
0000
cafe
2c17
0000
0000
0000
cafe
3008
0000
0000
0000
cafe
3418
0000
0000
0000
cafe
3800
0000
0000
0000
cafe
3c10
0000
0000
0000
cafe
2009
0000
0000
0000
cafe
2419
0000
0000
0000
cafe
2801
0000
0000
0000
cafe
2c11
0000
0000
0000
cafe
300a
0000
0000
0000
cafe
341a
0000
0000
0000
cafe
3802
0000
0000
0000
cafe
3c12
0000
0000
0000
cafe
200b
0000
0000
0000
cafe
241b
0000
0000
0000
cafe
2803
0000
0000
0000
cafe
2c13
0000
0000
0000
cafe
300c
0000
0000
0000
cafe
341c
0000
0000
0000
cafe
3804
0000
0000
0000
cafe
3c14
0000
0000
0000
cafe
200d
0000
0000
0000
cafe
241d
0000
0000
0000
cafe
2805
0000
0000
0000
cafe
2c15
0000
0000
0000
cafe
300e
0000
0000
0000
cafe
341e
0000
0000
0000
cafe
3806
0000
0000
0000
cafe
3c16
0000
0000
0000
-
cafe
200f
0000
0000
0000
cafe
241f
0000
0000
0000
cafe
2807
0000
0000
0000
cafe
2c17
0000
0000
0000
cafe
3008
0000
0000
0000
cafe
3418
0000
0000
0000
cafe
3800
0000
0000
0000
cafe
3c10
0000
0000
0000
cafe
2009
0000
0000
0000
cafe
2419
0000
0000
0000
cafe
2801
0000
0000
0000
cafe
2c11
0000
0000
0000
cafe
300a
0000
0000
0000
cafe
341a
0000
0000
0000
cafe
3802
0000
0000
0000
cafe
3c12
0000
0000
0000
cafe
200b
0000
0000
0000
cafe
241b
0000
0000
0000
cafe
2803
0000
0000
0000
cafe
2c13
0000
0000
0000
cafe
300c
0000
0000
0000
cafe
341c
0000
0000
0000
cafe
3804
0000
0000
0000
cafe
3c14
0000
0000
0000
cafe
200d
0000
0000
0000
cafe
241d
0000
0000
0000
cafe
2805
0000
0000
0000
cafe
2c15
0000
0000
0000
cafe
300e
0000
0000
0000
cafe
341e
0000
0000
0000
cafe
3806
0000
0000
0000
cafe
3c16
0000
0000
0000
cafe
200f
0000
0000
0000
cafe
241f
0000
0000
0000
cafe
2807
0000
0000
0000
cafe
2c17
0000
0000
0000
cafe
3008
0000
0000
0000
cafe
3418
0000
0000
0000
cafe
3800
0000
0000
0000
cafe
3c10
0000
0000
0000
cafe
2009
0000
0000
0000
cafe
2419
0000
0000
0000
cafe
2801
0000
0000
0000
cafe
2c11
0000
0000
0000
cafe
300a
0000
0000
0000
cafe
341a
0000
0000
0000
cafe
3802
0000
0000
0000
cafe
3c12
0000
0000
0000
cafe
200b
0000
0000
0000
cafe
241b
0000
0000
0000
cafe
2803
0000
0000
0000
cafe
-
