2c1f
0000
0000
0199
cafe
301f
0000
0000
01a0
cafe
341f
0000
0000
01a5
cafe
381f
0000
0000
01aa
cafe
3c1f
0000
0000
01aa
cafe
201f
0000
0000
01ad
cafe
241f
0000
0000
019c
cafe
281f
0000
0000
018e
cafe
2c1f
0000
0000
017c
cafe
301f
0000
0000
016c
cafe
341f
0000
0000
0158
cafe
381f
0000
0000
0144
cafe
3c1f
0000
0000
012f
cafe
201f
0000
0000
0117
cafe
241f
0000
0000
0105
cafe
281f
0000
0000
00f8
cafe
2c1f
0000
0000
00ec
cafe
301f
0000
0000
00e0
cafe
341f
0000
0000
0102
cafe
381f
0000
0000
0114
cafe
3c1f
0000
0000
011a
cafe
201f
0000
0000
011b
cafe
241f
0000
0000
011f
cafe
281f
0000
0000
0124
cafe
2c1f
0000
0000
012f
cafe
301f
0000
0000
0133
cafe
341f
0000
0000
013b
cafe
381f
0000
0000
0141
cafe
3c1f
0000
0000
014c
cafe
201f
0000
0000
014a
cafe
241f
0000
0000
0155
cafe
281f
0000
0000
0165
cafe
2c1f
0000
0000
0170
cafe
301f
0000
0000
0177
cafe
341f
0000
0000
0188
cafe
381f
0000
0000
0190
cafe
3c1f
0000
0000
019d
cafe
201f
0000
0000
01a5
cafe
241f
0000
0000
01a1
cafe
281f
0000
0000
01a6
cafe
2c1f
0000
0000
01a6
cafe
301f
0000
0000
01a4
cafe
341f
0000
0000
01a6
cafe
381f
0000
0000
019f
cafe
3c1f
0000
0000
019f
cafe
201f
0000
0000
0198
cafe
241f
0000
0000
0194
cafe
281f
0000
0000
0193
cafe
2c1f
0000
0000
0191
cafe
301f
0000
0000
0192
cafe
341f
0000
0000
018b
cafe
381f
-
0000
0000
0181
cafe
3c1f
0000
0000
0172
cafe
201f
0000
0000
0164
cafe
241f
0000
0000
0158
cafe
281f
0000
0000
0153
cafe
2c1f
0000
0000
014f
cafe
301f
0000
0000
0142
cafe
341f
0000
0000
013b
cafe
381f
0000
0000
0137
cafe
3c1f
0000
0000
0131
cafe
201f
0000
0000
012a
cafe
241f
0000
0000
0122
cafe
281f
0000
0000
0121
cafe
2c1f
0000
0000
0115
cafe
301f
0000
0000
0113
cafe
341f
0000
0000
0106
cafe
381f
0000
0000
0104
cafe
3c1f
0000
0000
0102
cafe
201f
0000
0000
0103
cafe
241f
0000
0000
0101
cafe
281f
0000
0000
00fe
cafe
2c1f
0000
0000
00fd
cafe
301f
0000
0000
0100
cafe
341f
0000
0000
0106
cafe
381f
0000
0000
0105
cafe
3c1f
0000
0000
0112
cafe
201f
0000
0000
011b
cafe
241f
0000
0000
0125
cafe
281f
0000
0000
012f
cafe
2c1f
0000
0000
013c
cafe
301f
0000
0000
0147
cafe
341f
0000
0000
0154
cafe
381f
0000
0000
015f
cafe
3c1f
0000
0000
015f
cafe
201f
0000
0000
0168
cafe
241f
0000
0000
0173
cafe
281f
0000
0000
0180
cafe
2c1f
0000
0000
0185
cafe
301f
0000
0000
018b
cafe
341f
0000
0000
018d
cafe
381f
0000
0000
0191
cafe
3c1f
0000
0000
018c
cafe
201f
0000
0000
0181
cafe
241f
0000
0000
0177
cafe
281f
0000
0000
016d
cafe
2c1f
0000
0000
0165
cafe
301f
0000
0000
0164
cafe
341f
0000
0000
0158
cafe
381f
0000
0000
014d
cafe
3c1f
0000
0000
013c
cafe
201f
0000
0000
012b
cafe
241f
0000
-
0000
0116
cafe
281f
0000
0000
0103
cafe
2c1f
0000
0000
00ed
cafe
301f
0000
0000
00e3
cafe
341f
0000
0000
00dc
cafe
381f
0000
0000
00d7
cafe
3c1f
0000
0000
00cb
cafe
201f
0000
0000
00c7
cafe
241f
0000
0000
00c4
cafe
281f
0000
0000
00be
cafe
2c1f
0000
0000
00bf
cafe
301f
0000
0000
00bd
cafe
341f
0000
0000
00bd
cafe
381f
0000
0000
00c5
cafe
3c1f
0000
0000
00ca
cafe
201f
0000
0000
00d0
cafe
241f
0000
0000
00e5
cafe
281f
0000
0000
00fe
cafe
2c1f
0000
0000
0115
cafe
301f
0000
0000
0125
cafe
341f
0000
0000
0136
cafe
381f
0000
0000
0143
cafe
3c1f
0000
0000
014d
cafe
201f
0000
0000
0157
cafe
241f
0000
0000
015e
cafe
281f
0000
0000
0169
cafe
2c1f
0000
0000
016f
cafe
301f
0000
0000
0178
cafe
341f
0000
0000
017a
cafe
381f
0000
0000
017e
cafe
3c1f
0000
0000
0180
cafe
201f
0000
0000
0180
cafe
241f
0000
0000
0177
cafe
281f
0000
0000
0176
cafe
2c1f
0000
0000
0170
cafe
301f
0000
0000
0169
cafe
341f
0000
0000
015c
cafe
381f
0000
0000
0157
cafe
3c1f
0000
0000
014f
cafe
201f
0000
0000
0141
cafe
241f
0000
0000
0131
cafe
281f
0000
0000
0126
cafe
2c1f
0000
0000
0113
cafe
301f
0000
0000
0101
cafe
341f
0000
0000
00f3
cafe
381f
0000
0000
00eb
cafe
3c1f
0000
0000
00ea
cafe
201f
0000
0000
00e0
cafe
241f
0000
0000
00d9
cafe
281f
0000
0000
00e2
cafe
2c1f
0000
0000
00e7
cafe
301f
0000
0000
-
00ea
cafe
341f
0000
0000
00ed
cafe
381f
0000
0000
00ed
cafe
3c1f
0000
0000
00ec
cafe
201f
0000
0000
00ee
cafe
241f
0000
0000
00e9
cafe
281f
0000
0000
00e7
cafe
2c1f
0000
0000
00e6
cafe
301f
0000
0000
00ea
cafe
341f
0000
0000
00f7
cafe
381f
0000
0000
0105
cafe
3c1f
0000
0000
011d
cafe
201f
0000
0000
012a
cafe
241f
0000
0000
0133
cafe
281f
0000
0000
013e
cafe
2c1f
0000
0000
0148
cafe
301f
0000
0000
0158
cafe
341f
0000
0000
015d
cafe
381f
0000
0000
0169
cafe
3c1f
0000
0000
016e
cafe
201f
0000
0000
0170
cafe
241f
0000
0000
0171
cafe
281f
0000
0000
016d
cafe
2c1f
0000
0000
016a
cafe
301f
0000
0000
0170
cafe
341f
0000
0000
0177
cafe
381f
0000
0000
0175
cafe
3c1f
0000
0000
0172
cafe
201f
0000
0000
0174
cafe
241f
0000
0000
0172
cafe
281f
0000
0000
0175
cafe
2c1f
0000
0000
016e
cafe
301f
0000
0000
0166
cafe
341f
0000
0000
0159
cafe
381f
0000
0000
014e
cafe
3c1f
0000
0000
0140
cafe
201f
0000
0000
0136
cafe
241f
0000
0000
0126
cafe
281f
0000
0000
011b
cafe
2c1f
0000
0000
0111
cafe
301f
0000
0000
0110
cafe
341f
0000
0000
0109
cafe
381f
0000
0000
0108
cafe
3c1f
0000
0000
0103
cafe
201f
0000
0000
00fe
cafe
241f
0000
0000
00ee
cafe
281f
0000
0000
00e9
cafe
2c1f
0000
0000
00e1
cafe
301f
0000
0000
00da
cafe
341f
0000
0000
00da
cafe
381f
0000
0000
00d7
cafe
3c1f
0000
0000
00db
-
cafe
201f
0000
0000
00e2
cafe
241f
0000
0000
00e4
cafe
281f
0000
0000
00ec
cafe
2c1f
0000
0000
00f5
cafe
301f
0000
0000
0103
cafe
341f
0000
0000
0112
cafe
381f
0000
0000
011f
cafe
3c1f
0000
0000
012e
cafe
201f
0000
0000
013c
cafe
241f
0000
0000
0149
cafe
281f
0000
0000
0159
cafe
2c1f
0000
0000
0167
cafe
301f
0000
0000
016e
cafe
341f
0000
0000
0172
cafe
381f
0000
0000
017a
cafe
3c1f
0000
0000
017e
cafe
201f
0000
0000
017d
cafe
241f
0000
0000
0182
cafe
281f
0000
0000
0189
cafe
2c1f
0000
0000
0186
cafe
301f
0000
0000
0188
cafe
341f
0000
0000
0187
cafe
381f
0000
0000
0183
cafe
3c1f
0000
0000
0175
cafe
201f
0000
0000
0168
cafe
241f
0000
0000
014f
cafe
281f
0000
0000
0141
cafe
2c1f
0000
0000
0132
cafe
301f
0000
0000
0120
cafe
341f
0000
0000
010e
cafe
381f
0000
0000
0100
cafe
3c1f
0000
0000
00f5
cafe
201f
0000
0000
00ee
cafe
241f
0000
0000
00e7
cafe
281f
0000
0000
00db
cafe
2c1f
0000
0000
00d1
cafe
301f
0000
0000
00c7
cafe
341f
0000
0000
00c3
cafe
381f
0000
0000
00c1
cafe
3c1f
0000
0000
00c0
cafe
201f
0000
0000
00c0
cafe
241f
0000
0000
00c4
cafe
281f
0000
0000
00cb
cafe
2c1f
0000
0000
00d6
cafe
301f
0000
0000
00dd
cafe
341f
0000
0000
00ea
cafe
381f
0000
0000
00f8
cafe
3c1f
0000
0000
0109
cafe
201f
0000
0000
011c
cafe
241f
0000
0000
012c
cafe
281f
0000
0000
0139
cafe
-
2c1f
0000
0000
014e
cafe
301f
0000
0000
015c
cafe
341f
0000
0000
0168
cafe
381f
0000
0000
0178
cafe
3c1f
0000
0000
0182
cafe
201f
0000
0000
0180
cafe
241f
0000
0000
017a
cafe
281f
0000
0000
0178
cafe
2c1f
0000
0000
0175
cafe
301f
0000
0000
0170
cafe
341f
0000
0000
016d
cafe
381f
0000
0000
0168
cafe
3c1f
0000
0000
0163
cafe
201f
0000
0000
0160
cafe
241f
0000
0000
015d
cafe
281f
0000
0000
0158
cafe
2c1f
0000
0000
014c
cafe
301f
0000
0000
0143
cafe
341f
0000
0000
0139
cafe
381f
0000
0000
0133
cafe
3c1f
0000
0000
012b
cafe
201f
0000
0000
011f
cafe
241f
0000
0000
011f
cafe
281f
0000
0000
011c
cafe
2c1f
0000
0000
011a
cafe
301f
0000
0000
0119
cafe
341f
0000
0000
010f
cafe
381f
0000
0000
0110
cafe
3c1f
0000
0000
0113
cafe
201f
0000
0000
010d
cafe
241f
0000
0000
010b
cafe
281f
0000
0000
00fe
cafe
2c1f
0000
0000
00fa
cafe
301f
0000
0000
00f3
cafe
341f
0000
0000
00f2
cafe
381f
0000
0000
00f2
cafe
3c1f
0000
0000
00ee
cafe
201f
0000
0000
00eb
cafe
241f
0000
0000
00ea
cafe
281f
0000
0000
00f6
cafe
2c1f
0000
0000
00ff
cafe
301f
0000
0000
0104
cafe
341f
0000
0000
010f
cafe
381f
0000
0000
011a
cafe
3c1f
0000
0000
0127
cafe
201f
0000
0000
0135
cafe
241f
0000
0000
013d
cafe
281f
0000
0000
0149
cafe
2c1f
0000
0000
0151
cafe
301f
0000
0000
015b
cafe
341f
0000
0000
0165
cafe
381f
-
0000
0000
016b
cafe
3c1f
0000
0000
016e
cafe
201f
0000
0000
0171
cafe
241f
0000
0000
017d
cafe
281f
0000
0000
018b
cafe
2c1f
0000
0000
0193
cafe
301f
0000
0000
0199
cafe
341f
0000
0000
019c
cafe
381f
0000
0000
019a
cafe
3c1f
0000
0000
019b
cafe
201f
0000
0000
0197
cafe
241f
0000
0000
0190
cafe
281f
0000
0000
017f
cafe
2c1f
0000
0000
0170
cafe
301f
0000
0000
0164
cafe
341f
0000
0000
015c
cafe
381f
0000
0000
014c
cafe
3c1f
0000
0000
0140
cafe
201f
0000
0000
0128
cafe
241f
0000
0000
0116
cafe
281f
0000
0000
0108
cafe
2c1f
0000
0000
00fb
cafe
301f
0000
0000
00ee
cafe
341f
0000
0000
00e5
cafe
381f
0000
0000
00d9
cafe
3c1f
0000
0000
00d3
cafe
201f
0000
0000
00ca
cafe
241f
0000
0000
00c3
cafe
281f
0000
0000
00be
cafe
2c1f
0000
0000
00c3
cafe
301f
0000
0000
00cd
cafe
341f
0000
0000
00d5
cafe
381f
0000
0000
00e4
cafe
3c1f
0000
0000
00f8
cafe
201f
0000
0000
0101
cafe
241f
0000
0000
011a
cafe
281f
0000
0000
0133
cafe
2c1f
0000
0000
0148
cafe
301f
0000
0000
015a
cafe
341f
0000
0000
0169
cafe
381f
0000
0000
0176
cafe
3c1f
0000
0000
017e
cafe
201f
0000
0000
0185
cafe
241f
0000
0000
018a
cafe
281f
0000
0000
018f
cafe
2c1f
0000
0000
0199
cafe
301f
0000
0000
019e
cafe
341f
0000
0000
019f
cafe
381f
0000
0000
019f
cafe
3c1f
0000
0000
019e
cafe
201f
0000
0000
0197
cafe
241f
0000
-
0000
018c
cafe
281f
0000
0000
0186
cafe
2c1f
0000
0000
017c
cafe
301f
0000
0000
0170
cafe
341f
0000
0000
0163
cafe
381f
0000
0000
0156
cafe
3c1f
0000
0000
014a
cafe
201f
0000
0000
0142
cafe
241f
0000
0000
0130
cafe
281f
0000
0000
011e
cafe
2c1f
0000
0000
0111
cafe
301f
0000
0000
0108
cafe
341f
0000
0000
00fd
cafe
381f
0000
0000
00f0
cafe
3c1f
0000
0000
00ec
cafe
201f
0000
0000
00e5
cafe
241f
0000
0000
00e2
cafe
281f
0000
0000
00ec
cafe
2c1f
0000
0000
00ed
cafe
301f
0000
0000
00f1
cafe
341f
0000
0000
00f2
cafe
381f
0000
0000
00fd
cafe
3c1f
0000
0000
00fd
cafe
201f
0000
0000
00fc
cafe
241f
0000
0000
0101
cafe
281f
0000
0000
0107
cafe
2c1f
0000
0000
0112
cafe
301f
0000
0000
011e
cafe
341f
0000
0000
0134
cafe
381f
0000
0000
0148
cafe
3c1f
0000
0000
0159
cafe
201f
0000
0000
0163
cafe
241f
0000
0000
016c
cafe
281f
0000
0000
0172
cafe
2c1f
0000
0000
017a
cafe
301f
0000
0000
0184
cafe
341f
0000
0000
018a
cafe
381f
0000
0000
0195
cafe
3c1f
0000
0000
0198
cafe
201f
0000
0000
019d
cafe
241f
0000
0000
019c
cafe
281f
0000
0000
019a
cafe
2c1f
0000
0000
0195
cafe
301f
0000
0000
0197
cafe
341f
0000
0000
0195
cafe
381f
0000
0000
018c
cafe
3c1f
0000
0000
0181
cafe
201f
0000
0000
0176
cafe
241f
0000
0000
0168
cafe
281f
0000
0000
0164
cafe
2c1f
0000
0000
015a
cafe
301f
0000
0000
-
014d
cafe
341f
0000
0000
0145
cafe
381f
0000
0000
013a
cafe
3c1f
0000
0000
0131
cafe
201f
0000
0000
0125
cafe
241f
0000
0000
011a
cafe
281f
0000
0000
010f
cafe
2c1f
0000
0000
0110
cafe
301f
0000
0000
0105
cafe
341f
0000
0000
0105
cafe
381f
0000
0000
0106
cafe
3c1f
0000
0000
0102
cafe
201f
0000
0000
00f1
cafe
241f
0000
0000
00e9
cafe
281f
0000
0000
00e1
cafe
2c1f
0000
0000
00da
cafe
301f
0000
0000
00dc
cafe
341f
0000
0000
00e1
cafe
381f
0000
0000
00e9
cafe
3c1f
0000
0000
00f8
cafe
201f
0000
0000
0100
cafe
241f
0000
0000
010a
cafe
281f
0000
0000
011a
cafe
2c1f
0000
0000
0126
cafe
301f
0000
0000
0132
cafe
341f
0000
0000
013e
cafe
381f
0000
0000
0149
cafe
3c1f
0000
0000
014f
cafe
201f
0000
0000
0159
cafe
241f
0000
0000
016d
cafe
281f
0000
0000
017c
cafe
2c1f
0000
0000
0189
cafe
301f
0000
0000
0192
cafe
341f
0000
0000
0196
cafe
381f
0000
0000
01a4
cafe
3c1f
0000
0000
01af
cafe
201f
0000
0000
01ab
cafe
241f
0000
0000
01ab
cafe
281f
0000
0000
01ad
cafe
2c1f
0000
0000
01a8
cafe
301f
0000
0000
01a3
cafe
341f
0000
0000
019b
cafe
381f
0000
0000
0192
cafe
3c1f
0000
0000
017c
cafe
201f
0000
0000
0163
cafe
241f
0000
0000
0151
cafe
281f
0000
0000
013a
cafe
2c1f
0000
0000
0126
cafe
301f
0000
0000
0114
cafe
341f
0000
0000
0107
cafe
381f
0000
0000
00fb
cafe
3c1f
0000
0000
00f5
-
cafe
201f
0000
0000
00e7
cafe
241f
0000
0000
00da
cafe
281f
0000
0000
00d4
cafe
2c1f
0000
0000
00d2
cafe
301f
0000
0000
00c9
cafe
341f
0000
0000
00c7
cafe
381f
0000
0000
00cd
cafe
3c1f
0000
0000
00d8
cafe
201f
0000
0000
00db
cafe
241f
0000
0000
00e5
cafe
281f
0000
0000
00f3
cafe
2c1f
0000
0000
0108
cafe
301f
0000
0000
0116
cafe
341f
0000
0000
0124
cafe
381f
0000
0000
0130
cafe
3c1f
0000
0000
013d
cafe
201f
0000
0000
0150
cafe
241f
0000
0000
0161
cafe
281f
0000
0000
0171
cafe
2c1f
0000
0000
017d
cafe
301f
0000
0000
0186
cafe
341f
0000
0000
018f
cafe
381f
0000
0000
0195
cafe
3c1f
0000
0000
019c
cafe
201f
0000
0000
0195
cafe
241f
0000
0000
0197
cafe
281f
0000
0000
0192
cafe
2c1f
0000
0000
0192
cafe
301f
0000
0000
0193
cafe
341f
0000
0000
0194
cafe
381f
0000
0000
0191
cafe
3c1f
0000
0000
0185
cafe
201f
0000
0000
0175
cafe
241f
0000
0000
0168
cafe
281f
0000
0000
015b
cafe
2c1f
0000
0000
014c
cafe
301f
0000
0000
0135
cafe
341f
0000
0000
011e
cafe
381f
0000
0000
0111
cafe
3c1f
0000
0000
0101
cafe
201f
0000
0000
00f3
cafe
241f
0000
0000
00f2
cafe
281f
0000
0000
00f5
cafe
2c1f
0000
0000
00f3
cafe
301f
0000
0000
00ea
cafe
341f
0000
0000
00e9
cafe
381f
0000
0000
00e3
cafe
3c1f
0000
0000
00df
cafe
201f
0000
0000
00df
cafe
241f
0000
0000
00e0
cafe
281f
0000
0000
00e6
cafe
-
2c1f
0000
0000
00e7
cafe
301f
0000
0000
00f1
cafe
341f
0000
0000
00fb
cafe
381f
0000
0000
0104
cafe
3c1f
0000
0000
010e
cafe
201f
0000
0000
010f
cafe
241f
0000
0000
011a
cafe
281f
0000
0000
0126
cafe
2c1f
0000
0000
0130
cafe
301f
0000
0000
0138
cafe
341f
0000
0000
0145
cafe
381f
0000
0000
014c
cafe
3c1f
0000
0000
014b
cafe
201f
0000
0000
0150
cafe
241f
0000
0000
0156
cafe
281f
0000
0000
0161
cafe
2c1f
0000
0000
0165
cafe
301f
0000
0000
0168
cafe
341f
0000
0000
016c
cafe
381f
0000
0000
0173
cafe
3c1f
0000
0000
0174
cafe
201f
0000
0000
0170
cafe
241f
0000
0000
0177
cafe
281f
0000
0000
017a
cafe
2c1f
0000
0000
0183
cafe
301f
0000
0000
0180
cafe
341f
0000
0000
0180
cafe
381f
0000
0000
017b
cafe
3c1f
0000
0000
016f
cafe
201f
0000
0000
0164
cafe
241f
0000
0000
014f
cafe
281f
0000
0000
0144
cafe
2c1f
0000
0000
013b
cafe
301f
0000
0000
0129
cafe
341f
0000
0000
011e
cafe
381f
0000
0000
010e
cafe
3c1f
0000
0000
00fb
cafe
201f
0000
0000
00e8
cafe
241f
0000
0000
00e3
cafe
281f
0000
0000
00dc
cafe
2c1f
0000
0000
00dc
cafe
301f
0000
0000
00dd
cafe
341f
0000
0000
00d4
cafe
381f
0000
0000
00d5
cafe
3c1f
0000
0000
00cc
cafe
201f
0000
0000
00ca
cafe
241f
0000
0000
00cb
cafe
281f
0000
0000
00c8
cafe
2c1f
0000
0000
00cc
cafe
301f
0000
0000
00d6
cafe
341f
0000
0000
00d7
cafe
381f
-
0000
0000
00e1
cafe
3c1f
0000
0000
00ee
cafe
201f
0000
0000
00fc
cafe
241f
0000
0000
010f
cafe
281f
0000
0000
0123
cafe
2c1f
0000
0000
0132
cafe
301f
0000
0000
0148
cafe
341f
0000
0000
0159
cafe
381f
0000
0000
0168
cafe
3c1f
0000
0000
0174
cafe
201f
0000
0000
0177
cafe
241f
0000
0000
017d
cafe
281f
0000
0000
0187
cafe
2c1f
0000
0000
0190
cafe
301f
0000
0000
0195
cafe
341f
0000
0000
019f
cafe
381f
0000
0000
019a
cafe
3c1f
0000
0000
0194
cafe
201f
0000
0000
018b
cafe
241f
0000
0000
0181
cafe
281f
0000
0000
0177
cafe
2c1f
0000
0000
016e
cafe
301f
0000
0000
0163
cafe
341f
0000
0000
0150
cafe
381f
0000
0000
0136
cafe
3c1f
0000
0000
0123
cafe
201f
0000
0000
0110
cafe
241f
0000
0000
00fd
cafe
281f
0000
0000
00f4
cafe
2c1f
0000
0000
00df
cafe
301f
0000
0000
00db
cafe
341f
0000
0000
00d0
cafe
381f
0000
0000
00cc
cafe
3c1f
0000
0000
00c1
cafe
201f
0000
0000
00c0
cafe
241f
0000
0000
00bd
cafe
281f
0000
0000
00be
cafe
2c1f
0000
0000
00c7
cafe
301f
0000
0000
00c3
cafe
341f
0000
0000
00c3
cafe
381f
0000
0000
00c8
cafe
3c1f
0000
0000
00d1
cafe
201f
0000
0000
00d9
cafe
241f
0000
0000
00eb
cafe
281f
0000
0000
00fc
cafe
2c1f
0000
0000
0111
cafe
301f
0000
0000
0126
cafe
341f
0000
0000
0137
cafe
381f
0000
0000
0144
cafe
3c1f
0000
0000
0148
cafe
201f
0000
0000
014f
cafe
241f
0000
-
0000
0154
cafe
281f
0000
0000
0159
cafe
2c1f
0000
0000
0162
cafe
301f
0000
0000
016a
cafe
341f
0000
0000
016d
cafe
381f
0000
0000
016e
cafe
3c1f
0000
0000
0173
cafe
201f
0000
0000
017b
cafe
241f
0000
0000
017b
cafe
281f
0000
0000
0186
cafe
2c1f
0000
0000
0185
cafe
301f
0000
0000
0185
cafe
341f
0000
0000
0182
cafe
381f
0000
0000
017d
cafe
3c1f
0000
0000
0176
cafe
201f
0000
0000
016e
cafe
241f
0000
0000
0166
cafe
281f
0000
0000
015a
cafe
2c1f
0000
0000
014f
cafe
301f
0000
0000
013e
cafe
341f
0000
0000
012b
cafe
381f
0000
0000
0123
cafe
3c1f
0000
0000
011d
cafe
201f
0000
0000
0111
cafe
241f
0000
0000
010a
cafe
281f
0000
0000
0109
cafe
2c1f
0000
0000
0100
cafe
301f
0000
0000
0101
cafe
341f
0000
0000
00fc
cafe
381f
0000
0000
00fd
cafe
3c1f
0000
0000
00fb
cafe
201f
0000
0000
00f3
cafe
241f
0000
0000
00f1
cafe
281f
0000
0000
00f1
cafe
2c1f
0000
0000
00f3
cafe
301f
0000
0000
00f5
cafe
341f
0000
0000
00f9
cafe
381f
0000
0000
00fd
cafe
3c1f
0000
0000
0108
cafe
201f
0000
0000
0113
cafe
241f
0000
0000
0120
cafe
281f
0000
0000
0128
cafe
2c1f
0000
0000
012f
cafe
301f
0000
0000
013e
cafe
341f
0000
0000
0148
cafe
381f
0000
0000
0156
cafe
3c1f
0000
0000
015c
cafe
201f
0000
0000
0169
cafe
241f
0000
0000
017e
cafe
281f
0000
0000
0189
cafe
2c1f
0000
0000
0195
cafe
301f
0000
0000
-
019b
cafe
341f
0000
0000
0198
cafe
381f
0000
0000
019c
cafe
3c1f
0000
0000
019e
cafe
201f
0000
0000
019b
cafe
241f
0000
0000
019c
cafe
281f
0000
0000
0199
cafe
2c1f
0000
0000
0197
cafe
301f
0000
0000
018d
cafe
341f
0000
0000
018c
cafe
381f
0000
0000
017f
cafe
3c1f
0000
0000
0168
cafe
201f
0000
0000
0154
cafe
241f
0000
0000
0142
cafe
281f
0000
0000
0133
cafe
2c1f
0000
0000
0128
cafe
301f
0000
0000
0119
cafe
341f
0000
0000
0111
cafe
381f
0000
0000
0107
cafe
3c1f
0000
0000
00fe
cafe
201f
0000
0000
00ee
cafe
241f
0000
0000
00ee
cafe
281f
0000
0000
00e6
cafe
2c1f
0000
0000
00e6
cafe
301f
0000
0000
00e2
cafe
341f
0000
0000
00e0
cafe
381f
0000
0000
00dd
cafe
3c1f
0000
0000
00de
cafe
201f
0000
0000
00e8
cafe
241f
0000
0000
00f1
cafe
281f
0000
0000
0100
cafe
2c1f
0000
0000
010b
cafe
301f
0000
0000
0119
cafe
341f
0000
0000
0124
cafe
381f
0000
0000
012f
cafe
3c1f
0000
0000
013b
cafe
201f
0000
0000
0149
cafe
241f
0000
0000
0159
cafe
281f
0000
0000
0169
cafe
2c1f
0000
0000
0176
cafe
301f
0000
0000
0187
cafe
341f
0000
0000
018d
cafe
381f
0000
0000
0195
cafe
3c1f
0000
0000
0195
cafe
201f
0000
0000
018b
cafe
241f
0000
0000
0187
cafe
281f
0000
0000
018b
cafe
2c1f
0000
0000
0187
cafe
301f
0000
0000
0184
cafe
341f
0000
0000
0183
cafe
381f
0000
0000
0179
cafe
3c1f
0000
0000
0174
-
cafe
201f
0000
0000
016b
cafe
241f
0000
0000
0163
cafe
281f
0000
0000
0155
cafe
2c1f
0000
0000
014b
cafe
301f
0000
0000
0142
cafe
341f
0000
0000
0130
cafe
381f
0000
0000
0121
cafe
3c1f
0000
0000
0112
cafe
201f
0000
0000
010e
cafe
241f
0000
0000
0109
cafe
281f
0000
0000
0106
cafe
2c1f
0000
0000
0104
cafe
301f
0000
0000
00fc
cafe
341f
0000
0000
00f8
cafe
381f
0000
0000
00fa
cafe
3c1f
0000
0000
00fd
cafe
201f
0000
0000
00f8
cafe
241f
0000
0000
00f8
cafe
281f
0000
0000
00fc
cafe
2c1f
0000
0000
00fe
cafe
301f
0000
0000
00ff
cafe
341f
0000
0000
0105
cafe
381f
0000
0000
0105
cafe
3c1f
0000
0000
0104
cafe
201f
0000
0000
010a
cafe
241f
0000
0000
0319
cafe
281f
0000
0000
03dc
cafe
2c1f
0000
0000
041d
cafe
301f
0000
0000
042e
cafe
341f
0000
0000
0434
cafe
381f
0000
0000
0431
cafe
3c1f
0000
0000
0427
cafe
201f
0000
0000
0422
cafe
241f
0000
0000
041d
cafe
281f
0000
0000
0410
cafe
2c1f
0000
0000
0406
cafe
301f
0000
0000
03ff
cafe
341f
0000
0000
03f3
cafe
381f
0000
0000
03ee
cafe
3c1f
0000
0000
03e4
cafe
201f
0000
0000
03e7
cafe
241f
0000
0000
03e3
cafe
281f
0000
0000
03d9
cafe
2c1f
0000
0000
03cd
cafe
301f
0000
0000
03be
cafe
341f
0000
0000
03ab
cafe
381f
0000
0000
0395
cafe
3c1f
0000
0000
0385
cafe
201f
0000
0000
0367
cafe
241f
0000
0000
034d
cafe
281f
0000
0000
0340
cafe
-
2c1f
0000
0000
032a
cafe
301f
0000
0000
0318
cafe
341f
0000
0000
0300
cafe
381f
0000
0000
02ee
cafe
3c1f
0000
0000
02d1
cafe
201f
0000
0000
02ba
cafe
241f
0000
0000
02a5
cafe
281f
0000
0000
028f
cafe
2c1f
0000
0000
0282
cafe
301f
0000
0000
026a
cafe
341f
0000
0000
0251
cafe
381f
0000
0000
024c
cafe
3c1f
0000
0000
0242
cafe
201f
0000
0000
022c
cafe
241f
0000
0000
0220
cafe
281f
0000
0000
0218
cafe
2c1f
0000
0000
0219
cafe
301f
0000
0000
0219
cafe
341f
0000
0000
0224
cafe
381f
0000
0000
0229
cafe
3c1f
0000
0000
0235
cafe
201f
0000
0000
023b
cafe
241f
0000
0000
024a
cafe
281f
0000
0000
0258
cafe
2c1f
0000
0000
0266
cafe
301f
0000
0000
0268
cafe
341f
0000
0000
0269
cafe
381f
0000
0000
026a
cafe
3c1f
0000
0000
0267
cafe
201f
0000
0000
026d
cafe
241f
0000
0000
026d
cafe
281f
0000
0000
0271
cafe
2c1f
0000
0000
0273
cafe
301f
0000
0000
026a
cafe
341f
0000
0000
0264
cafe
381f
0000
0000
025d
cafe
3c1f
0000
0000
0242
cafe
201f
0000
0000
022e
cafe
241f
0000
0000
0214
cafe
281f
0000
0000
0203
cafe
2c1f
0000
0000
01eb
cafe
301f
0000
0000
01d8
cafe
341f
0000
0000
01c5
cafe
381f
0000
0000
01b3
cafe
3c1f
0000
0000
019c
cafe
201f
0000
0000
0187
cafe
241f
0000
0000
0174
cafe
281f
0000
0000
0168
cafe
2c1f
0000
0000
015b
cafe
301f
0000
0000
0154
cafe
341f
0000
0000
014b
cafe
381f
-
0000
0000
0142
cafe
3c1f
0000
0000
0138
cafe
201f
0000
0000
0139
cafe
241f
0000
0000
0138
cafe
281f
0000
0000
012c
cafe
2c1f
0000
0000
012a
cafe
301f
0000
0000
0129
cafe
341f
0000
0000
012a
cafe
381f
0000
0000
012c
cafe
3c1f
0000
0000
0136
cafe
201f
0000
0000
013a
cafe
241f
0000
0000
0144
cafe
281f
0000
0000
014e
cafe
2c1f
0000
0000
0156
cafe
301f
0000
0000
0163
cafe
341f
0000
0000
0168
cafe
381f
0000
0000
016d
cafe
3c1f
0000
0000
0168
cafe
201f
0000
0000
0168
cafe
241f
0000
0000
0163
cafe
281f
0000
0000
0163
cafe
2c1f
0000
0000
0162
cafe
301f
0000
0000
0161
cafe
341f
0000
0000
0164
cafe
381f
0000
0000
0164
cafe
3c1f
0000
0000
0166
cafe
201f
0000
0000
016c
cafe
241f
0000
0000
016e
cafe
281f
0000
0000
0169
cafe
2c1f
0000
0000
0169
cafe
301f
0000
0000
016b
cafe
341f
0000
0000
0165
cafe
381f
0000
0000
0159
cafe
3c1f
0000
0000
0151
cafe
201f
0000
0000
014b
cafe
241f
0000
0000
013e
cafe
281f
0000
0000
0130
cafe
2c1f
0000
0000
0118
cafe
301f
0000
0000
0107
cafe
341f
0000
0000
00f1
cafe
381f
0000
0000
00dc
cafe
3c1f
0000
0000
00d1
cafe
201f
0000
0000
00c4
cafe
241f
0000
0000
00b5
cafe
281f
0000
0000
00b0
cafe
2c1f
0000
0000
00ac
cafe
301f
0000
0000
00a6
cafe
341f
0000
0000
00aa
cafe
381f
0000
0000
00a3
cafe
3c1f
0000
0000
009b
cafe
201f
0000
0000
0099
cafe
241f
0000
-
0000
0096
cafe
281f
0000
0000
0096
cafe
2c1f
0000
0000
009e
cafe
301f
0000
0000
00a9
cafe
341f
0000
0000
00b4
cafe
381f
0000
0000
00c1
cafe
3c1f
0000
0000
00cd
cafe
201f
0000
0000
00dc
cafe
241f
0000
0000
00ea
cafe
281f
0000
0000
00f6
cafe
2c1f
0000
0000
0101
cafe
301f
0000
0000
0109
cafe
341f
0000
0000
0110
cafe
381f
0000
0000
0116
cafe
3c1f
0000
0000
0125
cafe
201f
0000
0000
0134
cafe
241f
0000
0000
0141
cafe
281f
0000
0000
0140
cafe
2c1f
0000
0000
0142
cafe
301f
0000
0000
0146
cafe
341f
0000
0000
0144
cafe
381f
0000
0000
0146
cafe
3c1f
0000
0000
013c
cafe
201f
0000
0000
0138
cafe
241f
0000
0000
0134
cafe
281f
0000
0000
0125
cafe
2c1f
0000
0000
011e
cafe
301f
0000
0000
0112
cafe
341f
0000
0000
0104
cafe
381f
0000
0000
00eb
cafe
3c1f
0000
0000
00d0
cafe
201f
0000
0000
00be
cafe
241f
0000
0000
00b1
cafe
281f
0000
0000
00a1
cafe
2c1f
0000
0000
0095
cafe
301f
0000
0000
008b
cafe
341f
0000
0000
0087
cafe
381f
0000
0000
0080
cafe
3c1f
0000
0000
0075
cafe
201f
0000
0000
006e
cafe
241f
0000
0000
0065
cafe
281f
0000
0000
0064
cafe
2c1f
0000
0000
005c
cafe
301f
0000
0000
0057
cafe
341f
0000
0000
0056
cafe
381f
0000
0000
0059
cafe
3c1f
0000
0000
0065
cafe
201f
0000
0000
0074
cafe
241f
0000
0000
0083
cafe
281f
0000
0000
0094
cafe
2c1f
0000
0000
009c
cafe
301f
0000
0000
-
00ac
cafe
341f
0000
0000
00c0
cafe
381f
0000
0000
00d9
cafe
3c1f
0000
0000
00e7
cafe
201f
0000
0000
00fa
cafe
241f
0000
0000
010b
cafe
281f
0000
0000
011a
cafe
2c1f
0000
0000
012a
cafe
301f
0000
0000
0136
cafe
341f
0000
0000
013a
cafe
381f
0000
0000
0137
cafe
3c1f
0000
0000
0134
cafe
201f
0000
0000
0130
cafe
241f
0000
0000
012c
cafe
281f
0000
0000
0124
cafe
2c1f
0000
0000
011d
cafe
301f
0000
0000
0116
cafe
341f
0000
0000
010b
cafe
381f
0000
0000
0103
cafe
3c1f
0000
0000
0101
cafe
201f
0000
0000
00f6
cafe
241f
0000
0000
00e4
cafe
281f
0000
0000
00d7
cafe
2c1f
0000
0000
00c6
cafe
301f
0000
0000
00b8
cafe
341f
0000
0000
00a6
cafe
381f
0000
0000
009a
cafe
3c1f
0000
0000
0095
cafe
201f
0000
0000
0094
cafe
241f
0000
0000
008f
cafe
281f
0000
0000
008d
cafe
2c1f
0000
0000
0089
cafe
301f
0000
0000
0091
cafe
341f
0000
0000
008a
cafe
381f
0000
0000
008d
cafe
3c1f
0000
0000
008f
cafe
201f
0000
0000
008c
cafe
241f
0000
0000
008c
cafe
281f
0000
0000
0096
cafe
2c1f
0000
0000
0099
cafe
301f
0000
0000
00a2
cafe
341f
0000
0000
00b0
cafe
381f
0000
0000
00ac
cafe
3c1f
0000
0000
00b7
cafe
201f
0000
0000
00be
cafe
241f
0000
0000
00c9
cafe
281f
0000
0000
00d4
cafe
2c1f
0000
0000
00de
cafe
301f
0000
0000
00eb
cafe
341f
0000
0000
00ea
cafe
381f
0000
0000
00f4
cafe
3c1f
0000
0000
0103
-
cafe
201f
0000
0000
010b
cafe
241f
0000
0000
0114
cafe
281f
0000
0000
0126
cafe
2c1f
0000
0000
0130
cafe
301f
0000
0000
0132
cafe
341f
0000
0000
0133
cafe
381f
0000
0000
013a
cafe
3c1f
0000
0000
0142
cafe
201f
0000
0000
0142
cafe
241f
0000
0000
0143
cafe
281f
0000
0000
013a
cafe
2c1f
0000
0000
0137
cafe
301f
0000
0000
012e
cafe
341f
0000
0000
0123
cafe
381f
0000
0000
0114
cafe
3c1f
0000
0000
00ff
cafe
201f
0000
0000
00ee
cafe
241f
0000
0000
00db
cafe
281f
0000
0000
00c5
cafe
2c1f
0000
0000
00ba
cafe
301f
0000
0000
00ad
cafe
341f
0000
0000
00a5
cafe
381f
0000
0000
0096
cafe
3c1f
0000
0000
0091
cafe
201f
0000
0000
0088
cafe
241f
0000
0000
0083
cafe
281f
0000
0000
007c
cafe
2c1f
0000
0000
0073
cafe
301f
0000
0000
006d
cafe
341f
0000
0000
0066
cafe
381f
0000
0000
005b
cafe
3c1f
0000
0000
0061
cafe
201f
0000
0000
006d
cafe
241f
0000
0000
007d
cafe
281f
0000
0000
008e
cafe
2c1f
0000
0000
00a1
cafe
301f
0000
0000
00b4
cafe
341f
0000
0000
00c6
cafe
381f
0000
0000
00d9
cafe
3c1f
0000
0000
00f5
cafe
201f
0000
0000
0108
cafe
241f
0000
0000
0115
cafe
281f
0000
0000
0125
cafe
2c1f
0000
0000
012b
cafe
301f
0000
0000
0134
cafe
341f
0000
0000
0138
cafe
381f
0000
0000
013c
cafe
3c1f
0000
0000
0143
cafe
201f
0000
0000
014e
cafe
241f
0000
0000
0152
cafe
281f
0000
0000
014d
cafe
-
2c1f
0000
0000
014e
cafe
301f
0000
0000
0145
cafe
341f
0000
0000
0138
cafe
381f
0000
0000
012a
cafe
3c1f
0000
0000
011d
cafe
201f
0000
0000
010b
cafe
241f
0000
0000
00fd
cafe
281f
0000
0000
00ec
cafe
2c1f
0000
0000
00e2
cafe
301f
0000
0000
00cf
cafe
341f
0000
0000
00c4
cafe
381f
0000
0000
00b6
cafe
3c1f
0000
0000
00aa
cafe
201f
0000
0000
00a0
cafe
241f
0000
0000
009d
cafe
281f
0000
0000
0098
cafe
2c1f
0000
0000
0092
cafe
301f
0000
0000
0090
cafe
341f
0000
0000
0064
cafe
381f
0000
0000
004e
cafe
3c1f
0000
0000
0047
cafe
201f
0000
0000
0047
cafe
241f
0000
0000
004a
cafe
281f
0000
0000
004d
cafe
2c1f
0000
0000
0056
cafe
301f
0000
0000
005d
cafe
341f
0000
0000
0065
cafe
381f
0000
0000
0073
cafe
3c1f
0000
0000
0085
cafe
201f
0000
0000
009c
cafe
241f
0000
0000
00b4
cafe
281f
0000
0000
00c9
cafe
2c1f
0000
0000
00db
cafe
301f
0000
0000
00e6
cafe
341f
0000
0000
00ed
cafe
381f
0000
0000
00f1
cafe
3c1f
0000
0000
00f2
cafe
201f
0000
0000
00f7
cafe
241f
0000
0000
0101
cafe
281f
0000
0000
0103
cafe
2c1f
0000
0000
0106
cafe
301f
0000
0000
010d
cafe
341f
0000
0000
0113
cafe
381f
0000
0000
0111
cafe
3c1f
0000
0000
010d
cafe
201f
0000
0000
010e
cafe
241f
0000
0000
010b
cafe
281f
0000
0000
0106
cafe
2c1f
0000
0000
0106
cafe
301f
0000
0000
00fb
cafe
341f
0000
0000
00ef
cafe
381f
-
0000
0000
00ec
cafe
3c1f
0000
0000
00e7
cafe
201f
0000
0000
00de
cafe
241f
0000
0000
00d3
cafe
281f
0000
0000
00cf
cafe
2c1f
0000
0000
00c9
cafe
301f
0000
0000
00c2
cafe
341f
0000
0000
00bb
cafe
381f
0000
0000
00b7
cafe
3c1f
0000
0000
00ba
cafe
201f
0000
0000
00b4
cafe
241f
0000
0000
00b3
cafe
281f
0000
0000
00af
cafe
2c1f
0000
0000
00ac
cafe
301f
0000
0000
00a8
cafe
341f
0000
0000
009e
cafe
381f
0000
0000
0097
cafe
3c1f
0000
0000
0093
cafe
201f
0000
0000
0097
cafe
241f
0000
0000
009e
cafe
281f
0000
0000
00a5
cafe
2c1f
0000
0000
00b5
cafe
301f
0000
0000
00b9
cafe
341f
0000
0000
00cb
cafe
381f
0000
0000
00da
cafe
3c1f
0000
0000
00e5
cafe
201f
0000
0000
00f2
cafe
241f
0000
0000
00fd
cafe
281f
0000
0000
0100
cafe
2c1f
0000
0000
010b
cafe
301f
0000
0000
010f
cafe
341f
0000
0000
0117
cafe
381f
0000
0000
0123
cafe
3c1f
0000
0000
0134
cafe
201f
0000
0000
013c
cafe
241f
0000
0000
0146
cafe
281f
0000
0000
014b
cafe
2c1f
0000
0000
0155
cafe
301f
0000
0000
0158
cafe
341f
0000
0000
0159
cafe
381f
0000
0000
0157
cafe
3c1f
0000
0000
014f
cafe
201f
0000
0000
0141
cafe
241f
0000
0000
013b
cafe
281f
0000
0000
012f
cafe
2c1f
0000
0000
0126
cafe
301f
0000
0000
011f
cafe
341f
0000
0000
0109
cafe
381f
0000
0000
00fa
cafe
3c1f
0000
0000
00f0
cafe
201f
0000
0000
00e5
cafe
241f
0000
-
0000
00df
cafe
281f
0000
0000
00dc
cafe
2c1f
0000
0000
00d4
cafe
301f
0000
0000
00cd
cafe
341f
0000
0000
00c8
cafe
381f
0000
0000
00c5
cafe
3c1f
0000
0000
00c2
cafe
201f
0000
0000
00be
cafe
241f
0000
0000
00bb
cafe
281f
0000
0000
00b9
cafe
2c1f
0000
0000
00ba
cafe
301f
0000
0000
00ba
cafe
341f
0000
0000
00b7
cafe
381f
0000
0000
00ca
cafe
3c1f
0000
0000
00dc
cafe
201f
0000
0000
00f0
cafe
241f
0000
0000
0102
cafe
281f
0000
0000
0113
cafe
2c1f
0000
0000
0124
cafe
301f
0000
0000
0130
cafe
341f
0000
0000
0138
cafe
381f
0000
0000
014a
cafe
3c1f
0000
0000
015c
cafe
201f
0000
0000
0168
cafe
241f
0000
0000
0172
cafe
281f
0000
0000
017a
cafe
2c1f
0000
0000
0189
cafe
301f
0000
0000
0186
cafe
341f
0000
0000
0185
cafe
381f
0000
0000
0182
cafe
3c1f
0000
0000
0183
cafe
201f
0000
0000
0185
cafe
241f
0000
0000
0183
cafe
281f
0000
0000
0179
cafe
2c1f
0000
0000
0171
cafe
301f
0000
0000
0167
cafe
341f
0000
0000
015f
cafe
381f
0000
0000
0153
cafe
3c1f
0000
0000
0147
cafe
201f
0000
0000
0138
cafe
241f
0000
0000
012e
cafe
281f
0000
0000
0120
cafe
2c1f
0000
0000
0115
cafe
301f
0000
0000
0107
cafe
341f
0000
0000
0103
cafe
381f
0000
0000
00fe
cafe
3c1f
0000
0000
00fb
cafe
201f
0000
0000
00f6
cafe
241f
0000
0000
00f7
cafe
281f
0000
0000
00f0
cafe
2c1f
0000
0000
00e8
cafe
301f
0000
0000
-
00e3
cafe
341f
0000
0000
00d7
cafe
381f
0000
0000
00d5
cafe
3c1f
0000
0000
00d8
cafe
201f
0000
0000
00d9
cafe
241f
0000
0000
00e6
cafe
281f
0000
0000
00f7
cafe
2c1f
0000
0000
00fc
cafe
301f
0000
0000
00fc
cafe
341f
0000
0000
0106
cafe
381f
0000
0000
0111
cafe
3c1f
0000
0000
0125
cafe
201f
0000
0000
0134
cafe
241f
0000
0000
0144
cafe
281f
0000
0000
0151
cafe
2c1f
0000
0000
015d
cafe
301f
0000
0000
0162
cafe
341f
0000
0000
0165
cafe
381f
0000
0000
0163
cafe
3c1f
0000
0000
016b
cafe
201f
0000
0000
0171
cafe
241f
0000
0000
016f
cafe
281f
0000
0000
0172
cafe
2c1f
0000
0000
0170
cafe
301f
0000
0000
0172
cafe
341f
0000
0000
017a
cafe
381f
0000
0000
0185
cafe
3c1f
0000
0000
018c
cafe
201f
0000
0000
0189
cafe
241f
0000
0000
018e
cafe
281f
0000
0000
018b
cafe
2c1f
0000
0000
0188
cafe
301f
0000
0000
0179
cafe
341f
0000
0000
016f
cafe
381f
0000
0000
015e
cafe
3c1f
0000
0000
014a
cafe
201f
0000
0000
0138
cafe
241f
0000
0000
012a
cafe
281f
0000
0000
011e
cafe
2c1f
0000
0000
0117
cafe
301f
0000
0000
010c
cafe
341f
0000
0000
00fe
cafe
381f
0000
0000
00ef
cafe
3c1f
0000
0000
00e7
cafe
201f
0000
0000
00e3
cafe
241f
0000
0000
00e9
cafe
281f
0000
0000
00ec
cafe
2c1f
0000
0000
00ec
cafe
301f
0000
0000
00f7
cafe
341f
0000
0000
00fa
cafe
381f
0000
0000
0103
cafe
3c1f
0000
0000
0108
-
cafe
201f
0000
0000
011c
cafe
241f
0000
0000
0123
cafe
281f
0000
0000
012e
cafe
2c1f
0000
0000
0139
cafe
301f
0000
0000
0143
cafe
341f
0000
0000
0152
cafe
381f
0000
0000
0162
cafe
3c1f
0000
0000
016b
cafe
201f
0000
0000
016f
cafe
241f
0000
0000
0179
cafe
281f
0000
0000
0183
cafe
2c1f
0000
0000
018a
cafe
301f
0000
0000
0190
cafe
341f
0000
0000
0193
cafe
381f
0000
0000
0196
cafe
3c1f
0000
0000
019f
cafe
201f
0000
0000
01a3
cafe
241f
0000
0000
01ac
cafe
281f
0000
0000
01a6
cafe
2c1f
0000
0000
01a1
cafe
301f
0000
0000
0193
cafe
341f
0000
0000
0186
cafe
381f
0000
0000
0178
cafe
3c1f
0000
0000
0169
cafe
201f
0000
0000
015a
cafe
241f
0000
0000
0149
cafe
281f
0000
0000
013c
cafe
2c1f
0000
0000
012f
cafe
301f
0000
0000
0122
cafe
341f
0000
0000
0114
cafe
381f
0000
0000
010b
cafe
3c1f
0000
0000
0105
cafe
201f
0000
0000
0100
cafe
241f
0000
0000
00f8
cafe
281f
0000
0000
00ec
cafe
2c1f
0000
0000
00e6
cafe
301f
0000
0000
00e3
cafe
341f
0000
0000
00e6
cafe
381f
0000
0000
00e6
cafe
3c1f
0000
0000
00e7
cafe
201f
0000
0000
00e5
cafe
241f
0000
0000
00e7
cafe
281f
0000
0000
00ee
cafe
2c1f
0000
0000
00f4
cafe
301f
0000
0000
00ff
cafe
341f
0000
0000
0111
cafe
381f
0000
0000
0125
cafe
3c1f
0000
0000
013c
cafe
201f
0000
0000
014f
cafe
241f
0000
0000
015b
cafe
281f
0000
0000
016a
cafe
-
2c1f
0000
0000
016f
cafe
301f
0000
0000
016c
cafe
341f
0000
0000
0169
cafe
381f
0000
0000
016c
cafe
3c1f
0000
0000
017a
cafe
201f
0000
0000
017f
cafe
241f
0000
0000
0186
cafe
281f
0000
0000
0184
cafe
2c1f
0000
0000
0187
cafe
301f
0000
0000
0192
cafe
341f
0000
0000
0192
cafe
381f
0000
0000
018c
cafe
3c1f
0000
0000
0182
cafe
201f
0000
0000
0178
cafe
241f
0000
0000
0179
cafe
281f
0000
0000
016d
cafe
2c1f
0000
0000
015c
cafe
301f
0000
0000
0155
cafe
341f
0000
0000
014e
cafe
381f
0000
0000
013d
cafe
3c1f
0000
0000
0134
cafe
201f
0000
0000
012b
cafe
241f
0000
0000
011b
cafe
281f
0000
0000
0116
cafe
2c1f
0000
0000
0111
cafe
301f
0000
0000
010d
cafe
341f
0000
0000
0107
cafe
381f
0000
0000
010b
cafe
3c1f
0000
0000
0104
cafe
201f
0000
0000
00ff
cafe
241f
0000
0000
00fb
cafe
281f
0000
0000
00f8
cafe
2c1f
0000
0000
00ef
cafe
301f
0000
0000
00e7
cafe
341f
0000
0000
00da
cafe
381f
0000
0000
00d5
cafe
3c1f
0000
0000
00d1
cafe
201f
0000
0000
00d4
cafe
241f
0000
0000
00d4
cafe
281f
0000
0000
00df
cafe
2c1f
0000
0000
00f2
cafe
301f
0000
0000
0103
cafe
341f
0000
0000
0117
cafe
381f
0000
0000
0128
cafe
3c1f
0000
0000
013d
cafe
201f
0000
0000
014b
cafe
241f
0000
0000
015b
cafe
281f
0000
0000
0168
cafe
2c1f
0000
0000
0170
cafe
301f
0000
0000
0178
cafe
341f
0000
0000
0187
cafe
381f
-
0000
0000
0193
cafe
3c1f
0000
0000
0198
cafe
201f
0000
0000
01a0
cafe
241f
0000
0000
01a8
cafe
281f
0000
0000
01ad
cafe
2c1f
0000
0000
01ae
cafe
301f
0000
0000
01a5
cafe
341f
0000
0000
01a5
cafe
381f
0000
0000
01a4
cafe
3c1f
0000
0000
019d
cafe
201f
0000
0000
0189
cafe
241f
0000
0000
0000
cafe
281f
0000
0000
0000
cafe
2c1f
0000
0000
0000
cafe
301f
0000
0000
0000
cafe
341f
0000
0000
0000
cafe
381f
0000
0000
0000
cafe
3c1f
0000
0000
0000
cafe
201f
0000
0000
0000
cafe
241f
0000
0000
0000
cafe
281f
0000
0000
0000
cafe
2c1f
0000
0000
0000
cafe
301f
0000
0000
0000
cafe
341f
0000
0000
0000
cafe
381f
0000
0000
0000
cafe
3c1f
0000
0000
0000
cafe
201f
0000
0000
0000
cafe
241f
0000
0000
0000
cafe
281f
0000
0000
0000
cafe
2c1f
0000
0000
0000
cafe
301f
0000
0000
0000
cafe
341f
0000
0000
0000
cafe
381f
0000
0000
0000
cafe
3c1f
0000
0000
0016
cafe
201f
0000
0000
0034
cafe
241f
0000
0000
0055
cafe
281f
0000
0000
0078
cafe
2c1f
0000
0000
0096
cafe
301f
0000
0000
00ad
cafe
341f
0000
0000
00bb
cafe
381f
0000
0000
00ca
cafe
3c1f
0000
0000
00d3
cafe
201f
0000
0000
00e5
cafe
241f
0000
0000
00f0
cafe
281f
0000
0000
00fa
cafe
2c1f
0000
0000
00f4
cafe
301f
0000
0000
00ff
cafe
341f
0000
0000
010a
cafe
381f
0000
0000
0115
cafe
3c1f
0000
0000
0123
cafe
201f
0000
0000
012a
cafe
241f
0000
-
0000
0129
cafe
281f
0000
0000
0127
cafe
2c1f
0000
0000
0124
cafe
301f
0000
0000
0122
cafe
341f
0000
0000
0118
cafe
381f
0000
0000
010f
cafe
3c1f
0000
0000
0102
cafe
201f
0000
0000
00f5
cafe
241f
0000
0000
00e3
cafe
281f
0000
0000
00d8
cafe
2c1f
0000
0000
00d1
cafe
301f
0000
0000
00d4
cafe
341f
0000
0000
00d4
cafe
381f
0000
0000
00d6
cafe
3c1f
0000
0000
00dc
cafe
201f
0000
0000
00e2
cafe
241f
0000
0000
00e5
cafe
281f
0000
0000
00e7
cafe
2c1f
0000
0000
00ed
cafe
301f
0000
0000
00f5
cafe
341f
0000
0000
00fd
cafe
381f
0000
0000
00ff
cafe
3c1f
0000
0000
0109
cafe
201f
0000
0000
0113
cafe
241f
0000
0000
011b
cafe
281f
0000
0000
0124
cafe
2c1f
0000
0000
0130
cafe
301f
0000
0000
013d
cafe
341f
0000
0000
014e
cafe
381f
0000
0000
0161
cafe
3c1f
0000
0000
016d
cafe
201f
0000
0000
017e
cafe
241f
0000
0000
0191
cafe
281f
0000
0000
01a4
cafe
2c1f
0000
0000
01ad
cafe
301f
0000
0000
01b6
cafe
341f
0000
0000
01b9
cafe
381f
0000
0000
01bc
cafe
3c1f
0000
0000
01bd
cafe
201f
0000
0000
01c3
cafe
241f
0000
0000
01bc
cafe
281f
0000
0000
01c5
cafe
2c1f
0000
0000
01d4
cafe
301f
0000
0000
01de
cafe
341f
0000
0000
01e4
cafe
381f
0000
0000
01e8
cafe
3c1f
0000
0000
01e1
cafe
201f
0000
0000
01da
cafe
241f
0000
0000
01ce
cafe
281f
0000
0000
01c7
cafe
2c1f
0000
0000
01bb
cafe
301f
0000
0000
-
01ab
cafe
341f
0000
0000
019e
cafe
381f
0000
0000
0191
cafe
3c1f
0000
0000
0187
cafe
201f
0000
0000
0181
cafe
241f
0000
0000
0171
cafe
281f
0000
0000
0162
cafe
2c1f
0000
0000
0153
cafe
301f
0000
0000
014f
cafe
341f
0000
0000
0149
cafe
381f
0000
0000
0142
cafe
3c1f
0000
0000
013b
cafe
201f
0000
0000
0135
cafe
241f
0000
0000
0135
cafe
281f
0000
0000
0136
cafe
2c1f
0000
0000
0136
cafe
301f
0000
0000
013a
cafe
341f
0000
0000
013c
cafe
381f
0000
0000
0143
cafe
3c1f
0000
0000
0150
cafe
201f
0000
0000
0160
cafe
241f
0000
0000
0176
cafe
281f
0000
0000
017f
cafe
2c1f
0000
0000
019d
cafe
301f
0000
0000
01af
cafe
341f
0000
0000
01b9
cafe
381f
0000
0000
01c4
cafe
3c1f
0000
0000
01dc
cafe
201f
0000
0000
01e9
cafe
241f
0000
0000
01ee
cafe
281f
0000
0000
01f7
cafe
2c1f
0000
0000
0201
cafe
301f
0000
0000
020c
cafe
341f
0000
0000
020f
cafe
381f
0000
0000
0210
cafe
3c1f
0000
0000
020f
cafe
201f
0000
0000
0211
cafe
241f
0000
0000
0200
cafe
281f
0000
0000
01f2
cafe
2c1f
0000
0000
01e4
cafe
301f
0000
0000
01d5
cafe
341f
0000
0000
01c7
cafe
381f
0000
0000
01b2
cafe
3c1f
0000
0000
019c
cafe
201f
0000
0000
0194
cafe
241f
0000
0000
0182
cafe
281f
0000
0000
0170
cafe
2c1f
0000
0000
015d
cafe
301f
0000
0000
014b
cafe
341f
0000
0000
013c
cafe
381f
0000
0000
0132
cafe
3c1f
0000
0000
0128
-
cafe
201f
0000
0000
0120
cafe
241f
0000
0000
011a
cafe
281f
0000
0000
011f
cafe
2c1f
0000
0000
0125
cafe
301f
0000
0000
0134
cafe
341f
0000
0000
0138
cafe
381f
0000
0000
013d
cafe
3c1f
0000
0000
0146
cafe
201f
0000
0000
0150
cafe
241f
0000
0000
015d
cafe
281f
0000
0000
016b
cafe
2c1f
0000
0000
0177
cafe
301f
0000
0000
018b
cafe
341f
0000
0000
0198
cafe
381f
0000
0000
01ab
cafe
3c1f
0000
0000
01b7
cafe
201f
0000
0000
01c1
cafe
241f
0000
0000
01c3
cafe
281f
0000
0000
01c7
cafe
2c1f
0000
0000
01c4
cafe
301f
0000
0000
01cd
cafe
341f
0000
0000
01ca
cafe
381f
0000
0000
01cc
cafe
3c1f
0000
0000
01cc
cafe
201f
0000
0000
01ca
cafe
241f
0000
0000
01cd
cafe
281f
0000
0000
01cd
cafe
2c1f
0000
0000
01cf
cafe
301f
0000
0000
01ce
cafe
341f
0000
0000
01cc
cafe
381f
0000
0000
01cc
cafe
3c1f
0000
0000
01c7
cafe
201f
0000
0000
01bb
cafe
241f
0000
0000
01b6
cafe
281f
0000
0000
01b7
cafe
2c1f
0000
0000
01b8
cafe
301f
0000
0000
01b2
cafe
341f
0000
0000
01ac
cafe
381f
0000
0000
019d
cafe
3c1f
0000
0000
018e
cafe
201f
0000
0000
0183
cafe
241f
0000
0000
0175
cafe
281f
0000
0000
016f
cafe
2c1f
0000
0000
0164
cafe
301f
0000
0000
0159
cafe
341f
0000
0000
014e
cafe
381f
0000
0000
0149
cafe
3c1f
0000
0000
0141
cafe
201f
0000
0000
0135
cafe
241f
0000
0000
0121
cafe
281f
0000
0000
0111
cafe
-
2c1f
0000
0000
010b
cafe
301f
0000
0000
010c
cafe
341f
0000
0000
010e
cafe
381f
0000
0000
011a
cafe
3c1f
0000
0000
0126
cafe
201f
0000
0000
0136
cafe
241f
0000
0000
013f
cafe
281f
0000
0000
014e
cafe
2c1f
0000
0000
0162
cafe
301f
0000
0000
0173
cafe
341f
0000
0000
017b
cafe
381f
0000
0000
0181
cafe
3c1f
0000
0000
018c
cafe
201f
0000
0000
0192
cafe
241f
0000
0000
019c
cafe
281f
0000
0000
01ad
cafe
2c1f
0000
0000
01b2
cafe
301f
0000
0000
01b9
cafe
341f
0000
0000
01be
cafe
381f
0000
0000
01c0
cafe
3c1f
0000
0000
01bd
cafe
201f
0000
0000
01be
cafe
241f
0000
0000
01bf
cafe
281f
0000
0000
01c4
cafe
2c1f
0000
0000
01c3
cafe
301f
0000
0000
01c4
cafe
341f
0000
0000
01bd
cafe
381f
0000
0000
01b0
cafe
3c1f
0000
0000
01a8
cafe
201f
0000
0000
0191
cafe
241f
0000
0000
017a
cafe
281f
0000
0000
0167
cafe
2c1f
0000
0000
0158
cafe
301f
0000
0000
0147
cafe
341f
0000
0000
013c
cafe
381f
0000
0000
0131
cafe
3c1f
0000
0000
0124
cafe
201f
0000
0000
0118
cafe
241f
0000
0000
0110
cafe
281f
0000
0000
010e
cafe
2c1f
0000
0000
0102
cafe
301f
0000
0000
00f9
cafe
341f
0000
0000
00f2
cafe
381f
0000
0000
00ea
cafe
3c1f
0000
0000
00eb
cafe
201f
0000
0000
00ed
cafe
241f
0000
0000
00f0
cafe
281f
0000
0000
00fe
cafe
2c1f
0000
0000
0109
cafe
301f
0000
0000
0119
cafe
341f
0000
0000
012e
cafe
381f
-
0000
0000
0141
cafe
3c1f
0000
0000
0150
cafe
201f
0000
0000
015f
cafe
241f
0000
0000
016c
cafe
281f
0000
0000
017e
cafe
2c1f
0000
0000
018d
cafe
301f
0000
0000
0190
cafe
341f
0000
0000
0199
cafe
381f
0000
0000
01a3
cafe
3c1f
0000
0000
01a6
cafe
201f
0000
0000
01a3
cafe
241f
0000
0000
019f
cafe
281f
0000
0000
019c
cafe
2c1f
0000
0000
01a1
cafe
301f
0000
0000
01a6
cafe
341f
0000
0000
01a5
cafe
381f
0000
0000
01a5
cafe
3c1f
0000
0000
01a1
cafe
201f
0000
0000
0198
cafe
241f
0000
0000
018d
cafe
281f
0000
0000
017b
cafe
2c1f
0000
0000
016d
cafe
301f
0000
0000
0160
cafe
341f
0000
0000
014c
cafe
381f
0000
0000
013c
cafe
3c1f
0000
0000
012c
cafe
201f
0000
0000
0120
cafe
241f
0000
0000
011f
cafe
281f
0000
0000
011e
cafe
2c1f
0000
0000
0116
cafe
301f
0000
0000
010d
cafe
341f
0000
0000
0105
cafe
381f
0000
0000
010b
cafe
3c1f
0000
0000
0108
cafe
201f
0000
0000
0108
cafe
241f
0000
0000
0104
cafe
281f
0000
0000
0104
cafe
2c1f
0000
0000
0109
cafe
301f
0000
0000
010c
cafe
341f
0000
0000
0105
cafe
381f
0000
0000
0103
cafe
3c1f
0000
0000
0101
cafe
201f
0000
0000
0100
cafe
241f
0000
0000
0106
cafe
281f
0000
0000
010e
cafe
2c1f
0000
0000
0117
cafe
301f
0000
0000
0129
cafe
341f
0000
0000
0133
cafe
381f
0000
0000
013e
cafe
3c1f
0000
0000
0148
cafe
201f
0000
0000
0153
cafe
241f
0000
-
0000
015b
cafe
281f
0000
0000
0167
cafe
2c1f
0000
0000
0170
cafe
301f
0000
0000
017b
cafe
341f
0000
0000
0186
cafe
381f
0000
0000
017f
cafe
3c1f
0000
0000
017d
cafe
201f
0000
0000
017a
cafe
241f
0000
0000
0181
cafe
281f
0000
0000
0187
cafe
2c1f
0000
0000
0182
cafe
301f
0000
0000
0183
cafe
341f
0000
0000
017d
cafe
381f
0000
0000
0172
cafe
3c1f
0000
0000
016b
cafe
201f
0000
0000
0161
cafe
241f
0000
0000
0157
cafe
281f
0000
0000
014d
cafe
2c1f
0000
0000
0144
cafe
301f
0000
0000
0137
cafe
341f
0000
0000
012e
cafe
381f
0000
0000
0126
cafe
3c1f
0000
0000
0119
cafe
201f
0000
0000
0104
cafe
241f
0000
0000
00f4
cafe
281f
0000
0000
00ea
cafe
2c1f
0000
0000
00e7
cafe
301f
0000
0000
00e6
cafe
341f
0000
0000
00e5
cafe
381f
0000
0000
00e9
cafe
3c1f
0000
0000
00e9
cafe
201f
0000
0000
00ee
cafe
241f
0000
0000
00ee
cafe
281f
0000
0000
00f2
cafe
2c1f
0000
0000
00f7
cafe
301f
0000
0000
0104
cafe
341f
0000
0000
010e
cafe
381f
0000
0000
0115
cafe
3c1f
0000
0000
0125
cafe
201f
0000
0000
0141
cafe
241f
0000
0000
0155
cafe
281f
0000
0000
0166
cafe
2c1f
0000
0000
0173
cafe
301f
0000
0000
017c
cafe
341f
0000
0000
017d
cafe
381f
0000
0000
0185
cafe
3c1f
0000
0000
018f
cafe
201f
0000
0000
018e
cafe
241f
0000
0000
0193
cafe
281f
0000
0000
0199
cafe
2c1f
0000
0000
019a
cafe
301f
0000
0000
-
019a
cafe
341f
0000
0000
019d
cafe
381f
0000
0000
019c
cafe
3c1f
0000
0000
0193
cafe
201f
0000
0000
0187
cafe
241f
0000
0000
017e
cafe
281f
0000
0000
0174
cafe
2c1f
0000
0000
0164
cafe
301f
0000
0000
015d
cafe
341f
0000
0000
014b
cafe
381f
0000
0000
0140
cafe
3c1f
0000
0000
012c
cafe
201f
0000
0000
011b
cafe
241f
0000
0000
010a
cafe
281f
0000
0000
00ff
cafe
2c1f
0000
0000
00fb
cafe
301f
0000
0000
00f2
cafe
341f
0000
0000
00ed
cafe
381f
0000
0000
00ee
cafe
3c1f
0000
0000
00ee
cafe
201f
0000
0000
00f1
cafe
241f
0000
0000
00f7
cafe
281f
0000
0000
00f9
cafe
2c1f
0000
0000
00f2
cafe
301f
0000
0000
00f5
cafe
341f
0000
0000
00fb
cafe
381f
0000
0000
00f7
cafe
3c1f
0000
0000
00f9
cafe
201f
0000
0000
0109
cafe
241f
0000
0000
011b
cafe
281f
0000
0000
0131
cafe
2c1f
0000
0000
0145
cafe
301f
0000
0000
0158
cafe
341f
0000
0000
0162
cafe
381f
0000
0000
016c
cafe
3c1f
0000
0000
016d
cafe
201f
0000
0000
016e
cafe
241f
0000
0000
016e
cafe
281f
0000
0000
0174
cafe
2c1f
0000
0000
0177
cafe
301f
0000
0000
0181
cafe
341f
0000
0000
0183
cafe
381f
0000
0000
0182
cafe
3c1f
0000
0000
0181
cafe
201f
0000
0000
017c
cafe
241f
0000
0000
017d
cafe
281f
0000
0000
017b
cafe
2c1f
0000
0000
0176
cafe
301f
0000
0000
0172
cafe
341f
0000
0000
016e
cafe
381f
0000
0000
0168
cafe
3c1f
0000
0000
0160
-
cafe
201f
0000
0000
015b
cafe
241f
0000
0000
0155
cafe
281f
0000
0000
0151
cafe
2c1f
0000
0000
0143
cafe
301f
0000
0000
013c
cafe
341f
0000
0000
0137
cafe
381f
0000
0000
0130
cafe
3c1f
0000
0000
0128
cafe
201f
0000
0000
011f
cafe
241f
0000
0000
011c
cafe
281f
0000
0000
0112
cafe
2c1f
0000
0000
010d
cafe
301f
0000
0000
0109
cafe
341f
0000
0000
0105
cafe
381f
0000
0000
00f3
cafe
3c1f
0000
0000
00e7
cafe
201f
0000
0000
00de
cafe
241f
0000
0000
00d6
cafe
281f
0000
0000
00dc
cafe
2c1f
0000
0000
00db
cafe
301f
0000
0000
00de
cafe
341f
0000
0000
00e4
cafe
381f
0000
0000
00ec
cafe
3c1f
0000
0000
00ec
cafe
201f
0000
0000
00fc
cafe
241f
0000
0000
0108
cafe
281f
0000
0000
0114
cafe
2c1f
0000
0000
0120
cafe
301f
0000
0000
012f
cafe
341f
0000
0000
0139
cafe
381f
0000
0000
0142
cafe
3c1f
0000
0000
0153
cafe
201f
0000
0000
0168
cafe
241f
0000
0000
0169
cafe
281f
0000
0000
0175
cafe
2c1f
0000
0000
0175
cafe
301f
0000
0000
0176
cafe
341f
0000
0000
017c
cafe
381f
0000
0000
0186
cafe
3c1f
0000
0000
0189
cafe
201f
0000
0000
0190
cafe
241f
0000
0000
0190
cafe
281f
0000
0000
0192
cafe
2c1f
0000
0000
0187
cafe
301f
0000
0000
017e
cafe
341f
0000
0000
0170
cafe
381f
0000
0000
015b
cafe
3c1f
0000
0000
013a
cafe
201f
0000
0000
0123
cafe
241f
0000
0000
0111
cafe
281f
0000
0000
0107
cafe
-
2c1f
0000
0000
00fe
cafe
301f
0000
0000
00f6
cafe
341f
0000
0000
00f4
cafe
381f
0000
0000
00f1
cafe
3c1f
0000
0000
00ee
cafe
201f
0000
0000
00e8
cafe
241f
0000
0000
00e2
cafe
281f
0000
0000
00e2
cafe
2c1f
0000
0000
00dd
cafe
301f
0000
0000
00dc
cafe
341f
0000
0000
00df
cafe
381f
0000
0000
00dc
cafe
3c1f
0000
0000
00ef
cafe
201f
0000
0000
0100
cafe
241f
0000
0000
010e
cafe
281f
0000
0000
0122
cafe
2c1f
0000
0000
0135
cafe
301f
0000
0000
0143
cafe
341f
0000
0000
014d
cafe
381f
0000
0000
0153
cafe
3c1f
0000
0000
015e
cafe
201f
0000
0000
0167
cafe
241f
0000
0000
0179
cafe
281f
0000
0000
0183
cafe
2c1f
0000
0000
018d
cafe
301f
0000
0000
0192
cafe
341f
0000
0000
018f
cafe
381f
0000
0000
0190
cafe
3c1f
0000
0000
018e
cafe
201f
0000
0000
018a
cafe
241f
0000
0000
0186
cafe
281f
0000
0000
017c
cafe
2c1f
0000
0000
0189
cafe
301f
0000
0000
0187
cafe
341f
0000
0000
017f
cafe
381f
0000
0000
0184
cafe
3c1f
0000
0000
0180
cafe
201f
0000
0000
0179
cafe
241f
0000
0000
0174
cafe
281f
0000
0000
016b
cafe
2c1f
0000
0000
015c
cafe
301f
0000
0000
0147
cafe
341f
0000
0000
0135
cafe
381f
0000
0000
0122
cafe
3c1f
0000
0000
011b
cafe
201f
0000
0000
0112
cafe
241f
0000
0000
010f
cafe
281f
0000
0000
0106
cafe
2c1f
0000
0000
0102
cafe
301f
0000
0000
0101
cafe
341f
0000
0000
0100
cafe
381f
-
0000
0000
0102
cafe
3c1f
0000
0000
00fb
cafe
201f
0000
0000
00fb
cafe
241f
0000
0000
00fd
cafe
281f
0000
0000
0101
cafe
2c1f
0000
0000
0106
cafe
301f
0000
0000
0109
cafe
341f
0000
0000
010b
cafe
381f
0000
0000
010a
cafe
3c1f
0000
0000
0117
cafe
201f
0000
0000
011f
cafe
241f
0000
0000
0129
cafe
281f
0000
0000
0136
cafe
2c1f
0000
0000
013c
cafe
301f
0000
0000
0143
cafe
341f
0000
0000
0148
cafe
381f
0000
0000
014d
cafe
3c1f
0000
0000
015b
cafe
201f
0000
0000
0163
cafe
241f
0000
0000
016b
cafe
281f
0000
0000
0167
cafe
2c1f
0000
0000
0168
cafe
301f
0000
0000
016c
cafe
341f
0000
0000
016d
cafe
381f
0000
0000
0172
cafe
3c1f
0000
0000
017f
cafe
201f
0000
0000
018c
cafe
241f
0000
0000
0193
cafe
281f
0000
0000
0198
cafe
2c1f
0000
0000
0197
cafe
301f
0000
0000
0196
cafe
341f
0000
0000
0190
cafe
381f
0000
0000
0189
cafe
3c1f
0000
0000
017e
cafe
201f
0000
0000
016e
cafe
241f
0000
0000
015b
cafe
281f
0000
0000
0150
cafe
2c1f
0000
0000
0144
cafe
301f
0000
0000
0136
cafe
341f
0000
0000
0126
cafe
381f
0000
0000
0113
cafe
3c1f
0000
0000
0106
cafe
201f
0000
0000
00f7
cafe
241f
0000
0000
00ed
cafe
281f
0000
0000
00e3
cafe
2c1f
0000
0000
00dc
cafe
301f
0000
0000
00d1
cafe
341f
0000
0000
00cb
cafe
381f
0000
0000
00c8
cafe
3c1f
0000
0000
00ca
cafe
201f
0000
0000
00d1
cafe
241f
0000
-
0000
00d5
cafe
281f
0000
0000
00e1
cafe
2c1f
0000
0000
00e8
cafe
301f
0000
0000
00f9
cafe
341f
0000
0000
0104
cafe
381f
0000
0000
011a
cafe
3c1f
0000
0000
0129
cafe
201f
0000
0000
0140
cafe
241f
0000
0000
0150
cafe
281f
0000
0000
015d
cafe
2c1f
0000
0000
016c
cafe
301f
0000
0000
017b
cafe
341f
0000
0000
0186
cafe
381f
0000
0000
0193
cafe
3c1f
0000
0000
0199
cafe
201f
0000
0000
01a2
cafe
241f
0000
0000
01a6
cafe
281f
0000
0000
01a6
cafe
2c1f
0000
0000
01aa
cafe
301f
0000
0000
01aa
cafe
341f
0000
0000
019d
cafe
381f
0000
0000
0195
cafe
3c1f
0000
0000
0192
cafe
201f
0000
0000
0186
cafe
241f
0000
0000
017f
cafe
281f
0000
0000
0173
cafe
2c1f
0000
0000
0164
cafe
301f
0000
0000
015a
cafe
341f
0000
0000
0146
cafe
381f
0000
0000
0132
cafe
3c1f
0000
0000
011b
cafe
201f
0000
0000
010f
cafe
241f
0000
0000
00fd
cafe
281f
0000
0000
00eb
cafe
2c1f
0000
0000
00db
cafe
301f
0000
0000
00d3
cafe
341f
0000
0000
00d0
cafe
381f
0000
0000
00d8
cafe
3c1f
0000
0000
00e0
cafe
201f
0000
0000
00e5
cafe
241f
0000
0000
00e2
cafe
281f
0000
0000
00e6
cafe
2c1f
0000
0000
00e8
cafe
301f
0000
0000
00ee
cafe
341f
0000
0000
00ef
cafe
381f
0000
0000
00f8
cafe
3c1f
0000
0000
00fe
cafe
201f
0000
0000
010e
cafe
241f
0000
0000
0120
cafe
281f
0000
0000
012b
cafe
2c1f
0000
0000
013a
cafe
301f
0000
0000
-
0147
cafe
341f
0000
0000
0143
cafe
381f
0000
0000
014b
cafe
3c1f
0000
0000
0152
cafe
201f
0000
0000
0156
cafe
241f
0000
0000
0161
cafe
281f
0000
0000
0168
cafe
2c1f
0000
0000
016b
cafe
301f
0000
0000
016b
cafe
341f
0000
0000
016f
cafe
381f
0000
0000
0173
cafe
3c1f
0000
0000
017a
cafe
201f
0000
0000
017f
cafe
241f
0000
0000
0178
cafe
281f
0000
0000
0173
cafe
2c1f
0000
0000
016f
cafe
301f
0000
0000
016a
cafe
341f
0000
0000
0160
cafe
381f
0000
0000
0162
cafe
3c1f
0000
0000
015d
cafe
201f
0000
0000
0153
cafe
241f
0000
0000
0144
cafe
281f
0000
0000
0138
cafe
2c1f
0000
0000
012a
cafe
301f
0000
0000
0120
cafe
341f
0000
0000
0115
cafe
381f
0000
0000
0110
cafe
3c1f
0000
0000
0109
cafe
201f
0000
0000
0102
cafe
241f
0000
0000
00fd
cafe
281f
0000
0000
00f8
cafe
2c1f
0000
0000
00f4
cafe
301f
0000
0000
00ea
cafe
341f
0000
0000
00d5
cafe
381f
0000
0000
00d1
cafe
3c1f
0000
0000
00c6
cafe
201f
0000
0000
00c6
cafe
241f
0000
0000
00ca
cafe
281f
0000
0000
00d5
cafe
2c1f
0000
0000
00dd
cafe
301f
0000
0000
00e4
cafe
341f
0000
0000
00f0
cafe
381f
0000
0000
00ff
cafe
3c1f
0000
0000
010e
cafe
201f
0000
0000
011b
cafe
241f
0000
0000
012c
cafe
281f
0000
0000
0138
cafe
2c1f
0000
0000
0142
cafe
301f
0000
0000
014c
cafe
341f
0000
0000
0157
cafe
381f
0000
0000
0168
cafe
3c1f
0000
0000
0178
-
cafe
201f
0000
0000
017c
cafe
241f
0000
0000
0182
cafe
281f
0000
0000
0188
cafe
2c1f
0000
0000
0197
cafe
301f
0000
0000
019a
cafe
341f
0000
0000
019c
cafe
381f
0000
0000
0198
cafe
3c1f
0000
0000
0191
cafe
201f
0000
0000
0189
cafe
241f
0000
0000
0188
cafe
281f
0000
0000
0180
cafe
2c1f
0000
0000
0175
cafe
301f
0000
0000
015a
cafe
341f
0000
0000
0149
cafe
381f
0000
0000
0138
cafe
3c1f
0000
0000
012e
cafe
201f
0000
0000
011f
cafe
241f
0000
0000
0119
cafe
281f
0000
0000
010a
cafe
2c1f
0000
0000
00ff
cafe
301f
0000
0000
00f5
cafe
341f
0000
0000
00f0
cafe
381f
0000
0000
00ea
cafe
3c1f
0000
0000
00e4
cafe
201f
0000
0000
00dc
cafe
241f
0000
0000
00d4
cafe
281f
0000
0000
00d5
cafe
2c1f
0000
0000
00d2
cafe
301f
0000
0000
00d5
cafe
341f
0000
0000
00de
cafe
381f
0000
0000
00ea
cafe
3c1f
0000
0000
00f2
cafe
201f
0000
0000
00f6
cafe
241f
0000
0000
00fe
cafe
281f
0000
0000
0107
cafe
2c1f
0000
0000
0113
cafe
301f
0000
0000
012c
cafe
341f
0000
0000
0143
cafe
381f
0000
0000
0157
cafe
3c1f
0000
0000
0170
cafe
201f
0000
0000
0182
cafe
241f
0000
0000
0192
cafe
281f
0000
0000
019c
cafe
2c1f
0000
0000
019f
cafe
301f
0000
0000
01a3
cafe
341f
0000
0000
01a0
cafe
381f
0000
0000
019c
cafe
3c1f
0000
0000
019b
cafe
201f
0000
0000
0195
cafe
241f
0000
0000
0197
cafe
281f
0000
0000
0196
cafe
-
2c1f
0000
0000
0190
cafe
301f
0000
0000
0187
cafe
341f
0000
0000
017d
cafe
381f
0000
0000
0173
cafe
3c1f
0000
0000
016b
cafe
201f
0000
0000
015a
cafe
241f
0000
0000
0147
cafe
281f
0000
0000
0135
cafe
2c1f
0000
0000
011f
cafe
301f
0000
0000
010f
cafe
341f
0000
0000
0108
cafe
381f
0000
0000
0106
cafe
3c1f
0000
0000
00fb
cafe
201f
0000
0000
00f4
cafe
241f
0000
0000
00f3
cafe
281f
0000
0000
00f7
cafe
2c1f
0000
0000
00f6
cafe
301f
0000
0000
00f2
cafe
341f
0000
0000
00f0
cafe
381f
0000
0000
00ef
cafe
3c1f
0000
0000
00eb
cafe
201f
0000
0000
00f3
cafe
241f
0000
0000
00ef
cafe
281f
0000
0000
00f2
cafe
2c1f
0000
0000
00f9
cafe
301f
0000
0000
00f1
cafe
341f
0000
0000
00fa
cafe
381f
0000
0000
010a
cafe
3c1f
0000
0000
0117
cafe
201f
0000
0000
0125
cafe
241f
0000
0000
0136
cafe
281f
0000
0000
0141
cafe
2c1f
0000
0000
0148
cafe
301f
0000
0000
0150
cafe
341f
0000
0000
0158
cafe
381f
0000
0000
0160
cafe
3c1f
0000
0000
0164
cafe
201f
0000
0000
016e
cafe
241f
0000
0000
016a
cafe
281f
0000
0000
016b
cafe
2c1f
0000
0000
0168
cafe
301f
0000
0000
016e
cafe
341f
0000
0000
0179
cafe
381f
0000
0000
017d
cafe
3c1f
0000
0000
0183
cafe
201f
0000
0000
0181
cafe
241f
0000
0000
017e
cafe
281f
0000
0000
017e
cafe
2c1f
0000
0000
0176
cafe
301f
0000
0000
016d
cafe
341f
0000
0000
0161
cafe
381f
-
0000
0000
015a
cafe
3c1f
0000
0000
014a
cafe
201f
0000
0000
013e
cafe
241f
0000
0000
0132
cafe
281f
0000
0000
0121
cafe
2c1f
0000
0000
0114
cafe
301f
0000
0000
0103
cafe
341f
0000
0000
00fc
cafe
381f
0000
0000
00f5
cafe
3c1f
0000
0000
00f1
cafe
201f
0000
0000
00ec
cafe
241f
0000
0000
00e2
cafe
281f
0000
0000
00da
cafe
2c1f
0000
0000
00db
cafe
301f
0000
0000
00d9
cafe
341f
0000
0000
00df
cafe
381f
0000
0000
00e7
cafe
3c1f
0000
0000
00ec
cafe
201f
0000
0000
00ea
cafe
241f
0000
0000
00ef
cafe
281f
0000
0000
00f8
cafe
2c1f
0000
0000
0104
cafe
301f
0000
0000
011e
cafe
341f
0000
0000
0133
cafe
381f
0000
0000
0141
cafe
3c1f
0000
0000
014c
cafe
201f
0000
0000
0158
cafe
241f
0000
0000
0164
cafe
281f
0000
0000
0175
cafe
2c1f
0000
0000
0180
cafe
301f
0000
0000
0187
cafe
341f
0000
0000
018c
cafe
381f
0000
0000
018f
cafe
3c1f
0000
0000
018f
cafe
201f
0000
0000
018f
cafe
241f
0000
0000
0193
cafe
281f
0000
0000
0194
cafe
2c1f
0000
0000
018e
cafe
301f
0000
0000
0188
cafe
341f
0000
0000
017b
cafe
381f
0000
0000
0173
cafe
3c1f
0000
0000
0166
cafe
201f
0000
0000
0158
cafe
241f
0000
0000
014e
cafe
281f
0000
0000
0141
cafe
2c1f
0000
0000
0133
cafe
301f
0000
0000
0126
cafe
341f
0000
0000
0113
cafe
381f
0000
0000
0105
cafe
3c1f
0000
0000
00fd
cafe
201f
0000
0000
00f6
cafe
241f
0000
-
0000
00f8
cafe
281f
0000
0000
00f4
cafe
2c1f
0000
0000
00f1
cafe
301f
0000
0000
00ef
cafe
341f
0000
0000
00ef
cafe
381f
0000
0000
00ef
cafe
3c1f
0000
0000
00f0
cafe
201f
0000
0000
00f4
cafe
241f
0000
0000
00f3
cafe
281f
0000
0000
00f9
cafe
2c1f
0000
0000
00fd
cafe
301f
0000
0000
010a
cafe
341f
0000
0000
0112
cafe
381f
0000
0000
0121
cafe
3c1f
0000
0000
0133
cafe
201f
0000
0000
013e
cafe
241f
0000
0000
014d
cafe
281f
0000
0000
015c
cafe
2c1f
0000
0000
0161
cafe
301f
0000
0000
016c
cafe
341f
0000
0000
0177
cafe
381f
0000
0000
0189
cafe
3c1f
0000
0000
0192
cafe
201f
0000
0000
0197
cafe
241f
0000
0000
019b
cafe
281f
0000
0000
019c
cafe
2c1f
0000
0000
019d
cafe
301f
0000
0000
019c
cafe
341f
0000
0000
0192
cafe
381f
0000
0000
018a
cafe
3c1f
0000
0000
0183
cafe
201f
0000
0000
0179
cafe
241f
0000
0000
016c
cafe
281f
0000
0000
0161
cafe
2c1f
0000
0000
0156
cafe
301f
0000
0000
0151
cafe
341f
0000
0000
014d
cafe
381f
0000
0000
0140
cafe
3c1f
0000
0000
0138
cafe
201f
0000
0000
012e
cafe
241f
0000
0000
012a
cafe
281f
0000
0000
0129
cafe
2c1f
0000
0000
0121
cafe
301f
0000
0000
011a
cafe
341f
0000
0000
0114
cafe
381f
0000
0000
0114
cafe
3c1f
0000
0000
010b
cafe
201f
0000
0000
010d
cafe
241f
0000
0000
010b
cafe
281f
0000
0000
0107
cafe
2c1f
0000
0000
00f8
cafe
301f
0000
0000
-
00f4
cafe
341f
0000
0000
00f0
cafe
381f
0000
0000
00e5
cafe
3c1f
0000
0000
00e6
cafe
201f
0000
0000
00e8
cafe
241f
0000
0000
00ec
cafe
281f
0000
0000
00f6
cafe
2c1f
0000
0000
0101
cafe
301f
0000
0000
010b
cafe
341f
0000
0000
0113
cafe
381f
0000
0000
011d
cafe
3c1f
0000
0000
0128
cafe
201f
0000
0000
012d
cafe
241f
0000
0000
0137
cafe
281f
0000
0000
0140
cafe
2c1f
0000
0000
0149
cafe
301f
0000
0000
015f
cafe
341f
0000
0000
0167
cafe
381f
0000
0000
0171
cafe
3c1f
0000
0000
0173
cafe
201f
0000
0000
017a
cafe
241f
0000
0000
0186
cafe
281f
0000
0000
018c
cafe
2c1f
0000
0000
0192
cafe
301f
0000
0000
0193
cafe
341f
0000
0000
019d
cafe
381f
0000
0000
019d
cafe
3c1f
0000
0000
0198
cafe
201f
0000
0000
0195
cafe
241f
0000
0000
0189
cafe
281f
0000
0000
017a
cafe
2c1f
0000
0000
0166
cafe
301f
0000
0000
0150
cafe
341f
0000
0000
013b
cafe
381f
0000
0000
0128
cafe
3c1f
0000
0000
0118
cafe
201f
0000
0000
010b
cafe
241f
0000
0000
00fc
cafe
281f
0000
0000
00f4
cafe
2c1f
0000
0000
00ee
cafe
301f
0000
0000
00e8
cafe
341f
0000
0000
00e3
cafe
381f
0000
0000
00e5
cafe
3c1f
0000
0000
00e7
cafe
201f
0000
0000
00e3
cafe
241f
0000
0000
00e4
cafe
281f
0000
0000
00ed
cafe
2c1f
0000
0000
00f6
cafe
301f
0000
0000
0104
cafe
341f
0000
0000
010d
cafe
381f
0000
0000
0114
cafe
3c1f
0000
0000
011e
-
