2409
5555
f5cc
019b
cafe
2819
5555
f5cc
0163
cafe
2c01
5555
f5cc
013e
cafe
3011
5555
f5d0
015a
cafe
340a
5555
f5d0
0145
cafe
381a
5555
f5d0
01a8
cafe
3c02
5555
f5d0
01d5
cafe
2012
5555
f5d4
01eb
cafe
240b
5555
f5d4
0198
cafe
281b
5555
f5d4
01ab
cafe
2c03
5555
f5d4
016f
cafe
3013
5555
f5d8
0212
cafe
340c
5555
f5d8
0183
cafe
381c
5555
f5d8
01c3
cafe
3c04
5555
f5d8
017c
cafe
2014
5555
f5dc
017f
cafe
240d
5555
f5dc
0146
cafe
281d
5555
f5dc
0174
cafe
2c05
5555
f5dc
01f3
cafe
3015
5555
f5e0
01c5
cafe
340e
5555
f5e0
011a
cafe
381e
5555
f5e0
018f
cafe
3c06
5555
f5e0
01c6
cafe
2016
5555
f5e4
019f
cafe
240f
5555
f5e4
0146
cafe
281f
5555
f5e4
012f
cafe
2c07
5555
f5e4
0185
cafe
3017
5555
f5e8
01e1
cafe
3408
5555
f5e8
015d
cafe
3818
5555
f5e8
0122
cafe
3c00
5555
f5e8
014d
cafe
2010
5555
f5ec
0223
cafe
2409
5555
f5ec
019c
cafe
2819
5555
f5ec
015f
cafe
2c01
5555
f5ec
0138
cafe
3011
5555
f5f0
0158
cafe
340a
5555
f5f0
0145
cafe
381a
5555
f5f0
01a9
cafe
3c02
5555
f5f0
01d6
cafe
2012
5555
f5f4
01e9
cafe
240b
5555
f5f4
0197
cafe
281b
5555
f5f4
01b0
cafe
2c03
5555
f5f4
0169
cafe
3013
5555
f5f8
020f
cafe
340c
5555
f5f8
0185
cafe
381c
5555
f5f8
01c6
cafe
3c04
5555
f5f8
0187
cafe
2014
5555
f5fc
0178
cafe
240d
5555
f5fc
0141
cafe
281d
5555
f5fc
0177
cafe
2c05
5555
f5fc
01ef
cafe
3015
-
5555
f600
01cb
cafe
340e
5555
f600
011c
cafe
381e
5555
f600
018c
cafe
3c06
5555
f600
01c8
cafe
2016
5555
f604
01aa
cafe
240f
5555
f604
014e
cafe
281f
5555
f604
012c
cafe
2c07
5555
f604
017c
cafe
3017
5555
f608
01e2
cafe
3408
5555
f608
0161
cafe
3818
5555
f608
0125
cafe
3c00
5555
f608
014b
cafe
2010
5555
f60c
0228
cafe
2409
5555
f60c
01a1
cafe
2819
5555
f60c
0156
cafe
2c01
5555
f60c
013a
cafe
3011
5555
f610
015f
cafe
340a
5555
f610
014b
cafe
381a
5555
f610
01a8
cafe
3c02
5555
f610
01c8
cafe
2012
5555
f614
01e7
cafe
240b
5555
f614
0191
cafe
281b
5555
f614
01a7
cafe
2c03
5555
f614
0173
cafe
3013
5555
f618
0214
cafe
340c
5555
f618
017b
cafe
381c
5555
f618
01cc
cafe
3c04
5555
f618
018c
cafe
2014
5555
f61c
016f
cafe
240d
5555
f61c
014a
cafe
281d
5555
f61c
0174
cafe
2c05
5555
f61c
01eb
cafe
3015
5555
f620
01c2
cafe
340e
5555
f620
011e
cafe
381e
5555
f620
0185
cafe
3c06
5555
f620
01c4
cafe
2016
5555
f624
01a4
cafe
240f
5555
f624
014e
cafe
281f
5555
f624
0133
cafe
2c07
5555
f624
017b
cafe
3017
5555
f628
01e6
cafe
3408
5555
f628
0158
cafe
3818
5555
f628
0126
cafe
3c00
5555
f628
014d
cafe
2010
5555
f62c
0226
cafe
2409
5555
f62c
01a0
cafe
2819
5555
f62c
0158
cafe
2c01
5555
f62c
013e
cafe
3011
5555
f630
015e
cafe
340a
5555
f630
014b
cafe
381a
5555
f630
01ac
cafe
3c02
5555
-
f630
01ce
cafe
2012
5555
f634
01e8
cafe
240b
5555
f634
0197
cafe
281b
5555
f634
01a2
cafe
2c03
5555
f634
0172
cafe
3013
5555
f638
0219
cafe
340c
5555
f638
0181
cafe
381c
5555
f638
01c1
cafe
3c04
5555
f638
018a
cafe
2014
5555
f63c
0178
cafe
240d
5555
f63c
0152
cafe
281d
5555
f63c
0181
cafe
2c05
5555
f63c
01ef
cafe
3015
5555
f640
01c1
cafe
340e
5555
f640
0120
cafe
381e
5555
f640
0188
cafe
3c06
5555
f640
01d0
cafe
2016
5555
f644
01a3
cafe
240f
5555
f644
0149
cafe
281f
5555
f644
0129
cafe
2c07
5555
f644
0173
cafe
3017
5555
f648
01e3
cafe
3408
5555
f648
015a
cafe
3818
5555
f648
012a
cafe
3c00
5555
f648
0151
cafe
2010
5555
f64c
022e
cafe
2409
5555
f64c
019b
cafe
2819
5555
f64c
015a
cafe
2c01
5555
f64c
0140
cafe
3011
5555
f650
0157
cafe
340a
5555
f650
014a
cafe
381a
5555
f650
01ae
cafe
3c02
5555
f650
01ca
cafe
2012
5555
f654
01e8
cafe
240b
5555
f654
018b
cafe
281b
5555
f654
019c
cafe
2c03
5555
f654
016c
cafe
3013
5555
f658
0219
cafe
340c
5555
f658
0185
cafe
381c
5555
f658
01be
cafe
3c04
5555
f658
0183
cafe
2014
5555
f65c
0175
cafe
240d
5555
f65c
0149
cafe
281d
5555
f65c
0183
cafe
2c05
5555
f65c
01f8
cafe
3015
5555
f660
01cb
cafe
340e
5555
f660
0120
cafe
381e
5555
f660
0183
cafe
3c06
5555
f660
01cd
cafe
2016
5555
f664
01ad
cafe
240f
5555
f664
014b
cafe
281f
5555
f664
-
0137
cafe
2c07
5555
f664
017c
cafe
3017
5555
f668
01e4
cafe
3408
5555
f668
015a
cafe
3818
5555
f668
0123
cafe
3c00
5555
f668
0159
cafe
2010
5555
f66c
0232
cafe
2409
5555
f66c
01a2
cafe
2819
5555
f66c
0156
cafe
2c01
5555
f66c
0144
cafe
3011
5555
f670
0159
cafe
340a
5555
f670
0142
cafe
381a
5555
f670
01af
cafe
3c02
5555
f670
01cb
cafe
2012
5555
f674
01e1
cafe
240b
5555
f674
018d
cafe
281b
5555
f674
019d
cafe
2c03
5555
f674
0164
cafe
3013
5555
f678
0216
cafe
340c
5555
f678
018c
cafe
381c
5555
f678
01c5
cafe
3c04
5555
f678
0184
cafe
2014
5555
f67c
016d
cafe
240d
5555
f67c
0142
cafe
281d
5555
f67c
0182
cafe
2c05
5555
f67c
01f5
cafe
3015
5555
f680
01dd
cafe
340e
5555
f680
0117
cafe
381e
5555
f680
017f
cafe
3c06
5555
f680
01c3
cafe
2016
5555
f684
01ae
cafe
240f
5555
f684
014d
cafe
281f
5555
f684
0136
cafe
2c07
5555
f684
017e
cafe
3017
5555
f688
01e5
cafe
3408
5555
f688
015d
cafe
3818
5555
f688
012d
cafe
3c00
5555
f688
0155
cafe
2010
5555
f68c
0235
cafe
2409
5555
f68c
019e
cafe
2819
5555
f68c
0147
cafe
2c01
5555
f68c
0146
cafe
3011
5555
f690
015b
cafe
340a
5555
f690
013a
cafe
381a
5555
f690
01b5
cafe
3c02
5555
f690
01cb
cafe
2012
5555
f694
01e1
cafe
240b
5555
f694
0190
cafe
281b
5555
f694
019d
cafe
2c03
5555
f694
0166
cafe
3013
5555
f698
021f
cafe
340c
5555
f698
018d
-
cafe
381c
5555
f698
01c0
cafe
3c04
5555
f698
018a
cafe
2014
5555
f69c
016d
cafe
240d
5555
f69c
014c
cafe
281d
5555
f69c
0182
cafe
2c05
5555
f69c
01f1
cafe
3015
5555
f6a0
01cf
cafe
340e
5555
f6a0
011d
cafe
381e
5555
f6a0
018b
cafe
3c06
5555
f6a0
01cb
cafe
2016
5555
f6a4
01ad
cafe
240f
5555
f6a4
0146
cafe
281f
5555
f6a4
012d
cafe
2c07
5555
f6a4
0179
cafe
3017
5555
f6a8
01e7
cafe
3408
5555
f6a8
015c
cafe
3818
5555
f6a8
012d
cafe
3c00
5555
f6a8
0157
cafe
2010
5555
f6ac
022e
cafe
2409
5555
f6ac
019d
cafe
2819
5555
f6ac
0144
cafe
2c01
5555
f6ac
013d
cafe
3011
5555
f6b0
0157
cafe
340a
5555
f6b0
0139
cafe
381a
5555
f6b0
01b8
cafe
3c02
5555
f6b0
01d3
cafe
2012
5555
f6b4
01e1
cafe
240b
5555
f6b4
0192
cafe
281b
5555
f6b4
019e
cafe
2c03
5555
f6b4
0162
cafe
3013
5555
f6b8
021f
cafe
340c
5555
f6b8
018c
cafe
381c
5555
f6b8
01c8
cafe
3c04
5555
f6b8
018d
cafe
2014
5555
f6bc
016f
cafe
240d
5555
f6bc
0151
cafe
281d
5555
f6bc
017c
cafe
2c05
5555
f6bc
01f3
cafe
3015
5555
f6c0
01d2
cafe
340e
5555
f6c0
0119
cafe
381e
5555
f6c0
0186
cafe
3c06
5555
f6c0
01c9
cafe
2016
5555
f6c4
01b2
cafe
240f
5555
f6c4
014c
cafe
281f
5555
f6c4
012c
cafe
2c07
5555
f6c4
0178
cafe
3017
5555
f6c8
01e8
cafe
3408
5555
f6c8
015a
cafe
3818
5555
f6c8
0126
cafe
3c00
5555
f6c8
0155
cafe
2010
5555
f6cc
0230
cafe
-
2409
5555
f6cc
019e
cafe
2819
5555
f6cc
014b
cafe
2c01
5555
f6cc
0139
cafe
3011
5555
f6d0
0152
cafe
340a
5555
f6d0
0135
cafe
381a
5555
f6d0
01af
cafe
3c02
5555
f6d0
01cf
cafe
2012
5555
f6d4
01da
cafe
240b
5555
f6d4
0195
cafe
281b
5555
f6d4
019c
cafe
2c03
5555
f6d4
015f
cafe
3013
5555
f6d8
021e
cafe
340c
5555
f6d8
017d
cafe
381c
5555
f6d8
01cc
cafe
3c04
5555
f6d8
018e
cafe
2014
5555
f6dc
0165
cafe
240d
5555
f6dc
015b
cafe
281d
5555
f6dc
0182
cafe
2c05
5555
f6dc
01e7
cafe
3015
5555
f6e0
01cd
cafe
340e
5555
f6e0
011e
cafe
381e
5555
f6e0
018c
cafe
3c06
5555
f6e0
01c9
cafe
2016
5555
f6e4
01aa
cafe
240f
5555
f6e4
0148
cafe
281f
5555
f6e4
0127
cafe
2c07
5555
f6e4
017a
cafe
3017
5555
f6e8
01f3
cafe
3408
5555
f6e8
0161
cafe
3818
5555
f6e8
0124
cafe
3c00
5555
f6e8
015b
cafe
2010
5555
f6ec
0236
cafe
2409
5555
f6ec
01a2
cafe
2819
5555
f6ec
0155
cafe
2c01
5555
f6ec
0144
cafe
3011
5555
f6f0
0155
cafe
340a
5555
f6f0
013e
cafe
381a
5555
f6f0
01aa
cafe
3c02
5555
f6f0
01d5
cafe
2012
5555
f6f4
01e0
cafe
240b
5555
f6f4
018b
cafe
281b
5555
f6f4
019e
cafe
2c03
5555
f6f4
0165
cafe
3013
5555
f6f8
021e
cafe
340c
5555
f6f8
0187
cafe
381c
5555
f6f8
01cf
cafe
3c04
5555
f6f8
0195
cafe
2014
5555
f6fc
0163
cafe
240d
5555
f6fc
0157
cafe
281d
5555
f6fc
0182
cafe
2c05
5555
f6fc
01e6
cafe
3015
-
5555
f700
01d8
cafe
340e
5555
f700
0121
cafe
381e
5555
f700
0184
cafe
3c06
5555
f700
01ca
cafe
2016
5555
f704
01ad
cafe
240f
5555
f704
013c
cafe
281f
5555
f704
012e
cafe
2c07
5555
f704
017a
cafe
3017
5555
f708
01ef
cafe
3408
5555
f708
015d
cafe
3818
5555
f708
0129
cafe
3c00
5555
f708
0150
cafe
2010
5555
f70c
0238
cafe
2409
5555
f70c
01a4
cafe
2819
5555
f70c
0149
cafe
2c01
5555
f70c
0149
cafe
3011
5555
f710
0159
cafe
340a
5555
f710
0138
cafe
381a
5555
f710
01a8
cafe
3c02
5555
f710
01cd
cafe
2012
5555
f714
01e2
cafe
240b
5555
f714
0198
cafe
281b
5555
f714
019a
cafe
2c03
5555
f714
0168
cafe
3013
5555
f718
021e
cafe
340c
5555
f718
017f
cafe
381c
5555
f718
01c6
cafe
3c04
5555
f718
018d
cafe
2014
5555
f71c
0167
cafe
240d
5555
f71c
0153
cafe
281d
5555
f71c
0186
cafe
2c05
5555
f71c
01ef
cafe
3015
5555
f720
01d8
cafe
340e
5555
f720
0125
cafe
381e
5555
f720
0186
cafe
3c06
5555
f720
01c9
cafe
2016
5555
f724
01ac
cafe
240f
5555
f724
0142
cafe
281f
5555
f724
013a
cafe
2c07
5555
f724
017d
cafe
3017
5555
f728
01ea
cafe
3408
5555
f728
015b
cafe
3818
5555
f728
012e
cafe
3c00
5555
f728
014f
cafe
2010
5555
f72c
0233
cafe
2409
5555
f72c
01a8
cafe
2819
5555
f72c
0151
cafe
2c01
5555
f72c
0141
cafe
3011
5555
f730
0156
cafe
340a
5555
f730
0133
cafe
381a
5555
f730
01a3
cafe
3c02
5555
-
f730
01c7
cafe
2012
5555
f734
01dd
cafe
240b
5555
f734
0194
cafe
281b
5555
f734
01a5
cafe
2c03
5555
f734
016b
cafe
3013
5555
f738
021b
cafe
340c
5555
f738
0185
cafe
381c
5555
f738
01c0
cafe
3c04
5555
f738
0192
cafe
2014
5555
f73c
0165
cafe
240d
5555
f73c
0153
cafe
281d
5555
f73c
0185
cafe
2c05
5555
f73c
01f2
cafe
3015
5555
f740
01d9
cafe
340e
5555
f740
0122
cafe
381e
5555
f740
017a
cafe
3c06
5555
f740
01cb
cafe
2016
5555
f744
01ac
cafe
240f
5555
f744
0140
cafe
281f
5555
f744
0136
cafe
2c07
5555
f744
017e
cafe
3017
5555
f748
01e6
cafe
3408
5555
f748
0162
cafe
3818
5555
f748
012c
cafe
3c00
5555
f748
0150
cafe
2010
5555
f74c
022d
cafe
2409
5555
f74c
01a0
cafe
2819
5555
f74c
0145
cafe
2c01
5555
f74c
0144
cafe
3011
5555
f750
014f
cafe
340a
5555
f750
0142
cafe
381a
5555
f750
01ab
cafe
3c02
5555
f750
01c6
cafe
2012
5555
f754
01e6
cafe
240b
5555
f754
0193
cafe
281b
5555
f754
019b
cafe
2c03
5555
f754
016c
cafe
3013
5555
f758
021a
cafe
340c
5555
f758
0179
cafe
381c
5555
f758
01c3
cafe
3c04
5555
f758
018e
cafe
2014
5555
f75c
015c
cafe
240d
5555
f75c
0151
cafe
281d
5555
f75c
0189
cafe
2c05
5555
f75c
01f1
cafe
3015
5555
f760
01dd
cafe
340e
5555
f760
012a
cafe
381e
5555
f760
017d
cafe
3c06
5555
f760
01c5
cafe
2016
5555
f764
01a7
cafe
240f
5555
f764
014b
cafe
281f
5555
f764
-
0135
cafe
2c07
5555
f764
0180
cafe
3017
5555
f768
01e6
cafe
3408
5555
f768
0164
cafe
3818
5555
f768
012c
cafe
3c00
5555
f768
0155
cafe
2010
5555
f76c
0229
cafe
2409
5555
f76c
0199
cafe
2819
5555
f76c
0149
cafe
2c01
5555
f76c
0145
cafe
3011
5555
f770
0154
cafe
340a
5555
f770
0147
cafe
381a
5555
f770
01ac
cafe
3c02
5555
f770
01d1
cafe
2012
5555
f774
01e5
cafe
240b
5555
f774
018f
cafe
281b
5555
f774
019d
cafe
2c03
5555
f774
0166
cafe
3013
5555
f778
0219
cafe
340c
5555
f778
0176
cafe
381c
5555
f778
01bf
cafe
3c04
5555
f778
0187
cafe
2014
5555
f77c
0160
cafe
240d
5555
f77c
0152
cafe
281d
5555
f77c
0184
cafe
2c05
5555
f77c
01ed
cafe
3015
5555
f780
01dc
cafe
340e
5555
f780
0125
cafe
381e
5555
f780
018b
cafe
3c06
5555
f780
01c4
cafe
2016
5555
f784
01b1
cafe
240f
5555
f784
0153
cafe
281f
5555
f784
0131
cafe
2c07
5555
f784
0181
cafe
3017
5555
f788
01e8
cafe
3408
5555
f788
0168
cafe
3818
5555
f788
0130
cafe
3c00
5555
f788
0152
cafe
2010
5555
f78c
022f
cafe
2409
5555
f78c
019d
cafe
2819
5555
f78c
0141
cafe
2c01
5555
f78c
0144
cafe
3011
5555
f790
015a
cafe
340a
5555
f790
014d
cafe
381a
5555
f790
01ad
cafe
3c02
5555
f790
01cd
cafe
2012
5555
f794
01e3
cafe
240b
5555
f794
0187
cafe
281b
5555
f794
01a0
cafe
2c03
5555
f794
016a
cafe
3013
5555
f798
0214
cafe
340c
5555
f798
017d
-
cafe
381c
5555
f798
01c9
cafe
3c04
5555
f798
0185
cafe
2014
5555
f79c
0162
cafe
240d
5555
f79c
0150
cafe
281d
5555
f79c
0183
cafe
2c05
5555
f79c
01e7
cafe
3015
5555
f7a0
01d9
cafe
340e
5555
f7a0
0123
cafe
381e
5555
f7a0
018a
cafe
3c06
5555
f7a0
01ca
cafe
2016
5555
f7a4
01b4
cafe
240f
5555
f7a4
014d
cafe
281f
5555
f7a4
012b
cafe
2c07
5555
f7a4
017b
cafe
3017
5555
f7a8
01e1
cafe
3408
5555
f7a8
0165
cafe
3818
5555
f7a8
011b
cafe
3c00
5555
f7a8
0160
cafe
2010
5555
f7ac
0231
cafe
2409
5555
f7ac
019e
cafe
2819
5555
f7ac
0151
cafe
2c01
5555
f7ac
013e
cafe
3011
5555
f7b0
015a
cafe
340a
5555
f7b0
014f
cafe
381a
5555
f7b0
01b6
cafe
3c02
5555
f7b0
01d2
cafe
2012
5555
f7b4
01e9
cafe
240b
5555
f7b4
0182
cafe
281b
5555
f7b4
01ac
cafe
2c03
5555
f7b4
0166
cafe
3013
5555
f7b8
0219
cafe
340c
5555
f7b8
017a
cafe
381c
5555
f7b8
01c5
cafe
3c04
5555
f7b8
018c
cafe
2014
5555
f7bc
0171
cafe
240d
5555
f7bc
0150
cafe
281d
5555
f7bc
0180
cafe
2c05
5555
f7bc
01e5
cafe
3015
5555
f7c0
01c8
cafe
340e
5555
f7c0
011a
cafe
381e
5555
f7c0
018f
cafe
3c06
5555
f7c0
01cf
cafe
2016
5555
f7c4
01a4
cafe
240f
5555
f7c4
0144
cafe
281f
5555
f7c4
012a
cafe
2c07
5555
f7c4
0178
cafe
3017
5555
f7c8
01e4
cafe
3408
5555
f7c8
0165
cafe
3818
5555
f7c8
0129
cafe
3c00
5555
f7c8
0159
cafe
2010
5555
f7cc
0232
cafe
-
2409
5555
f7cc
019c
cafe
2819
5555
f7cc
0150
cafe
2c01
5555
f7cc
013e
cafe
3011
5555
f7d0
0162
cafe
340a
5555
f7d0
0149
cafe
381a
5555
f7d0
01b0
cafe
3c02
5555
f7d0
01d9
cafe
2012
5555
f7d4
01ef
cafe
240b
5555
f7d4
0184
cafe
281b
5555
f7d4
01aa
cafe
2c03
5555
f7d4
0160
cafe
3013
5555
f7d8
021a
cafe
340c
5555
f7d8
017d
cafe
381c
5555
f7d8
01c2
cafe
3c04
5555
f7d8
0182
cafe
2014
5555
f7dc
0178
cafe
240d
5555
f7dc
014f
cafe
281d
5555
f7dc
0184
cafe
2c05
5555
f7dc
01e4
cafe
3015
5555
f7e0
01c3
cafe
340e
5555
f7e0
0117
cafe
381e
5555
f7e0
0193
cafe
3c06
5555
f7e0
01c9
cafe
2016
5555
f7e4
01a2
cafe
240f
5555
f7e4
0145
cafe
281f
5555
f7e4
012f
cafe
2c07
5555
f7e4
0176
cafe
3017
5555
f7e8
01e1
cafe
3408
5555
f7e8
0163
cafe
3818
5555
f7e8
012d
cafe
3c00
5555
f7e8
0160
cafe
2010
5555
f7ec
022f
cafe
2409
5555
f7ec
01a0
cafe
2819
5555
f7ec
014e
cafe
2c01
5555
f7ec
0146
cafe
3011
5555
f7f0
015d
cafe
340a
5555
f7f0
0150
cafe
381a
5555
f7f0
01b1
cafe
3c02
5555
f7f0
01d7
cafe
2012
5555
f7f4
01f0
cafe
240b
5555
f7f4
0188
cafe
281b
5555
f7f4
01a4
cafe
2c03
5555
f7f4
015a
cafe
3013
5555
f7f8
021d
cafe
340c
5555
f7f8
01ff
cafe
381c
5555
f7f8
023b
cafe
3c04
5555
f7f8
0200
cafe
2014
5555
f7fc
01e5
cafe
240d
5555
f7fc
02dc
cafe
281d
5555
f7fc
032b
cafe
2c05
5555
f7fc
0382
cafe
3015
-
5555
f800
0363
cafe
340e
5555
f800
03c9
cafe
381e
5555
f800
0428
cafe
3c06
5555
f800
0477
cafe
2016
5555
f804
0458
cafe
240f
5555
f804
04d2
cafe
281f
5555
f804
04b6
cafe
2c07
5555
f804
04ef
cafe
3017
5555
f808
0572
cafe
3408
5555
f808
05ae
cafe
3818
5555
f808
056f
cafe
3c00
5555
f808
059d
cafe
2010
5555
f80c
0685
cafe
2409
5555
f80c
067a
cafe
2819
5555
f80c
0626
cafe
2c01
5555
f80c
0605
cafe
3011
5555
f810
0630
cafe
340a
5555
f810
06ae
cafe
381a
5555
f810
070c
cafe
3c02
5555
f810
072f
cafe
2012
5555
f814
0749
cafe
240b
5555
f814
0751
cafe
281b
5555
f814
075b
cafe
2c03
5555
f814
0702
cafe
3013
5555
f818
07db
cafe
340c
5555
f818
079f
cafe
381c
5555
f818
07db
cafe
3c04
5555
f818
078d
cafe
2014
5555
f81c
077b
cafe
240d
5555
f81c
07a6
cafe
281d
5555
f81c
07c8
cafe
2c05
5555
f81c
0837
cafe
3015
5555
f820
0830
cafe
340e
5555
f820
07b1
cafe
381e
5555
f820
081a
cafe
3c06
5555
f820
085a
cafe
2016
5555
f824
0848
cafe
240f
5555
f824
0809
cafe
281f
5555
f824
07ec
cafe
2c07
5555
f824
081d
cafe
3017
5555
f828
089f
cafe
3408
5555
f828
0849
cafe
3818
5555
f828
0807
cafe
3c00
5555
f828
083e
cafe
2010
5555
f82c
092e
cafe
2409
5555
f82c
0897
cafe
2819
5555
f82c
083f
cafe
2c01
5555
f82c
081d
cafe
3011
5555
f830
084e
cafe
340a
5555
f830
0855
cafe
381a
5555
f830
08c7
cafe
3c02
5555
-
f830
08e3
cafe
2012
5555
f834
0909
cafe
240b
5555
f834
08b6
cafe
281b
5555
f834
08c1
cafe
2c03
5555
f834
085f
cafe
3013
5555
f838
0935
cafe
340c
5555
f838
08ac
cafe
381c
5555
f838
08f7
cafe
3c04
5555
f838
089d
cafe
2014
5555
f83c
088a
cafe
240d
5555
f83c
0888
cafe
281d
5555
f83c
08ac
cafe
2c05
5555
f83c
0916
cafe
3015
5555
f840
0911
cafe
340e
5555
f840
085a
cafe
381e
5555
f840
08d2
cafe
3c06
5555
f840
0901
cafe
2016
5555
f844
08f7
cafe
240f
5555
f844
088b
cafe
281f
5555
f844
0875
cafe
2c07
5555
f844
08a3
cafe
3017
5555
f848
092c
cafe
3408
5555
f848
08a2
cafe
3818
5555
f848
086b
cafe
3c00
5555
f848
0899
cafe
2010
5555
f84c
098b
cafe
2409
5555
f84c
08df
cafe
2819
5555
f84c
088d
cafe
2c01
5555
f84c
0861
cafe
3011
5555
f850
0899
cafe
340a
5555
f850
088b
cafe
381a
5555
f850
08f9
cafe
3c02
5555
f850
0915
cafe
2012
5555
f854
0944
cafe
240b
5555
f854
08e4
cafe
281b
5555
f854
08d5
cafe
2c03
5555
f854
087c
cafe
3013
5555
f858
0960
cafe
340c
5555
f858
08c2
cafe
381c
5555
f858
090f
cafe
3c04
5555
f858
08b2
cafe
2014
5555
f85c
0899
cafe
240d
5555
f85c
0886
cafe
281d
5555
f85c
089f
cafe
2c05
5555
f85c
0909
cafe
3015
5555
f860
0910
cafe
340e
5555
f860
0852
cafe
381e
5555
f860
08cd
cafe
3c06
5555
f860
08f0
cafe
2016
5555
f864
08f2
cafe
240f
5555
f864
0874
cafe
281f
5555
f864
-
0858
cafe
2c07
5555
f864
088d
cafe
3017
5555
f868
0910
cafe
3408
5555
f868
0885
cafe
3818
5555
f868
0848
cafe
3c00
5555
f868
087c
cafe
2010
5555
f86c
0964
cafe
2409
5555
f86c
08b8
cafe
2819
5555
f86c
0869
cafe
2c01
5555
f86c
0835
cafe
3011
5555
f870
086a
cafe
340a
5555
f870
0848
cafe
381a
5555
f870
08c2
cafe
3c02
5555
f870
08e5
cafe
2012
5555
f874
0910
cafe
240b
5555
f874
08a5
cafe
281b
5555
f874
08a3
cafe
2c03
5555
f874
0834
cafe
3013
5555
f878
0920
cafe
340c
5555
f878
0881
cafe
381c
5555
f878
08dd
cafe
3c04
5555
f878
0874
cafe
2014
5555
f87c
085b
cafe
240d
5555
f87c
0843
cafe
281d
5555
f87c
0862
cafe
2c05
5555
f87c
08c6
cafe
3015
5555
f880
08d1
cafe
340e
5555
f880
080f
cafe
381e
5555
f880
0893
cafe
3c06
5555
f880
08b0
cafe
2016
5555
f884
08bb
cafe
240f
5555
f884
082d
cafe
281f
5555
f884
080f
cafe
2c07
5555
f884
0847
cafe
3017
5555
f888
08d8
cafe
3408
5555
f888
0841
cafe
3818
5555
f888
0805
cafe
3c00
5555
f888
083a
cafe
2010
5555
f88c
0923
cafe
2409
5555
f88c
0877
cafe
2819
5555
f88c
0825
cafe
2c01
5555
f88c
07e3
cafe
3011
5555
f890
082b
cafe
340a
5555
f890
07fd
cafe
381a
5555
f890
0878
cafe
3c02
5555
f890
089c
cafe
2012
5555
f894
08c3
cafe
240b
5555
f894
0863
cafe
281b
5555
f894
0865
cafe
2c03
5555
f894
07f7
cafe
3013
5555
f898
08e3
cafe
340c
5555
f898
0838
-
cafe
381c
5555
f898
089a
cafe
3c04
5555
f898
082d
cafe
2014
5555
f89c
0812
cafe
240d
5555
f89c
07fa
cafe
281d
5555
f89c
0813
cafe
2c05
5555
f89c
0885
cafe
3015
5555
f8a0
0887
cafe
340e
5555
f8a0
07b4
cafe
381e
5555
f8a0
0853
cafe
3c06
5555
f8a0
0868
cafe
2016
5555
f8a4
0867
cafe
240f
5555
f8a4
07e6
cafe
281f
5555
f8a4
07bc
cafe
2c07
5555
f8a4
07f8
cafe
3017
5555
f8a8
0896
cafe
3408
5555
f8a8
0800
cafe
3818
5555
f8a8
07bc
cafe
3c00
5555
f8a8
07f1
cafe
2010
5555
f8ac
08e0
cafe
2409
5555
f8ac
0831
cafe
2819
5555
f8ac
07e1
cafe
2c01
5555
f8ac
078a
cafe
3011
5555
f8b0
07e1
cafe
340a
5555
f8b0
07b5
cafe
381a
5555
f8b0
082e
cafe
3c02
5555
f8b0
0849
cafe
2012
5555
f8b4
0880
cafe
240b
5555
f8b4
0811
cafe
281b
5555
f8b4
081b
cafe
2c03
5555
f8b4
07b6
cafe
3013
5555
f8b8
088e
cafe
340c
5555
f8b8
07eb
cafe
381c
5555
f8b8
084f
cafe
3c04
5555
f8b8
07dc
cafe
2014
5555
f8bc
07c3
cafe
240d
5555
f8bc
07b4
cafe
281d
5555
f8bc
07c8
cafe
2c05
5555
f8bc
084a
cafe
3015
5555
f8c0
084c
cafe
340e
5555
f8c0
076c
cafe
381e
5555
f8c0
0812
cafe
3c06
5555
f8c0
082a
cafe
2016
5555
f8c4
082a
cafe
240f
5555
f8c4
0793
cafe
281f
5555
f8c4
077b
cafe
2c07
5555
f8c4
07b2
cafe
3017
5555
f8c8
084c
cafe
3408
5555
f8c8
07ab
cafe
3818
5555
f8c8
076e
cafe
3c00
5555
f8c8
07a4
cafe
2010
5555
f8cc
089b
cafe
-
2409
5555
f8cc
07f4
cafe
2819
5555
f8cc
079e
cafe
2c01
5555
f8cc
0746
cafe
3011
5555
f8d0
079f
cafe
340a
5555
f8d0
0767
cafe
381a
5555
f8d0
07ec
cafe
3c02
5555
f8d0
0800
cafe
2012
5555
f8d4
0840
cafe
240b
5555
f8d4
07d3
cafe
281b
5555
f8d4
07d9
cafe
2c03
5555
f8d4
0770
cafe
3013
5555
f8d8
0847
cafe
340c
5555
f8d8
07aa
cafe
381c
5555
f8d8
0806
cafe
3c04
5555
f8d8
0795
cafe
2014
5555
f8dc
0779
cafe
240d
5555
f8dc
0764
cafe
281d
5555
f8dc
0782
cafe
2c05
5555
f8dc
07fe
cafe
3015
5555
f8e0
0804
cafe
340e
5555
f8e0
071c
cafe
381e
5555
f8e0
07c5
cafe
3c06
5555
f8e0
07e2
cafe
2016
5555
f8e4
07e2
cafe
240f
5555
f8e4
0742
cafe
281f
5555
f8e4
072b
cafe
2c07
5555
f8e4
0764
cafe
3017
5555
f8e8
0806
cafe
3408
5555
f8e8
0769
cafe
3818
5555
f8e8
0726
cafe
3c00
5555
f8e8
0755
cafe
2010
5555
f8ec
0852
cafe
2409
5555
f8ec
07ab
cafe
2819
5555
f8ec
0758
cafe
2c01
5555
f8ec
06fd
cafe
3011
5555
f8f0
0760
cafe
340a
5555
f8f0
071b
cafe
381a
5555
f8f0
07aa
cafe
3c02
5555
f8f0
07bb
cafe
2012
5555
f8f4
07f4
cafe
240b
5555
f8f4
0797
cafe
281b
5555
f8f4
0790
cafe
2c03
5555
f8f4
072a
cafe
3013
5555
f8f8
0801
cafe
340c
5555
f8f8
0763
cafe
381c
5555
f8f8
07c2
cafe
3c04
5555
f8f8
075a
cafe
2014
5555
f8fc
0733
cafe
240d
5555
f8fc
0712
cafe
281d
5555
f8fc
073f
cafe
2c05
5555
f8fc
07b2
cafe
3015
-
5555
f900
07b6
cafe
340e
5555
f900
06d4
cafe
381e
5555
f900
077b
cafe
3c06
5555
f900
07a4
cafe
2016
5555
f904
079d
cafe
240f
5555
f904
06fc
cafe
281f
5555
f904
06e7
cafe
2c07
5555
f904
0718
cafe
3017
5555
f908
07ca
cafe
3408
5555
f908
0723
cafe
3818
5555
f908
06e4
cafe
3c00
5555
f908
0703
cafe
2010
5555
f90c
0815
cafe
2409
5555
f90c
0765
cafe
2819
5555
f90c
0716
cafe
2c01
5555
f90c
06b9
cafe
3011
5555
f910
0727
cafe
340a
5555
f910
06d7
cafe
381a
5555
f910
0758
cafe
3c02
5555
f910
077a
cafe
2012
5555
f914
07ae
cafe
240b
5555
f914
0753
cafe
281b
5555
f914
074e
cafe
2c03
5555
f914
06e7
cafe
3013
5555
f918
07c9
cafe
340c
5555
f918
0721
cafe
381c
5555
f918
077c
cafe
3c04
5555
f918
0707
cafe
2014
5555
f91c
06ee
cafe
240d
5555
f91c
06d5
cafe
281d
5555
f91c
0702
cafe
2c05
5555
f91c
0776
cafe
3015
5555
f920
077c
cafe
340e
5555
f920
068d
cafe
381e
5555
f920
073c
cafe
3c06
5555
f920
0758
cafe
2016
5555
f924
075b
cafe
240f
5555
f924
06b9
cafe
281f
5555
f924
069e
cafe
2c07
5555
f924
06e0
cafe
3017
5555
f928
078b
cafe
3408
5555
f928
06e1
cafe
3818
5555
f928
069b
cafe
3c00
5555
f928
06c4
cafe
2010
5555
f92c
07cc
cafe
2409
5555
f92c
0727
cafe
2819
5555
f92c
06da
cafe
2c01
5555
f92c
066e
cafe
3011
5555
f930
06df
cafe
340a
5555
f930
068b
cafe
381a
5555
f930
0722
cafe
3c02
5555
-
f930
0736
cafe
2012
5555
f934
0768
cafe
240b
5555
f934
0715
cafe
281b
5555
f934
070f
cafe
2c03
5555
f934
06aa
cafe
3013
5555
f938
0792
cafe
340c
5555
f938
06dc
cafe
381c
5555
f938
0736
cafe
3c04
5555
f938
06cd
cafe
2014
5555
f93c
06ab
cafe
240d
5555
f93c
0693
cafe
281d
5555
f93c
06c2
cafe
2c05
5555
f93c
072f
cafe
3015
5555
f940
073f
cafe
340e
5555
f940
064f
cafe
381e
5555
f940
0702
cafe
3c06
5555
f940
0723
cafe
2016
5555
f944
071c
cafe
240f
5555
f944
067b
cafe
281f
5555
f944
064f
cafe
2c07
5555
f944
06a2
cafe
3017
5555
f948
0751
cafe
3408
5555
f948
06a2
cafe
3818
5555
f948
065b
cafe
3c00
5555
f948
0676
cafe
2010
5555
f94c
0789
cafe
2409
5555
f94c
06ee
cafe
2819
5555
f94c
069d
cafe
2c01
5555
f94c
0621
cafe
3011
5555
f950
06a7
cafe
340a
5555
f950
064e
cafe
381a
5555
f950
06e5
cafe
3c02
5555
f950
06eb
cafe
2012
5555
f954
0723
cafe
240b
5555
f954
06d1
cafe
281b
5555
f954
06d1
cafe
2c03
5555
f954
0678
cafe
3013
5555
f958
075b
cafe
340c
5555
f958
0699
cafe
381c
5555
f958
0701
cafe
3c04
5555
f958
0694
cafe
2014
5555
f95c
0667
cafe
240d
5555
f95c
0662
cafe
281d
5555
f95c
0677
cafe
2c05
5555
f95c
06f4
cafe
3015
5555
f960
0701
cafe
340e
5555
f960
061d
cafe
381e
5555
f960
06bd
cafe
3c06
5555
f960
06df
cafe
2016
5555
f964
06ee
cafe
240f
5555
f964
063b
cafe
281f
5555
f964
-
0616
cafe
2c07
5555
f964
0665
cafe
3017
5555
f968
0718
cafe
3408
5555
f968
0665
cafe
3818
5555
f968
0624
cafe
3c00
5555
f968
0645
cafe
2010
5555
f96c
0756
cafe
2409
5555
f96c
06af
cafe
2819
5555
f96c
065f
cafe
2c01
5555
f96c
05df
cafe
3011
5555
f970
066a
cafe
340a
5555
f970
0613
cafe
381a
5555
f970
069b
cafe
3c02
5555
f970
06a9
cafe
2012
5555
f974
06e7
cafe
240b
5555
f974
0691
cafe
281b
5555
f974
0692
cafe
2c03
5555
f974
0634
cafe
3013
5555
f978
0714
cafe
340c
5555
f978
0651
cafe
381c
5555
f978
06ca
cafe
3c04
5555
f978
0658
cafe
2014
5555
f97c
0627
cafe
240d
5555
f97c
0626
cafe
281d
5555
f97c
0639
cafe
2c05
5555
f97c
06b8
cafe
3015
5555
f980
06bf
cafe
340e
5555
f980
05da
cafe
381e
5555
f980
067c
cafe
3c06
5555
f980
069e
cafe
2016
5555
f984
06b1
cafe
240f
5555
f984
0601
cafe
281f
5555
f984
05d7
cafe
2c07
5555
f984
062d
cafe
3017
5555
f988
06de
cafe
3408
5555
f988
062e
cafe
3818
5555
f988
05e1
cafe
3c00
5555
f988
0606
cafe
2010
5555
f98c
0728
cafe
2409
5555
f98c
067b
cafe
2819
5555
f98c
0626
cafe
2c01
5555
f98c
05b1
cafe
3011
5555
f990
062e
cafe
340a
5555
f990
05d1
cafe
381a
5555
f990
0663
cafe
3c02
5555
f990
0676
cafe
2012
5555
f994
06af
cafe
240b
5555
f994
065f
cafe
281b
5555
f994
0662
cafe
2c03
5555
f994
05f6
cafe
3013
5555
f998
06dc
cafe
340c
5555
f998
0625
-
cafe
381c
5555
f998
068a
cafe
3c04
5555
f998
061d
cafe
2014
5555
f99c
05ef
cafe
240d
5555
f99c
05e7
cafe
281d
5555
f99c
05ff
cafe
2c05
5555
f99c
067b
cafe
3015
5555
f9a0
0689
cafe
340e
5555
f9a0
05a0
cafe
381e
5555
f9a0
0646
cafe
3c06
5555
f9a0
0662
cafe
2016
5555
f9a4
0673
cafe
240f
5555
f9a4
05c3
cafe
281f
5555
f9a4
0590
cafe
2c07
5555
f9a4
05f5
cafe
3017
5555
f9a8
06a7
cafe
3408
5555
f9a8
05f8
cafe
3818
5555
f9a8
05a6
cafe
3c00
5555
f9a8
05d1
cafe
2010
5555
f9ac
06df
cafe
2409
5555
f9ac
0646
cafe
2819
5555
f9ac
05ee
cafe
2c01
5555
f9ac
0576
cafe
3011
5555
f9b0
05f7
cafe
340a
5555
f9b0
059e
cafe
381a
5555
f9b0
0625
cafe
3c02
5555
f9b0
063d
cafe
2012
5555
f9b4
067f
cafe
240b
5555
f9b4
0624
cafe
281b
5555
f9b4
0633
cafe
2c03
5555
f9b4
05c2
cafe
3013
5555
f9b8
069b
cafe
340c
5555
f9b8
05e6
cafe
381c
5555
f9b8
0652
cafe
3c04
5555
f9b8
05dc
cafe
2014
5555
f9bc
05b2
cafe
240d
5555
f9bc
05b5
cafe
281d
5555
f9bc
05cc
cafe
2c05
5555
f9bc
0646
cafe
3015
5555
f9c0
0650
cafe
340e
5555
f9c0
056a
cafe
381e
5555
f9c0
0613
cafe
3c06
5555
f9c0
062e
cafe
2016
5555
f9c4
0642
cafe
240f
5555
f9c4
058e
cafe
281f
5555
f9c4
055b
cafe
2c07
5555
f9c4
05bd
cafe
3017
5555
f9c8
066d
cafe
3408
5555
f9c8
05ba
cafe
3818
5555
f9c8
0566
cafe
3c00
5555
f9c8
0597
cafe
2010
5555
f9cc
06ab
cafe
-
2409
5555
f9cc
0613
cafe
2819
5555
f9cc
05b6
cafe
2c01
5555
f9cc
0534
cafe
3011
5555
f9d0
05b8
cafe
340a
5555
f9d0
0566
cafe
381a
5555
f9d0
05ec
cafe
3c02
5555
f9d0
0605
cafe
2012
5555
f9d4
0647
cafe
240b
5555
f9d4
05eb
cafe
281b
5555
f9d4
05fd
cafe
2c03
5555
f9d4
0583
cafe
3013
5555
f9d8
065f
cafe
340c
5555
f9d8
05b2
cafe
381c
5555
f9d8
0616
cafe
3c04
5555
f9d8
059f
cafe
2014
5555
f9dc
0588
cafe
240d
5555
f9dc
0578
cafe
281d
5555
f9dc
058d
cafe
2c05
5555
f9dc
0620
cafe
3015
5555
f9e0
0624
cafe
340e
5555
f9e0
0538
cafe
381e
5555
f9e0
05de
cafe
3c06
5555
f9e0
05fd
cafe
2016
5555
f9e4
060b
cafe
240f
5555
f9e4
0555
cafe
281f
5555
f9e4
0527
cafe
2c07
5555
f9e4
057b
cafe
3017
5555
f9e8
0631
cafe
3408
5555
f9e8
057e
cafe
3818
5555
f9e8
053b
cafe
3c00
5555
f9e8
055b
cafe
2010
5555
f9ec
0670
cafe
2409
5555
f9ec
05df
cafe
2819
5555
f9ec
0587
cafe
2c01
5555
f9ec
04ff
cafe
3011
5555
f9f0
0582
cafe
340a
5555
f9f0
0531
cafe
381a
5555
f9f0
05b7
cafe
3c02
5555
f9f0
05d9
cafe
2012
5555
f9f4
0611
cafe
240b
5555
f9f4
05bd
cafe
281b
5555
f9f4
05c3
cafe
2c03
5555
f9f4
0546
cafe
3013
5555
f9f8
062e
cafe
340c
5555
f9f8
0577
cafe
381c
5555
f9f8
05de
cafe
3c04
5555
f9f8
0569
cafe
2014
5555
f9fc
0555
cafe
240d
5555
f9fc
0543
cafe
281d
5555
f9fc
0562
cafe
2c05
5555
f9fc
05f2
cafe
3015
-
5555
fa00
05ed
cafe
340e
5555
fa00
0501
cafe
381e
5555
fa00
05b3
cafe
3c06
5555
fa00
05c4
cafe
2016
5555
fa04
05c4
cafe
240f
5555
fa04
051e
cafe
281f
5555
fa04
04e6
cafe
2c07
5555
fa04
054b
cafe
3017
5555
fa08
05fc
cafe
3408
5555
fa08
054f
cafe
3818
5555
fa08
0500
cafe
3c00
5555
fa08
0527
cafe
2010
5555
fa0c
0636
cafe
2409
5555
fa0c
05ae
cafe
2819
5555
fa0c
055d
cafe
2c01
5555
fa0c
04c9
cafe
3011
5555
fa10
054e
cafe
340a
5555
fa10
0500
cafe
381a
5555
fa10
0581
cafe
3c02
5555
fa10
05aa
cafe
2012
5555
fa14
05dd
cafe
240b
5555
fa14
0588
cafe
281b
5555
fa14
0597
cafe
2c03
5555
fa14
0512
cafe
3013
5555
fa18
0603
cafe
340c
5555
fa18
0546
cafe
381c
5555
fa18
05aa
cafe
3c04
5555
fa18
0531
cafe
2014
5555
fa1c
0519
cafe
240d
5555
fa1c
0510
cafe
281d
5555
fa1c
0530
cafe
2c05
5555
fa1c
05b5
cafe
3015
5555
fa20
05bf
cafe
340e
5555
fa20
04cc
cafe
381e
5555
fa20
0583
cafe
3c06
5555
fa20
058a
cafe
2016
5555
fa24
0591
cafe
240f
5555
fa24
04e9
cafe
281f
5555
fa24
04c4
cafe
2c07
5555
fa24
051e
cafe
3017
5555
fa28
05d1
cafe
3408
5555
fa28
051b
cafe
3818
5555
fa28
04cc
cafe
3c00
5555
fa28
04fa
cafe
2010
5555
fa2c
060a
cafe
2409
5555
fa2c
0578
cafe
2819
5555
fa2c
0523
cafe
2c01
5555
fa2c
0490
cafe
3011
5555
fa30
0514
cafe
340a
5555
fa30
04c8
cafe
381a
5555
fa30
0555
cafe
3c02
5555
-
fa30
0578
cafe
2012
5555
fa34
05a8
cafe
240b
5555
fa34
055e
cafe
281b
5555
fa34
056b
cafe
2c03
5555
fa34
04e4
cafe
3013
5555
fa38
05d5
cafe
340c
5555
fa38
0513
cafe
381c
5555
fa38
0574
cafe
3c04
5555
fa38
0504
cafe
2014
5555
fa3c
04f0
cafe
240d
5555
fa3c
04d9
cafe
281d
5555
fa3c
04f5
cafe
2c05
5555
fa3c
0580
cafe
3015
5555
fa40
0582
cafe
340e
5555
fa40
04a5
cafe
381e
5555
fa40
054e
cafe
3c06
5555
fa40
0564
cafe
2016
5555
fa44
055f
cafe
240f
5555
fa44
04be
cafe
281f
5555
fa44
0498
cafe
2c07
5555
fa44
04ea
cafe
3017
5555
fa48
05a5
cafe
3408
5555
fa48
04ec
cafe
3818
5555
fa48
049c
cafe
3c00
5555
fa48
04c2
cafe
2010
5555
fa4c
05e1
cafe
2409
5555
fa4c
054d
cafe
2819
5555
fa4c
04f2
cafe
2c01
5555
fa4c
0468
cafe
3011
5555
fa50
04e8
cafe
340a
5555
fa50
0496
cafe
381a
5555
fa50
052a
cafe
3c02
5555
fa50
0540
cafe
2012
5555
fa54
057e
cafe
240b
5555
fa54
0535
cafe
281b
5555
fa54
0539
cafe
2c03
5555
fa54
04b7
cafe
3013
5555
fa58
05a8
cafe
340c
5555
fa58
04e0
cafe
381c
5555
fa58
0544
cafe
3c04
5555
fa58
04d7
cafe
2014
5555
fa5c
04cb
cafe
240d
5555
fa5c
04b2
cafe
281d
5555
fa5c
04ca
cafe
2c05
5555
fa5c
0553
cafe
3015
5555
fa60
0555
cafe
340e
5555
fa60
0474
cafe
381e
5555
fa60
0526
cafe
3c06
5555
fa60
0530
cafe
2016
5555
fa64
053e
cafe
240f
5555
fa64
0488
cafe
281f
5555
fa64
-
0463
cafe
2c07
5555
fa64
04be
cafe
3017
5555
fa68
0574
cafe
3408
5555
fa68
04b2
cafe
3818
5555
fa68
0479
cafe
3c00
5555
fa68
0489
cafe
2010
5555
fa6c
05b3
cafe
2409
5555
fa6c
0523
cafe
2819
5555
fa6c
04bd
cafe
2c01
5555
fa6c
043e
cafe
3011
5555
fa70
04b9
cafe
340a
5555
fa70
0464
cafe
381a
5555
fa70
04ec
cafe
3c02
5555
fa70
050d
cafe
2012
5555
fa74
0551
cafe
240b
5555
fa74
050f
cafe
281b
5555
fa74
050c
cafe
2c03
5555
fa74
048f
cafe
3013
5555
fa78
0574
cafe
340c
5555
fa78
04b5
cafe
381c
5555
fa78
0515
cafe
3c04
5555
fa78
04af
cafe
2014
5555
fa7c
0493
cafe
240d
5555
fa7c
048f
cafe
281d
5555
fa7c
04a2
cafe
2c05
5555
fa7c
052b
cafe
3015
5555
fa80
0532
cafe
340e
5555
fa80
0443
cafe
381e
5555
fa80
04fa
cafe
3c06
5555
fa80
04fe
cafe
2016
5555
fa84
0511
cafe
240f
5555
fa84
045e
cafe
281f
5555
fa84
042e
cafe
2c07
5555
fa84
0498
cafe
3017
5555
fa88
054c
cafe
3408
5555
fa88
0488
cafe
3818
5555
fa88
0445
cafe
3c00
5555
fa88
0464
cafe
2010
5555
fa8c
0587
cafe
2409
5555
fa8c
04f2
cafe
2819
5555
fa8c
0497
cafe
2c01
5555
fa8c
0415
cafe
3011
5555
fa90
0495
cafe
340a
5555
fa90
0440
cafe
381a
5555
fa90
04c4
cafe
3c02
5555
fa90
04e7
cafe
2012
5555
fa94
0520
cafe
240b
5555
fa94
04e3
cafe
281b
5555
fa94
04da
cafe
2c03
5555
fa94
046f
cafe
3013
5555
fa98
054f
cafe
340c
5555
fa98
0488
-
cafe
381c
5555
fa98
04e7
cafe
3c04
5555
fa98
047e
cafe
2014
5555
fa9c
0462
cafe
240d
5555
fa9c
0463
cafe
281d
5555
fa9c
0479
cafe
2c05
5555
fa9c
04fc
cafe
3015
5555
faa0
050b
cafe
340e
5555
faa0
041e
cafe
381e
5555
faa0
04c9
cafe
3c06
5555
faa0
04d8
cafe
2016
5555
faa4
04f1
cafe
240f
5555
faa4
0438
cafe
281f
5555
faa4
0403
cafe
2c07
5555
faa4
0478
cafe
3017
5555
faa8
0523
cafe
3408
5555
faa8
0467
cafe
3818
5555
faa8
0423
cafe
3c00
5555
faa8
0437
cafe
2010
5555
faac
0569
cafe
2409
5555
faac
04cd
cafe
2819
5555
faac
046e
cafe
2c01
5555
faac
03f1
cafe
3011
5555
fab0
0471
cafe
340a
5555
fab0
0416
cafe
381a
5555
fab0
0497
cafe
3c02
5555
fab0
04c4
cafe
2012
5555
fab4
04fb
cafe
240b
5555
fab4
04b1
cafe
281b
5555
fab4
04ad
cafe
2c03
5555
fab4
0441
cafe
3013
5555
fab8
0523
cafe
340c
5555
fab8
045a
cafe
381c
5555
fab8
04bb
cafe
3c04
5555
fab8
0453
cafe
2014
5555
fabc
0434
cafe
240d
5555
fabc
042e
cafe
281d
5555
fabc
0451
cafe
2c05
5555
fabc
04d2
cafe
3015
5555
fac0
04d7
cafe
340e
5555
fac0
03f2
cafe
381e
5555
fac0
0497
cafe
3c06
5555
fac0
04ab
cafe
2016
5555
fac4
04c0
cafe
240f
5555
fac4
040c
cafe
281f
5555
fac4
03e3
cafe
2c07
5555
fac4
0453
cafe
3017
5555
fac8
04fe
cafe
3408
5555
fac8
0442
cafe
3818
5555
fac8
0404
cafe
3c00
5555
fac8
0414
cafe
2010
5555
facc
0541
cafe
-
2409
5555
facc
04a5
cafe
2819
5555
facc
0441
cafe
2c01
5555
facc
03bd
cafe
3011
5555
fad0
0445
cafe
340a
5555
fad0
03ec
cafe
381a
5555
fad0
0466
cafe
3c02
5555
fad0
0497
cafe
2012
5555
fad4
04d4
cafe
240b
5555
fad4
0487
cafe
281b
5555
fad4
0483
cafe
2c03
5555
fad4
041d
cafe
3013
5555
fad8
04fb
cafe
340c
5555
fad8
0436
cafe
381c
5555
fad8
0497
cafe
3c04
5555
fad8
043b
cafe
2014
5555
fadc
040d
cafe
240d
5555
fadc
040a
cafe
281d
5555
fadc
042b
cafe
2c05
5555
fadc
04af
cafe
3015
5555
fae0
04b5
cafe
340e
5555
fae0
03c2
cafe
381e
5555
fae0
0468
cafe
3c06
5555
fae0
0481
cafe
2016
5555
fae4
049b
cafe
240f
5555
fae4
03eb
cafe
281f
5555
fae4
03c4
cafe
2c07
5555
fae4
0425
cafe
3017
5555
fae8
04d5
cafe
3408
5555
fae8
0413
cafe
3818
5555
fae8
03d7
cafe
3c00
5555
fae8
03eb
cafe
2010
5555
faec
0517
cafe
2409
5555
faec
0480
cafe
2819
5555
faec
041f
cafe
2c01
5555
faec
0393
cafe
3011
5555
faf0
0416
cafe
340a
5555
faf0
03ce
cafe
381a
5555
faf0
0443
cafe
3c02
5555
faf0
0475
cafe
2012
5555
faf4
04ae
cafe
240b
5555
faf4
0460
cafe
281b
5555
faf4
045d
cafe
2c03
5555
faf4
03fb
cafe
3013
5555
faf8
04da
cafe
340c
5555
faf8
0413
cafe
381c
5555
faf8
0471
cafe
3c04
5555
faf8
0407
cafe
2014
5555
fafc
03e5
cafe
240d
5555
fafc
03e3
cafe
281d
5555
fafc
0401
cafe
2c05
5555
fafc
048b
cafe
3015
-
5555
fb00
0491
cafe
340e
5555
fb00
03a1
cafe
381e
5555
fb00
0445
cafe
3c06
5555
fb00
0456
cafe
2016
5555
fb04
0477
cafe
240f
5555
fb04
03c7
cafe
281f
5555
fb04
03a1
cafe
2c07
5555
fb04
0407
cafe
3017
5555
fb08
04b0
cafe
3408
5555
fb08
03f5
cafe
3818
5555
fb08
03b6
cafe
3c00
5555
fb08
03c5
cafe
2010
5555
fb0c
04ee
cafe
2409
5555
fb0c
045f
cafe
2819
5555
fb0c
03f5
cafe
2c01
5555
fb0c
0377
cafe
3011
5555
fb10
03f0
cafe
340a
5555
fb10
03a8
cafe
381a
5555
fb10
0419
cafe
3c02
5555
fb10
0446
cafe
2012
5555
fb14
048e
cafe
240b
5555
fb14
0438
cafe
281b
5555
fb14
0431
cafe
2c03
5555
fb14
03ca
cafe
3013
5555
fb18
04b7
cafe
340c
5555
fb18
03f3
cafe
381c
5555
fb18
044f
cafe
3c04
5555
fb18
03ed
cafe
2014
5555
fb1c
03c7
cafe
240d
5555
fb1c
03c2
cafe
281d
5555
fb1c
03ec
cafe
2c05
5555
fb1c
046d
cafe
3015
5555
fb20
0470
cafe
340e
5555
fb20
038b
cafe
381e
5555
fb20
0420
cafe
3c06
5555
fb20
0436
cafe
2016
5555
fb24
044f
cafe
240f
5555
fb24
039f
cafe
281f
5555
fb24
037d
cafe
2c07
5555
fb24
03db
cafe
3017
5555
fb28
048f
cafe
3408
5555
fb28
03cd
cafe
3818
5555
fb28
0394
cafe
3c00
5555
fb28
03a1
cafe
2010
5555
fb2c
04cf
cafe
2409
5555
fb2c
043b
cafe
2819
5555
fb2c
03c6
cafe
2c01
5555
fb2c
0354
cafe
3011
5555
fb30
03d1
cafe
340a
5555
fb30
037a
cafe
381a
5555
fb30
03fd
cafe
3c02
5555
-
fb30
042b
cafe
2012
5555
fb34
046d
cafe
240b
5555
fb34
0419
cafe
281b
5555
fb34
0412
cafe
2c03
5555
fb34
03a4
cafe
3013
5555
fb38
0494
cafe
340c
5555
fb38
03c9
cafe
381c
5555
fb38
042b
cafe
3c04
5555
fb38
03c4
cafe
2014
5555
fb3c
03a3
cafe
240d
5555
fb3c
0397
cafe
281d
5555
fb3c
03c3
cafe
2c05
5555
fb3c
044b
cafe
3015
5555
fb40
0445
cafe
340e
5555
fb40
0363
cafe
381e
5555
fb40
0402
cafe
3c06
5555
fb40
041f
cafe
2016
5555
fb44
0429
cafe
240f
5555
fb44
0380
cafe
281f
5555
fb44
0356
cafe
2c07
5555
fb44
03ba
cafe
3017
5555
fb48
046a
cafe
3408
5555
fb48
03b5
cafe
3818
5555
fb48
0372
cafe
3c00
5555
fb48
037a
cafe
2010
5555
fb4c
04ae
cafe
2409
5555
fb4c
041b
cafe
2819
5555
fb4c
03ad
cafe
2c01
5555
fb4c
033a
cafe
3011
5555
fb50
03ae
cafe
340a
5555
fb50
0358
cafe
381a
5555
fb50
03de
cafe
3c02
5555
fb50
0406
cafe
2012
5555
fb54
0445
cafe
240b
5555
fb54
03f4
cafe
281b
5555
fb54
03f5
cafe
2c03
5555
fb54
038b
cafe
3013
5555
fb58
046b
cafe
340c
5555
fb58
03a8
cafe
381c
5555
fb58
0406
cafe
3c04
5555
fb58
03a6
cafe
2014
5555
fb5c
0388
cafe
240d
5555
fb5c
037c
cafe
281d
5555
fb5c
039c
cafe
2c05
5555
fb5c
0426
cafe
3015
5555
fb60
0428
cafe
340e
5555
fb60
0341
cafe
381e
5555
fb60
03e8
cafe
3c06
5555
fb60
03fd
cafe
2016
5555
fb64
0406
cafe
240f
5555
fb64
0360
cafe
281f
5555
fb64
-
033d
cafe
2c07
5555
fb64
03a0
cafe
3017
5555
fb68
044a
cafe
3408
5555
fb68
0396
cafe
3818
5555
fb68
035b
cafe
3c00
5555
fb68
035f
cafe
2010
5555
fb6c
048e
cafe
2409
5555
fb6c
03fc
cafe
2819
5555
fb6c
0399
cafe
2c01
5555
fb6c
0311
cafe
3011
5555
fb70
0392
cafe
340a
5555
fb70
0337
cafe
381a
5555
fb70
03c0
cafe
3c02
5555
fb70
03e2
cafe
2012
5555
fb74
0425
cafe
240b
5555
fb74
03d2
cafe
281b
5555
fb74
03ce
cafe
2c03
5555
fb74
0369
cafe
3013
5555
fb78
045a
cafe
340c
5555
fb78
038a
cafe
381c
5555
fb78
03e6
cafe
3c04
5555
fb78
0388
cafe
2014
5555
fb7c
0369
cafe
240d
5555
fb7c
0362
cafe
281d
5555
fb7c
0379
cafe
2c05
5555
fb7c
03fe
cafe
3015
5555
fb80
0404
cafe
340e
5555
fb80
031d
cafe
381e
5555
fb80
03bd
cafe
3c06
5555
fb80
03d8
cafe
2016
5555
fb84
03e7
cafe
240f
5555
fb84
034f
cafe
281f
5555
fb84
031f
cafe
2c07
5555
fb84
037f
cafe
3017
5555
fb88
0428
cafe
3408
5555
fb88
0379
cafe
3818
5555
fb88
0338
cafe
3c00
5555
fb88
0345
cafe
2010
5555
fb8c
0464
cafe
2409
5555
fb8c
03d9
cafe
2819
5555
fb8c
0383
cafe
2c01
5555
fb8c
02f3
cafe
3011
5555
fb90
037f
cafe
340a
5555
fb90
031f
cafe
381a
5555
fb90
0398
cafe
3c02
5555
fb90
03c6
cafe
2012
5555
fb94
0400
cafe
240b
5555
fb94
03b9
cafe
281b
5555
fb94
03af
cafe
2c03
5555
fb94
034e
cafe
3013
5555
fb98
0442
cafe
340c
5555
fb98
0369
-
cafe
381c
5555
fb98
03c1
cafe
3c04
5555
fb98
0366
cafe
2014
5555
fb9c
0346
cafe
240d
5555
fb9c
0344
cafe
281d
5555
fb9c
0364
cafe
2c05
5555
fb9c
03e6
cafe
3015
5555
fba0
03ed
cafe
340e
5555
fba0
02fb
cafe
381e
5555
fba0
03a6
cafe
3c06
5555
fba0
03bd
cafe
2016
5555
fba4
03d6
cafe
240f
5555
fba4
0327
cafe
281f
5555
fba4
02fc
cafe
2c07
5555
fba4
0366
cafe
3017
5555
fba8
0406
cafe
3408
5555
fba8
035a
cafe
3818
5555
fba8
0317
cafe
3c00
5555
fba8
0323
cafe
2010
5555
fbac
0447
cafe
2409
5555
fbac
03b4
cafe
2819
5555
fbac
035d
cafe
2c01
5555
fbac
02d6
cafe
3011
5555
fbb0
035b
cafe
340a
5555
fbb0
030b
cafe
381a
5555
fbb0
0380
cafe
3c02
5555
fbb0
03ab
cafe
2012
5555
fbb4
03e3
cafe
240b
5555
fbb4
039e
cafe
281b
5555
fbb4
0397
cafe
2c03
5555
fbb4
0343
cafe
3013
5555
fbb8
0426
cafe
340c
5555
fbb8
0357
cafe
381c
5555
fbb8
03a5
cafe
3c04
5555
fbb8
034e
cafe
2014
5555
fbbc
032d
cafe
240d
5555
fbbc
0324
cafe
281d
5555
fbbc
0340
cafe
2c05
5555
fbbc
03c2
cafe
3015
5555
fbc0
03cc
cafe
340e
5555
fbc0
02e2
cafe
381e
5555
fbc0
0384
cafe
3c06
5555
fbc0
039e
cafe
2016
5555
fbc4
03b8
cafe
240f
5555
fbc4
0307
cafe
281f
5555
fbc4
02e1
cafe
2c07
5555
fbc4
0348
cafe
3017
5555
fbc8
03de
cafe
3408
5555
fbc8
033a
cafe
3818
5555
fbc8
02fd
cafe
3c00
5555
fbc8
0303
cafe
2010
5555
fbcc
0424
cafe
-
2409
5555
fbcc
038f
cafe
2819
5555
fbcc
0345
cafe
2c01
5555
fbcc
02bd
cafe
3011
5555
fbd0
0338
cafe
340a
5555
fbd0
02ee
cafe
381a
5555
fbd0
0364
cafe
3c02
5555
fbd0
0391
cafe
2012
5555
fbd4
03c0
cafe
240b
5555
fbd4
0386
cafe
281b
5555
fbd4
0375
cafe
2c03
5555
fbd4
0322
cafe
3013
5555
fbd8
0403
cafe
340c
5555
fbd8
033c
cafe
381c
5555
fbd8
038f
cafe
3c04
5555
fbd8
0327
cafe
2014
5555
fbdc
0315
cafe
240d
5555
fbdc
0309
cafe
281d
5555
fbdc
0322
cafe
2c05
5555
fbdc
03a8
cafe
3015
5555
fbe0
03b6
cafe
340e
5555
fbe0
02c2
cafe
381e
5555
fbe0
0360
cafe
3c06
5555
fbe0
038b
cafe
2016
5555
fbe4
039f
cafe
240f
5555
fbe4
02ec
cafe
281f
5555
fbe4
02c2
cafe
2c07
5555
fbe4
032a
cafe
3017
5555
fbe8
03c8
cafe
3408
5555
fbe8
031c
cafe
3818
5555
fbe8
02ef
cafe
3c00
5555
fbe8
02ef
cafe
2010
5555
fbec
040a
cafe
2409
5555
fbec
037b
cafe
2819
5555
fbec
031c
cafe
2c01
5555
fbec
02a1
cafe
3011
5555
fbf0
032a
cafe
340a
5555
fbf0
02cd
cafe
381a
5555
fbf0
034c
cafe
3c02
5555
fbf0
0387
cafe
2012
5555
fbf4
03a2
cafe
240b
5555
fbf4
036d
cafe
281b
5555
fbf4
0352
cafe
2c03
5555
fbf4
0302
cafe
3013
5555
fbf8
03ed
cafe
340c
5555
fbf8
0321
cafe
381c
5555
fbf8
0371
cafe
3c04
5555
fbf8
0315
cafe
2014
5555
fbfc
02fc
cafe
240d
5555
fbfc
02ec
cafe
281d
5555
fbfc
0308
cafe
2c05
5555
fbfc
0391
cafe
3015
-
5555
fc00
039d
cafe
340e
5555
fc00
02a8
cafe
381e
5555
fc00
034a
cafe
3c06
5555
fc00
0368
cafe
2016
5555
fc04
038d
cafe
240f
5555
fc04
02d9
cafe
281f
5555
fc04
02a8
cafe
2c07
5555
fc04
0313
cafe
3017
5555
fc08
03a8
cafe
3408
5555
fc08
0307
cafe
3818
5555
fc08
02cf
cafe
3c00
5555
fc08
02dc
cafe
2010
5555
fc0c
03f7
cafe
2409
5555
fc0c
0368
cafe
2819
5555
fc0c
0307
cafe
2c01
5555
fc0c
0290
cafe
3011
5555
fc10
0309
cafe
340a
5555
fc10
02be
cafe
381a
5555
fc10
0332
cafe
3c02
5555
fc10
0367
cafe
2012
5555
fc14
038f
cafe
240b
5555
fc14
034c
cafe
281b
5555
fc14
0347
cafe
2c03
5555
fc14
02f1
cafe
3013
5555
fc18
03d1
cafe
340c
5555
fc18
0304
cafe
381c
5555
fc18
035a
cafe
3c04
5555
fc18
02fd
cafe
2014
5555
fc1c
02d5
cafe
240d
5555
fc1c
02ce
cafe
281d
5555
fc1c
02ef
cafe
2c05
5555
fc1c
0370
cafe
3015
5555
fc20
037a
cafe
340e
5555
fc20
029b
cafe
381e
5555
fc20
032f
cafe
3c06
5555
fc20
0353
cafe
2016
5555
fc24
036d
cafe
240f
5555
fc24
02b7
cafe
281f
5555
fc24
0290
cafe
2c07
5555
fc24
02fc
cafe
3017
5555
fc28
0392
cafe
3408
5555
fc28
02ed
cafe
3818
5555
fc28
02b3
cafe
3c00
5555
fc28
02c7
cafe
2010
5555
fc2c
03d6
cafe
2409
5555
fc2c
0351
cafe
2819
5555
fc2c
02ea
cafe
2c01
5555
fc2c
0273
cafe
3011
5555
fc30
02f5
cafe
340a
5555
fc30
02a6
cafe
381a
5555
fc30
031d
cafe
3c02
5555
-
fc30
0350
cafe
2012
5555
fc34
0383
cafe
240b
5555
fc34
0335
cafe
281b
5555
fc34
0330
cafe
2c03
5555
fc34
02d3
cafe
3013
5555
fc38
03ba
cafe
340c
5555
fc38
02f0
cafe
381c
5555
fc38
033d
cafe
3c04
5555
fc38
02ec
cafe
2014
5555
fc3c
02c3
cafe
240d
5555
fc3c
02be
cafe
281d
5555
fc3c
02db
cafe
2c05
5555
fc3c
0356
cafe
3015
5555
fc40
0366
cafe
340e
5555
fc40
0286
cafe
381e
5555
fc40
0317
cafe
3c06
5555
fc40
033e
cafe
2016
5555
fc44
0350
cafe
240f
5555
fc44
02a3
cafe
281f
5555
fc44
0275
cafe
2c07
5555
fc44
02e4
cafe
3017
5555
fc48
0381
cafe
3408
5555
fc48
02cf
cafe
3818
5555
fc48
0291
cafe
3c00
5555
fc48
02a4
cafe
2010
5555
fc4c
03b9
cafe
2409
5555
fc4c
0334
cafe
2819
5555
fc4c
02db
cafe
2c01
5555
fc4c
0266
cafe
3011
5555
fc50
02db
cafe
340a
5555
fc50
0295
cafe
381a
5555
fc50
0300
cafe
3c02
5555
fc50
0335
cafe
2012
5555
fc54
036a
cafe
240b
5555
fc54
031d
cafe
281b
5555
fc54
031c
cafe
2c03
5555
fc54
02c5
cafe
3013
5555
fc58
03a7
cafe
340c
5555
fc58
02dd
cafe
381c
5555
fc58
0328
cafe
3c04
5555
fc58
02d8
cafe
2014
5555
fc5c
02af
cafe
240d
5555
fc5c
02aa
cafe
281d
5555
fc5c
02c3
cafe
2c05
5555
fc5c
0340
cafe
3015
5555
fc60
0350
cafe
340e
5555
fc60
0274
cafe
381e
5555
fc60
02f7
cafe
3c06
5555
fc60
0327
cafe
2016
5555
fc64
0334
cafe
240f
5555
fc64
028c
cafe
281f
5555
fc64
-
0267
cafe
2c07
5555
fc64
02c7
cafe
3017
5555
fc68
0366
cafe
3408
5555
fc68
02bd
cafe
3818
5555
fc68
0280
cafe
3c00
5555
fc68
0287
cafe
2010
5555
fc6c
03a1
cafe
2409
5555
fc6c
0320
cafe
2819
5555
fc6c
02c6
cafe
2c01
5555
fc6c
0252
cafe
3011
5555
fc70
02c7
cafe
340a
5555
fc70
0277
cafe
381a
5555
fc70
02ee
cafe
3c02
5555
fc70
031f
cafe
2012
5555
fc74
0353
cafe
240b
5555
fc74
02fb
cafe
281b
5555
fc74
0304
cafe
2c03
5555
fc74
02b7
cafe
3013
5555
fc78
0393
cafe
340c
5555
fc78
02c8
cafe
381c
5555
fc78
0319
cafe
3c04
5555
fc78
02bc
cafe
2014
5555
fc7c
0299
cafe
240d
5555
fc7c
0299
cafe
281d
5555
fc7c
02b0
cafe
2c05
5555
fc7c
0329
cafe
3015
5555
fc80
0339
cafe
340e
5555
fc80
025c
cafe
381e
5555
fc80
02e5
cafe
3c06
5555
fc80
0317
cafe
2016
5555
fc84
0331
cafe
240f
5555
fc84
027f
cafe
281f
5555
fc84
0248
cafe
2c07
5555
fc84
02b3
cafe
3017
5555
fc88
034a
cafe
3408
5555
fc88
02af
cafe
3818
5555
fc88
0268
cafe
3c00
5555
fc88
0269
cafe
2010
5555
fc8c
0398
cafe
2409
5555
fc8c
02fe
cafe
2819
5555
fc8c
02ac
cafe
2c01
5555
fc8c
023e
cafe
3011
5555
fc90
02a4
cafe
340a
5555
fc90
0261
cafe
381a
5555
fc90
02df
cafe
3c02
5555
fc90
030f
cafe
2012
5555
fc94
0337
cafe
240b
5555
fc94
02ec
cafe
281b
5555
fc94
02eb
cafe
2c03
5555
fc94
029e
cafe
3013
5555
fc98
0376
cafe
340c
5555
fc98
02b3
-
cafe
381c
5555
fc98
0305
cafe
3c04
5555
fc98
02a3
cafe
2014
5555
fc9c
0285
cafe
240d
5555
fc9c
027b
cafe
281d
5555
fc9c
029d
cafe
2c05
5555
fc9c
0311
cafe
3015
5555
fca0
0320
cafe
340e
5555
fca0
0240
cafe
381e
5555
fca0
02d1
cafe
3c06
5555
fca0
0306
cafe
2016
5555
fca4
030a
cafe
240f
5555
fca4
0263
cafe
281f
5555
fca4
023a
cafe
2c07
5555
fca4
02a1
cafe
3017
5555
fca8
033f
cafe
3408
5555
fca8
029d
cafe
3818
5555
fca8
0259
cafe
3c00
5555
fca8
025f
cafe
2010
5555
fcac
0382
cafe
2409
5555
fcac
02ee
cafe
2819
5555
fcac
028c
cafe
2c01
5555
fcac
0227
cafe
3011
5555
fcb0
029d
cafe
340a
5555
fcb0
0250
cafe
381a
5555
fcb0
02cf
cafe
3c02
5555
fcb0
0301
cafe
2012
5555
fcb4
032c
cafe
240b
5555
fcb4
02db
cafe
281b
5555
fcb4
02d6
cafe
2c03
5555
fcb4
0284
cafe
3013
5555
fcb8
0362
cafe
340c
5555
fcb8
02a4
cafe
381c
5555
fcb8
02ef
cafe
3c04
5555
fcb8
0290
cafe
2014
5555
fcbc
0278
cafe
240d
5555
fcbc
0268
cafe
281d
5555
fcbc
0283
cafe
2c05
5555
fcbc
0303
cafe
3015
5555
fcc0
030f
cafe
340e
5555
fcc0
0226
cafe
381e
5555
fcc0
02c2
cafe
3c06
5555
fcc0
02eb
cafe
2016
5555
fcc4
02f1
cafe
240f
5555
fcc4
024e
cafe
281f
5555
fcc4
0223
cafe
2c07
5555
fcc4
0294
cafe
3017
5555
fcc8
032d
cafe
3408
5555
fcc8
0284
cafe
3818
5555
fcc8
0247
cafe
3c00
5555
fcc8
024e
cafe
2010
5555
fccc
0367
cafe
-
2409
5555
fccc
02d9
cafe
2819
5555
fccc
027c
cafe
2c01
5555
fccc
021c
cafe
3011
5555
fcd0
0290
cafe
340a
5555
fcd0
023a
cafe
381a
5555
fcd0
02c0
cafe
3c02
5555
fcd0
02eb
cafe
2012
5555
fcd4
0314
cafe
240b
5555
fcd4
02c6
cafe
281b
5555
fcd4
02bc
cafe
2c03
5555
fcd4
0273
cafe
3013
5555
fcd8
034a
cafe
340c
5555
fcd8
0294
cafe
381c
5555
fcd8
02dd
cafe
3c04
5555
fcd8
0284
cafe
2014
5555
fcdc
0264
cafe
240d
5555
fcdc
024d
cafe
281d
5555
fcdc
0278
cafe
2c05
5555
fcdc
02f1
cafe
3015
5555
fce0
02fb
cafe
340e
5555
fce0
020f
cafe
381e
5555
fce0
02aa
cafe
3c06
5555
fce0
02e0
cafe
2016
5555
fce4
02da
cafe
240f
5555
fce4
0241
cafe
281f
5555
fce4
021b
cafe
2c07
5555
fce4
027e
cafe
3017
5555
fce8
0312
cafe
3408
5555
fce8
026e
cafe
3818
5555
fce8
0234
cafe
3c00
5555
fce8
0235
cafe
2010
5555
fcec
0352
cafe
2409
5555
fcec
02c5
cafe
2819
5555
fcec
026b
cafe
2c01
5555
fcec
020e
cafe
3011
5555
fcf0
027c
cafe
340a
5555
fcf0
0226
cafe
381a
5555
fcf0
02a7
cafe
3c02
5555
fcf0
02e2
cafe
2012
5555
fcf4
0303
cafe
240b
5555
fcf4
02b9
cafe
281b
5555
fcf4
02ab
cafe
2c03
5555
fcf4
0254
cafe
3013
5555
fcf8
033f
cafe
340c
5555
fcf8
0285
cafe
381c
5555
fcf8
02cc
cafe
3c04
5555
fcf8
0276
cafe
2014
5555
fcfc
0256
cafe
240d
5555
fcfc
0244
cafe
281d
5555
fcfc
0268
cafe
2c05
5555
fcfc
02e1
cafe
3015
-
5555
fd00
02e8
cafe
340e
5555
fd00
0209
cafe
381e
5555
fd00
029d
cafe
3c06
5555
fd00
02c7
cafe
2016
5555
fd04
02c8
cafe
240f
5555
fd04
0232
cafe
281f
5555
fd04
01ff
cafe
2c07
5555
fd04
0265
cafe
3017
5555
fd08
02fd
cafe
3408
5555
fd08
0263
cafe
3818
5555
fd08
0226
cafe
3c00
5555
fd08
022a
cafe
2010
5555
fd0c
0337
cafe
2409
5555
fd0c
02b4
cafe
2819
5555
fd0c
0252
cafe
2c01
5555
fd0c
01fc
cafe
3011
5555
fd10
026e
cafe
340a
5555
fd10
0211
cafe
381a
5555
fd10
029b
cafe
3c02
5555
fd10
02cd
cafe
2012
5555
fd14
02f3
cafe
240b
5555
fd14
02a6
cafe
281b
5555
fd14
029b
cafe
2c03
5555
fd14
024e
cafe
3013
5555
fd18
032f
cafe
340c
5555
fd18
026e
cafe
381c
5555
fd18
02b9
cafe
3c04
5555
fd18
0265
cafe
2014
5555
fd1c
023c
cafe
240d
5555
fd1c
0233
cafe
281d
5555
fd1c
0259
cafe
2c05
5555
fd1c
02cc
cafe
3015
5555
fd20
02d1
cafe
340e
5555
fd20
01f7
cafe
381e
5555
fd20
0284
cafe
3c06
5555
fd20
02bc
cafe
2016
5555
fd24
02b5
cafe
240f
5555
fd24
0227
cafe
281f
5555
fd24
0200
cafe
2c07
5555
fd24
025a
cafe
3017
5555
fd28
02fc
cafe
3408
5555
fd28
0256
cafe
3818
5555
fd28
0217
cafe
3c00
5555
fd28
0214
cafe
2010
5555
fd2c
032c
cafe
2409
5555
fd2c
029e
cafe
2819
5555
fd2c
024c
cafe
2c01
5555
fd2c
01e9
cafe
3011
5555
fd30
025f
cafe
340a
5555
fd30
020f
cafe
381a
5555
fd30
028c
cafe
3c02
5555
-
fd30
02b3
cafe
2012
5555
fd34
02ea
cafe
240b
5555
fd34
029a
cafe
281b
5555
fd34
028f
cafe
2c03
5555
fd34
0241
cafe
3013
5555
fd38
031b
cafe
340c
5555
fd38
025b
cafe
381c
5555
fd38
02b2
cafe
3c04
5555
fd38
025f
cafe
2014
5555
fd3c
0236
cafe
240d
5555
fd3c
0222
cafe
281d
5555
fd3c
023d
cafe
2c05
5555
fd3c
02c0
cafe
3015
5555
fd40
02ca
cafe
340e
5555
fd40
01e2
cafe
381e
5555
fd40
0272
cafe
3c06
5555
fd40
02a3
cafe
2016
5555
fd44
02aa
cafe
240f
5555
fd44
0220
cafe
281f
5555
fd44
01ed
cafe
2c07
5555
fd44
024e
cafe
3017
5555
fd48
02de
cafe
3408
5555
fd48
0241
cafe
3818
5555
fd48
0203
cafe
3c00
5555
fd48
0207
cafe
2010
5555
fd4c
031b
cafe
2409
5555
fd4c
0292
cafe
2819
5555
fd4c
023d
cafe
2c01
5555
fd4c
01e0
cafe
3011
5555
fd50
024c
cafe
340a
5555
fd50
01fe
cafe
381a
5555
fd50
0275
cafe
3c02
5555
fd50
02a8
cafe
2012
5555
fd54
02d5
cafe
240b
5555
fd54
0286
cafe
281b
5555
fd54
027f
cafe
2c03
5555
fd54
022c
cafe
3013
5555
fd58
0307
cafe
340c
5555
fd58
0255
cafe
381c
5555
fd58
02a4
cafe
3c04
5555
fd58
0245
cafe
2014
5555
fd5c
0225
cafe
240d
5555
fd5c
020e
cafe
281d
5555
fd5c
0234
cafe
2c05
5555
fd5c
02b4
cafe
3015
5555
fd60
02b1
cafe
340e
5555
fd60
01d6
cafe
381e
5555
fd60
0261
cafe
3c06
5555
fd60
0299
cafe
2016
5555
fd64
0299
cafe
240f
5555
fd64
020d
cafe
281f
5555
fd64
-
01d9
cafe
2c07
5555
fd64
0241
cafe
3017
5555
fd68
02ce
cafe
3408
5555
fd68
0230
cafe
3818
5555
fd68
01f4
cafe
3c00
5555
fd68
0200
cafe
2010
5555
fd6c
030d
cafe
2409
5555
fd6c
0286
cafe
2819
5555
fd6c
022f
cafe
2c01
5555
fd6c
01ce
cafe
3011
5555
fd70
0240
cafe
340a
5555
fd70
01fc
cafe
381a
5555
fd70
0262
cafe
3c02
5555
fd70
0293
cafe
2012
5555
fd74
02c8
cafe
240b
5555
fd74
026f
cafe
281b
5555
fd74
0270
cafe
2c03
5555
fd74
0222
cafe
3013
5555
fd78
02f3
cafe
340c
5555
fd78
0244
cafe
381c
5555
fd78
029d
cafe
3c04
5555
fd78
023d
cafe
2014
5555
fd7c
0222
cafe
240d
5555
fd7c
020d
cafe
281d
5555
fd7c
0225
cafe
2c05
5555
fd7c
02a1
cafe
3015
5555
fd80
02a4
cafe
340e
5555
fd80
01c9
cafe
381e
5555
fd80
0255
cafe
3c06
5555
fd80
0294
cafe
2016
5555
fd84
0288
cafe
240f
5555
fd84
01f5
cafe
281f
5555
fd84
01ce
cafe
2c07
5555
fd84
0221
cafe
3017
5555
fd88
02c0
cafe
3408
5555
fd88
021b
cafe
3818
5555
fd88
01e4
cafe
3c00
5555
fd88
01f9
cafe
2010
5555
fd8c
030b
cafe
2409
5555
fd8c
0279
cafe
2819
5555
fd8c
0223
cafe
2c01
5555
fd8c
01be
cafe
3011
5555
fd90
0225
cafe
340a
5555
fd90
01e3
cafe
381a
5555
fd90
025d
cafe
3c02
5555
fd90
0282
cafe
2012
5555
fd94
02b3
cafe
240b
5555
fd94
026b
cafe
281b
5555
fd94
0264
cafe
2c03
5555
fd94
0214
cafe
3013
5555
fd98
02da
cafe
340c
5555
fd98
023b
-
cafe
381c
5555
fd98
028a
cafe
3c04
5555
fd98
0232
cafe
2014
5555
fd9c
020b
cafe
240d
5555
fd9c
01fe
cafe
281d
5555
fd9c
020e
cafe
2c05
5555
fd9c
0293
cafe
3015
5555
fda0
0297
cafe
340e
5555
fda0
01bf
cafe
381e
5555
fda0
0248
cafe
3c06
5555
fda0
0286
cafe
2016
5555
fda4
0273
cafe
240f
5555
fda4
01f5
cafe
281f
5555
fda4
01c2
cafe
2c07
5555
fda4
021d
cafe
3017
5555
fda8
02bb
cafe
3408
5555
fda8
0211
cafe
3818
5555
fda8
01d6
cafe
3c00
5555
fda8
01e4
cafe
2010
5555
fdac
02fe
cafe
2409
5555
fdac
0270
cafe
2819
5555
fdac
0217
cafe
2c01
5555
fdac
01b9
cafe
3011
5555
fdb0
0215
cafe
340a
5555
fdb0
01d1
cafe
381a
5555
fdb0
0250
cafe
3c02
5555
fdb0
0279
cafe
2012
5555
fdb4
02a6
cafe
240b
5555
fdb4
025a
cafe
281b
5555
fdb4
0257
cafe
2c03
5555
fdb4
0200
cafe
3013
5555
fdb8
02ca
cafe
340c
5555
fdb8
0224
cafe
381c
5555
fdb8
0275
cafe
3c04
5555
fdb8
021f
cafe
2014
5555
fdbc
01fc
cafe
240d
5555
fdbc
01f2
cafe
281d
5555
fdbc
0202
cafe
2c05
5555
fdbc
028a
cafe
3015
5555
fdc0
028b
cafe
340e
5555
fdc0
01b4
cafe
381e
5555
fdc0
0234
cafe
3c06
5555
fdc0
0274
cafe
2016
5555
fdc4
0266
cafe
240f
5555
fdc4
01e5
cafe
281f
5555
fdc4
01b2
cafe
2c07
5555
fdc4
0212
cafe
3017
5555
fdc8
02ae
cafe
3408
5555
fdc8
01ff
cafe
3818
5555
fdc8
01d3
cafe
3c00
5555
fdc8
01cb
cafe
2010
5555
fdcc
02f6
cafe
-
