3c0f
5556
0044
0258
cafe
201f
5556
0044
018a
cafe
2407
5556
0044
019a
cafe
2817
5556
0048
019c
cafe
2c08
5556
0048
013a
cafe
3018
5556
0048
0177
cafe
3400
5556
0048
01da
cafe
3810
5556
004c
01cb
cafe
3c09
5556
004c
01f8
cafe
2019
5556
004c
021e
cafe
2401
5556
004c
01ed
cafe
2811
5556
0050
01e0
cafe
2c0a
5556
0050
01ab
cafe
301a
5556
0050
01da
cafe
3402
5556
0050
0258
cafe
3812
5556
0054
0202
cafe
3c0b
5556
0054
01a8
cafe
201b
5556
0054
0253
cafe
2403
5556
0054
00ec
cafe
2813
5556
0058
01e4
cafe
2c0c
5556
0058
0145
cafe
301c
5556
0058
01b9
cafe
3404
5556
0058
01a2
cafe
3814
5556
005c
0142
cafe
3c0d
5556
005c
020c
cafe
201d
5556
005c
013b
cafe
2405
5556
005c
01ee
cafe
2815
5556
0060
017a
cafe
2c0e
5556
0060
01fb
cafe
301e
5556
0060
01a2
cafe
3406
5556
0060
01bd
cafe
3816
5556
0064
01f3
cafe
3c0f
5556
0064
0254
cafe
201f
5556
0064
019b
cafe
2407
5556
0064
019f
cafe
2817
5556
0068
0194
cafe
2c08
5556
0068
0148
cafe
3018
5556
0068
017d
cafe
3400
5556
0068
01db
cafe
3810
5556
006c
01c3
cafe
3c09
5556
006c
01ef
cafe
2019
5556
006c
021c
cafe
2401
5556
006c
01f9
cafe
2811
5556
0070
01e2
cafe
2c0a
5556
0070
01ba
cafe
301a
5556
0070
01d8
cafe
3402
5556
0070
024f
cafe
3812
5556
0074
0207
cafe
3c0b
5556
0074
019d
cafe
201b
5556
0074
024f
cafe
2403
5556
0074
010a
cafe
2813
-
5556
0078
0207
cafe
2c0c
5556
0078
013f
cafe
301c
5556
0078
01b6
cafe
3404
5556
0078
01a6
cafe
3814
5556
007c
014f
cafe
3c0d
5556
007c
0214
cafe
201d
5556
007c
013e
cafe
2405
5556
007c
01e0
cafe
2815
5556
0080
0177
cafe
2c0e
5556
0080
0200
cafe
301e
5556
0080
01ac
cafe
3406
5556
0080
01bc
cafe
3816
5556
0084
01d9
cafe
3c0f
5556
0084
0255
cafe
201f
5556
0084
0196
cafe
2407
5556
0084
0193
cafe
2817
5556
0088
01b1
cafe
2c08
5556
0088
013d
cafe
3018
5556
0088
0180
cafe
3400
5556
0088
01e2
cafe
3810
5556
008c
01c4
cafe
3c09
5556
008c
01f7
cafe
2019
5556
008c
0219
cafe
2401
5556
008c
01e6
cafe
2811
5556
0090
01e8
cafe
2c0a
5556
0090
01aa
cafe
301a
5556
0090
01e0
cafe
3402
5556
0090
026c
cafe
3812
5556
0094
01fc
cafe
3c0b
5556
0094
019d
cafe
201b
5556
0094
0237
cafe
2403
5556
0094
0106
cafe
2813
5556
0098
01f9
cafe
2c0c
5556
0098
0145
cafe
301c
5556
0098
01bd
cafe
3404
5556
0098
0198
cafe
3814
5556
009c
0127
cafe
3c0d
5556
009c
0205
cafe
201d
5556
009c
0135
cafe
2405
5556
009c
01ec
cafe
2815
5556
00a0
0186
cafe
2c0e
5556
00a0
0201
cafe
301e
5556
00a0
01b9
cafe
3406
5556
00a0
01a5
cafe
3816
5556
00a4
01f2
cafe
3c0f
5556
00a4
0258
cafe
201f
5556
00a4
0183
cafe
2407
5556
00a4
01ac
cafe
2817
5556
00a8
01a7
cafe
2c08
5556
00a8
0146
cafe
3018
5556
00a8
016f
cafe
3400
5556
-
00a8
01ee
cafe
3810
5556
00ac
01d1
cafe
3c09
5556
00ac
01f9
cafe
2019
5556
00ac
021a
cafe
2401
5556
00ac
01dc
cafe
2811
5556
00b0
01e9
cafe
2c0a
5556
00b0
01b0
cafe
301a
5556
00b0
01e1
cafe
3402
5556
00b0
025e
cafe
3812
5556
00b4
01fb
cafe
3c0b
5556
00b4
01a0
cafe
201b
5556
00b4
023a
cafe
2403
5556
00b4
00ed
cafe
2813
5556
00b8
01f8
cafe
2c0c
5556
00b8
014a
cafe
301c
5556
00b8
01b7
cafe
3404
5556
00b8
01a5
cafe
3814
5556
00bc
014e
cafe
3c0d
5556
00bc
01fb
cafe
201d
5556
00bc
012f
cafe
2405
5556
00bc
01da
cafe
2815
5556
00c0
0184
cafe
2c0e
5556
00c0
01f2
cafe
301e
5556
00c0
01b4
cafe
3406
5556
00c0
01a6
cafe
3816
5556
00c4
01d8
cafe
3c0f
5556
00c4
0265
cafe
201f
5556
00c4
01a3
cafe
2407
5556
00c4
01a2
cafe
2817
5556
00c8
019a
cafe
2c08
5556
00c8
013d
cafe
3018
5556
00c8
017b
cafe
3400
5556
00c8
01f6
cafe
3810
5556
00cc
01dd
cafe
3c09
5556
00cc
0200
cafe
2019
5556
00cc
021e
cafe
2401
5556
00cc
01ed
cafe
2811
5556
00d0
01f7
cafe
2c0a
5556
00d0
01b0
cafe
301a
5556
00d0
01d6
cafe
3402
5556
00d0
025f
cafe
3812
5556
00d4
01f8
cafe
3c0b
5556
00d4
0198
cafe
201b
5556
00d4
0253
cafe
2403
5556
00d4
00fd
cafe
2813
5556
00d8
0204
cafe
2c0c
5556
00d8
0153
cafe
301c
5556
00d8
01b8
cafe
3404
5556
00d8
019d
cafe
3814
5556
00dc
0142
cafe
3c0d
5556
00dc
0205
cafe
201d
5556
00dc
-
013b
cafe
2405
5556
00dc
01eb
cafe
2815
5556
00e0
0179
cafe
2c0e
5556
00e0
01ed
cafe
301e
5556
00e0
01be
cafe
3406
5556
00e0
01b7
cafe
3816
5556
00e4
01d1
cafe
3c0f
5556
00e4
0251
cafe
201f
5556
00e4
01ac
cafe
2407
5556
00e4
01a1
cafe
2817
5556
00e8
019d
cafe
2c08
5556
00e8
0136
cafe
3018
5556
00e8
017d
cafe
3400
5556
00e8
01eb
cafe
3810
5556
00ec
01d5
cafe
3c09
5556
00ec
01f7
cafe
2019
5556
00ec
0218
cafe
2401
5556
00ec
01e2
cafe
2811
5556
00f0
01e6
cafe
2c0a
5556
00f0
01c4
cafe
301a
5556
00f0
01da
cafe
3402
5556
00f0
025e
cafe
3812
5556
00f4
01f9
cafe
3c0b
5556
00f4
0198
cafe
201b
5556
00f4
0255
cafe
2403
5556
00f4
010a
cafe
2813
5556
00f8
01f7
cafe
2c0c
5556
00f8
0157
cafe
301c
5556
00f8
01b9
cafe
3404
5556
00f8
01a0
cafe
3814
5556
00fc
015c
cafe
3c0d
5556
00fc
01fd
cafe
201d
5556
00fc
012f
cafe
2405
5556
00fc
01dc
cafe
2815
5556
0100
0183
cafe
2c0e
5556
0100
01f4
cafe
301e
5556
0100
01b8
cafe
3406
5556
0100
01b2
cafe
3816
5556
0104
01d1
cafe
3c0f
5556
0104
024c
cafe
201f
5556
0104
019b
cafe
2407
5556
0104
019c
cafe
2817
5556
0108
019a
cafe
2c08
5556
0108
013b
cafe
3018
5556
0108
016f
cafe
3400
5556
0108
01dc
cafe
3810
5556
010c
01d9
cafe
3c09
5556
010c
0208
cafe
2019
5556
010c
0216
cafe
2401
5556
010c
01df
cafe
2811
5556
0110
01e1
cafe
2c0a
5556
0110
01af
-
cafe
301a
5556
0110
01e7
cafe
3402
5556
0110
025c
cafe
3812
5556
0114
01f8
cafe
3c0b
5556
0114
019c
cafe
201b
5556
0114
024a
cafe
2403
5556
0114
010e
cafe
2813
5556
0118
0206
cafe
2c0c
5556
0118
0158
cafe
301c
5556
0118
01cc
cafe
3404
5556
0118
0199
cafe
3814
5556
011c
0151
cafe
3c0d
5556
011c
01f9
cafe
201d
5556
011c
013b
cafe
2405
5556
011c
01e5
cafe
2815
5556
0120
016d
cafe
2c0e
5556
0120
01ed
cafe
301e
5556
0120
01be
cafe
3406
5556
0120
01b2
cafe
3816
5556
0124
01d1
cafe
3c0f
5556
0124
0243
cafe
201f
5556
0124
0194
cafe
2407
5556
0124
01a5
cafe
2817
5556
0128
01b1
cafe
2c08
5556
0128
0153
cafe
3018
5556
0128
0170
cafe
3400
5556
0128
01df
cafe
3810
5556
012c
01cc
cafe
3c09
5556
012c
01f6
cafe
2019
5556
012c
021e
cafe
2401
5556
012c
01ed
cafe
2811
5556
0130
01e7
cafe
2c0a
5556
0130
01b8
cafe
301a
5556
0130
01cf
cafe
3402
5556
0130
0266
cafe
3812
5556
0134
01eb
cafe
3c0b
5556
0134
0195
cafe
201b
5556
0134
0244
cafe
2403
5556
0134
0101
cafe
2813
5556
0138
0205
cafe
2c0c
5556
0138
016e
cafe
301c
5556
0138
01c9
cafe
3404
5556
0138
0196
cafe
3814
5556
013c
0140
cafe
3c0d
5556
013c
01f4
cafe
201d
5556
013c
013d
cafe
2405
5556
013c
01e2
cafe
2815
5556
0140
0179
cafe
2c0e
5556
0140
01f0
cafe
301e
5556
0140
01c9
cafe
3406
5556
0140
01b2
cafe
3816
5556
0144
01d3
cafe
-
3c0f
5556
0144
025b
cafe
201f
5556
0144
01a4
cafe
2407
5556
0144
01aa
cafe
2817
5556
0148
01b8
cafe
2c08
5556
0148
013d
cafe
3018
5556
0148
016e
cafe
3400
5556
0148
01e1
cafe
3810
5556
014c
01da
cafe
3c09
5556
014c
01e8
cafe
2019
5556
014c
0225
cafe
2401
5556
014c
01eb
cafe
2811
5556
0150
01d8
cafe
2c0a
5556
0150
01b0
cafe
301a
5556
0150
01c2
cafe
3402
5556
0150
025a
cafe
3812
5556
0154
01e4
cafe
3c0b
5556
0154
0191
cafe
201b
5556
0154
024d
cafe
2403
5556
0154
00f4
cafe
2813
5556
0158
0203
cafe
2c0c
5556
0158
0148
cafe
301c
5556
0158
01af
cafe
3404
5556
0158
01a4
cafe
3814
5556
015c
0137
cafe
3c0d
5556
015c
01f8
cafe
201d
5556
015c
0144
cafe
2405
5556
015c
01e4
cafe
2815
5556
0160
017e
cafe
2c0e
5556
0160
01e6
cafe
301e
5556
0160
01be
cafe
3406
5556
0160
01b2
cafe
3816
5556
0164
01db
cafe
3c0f
5556
0164
0248
cafe
201f
5556
0164
01a6
cafe
2407
5556
0164
01a8
cafe
2817
5556
0168
01a4
cafe
2c08
5556
0168
0145
cafe
3018
5556
0168
0179
cafe
3400
5556
0168
01ec
cafe
3810
5556
016c
01c5
cafe
3c09
5556
016c
0200
cafe
2019
5556
016c
021c
cafe
2401
5556
016c
01e0
cafe
2811
5556
0170
01dc
cafe
2c0a
5556
0170
01a0
cafe
301a
5556
0170
01d8
cafe
3402
5556
0170
0248
cafe
3812
5556
0174
01ec
cafe
3c0b
5556
0174
01aa
cafe
201b
5556
0174
022c
cafe
2403
5556
0174
010e
cafe
2813
-
5556
0178
0200
cafe
2c0c
5556
0178
0146
cafe
301c
5556
0178
01b1
cafe
3404
5556
0178
01a9
cafe
3814
5556
017c
015c
cafe
3c0d
5556
017c
01f8
cafe
201d
5556
017c
013f
cafe
2405
5556
017c
01d4
cafe
2815
5556
0180
0170
cafe
2c0e
5556
0180
01f8
cafe
301e
5556
0180
01d4
cafe
3406
5556
0180
01ab
cafe
3816
5556
0184
01c7
cafe
3c0f
5556
0184
0259
cafe
201f
5556
0184
0187
cafe
2407
5556
0184
0193
cafe
2817
5556
0188
01a3
cafe
2c08
5556
0188
0143
cafe
3018
5556
0188
0180
cafe
3400
5556
0188
01e5
cafe
3810
5556
018c
01d3
cafe
3c09
5556
018c
020e
cafe
2019
5556
018c
0219
cafe
2401
5556
018c
01dc
cafe
2811
5556
0190
01e0
cafe
2c0a
5556
0190
01a4
cafe
301a
5556
0190
01e8
cafe
3402
5556
0190
025b
cafe
3812
5556
0194
01f6
cafe
3c0b
5556
0194
01b8
cafe
201b
5556
0194
0240
cafe
2403
5556
0194
0109
cafe
2813
5556
0198
020a
cafe
2c0c
5556
0198
0147
cafe
301c
5556
0198
01c6
cafe
3404
5556
0198
0192
cafe
3814
5556
019c
0154
cafe
3c0d
5556
019c
01f6
cafe
201d
5556
019c
013f
cafe
2405
5556
019c
01ed
cafe
2815
5556
01a0
017d
cafe
2c0e
5556
01a0
01f2
cafe
301e
5556
01a0
01bf
cafe
3406
5556
01a0
01aa
cafe
3816
5556
01a4
01db
cafe
3c0f
5556
01a4
024d
cafe
201f
5556
01a4
0192
cafe
2407
5556
01a4
0192
cafe
2817
5556
01a8
019f
cafe
2c08
5556
01a8
013c
cafe
3018
5556
01a8
0186
cafe
3400
5556
-
01a8
01e9
cafe
3810
5556
01ac
01c1
cafe
3c09
5556
01ac
01f7
cafe
2019
5556
01ac
021d
cafe
2401
5556
01ac
01e6
cafe
2811
5556
01b0
01e2
cafe
2c0a
5556
01b0
01b3
cafe
301a
5556
01b0
01ca
cafe
3402
5556
01b0
025b
cafe
3812
5556
01b4
01f4
cafe
3c0b
5556
01b4
01a3
cafe
201b
5556
01b4
0245
cafe
2403
5556
01b4
0113
cafe
2813
5556
01b8
01f6
cafe
2c0c
5556
01b8
0159
cafe
301c
5556
01b8
01c1
cafe
3404
5556
01b8
01a0
cafe
3814
5556
01bc
0150
cafe
3c0d
5556
01bc
0213
cafe
201d
5556
01bc
0146
cafe
2405
5556
01bc
01ef
cafe
2815
5556
01c0
018f
cafe
2c0e
5556
01c0
01ff
cafe
301e
5556
01c0
01b0
cafe
3406
5556
01c0
01c0
cafe
3816
5556
01c4
01e7
cafe
3c0f
5556
01c4
025d
cafe
201f
5556
01c4
018c
cafe
2407
5556
01c4
01a6
cafe
2817
5556
01c8
01a3
cafe
2c08
5556
01c8
0134
cafe
3018
5556
01c8
017a
cafe
3400
5556
01c8
01e9
cafe
3810
5556
01cc
01d5
cafe
3c09
5556
01cc
01e6
cafe
2019
5556
01cc
0212
cafe
2401
5556
01cc
01df
cafe
2811
5556
01d0
01e2
cafe
2c0a
5556
01d0
01a6
cafe
301a
5556
01d0
01bb
cafe
3402
5556
01d0
024a
cafe
3812
5556
01d4
01f8
cafe
3c0b
5556
01d4
01ad
cafe
201b
5556
01d4
0257
cafe
2403
5556
01d4
0111
cafe
2813
5556
01d8
0202
cafe
2c0c
5556
01d8
0152
cafe
301c
5556
01d8
01b6
cafe
3404
5556
01d8
019c
cafe
3814
5556
01dc
015e
cafe
3c0d
5556
01dc
01e6
cafe
201d
5556
01dc
-
014b
cafe
2405
5556
01dc
01df
cafe
2815
5556
01e0
0184
cafe
2c0e
5556
01e0
020d
cafe
301e
5556
01e0
01be
cafe
3406
5556
01e0
019b
cafe
3816
5556
01e4
01d9
cafe
3c0f
5556
01e4
025a
cafe
201f
5556
01e4
0196
cafe
2407
5556
01e4
019e
cafe
2817
5556
01e8
01ae
cafe
2c08
5556
01e8
0141
cafe
3018
5556
01e8
017e
cafe
3400
5556
01e8
01d2
cafe
3810
5556
01ec
01c1
cafe
3c09
5556
01ec
0204
cafe
2019
5556
01ec
021d
cafe
2401
5556
01ec
01e3
cafe
2811
5556
01f0
01d5
cafe
2c0a
5556
01f0
01be
cafe
301a
5556
01f0
01c5
cafe
3402
5556
01f0
024a
cafe
3812
5556
01f4
01fd
cafe
3c0b
5556
01f4
0199
cafe
201b
5556
01f4
0247
cafe
2403
5556
01f4
010d
cafe
2813
5556
01f8
0216
cafe
2c0c
5556
01f8
0159
cafe
301c
5556
01f8
01ca
cafe
3404
5556
01f8
01ab
cafe
3814
5556
01fc
0141
cafe
3c0d
5556
01fc
01f5
cafe
201d
5556
01fc
014a
cafe
2405
5556
01fc
01ed
cafe
2815
5556
0200
0187
cafe
2c0e
5556
0200
01fc
cafe
301e
5556
0200
01c0
cafe
3406
5556
0200
01ab
cafe
3816
5556
0204
01e6
cafe
3c0f
5556
0204
025b
cafe
201f
5556
0204
018e
cafe
2407
5556
0204
019b
cafe
2817
5556
0208
01ba
cafe
2c08
5556
0208
0138
cafe
3018
5556
0208
017e
cafe
3400
5556
0208
01e5
cafe
3810
5556
020c
01bb
cafe
3c09
5556
020c
0202
cafe
2019
5556
020c
0228
cafe
2401
5556
020c
01c6
cafe
2811
5556
0210
01e2
cafe
2c0a
5556
0210
01ae
-
cafe
301a
5556
0210
01c7
cafe
3402
5556
0210
0260
cafe
3812
5556
0214
01ed
cafe
3c0b
5556
0214
019a
cafe
201b
5556
0214
0253
cafe
2403
5556
0214
00fa
cafe
2813
5556
0218
020f
cafe
2c0c
5556
0218
0145
cafe
301c
5556
0218
01c7
cafe
3404
5556
0218
01a8
cafe
3814
5556
021c
013e
cafe
3c0d
5556
021c
01e9
cafe
201d
5556
021c
0142
cafe
2405
5556
021c
01ce
cafe
2815
5556
0220
0174
cafe
2c0e
5556
0220
020c
cafe
301e
5556
0220
01b5
cafe
3406
5556
0220
01bc
cafe
3816
5556
0224
01d6
cafe
3c0f
5556
0224
0266
cafe
201f
5556
0224
0183
cafe
2407
5556
0224
01ac
cafe
2817
5556
0228
01a5
cafe
2c08
5556
0228
013c
cafe
3018
5556
0228
0170
cafe
3400
5556
0228
01e5
cafe
3810
5556
022c
01d9
cafe
3c09
5556
022c
0209
cafe
2019
5556
022c
022e
cafe
2401
5556
022c
01e4
cafe
2811
5556
0230
01d5
cafe
2c0a
5556
0230
01a8
cafe
301a
5556
0230
01cc
cafe
3402
5556
0230
0253
cafe
3812
5556
0234
01f8
cafe
3c0b
5556
0234
01b0
cafe
201b
5556
0234
025e
cafe
2403
5556
0234
0104
cafe
2813
5556
0238
020c
cafe
2c0c
5556
0238
014e
cafe
301c
5556
0238
01b7
cafe
3404
5556
0238
01a5
cafe
3814
5556
023c
0140
cafe
3c0d
5556
023c
01ed
cafe
201d
5556
023c
0131
cafe
2405
5556
023c
01ea
cafe
2815
5556
0240
0185
cafe
2c0e
5556
0240
0214
cafe
301e
5556
0240
01ba
cafe
3406
5556
0240
01ac
cafe
3816
5556
0244
01eb
cafe
-
3c0f
5556
0244
024f
cafe
201f
5556
0244
017d
cafe
2407
5556
0244
0190
cafe
2817
5556
0248
019b
cafe
2c08
5556
0248
012e
cafe
3018
5556
0248
0176
cafe
3400
5556
0248
01dc
cafe
3810
5556
024c
01d6
cafe
3c09
5556
024c
01fd
cafe
2019
5556
024c
0217
cafe
2401
5556
024c
01dc
cafe
2811
5556
0250
01d6
cafe
2c0a
5556
0250
01ab
cafe
301a
5556
0250
01c9
cafe
3402
5556
0250
024b
cafe
3812
5556
0254
01f6
cafe
3c0b
5556
0254
01a3
cafe
201b
5556
0254
0247
cafe
2403
5556
0254
010f
cafe
2813
5556
0258
020b
cafe
2c0c
5556
0258
0142
cafe
301c
5556
0258
01c8
cafe
3404
5556
0258
0195
cafe
3814
5556
025c
0152
cafe
3c0d
5556
025c
020a
cafe
201d
5556
025c
0144
cafe
2405
5556
025c
01d4
cafe
2815
5556
0260
0171
cafe
2c0e
5556
0260
021a
cafe
301e
5556
0260
01bd
cafe
3406
5556
0260
01cc
cafe
3816
5556
0264
01dc
cafe
3c0f
5556
0264
0265
cafe
201f
5556
0264
0182
cafe
2407
5556
0264
01a1
cafe
2817
5556
0268
01aa
cafe
2c08
5556
0268
013c
cafe
3018
5556
0268
018c
cafe
3400
5556
0268
01e0
cafe
3810
5556
026c
01d0
cafe
3c09
5556
026c
01f6
cafe
2019
5556
026c
0217
cafe
2401
5556
026c
01ee
cafe
2811
5556
0270
01e7
cafe
2c0a
5556
0270
04a3
cafe
301a
5556
0270
04bf
cafe
3402
5556
0270
0546
cafe
3812
5556
0274
0500
cafe
3c0b
5556
0274
0878
cafe
201b
5556
0274
094c
cafe
2403
5556
0274
07e3
cafe
2813
-
5556
0278
08ee
cafe
2c0c
5556
0278
093f
cafe
301c
5556
0278
09ae
cafe
3404
5556
0278
0978
cafe
3814
5556
027c
0942
cafe
3c0d
5556
027c
0a48
cafe
201d
5556
027c
094e
cafe
2405
5556
027c
09ef
cafe
2815
5556
0280
09bf
cafe
2c0e
5556
0280
0a75
cafe
301e
5556
0280
09eb
cafe
3406
5556
0280
09e4
cafe
3816
5556
0284
0a2c
cafe
3c0f
5556
0284
0aa0
cafe
201f
5556
0284
09a2
cafe
2407
5556
0284
09b5
cafe
2817
5556
0288
09c6
cafe
2c08
5556
0288
096a
cafe
3018
5556
0288
09a5
cafe
3400
5556
0288
09ff
cafe
3810
5556
028c
0a10
cafe
3c09
5556
028c
0a1f
cafe
2019
5556
028c
0a45
cafe
2401
5556
028c
09d9
cafe
2811
5556
0290
09fa
cafe
2c0a
5556
0290
09e2
cafe
301a
5556
0290
09d0
cafe
3402
5556
0290
0a58
cafe
3812
5556
0294
0a1b
cafe
3c0b
5556
0294
09b5
cafe
201b
5556
0294
0a51
cafe
2403
5556
0294
08dc
cafe
2813
5556
0298
0a20
cafe
2c0c
5556
0298
0953
cafe
301c
5556
0298
09c7
cafe
3404
5556
0298
098f
cafe
3814
5556
029c
0960
cafe
3c0d
5556
029c
0a15
cafe
201d
5556
029c
093a
cafe
2405
5556
029c
09c7
cafe
2815
5556
02a0
098c
cafe
2c0e
5556
02a0
0a14
cafe
301e
5556
02a0
09bc
cafe
3406
5556
02a0
09b7
cafe
3816
5556
02a4
09e6
cafe
3c0f
5556
02a4
0a76
cafe
201f
5556
02a4
0986
cafe
2407
5556
02a4
0988
cafe
2817
5556
02a8
09a9
cafe
2c08
5556
02a8
0930
cafe
3018
5556
02a8
097c
cafe
3400
5556
-
02a8
09f0
cafe
3810
5556
02ac
09dd
cafe
3c09
5556
02ac
0a13
cafe
2019
5556
02ac
0a30
cafe
2401
5556
02ac
09cf
cafe
2811
5556
02b0
09fc
cafe
2c0a
5556
02b0
09bc
cafe
301a
5556
02b0
09b9
cafe
3402
5556
02b0
0a37
cafe
3812
5556
02b4
0a05
cafe
3c0b
5556
02b4
09b3
cafe
201b
5556
02b4
0a19
cafe
2403
5556
02b4
08c0
cafe
2813
5556
02b8
0a17
cafe
2c0c
5556
02b8
0953
cafe
301c
5556
02b8
09ad
cafe
3404
5556
02b8
0994
cafe
3814
5556
02bc
095a
cafe
3c0d
5556
02bc
09fb
cafe
201d
5556
02bc
0914
cafe
2405
5556
02bc
09ad
cafe
2815
5556
02c0
0976
cafe
2c0e
5556
02c0
0a08
cafe
301e
5556
02c0
09aa
cafe
3406
5556
02c0
09a8
cafe
3816
5556
02c4
09e4
cafe
3c0f
5556
02c4
0a64
cafe
201f
5556
02c4
0966
cafe
2407
5556
02c4
096d
cafe
2817
5556
02c8
0996
cafe
2c08
5556
02c8
091e
cafe
3018
5556
02c8
0960
cafe
3400
5556
02c8
09d3
cafe
3810
5556
02cc
09d8
cafe
3c09
5556
02cc
09d7
cafe
2019
5556
02cc
0a19
cafe
2401
5556
02cc
09ac
cafe
2811
5556
02d0
09d6
cafe
2c0a
5556
02d0
09a8
cafe
301a
5556
02d0
09ad
cafe
3402
5556
02d0
0a1d
cafe
3812
5556
02d4
09f0
cafe
3c0b
5556
02d4
0986
cafe
201b
5556
02d4
0a22
cafe
2403
5556
02d4
08a1
cafe
2813
5556
02d8
0a01
cafe
2c0c
5556
02d8
0939
cafe
301c
5556
02d8
098e
cafe
3404
5556
02d8
0978
cafe
3814
5556
02dc
0943
cafe
3c0d
5556
02dc
09d7
cafe
201d
5556
02dc
-
08e6
cafe
2405
5556
02dc
099b
cafe
2815
5556
02e0
095d
cafe
2c0e
5556
02e0
09da
cafe
301e
5556
02e0
0995
cafe
3406
5556
02e0
098d
cafe
3816
5556
02e4
09bb
cafe
3c0f
5556
02e4
0a3a
cafe
201f
5556
02e4
0958
cafe
2407
5556
02e4
0944
cafe
2817
5556
02e8
0984
cafe
2c08
5556
02e8
0911
cafe
3018
5556
02e8
0942
cafe
3400
5556
02e8
09ab
cafe
3810
5556
02ec
09aa
cafe
3c09
5556
02ec
09b3
cafe
2019
5556
02ec
09e7
cafe
2401
5556
02ec
0993
cafe
2811
5556
02f0
09c0
cafe
2c0a
5556
02f0
0993
cafe
301a
5556
02f0
0995
cafe
3402
5556
02f0
0a14
cafe
3812
5556
02f4
09e1
cafe
3c0b
5556
02f4
0969
cafe
201b
5556
02f4
0a01
cafe
2403
5556
02f4
0887
cafe
2813
5556
02f8
09e6
cafe
2c0c
5556
02f8
0914
cafe
301c
5556
02f8
097f
cafe
3404
5556
02f8
096b
cafe
3814
5556
02fc
0946
cafe
3c0d
5556
02fc
09d3
cafe
201d
5556
02fc
08de
cafe
2405
5556
02fc
097f
cafe
2815
5556
0300
092a
cafe
2c0e
5556
0300
09e8
cafe
301e
5556
0300
0969
cafe
3406
5556
0300
097d
cafe
3816
5556
0304
09b1
cafe
3c0f
5556
0304
0a27
cafe
201f
5556
0304
094e
cafe
2407
5556
0304
0938
cafe
2817
5556
0308
0964
cafe
2c08
5556
0308
08fb
cafe
3018
5556
0308
0944
cafe
3400
5556
0308
098f
cafe
3810
5556
030c
09a2
cafe
3c09
5556
030c
09a7
cafe
2019
5556
030c
09c4
cafe
2401
5556
030c
097f
cafe
2811
5556
0310
0990
cafe
2c0a
5556
0310
097f
-
cafe
301a
5556
0310
0982
cafe
3402
5556
0310
0a12
cafe
3812
5556
0314
09d6
cafe
3c0b
5556
0314
0953
cafe
201b
5556
0314
09e2
cafe
2403
5556
0314
0878
cafe
2813
5556
0318
09c6
cafe
2c0c
5556
0318
08fa
cafe
301c
5556
0318
0958
cafe
3404
5556
0318
0962
cafe
3814
5556
031c
0921
cafe
3c0d
5556
031c
09a8
cafe
201d
5556
031c
08c0
cafe
2405
5556
031c
095a
cafe
2815
5556
0320
0914
cafe
2c0e
5556
0320
09d9
cafe
301e
5556
0320
095e
cafe
3406
5556
0320
0942
cafe
3816
5556
0324
098b
cafe
3c0f
5556
0324
0a11
cafe
201f
5556
0324
0927
cafe
2407
5556
0324
0929
cafe
2817
5556
0328
0938
cafe
2c08
5556
0328
08c9
cafe
3018
5556
0328
0925
cafe
3400
5556
0328
0979
cafe
3810
5556
032c
0994
cafe
3c09
5556
032c
0990
cafe
2019
5556
032c
09aa
cafe
2401
5556
032c
0965
cafe
2811
5556
0330
097b
cafe
2c0a
5556
0330
096b
cafe
301a
5556
0330
0976
cafe
3402
5556
0330
09e8
cafe
3812
5556
0334
09bf
cafe
3c0b
5556
0334
0940
cafe
201b
5556
0334
09de
cafe
2403
5556
0334
084a
cafe
2813
5556
0338
09ac
cafe
2c0c
5556
0338
08e3
cafe
301c
5556
0338
0938
cafe
3404
5556
0338
092f
cafe
3814
5556
033c
091b
cafe
3c0d
5556
033c
0998
cafe
201d
5556
033c
089f
cafe
2405
5556
033c
0942
cafe
2815
5556
0340
08ff
cafe
2c0e
5556
0340
09a0
cafe
301e
5556
0340
092e
cafe
3406
5556
0340
0934
cafe
3816
5556
0344
0978
cafe
-
3c0f
5556
0344
0a0d
cafe
201f
5556
0344
090f
cafe
2407
5556
0344
090e
cafe
2817
5556
0348
092f
cafe
2c08
5556
0348
08c2
cafe
3018
5556
0348
0907
cafe
3400
5556
0348
0963
cafe
3810
5556
034c
0999
cafe
3c09
5556
034c
0971
cafe
2019
5556
034c
099b
cafe
2401
5556
034c
095a
cafe
2811
5556
0350
096b
cafe
2c0a
5556
0350
0949
cafe
301a
5556
0350
0959
cafe
3402
5556
0350
09c3
cafe
3812
5556
0354
09a5
cafe
3c0b
5556
0354
0923
cafe
201b
5556
0354
09b9
cafe
2403
5556
0354
0838
cafe
2813
5556
0358
0996
cafe
2c0c
5556
0358
08b9
cafe
301c
5556
0358
0926
cafe
3404
5556
0358
091c
cafe
3814
5556
035c
08f8
cafe
3c0d
5556
035c
096e
cafe
201d
5556
035c
088d
cafe
2405
5556
035c
0929
cafe
2815
5556
0360
08df
cafe
2c0e
5556
0360
0999
cafe
301e
5556
0360
091f
cafe
3406
5556
0360
0925
cafe
3816
5556
0364
096f
cafe
3c0f
5556
0364
09f1
cafe
201f
5556
0364
08f7
cafe
2407
5556
0364
08ee
cafe
2817
5556
0368
0918
cafe
2c08
5556
0368
08a4
cafe
3018
5556
0368
08f4
cafe
3400
5556
0368
0935
cafe
3810
5556
036c
0968
cafe
3c09
5556
036c
095d
cafe
2019
5556
036c
0986
cafe
2401
5556
036c
093f
cafe
2811
5556
0370
096a
cafe
2c0a
5556
0370
0938
cafe
301a
5556
0370
0932
cafe
3402
5556
0370
09b1
cafe
3812
5556
0374
0982
cafe
3c0b
5556
0374
0919
cafe
201b
5556
0374
099f
cafe
2403
5556
0374
0810
cafe
2813
-
5556
0378
098a
cafe
2c0c
5556
0378
08a0
cafe
301c
5556
0378
0904
cafe
3404
5556
0378
0906
cafe
3814
5556
037c
08ca
cafe
3c0d
5556
037c
0961
cafe
201d
5556
037c
087d
cafe
2405
5556
037c
090b
cafe
2815
5556
0380
08d6
cafe
2c0e
5556
0380
0981
cafe
301e
5556
0380
08fb
cafe
3406
5556
0380
0905
cafe
3816
5556
0384
0950
cafe
3c0f
5556
0384
09c8
cafe
201f
5556
0384
08ed
cafe
2407
5556
0384
08da
cafe
2817
5556
0388
08f0
cafe
2c08
5556
0388
0867
cafe
3018
5556
0388
08cf
cafe
3400
5556
0388
092d
cafe
3810
5556
038c
094c
cafe
3c09
5556
038c
094a
cafe
2019
5556
038c
0972
cafe
2401
5556
038c
0923
cafe
2811
5556
0390
093f
cafe
2c0a
5556
0390
0922
cafe
301a
5556
0390
08fe
cafe
3402
5556
0390
0996
cafe
3812
5556
0394
0973
cafe
3c0b
5556
0394
08f9
cafe
201b
5556
0394
099c
cafe
2403
5556
0394
0809
cafe
2813
5556
0398
0961
cafe
2c0c
5556
0398
0895
cafe
301c
5556
0398
08f1
cafe
3404
5556
0398
08eb
cafe
3814
5556
039c
08be
cafe
3c0d
5556
039c
094e
cafe
201d
5556
039c
0868
cafe
2405
5556
039c
0905
cafe
2815
5556
03a0
08b9
cafe
2c0e
5556
03a0
095a
cafe
301e
5556
03a0
08ca
cafe
3406
5556
03a0
08e8
cafe
3816
5556
03a4
0942
cafe
3c0f
5556
03a4
09c8
cafe
201f
5556
03a4
08ca
cafe
2407
5556
03a4
08a9
cafe
2817
5556
03a8
08d2
cafe
2c08
5556
03a8
0869
cafe
3018
5556
03a8
08c2
cafe
3400
5556
-
03a8
0911
cafe
3810
5556
03ac
0939
cafe
3c09
5556
03ac
0939
cafe
2019
5556
03ac
0960
cafe
2401
5556
03ac
0917
cafe
2811
5556
03b0
0917
cafe
2c0a
5556
03b0
0916
cafe
301a
5556
03b0
08f2
cafe
3402
5556
03b0
0974
cafe
3812
5556
03b4
095a
cafe
3c0b
5556
03b4
08d2
cafe
201b
5556
03b4
0976
cafe
2403
5556
03b4
07dd
cafe
2813
5556
03b8
0965
cafe
2c0c
5556
03b8
086c
cafe
301c
5556
03b8
08d4
cafe
3404
5556
03b8
08db
cafe
3814
5556
03bc
08b0
cafe
3c0d
5556
03bc
093f
cafe
201d
5556
03bc
084d
cafe
2405
5556
03bc
08e2
cafe
2815
5556
03c0
088a
cafe
2c0e
5556
03c0
0948
cafe
301e
5556
03c0
08b4
cafe
3406
5556
03c0
08cc
cafe
3816
5556
03c4
0922
cafe
3c0f
5556
03c4
09b5
cafe
201f
5556
03c4
08af
cafe
2407
5556
03c4
08aa
cafe
2817
5556
03c8
08c8
cafe
2c08
5556
03c8
083a
cafe
3018
5556
03c8
08a4
cafe
3400
5556
03c8
08e4
cafe
3810
5556
03cc
0919
cafe
3c09
5556
03cc
090f
cafe
2019
5556
03cc
0939
cafe
2401
5556
03cc
08e3
cafe
2811
5556
03d0
0910
cafe
2c0a
5556
03d0
08f3
cafe
301a
5556
03d0
08e1
cafe
3402
5556
03d0
0971
cafe
3812
5556
03d4
0948
cafe
3c0b
5556
03d4
08c9
cafe
201b
5556
03d4
0960
cafe
2403
5556
03d4
07cd
cafe
2813
5556
03d8
0938
cafe
2c0c
5556
03d8
084e
cafe
301c
5556
03d8
08ad
cafe
3404
5556
03d8
08b5
cafe
3814
5556
03dc
0893
cafe
3c0d
5556
03dc
091b
cafe
201d
5556
03dc
-
0836
cafe
2405
5556
03dc
08c0
cafe
2815
5556
03e0
0881
cafe
2c0e
5556
03e0
093d
cafe
301e
5556
03e0
08b2
cafe
3406
5556
03e0
08b7
cafe
3816
5556
03e4
090e
cafe
3c0f
5556
03e4
0985
cafe
201f
5556
03e4
087d
cafe
2407
5556
03e4
0889
cafe
2817
5556
03e8
08a4
cafe
2c08
5556
03e8
0823
cafe
3018
5556
03e8
088b
cafe
3400
5556
03e8
08d8
cafe
3810
5556
03ec
0907
cafe
3c09
5556
03ec
08f7
cafe
2019
5556
03ec
092a
cafe
2401
5556
03ec
08d4
cafe
2811
5556
03f0
08f8
cafe
2c0a
5556
03f0
08e0
cafe
301a
5556
03f0
08c2
cafe
3402
5556
03f0
0952
cafe
3812
5556
03f4
092d
cafe
3c0b
5556
03f4
08ac
cafe
201b
5556
03f4
0950
cafe
2403
5556
03f4
07a2
cafe
2813
5556
03f8
092f
cafe
2c0c
5556
03f8
084c
cafe
301c
5556
03f8
0890
cafe
3404
5556
03f8
08ba
cafe
3814
5556
03fc
0890
cafe
3c0d
5556
03fc
0905
cafe
201d
5556
03fc
080b
cafe
2405
5556
03fc
08bd
cafe
2815
5556
0400
0852
cafe
2c0e
5556
0400
091c
cafe
301e
5556
0400
088b
cafe
3406
5556
0400
089f
cafe
3816
5556
0404
0900
cafe
3c0f
5556
0404
0980
cafe
201f
5556
0404
086f
cafe
2407
5556
0404
087b
cafe
2817
5556
0408
08a7
cafe
2c08
5556
0408
0827
cafe
3018
5556
0408
087a
cafe
3400
5556
0408
08c9
cafe
3810
5556
040c
08e4
cafe
3c09
5556
040c
08cc
cafe
2019
5556
040c
0909
cafe
2401
5556
040c
08c3
cafe
2811
5556
0410
08db
cafe
2c0a
5556
0410
08d9
-
cafe
301a
5556
0410
08b7
cafe
3402
5556
0410
0944
cafe
3812
5556
0414
091a
cafe
3c0b
5556
0414
08a3
cafe
201b
5556
0414
0928
cafe
2403
5556
0414
0787
cafe
2813
5556
0418
0908
cafe
2c0c
5556
0418
0826
cafe
301c
5556
0418
0888
cafe
3404
5556
0418
0892
cafe
3814
5556
041c
0869
cafe
3c0d
5556
041c
08e5
cafe
201d
5556
041c
07e9
cafe
2405
5556
041c
089f
cafe
2815
5556
0420
0849
cafe
2c0e
5556
0420
08f9
cafe
301e
5556
0420
087a
cafe
3406
5556
0420
0880
cafe
3816
5556
0424
08e6
cafe
3c0f
5556
0424
0969
cafe
201f
5556
0424
0863
cafe
2407
5556
0424
0861
cafe
2817
5556
0428
0877
cafe
2c08
5556
0428
07f5
cafe
3018
5556
0428
0860
cafe
3400
5556
0428
08a1
cafe
3810
5556
042c
08be
cafe
3c09
5556
042c
08ba
cafe
2019
5556
042c
08fd
cafe
2401
5556
042c
08ad
cafe
2811
5556
0430
08bb
cafe
2c0a
5556
0430
08d3
cafe
301a
5556
0430
088e
cafe
3402
5556
0430
0922
cafe
3812
5556
0434
090d
cafe
3c0b
5556
0434
0877
cafe
201b
5556
0434
0920
cafe
2403
5556
0434
0769
cafe
2813
5556
0438
08ef
cafe
2c0c
5556
0438
07fc
cafe
301c
5556
0438
0866
cafe
3404
5556
0438
087f
cafe
3814
5556
043c
0850
cafe
3c0d
5556
043c
08db
cafe
201d
5556
043c
07d1
cafe
2405
5556
043c
0876
cafe
2815
5556
0440
0829
cafe
2c0e
5556
0440
08e5
cafe
301e
5556
0440
0854
cafe
3406
5556
0440
0873
cafe
3816
5556
0444
08d6
cafe
-
3c0f
5556
0444
0959
cafe
201f
5556
0444
083c
cafe
2407
5556
0444
0852
cafe
2817
5556
0448
085a
cafe
2c08
5556
0448
07d7
cafe
3018
5556
0448
0851
cafe
3400
5556
0448
0887
cafe
3810
5556
044c
08a8
cafe
3c09
5556
044c
08ac
cafe
2019
5556
044c
08e1
cafe
2401
5556
044c
0891
cafe
2811
5556
0450
0896
cafe
2c0a
5556
0450
08ad
cafe
301a
5556
0450
0879
cafe
3402
5556
0450
0902
cafe
3812
5556
0454
08ee
cafe
3c0b
5556
0454
0858
cafe
201b
5556
0454
08f8
cafe
2403
5556
0454
0741
cafe
2813
5556
0458
08d3
cafe
2c0c
5556
0458
07f5
cafe
301c
5556
0458
084d
cafe
3404
5556
0458
084f
cafe
3814
5556
045c
083b
cafe
3c0d
5556
045c
08b1
cafe
201d
5556
045c
07c9
cafe
2405
5556
045c
0865
cafe
2815
5556
0460
0814
cafe
2c0e
5556
0460
08e0
cafe
301e
5556
0460
0839
cafe
3406
5556
0460
086a
cafe
3816
5556
0464
08b5
cafe
3c0f
5556
0464
094d
cafe
201f
5556
0464
0829
cafe
2407
5556
0464
0827
cafe
2817
5556
0468
084c
cafe
2c08
5556
0468
07c2
cafe
3018
5556
0468
0832
cafe
3400
5556
0468
087a
cafe
3810
5556
046c
089f
cafe
3c09
5556
046c
089b
cafe
2019
5556
046c
08d3
cafe
2401
5556
046c
0882
cafe
2811
5556
0470
088f
cafe
2c0a
5556
0470
0899
cafe
301a
5556
0470
085e
cafe
3402
5556
0470
08fc
cafe
3812
5556
0474
08e7
cafe
3c0b
5556
0474
084b
cafe
201b
5556
0474
08f7
cafe
2403
5556
0474
0729
cafe
2813
-
5556
0478
08bc
cafe
2c0c
5556
0478
07cb
cafe
301c
5556
0478
0835
cafe
3404
5556
0478
0851
cafe
3814
5556
047c
083a
cafe
3c0d
5556
047c
089a
cafe
201d
5556
047c
07ab
cafe
2405
5556
047c
083b
cafe
2815
5556
0480
0806
cafe
2c0e
5556
0480
08b0
cafe
301e
5556
0480
0820
cafe
3406
5556
0480
0847
cafe
3816
5556
0484
089d
cafe
3c0f
5556
0484
093b
cafe
201f
5556
0484
07fc
cafe
2407
5556
0484
081e
cafe
2817
5556
0488
082a
cafe
2c08
5556
0488
0796
cafe
3018
5556
0488
081a
cafe
3400
5556
0488
0855
cafe
3810
5556
048c
0890
cafe
3c09
5556
048c
089a
cafe
2019
5556
048c
08b9
cafe
2401
5556
048c
086e
cafe
2811
5556
0490
0883
cafe
2c0a
5556
0490
0872
cafe
301a
5556
0490
0848
cafe
3402
5556
0490
08dd
cafe
3812
5556
0494
08d0
cafe
3c0b
5556
0494
0837
cafe
201b
5556
0494
08e2
cafe
2403
5556
0494
0728
cafe
2813
5556
0498
089e
cafe
2c0c
5556
0498
07b6
cafe
301c
5556
0498
0809
cafe
3404
5556
0498
0833
cafe
3814
5556
049c
0807
cafe
3c0d
5556
049c
0882
cafe
201d
5556
049c
079f
cafe
2405
5556
049c
0814
cafe
2815
5556
04a0
07e6
cafe
2c0e
5556
04a0
0899
cafe
301e
5556
04a0
07f3
cafe
3406
5556
04a0
0824
cafe
3816
5556
04a4
088b
cafe
3c0f
5556
04a4
0918
cafe
201f
5556
04a4
07da
cafe
2407
5556
04a4
07f4
cafe
2817
5556
04a8
081e
cafe
2c08
5556
04a8
0784
cafe
3018
5556
04a8
0816
cafe
3400
5556
-
04a8
082c
cafe
3810
5556
04ac
0881
cafe
3c09
5556
04ac
0880
cafe
2019
5556
04ac
08a5
cafe
2401
5556
04ac
0861
cafe
2811
5556
04b0
0870
cafe
2c0a
5556
04b0
0869
cafe
301a
5556
04b0
082e
cafe
3402
5556
04b0
08c1
cafe
3812
5556
04b4
08ad
cafe
3c0b
5556
04b4
082e
cafe
201b
5556
04b4
08d0
cafe
2403
5556
04b4
070f
cafe
2813
5556
04b8
0891
cafe
2c0c
5556
04b8
07b3
cafe
301c
5556
04b8
07fd
cafe
3404
5556
04b8
082e
cafe
3814
5556
04bc
07f4
cafe
3c0d
5556
04bc
0860
cafe
201d
5556
04bc
0778
cafe
2405
5556
04bc
07fd
cafe
2815
5556
04c0
07d1
cafe
2c0e
5556
04c0
088f
cafe
301e
5556
04c0
07e7
cafe
3406
5556
04c0
0816
cafe
3816
5556
04c4
0873
cafe
3c0f
5556
04c4
090a
cafe
201f
5556
04c4
07d8
cafe
2407
5556
04c4
07c8
cafe
2817
5556
04c8
07fe
cafe
2c08
5556
04c8
076a
cafe
3018
5556
04c8
07d7
cafe
3400
5556
04c8
081f
cafe
3810
5556
04cc
0850
cafe
3c09
5556
04cc
0862
cafe
2019
5556
04cc
0894
cafe
2401
5556
04cc
084c
cafe
2811
5556
04d0
084e
cafe
2c0a
5556
04d0
084e
cafe
301a
5556
04d0
080c
cafe
3402
5556
04d0
08b2
cafe
3812
5556
04d4
08a7
cafe
3c0b
5556
04d4
0805
cafe
201b
5556
04d4
08b8
cafe
2403
5556
04d4
06f5
cafe
2813
5556
04d8
0875
cafe
2c0c
5556
04d8
0794
cafe
301c
5556
04d8
07dd
cafe
3404
5556
04d8
080a
cafe
3814
5556
04dc
07df
cafe
3c0d
5556
04dc
0852
cafe
201d
5556
04dc
-
0774
cafe
2405
5556
04dc
07df
cafe
2815
5556
04e0
07bd
cafe
2c0e
5556
04e0
0878
cafe
301e
5556
04e0
07cd
cafe
3406
5556
04e0
07eb
cafe
3816
5556
04e4
085e
cafe
3c0f
5556
04e4
08eb
cafe
201f
5556
04e4
07b9
cafe
2407
5556
04e4
07c0
cafe
2817
5556
04e8
07e1
cafe
2c08
5556
04e8
075a
cafe
3018
5556
04e8
07cb
cafe
3400
5556
04e8
0815
cafe
3810
5556
04ec
083f
cafe
3c09
5556
04ec
0832
cafe
2019
5556
04ec
0886
cafe
2401
5556
04ec
0823
cafe
2811
5556
04f0
0824
cafe
2c0a
5556
04f0
0843
cafe
301a
5556
04f0
07e5
cafe
3402
5556
04f0
089b
cafe
3812
5556
04f4
0870
cafe
3c0b
5556
04f4
07e9
cafe
201b
5556
04f4
0898
cafe
2403
5556
04f4
06d4
cafe
2813
5556
04f8
087b
cafe
2c0c
5556
04f8
0778
cafe
301c
5556
04f8
07b7
cafe
3404
5556
04f8
0804
cafe
3814
5556
04fc
07cc
cafe
3c0d
5556
04fc
0840
cafe
201d
5556
04fc
074a
cafe
2405
5556
04fc
07cb
cafe
2815
5556
0500
07b0
cafe
2c0e
5556
0500
085e
cafe
301e
5556
0500
07b2
cafe
3406
5556
0500
07e3
cafe
3816
5556
0504
083f
cafe
3c0f
5556
0504
08dc
cafe
201f
5556
0504
079e
cafe
2407
5556
0504
07a8
cafe
2817
5556
0508
07cd
cafe
2c08
5556
0508
0747
cafe
3018
5556
0508
07cc
cafe
3400
5556
0508
0801
cafe
3810
5556
050c
0825
cafe
3c09
5556
050c
0820
cafe
2019
5556
050c
0864
cafe
2401
5556
050c
0807
cafe
2811
5556
0510
0804
cafe
2c0a
5556
0510
081e
-
cafe
301a
5556
0510
07ea
cafe
3402
5556
0510
0863
cafe
3812
5556
0514
0872
cafe
3c0b
5556
0514
07d5
cafe
201b
5556
0514
087b
cafe
2403
5556
0514
06b7
cafe
2813
5556
0518
084c
cafe
2c0c
5556
0518
074e
cafe
301c
5556
0518
07a6
cafe
3404
5556
0518
07e3
cafe
3814
5556
051c
07ab
cafe
3c0d
5556
051c
082f
cafe
201d
5556
051c
0734
cafe
2405
5556
051c
07b9
cafe
2815
5556
0520
078f
cafe
2c0e
5556
0520
0841
cafe
301e
5556
0520
079b
cafe
3406
5556
0520
07c2
cafe
3816
5556
0524
0825
cafe
3c0f
5556
0524
08d5
cafe
201f
5556
0524
077d
cafe
2407
5556
0524
0796
cafe
2817
5556
0528
07c3
cafe
2c08
5556
0528
071d
cafe
3018
5556
0528
07ad
cafe
3400
5556
0528
07e8
cafe
3810
5556
052c
081d
cafe
3c09
5556
052c
0806
cafe
2019
5556
052c
085f
cafe
2401
5556
052c
07e9
cafe
2811
5556
0530
07fc
cafe
2c0a
5556
0530
0815
cafe
301a
5556
0530
07d3
cafe
3402
5556
0530
085c
cafe
3812
5556
0534
084b
cafe
3c0b
5556
0534
07cf
cafe
201b
5556
0534
086b
cafe
2403
5556
0534
06a2
cafe
2813
5556
0538
082d
cafe
2c0c
5556
0538
0749
cafe
301c
5556
0538
079e
cafe
3404
5556
0538
07c7
cafe
3814
5556
053c
07a3
cafe
3c0d
5556
053c
0815
cafe
201d
5556
053c
0721
cafe
2405
5556
053c
07a3
cafe
2815
5556
0540
0784
cafe
2c0e
5556
0540
0828
cafe
301e
5556
0540
0780
cafe
3406
5556
0540
07ac
cafe
3816
5556
0544
080b
cafe
-
3c0f
5556
0544
08b5
cafe
201f
5556
0544
0762
cafe
2407
5556
0544
078d
cafe
2817
5556
0548
079e
cafe
2c08
5556
0548
0700
cafe
3018
5556
0548
0799
cafe
3400
5556
0548
07c0
cafe
3810
5556
054c
07f7
cafe
3c09
5556
054c
07fb
cafe
2019
5556
054c
084d
cafe
2401
5556
054c
07f1
cafe
2811
5556
0550
07ef
cafe
2c0a
5556
0550
07ff
cafe
301a
5556
0550
07c0
cafe
3402
5556
0550
0855
cafe
3812
5556
0554
0840
cafe
3c0b
5556
0554
07b3
cafe
201b
5556
0554
085c
cafe
2403
5556
0554
067f
cafe
2813
5556
0558
0837
cafe
2c0c
5556
0558
0727
cafe
301c
5556
0558
077c
cafe
3404
5556
0558
07ab
cafe
3814
5556
055c
078a
cafe
3c0d
5556
055c
07f8
cafe
201d
5556
055c
070d
cafe
2405
5556
055c
0794
cafe
2815
5556
0560
076d
cafe
2c0e
5556
0560
0814
cafe
301e
5556
0560
0769
cafe
3406
5556
0560
078d
cafe
3816
5556
0564
07fc
cafe
3c0f
5556
0564
0893
cafe
201f
5556
0564
075f
cafe
2407
5556
0564
0767
cafe
2817
5556
0568
0789
cafe
2c08
5556
0568
06ef
cafe
3018
5556
0568
0777
cafe
3400
5556
0568
07a8
cafe
3810
5556
056c
07d5
cafe
3c09
5556
056c
07dc
cafe
2019
5556
056c
081d
cafe
2401
5556
056c
07cc
cafe
2811
5556
0570
07e0
cafe
2c0a
5556
0570
07db
cafe
301a
5556
0570
0799
cafe
3402
5556
0570
082e
cafe
3812
5556
0574
0838
cafe
3c0b
5556
0574
078f
cafe
201b
5556
0574
084d
cafe
2403
5556
0574
0679
cafe
2813
-
5556
0578
07fe
cafe
2c0c
5556
0578
0715
cafe
301c
5556
0578
075d
cafe
3404
5556
0578
079f
cafe
3814
5556
057c
075b
cafe
3c0d
5556
057c
07de
cafe
201d
5556
057c
06ea
cafe
2405
5556
057c
0779
cafe
2815
5556
0580
074e
cafe
2c0e
5556
0580
080a
cafe
301e
5556
0580
0768
cafe
3406
5556
0580
078d
cafe
3816
5556
0584
07f7
cafe
3c0f
5556
0584
087f
cafe
201f
5556
0584
0739
cafe
2407
5556
0584
0756
cafe
2817
5556
0588
077e
cafe
2c08
5556
0588
06d5
cafe
3018
5556
0588
0773
cafe
3400
5556
0588
0789
cafe
3810
5556
058c
07d2
cafe
3c09
5556
058c
07bc
cafe
2019
5556
058c
0802
cafe
2401
5556
058c
07aa
cafe
2811
5556
0590
07b7
cafe
2c0a
5556
0590
07ce
cafe
301a
5556
0590
077c
cafe
3402
5556
0590
0812
cafe
3812
5556
0594
080a
cafe
3c0b
5556
0594
0780
cafe
201b
5556
0594
082b
cafe
2403
5556
0594
0659
cafe
2813
5556
0598
07f8
cafe
2c0c
5556
0598
06f9
cafe
301c
5556
0598
074a
cafe
3404
5556
0598
078d
cafe
3814
5556
059c
0768
cafe
3c0d
5556
059c
07d7
cafe
201d
5556
059c
06d5
cafe
2405
5556
059c
0765
cafe
2815
5556
05a0
0726
cafe
2c0e
5556
05a0
07fb
cafe
301e
5556
05a0
0741
cafe
3406
5556
05a0
0752
cafe
3816
5556
05a4
07d9
cafe
3c0f
5556
05a4
086d
cafe
201f
5556
05a4
0716
cafe
2407
5556
05a4
0747
cafe
2817
5556
05a8
075c
cafe
2c08
5556
05a8
06c5
cafe
3018
5556
05a8
074a
cafe
3400
5556
-
05a8
0770
cafe
3810
5556
05ac
07bf
cafe
3c09
5556
05ac
07b2
cafe
2019
5556
05ac
07f5
cafe
2401
5556
05ac
0799
cafe
2811
5556
05b0
07a1
cafe
2c0a
5556
05b0
07ce
cafe
301a
5556
05b0
076c
cafe
3402
5556
05b0
0805
cafe
3812
5556
05b4
07f8
cafe
3c0b
5556
05b4
0765
cafe
201b
5556
05b4
080e
cafe
2403
5556
05b4
0642
cafe
2813
5556
05b8
07d7
cafe
2c0c
5556
05b8
06dd
cafe
301c
5556
05b8
0723
cafe
3404
5556
05b8
0787
cafe
3814
5556
05bc
0740
cafe
3c0d
5556
05bc
07c1
cafe
201d
5556
05bc
06b9
cafe
2405
5556
05bc
074f
cafe
2815
5556
05c0
071c
cafe
2c0e
5556
05c0
07de
cafe
301e
5556
05c0
0720
cafe
3406
5556
05c0
073f
cafe
3816
5556
05c4
07c7
cafe
3c0f
5556
05c4
0855
cafe
201f
5556
05c4
0715
cafe
2407
5556
05c4
072d
cafe
2817
5556
05c8
073d
cafe
2c08
5556
05c8
06a7
cafe
3018
5556
05c8
0737
cafe
3400
5556
05c8
0754
cafe
3810
5556
05cc
07ab
cafe
3c09
5556
05cc
07ac
cafe
2019
5556
05cc
07ee
cafe
2401
5556
05cc
078b
cafe
2811
5556
05d0
0797
cafe
2c0a
5556
05d0
079a
cafe
301a
5556
05d0
0763
cafe
3402
5556
05d0
07f0
cafe
3812
5556
05d4
07f2
cafe
3c0b
5556
05d4
0750
cafe
201b
5556
05d4
080b
cafe
2403
5556
05d4
0638
cafe
2813
5556
05d8
07da
cafe
2c0c
5556
05d8
06c2
cafe
301c
5556
05d8
0726
cafe
3404
5556
05d8
075e
cafe
3814
5556
05dc
072b
cafe
3c0d
5556
05dc
07af
cafe
201d
5556
05dc
-
0699
cafe
2405
5556
05dc
073b
cafe
2815
5556
05e0
070c
cafe
2c0e
5556
05e0
07c8
cafe
301e
5556
05e0
071c
cafe
3406
5556
05e0
0739
cafe
3816
5556
05e4
079c
cafe
3c0f
5556
05e4
0851
cafe
201f
5556
05e4
070b
cafe
2407
5556
05e4
0716
cafe
2817
5556
05e8
0738
cafe
2c08
5556
05e8
0698
cafe
3018
5556
05e8
072e
cafe
3400
5556
05e8
076b
cafe
3810
5556
05ec
0791
cafe
3c09
5556
05ec
0787
cafe
2019
5556
05ec
07c5
cafe
2401
5556
05ec
075f
cafe
2811
5556
05f0
077c
cafe
2c0a
5556
05f0
078c
cafe
301a
5556
05f0
0736
cafe
3402
5556
05f0
07dc
cafe
3812
5556
05f4
07d3
cafe
3c0b
5556
05f4
072b
cafe
201b
5556
05f4
0808
cafe
2403
5556
05f4
060b
cafe
2813
5556
05f8
07c5
cafe
2c0c
5556
05f8
06bf
cafe
301c
5556
05f8
070a
cafe
3404
5556
05f8
0750
cafe
3814
5556
05fc
0722
cafe
3c0d
5556
05fc
0797
cafe
201d
5556
05fc
0691
cafe
2405
5556
05fc
0718
cafe
2815
5556
0600
06e9
cafe
2c0e
5556
0600
07ab
cafe
301e
5556
0600
06f9
cafe
3406
5556
0600
0705
cafe
3816
5556
0604
07a5
cafe
3c0f
5556
0604
0823
cafe
201f
5556
0604
06f0
cafe
2407
5556
0604
0705
cafe
2817
5556
0608
071e
cafe
2c08
5556
0608
0680
cafe
3018
5556
0608
070a
cafe
3400
5556
0608
0737
cafe
3810
5556
060c
076f
cafe
3c09
5556
060c
0776
cafe
2019
5556
060c
07ad
cafe
2401
5556
060c
0758
cafe
2811
5556
0610
076a
cafe
2c0a
5556
0610
077c
-
cafe
301a
5556
0610
071f
cafe
3402
5556
0610
07d0
cafe
3812
5556
0614
07c5
cafe
3c0b
5556
0614
0727
cafe
201b
5556
0614
07db
cafe
2403
5556
0614
05f3
cafe
2813
5556
0618
07af
cafe
2c0c
5556
0618
06a3
cafe
301c
5556
0618
06e5
cafe
3404
5556
0618
0744
cafe
3814
5556
061c
0715
cafe
3c0d
5556
061c
0787
cafe
201d
5556
061c
067b
cafe
2405
5556
061c
0703
cafe
2815
5556
0620
06d9
cafe
2c0e
5556
0620
078b
cafe
301e
5556
0620
06e2
cafe
3406
5556
0620
0709
cafe
3816
5556
0624
0789
cafe
3c0f
5556
0624
0817
cafe
201f
5556
0624
06bf
cafe
2407
5556
0624
06da
cafe
2817
5556
0628
0701
cafe
2c08
5556
0628
065b
cafe
3018
5556
0628
0704
cafe
3400
5556
0628
071a
cafe
3810
5556
062c
0769
cafe
3c09
5556
062c
075e
cafe
2019
5556
062c
0799
cafe
2401
5556
062c
0746
cafe
2811
5556
0630
075a
cafe
2c0a
5556
0630
0769
cafe
301a
5556
0630
0716
cafe
3402
5556
0630
07ad
cafe
3812
5556
0634
07b0
cafe
3c0b
5556
0634
06f2
cafe
201b
5556
0634
07c9
cafe
2403
5556
0634
05f0
cafe
2813
5556
0638
0782
cafe
2c0c
5556
0638
0686
cafe
301c
5556
0638
06d8
cafe
3404
5556
0638
0729
cafe
3814
5556
063c
06ff
cafe
3c0d
5556
063c
0761
cafe
201d
5556
063c
0664
cafe
2405
5556
063c
06e3
cafe
2815
5556
0640
06c8
cafe
2c0e
5556
0640
0788
cafe
301e
5556
0640
06d9
cafe
3406
5556
0640
06ec
cafe
3816
5556
0644
075f
cafe
-
3c0f
5556
0644
080d
cafe
201f
5556
0644
06bb
cafe
2407
5556
0644
06d0
cafe
2817
5556
0648
06f8
cafe
2c08
5556
0648
064f
cafe
3018
5556
0648
06e2
cafe
3400
5556
0648
0713
cafe
3810
5556
064c
0758
cafe
3c09
5556
064c
073a
cafe
2019
5556
064c
0791
cafe
2401
5556
064c
0735
cafe
2811
5556
0650
074b
cafe
2c0a
5556
0650
075b
cafe
301a
5556
0650
06e9
cafe
3402
5556
0650
0798
cafe
3812
5556
0654
07a7
cafe
3c0b
5556
0654
06f2
cafe
201b
5556
0654
07bb
cafe
2403
5556
0654
05c1
cafe
2813
5556
0658
0774
cafe
2c0c
5556
0658
0671
cafe
301c
5556
0658
06ae
cafe
3404
5556
0658
0717
cafe
3814
5556
065c
0701
cafe
3c0d
5556
065c
074d
cafe
201d
5556
065c
0648
cafe
2405
5556
065c
06d2
cafe
2815
5556
0660
0699
cafe
2c0e
5556
0660
0768
cafe
301e
5556
0660
06b1
cafe
3406
5556
0660
06db
cafe
3816
5556
0664
076d
cafe
3c0f
5556
0664
07fe
cafe
201f
5556
0664
06a1
cafe
2407
5556
0664
06b6
cafe
2817
5556
0668
06ce
cafe
2c08
5556
0668
0633
cafe
3018
5556
0668
06dc
cafe
3400
5556
0668
06f8
cafe
3810
5556
066c
0740
cafe
3c09
5556
066c
0740
cafe
2019
5556
066c
075a
cafe
2401
5556
066c
0713
cafe
2811
5556
0670
0745
cafe
2c0a
5556
0670
0752
cafe
301a
5556
0670
06e3
cafe
3402
5556
0670
078b
cafe
3812
5556
0674
0793
cafe
3c0b
5556
0674
06d1
cafe
201b
5556
0674
079e
cafe
2403
5556
0674
05aa
cafe
2813
-
5556
0678
0758
cafe
2c0c
5556
0678
0652
cafe
301c
5556
0678
069a
cafe
3404
5556
0678
0712
cafe
3814
5556
067c
06c7
cafe
3c0d
5556
067c
0747
cafe
201d
5556
067c
063f
cafe
2405
5556
067c
06b2
cafe
2815
5556
0680
0694
cafe
2c0e
5556
0680
0762
cafe
301e
5556
0680
06a5
cafe
3406
5556
0680
06ca
cafe
3816
5556
0684
0742
cafe
3c0f
5556
0684
07f2
cafe
201f
5556
0684
0685
cafe
2407
5556
0684
06b7
cafe
2817
5556
0688
06c7
cafe
2c08
5556
0688
062d
cafe
3018
5556
0688
06d1
cafe
3400
5556
0688
06d2
cafe
3810
5556
068c
072b
cafe
3c09
5556
068c
070e
cafe
2019
5556
068c
075d
cafe
2401
5556
068c
0710
cafe
2811
5556
0690
0710
cafe
2c0a
5556
0690
0732
cafe
301a
5556
0690
06da
cafe
3402
5556
0690
0764
cafe
3812
5556
0694
076f
cafe
3c0b
5556
0694
06bd
cafe
201b
5556
0694
078d
cafe
2403
5556
0694
05a8
cafe
2813
5556
0698
0746
cafe
2c0c
5556
0698
0649
cafe
301c
5556
0698
0695
cafe
3404
5556
0698
06f8
cafe
3814
5556
069c
06cb
cafe
3c0d
5556
069c
073f
cafe
201d
5556
069c
0622
cafe
2405
5556
069c
06ad
cafe
2815
5556
06a0
068b
cafe
2c0e
5556
06a0
074e
cafe
301e
5556
06a0
0679
cafe
3406
5556
06a0
06b1
cafe
3816
5556
06a4
072b
cafe
3c0f
5556
06a4
07c4
cafe
201f
5556
06a4
066c
cafe
2407
5556
06a4
068f
cafe
2817
5556
06a8
06a4
cafe
2c08
5556
06a8
0614
cafe
3018
5556
06a8
06a8
cafe
3400
5556
-
06a8
06b9
cafe
3810
5556
06ac
0711
cafe
3c09
5556
06ac
0707
cafe
2019
5556
06ac
0752
cafe
2401
5556
06ac
06ed
cafe
2811
5556
06b0
0701
cafe
2c0a
5556
06b0
0712
cafe
301a
5556
06b0
06c8
cafe
3402
5556
06b0
074e
cafe
3812
5556
06b4
0763
cafe
3c0b
5556
06b4
06b7
cafe
201b
5556
06b4
0785
cafe
2403
5556
06b4
057f
cafe
2813
5556
06b8
0737
cafe
2c0c
5556
06b8
0626
cafe
301c
5556
06b8
0683
cafe
3404
5556
06b8
06f0
cafe
3814
5556
06bc
06b3
cafe
3c0d
5556
06bc
0721
cafe
201d
5556
06bc
0617
cafe
2405
5556
06bc
0686
cafe
2815
5556
06c0
0661
cafe
2c0e
5556
06c0
072a
cafe
301e
5556
06c0
066a
cafe
3406
5556
06c0
06ad
cafe
3816
5556
06c4
0729
cafe
3c0f
5556
06c4
07c9
cafe
201f
5556
06c4
065c
cafe
2407
5556
06c4
067e
cafe
2817
5556
06c8
069e
cafe
2c08
5556
06c8
05f6
cafe
3018
5556
06c8
069d
cafe
3400
5556
06c8
06ad
cafe
3810
5556
06cc
06ff
cafe
3c09
5556
06cc
06e7
cafe
2019
5556
06cc
073b
cafe
2401
5556
06cc
06d7
cafe
2811
5556
06d0
06f4
cafe
2c0a
5556
06d0
0712
cafe
301a
5556
06d0
0696
cafe
3402
5556
06d0
073a
cafe
3812
5556
06d4
073f
cafe
3c0b
5556
06d4
06a1
cafe
201b
5556
06d4
075d
cafe
2403
5556
06d4
0558
cafe
2813
5556
06d8
0720
cafe
2c0c
5556
06d8
0608
cafe
301c
5556
06d8
066c
cafe
3404
5556
06d8
06da
cafe
3814
5556
06dc
06b5
cafe
3c0d
5556
06dc
0718
cafe
201d
5556
06dc
-
05fe
cafe
2405
5556
06dc
066b
cafe
2815
5556
06e0
065d
cafe
2c0e
5556
06e0
0704
cafe
301e
5556
06e0
064f
cafe
3406
5556
06e0
0698
cafe
3816
5556
06e4
06eb
cafe
3c0f
5556
06e4
07ae
cafe
201f
5556
06e4
0652
cafe
2407
5556
06e4
0667
cafe
2817
5556
06e8
067f
cafe
2c08
5556
06e8
05d2
cafe
3018
5556
06e8
067a
cafe
3400
5556
06e8
0698
cafe
3810
5556
06ec
06fa
cafe
3c09
5556
06ec
06d0
cafe
2019
5556
06ec
0732
cafe
2401
5556
06ec
06bf
cafe
2811
5556
06f0
06d4
cafe
2c0a
5556
06f0
06f2
cafe
301a
5556
06f0
068c
cafe
3402
5556
06f0
0731
cafe
3812
5556
06f4
0732
cafe
3c0b
5556
06f4
066e
cafe
201b
5556
06f4
075d
cafe
2403
5556
06f4
0561
cafe
2813
5556
06f8
0720
cafe
2c0c
5556
06f8
0603
cafe
301c
5556
06f8
0648
cafe
3404
5556
06f8
06bb
cafe
3814
5556
06fc
0695
cafe
3c0d
5556
06fc
06e5
cafe
201d
5556
06fc
05df
cafe
2405
5556
06fc
066e
cafe
2815
5556
0700
063c
cafe
2c0e
5556
0700
0703
cafe
301e
5556
0700
064d
cafe
3406
5556
0700
068a
cafe
3816
5556
0704
06e6
cafe
3c0f
5556
0704
0780
cafe
201f
5556
0704
0630
cafe
2407
5556
0704
0647
cafe
2817
5556
0708
065e
cafe
2c08
5556
0708
05cd
cafe
3018
5556
0708
0668
cafe
3400
5556
0708
0688
cafe
3810
5556
070c
06d5
cafe
3c09
5556
070c
06c3
cafe
2019
5556
070c
0727
cafe
2401
5556
070c
06b5
cafe
2811
5556
0710
06db
cafe
2c0a
5556
0710
06d7
-
cafe
301a
5556
0710
066a
cafe
3402
5556
0710
0715
cafe
3812
5556
0714
072c
cafe
3c0b
5556
0714
0674
cafe
201b
5556
0714
0750
cafe
2403
5556
0714
0549
cafe
2813
5556
0718
0707
cafe
2c0c
5556
0718
05ff
cafe
301c
5556
0718
063b
cafe
3404
5556
0718
06a2
cafe
3814
5556
071c
0688
cafe
3c0d
5556
071c
06d9
cafe
201d
5556
071c
05c6
cafe
2405
5556
071c
0650
cafe
2815
5556
0720
0621
cafe
2c0e
5556
0720
06e0
cafe
301e
5556
0720
0625
cafe
3406
5556
0720
066e
cafe
3816
5556
0724
06d8
cafe
3c0f
5556
0724
0792
cafe
201f
5556
0724
060f
cafe
2407
5556
0724
0636
cafe
2817
5556
0728
0641
cafe
2c08
5556
0728
05aa
cafe
3018
5556
0728
0654
cafe
3400
5556
0728
0667
cafe
3810
5556
072c
06bb
cafe
3c09
5556
072c
06ae
cafe
2019
5556
072c
0700
cafe
2401
5556
072c
06ab
cafe
2811
5556
0730
06c4
cafe
2c0a
5556
0730
06d3
cafe
301a
5556
0730
0669
cafe
3402
5556
0730
06ea
cafe
3812
5556
0734
071f
cafe
3c0b
5556
0734
0662
cafe
201b
5556
0734
073d
cafe
2403
5556
0734
0543
cafe
2813
5556
0738
06e2
cafe
2c0c
5556
0738
05d4
cafe
301c
5556
0738
061e
cafe
3404
5556
0738
0693
cafe
3814
5556
073c
067c
cafe
3c0d
5556
073c
06c8
cafe
201d
5556
073c
05af
cafe
2405
5556
073c
064e
cafe
2815
5556
0740
05fb
cafe
2c0e
5556
0740
06cd
cafe
301e
5556
0740
0626
cafe
3406
5556
0740
065b
cafe
3816
5556
0744
06c2
cafe
-
3c0f
5556
0744
0766
cafe
201f
5556
0744
060c
cafe
2407
5556
0744
0624
cafe
2817
5556
0748
0638
cafe
2c08
5556
0748
05a1
cafe
3018
5556
0748
0639
cafe
3400
5556
0748
0649
cafe
3810
5556
074c
068c
cafe
3c09
5556
074c
069b
cafe
2019
5556
074c
06f7
cafe
2401
5556
074c
0695
cafe
2811
5556
0750
06b7
cafe
2c0a
5556
0750
06b1
cafe
301a
5556
0750
0657
cafe
3402
5556
0750
06dd
cafe
3812
5556
0754
0708
cafe
3c0b
5556
0754
0644
cafe
201b
5556
0754
0723
cafe
2403
5556
0754
0529
cafe
2813
5556
0758
06de
cafe
2c0c
5556
0758
05d3
cafe
301c
5556
0758
0614
cafe
3404
5556
0758
0682
cafe
3814
5556
075c
0658
cafe
3c0d
5556
075c
06bb
cafe
201d
5556
075c
05a8
cafe
2405
5556
075c
062e
cafe
2815
5556
0760
05fb
cafe
2c0e
5556
0760
06c5
cafe
301e
5556
0760
0609
cafe
3406
5556
0760
0644
cafe
3816
5556
0764
06ba
cafe
3c0f
5556
0764
075e
cafe
201f
5556
0764
05f0
cafe
2407
5556
0764
0615
cafe
2817
5556
0768
062c
cafe
2c08
5556
0768
0592
cafe
3018
5556
0768
061c
cafe
3400
5556
0768
0644
cafe
3810
5556
076c
06a5
cafe
3c09
5556
076c
067a
cafe
2019
5556
076c
06e4
cafe
2401
5556
076c
0681
cafe
2811
5556
0770
0683
cafe
2c0a
5556
0770
06b4
cafe
301a
5556
0770
0633
cafe
3402
5556
0770
06db
cafe
3812
5556
0774
06fe
cafe
3c0b
5556
0774
062b
cafe
201b
5556
0774
070f
cafe
2403
5556
0774
04f2
cafe
2813
-
5556
0778
06c4
cafe
2c0c
5556
0778
05af
cafe
301c
5556
0778
05f8
cafe
3404
5556
0778
0673
cafe
3814
5556
077c
0646
cafe
3c0d
5556
077c
06a7
cafe
201d
5556
077c
0593
cafe
2405
5556
077c
0611
cafe
2815
5556
0780
05fc
cafe
2c0e
5556
0780
06b3
cafe
301e
5556
0780
05e7
cafe
3406
5556
0780
0630
cafe
3816
5556
0784
06a4
cafe
3c0f
5556
0784
0758
cafe
201f
5556
0784
05db
cafe
2407
5556
0784
061d
cafe
2817
5556
0788
0610
cafe
2c08
5556
0788
0576
cafe
3018
5556
0788
061b
cafe
3400
5556
0788
063c
cafe
3810
5556
078c
0687
cafe
3c09
5556
078c
0668
cafe
2019
5556
078c
06cb
cafe
2401
5556
078c
066a
cafe
2811
5556
0790
068b
cafe
2c0a
5556
0790
06a7
cafe
301a
5556
0790
0624
cafe
3402
5556
0790
06cd
cafe
3812
5556
0794
06c9
cafe
3c0b
5556
0794
0624
cafe
201b
5556
0794
06f7
cafe
2403
5556
0794
0504
cafe
2813
5556
0798
06cf
cafe
2c0c
5556
0798
058a
cafe
301c
5556
0798
05e3
cafe
3404
5556
0798
0652
cafe
3814
5556
079c
0637
cafe
3c0d
5556
079c
067c
cafe
201d
5556
079c
0580
cafe
2405
5556
079c
05f4
cafe
2815
5556
07a0
05d1
cafe
2c0e
5556
07a0
0682
cafe
301e
5556
07a0
05db
cafe
3406
5556
07a0
0608
cafe
3816
5556
07a4
068c
cafe
3c0f
5556
07a4
0730
cafe
201f
5556
07a4
05bd
cafe
2407
5556
07a4
05e9
cafe
2817
5556
07a8
060a
cafe
2c08
5556
07a8
0573
cafe
3018
5556
07a8
0602
cafe
3400
5556
-
07a8
062b
cafe
3810
5556
07ac
066a
cafe
3c09
5556
07ac
066a
cafe
2019
5556
07ac
06c3
cafe
2401
5556
07ac
0668
cafe
2811
5556
07b0
0697
cafe
2c0a
5556
07b0
06a4
cafe
301a
5556
07b0
060c
cafe
3402
5556
07b0
06d2
cafe
3812
5556
07b4
06d0
cafe
3c0b
5556
07b4
0622
cafe
201b
5556
07b4
06e9
cafe
2403
5556
07b4
04db
cafe
2813
5556
07b8
069c
cafe
2c0c
5556
07b8
0580
cafe
301c
5556
07b8
05c5
cafe
3404
5556
07b8
0644
cafe
3814
5556
07bc
0620
cafe
3c0d
5556
07bc
068a
cafe
201d
5556
07bc
056d
cafe
2405
5556
07bc
05e9
cafe
2815
5556
07c0
05c1
cafe
2c0e
5556
07c0
0677
cafe
301e
5556
07c0
05ce
cafe
3406
5556
07c0
05f4
cafe
3816
5556
07c4
0687
cafe
3c0f
5556
07c4
0727
cafe
201f
5556
07c4
05a9
cafe
2407
5556
07c4
05e7
cafe
2817
5556
07c8
05fa
cafe
2c08
5556
07c8
054d
cafe
3018
5556
07c8
05f4
cafe
3400
5556
07c8
0604
cafe
3810
5556
07cc
0649
cafe
3c09
5556
07cc
063e
cafe
2019
5556
07cc
069e
cafe
2401
5556
07cc
063e
cafe
2811
5556
07d0
066b
cafe
2c0a
5556
07d0
0688
cafe
301a
5556
07d0
05fc
cafe
3402
5556
07d0
06a6
cafe
3812
5556
07d4
06a7
cafe
3c0b
5556
07d4
05f4
cafe
201b
5556
07d4
06de
cafe
2403
5556
07d4
04c7
cafe
2813
5556
07d8
06a0
cafe
2c0c
5556
07d8
0572
cafe
301c
5556
07d8
05b2
cafe
3404
5556
07d8
062b
cafe
3814
5556
07dc
0623
cafe
3c0d
5556
07dc
0661
cafe
201d
5556
07dc
-
0561
cafe
2405
5556
07dc
05c9
cafe
2815
5556
07e0
0591
cafe
2c0e
5556
07e0
065d
cafe
301e
5556
07e0
05b2
cafe
3406
5556
07e0
05e6
cafe
3816
5556
07e4
0687
cafe
3c0f
5556
07e4
0705
cafe
201f
5556
07e4
0587
cafe
2407
5556
07e4
05da
cafe
2817
5556
07e8
05e3
cafe
2c08
5556
07e8
0539
cafe
3018
5556
07e8
05e0
cafe
3400
5556
07e8
0610
cafe
3810
5556
07ec
064b
cafe
3c09
5556
07ec
0643
cafe
2019
5556
07ec
0683
cafe
2401
5556
07ec
0631
cafe
2811
5556
07f0
0659
cafe
2c0a
5556
07f0
0677
cafe
301a
5556
07f0
05ed
cafe
3402
5556
07f0
067b
cafe
3812
5556
07f4
06a6
cafe
3c0b
5556
07f4
05e7
cafe
201b
5556
07f4
06c5
cafe
2403
5556
07f4
04ba
cafe
2813
5556
07f8
0694
cafe
2c0c
5556
07f8
0551
cafe
301c
5556
07f8
05ba
cafe
3404
5556
07f8
0622
cafe
3814
5556
07fc
0600
cafe
3c0d
5556
07fc
0668
cafe
201d
5556
07fc
054d
cafe
2405
5556
07fc
05c8
cafe
2815
5556
0800
05a4
cafe
2c0e
5556
0800
0665
cafe
301e
5556
0800
05a1
cafe
3406
5556
0800
05dc
cafe
3816
5556
0804
0665
cafe
3c0f
5556
0804
070f
cafe
201f
5556
0804
0583
cafe
2407
5556
0804
05d5
cafe
2817
5556
0808
05d2
cafe
2c08
5556
0808
052c
cafe
3018
5556
0808
05cf
cafe
3400
5556
0808
05e1
cafe
3810
5556
080c
0637
cafe
3c09
5556
080c
0621
cafe
2019
5556
080c
0676
cafe
2401
5556
080c
061f
cafe
2811
5556
0810
063d
cafe
2c0a
5556
0810
0659
-
cafe
301a
5556
0810
05d5
cafe
3402
5556
0810
0687
cafe
3812
5556
0814
06a8
cafe
3c0b
5556
0814
05cf
cafe
201b
5556
0814
06b7
cafe
2403
5556
0814
04a2
cafe
2813
5556
0818
0660
cafe
2c0c
5556
0818
052d
cafe
301c
5556
0818
058c
cafe
3404
5556
0818
061a
cafe
3814
5556
081c
05e4
cafe
3c0d
5556
081c
0642
cafe
201d
5556
081c
0535
cafe
2405
5556
081c
05b7
cafe
2815
5556
0820
057f
cafe
2c0e
5556
0820
064a
cafe
301e
5556
0820
058d
cafe
3406
5556
0820
05c0
cafe
3816
5556
0824
0642
cafe
3c0f
5556
0824
06f5
cafe
201f
5556
0824
056c
cafe
2407
5556
0824
059c
cafe
2817
5556
0828
05c6
cafe
2c08
5556
0828
04fe
cafe
3018
5556
0828
05b9
cafe
3400
5556
0828
05db
cafe
3810
5556
082c
062f
cafe
3c09
5556
082c
060a
cafe
2019
5556
082c
0670
cafe
2401
5556
082c
0602
cafe
2811
5556
0830
062a
cafe
2c0a
5556
0830
065f
cafe
301a
5556
0830
05dd
cafe
3402
5556
0830
0670
cafe
3812
5556
0834
0681
cafe
3c0b
5556
0834
05bd
cafe
201b
5556
0834
06a3
cafe
2403
5556
0834
049c
cafe
2813
5556
0838
0654
cafe
2c0c
5556
0838
052e
cafe
301c
5556
0838
0577
cafe
3404
5556
0838
0608
cafe
3814
5556
083c
05dc
cafe
3c0d
5556
083c
0627
cafe
201d
5556
083c
0527
cafe
2405
5556
083c
058d
cafe
2815
5556
0840
056c
cafe
2c0e
5556
0840
0642
cafe
301e
5556
0840
0579
cafe
3406
5556
0840
05be
cafe
3816
5556
0844
0638
cafe
-
