2809
0000
0000
01e2
cafe
2c19
0000
0000
0275
cafe
3001
0000
0000
01bc
cafe
3411
0000
0000
0219
cafe
380a
0000
0000
018f
cafe
3c1a
0000
0000
013b
cafe
2002
0000
0000
0161
cafe
2412
0000
0000
018c
cafe
280b
0000
0000
01fd
cafe
2c1b
0000
0000
010b
cafe
3003
0000
0000
01b2
cafe
3413
0000
0000
015b
cafe
380c
0000
0000
019a
cafe
3c1c
0000
0000
014f
cafe
2004
0000
0000
01c1
cafe
2414
0000
0000
0198
cafe
280d
0000
0000
01a1
cafe
2c1d
0000
0000
01bc
cafe
3005
0000
0000
0167
cafe
3415
0000
0000
0192
cafe
380e
0000
0000
0191
cafe
3c1e
0000
0000
0264
cafe
2006
0000
0000
0185
cafe
2416
0000
0000
01e7
cafe
280f
0000
0000
0161
cafe
2c1f
0000
0000
0167
cafe
3007
0000
0000
012b
cafe
3417
0000
0000
01fe
cafe
3808
0000
0000
018e
cafe
3c18
0000
0000
0152
cafe
2000
0000
0000
01d3
cafe
2410
0000
0000
01ac
cafe
2809
0000
0000
01e3
cafe
2c19
0000
0000
0278
cafe
3001
0000
0000
01b4
cafe
3411
0000
0000
021e
cafe
380a
0000
0000
0188
cafe
3c1a
0000
0000
0142
cafe
2002
0000
0000
015c
cafe
2412
0000
0000
0182
cafe
280b
0000
0000
0200
cafe
2c1b
0000
0000
010f
cafe
3003
0000
0000
01b7
cafe
3413
0000
0000
015d
cafe
380c
0000
0000
019d
cafe
3c1c
0000
0000
0149
cafe
2004
0000
0000
01c1
cafe
2414
0000
0000
0196
cafe
280d
0000
0000
019e
cafe
2c1d
0000
0000
01ba
cafe
3005
0000
0000
0163
cafe
3415
-
0000
0000
0196
cafe
380e
0000
0000
018e
cafe
3c1e
0000
0000
0260
cafe
2006
0000
0000
0187
cafe
2416
0000
0000
01e2
cafe
280f
0000
0000
0167
cafe
2c1f
0000
0000
0166
cafe
3007
0000
0000
0129
cafe
3417
0000
0000
01fe
cafe
3808
0000
0000
018e
cafe
3c18
0000
0000
0158
cafe
2000
0000
0000
01d0
cafe
2410
0000
0000
01ad
cafe
2809
0000
0000
01e4
cafe
2c19
0000
0000
026f
cafe
3001
0000
0000
01ac
cafe
3411
0000
0000
021e
cafe
380a
0000
0000
0182
cafe
3c1a
0000
0000
013f
cafe
2002
0000
0000
015f
cafe
2412
0000
0000
017e
cafe
280b
0000
0000
01fd
cafe
2c1b
0000
0000
010e
cafe
3003
0000
0000
01b4
cafe
3413
0000
0000
015c
cafe
380c
0000
0000
019c
cafe
3c1c
0000
0000
014f
cafe
2004
0000
0000
01c8
cafe
2414
0000
0000
0197
cafe
280d
0000
0000
019e
cafe
2c1d
0000
0000
01bd
cafe
3005
0000
0000
0166
cafe
3415
0000
0000
0197
cafe
380e
0000
0000
018d
cafe
3c1e
0000
0000
0262
cafe
2006
0000
0000
0185
cafe
2416
0000
0000
01e0
cafe
280f
0000
0000
0163
cafe
2c1f
0000
0000
0165
cafe
3007
0000
0000
012c
cafe
3417
0000
0000
01fb
cafe
3808
0000
0000
0194
cafe
3c18
0000
0000
0160
cafe
2000
0000
0000
01cc
cafe
2410
0000
0000
01af
cafe
2809
0000
0000
01e0
cafe
2c19
0000
0000
026f
cafe
3001
0000
0000
01b2
cafe
3411
0000
0000
021c
cafe
380a
0000
0000
0187
cafe
3c1a
0000
0000
0140
cafe
2002
0000
-
0000
0159
cafe
2412
0000
0000
0184
cafe
280b
0000
0000
01fe
cafe
2c1b
0000
0000
0109
cafe
3003
0000
0000
01b1
cafe
3413
0000
0000
0156
cafe
380c
0000
0000
019b
cafe
3c1c
0000
0000
0148
cafe
2004
0000
0000
01c5
cafe
2414
0000
0000
0192
cafe
280d
0000
0000
019a
cafe
2c1d
0000
0000
01c1
cafe
3005
0000
0000
0163
cafe
3415
0000
0000
019d
cafe
380e
0000
0000
018b
cafe
3c1e
0000
0000
025c
cafe
2006
0000
0000
0185
cafe
2416
0000
0000
01de
cafe
280f
0000
0000
0168
cafe
2c1f
0000
0000
0165
cafe
3007
0000
0000
012a
cafe
3417
0000
0000
01fc
cafe
3808
0000
0000
0194
cafe
3c18
0000
0000
0158
cafe
2000
0000
0000
01c7
cafe
2410
0000
0000
01b1
cafe
2809
0000
0000
01e5
cafe
2c19
0000
0000
0273
cafe
3001
0000
0000
01b3
cafe
3411
0000
0000
0221
cafe
380a
0000
0000
0185
cafe
3c1a
0000
0000
0141
cafe
2002
0000
0000
0154
cafe
2412
0000
0000
0183
cafe
280b
0000
0000
01fe
cafe
2c1b
0000
0000
010c
cafe
3003
0000
0000
01b5
cafe
3413
0000
0000
0152
cafe
380c
0000
0000
019a
cafe
3c1c
0000
0000
014a
cafe
2004
0000
0000
01c7
cafe
2414
0000
0000
0193
cafe
280d
0000
0000
019c
cafe
2c1d
0000
0000
01bf
cafe
3005
0000
0000
015c
cafe
3415
0000
0000
01a0
cafe
380e
0000
0000
018d
cafe
3c1e
0000
0000
025b
cafe
2006
0000
0000
0185
cafe
2416
0000
0000
01e0
cafe
280f
0000
0000
0162
cafe
2c1f
0000
0000
-
0161
cafe
3007
0000
0000
0125
cafe
3417
0000
0000
01f7
cafe
3808
0000
0000
0194
cafe
3c18
0000
0000
0154
cafe
2000
0000
0000
01c4
cafe
2410
0000
0000
01ae
cafe
2809
0000
0000
01f2
cafe
2c19
0000
0000
0273
cafe
3001
0000
0000
01b6
cafe
3411
0000
0000
021f
cafe
380a
0000
0000
0182
cafe
3c1a
0000
0000
0144
cafe
2002
0000
0000
0157
cafe
2412
0000
0000
017c
cafe
280b
0000
0000
01f9
cafe
2c1b
0000
0000
0110
cafe
3003
0000
0000
01b5
cafe
3413
0000
0000
014f
cafe
380c
0000
0000
0195
cafe
3c1c
0000
0000
014b
cafe
2004
0000
0000
01c4
cafe
2414
0000
0000
0194
cafe
280d
0000
0000
019b
cafe
2c1d
0000
0000
01ba
cafe
3005
0000
0000
0162
cafe
3415
0000
0000
01a3
cafe
380e
0000
0000
0193
cafe
3c1e
0000
0000
025c
cafe
2006
0000
0000
0189
cafe
2416
0000
0000
01e9
cafe
280f
0000
0000
015f
cafe
2c1f
0000
0000
0164
cafe
3007
0000
0000
011c
cafe
3417
0000
0000
01f1
cafe
3808
0000
0000
018f
cafe
3c18
0000
0000
0152
cafe
2000
0000
0000
01c3
cafe
2410
0000
0000
01b5
cafe
2809
0000
0000
01f3
cafe
2c19
0000
0000
026e
cafe
3001
0000
0000
01b8
cafe
3411
0000
0000
021a
cafe
380a
0000
0000
018e
cafe
3c1a
0000
0000
0141
cafe
2002
0000
0000
0151
cafe
2412
0000
0000
0181
cafe
280b
0000
0000
01f8
cafe
2c1b
0000
0000
010f
cafe
3003
0000
0000
01b7
cafe
3413
0000
0000
014c
cafe
380c
0000
0000
0194
-
cafe
3c1c
0000
0000
0147
cafe
2004
0000
0000
01c8
cafe
2414
0000
0000
0190
cafe
280d
0000
0000
0197
cafe
2c1d
0000
0000
01bb
cafe
3005
0000
0000
0161
cafe
3415
0000
0000
01a8
cafe
380e
0000
0000
0195
cafe
3c1e
0000
0000
0262
cafe
2006
0000
0000
0184
cafe
2416
0000
0000
01e6
cafe
280f
0000
0000
0162
cafe
2c1f
0000
0000
0168
cafe
3007
0000
0000
0124
cafe
3417
0000
0000
01f4
cafe
3808
0000
0000
0192
cafe
3c18
0000
0000
014e
cafe
2000
0000
0000
01bf
cafe
2410
0000
0000
01af
cafe
2809
0000
0000
01ec
cafe
2c19
0000
0000
026d
cafe
3001
0000
0000
01bb
cafe
3411
0000
0000
021a
cafe
380a
0000
0000
0197
cafe
3c1a
0000
0000
014b
cafe
2002
0000
0000
014d
cafe
2412
0000
0000
018c
cafe
280b
0000
0000
01f4
cafe
2c1b
0000
0000
0115
cafe
3003
0000
0000
01b9
cafe
3413
0000
0000
014c
cafe
380c
0000
0000
0194
cafe
3c1c
0000
0000
0149
cafe
2004
0000
0000
01c7
cafe
2414
0000
0000
0197
cafe
280d
0000
0000
0197
cafe
2c1d
0000
0000
01b5
cafe
3005
0000
0000
0167
cafe
3415
0000
0000
01a0
cafe
380e
0000
0000
0193
cafe
3c1e
0000
0000
0262
cafe
2006
0000
0000
018b
cafe
2416
0000
0000
01e4
cafe
280f
0000
0000
0163
cafe
2c1f
0000
0000
016b
cafe
3007
0000
0000
0122
cafe
3417
0000
0000
01f8
cafe
3808
0000
0000
018d
cafe
3c18
0000
0000
0150
cafe
2000
0000
0000
01c3
cafe
2410
0000
0000
01b4
cafe
-
2809
0000
0000
01e3
cafe
2c19
0000
0000
026f
cafe
3001
0000
0000
01b9
cafe
3411
0000
0000
021a
cafe
380a
0000
0000
0195
cafe
3c1a
0000
0000
014c
cafe
2002
0000
0000
015a
cafe
2412
0000
0000
018d
cafe
280b
0000
0000
01fa
cafe
2c1b
0000
0000
0117
cafe
3003
0000
0000
01b8
cafe
3413
0000
0000
014a
cafe
380c
0000
0000
0196
cafe
3c1c
0000
0000
014c
cafe
2004
0000
0000
01c4
cafe
2414
0000
0000
0197
cafe
280d
0000
0000
0196
cafe
2c1d
0000
0000
01b4
cafe
3005
0000
0000
0164
cafe
3415
0000
0000
01a0
cafe
380e
0000
0000
019a
cafe
3c1e
0000
0000
0258
cafe
2006
0000
0000
0190
cafe
2416
0000
0000
01e6
cafe
280f
0000
0000
015c
cafe
2c1f
0000
0000
0170
cafe
3007
0000
0000
0126
cafe
3417
0000
0000
01f2
cafe
3808
0000
0000
0191
cafe
3c18
0000
0000
0150
cafe
2000
0000
0000
01cc
cafe
2410
0000
0000
01b2
cafe
2809
0000
0000
01e8
cafe
2c19
0000
0000
0274
cafe
3001
0000
0000
01bd
cafe
3411
0000
0000
021b
cafe
380a
0000
0000
018c
cafe
3c1a
0000
0000
0148
cafe
2002
0000
0000
0161
cafe
2412
0000
0000
018b
cafe
280b
0000
0000
01fa
cafe
2c1b
0000
0000
0118
cafe
3003
0000
0000
01b4
cafe
3413
0000
0000
014a
cafe
380c
0000
0000
0198
cafe
3c1c
0000
0000
0151
cafe
2004
0000
0000
01c2
cafe
2414
0000
0000
0196
cafe
280d
0000
0000
0198
cafe
2c1d
0000
0000
01b7
cafe
3005
0000
0000
0160
cafe
3415
-
0000
0000
019c
cafe
380e
0000
0000
0197
cafe
3c1e
0000
0000
025d
cafe
2006
0000
0000
018d
cafe
2416
0000
0000
01e5
cafe
280f
0000
0000
0159
cafe
2c1f
0000
0000
0167
cafe
3007
0000
0000
012a
cafe
3417
0000
0000
01f2
cafe
3808
0000
0000
0191
cafe
3c18
0000
0000
014f
cafe
2000
0000
0000
01ce
cafe
2410
0000
0000
01af
cafe
2809
0000
0000
01e3
cafe
2c19
0000
0000
0273
cafe
3001
0000
0000
01c4
cafe
3411
0000
0000
021e
cafe
380a
0000
0000
0186
cafe
3c1a
0000
0000
0146
cafe
2002
0000
0000
0165
cafe
2412
0000
0000
018b
cafe
280b
0000
0000
01fa
cafe
2c1b
0000
0000
0117
cafe
3003
0000
0000
01af
cafe
3413
0000
0000
014a
cafe
380c
0000
0000
019e
cafe
3c1c
0000
0000
0156
cafe
2004
0000
0000
01c2
cafe
2414
0000
0000
0193
cafe
280d
0000
0000
019b
cafe
2c1d
0000
0000
01bf
cafe
3005
0000
0000
015d
cafe
3415
0000
0000
01a0
cafe
380e
0000
0000
0193
cafe
3c1e
0000
0000
025b
cafe
2006
0000
0000
0193
cafe
2416
0000
0000
01e4
cafe
280f
0000
0000
0158
cafe
2c1f
0000
0000
0160
cafe
3007
0000
0000
0129
cafe
3417
0000
0000
01ee
cafe
3808
0000
0000
019a
cafe
3c18
0000
0000
0150
cafe
2000
0000
0000
01d0
cafe
2410
0000
0000
01ab
cafe
2809
0000
0000
01e3
cafe
2c19
0000
0000
0270
cafe
3001
0000
0000
01c9
cafe
3411
0000
0000
0221
cafe
380a
0000
0000
0187
cafe
3c1a
0000
0000
0142
cafe
2002
0000
-
0000
0166
cafe
2412
0000
0000
018e
cafe
280b
0000
0000
01f7
cafe
2c1b
0000
0000
011d
cafe
3003
0000
0000
01b2
cafe
3413
0000
0000
014c
cafe
380c
0000
0000
0199
cafe
3c1c
0000
0000
0155
cafe
2004
0000
0000
01c2
cafe
2414
0000
0000
0191
cafe
280d
0000
0000
019a
cafe
2c1d
0000
0000
01bb
cafe
3005
0000
0000
015f
cafe
3415
0000
0000
019f
cafe
380e
0000
0000
018e
cafe
3c1e
0000
0000
0263
cafe
2006
0000
0000
0195
cafe
2416
0000
0000
01e7
cafe
280f
0000
0000
015d
cafe
2c1f
0000
0000
015d
cafe
3007
0000
0000
012a
cafe
3417
0000
0000
01f0
cafe
3808
0000
0000
0198
cafe
3c18
0000
0000
0152
cafe
2000
0000
0000
01cf
cafe
2410
0000
0000
01af
cafe
2809
0000
0000
01e0
cafe
2c19
0000
0000
0273
cafe
3001
0000
0000
01ca
cafe
3411
0000
0000
0227
cafe
380a
0000
0000
0187
cafe
3c1a
0000
0000
0141
cafe
2002
0000
0000
0167
cafe
2412
0000
0000
018b
cafe
280b
0000
0000
01fb
cafe
2c1b
0000
0000
0117
cafe
3003
0000
0000
01ba
cafe
3413
0000
0000
0149
cafe
380c
0000
0000
0194
cafe
3c1c
0000
0000
0158
cafe
2004
0000
0000
01c7
cafe
2414
0000
0000
0191
cafe
280d
0000
0000
019a
cafe
2c1d
0000
0000
01bd
cafe
3005
0000
0000
015d
cafe
3415
0000
0000
01a5
cafe
380e
0000
0000
0188
cafe
3c1e
0000
0000
0268
cafe
2006
0000
0000
019e
cafe
2416
0000
0000
01e7
cafe
280f
0000
0000
0166
cafe
2c1f
0000
0000
-
015b
cafe
3007
0000
0000
012d
cafe
3417
0000
0000
01f1
cafe
3808
0000
0000
0194
cafe
3c18
0000
0000
0154
cafe
2000
0000
0000
01dd
cafe
2410
0000
0000
01b6
cafe
2809
0000
0000
01dd
cafe
2c19
0000
0000
0276
cafe
3001
0000
0000
01d4
cafe
3411
0000
0000
0225
cafe
380a
0000
0000
0188
cafe
3c1a
0000
0000
0145
cafe
2002
0000
0000
0164
cafe
2412
0000
0000
0189
cafe
280b
0000
0000
01fc
cafe
2c1b
0000
0000
0115
cafe
3003
0000
0000
01b8
cafe
3413
0000
0000
014e
cafe
380c
0000
0000
0196
cafe
3c1c
0000
0000
015c
cafe
2004
0000
0000
01c9
cafe
2414
0000
0000
0199
cafe
280d
0000
0000
019a
cafe
2c1d
0000
0000
01b7
cafe
3005
0000
0000
0163
cafe
3415
0000
0000
01a3
cafe
380e
0000
0000
0190
cafe
3c1e
0000
0000
026e
cafe
2006
0000
0000
019c
cafe
2416
0000
0000
01e5
cafe
280f
0000
0000
0165
cafe
2c1f
0000
0000
0158
cafe
3007
0000
0000
012c
cafe
3417
0000
0000
01f5
cafe
3808
0000
0000
0198
cafe
3c18
0000
0000
0155
cafe
2000
0000
0000
01e5
cafe
2410
0000
0000
01ae
cafe
2809
0000
0000
01dd
cafe
2c19
0000
0000
0274
cafe
3001
0000
0000
01d3
cafe
3411
0000
0000
021f
cafe
380a
0000
0000
018b
cafe
3c1a
0000
0000
0142
cafe
2002
0000
0000
0161
cafe
2412
0000
0000
018a
cafe
280b
0000
0000
01fd
cafe
2c1b
0000
0000
011b
cafe
3003
0000
0000
01bc
cafe
3413
0000
0000
0153
cafe
380c
0000
0000
0194
-
cafe
3c1c
0000
0000
015d
cafe
2004
0000
0000
01cb
cafe
2414
0000
0000
019d
cafe
280d
0000
0000
0194
cafe
2c1d
0000
0000
01b3
cafe
3005
0000
0000
0167
cafe
3415
0000
0000
01a1
cafe
380e
0000
0000
0193
cafe
3c1e
0000
0000
026a
cafe
2006
0000
0000
019b
cafe
2416
0000
0000
01e4
cafe
280f
0000
0000
0169
cafe
2c1f
0000
0000
015e
cafe
3007
0000
0000
0127
cafe
3417
0000
0000
01f8
cafe
3808
0000
0000
0198
cafe
3c18
0000
0000
0153
cafe
2000
0000
0000
01e1
cafe
2410
0000
0000
01af
cafe
2809
0000
0000
01df
cafe
2c19
0000
0000
0274
cafe
3001
0000
0000
01de
cafe
3411
0000
0000
021e
cafe
380a
0000
0000
018e
cafe
3c1a
0000
0000
0144
cafe
2002
0000
0000
016b
cafe
2412
0000
0000
018f
cafe
280b
0000
0000
0201
cafe
2c1b
0000
0000
011e
cafe
3003
0000
0000
01ba
cafe
3413
0000
0000
0154
cafe
380c
0000
0000
0197
cafe
3c1c
0000
0000
015c
cafe
2004
0000
0000
01cb
cafe
2414
0000
0000
019a
cafe
280d
0000
0000
0191
cafe
2c1d
0000
0000
01b6
cafe
3005
0000
0000
0168
cafe
3415
0000
0000
01a1
cafe
380e
0000
0000
0194
cafe
3c1e
0000
0000
0269
cafe
2006
0000
0000
019a
cafe
2416
0000
0000
01e3
cafe
280f
0000
0000
0164
cafe
2c1f
0000
0000
015d
cafe
3007
0000
0000
0125
cafe
3417
0000
0000
01f7
cafe
3808
0000
0000
0195
cafe
3c18
0000
0000
0150
cafe
2000
0000
0000
01e5
cafe
2410
0000
0000
01af
cafe
-
2809
0000
0000
01e4
cafe
2c19
0000
0000
0278
cafe
3001
0000
0000
01e1
cafe
3411
0000
0000
0220
cafe
380a
0000
0000
018b
cafe
3c1a
0000
0000
0143
cafe
2002
0000
0000
0167
cafe
2412
0000
0000
0187
cafe
280b
0000
0000
0202
cafe
2c1b
0000
0000
0123
cafe
3003
0000
0000
01b8
cafe
3413
0000
0000
015d
cafe
380c
0000
0000
0199
cafe
3c1c
0000
0000
0156
cafe
2004
0000
0000
01c8
cafe
2414
0000
0000
0197
cafe
280d
0000
0000
0192
cafe
2c1d
0000
0000
01b8
cafe
3005
0000
0000
0169
cafe
3415
0000
0000
01a7
cafe
380e
0000
0000
019a
cafe
3c1e
0000
0000
026a
cafe
2006
0000
0000
019b
cafe
2416
0000
0000
01e2
cafe
280f
0000
0000
0169
cafe
2c1f
0000
0000
015c
cafe
3007
0000
0000
0126
cafe
3417
0000
0000
01f7
cafe
3808
0000
0000
0197
cafe
3c18
0000
0000
0155
cafe
2000
0000
0000
01e3
cafe
2410
0000
0000
01b0
cafe
2809
0000
0000
01e8
cafe
2c19
0000
0000
027a
cafe
3001
0000
0000
01e9
cafe
3411
0000
0000
021f
cafe
380a
0000
0000
0181
cafe
3c1a
0000
0000
0148
cafe
2002
0000
0000
0170
cafe
2412
0000
0000
0183
cafe
280b
0000
0000
0204
cafe
2c1b
0000
0000
011c
cafe
3003
0000
0000
01b8
cafe
3413
0000
0000
015e
cafe
380c
0000
0000
01d1
cafe
3c1c
0000
0000
0191
cafe
2004
0000
0000
0200
cafe
2414
0000
0000
01d0
cafe
280d
0000
0000
0271
cafe
2c1d
0000
0000
0296
cafe
3005
0000
0000
023c
cafe
3415
-
0000
0000
0281
cafe
380e
0000
0000
0314
cafe
3c1e
0000
0000
03d9
cafe
2006
0000
0000
030c
cafe
2416
0000
0000
0350
cafe
280f
0000
0000
0369
cafe
2c1f
0000
0000
035e
cafe
3007
0000
0000
032e
cafe
3417
0000
0000
0405
cafe
3808
0000
0000
041b
cafe
3c18
0000
0000
03e9
cafe
2000
0000
0000
0468
cafe
2410
0000
0000
0444
cafe
2809
0000
0000
04ec
cafe
2c19
0000
0000
0583
cafe
3001
0000
0000
04dd
cafe
3411
0000
0000
052b
cafe
380a
0000
0000
04ed
cafe
3c1a
0000
0000
04bf
cafe
2002
0000
0000
04d0
cafe
2412
0000
0000
0501
cafe
280b
0000
0000
05d5
cafe
2c1b
0000
0000
04ea
cafe
3003
0000
0000
057a
cafe
3413
0000
0000
053c
cafe
380c
0000
0000
05cf
cafe
3c1c
0000
0000
058d
cafe
2004
0000
0000
05e6
cafe
2414
0000
0000
05d0
cafe
280d
0000
0000
061f
cafe
2c1d
0000
0000
0631
cafe
3005
0000
0000
05d2
cafe
3415
0000
0000
0630
cafe
380e
0000
0000
0672
cafe
3c1e
0000
0000
0739
cafe
2006
0000
0000
065a
cafe
2416
0000
0000
06af
cafe
280f
0000
0000
066e
cafe
2c1f
0000
0000
0672
cafe
3007
0000
0000
062c
cafe
3417
0000
0000
070b
cafe
3808
0000
0000
06e1
cafe
3c18
0000
0000
06b4
cafe
2000
0000
0000
0733
cafe
2410
0000
0000
0712
cafe
2809
0000
0000
076f
cafe
2c19
0000
0000
0813
cafe
3001
0000
0000
075e
cafe
3411
0000
0000
07bb
cafe
380a
0000
0000
073b
cafe
3c1a
0000
0000
0710
cafe
2002
0000
-
0000
0712
cafe
2412
0000
0000
0760
cafe
280b
0000
0000
07f9
cafe
2c1b
0000
0000
0706
cafe
3003
0000
0000
0793
cafe
3413
0000
0000
0755
cafe
380c
0000
0000
07b4
cafe
3c1c
0000
0000
077c
cafe
2004
0000
0000
07cc
cafe
2414
0000
0000
07c3
cafe
280d
0000
0000
07dd
cafe
2c1d
0000
0000
07ec
cafe
3005
0000
0000
0788
cafe
3415
0000
0000
07f3
cafe
380e
0000
0000
080c
cafe
3c1e
0000
0000
08d6
cafe
2006
0000
0000
07ec
cafe
2416
0000
0000
084e
cafe
280f
0000
0000
07dd
cafe
2c1f
0000
0000
07ed
cafe
3007
0000
0000
079a
cafe
3417
0000
0000
0876
cafe
3808
0000
0000
082f
cafe
3c18
0000
0000
0805
cafe
2000
0000
0000
088b
cafe
2410
0000
0000
086a
cafe
2809
0000
0000
08a2
cafe
2c19
0000
0000
0944
cafe
3001
0000
0000
088e
cafe
3411
0000
0000
08e8
cafe
380a
0000
0000
0853
cafe
3c1a
0000
0000
082c
cafe
2002
0000
0000
0820
cafe
2412
0000
0000
0876
cafe
280b
0000
0000
08fb
cafe
2c1b
0000
0000
0805
cafe
3003
0000
0000
0889
cafe
3413
0000
0000
084b
cafe
380c
0000
0000
089d
cafe
3c1c
0000
0000
0865
cafe
2004
0000
0000
08b5
cafe
2414
0000
0000
08b3
cafe
280d
0000
0000
08b0
cafe
2c1d
0000
0000
08bc
cafe
3005
0000
0000
0855
cafe
3415
0000
0000
08ca
cafe
380e
0000
0000
08c6
cafe
3c1e
0000
0000
0998
cafe
2006
0000
0000
08ae
cafe
2416
0000
0000
0908
cafe
280f
0000
0000
088b
cafe
2c1f
0000
0000
-
089b
cafe
3007
0000
0000
0840
cafe
3417
0000
0000
0928
cafe
3808
0000
0000
08bf
cafe
3c18
0000
0000
089d
cafe
2000
0000
0000
092a
cafe
2410
0000
0000
0909
cafe
2809
0000
0000
0927
cafe
2c19
0000
0000
09cd
cafe
3001
0000
0000
0916
cafe
3411
0000
0000
096c
cafe
380a
0000
0000
08d6
cafe
3c1a
0000
0000
08ac
cafe
2002
0000
0000
089f
cafe
2412
0000
0000
08f8
cafe
280b
0000
0000
0967
cafe
2c1b
0000
0000
0878
cafe
3003
0000
0000
08f7
cafe
3413
0000
0000
08be
cafe
380c
0000
0000
0906
cafe
3c1c
0000
0000
08c9
cafe
2004
0000
0000
0919
cafe
2414
0000
0000
091b
cafe
280d
0000
0000
0905
cafe
2c1d
0000
0000
0916
cafe
3005
0000
0000
08ad
cafe
3415
0000
0000
0924
cafe
380e
0000
0000
0917
cafe
3c1e
0000
0000
09f0
cafe
2006
0000
0000
08ff
cafe
2416
0000
0000
095d
cafe
280f
0000
0000
08d0
cafe
2c1f
0000
0000
08e2
cafe
3007
0000
0000
0884
cafe
3417
0000
0000
096b
cafe
3808
0000
0000
08ff
cafe
3c18
0000
0000
08d8
cafe
2000
0000
0000
096b
cafe
2410
0000
0000
094a
cafe
2809
0000
0000
0963
cafe
2c19
0000
0000
0a08
cafe
3001
0000
0000
094b
cafe
3411
0000
0000
09a3
cafe
380a
0000
0000
0908
cafe
3c1a
0000
0000
08df
cafe
2002
0000
0000
08d1
cafe
2412
0000
0000
0928
cafe
280b
0000
0000
098f
cafe
2c1b
0000
0000
089b
cafe
3003
0000
0000
0922
cafe
3413
0000
0000
08e6
cafe
380c
0000
0000
0934
-
cafe
3c1c
0000
0000
08f1
cafe
2004
0000
0000
0947
cafe
2414
0000
0000
0947
cafe
280d
0000
0000
0928
cafe
2c1d
0000
0000
0938
cafe
3005
0000
0000
08c9
cafe
3415
0000
0000
093f
cafe
380e
0000
0000
0936
cafe
3c1e
0000
0000
0a0b
cafe
2006
0000
0000
091b
cafe
2416
0000
0000
0981
cafe
280f
0000
0000
08e7
cafe
2c1f
0000
0000
08fa
cafe
3007
0000
0000
0893
cafe
3417
0000
0000
0983
cafe
3808
0000
0000
090e
cafe
3c18
0000
0000
08e5
cafe
2000
0000
0000
097c
cafe
2410
0000
0000
095b
cafe
2809
0000
0000
0970
cafe
2c19
0000
0000
0a19
cafe
3001
0000
0000
0959
cafe
3411
0000
0000
09bb
cafe
380a
0000
0000
0916
cafe
3c1a
0000
0000
08e7
cafe
2002
0000
0000
08db
cafe
2412
0000
0000
092e
cafe
280b
0000
0000
0996
cafe
2c1b
0000
0000
08a4
cafe
3003
0000
0000
0929
cafe
3413
0000
0000
08f3
cafe
380c
0000
0000
093d
cafe
3c1c
0000
0000
08ff
cafe
2004
0000
0000
094e
cafe
2414
0000
0000
0953
cafe
280d
0000
0000
0925
cafe
2c1d
0000
0000
093e
cafe
3005
0000
0000
08cd
cafe
3415
0000
0000
0944
cafe
380e
0000
0000
0937
cafe
3c1e
0000
0000
0a06
cafe
2006
0000
0000
0920
cafe
2416
0000
0000
0988
cafe
280f
0000
0000
08ea
cafe
2c1f
0000
0000
08f7
cafe
3007
0000
0000
0892
cafe
3417
0000
0000
097c
cafe
3808
0000
0000
0910
cafe
3c18
0000
0000
08e4
cafe
2000
0000
0000
0978
cafe
2410
0000
0000
095a
cafe
-
2809
0000
0000
096f
cafe
2c19
0000
0000
0a14
cafe
3001
0000
0000
0953
cafe
3411
0000
0000
09b3
cafe
380a
0000
0000
090c
cafe
3c1a
0000
0000
08e5
cafe
2002
0000
0000
08d4
cafe
2412
0000
0000
0925
cafe
280b
0000
0000
0997
cafe
2c1b
0000
0000
089c
cafe
3003
0000
0000
0920
cafe
3413
0000
0000
08ee
cafe
380c
0000
0000
092f
cafe
3c1c
0000
0000
08f0
cafe
2004
0000
0000
093b
cafe
2414
0000
0000
0947
cafe
280d
0000
0000
0921
cafe
2c1d
0000
0000
0933
cafe
3005
0000
0000
08be
cafe
3415
0000
0000
0934
cafe
380e
0000
0000
0927
cafe
3c1e
0000
0000
09fd
cafe
2006
0000
0000
0907
cafe
2416
0000
0000
097c
cafe
280f
0000
0000
08d9
cafe
2c1f
0000
0000
08e8
cafe
3007
0000
0000
0882
cafe
3417
0000
0000
096e
cafe
3808
0000
0000
08ff
cafe
3c18
0000
0000
08ce
cafe
2000
0000
0000
0968
cafe
2410
0000
0000
0948
cafe
2809
0000
0000
0964
cafe
2c19
0000
0000
0a0d
cafe
3001
0000
0000
093f
cafe
3411
0000
0000
09a8
cafe
380a
0000
0000
08f9
cafe
3c1a
0000
0000
08d7
cafe
2002
0000
0000
08bd
cafe
2412
0000
0000
091b
cafe
280b
0000
0000
0983
cafe
2c1b
0000
0000
088b
cafe
3003
0000
0000
0918
cafe
3413
0000
0000
08e0
cafe
380c
0000
0000
091d
cafe
3c1c
0000
0000
08e1
cafe
2004
0000
0000
092f
cafe
2414
0000
0000
093b
cafe
280d
0000
0000
090f
cafe
2c1d
0000
0000
091f
cafe
3005
0000
0000
08a9
cafe
3415
-
0000
0000
0925
cafe
380e
0000
0000
0911
cafe
3c1e
0000
0000
09e8
cafe
2006
0000
0000
08fa
cafe
2416
0000
0000
0964
cafe
280f
0000
0000
08c1
cafe
2c1f
0000
0000
08cf
cafe
3007
0000
0000
0866
cafe
3417
0000
0000
0958
cafe
3808
0000
0000
08e8
cafe
3c18
0000
0000
08b0
cafe
2000
0000
0000
0950
cafe
2410
0000
0000
0929
cafe
2809
0000
0000
0953
cafe
2c19
0000
0000
0a01
cafe
3001
0000
0000
0923
cafe
3411
0000
0000
099e
cafe
380a
0000
0000
08e4
cafe
3c1a
0000
0000
08bc
cafe
2002
0000
0000
08aa
cafe
2412
0000
0000
0907
cafe
280b
0000
0000
0970
cafe
2c1b
0000
0000
0877
cafe
3003
0000
0000
0906
cafe
3413
0000
0000
08cc
cafe
380c
0000
0000
090a
cafe
3c1c
0000
0000
08ce
cafe
2004
0000
0000
0920
cafe
2414
0000
0000
0925
cafe
280d
0000
0000
08fc
cafe
2c1d
0000
0000
0903
cafe
3005
0000
0000
0891
cafe
3415
0000
0000
090b
cafe
380e
0000
0000
08fb
cafe
3c1e
0000
0000
09d1
cafe
2006
0000
0000
08dd
cafe
2416
0000
0000
0950
cafe
280f
0000
0000
08af
cafe
2c1f
0000
0000
08b4
cafe
3007
0000
0000
084c
cafe
3417
0000
0000
093e
cafe
3808
0000
0000
08d5
cafe
3c18
0000
0000
0897
cafe
2000
0000
0000
0932
cafe
2410
0000
0000
0915
cafe
2809
0000
0000
093f
cafe
2c19
0000
0000
09f6
cafe
3001
0000
0000
0908
cafe
3411
0000
0000
0988
cafe
380a
0000
0000
08ca
cafe
3c1a
0000
0000
08aa
cafe
2002
0000
-
0000
088e
cafe
2412
0000
0000
08f2
cafe
280b
0000
0000
0957
cafe
2c1b
0000
0000
0863
cafe
3003
0000
0000
08f0
cafe
3413
0000
0000
08b7
cafe
380c
0000
0000
08f3
cafe
3c1c
0000
0000
08b1
cafe
2004
0000
0000
0904
cafe
2414
0000
0000
090e
cafe
280d
0000
0000
08f0
cafe
2c1d
0000
0000
08e7
cafe
3005
0000
0000
087b
cafe
3415
0000
0000
08f1
cafe
380e
0000
0000
08e2
cafe
3c1e
0000
0000
09b9
cafe
2006
0000
0000
08c7
cafe
2416
0000
0000
0934
cafe
280f
0000
0000
089a
cafe
2c1f
0000
0000
089c
cafe
3007
0000
0000
0830
cafe
3417
0000
0000
0925
cafe
3808
0000
0000
08bb
cafe
3c18
0000
0000
0881
cafe
2000
0000
0000
0915
cafe
2410
0000
0000
0905
cafe
2809
0000
0000
092a
cafe
2c19
0000
0000
09db
cafe
3001
0000
0000
08ee
cafe
3411
0000
0000
0973
cafe
380a
0000
0000
08b1
cafe
3c1a
0000
0000
0895
cafe
2002
0000
0000
0873
cafe
2412
0000
0000
08cf
cafe
280b
0000
0000
0944
cafe
2c1b
0000
0000
0844
cafe
3003
0000
0000
08d0
cafe
3413
0000
0000
089c
cafe
380c
0000
0000
08d7
cafe
3c1c
0000
0000
0891
cafe
2004
0000
0000
08e8
cafe
2414
0000
0000
08fa
cafe
280d
0000
0000
08d8
cafe
2c1d
0000
0000
08ce
cafe
3005
0000
0000
0867
cafe
3415
0000
0000
08d6
cafe
380e
0000
0000
08c8
cafe
3c1e
0000
0000
09a0
cafe
2006
0000
0000
08b3
cafe
2416
0000
0000
091c
cafe
280f
0000
0000
087f
cafe
2c1f
0000
0000
-
0886
cafe
3007
0000
0000
0818
cafe
3417
0000
0000
0913
cafe
3808
0000
0000
08a7
cafe
3c18
0000
0000
0866
cafe
2000
0000
0000
08f7
cafe
2410
0000
0000
08f0
cafe
2809
0000
0000
0913
cafe
2c19
0000
0000
09c0
cafe
3001
0000
0000
08d2
cafe
3411
0000
0000
095f
cafe
380a
0000
0000
089d
cafe
3c1a
0000
0000
087b
cafe
2002
0000
0000
085b
cafe
2412
0000
0000
08b8
cafe
280b
0000
0000
0924
cafe
2c1b
0000
0000
0826
cafe
3003
0000
0000
08b4
cafe
3413
0000
0000
0879
cafe
380c
0000
0000
08bd
cafe
3c1c
0000
0000
086f
cafe
2004
0000
0000
08cb
cafe
2414
0000
0000
08e0
cafe
280d
0000
0000
08b8
cafe
2c1d
0000
0000
08b9
cafe
3005
0000
0000
0851
cafe
3415
0000
0000
08c4
cafe
380e
0000
0000
08b5
cafe
3c1e
0000
0000
098b
cafe
2006
0000
0000
0898
cafe
2416
0000
0000
08fa
cafe
280f
0000
0000
0862
cafe
2c1f
0000
0000
0867
cafe
3007
0000
0000
07fe
cafe
3417
0000
0000
0901
cafe
3808
0000
0000
0893
cafe
3c18
0000
0000
084f
cafe
2000
0000
0000
08d4
cafe
2410
0000
0000
08db
cafe
2809
0000
0000
08f6
cafe
2c19
0000
0000
09a7
cafe
3001
0000
0000
08ba
cafe
3411
0000
0000
0945
cafe
380a
0000
0000
0884
cafe
3c1a
0000
0000
0864
cafe
2002
0000
0000
0846
cafe
2412
0000
0000
089c
cafe
280b
0000
0000
0909
cafe
2c1b
0000
0000
080e
cafe
3003
0000
0000
0897
cafe
3413
0000
0000
085e
cafe
380c
0000
0000
08a8
-
cafe
3c1c
0000
0000
085b
cafe
2004
0000
0000
08b1
cafe
2414
0000
0000
08ca
cafe
280d
0000
0000
089c
cafe
2c1d
0000
0000
089e
cafe
3005
0000
0000
0833
cafe
3415
0000
0000
08a8
cafe
380e
0000
0000
089d
cafe
3c1e
0000
0000
096d
cafe
2006
0000
0000
087c
cafe
2416
0000
0000
08e2
cafe
280f
0000
0000
084c
cafe
2c1f
0000
0000
084b
cafe
3007
0000
0000
07e7
cafe
3417
0000
0000
08e9
cafe
3808
0000
0000
0872
cafe
3c18
0000
0000
0833
cafe
2000
0000
0000
08bb
cafe
2410
0000
0000
08c1
cafe
2809
0000
0000
08df
cafe
2c19
0000
0000
0991
cafe
3001
0000
0000
0898
cafe
3411
0000
0000
0928
cafe
380a
0000
0000
086e
cafe
3c1a
0000
0000
084b
cafe
2002
0000
0000
0833
cafe
2412
0000
0000
0882
cafe
280b
0000
0000
08f4
cafe
2c1b
0000
0000
07ed
cafe
3003
0000
0000
0878
cafe
3413
0000
0000
0846
cafe
380c
0000
0000
0884
cafe
3c1c
0000
0000
0842
cafe
2004
0000
0000
0898
cafe
2414
0000
0000
08b2
cafe
280d
0000
0000
0885
cafe
2c1d
0000
0000
0889
cafe
3005
0000
0000
0817
cafe
3415
0000
0000
0898
cafe
380e
0000
0000
088c
cafe
3c1e
0000
0000
0957
cafe
2006
0000
0000
086a
cafe
2416
0000
0000
08c7
cafe
280f
0000
0000
083b
cafe
2c1f
0000
0000
0824
cafe
3007
0000
0000
07ca
cafe
3417
0000
0000
08d6
cafe
3808
0000
0000
0860
cafe
3c18
0000
0000
0820
cafe
2000
0000
0000
08a5
cafe
2410
0000
0000
08ad
cafe
-
2809
0000
0000
08c7
cafe
2c19
0000
0000
097c
cafe
3001
0000
0000
087b
cafe
3411
0000
0000
0909
cafe
380a
0000
0000
0857
cafe
3c1a
0000
0000
0835
cafe
2002
0000
0000
0810
cafe
2412
0000
0000
085e
cafe
280b
0000
0000
08d5
cafe
2c1b
0000
0000
07cf
cafe
3003
0000
0000
0862
cafe
3413
0000
0000
0822
cafe
380c
0000
0000
086b
cafe
3c1c
0000
0000
0826
cafe
2004
0000
0000
087d
cafe
2414
0000
0000
0892
cafe
280d
0000
0000
086a
cafe
2c1d
0000
0000
0866
cafe
3005
0000
0000
0802
cafe
3415
0000
0000
087a
cafe
380e
0000
0000
0870
cafe
3c1e
0000
0000
0946
cafe
2006
0000
0000
084d
cafe
2416
0000
0000
08ad
cafe
280f
0000
0000
0820
cafe
2c1f
0000
0000
0807
cafe
3007
0000
0000
07aa
cafe
3417
0000
0000
08b8
cafe
3808
0000
0000
0849
cafe
3c18
0000
0000
0805
cafe
2000
0000
0000
088c
cafe
2410
0000
0000
0897
cafe
2809
0000
0000
08a9
cafe
2c19
0000
0000
0969
cafe
3001
0000
0000
0865
cafe
3411
0000
0000
08f0
cafe
380a
0000
0000
0840
cafe
3c1a
0000
0000
081a
cafe
2002
0000
0000
07f7
cafe
2412
0000
0000
0846
cafe
280b
0000
0000
08bd
cafe
2c1b
0000
0000
07b7
cafe
3003
0000
0000
0846
cafe
3413
0000
0000
0807
cafe
380c
0000
0000
0854
cafe
3c1c
0000
0000
0810
cafe
2004
0000
0000
086b
cafe
2414
0000
0000
0881
cafe
280d
0000
0000
0852
cafe
2c1d
0000
0000
0852
cafe
3005
0000
0000
07e2
cafe
3415
-
0000
0000
0860
cafe
380e
0000
0000
0857
cafe
3c1e
0000
0000
0928
cafe
2006
0000
0000
0837
cafe
2416
0000
0000
0898
cafe
280f
0000
0000
0806
cafe
2c1f
0000
0000
07f1
cafe
3007
0000
0000
078e
cafe
3417
0000
0000
089d
cafe
3808
0000
0000
082c
cafe
3c18
0000
0000
07e9
cafe
2000
0000
0000
086e
cafe
2410
0000
0000
0883
cafe
2809
0000
0000
0895
cafe
2c19
0000
0000
094e
cafe
3001
0000
0000
084f
cafe
3411
0000
0000
08d4
cafe
380a
0000
0000
0829
cafe
3c1a
0000
0000
0800
cafe
2002
0000
0000
07db
cafe
2412
0000
0000
0833
cafe
280b
0000
0000
08a9
cafe
2c1b
0000
0000
07a3
cafe
3003
0000
0000
082d
cafe
3413
0000
0000
07ed
cafe
380c
0000
0000
0843
cafe
3c1c
0000
0000
07f5
cafe
2004
0000
0000
085a
cafe
2414
0000
0000
086a
cafe
280d
0000
0000
083c
cafe
2c1d
0000
0000
0834
cafe
3005
0000
0000
07c8
cafe
3415
0000
0000
084f
cafe
380e
0000
0000
083d
cafe
3c1e
0000
0000
0903
cafe
2006
0000
0000
0820
cafe
2416
0000
0000
0887
cafe
280f
0000
0000
07ee
cafe
2c1f
0000
0000
07de
cafe
3007
0000
0000
076e
cafe
3417
0000
0000
0881
cafe
3808
0000
0000
0818
cafe
3c18
0000
0000
07ce
cafe
2000
0000
0000
0853
cafe
2410
0000
0000
0870
cafe
2809
0000
0000
087a
cafe
2c19
0000
0000
093c
cafe
3001
0000
0000
0839
cafe
3411
0000
0000
08bb
cafe
380a
0000
0000
0813
cafe
3c1a
0000
0000
07e7
cafe
2002
0000
-
0000
07c4
cafe
2412
0000
0000
081f
cafe
280b
0000
0000
0892
cafe
2c1b
0000
0000
078d
cafe
3003
0000
0000
0815
cafe
3413
0000
0000
07d5
cafe
380c
0000
0000
082e
cafe
3c1c
0000
0000
07dd
cafe
2004
0000
0000
0848
cafe
2414
0000
0000
084f
cafe
280d
0000
0000
0829
cafe
2c1d
0000
0000
0812
cafe
3005
0000
0000
07b0
cafe
3415
0000
0000
0839
cafe
380e
0000
0000
0824
cafe
3c1e
0000
0000
08e9
cafe
2006
0000
0000
0807
cafe
2416
0000
0000
0871
cafe
280f
0000
0000
07d3
cafe
2c1f
0000
0000
07c8
cafe
3007
0000
0000
0752
cafe
3417
0000
0000
086e
cafe
3808
0000
0000
0801
cafe
3c18
0000
0000
07b4
cafe
2000
0000
0000
0835
cafe
2410
0000
0000
0857
cafe
2809
0000
0000
085e
cafe
2c19
0000
0000
091c
cafe
3001
0000
0000
081e
cafe
3411
0000
0000
08a0
cafe
380a
0000
0000
07fc
cafe
3c1a
0000
0000
07d7
cafe
2002
0000
0000
07ab
cafe
2412
0000
0000
0805
cafe
280b
0000
0000
087d
cafe
2c1b
0000
0000
076c
cafe
3003
0000
0000
0803
cafe
3413
0000
0000
07bf
cafe
380c
0000
0000
0817
cafe
3c1c
0000
0000
07be
cafe
2004
0000
0000
0833
cafe
2414
0000
0000
0837
cafe
280d
0000
0000
080e
cafe
2c1d
0000
0000
07f9
cafe
3005
0000
0000
0799
cafe
3415
0000
0000
0826
cafe
380e
0000
0000
080f
cafe
3c1e
0000
0000
08ce
cafe
2006
0000
0000
07f4
cafe
2416
0000
0000
0859
cafe
280f
0000
0000
07bd
cafe
2c1f
0000
0000
-
07b2
cafe
3007
0000
0000
0738
cafe
3417
0000
0000
0859
cafe
3808
0000
0000
07e7
cafe
3c18
0000
0000
079c
cafe
2000
0000
0000
081b
cafe
2410
0000
0000
0845
cafe
2809
0000
0000
0844
cafe
2c19
0000
0000
0902
cafe
3001
0000
0000
0805
cafe
3411
0000
0000
0885
cafe
380a
0000
0000
07dc
cafe
3c1a
0000
0000
07bf
cafe
2002
0000
0000
0795
cafe
2412
0000
0000
07ed
cafe
280b
0000
0000
0863
cafe
2c1b
0000
0000
0754
cafe
3003
0000
0000
07ec
cafe
3413
0000
0000
07a4
cafe
380c
0000
0000
07ff
cafe
3c1c
0000
0000
07a3
cafe
2004
0000
0000
0819
cafe
2414
0000
0000
081b
cafe
280d
0000
0000
07f7
cafe
2c1d
0000
0000
07dc
cafe
3005
0000
0000
077e
cafe
3415
0000
0000
080c
cafe
380e
0000
0000
07f8
cafe
3c1e
0000
0000
08b1
cafe
2006
0000
0000
07e1
cafe
2416
0000
0000
083f
cafe
280f
0000
0000
07ac
cafe
2c1f
0000
0000
0797
cafe
3007
0000
0000
0725
cafe
3417
0000
0000
083f
cafe
3808
0000
0000
07cb
cafe
3c18
0000
0000
0785
cafe
2000
0000
0000
07ff
cafe
2410
0000
0000
0831
cafe
2809
0000
0000
0833
cafe
2c19
0000
0000
08f0
cafe
3001
0000
0000
07f6
cafe
3411
0000
0000
086b
cafe
380a
0000
0000
07c1
cafe
3c1a
0000
0000
07ae
cafe
2002
0000
0000
0778
cafe
2412
0000
0000
07d7
cafe
280b
0000
0000
084b
cafe
2c1b
0000
0000
0737
cafe
3003
0000
0000
07d6
cafe
3413
0000
0000
078c
cafe
380c
0000
0000
07e1
-
cafe
3c1c
0000
0000
078a
cafe
2004
0000
0000
0806
cafe
2414
0000
0000
07ff
cafe
280d
0000
0000
07de
cafe
2c1d
0000
0000
07c7
cafe
3005
0000
0000
0764
cafe
3415
0000
0000
07f0
cafe
380e
0000
0000
07e2
cafe
3c1e
0000
0000
089d
cafe
2006
0000
0000
07c3
cafe
2416
0000
0000
0828
cafe
280f
0000
0000
0795
cafe
2c1f
0000
0000
0779
cafe
3007
0000
0000
0712
cafe
3417
0000
0000
0827
cafe
3808
0000
0000
07ba
cafe
3c18
0000
0000
0768
cafe
2000
0000
0000
07ec
cafe
2410
0000
0000
0810
cafe
2809
0000
0000
0819
cafe
2c19
0000
0000
08dd
cafe
3001
0000
0000
07e0
cafe
3411
0000
0000
0857
cafe
380a
0000
0000
07af
cafe
3c1a
0000
0000
0791
cafe
2002
0000
0000
0764
cafe
2412
0000
0000
07be
cafe
280b
0000
0000
0831
cafe
2c1b
0000
0000
0722
cafe
3003
0000
0000
07ba
cafe
3413
0000
0000
0774
cafe
380c
0000
0000
07ca
cafe
3c1c
0000
0000
0774
cafe
2004
0000
0000
07ed
cafe
2414
0000
0000
07e5
cafe
280d
0000
0000
07c9
cafe
2c1d
0000
0000
07ac
cafe
3005
0000
0000
0750
cafe
3415
0000
0000
07dc
cafe
380e
0000
0000
07d0
cafe
3c1e
0000
0000
0887
cafe
2006
0000
0000
07af
cafe
2416
0000
0000
0810
cafe
280f
0000
0000
077f
cafe
2c1f
0000
0000
075e
cafe
3007
0000
0000
06f4
cafe
3417
0000
0000
0811
cafe
3808
0000
0000
07a2
cafe
3c18
0000
0000
074a
cafe
2000
0000
0000
07d9
cafe
2410
0000
0000
07f6
cafe
-
2809
0000
0000
0801
cafe
2c19
0000
0000
08c6
cafe
3001
0000
0000
07ca
cafe
3411
0000
0000
083d
cafe
380a
0000
0000
0795
cafe
3c1a
0000
0000
0775
cafe
2002
0000
0000
074f
cafe
2412
0000
0000
07a1
cafe
280b
0000
0000
081b
cafe
2c1b
0000
0000
070e
cafe
3003
0000
0000
07a4
cafe
3413
0000
0000
0760
cafe
380c
0000
0000
07af
cafe
3c1c
0000
0000
075b
cafe
2004
0000
0000
07d8
cafe
2414
0000
0000
07d4
cafe
280d
0000
0000
07b3
cafe
2c1d
0000
0000
079c
cafe
3005
0000
0000
0733
cafe
3415
0000
0000
07c4
cafe
380e
0000
0000
07b2
cafe
3c1e
0000
0000
0875
cafe
2006
0000
0000
079d
cafe
2416
0000
0000
07f5
cafe
280f
0000
0000
076e
cafe
2c1f
0000
0000
0749
cafe
3007
0000
0000
06d8
cafe
3417
0000
0000
07fd
cafe
3808
0000
0000
0792
cafe
3c18
0000
0000
0733
cafe
2000
0000
0000
07c8
cafe
2410
0000
0000
07e6
cafe
2809
0000
0000
07e8
cafe
2c19
0000
0000
08b2
cafe
3001
0000
0000
07b6
cafe
3411
0000
0000
082d
cafe
380a
0000
0000
077d
cafe
3c1a
0000
0000
0758
cafe
2002
0000
0000
0731
cafe
2412
0000
0000
078b
cafe
280b
0000
0000
080e
cafe
2c1b
0000
0000
06fc
cafe
3003
0000
0000
0798
cafe
3413
0000
0000
0750
cafe
380c
0000
0000
07a1
cafe
3c1c
0000
0000
0745
cafe
2004
0000
0000
07c0
cafe
2414
0000
0000
07bd
cafe
280d
0000
0000
079e
cafe
2c1d
0000
0000
0781
cafe
3005
0000
0000
0726
cafe
3415
-
0000
0000
07aa
cafe
380e
0000
0000
079a
cafe
3c1e
0000
0000
0859
cafe
2006
0000
0000
0783
cafe
2416
0000
0000
07e1
cafe
280f
0000
0000
074a
cafe
2c1f
0000
0000
072e
cafe
3007
0000
0000
06be
cafe
3417
0000
0000
07ec
cafe
3808
0000
0000
0782
cafe
3c18
0000
0000
0716
cafe
2000
0000
0000
07b2
cafe
2410
0000
0000
07d1
cafe
2809
0000
0000
07ce
cafe
2c19
0000
0000
089c
cafe
3001
0000
0000
07a5
cafe
3411
0000
0000
0816
cafe
380a
0000
0000
0762
cafe
3c1a
0000
0000
0740
cafe
2002
0000
0000
0717
cafe
2412
0000
0000
0771
cafe
280b
0000
0000
07ef
cafe
2c1b
0000
0000
06e0
cafe
3003
0000
0000
0780
cafe
3413
0000
0000
0737
cafe
380c
0000
0000
078b
cafe
3c1c
0000
0000
072d
cafe
2004
0000
0000
07ab
cafe
2414
0000
0000
07ac
cafe
280d
0000
0000
0789
cafe
2c1d
0000
0000
0768
cafe
3005
0000
0000
0711
cafe
3415
0000
0000
0792
cafe
380e
0000
0000
0783
cafe
3c1e
0000
0000
0845
cafe
2006
0000
0000
0766
cafe
2416
0000
0000
07c1
cafe
280f
0000
0000
0736
cafe
2c1f
0000
0000
0719
cafe
3007
0000
0000
06a4
cafe
3417
0000
0000
07da
cafe
3808
0000
0000
0771
cafe
3c18
0000
0000
0702
cafe
2000
0000
0000
07a5
cafe
2410
0000
0000
07b7
cafe
2809
0000
0000
07b8
cafe
2c19
0000
0000
0884
cafe
3001
0000
0000
078c
cafe
3411
0000
0000
07fd
cafe
380a
0000
0000
074e
cafe
3c1a
0000
0000
0727
cafe
2002
0000
-
0000
06fe
cafe
2412
0000
0000
075d
cafe
280b
0000
0000
07d4
cafe
2c1b
0000
0000
06cb
cafe
3003
0000
0000
0768
cafe
3413
0000
0000
071c
cafe
380c
0000
0000
0777
cafe
3c1c
0000
0000
0719
cafe
2004
0000
0000
079b
cafe
2414
0000
0000
07a2
cafe
280d
0000
0000
0774
cafe
2c1d
0000
0000
0750
cafe
3005
0000
0000
06fb
cafe
3415
0000
0000
0775
cafe
380e
0000
0000
0766
cafe
3c1e
0000
0000
082d
cafe
2006
0000
0000
074e
cafe
2416
0000
0000
07a9
cafe
280f
0000
0000
0724
cafe
2c1f
0000
0000
06fe
cafe
3007
0000
0000
068a
cafe
3417
0000
0000
07c7
cafe
3808
0000
0000
0753
cafe
3c18
0000
0000
06f1
cafe
2000
0000
0000
0792
cafe
2410
0000
0000
07a4
cafe
2809
0000
0000
07a9
cafe
2c19
0000
0000
0874
cafe
3001
0000
0000
0774
cafe
3411
0000
0000
07e9
cafe
380a
0000
0000
0738
cafe
3c1a
0000
0000
070f
cafe
2002
0000
0000
06e7
cafe
2412
0000
0000
0746
cafe
280b
0000
0000
07c2
cafe
2c1b
0000
0000
06ad
cafe
3003
0000
0000
0754
cafe
3413
0000
0000
0704
cafe
380c
0000
0000
0762
cafe
3c1c
0000
0000
0705
cafe
2004
0000
0000
0781
cafe
2414
0000
0000
0788
cafe
280d
0000
0000
075d
cafe
2c1d
0000
0000
0735
cafe
3005
0000
0000
06df
cafe
3415
0000
0000
075b
cafe
380e
0000
0000
0756
cafe
3c1e
0000
0000
0819
cafe
2006
0000
0000
073e
cafe
2416
0000
0000
0791
cafe
280f
0000
0000
070f
cafe
2c1f
0000
0000
-
06ec
cafe
3007
0000
0000
066f
cafe
3417
0000
0000
07bd
cafe
3808
0000
0000
073c
cafe
3c18
0000
0000
06da
cafe
2000
0000
0000
0775
cafe
2410
0000
0000
078a
cafe
2809
0000
0000
0790
cafe
2c19
0000
0000
085b
cafe
3001
0000
0000
0765
cafe
3411
0000
0000
07cb
cafe
380a
0000
0000
071f
cafe
3c1a
0000
0000
06f8
cafe
2002
0000
0000
06d1
cafe
2412
0000
0000
072c
cafe
280b
0000
0000
07ad
cafe
2c1b
0000
0000
0691
cafe
3003
0000
0000
073d
cafe
3413
0000
0000
06ec
cafe
380c
0000
0000
074a
cafe
3c1c
0000
0000
06ea
cafe
2004
0000
0000
076d
cafe
2414
0000
0000
076d
cafe
280d
0000
0000
0747
cafe
2c1d
0000
0000
071d
cafe
3005
0000
0000
06c7
cafe
3415
0000
0000
0747
cafe
380e
0000
0000
0740
cafe
3c1e
0000
0000
07fe
cafe
2006
0000
0000
0732
cafe
2416
0000
0000
077c
cafe
280f
0000
0000
06f7
cafe
2c1f
0000
0000
06d7
cafe
3007
0000
0000
0657
cafe
3417
0000
0000
07a3
cafe
3808
0000
0000
0721
cafe
3c18
0000
0000
06c4
cafe
2000
0000
0000
075b
cafe
2410
0000
0000
0773
cafe
2809
0000
0000
0777
cafe
2c19
0000
0000
0844
cafe
3001
0000
0000
0753
cafe
3411
0000
0000
07b6
cafe
380a
0000
0000
070c
cafe
3c1a
0000
0000
06e8
cafe
2002
0000
0000
06b8
cafe
2412
0000
0000
0712
cafe
280b
0000
0000
0793
cafe
2c1b
0000
0000
0673
cafe
3003
0000
0000
0733
cafe
3413
0000
0000
06dc
cafe
380c
0000
0000
073f
-
cafe
3c1c
0000
0000
06d1
cafe
2004
0000
0000
0757
cafe
2414
0000
0000
0760
cafe
280d
0000
0000
0736
cafe
2c1d
0000
0000
070c
cafe
3005
0000
0000
06ac
cafe
3415
0000
0000
0731
cafe
380e
0000
0000
072e
cafe
3c1e
0000
0000
07e5
cafe
2006
0000
0000
0720
cafe
2416
0000
0000
0765
cafe
280f
0000
0000
06dd
cafe
2c1f
0000
0000
06bb
cafe
3007
0000
0000
063f
cafe
3417
0000
0000
078e
cafe
3808
0000
0000
0707
cafe
3c18
0000
0000
06b3
cafe
2000
0000
0000
0740
cafe
2410
0000
0000
075a
cafe
2809
0000
0000
075f
cafe
2c19
0000
0000
0827
cafe
3001
0000
0000
073f
cafe
3411
0000
0000
07a0
cafe
380a
0000
0000
06f0
cafe
3c1a
0000
0000
06d1
cafe
2002
0000
0000
069c
cafe
2412
0000
0000
06f4
cafe
280b
0000
0000
077f
cafe
2c1b
0000
0000
065a
cafe
3003
0000
0000
071e
cafe
3413
0000
0000
06c5
cafe
380c
0000
0000
072a
cafe
3c1c
0000
0000
06ba
cafe
2004
0000
0000
073e
cafe
2414
0000
0000
074f
cafe
280d
0000
0000
0723
cafe
2c1d
0000
0000
06f4
cafe
3005
0000
0000
069d
cafe
3415
0000
0000
0721
cafe
380e
0000
0000
0719
cafe
3c1e
0000
0000
07cb
cafe
2006
0000
0000
070e
cafe
2416
0000
0000
0753
cafe
280f
0000
0000
06ce
cafe
2c1f
0000
0000
06a7
cafe
3007
0000
0000
062c
cafe
3417
0000
0000
0776
cafe
3808
0000
0000
06f3
cafe
3c18
0000
0000
069e
cafe
2000
0000
0000
072a
cafe
2410
0000
0000
074a
cafe
-
2809
0000
0000
074b
cafe
2c19
0000
0000
0813
cafe
3001
0000
0000
072f
cafe
3411
0000
0000
078c
cafe
380a
0000
0000
06d8
cafe
3c1a
0000
0000
06be
cafe
2002
0000
0000
068a
cafe
2412
0000
0000
06db
cafe
280b
0000
0000
076a
cafe
2c1b
0000
0000
0645
cafe
3003
0000
0000
0703
cafe
3413
0000
0000
06ad
cafe
380c
0000
0000
0716
cafe
3c1c
0000
0000
069e
cafe
2004
0000
0000
0724
cafe
2414
0000
0000
0733
cafe
280d
0000
0000
070a
cafe
2c1d
0000
0000
06dd
cafe
3005
0000
0000
068b
cafe
3415
0000
0000
0711
cafe
380e
0000
0000
0705
cafe
3c1e
0000
0000
07b2
cafe
2006
0000
0000
06f9
cafe
2416
0000
0000
0741
cafe
280f
0000
0000
06b7
cafe
2c1f
0000
0000
0691
cafe
3007
0000
0000
0613
cafe
3417
0000
0000
0757
cafe
3808
0000
0000
06dc
cafe
3c18
0000
0000
0688
cafe
2000
0000
0000
070f
cafe
2410
0000
0000
0734
cafe
2809
0000
0000
0738
cafe
2c19
0000
0000
0802
cafe
3001
0000
0000
0717
cafe
3411
0000
0000
077b
cafe
380a
0000
0000
06c4
cafe
3c1a
0000
0000
06aa
cafe
2002
0000
0000
0671
cafe
2412
0000
0000
06c6
cafe
280b
0000
0000
074e
cafe
2c1b
0000
0000
062b
cafe
3003
0000
0000
06f6
cafe
3413
0000
0000
0696
cafe
380c
0000
0000
0702
cafe
3c1c
0000
0000
0683
cafe
2004
0000
0000
0711
cafe
2414
0000
0000
071b
cafe
280d
0000
0000
06f9
cafe
2c1d
0000
0000
06c4
cafe
3005
0000
0000
0677
cafe
3415
-
0000
0000
06fc
cafe
380e
0000
0000
06f4
cafe
3c1e
0000
0000
0798
cafe
2006
0000
0000
06e4
cafe
2416
0000
0000
072b
cafe
280f
0000
0000
06a0
cafe
2c1f
0000
0000
0677
cafe
3007
0000
0000
05fb
cafe
3417
0000
0000
0747
cafe
3808
0000
0000
06c8
cafe
3c18
0000
0000
0669
cafe
2000
0000
0000
06f7
cafe
2410
0000
0000
071e
cafe
2809
0000
0000
0727
cafe
2c19
0000
0000
07f5
cafe
3001
0000
0000
0704
cafe
3411
0000
0000
0768
cafe
380a
0000
0000
06b1
cafe
3c1a
0000
0000
069c
cafe
2002
0000
0000
0654
cafe
2412
0000
0000
06af
cafe
280b
0000
0000
0738
cafe
2c1b
0000
0000
0618
cafe
3003
0000
0000
06de
cafe
3413
0000
0000
068b
cafe
380c
0000
0000
06f2
cafe
3c1c
0000
0000
066a
cafe
2004
0000
0000
06fe
cafe
2414
0000
0000
0706
cafe
280d
0000
0000
06e2
cafe
2c1d
0000
0000
06af
cafe
3005
0000
0000
0660
cafe
3415
0000
0000
06e8
cafe
380e
0000
0000
06de
cafe
3c1e
0000
0000
0779
cafe
2006
0000
0000
06ca
cafe
2416
0000
0000
070b
cafe
280f
0000
0000
0683
cafe
2c1f
0000
0000
065d
cafe
3007
0000
0000
05e7
cafe
3417
0000
0000
072a
cafe
3808
0000
0000
06af
cafe
3c18
0000
0000
064f
cafe
2000
0000
0000
06db
cafe
2410
0000
0000
0706
cafe
2809
0000
0000
070f
cafe
2c19
0000
0000
07de
cafe
3001
0000
0000
06ef
cafe
3411
0000
0000
0748
cafe
380a
0000
0000
06a7
cafe
3c1a
0000
0000
0686
cafe
2002
0000
-
0000
0639
cafe
2412
0000
0000
0697
cafe
280b
0000
0000
071b
cafe
2c1b
0000
0000
05ff
cafe
3003
0000
0000
06c7
cafe
3413
0000
0000
0672
cafe
380c
0000
0000
06dc
cafe
3c1c
0000
0000
065e
cafe
2004
0000
0000
06e8
cafe
2414
0000
0000
06f1
cafe
280d
0000
0000
06c5
cafe
2c1d
0000
0000
0698
cafe
3005
0000
0000
064c
cafe
3415
0000
0000
06cf
cafe
380e
0000
0000
06cb
cafe
3c1e
0000
0000
0762
cafe
2006
0000
0000
06b4
cafe
2416
0000
0000
06f3
cafe
280f
0000
0000
066d
cafe
2c1f
0000
0000
0647
cafe
3007
0000
0000
05d0
cafe
3417
0000
0000
071c
cafe
3808
0000
0000
069d
cafe
3c18
0000
0000
0637
cafe
2000
0000
0000
06c6
cafe
2410
0000
0000
06f7
cafe
2809
0000
0000
06fb
cafe
2c19
0000
0000
07ca
cafe
3001
0000
0000
06d9
cafe
3411
0000
0000
0737
cafe
380a
0000
0000
0694
cafe
3c1a
0000
0000
066e
cafe
2002
0000
0000
0617
cafe
2412
0000
0000
0684
cafe
280b
0000
0000
0704
cafe
2c1b
0000
0000
05e6
cafe
3003
0000
0000
06ae
cafe
3413
0000
0000
0657
cafe
380c
0000
0000
06c1
cafe
3c1c
0000
0000
0647
cafe
2004
0000
0000
06cf
cafe
2414
0000
0000
06d9
cafe
280d
0000
0000
06b3
cafe
2c1d
0000
0000
0684
cafe
3005
0000
0000
0637
cafe
3415
0000
0000
06c1
cafe
380e
0000
0000
06b7
cafe
3c1e
0000
0000
0750
cafe
2006
0000
0000
06a7
cafe
2416
0000
0000
06db
cafe
280f
0000
0000
065d
cafe
2c1f
0000
0000
-
062e
cafe
3007
0000
0000
05c0
cafe
3417
0000
0000
070d
cafe
3808
0000
0000
0689
cafe
3c18
0000
0000
061b
cafe
2000
0000
0000
06b0
cafe
2410
0000
0000
06e0
cafe
2809
0000
0000
06e8
cafe
2c19
0000
0000
07b7
cafe
3001
0000
0000
06bc
cafe
3411
0000
0000
072a
cafe
380a
0000
0000
0681
cafe
3c1a
0000
0000
0659
cafe
2002
0000
0000
060c
cafe
2412
0000
0000
0670
cafe
280b
0000
0000
06f8
cafe
2c1b
0000
0000
05d9
cafe
3003
0000
0000
0697
cafe
3413
0000
0000
0641
cafe
380c
0000
0000
06b1
cafe
3c1c
0000
0000
062a
cafe
2004
0000
0000
06bc
cafe
2414
0000
0000
06c7
cafe
280d
0000
0000
06aa
cafe
2c1d
0000
0000
066b
cafe
3005
0000
0000
0623
cafe
3415
0000
0000
06b3
cafe
380e
0000
0000
069e
cafe
3c1e
0000
0000
073e
cafe
2006
0000
0000
0692
cafe
2416
0000
0000
06c8
cafe
280f
0000
0000
064a
cafe
2c1f
0000
0000
061a
cafe
3007
0000
0000
05b3
cafe
3417
0000
0000
06f6
cafe
3808
0000
0000
0679
cafe
3c18
0000
0000
0605
cafe
2000
0000
0000
0699
cafe
2410
0000
0000
06d1
cafe
2809
0000
0000
06cf
cafe
2c19
0000
0000
07aa
cafe
3001
0000
0000
06a2
cafe
3411
0000
0000
0717
cafe
380a
0000
0000
066c
cafe
3c1a
0000
0000
0644
cafe
2002
0000
0000
05f9
cafe
2412
0000
0000
0656
cafe
280b
0000
0000
06da
cafe
2c1b
0000
0000
05bb
cafe
3003
0000
0000
0683
cafe
3413
0000
0000
0624
cafe
380c
0000
0000
069b
-
cafe
3c1c
0000
0000
0615
cafe
2004
0000
0000
06a0
cafe
2414
0000
0000
06b3
cafe
280d
0000
0000
068c
cafe
2c1d
0000
0000
0652
cafe
3005
0000
0000
060a
cafe
3415
0000
0000
06a3
cafe
380e
0000
0000
0684
cafe
3c1e
0000
0000
0724
cafe
2006
0000
0000
0680
cafe
2416
0000
0000
06af
cafe
280f
0000
0000
063d
cafe
2c1f
0000
0000
060a
cafe
3007
0000
0000
059b
cafe
3417
0000
0000
06dc
cafe
3808
0000
0000
0662
cafe
3c18
0000
0000
05f2
cafe
2000
0000
0000
067f
cafe
2410
0000
0000
06bc
cafe
2809
0000
0000
06b2
cafe
2c19
0000
0000
0799
cafe
3001
0000
0000
068c
cafe
3411
0000
0000
0703
cafe
380a
0000
0000
0658
cafe
3c1a
0000
0000
0636
cafe
2002
0000
0000
05e9
cafe
2412
0000
0000
0640
cafe
280b
0000
0000
06ca
cafe
2c1b
0000
0000
05a8
cafe
3003
0000
0000
0671
cafe
3413
0000
0000
060c
cafe
380c
0000
0000
0689
cafe
3c1c
0000
0000
05fb
cafe
2004
0000
0000
068f
cafe
2414
0000
0000
06a2
cafe
280d
0000
0000
067b
cafe
2c1d
0000
0000
0641
cafe
3005
0000
0000
05f8
cafe
3415
0000
0000
068e
cafe
380e
0000
0000
0664
cafe
3c1e
0000
0000
0711
cafe
2006
0000
0000
066e
cafe
2416
0000
0000
06a1
cafe
280f
0000
0000
0627
cafe
2c1f
0000
0000
05f5
cafe
3007
0000
0000
057f
cafe
3417
0000
0000
06ca
cafe
3808
0000
0000
0647
cafe
3c18
0000
0000
05dc
cafe
2000
0000
0000
0660
cafe
2410
0000
0000
06a5
cafe
-
2809
0000
0000
069d
cafe
2c19
0000
0000
0788
cafe
3001
0000
0000
067c
cafe
3411
0000
0000
06ee
cafe
380a
0000
0000
0639
cafe
3c1a
0000
0000
061c
cafe
2002
0000
0000
05d7
cafe
2412
0000
0000
062b
cafe
280b
0000
0000
06b6
cafe
2c1b
0000
0000
0591
cafe
3003
0000
0000
0652
cafe
3413
0000
0000
0600
cafe
380c
0000
0000
0670
cafe
3c1c
0000
0000
05e6
cafe
2004
0000
0000
0681
cafe
2414
0000
0000
0688
cafe
280d
0000
0000
0673
cafe
2c1d
0000
0000
0630
cafe
3005
0000
0000
05e3
cafe
3415
0000
0000
067f
cafe
380e
0000
0000
0655
cafe
3c1e
0000
0000
06fa
cafe
2006
0000
0000
065b
cafe
2416
0000
0000
068b
cafe
280f
0000
0000
0618
cafe
2c1f
0000
0000
05e4
cafe
3007
0000
0000
0565
cafe
3417
0000
0000
06ad
cafe
3808
0000
0000
062f
cafe
3c18
0000
0000
05ca
cafe
2000
0000
0000
064e
cafe
2410
0000
0000
068e
cafe
2809
0000
0000
0686
cafe
2c19
0000
0000
077b
cafe
3001
0000
0000
0663
cafe
3411
0000
0000
06dd
cafe
380a
0000
0000
0629
cafe
3c1a
0000
0000
0605
cafe
2002
0000
0000
05be
cafe
2412
0000
0000
0618
cafe
280b
0000
0000
06a4
cafe
2c1b
0000
0000
0574
cafe
3003
0000
0000
063f
cafe
3413
0000
0000
05e9
cafe
380c
0000
0000
0652
cafe
3c1c
0000
0000
05c7
cafe
2004
0000
0000
066a
cafe
2414
0000
0000
0668
cafe
280d
0000
0000
065f
cafe
2c1d
0000
0000
0622
cafe
3005
0000
0000
05c8
cafe
3415
-
0000
0000
0671
cafe
380e
0000
0000
063b
cafe
3c1e
0000
0000
06d9
cafe
2006
0000
0000
0648
cafe
2416
0000
0000
0670
cafe
280f
0000
0000
0607
cafe
2c1f
0000
0000
05d3
cafe
3007
0000
0000
054f
cafe
3417
0000
0000
069b
cafe
3808
0000
0000
061b
cafe
3c18
0000
0000
05b6
cafe
2000
0000
0000
0635
cafe
2410
0000
0000
0677
cafe
2809
0000
0000
0675
cafe
2c19
0000
0000
076a
cafe
3001
0000
0000
0648
cafe
3411
0000
0000
06ca
cafe
380a
0000
0000
061d
cafe
3c1a
0000
0000
05f2
cafe
2002
0000
0000
05a6
cafe
2412
0000
0000
0604
cafe
280b
0000
0000
068d
cafe
2c1b
0000
0000
0564
cafe
3003
0000
0000
062d
cafe
3413
0000
0000
05d1
cafe
380c
0000
0000
0640
cafe
3c1c
0000
0000
05b8
cafe
2004
0000
0000
065e
cafe
2414
0000
0000
065c
cafe
280d
0000
0000
0646
cafe
2c1d
0000
0000
0606
cafe
3005
0000
0000
05b9
cafe
3415
0000
0000
0652
cafe
380e
0000
0000
062b
cafe
3c1e
0000
0000
06c5
cafe
2006
0000
0000
0635
cafe
2416
0000
0000
0665
cafe
280f
0000
0000
05f3
cafe
2c1f
0000
0000
05be
cafe
3007
0000
0000
0537
cafe
3417
0000
0000
0682
cafe
3808
0000
0000
0608
cafe
3c18
0000
0000
05a4
cafe
2000
0000
0000
0621
cafe
2410
0000
0000
066d
cafe
2809
0000
0000
0663
cafe
2c19
0000
0000
0750
cafe
3001
0000
0000
0636
cafe
3411
0000
0000
06b7
cafe
380a
0000
0000
060d
cafe
3c1a
0000
0000
05da
cafe
2002
0000
-
0000
058e
cafe
2412
0000
0000
05f1
cafe
280b
0000
0000
0677
cafe
2c1b
0000
0000
054c
cafe
3003
0000
0000
0619
cafe
3413
0000
0000
05bb
cafe
380c
0000
0000
062d
cafe
3c1c
0000
0000
05a2
cafe
2004
0000
0000
064b
cafe
2414
0000
0000
064e
cafe
280d
0000
0000
0630
cafe
2c1d
0000
0000
05f6
cafe
3005
0000
0000
05a6
cafe
3415
0000
0000
0640
cafe
380e
0000
0000
0613
cafe
3c1e
0000
0000
06b2
cafe
2006
0000
0000
0621
cafe
2416
0000
0000
0659
cafe
280f
0000
0000
05d9
cafe
2c1f
0000
0000
05a4
cafe
3007
0000
0000
0520
cafe
3417
0000
0000
0666
cafe
3808
0000
0000
05f5
cafe
3c18
0000
0000
058b
cafe
2000
0000
0000
0606
cafe
2410
0000
0000
0652
cafe
2809
0000
0000
064a
cafe
2c19
0000
0000
0736
cafe
3001
0000
0000
061a
cafe
3411
0000
0000
06a4
cafe
380a
0000
0000
05fa
cafe
3c1a
0000
0000
05c3
cafe
2002
0000
0000
057c
cafe
2412
0000
0000
05de
cafe
280b
0000
0000
0665
cafe
2c1b
0000
0000
053d
cafe
3003
0000
0000
0604
cafe
3413
0000
0000
05ad
cafe
380c
0000
0000
061a
cafe
3c1c
0000
0000
0590
cafe
2004
0000
0000
0637
cafe
2414
0000
0000
063d
cafe
280d
0000
0000
0619
cafe
2c1d
0000
0000
05e4
cafe
3005
0000
0000
0590
cafe
3415
0000
0000
0627
cafe
380e
0000
0000
05ff
cafe
3c1e
0000
0000
069f
cafe
2006
0000
0000
060b
cafe
2416
0000
0000
0644
cafe
280f
0000
0000
05c5
cafe
2c1f
0000
0000
-
0592
cafe
3007
0000
0000
0512
cafe
3417
0000
0000
0655
cafe
3808
0000
0000
05e2
cafe
3c18
0000
0000
057d
cafe
2000
0000
0000
05f0
cafe
2410
0000
0000
063b
cafe
2809
0000
0000
0639
cafe
2c19
0000
0000
0727
cafe
3001
0000
0000
0603
cafe
3411
0000
0000
0690
cafe
380a
0000
0000
05ea
cafe
3c1a
0000
0000
05b0
cafe
2002
0000
0000
056d
cafe
2412
0000
0000
05cc
cafe
280b
0000
0000
0653
cafe
2c1b
0000
0000
052a
cafe
3003
0000
0000
05f2
cafe
3413
0000
0000
0595
cafe
380c
0000
0000
060a
cafe
3c1c
0000
0000
057b
cafe
2004
0000
0000
0629
cafe
2414
0000
0000
062c
cafe
280d
0000
0000
0601
cafe
2c1d
0000
0000
05ce
cafe
3005
0000
0000
0579
cafe
3415
0000
0000
0614
cafe
380e
0000
0000
05ec
cafe
3c1e
0000
0000
068d
cafe
2006
0000
0000
05f8
cafe
2416
0000
0000
0635
cafe
280f
0000
0000
05b2
cafe
2c1f
0000
0000
057a
cafe
3007
0000
0000
04f8
cafe
3417
0000
0000
0642
cafe
3808
0000
0000
05d2
cafe
3c18
0000
0000
0568
cafe
2000
0000
0000
05d9
cafe
2410
0000
0000
0627
cafe
2809
0000
0000
0624
cafe
2c19
0000
0000
070c
cafe
3001
0000
0000
05f2
cafe
3411
0000
0000
067b
cafe
380a
0000
0000
05d7
cafe
3c1a
0000
0000
059f
cafe
2002
0000
0000
0556
cafe
2412
0000
0000
05b1
cafe
280b
0000
0000
063d
cafe
2c1b
0000
0000
0518
cafe
3003
0000
0000
05dd
cafe
3413
0000
0000
0586
cafe
380c
0000
0000
05fb
-
cafe
3c1c
0000
0000
056a
cafe
2004
0000
0000
060d
cafe
2414
0000
0000
0619
cafe
280d
0000
0000
05eb
cafe
2c1d
0000
0000
05b6
cafe
3005
0000
0000
056a
cafe
3415
0000
0000
0606
cafe
380e
0000
0000
05db
cafe
3c1e
0000
0000
067c
cafe
2006
0000
0000
05e2
cafe
2416
0000
0000
0620
cafe
280f
0000
0000
05a6
cafe
2c1f
0000
0000
0562
cafe
3007
0000
0000
04e6
cafe
3417
0000
0000
0631
cafe
3808
0000
0000
05c7
cafe
3c18
0000
0000
055a
cafe
2000
0000
0000
05c2
cafe
2410
0000
0000
0619
cafe
2809
0000
0000
060f
cafe
2c19
0000
0000
06f9
cafe
3001
0000
0000
05de
cafe
3411
0000
0000
0660
cafe
380a
0000
0000
05c8
cafe
3c1a
0000
0000
0588
cafe
2002
0000
0000
0543
cafe
2412
0000
0000
05a2
cafe
280b
0000
0000
0623
cafe
2c1b
0000
0000
0506
cafe
3003
0000
0000
05ca
cafe
3413
0000
0000
0573
cafe
380c
0000
0000
05e6
cafe
3c1c
0000
0000
0557
cafe
2004
0000
0000
0600
cafe
2414
0000
0000
0603
cafe
280d
0000
0000
05d6
cafe
2c1d
0000
0000
05a4
cafe
3005
0000
0000
0553
cafe
3415
0000
0000
05f3
cafe
380e
0000
0000
05c7
cafe
3c1e
0000
0000
0664
cafe
2006
0000
0000
05d7
cafe
2416
0000
0000
060f
cafe
280f
0000
0000
059b
cafe
2c1f
0000
0000
054b
cafe
3007
0000
0000
04cf
cafe
3417
0000
0000
0620
cafe
3808
0000
0000
05b6
cafe
3c18
0000
0000
0541
cafe
2000
0000
0000
05af
cafe
2410
0000
0000
0604
cafe
-
