280a
5556
0990
01bc
cafe
2c1a
5556
0990
00f1
cafe
3002
5556
0990
01c9
cafe
3412
5556
0994
0108
cafe
380b
5556
0994
01b3
cafe
3c1b
5556
0994
00b1
cafe
2003
5556
0994
017b
cafe
2413
5556
0998
0183
cafe
280c
5556
0998
024f
cafe
2c1c
5556
0998
00e8
cafe
3004
5556
0998
014c
cafe
3414
5556
099c
016f
cafe
380d
5556
099c
01b8
cafe
3c1d
5556
099c
01bf
cafe
2005
5556
099c
0144
cafe
2415
5556
09a0
01ec
cafe
280e
5556
09a0
01b6
cafe
2c1e
5556
09a0
0179
cafe
3006
5556
09a0
0102
cafe
3416
5556
09a4
014c
cafe
380f
5556
09a4
01d2
cafe
3c1f
5556
09a4
011c
cafe
2007
5556
09a4
017b
cafe
2417
5556
09a8
0141
cafe
2808
5556
09a8
01c1
cafe
2c18
5556
09a8
00f9
cafe
3000
5556
09a8
01ea
cafe
3410
5556
09ac
0172
cafe
3809
5556
09ac
01b7
cafe
3c19
5556
09ac
01b3
cafe
2001
5556
09ac
0190
cafe
2411
5556
09b0
014b
cafe
280a
5556
09b0
01be
cafe
2c1a
5556
09b0
00f0
cafe
3002
5556
09b0
01cc
cafe
3412
5556
09b4
0107
cafe
380b
5556
09b4
01ac
cafe
3c1b
5556
09b4
00af
cafe
2003
5556
09b4
017a
cafe
2413
5556
09b8
017f
cafe
280c
5556
09b8
024f
cafe
2c1c
5556
09b8
00ee
cafe
3004
5556
09b8
0149
cafe
3414
5556
09bc
016b
cafe
380d
5556
09bc
01bf
cafe
3c1d
5556
09bc
01c4
cafe
2005
5556
09bc
0145
cafe
2415
5556
09c0
01f0
cafe
280e
5556
09c0
01b3
cafe
2c1e
5556
09c0
0176
cafe
3006
5556
09c0
0100
cafe
3416
-
5556
09c4
0149
cafe
380f
5556
09c4
01d3
cafe
3c1f
5556
09c4
0118
cafe
2007
5556
09c4
017d
cafe
2417
5556
09c8
013d
cafe
2808
5556
09c8
01bc
cafe
2c18
5556
09c8
0100
cafe
3000
5556
09c8
01ea
cafe
3410
5556
09cc
016b
cafe
3809
5556
09cc
01b4
cafe
3c19
5556
09cc
01b3
cafe
2001
5556
09cc
0185
cafe
2411
5556
09d0
0154
cafe
280a
5556
09d0
01c8
cafe
2c1a
5556
09d0
00f7
cafe
3002
5556
09d0
01d4
cafe
3412
5556
09d4
010e
cafe
380b
5556
09d4
01a5
cafe
3c1b
5556
09d4
00a4
cafe
2003
5556
09d4
0179
cafe
2413
5556
09d8
0177
cafe
280c
5556
09d8
024c
cafe
2c1c
5556
09d8
00f2
cafe
3004
5556
09d8
0143
cafe
3414
5556
09dc
0177
cafe
380d
5556
09dc
01b9
cafe
3c1d
5556
09dc
01be
cafe
2005
5556
09dc
014a
cafe
2415
5556
09e0
01ed
cafe
280e
5556
09e0
01b8
cafe
2c1e
5556
09e0
017d
cafe
3006
5556
09e0
0103
cafe
3416
5556
09e4
0156
cafe
380f
5556
09e4
01d5
cafe
3c1f
5556
09e4
0119
cafe
2007
5556
09e4
0174
cafe
2417
5556
09e8
013b
cafe
2808
5556
09e8
01ba
cafe
2c18
5556
09e8
00fd
cafe
3000
5556
09e8
01e4
cafe
3410
5556
09ec
016d
cafe
3809
5556
09ec
01b9
cafe
3c19
5556
09ec
01af
cafe
2001
5556
09ec
017a
cafe
2411
5556
09f0
014c
cafe
280a
5556
09f0
01ce
cafe
2c1a
5556
09f0
00f7
cafe
3002
5556
09f0
01d1
cafe
3412
5556
09f4
0106
cafe
380b
5556
09f4
01aa
cafe
3c1b
5556
09f4
00a9
cafe
2003
5556
-
09f4
017f
cafe
2413
5556
09f8
0175
cafe
280c
5556
09f8
0241
cafe
2c1c
5556
09f8
00f4
cafe
3004
5556
09f8
0148
cafe
3414
5556
09fc
0171
cafe
380d
5556
09fc
01b4
cafe
3c1d
5556
09fc
01bf
cafe
2005
5556
09fc
014c
cafe
2415
5556
0a00
01f3
cafe
280e
5556
0a00
01b8
cafe
2c1e
5556
0a00
0183
cafe
3006
5556
0a00
0104
cafe
3416
5556
0a04
015a
cafe
380f
5556
0a04
01dc
cafe
3c1f
5556
0a04
0117
cafe
2007
5556
0a04
017b
cafe
2417
5556
0a08
013a
cafe
2808
5556
0a08
01b7
cafe
2c18
5556
0a08
0101
cafe
3000
5556
0a08
01e9
cafe
3410
5556
0a0c
0165
cafe
3809
5556
0a0c
01bb
cafe
3c19
5556
0a0c
01af
cafe
2001
5556
0a0c
017d
cafe
2411
5556
0a10
0153
cafe
280a
5556
0a10
01ca
cafe
2c1a
5556
0a10
00eb
cafe
3002
5556
0a10
01d4
cafe
3412
5556
0a14
00fe
cafe
380b
5556
0a14
01a8
cafe
3c1b
5556
0a14
00ad
cafe
2003
5556
0a14
0183
cafe
2413
5556
0a18
017a
cafe
280c
5556
0a18
0240
cafe
2c1c
5556
0a18
00f3
cafe
3004
5556
0a18
014d
cafe
3414
5556
0a1c
0178
cafe
380d
5556
0a1c
01ba
cafe
3c1d
5556
0a1c
01c5
cafe
2005
5556
0a1c
0148
cafe
2415
5556
0a20
01f1
cafe
280e
5556
0a20
01be
cafe
2c1e
5556
0a20
0183
cafe
3006
5556
0a20
0103
cafe
3416
5556
0a24
0154
cafe
380f
5556
0a24
01e0
cafe
3c1f
5556
0a24
0116
cafe
2007
5556
0a24
017d
cafe
2417
5556
0a28
0140
cafe
2808
5556
0a28
01c2
cafe
2c18
5556
0a28
-
0105
cafe
3000
5556
0a28
01e4
cafe
3410
5556
0a2c
016b
cafe
3809
5556
0a2c
01c1
cafe
3c19
5556
0a2c
01b2
cafe
2001
5556
0a2c
0189
cafe
2411
5556
0a30
0153
cafe
280a
5556
0a30
01c3
cafe
2c1a
5556
0a30
00f0
cafe
3002
5556
0a30
01cb
cafe
3412
5556
0a34
0101
cafe
380b
5556
0a34
01a8
cafe
3c1b
5556
0a34
00a9
cafe
2003
5556
0a34
0181
cafe
2413
5556
0a38
0172
cafe
280c
5556
0a38
0247
cafe
2c1c
5556
0a38
00f3
cafe
3004
5556
0a38
0148
cafe
3414
5556
0a3c
016d
cafe
380d
5556
0a3c
01be
cafe
3c1d
5556
0a3c
01c0
cafe
2005
5556
0a3c
0143
cafe
2415
5556
0a40
01ee
cafe
280e
5556
0a40
01b9
cafe
2c1e
5556
0a40
0187
cafe
3006
5556
0a40
0102
cafe
3416
5556
0a44
0154
cafe
380f
5556
0a44
01d9
cafe
3c1f
5556
0a44
0116
cafe
2007
5556
0a44
0184
cafe
2417
5556
0a48
013b
cafe
2808
5556
0a48
01ba
cafe
2c18
5556
0a48
0108
cafe
3000
5556
0a48
01df
cafe
3410
5556
0a4c
0178
cafe
3809
5556
0a4c
01c1
cafe
3c19
5556
0a4c
01ab
cafe
2001
5556
0a4c
018c
cafe
2411
5556
0a50
0141
cafe
280a
5556
0a50
01cf
cafe
2c1a
5556
0a50
00f5
cafe
3002
5556
0a50
01cf
cafe
3412
5556
0a54
0103
cafe
380b
5556
0a54
01a6
cafe
3c1b
5556
0a54
00ab
cafe
2003
5556
0a54
017d
cafe
2413
5556
0a58
0175
cafe
280c
5556
0a58
0244
cafe
2c1c
5556
0a58
00ee
cafe
3004
5556
0a58
0152
cafe
3414
5556
0a5c
016b
cafe
380d
5556
0a5c
01bf
-
cafe
3c1d
5556
0a5c
01c2
cafe
2005
5556
0a5c
0141
cafe
2415
5556
0a60
01ee
cafe
280e
5556
0a60
01bf
cafe
2c1e
5556
0a60
0189
cafe
3006
5556
0a60
0105
cafe
3416
5556
0a64
0152
cafe
380f
5556
0a64
01dd
cafe
3c1f
5556
0a64
0118
cafe
2007
5556
0a64
017f
cafe
2417
5556
0a68
013f
cafe
2808
5556
0a68
01b7
cafe
2c18
5556
0a68
010e
cafe
3000
5556
0a68
01df
cafe
3410
5556
0a6c
0172
cafe
3809
5556
0a6c
01d0
cafe
3c19
5556
0a6c
01a9
cafe
2001
5556
0a6c
0195
cafe
2411
5556
0a70
0144
cafe
280a
5556
0a70
01c9
cafe
2c1a
5556
0a70
00ef
cafe
3002
5556
0a70
01c7
cafe
3412
5556
0a74
0106
cafe
380b
5556
0a74
01a0
cafe
3c1b
5556
0a74
00b1
cafe
2003
5556
0a74
0180
cafe
2413
5556
0a78
0178
cafe
280c
5556
0a78
0245
cafe
2c1c
5556
0a78
00e8
cafe
3004
5556
0a78
014b
cafe
3414
5556
0a7c
016d
cafe
380d
5556
0a7c
01cb
cafe
3c1d
5556
0a7c
01c2
cafe
2005
5556
0a7c
0145
cafe
2415
5556
0a80
01f3
cafe
280e
5556
0a80
01bb
cafe
2c1e
5556
0a80
0181
cafe
3006
5556
0a80
0105
cafe
3416
5556
0a84
014c
cafe
380f
5556
0a84
01db
cafe
3c1f
5556
0a84
011e
cafe
2007
5556
0a84
0177
cafe
2417
5556
0a88
0149
cafe
2808
5556
0a88
01b1
cafe
2c18
5556
0a88
010a
cafe
3000
5556
0a88
01da
cafe
3410
5556
0a8c
016e
cafe
3809
5556
0a8c
01cf
cafe
3c19
5556
0a8c
01aa
cafe
2001
5556
0a8c
0194
cafe
2411
5556
0a90
014a
cafe
-
280a
5556
0a90
01c3
cafe
2c1a
5556
0a90
00ee
cafe
3002
5556
0a90
01cd
cafe
3412
5556
0a94
010b
cafe
380b
5556
0a94
01ae
cafe
3c1b
5556
0a94
00b2
cafe
2003
5556
0a94
0177
cafe
2413
5556
0a98
0176
cafe
280c
5556
0a98
024d
cafe
2c1c
5556
0a98
00ee
cafe
3004
5556
0a98
014e
cafe
3414
5556
0a9c
016d
cafe
380d
5556
0a9c
01c3
cafe
3c1d
5556
0a9c
01b9
cafe
2005
5556
0a9c
0142
cafe
2415
5556
0aa0
01f1
cafe
280e
5556
0aa0
01b8
cafe
2c1e
5556
0aa0
0185
cafe
3006
5556
0aa0
0104
cafe
3416
5556
0aa4
0149
cafe
380f
5556
0aa4
01da
cafe
3c1f
5556
0aa4
011d
cafe
2007
5556
0aa4
017b
cafe
2417
5556
0aa8
0142
cafe
2808
5556
0aa8
01ac
cafe
2c18
5556
0aa8
010a
cafe
3000
5556
0aa8
01d7
cafe
3410
5556
0aac
0160
cafe
3809
5556
0aac
01c5
cafe
3c19
5556
0aac
01a3
cafe
2001
5556
0aac
0190
cafe
2411
5556
0ab0
0158
cafe
280a
5556
0ab0
01c1
cafe
2c1a
5556
0ab0
00ed
cafe
3002
5556
0ab0
01d1
cafe
3412
5556
0ab4
0113
cafe
380b
5556
0ab4
01a9
cafe
3c1b
5556
0ab4
00bc
cafe
2003
5556
0ab4
016e
cafe
2413
5556
0ab8
0180
cafe
280c
5556
0ab8
024a
cafe
2c1c
5556
0ab8
00ee
cafe
3004
5556
0ab8
0154
cafe
3414
5556
0abc
016d
cafe
380d
5556
0abc
01c4
cafe
3c1d
5556
0abc
01bb
cafe
2005
5556
0abc
013e
cafe
2415
5556
0ac0
01f0
cafe
280e
5556
0ac0
01b1
cafe
2c1e
5556
0ac0
0181
cafe
3006
5556
0ac0
0106
cafe
3416
-
5556
0ac4
0145
cafe
380f
5556
0ac4
01e2
cafe
3c1f
5556
0ac4
011e
cafe
2007
5556
0ac4
0174
cafe
2417
5556
0ac8
0143
cafe
2808
5556
0ac8
01ac
cafe
2c18
5556
0ac8
0105
cafe
3000
5556
0ac8
01da
cafe
3410
5556
0acc
0168
cafe
3809
5556
0acc
01c1
cafe
3c19
5556
0acc
01ab
cafe
2001
5556
0acc
0191
cafe
2411
5556
0ad0
014e
cafe
280a
5556
0ad0
01c4
cafe
2c1a
5556
0ad0
00e8
cafe
3002
5556
0ad0
01d2
cafe
3412
5556
0ad4
010d
cafe
380b
5556
0ad4
01ae
cafe
3c1b
5556
0ad4
00bd
cafe
2003
5556
0ad4
016f
cafe
2413
5556
0ad8
017d
cafe
280c
5556
0ad8
024d
cafe
2c1c
5556
0ad8
00ed
cafe
3004
5556
0ad8
0157
cafe
3414
5556
0adc
0164
cafe
380d
5556
0adc
01c1
cafe
3c1d
5556
0adc
01c5
cafe
2005
5556
0adc
0139
cafe
2415
5556
0ae0
01f7
cafe
280e
5556
0ae0
01ad
cafe
2c1e
5556
0ae0
0179
cafe
3006
5556
0ae0
00fd
cafe
3416
5556
0ae4
0148
cafe
380f
5556
0ae4
01e8
cafe
3c1f
5556
0ae4
0123
cafe
2007
5556
0ae4
0174
cafe
2417
5556
0ae8
0147
cafe
2808
5556
0ae8
01b4
cafe
2c18
5556
0ae8
0104
cafe
3000
5556
0ae8
01d1
cafe
3410
5556
0aec
0167
cafe
3809
5556
0aec
01c1
cafe
3c19
5556
0aec
01ae
cafe
2001
5556
0aec
018d
cafe
2411
5556
0af0
0154
cafe
280a
5556
0af0
01c6
cafe
2c1a
5556
0af0
00ef
cafe
3002
5556
0af0
01d3
cafe
3412
5556
0af4
0106
cafe
380b
5556
0af4
01b3
cafe
3c1b
5556
0af4
00ad
cafe
2003
5556
-
0af4
0176
cafe
2413
5556
0af8
0182
cafe
280c
5556
0af8
0246
cafe
2c1c
5556
0af8
00f4
cafe
3004
5556
0af8
0155
cafe
3414
5556
0afc
0163
cafe
380d
5556
0afc
01bf
cafe
3c1d
5556
0afc
01c5
cafe
2005
5556
0afc
0136
cafe
2415
5556
0b00
01f9
cafe
280e
5556
0b00
01b1
cafe
2c1e
5556
0b00
0176
cafe
3006
5556
0b00
00fa
cafe
3416
5556
0b04
0145
cafe
380f
5556
0b04
01db
cafe
3c1f
5556
0b04
0127
cafe
2007
5556
0b04
017d
cafe
2417
5556
0b08
0140
cafe
2808
5556
0b08
01bb
cafe
2c18
5556
0b08
0106
cafe
3000
5556
0b08
01d8
cafe
3410
5556
0b0c
0168
cafe
3809
5556
0b0c
01c2
cafe
3c19
5556
0b0c
01b8
cafe
2001
5556
0b0c
0183
cafe
2411
5556
0b10
0158
cafe
280a
5556
0b10
01c1
cafe
2c1a
5556
0b10
00f6
cafe
3002
5556
0b10
01cf
cafe
3412
5556
0b14
010a
cafe
380b
5556
0b14
01b2
cafe
3c1b
5556
0b14
00b0
cafe
2003
5556
0b14
017c
cafe
2413
5556
0b18
017a
cafe
280c
5556
0b18
0249
cafe
2c1c
5556
0b18
00e3
cafe
3004
5556
0b18
014f
cafe
3414
5556
0b1c
015b
cafe
380d
5556
0b1c
01c4
cafe
3c1d
5556
0b1c
01be
cafe
2005
5556
0b1c
0144
cafe
2415
5556
0b20
01f8
cafe
280e
5556
0b20
01b3
cafe
2c1e
5556
0b20
0172
cafe
3006
5556
0b20
00f8
cafe
3416
5556
0b24
013c
cafe
380f
5556
0b24
01d6
cafe
3c1f
5556
0b24
0128
cafe
2007
5556
0b24
017b
cafe
2417
5556
0b28
0145
cafe
2808
5556
0b28
01c3
cafe
2c18
5556
0b28
-
010d
cafe
3000
5556
0b28
01cd
cafe
3410
5556
0b2c
0168
cafe
3809
5556
0b2c
01c1
cafe
3c19
5556
0b2c
01b7
cafe
2001
5556
0b2c
0184
cafe
2411
5556
0b30
015d
cafe
280a
5556
0b30
01c4
cafe
2c1a
5556
0b30
00f0
cafe
3002
5556
0b30
01d1
cafe
3412
5556
0b34
0106
cafe
380b
5556
0b34
01b1
cafe
3c1b
5556
0b34
00ac
cafe
2003
5556
0b34
017c
cafe
2413
5556
0b38
0179
cafe
280c
5556
0b38
023f
cafe
2c1c
5556
0b38
00e9
cafe
3004
5556
0b38
014e
cafe
3414
5556
0b3c
0161
cafe
380d
5556
0b3c
01c1
cafe
3c1d
5556
0b3c
01c1
cafe
2005
5556
0b3c
013f
cafe
2415
5556
0b40
01f7
cafe
280e
5556
0b40
01ae
cafe
2c1e
5556
0b40
0171
cafe
3006
5556
0b40
0100
cafe
3416
5556
0b44
013a
cafe
380f
5556
0b44
01da
cafe
3c1f
5556
0b44
0129
cafe
2007
5556
0b44
017b
cafe
2417
5556
0b48
0142
cafe
2808
5556
0b48
01bb
cafe
2c18
5556
0b48
0103
cafe
3000
5556
0b48
01cb
cafe
3410
5556
0b4c
0162
cafe
3809
5556
0b4c
01c5
cafe
3c19
5556
0b4c
01ba
cafe
2001
5556
0b4c
017f
cafe
2411
5556
0b50
0156
cafe
280a
5556
0b50
01c2
cafe
2c1a
5556
0b50
00ef
cafe
3002
5556
0b50
01d7
cafe
3412
5556
0b54
0109
cafe
380b
5556
0b54
01a3
cafe
3c1b
5556
0b54
00aa
cafe
2003
5556
0b54
0178
cafe
2413
5556
0b58
0176
cafe
280c
5556
0b58
0241
cafe
2c1c
5556
0b58
00e7
cafe
3004
5556
0b58
014e
cafe
3414
5556
0b5c
0152
cafe
380d
5556
0b5c
01ac
-
cafe
3c1d
5556
0b5c
01bc
cafe
2005
5556
0b5c
0137
cafe
2415
5556
0b60
01f1
cafe
280e
5556
0b60
01a4
cafe
2c1e
5556
0b60
017a
cafe
3006
5556
0b60
00ff
cafe
3416
5556
0b64
013f
cafe
380f
5556
0b64
01dc
cafe
3c1f
5556
0b64
0119
cafe
2007
5556
0b64
017a
cafe
2417
5556
0b68
0140
cafe
2808
5556
0b68
01b6
cafe
2c18
5556
0b68
00fe
cafe
3000
5556
0b68
01cf
cafe
3410
5556
0b6c
0164
cafe
3809
5556
0b6c
01c9
cafe
3c19
5556
0b6c
01c0
cafe
2001
5556
0b6c
0188
cafe
2411
5556
0b70
0151
cafe
280a
5556
0b70
01b8
cafe
2c1a
5556
0b70
00fd
cafe
3002
5556
0b70
01d5
cafe
3412
5556
0b74
00fd
cafe
380b
5556
0b74
01a9
cafe
3c1b
5556
0b74
00ab
cafe
2003
5556
0b74
0178
cafe
2413
5556
0b78
017b
cafe
280c
5556
0b78
0248
cafe
2c1c
5556
0b78
00e9
cafe
3004
5556
0b78
0154
cafe
3414
5556
0b7c
015d
cafe
380d
5556
0b7c
01b8
cafe
3c1d
5556
0b7c
01c2
cafe
2005
5556
0b7c
0133
cafe
2415
5556
0b80
01f9
cafe
280e
5556
0b80
01af
cafe
2c1e
5556
0b80
0180
cafe
3006
5556
0b80
00ff
cafe
3416
5556
0b84
014a
cafe
380f
5556
0b84
01df
cafe
3c1f
5556
0b84
011d
cafe
2007
5556
0b84
017e
cafe
2417
5556
0b88
013b
cafe
2808
5556
0b88
01bc
cafe
2c18
5556
0b88
00fc
cafe
3000
5556
0b88
01c9
cafe
3410
5556
0b8c
016e
cafe
3809
5556
0b8c
01c4
cafe
3c19
5556
0b8c
01bc
cafe
2001
5556
0b8c
018a
cafe
2411
5556
0b90
0159
cafe
-
280a
5556
0b90
01b7
cafe
2c1a
5556
0b90
00f7
cafe
3002
5556
0b90
01dc
cafe
3412
5556
0b94
0100
cafe
380b
5556
0b94
01b2
cafe
3c1b
5556
0b94
00b9
cafe
2003
5556
0b94
0175
cafe
2413
5556
0b98
0182
cafe
280c
5556
0b98
0250
cafe
2c1c
5556
0b98
00ed
cafe
3004
5556
0b98
0155
cafe
3414
5556
0b9c
0163
cafe
380d
5556
0b9c
01be
cafe
3c1d
5556
0b9c
01cb
cafe
2005
5556
0b9c
0136
cafe
2415
5556
0ba0
01f7
cafe
280e
5556
0ba0
01ab
cafe
2c1e
5556
0ba0
0179
cafe
3006
5556
0ba0
00fc
cafe
3416
5556
0ba4
014c
cafe
380f
5556
0ba4
01de
cafe
3c1f
5556
0ba4
0121
cafe
2007
5556
0ba4
017f
cafe
2417
5556
0ba8
013b
cafe
2808
5556
0ba8
01be
cafe
2c18
5556
0ba8
00ff
cafe
3000
5556
0ba8
01cb
cafe
3410
5556
0bac
016c
cafe
3809
5556
0bac
01bd
cafe
3c19
5556
0bac
01b6
cafe
2001
5556
0bac
0189
cafe
2411
5556
0bb0
015e
cafe
280a
5556
0bb0
01be
cafe
2c1a
5556
0bb0
00ed
cafe
3002
5556
0bb0
01de
cafe
3412
5556
0bb4
00fd
cafe
380b
5556
0bb4
01b0
cafe
3c1b
5556
0bb4
00bb
cafe
2003
5556
0bb4
0168
cafe
2413
5556
0bb8
017f
cafe
280c
5556
0bb8
024d
cafe
2c1c
5556
0bb8
00f1
cafe
3004
5556
0bb8
0157
cafe
3414
5556
0bbc
016c
cafe
380d
5556
0bbc
0233
cafe
3c1d
5556
0bbc
0242
cafe
2005
5556
0bbc
01a3
cafe
2415
5556
0bc0
0264
cafe
280e
5556
0bc0
033b
cafe
2c1e
5556
0bc0
0319
cafe
3006
5556
0bc0
02a5
cafe
3416
-
5556
0bc4
02e7
cafe
380f
5556
0bc4
0488
cafe
3c1f
5556
0bc4
03cd
cafe
2007
5556
0bc4
0414
cafe
2417
5556
0bc8
03dd
cafe
2808
5556
0bc8
0549
cafe
2c18
5556
0bc8
0491
cafe
3000
5556
0bc8
0553
cafe
3410
5556
0bcc
04fc
cafe
3809
5556
0bcc
05f4
cafe
3c19
5556
0bcc
0607
cafe
2001
5556
0bcc
05b1
cafe
2411
5556
0bd0
05ad
cafe
280a
5556
0bd0
06a3
cafe
2c1a
5556
0bd0
05d7
cafe
3002
5556
0bd0
06a8
cafe
3412
5556
0bd4
05f0
cafe
380b
5556
0bd4
06f9
cafe
3c1b
5556
0bd4
060c
cafe
2003
5556
0bd4
06ae
cafe
2413
5556
0bd8
06e9
cafe
280c
5556
0bd8
0811
cafe
2c1c
5556
0bd8
06c1
cafe
3004
5556
0bd8
06ff
cafe
3414
5556
0bdc
073d
cafe
380d
5556
0bdc
07d1
cafe
3c1d
5556
0bdc
07d7
cafe
2005
5556
0bdc
072d
cafe
2415
5556
0be0
07fe
cafe
280e
5556
0be0
0806
cafe
2c1e
5556
0be0
07e9
cafe
3006
5556
0be0
074f
cafe
3416
5556
0be4
07a2
cafe
380f
5556
0be4
086d
cafe
3c1f
5556
0be4
07b5
cafe
2007
5556
0be4
07ec
cafe
2417
5556
0be8
07c5
cafe
2808
5556
0be8
086d
cafe
2c18
5556
0be8
07b6
cafe
3000
5556
0be8
0892
cafe
3410
5556
0bec
0839
cafe
3809
5556
0bec
0881
cafe
3c19
5556
0bec
08a6
cafe
2001
5556
0bec
0852
cafe
2411
5556
0bf0
0834
cafe
280a
5556
0bf0
08cc
cafe
2c1a
5556
0bf0
07ff
cafe
3002
5556
0bf0
08c2
cafe
3412
5556
0bf4
080e
cafe
380b
5556
0bf4
08a6
cafe
3c1b
5556
0bf4
07b9
cafe
2003
5556
-
0bf4
0861
cafe
2413
5556
0bf8
08a6
cafe
280c
5556
0bf8
097d
cafe
2c1c
5556
0bf8
0824
cafe
3004
5556
0bf8
0861
cafe
3414
5556
0bfc
08a3
cafe
380d
5556
0bfc
08f3
cafe
3c1d
5556
0bfc
0907
cafe
2005
5556
0bfc
0849
cafe
2415
5556
0c00
0918
cafe
280e
5556
0c00
08f4
cafe
2c1e
5556
0c00
08de
cafe
3006
5556
0c00
081a
cafe
3416
5556
0c04
0883
cafe
380f
5556
0c04
090e
cafe
3c1f
5556
0c04
0862
cafe
2007
5556
0c04
08a5
cafe
2417
5556
0c08
0877
cafe
2808
5556
0c08
08f7
cafe
2c18
5556
0c08
0844
cafe
3000
5556
0c08
091d
cafe
3410
5556
0c0c
08c0
cafe
3809
5556
0c0c
08e4
cafe
3c19
5556
0c0c
0908
cafe
2001
5556
0c0c
08bc
cafe
2411
5556
0c10
0890
cafe
280a
5556
0c10
0914
cafe
2c1a
5556
0c10
0855
cafe
3002
5556
0c10
0903
cafe
3412
5556
0c14
084f
cafe
380b
5556
0c14
08c8
cafe
3c1b
5556
0c14
07e5
cafe
2003
5556
0c14
0898
cafe
2413
5556
0c18
08d2
cafe
280c
5556
0c18
0998
cafe
2c1c
5556
0c18
083f
cafe
3004
5556
0c18
087b
cafe
3414
5556
0c1c
08b4
cafe
380d
5556
0c1c
08fe
cafe
3c1d
5556
0c1c
0911
cafe
2005
5556
0c1c
0854
cafe
2415
5556
0c20
092f
cafe
280e
5556
0c20
08f5
cafe
2c1e
5556
0c20
08dd
cafe
3006
5556
0c20
080a
cafe
3416
5556
0c24
0875
cafe
380f
5556
0c24
08fc
cafe
3c1f
5556
0c24
084e
cafe
2007
5556
0c24
088f
cafe
2417
5556
0c28
0868
cafe
2808
5556
0c28
08e5
cafe
2c18
5556
0c28
-
0822
cafe
3000
5556
0c28
0901
cafe
3410
5556
0c2c
08aa
cafe
3809
5556
0c2c
08ba
cafe
3c19
5556
0c2c
08e6
cafe
2001
5556
0c2c
0896
cafe
2411
5556
0c30
085f
cafe
280a
5556
0c30
08ee
cafe
2c1a
5556
0c30
0822
cafe
3002
5556
0c30
08d6
cafe
3412
5556
0c34
0821
cafe
380b
5556
0c34
089b
cafe
3c1b
5556
0c34
07b1
cafe
2003
5556
0c34
086b
cafe
2413
5556
0c38
089e
cafe
280c
5556
0c38
096c
cafe
2c1c
5556
0c38
0802
cafe
3004
5556
0c38
0846
cafe
3414
5556
0c3c
0876
cafe
380d
5556
0c3c
08bb
cafe
3c1d
5556
0c3c
08d4
cafe
2005
5556
0c3c
081a
cafe
2415
5556
0c40
08fe
cafe
280e
5556
0c40
08bf
cafe
2c1e
5556
0c40
08a0
cafe
3006
5556
0c40
07cb
cafe
3416
5556
0c44
0843
cafe
380f
5556
0c44
08b4
cafe
3c1f
5556
0c44
080e
cafe
2007
5556
0c44
0843
cafe
2417
5556
0c48
081f
cafe
2808
5556
0c48
089d
cafe
2c18
5556
0c48
07da
cafe
3000
5556
0c48
08c9
cafe
3410
5556
0c4c
086b
cafe
3809
5556
0c4c
0884
cafe
3c19
5556
0c4c
08a3
cafe
2001
5556
0c4c
085e
cafe
2411
5556
0c50
0818
cafe
280a
5556
0c50
08b3
cafe
2c1a
5556
0c50
07de
cafe
3002
5556
0c50
0893
cafe
3412
5556
0c54
07d6
cafe
380b
5556
0c54
0858
cafe
3c1b
5556
0c54
076c
cafe
2003
5556
0c54
0825
cafe
2413
5556
0c58
085b
cafe
280c
5556
0c58
0929
cafe
2c1c
5556
0c58
07c2
cafe
3004
5556
0c58
07fb
cafe
3414
5556
0c5c
083a
cafe
380d
5556
0c5c
086f
-
cafe
3c1d
5556
0c5c
0893
cafe
2005
5556
0c5c
07c5
cafe
2415
5556
0c60
08b6
cafe
280e
5556
0c60
0879
cafe
2c1e
5556
0c60
0852
cafe
3006
5556
0c60
077c
cafe
3416
5556
0c64
07f5
cafe
380f
5556
0c64
086e
cafe
3c1f
5556
0c64
07c4
cafe
2007
5556
0c64
07f6
cafe
2417
5556
0c68
07d7
cafe
2808
5556
0c68
0852
cafe
2c18
5556
0c68
0797
cafe
3000
5556
0c68
0887
cafe
3410
5556
0c6c
081c
cafe
3809
5556
0c6c
0831
cafe
3c19
5556
0c6c
0856
cafe
2001
5556
0c6c
0810
cafe
2411
5556
0c70
07d9
cafe
280a
5556
0c70
086c
cafe
2c1a
5556
0c70
0790
cafe
3002
5556
0c70
0845
cafe
3412
5556
0c74
078d
cafe
380b
5556
0c74
080e
cafe
3c1b
5556
0c74
0718
cafe
2003
5556
0c74
07e2
cafe
2413
5556
0c78
0818
cafe
280c
5556
0c78
08e1
cafe
2c1c
5556
0c78
0768
cafe
3004
5556
0c78
07ba
cafe
3414
5556
0c7c
07f2
cafe
380d
5556
0c7c
082f
cafe
3c1d
5556
0c7c
0855
cafe
2005
5556
0c7c
0783
cafe
2415
5556
0c80
086c
cafe
280e
5556
0c80
0820
cafe
2c1e
5556
0c80
0807
cafe
3006
5556
0c80
072c
cafe
3416
5556
0c84
07a3
cafe
380f
5556
0c84
0820
cafe
3c1f
5556
0c84
0773
cafe
2007
5556
0c84
07ac
cafe
2417
5556
0c88
0788
cafe
2808
5556
0c88
0806
cafe
2c18
5556
0c88
0744
cafe
3000
5556
0c88
083b
cafe
3410
5556
0c8c
07d7
cafe
3809
5556
0c8c
07e9
cafe
3c19
5556
0c8c
0814
cafe
2001
5556
0c8c
07ce
cafe
2411
5556
0c90
0780
cafe
-
280a
5556
0c90
081e
cafe
2c1a
5556
0c90
0741
cafe
3002
5556
0c90
07ff
cafe
3412
5556
0c94
073f
cafe
380b
5556
0c94
07c6
cafe
3c1b
5556
0c94
06d3
cafe
2003
5556
0c94
078e
cafe
2413
5556
0c98
07cb
cafe
280c
5556
0c98
08a1
cafe
2c1c
5556
0c98
071a
cafe
3004
5556
0c98
076d
cafe
3414
5556
0c9c
07ac
cafe
380d
5556
0c9c
07ea
cafe
3c1d
5556
0c9c
0811
cafe
2005
5556
0c9c
073f
cafe
2415
5556
0ca0
0820
cafe
280e
5556
0ca0
07e9
cafe
2c1e
5556
0ca0
07bf
cafe
3006
5556
0ca0
06da
cafe
3416
5556
0ca4
075e
cafe
380f
5556
0ca4
07ce
cafe
3c1f
5556
0ca4
0724
cafe
2007
5556
0ca4
0768
cafe
2417
5556
0ca8
0741
cafe
2808
5556
0ca8
07bb
cafe
2c18
5556
0ca8
06f9
cafe
3000
5556
0ca8
07f6
cafe
3410
5556
0cac
0790
cafe
3809
5556
0cac
0795
cafe
3c19
5556
0cac
07c8
cafe
2001
5556
0cac
0786
cafe
2411
5556
0cb0
0743
cafe
280a
5556
0cb0
07dc
cafe
2c1a
5556
0cb0
06fa
cafe
3002
5556
0cb0
07ba
cafe
3412
5556
0cb4
06ff
cafe
380b
5556
0cb4
077b
cafe
3c1b
5556
0cb4
0689
cafe
2003
5556
0cb4
0747
cafe
2413
5556
0cb8
077f
cafe
280c
5556
0cb8
0858
cafe
2c1c
5556
0cb8
06d6
cafe
3004
5556
0cb8
0722
cafe
3414
5556
0cbc
075d
cafe
380d
5556
0cbc
07a9
cafe
3c1d
5556
0cbc
07ca
cafe
2005
5556
0cbc
0701
cafe
2415
5556
0cc0
07dd
cafe
280e
5556
0cc0
07ab
cafe
2c1e
5556
0cc0
076f
cafe
3006
5556
0cc0
0698
cafe
3416
-
5556
0cc4
0715
cafe
380f
5556
0cc4
078b
cafe
3c1f
5556
0cc4
06e1
cafe
2007
5556
0cc4
0712
cafe
2417
5556
0cc8
06fa
cafe
2808
5556
0cc8
077c
cafe
2c18
5556
0cc8
06b8
cafe
3000
5556
0cc8
07b5
cafe
3410
5556
0ccc
073b
cafe
3809
5556
0ccc
075a
cafe
3c19
5556
0ccc
0785
cafe
2001
5556
0ccc
073e
cafe
2411
5556
0cd0
0700
cafe
280a
5556
0cd0
07a2
cafe
2c1a
5556
0cd0
06b5
cafe
3002
5556
0cd0
076e
cafe
3412
5556
0cd4
06ba
cafe
380b
5556
0cd4
0730
cafe
3c1b
5556
0cd4
0647
cafe
2003
5556
0cd4
0706
cafe
2413
5556
0cd8
073c
cafe
280c
5556
0cd8
081d
cafe
2c1c
5556
0cd8
068c
cafe
3004
5556
0cd8
06dd
cafe
3414
5556
0cdc
0719
cafe
380d
5556
0cdc
0766
cafe
3c1d
5556
0cdc
0788
cafe
2005
5556
0cdc
06ba
cafe
2415
5556
0ce0
079c
cafe
280e
5556
0ce0
0762
cafe
2c1e
5556
0ce0
072e
cafe
3006
5556
0ce0
0654
cafe
3416
5556
0ce4
06cd
cafe
380f
5556
0ce4
0744
cafe
3c1f
5556
0ce4
0698
cafe
2007
5556
0ce4
06d3
cafe
2417
5556
0ce8
06a9
cafe
2808
5556
0ce8
073b
cafe
2c18
5556
0ce8
066e
cafe
3000
5556
0ce8
077b
cafe
3410
5556
0cec
0703
cafe
3809
5556
0cec
0722
cafe
3c19
5556
0cec
0743
cafe
2001
5556
0cec
0704
cafe
2411
5556
0cf0
06bf
cafe
280a
5556
0cf0
0766
cafe
2c1a
5556
0cf0
066c
cafe
3002
5556
0cf0
0730
cafe
3412
5556
0cf4
0673
cafe
380b
5556
0cf4
06ec
cafe
3c1b
5556
0cf4
0601
cafe
2003
5556
-
0cf4
06bf
cafe
2413
5556
0cf8
0704
cafe
280c
5556
0cf8
07dd
cafe
2c1c
5556
0cf8
064a
cafe
3004
5556
0cf8
069e
cafe
3414
5556
0cfc
06e1
cafe
380d
5556
0cfc
0727
cafe
3c1d
5556
0cfc
0746
cafe
2005
5556
0cfc
0672
cafe
2415
5556
0d00
0761
cafe
280e
5556
0d00
0727
cafe
2c1e
5556
0d00
06e8
cafe
3006
5556
0d00
060c
cafe
3416
5556
0d04
0682
cafe
380f
5556
0d04
0705
cafe
3c1f
5556
0d04
0659
cafe
2007
5556
0d04
0695
cafe
2417
5556
0d08
066f
cafe
2808
5556
0d08
06fc
cafe
2c18
5556
0d08
062a
cafe
3000
5556
0d08
0733
cafe
3410
5556
0d0c
06bf
cafe
3809
5556
0d0c
06e8
cafe
3c19
5556
0d0c
06fb
cafe
2001
5556
0d0c
06c2
cafe
2411
5556
0d10
067d
cafe
280a
5556
0d10
0723
cafe
2c1a
5556
0d10
0627
cafe
3002
5556
0d10
06f8
cafe
3412
5556
0d14
0629
cafe
380b
5556
0d14
06a9
cafe
3c1b
5556
0d14
05c6
cafe
2003
5556
0d14
0675
cafe
2413
5556
0d18
06c7
cafe
280c
5556
0d18
079e
cafe
2c1c
5556
0d18
05fe
cafe
3004
5556
0d18
0663
cafe
3414
5556
0d1c
069f
cafe
380d
5556
0d1c
06e8
cafe
3c1d
5556
0d1c
0712
cafe
2005
5556
0d1c
0636
cafe
2415
5556
0d20
0721
cafe
280e
5556
0d20
06e8
cafe
2c1e
5556
0d20
06b4
cafe
3006
5556
0d20
05cd
cafe
3416
5556
0d24
0640
cafe
380f
5556
0d24
06c9
cafe
3c1f
5556
0d24
061c
cafe
2007
5556
0d24
0655
cafe
2417
5556
0d28
062a
cafe
2808
5556
0d28
06bc
cafe
2c18
5556
0d28
-
05e5
cafe
3000
5556
0d28
06f0
cafe
3410
5556
0d2c
0685
cafe
3809
5556
0d2c
069e
cafe
3c19
5556
0d2c
06c6
cafe
2001
5556
0d2c
0689
cafe
2411
5556
0d30
063c
cafe
280a
5556
0d30
06ef
cafe
2c1a
5556
0d30
05ee
cafe
3002
5556
0d30
06b6
cafe
3412
5556
0d34
05f3
cafe
380b
5556
0d34
0664
cafe
3c1b
5556
0d34
0590
cafe
2003
5556
0d34
0639
cafe
2413
5556
0d38
0685
cafe
280c
5556
0d38
0769
cafe
2c1c
5556
0d38
05c5
cafe
3004
5556
0d38
0624
cafe
3414
5556
0d3c
065c
cafe
380d
5556
0d3c
06ae
cafe
3c1d
5556
0d3c
06c7
cafe
2005
5556
0d3c
05f8
cafe
2415
5556
0d40
06e6
cafe
280e
5556
0d40
06ab
cafe
2c1e
5556
0d40
0672
cafe
3006
5556
0d40
0593
cafe
3416
5556
0d44
060f
cafe
380f
5556
0d44
0699
cafe
3c1f
5556
0d44
05db
cafe
2007
5556
0d44
061c
cafe
2417
5556
0d48
05f4
cafe
2808
5556
0d48
0693
cafe
2c18
5556
0d48
05af
cafe
3000
5556
0d48
06b8
cafe
3410
5556
0d4c
064e
cafe
3809
5556
0d4c
0661
cafe
3c19
5556
0d4c
067b
cafe
2001
5556
0d4c
0644
cafe
2411
5556
0d50
05fa
cafe
280a
5556
0d50
06ab
cafe
2c1a
5556
0d50
05b3
cafe
3002
5556
0d50
0667
cafe
3412
5556
0d54
05b7
cafe
380b
5556
0d54
062d
cafe
3c1b
5556
0d54
055b
cafe
2003
5556
0d54
060d
cafe
2413
5556
0d58
064c
cafe
280c
5556
0d58
072d
cafe
2c1c
5556
0d58
058a
cafe
3004
5556
0d58
05e4
cafe
3414
5556
0d5c
061c
cafe
380d
5556
0d5c
0675
-
cafe
3c1d
5556
0d5c
0685
cafe
2005
5556
0d5c
05c3
cafe
2415
5556
0d60
06ac
cafe
280e
5556
0d60
067a
cafe
2c1e
5556
0d60
0635
cafe
3006
5556
0d60
0553
cafe
3416
5556
0d64
05d1
cafe
380f
5556
0d64
0660
cafe
3c1f
5556
0d64
05a0
cafe
2007
5556
0d64
05db
cafe
2417
5556
0d68
05b3
cafe
2808
5556
0d68
0659
cafe
2c18
5556
0d68
0570
cafe
3000
5556
0d68
0683
cafe
3410
5556
0d6c
060d
cafe
3809
5556
0d6c
062d
cafe
3c19
5556
0d6c
064d
cafe
2001
5556
0d6c
05ff
cafe
2411
5556
0d70
05c7
cafe
280a
5556
0d70
0672
cafe
2c1a
5556
0d70
0575
cafe
3002
5556
0d70
0635
cafe
3412
5556
0d74
057f
cafe
380b
5556
0d74
05f0
cafe
3c1b
5556
0d74
051d
cafe
2003
5556
0d74
05ce
cafe
2413
5556
0d78
0615
cafe
280c
5556
0d78
06fc
cafe
2c1c
5556
0d78
054a
cafe
3004
5556
0d78
05a9
cafe
3414
5556
0d7c
05d9
cafe
380d
5556
0d7c
0635
cafe
3c1d
5556
0d7c
064b
cafe
2005
5556
0d7c
058e
cafe
2415
5556
0d80
0671
cafe
280e
5556
0d80
0642
cafe
2c1e
5556
0d80
05fa
cafe
3006
5556
0d80
050d
cafe
3416
5556
0d84
0599
cafe
380f
5556
0d84
062b
cafe
3c1f
5556
0d84
0565
cafe
2007
5556
0d84
05ac
cafe
2417
5556
0d88
0585
cafe
2808
5556
0d88
061f
cafe
2c18
5556
0d88
0534
cafe
3000
5556
0d88
0651
cafe
3410
5556
0d8c
05d3
cafe
3809
5556
0d8c
05f9
cafe
3c19
5556
0d8c
060d
cafe
2001
5556
0d8c
05c6
cafe
2411
5556
0d90
0591
cafe
-
280a
5556
0d90
063d
cafe
2c1a
5556
0d90
054c
cafe
3002
5556
0d90
0601
cafe
3412
5556
0d94
0549
cafe
380b
5556
0d94
05b4
cafe
3c1b
5556
0d94
04db
cafe
2003
5556
0d94
0596
cafe
2413
5556
0d98
05dd
cafe
280c
5556
0d98
06ce
cafe
2c1c
5556
0d98
051c
cafe
3004
5556
0d98
0568
cafe
3414
5556
0d9c
05a1
cafe
380d
5556
0d9c
05fc
cafe
3c1d
5556
0d9c
060a
cafe
2005
5556
0d9c
0554
cafe
2415
5556
0da0
0643
cafe
280e
5556
0da0
0602
cafe
2c1e
5556
0da0
05c4
cafe
3006
5556
0da0
04d6
cafe
3416
5556
0da4
055d
cafe
380f
5556
0da4
05f2
cafe
3c1f
5556
0da4
0522
cafe
2007
5556
0da4
0570
cafe
2417
5556
0da8
0546
cafe
2808
5556
0da8
05e8
cafe
2c18
5556
0da8
0505
cafe
3000
5556
0da8
061d
cafe
3410
5556
0dac
059a
cafe
3809
5556
0dac
05c4
cafe
3c19
5556
0dac
05d9
cafe
2001
5556
0dac
0590
cafe
2411
5556
0db0
055c
cafe
280a
5556
0db0
0605
cafe
2c1a
5556
0db0
0515
cafe
3002
5556
0db0
05d3
cafe
3412
5556
0db4
050c
cafe
380b
5556
0db4
0586
cafe
3c1b
5556
0db4
049c
cafe
2003
5556
0db4
0565
cafe
2413
5556
0db8
05ad
cafe
280c
5556
0db8
069f
cafe
2c1c
5556
0db8
04e0
cafe
3004
5556
0db8
053c
cafe
3414
5556
0dbc
0572
cafe
380d
5556
0dbc
05cc
cafe
3c1d
5556
0dbc
05df
cafe
2005
5556
0dbc
051a
cafe
2415
5556
0dc0
0614
cafe
280e
5556
0dc0
05c8
cafe
2c1e
5556
0dc0
0590
cafe
3006
5556
0dc0
04a3
cafe
3416
-
5556
0dc4
0524
cafe
380f
5556
0dc4
05bb
cafe
3c1f
5556
0dc4
04e9
cafe
2007
5556
0dc4
0532
cafe
2417
5556
0dc8
0512
cafe
2808
5556
0dc8
05ab
cafe
2c18
5556
0dc8
04d3
cafe
3000
5556
0dc8
05e3
cafe
3410
5556
0dcc
0567
cafe
3809
5556
0dcc
0595
cafe
3c19
5556
0dcc
059e
cafe
2001
5556
0dcc
0561
cafe
2411
5556
0dd0
0522
cafe
280a
5556
0dd0
05d3
cafe
2c1a
5556
0dd0
04de
cafe
3002
5556
0dd0
05a1
cafe
3412
5556
0dd4
04d8
cafe
380b
5556
0dd4
0553
cafe
3c1b
5556
0dd4
0470
cafe
2003
5556
0dd4
052b
cafe
2413
5556
0dd8
057e
cafe
280c
5556
0dd8
0667
cafe
2c1c
5556
0dd8
04a0
cafe
3004
5556
0dd8
050b
cafe
3414
5556
0ddc
0549
cafe
380d
5556
0ddc
05a0
cafe
3c1d
5556
0ddc
05b0
cafe
2005
5556
0ddc
04eb
cafe
2415
5556
0de0
05df
cafe
280e
5556
0de0
0587
cafe
2c1e
5556
0de0
055b
cafe
3006
5556
0de0
0472
cafe
3416
5556
0de4
04f2
cafe
380f
5556
0de4
058c
cafe
3c1f
5556
0de4
04b0
cafe
2007
5556
0de4
04fb
cafe
2417
5556
0de8
04dc
cafe
2808
5556
0de8
057e
cafe
2c18
5556
0de8
0497
cafe
3000
5556
0de8
05b2
cafe
3410
5556
0dec
053a
cafe
3809
5556
0dec
055e
cafe
3c19
5556
0dec
056b
cafe
2001
5556
0dec
0537
cafe
2411
5556
0df0
04ee
cafe
280a
5556
0df0
0594
cafe
2c1a
5556
0df0
04a6
cafe
3002
5556
0df0
056f
cafe
3412
5556
0df4
04b0
cafe
380b
5556
0df4
0522
cafe
3c1b
5556
0df4
043e
cafe
2003
5556
-
0df4
04f9
cafe
2413
5556
0df8
0548
cafe
280c
5556
0df8
062f
cafe
2c1c
5556
0df8
0473
cafe
3004
5556
0df8
04d8
cafe
3414
5556
0dfc
051b
cafe
380d
5556
0dfc
0577
cafe
3c1d
5556
0dfc
0588
cafe
2005
5556
0dfc
04b5
cafe
2415
5556
0e00
05a6
cafe
280e
5556
0e00
0566
cafe
2c1e
5556
0e00
052e
cafe
3006
5556
0e00
0446
cafe
3416
5556
0e04
04c8
cafe
380f
5556
0e04
055f
cafe
3c1f
5556
0e04
0483
cafe
2007
5556
0e04
04d6
cafe
2417
5556
0e08
04a7
cafe
2808
5556
0e08
0556
cafe
2c18
5556
0e08
0464
cafe
3000
5556
0e08
057e
cafe
3410
5556
0e0c
050c
cafe
3809
5556
0e0c
0532
cafe
3c19
5556
0e0c
053d
cafe
2001
5556
0e0c
050e
cafe
2411
5556
0e10
04c2
cafe
280a
5556
0e10
0564
cafe
2c1a
5556
0e10
0475
cafe
3002
5556
0e10
053d
cafe
3412
5556
0e14
0483
cafe
380b
5556
0e14
04f4
cafe
3c1b
5556
0e14
0410
cafe
2003
5556
0e14
04d2
cafe
2413
5556
0e18
0513
cafe
280c
5556
0e18
0607
cafe
2c1c
5556
0e18
0444
cafe
3004
5556
0e18
04a2
cafe
3414
5556
0e1c
04f2
cafe
380d
5556
0e1c
054f
cafe
3c1d
5556
0e1c
0551
cafe
2005
5556
0e1c
047f
cafe
2415
5556
0e20
0576
cafe
280e
5556
0e20
0529
cafe
2c1e
5556
0e20
0500
cafe
3006
5556
0e20
0415
cafe
3416
5556
0e24
048c
cafe
380f
5556
0e24
0532
cafe
3c1f
5556
0e24
044b
cafe
2007
5556
0e24
04a6
cafe
2417
5556
0e28
0475
cafe
2808
5556
0e28
0523
cafe
2c18
5556
0e28
-
043c
cafe
3000
5556
0e28
0554
cafe
3410
5556
0e2c
04e3
cafe
3809
5556
0e2c
0507
cafe
3c19
5556
0e2c
050d
cafe
2001
5556
0e2c
04e5
cafe
2411
5556
0e30
0497
cafe
280a
5556
0e30
0544
cafe
2c1a
5556
0e30
0452
cafe
3002
5556
0e30
0518
cafe
3412
5556
0e34
0457
cafe
380b
5556
0e34
04c9
cafe
3c1b
5556
0e34
03e1
cafe
2003
5556
0e34
04a1
cafe
2413
5556
0e38
04ef
cafe
280c
5556
0e38
05df
cafe
2c1c
5556
0e38
0420
cafe
3004
5556
0e38
0474
cafe
3414
5556
0e3c
04c5
cafe
380d
5556
0e3c
0521
cafe
3c1d
5556
0e3c
0524
cafe
2005
5556
0e3c
0452
cafe
2415
5556
0e40
054c
cafe
280e
5556
0e40
0508
cafe
2c1e
5556
0e40
04ca
cafe
3006
5556
0e40
03f3
cafe
3416
5556
0e44
0460
cafe
380f
5556
0e44
0509
cafe
3c1f
5556
0e44
0420
cafe
2007
5556
0e44
0479
cafe
2417
5556
0e48
0450
cafe
2808
5556
0e48
04e5
cafe
2c18
5556
0e48
0406
cafe
3000
5556
0e48
0529
cafe
3410
5556
0e4c
04bb
cafe
3809
5556
0e4c
04e0
cafe
3c19
5556
0e4c
04de
cafe
2001
5556
0e4c
04b9
cafe
2411
5556
0e50
0466
cafe
280a
5556
0e50
051a
cafe
2c1a
5556
0e50
0423
cafe
3002
5556
0e50
04e2
cafe
3412
5556
0e54
042e
cafe
380b
5556
0e54
04a7
cafe
3c1b
5556
0e54
03b9
cafe
2003
5556
0e54
046f
cafe
2413
5556
0e58
04bc
cafe
280c
5556
0e58
05b0
cafe
2c1c
5556
0e58
03f1
cafe
3004
5556
0e58
0456
cafe
3414
5556
0e5c
0498
cafe
380d
5556
0e5c
04f8
-
cafe
3c1d
5556
0e5c
04fc
cafe
2005
5556
0e5c
0427
cafe
2415
5556
0e60
0527
cafe
280e
5556
0e60
04da
cafe
2c1e
5556
0e60
04a5
cafe
3006
5556
0e60
03ce
cafe
3416
5556
0e64
0443
cafe
380f
5556
0e64
04e0
cafe
3c1f
5556
0e64
03f0
cafe
2007
5556
0e64
044f
cafe
2417
5556
0e68
0427
cafe
2808
5556
0e68
04b9
cafe
2c18
5556
0e68
03e8
cafe
3000
5556
0e68
0500
cafe
3410
5556
0e6c
0485
cafe
3809
5556
0e6c
04aa
cafe
3c19
5556
0e6c
04b4
cafe
2001
5556
0e6c
048b
cafe
2411
5556
0e70
0446
cafe
280a
5556
0e70
04f6
cafe
2c1a
5556
0e70
03f2
cafe
3002
5556
0e70
04ba
cafe
3412
5556
0e74
0404
cafe
380b
5556
0e74
047b
cafe
3c1b
5556
0e74
038d
cafe
2003
5556
0e74
044d
cafe
2413
5556
0e78
0485
cafe
280c
5556
0e78
058a
cafe
2c1c
5556
0e78
03ca
cafe
3004
5556
0e78
042c
cafe
3414
5556
0e7c
0465
cafe
380d
5556
0e7c
04ca
cafe
3c1d
5556
0e7c
04d7
cafe
2005
5556
0e7c
0400
cafe
2415
5556
0e80
0501
cafe
280e
5556
0e80
04b5
cafe
2c1e
5556
0e80
0475
cafe
3006
5556
0e80
03a7
cafe
3416
5556
0e84
0411
cafe
380f
5556
0e84
04a8
cafe
3c1f
5556
0e84
03d0
cafe
2007
5556
0e84
0420
cafe
2417
5556
0e88
0402
cafe
2808
5556
0e88
0497
cafe
2c18
5556
0e88
03bc
cafe
3000
5556
0e88
04df
cafe
3410
5556
0e8c
0453
cafe
3809
5556
0e8c
0483
cafe
3c19
5556
0e8c
048a
cafe
2001
5556
0e8c
0460
cafe
2411
5556
0e90
041f
cafe
-
280a
5556
0e90
04ce
cafe
2c1a
5556
0e90
03bf
cafe
3002
5556
0e90
0485
cafe
3412
5556
0e94
03df
cafe
380b
5556
0e94
044f
cafe
3c1b
5556
0e94
0361
cafe
2003
5556
0e94
0424
cafe
2413
5556
0e98
0462
cafe
280c
5556
0e98
0569
cafe
2c1c
5556
0e98
03a3
cafe
3004
5556
0e98
040a
cafe
3414
5556
0e9c
043b
cafe
380d
5556
0e9c
04a3
cafe
3c1d
5556
0e9c
04ac
cafe
2005
5556
0e9c
03de
cafe
2415
5556
0ea0
04d7
cafe
280e
5556
0ea0
048c
cafe
2c1e
5556
0ea0
044d
cafe
3006
5556
0ea0
037d
cafe
3416
5556
0ea4
03f6
cafe
380f
5556
0ea4
048c
cafe
3c1f
5556
0ea4
03aa
cafe
2007
5556
0ea4
03fe
cafe
2417
5556
0ea8
03d7
cafe
2808
5556
0ea8
0475
cafe
2c18
5556
0ea8
0397
cafe
3000
5556
0ea8
04bb
cafe
3410
5556
0eac
042c
cafe
3809
5556
0eac
0461
cafe
3c19
5556
0eac
0461
cafe
2001
5556
0eac
043d
cafe
2411
5556
0eb0
0406
cafe
280a
5556
0eb0
04aa
cafe
2c1a
5556
0eb0
039c
cafe
3002
5556
0eb0
0465
cafe
3412
5556
0eb4
03bb
cafe
380b
5556
0eb4
0425
cafe
3c1b
5556
0eb4
033e
cafe
2003
5556
0eb4
03fe
cafe
2413
5556
0eb8
043e
cafe
280c
5556
0eb8
0535
cafe
2c1c
5556
0eb8
037e
cafe
3004
5556
0eb8
03dc
cafe
3414
5556
0ebc
040d
cafe
380d
5556
0ebc
0475
cafe
3c1d
5556
0ebc
048b
cafe
2005
5556
0ebc
03b9
cafe
2415
5556
0ec0
04af
cafe
280e
5556
0ec0
0468
cafe
2c1e
5556
0ec0
0427
cafe
3006
5556
0ec0
0355
cafe
3416
-
5556
0ec4
03cf
cafe
380f
5556
0ec4
0467
cafe
3c1f
5556
0ec4
0384
cafe
2007
5556
0ec4
03e1
cafe
2417
5556
0ec8
03b2
cafe
2808
5556
0ec8
0455
cafe
2c18
5556
0ec8
0376
cafe
3000
5556
0ec8
0489
cafe
3410
5556
0ecc
0407
cafe
3809
5556
0ecc
0438
cafe
3c19
5556
0ecc
043b
cafe
2001
5556
0ecc
0418
cafe
2411
5556
0ed0
03dd
cafe
280a
5556
0ed0
047f
cafe
2c1a
5556
0ed0
0385
cafe
3002
5556
0ed0
0441
cafe
3412
5556
0ed4
039b
cafe
380b
5556
0ed4
0406
cafe
3c1b
5556
0ed4
0311
cafe
2003
5556
0ed4
03d4
cafe
2413
5556
0ed8
041c
cafe
280c
5556
0ed8
050a
cafe
2c1c
5556
0ed8
0356
cafe
3004
5556
0ed8
03ca
cafe
3414
5556
0edc
03e6
cafe
380d
5556
0edc
0455
cafe
3c1d
5556
0edc
0463
cafe
2005
5556
0edc
0396
cafe
2415
5556
0ee0
0485
cafe
280e
5556
0ee0
0443
cafe
2c1e
5556
0ee0
03fe
cafe
3006
5556
0ee0
0331
cafe
3416
5556
0ee4
03a4
cafe
380f
5556
0ee4
043d
cafe
3c1f
5556
0ee4
035e
cafe
2007
5556
0ee4
03b2
cafe
2417
5556
0ee8
038e
cafe
2808
5556
0ee8
043b
cafe
2c18
5556
0ee8
0357
cafe
3000
5556
0ee8
0469
cafe
3410
5556
0eec
03e4
cafe
3809
5556
0eec
040f
cafe
3c19
5556
0eec
041c
cafe
2001
5556
0eec
03f7
cafe
2411
5556
0ef0
03c1
cafe
280a
5556
0ef0
0466
cafe
2c1a
5556
0ef0
035e
cafe
3002
5556
0ef0
0420
cafe
3412
5556
0ef4
0374
cafe
380b
5556
0ef4
03e2
cafe
3c1b
5556
0ef4
02e6
cafe
2003
5556
-
0ef4
03ae
cafe
2413
5556
0ef8
03fd
cafe
280c
5556
0ef8
04e7
cafe
2c1c
5556
0ef8
0331
cafe
3004
5556
0ef8
03a4
cafe
3414
5556
0efc
03cf
cafe
380d
5556
0efc
0431
cafe
3c1d
5556
0efc
0440
cafe
2005
5556
0efc
0378
cafe
2415
5556
0f00
045b
cafe
280e
5556
0f00
0420
cafe
2c1e
5556
0f00
03dd
cafe
3006
5556
0f00
030a
cafe
3416
5556
0f04
038c
cafe
380f
5556
0f04
0414
cafe
3c1f
5556
0f04
0332
cafe
2007
5556
0f04
0393
cafe
2417
5556
0f08
036b
cafe
2808
5556
0f08
0414
cafe
2c18
5556
0f08
0333
cafe
3000
5556
0f08
0444
cafe
3410
5556
0f0c
03c1
cafe
3809
5556
0f0c
03ef
cafe
3c19
5556
0f0c
03f7
cafe
2001
5556
0f0c
03d3
cafe
2411
5556
0f10
039a
cafe
280a
5556
0f10
043c
cafe
2c1a
5556
0f10
0341
cafe
3002
5556
0f10
0405
cafe
3412
5556
0f14
0351
cafe
380b
5556
0f14
03c0
cafe
3c1b
5556
0f14
02c6
cafe
2003
5556
0f14
0391
cafe
2413
5556
0f18
03d7
cafe
280c
5556
0f18
04cd
cafe
2c1c
5556
0f18
0315
cafe
3004
5556
0f18
037f
cafe
3414
5556
0f1c
03b1
cafe
380d
5556
0f1c
0415
cafe
3c1d
5556
0f1c
0418
cafe
2005
5556
0f1c
0357
cafe
2415
5556
0f20
0443
cafe
280e
5556
0f20
03ff
cafe
2c1e
5556
0f20
03c0
cafe
3006
5556
0f20
02ef
cafe
3416
5556
0f24
036d
cafe
380f
5556
0f24
03f6
cafe
3c1f
5556
0f24
0313
cafe
2007
5556
0f24
0377
cafe
2417
5556
0f28
034c
cafe
2808
5556
0f28
03f7
cafe
2c18
5556
0f28
-
0316
cafe
3000
5556
0f28
041c
cafe
3410
5556
0f2c
03af
cafe
3809
5556
0f2c
03d2
cafe
3c19
5556
0f2c
03d5
cafe
2001
5556
0f2c
03b3
cafe
2411
5556
0f30
0375
cafe
280a
5556
0f30
041b
cafe
2c1a
5556
0f30
0321
cafe
3002
5556
0f30
03e1
cafe
3412
5556
0f34
032e
cafe
380b
5556
0f34
039d
cafe
3c1b
5556
0f34
029f
cafe
2003
5556
0f34
037c
cafe
2413
5556
0f38
03ab
cafe
280c
5556
0f38
04ad
cafe
2c1c
5556
0f38
0304
cafe
3004
5556
0f38
0352
cafe
3414
5556
0f3c
038e
cafe
380d
5556
0f3c
03ec
cafe
3c1d
5556
0f3c
03f2
cafe
2005
5556
0f3c
033a
cafe
2415
5556
0f40
041f
cafe
280e
5556
0f40
03df
cafe
2c1e
5556
0f40
03a1
cafe
3006
5556
0f40
02cf
cafe
3416
5556
0f44
034e
cafe
380f
5556
0f44
03dc
cafe
3c1f
5556
0f44
02f3
cafe
2007
5556
0f44
035d
cafe
2417
5556
0f48
0335
cafe
2808
5556
0f48
03e1
cafe
2c18
5556
0f48
02f4
cafe
3000
5556
0f48
0401
cafe
3410
5556
0f4c
0393
cafe
3809
5556
0f4c
03af
cafe
3c19
5556
0f4c
03b1
cafe
2001
5556
0f4c
0392
cafe
2411
5556
0f50
0358
cafe
280a
5556
0f50
0401
cafe
2c1a
5556
0f50
02ff
cafe
3002
5556
0f50
03d5
cafe
3412
5556
0f54
0316
cafe
380b
5556
0f54
0381
cafe
3c1b
5556
0f54
0289
cafe
2003
5556
0f54
0355
cafe
2413
5556
0f58
038b
cafe
280c
5556
0f58
048b
cafe
2c1c
5556
0f58
02e7
cafe
3004
5556
0f58
0337
cafe
3414
5556
0f5c
036f
cafe
380d
5556
0f5c
03d2
-
cafe
3c1d
5556
0f5c
03d6
cafe
2005
5556
0f5c
0315
cafe
2415
5556
0f60
03fe
cafe
280e
5556
0f60
03c4
cafe
2c1e
5556
0f60
0382
cafe
3006
5556
0f60
02b0
cafe
3416
5556
0f64
0330
cafe
380f
5556
0f64
03bc
cafe
3c1f
5556
0f64
02d4
cafe
2007
5556
0f64
033f
cafe
2417
5556
0f68
0318
cafe
2808
5556
0f68
03c0
cafe
2c18
5556
0f68
02d6
cafe
3000
5556
0f68
03de
cafe
3410
5556
0f6c
036e
cafe
3809
5556
0f6c
0386
cafe
3c19
5556
0f6c
038d
cafe
2001
5556
0f6c
0377
cafe
2411
5556
0f70
033f
cafe
280a
5556
0f70
03e4
cafe
2c1a
5556
0f70
02e0
cafe
3002
5556
0f70
03ab
cafe
3412
5556
0f74
02f2
cafe
380b
5556
0f74
0370
cafe
3c1b
5556
0f74
0271
cafe
2003
5556
0f74
0340
cafe
2413
5556
0f78
036f
cafe
280c
5556
0f78
0471
cafe
2c1c
5556
0f78
02bb
cafe
3004
5556
0f78
031e
cafe
3414
5556
0f7c
0355
cafe
380d
5556
0f7c
03b3
cafe
3c1d
5556
0f7c
03be
cafe
2005
5556
0f7c
02ef
cafe
2415
5556
0f80
03eb
cafe
280e
5556
0f80
03a4
cafe
2c1e
5556
0f80
036e
cafe
3006
5556
0f80
0298
cafe
3416
5556
0f84
0312
cafe
380f
5556
0f84
039a
cafe
3c1f
5556
0f84
02bd
cafe
2007
5556
0f84
031a
cafe
2417
5556
0f88
0300
cafe
2808
5556
0f88
039f
cafe
2c18
5556
0f88
02ba
cafe
3000
5556
0f88
03be
cafe
3410
5556
0f8c
0352
cafe
3809
5556
0f8c
0379
cafe
3c19
5556
0f8c
0376
cafe
2001
5556
0f8c
035e
cafe
2411
5556
0f90
0322
cafe
-
280a
5556
0f90
03c3
cafe
2c1a
5556
0f90
02cf
cafe
3002
5556
0f90
038f
cafe
3412
5556
0f94
02e0
cafe
380b
5556
0f94
0354
cafe
3c1b
5556
0f94
024e
cafe
2003
5556
0f94
0327
cafe
2413
5556
0f98
035a
cafe
280c
5556
0f98
044f
cafe
2c1c
5556
0f98
02a3
cafe
3004
5556
0f98
0307
cafe
3414
5556
0f9c
0335
cafe
380d
5556
0f9c
039c
cafe
3c1d
5556
0f9c
03a7
cafe
2005
5556
0f9c
02dc
cafe
2415
5556
0fa0
03cb
cafe
280e
5556
0fa0
0381
cafe
2c1e
5556
0fa0
034a
cafe
3006
5556
0fa0
0278
cafe
3416
5556
0fa4
02f2
cafe
380f
5556
0fa4
0380
cafe
3c1f
5556
0fa4
02a5
cafe
2007
5556
0fa4
0308
cafe
2417
5556
0fa8
02e3
cafe
2808
5556
0fa8
0389
cafe
2c18
5556
0fa8
0298
cafe
3000
5556
0fa8
03ab
cafe
3410
5556
0fac
032f
cafe
3809
5556
0fac
0359
cafe
3c19
5556
0fac
0360
cafe
2001
5556
0fac
033d
cafe
2411
5556
0fb0
030d
cafe
280a
5556
0fb0
039b
cafe
2c1a
5556
0fb0
02af
cafe
3002
5556
0fb0
037c
cafe
3412
5556
0fb4
02c0
cafe
380b
5556
0fb4
0337
cafe
3c1b
5556
0fb4
0240
cafe
2003
5556
0fb4
0309
cafe
2413
5556
0fb8
0337
cafe
280c
5556
0fb8
0430
cafe
2c1c
5556
0fb8
0291
cafe
3004
5556
0fb8
02f5
cafe
3414
5556
0fbc
031d
cafe
380d
5556
0fbc
0392
cafe
3c1d
5556
0fbc
0384
cafe
2005
5556
0fbc
02be
cafe
2415
5556
0fc0
03a7
cafe
280e
5556
0fc0
0366
cafe
2c1e
5556
0fc0
032c
cafe
3006
5556
0fc0
0270
cafe
3416
-
5556
0fc4
02e3
cafe
380f
5556
0fc4
036d
cafe
3c1f
5556
0fc4
0283
cafe
2007
5556
0fc4
02e2
cafe
2417
5556
0fc8
02c7
cafe
2808
5556
0fc8
036d
cafe
2c18
5556
0fc8
027a
cafe
3000
5556
0fc8
038d
cafe
3410
5556
0fcc
0320
cafe
3809
5556
0fcc
0342
cafe
3c19
5556
0fcc
0341
cafe
2001
5556
0fcc
0320
cafe
2411
5556
0fd0
02e7
cafe
280a
5556
0fd0
0389
cafe
2c1a
5556
0fd0
0295
cafe
3002
5556
0fd0
035e
cafe
3412
5556
0fd4
029b
cafe
380b
5556
0fd4
0317
cafe
3c1b
5556
0fd4
022b
cafe
2003
5556
0fd4
02ea
cafe
2413
5556
0fd8
032b
cafe
280c
5556
0fd8
0414
cafe
2c1c
5556
0fd8
0274
cafe
3004
5556
0fd8
02d8
cafe
3414
5556
0fdc
0308
cafe
380d
5556
0fdc
0378
cafe
3c1d
5556
0fdc
0368
cafe
2005
5556
0fdc
02aa
cafe
2415
5556
0fe0
0391
cafe
280e
5556
0fe0
0351
cafe
2c1e
5556
0fe0
031f
cafe
3006
5556
0fe0
025b
cafe
3416
5556
0fe4
02cc
cafe
380f
5556
0fe4
035f
cafe
3c1f
5556
0fe4
0264
cafe
2007
5556
0fe4
02c9
cafe
2417
5556
0fe8
02b7
cafe
2808
5556
0fe8
0353
cafe
2c18
5556
0fe8
0267
cafe
3000
5556
0fe8
0375
cafe
3410
5556
0fec
030d
cafe
3809
5556
0fec
0324
cafe
3c19
5556
0fec
0331
cafe
2001
5556
0fec
030c
cafe
2411
5556
0ff0
02d1
cafe
280a
5556
0ff0
0378
cafe
2c1a
5556
0ff0
0276
cafe
3002
5556
0ff0
034e
cafe
3412
5556
0ff4
0286
cafe
380b
5556
0ff4
0301
cafe
3c1b
5556
0ff4
0211
cafe
2003
5556
-
0ff4
02dc
cafe
2413
5556
0ff8
0316
cafe
280c
5556
0ff8
03fd
cafe
2c1c
5556
0ff8
025c
cafe
3004
5556
0ff8
02bd
cafe
3414
5556
0ffc
02ed
cafe
380d
5556
0ffc
0355
cafe
3c1d
5556
0ffc
0352
cafe
2005
5556
0ffc
0292
cafe
2415
5556
1000
0373
cafe
280e
5556
1000
0335
cafe
2c1e
5556
1000
0302
cafe
3006
5556
1000
023e
cafe
3416
5556
1004
02ae
cafe
380f
5556
1004
0349
cafe
3c1f
5556
1004
024a
cafe
2007
5556
1004
02b6
cafe
2417
5556
1008
029f
cafe
2808
5556
1008
0336
cafe
2c18
5556
1008
0250
cafe
3000
5556
1008
035b
cafe
3410
5556
100c
02f1
cafe
3809
5556
100c
0317
cafe
3c19
5556
100c
0316
cafe
2001
5556
100c
02f2
cafe
2411
5556
1010
02b5
cafe
280a
5556
1010
035b
cafe
2c1a
5556
1010
0265
cafe
3002
5556
1010
0339
cafe
3412
5556
1014
026f
cafe
380b
5556
1014
02f3
cafe
3c1b
5556
1014
01f5
cafe
2003
5556
1014
02c2
cafe
2413
5556
1018
02fc
cafe
280c
5556
1018
03e7
cafe
2c1c
5556
1018
023d
cafe
3004
5556
1018
02ad
cafe
3414
5556
101c
02df
cafe
380d
5556
101c
0347
cafe
3c1d
5556
101c
0349
cafe
2005
5556
101c
027e
cafe
2415
5556
1020
0364
cafe
280e
5556
1020
031e
cafe
2c1e
5556
1020
02ea
cafe
3006
5556
1020
022f
cafe
3416
5556
1024
0297
cafe
380f
5556
1024
0338
cafe
3c1f
5556
1024
0240
cafe
2007
5556
1024
02a3
cafe
2417
5556
1028
0288
cafe
2808
5556
1028
031e
cafe
2c18
5556
1028
-
023a
cafe
3000
5556
1028
0348
cafe
3410
5556
102c
02dd
cafe
3809
5556
102c
0306
cafe
3c19
5556
102c
0300
cafe
2001
5556
102c
02d5
cafe
2411
5556
1030
02a6
cafe
280a
5556
1030
034b
cafe
2c1a
5556
1030
023d
cafe
3002
5556
1030
0322
cafe
3412
5556
1034
025a
cafe
380b
5556
1034
02db
cafe
3c1b
5556
1034
01e8
cafe
2003
5556
1034
02a7
cafe
2413
5556
1038
02dd
cafe
280c
5556
1038
03cd
cafe
2c1c
5556
1038
0225
cafe
3004
5556
1038
0299
cafe
3414
5556
103c
02cf
cafe
380d
5556
103c
0330
cafe
3c1d
5556
103c
032a
cafe
2005
5556
103c
0265
cafe
2415
5556
1040
034a
cafe
280e
5556
1040
030f
cafe
2c1e
5556
1040
02d9
cafe
3006
5556
1040
0217
cafe
3416
5556
1044
0283
cafe
380f
5556
1044
031d
cafe
3c1f
5556
1044
022f
cafe
2007
5556
1044
0299
cafe
2417
5556
1048
026a
cafe
2808
5556
1048
0311
cafe
2c18
5556
1048
021d
cafe
3000
5556
1048
032f
cafe
3410
5556
104c
02d0
cafe
3809
5556
104c
02eb
cafe
3c19
5556
104c
02f1
cafe
2001
5556
104c
02be
cafe
2411
5556
1050
0283
cafe
280a
5556
1050
033a
cafe
2c1a
5556
1050
0222
cafe
3002
5556
1050
0309
cafe
3412
5556
1054
0242
cafe
380b
5556
1054
02c5
cafe
3c1b
5556
1054
01de
cafe
2003
5556
1054
0298
cafe
2413
5556
1058
02c4
cafe
280c
5556
1058
03b3
cafe
2c1c
5556
1058
021a
cafe
3004
5556
1058
0283
cafe
3414
5556
105c
02bd
cafe
380d
5556
105c
031a
-
cafe
3c1d
5556
105c
0315
cafe
2005
5556
105c
0248
cafe
2415
5556
1060
0339
cafe
280e
5556
1060
0300
cafe
2c1e
5556
1060
02c6
cafe
3006
5556
1060
0204
cafe
3416
5556
1064
0269
cafe
380f
5556
1064
0305
cafe
3c1f
5556
1064
0213
cafe
2007
5556
1064
0287
cafe
2417
5556
1068
0259
cafe
2808
5556
1068
0301
cafe
2c18
5556
1068
020e
cafe
3000
5556
1068
0320
cafe
3410
5556
106c
02bd
cafe
3809
5556
106c
02d3
cafe
3c19
5556
106c
02dc
cafe
2001
5556
106c
02a1
cafe
2411
5556
1070
0273
cafe
280a
5556
1070
0323
cafe
2c1a
5556
1070
020d
cafe
3002
5556
1070
02fa
cafe
3412
5556
1074
0238
cafe
380b
5556
1074
02a6
cafe
3c1b
5556
1074
01ce
cafe
2003
5556
1074
027e
cafe
2413
5556
1078
02ac
cafe
280c
5556
1078
039d
cafe
2c1c
5556
1078
0202
cafe
3004
5556
1078
0274
cafe
3414
5556
107c
029f
cafe
380d
5556
107c
0302
cafe
3c1d
5556
107c
02fa
cafe
2005
5556
107c
0230
cafe
2415
5556
1080
0324
cafe
280e
5556
1080
02ec
cafe
2c1e
5556
1080
02b0
cafe
3006
5556
1080
01ed
cafe
3416
5556
1084
0256
cafe
380f
5556
1084
02ef
cafe
3c1f
5556
1084
0202
cafe
2007
5556
1084
0277
cafe
2417
5556
1088
0248
cafe
2808
5556
1088
02ea
cafe
2c18
5556
1088
0203
cafe
3000
5556
1088
0303
cafe
3410
5556
108c
02a5
cafe
3809
5556
108c
02c1
cafe
3c19
5556
108c
02c9
cafe
2001
5556
108c
0296
cafe
2411
5556
1090
025e
cafe
-
280a
5556
1090
030f
cafe
2c1a
5556
1090
0204
cafe
3002
5556
1090
02e1
cafe
3412
5556
1094
021b
cafe
380b
5556
1094
0297
cafe
3c1b
5556
1094
01b1
cafe
2003
5556
1094
0274
cafe
2413
5556
1098
02a5
cafe
280c
5556
1098
0395
cafe
2c1c
5556
1098
01e9
cafe
3004
5556
1098
025c
cafe
3414
5556
109c
0289
cafe
380d
5556
109c
02e1
cafe
3c1d
5556
109c
02eb
cafe
2005
5556
109c
0226
cafe
2415
5556
10a0
0315
cafe
280e
5556
10a0
02e0
cafe
2c1e
5556
10a0
029c
cafe
3006
5556
10a0
01df
cafe
3416
5556
10a4
0240
cafe
380f
5556
10a4
02e1
cafe
3c1f
5556
10a4
01ef
cafe
2007
5556
10a4
0269
cafe
2417
5556
10a8
023c
cafe
2808
5556
10a8
02da
cafe
2c18
5556
10a8
01e4
cafe
3000
5556
10a8
02f9
cafe
3410
5556
10ac
028e
cafe
3809
5556
10ac
02b2
cafe
3c19
5556
10ac
02bc
cafe
2001
5556
10ac
027c
cafe
2411
5556
10b0
0254
cafe
280a
5556
10b0
02f4
cafe
2c1a
5556
10b0
01f7
cafe
3002
5556
10b0
02d3
cafe
3412
5556
10b4
0201
cafe
380b
5556
10b4
0290
cafe
3c1b
5556
10b4
019d
cafe
2003
5556
10b4
0260
cafe
2413
5556
10b8
0299
cafe
280c
5556
10b8
037f
cafe
2c1c
5556
10b8
01d9
cafe
3004
5556
10b8
0247
cafe
3414
5556
10bc
027a
cafe
380d
5556
10bc
02de
cafe
3c1d
5556
10bc
02d9
cafe
2005
5556
10bc
0221
cafe
2415
5556
10c0
030e
cafe
280e
5556
10c0
02ce
cafe
2c1e
5556
10c0
0289
cafe
3006
5556
10c0
01c1
cafe
3416
-
5556
10c4
0235
cafe
380f
5556
10c4
02c5
cafe
3c1f
5556
10c4
01e4
cafe
2007
5556
10c4
0255
cafe
2417
5556
10c8
022a
cafe
2808
5556
10c8
02cd
cafe
2c18
5556
10c8
01d4
cafe
3000
5556
10c8
02da
cafe
3410
5556
10cc
026b
cafe
3809
5556
10cc
02ad
cafe
3c19
5556
10cc
02a0
cafe
2001
5556
10cc
0277
cafe
2411
5556
10d0
0241
cafe
280a
5556
10d0
02e7
cafe
2c1a
5556
10d0
01e3
cafe
3002
5556
10d0
02bb
cafe
3412
5556
10d4
01f5
cafe
380b
5556
10d4
027d
cafe
3c1b
5556
10d4
0186
cafe
2003
5556
10d4
0251
cafe
2413
5556
10d8
0284
cafe
280c
5556
10d8
036b
cafe
2c1c
5556
10d8
01d0
cafe
3004
5556
10d8
0237
cafe
3414
5556
10dc
026a
cafe
380d
5556
10dc
02cc
cafe
3c1d
5556
10dc
02d5
cafe
2005
5556
10dc
021a
cafe
2415
5556
10e0
02fe
cafe
280e
5556
10e0
02bf
cafe
2c1e
5556
10e0
0264
cafe
3006
5556
10e0
01b5
cafe
3416
5556
10e4
022a
cafe
380f
5556
10e4
02bd
cafe
3c1f
5556
10e4
01d6
cafe
2007
5556
10e4
0249
cafe
2417
5556
10e8
0218
cafe
2808
5556
10e8
02ae
cafe
2c18
5556
10e8
01c8
cafe
3000
5556
10e8
02c1
cafe
3410
5556
10ec
0263
cafe
3809
5556
10ec
029f
cafe
3c19
5556
10ec
0290
cafe
2001
5556
10ec
026c
cafe
2411
5556
10f0
023b
cafe
280a
5556
10f0
02d9
cafe
2c1a
5556
10f0
01d4
cafe
3002
5556
10f0
029c
cafe
3412
5556
10f4
01e7
cafe
380b
5556
10f4
0276
cafe
3c1b
5556
10f4
0171
cafe
2003
5556
-
10f4
0245
cafe
2413
5556
10f8
0273
cafe
280c
5556
10f8
0363
cafe
2c1c
5556
10f8
01bd
cafe
3004
5556
10f8
0221
cafe
3414
5556
10fc
0263
cafe
380d
5556
10fc
02b8
cafe
3c1d
5556
10fc
02c5
cafe
2005
5556
10fc
020c
cafe
2415
5556
1100
02e3
cafe
280e
5556
1100
02b3
cafe
2c1e
5556
1100
025c
cafe
3006
5556
1100
01ae
cafe
3416
5556
1104
021b
cafe
380f
5556
1104
02a0
cafe
3c1f
5556
1104
01c6
cafe
2007
5556
1104
0236
cafe
2417
5556
1108
020c
cafe
2808
5556
1108
02a1
cafe
2c18
5556
1108
01c5
cafe
3000
5556
1108
02bb
cafe
3410
5556
110c
0251
cafe
3809
5556
110c
028f
cafe
3c19
5556
110c
0279
cafe
2001
5556
110c
0255
cafe
2411
5556
1110
0226
cafe
280a
5556
1110
02c2
cafe
2c1a
5556
1110
01c4
cafe
3002
5556
1110
028c
cafe
3412
5556
1114
01d2
cafe
380b
5556
1114
0264
cafe
3c1b
5556
1114
0161
cafe
2003
5556
1114
0232
cafe
2413
5556
1118
0260
cafe
280c
5556
1118
0357
cafe
2c1c
5556
1118
01ad
cafe
3004
5556
1118
021a
cafe
3414
5556
111c
0255
cafe
380d
5556
111c
02a5
cafe
3c1d
5556
111c
02b3
cafe
2005
5556
111c
0200
cafe
2415
5556
1120
02d1
cafe
280e
5556
1120
029c
cafe
2c1e
5556
1120
024e
cafe
3006
5556
1120
019d
cafe
3416
5556
1124
020f
cafe
380f
5556
1124
0292
cafe
3c1f
5556
1124
01b8
cafe
2007
5556
1124
0228
cafe
2417
5556
1128
01f4
cafe
2808
5556
1128
0298
cafe
2c18
5556
1128
-
01bf
cafe
3000
5556
1128
02ae
cafe
3410
5556
112c
024c
cafe
3809
5556
112c
0274
cafe
3c19
5556
112c
0272
cafe
2001
5556
112c
0246
cafe
2411
5556
1130
0214
cafe
280a
5556
1130
02ac
cafe
2c1a
5556
1130
01b1
cafe
3002
5556
1130
0286
cafe
3412
5556
1134
01cc
cafe
380b
5556
1134
025c
cafe
3c1b
5556
1134
015f
cafe
2003
5556
1134
0228
cafe
2413
5556
1138
0256
cafe
280c
5556
1138
0346
cafe
2c1c
5556
1138
0193
cafe
3004
5556
1138
01fe
cafe
3414
5556
113c
0245
cafe
380d
5556
113c
0294
cafe
3c1d
5556
113c
029f
cafe
2005
5556
113c
01f7
cafe
2415
5556
1140
02c7
cafe
280e
5556
1140
028c
cafe
2c1e
5556
1140
023f
cafe
3006
5556
1140
0198
cafe
3416
5556
1144
0209
cafe
380f
5556
1144
0283
cafe
3c1f
5556
1144
01ac
cafe
2007
5556
1144
0221
cafe
2417
5556
1148
01e3
cafe
2808
5556
1148
028a
cafe
2c18
5556
1148
01a8
cafe
3000
5556
1148
029d
cafe
3410
5556
114c
023d
cafe
3809
5556
114c
025f
cafe
3c19
5556
114c
025e
cafe
2001
5556
114c
0238
cafe
2411
5556
1150
020b
cafe
280a
5556
1150
029a
cafe
2c1a
5556
1150
01a6
cafe
3002
5556
1150
0274
cafe
3412
5556
1154
01bb
cafe
380b
5556
1154
025d
cafe
3c1b
5556
1154
0155
cafe
2003
5556
1154
021e
cafe
2413
5556
1158
0251
cafe
280c
5556
1158
033c
cafe
2c1c
5556
1158
0181
cafe
3004
5556
1158
01f6
cafe
3414
5556
115c
0239
cafe
380d
5556
115c
0288
-
cafe
3c1d
5556
115c
0296
cafe
2005
5556
115c
01ec
cafe
2415
5556
1160
02bb
cafe
280e
5556
1160
027d
cafe
2c1e
5556
1160
021c
cafe
3006
5556
1160
0187
cafe
3416
5556
1164
01f0
cafe
380f
5556
1164
0279
cafe
3c1f
5556
1164
01a5
cafe
2007
5556
1164
020e
cafe
2417
5556
1168
01df
cafe
2808
5556
1168
027c
cafe
2c18
5556
1168
01a4
cafe
3000
5556
1168
0288
cafe
3410
5556
116c
022c
cafe
3809
5556
116c
0256
cafe
3c19
5556
116c
024f
cafe
2001
5556
116c
022a
cafe
2411
5556
1170
0204
cafe
280a
5556
1170
0291
cafe
2c1a
5556
1170
019c
cafe
3002
5556
1170
026b
cafe
3412
5556
1174
01b1
cafe
380b
5556
1174
0249
cafe
3c1b
5556
1174
0146
cafe
2003
5556
1174
020d
cafe
2413
5556
1178
0232
cafe
280c
5556
1178
032b
cafe
2c1c
5556
1178
0180
cafe
3004
5556
1178
01e0
cafe
3414
5556
117c
0226
cafe
380d
5556
117c
0272
cafe
3c1d
5556
117c
028a
cafe
2005
5556
117c
01de
cafe
2415
5556
1180
02ac
cafe
280e
5556
1180
026f
cafe
2c1e
5556
1180
020c
cafe
3006
5556
1180
0178
cafe
3416
5556
1184
01e3
cafe
380f
5556
1184
026f
cafe
3c1f
5556
1184
0196
cafe
2007
5556
1184
0204
cafe
2417
5556
1188
01df
cafe
2808
5556
1188
0268
cafe
2c18
5556
1188
0199
cafe
3000
5556
1188
0271
cafe
3410
5556
118c
021a
cafe
3809
5556
118c
024e
cafe
3c19
5556
118c
0234
cafe
2001
5556
118c
0224
cafe
2411
5556
1190
01fb
cafe
-
