241f
0000
0000
0152
cafe
281f
0000
0000
0150
cafe
2c1f
0000
0000
014b
cafe
301f
0000
0000
0145
cafe
341f
0000
0000
0149
cafe
381f
0000
0000
0146
cafe
3c1f
0000
0000
0141
cafe
201f
0000
0000
013c
cafe
241f
0000
0000
012e
cafe
281f
0000
0000
0125
cafe
2c1f
0000
0000
0128
cafe
301f
0000
0000
0126
cafe
341f
0000
0000
0123
cafe
381f
0000
0000
012a
cafe
3c1f
0000
0000
0126
cafe
201f
0000
0000
0125
cafe
241f
0000
0000
012e
cafe
281f
0000
0000
014e
cafe
2c1f
0000
0000
0170
cafe
301f
0000
0000
016e
cafe
341f
0000
0000
016d
cafe
381f
0000
0000
016c
cafe
3c1f
0000
0000
0178
cafe
201f
0000
0000
016e
cafe
241f
0000
0000
016d
cafe
281f
0000
0000
016a
cafe
2c1f
0000
0000
016c
cafe
301f
0000
0000
016d
cafe
341f
0000
0000
0167
cafe
381f
0000
0000
0162
cafe
3c1f
0000
0000
0160
cafe
201f
0000
0000
0159
cafe
241f
0000
0000
0159
cafe
281f
0000
0000
0157
cafe
2c1f
0000
0000
015b
cafe
301f
0000
0000
0157
cafe
341f
0000
0000
0155
cafe
381f
0000
0000
0152
cafe
3c1f
0000
0000
014d
cafe
201f
0000
0000
014e
cafe
241f
0000
0000
0140
cafe
281f
0000
0000
013e
cafe
2c1f
0000
0000
0139
cafe
301f
0000
0000
013e
cafe
341f
0000
0000
0136
cafe
381f
0000
0000
012f
cafe
3c1f
0000
0000
012c
cafe
201f
0000
0000
0122
cafe
241f
0000
0000
0122
cafe
281f
0000
0000
0127
cafe
2c1f
0000
0000
011f
cafe
301f
-
0000
0000
011b
cafe
341f
0000
0000
0118
cafe
381f
0000
0000
011b
cafe
3c1f
0000
0000
0114
cafe
201f
0000
0000
010e
cafe
241f
0000
0000
0107
cafe
281f
0000
0000
010b
cafe
2c1f
0000
0000
011b
cafe
301f
0000
0000
0128
cafe
341f
0000
0000
0129
cafe
381f
0000
0000
0127
cafe
3c1f
0000
0000
0129
cafe
201f
0000
0000
012d
cafe
241f
0000
0000
012e
cafe
281f
0000
0000
0133
cafe
2c1f
0000
0000
0134
cafe
301f
0000
0000
0133
cafe
341f
0000
0000
013a
cafe
381f
0000
0000
013f
cafe
3c1f
0000
0000
0140
cafe
201f
0000
0000
0144
cafe
241f
0000
0000
0142
cafe
281f
0000
0000
0141
cafe
2c1f
0000
0000
0143
cafe
301f
0000
0000
0141
cafe
341f
0000
0000
013c
cafe
381f
0000
0000
0136
cafe
3c1f
0000
0000
012b
cafe
201f
0000
0000
0129
cafe
241f
0000
0000
012b
cafe
281f
0000
0000
012a
cafe
2c1f
0000
0000
012b
cafe
301f
0000
0000
0128
cafe
341f
0000
0000
0123
cafe
381f
0000
0000
0129
cafe
3c1f
0000
0000
0124
cafe
201f
0000
0000
0125
cafe
241f
0000
0000
0130
cafe
281f
0000
0000
012d
cafe
2c1f
0000
0000
0130
cafe
301f
0000
0000
0138
cafe
341f
0000
0000
0139
cafe
381f
0000
0000
013c
cafe
3c1f
0000
0000
0146
cafe
201f
0000
0000
013f
cafe
241f
0000
0000
013d
cafe
281f
0000
0000
013a
cafe
2c1f
0000
0000
0136
cafe
301f
0000
0000
013e
cafe
341f
0000
0000
0145
cafe
381f
0000
0000
013e
cafe
3c1f
0000
-
0000
013d
cafe
201f
0000
0000
013b
cafe
241f
0000
0000
013c
cafe
281f
0000
0000
0131
cafe
2c1f
0000
0000
012e
cafe
301f
0000
0000
012c
cafe
341f
0000
0000
0126
cafe
381f
0000
0000
0122
cafe
3c1f
0000
0000
0121
cafe
201f
0000
0000
0121
cafe
241f
0000
0000
011b
cafe
281f
0000
0000
011b
cafe
2c1f
0000
0000
011c
cafe
301f
0000
0000
011e
cafe
341f
0000
0000
011a
cafe
381f
0000
0000
011c
cafe
3c1f
0000
0000
011f
cafe
201f
0000
0000
0121
cafe
241f
0000
0000
0123
cafe
281f
0000
0000
012a
cafe
2c1f
0000
0000
0128
cafe
301f
0000
0000
0134
cafe
341f
0000
0000
0137
cafe
381f
0000
0000
013c
cafe
3c1f
0000
0000
0146
cafe
201f
0000
0000
0146
cafe
241f
0000
0000
0149
cafe
281f
0000
0000
0147
cafe
2c1f
0000
0000
0157
cafe
301f
0000
0000
0150
cafe
341f
0000
0000
014c
cafe
381f
0000
0000
014e
cafe
3c1f
0000
0000
014e
cafe
201f
0000
0000
014c
cafe
241f
0000
0000
0140
cafe
281f
0000
0000
0132
cafe
2c1f
0000
0000
0130
cafe
301f
0000
0000
0130
cafe
341f
0000
0000
012a
cafe
381f
0000
0000
012d
cafe
3c1f
0000
0000
0124
cafe
201f
0000
0000
0121
cafe
241f
0000
0000
0123
cafe
281f
0000
0000
012b
cafe
2c1f
0000
0000
012a
cafe
301f
0000
0000
0133
cafe
341f
0000
0000
0132
cafe
381f
0000
0000
0135
cafe
3c1f
0000
0000
0136
cafe
201f
0000
0000
0133
cafe
241f
0000
0000
012a
cafe
281f
0000
0000
-
012c
cafe
2c1f
0000
0000
012d
cafe
301f
0000
0000
0134
cafe
341f
0000
0000
012d
cafe
381f
0000
0000
012f
cafe
3c1f
0000
0000
0127
cafe
201f
0000
0000
012e
cafe
241f
0000
0000
0135
cafe
281f
0000
0000
013b
cafe
2c1f
0000
0000
0142
cafe
301f
0000
0000
0146
cafe
341f
0000
0000
0143
cafe
381f
0000
0000
0148
cafe
3c1f
0000
0000
0145
cafe
201f
0000
0000
013f
cafe
241f
0000
0000
0139
cafe
281f
0000
0000
0130
cafe
2c1f
0000
0000
012d
cafe
301f
0000
0000
012b
cafe
341f
0000
0000
0127
cafe
381f
0000
0000
0125
cafe
3c1f
0000
0000
0124
cafe
201f
0000
0000
0129
cafe
241f
0000
0000
0133
cafe
281f
0000
0000
0130
cafe
2c1f
0000
0000
012e
cafe
301f
0000
0000
012e
cafe
341f
0000
0000
0127
cafe
381f
0000
0000
0131
cafe
3c1f
0000
0000
012e
cafe
201f
0000
0000
0127
cafe
241f
0000
0000
0120
cafe
281f
0000
0000
0122
cafe
2c1f
0000
0000
012a
cafe
301f
0000
0000
0130
cafe
341f
0000
0000
012e
cafe
381f
0000
0000
012c
cafe
3c1f
0000
0000
012f
cafe
201f
0000
0000
0132
cafe
241f
0000
0000
012d
cafe
281f
0000
0000
0137
cafe
2c1f
0000
0000
0135
cafe
301f
0000
0000
0135
cafe
341f
0000
0000
013b
cafe
381f
0000
0000
0140
cafe
3c1f
0000
0000
0140
cafe
201f
0000
0000
0142
cafe
241f
0000
0000
014c
cafe
281f
0000
0000
014c
cafe
2c1f
0000
0000
0144
cafe
301f
0000
0000
013d
cafe
341f
0000
0000
013f
-
cafe
381f
0000
0000
013b
cafe
3c1f
0000
0000
013a
cafe
201f
0000
0000
013f
cafe
241f
0000
0000
0132
cafe
281f
0000
0000
012e
cafe
2c1f
0000
0000
0124
cafe
301f
0000
0000
0121
cafe
341f
0000
0000
011e
cafe
381f
0000
0000
0120
cafe
3c1f
0000
0000
011e
cafe
201f
0000
0000
0120
cafe
241f
0000
0000
011f
cafe
281f
0000
0000
0126
cafe
2c1f
0000
0000
0121
cafe
301f
0000
0000
012e
cafe
341f
0000
0000
0136
cafe
381f
0000
0000
0135
cafe
3c1f
0000
0000
013b
cafe
201f
0000
0000
0139
cafe
241f
0000
0000
0133
cafe
281f
0000
0000
0137
cafe
2c1f
0000
0000
0136
cafe
301f
0000
0000
013f
cafe
341f
0000
0000
013e
cafe
381f
0000
0000
013d
cafe
3c1f
0000
0000
013f
cafe
201f
0000
0000
0142
cafe
241f
0000
0000
0146
cafe
281f
0000
0000
014d
cafe
2c1f
0000
0000
0145
cafe
301f
0000
0000
013b
cafe
341f
0000
0000
013b
cafe
381f
0000
0000
013f
cafe
3c1f
0000
0000
013a
cafe
201f
0000
0000
013c
cafe
241f
0000
0000
012e
cafe
281f
0000
0000
012c
cafe
2c1f
0000
0000
0136
cafe
301f
0000
0000
0135
cafe
341f
0000
0000
0137
cafe
381f
0000
0000
0130
cafe
3c1f
0000
0000
0136
cafe
201f
0000
0000
0132
cafe
241f
0000
0000
0132
cafe
281f
0000
0000
0130
cafe
2c1f
0000
0000
0129
cafe
301f
0000
0000
012e
cafe
341f
0000
0000
012c
cafe
381f
0000
0000
012c
cafe
3c1f
0000
0000
0132
cafe
201f
0000
0000
0139
cafe
-
241f
0000
0000
0135
cafe
281f
0000
0000
012e
cafe
2c1f
0000
0000
012d
cafe
301f
0000
0000
0136
cafe
341f
0000
0000
0135
cafe
381f
0000
0000
0137
cafe
3c1f
0000
0000
0139
cafe
201f
0000
0000
013f
cafe
241f
0000
0000
0144
cafe
281f
0000
0000
013d
cafe
2c1f
0000
0000
0137
cafe
301f
0000
0000
0131
cafe
341f
0000
0000
0135
cafe
381f
0000
0000
0136
cafe
3c1f
0000
0000
0130
cafe
201f
0000
0000
012c
cafe
241f
0000
0000
0126
cafe
281f
0000
0000
0129
cafe
2c1f
0000
0000
012b
cafe
301f
0000
0000
0128
cafe
341f
0000
0000
012c
cafe
381f
0000
0000
012d
cafe
3c1f
0000
0000
012b
cafe
201f
0000
0000
012f
cafe
241f
0000
0000
012c
cafe
281f
0000
0000
0128
cafe
2c1f
0000
0000
0129
cafe
301f
0000
0000
0129
cafe
341f
0000
0000
0129
cafe
381f
0000
0000
012e
cafe
3c1f
0000
0000
0127
cafe
201f
0000
0000
012b
cafe
241f
0000
0000
0137
cafe
281f
0000
0000
013a
cafe
2c1f
0000
0000
0146
cafe
301f
0000
0000
0149
cafe
341f
0000
0000
0148
cafe
381f
0000
0000
0148
cafe
3c1f
0000
0000
014f
cafe
201f
0000
0000
014b
cafe
241f
0000
0000
0147
cafe
281f
0000
0000
0144
cafe
2c1f
0000
0000
0140
cafe
301f
0000
0000
0133
cafe
341f
0000
0000
012f
cafe
381f
0000
0000
012a
cafe
3c1f
0000
0000
0128
cafe
201f
0000
0000
0128
cafe
241f
0000
0000
012f
cafe
281f
0000
0000
0135
cafe
2c1f
0000
0000
012e
cafe
301f
-
0000
0000
012c
cafe
341f
0000
0000
012a
cafe
381f
0000
0000
0124
cafe
3c1f
0000
0000
0124
cafe
201f
0000
0000
011b
cafe
241f
0000
0000
0115
cafe
281f
0000
0000
0113
cafe
2c1f
0000
0000
0116
cafe
301f
0000
0000
0118
cafe
341f
0000
0000
011c
cafe
381f
0000
0000
011e
cafe
3c1f
0000
0000
011e
cafe
201f
0000
0000
0122
cafe
241f
0000
0000
0120
cafe
281f
0000
0000
0121
cafe
2c1f
0000
0000
0120
cafe
301f
0000
0000
0125
cafe
341f
0000
0000
0139
cafe
381f
0000
0000
013b
cafe
3c1f
0000
0000
013c
cafe
201f
0000
0000
013f
cafe
241f
0000
0000
0143
cafe
281f
0000
0000
014a
cafe
2c1f
0000
0000
0146
cafe
301f
0000
0000
0146
cafe
341f
0000
0000
0148
cafe
381f
0000
0000
0149
cafe
3c1f
0000
0000
014d
cafe
201f
0000
0000
0144
cafe
241f
0000
0000
0138
cafe
281f
0000
0000
0130
cafe
2c1f
0000
0000
0130
cafe
301f
0000
0000
0136
cafe
341f
0000
0000
0135
cafe
381f
0000
0000
012e
cafe
3c1f
0000
0000
0133
cafe
201f
0000
0000
0132
cafe
241f
0000
0000
0136
cafe
281f
0000
0000
0134
cafe
2c1f
0000
0000
0130
cafe
301f
0000
0000
013c
cafe
341f
0000
0000
013c
cafe
381f
0000
0000
0141
cafe
3c1f
0000
0000
0145
cafe
201f
0000
0000
0147
cafe
241f
0000
0000
0147
cafe
281f
0000
0000
0143
cafe
2c1f
0000
0000
013c
cafe
301f
0000
0000
013f
cafe
341f
0000
0000
013b
cafe
381f
0000
0000
0141
cafe
3c1f
0000
-
0000
0140
cafe
201f
0000
0000
013f
cafe
241f
0000
0000
0142
cafe
281f
0000
0000
0146
cafe
2c1f
0000
0000
0132
cafe
301f
0000
0000
012d
cafe
341f
0000
0000
012e
cafe
381f
0000
0000
0126
cafe
3c1f
0000
0000
012a
cafe
201f
0000
0000
012b
cafe
241f
0000
0000
0129
cafe
281f
0000
0000
0128
cafe
2c1f
0000
0000
012b
cafe
301f
0000
0000
012d
cafe
341f
0000
0000
0130
cafe
381f
0000
0000
0137
cafe
3c1f
0000
0000
0137
cafe
201f
0000
0000
0138
cafe
241f
0000
0000
0131
cafe
281f
0000
0000
0125
cafe
2c1f
0000
0000
011e
cafe
301f
0000
0000
011f
cafe
341f
0000
0000
0124
cafe
381f
0000
0000
0129
cafe
3c1f
0000
0000
0128
cafe
201f
0000
0000
012f
cafe
241f
0000
0000
0129
cafe
281f
0000
0000
012d
cafe
2c1f
0000
0000
0131
cafe
301f
0000
0000
0137
cafe
341f
0000
0000
0143
cafe
381f
0000
0000
014f
cafe
3c1f
0000
0000
015e
cafe
201f
0000
0000
0164
cafe
241f
0000
0000
0171
cafe
281f
0000
0000
016e
cafe
2c1f
0000
0000
0168
cafe
301f
0000
0000
0161
cafe
341f
0000
0000
0158
cafe
381f
0000
0000
0152
cafe
3c1f
0000
0000
014a
cafe
201f
0000
0000
0143
cafe
241f
0000
0000
013d
cafe
281f
0000
0000
0133
cafe
2c1f
0000
0000
012c
cafe
301f
0000
0000
0123
cafe
341f
0000
0000
011d
cafe
381f
0000
0000
0114
cafe
3c1f
0000
0000
0113
cafe
201f
0000
0000
0110
cafe
241f
0000
0000
0110
cafe
281f
0000
0000
-
0109
cafe
2c1f
0000
0000
0111
cafe
301f
0000
0000
0114
cafe
341f
0000
0000
011a
cafe
381f
0000
0000
011f
cafe
3c1f
0000
0000
0124
cafe
201f
0000
0000
0127
cafe
241f
0000
0000
0124
cafe
281f
0000
0000
0129
cafe
2c1f
0000
0000
012b
cafe
301f
0000
0000
012b
cafe
341f
0000
0000
0134
cafe
381f
0000
0000
013a
cafe
3c1f
0000
0000
013e
cafe
201f
0000
0000
0140
cafe
241f
0000
0000
013c
cafe
281f
0000
0000
0143
cafe
2c1f
0000
0000
014a
cafe
301f
0000
0000
0146
cafe
341f
0000
0000
0146
cafe
381f
0000
0000
013f
cafe
3c1f
0000
0000
013e
cafe
201f
0000
0000
013c
cafe
241f
0000
0000
0142
cafe
281f
0000
0000
013d
cafe
2c1f
0000
0000
0139
cafe
301f
0000
0000
012c
cafe
341f
0000
0000
0125
cafe
381f
0000
0000
0120
cafe
3c1f
0000
0000
0118
cafe
201f
0000
0000
0111
cafe
241f
0000
0000
0113
cafe
281f
0000
0000
010f
cafe
2c1f
0000
0000
010f
cafe
301f
0000
0000
0107
cafe
341f
0000
0000
010c
cafe
381f
0000
0000
0117
cafe
3c1f
0000
0000
0117
cafe
201f
0000
0000
011b
cafe
241f
0000
0000
0120
cafe
281f
0000
0000
0126
cafe
2c1f
0000
0000
0124
cafe
301f
0000
0000
012b
cafe
341f
0000
0000
012a
cafe
381f
0000
0000
012f
cafe
3c1f
0000
0000
0139
cafe
201f
0000
0000
0139
cafe
241f
0000
0000
0144
cafe
281f
0000
0000
0148
cafe
2c1f
0000
0000
014d
cafe
301f
0000
0000
014a
cafe
341f
0000
0000
013a
-
cafe
381f
0000
0000
0130
cafe
3c1f
0000
0000
0138
cafe
201f
0000
0000
013b
cafe
241f
0000
0000
0139
cafe
281f
0000
0000
0131
cafe
2c1f
0000
0000
012f
cafe
301f
0000
0000
0135
cafe
341f
0000
0000
0133
cafe
381f
0000
0000
0134
cafe
3c1f
0000
0000
0132
cafe
201f
0000
0000
012c
cafe
241f
0000
0000
0128
cafe
281f
0000
0000
012b
cafe
2c1f
0000
0000
012c
cafe
301f
0000
0000
0125
cafe
341f
0000
0000
012b
cafe
381f
0000
0000
013b
cafe
3c1f
0000
0000
0140
cafe
201f
0000
0000
0146
cafe
241f
0000
0000
013e
cafe
281f
0000
0000
0142
cafe
2c1f
0000
0000
0143
cafe
301f
0000
0000
0149
cafe
341f
0000
0000
0143
cafe
381f
0000
0000
0148
cafe
3c1f
0000
0000
0140
cafe
201f
0000
0000
0144
cafe
241f
0000
0000
0146
cafe
281f
0000
0000
0147
cafe
2c1f
0000
0000
0144
cafe
301f
0000
0000
0141
cafe
341f
0000
0000
013b
cafe
381f
0000
0000
0137
cafe
3c1f
0000
0000
012f
cafe
201f
0000
0000
011f
cafe
241f
0000
0000
011e
cafe
281f
0000
0000
011b
cafe
2c1f
0000
0000
0119
cafe
301f
0000
0000
0118
cafe
341f
0000
0000
0117
cafe
381f
0000
0000
011a
cafe
3c1f
0000
0000
011b
cafe
201f
0000
0000
011d
cafe
241f
0000
0000
011d
cafe
281f
0000
0000
0118
cafe
2c1f
0000
0000
0114
cafe
301f
0000
0000
0111
cafe
341f
0000
0000
0115
cafe
381f
0000
0000
011f
cafe
3c1f
0000
0000
0124
cafe
201f
0000
0000
012b
cafe
-
241f
0000
0000
0137
cafe
281f
0000
0000
013b
cafe
2c1f
0000
0000
014b
cafe
301f
0000
0000
014c
cafe
341f
0000
0000
0152
cafe
381f
0000
0000
0155
cafe
3c1f
0000
0000
0159
cafe
201f
0000
0000
015d
cafe
241f
0000
0000
0163
cafe
281f
0000
0000
0158
cafe
2c1f
0000
0000
0153
cafe
301f
0000
0000
014d
cafe
341f
0000
0000
0147
cafe
381f
0000
0000
0140
cafe
3c1f
0000
0000
0132
cafe
201f
0000
0000
0130
cafe
241f
0000
0000
012d
cafe
281f
0000
0000
0133
cafe
2c1f
0000
0000
0133
cafe
301f
0000
0000
012b
cafe
341f
0000
0000
012c
cafe
381f
0000
0000
0121
cafe
3c1f
0000
0000
0120
cafe
201f
0000
0000
011e
cafe
241f
0000
0000
011a
cafe
281f
0000
0000
0117
cafe
2c1f
0000
0000
0111
cafe
301f
0000
0000
0114
cafe
341f
0000
0000
0115
cafe
381f
0000
0000
0119
cafe
3c1f
0000
0000
0125
cafe
201f
0000
0000
0126
cafe
241f
0000
0000
012e
cafe
281f
0000
0000
0134
cafe
2c1f
0000
0000
013a
cafe
301f
0000
0000
013e
cafe
341f
0000
0000
014c
cafe
381f
0000
0000
014e
cafe
3c1f
0000
0000
0152
cafe
201f
0000
0000
0151
cafe
241f
0000
0000
0150
cafe
281f
0000
0000
0150
cafe
2c1f
0000
0000
0153
cafe
301f
0000
0000
014e
cafe
341f
0000
0000
0146
cafe
381f
0000
0000
0139
cafe
3c1f
0000
0000
0137
cafe
201f
0000
0000
0137
cafe
241f
0000
0000
0139
cafe
281f
0000
0000
0136
cafe
2c1f
0000
0000
0130
cafe
301f
-
0000
0000
0125
cafe
341f
0000
0000
011e
cafe
381f
0000
0000
0121
cafe
3c1f
0000
0000
0120
cafe
201f
0000
0000
0116
cafe
241f
0000
0000
0114
cafe
281f
0000
0000
0112
cafe
2c1f
0000
0000
0116
cafe
301f
0000
0000
0118
cafe
341f
0000
0000
0115
cafe
381f
0000
0000
0117
cafe
3c1f
0000
0000
011f
cafe
201f
0000
0000
0126
cafe
241f
0000
0000
0130
cafe
281f
0000
0000
0131
cafe
2c1f
0000
0000
0132
cafe
301f
0000
0000
0129
cafe
341f
0000
0000
0130
cafe
381f
0000
0000
0135
cafe
3c1f
0000
0000
013a
cafe
201f
0000
0000
013b
cafe
241f
0000
0000
0138
cafe
281f
0000
0000
0135
cafe
2c1f
0000
0000
0131
cafe
301f
0000
0000
012b
cafe
341f
0000
0000
0121
cafe
381f
0000
0000
011e
cafe
3c1f
0000
0000
011e
cafe
201f
0000
0000
011b
cafe
241f
0000
0000
011b
cafe
281f
0000
0000
0119
cafe
2c1f
0000
0000
011b
cafe
301f
0000
0000
011e
cafe
341f
0000
0000
0119
cafe
381f
0000
0000
0117
cafe
3c1f
0000
0000
011b
cafe
201f
0000
0000
011a
cafe
241f
0000
0000
0127
cafe
281f
0000
0000
0125
cafe
2c1f
0000
0000
0129
cafe
301f
0000
0000
0121
cafe
341f
0000
0000
012d
cafe
381f
0000
0000
0133
cafe
3c1f
0000
0000
0141
cafe
201f
0000
0000
0144
cafe
241f
0000
0000
014b
cafe
281f
0000
0000
0140
cafe
2c1f
0000
0000
013d
cafe
301f
0000
0000
013d
cafe
341f
0000
0000
0140
cafe
381f
0000
0000
013f
cafe
3c1f
0000
-
0000
013b
cafe
201f
0000
0000
0139
cafe
241f
0000
0000
0141
cafe
281f
0000
0000
0144
cafe
2c1f
0000
0000
0145
cafe
301f
0000
0000
0148
cafe
341f
0000
0000
0146
cafe
381f
0000
0000
0141
cafe
3c1f
0000
0000
013d
cafe
201f
0000
0000
0135
cafe
241f
0000
0000
012b
cafe
281f
0000
0000
0131
cafe
2c1f
0000
0000
0131
cafe
301f
0000
0000
0131
cafe
341f
0000
0000
0138
cafe
381f
0000
0000
013c
cafe
3c1f
0000
0000
0135
cafe
201f
0000
0000
0131
cafe
241f
0000
0000
0129
cafe
281f
0000
0000
0128
cafe
2c1f
0000
0000
011e
cafe
301f
0000
0000
0124
cafe
341f
0000
0000
011f
cafe
381f
0000
0000
0119
cafe
3c1f
0000
0000
011f
cafe
201f
0000
0000
012b
cafe
241f
0000
0000
0133
cafe
281f
0000
0000
0137
cafe
2c1f
0000
0000
0140
cafe
301f
0000
0000
0146
cafe
341f
0000
0000
0141
cafe
381f
0000
0000
0142
cafe
3c1f
0000
0000
0147
cafe
201f
0000
0000
0152
cafe
241f
0000
0000
0153
cafe
281f
0000
0000
0151
cafe
2c1f
0000
0000
0151
cafe
301f
0000
0000
0152
cafe
341f
0000
0000
0150
cafe
381f
0000
0000
0142
cafe
3c1f
0000
0000
013d
cafe
201f
0000
0000
0133
cafe
241f
0000
0000
0134
cafe
281f
0000
0000
0135
cafe
2c1f
0000
0000
0139
cafe
301f
0000
0000
012d
cafe
341f
0000
0000
012c
cafe
381f
0000
0000
012a
cafe
3c1f
0000
0000
0124
cafe
201f
0000
0000
0127
cafe
241f
0000
0000
0125
cafe
281f
0000
0000
-
011f
cafe
2c1f
0000
0000
0119
cafe
301f
0000
0000
0115
cafe
341f
0000
0000
0113
cafe
381f
0000
0000
0112
cafe
3c1f
0000
0000
0112
cafe
201f
0000
0000
0123
cafe
241f
0000
0000
0132
cafe
281f
0000
0000
0138
cafe
2c1f
0000
0000
013d
cafe
301f
0000
0000
0141
cafe
341f
0000
0000
0146
cafe
381f
0000
0000
0148
cafe
3c1f
0000
0000
014a
cafe
201f
0000
0000
014a
cafe
241f
0000
0000
014f
cafe
281f
0000
0000
014c
cafe
2c1f
0000
0000
015a
cafe
301f
0000
0000
0155
cafe
341f
0000
0000
0155
cafe
381f
0000
0000
014e
cafe
3c1f
0000
0000
013d
cafe
201f
0000
0000
013b
cafe
241f
0000
0000
0136
cafe
281f
0000
0000
0138
cafe
2c1f
0000
0000
0135
cafe
301f
0000
0000
0131
cafe
341f
0000
0000
012a
cafe
381f
0000
0000
012e
cafe
3c1f
0000
0000
012f
cafe
201f
0000
0000
012c
cafe
241f
0000
0000
0129
cafe
281f
0000
0000
011b
cafe
2c1f
0000
0000
011f
cafe
301f
0000
0000
011e
cafe
341f
0000
0000
011c
cafe
381f
0000
0000
011c
cafe
3c1f
0000
0000
011d
cafe
201f
0000
0000
012a
cafe
241f
0000
0000
0139
cafe
281f
0000
0000
0138
cafe
2c1f
0000
0000
0134
cafe
301f
0000
0000
0138
cafe
341f
0000
0000
013c
cafe
381f
0000
0000
013b
cafe
3c1f
0000
0000
013b
cafe
201f
0000
0000
0142
cafe
241f
0000
0000
013d
cafe
281f
0000
0000
0147
cafe
2c1f
0000
0000
0145
cafe
301f
0000
0000
0148
cafe
341f
0000
0000
014d
-
cafe
381f
0000
0000
014c
cafe
3c1f
0000
0000
0141
cafe
201f
0000
0000
0145
cafe
241f
0000
0000
013c
cafe
281f
0000
0000
013a
cafe
2c1f
0000
0000
0136
cafe
301f
0000
0000
012c
cafe
341f
0000
0000
0124
cafe
381f
0000
0000
011e
cafe
3c1f
0000
0000
0111
cafe
201f
0000
0000
0116
cafe
241f
0000
0000
0114
cafe
281f
0000
0000
011b
cafe
2c1f
0000
0000
011c
cafe
301f
0000
0000
0118
cafe
341f
0000
0000
011d
cafe
381f
0000
0000
011a
cafe
3c1f
0000
0000
011c
cafe
201f
0000
0000
0124
cafe
241f
0000
0000
012f
cafe
281f
0000
0000
012f
cafe
2c1f
0000
0000
0135
cafe
301f
0000
0000
013b
cafe
341f
0000
0000
013d
cafe
381f
0000
0000
0135
cafe
3c1f
0000
0000
0133
cafe
201f
0000
0000
0138
cafe
241f
0000
0000
013f
cafe
281f
0000
0000
0147
cafe
2c1f
0000
0000
0149
cafe
301f
0000
0000
0148
cafe
341f
0000
0000
0140
cafe
381f
0000
0000
013f
cafe
3c1f
0000
0000
0136
cafe
201f
0000
0000
0130
cafe
241f
0000
0000
012f
cafe
281f
0000
0000
0121
cafe
2c1f
0000
0000
011e
cafe
301f
0000
0000
0112
cafe
341f
0000
0000
0110
cafe
381f
0000
0000
0112
cafe
3c1f
0000
0000
0110
cafe
201f
0000
0000
010e
cafe
241f
0000
0000
010d
cafe
281f
0000
0000
0112
cafe
2c1f
0000
0000
0116
cafe
301f
0000
0000
0117
cafe
341f
0000
0000
035a
cafe
381f
0000
0000
03c0
cafe
3c1f
0000
0000
039c
cafe
201f
0000
0000
036a
cafe
-
241f
0000
0000
034c
cafe
281f
0000
0000
0330
cafe
2c1f
0000
0000
0310
cafe
301f
0000
0000
02f1
cafe
341f
0000
0000
02cb
cafe
381f
0000
0000
02a0
cafe
3c1f
0000
0000
028b
cafe
201f
0000
0000
026f
cafe
241f
0000
0000
025a
cafe
281f
0000
0000
023c
cafe
2c1f
0000
0000
022c
cafe
301f
0000
0000
020f
cafe
341f
0000
0000
01fe
cafe
381f
0000
0000
01ee
cafe
3c1f
0000
0000
01d2
cafe
201f
0000
0000
01b8
cafe
241f
0000
0000
019e
cafe
281f
0000
0000
0196
cafe
2c1f
0000
0000
018c
cafe
301f
0000
0000
017a
cafe
341f
0000
0000
0168
cafe
381f
0000
0000
0157
cafe
3c1f
0000
0000
014f
cafe
201f
0000
0000
014d
cafe
241f
0000
0000
0148
cafe
281f
0000
0000
013d
cafe
2c1f
0000
0000
0135
cafe
301f
0000
0000
0139
cafe
341f
0000
0000
0138
cafe
381f
0000
0000
012d
cafe
3c1f
0000
0000
012c
cafe
201f
0000
0000
012a
cafe
241f
0000
0000
013a
cafe
281f
0000
0000
0133
cafe
2c1f
0000
0000
013e
cafe
301f
0000
0000
013d
cafe
341f
0000
0000
0137
cafe
381f
0000
0000
013b
cafe
3c1f
0000
0000
013b
cafe
201f
0000
0000
0135
cafe
241f
0000
0000
0133
cafe
281f
0000
0000
0134
cafe
2c1f
0000
0000
0130
cafe
301f
0000
0000
0131
cafe
341f
0000
0000
013a
cafe
381f
0000
0000
013e
cafe
3c1f
0000
0000
0140
cafe
201f
0000
0000
0133
cafe
241f
0000
0000
0130
cafe
281f
0000
0000
0131
cafe
2c1f
0000
0000
012b
cafe
301f
-
0000
0000
0126
cafe
341f
0000
0000
0122
cafe
381f
0000
0000
011a
cafe
3c1f
0000
0000
0111
cafe
201f
0000
0000
0107
cafe
241f
0000
0000
0107
cafe
281f
0000
0000
0103
cafe
2c1f
0000
0000
00fb
cafe
301f
0000
0000
00f4
cafe
341f
0000
0000
0102
cafe
381f
0000
0000
00f5
cafe
3c1f
0000
0000
00f7
cafe
201f
0000
0000
00f6
cafe
241f
0000
0000
00fc
cafe
281f
0000
0000
0102
cafe
2c1f
0000
0000
010b
cafe
301f
0000
0000
0110
cafe
341f
0000
0000
0117
cafe
381f
0000
0000
011a
cafe
3c1f
0000
0000
0117
cafe
201f
0000
0000
011b
cafe
241f
0000
0000
0122
cafe
281f
0000
0000
012b
cafe
2c1f
0000
0000
0133
cafe
301f
0000
0000
0132
cafe
341f
0000
0000
0130
cafe
381f
0000
0000
0129
cafe
3c1f
0000
0000
012f
cafe
201f
0000
0000
0129
cafe
241f
0000
0000
011a
cafe
281f
0000
0000
0119
cafe
2c1f
0000
0000
0110
cafe
301f
0000
0000
010e
cafe
341f
0000
0000
0108
cafe
381f
0000
0000
00f8
cafe
3c1f
0000
0000
00f3
cafe
201f
0000
0000
00f8
cafe
241f
0000
0000
00f7
cafe
281f
0000
0000
00f3
cafe
2c1f
0000
0000
00e5
cafe
301f
0000
0000
00e1
cafe
341f
0000
0000
00ea
cafe
381f
0000
0000
00e8
cafe
3c1f
0000
0000
00f1
cafe
201f
0000
0000
00ec
cafe
241f
0000
0000
00f5
cafe
281f
0000
0000
00fe
cafe
2c1f
0000
0000
0107
cafe
301f
0000
0000
0111
cafe
341f
0000
0000
011b
cafe
381f
0000
0000
0125
cafe
3c1f
0000
-
0000
012c
cafe
201f
0000
0000
0134
cafe
241f
0000
0000
0140
cafe
281f
0000
0000
0142
cafe
2c1f
0000
0000
0143
cafe
301f
0000
0000
013e
cafe
341f
0000
0000
0136
cafe
381f
0000
0000
012f
cafe
3c1f
0000
0000
0129
cafe
201f
0000
0000
0126
cafe
241f
0000
0000
0119
cafe
281f
0000
0000
0114
cafe
2c1f
0000
0000
010d
cafe
301f
0000
0000
010f
cafe
341f
0000
0000
010d
cafe
381f
0000
0000
0109
cafe
3c1f
0000
0000
010a
cafe
201f
0000
0000
0107
cafe
241f
0000
0000
0103
cafe
281f
0000
0000
010a
cafe
2c1f
0000
0000
010d
cafe
301f
0000
0000
010f
cafe
341f
0000
0000
0119
cafe
381f
0000
0000
0119
cafe
3c1f
0000
0000
0117
cafe
201f
0000
0000
0119
cafe
241f
0000
0000
0122
cafe
281f
0000
0000
012c
cafe
2c1f
0000
0000
0130
cafe
301f
0000
0000
0132
cafe
341f
0000
0000
0135
cafe
381f
0000
0000
0127
cafe
3c1f
0000
0000
012c
cafe
201f
0000
0000
012e
cafe
241f
0000
0000
0129
cafe
281f
0000
0000
0131
cafe
2c1f
0000
0000
012a
cafe
301f
0000
0000
012b
cafe
341f
0000
0000
012a
cafe
381f
0000
0000
012b
cafe
3c1f
0000
0000
0124
cafe
201f
0000
0000
0115
cafe
241f
0000
0000
010e
cafe
281f
0000
0000
0111
cafe
2c1f
0000
0000
010a
cafe
301f
0000
0000
010e
cafe
341f
0000
0000
0111
cafe
381f
0000
0000
010d
cafe
3c1f
0000
0000
0109
cafe
201f
0000
0000
0107
cafe
241f
0000
0000
0103
cafe
281f
0000
0000
-
00fb
cafe
2c1f
0000
0000
00fc
cafe
301f
0000
0000
00f4
cafe
341f
0000
0000
00f2
cafe
381f
0000
0000
00f8
cafe
3c1f
0000
0000
00f9
cafe
201f
0000
0000
00fb
cafe
241f
0000
0000
00f7
cafe
281f
0000
0000
00ff
cafe
2c1f
0000
0000
0110
cafe
301f
0000
0000
0115
cafe
341f
0000
0000
011f
cafe
381f
0000
0000
011c
cafe
3c1f
0000
0000
0118
cafe
201f
0000
0000
011c
cafe
241f
0000
0000
011c
cafe
281f
0000
0000
0119
cafe
2c1f
0000
0000
011e
cafe
301f
0000
0000
0121
cafe
341f
0000
0000
0123
cafe
381f
0000
0000
011c
cafe
3c1f
0000
0000
011a
cafe
201f
0000
0000
0116
cafe
241f
0000
0000
0117
cafe
281f
0000
0000
010c
cafe
2c1f
0000
0000
0105
cafe
301f
0000
0000
0104
cafe
341f
0000
0000
0106
cafe
381f
0000
0000
0103
cafe
3c1f
0000
0000
0107
cafe
201f
0000
0000
0102
cafe
241f
0000
0000
0102
cafe
281f
0000
0000
00ff
cafe
2c1f
0000
0000
00fc
cafe
301f
0000
0000
00ff
cafe
341f
0000
0000
00f7
cafe
381f
0000
0000
00f6
cafe
3c1f
0000
0000
00f3
cafe
201f
0000
0000
00fd
cafe
241f
0000
0000
0100
cafe
281f
0000
0000
00fb
cafe
2c1f
0000
0000
010b
cafe
301f
0000
0000
0112
cafe
341f
0000
0000
0119
cafe
381f
0000
0000
0121
cafe
3c1f
0000
0000
012b
cafe
201f
0000
0000
0127
cafe
241f
0000
0000
0130
cafe
281f
0000
0000
0136
cafe
2c1f
0000
0000
013e
cafe
301f
0000
0000
014c
cafe
341f
0000
0000
014e
-
cafe
381f
0000
0000
0149
cafe
3c1f
0000
0000
014e
cafe
201f
0000
0000
0151
cafe
241f
0000
0000
014b
cafe
281f
0000
0000
013c
cafe
2c1f
0000
0000
0137
cafe
301f
0000
0000
012e
cafe
341f
0000
0000
0129
cafe
381f
0000
0000
011d
cafe
3c1f
0000
0000
0119
cafe
201f
0000
0000
011f
cafe
241f
0000
0000
011f
cafe
281f
0000
0000
011c
cafe
2c1f
0000
0000
011c
cafe
301f
0000
0000
0116
cafe
341f
0000
0000
0111
cafe
381f
0000
0000
010d
cafe
3c1f
0000
0000
0109
cafe
201f
0000
0000
00fe
cafe
241f
0000
0000
00fc
cafe
281f
0000
0000
0102
cafe
2c1f
0000
0000
0103
cafe
301f
0000
0000
0111
cafe
341f
0000
0000
011f
cafe
381f
0000
0000
011b
cafe
3c1f
0000
0000
0127
cafe
201f
0000
0000
0129
cafe
241f
0000
0000
0128
cafe
281f
0000
0000
0128
cafe
2c1f
0000
0000
0124
cafe
301f
0000
0000
012a
cafe
341f
0000
0000
0126
cafe
381f
0000
0000
012b
cafe
3c1f
0000
0000
012b
cafe
201f
0000
0000
012b
cafe
241f
0000
0000
0129
cafe
281f
0000
0000
0124
cafe
2c1f
0000
0000
0127
cafe
301f
0000
0000
0122
cafe
341f
0000
0000
0122
cafe
381f
0000
0000
011d
cafe
3c1f
0000
0000
0114
cafe
201f
0000
0000
0113
cafe
241f
0000
0000
0114
cafe
281f
0000
0000
0118
cafe
2c1f
0000
0000
0119
cafe
301f
0000
0000
011f
cafe
341f
0000
0000
0121
cafe
381f
0000
0000
0119
cafe
3c1f
0000
0000
0113
cafe
201f
0000
0000
0110
cafe
-
241f
0000
0000
010d
cafe
281f
0000
0000
0112
cafe
2c1f
0000
0000
0115
cafe
301f
0000
0000
011c
cafe
341f
0000
0000
0127
cafe
381f
0000
0000
0131
cafe
3c1f
0000
0000
012c
cafe
201f
0000
0000
0139
cafe
241f
0000
0000
0140
cafe
281f
0000
0000
0144
cafe
2c1f
0000
0000
0145
cafe
301f
0000
0000
0148
cafe
341f
0000
0000
0147
cafe
381f
0000
0000
0149
cafe
3c1f
0000
0000
0146
cafe
201f
0000
0000
0153
cafe
241f
0000
0000
0153
cafe
281f
0000
0000
0137
cafe
2c1f
0000
0000
00fe
cafe
301f
0000
0000
00f5
cafe
341f
0000
0000
00f0
cafe
381f
0000
0000
00f0
cafe
3c1f
0000
0000
00f5
cafe
201f
0000
0000
00f4
cafe
241f
0000
0000
00f1
cafe
281f
0000
0000
00f0
cafe
2c1f
0000
0000
00ef
cafe
301f
0000
0000
00f5
cafe
341f
0000
0000
00ec
cafe
381f
0000
0000
00f3
cafe
3c1f
0000
0000
00f7
cafe
201f
0000
0000
0102
cafe
241f
0000
0000
0105
cafe
281f
0000
0000
0110
cafe
2c1f
0000
0000
010f
cafe
301f
0000
0000
0114
cafe
341f
0000
0000
0122
cafe
381f
0000
0000
012c
cafe
3c1f
0000
0000
0132
cafe
201f
0000
0000
0138
cafe
241f
0000
0000
013e
cafe
281f
0000
0000
0142
cafe
2c1f
0000
0000
0146
cafe
301f
0000
0000
0146
cafe
341f
0000
0000
0142
cafe
381f
0000
0000
0136
cafe
3c1f
0000
0000
013a
cafe
201f
0000
0000
013a
cafe
241f
0000
0000
013e
cafe
281f
0000
0000
013c
cafe
2c1f
0000
0000
0136
cafe
301f
-
0000
0000
0136
cafe
341f
0000
0000
0132
cafe
381f
0000
0000
012e
cafe
3c1f
0000
0000
012c
cafe
201f
0000
0000
012c
cafe
241f
0000
0000
012f
cafe
281f
0000
0000
012e
cafe
2c1f
0000
0000
012d
cafe
301f
0000
0000
012d
cafe
341f
0000
0000
0125
cafe
381f
0000
0000
0121
cafe
3c1f
0000
0000
0122
cafe
201f
0000
0000
0123
cafe
241f
0000
0000
0125
cafe
281f
0000
0000
011f
cafe
2c1f
0000
0000
011c
cafe
301f
0000
0000
011c
cafe
341f
0000
0000
0129
cafe
381f
0000
0000
012e
cafe
3c1f
0000
0000
0136
cafe
201f
0000
0000
0132
cafe
241f
0000
0000
013c
cafe
281f
0000
0000
0140
cafe
2c1f
0000
0000
0142
cafe
301f
0000
0000
014b
cafe
341f
0000
0000
0154
cafe
381f
0000
0000
0159
cafe
3c1f
0000
0000
0156
cafe
201f
0000
0000
015a
cafe
241f
0000
0000
0156
cafe
281f
0000
0000
0150
cafe
2c1f
0000
0000
0142
cafe
301f
0000
0000
0139
cafe
341f
0000
0000
0135
cafe
381f
0000
0000
0137
cafe
3c1f
0000
0000
0134
cafe
201f
0000
0000
0125
cafe
241f
0000
0000
0121
cafe
281f
0000
0000
011c
cafe
2c1f
0000
0000
0115
cafe
301f
0000
0000
0117
cafe
341f
0000
0000
0115
cafe
381f
0000
0000
0110
cafe
3c1f
0000
0000
010a
cafe
201f
0000
0000
010e
cafe
241f
0000
0000
010f
cafe
281f
0000
0000
0110
cafe
2c1f
0000
0000
010e
cafe
301f
0000
0000
010f
cafe
341f
0000
0000
011d
cafe
381f
0000
0000
0121
cafe
3c1f
0000
-
0000
012a
cafe
201f
0000
0000
0131
cafe
241f
0000
0000
0137
cafe
281f
0000
0000
013b
cafe
2c1f
0000
0000
0142
cafe
301f
0000
0000
0140
cafe
341f
0000
0000
014b
cafe
381f
0000
0000
014d
cafe
3c1f
0000
0000
014b
cafe
201f
0000
0000
0150
cafe
241f
0000
0000
0152
cafe
281f
0000
0000
014e
cafe
2c1f
0000
0000
014a
cafe
301f
0000
0000
0148
cafe
341f
0000
0000
0144
cafe
381f
0000
0000
0138
cafe
3c1f
0000
0000
012c
cafe
201f
0000
0000
0124
cafe
241f
0000
0000
0124
cafe
281f
0000
0000
0124
cafe
2c1f
0000
0000
011e
cafe
301f
0000
0000
0118
cafe
341f
0000
0000
0119
cafe
381f
0000
0000
0116
cafe
3c1f
0000
0000
011a
cafe
201f
0000
0000
011d
cafe
241f
0000
0000
0121
cafe
281f
0000
0000
0122
cafe
2c1f
0000
0000
0124
cafe
301f
0000
0000
0127
cafe
341f
0000
0000
0134
cafe
381f
0000
0000
0139
cafe
3c1f
0000
0000
0140
cafe
201f
0000
0000
0143
cafe
241f
0000
0000
0144
cafe
281f
0000
0000
0147
cafe
2c1f
0000
0000
0147
cafe
301f
0000
0000
014c
cafe
341f
0000
0000
0156
cafe
381f
0000
0000
0155
cafe
3c1f
0000
0000
0150
cafe
201f
0000
0000
0154
cafe
241f
0000
0000
0154
cafe
281f
0000
0000
014f
cafe
2c1f
0000
0000
014a
cafe
301f
0000
0000
0142
cafe
341f
0000
0000
0136
cafe
381f
0000
0000
0132
cafe
3c1f
0000
0000
012e
cafe
201f
0000
0000
012b
cafe
241f
0000
0000
0122
cafe
281f
0000
0000
-
0124
cafe
2c1f
0000
0000
0122
cafe
301f
0000
0000
0127
cafe
341f
0000
0000
0124
cafe
381f
0000
0000
0123
cafe
3c1f
0000
0000
011f
cafe
201f
0000
0000
0122
cafe
241f
0000
0000
0126
cafe
281f
0000
0000
012c
cafe
2c1f
0000
0000
012f
cafe
301f
0000
0000
012d
cafe
341f
0000
0000
0130
cafe
381f
0000
0000
013a
cafe
3c1f
0000
0000
0137
cafe
201f
0000
0000
013b
cafe
241f
0000
0000
013a
cafe
281f
0000
0000
013c
cafe
2c1f
0000
0000
0140
cafe
301f
0000
0000
0146
cafe
341f
0000
0000
014d
cafe
381f
0000
0000
014c
cafe
3c1f
0000
0000
0147
cafe
201f
0000
0000
0149
cafe
241f
0000
0000
0146
cafe
281f
0000
0000
014a
cafe
2c1f
0000
0000
0147
cafe
301f
0000
0000
0140
cafe
341f
0000
0000
0128
cafe
381f
0000
0000
0122
cafe
3c1f
0000
0000
0125
cafe
201f
0000
0000
011b
cafe
241f
0000
0000
0118
cafe
281f
0000
0000
0115
cafe
2c1f
0000
0000
011b
cafe
301f
0000
0000
0117
cafe
341f
0000
0000
0116
cafe
381f
0000
0000
0116
cafe
3c1f
0000
0000
0117
cafe
201f
0000
0000
011a
cafe
241f
0000
0000
0124
cafe
281f
0000
0000
012a
cafe
2c1f
0000
0000
0132
cafe
301f
0000
0000
012e
cafe
341f
0000
0000
012e
cafe
381f
0000
0000
012f
cafe
3c1f
0000
0000
012e
cafe
201f
0000
0000
0129
cafe
241f
0000
0000
0131
cafe
281f
0000
0000
0132
cafe
2c1f
0000
0000
0134
cafe
301f
0000
0000
0139
cafe
341f
0000
0000
0136
-
cafe
381f
0000
0000
013b
cafe
3c1f
0000
0000
013a
cafe
201f
0000
0000
0140
cafe
241f
0000
0000
013b
cafe
281f
0000
0000
0137
cafe
2c1f
0000
0000
0138
cafe
301f
0000
0000
0136
cafe
341f
0000
0000
0138
cafe
381f
0000
0000
0130
cafe
3c1f
0000
0000
0131
cafe
201f
0000
0000
012c
cafe
241f
0000
0000
0128
cafe
281f
0000
0000
0127
cafe
2c1f
0000
0000
0127
cafe
301f
0000
0000
0122
cafe
341f
0000
0000
0125
cafe
381f
0000
0000
0123
cafe
3c1f
0000
0000
011e
cafe
201f
0000
0000
011c
cafe
241f
0000
0000
0114
cafe
281f
0000
0000
0112
cafe
2c1f
0000
0000
0116
cafe
301f
0000
0000
0119
cafe
341f
0000
0000
011f
cafe
381f
0000
0000
011d
cafe
3c1f
0000
0000
0129
cafe
201f
0000
0000
012c
cafe
241f
0000
0000
0133
cafe
281f
0000
0000
0137
cafe
2c1f
0000
0000
013d
cafe
301f
0000
0000
013b
cafe
341f
0000
0000
013d
cafe
381f
0000
0000
014c
cafe
3c1f
0000
0000
014f
cafe
201f
0000
0000
014f
cafe
241f
0000
0000
014e
cafe
281f
0000
0000
014e
cafe
2c1f
0000
0000
0152
cafe
301f
0000
0000
0156
cafe
341f
0000
0000
0155
cafe
381f
0000
0000
014c
cafe
3c1f
0000
0000
0148
cafe
201f
0000
0000
0143
cafe
241f
0000
0000
013e
cafe
281f
0000
0000
0136
cafe
2c1f
0000
0000
0133
cafe
301f
0000
0000
012d
cafe
341f
0000
0000
012a
cafe
381f
0000
0000
0125
cafe
3c1f
0000
0000
011f
cafe
201f
0000
0000
0119
cafe
-
241f
0000
0000
010a
cafe
281f
0000
0000
010f
cafe
2c1f
0000
0000
0110
cafe
301f
0000
0000
0111
cafe
341f
0000
0000
0114
cafe
381f
0000
0000
0118
cafe
3c1f
0000
0000
0126
cafe
201f
0000
0000
0130
cafe
241f
0000
0000
012d
cafe
281f
0000
0000
0133
cafe
2c1f
0000
0000
0133
cafe
301f
0000
0000
013e
cafe
341f
0000
0000
0141
cafe
381f
0000
0000
013d
cafe
3c1f
0000
0000
013d
cafe
201f
0000
0000
0141
cafe
241f
0000
0000
0144
cafe
281f
0000
0000
0147
cafe
2c1f
0000
0000
0150
cafe
301f
0000
0000
014d
cafe
341f
0000
0000
0149
cafe
381f
0000
0000
013d
cafe
3c1f
0000
0000
013d
cafe
201f
0000
0000
0136
cafe
241f
0000
0000
012c
cafe
281f
0000
0000
012e
cafe
2c1f
0000
0000
0128
cafe
301f
0000
0000
0127
cafe
341f
0000
0000
0122
cafe
381f
0000
0000
011b
cafe
3c1f
0000
0000
0115
cafe
201f
0000
0000
0114
cafe
241f
0000
0000
011e
cafe
281f
0000
0000
011f
cafe
2c1f
0000
0000
011c
cafe
301f
0000
0000
011f
cafe
341f
0000
0000
011b
cafe
381f
0000
0000
0128
cafe
3c1f
0000
0000
012f
cafe
201f
0000
0000
0135
cafe
241f
0000
0000
013c
cafe
281f
0000
0000
0142
cafe
2c1f
0000
0000
0142
cafe
301f
0000
0000
0140
cafe
341f
0000
0000
013a
cafe
381f
0000
0000
0136
cafe
3c1f
0000
0000
013f
cafe
201f
0000
0000
0142
cafe
241f
0000
0000
0143
cafe
281f
0000
0000
014d
cafe
2c1f
0000
0000
0150
cafe
301f
-
0000
0000
014d
cafe
341f
0000
0000
014a
cafe
381f
0000
0000
0142
cafe
3c1f
0000
0000
0139
cafe
201f
0000
0000
012f
cafe
241f
0000
0000
0129
cafe
281f
0000
0000
011e
cafe
2c1f
0000
0000
0121
cafe
301f
0000
0000
011c
cafe
341f
0000
0000
011a
cafe
381f
0000
0000
0119
cafe
3c1f
0000
0000
011f
cafe
201f
0000
0000
0124
cafe
241f
0000
0000
0124
cafe
281f
0000
0000
0124
cafe
2c1f
0000
0000
0122
cafe
301f
0000
0000
0121
cafe
341f
0000
0000
0124
cafe
381f
0000
0000
011f
cafe
3c1f
0000
0000
0120
cafe
201f
0000
0000
012c
cafe
241f
0000
0000
013b
cafe
281f
0000
0000
013f
cafe
2c1f
0000
0000
0141
cafe
301f
0000
0000
014b
cafe
341f
0000
0000
0151
cafe
381f
0000
0000
0156
cafe
3c1f
0000
0000
0158
cafe
201f
0000
0000
0158
cafe
241f
0000
0000
015a
cafe
281f
0000
0000
0150
cafe
2c1f
0000
0000
0148
cafe
301f
0000
0000
014e
cafe
341f
0000
0000
0000
cafe
381f
0000
0000
0000
cafe
3c1f
0000
0000
0000
cafe
201f
0000
0000
0000
cafe
241f
0000
0000
0000
cafe
281f
0000
0000
0000
cafe
2c1f
0000
0000
0000
cafe
301f
0000
0000
0000
cafe
341f
0000
0000
0005
cafe
381f
0000
0000
002f
cafe
3c1f
0000
0000
0054
cafe
201f
0000
0000
006f
cafe
241f
0000
0000
008b
cafe
281f
0000
0000
00a0
cafe
2c1f
0000
0000
00b4
cafe
301f
0000
0000
00c1
cafe
341f
0000
0000
00d5
cafe
381f
0000
0000
00ec
cafe
3c1f
0000
-
0000
00fb
cafe
201f
0000
0000
0110
cafe
241f
0000
0000
011c
cafe
281f
0000
0000
0136
cafe
2c1f
0000
0000
0146
cafe
301f
0000
0000
0152
cafe
341f
0000
0000
015b
cafe
381f
0000
0000
0167
cafe
3c1f
0000
0000
0171
cafe
201f
0000
0000
0176
cafe
241f
0000
0000
0173
cafe
281f
0000
0000
017a
cafe
2c1f
0000
0000
0172
cafe
301f
0000
0000
017c
cafe
341f
0000
0000
017b
cafe
381f
0000
0000
0179
cafe
3c1f
0000
0000
017b
cafe
201f
0000
0000
0178
cafe
241f
0000
0000
0174
cafe
281f
0000
0000
0170
cafe
2c1f
0000
0000
0168
cafe
301f
0000
0000
0167
cafe
341f
0000
0000
0164
cafe
381f
0000
0000
016b
cafe
3c1f
0000
0000
016a
cafe
201f
0000
0000
0165
cafe
241f
0000
0000
0160
cafe
281f
0000
0000
015b
cafe
2c1f
0000
0000
015b
cafe
301f
0000
0000
015b
cafe
341f
0000
0000
015f
cafe
381f
0000
0000
015c
cafe
3c1f
0000
0000
0163
cafe
201f
0000
0000
0165
cafe
241f
0000
0000
0173
cafe
281f
0000
0000
0171
cafe
2c1f
0000
0000
0170
cafe
301f
0000
0000
0177
cafe
341f
0000
0000
0180
cafe
381f
0000
0000
0191
cafe
3c1f
0000
0000
0191
cafe
201f
0000
0000
018b
cafe
241f
0000
0000
0186
cafe
281f
0000
0000
0184
cafe
2c1f
0000
0000
0185
cafe
301f
0000
0000
0178
cafe
341f
0000
0000
0179
cafe
381f
0000
0000
0174
cafe
3c1f
0000
0000
016c
cafe
201f
0000
0000
0163
cafe
241f
0000
0000
015f
cafe
281f
0000
0000
-
015b
cafe
2c1f
0000
0000
015b
cafe
301f
0000
0000
0158
cafe
341f
0000
0000
015a
cafe
381f
0000
0000
0156
cafe
3c1f
0000
0000
0150
cafe
201f
0000
0000
0157
cafe
241f
0000
0000
014c
cafe
281f
0000
0000
0147
cafe
2c1f
0000
0000
014b
cafe
301f
0000
0000
014e
cafe
341f
0000
0000
0152
cafe
381f
0000
0000
0153
cafe
3c1f
0000
0000
0157
cafe
201f
0000
0000
0159
cafe
241f
0000
0000
0157
cafe
281f
0000
0000
015c
cafe
2c1f
0000
0000
0160
cafe
301f
0000
0000
0168
cafe
341f
0000
0000
0168
cafe
381f
0000
0000
016a
cafe
3c1f
0000
0000
0169
cafe
201f
0000
0000
0166
cafe
241f
0000
0000
016b
cafe
281f
0000
0000
0168
cafe
2c1f
0000
0000
015d
cafe
301f
0000
0000
0154
cafe
341f
0000
0000
0152
cafe
381f
0000
0000
0155
cafe
3c1f
0000
0000
0152
cafe
201f
0000
0000
0145
cafe
241f
0000
0000
0143
cafe
281f
0000
0000
013e
cafe
2c1f
0000
0000
0142
cafe
301f
0000
0000
0145
cafe
341f
0000
0000
0146
cafe
381f
0000
0000
0149
cafe
3c1f
0000
0000
014b
cafe
201f
0000
0000
0149
cafe
241f
0000
0000
014d
cafe
281f
0000
0000
014a
cafe
2c1f
0000
0000
013f
cafe
301f
0000
0000
0138
cafe
341f
0000
0000
013c
cafe
381f
0000
0000
0138
cafe
3c1f
0000
0000
0136
cafe
201f
0000
0000
0135
cafe
241f
0000
0000
0137
cafe
281f
0000
0000
0146
cafe
2c1f
0000
0000
014a
cafe
301f
0000
0000
014e
cafe
341f
0000
0000
0154
-
cafe
381f
0000
0000
015a
cafe
3c1f
0000
0000
0162
cafe
201f
0000
0000
0163
cafe
241f
0000
0000
015d
cafe
281f
0000
0000
015a
cafe
2c1f
0000
0000
0160
cafe
301f
0000
0000
015c
cafe
341f
0000
0000
0164
cafe
381f
0000
0000
0165
cafe
3c1f
0000
0000
0164
cafe
201f
0000
0000
0157
cafe
241f
0000
0000
014f
cafe
281f
0000
0000
0149
cafe
2c1f
0000
0000
013f
cafe
301f
0000
0000
0135
cafe
341f
0000
0000
0133
cafe
381f
0000
0000
012c
cafe
3c1f
0000
0000
012b
cafe
201f
0000
0000
012a
cafe
241f
0000
0000
0130
cafe
281f
0000
0000
012a
cafe
2c1f
0000
0000
0129
cafe
301f
0000
0000
0131
cafe
341f
0000
0000
0133
cafe
381f
0000
0000
0126
cafe
3c1f
0000
0000
0125
cafe
201f
0000
0000
012e
cafe
241f
0000
0000
012b
cafe
281f
0000
0000
012e
cafe
2c1f
0000
0000
0139
cafe
301f
0000
0000
0143
cafe
341f
0000
0000
014b
cafe
381f
0000
0000
0152
cafe
3c1f
0000
0000
0152
cafe
201f
0000
0000
0152
cafe
241f
0000
0000
0151
cafe
281f
0000
0000
015a
cafe
2c1f
0000
0000
0157
cafe
301f
0000
0000
0153
cafe
341f
0000
0000
014d
cafe
381f
0000
0000
014c
cafe
3c1f
0000
0000
015a
cafe
201f
0000
0000
0156
cafe
241f
0000
0000
014f
cafe
281f
0000
0000
0148
cafe
2c1f
0000
0000
013e
cafe
301f
0000
0000
013b
cafe
341f
0000
0000
0136
cafe
381f
0000
0000
0138
cafe
3c1f
0000
0000
012f
cafe
201f
0000
0000
0128
cafe
-
241f
0000
0000
0125
cafe
281f
0000
0000
012b
cafe
2c1f
0000
0000
012d
cafe
301f
0000
0000
0126
cafe
341f
0000
0000
011f
cafe
381f
0000
0000
0127
cafe
3c1f
0000
0000
012b
cafe
201f
0000
0000
012b
cafe
241f
0000
0000
012b
cafe
281f
0000
0000
0130
cafe
2c1f
0000
0000
0133
cafe
301f
0000
0000
013d
cafe
341f
0000
0000
0145
cafe
381f
0000
0000
014f
cafe
3c1f
0000
0000
0153
cafe
201f
0000
0000
0151
cafe
241f
0000
0000
0156
cafe
281f
0000
0000
0157
cafe
2c1f
0000
0000
0156
cafe
301f
0000
0000
014f
cafe
341f
0000
0000
0148
cafe
381f
0000
0000
0148
cafe
3c1f
0000
0000
014a
cafe
201f
0000
0000
0141
cafe
241f
0000
0000
013e
cafe
281f
0000
0000
0137
cafe
2c1f
0000
0000
0130
cafe
301f
0000
0000
012a
cafe
341f
0000
0000
012b
cafe
381f
0000
0000
0128
cafe
3c1f
0000
0000
011f
cafe
201f
0000
0000
011e
cafe
241f
0000
0000
011e
cafe
281f
0000
0000
0119
cafe
2c1f
0000
0000
011b
cafe
301f
0000
0000
011a
cafe
341f
0000
0000
0120
cafe
381f
0000
0000
011e
cafe
3c1f
0000
0000
0125
cafe
201f
0000
0000
0129
cafe
241f
0000
0000
0129
cafe
281f
0000
0000
0130
cafe
2c1f
0000
0000
0136
cafe
301f
0000
0000
013d
cafe
341f
0000
0000
013d
cafe
381f
0000
0000
013c
cafe
3c1f
0000
0000
0144
cafe
201f
0000
0000
0146
cafe
241f
0000
0000
0158
cafe
281f
0000
0000
015f
cafe
2c1f
0000
0000
0162
cafe
301f
-
0000
0000
015a
cafe
341f
0000
0000
015f
cafe
381f
0000
0000
0160
cafe
3c1f
0000
0000
0164
cafe
201f
0000
0000
0159
cafe
241f
0000
0000
0158
cafe
281f
0000
0000
014c
cafe
2c1f
0000
0000
0146
cafe
301f
0000
0000
0145
cafe
341f
0000
0000
0143
cafe
381f
0000
0000
0143
cafe
3c1f
0000
0000
013d
cafe
201f
0000
0000
013c
cafe
241f
0000
0000
0133
cafe
281f
0000
0000
0128
cafe
2c1f
0000
0000
011d
cafe
301f
0000
0000
011a
cafe
341f
0000
0000
0118
cafe
381f
0000
0000
011a
cafe
3c1f
0000
0000
011e
cafe
201f
0000
0000
011c
cafe
241f
0000
0000
0123
cafe
281f
0000
0000
012b
cafe
2c1f
0000
0000
0133
cafe
301f
0000
0000
013f
cafe
341f
0000
0000
0147
cafe
381f
0000
0000
014b
cafe
3c1f
0000
0000
014d
cafe
201f
0000
0000
0151
cafe
241f
0000
0000
0154
cafe
281f
0000
0000
0151
cafe
2c1f
0000
0000
014e
cafe
301f
0000
0000
0153
cafe
341f
0000
0000
0152
cafe
381f
0000
0000
014e
cafe
3c1f
0000
0000
0144
cafe
201f
0000
0000
0144
cafe
241f
0000
0000
0142
cafe
281f
0000
0000
0143
cafe
2c1f
0000
0000
0138
cafe
301f
0000
0000
0132
cafe
341f
0000
0000
0130
cafe
381f
0000
0000
0136
cafe
3c1f
0000
0000
0131
cafe
201f
0000
0000
0130
cafe
241f
0000
0000
012c
cafe
281f
0000
0000
0124
cafe
2c1f
0000
0000
0129
cafe
301f
0000
0000
012b
cafe
341f
0000
0000
012c
cafe
381f
0000
0000
0129
cafe
3c1f
0000
-
0000
0129
cafe
201f
0000
0000
012a
cafe
241f
0000
0000
0123
cafe
281f
0000
0000
011f
cafe
2c1f
0000
0000
0127
cafe
301f
0000
0000
012a
cafe
341f
0000
0000
0126
cafe
381f
0000
0000
012e
cafe
3c1f
0000
0000
0129
cafe
201f
0000
0000
012f
cafe
241f
0000
0000
0136
cafe
281f
0000
0000
0138
cafe
2c1f
0000
0000
0145
cafe
301f
0000
0000
0148
cafe
341f
0000
0000
0146
cafe
381f
0000
0000
014c
cafe
3c1f
0000
0000
0157
cafe
201f
0000
0000
0155
cafe
241f
0000
0000
0158
cafe
281f
0000
0000
0156
cafe
2c1f
0000
0000
014a
cafe
301f
0000
0000
0146
cafe
341f
0000
0000
013f
cafe
381f
0000
0000
013e
cafe
3c1f
0000
0000
0133
cafe
201f
0000
0000
011f
cafe
241f
0000
0000
0125
cafe
281f
0000
0000
011f
cafe
2c1f
0000
0000
011c
cafe
301f
0000
0000
0118
cafe
341f
0000
0000
0110
cafe
381f
0000
0000
0111
cafe
3c1f
0000
0000
0107
cafe
201f
0000
0000
0103
cafe
241f
0000
0000
0105
cafe
281f
0000
0000
0107
cafe
2c1f
0000
0000
0106
cafe
301f
0000
0000
0114
cafe
341f
0000
0000
0125
cafe
381f
0000
0000
012d
cafe
3c1f
0000
0000
0130
cafe
201f
0000
0000
0136
cafe
241f
0000
0000
0139
cafe
281f
0000
0000
013f
cafe
2c1f
0000
0000
013e
cafe
301f
0000
0000
0140
cafe
341f
0000
0000
013f
cafe
381f
0000
0000
0149
cafe
3c1f
0000
0000
014e
cafe
201f
0000
0000
0150
cafe
241f
0000
0000
0149
cafe
281f
0000
0000
-
0142
cafe
2c1f
0000
0000
0139
cafe
301f
0000
0000
013f
cafe
341f
0000
0000
0141
cafe
381f
0000
0000
0141
cafe
3c1f
0000
0000
0132
cafe
201f
0000
0000
0134
cafe
241f
0000
0000
0136
cafe
281f
0000
0000
0133
cafe
2c1f
0000
0000
012e
cafe
301f
0000
0000
0126
cafe
341f
0000
0000
0127
cafe
381f
0000
0000
0128
cafe
3c1f
0000
0000
012a
cafe
201f
0000
0000
0127
cafe
241f
0000
0000
0121
cafe
281f
0000
0000
0121
cafe
2c1f
0000
0000
011c
cafe
301f
0000
0000
011b
cafe
341f
0000
0000
011e
cafe
381f
0000
0000
0123
cafe
3c1f
0000
0000
0128
cafe
201f
0000
0000
0129
cafe
241f
0000
0000
012f
cafe
281f
0000
0000
0133
cafe
2c1f
0000
0000
0138
cafe
301f
0000
0000
0142
cafe
341f
0000
0000
014b
cafe
381f
0000
0000
014a
cafe
3c1f
0000
0000
0150
cafe
201f
0000
0000
0143
cafe
241f
0000
0000
0146
cafe
281f
0000
0000
0147
cafe
2c1f
0000
0000
014e
cafe
301f
0000
0000
0148
cafe
341f
0000
0000
0142
cafe
381f
0000
0000
0145
cafe
3c1f
0000
0000
0141
cafe
201f
0000
0000
013f
cafe
241f
0000
0000
0135
cafe
281f
0000
0000
012d
cafe
2c1f
0000
0000
0128
cafe
301f
0000
0000
0121
cafe
341f
0000
0000
011d
cafe
381f
0000
0000
0115
cafe
3c1f
0000
0000
0112
cafe
201f
0000
0000
0116
cafe
241f
0000
0000
011a
cafe
281f
0000
0000
0120
cafe
2c1f
0000
0000
0122
cafe
301f
0000
0000
0121
cafe
341f
0000
0000
012a
-
cafe
381f
0000
0000
0138
cafe
3c1f
0000
0000
013c
cafe
201f
0000
0000
0139
cafe
241f
0000
0000
013c
cafe
281f
0000
0000
013d
cafe
2c1f
0000
0000
013a
cafe
301f
0000
0000
0140
cafe
341f
0000
0000
0143
cafe
381f
0000
0000
0142
cafe
3c1f
0000
0000
013d
cafe
201f
0000
0000
013b
cafe
241f
0000
0000
0140
cafe
281f
0000
0000
0143
cafe
2c1f
0000
0000
0142
cafe
301f
0000
0000
0135
cafe
341f
0000
0000
0134
cafe
381f
0000
0000
0134
cafe
3c1f
0000
0000
0136
cafe
201f
0000
0000
0134
cafe
241f
0000
0000
012e
cafe
281f
0000
0000
0129
cafe
2c1f
0000
0000
0123
cafe
301f
0000
0000
0120
cafe
341f
0000
0000
011a
cafe
381f
0000
0000
0119
cafe
3c1f
0000
0000
0115
cafe
201f
0000
0000
0113
cafe
241f
0000
0000
0112
cafe
281f
0000
0000
0115
cafe
2c1f
0000
0000
010e
cafe
301f
0000
0000
0118
cafe
341f
0000
0000
0119
cafe
381f
0000
0000
011e
cafe
3c1f
0000
0000
012a
cafe
201f
0000
0000
0132
cafe
241f
0000
0000
013b
cafe
281f
0000
0000
013c
cafe
2c1f
0000
0000
0144
cafe
301f
0000
0000
0145
cafe
341f
0000
0000
0149
cafe
381f
0000
0000
014c
cafe
3c1f
0000
0000
014e
cafe
201f
0000
0000
014d
cafe
241f
0000
0000
0147
cafe
281f
0000
0000
0146
cafe
2c1f
0000
0000
0142
cafe
301f
0000
0000
013a
cafe
341f
0000
0000
012c
cafe
381f
0000
0000
0125
cafe
3c1f
0000
0000
0124
cafe
201f
0000
0000
012b
cafe
-
241f
0000
0000
012a
cafe
281f
0000
0000
0124
cafe
2c1f
0000
0000
012a
cafe
301f
0000
0000
012b
cafe
341f
0000
0000
0127
cafe
381f
0000
0000
0127
cafe
3c1f
0000
0000
0132
cafe
201f
0000
0000
0133
cafe
241f
0000
0000
0135
cafe
281f
0000
0000
0132
cafe
2c1f
0000
0000
0127
cafe
301f
0000
0000
012a
cafe
341f
0000
0000
012b
cafe
381f
0000
0000
0133
cafe
3c1f
0000
0000
0133
cafe
201f
0000
0000
012e
cafe
241f
0000
0000
0138
cafe
281f
0000
0000
0132
cafe
2c1f
0000
0000
0132
cafe
301f
0000
0000
0133
cafe
341f
0000
0000
0133
cafe
381f
0000
0000
0136
cafe
3c1f
0000
0000
013f
cafe
201f
0000
0000
0140
cafe
241f
0000
0000
013d
cafe
281f
0000
0000
013c
cafe
2c1f
0000
0000
0139
cafe
301f
0000
0000
0141
cafe
341f
0000
0000
0142
cafe
381f
0000
0000
013f
cafe
3c1f
0000
0000
013b
cafe
201f
0000
0000
0139
cafe
241f
0000
0000
013a
cafe
281f
0000
0000
0132
cafe
2c1f
0000
0000
0138
cafe
301f
0000
0000
013b
cafe
341f
0000
0000
0135
cafe
381f
0000
0000
0128
cafe
3c1f
0000
0000
012a
cafe
201f
0000
0000
012d
cafe
241f
0000
0000
012c
cafe
281f
0000
0000
0125
cafe
2c1f
0000
0000
0122
cafe
301f
0000
0000
011b
cafe
341f
0000
0000
011a
cafe
381f
0000
0000
011e
cafe
3c1f
0000
0000
0126
cafe
201f
0000
0000
0130
cafe
241f
0000
0000
0135
cafe
281f
0000
0000
0133
cafe
2c1f
0000
0000
0136
cafe
301f
-
0000
0000
0131
cafe
341f
0000
0000
013b
cafe
381f
0000
0000
013b
cafe
3c1f
0000
0000
0141
cafe
201f
0000
0000
013e
cafe
241f
0000
0000
013b
cafe
281f
0000
0000
014c
cafe
2c1f
0000
0000
0151
cafe
301f
0000
0000
0159
cafe
341f
0000
0000
0154
cafe
381f
0000
0000
0149
cafe
3c1f
0000
0000
0147
cafe
201f
0000
0000
0142
cafe
241f
0000
0000
013f
cafe
281f
0000
0000
0135
cafe
2c1f
0000
0000
012b
cafe
301f
0000
0000
0128
cafe
341f
0000
0000
0124
cafe
381f
0000
0000
0127
cafe
3c1f
0000
0000
0124
cafe
201f
0000
0000
011c
cafe
241f
0000
0000
011b
cafe
281f
0000
0000
0124
cafe
2c1f
0000
0000
011f
cafe
301f
0000
0000
0118
cafe
341f
0000
0000
0111
cafe
381f
0000
0000
011a
cafe
3c1f
0000
0000
0127
cafe
201f
0000
0000
0131
cafe
241f
0000
0000
0138
cafe
281f
0000
0000
0134
cafe
2c1f
0000
0000
0143
cafe
301f
0000
0000
0143
cafe
341f
0000
0000
0149
cafe
381f
0000
0000
014c
cafe
3c1f
0000
0000
014b
cafe
201f
0000
0000
0150
cafe
241f
0000
0000
015c
cafe
281f
0000
0000
0160
cafe
2c1f
0000
0000
015b
cafe
301f
0000
0000
015a
cafe
341f
0000
0000
0154
cafe
381f
0000
0000
0153
cafe
3c1f
0000
0000
0149
cafe
201f
0000
0000
0148
cafe
241f
0000
0000
0141
cafe
281f
0000
0000
013a
cafe
2c1f
0000
0000
0133
cafe
301f
0000
0000
0131
cafe
341f
0000
0000
012f
cafe
381f
0000
0000
012b
cafe
3c1f
0000
-
0000
0126
cafe
201f
0000
0000
0124
cafe
241f
0000
0000
012c
cafe
281f
0000
0000
0136
cafe
2c1f
0000
0000
0129
cafe
301f
0000
0000
0124
cafe
341f
0000
0000
0122
cafe
381f
0000
0000
011f
cafe
3c1f
0000
0000
0122
cafe
201f
0000
0000
0127
cafe
241f
0000
0000
0125
cafe
281f
0000
0000
012a
cafe
2c1f
0000
0000
012a
cafe
301f
0000
0000
012d
cafe
341f
0000
0000
0130
cafe
381f
0000
0000
0134
cafe
3c1f
0000
0000
013e
cafe
201f
0000
0000
0149
cafe
241f
0000
0000
014b
cafe
281f
0000
0000
014f
cafe
2c1f
0000
0000
0151
cafe
301f
0000
0000
0152
cafe
341f
0000
0000
014c
cafe
381f
0000
0000
013e
cafe
3c1f
0000
0000
0139
cafe
201f
0000
0000
0132
cafe
241f
0000
0000
012c
cafe
281f
0000
0000
012e
cafe
2c1f
0000
0000
012d
cafe
301f
0000
0000
012d
cafe
341f
0000
0000
011e
cafe
381f
0000
0000
011b
cafe
3c1f
0000
0000
011b
cafe
201f
0000
0000
011b
cafe
241f
0000
0000
011a
cafe
281f
0000
0000
0114
cafe
2c1f
0000
0000
011a
cafe
301f
0000
0000
011e
cafe
341f
0000
0000
0120
cafe
381f
0000
0000
0124
cafe
3c1f
0000
0000
012b
cafe
201f
0000
0000
0131
cafe
241f
0000
0000
0137
cafe
281f
0000
0000
013c
cafe
2c1f
0000
0000
0139
cafe
301f
0000
0000
013d
cafe
341f
0000
0000
013d
cafe
381f
0000
0000
013e
cafe
3c1f
0000
0000
0140
cafe
201f
0000
0000
0141
cafe
241f
0000
0000
0148
cafe
281f
0000
0000
-
0146
cafe
2c1f
0000
0000
014f
cafe
301f
0000
0000
0155
cafe
341f
0000
0000
0153
cafe
381f
0000
0000
014e
cafe
3c1f
0000
0000
014b
cafe
201f
0000
0000
0141
cafe
241f
0000
0000
013f
cafe
281f
0000
0000
0140
cafe
2c1f
0000
0000
013c
cafe
301f
0000
0000
0136
cafe
341f
0000
0000
0135
cafe
381f
0000
0000
0130
cafe
3c1f
0000
0000
012e
cafe
201f
0000
0000
0128
cafe
241f
0000
0000
0124
cafe
281f
0000
0000
0121
cafe
2c1f
0000
0000
011d
cafe
301f
0000
0000
0121
cafe
341f
0000
0000
012a
cafe
381f
0000
0000
011e
cafe
3c1f
0000
0000
0122
cafe
201f
0000
0000
0124
cafe
241f
0000
0000
012a
cafe
281f
0000
0000
012f
cafe
2c1f
0000
0000
0134
cafe
301f
0000
0000
013c
cafe
341f
0000
0000
0142
cafe
381f
0000
0000
0148
cafe
3c1f
0000
0000
014c
cafe
201f
0000
0000
0147
cafe
241f
0000
0000
014f
cafe
281f
0000
0000
0158
cafe
2c1f
0000
0000
015a
cafe
301f
0000
0000
0153
cafe
341f
0000
0000
0150
cafe
381f
0000
0000
014c
cafe
3c1f
0000
0000
0143
cafe
201f
0000
0000
013a
cafe
241f
0000
0000
0136
cafe
281f
0000
0000
0132
cafe
2c1f
0000
0000
0125
cafe
301f
0000
0000
011d
cafe
341f
0000
0000
0117
cafe
381f
0000
0000
0111
cafe
3c1f
0000
0000
0111
cafe
201f
0000
0000
0111
cafe
241f
0000
0000
0115
cafe
281f
0000
0000
0120
cafe
2c1f
0000
0000
0124
cafe
301f
0000
0000
011f
cafe
341f
0000
0000
0119
-
cafe
381f
0000
0000
011c
cafe
3c1f
0000
0000
0125
cafe
201f
0000
0000
0128
cafe
241f
0000
0000
012f
cafe
281f
0000
0000
0137
cafe
2c1f
0000
0000
013d
cafe
301f
0000
0000
0141
cafe
341f
0000
0000
0140
cafe
381f
0000
0000
013d
cafe
3c1f
0000
0000
0138
cafe
201f
0000
0000
0144
cafe
241f
0000
0000
0143
cafe
281f
0000
0000
013d
cafe
2c1f
0000
0000
013d
cafe
301f
0000
0000
0141
cafe
341f
0000
0000
013e
cafe
381f
0000
0000
0141
cafe
3c1f
0000
0000
013e
cafe
201f
0000
0000
012f
cafe
241f
0000
0000
012d
cafe
281f
0000
0000
0133
cafe
2c1f
0000
0000
0132
cafe
301f
0000
0000
0137
cafe
341f
0000
0000
0134
cafe
381f
0000
0000
0133
cafe
3c1f
0000
0000
0130
cafe
201f
0000
0000
0139
cafe
241f
0000
0000
0142
cafe
281f
0000
0000
0139
cafe
2c1f
0000
0000
0139
cafe
301f
0000
0000
0138
cafe
341f
0000
0000
012f
cafe
381f
0000
0000
0128
cafe
3c1f
0000
0000
0127
cafe
201f
0000
0000
012b
cafe
241f
0000
0000
0131
cafe
281f
0000
0000
0137
cafe
2c1f
0000
0000
0141
cafe
301f
0000
0000
013d
cafe
341f
0000
0000
0138
cafe
381f
0000
0000
013f
cafe
3c1f
0000
0000
014c
cafe
201f
0000
0000
0154
cafe
241f
0000
0000
0152
cafe
281f
0000
0000
0158
cafe
2c1f
0000
0000
0153
cafe
301f
0000
0000
014f
cafe
341f
0000
0000
014e
cafe
381f
0000
0000
014e
cafe
3c1f
0000
0000
0150
cafe
201f
0000
0000
0146
cafe
-
241f
0000
0000
013a
cafe
281f
0000
0000
012c
cafe
2c1f
0000
0000
0129
cafe
301f
0000
0000
0123
cafe
341f
0000
0000
0118
cafe
381f
0000
0000
011a
cafe
3c1f
0000
0000
0117
cafe
201f
0000
0000
0115
cafe
241f
0000
0000
0110
cafe
281f
0000
0000
011c
cafe
2c1f
0000
0000
011e
cafe
301f
0000
0000
0126
cafe
341f
0000
0000
012f
cafe
381f
0000
0000
012b
cafe
3c1f
0000
0000
012c
cafe
201f
0000
0000
0139
cafe
241f
0000
0000
013f
cafe
281f
0000
0000
0149
cafe
2c1f
0000
0000
0147
cafe
301f
0000
0000
014c
cafe
341f
0000
0000
014c
cafe
381f
0000
0000
014f
cafe
3c1f
0000
0000
0151
cafe
201f
0000
0000
014c
cafe
241f
0000
0000
014e
cafe
281f
0000
0000
014b
cafe
2c1f
0000
0000
0145
cafe
301f
0000
0000
0147
cafe
341f
0000
0000
0147
cafe
381f
0000
0000
0147
cafe
3c1f
0000
0000
0145
cafe
201f
0000
0000
0140
cafe
241f
0000
0000
0135
cafe
281f
0000
0000
0132
cafe
2c1f
0000
0000
012b
cafe
301f
0000
0000
012c
cafe
341f
0000
0000
0129
cafe
381f
0000
0000
0126
cafe
3c1f
0000
0000
0124
cafe
201f
0000
0000
0120
cafe
241f
0000
0000
0119
cafe
281f
0000
0000
0118
cafe
2c1f
0000
0000
0115
cafe
301f
0000
0000
0114
cafe
341f
0000
0000
0112
cafe
381f
0000
0000
010e
cafe
3c1f
0000
0000
010e
cafe
201f
0000
0000
0112
cafe
241f
0000
0000
0113
cafe
281f
0000
0000
0122
cafe
2c1f
0000
0000
0123
cafe
301f
-
0000
0000
012c
cafe
341f
0000
0000
0130
cafe
381f
0000
0000
0138
cafe
3c1f
0000
0000
0140
cafe
201f
0000
0000
0145
cafe
241f
0000
0000
0141
cafe
281f
0000
0000
0143
cafe
2c1f
0000
0000
0143
cafe
301f
0000
0000
0149
cafe
341f
0000
0000
0141
cafe
381f
0000
0000
014b
cafe
3c1f
0000
0000
0152
cafe
201f
0000
0000
0150
cafe
241f
0000
0000
0142
cafe
281f
0000
0000
013b
cafe
2c1f
0000
0000
0139
cafe
301f
0000
0000
0131
cafe
341f
0000
0000
012a
cafe
381f
0000
0000
012d
cafe
3c1f
0000
0000
011c
cafe
201f
0000
0000
0123
cafe
241f
0000
0000
0122
cafe
281f
0000
0000
0126
cafe
2c1f
0000
0000
0125
cafe
301f
0000
0000
012b
cafe
341f
0000
0000
0127
cafe
381f
0000
0000
0121
cafe
3c1f
0000
0000
0124
cafe
201f
0000
0000
0122
cafe
241f
0000
0000
011c
cafe
281f
0000
0000
0123
cafe
2c1f
0000
0000
0127
cafe
301f
0000
0000
0130
cafe
341f
0000
0000
013e
cafe
381f
0000
0000
013f
cafe
3c1f
0000
0000
013c
cafe
201f
0000
0000
0138
cafe
241f
0000
0000
0136
cafe
281f
0000
0000
0134
cafe
2c1f
0000
0000
013d
cafe
301f
0000
0000
013c
cafe
341f
0000
0000
0140
cafe
381f
0000
0000
0144
cafe
3c1f
0000
0000
014e
cafe
201f
0000
0000
0148
cafe
241f
0000
0000
013e
cafe
281f
0000
0000
0141
cafe
2c1f
0000
0000
0137
cafe
301f
0000
0000
0138
cafe
341f
0000
0000
0130
cafe
381f
0000
0000
0127
cafe
3c1f
0000
-
0000
0120
cafe
201f
0000
0000
0122
cafe
241f
0000
0000
011e
cafe
281f
0000
0000
011f
cafe
2c1f
0000
0000
011e
cafe
301f
0000
0000
011b
cafe
341f
0000
0000
011e
cafe
381f
0000
0000
011b
cafe
3c1f
0000
0000
0123
cafe
201f
0000
0000
0123
cafe
241f
0000
0000
0125
cafe
281f
0000
0000
012a
cafe
2c1f
0000
0000
0130
cafe
301f
0000
0000
012d
cafe
341f
0000
0000
012c
cafe
381f
0000
0000
012f
cafe
3c1f
0000
0000
0135
cafe
201f
0000
0000
013d
cafe
241f
0000
0000
013c
cafe
281f
0000
0000
013c
cafe
2c1f
0000
0000
0141
cafe
301f
0000
0000
0149
cafe
341f
0000
0000
014a
cafe
381f
0000
0000
014d
cafe
3c1f
0000
0000
0151
cafe
201f
0000
0000
014f
cafe
241f
0000
0000
0150
cafe
281f
0000
0000
0151
cafe
2c1f
0000
0000
0153
cafe
301f
0000
0000
0157
cafe
341f
0000
0000
0150
cafe
381f
0000
0000
0147
cafe
3c1f
0000
0000
0144
cafe
201f
0000
0000
0140
cafe
241f
0000
0000
0143
cafe
281f
0000
0000
013f
cafe
2c1f
0000
0000
0130
cafe
301f
0000
0000
0128
cafe
341f
0000
0000
0124
cafe
381f
0000
0000
0128
cafe
3c1f
0000
0000
0129
cafe
201f
0000
0000
0129
cafe
241f
0000
0000
0126
cafe
281f
0000
0000
012f
cafe
2c1f
0000
0000
0137
cafe
301f
0000
0000
012e
cafe
341f
0000
0000
0134
cafe
381f
0000
0000
0133
cafe
3c1f
0000
0000
0138
cafe
201f
0000
0000
0137
cafe
241f
0000
0000
0135
cafe
281f
0000
0000
-
0131
cafe
2c1f
0000
0000
0134
cafe
301f
0000
0000
013f
cafe
341f
0000
0000
0144
cafe
381f
0000
0000
0143
cafe
3c1f
0000
0000
013f
cafe
201f
0000
0000
0142
cafe
241f
0000
0000
0144
cafe
281f
0000
0000
0143
cafe
2c1f
0000
0000
0141
cafe
301f
0000
0000
0139
cafe
341f
0000
0000
0134
cafe
381f
0000
0000
0138
cafe
3c1f
0000
0000
0132
cafe
201f
0000
0000
012c
cafe
241f
0000
0000
0124
cafe
281f
0000
0000
0127
cafe
2c1f
0000
0000
012b
cafe
301f
0000
0000
0137
cafe
341f
0000
0000
012e
cafe
381f
0000
0000
012e
cafe
3c1f
0000
0000
0133
cafe
201f
0000
0000
0136
cafe
241f
0000
0000
0138
cafe
281f
0000
0000
013b
cafe
2c1f
0000
0000
0138
cafe
301f
0000
0000
013b
cafe
341f
0000
0000
0137
cafe
381f
0000
0000
0134
cafe
3c1f
0000
0000
013f
cafe
201f
0000
0000
013f
cafe
241f
0000
0000
0141
cafe
281f
0000
0000
0147
cafe
2c1f
0000
0000
0145
cafe
301f
0000
0000
0147
cafe
341f
0000
0000
0144
cafe
381f
0000
0000
0140
cafe
3c1f
0000
0000
0138
cafe
201f
0000
0000
0137
cafe
241f
0000
0000
013c
cafe
281f
0000
0000
0134
cafe
2c1f
0000
0000
0134
cafe
301f
0000
0000
0131
cafe
341f
0000
0000
0132
cafe
381f
0000
0000
0132
cafe
3c1f
0000
0000
0135
cafe
201f
0000
0000
012d
cafe
241f
0000
0000
0131
cafe
281f
0000
0000
0124
cafe
2c1f
0000
0000
0122
cafe
301f
0000
0000
0121
cafe
341f
0000
0000
011f
-
