280b
5564
b4f4
0198
cafe
2c1b
5564
b4f4
0194
cafe
3003
5564
b4f4
0170
cafe
3413
5564
b4f8
020e
cafe
380c
5564
b4f8
0181
cafe
3c1c
5564
b4f8
01b0
cafe
2004
5564
b4f8
0189
cafe
2414
5564
b4fc
0162
cafe
280d
5564
b4fc
0155
cafe
2c1d
5564
b4fc
0190
cafe
3005
5564
b4fc
01e3
cafe
3415
5564
b500
01d5
cafe
380e
5564
b500
011b
cafe
3c1e
5564
b500
0188
cafe
2006
5564
b500
01c5
cafe
2416
5564
b504
019d
cafe
280f
5564
b504
013a
cafe
2c1f
5564
b504
0141
cafe
3007
5564
b504
0175
cafe
3417
5564
b508
01e0
cafe
3808
5564
b508
015b
cafe
3c18
5564
b508
0133
cafe
2000
5564
b508
0160
cafe
2410
5564
b50c
022f
cafe
2809
5564
b50c
019e
cafe
2c19
5564
b50c
016a
cafe
3001
5564
b50c
0146
cafe
3411
5564
b510
0163
cafe
380a
5564
b510
0145
cafe
3c1a
5564
b510
01ae
cafe
2002
5564
b510
01c1
cafe
2412
5564
b514
01e0
cafe
280b
5564
b514
0184
cafe
2c1b
5564
b514
018f
cafe
3003
5564
b514
0173
cafe
3413
5564
b518
0215
cafe
380c
5564
b518
0189
cafe
3c1c
5564
b518
01a8
cafe
2004
5564
b518
017d
cafe
2414
5564
b51c
0156
cafe
280d
5564
b51c
015a
cafe
2c1d
5564
b51c
017d
cafe
3005
5564
b51c
01e0
cafe
3415
5564
b520
01cd
cafe
380e
5564
b520
011e
cafe
3c1e
5564
b520
017d
cafe
2006
5564
b520
01cb
cafe
2416
5564
b524
01ac
cafe
280f
5564
b524
0152
cafe
2c1f
5564
b524
0155
cafe
3007
5564
b524
0168
cafe
3417
-
5564
b528
01e6
cafe
3808
5564
b528
014e
cafe
3c18
5564
b528
013b
cafe
2000
5564
b528
0160
cafe
2410
5564
b52c
022e
cafe
2809
5564
b52c
01a7
cafe
2c19
5564
b52c
015a
cafe
3001
5564
b52c
0148
cafe
3411
5564
b530
0157
cafe
380a
5564
b530
0144
cafe
3c1a
5564
b530
01aa
cafe
2002
5564
b530
01c4
cafe
2412
5564
b534
01e4
cafe
280b
5564
b534
0174
cafe
2c1b
5564
b534
0192
cafe
3003
5564
b534
0168
cafe
3413
5564
b538
0204
cafe
380c
5564
b538
0171
cafe
3c1c
5564
b538
01a5
cafe
2004
5564
b538
016f
cafe
2414
5564
b53c
0159
cafe
280d
5564
b53c
015e
cafe
2c1d
5564
b53c
0176
cafe
3005
5564
b53c
01f7
cafe
3415
5564
b540
01c2
cafe
380e
5564
b540
011c
cafe
3c1e
5564
b540
018e
cafe
2006
5564
b540
01bc
cafe
2416
5564
b544
019b
cafe
280f
5564
b544
014b
cafe
2c1f
5564
b544
013d
cafe
3007
5564
b544
0157
cafe
3417
5564
b548
01e3
cafe
3808
5564
b548
0166
cafe
3c18
5564
b548
0121
cafe
2000
5564
b548
015a
cafe
2410
5564
b54c
022e
cafe
2809
5564
b54c
019d
cafe
2c19
5564
b54c
0167
cafe
3001
5564
b54c
013f
cafe
3411
5564
b550
015d
cafe
380a
5564
b550
0147
cafe
3c1a
5564
b550
01a1
cafe
2002
5564
b550
01bd
cafe
2412
5564
b554
01f7
cafe
280b
5564
b554
017f
cafe
2c1b
5564
b554
0197
cafe
3003
5564
b554
0173
cafe
3413
5564
b558
020f
cafe
380c
5564
b558
0178
cafe
3c1c
5564
b558
01b3
cafe
2004
5564
-
b558
019a
cafe
2414
5564
b55c
015c
cafe
280d
5564
b55c
0156
cafe
2c1d
5564
b55c
016f
cafe
3005
5564
b55c
01d9
cafe
3415
5564
b560
01d1
cafe
380e
5564
b560
010b
cafe
3c1e
5564
b560
018c
cafe
2006
5564
b560
01c2
cafe
2416
5564
b564
01a8
cafe
280f
5564
b564
0154
cafe
2c1f
5564
b564
0140
cafe
3007
5564
b564
0174
cafe
3417
5564
b568
01f3
cafe
3808
5564
b568
0171
cafe
3c18
5564
b568
0124
cafe
2000
5564
b568
014e
cafe
2410
5564
b56c
0220
cafe
2809
5564
b56c
0190
cafe
2c19
5564
b56c
0159
cafe
3001
5564
b56c
013d
cafe
3411
5564
b570
0151
cafe
380a
5564
b570
012a
cafe
3c1a
5564
b570
0195
cafe
2002
5564
b570
01bc
cafe
2412
5564
b574
01e9
cafe
280b
5564
b574
0195
cafe
2c1b
5564
b574
0194
cafe
3003
5564
b574
015a
cafe
3413
5564
b578
0219
cafe
380c
5564
b578
016a
cafe
3c1c
5564
b578
01bb
cafe
2004
5564
b578
018b
cafe
2414
5564
b57c
014f
cafe
280d
5564
b57c
0160
cafe
2c1d
5564
b57c
0177
cafe
3005
5564
b57c
01da
cafe
3415
5564
b580
01df
cafe
380e
5564
b580
011f
cafe
3c1e
5564
b580
0179
cafe
2006
5564
b580
01b7
cafe
2416
5564
b584
01a2
cafe
280f
5564
b584
014d
cafe
2c1f
5564
b584
0134
cafe
3007
5564
b584
0168
cafe
3417
5564
b588
01e1
cafe
3808
5564
b588
0169
cafe
3c18
5564
b588
012a
cafe
2000
5564
b588
0157
cafe
2410
5564
b58c
0223
cafe
2809
5564
b58c
019e
cafe
2c19
5564
b58c
-
0155
cafe
3001
5564
b58c
0141
cafe
3411
5564
b590
014f
cafe
380a
5564
b590
013b
cafe
3c1a
5564
b590
0195
cafe
2002
5564
b590
01ca
cafe
2412
5564
b594
01f1
cafe
280b
5564
b594
0190
cafe
2c1b
5564
b594
019f
cafe
3003
5564
b594
0167
cafe
3413
5564
b598
021f
cafe
380c
5564
b598
0170
cafe
3c1c
5564
b598
01b8
cafe
2004
5564
b598
017d
cafe
2414
5564
b59c
0163
cafe
280d
5564
b59c
0159
cafe
2c1d
5564
b59c
0184
cafe
3005
5564
b59c
01eb
cafe
3415
5564
b5a0
01c1
cafe
380e
5564
b5a0
0128
cafe
3c1e
5564
b5a0
0190
cafe
2006
5564
b5a0
01c4
cafe
2416
5564
b5a4
01a6
cafe
280f
5564
b5a4
0147
cafe
2c1f
5564
b5a4
0125
cafe
3007
5564
b5a4
0166
cafe
3417
5564
b5a8
01d7
cafe
3808
5564
b5a8
0167
cafe
3c18
5564
b5a8
011c
cafe
2000
5564
b5a8
0141
cafe
2410
5564
b5ac
0238
cafe
2809
5564
b5ac
0190
cafe
2c19
5564
b5ac
013e
cafe
3001
5564
b5ac
0149
cafe
3411
5564
b5b0
014c
cafe
380a
5564
b5b0
013f
cafe
3c1a
5564
b5b0
019a
cafe
2002
5564
b5b0
01be
cafe
2412
5564
b5b4
01ec
cafe
280b
5564
b5b4
0188
cafe
2c1b
5564
b5b4
0193
cafe
3003
5564
b5b4
016d
cafe
3413
5564
b5b8
021c
cafe
380c
5564
b5b8
017e
cafe
3c1c
5564
b5b8
01be
cafe
2004
5564
b5b8
018d
cafe
2414
5564
b5bc
016d
cafe
280d
5564
b5bc
0155
cafe
2c1d
5564
b5bc
0184
cafe
3005
5564
b5bc
01e4
cafe
3415
5564
b5c0
01c0
cafe
380e
5564
b5c0
0117
-
cafe
3c1e
5564
b5c0
0187
cafe
2006
5564
b5c0
01b9
cafe
2416
5564
b5c4
01b4
cafe
280f
5564
b5c4
0140
cafe
2c1f
5564
b5c4
0138
cafe
3007
5564
b5c4
0189
cafe
3417
5564
b5c8
01da
cafe
3808
5564
b5c8
015f
cafe
3c18
5564
b5c8
0124
cafe
2000
5564
b5c8
0156
cafe
2410
5564
b5cc
0233
cafe
2809
5564
b5cc
019f
cafe
2c19
5564
b5cc
0148
cafe
3001
5564
b5cc
0135
cafe
3411
5564
b5d0
0154
cafe
380a
5564
b5d0
013c
cafe
3c1a
5564
b5d0
01a9
cafe
2002
5564
b5d0
01d3
cafe
2412
5564
b5d4
01eb
cafe
280b
5564
b5d4
017a
cafe
2c1b
5564
b5d4
0197
cafe
3003
5564
b5d4
015a
cafe
3413
5564
b5d8
021d
cafe
380c
5564
b5d8
0178
cafe
3c1c
5564
b5d8
01ac
cafe
2004
5564
b5d8
0194
cafe
2414
5564
b5dc
0167
cafe
280d
5564
b5dc
0148
cafe
2c1d
5564
b5dc
017b
cafe
3005
5564
b5dc
01e1
cafe
3415
5564
b5e0
01c1
cafe
380e
5564
b5e0
011c
cafe
3c1e
5564
b5e0
017b
cafe
2006
5564
b5e0
01ba
cafe
2416
5564
b5e4
0195
cafe
280f
5564
b5e4
0137
cafe
2c1f
5564
b5e4
0134
cafe
3007
5564
b5e4
0169
cafe
3417
5564
b5e8
01da
cafe
3808
5564
b5e8
0151
cafe
3c18
5564
b5e8
0128
cafe
2000
5564
b5e8
0147
cafe
2410
5564
b5ec
022a
cafe
2809
5564
b5ec
019e
cafe
2c19
5564
b5ec
014c
cafe
3001
5564
b5ec
014b
cafe
3411
5564
b5f0
0151
cafe
380a
5564
b5f0
0142
cafe
3c1a
5564
b5f0
01ac
cafe
2002
5564
b5f0
01d5
cafe
2412
5564
b5f4
01f1
cafe
-
280b
5564
b5f4
0192
cafe
2c1b
5564
b5f4
019c
cafe
3003
5564
b5f4
017b
cafe
3413
5564
b5f8
021d
cafe
380c
5564
b5f8
0173
cafe
3c1c
5564
b5f8
01be
cafe
2004
5564
b5f8
019d
cafe
2414
5564
b5fc
0174
cafe
280d
5564
b5fc
0152
cafe
2c1d
5564
b5fc
017d
cafe
3005
5564
b5fc
01e5
cafe
3415
5564
b600
01cd
cafe
380e
5564
b600
0128
cafe
3c1e
5564
b600
0188
cafe
2006
5564
b600
01af
cafe
2416
5564
b604
01a5
cafe
280f
5564
b604
0138
cafe
2c1f
5564
b604
0122
cafe
3007
5564
b604
0168
cafe
3417
5564
b608
01d8
cafe
3808
5564
b608
0140
cafe
3c18
5564
b608
0121
cafe
2000
5564
b608
0155
cafe
2410
5564
b60c
021d
cafe
2809
5564
b60c
0194
cafe
2c19
5564
b60c
0137
cafe
3001
5564
b60c
0132
cafe
3411
5564
b610
014b
cafe
380a
5564
b610
0139
cafe
3c1a
5564
b610
0193
cafe
2002
5564
b610
01ce
cafe
2412
5564
b614
01d8
cafe
280b
5564
b614
0180
cafe
2c1b
5564
b614
01a0
cafe
3003
5564
b614
0155
cafe
3413
5564
b618
0217
cafe
380c
5564
b618
017c
cafe
3c1c
5564
b618
01b1
cafe
2004
5564
b618
0179
cafe
2414
5564
b61c
0166
cafe
280d
5564
b61c
014c
cafe
2c1d
5564
b61c
017c
cafe
3005
5564
b61c
01da
cafe
3415
5564
b620
01d5
cafe
380e
5564
b620
0118
cafe
3c1e
5564
b620
0189
cafe
2006
5564
b620
01c1
cafe
2416
5564
b624
01c5
cafe
280f
5564
b624
0139
cafe
2c1f
5564
b624
0128
cafe
3007
5564
b624
017e
cafe
3417
-
5564
b628
01dc
cafe
3808
5564
b628
0151
cafe
3c18
5564
b628
0133
cafe
2000
5564
b628
0178
cafe
2410
5564
b62c
021e
cafe
2809
5564
b62c
019f
cafe
2c19
5564
b62c
0144
cafe
3001
5564
b62c
014b
cafe
3411
5564
b630
016f
cafe
380a
5564
b630
013c
cafe
3c1a
5564
b630
0199
cafe
2002
5564
b630
01d2
cafe
2412
5564
b634
01e6
cafe
280b
5564
b634
0182
cafe
2c1b
5564
b634
01aa
cafe
3003
5564
b634
0166
cafe
3413
5564
b638
0215
cafe
380c
5564
b638
017e
cafe
3c1c
5564
b638
01b7
cafe
2004
5564
b638
0188
cafe
2414
5564
b63c
0168
cafe
280d
5564
b63c
0148
cafe
2c1d
5564
b63c
018b
cafe
3005
5564
b63c
01e4
cafe
3415
5564
b640
01cb
cafe
380e
5564
b640
010b
cafe
3c1e
5564
b640
0183
cafe
2006
5564
b640
01d6
cafe
2416
5564
b644
01bb
cafe
280f
5564
b644
0157
cafe
2c1f
5564
b644
0133
cafe
3007
5564
b644
0150
cafe
3417
5564
b648
01e6
cafe
3808
5564
b648
014d
cafe
3c18
5564
b648
0137
cafe
2000
5564
b648
0155
cafe
2410
5564
b64c
022d
cafe
2809
5564
b64c
0193
cafe
2c19
5564
b64c
0135
cafe
3001
5564
b64c
012d
cafe
3411
5564
b650
0151
cafe
380a
5564
b650
0140
cafe
3c1a
5564
b650
0199
cafe
2002
5564
b650
01d6
cafe
2412
5564
b654
01fd
cafe
280b
5564
b654
0196
cafe
2c1b
5564
b654
01a2
cafe
3003
5564
b654
0158
cafe
3413
5564
b658
01f9
cafe
380c
5564
b658
017e
cafe
3c1c
5564
b658
01c7
cafe
2004
5564
-
b658
019b
cafe
2414
5564
b65c
015e
cafe
280d
5564
b65c
014d
cafe
2c1d
5564
b65c
0174
cafe
3005
5564
b65c
01e3
cafe
3415
5564
b660
01d7
cafe
380e
5564
b660
0113
cafe
3c1e
5564
b660
018f
cafe
2006
5564
b660
01d1
cafe
2416
5564
b664
01a0
cafe
280f
5564
b664
0134
cafe
2c1f
5564
b664
0138
cafe
3007
5564
b664
0177
cafe
3417
5564
b668
01df
cafe
3808
5564
b668
015d
cafe
3c18
5564
b668
013f
cafe
2000
5564
b668
0160
cafe
2410
5564
b66c
0221
cafe
2809
5564
b66c
01a2
cafe
2c19
5564
b66c
015b
cafe
3001
5564
b66c
014f
cafe
3411
5564
b670
0168
cafe
380a
5564
b670
0139
cafe
3c1a
5564
b670
019f
cafe
2002
5564
b670
01f3
cafe
2412
5564
b674
01ec
cafe
280b
5564
b674
019a
cafe
2c1b
5564
b674
01a7
cafe
3003
5564
b674
0160
cafe
3413
5564
b678
0212
cafe
380c
5564
b678
0184
cafe
3c1c
5564
b678
01ba
cafe
2004
5564
b678
0192
cafe
2414
5564
b67c
015c
cafe
280d
5564
b67c
013e
cafe
2c1d
5564
b67c
0189
cafe
3005
5564
b67c
01c7
cafe
3415
5564
b680
01c9
cafe
380e
5564
b680
0110
cafe
3c1e
5564
b680
0197
cafe
2006
5564
b680
01d3
cafe
2416
5564
b684
01a5
cafe
280f
5564
b684
0130
cafe
2c1f
5564
b684
012a
cafe
3007
5564
b684
0170
cafe
3417
5564
b688
01de
cafe
3808
5564
b688
0145
cafe
3c18
5564
b688
0129
cafe
2000
5564
b688
0157
cafe
2410
5564
b68c
021f
cafe
2809
5564
b68c
01b5
cafe
2c19
5564
b68c
-
0142
cafe
3001
5564
b68c
0137
cafe
3411
5564
b690
0153
cafe
380a
5564
b690
014e
cafe
3c1a
5564
b690
019c
cafe
2002
5564
b690
01d6
cafe
2412
5564
b694
01ea
cafe
280b
5564
b694
0197
cafe
2c1b
5564
b694
0199
cafe
3003
5564
b694
015e
cafe
3413
5564
b698
0213
cafe
380c
5564
b698
0182
cafe
3c1c
5564
b698
01c6
cafe
2004
5564
b698
0187
cafe
2414
5564
b69c
0156
cafe
280d
5564
b69c
0141
cafe
2c1d
5564
b69c
0179
cafe
3005
5564
b69c
01d2
cafe
3415
5564
b6a0
01c3
cafe
380e
5564
b6a0
0116
cafe
3c1e
5564
b6a0
018c
cafe
2006
5564
b6a0
01cd
cafe
2416
5564
b6a4
01b2
cafe
280f
5564
b6a4
0145
cafe
2c1f
5564
b6a4
012c
cafe
3007
5564
b6a4
016f
cafe
3417
5564
b6a8
01e8
cafe
3808
5564
b6a8
014f
cafe
3c18
5564
b6a8
0133
cafe
2000
5564
b6a8
0162
cafe
2410
5564
b6ac
0226
cafe
2809
5564
b6ac
0197
cafe
2c19
5564
b6ac
013e
cafe
3001
5564
b6ac
013e
cafe
3411
5564
b6b0
014f
cafe
380a
5564
b6b0
0135
cafe
3c1a
5564
b6b0
01a0
cafe
2002
5564
b6b0
01c2
cafe
2412
5564
b6b4
01ed
cafe
280b
5564
b6b4
0195
cafe
2c1b
5564
b6b4
0191
cafe
3003
5564
b6b4
0163
cafe
3413
5564
b6b8
0215
cafe
380c
5564
b6b8
0171
cafe
3c1c
5564
b6b8
01cc
cafe
2004
5564
b6b8
0186
cafe
2414
5564
b6bc
0166
cafe
280d
5564
b6bc
0148
cafe
2c1d
5564
b6bc
016c
cafe
3005
5564
b6bc
01c8
cafe
3415
5564
b6c0
01ac
cafe
380e
5564
b6c0
0109
-
cafe
3c1e
5564
b6c0
0173
cafe
2006
5564
b6c0
01b2
cafe
2416
5564
b6c4
01a5
cafe
280f
5564
b6c4
0147
cafe
2c1f
5564
b6c4
012d
cafe
3007
5564
b6c4
017c
cafe
3417
5564
b6c8
01d8
cafe
3808
5564
b6c8
0143
cafe
3c18
5564
b6c8
0120
cafe
2000
5564
b6c8
0153
cafe
2410
5564
b6cc
021c
cafe
2809
5564
b6cc
0191
cafe
2c19
5564
b6cc
013a
cafe
3001
5564
b6cc
012a
cafe
3411
5564
b6d0
0156
cafe
380a
5564
b6d0
0149
cafe
3c1a
5564
b6d0
0197
cafe
2002
5564
b6d0
01cc
cafe
2412
5564
b6d4
01ed
cafe
280b
5564
b6d4
0189
cafe
2c1b
5564
b6d4
019a
cafe
3003
5564
b6d4
0165
cafe
3413
5564
b6d8
0204
cafe
380c
5564
b6d8
0180
cafe
3c1c
5564
b6d8
01c2
cafe
2004
5564
b6d8
017b
cafe
2414
5564
b6dc
0166
cafe
280d
5564
b6dc
0151
cafe
2c1d
5564
b6dc
0177
cafe
3005
5564
b6dc
01d4
cafe
3415
5564
b6e0
01c3
cafe
380e
5564
b6e0
0112
cafe
3c1e
5564
b6e0
018a
cafe
2006
5564
b6e0
01bb
cafe
2416
5564
b6e4
01ab
cafe
280f
5564
b6e4
014a
cafe
2c1f
5564
b6e4
013c
cafe
3007
5564
b6e4
0166
cafe
3417
5564
b6e8
01e6
cafe
3808
5564
b6e8
014f
cafe
3c18
5564
b6e8
0124
cafe
2000
5564
b6e8
0152
cafe
2410
5564
b6ec
0228
cafe
2809
5564
b6ec
01ab
cafe
2c19
5564
b6ec
0151
cafe
3001
5564
b6ec
0136
cafe
3411
5564
b6f0
0142
cafe
380a
5564
b6f0
012c
cafe
3c1a
5564
b6f0
019a
cafe
2002
5564
b6f0
01d4
cafe
2412
5564
b6f4
01e8
cafe
-
280b
5564
b6f4
01a6
cafe
2c1b
5564
b6f4
019d
cafe
3003
5564
b6f4
0156
cafe
3413
5564
b6f8
020a
cafe
380c
5564
b6f8
0179
cafe
3c1c
5564
b6f8
01d3
cafe
2004
5564
b6f8
0179
cafe
2414
5564
b6fc
0170
cafe
280d
5564
b6fc
014a
cafe
2c1d
5564
b6fc
0188
cafe
3005
5564
b6fc
01dc
cafe
3415
5564
b700
01bd
cafe
380e
5564
b700
010c
cafe
3c1e
5564
b700
018e
cafe
2006
5564
b700
01cd
cafe
2416
5564
b704
01a8
cafe
280f
5564
b704
0141
cafe
2c1f
5564
b704
010e
cafe
3007
5564
b704
0181
cafe
3417
5564
b708
01e4
cafe
3808
5564
b708
0157
cafe
3c18
5564
b708
0137
cafe
2000
5564
b708
0142
cafe
2410
5564
b70c
0224
cafe
2809
5564
b70c
019a
cafe
2c19
5564
b70c
014f
cafe
3001
5564
b70c
0145
cafe
3411
5564
b710
0165
cafe
380a
5564
b710
0148
cafe
3c1a
5564
b710
019b
cafe
2002
5564
b710
01e5
cafe
2412
5564
b714
01f3
cafe
280b
5564
b714
0192
cafe
2c1b
5564
b714
01a1
cafe
3003
5564
b714
0149
cafe
3413
5564
b718
0209
cafe
380c
5564
b718
0187
cafe
3c1c
5564
b718
01c1
cafe
2004
5564
b718
017e
cafe
2414
5564
b71c
0174
cafe
280d
5564
b71c
014b
cafe
2c1d
5564
b71c
0189
cafe
3005
5564
b71c
01f9
cafe
3415
5564
b720
01be
cafe
380e
5564
b720
03f4
cafe
3c1e
5564
b720
0451
cafe
2006
5564
b720
049f
cafe
2416
5564
b724
0493
cafe
280f
5564
b724
0814
cafe
2c1f
5564
b724
0806
cafe
3007
5564
b724
083a
cafe
3417
-
5564
b728
089f
cafe
3808
5564
b728
08f0
cafe
3c18
5564
b728
08d0
cafe
2000
5564
b728
08d7
cafe
2410
5564
b72c
09d3
cafe
2809
5564
b72c
095f
cafe
2c19
5564
b72c
0913
cafe
3001
5564
b72c
08ea
cafe
3411
5564
b730
0916
cafe
380a
5564
b730
08e1
cafe
3c1a
5564
b730
095d
cafe
2002
5564
b730
0980
cafe
2412
5564
b734
099c
cafe
280b
5564
b734
092e
cafe
2c1b
5564
b734
0952
cafe
3003
5564
b734
08f3
cafe
3413
5564
b738
09a7
cafe
380c
5564
b738
0911
cafe
3c1c
5564
b738
095f
cafe
2004
5564
b738
0901
cafe
2414
5564
b73c
08f3
cafe
280d
5564
b73c
08c4
cafe
2c1d
5564
b73c
0912
cafe
3005
5564
b73c
0958
cafe
3415
5564
b740
093b
cafe
380e
5564
b740
0882
cafe
3c1e
5564
b740
0924
cafe
2006
5564
b740
0917
cafe
2416
5564
b744
091f
cafe
280f
5564
b744
0887
cafe
2c1f
5564
b744
08aa
cafe
3007
5564
b744
08c9
cafe
3417
5564
b748
0945
cafe
3808
5564
b748
088f
cafe
3c18
5564
b748
0878
cafe
2000
5564
b748
086f
cafe
2410
5564
b74c
0957
cafe
2809
5564
b74c
08d3
cafe
2c19
5564
b74c
0899
cafe
3001
5564
b74c
085c
cafe
3411
5564
b750
08a2
cafe
380a
5564
b750
0851
cafe
3c1a
5564
b750
08c6
cafe
2002
5564
b750
08e9
cafe
2412
5564
b754
0912
cafe
280b
5564
b754
08ab
cafe
2c1b
5564
b754
08c9
cafe
3003
5564
b754
085e
cafe
3413
5564
b758
0926
cafe
380c
5564
b758
087f
cafe
3c1c
5564
b758
08e1
cafe
2004
5564
-
b758
0876
cafe
2414
5564
b75c
086b
cafe
280d
5564
b75c
083f
cafe
2c1d
5564
b75c
0883
cafe
3005
5564
b75c
08ca
cafe
3415
5564
b760
08c9
cafe
380e
5564
b760
07eb
cafe
3c1e
5564
b760
0896
cafe
2006
5564
b760
08a2
cafe
2416
5564
b764
0895
cafe
280f
5564
b764
080d
cafe
2c1f
5564
b764
0815
cafe
3007
5564
b764
0840
cafe
3417
5564
b768
08d0
cafe
3808
5564
b768
0803
cafe
3c18
5564
b768
07f7
cafe
2000
5564
b768
0801
cafe
2410
5564
b76c
08e3
cafe
2809
5564
b76c
0863
cafe
2c19
5564
b76c
0821
cafe
3001
5564
b76c
07d9
cafe
3411
5564
b770
081f
cafe
380a
5564
b770
07d0
cafe
3c1a
5564
b770
085d
cafe
2002
5564
b770
086b
cafe
2412
5564
b774
089b
cafe
280b
5564
b774
082f
cafe
2c1b
5564
b774
0848
cafe
3003
5564
b774
07fb
cafe
3413
5564
b778
08d4
cafe
380c
5564
b778
07fb
cafe
3c1c
5564
b778
0866
cafe
2004
5564
b778
07fb
cafe
2414
5564
b77c
07f5
cafe
280d
5564
b77c
07af
cafe
2c1d
5564
b77c
0803
cafe
3005
5564
b77c
0861
cafe
3415
5564
b780
0842
cafe
380e
5564
b780
0779
cafe
3c1e
5564
b780
081b
cafe
2006
5564
b780
0833
cafe
2416
5564
b784
0828
cafe
280f
5564
b784
07a4
cafe
2c1f
5564
b784
079a
cafe
3007
5564
b784
07bf
cafe
3417
5564
b788
0854
cafe
3808
5564
b788
0791
cafe
3c18
5564
b788
0786
cafe
2000
5564
b788
078a
cafe
2410
5564
b78c
0869
cafe
2809
5564
b78c
07ef
cafe
2c19
5564
b78c
-
07a9
cafe
3001
5564
b78c
074b
cafe
3411
5564
b790
07a3
cafe
380a
5564
b790
075f
cafe
3c1a
5564
b790
07e1
cafe
2002
5564
b790
07ec
cafe
2412
5564
b794
0811
cafe
280b
5564
b794
07c1
cafe
2c1b
5564
b794
07ce
cafe
3003
5564
b794
0763
cafe
3413
5564
b798
0857
cafe
380c
5564
b798
0793
cafe
3c1c
5564
b798
07e2
cafe
2004
5564
b798
0775
cafe
2414
5564
b79c
077e
cafe
280d
5564
b79c
073b
cafe
2c1d
5564
b79c
0785
cafe
3005
5564
b79c
07d0
cafe
3415
5564
b7a0
07bf
cafe
380e
5564
b7a0
071f
cafe
3c1e
5564
b7a0
07b3
cafe
2006
5564
b7a0
07bc
cafe
2416
5564
b7a4
07b7
cafe
280f
5564
b7a4
0710
cafe
2c1f
5564
b7a4
0720
cafe
3007
5564
b7a4
074d
cafe
3417
5564
b7a8
07d4
cafe
3808
5564
b7a8
0727
cafe
3c18
5564
b7a8
070e
cafe
2000
5564
b7a8
071d
cafe
2410
5564
b7ac
07f5
cafe
2809
5564
b7ac
0771
cafe
2c19
5564
b7ac
073c
cafe
3001
5564
b7ac
06d7
cafe
3411
5564
b7b0
074d
cafe
380a
5564
b7b0
06e9
cafe
3c1a
5564
b7b0
077b
cafe
2002
5564
b7b0
079b
cafe
2412
5564
b7b4
07bf
cafe
280b
5564
b7b4
0749
cafe
2c1b
5564
b7b4
0779
cafe
3003
5564
b7b4
0715
cafe
3413
5564
b7b8
07f2
cafe
380c
5564
b7b8
071c
cafe
3c1c
5564
b7b8
0783
cafe
2004
5564
b7b8
0716
cafe
2414
5564
b7bc
0715
cafe
280d
5564
b7bc
06d7
cafe
2c1d
5564
b7bc
0720
cafe
3005
5564
b7bc
076a
cafe
3415
5564
b7c0
075c
cafe
380e
5564
b7c0
06ab
-
cafe
3c1e
5564
b7c0
0738
cafe
2006
5564
b7c0
0741
cafe
2416
5564
b7c4
0742
cafe
280f
5564
b7c4
06b2
cafe
2c1f
5564
b7c4
06b3
cafe
3007
5564
b7c4
06e2
cafe
3417
5564
b7c8
0762
cafe
3808
5564
b7c8
06ae
cafe
3c18
5564
b7c8
06a7
cafe
2000
5564
b7c8
06a3
cafe
2410
5564
b7cc
079d
cafe
2809
5564
b7cc
0702
cafe
2c19
5564
b7cc
06c5
cafe
3001
5564
b7cc
0657
cafe
3411
5564
b7d0
06d1
cafe
380a
5564
b7d0
067d
cafe
3c1a
5564
b7d0
0709
cafe
2002
5564
b7d0
0726
cafe
2412
5564
b7d4
074f
cafe
280b
5564
b7d4
06f1
cafe
2c1b
5564
b7d4
0718
cafe
3003
5564
b7d4
068b
cafe
3413
5564
b7d8
0779
cafe
380c
5564
b7d8
06b9
cafe
3c1c
5564
b7d8
071d
cafe
2004
5564
b7d8
06a3
cafe
2414
5564
b7dc
06a6
cafe
280d
5564
b7dc
0655
cafe
2c1d
5564
b7dc
06af
cafe
3005
5564
b7dc
070a
cafe
3415
5564
b7e0
06fe
cafe
380e
5564
b7e0
0638
cafe
3c1e
5564
b7e0
06c9
cafe
2006
5564
b7e0
06e8
cafe
2416
5564
b7e4
06e7
cafe
280f
5564
b7e4
0650
cafe
2c1f
5564
b7e4
065d
cafe
3007
5564
b7e4
0686
cafe
3417
5564
b7e8
070a
cafe
3808
5564
b7e8
0658
cafe
3c18
5564
b7e8
0645
cafe
2000
5564
b7e8
065a
cafe
2410
5564
b7ec
074b
cafe
2809
5564
b7ec
06aa
cafe
2c19
5564
b7ec
066f
cafe
3001
5564
b7ec
0609
cafe
3411
5564
b7f0
0659
cafe
380a
5564
b7f0
0610
cafe
3c1a
5564
b7f0
068b
cafe
2002
5564
b7f0
06c0
cafe
2412
5564
b7f4
06f6
cafe
-
280b
5564
b7f4
0685
cafe
2c1b
5564
b7f4
06b5
cafe
3003
5564
b7f4
0634
cafe
3413
5564
b7f8
071f
cafe
380c
5564
b7f8
0657
cafe
3c1c
5564
b7f8
06b6
cafe
2004
5564
b7f8
0642
cafe
2414
5564
b7fc
063f
cafe
280d
5564
b7fc
0603
cafe
2c1d
5564
b7fc
0648
cafe
3005
5564
b7fc
06a8
cafe
3415
5564
b800
0693
cafe
380e
5564
b800
05c9
cafe
3c1e
5564
b800
0652
cafe
2006
5564
b800
068c
cafe
2416
5564
b804
0687
cafe
280f
5564
b804
05ef
cafe
2c1f
5564
b804
05e9
cafe
3007
5564
b804
0612
cafe
3417
5564
b808
06af
cafe
3808
5564
b808
0600
cafe
3c18
5564
b808
05d6
cafe
2000
5564
b808
05d8
cafe
2410
5564
b80c
06ed
cafe
2809
5564
b80c
063d
cafe
2c19
5564
b80c
060f
cafe
3001
5564
b80c
05a6
cafe
3411
5564
b810
0608
cafe
380a
5564
b810
05c5
cafe
3c1a
5564
b810
0611
cafe
2002
5564
b810
0652
cafe
2412
5564
b814
0682
cafe
280b
5564
b814
0622
cafe
2c1b
5564
b814
0651
cafe
3003
5564
b814
05d1
cafe
3413
5564
b818
06b5
cafe
380c
5564
b818
05e9
cafe
3c1c
5564
b818
0661
cafe
2004
5564
b818
05f1
cafe
2414
5564
b81c
05d5
cafe
280d
5564
b81c
05b1
cafe
2c1d
5564
b81c
0602
cafe
3005
5564
b81c
065c
cafe
3415
5564
b820
0644
cafe
380e
5564
b820
0576
cafe
3c1e
5564
b820
060c
cafe
2006
5564
b820
0629
cafe
2416
5564
b824
062a
cafe
280f
5564
b824
0598
cafe
2c1f
5564
b824
0580
cafe
3007
5564
b824
05b8
cafe
3417
-
5564
b828
0672
cafe
3808
5564
b828
0591
cafe
3c18
5564
b828
056f
cafe
2000
5564
b828
0595
cafe
2410
5564
b82c
0691
cafe
2809
5564
b82c
05f6
cafe
2c19
5564
b82c
05b7
cafe
3001
5564
b82c
053f
cafe
3411
5564
b830
05a9
cafe
380a
5564
b830
054f
cafe
3c1a
5564
b830
05e9
cafe
2002
5564
b830
05ff
cafe
2412
5564
b834
0641
cafe
280b
5564
b834
05cb
cafe
2c1b
5564
b834
05ef
cafe
3003
5564
b834
0590
cafe
3413
5564
b838
066b
cafe
380c
5564
b838
0590
cafe
3c1c
5564
b838
0608
cafe
2004
5564
b838
057d
cafe
2414
5564
b83c
057c
cafe
280d
5564
b83c
0554
cafe
2c1d
5564
b83c
059b
cafe
3005
5564
b83c
05f9
cafe
3415
5564
b840
05eb
cafe
380e
5564
b840
0529
cafe
3c1e
5564
b840
05bb
cafe
2006
5564
b840
05bc
cafe
2416
5564
b844
05e6
cafe
280f
5564
b844
0555
cafe
2c1f
5564
b844
0537
cafe
3007
5564
b844
057c
cafe
3417
5564
b848
0614
cafe
3808
5564
b848
055f
cafe
3c18
5564
b848
050e
cafe
2000
5564
b848
0549
cafe
2410
5564
b84c
063e
cafe
2809
5564
b84c
05a6
cafe
2c19
5564
b84c
056c
cafe
3001
5564
b84c
04d6
cafe
3411
5564
b850
0558
cafe
380a
5564
b850
0512
cafe
3c1a
5564
b850
0580
cafe
2002
5564
b850
05b3
cafe
2412
5564
b854
05f1
cafe
280b
5564
b854
0585
cafe
2c1b
5564
b854
05a1
cafe
3003
5564
b854
0540
cafe
3413
5564
b858
0600
cafe
380c
5564
b858
054e
cafe
3c1c
5564
b858
05ab
cafe
2004
5564
-
b858
053b
cafe
2414
5564
b85c
0537
cafe
280d
5564
b85c
0512
cafe
2c1d
5564
b85c
055b
cafe
3005
5564
b85c
05aa
cafe
3415
5564
b860
05a0
cafe
380e
5564
b860
04cc
cafe
3c1e
5564
b860
0566
cafe
2006
5564
b860
0571
cafe
2416
5564
b864
0583
cafe
280f
5564
b864
0506
cafe
2c1f
5564
b864
04d9
cafe
3007
5564
b864
051d
cafe
3417
5564
b868
05d7
cafe
3808
5564
b868
0504
cafe
3c18
5564
b868
04cb
cafe
2000
5564
b868
04d5
cafe
2410
5564
b86c
05f4
cafe
2809
5564
b86c
0567
cafe
2c19
5564
b86c
0516
cafe
3001
5564
b86c
0484
cafe
3411
5564
b870
04f4
cafe
380a
5564
b870
04b2
cafe
3c1a
5564
b870
0544
cafe
2002
5564
b870
0566
cafe
2412
5564
b874
0596
cafe
280b
5564
b874
0534
cafe
2c1b
5564
b874
055c
cafe
3003
5564
b874
04fd
cafe
3413
5564
b878
05c1
cafe
380c
5564
b878
04fd
cafe
3c1c
5564
b878
0564
cafe
2004
5564
b878
0506
cafe
2414
5564
b87c
04ee
cafe
280d
5564
b87c
04a7
cafe
2c1d
5564
b87c
0505
cafe
3005
5564
b87c
0564
cafe
3415
5564
b880
0550
cafe
380e
5564
b880
048b
cafe
3c1e
5564
b880
052c
cafe
2006
5564
b880
0529
cafe
2416
5564
b884
0540
cafe
280f
5564
b884
04a0
cafe
2c1f
5564
b884
0499
cafe
3007
5564
b884
04d7
cafe
3417
5564
b888
0580
cafe
3808
5564
b888
04b3
cafe
3c18
5564
b888
048a
cafe
2000
5564
b888
0493
cafe
2410
5564
b88c
05a1
cafe
2809
5564
b88c
0527
cafe
2c19
5564
b88c
-
04c8
cafe
3001
5564
b88c
0444
cafe
3411
5564
b890
04be
cafe
380a
5564
b890
0481
cafe
3c1a
5564
b890
04f3
cafe
2002
5564
b890
0523
cafe
2412
5564
b894
0555
cafe
280b
5564
b894
04e9
cafe
2c1b
5564
b894
0507
cafe
3003
5564
b894
049f
cafe
3413
5564
b898
0575
cafe
380c
5564
b898
04cc
cafe
3c1c
5564
b898
051d
cafe
2004
5564
b898
04b8
cafe
2414
5564
b89c
04a4
cafe
280d
5564
b89c
0467
cafe
2c1d
5564
b89c
04be
cafe
3005
5564
b89c
0504
cafe
3415
5564
b8a0
0509
cafe
380e
5564
b8a0
0438
cafe
3c1e
5564
b8a0
04c2
cafe
2006
5564
b8a0
04d3
cafe
2416
5564
b8a4
04f3
cafe
280f
5564
b8a4
045b
cafe
2c1f
5564
b8a4
0448
cafe
3007
5564
b8a4
049a
cafe
3417
5564
b8a8
0532
cafe
3808
5564
b8a8
0478
cafe
3c18
5564
b8a8
043a
cafe
2000
5564
b8a8
0440
cafe
2410
5564
b8ac
0560
cafe
2809
5564
b8ac
04d1
cafe
2c19
5564
b8ac
0487
cafe
3001
5564
b8ac
03fd
cafe
3411
5564
b8b0
046e
cafe
380a
5564
b8b0
043e
cafe
3c1a
5564
b8b0
04ac
cafe
2002
5564
b8b0
04dd
cafe
2412
5564
b8b4
04fa
cafe
280b
5564
b8b4
04aa
cafe
2c1b
5564
b8b4
04cf
cafe
3003
5564
b8b4
0470
cafe
3413
5564
b8b8
0536
cafe
380c
5564
b8b8
0475
cafe
3c1c
5564
b8b8
04df
cafe
2004
5564
b8b8
0472
cafe
2414
5564
b8bc
0453
cafe
280d
5564
b8bc
042d
cafe
2c1d
5564
b8bc
0474
cafe
3005
5564
b8bc
04f1
cafe
3415
5564
b8c0
04e6
cafe
380e
5564
b8c0
03ea
-
cafe
3c1e
5564
b8c0
049e
cafe
2006
5564
b8c0
04a7
cafe
2416
5564
b8c4
04c4
cafe
280f
5564
b8c4
0432
cafe
2c1f
5564
b8c4
0404
cafe
3007
5564
b8c4
0448
cafe
3417
5564
b8c8
04f0
cafe
3808
5564
b8c8
0420
cafe
3c18
5564
b8c8
03f3
cafe
2000
5564
b8c8
040a
cafe
2410
5564
b8cc
0520
cafe
2809
5564
b8cc
0492
cafe
2c19
5564
b8cc
044e
cafe
3001
5564
b8cc
03ad
cafe
3411
5564
b8d0
043f
cafe
380a
5564
b8d0
03ed
cafe
3c1a
5564
b8d0
0473
cafe
2002
5564
b8d0
04ac
cafe
2412
5564
b8d4
04d5
cafe
280b
5564
b8d4
045e
cafe
2c1b
5564
b8d4
0474
cafe
3003
5564
b8d4
03ff
cafe
3413
5564
b8d8
04d8
cafe
380c
5564
b8d8
0435
cafe
3c1c
5564
b8d8
0497
cafe
2004
5564
b8d8
0424
cafe
2414
5564
b8dc
040e
cafe
280d
5564
b8dc
03f9
cafe
2c1d
5564
b8dc
042f
cafe
3005
5564
b8dc
0492
cafe
3415
5564
b8e0
0498
cafe
380e
5564
b8e0
03b9
cafe
3c1e
5564
b8e0
043e
cafe
2006
5564
b8e0
046d
cafe
2416
5564
b8e4
047f
cafe
280f
5564
b8e4
03ee
cafe
2c1f
5564
b8e4
03dd
cafe
3007
5564
b8e4
041d
cafe
3417
5564
b8e8
04c6
cafe
3808
5564
b8e8
040e
cafe
3c18
5564
b8e8
03c6
cafe
2000
5564
b8e8
03ef
cafe
2410
5564
b8ec
04ee
cafe
2809
5564
b8ec
046a
cafe
2c19
5564
b8ec
0425
cafe
3001
5564
b8ec
03aa
cafe
3411
5564
b8f0
0425
cafe
380a
5564
b8f0
03c1
cafe
3c1a
5564
b8f0
0449
cafe
2002
5564
b8f0
046e
cafe
2412
5564
b8f4
048e
cafe
-
280b
5564
b8f4
042f
cafe
2c1b
5564
b8f4
045f
cafe
3003
5564
b8f4
040b
cafe
3413
5564
b8f8
04c5
cafe
380c
5564
b8f8
03ff
cafe
3c1c
5564
b8f8
046a
cafe
2004
5564
b8f8
0407
cafe
2414
5564
b8fc
0400
cafe
280d
5564
b8fc
03d2
cafe
2c1d
5564
b8fc
03ff
cafe
3005
5564
b8fc
046e
cafe
3415
5564
b900
046d
cafe
380e
5564
b900
0386
cafe
3c1e
5564
b900
0424
cafe
2006
5564
b900
0437
cafe
2416
5564
b904
0448
cafe
280f
5564
b904
03b3
cafe
2c1f
5564
b904
0396
cafe
3007
5564
b904
03e5
cafe
3417
5564
b908
0483
cafe
3808
5564
b908
03c4
cafe
3c18
5564
b908
0392
cafe
2000
5564
b908
0392
cafe
2410
5564
b90c
04b2
cafe
2809
5564
b90c
041d
cafe
2c19
5564
b90c
03e2
cafe
3001
5564
b90c
035a
cafe
3411
5564
b910
03e4
cafe
380a
5564
b910
0364
cafe
3c1a
5564
b910
040a
cafe
2002
5564
b910
0415
cafe
2412
5564
b914
0460
cafe
280b
5564
b914
0402
cafe
2c1b
5564
b914
0413
cafe
3003
5564
b914
03c2
cafe
3413
5564
b918
0473
cafe
380c
5564
b918
03b8
cafe
3c1c
5564
b918
043b
cafe
2004
5564
b918
03c1
cafe
2414
5564
b91c
03ae
cafe
280d
5564
b91c
03a2
cafe
2c1d
5564
b91c
03ac
cafe
3005
5564
b91c
0429
cafe
3415
5564
b920
0448
cafe
380e
5564
b920
0354
cafe
3c1e
5564
b920
03e9
cafe
2006
5564
b920
03f5
cafe
2416
5564
b924
0406
cafe
280f
5564
b924
038d
cafe
2c1f
5564
b924
036c
cafe
3007
5564
b924
03bc
cafe
3417
-
5564
b928
044c
cafe
3808
5564
b928
039d
cafe
3c18
5564
b928
036d
cafe
2000
5564
b928
0371
cafe
2410
5564
b92c
047c
cafe
2809
5564
b92c
03f8
cafe
2c19
5564
b92c
03b3
cafe
3001
5564
b92c
0335
cafe
3411
5564
b930
03b1
cafe
380a
5564
b930
034a
cafe
3c1a
5564
b930
03ce
cafe
2002
5564
b930
040f
cafe
2412
5564
b934
0433
cafe
280b
5564
b934
03b8
cafe
2c1b
5564
b934
03e6
cafe
3003
5564
b934
038b
cafe
3413
5564
b938
0455
cafe
380c
5564
b938
039b
cafe
3c1c
5564
b938
0401
cafe
2004
5564
b938
0376
cafe
2414
5564
b93c
0376
cafe
280d
5564
b93c
035f
cafe
2c1d
5564
b93c
0395
cafe
3005
5564
b93c
03f0
cafe
3415
5564
b940
0404
cafe
380e
5564
b940
031d
cafe
3c1e
5564
b940
03b0
cafe
2006
5564
b940
03c9
cafe
2416
5564
b944
03c8
cafe
280f
5564
b944
033c
cafe
2c1f
5564
b944
033d
cafe
3007
5564
b944
037d
cafe
3417
5564
b948
0421
cafe
3808
5564
b948
0367
cafe
3c18
5564
b948
032f
cafe
2000
5564
b948
0329
cafe
2410
5564
b94c
0455
cafe
2809
5564
b94c
03af
cafe
2c19
5564
b94c
0377
cafe
3001
5564
b94c
0302
cafe
3411
5564
b950
0368
cafe
380a
5564
b950
0320
cafe
3c1a
5564
b950
03a7
cafe
2002
5564
b950
03c9
cafe
2412
5564
b954
03fc
cafe
280b
5564
b954
03a2
cafe
2c1b
5564
b954
03b7
cafe
3003
5564
b954
0347
cafe
3413
5564
b958
0413
cafe
380c
5564
b958
034b
cafe
3c1c
5564
b958
03c2
cafe
2004
5564
-
b958
034e
cafe
2414
5564
b95c
0350
cafe
280d
5564
b95c
0346
cafe
2c1d
5564
b95c
0363
cafe
3005
5564
b95c
03d8
cafe
3415
5564
b960
03db
cafe
380e
5564
b960
02fa
cafe
3c1e
5564
b960
0381
cafe
2006
5564
b960
03a0
cafe
2416
5564
b964
03ad
cafe
280f
5564
b964
0334
cafe
2c1f
5564
b964
0309
cafe
3007
5564
b964
035c
cafe
3417
5564
b968
03f1
cafe
3808
5564
b968
032c
cafe
3c18
5564
b968
0306
cafe
2000
5564
b968
0314
cafe
2410
5564
b96c
0423
cafe
2809
5564
b96c
0386
cafe
2c19
5564
b96c
035c
cafe
3001
5564
b96c
02e0
cafe
3411
5564
b970
0340
cafe
380a
5564
b970
02f4
cafe
3c1a
5564
b970
0372
cafe
2002
5564
b970
03ac
cafe
2412
5564
b974
03d5
cafe
280b
5564
b974
036c
cafe
2c1b
5564
b974
037d
cafe
3003
5564
b974
0329
cafe
3413
5564
b978
0400
cafe
380c
5564
b978
0334
cafe
3c1c
5564
b978
039f
cafe
2004
5564
b978
0328
cafe
2414
5564
b97c
0331
cafe
280d
5564
b97c
030b
cafe
2c1d
5564
b97c
032b
cafe
3005
5564
b97c
03a5
cafe
3415
5564
b980
0394
cafe
380e
5564
b980
02c9
cafe
3c1e
5564
b980
0351
cafe
2006
5564
b980
036a
cafe
2416
5564
b984
0387
cafe
280f
5564
b984
02f5
cafe
2c1f
5564
b984
02e9
cafe
3007
5564
b984
0323
cafe
3417
5564
b988
03ac
cafe
3808
5564
b988
0313
cafe
3c18
5564
b988
02e0
cafe
2000
5564
b988
02db
cafe
2410
5564
b98c
03f8
cafe
2809
5564
b98c
0374
cafe
2c19
5564
b98c
-
0324
cafe
3001
5564
b98c
02cc
cafe
3411
5564
b990
030e
cafe
380a
5564
b990
02b6
cafe
3c1a
5564
b990
034e
cafe
2002
5564
b990
0376
cafe
2412
5564
b994
03aa
cafe
280b
5564
b994
033e
cafe
2c1b
5564
b994
0367
cafe
3003
5564
b994
030f
cafe
3413
5564
b998
03d5
cafe
380c
5564
b998
030e
cafe
3c1c
5564
b998
037b
cafe
2004
5564
b998
031c
cafe
2414
5564
b99c
030a
cafe
280d
5564
b99c
02f4
cafe
2c1d
5564
b99c
0320
cafe
3005
5564
b99c
0388
cafe
3415
5564
b9a0
036f
cafe
380e
5564
b9a0
02a2
cafe
3c1e
5564
b9a0
0335
cafe
2006
5564
b9a0
035e
cafe
2416
5564
b9a4
0365
cafe
280f
5564
b9a4
02dd
cafe
2c1f
5564
b9a4
02b8
cafe
3007
5564
b9a4
030f
cafe
3417
5564
b9a8
039e
cafe
3808
5564
b9a8
02f0
cafe
3c18
5564
b9a8
02b2
cafe
2000
5564
b9a8
02cc
cafe
2410
5564
b9ac
03d4
cafe
2809
5564
b9ac
0347
cafe
2c19
5564
b9ac
02ee
cafe
3001
5564
b9ac
0279
cafe
3411
5564
b9b0
02f4
cafe
380a
5564
b9b0
02b3
cafe
3c1a
5564
b9b0
031f
cafe
2002
5564
b9b0
0335
cafe
2412
5564
b9b4
037b
cafe
280b
5564
b9b4
0314
cafe
2c1b
5564
b9b4
0351
cafe
3003
5564
b9b4
02ea
cafe
3413
5564
b9b8
03b2
cafe
380c
5564
b9b8
02fb
cafe
3c1c
5564
b9b8
035b
cafe
2004
5564
b9b8
02f4
cafe
2414
5564
b9bc
02da
cafe
280d
5564
b9bc
02b9
cafe
2c1d
5564
b9bc
02f6
cafe
3005
5564
b9bc
034c
cafe
3415
5564
b9c0
035d
cafe
380e
5564
b9c0
028f
-
cafe
3c1e
5564
b9c0
031d
cafe
2006
5564
b9c0
0335
cafe
2416
5564
b9c4
0348
cafe
280f
5564
b9c4
02c2
cafe
2c1f
5564
b9c4
028d
cafe
3007
5564
b9c4
02e9
cafe
3417
5564
b9c8
0377
cafe
3808
5564
b9c8
02c3
cafe
3c18
5564
b9c8
0296
cafe
2000
5564
b9c8
029f
cafe
2410
5564
b9cc
03bb
cafe
2809
5564
b9cc
0315
cafe
2c19
5564
b9cc
02cb
cafe
3001
5564
b9cc
0274
cafe
3411
5564
b9d0
02c8
cafe
380a
5564
b9d0
028f
cafe
3c1a
5564
b9d0
0308
cafe
2002
5564
b9d0
032b
cafe
2412
5564
b9d4
035c
cafe
280b
5564
b9d4
0300
cafe
2c1b
5564
b9d4
0319
cafe
3003
5564
b9d4
02b6
cafe
3413
5564
b9d8
0385
cafe
380c
5564
b9d8
02b9
cafe
3c1c
5564
b9d8
0330
cafe
2004
5564
b9d8
02d5
cafe
2414
5564
b9dc
02b8
cafe
280d
5564
b9dc
02a4
cafe
2c1d
5564
b9dc
02d0
cafe
3005
5564
b9dc
0343
cafe
3415
5564
b9e0
0328
cafe
380e
5564
b9e0
0267
cafe
3c1e
5564
b9e0
02e8
cafe
2006
5564
b9e0
0317
cafe
2416
5564
b9e4
0319
cafe
280f
5564
b9e4
029e
cafe
2c1f
5564
b9e4
0260
cafe
3007
5564
b9e4
02c0
cafe
3417
5564
b9e8
034d
cafe
3808
5564
b9e8
02a0
cafe
3c18
5564
b9e8
0265
cafe
2000
5564
b9e8
0285
cafe
2410
5564
b9ec
0395
cafe
2809
5564
b9ec
02fc
cafe
2c19
5564
b9ec
02b8
cafe
3001
5564
b9ec
0248
cafe
3411
5564
b9f0
02bb
cafe
380a
5564
b9f0
026e
cafe
3c1a
5564
b9f0
02e2
cafe
2002
5564
b9f0
0304
cafe
2412
5564
b9f4
0346
cafe
-
280b
5564
b9f4
02d1
cafe
2c1b
5564
b9f4
02fa
cafe
3003
5564
b9f4
029e
cafe
3413
5564
b9f8
0363
cafe
380c
5564
b9f8
02b8
cafe
3c1c
5564
b9f8
032d
cafe
2004
5564
b9f8
02b5
cafe
2414
5564
b9fc
0295
cafe
280d
5564
b9fc
0288
cafe
2c1d
5564
b9fc
02b7
cafe
3005
5564
b9fc
031f
cafe
3415
5564
ba00
0325
cafe
380e
5564
ba00
0267
cafe
3c1e
5564
ba00
02c8
cafe
2006
5564
ba00
030d
cafe
2416
5564
ba04
02fe
cafe
280f
5564
ba04
0277
cafe
2c1f
5564
ba04
0243
cafe
3007
5564
ba04
029d
cafe
3417
5564
ba08
032c
cafe
3808
5564
ba08
027c
cafe
3c18
5564
ba08
0257
cafe
2000
5564
ba08
026d
cafe
2410
5564
ba0c
0380
cafe
2809
5564
ba0c
02e2
cafe
2c19
5564
ba0c
029a
cafe
3001
5564
ba0c
023a
cafe
3411
5564
ba10
0282
cafe
380a
5564
ba10
0257
cafe
3c1a
5564
ba10
02cd
cafe
2002
5564
ba10
02ee
cafe
2412
5564
ba14
0330
cafe
280b
5564
ba14
02b9
cafe
2c1b
5564
ba14
02ce
cafe
3003
5564
ba14
027c
cafe
3413
5564
ba18
034e
cafe
380c
5564
ba18
0278
cafe
3c1c
5564
ba18
02f9
cafe
2004
5564
ba18
0290
cafe
2414
5564
ba1c
0289
cafe
280d
5564
ba1c
0268
cafe
2c1d
5564
ba1c
0299
cafe
3005
5564
ba1c
02e7
cafe
3415
5564
ba20
02e2
cafe
380e
5564
ba20
0220
cafe
3c1e
5564
ba20
02a9
cafe
2006
5564
ba20
02e7
cafe
2416
5564
ba24
02dd
cafe
280f
5564
ba24
0267
cafe
2c1f
5564
ba24
0223
cafe
3007
5564
ba24
0273
cafe
3417
-
5564
ba28
0309
cafe
3808
5564
ba28
026b
cafe
3c18
5564
ba28
0230
cafe
2000
5564
ba28
023d
cafe
2410
5564
ba2c
0359
cafe
2809
5564
ba2c
02c8
cafe
2c19
5564
ba2c
027d
cafe
3001
5564
ba2c
022d
cafe
3411
5564
ba30
0283
cafe
380a
5564
ba30
0245
cafe
3c1a
5564
ba30
02b2
cafe
2002
5564
ba30
02d9
cafe
2412
5564
ba34
0317
cafe
280b
5564
ba34
02a0
cafe
2c1b
5564
ba34
02c9
cafe
3003
5564
ba34
0269
cafe
3413
5564
ba38
0337
cafe
380c
5564
ba38
0277
cafe
3c1c
5564
ba38
02e6
cafe
2004
5564
ba38
0290
cafe
2414
5564
ba3c
0281
cafe
280d
5564
ba3c
0250
cafe
2c1d
5564
ba3c
0279
cafe
3005
5564
ba3c
02e6
cafe
3415
5564
ba40
02df
cafe
380e
5564
ba40
0214
cafe
3c1e
5564
ba40
028b
cafe
2006
5564
ba40
02b7
cafe
2416
5564
ba44
02d7
cafe
280f
5564
ba44
0242
cafe
2c1f
5564
ba44
021d
cafe
3007
5564
ba44
0265
cafe
3417
5564
ba48
02fd
cafe
3808
5564
ba48
0240
cafe
3c18
5564
ba48
021a
cafe
2000
5564
ba48
0221
cafe
2410
5564
ba4c
0349
cafe
2809
5564
ba4c
02b4
cafe
2c19
5564
ba4c
0254
cafe
3001
5564
ba4c
0203
cafe
3411
5564
ba50
0260
cafe
380a
5564
ba50
0219
cafe
3c1a
5564
ba50
028d
cafe
2002
5564
ba50
02c0
cafe
2412
5564
ba54
02f1
cafe
280b
5564
ba54
0290
cafe
2c1b
5564
ba54
0286
cafe
3003
5564
ba54
0249
cafe
3413
5564
ba58
0319
cafe
380c
5564
ba58
024f
cafe
3c1c
5564
ba58
02c3
cafe
2004
5564
-
ba58
025c
cafe
2414
5564
ba5c
0244
cafe
280d
5564
ba5c
0230
cafe
2c1d
5564
ba5c
0255
cafe
3005
5564
ba5c
02c4
cafe
3415
5564
ba60
02a8
cafe
380e
5564
ba60
01f1
cafe
3c1e
5564
ba60
0281
cafe
2006
5564
ba60
029e
cafe
2416
5564
ba64
02b7
cafe
280f
5564
ba64
0233
cafe
2c1f
5564
ba64
01e4
cafe
3007
5564
ba64
024f
cafe
3417
5564
ba68
02d2
cafe
3808
5564
ba68
0248
cafe
3c18
5564
ba68
020d
cafe
2000
5564
ba68
0222
cafe
2410
5564
ba6c
0325
cafe
2809
5564
ba6c
0298
cafe
2c19
5564
ba6c
0240
cafe
3001
5564
ba6c
01f3
cafe
3411
5564
ba70
0254
cafe
380a
5564
ba70
0204
cafe
3c1a
5564
ba70
0279
cafe
2002
5564
ba70
02b0
cafe
2412
5564
ba74
02e1
cafe
280b
5564
ba74
0276
cafe
2c1b
5564
ba74
0290
cafe
3003
5564
ba74
0249
cafe
3413
5564
ba78
0304
cafe
380c
5564
ba78
0240
cafe
3c1c
5564
ba78
02b3
cafe
2004
5564
ba78
025b
cafe
2414
5564
ba7c
0241
cafe
280d
5564
ba7c
0221
cafe
2c1d
5564
ba7c
0245
cafe
3005
5564
ba7c
02bb
cafe
3415
5564
ba80
02a0
cafe
380e
5564
ba80
01d2
cafe
3c1e
5564
ba80
025a
cafe
2006
5564
ba80
0278
cafe
2416
5564
ba84
028c
cafe
280f
5564
ba84
0210
cafe
2c1f
5564
ba84
01e9
cafe
3007
5564
ba84
023f
cafe
3417
5564
ba88
02c3
cafe
3808
5564
ba88
021f
cafe
3c18
5564
ba88
01f2
cafe
2000
5564
ba88
0209
cafe
2410
5564
ba8c
0309
cafe
2809
5564
ba8c
0275
cafe
2c19
5564
ba8c
-
022c
cafe
3001
5564
ba8c
01c3
cafe
3411
5564
ba90
023a
cafe
380a
5564
ba90
01f8
cafe
3c1a
5564
ba90
026b
cafe
2002
5564
ba90
0294
cafe
2412
5564
ba94
02b7
cafe
280b
5564
ba94
025d
cafe
2c1b
5564
ba94
0273
cafe
3003
5564
ba94
0218
cafe
3413
5564
ba98
02ef
cafe
380c
5564
ba98
0227
cafe
3c1c
5564
ba98
0295
cafe
2004
5564
ba98
022e
cafe
2414
5564
ba9c
0213
cafe
280d
5564
ba9c
0214
cafe
2c1d
5564
ba9c
0220
cafe
3005
5564
ba9c
02a1
cafe
3415
5564
baa0
028f
cafe
380e
5564
baa0
01c2
cafe
3c1e
5564
baa0
0247
cafe
2006
5564
baa0
026e
cafe
2416
5564
baa4
026b
cafe
280f
5564
baa4
0201
cafe
2c1f
5564
baa4
01d0
cafe
3007
5564
baa4
0238
cafe
3417
5564
baa8
02bc
cafe
3808
5564
baa8
021d
cafe
3c18
5564
baa8
01e9
cafe
2000
5564
baa8
0206
cafe
2410
5564
baac
02f4
cafe
2809
5564
baac
0267
cafe
2c19
5564
baac
0229
cafe
3001
5564
baac
01cc
cafe
3411
5564
bab0
0223
cafe
380a
5564
bab0
01d3
cafe
3c1a
5564
bab0
024d
cafe
2002
5564
bab0
029e
cafe
2412
5564
bab4
02b4
cafe
280b
5564
bab4
0250
cafe
2c1b
5564
bab4
0258
cafe
3003
5564
bab4
01f4
cafe
3413
5564
bab8
02d4
cafe
380c
5564
bab8
0222
cafe
3c1c
5564
bab8
026b
cafe
2004
5564
bab8
021f
cafe
2414
5564
babc
01ff
cafe
280d
5564
babc
0205
cafe
2c1d
5564
babc
0221
cafe
3005
5564
babc
02a0
cafe
3415
5564
bac0
0278
cafe
380e
5564
bac0
01be
-
cafe
3c1e
5564
bac0
023b
cafe
2006
5564
bac0
0272
cafe
2416
5564
bac4
026b
cafe
280f
5564
bac4
01e4
cafe
2c1f
5564
bac4
01c7
cafe
3007
5564
bac4
021f
cafe
3417
5564
bac8
02a3
cafe
3808
5564
bac8
01f7
cafe
3c18
5564
bac8
01d1
cafe
2000
5564
bac8
01db
cafe
2410
5564
bacc
02de
cafe
2809
5564
bacc
024d
cafe
2c19
5564
bacc
020d
cafe
3001
5564
bacc
01aa
cafe
3411
5564
bad0
0207
cafe
380a
5564
bad0
01c2
cafe
3c1a
5564
bad0
0248
cafe
2002
5564
bad0
027d
cafe
2412
5564
bad4
0297
cafe
280b
5564
bad4
0243
cafe
2c1b
5564
bad4
0243
cafe
3003
5564
bad4
01f5
cafe
3413
5564
bad8
02cf
cafe
380c
5564
bad8
0213
cafe
3c1c
5564
bad8
026d
cafe
2004
5564
bad8
0202
cafe
2414
5564
badc
01f2
cafe
280d
5564
badc
01d3
cafe
2c1d
5564
badc
021f
cafe
3005
5564
badc
027d
cafe
3415
5564
bae0
0276
cafe
380e
5564
bae0
01a8
cafe
3c1e
5564
bae0
0229
cafe
2006
5564
bae0
0252
cafe
2416
5564
bae4
025d
cafe
280f
5564
bae4
01f6
cafe
2c1f
5564
bae4
01ae
cafe
3007
5564
bae4
021e
cafe
3417
5564
bae8
029f
cafe
3808
5564
bae8
01f9
cafe
3c18
5564
bae8
01c7
cafe
2000
5564
bae8
01d4
cafe
2410
5564
baec
02d6
cafe
2809
5564
baec
0241
cafe
2c19
5564
baec
0200
cafe
3001
5564
baec
01b0
cafe
3411
5564
baf0
0209
cafe
380a
5564
baf0
01d5
cafe
3c1a
5564
baf0
0236
cafe
2002
5564
baf0
025c
cafe
2412
5564
baf4
0278
cafe
-
280b
5564
baf4
021b
cafe
2c1b
5564
baf4
0238
cafe
3003
5564
baf4
01e1
cafe
3413
5564
baf8
02ad
cafe
380c
5564
baf8
020a
cafe
3c1c
5564
baf8
0258
cafe
2004
5564
baf8
01fd
cafe
2414
5564
bafc
01ea
cafe
280d
5564
bafc
01d9
cafe
2c1d
5564
bafc
01f3
cafe
3005
5564
bafc
025d
cafe
3415
5564
bb00
0264
cafe
380e
5564
bb00
019b
cafe
3c1e
5564
bb00
0210
cafe
2006
5564
bb00
023f
cafe
2416
5564
bb04
0236
cafe
280f
5564
bb04
01ce
cafe
2c1f
5564
bb04
01a7
cafe
3007
5564
bb04
01fd
cafe
3417
5564
bb08
026f
cafe
3808
5564
bb08
01e7
cafe
3c18
5564
bb08
01bb
cafe
2000
5564
bb08
01be
cafe
2410
5564
bb0c
02b9
cafe
2809
5564
bb0c
0224
cafe
2c19
5564
bb0c
01f7
cafe
3001
5564
bb0c
01a1
cafe
3411
5564
bb10
01ea
cafe
380a
5564
bb10
01a7
cafe
3c1a
5564
bb10
0229
cafe
2002
5564
bb10
0257
cafe
2412
5564
bb14
0265
cafe
280b
5564
bb14
0221
cafe
2c1b
5564
bb14
0219
cafe
3003
5564
bb14
01d8
cafe
3413
5564
bb18
02ad
cafe
380c
5564
bb18
01fa
cafe
3c1c
5564
bb18
0248
cafe
2004
5564
bb18
0201
cafe
2414
5564
bb1c
01da
cafe
280d
5564
bb1c
01d3
cafe
2c1d
5564
bb1c
01e1
cafe
3005
5564
bb1c
025c
cafe
3415
5564
bb20
024a
cafe
380e
5564
bb20
0180
cafe
3c1e
5564
bb20
0207
cafe
2006
5564
bb20
022f
cafe
2416
5564
bb24
0238
cafe
280f
5564
bb24
01c8
cafe
2c1f
5564
bb24
0186
cafe
3007
5564
bb24
01e5
cafe
3417
-
5564
bb28
0262
cafe
3808
5564
bb28
01c7
cafe
3c18
5564
bb28
0195
cafe
2000
5564
bb28
019b
cafe
2410
5564
bb2c
02b1
cafe
2809
5564
bb2c
0219
cafe
2c19
5564
bb2c
01db
cafe
3001
5564
bb2c
0166
cafe
3411
5564
bb30
01e8
cafe
380a
5564
bb30
01a0
cafe
3c1a
5564
bb30
020d
cafe
2002
5564
bb30
0234
cafe
2412
5564
bb34
0257
cafe
280b
5564
bb34
0206
cafe
2c1b
5564
bb34
020e
cafe
3003
5564
bb34
01cb
cafe
3413
5564
bb38
0296
cafe
380c
5564
bb38
01d3
cafe
3c1c
5564
bb38
0234
cafe
2004
5564
bb38
01d9
cafe
2414
5564
bb3c
01ca
cafe
280d
5564
bb3c
01c0
cafe
2c1d
5564
bb3c
01f3
cafe
3005
5564
bb3c
0245
cafe
3415
5564
bb40
0246
cafe
380e
5564
bb40
0179
cafe
3c1e
5564
bb40
0201
cafe
2006
5564
bb40
023d
cafe
2416
5564
bb44
0249
cafe
280f
5564
bb44
01ca
cafe
2c1f
5564
bb44
0189
cafe
3007
5564
bb44
01de
cafe
3417
5564
bb48
0260
cafe
3808
5564
bb48
01c2
cafe
3c18
5564
bb48
018a
cafe
2000
5564
bb48
019a
cafe
2410
5564
bb4c
02a7
cafe
2809
5564
bb4c
020a
cafe
2c19
5564
bb4c
01d2
cafe
3001
5564
bb4c
0173
cafe
3411
5564
bb50
01d4
cafe
380a
5564
bb50
0188
cafe
3c1a
5564
bb50
020a
cafe
2002
5564
bb50
023f
cafe
2412
5564
bb54
024d
cafe
280b
5564
bb54
0206
cafe
2c1b
5564
bb54
01f1
cafe
3003
5564
bb54
01af
cafe
3413
5564
bb58
0284
cafe
380c
5564
bb58
01d2
cafe
3c1c
5564
bb58
0231
cafe
2004
5564
-
bb58
01cd
cafe
2414
5564
bb5c
01b5
cafe
280d
5564
bb5c
01bb
cafe
2c1d
5564
bb5c
01c5
cafe
3005
5564
bb5c
023c
cafe
3415
5564
bb60
0236
cafe
380e
5564
bb60
0172
cafe
3c1e
5564
bb60
01d9
cafe
2006
5564
bb60
0232
cafe
2416
5564
bb64
0225
cafe
280f
5564
bb64
01b1
cafe
2c1f
5564
bb64
0186
cafe
3007
5564
bb64
01d8
cafe
3417
5564
bb68
0256
cafe
3808
5564
bb68
01d3
cafe
3c18
5564
bb68
017e
cafe
2000
5564
bb68
018b
cafe
2410
5564
bb6c
029b
cafe
2809
5564
bb6c
01fe
cafe
2c19
5564
bb6c
01b1
cafe
3001
5564
bb6c
0168
cafe
3411
5564
bb70
01ba
cafe
380a
5564
bb70
0184
cafe
3c1a
5564
bb70
01f7
cafe
2002
5564
bb70
0221
cafe
2412
5564
bb74
024d
cafe
280b
5564
bb74
01e7
cafe
2c1b
5564
bb74
0201
cafe
3003
5564
bb74
01b7
cafe
3413
5564
bb78
027a
cafe
380c
5564
bb78
01c6
cafe
3c1c
5564
bb78
0229
cafe
2004
5564
bb78
01ce
cafe
2414
5564
bb7c
01a5
cafe
280d
5564
bb7c
0195
cafe
2c1d
5564
bb7c
01cb
cafe
3005
5564
bb7c
023b
cafe
3415
5564
bb80
022f
cafe
380e
5564
bb80
0171
cafe
3c1e
5564
bb80
01e7
cafe
2006
5564
bb80
0236
cafe
2416
5564
bb84
0225
cafe
280f
5564
bb84
01a3
cafe
2c1f
5564
bb84
016e
cafe
3007
5564
bb84
01d2
cafe
3417
5564
bb88
0249
cafe
3808
5564
bb88
01b5
cafe
3c18
5564
bb88
0180
cafe
2000
5564
bb88
0191
cafe
2410
5564
bb8c
02a1
cafe
2809
5564
bb8c
0202
cafe
2c19
5564
bb8c
-
01ab
cafe
3001
5564
bb8c
0167
cafe
3411
5564
bb90
01b1
cafe
380a
5564
bb90
0176
cafe
3c1a
5564
bb90
01e2
cafe
2002
5564
bb90
0212
cafe
2412
5564
bb94
0243
cafe
280b
5564
bb94
01e4
cafe
2c1b
5564
bb94
01eb
cafe
3003
5564
bb94
01a0
cafe
3413
5564
bb98
0270
cafe
380c
5564
bb98
01c1
cafe
3c1c
5564
bb98
0223
cafe
2004
5564
bb98
01d3
cafe
2414
5564
bb9c
019f
cafe
280d
5564
bb9c
0198
cafe
2c1d
5564
bb9c
01b6
cafe
3005
5564
bb9c
0227
cafe
3415
5564
bba0
0226
cafe
380e
5564
bba0
015e
cafe
3c1e
5564
bba0
01c2
cafe
2006
5564
bba0
01fb
cafe
2416
5564
bba4
0207
cafe
280f
5564
bba4
019d
cafe
2c1f
5564
bba4
0170
cafe
3007
5564
bba4
01c8
cafe
3417
5564
bba8
0238
cafe
3808
5564
bba8
01a6
cafe
3c18
5564
bba8
0160
cafe
2000
5564
bba8
0188
cafe
2410
5564
bbac
0280
cafe
2809
5564
bbac
01dd
cafe
2c19
5564
bbac
019f
cafe
3001
5564
bbac
0154
cafe
3411
5564
bbb0
01a3
cafe
380a
5564
bbb0
017c
cafe
3c1a
5564
bbb0
01e5
cafe
2002
5564
bbb0
0211
cafe
2412
5564
bbb4
0243
cafe
280b
5564
bbb4
01c6
cafe
2c1b
5564
bbb4
01f5
cafe
3003
5564
bbb4
01ad
cafe
3413
5564
bbb8
0263
cafe
380c
5564
bbb8
01c1
cafe
3c1c
5564
bbb8
022a
cafe
2004
5564
bbb8
01c7
cafe
2414
5564
bbbc
01ad
cafe
280d
5564
bbbc
0196
cafe
2c1d
5564
bbbc
01ab
cafe
3005
5564
bbbc
022e
cafe
3415
5564
bbc0
0219
cafe
380e
5564
bbc0
016b
-
cafe
3c1e
5564
bbc0
01cc
cafe
2006
5564
bbc0
0202
cafe
2416
5564
bbc4
0204
cafe
280f
5564
bbc4
0185
cafe
2c1f
5564
bbc4
0156
cafe
3007
5564
bbc4
01ce
cafe
3417
5564
bbc8
0236
cafe
3808
5564
bbc8
0198
cafe
3c18
5564
bbc8
016a
cafe
2000
5564
bbc8
0197
cafe
2410
5564
bbcc
0283
cafe
2809
5564
bbcc
01db
cafe
2c19
5564
bbcc
0189
cafe
3001
5564
bbcc
014c
cafe
3411
5564
bbd0
019e
cafe
380a
5564
bbd0
0167
cafe
3c1a
5564
bbd0
01dd
cafe
2002
5564
bbd0
01e8
cafe
2412
5564
bbd4
0219
cafe
280b
5564
bbd4
01c0
cafe
2c1b
5564
bbd4
01c8
cafe
3003
5564
bbd4
018f
cafe
3413
5564
bbd8
0257
cafe
380c
5564
bbd8
01b1
cafe
3c1c
5564
bbd8
01ff
cafe
2004
5564
bbd8
01ac
cafe
2414
5564
bbdc
0192
cafe
280d
5564
bbdc
0195
cafe
2c1d
5564
bbdc
019d
cafe
3005
5564
bbdc
020f
cafe
3415
5564
bbe0
0200
cafe
380e
5564
bbe0
014c
cafe
3c1e
5564
bbe0
01c9
cafe
2006
5564
bbe0
0204
cafe
2416
5564
bbe4
01f0
cafe
280f
5564
bbe4
0183
cafe
2c1f
5564
bbe4
015b
cafe
3007
5564
bbe4
01b2
cafe
3417
5564
bbe8
022c
cafe
3808
5564
bbe8
018c
cafe
3c18
5564
bbe8
0159
cafe
2000
5564
bbe8
018b
cafe
2410
5564
bbec
026d
cafe
2809
5564
bbec
01cc
cafe
2c19
5564
bbec
0193
cafe
3001
5564
bbec
0159
cafe
3411
5564
bbf0
0184
cafe
380a
5564
bbf0
0170
cafe
3c1a
5564
bbf0
01de
cafe
2002
5564
bbf0
01ee
cafe
2412
5564
bbf4
0226
cafe
-
280b
5564
bbf4
01b5
cafe
2c1b
5564
bbf4
01c9
cafe
3003
5564
bbf4
0186
cafe
3413
5564
bbf8
024b
cafe
380c
5564
bbf8
01a0
cafe
3c1c
5564
bbf8
01f1
cafe
2004
5564
bbf8
01c1
cafe
2414
5564
bbfc
0191
cafe
280d
5564
bbfc
0177
cafe
2c1d
5564
bbfc
0199
cafe
3005
5564
bbfc
020b
cafe
3415
5564
bc00
0204
cafe
380e
5564
bc00
0146
cafe
3c1e
5564
bc00
01a4
cafe
2006
5564
bc00
01f6
cafe
2416
5564
bc04
01db
cafe
280f
5564
bc04
016f
cafe
2c1f
5564
bc04
015d
cafe
3007
5564
bc04
01a6
cafe
3417
5564
bc08
0218
cafe
3808
5564
bc08
017c
cafe
3c18
5564
bc08
0156
cafe
2000
5564
bc08
016b
cafe
2410
5564
bc0c
0256
cafe
2809
5564
bc0c
01c5
cafe
2c19
5564
bc0c
017e
cafe
3001
5564
bc0c
0137
cafe
3411
5564
bc10
0197
cafe
380a
5564
bc10
0157
cafe
3c1a
5564
bc10
01cb
cafe
2002
5564
bc10
01e9
cafe
2412
5564
bc14
021b
cafe
280b
5564
bc14
01b4
cafe
2c1b
5564
bc14
01bb
cafe
3003
5564
bc14
017f
cafe
3413
5564
bc18
024e
cafe
380c
5564
bc18
01aa
cafe
3c1c
5564
bc18
01e7
cafe
2004
5564
bc18
01a4
cafe
2414
5564
bc1c
017e
cafe
280d
5564
bc1c
0183
cafe
2c1d
5564
bc1c
019b
cafe
3005
5564
bc1c
0209
cafe
3415
5564
bc20
01fe
cafe
380e
5564
bc20
0154
cafe
3c1e
5564
bc20
01b3
cafe
2006
5564
bc20
01fa
cafe
2416
5564
bc24
01de
cafe
280f
5564
bc24
0160
cafe
2c1f
5564
bc24
0156
cafe
3007
5564
bc24
0194
cafe
3417
-
5564
bc28
0215
cafe
3808
5564
bc28
0185
cafe
3c18
5564
bc28
0149
cafe
2000
5564
bc28
016d
cafe
2410
5564
bc2c
0261
cafe
2809
5564
bc2c
01c8
cafe
2c19
5564
bc2c
0185
cafe
3001
5564
bc2c
0155
cafe
3411
5564
bc30
0190
cafe
380a
5564
bc30
015e
cafe
3c1a
5564
bc30
01c3
cafe
2002
5564
bc30
0203
cafe
2412
5564
bc34
0207
cafe
280b
5564
bc34
01a0
cafe
2c1b
5564
bc34
01c9
cafe
3003
5564
bc34
018a
cafe
3413
5564
bc38
0258
cafe
380c
5564
bc38
0190
cafe
3c1c
5564
bc38
01d9
cafe
2004
5564
bc38
01a0
cafe
2414
5564
bc3c
0193
cafe
280d
5564
bc3c
0179
cafe
2c1d
5564
bc3c
019d
cafe
3005
5564
bc3c
01ed
cafe
3415
5564
bc40
01f7
cafe
380e
5564
bc40
0145
cafe
3c1e
5564
bc40
019f
cafe
2006
5564
bc40
01cf
cafe
2416
5564
bc44
01c5
cafe
280f
5564
bc44
015f
cafe
2c1f
5564
bc44
0161
cafe
3007
5564
bc44
01af
cafe
3417
5564
bc48
0215
cafe
3808
5564
bc48
0175
cafe
3c18
5564
bc48
0154
cafe
2000
5564
bc48
0172
cafe
2410
5564
bc4c
024d
cafe
2809
5564
bc4c
01c4
cafe
2c19
5564
bc4c
0179
cafe
3001
5564
bc4c
014f
cafe
3411
5564
bc50
017b
cafe
380a
5564
bc50
014e
cafe
3c1a
5564
bc50
01bc
cafe
2002
5564
bc50
01d1
cafe
2412
5564
bc54
0220
cafe
280b
5564
bc54
019c
cafe
2c1b
5564
bc54
01c6
cafe
3003
5564
bc54
0183
cafe
3413
5564
bc58
0243
cafe
380c
5564
bc58
0196
cafe
3c1c
5564
bc58
01e2
cafe
2004
5564
-
bc58
019b
cafe
2414
5564
bc5c
0170
cafe
280d
5564
bc5c
0185
cafe
2c1d
5564
bc5c
018d
cafe
3005
5564
bc5c
0201
cafe
3415
5564
bc60
01f2
cafe
380e
5564
bc60
0143
cafe
3c1e
5564
bc60
0185
cafe
2006
5564
bc60
01d8
cafe
2416
5564
bc64
01cf
cafe
280f
5564
bc64
0157
cafe
2c1f
5564
bc64
0161
cafe
3007
5564
bc64
0182
cafe
3417
5564
bc68
021b
cafe
3808
5564
bc68
0171
cafe
3c18
5564
bc68
0142
cafe
2000
5564
bc68
0158
cafe
2410
5564
bc6c
0257
cafe
2809
5564
bc6c
01c7
cafe
2c19
5564
bc6c
0169
cafe
3001
5564
bc6c
0142
cafe
3411
5564
bc70
0163
cafe
380a
5564
bc70
013a
cafe
3c1a
5564
bc70
01a4
cafe
2002
5564
bc70
01c3
cafe
2412
5564
bc74
01ff
cafe
280b
5564
bc74
01b8
cafe
2c1b
5564
bc74
01b7
cafe
3003
5564
bc74
0177
cafe
3413
5564
bc78
0232
cafe
380c
5564
bc78
0181
cafe
3c1c
5564
bc78
01dd
cafe
2004
5564
bc78
0194
cafe
2414
5564
bc7c
0164
cafe
280d
5564
bc7c
016b
cafe
2c1d
5564
bc7c
018b
cafe
3005
5564
bc7c
01d8
cafe
3415
5564
bc80
01f2
cafe
380e
5564
bc80
0149
cafe
3c1e
5564
bc80
018c
cafe
2006
5564
bc80
01c5
cafe
2416
5564
bc84
01c3
cafe
280f
5564
bc84
0144
cafe
2c1f
5564
bc84
013e
cafe
3007
5564
bc84
019d
cafe
3417
5564
bc88
0204
cafe
3808
5564
bc88
0169
cafe
3c18
5564
bc88
014d
cafe
2000
5564
bc88
0161
cafe
2410
5564
bc8c
0252
cafe
2809
5564
bc8c
01be
cafe
2c19
5564
bc8c
-
015f
cafe
3001
5564
bc8c
0134
cafe
3411
5564
bc90
0169
cafe
380a
5564
bc90
0137
cafe
3c1a
5564
bc90
01a2
cafe
2002
5564
bc90
01cc
cafe
2412
5564
bc94
01fc
cafe
280b
5564
bc94
01ad
cafe
2c1b
5564
bc94
01b5
cafe
3003
5564
bc94
0166
cafe
3413
5564
bc98
023c
cafe
380c
5564
bc98
0196
cafe
3c1c
5564
bc98
01d9
cafe
2004
5564
bc98
0189
cafe
2414
5564
bc9c
0168
cafe
280d
5564
bc9c
014d
cafe
2c1d
5564
bc9c
0186
cafe
3005
5564
bc9c
01e5
cafe
3415
5564
bca0
01f0
cafe
380e
5564
bca0
0138
cafe
3c1e
5564
bca0
018a
cafe
2006
5564
bca0
01c1
cafe
2416
5564
bca4
01b7
cafe
280f
5564
bca4
0159
cafe
2c1f
5564
bca4
0138
cafe
3007
5564
bca4
0173
cafe
3417
5564
bca8
0200
cafe
3808
5564
bca8
015e
cafe
3c18
5564
bca8
0133
cafe
2000
5564
bca8
0147
cafe
2410
5564
bcac
0239
cafe
2809
5564
bcac
01c2
cafe
2c19
5564
bcac
0163
cafe
3001
5564
bcac
0130
cafe
3411
5564
bcb0
0175
cafe
380a
5564
bcb0
0155
cafe
3c1a
5564
bcb0
01b5
cafe
2002
5564
bcb0
01d0
cafe
2412
5564
bcb4
0203
cafe
280b
5564
bcb4
01ae
cafe
2c1b
5564
bcb4
01b7
cafe
3003
5564
bcb4
017a
cafe
3413
5564
bcb8
022f
cafe
380c
5564
bcb8
0183
cafe
3c1c
5564
bcb8
01cc
cafe
2004
5564
bcb8
018d
cafe
2414
5564
bcbc
0172
cafe
280d
5564
bcbc
014f
cafe
2c1d
5564
bcbc
0185
cafe
3005
5564
bcbc
01e5
cafe
3415
5564
bcc0
01e2
cafe
380e
5564
bcc0
0134
-
cafe
3c1e
5564
bcc0
018e
cafe
2006
5564
bcc0
01d2
cafe
2416
5564
bcc4
01b0
cafe
280f
5564
bcc4
015b
cafe
2c1f
5564
bcc4
012b
cafe
3007
5564
bcc4
018f
cafe
3417
5564
bcc8
0211
cafe
3808
5564
bcc8
016c
cafe
3c18
5564
bcc8
0145
cafe
2000
5564
bcc8
015f
cafe
2410
5564
bccc
0258
cafe
2809
5564
bccc
01b2
cafe
2c19
5564
bccc
0165
cafe
3001
5564
bccc
013b
cafe
3411
5564
bcd0
016f
cafe
380a
5564
bcd0
0152
cafe
3c1a
5564
bcd0
01b3
cafe
2002
5564
bcd0
01c1
cafe
2412
5564
bcd4
01f6
cafe
280b
5564
bcd4
018b
cafe
2c1b
5564
bcd4
01a3
cafe
3003
5564
bcd4
0160
cafe
3413
5564
bcd8
022b
cafe
380c
5564
bcd8
0181
cafe
3c1c
5564
bcd8
01c5
cafe
2004
5564
bcd8
0181
cafe
2414
5564
bcdc
015f
cafe
280d
5564
bcdc
0150
cafe
2c1d
5564
bcdc
018c
cafe
3005
5564
bcdc
01d7
cafe
3415
5564
bce0
01df
cafe
380e
5564
bce0
0133
cafe
3c1e
5564
bce0
0197
cafe
2006
5564
bce0
01d7
cafe
2416
5564
bce4
01b0
cafe
280f
5564
bce4
0144
cafe
2c1f
5564
bce4
0123
cafe
3007
5564
bce4
0177
cafe
3417
5564
bce8
01f5
cafe
3808
5564
bce8
014e
cafe
3c18
5564
bce8
013c
cafe
2000
5564
bce8
013c
cafe
2410
5564
bcec
0233
cafe
2809
5564
bcec
01b4
cafe
2c19
5564
bcec
014d
cafe
3001
5564
bcec
011c
cafe
3411
5564
bcf0
0165
cafe
380a
5564
bcf0
0145
cafe
3c1a
5564
bcf0
01a5
cafe
2002
5564
bcf0
01bf
cafe
2412
5564
bcf4
01ea
cafe
-
