2c0f
0000
0000
01b8
cafe
300f
0000
0000
01b2
cafe
340f
0000
0000
01b2
cafe
380f
0000
0000
01b5
cafe
3c0f
0000
0000
01b4
cafe
200f
0000
0000
01b4
cafe
240f
0000
0000
01ad
cafe
280f
0000
0000
01b2
cafe
2c0f
0000
0000
01b1
cafe
300f
0000
0000
01b3
cafe
340f
0000
0000
01b2
cafe
380f
0000
0000
01b2
cafe
3c0f
0000
0000
01b0
cafe
200f
0000
0000
01b5
cafe
240f
0000
0000
01b8
cafe
280f
0000
0000
01ba
cafe
2c0f
0000
0000
01b4
cafe
300f
0000
0000
01b8
cafe
340f
0000
0000
01b8
cafe
380f
0000
0000
01b9
cafe
3c0f
0000
0000
01b8
cafe
200f
0000
0000
01b4
cafe
240f
0000
0000
01b3
cafe
280f
0000
0000
01b6
cafe
2c0f
0000
0000
01b1
cafe
300f
0000
0000
01b4
cafe
340f
0000
0000
01af
cafe
380f
0000
0000
01b4
cafe
3c0f
0000
0000
01b0
cafe
200f
0000
0000
01af
cafe
240f
0000
0000
01ac
cafe
280f
0000
0000
01ae
cafe
2c0f
0000
0000
01b1
cafe
300f
0000
0000
01b2
cafe
340f
0000
0000
01b2
cafe
380f
0000
0000
01b2
cafe
3c0f
0000
0000
01b2
cafe
200f
0000
0000
01b5
cafe
240f
0000
0000
01b6
cafe
280f
0000
0000
01b7
cafe
2c0f
0000
0000
01b7
cafe
300f
0000
0000
01b3
cafe
340f
0000
0000
01b6
cafe
380f
0000
0000
01b2
cafe
3c0f
0000
0000
01b1
cafe
200f
0000
0000
01b5
cafe
240f
0000
0000
01b2
cafe
280f
0000
0000
01b2
cafe
2c0f
0000
0000
01b5
cafe
300f
0000
0000
01b1
cafe
340f
0000
0000
01af
cafe
380f
-
0000
0000
01ad
cafe
3c0f
0000
0000
01ad
cafe
200f
0000
0000
01b0
cafe
240f
0000
0000
01ae
cafe
280f
0000
0000
01b0
cafe
2c0f
0000
0000
01ac
cafe
300f
0000
0000
01ad
cafe
340f
0000
0000
01ad
cafe
380f
0000
0000
01af
cafe
3c0f
0000
0000
01b2
cafe
200f
0000
0000
01b8
cafe
240f
0000
0000
01b3
cafe
280f
0000
0000
01b1
cafe
2c0f
0000
0000
01ae
cafe
300f
0000
0000
01b4
cafe
340f
0000
0000
01b4
cafe
380f
0000
0000
01b3
cafe
3c0f
0000
0000
01b4
cafe
200f
0000
0000
01b4
cafe
240f
0000
0000
01af
cafe
280f
0000
0000
01b2
cafe
2c0f
0000
0000
01af
cafe
300f
0000
0000
01b2
cafe
340f
0000
0000
01b5
cafe
380f
0000
0000
01b3
cafe
3c0f
0000
0000
01af
cafe
200f
0000
0000
01ae
cafe
240f
0000
0000
01ae
cafe
280f
0000
0000
01ad
cafe
2c0f
0000
0000
01af
cafe
300f
0000
0000
01b3
cafe
340f
0000
0000
01b5
cafe
380f
0000
0000
01b6
cafe
3c0f
0000
0000
01b4
cafe
200f
0000
0000
01b0
cafe
240f
0000
0000
01b1
cafe
280f
0000
0000
01b0
cafe
2c0f
0000
0000
01af
cafe
300f
0000
0000
01b0
cafe
340f
0000
0000
01ae
cafe
380f
0000
0000
01b0
cafe
3c0f
0000
0000
01af
cafe
200f
0000
0000
01b5
cafe
240f
0000
0000
01ae
cafe
280f
0000
0000
01b2
cafe
2c0f
0000
0000
01b3
cafe
300f
0000
0000
01b1
cafe
340f
0000
0000
01b0
cafe
380f
0000
0000
01b1
cafe
3c0f
0000
0000
01b3
cafe
200f
0000
0000
01b4
cafe
240f
0000
-
0000
01b7
cafe
280f
0000
0000
01b6
cafe
2c0f
0000
0000
01b5
cafe
300f
0000
0000
01b4
cafe
340f
0000
0000
01b3
cafe
380f
0000
0000
01b3
cafe
3c0f
0000
0000
01b3
cafe
200f
0000
0000
01ae
cafe
240f
0000
0000
01b1
cafe
280f
0000
0000
01ad
cafe
2c0f
0000
0000
01a9
cafe
300f
0000
0000
01af
cafe
340f
0000
0000
01af
cafe
380f
0000
0000
01af
cafe
3c0f
0000
0000
01b0
cafe
200f
0000
0000
01b2
cafe
240f
0000
0000
01b1
cafe
280f
0000
0000
01b1
cafe
2c0f
0000
0000
01ae
cafe
300f
0000
0000
01af
cafe
340f
0000
0000
01b1
cafe
380f
0000
0000
01ae
cafe
3c0f
0000
0000
01af
cafe
200f
0000
0000
01ab
cafe
240f
0000
0000
01af
cafe
280f
0000
0000
01aa
cafe
2c0f
0000
0000
01b1
cafe
300f
0000
0000
01b5
cafe
340f
0000
0000
01af
cafe
380f
0000
0000
01b0
cafe
3c0f
0000
0000
01ae
cafe
200f
0000
0000
01b4
cafe
240f
0000
0000
01b2
cafe
280f
0000
0000
01b1
cafe
2c0f
0000
0000
01b4
cafe
300f
0000
0000
01b1
cafe
340f
0000
0000
01b6
cafe
380f
0000
0000
01b3
cafe
3c0f
0000
0000
01b3
cafe
200f
0000
0000
01b2
cafe
240f
0000
0000
01b0
cafe
280f
0000
0000
01b2
cafe
2c0f
0000
0000
01b1
cafe
300f
0000
0000
01ad
cafe
340f
0000
0000
01ad
cafe
380f
0000
0000
01b1
cafe
3c0f
0000
0000
01af
cafe
200f
0000
0000
01af
cafe
240f
0000
0000
01af
cafe
280f
0000
0000
01b2
cafe
2c0f
0000
0000
01b4
cafe
300f
0000
0000
-
01b4
cafe
340f
0000
0000
01b2
cafe
380f
0000
0000
01af
cafe
3c0f
0000
0000
01ae
cafe
200f
0000
0000
01ae
cafe
240f
0000
0000
01b0
cafe
280f
0000
0000
01b1
cafe
2c0f
0000
0000
01b1
cafe
300f
0000
0000
01b4
cafe
340f
0000
0000
01b4
cafe
380f
0000
0000
01b4
cafe
3c0f
0000
0000
01b9
cafe
200f
0000
0000
01bc
cafe
240f
0000
0000
01b9
cafe
280f
0000
0000
01ba
cafe
2c0f
0000
0000
01b8
cafe
300f
0000
0000
01b8
cafe
340f
0000
0000
01b8
cafe
380f
0000
0000
01b2
cafe
3c0f
0000
0000
01b7
cafe
200f
0000
0000
01b4
cafe
240f
0000
0000
01b6
cafe
280f
0000
0000
01b1
cafe
2c0f
0000
0000
01b3
cafe
300f
0000
0000
01b2
cafe
340f
0000
0000
01b4
cafe
380f
0000
0000
01b8
cafe
3c0f
0000
0000
01bb
cafe
200f
0000
0000
01b2
cafe
240f
0000
0000
01b6
cafe
280f
0000
0000
01b7
cafe
2c0f
0000
0000
01b4
cafe
300f
0000
0000
01af
cafe
340f
0000
0000
01b6
cafe
380f
0000
0000
01b4
cafe
3c0f
0000
0000
01b3
cafe
200f
0000
0000
01b0
cafe
240f
0000
0000
01af
cafe
280f
0000
0000
01ad
cafe
2c0f
0000
0000
01b0
cafe
300f
0000
0000
01ab
cafe
340f
0000
0000
01ae
cafe
380f
0000
0000
01a8
cafe
3c0f
0000
0000
01ac
cafe
200f
0000
0000
01ab
cafe
240f
0000
0000
01ac
cafe
280f
0000
0000
01b0
cafe
2c0f
0000
0000
01b0
cafe
300f
0000
0000
01b3
cafe
340f
0000
0000
01ad
cafe
380f
0000
0000
01ad
cafe
3c0f
0000
0000
01ad
-
cafe
200f
0000
0000
01af
cafe
240f
0000
0000
01ac
cafe
280f
0000
0000
01ac
cafe
2c0f
0000
0000
01ad
cafe
300f
0000
0000
01ab
cafe
340f
0000
0000
01ab
cafe
380f
0000
0000
01af
cafe
3c0f
0000
0000
01aa
cafe
200f
0000
0000
01ac
cafe
240f
0000
0000
01ab
cafe
280f
0000
0000
01ab
cafe
2c0f
0000
0000
01ac
cafe
300f
0000
0000
01b0
cafe
340f
0000
0000
01b0
cafe
380f
0000
0000
01af
cafe
3c0f
0000
0000
01b3
cafe
200f
0000
0000
01b7
cafe
240f
0000
0000
01b0
cafe
280f
0000
0000
01b6
cafe
2c0f
0000
0000
01b6
cafe
300f
0000
0000
01b6
cafe
340f
0000
0000
01ad
cafe
380f
0000
0000
01b1
cafe
3c0f
0000
0000
01ac
cafe
200f
0000
0000
01b0
cafe
240f
0000
0000
01aa
cafe
280f
0000
0000
01ae
cafe
2c0f
0000
0000
01b0
cafe
300f
0000
0000
01ad
cafe
340f
0000
0000
01b2
cafe
380f
0000
0000
01af
cafe
3c0f
0000
0000
01b1
cafe
200f
0000
0000
01af
cafe
240f
0000
0000
01b3
cafe
280f
0000
0000
01b2
cafe
2c0f
0000
0000
01ac
cafe
300f
0000
0000
01ae
cafe
340f
0000
0000
01aa
cafe
380f
0000
0000
01ad
cafe
3c0f
0000
0000
01ad
cafe
200f
0000
0000
01b2
cafe
240f
0000
0000
01b0
cafe
280f
0000
0000
01b1
cafe
2c0f
0000
0000
01b1
cafe
300f
0000
0000
01ac
cafe
340f
0000
0000
01ae
cafe
380f
0000
0000
01ae
cafe
3c0f
0000
0000
01ae
cafe
200f
0000
0000
01b3
cafe
240f
0000
0000
01b2
cafe
280f
0000
0000
01b3
cafe
-
2c0f
0000
0000
01b2
cafe
300f
0000
0000
01b2
cafe
340f
0000
0000
01b2
cafe
380f
0000
0000
01b2
cafe
3c0f
0000
0000
01b2
cafe
200f
0000
0000
01b7
cafe
240f
0000
0000
01b6
cafe
280f
0000
0000
01b5
cafe
2c0f
0000
0000
01b3
cafe
300f
0000
0000
01b1
cafe
340f
0000
0000
01bc
cafe
380f
0000
0000
01b1
cafe
3c0f
0000
0000
01b1
cafe
200f
0000
0000
01b1
cafe
240f
0000
0000
01af
cafe
280f
0000
0000
01b3
cafe
2c0f
0000
0000
01b3
cafe
300f
0000
0000
01b3
cafe
340f
0000
0000
01b4
cafe
380f
0000
0000
01b5
cafe
3c0f
0000
0000
01b6
cafe
200f
0000
0000
01b4
cafe
240f
0000
0000
01b5
cafe
280f
0000
0000
01af
cafe
2c0f
0000
0000
01af
cafe
300f
0000
0000
01af
cafe
340f
0000
0000
01af
cafe
380f
0000
0000
01ae
cafe
3c0f
0000
0000
01b1
cafe
200f
0000
0000
01ac
cafe
240f
0000
0000
01af
cafe
280f
0000
0000
01b1
cafe
2c0f
0000
0000
01af
cafe
300f
0000
0000
01b0
cafe
340f
0000
0000
01ac
cafe
380f
0000
0000
01af
cafe
3c0f
0000
0000
01b6
cafe
200f
0000
0000
01b5
cafe
240f
0000
0000
01b3
cafe
280f
0000
0000
01af
cafe
2c0f
0000
0000
01b2
cafe
300f
0000
0000
01af
cafe
340f
0000
0000
01b4
cafe
380f
0000
0000
01b4
cafe
3c0f
0000
0000
01b7
cafe
200f
0000
0000
01b0
cafe
240f
0000
0000
01b3
cafe
280f
0000
0000
01b2
cafe
2c0f
0000
0000
01b1
cafe
300f
0000
0000
01ae
cafe
340f
0000
0000
01b2
cafe
380f
-
0000
0000
01b2
cafe
3c0f
0000
0000
01b0
cafe
200f
0000
0000
01b2
cafe
240f
0000
0000
01b7
cafe
280f
0000
0000
01b7
cafe
2c0f
0000
0000
01b3
cafe
300f
0000
0000
01b0
cafe
340f
0000
0000
01b3
cafe
380f
0000
0000
01b8
cafe
3c0f
0000
0000
01ba
cafe
200f
0000
0000
01bb
cafe
240f
0000
0000
01bb
cafe
280f
0000
0000
01b8
cafe
2c0f
0000
0000
01b5
cafe
300f
0000
0000
01b5
cafe
340f
0000
0000
01b5
cafe
380f
0000
0000
01b6
cafe
3c0f
0000
0000
01b6
cafe
200f
0000
0000
01b5
cafe
240f
0000
0000
01bc
cafe
280f
0000
0000
01c1
cafe
2c0f
0000
0000
01ba
cafe
300f
0000
0000
01b9
cafe
340f
0000
0000
01b8
cafe
380f
0000
0000
01b3
cafe
3c0f
0000
0000
01ae
cafe
200f
0000
0000
01b1
cafe
240f
0000
0000
01b0
cafe
280f
0000
0000
01b1
cafe
2c0f
0000
0000
01b5
cafe
300f
0000
0000
01b2
cafe
340f
0000
0000
01b2
cafe
380f
0000
0000
01b4
cafe
3c0f
0000
0000
01b4
cafe
200f
0000
0000
01b3
cafe
240f
0000
0000
01ac
cafe
280f
0000
0000
01af
cafe
2c0f
0000
0000
01b1
cafe
300f
0000
0000
01b9
cafe
340f
0000
0000
01b6
cafe
380f
0000
0000
01b2
cafe
3c0f
0000
0000
01ae
cafe
200f
0000
0000
01b0
cafe
240f
0000
0000
01af
cafe
280f
0000
0000
01b1
cafe
2c0f
0000
0000
01b0
cafe
300f
0000
0000
01af
cafe
340f
0000
0000
01b3
cafe
380f
0000
0000
01b4
cafe
3c0f
0000
0000
01b3
cafe
200f
0000
0000
01b1
cafe
240f
0000
-
0000
01b2
cafe
280f
0000
0000
01b4
cafe
2c0f
0000
0000
01b4
cafe
300f
0000
0000
01b6
cafe
340f
0000
0000
01b4
cafe
380f
0000
0000
01ad
cafe
3c0f
0000
0000
01af
cafe
200f
0000
0000
01b2
cafe
240f
0000
0000
01b3
cafe
280f
0000
0000
01b1
cafe
2c0f
0000
0000
01b0
cafe
300f
0000
0000
01af
cafe
340f
0000
0000
01af
cafe
380f
0000
0000
01ae
cafe
3c0f
0000
0000
01b2
cafe
200f
0000
0000
01ac
cafe
240f
0000
0000
01b0
cafe
280f
0000
0000
01b3
cafe
2c0f
0000
0000
01ad
cafe
300f
0000
0000
01b1
cafe
340f
0000
0000
01b4
cafe
380f
0000
0000
01af
cafe
3c0f
0000
0000
01ae
cafe
200f
0000
0000
01a7
cafe
240f
0000
0000
01ac
cafe
280f
0000
0000
01b1
cafe
2c0f
0000
0000
01b2
cafe
300f
0000
0000
01ad
cafe
340f
0000
0000
01b2
cafe
380f
0000
0000
01b1
cafe
3c0f
0000
0000
01af
cafe
200f
0000
0000
01ad
cafe
240f
0000
0000
01b5
cafe
280f
0000
0000
01b0
cafe
2c0f
0000
0000
01af
cafe
300f
0000
0000
01ac
cafe
340f
0000
0000
01ae
cafe
380f
0000
0000
01ae
cafe
3c0f
0000
0000
01ac
cafe
200f
0000
0000
01ac
cafe
240f
0000
0000
01ad
cafe
280f
0000
0000
01ac
cafe
2c0f
0000
0000
01ae
cafe
300f
0000
0000
01b1
cafe
340f
0000
0000
01ae
cafe
380f
0000
0000
01af
cafe
3c0f
0000
0000
01b0
cafe
200f
0000
0000
01b2
cafe
240f
0000
0000
01b2
cafe
280f
0000
0000
01b0
cafe
2c0f
0000
0000
01ab
cafe
300f
0000
0000
-
01ae
cafe
340f
0000
0000
01b0
cafe
380f
0000
0000
01ad
cafe
3c0f
0000
0000
01ad
cafe
200f
0000
0000
01ab
cafe
240f
0000
0000
01ad
cafe
280f
0000
0000
01af
cafe
2c0f
0000
0000
01ae
cafe
300f
0000
0000
01af
cafe
340f
0000
0000
01aa
cafe
380f
0000
0000
01ae
cafe
3c0f
0000
0000
01b2
cafe
200f
0000
0000
01b0
cafe
240f
0000
0000
01b7
cafe
280f
0000
0000
01b6
cafe
2c0f
0000
0000
01b1
cafe
300f
0000
0000
01b0
cafe
340f
0000
0000
01b0
cafe
380f
0000
0000
01ad
cafe
3c0f
0000
0000
01b4
cafe
200f
0000
0000
01b7
cafe
240f
0000
0000
01b3
cafe
280f
0000
0000
01b0
cafe
2c0f
0000
0000
01b3
cafe
300f
0000
0000
01b2
cafe
340f
0000
0000
01b0
cafe
380f
0000
0000
01ae
cafe
3c0f
0000
0000
01ae
cafe
200f
0000
0000
01b1
cafe
240f
0000
0000
01b2
cafe
280f
0000
0000
01b1
cafe
2c0f
0000
0000
01b3
cafe
300f
0000
0000
01b2
cafe
340f
0000
0000
01b1
cafe
380f
0000
0000
01b1
cafe
3c0f
0000
0000
01b2
cafe
200f
0000
0000
01b1
cafe
240f
0000
0000
01b0
cafe
280f
0000
0000
01ac
cafe
2c0f
0000
0000
01ae
cafe
300f
0000
0000
01b2
cafe
340f
0000
0000
01b0
cafe
380f
0000
0000
01af
cafe
3c0f
0000
0000
01ae
cafe
200f
0000
0000
01ae
cafe
240f
0000
0000
01b2
cafe
280f
0000
0000
01ae
cafe
2c0f
0000
0000
01b1
cafe
300f
0000
0000
01af
cafe
340f
0000
0000
01b1
cafe
380f
0000
0000
01b4
cafe
3c0f
0000
0000
01b2
-
cafe
200f
0000
0000
01b4
cafe
240f
0000
0000
01b2
cafe
280f
0000
0000
01b1
cafe
2c0f
0000
0000
01b0
cafe
300f
0000
0000
01b2
cafe
340f
0000
0000
01b0
cafe
380f
0000
0000
01b0
cafe
3c0f
0000
0000
01af
cafe
200f
0000
0000
01b0
cafe
240f
0000
0000
01ad
cafe
280f
0000
0000
01b2
cafe
2c0f
0000
0000
01b1
cafe
300f
0000
0000
01b3
cafe
340f
0000
0000
01b3
cafe
380f
0000
0000
01b1
cafe
3c0f
0000
0000
01b5
cafe
200f
0000
0000
01b4
cafe
240f
0000
0000
01b0
cafe
280f
0000
0000
01b2
cafe
2c0f
0000
0000
01b4
cafe
300f
0000
0000
01b5
cafe
340f
0000
0000
01b1
cafe
380f
0000
0000
01b2
cafe
3c0f
0000
0000
01b1
cafe
200f
0000
0000
01ae
cafe
240f
0000
0000
01af
cafe
280f
0000
0000
01ae
cafe
2c0f
0000
0000
01b0
cafe
300f
0000
0000
01af
cafe
340f
0000
0000
01ae
cafe
380f
0000
0000
01ad
cafe
3c0f
0000
0000
01b1
cafe
200f
0000
0000
01b7
cafe
240f
0000
0000
01b4
cafe
280f
0000
0000
01b6
cafe
2c0f
0000
0000
01b7
cafe
300f
0000
0000
01b6
cafe
340f
0000
0000
01b5
cafe
380f
0000
0000
01b4
cafe
3c0f
0000
0000
01b7
cafe
200f
0000
0000
01b2
cafe
240f
0000
0000
01b5
cafe
280f
0000
0000
01b1
cafe
2c0f
0000
0000
01b1
cafe
300f
0000
0000
01b2
cafe
340f
0000
0000
01b0
cafe
380f
0000
0000
01ae
cafe
3c0f
0000
0000
01ae
cafe
200f
0000
0000
01b1
cafe
240f
0000
0000
01ac
cafe
280f
0000
0000
01ac
cafe
-
2c0f
0000
0000
01af
cafe
300f
0000
0000
01ae
cafe
340f
0000
0000
01b1
cafe
380f
0000
0000
01a9
cafe
3c0f
0000
0000
01ac
cafe
200f
0000
0000
01aa
cafe
240f
0000
0000
01a8
cafe
280f
0000
0000
01ab
cafe
2c0f
0000
0000
01aa
cafe
300f
0000
0000
01af
cafe
340f
0000
0000
01ae
cafe
380f
0000
0000
01b1
cafe
3c0f
0000
0000
01ad
cafe
200f
0000
0000
01b0
cafe
240f
0000
0000
01b0
cafe
280f
0000
0000
01b1
cafe
2c0f
0000
0000
01b1
cafe
300f
0000
0000
01ad
cafe
340f
0000
0000
01af
cafe
380f
0000
0000
01b1
cafe
3c0f
0000
0000
01ab
cafe
200f
0000
0000
01ae
cafe
240f
0000
0000
01af
cafe
280f
0000
0000
01b0
cafe
2c0f
0000
0000
01b2
cafe
300f
0000
0000
01b0
cafe
340f
0000
0000
01b3
cafe
380f
0000
0000
01b4
cafe
3c0f
0000
0000
01af
cafe
200f
0000
0000
01b1
cafe
240f
0000
0000
01ab
cafe
280f
0000
0000
01ab
cafe
2c0f
0000
0000
01a7
cafe
300f
0000
0000
01a8
cafe
340f
0000
0000
01ac
cafe
380f
0000
0000
01af
cafe
3c0f
0000
0000
01ac
cafe
200f
0000
0000
01ae
cafe
240f
0000
0000
01ab
cafe
280f
0000
0000
01ad
cafe
2c0f
0000
0000
01ad
cafe
300f
0000
0000
01ad
cafe
340f
0000
0000
01b0
cafe
380f
0000
0000
01ad
cafe
3c0f
0000
0000
01ac
cafe
200f
0000
0000
01af
cafe
240f
0000
0000
01ae
cafe
280f
0000
0000
01ae
cafe
2c0f
0000
0000
01af
cafe
300f
0000
0000
01ae
cafe
340f
0000
0000
01b3
cafe
380f
-
0000
0000
01ab
cafe
3c0f
0000
0000
01aa
cafe
200f
0000
0000
01b0
cafe
240f
0000
0000
01ad
cafe
280f
0000
0000
01a9
cafe
2c0f
0000
0000
01ae
cafe
300f
0000
0000
01ae
cafe
340f
0000
0000
01b3
cafe
380f
0000
0000
01af
cafe
3c0f
0000
0000
01b6
cafe
200f
0000
0000
01b6
cafe
240f
0000
0000
01b4
cafe
280f
0000
0000
01aa
cafe
2c0f
0000
0000
01ae
cafe
300f
0000
0000
01b4
cafe
340f
0000
0000
01b3
cafe
380f
0000
0000
01b1
cafe
3c0f
0000
0000
01af
cafe
200f
0000
0000
01b0
cafe
240f
0000
0000
01b1
cafe
280f
0000
0000
01ae
cafe
2c0f
0000
0000
01b4
cafe
300f
0000
0000
01b4
cafe
340f
0000
0000
01b3
cafe
380f
0000
0000
01af
cafe
3c0f
0000
0000
01b3
cafe
200f
0000
0000
01b7
cafe
240f
0000
0000
01b3
cafe
280f
0000
0000
01b0
cafe
2c0f
0000
0000
01b1
cafe
300f
0000
0000
01ae
cafe
340f
0000
0000
01ac
cafe
380f
0000
0000
01b2
cafe
3c0f
0000
0000
01b5
cafe
200f
0000
0000
01b5
cafe
240f
0000
0000
01b8
cafe
280f
0000
0000
01b6
cafe
2c0f
0000
0000
01b3
cafe
300f
0000
0000
01b7
cafe
340f
0000
0000
01b4
cafe
380f
0000
0000
01af
cafe
3c0f
0000
0000
01b1
cafe
200f
0000
0000
01ac
cafe
240f
0000
0000
01b0
cafe
280f
0000
0000
01b2
cafe
2c0f
0000
0000
01af
cafe
300f
0000
0000
01b2
cafe
340f
0000
0000
01b1
cafe
380f
0000
0000
01b4
cafe
3c0f
0000
0000
01b4
cafe
200f
0000
0000
01ac
cafe
240f
0000
-
0000
01b0
cafe
280f
0000
0000
01b2
cafe
2c0f
0000
0000
01b0
cafe
300f
0000
0000
01b2
cafe
340f
0000
0000
01b3
cafe
380f
0000
0000
01ae
cafe
3c0f
0000
0000
01b0
cafe
200f
0000
0000
01b1
cafe
240f
0000
0000
01b0
cafe
280f
0000
0000
01ab
cafe
2c0f
0000
0000
01b8
cafe
300f
0000
0000
01b4
cafe
340f
0000
0000
01b6
cafe
380f
0000
0000
01b6
cafe
3c0f
0000
0000
01b8
cafe
200f
0000
0000
01b8
cafe
240f
0000
0000
01b8
cafe
280f
0000
0000
01b3
cafe
2c0f
0000
0000
01b7
cafe
300f
0000
0000
01b5
cafe
340f
0000
0000
01b3
cafe
380f
0000
0000
01b7
cafe
3c0f
0000
0000
01b8
cafe
200f
0000
0000
01b2
cafe
240f
0000
0000
01af
cafe
280f
0000
0000
01af
cafe
2c0f
0000
0000
01af
cafe
300f
0000
0000
01ad
cafe
340f
0000
0000
01af
cafe
380f
0000
0000
01ae
cafe
3c0f
0000
0000
01b1
cafe
200f
0000
0000
01b3
cafe
240f
0000
0000
01b1
cafe
280f
0000
0000
01b0
cafe
2c0f
0000
0000
01b3
cafe
300f
0000
0000
01b0
cafe
340f
0000
0000
01b9
cafe
380f
0000
0000
01b5
cafe
3c0f
0000
0000
01b6
cafe
200f
0000
0000
01b9
cafe
240f
0000
0000
01b8
cafe
280f
0000
0000
01ba
cafe
2c0f
0000
0000
01b9
cafe
300f
0000
0000
01b3
cafe
340f
0000
0000
01b4
cafe
380f
0000
0000
01b7
cafe
3c0f
0000
0000
01b4
cafe
200f
0000
0000
01b2
cafe
240f
0000
0000
01b3
cafe
280f
0000
0000
01b5
cafe
2c0f
0000
0000
01b2
cafe
300f
0000
0000
-
01ae
cafe
340f
0000
0000
01ae
cafe
380f
0000
0000
01af
cafe
3c0f
0000
0000
01b0
cafe
200f
0000
0000
01b1
cafe
240f
0000
0000
01b1
cafe
280f
0000
0000
01af
cafe
2c0f
0000
0000
01b3
cafe
300f
0000
0000
01b0
cafe
340f
0000
0000
01af
cafe
380f
0000
0000
01b0
cafe
3c0f
0000
0000
01ae
cafe
200f
0000
0000
01ad
cafe
240f
0000
0000
01b0
cafe
280f
0000
0000
01af
cafe
2c0f
0000
0000
01b2
cafe
300f
0000
0000
01b3
cafe
340f
0000
0000
01b3
cafe
380f
0000
0000
01ad
cafe
3c0f
0000
0000
01b5
cafe
200f
0000
0000
01b0
cafe
240f
0000
0000
01b2
cafe
280f
0000
0000
01b1
cafe
2c0f
0000
0000
01b0
cafe
300f
0000
0000
01ac
cafe
340f
0000
0000
01ae
cafe
380f
0000
0000
01b0
cafe
3c0f
0000
0000
01b0
cafe
200f
0000
0000
01ae
cafe
240f
0000
0000
01b4
cafe
280f
0000
0000
01b1
cafe
2c0f
0000
0000
01b2
cafe
300f
0000
0000
01af
cafe
340f
0000
0000
01b3
cafe
380f
0000
0000
01b5
cafe
3c0f
0000
0000
01b8
cafe
200f
0000
0000
01b7
cafe
240f
0000
0000
01b6
cafe
280f
0000
0000
01b2
cafe
2c0f
0000
0000
01b0
cafe
300f
0000
0000
01b1
cafe
340f
0000
0000
01b2
cafe
380f
0000
0000
01b0
cafe
3c0f
0000
0000
01b1
cafe
200f
0000
0000
01b4
cafe
240f
0000
0000
01b2
cafe
280f
0000
0000
01ae
cafe
2c0f
0000
0000
01ac
cafe
300f
0000
0000
01ae
cafe
340f
0000
0000
01b5
cafe
380f
0000
0000
01b8
cafe
3c0f
0000
0000
01b7
-
cafe
200f
0000
0000
01b3
cafe
240f
0000
0000
01b2
cafe
280f
0000
0000
01b1
cafe
2c0f
0000
0000
01b4
cafe
300f
0000
0000
01b0
cafe
340f
0000
0000
01b7
cafe
380f
0000
0000
01b9
cafe
3c0f
0000
0000
01b7
cafe
200f
0000
0000
01b5
cafe
240f
0000
0000
01b5
cafe
280f
0000
0000
01b4
cafe
2c0f
0000
0000
01b4
cafe
300f
0000
0000
01b2
cafe
340f
0000
0000
01af
cafe
380f
0000
0000
01b6
cafe
3c0f
0000
0000
01b4
cafe
200f
0000
0000
01b6
cafe
240f
0000
0000
01b1
cafe
280f
0000
0000
01ba
cafe
2c0f
0000
0000
01bc
cafe
300f
0000
0000
01bb
cafe
340f
0000
0000
01b7
cafe
380f
0000
0000
01b6
cafe
3c0f
0000
0000
01b6
cafe
200f
0000
0000
01b6
cafe
240f
0000
0000
01b6
cafe
280f
0000
0000
01b8
cafe
2c0f
0000
0000
01b6
cafe
300f
0000
0000
01af
cafe
340f
0000
0000
01b2
cafe
380f
0000
0000
01af
cafe
3c0f
0000
0000
01b0
cafe
200f
0000
0000
01b1
cafe
240f
0000
0000
01b4
cafe
280f
0000
0000
01ad
cafe
2c0f
0000
0000
01a9
cafe
300f
0000
0000
01ad
cafe
340f
0000
0000
01ae
cafe
380f
0000
0000
01ae
cafe
3c0f
0000
0000
01af
cafe
200f
0000
0000
01ac
cafe
240f
0000
0000
01b0
cafe
280f
0000
0000
01b0
cafe
2c0f
0000
0000
01af
cafe
300f
0000
0000
01b1
cafe
340f
0000
0000
01b1
cafe
380f
0000
0000
01b5
cafe
3c0f
0000
0000
01b3
cafe
200f
0000
0000
01ae
cafe
240f
0000
0000
01ac
cafe
280f
0000
0000
01a9
cafe
-
2c0f
0000
0000
01af
cafe
300f
0000
0000
01ab
cafe
340f
0000
0000
01af
cafe
380f
0000
0000
01ab
cafe
3c0f
0000
0000
01ae
cafe
200f
0000
0000
01af
cafe
240f
0000
0000
01b2
cafe
280f
0000
0000
01ae
cafe
2c0f
0000
0000
01ab
cafe
300f
0000
0000
01a9
cafe
340f
0000
0000
01ab
cafe
380f
0000
0000
01ae
cafe
3c0f
0000
0000
01b0
cafe
200f
0000
0000
01b0
cafe
240f
0000
0000
01ad
cafe
280f
0000
0000
01ab
cafe
2c0f
0000
0000
01ad
cafe
300f
0000
0000
01aa
cafe
340f
0000
0000
01ad
cafe
380f
0000
0000
01af
cafe
3c0f
0000
0000
01b4
cafe
200f
0000
0000
01b4
cafe
240f
0000
0000
01b5
cafe
280f
0000
0000
01b2
cafe
2c0f
0000
0000
01af
cafe
300f
0000
0000
01b2
cafe
340f
0000
0000
01b3
cafe
380f
0000
0000
01b0
cafe
3c0f
0000
0000
01b7
cafe
200f
0000
0000
01b4
cafe
240f
0000
0000
01b0
cafe
280f
0000
0000
01ad
cafe
2c0f
0000
0000
01aa
cafe
300f
0000
0000
01ae
cafe
340f
0000
0000
01ab
cafe
380f
0000
0000
01ac
cafe
3c0f
0000
0000
01ae
cafe
200f
0000
0000
01b1
cafe
240f
0000
0000
01ae
cafe
280f
0000
0000
01b1
cafe
2c0f
0000
0000
01ab
cafe
300f
0000
0000
01ad
cafe
340f
0000
0000
01b1
cafe
380f
0000
0000
01b1
cafe
3c0f
0000
0000
01b2
cafe
200f
0000
0000
01b2
cafe
240f
0000
0000
01b0
cafe
280f
0000
0000
01ac
cafe
2c0f
0000
0000
01ae
cafe
300f
0000
0000
01af
cafe
340f
0000
0000
01b3
cafe
380f
-
0000
0000
01b1
cafe
3c0f
0000
0000
01b6
cafe
200f
0000
0000
01b9
cafe
240f
0000
0000
01b3
cafe
280f
0000
0000
01b7
cafe
2c0f
0000
0000
01b2
cafe
300f
0000
0000
01b0
cafe
340f
0000
0000
01b6
cafe
380f
0000
0000
01b8
cafe
3c0f
0000
0000
01ba
cafe
200f
0000
0000
01b8
cafe
240f
0000
0000
01b8
cafe
280f
0000
0000
01b4
cafe
2c0f
0000
0000
01b4
cafe
300f
0000
0000
01b7
cafe
340f
0000
0000
01b4
cafe
380f
0000
0000
01b5
cafe
3c0f
0000
0000
01b4
cafe
200f
0000
0000
01b6
cafe
240f
0000
0000
01b5
cafe
280f
0000
0000
01b3
cafe
2c0f
0000
0000
01b2
cafe
300f
0000
0000
01b3
cafe
340f
0000
0000
01b4
cafe
380f
0000
0000
01ac
cafe
3c0f
0000
0000
01ad
cafe
200f
0000
0000
01aa
cafe
240f
0000
0000
01b5
cafe
280f
0000
0000
01b7
cafe
2c0f
0000
0000
01b7
cafe
300f
0000
0000
01b5
cafe
340f
0000
0000
01b0
cafe
380f
0000
0000
01b4
cafe
3c0f
0000
0000
01bb
cafe
200f
0000
0000
01b7
cafe
240f
0000
0000
01b6
cafe
280f
0000
0000
01b4
cafe
2c0f
0000
0000
01b7
cafe
300f
0000
0000
01b9
cafe
340f
0000
0000
01b6
cafe
380f
0000
0000
01bb
cafe
3c0f
0000
0000
01b9
cafe
200f
0000
0000
01b8
cafe
240f
0000
0000
01b6
cafe
280f
0000
0000
01b8
cafe
2c0f
0000
0000
01b5
cafe
300f
0000
0000
01b2
cafe
340f
0000
0000
01b5
cafe
380f
0000
0000
01b2
cafe
3c0f
0000
0000
01b3
cafe
200f
0000
0000
01b4
cafe
240f
0000
-
0000
01b1
cafe
280f
0000
0000
01b5
cafe
2c0f
0000
0000
01b5
cafe
300f
0000
0000
01b5
cafe
340f
0000
0000
01b1
cafe
380f
0000
0000
01b5
cafe
3c0f
0000
0000
01b7
cafe
200f
0000
0000
01b5
cafe
240f
0000
0000
01b5
cafe
280f
0000
0000
01b2
cafe
2c0f
0000
0000
01b6
cafe
300f
0000
0000
01b1
cafe
340f
0000
0000
01b3
cafe
380f
0000
0000
01b2
cafe
3c0f
0000
0000
01af
cafe
200f
0000
0000
01af
cafe
240f
0000
0000
01aa
cafe
280f
0000
0000
01af
cafe
2c0f
0000
0000
01aa
cafe
300f
0000
0000
01af
cafe
340f
0000
0000
01b0
cafe
380f
0000
0000
01af
cafe
3c0f
0000
0000
01ae
cafe
200f
0000
0000
01b2
cafe
240f
0000
0000
01ad
cafe
280f
0000
0000
01ad
cafe
2c0f
0000
0000
01b2
cafe
300f
0000
0000
01b2
cafe
340f
0000
0000
01b4
cafe
380f
0000
0000
01b7
cafe
3c0f
0000
0000
01b5
cafe
200f
0000
0000
01b3
cafe
240f
0000
0000
01b3
cafe
280f
0000
0000
01b3
cafe
2c0f
0000
0000
01b3
cafe
300f
0000
0000
01b5
cafe
340f
0000
0000
01b4
cafe
380f
0000
0000
01b1
cafe
3c0f
0000
0000
01b1
cafe
200f
0000
0000
01af
cafe
240f
0000
0000
01b1
cafe
280f
0000
0000
01b0
cafe
2c0f
0000
0000
01ad
cafe
300f
0000
0000
01ac
cafe
340f
0000
0000
01ad
cafe
380f
0000
0000
01b0
cafe
3c0f
0000
0000
01b3
cafe
200f
0000
0000
01b2
cafe
240f
0000
0000
01b4
cafe
280f
0000
0000
01ad
cafe
2c0f
0000
0000
01b0
cafe
300f
0000
0000
-
01ad
cafe
340f
0000
0000
01ae
cafe
380f
0000
0000
01b2
cafe
3c0f
0000
0000
01b1
cafe
200f
0000
0000
01af
cafe
240f
0000
0000
01b1
cafe
280f
0000
0000
01b7
cafe
2c0f
0000
0000
01b8
cafe
300f
0000
0000
01be
cafe
340f
0000
0000
01bb
cafe
380f
0000
0000
01bc
cafe
3c0f
0000
0000
01b9
cafe
200f
0000
0000
01ba
cafe
240f
0000
0000
01b7
cafe
280f
0000
0000
01b6
cafe
2c0f
0000
0000
01b1
cafe
300f
0000
0000
01ae
cafe
340f
0000
0000
01ac
cafe
380f
0000
0000
01b1
cafe
3c0f
0000
0000
01b1
cafe
200f
0000
0000
01ae
cafe
240f
0000
0000
01b0
cafe
280f
0000
0000
01ac
cafe
2c0f
0000
0000
01ae
cafe
300f
0000
0000
01b0
cafe
340f
0000
0000
01b2
cafe
380f
0000
0000
01b1
cafe
3c0f
0000
0000
01b1
cafe
200f
0000
0000
01b2
cafe
240f
0000
0000
01b2
cafe
280f
0000
0000
01b4
cafe
2c0f
0000
0000
01ae
cafe
300f
0000
0000
01b5
cafe
340f
0000
0000
01b2
cafe
380f
0000
0000
01b3
cafe
3c0f
0000
0000
01b1
cafe
200f
0000
0000
01b2
cafe
240f
0000
0000
01b7
cafe
280f
0000
0000
01b5
cafe
2c0f
0000
0000
01ba
cafe
300f
0000
0000
01b8
cafe
340f
0000
0000
01bc
cafe
380f
0000
0000
01b9
cafe
3c0f
0000
0000
01b4
cafe
200f
0000
0000
01b8
cafe
240f
0000
0000
01b3
cafe
280f
0000
0000
01b5
cafe
2c0f
0000
0000
01b0
cafe
300f
0000
0000
01ac
cafe
340f
0000
0000
01a8
cafe
380f
0000
0000
01ab
cafe
3c0f
0000
0000
01af
-
cafe
200f
0000
0000
01ac
cafe
240f
0000
0000
01b0
cafe
280f
0000
0000
01ae
cafe
2c0f
0000
0000
01b0
cafe
300f
0000
0000
01b2
cafe
340f
0000
0000
01ae
cafe
380f
0000
0000
01af
cafe
3c0f
0000
0000
01b3
cafe
200f
0000
0000
01b4
cafe
240f
0000
0000
01b1
cafe
280f
0000
0000
01b1
cafe
2c0f
0000
0000
01b2
cafe
300f
0000
0000
01b0
cafe
340f
0000
0000
01ad
cafe
380f
0000
0000
01b1
cafe
3c0f
0000
0000
01a9
cafe
200f
0000
0000
01a9
cafe
240f
0000
0000
01a8
cafe
280f
0000
0000
01a7
cafe
2c0f
0000
0000
01ac
cafe
300f
0000
0000
01ae
cafe
340f
0000
0000
01ac
cafe
380f
0000
0000
01a7
cafe
3c0f
0000
0000
01aa
cafe
200f
0000
0000
01af
cafe
240f
0000
0000
01b0
cafe
280f
0000
0000
01ae
cafe
2c0f
0000
0000
01b0
cafe
300f
0000
0000
01af
cafe
340f
0000
0000
01b3
cafe
380f
0000
0000
01b1
cafe
3c0f
0000
0000
01af
cafe
200f
0000
0000
01ad
cafe
240f
0000
0000
01b3
cafe
280f
0000
0000
01b6
cafe
2c0f
0000
0000
01b8
cafe
300f
0000
0000
01b3
cafe
340f
0000
0000
01b2
cafe
380f
0000
0000
01b0
cafe
3c0f
0000
0000
01ae
cafe
200f
0000
0000
01b2
cafe
240f
0000
0000
01b1
cafe
280f
0000
0000
01b1
cafe
2c0f
0000
0000
01b6
cafe
300f
0000
0000
01b1
cafe
340f
0000
0000
01b4
cafe
380f
0000
0000
01b6
cafe
3c0f
0000
0000
01b2
cafe
200f
0000
0000
01b1
cafe
240f
0000
0000
01b4
cafe
280f
0000
0000
01b2
cafe
-
2c0f
0000
0000
01b4
cafe
300f
0000
0000
01b3
cafe
340f
0000
0000
01b2
cafe
380f
0000
0000
01b1
cafe
3c0f
0000
0000
01b3
cafe
200f
0000
0000
01b1
cafe
240f
0000
0000
01b2
cafe
280f
0000
0000
01b4
cafe
2c0f
0000
0000
01b2
cafe
300f
0000
0000
01ae
cafe
340f
0000
0000
01af
cafe
380f
0000
0000
01b3
cafe
3c0f
0000
0000
01b1
cafe
200f
0000
0000
01b0
cafe
240f
0000
0000
01b2
cafe
280f
0000
0000
01b3
cafe
2c0f
0000
0000
01b3
cafe
300f
0000
0000
01b4
cafe
340f
0000
0000
01b3
cafe
380f
0000
0000
01b8
cafe
3c0f
0000
0000
01ae
cafe
200f
0000
0000
01ae
cafe
240f
0000
0000
01b3
cafe
280f
0000
0000
01b2
cafe
2c0f
0000
0000
01af
cafe
300f
0000
0000
01ae
cafe
340f
0000
0000
01ab
cafe
380f
0000
0000
01aa
cafe
3c0f
0000
0000
01aa
cafe
200f
0000
0000
01ab
cafe
240f
0000
0000
01ad
cafe
280f
0000
0000
01aa
cafe
2c0f
0000
0000
01a6
cafe
300f
0000
0000
01ab
cafe
340f
0000
0000
01ae
cafe
380f
0000
0000
01af
cafe
3c0f
0000
0000
01b0
cafe
200f
0000
0000
01b1
cafe
240f
0000
0000
01b6
cafe
280f
0000
0000
01b7
cafe
2c0f
0000
0000
01b6
cafe
300f
0000
0000
01b5
cafe
340f
0000
0000
01b5
cafe
380f
0000
0000
01b5
cafe
3c0f
0000
0000
01b3
cafe
200f
0000
0000
01b4
cafe
240f
0000
0000
01af
cafe
280f
0000
0000
01b1
cafe
2c0f
0000
0000
01b8
cafe
300f
0000
0000
01b3
cafe
340f
0000
0000
01b4
cafe
380f
-
0000
0000
01ae
cafe
3c0f
0000
0000
01ae
cafe
200f
0000
0000
01b2
cafe
240f
0000
0000
01b0
cafe
280f
0000
0000
01af
cafe
2c0f
0000
0000
01af
cafe
300f
0000
0000
01af
cafe
340f
0000
0000
01af
cafe
380f
0000
0000
01b3
cafe
3c0f
0000
0000
01b0
cafe
200f
0000
0000
01b2
cafe
240f
0000
0000
01b0
cafe
280f
0000
0000
01b3
cafe
2c0f
0000
0000
01b2
cafe
300f
0000
0000
01b1
cafe
340f
0000
0000
01b3
cafe
380f
0000
0000
01b2
cafe
3c0f
0000
0000
01b0
cafe
200f
0000
0000
01b8
cafe
240f
0000
0000
01b4
cafe
280f
0000
0000
01b1
cafe
2c0f
0000
0000
01b0
cafe
300f
0000
0000
01b5
cafe
340f
0000
0000
01b4
cafe
380f
0000
0000
01b7
cafe
3c0f
0000
0000
01b7
cafe
200f
0000
0000
01b7
cafe
240f
0000
0000
01b4
cafe
280f
0000
0000
01b3
cafe
2c0f
0000
0000
01ad
cafe
300f
0000
0000
01ad
cafe
340f
0000
0000
01b0
cafe
380f
0000
0000
01ae
cafe
3c0f
0000
0000
01b1
cafe
200f
0000
0000
01b6
cafe
240f
0000
0000
01b4
cafe
280f
0000
0000
01b2
cafe
2c0f
0000
0000
01b0
cafe
300f
0000
0000
01b0
cafe
340f
0000
0000
01ad
cafe
380f
0000
0000
01a9
cafe
3c0f
0000
0000
01ab
cafe
200f
0000
0000
01af
cafe
240f
0000
0000
01b4
cafe
280f
0000
0000
01b4
cafe
2c0f
0000
0000
01b3
cafe
300f
0000
0000
01ab
cafe
340f
0000
0000
01af
cafe
380f
0000
0000
01b0
cafe
3c0f
0000
0000
01aa
cafe
200f
0000
0000
01ad
cafe
240f
0000
-
0000
01ab
cafe
280f
0000
0000
01ad
cafe
2c0f
0000
0000
01ad
cafe
300f
0000
0000
01ae
cafe
340f
0000
0000
01ae
cafe
380f
0000
0000
01af
cafe
3c0f
0000
0000
01b1
cafe
200f
0000
0000
01af
cafe
240f
0000
0000
01ad
cafe
280f
0000
0000
01af
cafe
2c0f
0000
0000
01ab
cafe
300f
0000
0000
01ae
cafe
340f
0000
0000
01af
cafe
380f
0000
0000
01ae
cafe
3c0f
0000
0000
01b1
cafe
200f
0000
0000
01ac
cafe
240f
0000
0000
01b3
cafe
280f
0000
0000
01b2
cafe
2c0f
0000
0000
01b2
cafe
300f
0000
0000
01b0
cafe
340f
0000
0000
01b6
cafe
380f
0000
0000
01b7
cafe
3c0f
0000
0000
01b2
cafe
200f
0000
0000
01b3
cafe
240f
0000
0000
01aa
cafe
280f
0000
0000
01aa
cafe
2c0f
0000
0000
01ac
cafe
300f
0000
0000
01ae
cafe
340f
0000
0000
01ae
cafe
380f
0000
0000
01af
cafe
3c0f
0000
0000
01b0
cafe
200f
0000
0000
01b1
cafe
240f
0000
0000
01af
cafe
280f
0000
0000
01b3
cafe
2c0f
0000
0000
01b0
cafe
300f
0000
0000
01b2
cafe
340f
0000
0000
01b7
cafe
380f
0000
0000
01b8
cafe
3c0f
0000
0000
01ba
cafe
200f
0000
0000
01b9
cafe
240f
0000
0000
01b5
cafe
280f
0000
0000
01b4
cafe
2c0f
0000
0000
01b6
cafe
300f
0000
0000
01b2
cafe
340f
0000
0000
01b2
cafe
380f
0000
0000
01b5
cafe
3c0f
0000
0000
01b5
cafe
200f
0000
0000
01b5
cafe
240f
0000
0000
01b2
cafe
280f
0000
0000
01b3
cafe
2c0f
0000
0000
01b1
cafe
300f
0000
0000
-
01b1
cafe
340f
0000
0000
01b4
cafe
380f
0000
0000
01b2
cafe
3c0f
0000
0000
01b2
cafe
200f
0000
0000
01b3
cafe
240f
0000
0000
01b5
cafe
280f
0000
0000
01b6
cafe
2c0f
0000
0000
01b4
cafe
300f
0000
0000
01b2
cafe
340f
0000
0000
01b6
cafe
380f
0000
0000
01b2
cafe
3c0f
0000
0000
01b2
cafe
200f
0000
0000
01af
cafe
240f
0000
0000
01b3
cafe
280f
0000
0000
01b0
cafe
2c0f
0000
0000
01af
cafe
300f
0000
0000
01b0
cafe
340f
0000
0000
01b1
cafe
380f
0000
0000
01b2
cafe
3c0f
0000
0000
01b6
cafe
200f
0000
0000
01b1
cafe
240f
0000
0000
01ac
cafe
280f
0000
0000
01ab
cafe
2c0f
0000
0000
01ab
cafe
300f
0000
0000
01b1
cafe
340f
0000
0000
01b4
cafe
380f
0000
0000
01ad
cafe
3c0f
0000
0000
01b2
cafe
200f
0000
0000
01b3
cafe
240f
0000
0000
01b8
cafe
280f
0000
0000
01b4
cafe
2c0f
0000
0000
01b2
cafe
300f
0000
0000
01b6
cafe
340f
0000
0000
01b8
cafe
380f
0000
0000
01b3
cafe
3c0f
0000
0000
01b5
cafe
200f
0000
0000
01b5
cafe
240f
0000
0000
01b3
cafe
280f
0000
0000
01b5
cafe
2c0f
0000
0000
01b7
cafe
300f
0000
0000
01b8
cafe
340f
0000
0000
01b7
cafe
380f
0000
0000
01b5
cafe
3c0f
0000
0000
01b2
cafe
200f
0000
0000
01b4
cafe
240f
0000
0000
01b5
cafe
280f
0000
0000
01b0
cafe
2c0f
0000
0000
01aa
cafe
300f
0000
0000
01a8
cafe
340f
0000
0000
01ac
cafe
380f
0000
0000
01af
cafe
3c0f
0000
0000
01af
-
cafe
200f
0000
0000
01b4
cafe
240f
0000
0000
01b2
cafe
280f
0000
0000
01ad
cafe
2c0f
0000
0000
01ab
cafe
300f
0000
0000
01b1
cafe
340f
0000
0000
01b1
cafe
380f
0000
0000
01b3
cafe
3c0f
0000
0000
01b0
cafe
200f
0000
0000
01b6
cafe
240f
0000
0000
01ae
cafe
280f
0000
0000
01b5
cafe
2c0f
0000
0000
01b6
cafe
300f
0000
0000
01b2
cafe
340f
0000
0000
01b4
cafe
380f
0000
0000
01b6
cafe
3c0f
0000
0000
01b4
cafe
200f
0000
0000
01b5
cafe
240f
0000
0000
01b1
cafe
280f
0000
0000
01b5
cafe
2c0f
0000
0000
01b0
cafe
300f
0000
0000
01b2
cafe
340f
0000
0000
01b1
cafe
380f
0000
0000
01b0
cafe
3c0f
0000
0000
01b1
cafe
200f
0000
0000
01b5
cafe
240f
0000
0000
01b3
cafe
280f
0000
0000
01b7
cafe
2c0f
0000
0000
01b7
cafe
300f
0000
0000
01b9
cafe
340f
0000
0000
01b4
cafe
380f
0000
0000
01b1
cafe
3c0f
0000
0000
01af
cafe
200f
0000
0000
01b0
cafe
240f
0000
0000
01b0
cafe
280f
0000
0000
01b3
cafe
2c0f
0000
0000
01b3
cafe
300f
0000
0000
01b0
cafe
340f
0000
0000
01b4
cafe
380f
0000
0000
01b3
cafe
3c0f
0000
0000
01b7
cafe
200f
0000
0000
01b8
cafe
240f
0000
0000
01bc
cafe
280f
0000
0000
01bb
cafe
2c0f
0000
0000
01c0
cafe
300f
0000
0000
01bb
cafe
340f
0000
0000
01b7
cafe
380f
0000
0000
01b2
cafe
3c0f
0000
0000
01b5
cafe
200f
0000
0000
01b4
cafe
240f
0000
0000
01b5
cafe
280f
0000
0000
01b5
cafe
-
2c0f
0000
0000
01b4
cafe
300f
0000
0000
01b7
cafe
340f
0000
0000
01b1
cafe
380f
0000
0000
01b1
cafe
3c0f
0000
0000
01b1
cafe
200f
0000
0000
01b0
cafe
240f
0000
0000
01ad
cafe
280f
0000
0000
01b0
cafe
2c0f
0000
0000
01b3
cafe
300f
0000
0000
01ae
cafe
340f
0000
0000
01b1
cafe
380f
0000
0000
01ac
cafe
3c0f
0000
0000
01ab
cafe
200f
0000
0000
01aa
cafe
240f
0000
0000
01ac
cafe
280f
0000
0000
01ac
cafe
2c0f
0000
0000
01ac
cafe
300f
0000
0000
01ac
cafe
340f
0000
0000
01b1
cafe
380f
0000
0000
01ac
cafe
3c0f
0000
0000
01af
cafe
200f
0000
0000
01af
cafe
240f
0000
0000
01b1
cafe
280f
0000
0000
01b0
cafe
2c0f
0000
0000
01b2
cafe
300f
0000
0000
01ac
cafe
340f
0000
0000
01b3
cafe
380f
0000
0000
01b1
cafe
3c0f
0000
0000
01ad
cafe
200f
0000
0000
01b1
cafe
240f
0000
0000
01ad
cafe
280f
0000
0000
01af
cafe
2c0f
0000
0000
01b1
cafe
300f
0000
0000
01b0
cafe
340f
0000
0000
01ae
cafe
380f
0000
0000
01ab
cafe
3c0f
0000
0000
01ae
cafe
200f
0000
0000
01b1
cafe
240f
0000
0000
01b6
cafe
280f
0000
0000
01b6
cafe
2c0f
0000
0000
01b3
cafe
300f
0000
0000
01b2
cafe
340f
0000
0000
01b5
cafe
380f
0000
0000
01b2
cafe
3c0f
0000
0000
01b1
cafe
200f
0000
0000
01b0
cafe
240f
0000
0000
01b2
cafe
280f
0000
0000
01b2
cafe
2c0f
0000
0000
01b6
cafe
300f
0000
0000
01af
cafe
340f
0000
0000
01b1
cafe
380f
-
0000
0000
01b1
cafe
3c0f
0000
0000
01b2
cafe
200f
0000
0000
01ac
cafe
240f
0000
0000
01ae
cafe
280f
0000
0000
01ab
cafe
2c0f
0000
0000
01b3
cafe
300f
0000
0000
01b1
cafe
340f
0000
0000
01b3
cafe
380f
0000
0000
01b0
cafe
3c0f
0000
0000
01b3
cafe
200f
0000
0000
01b8
cafe
240f
0000
0000
01b3
cafe
280f
0000
0000
01b0
cafe
2c0f
0000
0000
01af
cafe
300f
0000
0000
01b0
cafe
340f
0000
0000
01b4
cafe
380f
0000
0000
01b6
cafe
3c0f
0000
0000
01b6
cafe
200f
0000
0000
01ac
cafe
240f
0000
0000
01aa
cafe
280f
0000
0000
01a7
cafe
2c0f
0000
0000
01ab
cafe
300f
0000
0000
01aa
cafe
340f
0000
0000
01ad
cafe
380f
0000
0000
01ae
cafe
3c0f
0000
0000
01b3
cafe
200f
0000
0000
01b3
cafe
240f
0000
0000
01b4
cafe
280f
0000
0000
01b2
cafe
2c0f
0000
0000
01b3
cafe
300f
0000
0000
01b6
cafe
340f
0000
0000
01b1
cafe
380f
0000
0000
01ac
cafe
3c0f
0000
0000
01b2
cafe
200f
0000
0000
01af
cafe
240f
0000
0000
01b0
cafe
280f
0000
0000
01af
cafe
2c0f
0000
0000
01b4
cafe
300f
0000
0000
01b0
cafe
340f
0000
0000
01ae
cafe
380f
0000
0000
01b3
cafe
3c0f
0000
0000
01ae
cafe
200f
0000
0000
01ae
cafe
240f
0000
0000
01ae
cafe
280f
0000
0000
01ac
cafe
2c0f
0000
0000
01aa
cafe
300f
0000
0000
01b0
cafe
340f
0000
0000
01ae
cafe
380f
0000
0000
01ae
cafe
3c0f
0000
0000
01ac
cafe
200f
0000
0000
01af
cafe
240f
0000
-
0000
01ae
cafe
280f
0000
0000
01b5
cafe
2c0f
0000
0000
01b7
cafe
300f
0000
0000
01b7
cafe
340f
0000
0000
01b5
cafe
380f
0000
0000
01b4
cafe
3c0f
0000
0000
01b2
cafe
200f
0000
0000
01b4
cafe
240f
0000
0000
01b4
cafe
280f
0000
0000
01b6
cafe
2c0f
0000
0000
01b8
cafe
300f
0000
0000
01b4
cafe
340f
0000
0000
01b8
cafe
380f
0000
0000
01bb
cafe
3c0f
0000
0000
01bc
cafe
200f
0000
0000
01b5
cafe
240f
0000
0000
01b3
cafe
280f
0000
0000
01ae
cafe
2c0f
0000
0000
01b3
cafe
300f
0000
0000
01b6
cafe
340f
0000
0000
01b2
cafe
380f
0000
0000
01af
cafe
3c0f
0000
0000
01b0
cafe
200f
0000
0000
01b1
cafe
240f
0000
0000
01b5
cafe
280f
0000
0000
01b5
cafe
2c0f
0000
0000
01b7
cafe
300f
0000
0000
01b5
cafe
340f
0000
0000
01b2
cafe
380f
0000
0000
01b5
cafe
3c0f
0000
0000
01b1
cafe
200f
0000
0000
01ac
cafe
240f
0000
0000
01b4
cafe
280f
0000
0000
01b5
cafe
2c0f
0000
0000
01b6
cafe
300f
0000
0000
01b1
cafe
340f
0000
0000
01b1
cafe
380f
0000
0000
01b0
cafe
3c0f
0000
0000
01af
cafe
200f
0000
0000
01ae
cafe
240f
0000
0000
01b3
cafe
280f
0000
0000
01b1
cafe
2c0f
0000
0000
01ad
cafe
300f
0000
0000
01b2
cafe
340f
0000
0000
01af
cafe
380f
0000
0000
01b0
cafe
3c0f
0000
0000
01b1
cafe
200f
0000
0000
01ae
cafe
240f
0000
0000
01ae
cafe
280f
0000
0000
01ab
cafe
2c0f
0000
0000
01ad
cafe
300f
0000
0000
-
01ac
cafe
340f
0000
0000
01b2
cafe
380f
0000
0000
01b1
cafe
3c0f
0000
0000
01b5
cafe
200f
0000
0000
01b2
cafe
240f
0000
0000
01af
cafe
280f
0000
0000
01ad
cafe
2c0f
0000
0000
01af
cafe
300f
0000
0000
01af
cafe
340f
0000
0000
01b1
cafe
380f
0000
0000
01b1
cafe
3c0f
0000
0000
01b0
cafe
200f
0000
0000
01ae
cafe
240f
0000
0000
01ad
cafe
280f
0000
0000
01ae
cafe
2c0f
0000
0000
01af
cafe
300f
0000
0000
01b2
cafe
340f
0000
0000
01b3
cafe
380f
0000
0000
01b0
cafe
3c0f
0000
0000
01b0
cafe
200f
0000
0000
01ac
cafe
240f
0000
0000
01ad
cafe
280f
0000
0000
01a7
cafe
2c0f
0000
0000
01ad
cafe
300f
0000
0000
01af
cafe
340f
0000
0000
01ae
cafe
380f
0000
0000
01ae
cafe
3c0f
0000
0000
01b3
cafe
200f
0000
0000
01ad
cafe
240f
0000
0000
01ae
cafe
280f
0000
0000
01b6
cafe
2c0f
0000
0000
01b3
cafe
300f
0000
0000
01b0
cafe
340f
0000
0000
01aa
cafe
380f
0000
0000
01ab
cafe
3c0f
0000
0000
01ac
cafe
200f
0000
0000
01b0
cafe
240f
0000
0000
01b1
cafe
280f
0000
0000
01b6
cafe
2c0f
0000
0000
01af
cafe
300f
0000
0000
01af
cafe
340f
0000
0000
01b1
cafe
380f
0000
0000
01b3
cafe
3c0f
0000
0000
01b4
cafe
200f
0000
0000
01b4
cafe
240f
0000
0000
01b5
cafe
280f
0000
0000
01b8
cafe
2c0f
0000
0000
01b6
cafe
300f
0000
0000
01b9
cafe
340f
0000
0000
01b6
cafe
380f
0000
0000
01b6
cafe
3c0f
0000
0000
01b9
-
cafe
200f
0000
0000
01b6
cafe
240f
0000
0000
01b6
cafe
280f
0000
0000
01b7
cafe
2c0f
0000
0000
01b8
cafe
300f
0000
0000
01b9
cafe
340f
0000
0000
01b4
cafe
380f
0000
0000
01b2
cafe
3c0f
0000
0000
01b4
cafe
200f
0000
0000
01ae
cafe
240f
0000
0000
01ad
cafe
280f
0000
0000
01ac
cafe
2c0f
0000
0000
01ab
cafe
300f
0000
0000
01ab
cafe
340f
0000
0000
01ae
cafe
380f
0000
0000
01aa
cafe
3c0f
0000
0000
01b1
cafe
200f
0000
0000
01b3
cafe
240f
0000
0000
01b1
cafe
280f
0000
0000
01b5
cafe
2c0f
0000
0000
01b5
cafe
300f
0000
0000
01b2
cafe
340f
0000
0000
01b3
cafe
380f
0000
0000
01b2
cafe
3c0f
0000
0000
01b4
cafe
200f
0000
0000
01b3
cafe
240f
0000
0000
01ae
cafe
280f
0000
0000
01b4
cafe
2c0f
0000
0000
01b0
cafe
300f
0000
0000
01ae
cafe
340f
0000
0000
01ae
cafe
380f
0000
0000
01ab
cafe
3c0f
0000
0000
01ab
cafe
200f
0000
0000
01ad
cafe
240f
0000
0000
01af
cafe
280f
0000
0000
01b1
cafe
2c0f
0000
0000
01b2
cafe
300f
0000
0000
01b7
cafe
340f
0000
0000
01b4
cafe
380f
0000
0000
01b4
cafe
3c0f
0000
0000
01b5
cafe
200f
0000
0000
01b0
cafe
240f
0000
0000
01b1
cafe
280f
0000
0000
01b0
cafe
2c0f
0000
0000
01af
cafe
300f
0000
0000
01ac
cafe
340f
0000
0000
01a9
cafe
380f
0000
0000
01a8
cafe
3c0f
0000
0000
01ae
cafe
200f
0000
0000
01aa
cafe
240f
0000
0000
01ab
cafe
280f
0000
0000
01b2
cafe
-
2c0f
0000
0000
01af
cafe
300f
0000
0000
01af
cafe
340f
0000
0000
01b3
cafe
380f
0000
0000
01b8
cafe
3c0f
0000
0000
01b8
cafe
200f
0000
0000
01ba
cafe
240f
0000
0000
01b0
cafe
280f
0000
0000
01b6
cafe
2c0f
0000
0000
01b2
cafe
300f
0000
0000
01b3
cafe
340f
0000
0000
01b2
cafe
380f
0000
0000
01b6
cafe
3c0f
0000
0000
01b5
cafe
200f
0000
0000
01b9
cafe
240f
0000
0000
01b5
cafe
280f
0000
0000
01b6
cafe
2c0f
0000
0000
01b8
cafe
300f
0000
0000
01b7
cafe
340f
0000
0000
01b7
cafe
380f
0000
0000
01b5
cafe
3c0f
0000
0000
01b9
cafe
200f
0000
0000
01b7
cafe
240f
0000
0000
01b0
cafe
280f
0000
0000
01b8
cafe
2c0f
0000
0000
01ba
cafe
300f
0000
0000
01bb
cafe
340f
0000
0000
01b8
cafe
380f
0000
0000
01b9
cafe
3c0f
0000
0000
01b5
cafe
200f
0000
0000
01b4
cafe
240f
0000
0000
01b4
cafe
280f
0000
0000
01ba
cafe
2c0f
0000
0000
01b7
cafe
300f
0000
0000
01b2
cafe
340f
0000
0000
01b8
cafe
380f
0000
0000
01b8
cafe
3c0f
0000
0000
01ba
cafe
200f
0000
0000
01b9
cafe
240f
0000
0000
01b9
cafe
280f
0000
0000
01b6
cafe
2c0f
0000
0000
01b6
cafe
300f
0000
0000
01b7
cafe
340f
0000
0000
01b9
cafe
380f
0000
0000
01b4
cafe
3c0f
0000
0000
01b5
cafe
200f
0000
0000
01b2
cafe
240f
0000
0000
01b2
cafe
280f
0000
0000
01b0
cafe
2c0f
0000
0000
01b2
cafe
300f
0000
0000
01b7
cafe
340f
0000
0000
01b5
cafe
380f
-
0000
0000
01b7
cafe
3c0f
0000
0000
01b5
cafe
200f
0000
0000
01b9
cafe
240f
0000
0000
01b4
cafe
280f
0000
0000
01ab
cafe
2c0f
0000
0000
01b2
cafe
300f
0000
0000
01ae
cafe
340f
0000
0000
01ad
cafe
380f
0000
0000
01b0
cafe
3c0f
0000
0000
01af
cafe
200f
0000
0000
01aa
cafe
240f
0000
0000
01a4
cafe
280f
0000
0000
01a7
cafe
2c0f
0000
0000
01aa
cafe
300f
0000
0000
01b1
cafe
340f
0000
0000
01ae
cafe
380f
0000
0000
01b0
cafe
3c0f
0000
0000
01b5
cafe
200f
0000
0000
01b7
cafe
240f
0000
0000
01b6
cafe
280f
0000
0000
01b8
cafe
2c0f
0000
0000
01b9
cafe
300f
0000
0000
01b4
cafe
340f
0000
0000
01b4
cafe
380f
0000
0000
01b3
cafe
3c0f
0000
0000
01b0
cafe
200f
0000
0000
01b0
cafe
240f
0000
0000
01ad
cafe
280f
0000
0000
01ad
cafe
2c0f
0000
0000
01b0
cafe
300f
0000
0000
01af
cafe
340f
0000
0000
01ab
cafe
380f
0000
0000
01af
cafe
3c0f
0000
0000
01b0
cafe
200f
0000
0000
01b3
cafe
240f
0000
0000
01af
cafe
280f
0000
0000
01ae
cafe
2c0f
0000
0000
01b3
cafe
300f
0000
0000
01b0
cafe
340f
0000
0000
01b1
cafe
380f
0000
0000
01b5
cafe
3c0f
0000
0000
01b9
cafe
200f
0000
0000
01b4
cafe
240f
0000
0000
01af
cafe
280f
0000
0000
01b5
cafe
2c0f
0000
0000
01b2
cafe
300f
0000
0000
01b6
cafe
340f
0000
0000
01b5
cafe
380f
0000
0000
01b5
cafe
3c0f
0000
0000
01b7
cafe
200f
0000
0000
01b8
cafe
240f
0000
-
0000
01b6
cafe
280f
0000
0000
01b6
cafe
2c0f
0000
0000
01b8
cafe
300f
0000
0000
01bc
cafe
340f
0000
0000
01b8
cafe
380f
0000
0000
01b6
cafe
3c0f
0000
0000
01b7
cafe
200f
0000
0000
01ba
cafe
240f
0000
0000
01b3
cafe
280f
0000
0000
01b5
cafe
2c0f
0000
0000
01b5
cafe
300f
0000
0000
01b5
cafe
340f
0000
0000
01b2
cafe
380f
0000
0000
01b4
cafe
3c0f
0000
0000
01b3
cafe
200f
0000
0000
01b4
cafe
240f
0000
0000
01b0
cafe
280f
0000
0000
01b2
cafe
2c0f
0000
0000
01b3
cafe
300f
0000
0000
01b6
cafe
340f
0000
0000
01b2
cafe
380f
0000
0000
01b2
cafe
3c0f
0000
0000
01b8
cafe
200f
0000
0000
01b8
cafe
240f
0000
0000
01b7
cafe
280f
0000
0000
01b4
cafe
2c0f
0000
0000
01b2
cafe
300f
0000
0000
01b4
cafe
340f
0000
0000
01ae
cafe
380f
0000
0000
01af
cafe
3c0f
0000
0000
01b2
cafe
200f
0000
0000
01b1
cafe
240f
0000
0000
01ac
cafe
280f
0000
0000
01b5
cafe
2c0f
0000
0000
01b2
cafe
300f
0000
0000
01af
cafe
340f
0000
0000
01b9
cafe
380f
0000
0000
01b9
cafe
3c0f
0000
0000
01b7
cafe
200f
0000
0000
01b8
cafe
240f
0000
0000
01b5
cafe
280f
0000
0000
01b7
cafe
2c0f
0000
0000
01b1
cafe
300f
0000
0000
01b4
cafe
340f
0000
0000
01b4
cafe
380f
0000
0000
01b7
cafe
3c0f
0000
0000
01b2
cafe
200f
0000
0000
01b1
cafe
240f
0000
0000
01af
cafe
280f
0000
0000
01af
cafe
2c0f
0000
0000
01b0
cafe
300f
0000
0000
-
01ac
cafe
340f
0000
0000
01ac
cafe
380f
0000
0000
01ab
cafe
3c0f
0000
0000
01ab
cafe
200f
0000
0000
01ad
cafe
240f
0000
0000
01ac
cafe
280f
0000
0000
01b6
cafe
2c0f
0000
0000
01b1
cafe
300f
0000
0000
01b4
cafe
340f
0000
0000
01b3
cafe
380f
0000
0000
01b2
cafe
3c0f
0000
0000
01b2
cafe
200f
0000
0000
01b7
cafe
240f
0000
0000
01ad
cafe
280f
0000
0000
01af
cafe
2c0f
0000
0000
01b3
cafe
300f
0000
0000
01af
cafe
340f
0000
0000
01b2
cafe
380f
0000
0000
01b4
cafe
3c0f
0000
0000
01b0
cafe
200f
0000
0000
01b4
cafe
240f
0000
0000
01b6
cafe
280f
0000
0000
01b2
cafe
2c0f
0000
0000
01b1
cafe
300f
0000
0000
01b4
cafe
340f
0000
0000
01b2
cafe
380f
0000
0000
01b7
cafe
3c0f
0000
0000
01b8
cafe
200f
0000
0000
01b4
cafe
240f
0000
0000
01b5
cafe
280f
0000
0000
01b5
cafe
2c0f
0000
0000
01b1
cafe
300f
0000
0000
01b6
cafe
340f
0000
0000
01b1
cafe
380f
0000
0000
01ac
cafe
3c0f
0000
0000
01ae
cafe
200f
0000
0000
01ad
cafe
240f
0000
0000
01b1
cafe
280f
0000
0000
01b6
cafe
2c0f
0000
0000
01b1
cafe
300f
0000
0000
01b2
cafe
340f
0000
0000
01b6
cafe
380f
0000
0000
01b5
cafe
3c0f
0000
0000
01b0
cafe
200f
0000
0000
01b0
cafe
240f
0000
0000
01b1
cafe
280f
0000
0000
01b0
cafe
2c0f
0000
0000
01b0
cafe
300f
0000
0000
01b5
cafe
340f
0000
0000
01b4
cafe
380f
0000
0000
01b5
cafe
3c0f
0000
0000
01b3
-
cafe
200f
0000
0000
01b3
cafe
240f
0000
0000
01b5
cafe
280f
0000
0000
01b3
cafe
2c0f
0000
0000
01b4
cafe
300f
0000
0000
01b3
cafe
340f
0000
0000
01b2
cafe
380f
0000
0000
01b1
cafe
3c0f
0000
0000
01ae
cafe
200f
0000
0000
01ae
cafe
240f
0000
0000
01ad
cafe
280f
0000
0000
01b3
cafe
2c0f
0000
0000
01b1
cafe
300f
0000
0000
01b0
cafe
340f
0000
0000
01ac
cafe
380f
0000
0000
01ac
cafe
3c0f
0000
0000
01ae
cafe
200f
0000
0000
01b1
cafe
240f
0000
0000
01b3
cafe
280f
0000
0000
01af
cafe
2c0f
0000
0000
01b4
cafe
300f
0000
0000
01b4
cafe
340f
0000
0000
01b2
cafe
380f
0000
0000
01af
cafe
3c0f
0000
0000
01ae
cafe
200f
0000
0000
01b6
cafe
240f
0000
0000
01b6
cafe
280f
0000
0000
01b2
cafe
2c0f
0000
0000
01ad
cafe
300f
0000
0000
01af
cafe
340f
0000
0000
01ac
cafe
380f
0000
0000
01aa
cafe
3c0f
0000
0000
01ad
cafe
200f
0000
0000
01ad
cafe
240f
0000
0000
01ae
cafe
280f
0000
0000
01b0
cafe
2c0f
0000
0000
01b5
cafe
300f
0000
0000
01b1
cafe
340f
0000
0000
01b6
cafe
380f
0000
0000
01b5
cafe
3c0f
0000
0000
01bb
cafe
200f
0000
0000
01b1
cafe
240f
0000
0000
01b3
cafe
280f
0000
0000
01b3
cafe
2c0f
0000
0000
01b0
cafe
300f
0000
0000
01b2
cafe
340f
0000
0000
01b3
cafe
380f
0000
0000
01b3
cafe
3c0f
0000
0000
01b1
cafe
200f
0000
0000
01b2
cafe
240f
0000
0000
01b3
cafe
280f
0000
0000
01b2
cafe
-
2c0f
0000
0000
01b0
cafe
300f
0000
0000
01b3
cafe
340f
0000
0000
01b1
cafe
380f
0000
0000
01b0
cafe
3c0f
0000
0000
01b0
cafe
200f
0000
0000
01b2
cafe
240f
0000
0000
01b0
cafe
280f
0000
0000
01b2
cafe
2c0f
0000
0000
01b9
cafe
300f
0000
0000
01b4
cafe
340f
0000
0000
01b2
cafe
380f
0000
0000
01b3
cafe
3c0f
0000
0000
01b3
cafe
200f
0000
0000
01b2
cafe
240f
0000
0000
01ae
cafe
280f
0000
0000
01b0
cafe
2c0f
0000
0000
01b4
cafe
300f
0000
0000
01b1
cafe
340f
0000
0000
01b2
cafe
380f
0000
0000
01b0
cafe
3c0f
0000
0000
01b0
cafe
200f
0000
0000
01ad
cafe
240f
0000
0000
01ad
cafe
280f
0000
0000
01ae
cafe
2c0f
0000
0000
01af
cafe
300f
0000
0000
01af
cafe
340f
0000
0000
01b0
cafe
380f
0000
0000
01b1
cafe
3c0f
0000
0000
01b1
cafe
200f
0000
0000
01b2
cafe
240f
0000
0000
01b0
cafe
280f
0000
0000
01ac
cafe
2c0f
0000
0000
01ab
cafe
300f
0000
0000
01b0
cafe
340f
0000
0000
01b1
cafe
380f
0000
0000
01b0
cafe
3c0f
0000
0000
01af
cafe
200f
0000
0000
01ad
cafe
240f
0000
0000
01ac
cafe
280f
0000
0000
01ac
cafe
2c0f
0000
0000
01ae
cafe
300f
0000
0000
01ae
cafe
340f
0000
0000
01b0
cafe
380f
0000
0000
01b0
cafe
3c0f
0000
0000
01ac
cafe
200f
0000
0000
01ae
cafe
240f
0000
0000
01b1
cafe
280f
0000
0000
01b0
cafe
2c0f
0000
0000
01af
cafe
300f
0000
0000
01b1
cafe
340f
0000
0000
01b4
cafe
380f
-
0000
0000
01b3
cafe
3c0f
0000
0000
01b8
cafe
200f
0000
0000
01b8
cafe
240f
0000
0000
01b8
cafe
280f
0000
0000
01b9
cafe
2c0f
0000
0000
01b4
cafe
300f
0000
0000
01b0
cafe
340f
0000
0000
01b3
cafe
380f
0000
0000
01b1
cafe
3c0f
0000
0000
01af
cafe
200f
0000
0000
01b3
cafe
240f
0000
0000
01b1
cafe
280f
0000
0000
01b7
cafe
2c0f
0000
0000
01b3
cafe
300f
0000
0000
01af
cafe
340f
0000
0000
01ae
cafe
380f
0000
0000
01a9
cafe
3c0f
0000
0000
01af
cafe
200f
0000
0000
01ac
cafe
240f
0000
0000
01ae
cafe
280f
0000
0000
01af
cafe
2c0f
0000
0000
01af
cafe
300f
0000
0000
01ad
cafe
340f
0000
0000
01b1
cafe
380f
0000
0000
01b3
cafe
3c0f
0000
0000
01b4
cafe
200f
0000
0000
01b4
cafe
240f
0000
0000
01b8
cafe
280f
0000
0000
01b8
cafe
2c0f
0000
0000
01bb
cafe
300f
0000
0000
01b7
cafe
340f
0000
0000
01b2
cafe
380f
0000
0000
01b3
cafe
3c0f
0000
0000
01b6
cafe
200f
0000
0000
01b3
cafe
240f
0000
0000
01af
cafe
280f
0000
0000
01b0
cafe
2c0f
0000
0000
01b3
cafe
300f
0000
0000
01b3
cafe
340f
0000
0000
01b5
cafe
380f
0000
0000
01b2
cafe
3c0f
0000
0000
01b7
cafe
200f
0000
0000
01b6
cafe
240f
0000
0000
01b6
cafe
280f
0000
0000
01b9
cafe
2c0f
0000
0000
01b1
cafe
300f
0000
0000
01b3
cafe
340f
0000
0000
01b1
cafe
380f
0000
0000
01b5
cafe
3c0f
0000
0000
01b4
cafe
200f
0000
0000
01b0
cafe
240f
0000
-
0000
01b1
cafe
280f
0000
0000
01b2
cafe
2c0f
0000
0000
01b5
cafe
300f
0000
0000
01b2
cafe
340f
0000
0000
01b3
cafe
380f
0000
0000
01b7
cafe
3c0f
0000
0000
01b6
cafe
200f
0000
0000
01af
cafe
240f
0000
0000
01b2
cafe
280f
0000
0000
01b6
cafe
2c0f
0000
0000
01b3
cafe
300f
0000
0000
01b0
cafe
340f
0000
0000
01b0
cafe
380f
0000
0000
01b4
cafe
3c0f
0000
0000
01b3
cafe
200f
0000
0000
01b1
cafe
240f
0000
0000
01af
cafe
280f
0000
0000
01ae
cafe
2c0f
0000
0000
01ac
cafe
300f
0000
0000
01b3
cafe
340f
0000
0000
01b2
cafe
380f
0000
0000
01b1
cafe
3c0f
0000
0000
01b3
cafe
200f
0000
0000
01b6
cafe
240f
0000
0000
01b1
cafe
280f
0000
0000
01b3
cafe
2c0f
0000
0000
01af
cafe
300f
0000
0000
01ad
cafe
340f
0000
0000
01b0
cafe
380f
0000
0000
01b4
cafe
3c0f
0000
0000
01b2
cafe
200f
0000
0000
01b3
cafe
240f
0000
0000
01af
cafe
280f
0000
0000
01b2
cafe
2c0f
0000
0000
01b2
cafe
300f
0000
0000
01b4
cafe
340f
0000
0000
01ac
cafe
380f
0000
0000
01ad
cafe
3c0f
0000
0000
01ae
cafe
200f
0000
0000
01b4
cafe
240f
0000
0000
01b4
cafe
280f
0000
0000
01b6
cafe
2c0f
0000
0000
01b4
cafe
300f
0000
0000
01b2
cafe
340f
0000
0000
01b5
cafe
380f
0000
0000
01b3
cafe
3c0f
0000
0000
01b7
cafe
200f
0000
0000
01b1
cafe
240f
0000
0000
01b0
cafe
280f
0000
0000
01b2
cafe
2c0f
0000
0000
01b2
cafe
300f
0000
0000
-
01b2
cafe
340f
0000
0000
01b2
cafe
380f
0000
0000
01ae
cafe
3c0f
0000
0000
01b4
cafe
200f
0000
0000
01b1
cafe
240f
0000
0000
01b2
cafe
280f
0000
0000
01ab
cafe
2c0f
0000
0000
01b0
cafe
300f
0000
0000
01b1
cafe
340f
0000
0000
01b0
cafe
380f
0000
0000
01ad
cafe
3c0f
0000
0000
01b2
cafe
200f
0000
0000
01b0
cafe
240f
0000
0000
01b4
cafe
280f
0000
0000
01b3
cafe
2c0f
0000
0000
01b6
cafe
300f
0000
0000
01b4
cafe
340f
0000
0000
01b0
cafe
380f
0000
0000
01b2
cafe
3c0f
0000
0000
01b3
cafe
200f
0000
0000
01ad
cafe
240f
0000
0000
01b0
cafe
280f
0000
0000
01b1
cafe
2c0f
0000
0000
01b0
cafe
300f
0000
0000
01b0
cafe
340f
0000
0000
01b2
cafe
380f
0000
0000
01b7
cafe
3c0f
0000
0000
01b4
cafe
200f
0000
0000
01b2
cafe
240f
0000
0000
01b2
cafe
280f
0000
0000
01ad
cafe
2c0f
0000
0000
01b3
cafe
300f
0000
0000
01ae
cafe
340f
0000
0000
01af
cafe
380f
0000
0000
01b0
cafe
3c0f
0000
0000
01b0
cafe
200f
0000
0000
01ae
cafe
240f
0000
0000
01af
cafe
280f
0000
0000
01b1
cafe
2c0f
0000
0000
01b1
cafe
300f
0000
0000
01ae
cafe
340f
0000
0000
01ad
cafe
380f
0000
0000
01b3
cafe
3c0f
0000
0000
01b0
cafe
200f
0000
0000
01b1
cafe
240f
0000
0000
01b6
cafe
280f
0000
0000
01b1
cafe
2c0f
0000
0000
01ad
cafe
300f
0000
0000
01b2
cafe
340f
0000
0000
01ad
cafe
380f
0000
0000
01b2
cafe
3c0f
0000
0000
01ae
-
cafe
200f
0000
0000
01af
cafe
240f
0000
0000
01b2
cafe
280f
0000
0000
01b3
cafe
2c0f
0000
0000
01b6
cafe
300f
0000
0000
01b5
cafe
340f
0000
0000
01b9
cafe
380f
0000
0000
01b4
cafe
3c0f
0000
0000
01b4
cafe
200f
0000
0000
01b2
cafe
240f
0000
0000
01b2
cafe
280f
0000
0000
01ae
cafe
2c0f
0000
0000
01ad
cafe
300f
0000
0000
01ac
cafe
340f
0000
0000
01b1
cafe
380f
0000
0000
01af
cafe
3c0f
0000
0000
01af
cafe
200f
0000
0000
01b4
cafe
240f
0000
0000
01b3
cafe
280f
0000
0000
01ae
cafe
2c0f
0000
0000
01af
cafe
300f
0000
0000
01ad
cafe
340f
0000
0000
01b1
cafe
380f
0000
0000
01b1
cafe
3c0f
0000
0000
01b6
cafe
200f
0000
0000
01b5
cafe
240f
0000
0000
01af
cafe
280f
0000
0000
01b3
cafe
2c0f
0000
0000
01b0
cafe
300f
0000
0000
01b1
cafe
340f
0000
0000
01b4
cafe
380f
0000
0000
01b0
cafe
3c0f
0000
0000
01aa
cafe
200f
0000
0000
01ae
cafe
240f
0000
0000
01ae
cafe
280f
0000
0000
01b5
cafe
2c0f
0000
0000
01b1
cafe
300f
0000
0000
01b5
cafe
340f
0000
0000
01b4
cafe
380f
0000
0000
01b4
cafe
3c0f
0000
0000
01b2
cafe
200f
0000
0000
01ad
cafe
240f
0000
0000
01b2
cafe
280f
0000
0000
01af
cafe
2c0f
0000
0000
01ae
cafe
300f
0000
0000
01ac
cafe
340f
0000
0000
01b3
cafe
380f
0000
0000
01b7
cafe
3c0f
0000
0000
01af
cafe
200f
0000
0000
01b4
cafe
240f
0000
0000
01b8
cafe
280f
0000
0000
01b5
cafe
-
2c0f
0000
0000
01b5
cafe
300f
0000
0000
01b6
cafe
340f
0000
0000
01b4
cafe
380f
0000
0000
01b1
cafe
3c0f
0000
0000
01af
cafe
200f
0000
0000
01b2
cafe
240f
0000
0000
01b4
cafe
280f
0000
0000
01b4
cafe
2c0f
0000
0000
01b3
cafe
300f
0000
0000
01b5
cafe
340f
0000
0000
01b4
cafe
380f
0000
0000
01b2
cafe
3c0f
0000
0000
01ae
cafe
200f
0000
0000
01ad
cafe
240f
0000
0000
01b0
cafe
280f
0000
0000
01ac
cafe
2c0f
0000
0000
01ad
cafe
300f
0000
0000
01ab
cafe
340f
0000
0000
01ac
cafe
380f
0000
0000
01ad
cafe
3c0f
0000
0000
01ad
cafe
200f
0000
0000
01ad
cafe
240f
0000
0000
01af
cafe
280f
0000
0000
01af
cafe
2c0f
0000
0000
01b4
cafe
300f
0000
0000
01b2
cafe
340f
0000
0000
01af
cafe
380f
0000
0000
01ae
cafe
3c0f
0000
0000
01ae
cafe
200f
0000
0000
01ae
cafe
240f
0000
0000
01b0
cafe
280f
0000
0000
01af
cafe
2c0f
0000
0000
01b1
cafe
300f
0000
0000
01b4
cafe
340f
0000
0000
01b2
cafe
380f
0000
0000
01af
cafe
3c0f
0000
0000
01ae
cafe
200f
0000
0000
01af
cafe
240f
0000
0000
01ac
cafe
280f
0000
0000
01ae
cafe
2c0f
0000
0000
01b3
cafe
300f
0000
0000
01b4
cafe
340f
0000
0000
01b5
cafe
380f
0000
0000
01b0
cafe
3c0f
0000
0000
01b1
cafe
200f
0000
0000
01af
cafe
240f
0000
0000
01ad
cafe
280f
0000
0000
01ad
cafe
2c0f
0000
0000
01b0
cafe
300f
0000
0000
01b2
cafe
340f
0000
0000
01ac
cafe
380f
-
0000
0000
01ad
cafe
3c0f
0000
0000
01b0
cafe
200f
0000
0000
01b1
cafe
240f
0000
0000
01b2
cafe
280f
0000
0000
01b1
cafe
2c0f
0000
0000
01b0
cafe
300f
0000
0000
01ae
cafe
340f
0000
0000
01b1
cafe
380f
0000
0000
01b1
cafe
3c0f
0000
0000
01b1
cafe
200f
0000
0000
01b2
cafe
240f
0000
0000
01b5
cafe
280f
0000
0000
01b1
cafe
2c0f
0000
0000
01b5
cafe
300f
0000
0000
01b6
cafe
340f
0000
0000
01b5
cafe
380f
0000
0000
01b3
cafe
3c0f
0000
0000
01b4
cafe
200f
0000
0000
01b7
cafe
240f
0000
0000
01b8
cafe
280f
0000
0000
01b3
cafe
2c0f
0000
0000
01b4
cafe
300f
0000
0000
01b6
cafe
340f
0000
0000
01b7
cafe
380f
0000
0000
01b2
cafe
3c0f
0000
0000
01b3
cafe
200f
0000
0000
01b6
cafe
240f
0000
0000
01b6
cafe
280f
0000
0000
01b7
cafe
2c0f
0000
0000
01b6
cafe
300f
0000
0000
01b6
cafe
340f
0000
0000
01b8
cafe
380f
0000
0000
01b7
cafe
3c0f
0000
0000
01b4
cafe
200f
0000
0000
01ae
cafe
240f
0000
0000
01ae
cafe
280f
0000
0000
01b5
cafe
2c0f
0000
0000
01b1
cafe
300f
0000
0000
01b3
cafe
340f
0000
0000
01b0
cafe
380f
0000
0000
01b2
cafe
3c0f
0000
0000
01b5
cafe
200f
0000
0000
01b9
cafe
240f
0000
0000
01b8
cafe
280f
0000
0000
01b5
cafe
2c0f
0000
0000
01ba
cafe
300f
0000
0000
01b8
cafe
340f
0000
0000
01ba
cafe
380f
0000
0000
01b7
cafe
3c0f
0000
0000
01b3
cafe
200f
0000
0000
01b7
cafe
240f
0000
-
0000
01b7
cafe
280f
0000
0000
01b4
cafe
2c0f
0000
0000
01b3
cafe
300f
0000
0000
01b8
cafe
340f
0000
0000
01ad
cafe
380f
0000
0000
01b0
cafe
3c0f
0000
0000
01ae
cafe
200f
0000
0000
01b0
cafe
240f
0000
0000
01b0
cafe
280f
0000
0000
01b0
cafe
2c0f
0000
0000
01b2
cafe
300f
0000
0000
01b1
cafe
340f
0000
0000
01b6
cafe
380f
0000
0000
01b4
cafe
3c0f
0000
0000
01b6
cafe
200f
0000
0000
01b4
cafe
240f
0000
0000
01b8
cafe
280f
0000
0000
01b5
cafe
2c0f
0000
0000
01b5
cafe
300f
0000
0000
01b3
cafe
340f
0000
0000
01b6
cafe
380f
0000
0000
01b2
cafe
3c0f
0000
0000
01b3
cafe
200f
0000
0000
01b5
cafe
240f
0000
0000
01b7
cafe
280f
0000
0000
01b6
cafe
2c0f
0000
0000
01b7
cafe
300f
0000
0000
01b5
cafe
340f
0000
0000
01b3
cafe
380f
0000
0000
01af
cafe
3c0f
0000
0000
01b0
cafe
200f
0000
0000
01b0
cafe
240f
0000
0000
01ac
cafe
280f
0000
0000
01aa
cafe
2c0f
0000
0000
01ab
cafe
300f
0000
0000
01ae
cafe
340f
0000
0000
01af
cafe
380f
0000
0000
01ae
cafe
3c0f
0000
0000
01b1
cafe
200f
0000
0000
01ac
cafe
240f
0000
0000
01ab
cafe
280f
0000
0000
01a8
cafe
2c0f
0000
0000
01ae
cafe
300f
0000
0000
01af
cafe
340f
0000
0000
01ab
cafe
380f
0000
0000
01ae
cafe
3c0f
0000
0000
01af
cafe
200f
0000
0000
01af
cafe
240f
0000
0000
01b6
cafe
280f
0000
0000
01b2
cafe
2c0f
0000
0000
01ae
cafe
300f
0000
0000
-
01b2
cafe
340f
0000
0000
01b1
cafe
380f
0000
0000
01b2
cafe
3c0f
0000
0000
01b2
cafe
200f
0000
0000
01af
cafe
240f
0000
0000
01b3
cafe
280f
0000
0000
01af
cafe
2c0f
0000
0000
01b3
cafe
300f
0000
0000
01b2
cafe
340f
0000
0000
01b1
cafe
380f
0000
0000
01ae
cafe
3c0f
0000
0000
01b4
cafe
200f
0000
0000
01b0
cafe
240f
0000
0000
01b1
cafe
280f
0000
0000
01b2
cafe
2c0f
0000
0000
01b4
cafe
300f
0000
0000
01b2
cafe
340f
0000
0000
01b3
cafe
380f
0000
0000
01b2
cafe
3c0f
0000
0000
01b4
cafe
200f
0000
0000
01b0
cafe
240f
0000
0000
01ae
cafe
280f
0000
0000
01ac
cafe
2c0f
0000
0000
01ab
cafe
300f
0000
0000
01a9
cafe
340f
0000
0000
01aa
cafe
380f
0000
0000
01ae
cafe
3c0f
0000
0000
01af
cafe
200f
0000
0000
01b1
cafe
240f
0000
0000
01ae
cafe
280f
0000
0000
01b2
cafe
2c0f
0000
0000
01b1
cafe
300f
0000
0000
01b6
cafe
340f
0000
0000
01b9
cafe
380f
0000
0000
01b2
cafe
3c0f
0000
0000
01b7
cafe
200f
0000
0000
01b4
cafe
240f
0000
0000
01b2
cafe
280f
0000
0000
01b4
cafe
2c0f
0000
0000
01b2
cafe
300f
0000
0000
01ae
cafe
340f
0000
0000
01ab
cafe
380f
0000
0000
01ab
cafe
3c0f
0000
0000
01af
cafe
200f
0000
0000
01ae
cafe
240f
0000
0000
01ad
cafe
280f
0000
0000
01ad
cafe
2c0f
0000
0000
01ad
cafe
300f
0000
0000
01b1
cafe
340f
0000
0000
01b2
cafe
380f
0000
0000
01b1
cafe
3c0f
0000
0000
01b3
-
