200e
5555
fc20
01c1
cafe
241e
5555
fc20
017a
cafe
2806
5555
fc20
00d0
cafe
2c16
5555
fc24
0108
cafe
300f
5555
fc24
014e
cafe
341f
5555
fc24
015d
cafe
3807
5555
fc24
0139
cafe
3c17
5555
fc28
012b
cafe
2008
5555
fc28
0130
cafe
2418
5555
fc28
00e7
cafe
2800
5555
fc28
00e7
cafe
2c10
5555
fc2c
017b
cafe
3009
5555
fc2c
00ff
cafe
3419
5555
fc2c
00ce
cafe
3801
5555
fc2c
009d
cafe
3c11
5555
fc30
0154
cafe
200a
5555
fc30
0119
cafe
241a
5555
fc30
0142
cafe
2802
5555
fc30
00fd
cafe
2c12
5555
fc34
0108
cafe
300b
5555
fc34
0194
cafe
341b
5555
fc34
0162
cafe
3803
5555
fc34
0197
cafe
3c13
5555
fc38
0146
cafe
200c
5555
fc38
01af
cafe
241c
5555
fc38
014d
cafe
2804
5555
fc38
00e9
cafe
2c14
5555
fc3c
010d
cafe
300d
5555
fc3c
0197
cafe
341d
5555
fc3c
0178
cafe
3805
5555
fc3c
0129
cafe
3c15
5555
fc40
016d
cafe
200e
5555
fc40
01c3
cafe
241e
5555
fc40
0175
cafe
2806
5555
fc40
00d4
cafe
2c16
5555
fc44
0107
cafe
300f
5555
fc44
0159
cafe
341f
5555
fc44
0161
cafe
3807
5555
fc44
0137
cafe
3c17
5555
fc48
012c
cafe
2008
5555
fc48
0130
cafe
2418
5555
fc48
00ee
cafe
2800
5555
fc48
00e9
cafe
2c10
5555
fc4c
017c
cafe
3009
5555
fc4c
0103
cafe
3419
5555
fc4c
00ce
cafe
3801
5555
fc4c
00a1
cafe
3c11
5555
fc50
0154
cafe
200a
5555
fc50
0117
cafe
241a
5555
fc50
0142
cafe
2802
5555
fc50
00fa
cafe
2c12
-
5555
fc54
010c
cafe
300b
5555
fc54
0190
cafe
341b
5555
fc54
0162
cafe
3803
5555
fc54
0197
cafe
3c13
5555
fc58
0148
cafe
200c
5555
fc58
01aa
cafe
241c
5555
fc58
0148
cafe
2804
5555
fc58
00ed
cafe
2c14
5555
fc5c
0112
cafe
300d
5555
fc5c
019c
cafe
341d
5555
fc5c
0177
cafe
3805
5555
fc5c
0130
cafe
3c15
5555
fc60
0167
cafe
200e
5555
fc60
01c4
cafe
241e
5555
fc60
0172
cafe
2806
5555
fc60
00d8
cafe
2c16
5555
fc64
0106
cafe
300f
5555
fc64
0154
cafe
341f
5555
fc64
0165
cafe
3807
5555
fc64
013b
cafe
3c17
5555
fc68
0127
cafe
2008
5555
fc68
012f
cafe
2418
5555
fc68
00ed
cafe
2800
5555
fc68
00ec
cafe
2c10
5555
fc6c
0177
cafe
3009
5555
fc6c
00fc
cafe
3419
5555
fc6c
00ce
cafe
3801
5555
fc6c
0098
cafe
3c11
5555
fc70
014c
cafe
200a
5555
fc70
010f
cafe
241a
5555
fc70
013d
cafe
2802
5555
fc70
00f8
cafe
2c12
5555
fc74
010f
cafe
300b
5555
fc74
0193
cafe
341b
5555
fc74
0164
cafe
3803
5555
fc74
0196
cafe
3c13
5555
fc78
0147
cafe
200c
5555
fc78
01ab
cafe
241c
5555
fc78
0148
cafe
2804
5555
fc78
00e5
cafe
2c14
5555
fc7c
0114
cafe
300d
5555
fc7c
019e
cafe
341d
5555
fc7c
017b
cafe
3805
5555
fc7c
0131
cafe
3c15
5555
fc80
0160
cafe
200e
5555
fc80
01c3
cafe
241e
5555
fc80
016d
cafe
2806
5555
fc80
00d9
cafe
2c16
5555
fc84
0108
cafe
300f
5555
fc84
0154
cafe
341f
5555
fc84
0163
cafe
3807
5555
-
fc84
013a
cafe
3c17
5555
fc88
0123
cafe
2008
5555
fc88
0128
cafe
2418
5555
fc88
00ef
cafe
2800
5555
fc88
00ef
cafe
2c10
5555
fc8c
0178
cafe
3009
5555
fc8c
00fd
cafe
3419
5555
fc8c
00ce
cafe
3801
5555
fc8c
0094
cafe
3c11
5555
fc90
0148
cafe
200a
5555
fc90
0111
cafe
241a
5555
fc90
013d
cafe
2802
5555
fc90
00f4
cafe
2c12
5555
fc94
010c
cafe
300b
5555
fc94
018d
cafe
341b
5555
fc94
0162
cafe
3803
5555
fc94
019c
cafe
3c13
5555
fc98
0148
cafe
200c
5555
fc98
01a6
cafe
241c
5555
fc98
014a
cafe
2804
5555
fc98
00e8
cafe
2c14
5555
fc9c
0110
cafe
300d
5555
fc9c
01a3
cafe
341d
5555
fc9c
017e
cafe
3805
5555
fc9c
0133
cafe
3c15
5555
fca0
015b
cafe
200e
5555
fca0
01c4
cafe
241e
5555
fca0
016f
cafe
2806
5555
fca0
00d8
cafe
2c16
5555
fca4
010a
cafe
300f
5555
fca4
0155
cafe
341f
5555
fca4
0167
cafe
3807
5555
fca4
013a
cafe
3c17
5555
fca8
011e
cafe
2008
5555
fca8
0128
cafe
2418
5555
fca8
00f2
cafe
2800
5555
fca8
00eb
cafe
2c10
5555
fcac
017f
cafe
3009
5555
fcac
00fd
cafe
3419
5555
fcac
00d6
cafe
3801
5555
fcac
0094
cafe
3c11
5555
fcb0
014a
cafe
200a
5555
fcb0
0113
cafe
241a
5555
fcb0
013c
cafe
2802
5555
fcb0
00f7
cafe
2c12
5555
fcb4
010b
cafe
300b
5555
fcb4
0190
cafe
341b
5555
fcb4
0166
cafe
3803
5555
fcb4
019f
cafe
3c13
5555
fcb8
014c
cafe
200c
5555
fcb8
01a2
cafe
241c
5555
fcb8
-
0145
cafe
2804
5555
fcb8
00ef
cafe
2c14
5555
fcbc
010f
cafe
300d
5555
fcbc
01a4
cafe
341d
5555
fcbc
0184
cafe
3805
5555
fcbc
0133
cafe
3c15
5555
fcc0
015b
cafe
200e
5555
fcc0
01c3
cafe
241e
5555
fcc0
0171
cafe
2806
5555
fcc0
00d6
cafe
2c16
5555
fcc4
010b
cafe
300f
5555
fcc4
0156
cafe
341f
5555
fcc4
0168
cafe
3807
5555
fcc4
0132
cafe
3c17
5555
fcc8
011f
cafe
2008
5555
fcc8
0127
cafe
2418
5555
fcc8
00ec
cafe
2800
5555
fcc8
00ed
cafe
2c10
5555
fccc
017c
cafe
3009
5555
fccc
00fd
cafe
3419
5555
fccc
00ce
cafe
3801
5555
fccc
0096
cafe
3c11
5555
fcd0
0143
cafe
200a
5555
fcd0
0113
cafe
241a
5555
fcd0
013b
cafe
2802
5555
fcd0
00f5
cafe
2c12
5555
fcd4
010a
cafe
300b
5555
fcd4
0190
cafe
341b
5555
fcd4
0163
cafe
3803
5555
fcd4
019a
cafe
3c13
5555
fcd8
014b
cafe
200c
5555
fcd8
019e
cafe
241c
5555
fcd8
014e
cafe
2804
5555
fcd8
00f5
cafe
2c14
5555
fcdc
010a
cafe
300d
5555
fcdc
01a4
cafe
341d
5555
fcdc
0182
cafe
3805
5555
fcdc
012c
cafe
3c15
5555
fce0
0162
cafe
200e
5555
fce0
01c2
cafe
241e
5555
fce0
0174
cafe
2806
5555
fce0
00dc
cafe
2c16
5555
fce4
010b
cafe
300f
5555
fce4
0154
cafe
341f
5555
fce4
015d
cafe
3807
5555
fce4
0131
cafe
3c17
5555
fce8
0125
cafe
2008
5555
fce8
0129
cafe
2418
5555
fce8
00f0
cafe
2800
5555
fce8
00ec
cafe
2c10
5555
fcec
0182
cafe
3009
5555
fcec
00f9
-
cafe
3419
5555
fcec
00c9
cafe
3801
5555
fcec
009e
cafe
3c11
5555
fcf0
0148
cafe
200a
5555
fcf0
010d
cafe
241a
5555
fcf0
0141
cafe
2802
5555
fcf0
00f2
cafe
2c12
5555
fcf4
010a
cafe
300b
5555
fcf4
0193
cafe
341b
5555
fcf4
0166
cafe
3803
5555
fcf4
0197
cafe
3c13
5555
fcf8
0149
cafe
200c
5555
fcf8
01a7
cafe
241c
5555
fcf8
014b
cafe
2804
5555
fcf8
00f3
cafe
2c14
5555
fcfc
0107
cafe
300d
5555
fcfc
01a7
cafe
341d
5555
fcfc
017f
cafe
3805
5555
fcfc
0131
cafe
3c15
5555
fd00
0168
cafe
200e
5555
fd00
01c0
cafe
241e
5555
fd00
0176
cafe
2806
5555
fd00
00de
cafe
2c16
5555
fd04
0112
cafe
300f
5555
fd04
0156
cafe
341f
5555
fd04
015d
cafe
3807
5555
fd04
012e
cafe
3c17
5555
fd08
0122
cafe
2008
5555
fd08
012b
cafe
2418
5555
fd08
00f0
cafe
2800
5555
fd08
00ef
cafe
2c10
5555
fd0c
0187
cafe
3009
5555
fd0c
00fe
cafe
3419
5555
fd0c
00c6
cafe
3801
5555
fd0c
009d
cafe
3c11
5555
fd10
0142
cafe
200a
5555
fd10
0115
cafe
241a
5555
fd10
0143
cafe
2802
5555
fd10
00f5
cafe
2c12
5555
fd14
010b
cafe
300b
5555
fd14
0193
cafe
341b
5555
fd14
0166
cafe
3803
5555
fd14
019a
cafe
3c13
5555
fd18
014b
cafe
200c
5555
fd18
01a8
cafe
241c
5555
fd18
014e
cafe
2804
5555
fd18
00f3
cafe
2c14
5555
fd1c
0109
cafe
300d
5555
fd1c
01a1
cafe
341d
5555
fd1c
017b
cafe
3805
5555
fd1c
0133
cafe
3c15
5555
fd20
0166
cafe
-
200e
5555
fd20
01bc
cafe
241e
5555
fd20
016f
cafe
2806
5555
fd20
00de
cafe
2c16
5555
fd24
0112
cafe
300f
5555
fd24
0155
cafe
341f
5555
fd24
0167
cafe
3807
5555
fd24
012a
cafe
3c17
5555
fd28
0120
cafe
2008
5555
fd28
012f
cafe
2418
5555
fd28
00f0
cafe
2800
5555
fd28
00f1
cafe
2c10
5555
fd2c
018b
cafe
3009
5555
fd2c
00f8
cafe
3419
5555
fd2c
00c3
cafe
3801
5555
fd2c
009c
cafe
3c11
5555
fd30
0141
cafe
200a
5555
fd30
011c
cafe
241a
5555
fd30
0148
cafe
2802
5555
fd30
00f3
cafe
2c12
5555
fd34
010a
cafe
300b
5555
fd34
0191
cafe
341b
5555
fd34
0166
cafe
3803
5555
fd34
0199
cafe
3c13
5555
fd38
0154
cafe
200c
5555
fd38
01b0
cafe
241c
5555
fd38
0147
cafe
2804
5555
fd38
00f0
cafe
2c14
5555
fd3c
0111
cafe
300d
5555
fd3c
01a3
cafe
341d
5555
fd3c
017c
cafe
3805
5555
fd3c
0137
cafe
3c15
5555
fd40
0162
cafe
200e
5555
fd40
01ba
cafe
241e
5555
fd40
016b
cafe
2806
5555
fd40
00dd
cafe
2c16
5555
fd44
010e
cafe
300f
5555
fd44
015a
cafe
341f
5555
fd44
016a
cafe
3807
5555
fd44
012e
cafe
3c17
5555
fd48
0124
cafe
2008
5555
fd48
0136
cafe
2418
5555
fd48
00ec
cafe
2800
5555
fd48
00e6
cafe
2c10
5555
fd4c
018a
cafe
3009
5555
fd4c
00f3
cafe
3419
5555
fd4c
00c8
cafe
3801
5555
fd4c
00a2
cafe
3c11
5555
fd50
0140
cafe
200a
5555
fd50
011d
cafe
241a
5555
fd50
0145
cafe
2802
5555
fd50
00f8
cafe
2c12
-
5555
fd54
0107
cafe
300b
5555
fd54
018d
cafe
341b
5555
fd54
0168
cafe
3803
5555
fd54
019a
cafe
3c13
5555
fd58
0151
cafe
200c
5555
fd58
01af
cafe
241c
5555
fd58
0149
cafe
2804
5555
fd58
00f3
cafe
2c14
5555
fd5c
0117
cafe
300d
5555
fd5c
019f
cafe
341d
5555
fd5c
017d
cafe
3805
5555
fd5c
012c
cafe
3c15
5555
fd60
0162
cafe
200e
5555
fd60
01bd
cafe
241e
5555
fd60
016b
cafe
2806
5555
fd60
00da
cafe
2c16
5555
fd64
010c
cafe
300f
5555
fd64
0158
cafe
341f
5555
fd64
0168
cafe
3807
5555
fd64
0124
cafe
3c17
5555
fd68
0123
cafe
2008
5555
fd68
0135
cafe
2418
5555
fd68
00e9
cafe
2800
5555
fd68
00e6
cafe
2c10
5555
fd6c
0186
cafe
3009
5555
fd6c
00f4
cafe
3419
5555
fd6c
00cc
cafe
3801
5555
fd6c
00a1
cafe
3c11
5555
fd70
0140
cafe
200a
5555
fd70
0118
cafe
241a
5555
fd70
0147
cafe
2802
5555
fd70
00f7
cafe
2c12
5555
fd74
010e
cafe
300b
5555
fd74
0193
cafe
341b
5555
fd74
0167
cafe
3803
5555
fd74
0198
cafe
3c13
5555
fd78
015b
cafe
200c
5555
fd78
01a7
cafe
241c
5555
fd78
014e
cafe
2804
5555
fd78
00f4
cafe
2c14
5555
fd7c
0118
cafe
300d
5555
fd7c
01a3
cafe
341d
5555
fd7c
017c
cafe
3805
5555
fd7c
012c
cafe
3c15
5555
fd80
015d
cafe
200e
5555
fd80
01ba
cafe
241e
5555
fd80
016a
cafe
2806
5555
fd80
00db
cafe
2c16
5555
fd84
010e
cafe
300f
5555
fd84
015a
cafe
341f
5555
fd84
016b
cafe
3807
5555
-
fd84
0125
cafe
3c17
5555
fd88
0124
cafe
2008
5555
fd88
0130
cafe
2418
5555
fd88
00e5
cafe
2800
5555
fd88
00e3
cafe
2c10
5555
fd8c
0180
cafe
3009
5555
fd8c
00f7
cafe
3419
5555
fd8c
00cd
cafe
3801
5555
fd8c
00a4
cafe
3c11
5555
fd90
013c
cafe
200a
5555
fd90
0113
cafe
241a
5555
fd90
0147
cafe
2802
5555
fd90
00f6
cafe
2c12
5555
fd94
0109
cafe
300b
5555
fd94
0196
cafe
341b
5555
fd94
0165
cafe
3803
5555
fd94
019e
cafe
3c13
5555
fd98
015f
cafe
200c
5555
fd98
01a4
cafe
241c
5555
fd98
0149
cafe
2804
5555
fd98
00f2
cafe
2c14
5555
fd9c
0113
cafe
300d
5555
fd9c
01aa
cafe
341d
5555
fd9c
017e
cafe
3805
5555
fd9c
012d
cafe
3c15
5555
fda0
0157
cafe
200e
5555
fda0
01ba
cafe
241e
5555
fda0
016a
cafe
2806
5555
fda0
00e5
cafe
2c16
5555
fda4
0113
cafe
300f
5555
fda4
0157
cafe
341f
5555
fda4
0169
cafe
3807
5555
fda4
0125
cafe
3c17
5555
fda8
0122
cafe
2008
5555
fda8
012d
cafe
2418
5555
fda8
00df
cafe
2800
5555
fda8
00e9
cafe
2c10
5555
fdac
017b
cafe
3009
5555
fdac
00f7
cafe
3419
5555
fdac
00cc
cafe
3801
5555
fdac
009c
cafe
3c11
5555
fdb0
013f
cafe
200a
5555
fdb0
0115
cafe
241a
5555
fdb0
0149
cafe
2802
5555
fdb0
00fa
cafe
2c12
5555
fdb4
0109
cafe
300b
5555
fdb4
0197
cafe
341b
5555
fdb4
0167
cafe
3803
5555
fdb4
019c
cafe
3c13
5555
fdb8
015a
cafe
200c
5555
fdb8
01a1
cafe
241c
5555
fdb8
-
0142
cafe
2804
5555
fdb8
00ee
cafe
2c14
5555
fdbc
0111
cafe
300d
5555
fdbc
01a8
cafe
341d
5555
fdbc
017d
cafe
3805
5555
fdbc
0127
cafe
3c15
5555
fdc0
0162
cafe
200e
5555
fdc0
01c6
cafe
241e
5555
fdc0
0168
cafe
2806
5555
fdc0
00e2
cafe
2c16
5555
fdc4
011a
cafe
300f
5555
fdc4
015b
cafe
341f
5555
fdc4
0168
cafe
3807
5555
fdc4
0125
cafe
3c17
5555
fdc8
0121
cafe
2008
5555
fdc8
0133
cafe
2418
5555
fdc8
00e0
cafe
2800
5555
fdc8
00e6
cafe
2c10
5555
fdcc
0177
cafe
3009
5555
fdcc
00f8
cafe
3419
5555
fdcc
00cf
cafe
3801
5555
fdcc
00a6
cafe
3c11
5555
fdd0
0144
cafe
200a
5555
fdd0
0117
cafe
241a
5555
fdd0
014c
cafe
2802
5555
fdd0
00f9
cafe
2c12
5555
fdd4
010b
cafe
300b
5555
fdd4
0198
cafe
341b
5555
fdd4
0166
cafe
3803
5555
fdd4
0199
cafe
3c13
5555
fdd8
0156
cafe
200c
5555
fdd8
01a1
cafe
241c
5555
fdd8
013b
cafe
2804
5555
fdd8
00f0
cafe
2c14
5555
fddc
010b
cafe
300d
5555
fddc
01aa
cafe
341d
5555
fddc
0180
cafe
3805
5555
fddc
0123
cafe
3c15
5555
fde0
0161
cafe
200e
5555
fde0
01c2
cafe
241e
5555
fde0
016b
cafe
2806
5555
fde0
00dd
cafe
2c16
5555
fde4
0113
cafe
300f
5555
fde4
0157
cafe
341f
5555
fde4
0166
cafe
3807
5555
fde4
0126
cafe
3c17
5555
fde8
011d
cafe
2008
5555
fde8
0131
cafe
2418
5555
fde8
00dd
cafe
2800
5555
fde8
00e9
cafe
2c10
5555
fdec
0174
cafe
3009
5555
fdec
00f3
-
cafe
3419
5555
fdec
00d2
cafe
3801
5555
fdec
00a0
cafe
3c11
5555
fdf0
0143
cafe
200a
5555
fdf0
0119
cafe
241a
5555
fdf0
014a
cafe
2802
5555
fdf0
00f7
cafe
2c12
5555
fdf4
010b
cafe
300b
5555
fdf4
0197
cafe
341b
5555
fdf4
0163
cafe
3803
5555
fdf4
0199
cafe
3c13
5555
fdf8
0153
cafe
200c
5555
fdf8
01a5
cafe
241c
5555
fdf8
0139
cafe
2804
5555
fdf8
00f1
cafe
2c14
5555
fdfc
0110
cafe
300d
5555
fdfc
01a5
cafe
341d
5555
fdfc
0187
cafe
3805
5555
fdfc
0123
cafe
3c15
5555
fe00
0163
cafe
200e
5555
fe00
01c8
cafe
241e
5555
fe00
016a
cafe
2806
5555
fe00
00de
cafe
2c16
5555
fe04
0120
cafe
300f
5555
fe04
015f
cafe
341f
5555
fe04
0164
cafe
3807
5555
fe04
012f
cafe
3c17
5555
fe08
011b
cafe
2008
5555
fe08
0136
cafe
2418
5555
fe08
00e7
cafe
2800
5555
fe08
00e7
cafe
2c10
5555
fe0c
017a
cafe
3009
5555
fe0c
00f2
cafe
3419
5555
fe0c
00cf
cafe
3801
5555
fe0c
009e
cafe
3c11
5555
fe10
014c
cafe
200a
5555
fe10
0115
cafe
241a
5555
fe10
0148
cafe
2802
5555
fe10
00f4
cafe
2c12
5555
fe14
0109
cafe
300b
5555
fe14
019d
cafe
341b
5555
fe14
0160
cafe
3803
5555
fe14
019b
cafe
3c13
5555
fe18
0152
cafe
200c
5555
fe18
01b0
cafe
241c
5555
fe18
013a
cafe
2804
5555
fe18
00f9
cafe
2c14
5555
fe1c
0117
cafe
300d
5555
fe1c
019f
cafe
341d
5555
fe1c
018c
cafe
3805
5555
fe1c
0124
cafe
3c15
5555
fe20
0163
cafe
-
200e
5555
fe20
01c1
cafe
241e
5555
fe20
016f
cafe
2806
5555
fe20
00d9
cafe
2c16
5555
fe24
0115
cafe
300f
5555
fe24
015e
cafe
341f
5555
fe24
0165
cafe
3807
5555
fe24
0126
cafe
3c17
5555
fe28
0119
cafe
2008
5555
fe28
0133
cafe
2418
5555
fe28
00e5
cafe
2800
5555
fe28
00e3
cafe
2c10
5555
fe2c
0175
cafe
3009
5555
fe2c
00f0
cafe
3419
5555
fe2c
00cd
cafe
3801
5555
fe2c
009f
cafe
3c11
5555
fe30
014b
cafe
200a
5555
fe30
011e
cafe
241a
5555
fe30
0142
cafe
2802
5555
fe30
00f8
cafe
2c12
5555
fe34
010d
cafe
300b
5555
fe34
0197
cafe
341b
5555
fe34
0164
cafe
3803
5555
fe34
0195
cafe
3c13
5555
fe38
014e
cafe
200c
5555
fe38
01b4
cafe
241c
5555
fe38
0136
cafe
2804
5555
fe38
00fa
cafe
2c14
5555
fe3c
011a
cafe
300d
5555
fe3c
019c
cafe
341d
5555
fe3c
018d
cafe
3805
5555
fe3c
0123
cafe
3c15
5555
fe40
0164
cafe
200e
5555
fe40
01c3
cafe
241e
5555
fe40
0171
cafe
2806
5555
fe40
00dc
cafe
2c16
5555
fe44
0115
cafe
300f
5555
fe44
015c
cafe
341f
5555
fe44
0163
cafe
3807
5555
fe44
0126
cafe
3c17
5555
fe48
011a
cafe
2008
5555
fe48
012f
cafe
2418
5555
fe48
00e4
cafe
2800
5555
fe48
00e3
cafe
2c10
5555
fe4c
0178
cafe
3009
5555
fe4c
0124
cafe
3419
5555
fe4c
0106
cafe
3801
5555
fe4c
00cf
cafe
3c11
5555
fe50
0186
cafe
200a
5555
fe50
01ea
cafe
241a
5555
fe50
020b
cafe
2802
5555
fe50
01c3
cafe
2c12
-
5555
fe54
01d1
cafe
300b
5555
fe54
02fd
cafe
341b
5555
fe54
02c9
cafe
3803
5555
fe54
02f3
cafe
3c13
5555
fe58
02b3
cafe
200c
5555
fe58
039e
cafe
241c
5555
fe58
0326
cafe
2804
5555
fe58
02e4
cafe
2c14
5555
fe5c
030c
cafe
300d
5555
fe5c
0403
cafe
341d
5555
fe5c
03ef
cafe
3805
5555
fe5c
0388
cafe
3c15
5555
fe60
03d0
cafe
200e
5555
fe60
04a9
cafe
241e
5555
fe60
044a
cafe
2806
5555
fe60
03b8
cafe
2c16
5555
fe64
03fb
cafe
300f
5555
fe64
04a4
cafe
341f
5555
fe64
04a8
cafe
3807
5555
fe64
046b
cafe
3c17
5555
fe68
0467
cafe
2008
5555
fe68
04d9
cafe
2418
5555
fe68
0490
cafe
2800
5555
fe68
0489
cafe
2c10
5555
fe6c
052f
cafe
3009
5555
fe6c
04e0
cafe
3419
5555
fe6c
04cc
cafe
3801
5555
fe6c
0486
cafe
3c11
5555
fe70
0548
cafe
200a
5555
fe70
0573
cafe
241a
5555
fe70
0594
cafe
2802
5555
fe70
0537
cafe
2c12
5555
fe74
055c
cafe
300b
5555
fe74
0626
cafe
341b
5555
fe74
05f6
cafe
3803
5555
fe74
061d
cafe
3c13
5555
fe78
05ee
cafe
200c
5555
fe78
0687
cafe
241c
5555
fe78
0614
cafe
2804
5555
fe78
05c6
cafe
2c14
5555
fe7c
05f8
cafe
300d
5555
fe7c
06ac
cafe
341d
5555
fe7c
0699
cafe
3805
5555
fe7c
0635
cafe
3c15
5555
fe80
067a
cafe
200e
5555
fe80
071c
cafe
241e
5555
fe80
06d0
cafe
2806
5555
fe80
062b
cafe
2c16
5555
fe84
066a
cafe
300f
5555
fe84
06e2
cafe
341f
5555
fe84
06ef
cafe
3807
5555
-
fe84
06ad
cafe
3c17
5555
fe88
06a9
cafe
2008
5555
fe88
06ec
cafe
2418
5555
fe88
06a2
cafe
2800
5555
fe88
06a5
cafe
2c10
5555
fe8c
074a
cafe
3009
5555
fe8c
06c5
cafe
3419
5555
fe8c
06b0
cafe
3801
5555
fe8c
066d
cafe
3c11
5555
fe90
072b
cafe
200a
5555
fe90
0734
cafe
241a
5555
fe90
074b
cafe
2802
5555
fe90
06f7
cafe
2c12
5555
fe94
071f
cafe
300b
5555
fe94
07ba
cafe
341b
5555
fe94
078c
cafe
3803
5555
fe94
07b7
cafe
3c13
5555
fe98
0789
cafe
200c
5555
fe98
07f6
cafe
241c
5555
fe98
0789
cafe
2804
5555
fe98
0731
cafe
2c14
5555
fe9c
076f
cafe
300d
5555
fe9c
07f8
cafe
341d
5555
fe9c
07ea
cafe
3805
5555
fe9c
0785
cafe
3c15
5555
fea0
07c9
cafe
200e
5555
fea0
084a
cafe
241e
5555
fea0
080e
cafe
2806
5555
fea0
075c
cafe
2c16
5555
fea4
079f
cafe
300f
5555
fea4
07ed
cafe
341f
5555
fea4
080f
cafe
3807
5555
fea4
07c0
cafe
3c17
5555
fea8
07b7
cafe
2008
5555
fea8
07e5
cafe
2418
5555
fea8
079c
cafe
2800
5555
fea8
07ae
cafe
2c10
5555
feac
0845
cafe
3009
5555
feac
07ae
cafe
3419
5555
feac
079a
cafe
3801
5555
feac
075c
cafe
3c11
5555
feb0
0815
cafe
200a
5555
feb0
0804
cafe
241a
5555
feb0
0824
cafe
2802
5555
feb0
07c8
cafe
2c12
5555
feb4
07fc
cafe
300b
5555
feb4
0880
cafe
341b
5555
feb4
084e
cafe
3803
5555
feb4
087e
cafe
3c13
5555
feb8
084d
cafe
200c
5555
feb8
08ad
cafe
241c
5555
feb8
-
083b
cafe
2804
5555
feb8
07ea
cafe
2c14
5555
febc
0825
cafe
300d
5555
febc
08a8
cafe
341d
5555
febc
088e
cafe
3805
5555
febc
082a
cafe
3c15
5555
fec0
086e
cafe
200e
5555
fec0
08e7
cafe
241e
5555
fec0
08a4
cafe
2806
5555
fec0
07ef
cafe
2c16
5555
fec4
0830
cafe
300f
5555
fec4
086e
cafe
341f
5555
fec4
0899
cafe
3807
5555
fec4
0849
cafe
3c17
5555
fec8
083e
cafe
2008
5555
fec8
0853
cafe
2418
5555
fec8
080e
cafe
2800
5555
fec8
0828
cafe
2c10
5555
fecc
08bf
cafe
3009
5555
fecc
0811
cafe
3419
5555
fecc
07fe
cafe
3801
5555
fecc
07cb
cafe
3c11
5555
fed0
0872
cafe
200a
5555
fed0
0854
cafe
241a
5555
fed0
0885
cafe
2802
5555
fed0
082e
cafe
2c12
5555
fed4
0852
cafe
300b
5555
fed4
08ca
cafe
341b
5555
fed4
089f
cafe
3803
5555
fed4
08d6
cafe
3c13
5555
fed8
089a
cafe
200c
5555
fed8
08f3
cafe
241c
5555
fed8
088b
cafe
2804
5555
fed8
083c
cafe
2c14
5555
fedc
086b
cafe
300d
5555
fedc
08f1
cafe
341d
5555
fedc
08d8
cafe
3805
5555
fedc
0873
cafe
3c15
5555
fee0
08b3
cafe
200e
5555
fee0
092a
cafe
241e
5555
fee0
08dd
cafe
2806
5555
fee0
082b
cafe
2c16
5555
fee4
086f
cafe
300f
5555
fee4
08a9
cafe
341f
5555
fee4
08d2
cafe
3807
5555
fee4
0885
cafe
3c17
5555
fee8
087e
cafe
2008
5555
fee8
088a
cafe
2418
5555
fee8
0841
cafe
2800
5555
fee8
085f
cafe
2c10
5555
feec
08fb
cafe
3009
5555
feec
0842
-
cafe
3419
5555
feec
082a
cafe
3801
5555
feec
07f5
cafe
3c11
5555
fef0
08aa
cafe
200a
5555
fef0
0887
cafe
241a
5555
fef0
08af
cafe
2802
5555
fef0
0862
cafe
2c12
5555
fef4
0880
cafe
300b
5555
fef4
08f3
cafe
341b
5555
fef4
08c6
cafe
3803
5555
fef4
08f7
cafe
3c13
5555
fef8
08c3
cafe
200c
5555
fef8
090e
cafe
241c
5555
fef8
08a4
cafe
2804
5555
fef8
085c
cafe
2c14
5555
fefc
088a
cafe
300d
5555
fefc
0910
cafe
341d
5555
fefc
08f0
cafe
3805
5555
fefc
088d
cafe
3c15
5555
ff00
08cf
cafe
200e
5555
ff00
095f
cafe
241e
5555
ff00
08ed
cafe
2806
5555
ff00
084e
cafe
2c16
5555
ff04
0892
cafe
300f
5555
ff04
08eb
cafe
341f
5555
ff04
08e6
cafe
3807
5555
ff04
08ae
cafe
3c17
5555
ff08
08b3
cafe
2008
5555
ff08
08bc
cafe
2418
5555
ff08
085f
cafe
2800
5555
ff08
0877
cafe
2c10
5555
ff0c
093d
cafe
3009
5555
ff0c
0877
cafe
3419
5555
ff0c
084c
cafe
3801
5555
ff0c
080a
cafe
3c11
5555
ff10
08e8
cafe
200a
5555
ff10
08bd
cafe
241a
5555
ff10
08c8
cafe
2802
5555
ff10
087e
cafe
2c12
5555
ff14
08c1
cafe
300b
5555
ff14
0936
cafe
341b
5555
ff14
08e3
cafe
3803
5555
ff14
090f
cafe
3c13
5555
ff18
090a
cafe
200c
5555
ff18
0969
cafe
241c
5555
ff18
08b6
cafe
2804
5555
ff18
0881
cafe
2c14
5555
ff1c
08cd
cafe
300d
5555
ff1c
0968
cafe
341d
5555
ff1c
0900
cafe
3805
5555
ff1c
08ad
cafe
3c15
5555
ff20
0916
cafe
-
200e
5555
ff20
09a6
cafe
241e
5555
ff20
08ed
cafe
2806
5555
ff20
086b
cafe
2c16
5555
ff24
08b5
cafe
300f
5555
ff24
090e
cafe
341f
5555
ff24
08e2
cafe
3807
5555
ff24
08c2
cafe
3c17
5555
ff28
08c7
cafe
2008
5555
ff28
08d1
cafe
2418
5555
ff28
0865
cafe
2800
5555
ff28
086c
cafe
2c10
5555
ff2c
0955
cafe
3009
5555
ff2c
0888
cafe
3419
5555
ff2c
0856
cafe
3801
5555
ff2c
0805
cafe
3c11
5555
ff30
090a
cafe
200a
5555
ff30
08e0
cafe
241a
5555
ff30
08d5
cafe
2802
5555
ff30
0887
cafe
2c12
5555
ff34
08ee
cafe
300b
5555
ff34
095e
cafe
341b
5555
ff34
08e9
cafe
3803
5555
ff34
0914
cafe
3c13
5555
ff38
092f
cafe
200c
5555
ff38
0986
cafe
241c
5555
ff38
08ae
cafe
2804
5555
ff38
0884
cafe
2c14
5555
ff3c
08dc
cafe
300d
5555
ff3c
0967
cafe
341d
5555
ff3c
08f7
cafe
3805
5555
ff3c
08ab
cafe
3c15
5555
ff40
0917
cafe
200e
5555
ff40
09a9
cafe
241e
5555
ff40
08da
cafe
2806
5555
ff40
0869
cafe
2c16
5555
ff44
08ae
cafe
300f
5555
ff44
090e
cafe
341f
5555
ff44
08d2
cafe
3807
5555
ff44
08bd
cafe
3c17
5555
ff48
08bf
cafe
2008
5555
ff48
08d3
cafe
2418
5555
ff48
0862
cafe
2800
5555
ff48
086b
cafe
2c10
5555
ff4c
0964
cafe
3009
5555
ff4c
0893
cafe
3419
5555
ff4c
0858
cafe
3801
5555
ff4c
07f9
cafe
3c11
5555
ff50
0920
cafe
200a
5555
ff50
08e9
cafe
241a
5555
ff50
08cc
cafe
2802
5555
ff50
087b
cafe
2c12
-
5555
ff54
08f2
cafe
300b
5555
ff54
094d
cafe
341b
5555
ff54
08d2
cafe
3803
5555
ff54
0907
cafe
3c13
5555
ff58
0921
cafe
200c
5555
ff58
0972
cafe
241c
5555
ff58
0897
cafe
2804
5555
ff58
086c
cafe
2c14
5555
ff5c
08cb
cafe
300d
5555
ff5c
0959
cafe
341d
5555
ff5c
08e3
cafe
3805
5555
ff5c
0896
cafe
3c15
5555
ff60
0904
cafe
200e
5555
ff60
09b0
cafe
241e
5555
ff60
08d2
cafe
2806
5555
ff60
085f
cafe
2c16
5555
ff64
08a6
cafe
300f
5555
ff64
0918
cafe
341f
5555
ff64
08bd
cafe
3807
5555
ff64
08bd
cafe
3c17
5555
ff68
08be
cafe
2008
5555
ff68
08cf
cafe
2418
5555
ff68
0854
cafe
2800
5555
ff68
085c
cafe
2c10
5555
ff6c
095b
cafe
3009
5555
ff6c
087e
cafe
3419
5555
ff6c
083c
cafe
3801
5555
ff6c
07e3
cafe
3c11
5555
ff70
090a
cafe
200a
5555
ff70
08d0
cafe
241a
5555
ff70
08b3
cafe
2802
5555
ff70
0862
cafe
2c12
5555
ff74
08dc
cafe
300b
5555
ff74
0931
cafe
341b
5555
ff74
08c5
cafe
3803
5555
ff74
08f5
cafe
3c13
5555
ff78
090b
cafe
200c
5555
ff78
096d
cafe
241c
5555
ff78
0882
cafe
2804
5555
ff78
085c
cafe
2c14
5555
ff7c
08c1
cafe
300d
5555
ff7c
095e
cafe
341d
5555
ff7c
08d0
cafe
3805
5555
ff7c
088a
cafe
3c15
5555
ff80
0906
cafe
200e
5555
ff80
09b5
cafe
241e
5555
ff80
08b8
cafe
2806
5555
ff80
0854
cafe
2c16
5555
ff84
089d
cafe
300f
5555
ff84
0906
cafe
341f
5555
ff84
08a9
cafe
3807
5555
-
ff84
08a8
cafe
3c17
5555
ff88
08a7
cafe
2008
5555
ff88
08b0
cafe
2418
5555
ff88
0833
cafe
2800
5555
ff88
0840
cafe
2c10
5555
ff8c
0940
cafe
3009
5555
ff8c
0866
cafe
3419
5555
ff8c
081e
cafe
3801
5555
ff8c
07cf
cafe
3c11
5555
ff90
08f5
cafe
200a
5555
ff90
08ca
cafe
241a
5555
ff90
08a5
cafe
2802
5555
ff90
0856
cafe
2c12
5555
ff94
08d2
cafe
300b
5555
ff94
092f
cafe
341b
5555
ff94
08ac
cafe
3803
5555
ff94
08e9
cafe
3c13
5555
ff98
0916
cafe
200c
5555
ff98
0970
cafe
241c
5555
ff98
086e
cafe
2804
5555
ff98
0851
cafe
2c14
5555
ff9c
08b9
cafe
300d
5555
ff9c
0940
cafe
341d
5555
ff9c
08bc
cafe
3805
5555
ff9c
086d
cafe
3c15
5555
ffa0
08e9
cafe
200e
5555
ffa0
0998
cafe
241e
5555
ffa0
0899
cafe
2806
5555
ffa0
0838
cafe
2c16
5555
ffa4
087f
cafe
300f
5555
ffa4
08e2
cafe
341f
5555
ffa4
088c
cafe
3807
5555
ffa4
088a
cafe
3c17
5555
ffa8
0888
cafe
2008
5555
ffa8
089c
cafe
2418
5555
ffa8
081c
cafe
2800
5555
ffa8
082a
cafe
2c10
5555
ffac
092e
cafe
3009
5555
ffac
085a
cafe
3419
5555
ffac
080c
cafe
3801
5555
ffac
07b0
cafe
3c11
5555
ffb0
08f6
cafe
200a
5555
ffb0
08c0
cafe
241a
5555
ffb0
0894
cafe
2802
5555
ffb0
0840
cafe
2c12
5555
ffb4
08cc
cafe
300b
5555
ffb4
0914
cafe
341b
5555
ffb4
088f
cafe
3803
5555
ffb4
08d2
cafe
3c13
5555
ffb8
08f5
cafe
200c
5555
ffb8
0947
cafe
241c
5555
ffb8
-
0859
cafe
2804
5555
ffb8
0832
cafe
2c14
5555
ffbc
089f
cafe
300d
5555
ffbc
091b
cafe
341d
5555
ffbc
08a2
cafe
3805
5555
ffbc
084e
cafe
3c15
5555
ffc0
08cc
cafe
200e
5555
ffc0
098a
cafe
241e
5555
ffc0
0881
cafe
2806
5555
ffc0
081f
cafe
2c16
5555
ffc4
0874
cafe
300f
5555
ffc4
08e0
cafe
341f
5555
ffc4
0875
cafe
3807
5555
ffc4
087a
cafe
3c17
5555
ffc8
0875
cafe
2008
5555
ffc8
0894
cafe
2418
5555
ffc8
080e
cafe
2800
5555
ffc8
0814
cafe
2c10
5555
ffcc
092c
cafe
3009
5555
ffcc
0841
cafe
3419
5555
ffcc
07f1
cafe
3801
5555
ffcc
079e
cafe
3c11
5555
ffd0
08dc
cafe
200a
5555
ffd0
089b
cafe
241a
5555
ffd0
0872
cafe
2802
5555
ffd0
081d
cafe
2c12
5555
ffd4
08a9
cafe
300b
5555
ffd4
08f0
cafe
341b
5555
ffd4
0870
cafe
3803
5555
ffd4
08bc
cafe
3c13
5555
ffd8
08d8
cafe
200c
5555
ffd8
0935
cafe
241c
5555
ffd8
083f
cafe
2804
5555
ffd8
081f
cafe
2c14
5555
ffdc
0886
cafe
300d
5555
ffdc
091b
cafe
341d
5555
ffdc
088e
cafe
3805
5555
ffdc
083f
cafe
3c15
5555
ffe0
08c1
cafe
200e
5555
ffe0
097c
cafe
241e
5555
ffe0
0864
cafe
2806
5555
ffe0
080a
cafe
2c16
5555
ffe4
0862
cafe
300f
5555
ffe4
08bd
cafe
341f
5555
ffe4
0859
cafe
3807
5555
ffe4
0866
cafe
3c17
5555
ffe8
085b
cafe
2008
5555
ffe8
0870
cafe
2418
5555
ffe8
07ee
cafe
2800
5555
ffe8
07fb
cafe
2c10
5555
ffec
08ff
cafe
3009
5555
ffec
081a
-
cafe
3419
5555
ffec
07d3
cafe
3801
5555
ffec
0788
cafe
3c11
5555
fff0
08b7
cafe
200a
5555
fff0
087c
cafe
241a
5555
fff0
0858
cafe
2802
5555
fff0
0805
cafe
2c12
5555
fff4
088b
cafe
300b
5555
fff4
08e2
cafe
341b
5555
fff4
0860
cafe
3803
5555
fff4
08ab
cafe
3c13
5555
fff8
08cc
cafe
200c
5555
fff8
092f
cafe
241c
5555
fff8
0828
cafe
2804
5555
fff8
0807
cafe
2c14
5555
fffc
0879
cafe
300d
5555
fffc
08fd
cafe
341d
5555
fffc
0876
cafe
3805
5555
fffc
0828
cafe
3c15
5556
0000
08a5
cafe
200e
5556
0000
095a
cafe
241e
5556
0000
084d
cafe
2806
5556
0000
07e7
cafe
2c16
5556
0004
083c
cafe
300f
5556
0004
0896
cafe
341f
5556
0004
083b
cafe
3807
5556
0004
0845
cafe
3c17
5556
0008
0842
cafe
2008
5556
0008
0854
cafe
2418
5556
0008
07d2
cafe
2800
5556
0008
07de
cafe
2c10
5556
000c
08ea
cafe
3009
5556
000c
080a
cafe
3419
5556
000c
07c4
cafe
3801
5556
000c
076a
cafe
3c11
5556
0010
08ae
cafe
200a
5556
0010
0871
cafe
241a
5556
0010
0843
cafe
2802
5556
0010
07ef
cafe
2c12
5556
0014
0884
cafe
300b
5556
0014
08d6
cafe
341b
5556
0014
0842
cafe
3803
5556
0014
0897
cafe
3c13
5556
0018
08bb
cafe
200c
5556
0018
090b
cafe
241c
5556
0018
080a
cafe
2804
5556
0018
07e7
cafe
2c14
5556
001c
085b
cafe
300d
5556
001c
08d8
cafe
341d
5556
001c
0859
cafe
3805
5556
001c
0806
cafe
3c15
5556
0020
0880
cafe
-
200e
5556
0020
0942
cafe
241e
5556
0020
0835
cafe
2806
5556
0020
07c3
cafe
2c16
5556
0024
081b
cafe
300f
5556
0024
0892
cafe
341f
5556
0024
0826
cafe
3807
5556
0024
083a
cafe
3c17
5556
0028
0838
cafe
2008
5556
0028
0842
cafe
2418
5556
0028
07bc
cafe
2800
5556
0028
07cb
cafe
2c10
5556
002c
08e3
cafe
3009
5556
002c
07f5
cafe
3419
5556
002c
07a8
cafe
3801
5556
002c
0755
cafe
3c11
5556
0030
0894
cafe
200a
5556
0030
0854
cafe
241a
5556
0030
082c
cafe
2802
5556
0030
07de
cafe
2c12
5556
0034
0861
cafe
300b
5556
0034
08ac
cafe
341b
5556
0034
0827
cafe
3803
5556
0034
0872
cafe
3c13
5556
0038
0893
cafe
200c
5556
0038
08f1
cafe
241c
5556
0038
07f4
cafe
2804
5556
0038
07c8
cafe
2c14
5556
003c
083c
cafe
300d
5556
003c
08cf
cafe
341d
5556
003c
0843
cafe
3805
5556
003c
07f6
cafe
3c15
5556
0040
0874
cafe
200e
5556
0040
0944
cafe
241e
5556
0040
0816
cafe
2806
5556
0040
07b4
cafe
2c16
5556
0044
0808
cafe
300f
5556
0044
087c
cafe
341f
5556
0044
0810
cafe
3807
5556
0044
081f
cafe
3c17
5556
0048
0822
cafe
2008
5556
0048
0821
cafe
2418
5556
0048
079e
cafe
2800
5556
0048
07b2
cafe
2c10
5556
004c
08c5
cafe
3009
5556
004c
07d1
cafe
3419
5556
004c
0788
cafe
3801
5556
004c
073a
cafe
3c11
5556
0050
0865
cafe
200a
5556
0050
083b
cafe
241a
5556
0050
0814
cafe
2802
5556
0050
07c6
cafe
2c12
-
5556
0054
0849
cafe
300b
5556
0054
08a3
cafe
341b
5556
0054
080d
cafe
3803
5556
0054
085c
cafe
3c13
5556
0058
0889
cafe
200c
5556
0058
08e7
cafe
241c
5556
0058
07d9
cafe
2804
5556
0058
07b7
cafe
2c14
5556
005c
0834
cafe
300d
5556
005c
08b2
cafe
341d
5556
005c
082a
cafe
3805
5556
005c
07e3
cafe
3c15
5556
0060
0861
cafe
200e
5556
0060
0928
cafe
241e
5556
0060
07fb
cafe
2806
5556
0060
0790
cafe
2c16
5556
0064
07e9
cafe
300f
5556
0064
0856
cafe
341f
5556
0064
07ec
cafe
3807
5556
0064
07ff
cafe
3c17
5556
0068
0801
cafe
2008
5556
0068
0803
cafe
2418
5556
0068
0783
cafe
2800
5556
0068
0797
cafe
2c10
5556
006c
08a5
cafe
3009
5556
006c
07b9
cafe
3419
5556
006c
076d
cafe
3801
5556
006c
0721
cafe
3c11
5556
0070
085f
cafe
200a
5556
0070
0833
cafe
241a
5556
0070
0801
cafe
2802
5556
0070
07b1
cafe
2c12
5556
0074
0841
cafe
300b
5556
0074
088d
cafe
341b
5556
0074
07f7
cafe
3803
5556
0074
084c
cafe
3c13
5556
0078
0877
cafe
200c
5556
0078
08c1
cafe
241c
5556
0078
07b6
cafe
2804
5556
0078
079e
cafe
2c14
5556
007c
0812
cafe
300d
5556
007c
0889
cafe
341d
5556
007c
0814
cafe
3805
5556
007c
07c9
cafe
3c15
5556
0080
083d
cafe
200e
5556
0080
0909
cafe
241e
5556
0080
07e0
cafe
2806
5556
0080
076f
cafe
2c16
5556
0084
07ca
cafe
300f
5556
0084
0849
cafe
341f
5556
0084
07d7
cafe
3807
5556
-
0084
07f1
cafe
3c17
5556
0088
07f3
cafe
2008
5556
0088
0800
cafe
2418
5556
0088
076d
cafe
2800
5556
0088
0781
cafe
2c10
5556
008c
08a0
cafe
3009
5556
008c
07a1
cafe
3419
5556
008c
0751
cafe
3801
5556
008c
0705
cafe
3c11
5556
0090
0850
cafe
200a
5556
0090
080e
cafe
241a
5556
0090
07e8
cafe
2802
5556
0090
0794
cafe
2c12
5556
0094
081f
cafe
300b
5556
0094
086c
cafe
341b
5556
0094
07d7
cafe
3803
5556
0094
0834
cafe
3c13
5556
0098
0853
cafe
200c
5556
0098
08a4
cafe
241c
5556
0098
079c
cafe
2804
5556
0098
077c
cafe
2c14
5556
009c
07f7
cafe
300d
5556
009c
087d
cafe
341d
5556
009c
07fa
cafe
3805
5556
009c
07b9
cafe
3c15
5556
00a0
083a
cafe
200e
5556
00a0
0909
cafe
241e
5556
00a0
07ca
cafe
2806
5556
00a0
0760
cafe
2c16
5556
00a4
07bb
cafe
300f
5556
00a4
0838
cafe
341f
5556
00a4
07bd
cafe
3807
5556
00a4
07da
cafe
3c17
5556
00a8
07de
cafe
2008
5556
00a8
07e0
cafe
2418
5556
00a8
074e
cafe
2800
5556
00a8
0769
cafe
2c10
5556
00ac
087b
cafe
3009
5556
00ac
077c
cafe
3419
5556
00ac
0733
cafe
3801
5556
00ac
06f1
cafe
3c11
5556
00b0
082d
cafe
200a
5556
00b0
07f2
cafe
241a
5556
00b0
07cf
cafe
2802
5556
00b0
077b
cafe
2c12
5556
00b4
07f9
cafe
300b
5556
00b4
0864
cafe
341b
5556
00b4
07bf
cafe
3803
5556
00b4
081c
cafe
3c13
5556
00b8
084a
cafe
200c
5556
00b8
08a6
cafe
241c
5556
00b8
-
0784
cafe
2804
5556
00b8
076c
cafe
2c14
5556
00bc
07f0
cafe
300d
5556
00bc
086c
cafe
341d
5556
00bc
07e1
cafe
3805
5556
00bc
07a7
cafe
3c15
5556
00c0
0827
cafe
200e
5556
00c0
08e6
cafe
241e
5556
00c0
07a9
cafe
2806
5556
00c0
0747
cafe
2c16
5556
00c4
0798
cafe
300f
5556
00c4
0806
cafe
341f
5556
00c4
07a8
cafe
3807
5556
00c4
07bb
cafe
3c17
5556
00c8
07bd
cafe
2008
5556
00c8
07c1
cafe
2418
5556
00c8
073b
cafe
2800
5556
00c8
0750
cafe
2c10
5556
00cc
085a
cafe
3009
5556
00cc
0767
cafe
3419
5556
00cc
0722
cafe
3801
5556
00cc
06d9
cafe
3c11
5556
00d0
0824
cafe
200a
5556
00d0
07ee
cafe
241a
5556
00d0
07be
cafe
2802
5556
00d0
0765
cafe
2c12
5556
00d4
07fb
cafe
300b
5556
00d4
084f
cafe
341b
5556
00d4
079e
cafe
3803
5556
00d4
0806
cafe
3c13
5556
00d8
0833
cafe
200c
5556
00d8
087e
cafe
241c
5556
00d8
076a
cafe
2804
5556
00d8
074a
cafe
2c14
5556
00dc
07c7
cafe
300d
5556
00dc
0840
cafe
341d
5556
00dc
07c9
cafe
3805
5556
00dc
078a
cafe
3c15
5556
00e0
07ff
cafe
200e
5556
00e0
08cf
cafe
241e
5556
00e0
078f
cafe
2806
5556
00e0
072c
cafe
2c16
5556
00e4
077c
cafe
300f
5556
00e4
07f6
cafe
341f
5556
00e4
0790
cafe
3807
5556
00e4
07ad
cafe
3c17
5556
00e8
07b3
cafe
2008
5556
00e8
07b3
cafe
2418
5556
00e8
0728
cafe
2800
5556
00e8
073c
cafe
2c10
5556
00ec
0859
cafe
3009
5556
00ec
074c
-
cafe
3419
5556
00ec
0704
cafe
3801
5556
00ec
06bb
cafe
3c11
5556
00f0
080c
cafe
200a
5556
00f0
07cc
cafe
241a
5556
00f0
079f
cafe
2802
5556
00f0
0749
cafe
2c12
5556
00f4
07da
cafe
300b
5556
00f4
0821
cafe
341b
5556
00f4
077e
cafe
3803
5556
00f4
07e9
cafe
3c13
5556
00f8
0807
cafe
200c
5556
00f8
084e
cafe
241c
5556
00f8
074b
cafe
2804
5556
00f8
072a
cafe
2c14
5556
00fc
079a
cafe
300d
5556
00fc
0817
cafe
341d
5556
00fc
07b0
cafe
3805
5556
00fc
0768
cafe
3c15
5556
0100
07da
cafe
200e
5556
0100
08af
cafe
241e
5556
0100
0776
cafe
2806
5556
0100
0706
cafe
2c16
5556
0104
0759
cafe
300f
5556
0104
07d2
cafe
341f
5556
0104
077b
cafe
3807
5556
0104
078b
cafe
3c17
5556
0108
078f
cafe
2008
5556
0108
0790
cafe
2418
5556
0108
0704
cafe
2800
5556
0108
0724
cafe
2c10
5556
010c
0830
cafe
3009
5556
010c
0729
cafe
3419
5556
010c
06e9
cafe
3801
5556
010c
06a2
cafe
3c11
5556
0110
07e4
cafe
200a
5556
0110
07a9
cafe
241a
5556
0110
0778
cafe
2802
5556
0110
072d
cafe
2c12
5556
0114
07b4
cafe
300b
5556
0114
0807
cafe
341b
5556
0114
0768
cafe
3803
5556
0114
07d6
cafe
3c13
5556
0118
07f4
cafe
200c
5556
0118
0849
cafe
241c
5556
0118
0739
cafe
2804
5556
0118
071e
cafe
2c14
5556
011c
0798
cafe
300d
5556
011c
0822
cafe
341d
5556
011c
07a3
cafe
3805
5556
011c
075f
cafe
3c15
5556
0120
07dd
cafe
-
200e
5556
0120
08b2
cafe
241e
5556
0120
0761
cafe
2806
5556
0120
06fa
cafe
2c16
5556
0124
074b
cafe
300f
5556
0124
07b8
cafe
341f
5556
0124
075f
cafe
3807
5556
0124
076e
cafe
3c17
5556
0128
0776
cafe
2008
5556
0128
0774
cafe
2418
5556
0128
06e8
cafe
2800
5556
0128
0711
cafe
2c10
5556
012c
0812
cafe
3009
5556
012c
070c
cafe
3419
5556
012c
06ca
cafe
3801
5556
012c
0684
cafe
3c11
5556
0130
07cd
cafe
200a
5556
0130
079b
cafe
241a
5556
0130
0767
cafe
2802
5556
0130
0716
cafe
2c12
5556
0134
07aa
cafe
300b
5556
0134
0808
cafe
341b
5556
0134
0754
cafe
3803
5556
0134
07c9
cafe
3c13
5556
0138
07ef
cafe
200c
5556
0138
0836
cafe
241c
5556
0138
0722
cafe
2804
5556
0138
070b
cafe
2c14
5556
013c
078c
cafe
300d
5556
013c
0808
cafe
341d
5556
013c
078c
cafe
3805
5556
013c
0745
cafe
3c15
5556
0140
07bd
cafe
200e
5556
0140
0885
cafe
241e
5556
0140
0749
cafe
2806
5556
0140
06d8
cafe
2c16
5556
0144
0728
cafe
300f
5556
0144
0798
cafe
341f
5556
0144
0745
cafe
3807
5556
0144
0750
cafe
3c17
5556
0148
0759
cafe
2008
5556
0148
0766
cafe
2418
5556
0148
06d8
cafe
2800
5556
0148
06fd
cafe
2c10
5556
014c
0804
cafe
3009
5556
014c
06f8
cafe
3419
5556
014c
06b6
cafe
3801
5556
014c
0670
cafe
3c11
5556
0150
07ce
cafe
200a
5556
0150
078b
cafe
241a
5556
0150
0754
cafe
2802
5556
0150
0709
cafe
2c12
-
5556
0154
0798
cafe
300b
5556
0154
07ea
cafe
341b
5556
0154
073a
cafe
3803
5556
0154
07b4
cafe
3c13
5556
0158
07cd
cafe
200c
5556
0158
0816
cafe
241c
5556
0158
070d
cafe
2804
5556
0158
06eb
cafe
2c14
5556
015c
076f
cafe
300d
5556
015c
07e7
cafe
341d
5556
015c
0771
cafe
3805
5556
015c
0722
cafe
3c15
5556
0160
079b
cafe
200e
5556
0160
0871
cafe
241e
5556
0160
0734
cafe
2806
5556
0160
06c4
cafe
2c16
5556
0164
0711
cafe
300f
5556
0164
0794
cafe
341f
5556
0164
0729
cafe
3807
5556
0164
0748
cafe
3c17
5556
0168
0752
cafe
2008
5556
0168
075b
cafe
2418
5556
0168
06c4
cafe
2800
5556
0168
06e8
cafe
2c10
5556
016c
07f8
cafe
3009
5556
016c
06d8
cafe
3419
5556
016c
069f
cafe
3801
5556
016c
065a
cafe
3c11
5556
0170
07b3
cafe
200a
5556
0170
076a
cafe
241a
5556
0170
073c
cafe
2802
5556
0170
06f2
cafe
2c12
5556
0174
0773
cafe
300b
5556
0174
07ca
cafe
341b
5556
0174
071a
cafe
3803
5556
0174
079a
cafe
3c13
5556
0178
07ad
cafe
200c
5556
0178
0801
cafe
241c
5556
0178
06f6
cafe
2804
5556
0178
06d9
cafe
2c14
5556
017c
075e
cafe
300d
5556
017c
07e8
cafe
341d
5556
017c
075e
cafe
3805
5556
017c
070d
cafe
3c15
5556
0180
0791
cafe
200e
5556
0180
0871
cafe
241e
5556
0180
0722
cafe
2806
5556
0180
06b4
cafe
2c16
5556
0184
0708
cafe
300f
5556
0184
0781
cafe
341f
5556
0184
0710
cafe
3807
5556
-
0184
0731
cafe
3c17
5556
0188
0738
cafe
2008
5556
0188
073a
cafe
2418
5556
0188
06a8
cafe
2800
5556
0188
06d4
cafe
2c10
5556
018c
07d5
cafe
3009
5556
018c
06c0
cafe
3419
5556
018c
0681
cafe
3801
5556
018c
0645
cafe
3c11
5556
0190
0793
cafe
200a
5556
0190
074e
cafe
241a
5556
0190
0728
cafe
2802
5556
0190
06e2
cafe
2c12
5556
0194
0763
cafe
300b
5556
0194
07c9
cafe
341b
5556
0194
070a
cafe
3803
5556
0194
0787
cafe
3c13
5556
0198
07af
cafe
200c
5556
0198
0801
cafe
241c
5556
0198
06e5
cafe
2804
5556
0198
06cc
cafe
2c14
5556
019c
0756
cafe
300d
5556
019c
07d0
cafe
341d
5556
019c
0741
cafe
3805
5556
019c
06f3
cafe
3c15
5556
01a0
0771
cafe
200e
5556
01a0
0852
cafe
241e
5556
01a0
070a
cafe
2806
5556
01a0
0690
cafe
2c16
5556
01a4
06e5
cafe
300f
5556
01a4
075a
cafe
341f
5556
01a4
06f8
cafe
3807
5556
01a4
0713
cafe
3c17
5556
01a8
0719
cafe
2008
5556
01a8
0712
cafe
2418
5556
01a8
0691
cafe
2800
5556
01a8
06b6
cafe
2c10
5556
01ac
07be
cafe
3009
5556
01ac
06b6
cafe
3419
5556
01ac
066e
cafe
3801
5556
01ac
0633
cafe
3c11
5556
01b0
0788
cafe
200a
5556
01b0
0749
cafe
241a
5556
01b0
0714
cafe
2802
5556
01b0
06cf
cafe
2c12
5556
01b4
075a
cafe
300b
5556
01b4
07b1
cafe
341b
5556
01b4
06f5
cafe
3803
5556
01b4
0778
cafe
3c13
5556
01b8
0794
cafe
200c
5556
01b8
07d5
cafe
241c
5556
01b8
-
06cf
cafe
2804
5556
01b8
06b7
cafe
2c14
5556
01bc
0736
cafe
300d
5556
01bc
07a8
cafe
341d
5556
01bc
0724
cafe
3805
5556
01bc
06d1
cafe
3c15
5556
01c0
074a
cafe
200e
5556
01c0
083e
cafe
241e
5556
01c0
06f0
cafe
2806
5556
01c0
066f
cafe
2c16
5556
01c4
06d1
cafe
300f
5556
01c4
074e
cafe
341f
5556
01c4
06e1
cafe
3807
5556
01c4
0703
cafe
3c17
5556
01c8
0708
cafe
2008
5556
01c8
0709
cafe
2418
5556
01c8
0682
cafe
2800
5556
01c8
0699
cafe
2c10
5556
01cc
07b9
cafe
3009
5556
01cc
06a4
cafe
3419
5556
01cc
0653
cafe
3801
5556
01cc
0620
cafe
3c11
5556
01d0
076e
cafe
200a
5556
01d0
0725
cafe
241a
5556
01d0
06f9
cafe
2802
5556
01d0
06b2
cafe
2c12
5556
01d4
073c
cafe
300b
5556
01d4
078f
cafe
341b
5556
01d4
06d9
cafe
3803
5556
01d4
0767
cafe
3c13
5556
01d8
0770
cafe
200c
5556
01d8
07bb
cafe
241c
5556
01d8
06b8
cafe
2804
5556
01d8
06a3
cafe
2c14
5556
01dc
0722
cafe
300d
5556
01dc
07a1
cafe
341d
5556
01dc
0710
cafe
3805
5556
01dc
06c0
cafe
3c15
5556
01e0
0742
cafe
200e
5556
01e0
0841
cafe
241e
5556
01e0
06d8
cafe
2806
5556
01e0
0664
cafe
2c16
5556
01e4
06c4
cafe
300f
5556
01e4
0735
cafe
341f
5556
01e4
06c9
cafe
3807
5556
01e4
06f1
cafe
3c17
5556
01e8
06f3
cafe
2008
5556
01e8
06e8
cafe
2418
5556
01e8
0665
cafe
2800
5556
01e8
0684
cafe
2c10
5556
01ec
0792
cafe
3009
5556
01ec
0679
-
cafe
3419
5556
01ec
062d
cafe
3801
5556
01ec
0604
cafe
3c11
5556
01f0
074a
cafe
200a
5556
01f0
0708
cafe
241a
5556
01f0
06e3
cafe
2802
5556
01f0
0696
cafe
2c12
5556
01f4
071f
cafe
300b
5556
01f4
077d
cafe
341b
5556
01f4
06c4
cafe
3803
5556
01f4
074c
cafe
3c13
5556
01f8
0760
cafe
200c
5556
01f8
07ac
cafe
241c
5556
01f8
069c
cafe
2804
5556
01f8
068e
cafe
2c14
5556
01fc
071a
cafe
300d
5556
01fc
078d
cafe
341d
5556
01fc
06f9
cafe
3805
5556
01fc
06a8
cafe
3c15
5556
0200
072b
cafe
200e
5556
0200
0822
cafe
241e
5556
0200
06c6
cafe
2806
5556
0200
0645
cafe
2c16
5556
0204
06a8
cafe
300f
5556
0204
0712
cafe
341f
5556
0204
06b3
cafe
3807
5556
0204
06d4
cafe
3c17
5556
0208
06d2
cafe
2008
5556
0208
06cd
cafe
2418
5556
0208
064b
cafe
2800
5556
0208
0670
cafe
2c10
5556
020c
0776
cafe
3009
5556
020c
066b
cafe
3419
5556
020c
061b
cafe
3801
5556
020c
05f2
cafe
3c11
5556
0210
0742
cafe
200a
5556
0210
0705
cafe
241a
5556
0210
06d1
cafe
2802
5556
0210
0686
cafe
2c12
5556
0214
071f
cafe
300b
5556
0214
0775
cafe
341b
5556
0214
06b2
cafe
3803
5556
0214
073c
cafe
3c13
5556
0218
0758
cafe
200c
5556
0218
0795
cafe
241c
5556
0218
0687
cafe
2804
5556
0218
0673
cafe
2c14
5556
021c
06fd
cafe
300d
5556
021c
0768
cafe
341d
5556
021c
06dc
cafe
3805
5556
021c
0695
cafe
3c15
5556
0220
0705
cafe
-
200e
5556
0220
07f8
cafe
241e
5556
0220
06ab
cafe
2806
5556
0220
062a
cafe
2c16
5556
0224
068a
cafe
300f
5556
0224
06f8
cafe
341f
5556
0224
0697
cafe
3807
5556
0224
06b8
cafe
3c17
5556
0228
06bb
cafe
2008
5556
0228
06c8
cafe
2418
5556
0228
0636
cafe
2800
5556
0228
065f
cafe
2c10
5556
022c
0774
cafe
3009
5556
022c
0656
cafe
3419
5556
022c
0607
cafe
3801
5556
022c
05da
cafe
3c11
5556
0230
0733
cafe
200a
5556
0230
06e6
cafe
241a
5556
0230
06b8
cafe
2802
5556
0230
066e
cafe
2c12
5556
0234
0705
cafe
300b
5556
0234
074d
cafe
341b
5556
0234
0696
cafe
3803
5556
0234
071d
cafe
3c13
5556
0238
072d
cafe
200c
5556
0238
0770
cafe
241c
5556
0238
0667
cafe
2804
5556
0238
065b
cafe
2c14
5556
023c
06db
cafe
300d
5556
023c
0753
cafe
341d
5556
023c
06cd
cafe
3805
5556
023c
067e
cafe
3c15
5556
0240
06f2
cafe
200e
5556
0240
07fe
cafe
241e
5556
0240
069a
cafe
2806
5556
0240
061d
cafe
2c16
5556
0244
0683
cafe
300f
5556
0244
06f2
cafe
341f
5556
0244
0682
cafe
3807
5556
0244
06ac
cafe
3c17
5556
0248
06b6
cafe
2008
5556
0248
06ae
cafe
2418
5556
0248
061e
cafe
2800
5556
0248
064c
cafe
2c10
5556
024c
0758
cafe
3009
5556
024c
063a
cafe
3419
5556
024c
05e8
cafe
3801
5556
024c
05bd
cafe
3c11
5556
0250
0710
cafe
200a
5556
0250
06c7
cafe
241a
5556
0250
069a
cafe
2802
5556
0250
0650
cafe
2c12
-
5556
0254
06e3
cafe
300b
5556
0254
0733
cafe
341b
5556
0254
067e
cafe
3803
5556
0254
0709
cafe
3c13
5556
0258
0715
cafe
200c
5556
0258
076c
cafe
241c
5556
0258
0651
cafe
2804
5556
0258
0645
cafe
2c14
5556
025c
06d2
cafe
300d
5556
025c
0745
cafe
341d
5556
025c
06c2
cafe
3805
5556
025c
066e
cafe
3c15
5556
0260
06e6
cafe
200e
5556
0260
07e4
cafe
241e
5556
0260
0682
cafe
2806
5556
0260
0604
cafe
2c16
5556
0264
0667
cafe
300f
5556
0264
06cc
cafe
341f
5556
0264
066f
cafe
3807
5556
0264
0690
cafe
3c17
5556
0268
0691
cafe
2008
5556
0268
068b
cafe
2418
5556
0268
0605
cafe
2800
5556
0268
0634
cafe
2c10
5556
026c
0738
cafe
3009
5556
026c
061e
cafe
3419
5556
026c
05cb
cafe
3801
5556
026c
05aa
cafe
3c11
5556
0270
06f3
cafe
200a
5556
0270
06b6
cafe
241a
5556
0270
0685
cafe
2802
5556
0270
0643
cafe
2c12
5556
0274
06d0
cafe
300b
5556
0274
072a
cafe
341b
5556
0274
0669
cafe
3803
5556
0274
06f4
cafe
3c13
5556
0278
070c
cafe
200c
5556
0278
075f
cafe
241c
5556
0278
063c
cafe
2804
5556
0278
062b
cafe
2c14
5556
027c
06c6
cafe
300d
5556
027c
0724
cafe
341d
5556
027c
06a7
cafe
3805
5556
027c
0656
cafe
3c15
5556
0280
06c9
cafe
200e
5556
0280
07c4
cafe
241e
5556
0280
0667
cafe
2806
5556
0280
05e1
cafe
2c16
5556
0284
0647
cafe
300f
5556
0284
06ab
cafe
341f
5556
0284
0658
cafe
3807
5556
-
0284
067b
cafe
3c17
5556
0288
0677
cafe
2008
5556
0288
0684
cafe
2418
5556
0288
05f0
cafe
2800
5556
0288
0621
cafe
2c10
5556
028c
0730
cafe
3009
5556
028c
061a
cafe
3419
5556
028c
05c2
cafe
3801
5556
028c
059a
cafe
3c11
5556
0290
06f9
cafe
200a
5556
0290
06b5
cafe
241a
5556
0290
0670
cafe
2802
5556
0290
0629
cafe
2c12
5556
0294
06ca
cafe
300b
5556
0294
0711
cafe
341b
5556
0294
0652
cafe
3803
5556
0294
06df
cafe
3c13
5556
0298
06f4
cafe
200c
5556
0298
073b
cafe
241c
5556
0298
0629
cafe
2804
5556
0298
0609
cafe
2c14
5556
029c
06a6
cafe
300d
5556
029c
0701
cafe
341d
5556
029c
0694
cafe
3805
5556
029c
0643
cafe
3c15
5556
02a0
06a7
cafe
200e
5556
02a0
07b0
cafe
241e
5556
02a0
064c
cafe
2806
5556
02a0
05cb
cafe
2c16
5556
02a4
062c
cafe
300f
5556
02a4
0699
cafe
341f
5556
02a4
0643
cafe
3807
5556
02a4
0663
cafe
3c17
5556
02a8
0663
cafe
2008
5556
02a8
0669
cafe
2418
5556
02a8
05da
cafe
2800
5556
02a8
0612
cafe
2c10
5556
02ac
0722
cafe
3009
5556
02ac
0600
cafe
3419
5556
02ac
05a6
cafe
3801
5556
02ac
0580
cafe
3c11
5556
02b0
06d9
cafe
200a
5556
02b0
068e
cafe
241a
5556
02b0
065e
cafe
2802
5556
02b0
0611
cafe
2c12
5556
02b4
06a8
cafe
300b
5556
02b4
06f2
cafe
341b
5556
02b4
0634
cafe
3803
5556
02b4
06cb
cafe
3c13
5556
02b8
06d0
cafe
200c
5556
02b8
0724
cafe
241c
5556
02b8
-
060e
cafe
2804
5556
02b8
05f3
cafe
2c14
5556
02bc
068f
cafe
300d
5556
02bc
06f7
cafe
341d
5556
02bc
0681
cafe
3805
5556
02bc
0637
cafe
3c15
5556
02c0
0698
cafe
200e
5556
02c0
07b4
cafe
241e
5556
02c0
0638
cafe
2806
5556
02c0
05bf
cafe
2c16
5556
02c4
0620
cafe
300f
5556
02c4
0687
cafe
341f
5556
02c4
062b
cafe
3807
5556
02c4
0657
cafe
3c17
5556
02c8
064d
cafe
2008
5556
02c8
0648
cafe
2418
5556
02c8
05bf
cafe
2800
5556
02c8
0602
cafe
2c10
5556
02cc
0708
cafe
3009
5556
02cc
05da
cafe
3419
5556
02cc
058a
cafe
3801
5556
02cc
0563
cafe
3c11
5556
02d0
06b5
cafe
200a
5556
02d0
0670
cafe
241a
5556
02d0
0644
cafe
2802
5556
02d0
05f7
cafe
2c12
5556
02d4
068d
cafe
300b
5556
02d4
06e3
cafe
341b
5556
02d4
0625
cafe
3803
5556
02d4
06b8
cafe
3c13
5556
02d8
06ba
cafe
200c
5556
02d8
0724
cafe
241c
5556
02d8
0606
cafe
2804
5556
02d8
05e5
cafe
2c14
5556
02dc
068b
cafe
300d
5556
02dc
06eb
cafe
341d
5556
02dc
066c
cafe
3805
5556
02dc
061e
cafe
3c15
5556
02e0
0691
cafe
200e
5556
02e0
0794
cafe
241e
5556
02e0
0623
cafe
2806
5556
02e0
05a8
cafe
2c16
5556
02e4
0609
cafe
300f
5556
02e4
066d
cafe
341f
5556
02e4
0609
cafe
3807
5556
02e4
063b
cafe
3c17
5556
02e8
0630
cafe
2008
5556
02e8
0629
cafe
2418
5556
02e8
05a1
cafe
2800
5556
02e8
05ea
cafe
2c10
5556
02ec
06eb
cafe
3009
5556
02ec
05c2
-
cafe
3419
5556
02ec
0571
cafe
3801
5556
02ec
054f
cafe
3c11
5556
02f0
069c
cafe
200a
5556
02f0
0661
cafe
241a
5556
02f0
0631
cafe
2802
5556
02f0
05ea
cafe
2c12
5556
02f4
0687
cafe
300b
5556
02f4
06d2
cafe
341b
5556
02f4
0617
cafe
3803
5556
02f4
06a6
cafe
3c13
5556
02f8
06af
cafe
200c
5556
02f8
0710
cafe
241c
5556
02f8
05ea
cafe
2804
5556
02f8
05cb
cafe
2c14
5556
02fc
0674
cafe
300d
5556
02fc
06c8
cafe
341d
5556
02fc
0654
cafe
3805
5556
02fc
05fe
cafe
3c15
5556
0300
0672
cafe
200e
5556
0300
076d
cafe
241e
5556
0300
0615
cafe
2806
5556
0300
0582
cafe
2c16
5556
0304
05e5
cafe
300f
5556
0304
064a
cafe
341f
5556
0304
05ec
cafe
3807
5556
0304
0624
cafe
3c17
5556
0308
0610
cafe
2008
5556
0308
0613
cafe
2418
5556
0308
0586
cafe
2800
5556
0308
05d5
cafe
2c10
5556
030c
06d7
cafe
3009
5556
030c
05b6
cafe
3419
5556
030c
0561
cafe
3801
5556
030c
0538
cafe
3c11
5556
0310
068c
cafe
200a
5556
0310
0649
cafe
241a
5556
0310
0623
cafe
2802
5556
0310
05de
cafe
2c12
5556
0314
067d
cafe
300b
5556
0314
06b9
cafe
341b
5556
0314
05fe
cafe
3803
5556
0314
068f
cafe
3c13
5556
0318
0692
cafe
200c
5556
0318
06f2
cafe
241c
5556
0318
05d2
cafe
2804
5556
0318
05b0
cafe
2c14
5556
031c
0659
cafe
300d
5556
031c
06a6
cafe
341d
5556
031c
063c
cafe
3805
5556
031c
05e1
cafe
3c15
5556
0320
064f
cafe
-
200e
5556
0320
075d
cafe
241e
5556
0320
0602
cafe
2806
5556
0320
0571
cafe
2c16
5556
0324
05d0
cafe
300f
5556
0324
064e
cafe
341f
5556
0324
05d6
cafe
3807
5556
0324
061c
cafe
3c17
5556
0328
0605
cafe
2008
5556
0328
0614
cafe
2418
5556
0328
0579
cafe
2800
5556
0328
05c5
cafe
2c10
5556
032c
06d2
cafe
3009
5556
032c
05a5
cafe
3419
5556
032c
054a
cafe
3801
5556
032c
0521
cafe
3c11
5556
0330
067e
cafe
200a
5556
0330
0629
cafe
241a
5556
0330
060e
cafe
2802
5556
0330
05c9
cafe
2c12
5556
0334
0664
cafe
300b
5556
0334
069a
cafe
341b
5556
0334
05e2
cafe
3803
5556
0334
0674
cafe
3c13
5556
0338
0675
cafe
200c
5556
0338
06db
cafe
241c
5556
0338
05bd
cafe
2804
5556
0338
0597
cafe
2c14
5556
033c
0643
cafe
300d
5556
033c
069c
cafe
341d
5556
033c
062a
cafe
3805
5556
033c
05d4
cafe
3c15
5556
0340
0642
cafe
200e
5556
0340
075d
cafe
241e
5556
0340
05ea
cafe
2806
5556
0340
0566
cafe
2c16
5556
0344
05c8
cafe
300f
5556
0344
0643
cafe
341f
5556
0344
05c4
cafe
3807
5556
0344
060c
cafe
3c17
5556
0348
05f8
cafe
2008
5556
0348
0602
cafe
2418
5556
0348
0564
cafe
2800
5556
0348
05b0
cafe
2c10
5556
034c
06ba
cafe
3009
5556
034c
0581
cafe
3419
5556
034c
0534
cafe
3801
5556
034c
0505
cafe
3c11
5556
0350
065d
cafe
200a
5556
0350
0611
cafe
241a
5556
0350
05f0
cafe
2802
5556
0350
05ad
cafe
2c12
-
5556
0354
0646
cafe
300b
5556
0354
0683
cafe
341b
5556
0354
05cb
cafe
3803
5556
0354
0666
cafe
3c13
5556
0358
0666
cafe
200c
5556
0358
06d6
cafe
241c
5556
0358
05a8
cafe
2804
5556
0358
0583
cafe
2c14
5556
035c
0636
cafe
300d
5556
035c
069b
cafe
341d
5556
035c
061a
cafe
3805
5556
035c
05ca
cafe
3c15
5556
0360
063c
cafe
200e
5556
0360
074c
cafe
241e
5556
0360
05d6
cafe
2806
5556
0360
0552
cafe
2c16
5556
0364
05b1
cafe
300f
5556
0364
0621
cafe
341f
5556
0364
05ae
cafe
3807
5556
0364
05fb
cafe
3c17
5556
0368
05dc
cafe
2008
5556
0368
05e1
cafe
2418
5556
0368
0549
cafe
2800
5556
0368
059b
cafe
2c10
5556
036c
0697
cafe
3009
5556
036c
0569
cafe
3419
5556
036c
0521
cafe
3801
5556
036c
04ec
cafe
3c11
5556
0370
064a
cafe
200a
5556
0370
060d
cafe
241a
5556
0370
05e0
cafe
2802
5556
0370
059d
cafe
2c12
5556
0374
0642
cafe
300b
5556
0374
0682
cafe
341b
5556
0374
05be
cafe
3803
5556
0374
065b
cafe
3c13
5556
0378
0664
cafe
200c
5556
0378
06c5
cafe
241c
5556
0378
0591
cafe
2804
5556
0378
056e
cafe
2c14
5556
037c
0628
cafe
300d
5556
037c
067b
cafe
341d
5556
037c
0606
cafe
3805
5556
037c
05ae
cafe
3c15
5556
0380
0626
cafe
200e
5556
0380
072a
cafe
241e
5556
0380
05bb
cafe
2806
5556
0380
0530
cafe
2c16
5556
0384
0594
cafe
300f
5556
0384
0601
cafe
341f
5556
0384
059d
cafe
3807
5556
-
0384
05e0
cafe
3c17
5556
0388
05bd
cafe
2008
5556
0388
05cc
cafe
2418
5556
0388
0536
cafe
2800
5556
0388
0586
cafe
2c10
5556
038c
0686
cafe
3009
5556
038c
055d
cafe
3419
5556
038c
050b
cafe
3801
5556
038c
04dc
cafe
3c11
5556
0390
0647
cafe
200a
5556
0390
05fa
cafe
241a
5556
0390
05d0
cafe
2802
5556
0390
058c
cafe
2c12
5556
0394
062f
cafe
300b
5556
0394
0675
cafe
341b
5556
0394
05ab
cafe
3803
5556
0394
0645
cafe
3c13
5556
0398
0647
cafe
200c
5556
0398
069a
cafe
241c
5556
0398
057d
cafe
2804
5556
0398
0559
cafe
2c14
5556
039c
060a
cafe
300d
5556
039c
0655
cafe
341d
5556
039c
05f1
cafe
3805
5556
039c
0595
cafe
3c15
5556
03a0
0606
cafe
200e
5556
03a0
070e
cafe
241e
5556
03a0
059c
cafe
2806
5556
03a0
051a
cafe
2c16
5556
03a4
0583
cafe
300f
5556
03a4
05fc
cafe
341f
5556
03a4
058e
cafe
3807
5556
03a4
05cd
cafe
3c17
5556
03a8
05ae
cafe
2008
5556
03a8
05b8
cafe
2418
5556
03a8
0529
cafe
2800
5556
03a8
0571
cafe
2c10
5556
03ac
0679
cafe
3009
5556
03ac
054c
cafe
3419
5556
03ac
04f2
cafe
3801
5556
03ac
04c5
cafe
3c11
5556
03b0
0637
cafe
200a
5556
03b0
05e1
cafe
241a
5556
03b0
05b7
cafe
2802
5556
03b0
0576
cafe
2c12
5556
03b4
0609
cafe
300b
5556
03b4
0656
cafe
341b
5556
03b4
0595
cafe
3803
5556
03b4
062e
cafe
3c13
5556
03b8
0633
cafe
200c
5556
03b8
0679
cafe
241c
5556
03b8
-
0565
cafe
2804
5556
03b8
053f
cafe
2c14
5556
03bc
05eb
cafe
300d
5556
03bc
0644
cafe
341d
5556
03bc
05e1
cafe
3805
5556
03bc
0580
cafe
3c15
5556
03c0
05f6
cafe
200e
5556
03c0
0710
cafe
241e
5556
03c0
0589
cafe
2806
5556
03c0
0517
cafe
2c16
5556
03c4
0578
cafe
300f
5556
03c4
05ef
cafe
341f
5556
03c4
0579
cafe
3807
5556
03c4
05b8
cafe
3c17
5556
03c8
05a3
cafe
2008
5556
03c8
059d
cafe
2418
5556
03c8
050d
cafe
2800
5556
03c8
055c
cafe
2c10
5556
03cc
065f
cafe
3009
5556
03cc
0535
cafe
3419
5556
03cc
04db
cafe
3801
5556
03cc
04ad
cafe
3c11
5556
03d0
0615
cafe
200a
5556
03d0
05c0
cafe
241a
5556
03d0
059f
cafe
2802
5556
03d0
0561
cafe
2c12
5556
03d4
05ea
cafe
300b
5556
03d4
0646
cafe
341b
5556
03d4
057d
cafe
3803
5556
03d4
061d
cafe
3c13
5556
03d8
0622
cafe
200c
5556
03d8
067c
cafe
241c
5556
03d8
054e
cafe
2804
5556
03d8
053e
cafe
2c14
5556
03dc
05ec
cafe
300d
5556
03dc
0646
cafe
341d
5556
03dc
05d2
cafe
3805
5556
03dc
0572
cafe
3c15
5556
03e0
05f3
cafe
200e
5556
03e0
0700
cafe
241e
5556
03e0
0576
cafe
2806
5556
03e0
0505
cafe
2c16
5556
03e4
0563
cafe
300f
5556
03e4
05d2
cafe
341f
5556
03e4
0562
cafe
3807
5556
03e4
0596
cafe
3c17
5556
03e8
0585
cafe
2008
5556
03e8
057b
cafe
2418
5556
03e8
04ec
cafe
2800
5556
03e8
053f
cafe
2c10
5556
03ec
063b
cafe
3009
5556
03ec
051b
-
cafe
3419
5556
03ec
04c2
cafe
3801
5556
03ec
049e
cafe
3c11
5556
03f0
05f4
cafe
200a
5556
03f0
05b0
cafe
241a
5556
03f0
058c
cafe
2802
5556
03f0
054d
cafe
2c12
5556
03f4
05d9
cafe
300b
5556
03f4
0639
cafe
341b
5556
03f4
0576
cafe
3803
5556
03f4
0610
cafe
3c13
5556
03f8
0621
cafe
200c
5556
03f8
066e
cafe
241c
5556
03f8
0540
cafe
2804
5556
03f8
0533
cafe
2c14
5556
03fc
05da
cafe
300d
5556
03fc
0627
cafe
341d
5556
03fc
05be
cafe
3805
5556
03fc
0560
cafe
3c15
5556
0400
05d9
cafe
200e
5556
0400
06e0
cafe
241e
5556
0400
0561
cafe
2806
5556
0400
04ed
cafe
2c16
5556
0404
0548
cafe
300f
5556
0404
05b5
cafe
341f
5556
0404
0552
cafe
3807
5556
0404
0574
cafe
3c17
5556
0408
0570
cafe
2008
5556
0408
0571
cafe
2418
5556
0408
04d4
cafe
2800
5556
0408
052d
cafe
2c10
5556
040c
062d
cafe
3009
5556
040c
0512
cafe
3419
5556
040c
04ba
cafe
3801
5556
040c
0490
cafe
3c11
5556
0410
05f0
cafe
200a
5556
0410
05b4
cafe
241a
5556
0410
057b
cafe
2802
5556
0410
0544
cafe
2c12
5556
0414
05d9
cafe
300b
5556
0414
0629
cafe
341b
5556
0414
0562
cafe
3803
5556
0414
05f7
cafe
3c13
5556
0418
0613
cafe
200c
5556
0418
0651
cafe
241c
5556
0418
0530
cafe
2804
5556
0418
0518
cafe
2c14
5556
041c
05c1
cafe
300d
5556
041c
060e
cafe
341d
5556
041c
05a5
cafe
3805
5556
041c
0548
cafe
3c15
5556
0420
05c2
cafe
-
