380f
5556
0864
01ed
cafe
3c1f
5556
0864
0190
cafe
2007
5556
0864
01e2
cafe
2417
5556
0868
0152
cafe
2808
5556
0868
00f8
cafe
2c18
5556
0868
01c5
cafe
3000
5556
0868
00f4
cafe
3410
5556
086c
0155
cafe
3809
5556
086c
0157
cafe
3c19
5556
086c
011e
cafe
2001
5556
086c
00ba
cafe
2411
5556
0870
014c
cafe
280a
5556
0870
00f9
cafe
2c1a
5556
0870
015f
cafe
3002
5556
0870
00ef
cafe
3412
5556
0874
0185
cafe
380b
5556
0874
0188
cafe
3c1b
5556
0874
01c1
cafe
2003
5556
0874
01c3
cafe
2413
5556
0878
00d0
cafe
280c
5556
0878
01d9
cafe
2c1c
5556
0878
01d1
cafe
3004
5556
0878
01b2
cafe
3414
5556
087c
010f
cafe
380d
5556
087c
0167
cafe
3c1d
5556
087c
011a
cafe
2005
5556
087c
0200
cafe
2415
5556
0880
0174
cafe
280e
5556
0880
027e
cafe
2c1e
5556
0880
017c
cafe
3006
5556
0880
0165
cafe
3416
5556
0884
01d3
cafe
380f
5556
0884
01f8
cafe
3c1f
5556
0884
0192
cafe
2007
5556
0884
01e8
cafe
2417
5556
0888
0163
cafe
2808
5556
0888
00f0
cafe
2c18
5556
0888
01c8
cafe
3000
5556
0888
00ef
cafe
3410
5556
088c
0157
cafe
3809
5556
088c
015d
cafe
3c19
5556
088c
0121
cafe
2001
5556
088c
00b7
cafe
2411
5556
0890
0150
cafe
280a
5556
0890
0105
cafe
2c1a
5556
0890
0168
cafe
3002
5556
0890
00f0
cafe
3412
5556
0894
018b
cafe
380b
5556
0894
018f
cafe
3c1b
5556
0894
01c0
cafe
2003
5556
0894
01c9
cafe
2413
-
5556
0898
00ca
cafe
280c
5556
0898
01dc
cafe
2c1c
5556
0898
01cf
cafe
3004
5556
0898
01bb
cafe
3414
5556
089c
0116
cafe
380d
5556
089c
016a
cafe
3c1d
5556
089c
011c
cafe
2005
5556
089c
01fa
cafe
2415
5556
08a0
0177
cafe
280e
5556
08a0
0284
cafe
2c1e
5556
08a0
017a
cafe
3006
5556
08a0
0159
cafe
3416
5556
08a4
01d1
cafe
380f
5556
08a4
01f3
cafe
3c1f
5556
08a4
0199
cafe
2007
5556
08a4
01dc
cafe
2417
5556
08a8
0155
cafe
2808
5556
08a8
00f8
cafe
2c18
5556
08a8
01cb
cafe
3000
5556
08a8
00f3
cafe
3410
5556
08ac
0153
cafe
3809
5556
08ac
015d
cafe
3c19
5556
08ac
0123
cafe
2001
5556
08ac
00b9
cafe
2411
5556
08b0
014b
cafe
280a
5556
08b0
0100
cafe
2c1a
5556
08b0
0161
cafe
3002
5556
08b0
00ed
cafe
3412
5556
08b4
018a
cafe
380b
5556
08b4
018b
cafe
3c1b
5556
08b4
01c1
cafe
2003
5556
08b4
01cf
cafe
2413
5556
08b8
00c7
cafe
280c
5556
08b8
01e0
cafe
2c1c
5556
08b8
01d6
cafe
3004
5556
08b8
01bb
cafe
3414
5556
08bc
010f
cafe
380d
5556
08bc
017a
cafe
3c1d
5556
08bc
0114
cafe
2005
5556
08bc
0209
cafe
2415
5556
08c0
017e
cafe
280e
5556
08c0
0289
cafe
2c1e
5556
08c0
017d
cafe
3006
5556
08c0
014e
cafe
3416
5556
08c4
01d5
cafe
380f
5556
08c4
01e8
cafe
3c1f
5556
08c4
0193
cafe
2007
5556
08c4
01e2
cafe
2417
5556
08c8
014d
cafe
2808
5556
08c8
00f5
cafe
2c18
5556
08c8
01c8
cafe
3000
5556
-
08c8
00f3
cafe
3410
5556
08cc
015c
cafe
3809
5556
08cc
0162
cafe
3c19
5556
08cc
0126
cafe
2001
5556
08cc
00c2
cafe
2411
5556
08d0
0148
cafe
280a
5556
08d0
00f9
cafe
2c1a
5556
08d0
0156
cafe
3002
5556
08d0
00e1
cafe
3412
5556
08d4
0189
cafe
380b
5556
08d4
0189
cafe
3c1b
5556
08d4
01c7
cafe
2003
5556
08d4
01cb
cafe
2413
5556
08d8
00cb
cafe
280c
5556
08d8
01d6
cafe
2c1c
5556
08d8
01cf
cafe
3004
5556
08d8
01bb
cafe
3414
5556
08dc
0116
cafe
380d
5556
08dc
0181
cafe
3c1d
5556
08dc
011e
cafe
2005
5556
08dc
020b
cafe
2415
5556
08e0
017e
cafe
280e
5556
08e0
027f
cafe
2c1e
5556
08e0
017d
cafe
3006
5556
08e0
015a
cafe
3416
5556
08e4
01d7
cafe
380f
5556
08e4
01ee
cafe
3c1f
5556
08e4
0197
cafe
2007
5556
08e4
01eb
cafe
2417
5556
08e8
0149
cafe
2808
5556
08e8
00f2
cafe
2c18
5556
08e8
01ca
cafe
3000
5556
08e8
00f6
cafe
3410
5556
08ec
015c
cafe
3809
5556
08ec
0158
cafe
3c19
5556
08ec
011f
cafe
2001
5556
08ec
00c2
cafe
2411
5556
08f0
014e
cafe
280a
5556
08f0
00fc
cafe
2c1a
5556
08f0
0160
cafe
3002
5556
08f0
00e8
cafe
3412
5556
08f4
0185
cafe
380b
5556
08f4
0187
cafe
3c1b
5556
08f4
01c6
cafe
2003
5556
08f4
01d1
cafe
2413
5556
08f8
00c5
cafe
280c
5556
08f8
01dc
cafe
2c1c
5556
08f8
01cd
cafe
3004
5556
08f8
01b8
cafe
3414
5556
08fc
0119
cafe
380d
5556
08fc
0178
cafe
3c1d
5556
08fc
-
0116
cafe
2005
5556
08fc
01ff
cafe
2415
5556
0900
0180
cafe
280e
5556
0900
0280
cafe
2c1e
5556
0900
017f
cafe
3006
5556
0900
0162
cafe
3416
5556
0904
01d3
cafe
380f
5556
0904
01fa
cafe
3c1f
5556
0904
0195
cafe
2007
5556
0904
01e7
cafe
2417
5556
0908
0151
cafe
2808
5556
0908
00f6
cafe
2c18
5556
0908
01d1
cafe
3000
5556
0908
00fc
cafe
3410
5556
090c
015c
cafe
3809
5556
090c
015f
cafe
3c19
5556
090c
0127
cafe
2001
5556
090c
00b8
cafe
2411
5556
0910
014f
cafe
280a
5556
0910
00fe
cafe
2c1a
5556
0910
015f
cafe
3002
5556
0910
00ec
cafe
3412
5556
0914
0183
cafe
380b
5556
0914
0185
cafe
3c1b
5556
0914
01c7
cafe
2003
5556
0914
01c7
cafe
2413
5556
0918
00c5
cafe
280c
5556
0918
01dd
cafe
2c1c
5556
0918
01ce
cafe
3004
5556
0918
01b9
cafe
3414
5556
091c
0113
cafe
380d
5556
091c
0171
cafe
3c1d
5556
091c
0115
cafe
2005
5556
091c
01ff
cafe
2415
5556
0920
0184
cafe
280e
5556
0920
0282
cafe
2c1e
5556
0920
0182
cafe
3006
5556
0920
015f
cafe
3416
5556
0924
01d4
cafe
380f
5556
0924
01f6
cafe
3c1f
5556
0924
018d
cafe
2007
5556
0924
01e3
cafe
2417
5556
0928
014e
cafe
2808
5556
0928
00f6
cafe
2c18
5556
0928
01cc
cafe
3000
5556
0928
0104
cafe
3410
5556
092c
015e
cafe
3809
5556
092c
0163
cafe
3c19
5556
092c
0122
cafe
2001
5556
092c
00b8
cafe
2411
5556
0930
014a
cafe
280a
5556
0930
00fd
-
cafe
2c1a
5556
0930
0166
cafe
3002
5556
0930
00ec
cafe
3412
5556
0934
017d
cafe
380b
5556
0934
0186
cafe
3c1b
5556
0934
01c3
cafe
2003
5556
0934
01c6
cafe
2413
5556
0938
00cb
cafe
280c
5556
0938
01e3
cafe
2c1c
5556
0938
01d7
cafe
3004
5556
0938
01b6
cafe
3414
5556
093c
0109
cafe
380d
5556
093c
016e
cafe
3c1d
5556
093c
0114
cafe
2005
5556
093c
01fe
cafe
2415
5556
0940
0186
cafe
280e
5556
0940
0282
cafe
2c1e
5556
0940
017e
cafe
3006
5556
0940
015e
cafe
3416
5556
0944
01d4
cafe
380f
5556
0944
01f6
cafe
3c1f
5556
0944
018f
cafe
2007
5556
0944
01dd
cafe
2417
5556
0948
0150
cafe
2808
5556
0948
00f4
cafe
2c18
5556
0948
01c2
cafe
3000
5556
0948
0106
cafe
3410
5556
094c
015f
cafe
3809
5556
094c
0164
cafe
3c19
5556
094c
011e
cafe
2001
5556
094c
00b6
cafe
2411
5556
0950
0151
cafe
280a
5556
0950
0103
cafe
2c1a
5556
0950
0169
cafe
3002
5556
0950
00f1
cafe
3412
5556
0954
0180
cafe
380b
5556
0954
0185
cafe
3c1b
5556
0954
01c6
cafe
2003
5556
0954
01c7
cafe
2413
5556
0958
00cd
cafe
280c
5556
0958
01e3
cafe
2c1c
5556
0958
01d1
cafe
3004
5556
0958
01ba
cafe
3414
5556
095c
0110
cafe
380d
5556
095c
0170
cafe
3c1d
5556
095c
0116
cafe
2005
5556
095c
01f5
cafe
2415
5556
0960
0189
cafe
280e
5556
0960
0280
cafe
2c1e
5556
0960
0183
cafe
3006
5556
0960
015d
cafe
3416
5556
0964
01ce
cafe
-
380f
5556
0964
01f8
cafe
3c1f
5556
0964
0198
cafe
2007
5556
0964
01e1
cafe
2417
5556
0968
014b
cafe
2808
5556
0968
00f3
cafe
2c18
5556
0968
01cb
cafe
3000
5556
0968
0101
cafe
3410
5556
096c
0162
cafe
3809
5556
096c
0161
cafe
3c19
5556
096c
0121
cafe
2001
5556
096c
00bd
cafe
2411
5556
0970
014e
cafe
280a
5556
0970
00fb
cafe
2c1a
5556
0970
0169
cafe
3002
5556
0970
00ed
cafe
3412
5556
0974
0178
cafe
380b
5556
0974
018a
cafe
3c1b
5556
0974
01c4
cafe
2003
5556
0974
01c8
cafe
2413
5556
0978
00d4
cafe
280c
5556
0978
01e3
cafe
2c1c
5556
0978
01cf
cafe
3004
5556
0978
01bb
cafe
3414
5556
097c
0109
cafe
380d
5556
097c
0172
cafe
3c1d
5556
097c
0119
cafe
2005
5556
097c
01ff
cafe
2415
5556
0980
0183
cafe
280e
5556
0980
0281
cafe
2c1e
5556
0980
0186
cafe
3006
5556
0980
015b
cafe
3416
5556
0984
01cd
cafe
380f
5556
0984
01f6
cafe
3c1f
5556
0984
0194
cafe
2007
5556
0984
01e6
cafe
2417
5556
0988
014e
cafe
2808
5556
0988
00f8
cafe
2c18
5556
0988
01c7
cafe
3000
5556
0988
00fe
cafe
3410
5556
098c
0162
cafe
3809
5556
098c
0169
cafe
3c19
5556
098c
011e
cafe
2001
5556
098c
00c1
cafe
2411
5556
0990
014a
cafe
280a
5556
0990
00fd
cafe
2c1a
5556
0990
0161
cafe
3002
5556
0990
00eb
cafe
3412
5556
0994
0183
cafe
380b
5556
0994
0187
cafe
3c1b
5556
0994
01ce
cafe
2003
5556
0994
01c5
cafe
2413
-
5556
0998
00dd
cafe
280c
5556
0998
01dd
cafe
2c1c
5556
0998
01cf
cafe
3004
5556
0998
01b4
cafe
3414
5556
099c
0111
cafe
380d
5556
099c
016e
cafe
3c1d
5556
099c
011a
cafe
2005
5556
099c
0207
cafe
2415
5556
09a0
017e
cafe
280e
5556
09a0
0283
cafe
2c1e
5556
09a0
0183
cafe
3006
5556
09a0
0159
cafe
3416
5556
09a4
01ca
cafe
380f
5556
09a4
01f7
cafe
3c1f
5556
09a4
0191
cafe
2007
5556
09a4
01e1
cafe
2417
5556
09a8
0159
cafe
2808
5556
09a8
00fe
cafe
2c18
5556
09a8
01c6
cafe
3000
5556
09a8
00fd
cafe
3410
5556
09ac
0162
cafe
3809
5556
09ac
015f
cafe
3c19
5556
09ac
011c
cafe
2001
5556
09ac
00c5
cafe
2411
5556
09b0
014a
cafe
280a
5556
09b0
00fc
cafe
2c1a
5556
09b0
0165
cafe
3002
5556
09b0
00ea
cafe
3412
5556
09b4
017b
cafe
380b
5556
09b4
0188
cafe
3c1b
5556
09b4
01cc
cafe
2003
5556
09b4
01c2
cafe
2413
5556
09b8
00d8
cafe
280c
5556
09b8
01d6
cafe
2c1c
5556
09b8
01d1
cafe
3004
5556
09b8
01b4
cafe
3414
5556
09bc
0113
cafe
380d
5556
09bc
0175
cafe
3c1d
5556
09bc
0112
cafe
2005
5556
09bc
0207
cafe
2415
5556
09c0
0184
cafe
280e
5556
09c0
0277
cafe
2c1e
5556
09c0
0187
cafe
3006
5556
09c0
015b
cafe
3416
5556
09c4
01c8
cafe
380f
5556
09c4
0204
cafe
3c1f
5556
09c4
0197
cafe
2007
5556
09c4
01e1
cafe
2417
5556
09c8
015c
cafe
2808
5556
09c8
00ff
cafe
2c18
5556
09c8
01cb
cafe
3000
5556
-
09c8
00f5
cafe
3410
5556
09cc
0161
cafe
3809
5556
09cc
0165
cafe
3c19
5556
09cc
0117
cafe
2001
5556
09cc
00ca
cafe
2411
5556
09d0
014a
cafe
280a
5556
09d0
00f8
cafe
2c1a
5556
09d0
0164
cafe
3002
5556
09d0
00e5
cafe
3412
5556
09d4
0183
cafe
380b
5556
09d4
0188
cafe
3c1b
5556
09d4
01cb
cafe
2003
5556
09d4
01cb
cafe
2413
5556
09d8
00cb
cafe
280c
5556
09d8
01d4
cafe
2c1c
5556
09d8
01d0
cafe
3004
5556
09d8
01ba
cafe
3414
5556
09dc
0114
cafe
380d
5556
09dc
0171
cafe
3c1d
5556
09dc
0114
cafe
2005
5556
09dc
0204
cafe
2415
5556
09e0
017d
cafe
280e
5556
09e0
0277
cafe
2c1e
5556
09e0
0186
cafe
3006
5556
09e0
0155
cafe
3416
5556
09e4
01c8
cafe
380f
5556
09e4
01fd
cafe
3c1f
5556
09e4
0191
cafe
2007
5556
09e4
01e3
cafe
2417
5556
09e8
015a
cafe
2808
5556
09e8
00ff
cafe
2c18
5556
09e8
01c1
cafe
3000
5556
09e8
00fb
cafe
3410
5556
09ec
0164
cafe
3809
5556
09ec
0166
cafe
3c19
5556
09ec
0125
cafe
2001
5556
09ec
00c2
cafe
2411
5556
09f0
0148
cafe
280a
5556
09f0
00fc
cafe
2c1a
5556
09f0
0168
cafe
3002
5556
09f0
00e7
cafe
3412
5556
09f4
017e
cafe
380b
5556
09f4
0180
cafe
3c1b
5556
09f4
01c4
cafe
2003
5556
09f4
01c9
cafe
2413
5556
09f8
00cb
cafe
280c
5556
09f8
01ce
cafe
2c1c
5556
09f8
01d3
cafe
3004
5556
09f8
01ba
cafe
3414
5556
09fc
0116
cafe
380d
5556
09fc
0172
cafe
3c1d
5556
09fc
-
011e
cafe
2005
5556
09fc
0209
cafe
2415
5556
0a00
017f
cafe
280e
5556
0a00
027d
cafe
2c1e
5556
0a00
0182
cafe
3006
5556
0a00
015f
cafe
3416
5556
0a04
01c5
cafe
380f
5556
0a04
01fa
cafe
3c1f
5556
0a04
0191
cafe
2007
5556
0a04
01de
cafe
2417
5556
0a08
0151
cafe
2808
5556
0a08
0101
cafe
2c18
5556
0a08
01cd
cafe
3000
5556
0a08
00fd
cafe
3410
5556
0a0c
0161
cafe
3809
5556
0a0c
0162
cafe
3c19
5556
0a0c
011c
cafe
2001
5556
0a0c
00c3
cafe
2411
5556
0a10
0146
cafe
280a
5556
0a10
00f6
cafe
2c1a
5556
0a10
015f
cafe
3002
5556
0a10
00e8
cafe
3412
5556
0a14
017e
cafe
380b
5556
0a14
0185
cafe
3c1b
5556
0a14
01bf
cafe
2003
5556
0a14
01c9
cafe
2413
5556
0a18
00d1
cafe
280c
5556
0a18
01d0
cafe
2c1c
5556
0a18
01d5
cafe
3004
5556
0a18
01bd
cafe
3414
5556
0a1c
011d
cafe
380d
5556
0a1c
0181
cafe
3c1d
5556
0a1c
011a
cafe
2005
5556
0a1c
0207
cafe
2415
5556
0a20
017d
cafe
280e
5556
0a20
027c
cafe
2c1e
5556
0a20
0181
cafe
3006
5556
0a20
0159
cafe
3416
5556
0a24
01ce
cafe
380f
5556
0a24
01f4
cafe
3c1f
5556
0a24
0195
cafe
2007
5556
0a24
01de
cafe
2417
5556
0a28
0154
cafe
2808
5556
0a28
0102
cafe
2c18
5556
0a28
01cd
cafe
3000
5556
0a28
00fe
cafe
3410
5556
0a2c
0160
cafe
3809
5556
0a2c
0164
cafe
3c19
5556
0a2c
0116
cafe
2001
5556
0a2c
00be
cafe
2411
5556
0a30
0148
cafe
280a
5556
0a30
00eb
-
cafe
2c1a
5556
0a30
0159
cafe
3002
5556
0a30
00ea
cafe
3412
5556
0a34
017f
cafe
380b
5556
0a34
0180
cafe
3c1b
5556
0a34
01cb
cafe
2003
5556
0a34
01d0
cafe
2413
5556
0a38
00d3
cafe
280c
5556
0a38
01cf
cafe
2c1c
5556
0a38
01d6
cafe
3004
5556
0a38
01bd
cafe
3414
5556
0a3c
011b
cafe
380d
5556
0a3c
0183
cafe
3c1d
5556
0a3c
0115
cafe
2005
5556
0a3c
020b
cafe
2415
5556
0a40
017d
cafe
280e
5556
0a40
027c
cafe
2c1e
5556
0a40
0183
cafe
3006
5556
0a40
0163
cafe
3416
5556
0a44
01cb
cafe
380f
5556
0a44
01f3
cafe
3c1f
5556
0a44
0199
cafe
2007
5556
0a44
01dd
cafe
2417
5556
0a48
015b
cafe
2808
5556
0a48
010d
cafe
2c18
5556
0a48
01c7
cafe
3000
5556
0a48
00fc
cafe
3410
5556
0a4c
015f
cafe
3809
5556
0a4c
015e
cafe
3c19
5556
0a4c
011e
cafe
2001
5556
0a4c
00c2
cafe
2411
5556
0a50
014b
cafe
280a
5556
0a50
00f7
cafe
2c1a
5556
0a50
015f
cafe
3002
5556
0a50
00f1
cafe
3412
5556
0a54
0182
cafe
380b
5556
0a54
0179
cafe
3c1b
5556
0a54
01c9
cafe
2003
5556
0a54
01d1
cafe
2413
5556
0a58
00cb
cafe
280c
5556
0a58
01cf
cafe
2c1c
5556
0a58
01df
cafe
3004
5556
0a58
01b3
cafe
3414
5556
0a5c
011b
cafe
380d
5556
0a5c
0185
cafe
3c1d
5556
0a5c
010e
cafe
2005
5556
0a5c
0208
cafe
2415
5556
0a60
017e
cafe
280e
5556
0a60
0281
cafe
2c1e
5556
0a60
0185
cafe
3006
5556
0a60
015e
cafe
3416
5556
0a64
01cb
cafe
-
380f
5556
0a64
01f7
cafe
3c1f
5556
0a64
018f
cafe
2007
5556
0a64
01e1
cafe
2417
5556
0a68
015c
cafe
2808
5556
0a68
0111
cafe
2c18
5556
0a68
01c7
cafe
3000
5556
0a68
00f7
cafe
3410
5556
0a6c
0164
cafe
3809
5556
0a6c
015d
cafe
3c19
5556
0a6c
011a
cafe
2001
5556
0a6c
00c7
cafe
2411
5556
0a70
0149
cafe
280a
5556
0a70
00f3
cafe
2c1a
5556
0a70
0169
cafe
3002
5556
0a70
00f2
cafe
3412
5556
0a74
0183
cafe
380b
5556
0a74
017f
cafe
3c1b
5556
0a74
01ca
cafe
2003
5556
0a74
01ce
cafe
2413
5556
0a78
00d3
cafe
280c
5556
0a78
01cb
cafe
2c1c
5556
0a78
01d6
cafe
3004
5556
0a78
01b9
cafe
3414
5556
0a7c
011a
cafe
380d
5556
0a7c
0188
cafe
3c1d
5556
0a7c
010f
cafe
2005
5556
0a7c
0201
cafe
2415
5556
0a80
017c
cafe
280e
5556
0a80
0282
cafe
2c1e
5556
0a80
0180
cafe
3006
5556
0a80
015f
cafe
3416
5556
0a84
01cf
cafe
380f
5556
0a84
01f4
cafe
3c1f
5556
0a84
0198
cafe
2007
5556
0a84
01e5
cafe
2417
5556
0a88
0166
cafe
2808
5556
0a88
010c
cafe
2c18
5556
0a88
01cc
cafe
3000
5556
0a88
00f4
cafe
3410
5556
0a8c
0162
cafe
3809
5556
0a8c
015a
cafe
3c19
5556
0a8c
0113
cafe
2001
5556
0a8c
00c7
cafe
2411
5556
0a90
0146
cafe
280a
5556
0a90
00f8
cafe
2c1a
5556
0a90
0168
cafe
3002
5556
0a90
00ef
cafe
3412
5556
0a94
0184
cafe
380b
5556
0a94
0180
cafe
3c1b
5556
0a94
01c0
cafe
2003
5556
0a94
01c5
cafe
2413
-
5556
0a98
00d7
cafe
280c
5556
0a98
01d3
cafe
2c1c
5556
0a98
01d3
cafe
3004
5556
0a98
01bb
cafe
3414
5556
0a9c
0111
cafe
380d
5556
0a9c
0183
cafe
3c1d
5556
0a9c
0112
cafe
2005
5556
0a9c
01fe
cafe
2415
5556
0aa0
0180
cafe
280e
5556
0aa0
0284
cafe
2c1e
5556
0aa0
017b
cafe
3006
5556
0aa0
015c
cafe
3416
5556
0aa4
01d2
cafe
380f
5556
0aa4
01f5
cafe
3c1f
5556
0aa4
0196
cafe
2007
5556
0aa4
01e9
cafe
2417
5556
0aa8
016c
cafe
2808
5556
0aa8
0105
cafe
2c18
5556
0aa8
01ca
cafe
3000
5556
0aa8
00f6
cafe
3410
5556
0aac
0161
cafe
3809
5556
0aac
0158
cafe
3c19
5556
0aac
0112
cafe
2001
5556
0aac
00c2
cafe
2411
5556
0ab0
0144
cafe
280a
5556
0ab0
00fa
cafe
2c1a
5556
0ab0
016c
cafe
3002
5556
0ab0
00f6
cafe
3412
5556
0ab4
0186
cafe
380b
5556
0ab4
0187
cafe
3c1b
5556
0ab4
01c5
cafe
2003
5556
0ab4
01ca
cafe
2413
5556
0ab8
00cd
cafe
280c
5556
0ab8
01da
cafe
2c1c
5556
0ab8
01d3
cafe
3004
5556
0ab8
01bd
cafe
3414
5556
0abc
0119
cafe
380d
5556
0abc
0177
cafe
3c1d
5556
0abc
010c
cafe
2005
5556
0abc
01fa
cafe
2415
5556
0ac0
0178
cafe
280e
5556
0ac0
0282
cafe
2c1e
5556
0ac0
017e
cafe
3006
5556
0ac0
0152
cafe
3416
5556
0ac4
01d0
cafe
380f
5556
0ac4
01fe
cafe
3c1f
5556
0ac4
019b
cafe
2007
5556
0ac4
01ec
cafe
2417
5556
0ac8
016d
cafe
2808
5556
0ac8
0102
cafe
2c18
5556
0ac8
01c4
cafe
3000
5556
-
0ac8
00fd
cafe
3410
5556
0acc
0162
cafe
3809
5556
0acc
0159
cafe
3c19
5556
0acc
010f
cafe
2001
5556
0acc
00bd
cafe
2411
5556
0ad0
0142
cafe
280a
5556
0ad0
00f4
cafe
2c1a
5556
0ad0
0171
cafe
3002
5556
0ad0
00f6
cafe
3412
5556
0ad4
018c
cafe
380b
5556
0ad4
017f
cafe
3c1b
5556
0ad4
01c2
cafe
2003
5556
0ad4
01c8
cafe
2413
5556
0ad8
00d3
cafe
280c
5556
0ad8
01d6
cafe
2c1c
5556
0ad8
01d6
cafe
3004
5556
0ad8
01c3
cafe
3414
5556
0adc
0116
cafe
380d
5556
0adc
017d
cafe
3c1d
5556
0adc
0112
cafe
2005
5556
0adc
01f5
cafe
2415
5556
0ae0
017e
cafe
280e
5556
0ae0
0289
cafe
2c1e
5556
0ae0
017f
cafe
3006
5556
0ae0
015d
cafe
3416
5556
0ae4
01d1
cafe
380f
5556
0ae4
01f4
cafe
3c1f
5556
0ae4
0196
cafe
2007
5556
0ae4
01e6
cafe
2417
5556
0ae8
0167
cafe
2808
5556
0ae8
0102
cafe
2c18
5556
0ae8
01c4
cafe
3000
5556
0ae8
0106
cafe
3410
5556
0aec
015f
cafe
3809
5556
0aec
0155
cafe
3c19
5556
0aec
0115
cafe
2001
5556
0aec
00be
cafe
2411
5556
0af0
0141
cafe
280a
5556
0af0
00f9
cafe
2c1a
5556
0af0
016e
cafe
3002
5556
0af0
00ed
cafe
3412
5556
0af4
017a
cafe
380b
5556
0af4
0179
cafe
3c1b
5556
0af4
01bd
cafe
2003
5556
0af4
01bd
cafe
2413
5556
0af8
00d1
cafe
280c
5556
0af8
01de
cafe
2c1c
5556
0af8
01ce
cafe
3004
5556
0af8
01c0
cafe
3414
5556
0afc
0117
cafe
380d
5556
0afc
0179
cafe
3c1d
5556
0afc
-
0115
cafe
2005
5556
0afc
0200
cafe
2415
5556
0b00
017a
cafe
280e
5556
0b00
0286
cafe
2c1e
5556
0b00
0188
cafe
3006
5556
0b00
015f
cafe
3416
5556
0b04
01d5
cafe
380f
5556
0b04
01f2
cafe
3c1f
5556
0b04
0197
cafe
2007
5556
0b04
01e7
cafe
2417
5556
0b08
0164
cafe
2808
5556
0b08
0100
cafe
2c18
5556
0b08
01c2
cafe
3000
5556
0b08
0101
cafe
3410
5556
0b0c
015a
cafe
3809
5556
0b0c
0160
cafe
3c19
5556
0b0c
0117
cafe
2001
5556
0b0c
00bf
cafe
2411
5556
0b10
014b
cafe
280a
5556
0b10
00f7
cafe
2c1a
5556
0b10
016b
cafe
3002
5556
0b10
00ec
cafe
3412
5556
0b14
017b
cafe
380b
5556
0b14
017a
cafe
3c1b
5556
0b14
01c6
cafe
2003
5556
0b14
01c2
cafe
2413
5556
0b18
00c9
cafe
280c
5556
0b18
01dc
cafe
2c1c
5556
0b18
01d1
cafe
3004
5556
0b18
01c5
cafe
3414
5556
0b1c
011a
cafe
380d
5556
0b1c
0175
cafe
3c1d
5556
0b1c
0118
cafe
2005
5556
0b1c
01fb
cafe
2415
5556
0b20
017a
cafe
280e
5556
0b20
0287
cafe
2c1e
5556
0b20
017f
cafe
3006
5556
0b20
015b
cafe
3416
5556
0b24
01cc
cafe
380f
5556
0b24
01eb
cafe
3c1f
5556
0b24
019a
cafe
2007
5556
0b24
01dd
cafe
2417
5556
0b28
0164
cafe
2808
5556
0b28
0102
cafe
2c18
5556
0b28
01c3
cafe
3000
5556
0b28
00ff
cafe
3410
5556
0b2c
015b
cafe
3809
5556
0b2c
0164
cafe
3c19
5556
0b2c
0114
cafe
2001
5556
0b2c
00bf
cafe
2411
5556
0b30
0151
cafe
280a
5556
0b30
00f0
-
cafe
2c1a
5556
0b30
0171
cafe
3002
5556
0b30
00f6
cafe
3412
5556
0b34
017d
cafe
380b
5556
0b34
0179
cafe
3c1b
5556
0b34
01c9
cafe
2003
5556
0b34
01ba
cafe
2413
5556
0b38
00cb
cafe
280c
5556
0b38
01eb
cafe
2c1c
5556
0b38
01c9
cafe
3004
5556
0b38
01bf
cafe
3414
5556
0b3c
0115
cafe
380d
5556
0b3c
0177
cafe
3c1d
5556
0b3c
0116
cafe
2005
5556
0b3c
0201
cafe
2415
5556
0b40
0181
cafe
280e
5556
0b40
0283
cafe
2c1e
5556
0b40
0182
cafe
3006
5556
0b40
015d
cafe
3416
5556
0b44
01d9
cafe
380f
5556
0b44
01e7
cafe
3c1f
5556
0b44
019b
cafe
2007
5556
0b44
01dd
cafe
2417
5556
0b48
015a
cafe
2808
5556
0b48
00ff
cafe
2c18
5556
0b48
01c6
cafe
3000
5556
0b48
00fa
cafe
3410
5556
0b4c
0156
cafe
3809
5556
0b4c
0161
cafe
3c19
5556
0b4c
0119
cafe
2001
5556
0b4c
00c1
cafe
2411
5556
0b50
014f
cafe
280a
5556
0b50
00f2
cafe
2c1a
5556
0b50
016c
cafe
3002
5556
0b50
00fa
cafe
3412
5556
0b54
0178
cafe
380b
5556
0b54
017a
cafe
3c1b
5556
0b54
01cb
cafe
2003
5556
0b54
01bd
cafe
2413
5556
0b58
00d3
cafe
280c
5556
0b58
01ed
cafe
2c1c
5556
0b58
01cd
cafe
3004
5556
0b58
01c3
cafe
3414
5556
0b5c
0113
cafe
380d
5556
0b5c
0182
cafe
3c1d
5556
0b5c
0119
cafe
2005
5556
0b5c
0206
cafe
2415
5556
0b60
018f
cafe
280e
5556
0b60
0288
cafe
2c1e
5556
0b60
017e
cafe
3006
5556
0b60
015f
cafe
3416
5556
0b64
01d7
cafe
-
380f
5556
0b64
01f1
cafe
3c1f
5556
0b64
019d
cafe
2007
5556
0b64
01d9
cafe
2417
5556
0b68
0159
cafe
2808
5556
0b68
0105
cafe
2c18
5556
0b68
01c9
cafe
3000
5556
0b68
00f9
cafe
3410
5556
0b6c
0159
cafe
3809
5556
0b6c
0164
cafe
3c19
5556
0b6c
010f
cafe
2001
5556
0b6c
00bd
cafe
2411
5556
0b70
0146
cafe
280a
5556
0b70
00f7
cafe
2c1a
5556
0b70
0168
cafe
3002
5556
0b70
00ed
cafe
3412
5556
0b74
017b
cafe
380b
5556
0b74
0172
cafe
3c1b
5556
0b74
01c3
cafe
2003
5556
0b74
01c2
cafe
2413
5556
0b78
00cf
cafe
280c
5556
0b78
01e7
cafe
2c1c
5556
0b78
01cf
cafe
3004
5556
0b78
01c0
cafe
3414
5556
0b7c
0119
cafe
380d
5556
0b7c
017d
cafe
3c1d
5556
0b7c
011e
cafe
2005
5556
0b7c
0201
cafe
2415
5556
0b80
018a
cafe
280e
5556
0b80
027f
cafe
2c1e
5556
0b80
0180
cafe
3006
5556
0b80
0162
cafe
3416
5556
0b84
01d1
cafe
380f
5556
0b84
01f2
cafe
3c1f
5556
0b84
0191
cafe
2007
5556
0b84
01da
cafe
2417
5556
0b88
015b
cafe
2808
5556
0b88
0102
cafe
2c18
5556
0b88
01c2
cafe
3000
5556
0b88
00fd
cafe
3410
5556
0b8c
0158
cafe
3809
5556
0b8c
0165
cafe
3c19
5556
0b8c
0111
cafe
2001
5556
0b8c
00b7
cafe
2411
5556
0b90
014b
cafe
280a
5556
0b90
00fb
cafe
2c1a
5556
0b90
0174
cafe
3002
5556
0b90
00e3
cafe
3412
5556
0b94
017c
cafe
380b
5556
0b94
017e
cafe
3c1b
5556
0b94
01c0
cafe
2003
5556
0b94
01c5
cafe
2413
-
5556
0b98
00ca
cafe
280c
5556
0b98
01e4
cafe
2c1c
5556
0b98
01d1
cafe
3004
5556
0b98
01bc
cafe
3414
5556
0b9c
0113
cafe
380d
5556
0b9c
017d
cafe
3c1d
5556
0b9c
0118
cafe
2005
5556
0b9c
0207
cafe
2415
5556
0ba0
0190
cafe
280e
5556
0ba0
027e
cafe
2c1e
5556
0ba0
0185
cafe
3006
5556
0ba0
0164
cafe
3416
5556
0ba4
01cd
cafe
380f
5556
0ba4
01ed
cafe
3c1f
5556
0ba4
018c
cafe
2007
5556
0ba4
01d6
cafe
2417
5556
0ba8
0158
cafe
2808
5556
0ba8
0102
cafe
2c18
5556
0ba8
01c7
cafe
3000
5556
0ba8
00f5
cafe
3410
5556
0bac
0156
cafe
3809
5556
0bac
0162
cafe
3c19
5556
0bac
0115
cafe
2001
5556
0bac
00ba
cafe
2411
5556
0bb0
0148
cafe
280a
5556
0bb0
00f7
cafe
2c1a
5556
0bb0
016f
cafe
3002
5556
0bb0
00e9
cafe
3412
5556
0bb4
0180
cafe
380b
5556
0bb4
017f
cafe
3c1b
5556
0bb4
01d0
cafe
2003
5556
0bb4
01c6
cafe
2413
5556
0bb8
00c0
cafe
280c
5556
0bb8
01df
cafe
2c1c
5556
0bb8
01d2
cafe
3004
5556
0bb8
01b5
cafe
3414
5556
0bbc
0116
cafe
380d
5556
0bbc
017d
cafe
3c1d
5556
0bbc
0118
cafe
2005
5556
0bbc
020c
cafe
2415
5556
0bc0
018a
cafe
280e
5556
0bc0
0288
cafe
2c1e
5556
0bc0
0184
cafe
3006
5556
0bc0
0166
cafe
3416
5556
0bc4
01d1
cafe
380f
5556
0bc4
01f1
cafe
3c1f
5556
0bc4
0191
cafe
2007
5556
0bc4
01ca
cafe
2417
5556
0bc8
0157
cafe
2808
5556
0bc8
0109
cafe
2c18
5556
0bc8
01ca
cafe
3000
5556
-
0bc8
00fb
cafe
3410
5556
0bcc
015a
cafe
3809
5556
0bcc
015f
cafe
3c19
5556
0bcc
0111
cafe
2001
5556
0bcc
00bd
cafe
2411
5556
0bd0
013d
cafe
280a
5556
0bd0
00f8
cafe
2c1a
5556
0bd0
0160
cafe
3002
5556
0bd0
00e6
cafe
3412
5556
0bd4
0181
cafe
380b
5556
0bd4
017b
cafe
3c1b
5556
0bd4
01cb
cafe
2003
5556
0bd4
01c1
cafe
2413
5556
0bd8
00bf
cafe
280c
5556
0bd8
01d6
cafe
2c1c
5556
0bd8
01d0
cafe
3004
5556
0bd8
01b0
cafe
3414
5556
0bdc
0121
cafe
380d
5556
0bdc
017b
cafe
3c1d
5556
0bdc
0119
cafe
2005
5556
0bdc
0211
cafe
2415
5556
0be0
0187
cafe
280e
5556
0be0
0286
cafe
2c1e
5556
0be0
018c
cafe
3006
5556
0be0
016a
cafe
3416
5556
0be4
01cc
cafe
380f
5556
0be4
01fd
cafe
3c1f
5556
0be4
0192
cafe
2007
5556
0be4
01d3
cafe
2417
5556
0be8
0160
cafe
2808
5556
0be8
0109
cafe
2c18
5556
0be8
01c4
cafe
3000
5556
0be8
00fb
cafe
3410
5556
0bec
0162
cafe
3809
5556
0bec
0161
cafe
3c19
5556
0bec
011c
cafe
2001
5556
0bec
00bd
cafe
2411
5556
0bf0
013a
cafe
280a
5556
0bf0
00f1
cafe
2c1a
5556
0bf0
015a
cafe
3002
5556
0bf0
00e5
cafe
3412
5556
0bf4
0181
cafe
380b
5556
0bf4
017e
cafe
3c1b
5556
0bf4
01cd
cafe
2003
5556
0bf4
01bf
cafe
2413
5556
0bf8
00bc
cafe
280c
5556
0bf8
01d5
cafe
2c1c
5556
0bf8
01cb
cafe
3004
5556
0bf8
01bf
cafe
3414
5556
0bfc
0120
cafe
380d
5556
0bfc
017c
cafe
3c1d
5556
0bfc
-
011f
cafe
2005
5556
0bfc
020c
cafe
2415
5556
0c00
0184
cafe
280e
5556
0c00
0282
cafe
2c1e
5556
0c00
018d
cafe
3006
5556
0c00
0167
cafe
3416
5556
0c04
01cd
cafe
380f
5556
0c04
01fa
cafe
3c1f
5556
0c04
018d
cafe
2007
5556
0c04
01d5
cafe
2417
5556
0c08
015e
cafe
2808
5556
0c08
0101
cafe
2c18
5556
0c08
01c7
cafe
3000
5556
0c08
00f8
cafe
3410
5556
0c0c
0162
cafe
3809
5556
0c0c
015d
cafe
3c19
5556
0c0c
0117
cafe
2001
5556
0c0c
00bf
cafe
2411
5556
0c10
013d
cafe
280a
5556
0c10
00f5
cafe
2c1a
5556
0c10
0161
cafe
3002
5556
0c10
00e2
cafe
3412
5556
0c14
0187
cafe
380b
5556
0c14
017c
cafe
3c1b
5556
0c14
01c5
cafe
2003
5556
0c14
01c6
cafe
2413
5556
0c18
00ba
cafe
280c
5556
0c18
01d6
cafe
2c1c
5556
0c18
01d3
cafe
3004
5556
0c18
01c1
cafe
3414
5556
0c1c
011c
cafe
380d
5556
0c1c
017e
cafe
3c1d
5556
0c1c
0115
cafe
2005
5556
0c1c
0205
cafe
2415
5556
0c20
0183
cafe
280e
5556
0c20
027f
cafe
2c1e
5556
0c20
018a
cafe
3006
5556
0c20
0163
cafe
3416
5556
0c24
01c2
cafe
380f
5556
0c24
01ef
cafe
3c1f
5556
0c24
0191
cafe
2007
5556
0c24
01d5
cafe
2417
5556
0c28
0161
cafe
2808
5556
0c28
0102
cafe
2c18
5556
0c28
01cd
cafe
3000
5556
0c28
00f6
cafe
3410
5556
0c2c
0165
cafe
3809
5556
0c2c
0168
cafe
3c19
5556
0c2c
0119
cafe
2001
5556
0c2c
00be
cafe
2411
5556
0c30
013d
cafe
280a
5556
0c30
00f7
-
cafe
2c1a
5556
0c30
016b
cafe
3002
5556
0c30
00e7
cafe
3412
5556
0c34
0188
cafe
380b
5556
0c34
0180
cafe
3c1b
5556
0c34
01c7
cafe
2003
5556
0c34
01c8
cafe
2413
5556
0c38
00c7
cafe
280c
5556
0c38
01db
cafe
2c1c
5556
0c38
01d7
cafe
3004
5556
0c38
01bd
cafe
3414
5556
0c3c
011d
cafe
380d
5556
0c3c
0187
cafe
3c1d
5556
0c3c
0118
cafe
2005
5556
0c3c
020b
cafe
2415
5556
0c40
0180
cafe
280e
5556
0c40
027d
cafe
2c1e
5556
0c40
0186
cafe
3006
5556
0c40
016a
cafe
3416
5556
0c44
01c1
cafe
380f
5556
0c44
01f2
cafe
3c1f
5556
0c44
0190
cafe
2007
5556
0c44
01cf
cafe
2417
5556
0c48
016a
cafe
2808
5556
0c48
00fd
cafe
2c18
5556
0c48
01c6
cafe
3000
5556
0c48
0102
cafe
3410
5556
0c4c
015c
cafe
3809
5556
0c4c
0164
cafe
3c19
5556
0c4c
0122
cafe
2001
5556
0c4c
00bd
cafe
2411
5556
0c50
013d
cafe
280a
5556
0c50
00fb
cafe
2c1a
5556
0c50
0166
cafe
3002
5556
0c50
00eb
cafe
3412
5556
0c54
018b
cafe
380b
5556
0c54
0175
cafe
3c1b
5556
0c54
01ca
cafe
2003
5556
0c54
01bc
cafe
2413
5556
0c58
00c1
cafe
280c
5556
0c58
01d5
cafe
2c1c
5556
0c58
01d2
cafe
3004
5556
0c58
01ba
cafe
3414
5556
0c5c
0119
cafe
380d
5556
0c5c
018c
cafe
3c1d
5556
0c5c
0114
cafe
2005
5556
0c5c
0209
cafe
2415
5556
0c60
017e
cafe
280e
5556
0c60
027c
cafe
2c1e
5556
0c60
0181
cafe
3006
5556
0c60
016e
cafe
3416
5556
0c64
01c0
cafe
-
380f
5556
0c64
01f0
cafe
3c1f
5556
0c64
0195
cafe
2007
5556
0c64
01d2
cafe
2417
5556
0c68
0162
cafe
2808
5556
0c68
00f7
cafe
2c18
5556
0c68
01c9
cafe
3000
5556
0c68
0108
cafe
3410
5556
0c6c
0161
cafe
3809
5556
0c6c
0166
cafe
3c19
5556
0c6c
0123
cafe
2001
5556
0c6c
00c0
cafe
2411
5556
0c70
0140
cafe
280a
5556
0c70
00f5
cafe
2c1a
5556
0c70
015d
cafe
3002
5556
0c70
00ea
cafe
3412
5556
0c74
018b
cafe
380b
5556
0c74
0182
cafe
3c1b
5556
0c74
01ca
cafe
2003
5556
0c74
01bb
cafe
2413
5556
0c78
00c0
cafe
280c
5556
0c78
01cf
cafe
2c1c
5556
0c78
01d6
cafe
3004
5556
0c78
01b3
cafe
3414
5556
0c7c
011b
cafe
380d
5556
0c7c
0185
cafe
3c1d
5556
0c7c
0114
cafe
2005
5556
0c7c
020c
cafe
2415
5556
0c80
0185
cafe
280e
5556
0c80
0285
cafe
2c1e
5556
0c80
0187
cafe
3006
5556
0c80
0169
cafe
3416
5556
0c84
01c2
cafe
380f
5556
0c84
01e9
cafe
3c1f
5556
0c84
018c
cafe
2007
5556
0c84
01d5
cafe
2417
5556
0c88
015d
cafe
2808
5556
0c88
0100
cafe
2c18
5556
0c88
01c6
cafe
3000
5556
0c88
0109
cafe
3410
5556
0c8c
0160
cafe
3809
5556
0c8c
0167
cafe
3c19
5556
0c8c
0125
cafe
2001
5556
0c8c
00bd
cafe
2411
5556
0c90
0141
cafe
280a
5556
0c90
00ee
cafe
2c1a
5556
0c90
0161
cafe
3002
5556
0c90
00e7
cafe
3412
5556
0c94
018c
cafe
380b
5556
0c94
0184
cafe
3c1b
5556
0c94
01c9
cafe
2003
5556
0c94
01c2
cafe
2413
-
5556
0c98
00c4
cafe
280c
5556
0c98
01d3
cafe
2c1c
5556
0c98
01de
cafe
3004
5556
0c98
01b9
cafe
3414
5556
0c9c
011d
cafe
380d
5556
0c9c
018c
cafe
3c1d
5556
0c9c
0115
cafe
2005
5556
0c9c
020b
cafe
2415
5556
0ca0
0182
cafe
280e
5556
0ca0
027f
cafe
2c1e
5556
0ca0
0184
cafe
3006
5556
0ca0
0169
cafe
3416
5556
0ca4
01c9
cafe
380f
5556
0ca4
01f2
cafe
3c1f
5556
0ca4
018b
cafe
2007
5556
0ca4
01db
cafe
2417
5556
0ca8
0155
cafe
2808
5556
0ca8
0107
cafe
2c18
5556
0ca8
01ca
cafe
3000
5556
0ca8
0105
cafe
3410
5556
0cac
0165
cafe
3809
5556
0cac
0164
cafe
3c19
5556
0cac
0123
cafe
2001
5556
0cac
00bb
cafe
2411
5556
0cb0
013d
cafe
280a
5556
0cb0
00e4
cafe
2c1a
5556
0cb0
0161
cafe
3002
5556
0cb0
00ec
cafe
3412
5556
0cb4
0191
cafe
380b
5556
0cb4
017d
cafe
3c1b
5556
0cb4
01c9
cafe
2003
5556
0cb4
01c0
cafe
2413
5556
0cb8
00bb
cafe
280c
5556
0cb8
01cb
cafe
2c1c
5556
0cb8
01dd
cafe
3004
5556
0cb8
01b7
cafe
3414
5556
0cbc
011e
cafe
380d
5556
0cbc
018a
cafe
3c1d
5556
0cbc
0111
cafe
2005
5556
0cbc
020b
cafe
2415
5556
0cc0
0180
cafe
280e
5556
0cc0
027c
cafe
2c1e
5556
0cc0
0183
cafe
3006
5556
0cc0
0161
cafe
3416
5556
0cc4
01c8
cafe
380f
5556
0cc4
01f1
cafe
3c1f
5556
0cc4
018f
cafe
2007
5556
0cc4
01d5
cafe
2417
5556
0cc8
0155
cafe
2808
5556
0cc8
0106
cafe
2c18
5556
0cc8
01cc
cafe
3000
5556
-
0cc8
00fd
cafe
3410
5556
0ccc
0165
cafe
3809
5556
0ccc
0163
cafe
3c19
5556
0ccc
011b
cafe
2001
5556
0ccc
00c5
cafe
2411
5556
0cd0
013f
cafe
280a
5556
0cd0
00ed
cafe
2c1a
5556
0cd0
015f
cafe
3002
5556
0cd0
00e2
cafe
3412
5556
0cd4
0192
cafe
380b
5556
0cd4
017f
cafe
3c1b
5556
0cd4
01cf
cafe
2003
5556
0cd4
01c2
cafe
2413
5556
0cd8
00c5
cafe
280c
5556
0cd8
01ca
cafe
2c1c
5556
0cd8
01da
cafe
3004
5556
0cd8
01b5
cafe
3414
5556
0cdc
0116
cafe
380d
5556
0cdc
018c
cafe
3c1d
5556
0cdc
0112
cafe
2005
5556
0cdc
0207
cafe
2415
5556
0ce0
0185
cafe
280e
5556
0ce0
0287
cafe
2c1e
5556
0ce0
017e
cafe
3006
5556
0ce0
0166
cafe
3416
5556
0ce4
01c4
cafe
380f
5556
0ce4
01e9
cafe
3c1f
5556
0ce4
0193
cafe
2007
5556
0ce4
01d8
cafe
2417
5556
0ce8
015a
cafe
2808
5556
0ce8
0103
cafe
2c18
5556
0ce8
01ca
cafe
3000
5556
0ce8
00fb
cafe
3410
5556
0cec
0165
cafe
3809
5556
0cec
015a
cafe
3c19
5556
0cec
011f
cafe
2001
5556
0cec
00bd
cafe
2411
5556
0cf0
0133
cafe
280a
5556
0cf0
00f3
cafe
2c1a
5556
0cf0
0161
cafe
3002
5556
0cf0
00e5
cafe
3412
5556
0cf4
018c
cafe
380b
5556
0cf4
0182
cafe
3c1b
5556
0cf4
01c4
cafe
2003
5556
0cf4
01c2
cafe
2413
5556
0cf8
00cd
cafe
280c
5556
0cf8
01cd
cafe
2c1c
5556
0cf8
01db
cafe
3004
5556
0cf8
01b5
cafe
3414
5556
0cfc
011a
cafe
380d
5556
0cfc
018b
cafe
3c1d
5556
0cfc
-
0112
cafe
2005
5556
0cfc
0206
cafe
2415
5556
0d00
017e
cafe
280e
5556
0d00
0281
cafe
2c1e
5556
0d00
0185
cafe
3006
5556
0d00
0161
cafe
3416
5556
0d04
01c1
cafe
380f
5556
0d04
01ed
cafe
3c1f
5556
0d04
018f
cafe
2007
5556
0d04
01da
cafe
2417
5556
0d08
015e
cafe
2808
5556
0d08
0100
cafe
2c18
5556
0d08
01c5
cafe
3000
5556
0d08
00f9
cafe
3410
5556
0d0c
0168
cafe
3809
5556
0d0c
0157
cafe
3c19
5556
0d0c
0121
cafe
2001
5556
0d0c
00be
cafe
2411
5556
0d10
0131
cafe
280a
5556
0d10
00f6
cafe
2c1a
5556
0d10
015f
cafe
3002
5556
0d10
00ed
cafe
3412
5556
0d14
0181
cafe
380b
5556
0d14
0181
cafe
3c1b
5556
0d14
01cc
cafe
2003
5556
0d14
01c2
cafe
2413
5556
0d18
00ca
cafe
280c
5556
0d18
01d5
cafe
2c1c
5556
0d18
01da
cafe
3004
5556
0d18
01b5
cafe
3414
5556
0d1c
011b
cafe
380d
5556
0d1c
0188
cafe
3c1d
5556
0d1c
0111
cafe
2005
5556
0d1c
020a
cafe
2415
5556
0d20
0184
cafe
280e
5556
0d20
027a
cafe
2c1e
5556
0d20
017d
cafe
3006
5556
0d20
016a
cafe
3416
5556
0d24
01c3
cafe
380f
5556
0d24
01ea
cafe
3c1f
5556
0d24
0190
cafe
2007
5556
0d24
01d8
cafe
2417
5556
0d28
0159
cafe
2808
5556
0d28
0103
cafe
2c18
5556
0d28
01cd
cafe
3000
5556
0d28
00f9
cafe
3410
5556
0d2c
0165
cafe
3809
5556
0d2c
0157
cafe
3c19
5556
0d2c
011f
cafe
2001
5556
0d2c
00bc
cafe
2411
5556
0d30
0142
cafe
280a
5556
0d30
00f1
-
cafe
2c1a
5556
0d30
0156
cafe
3002
5556
0d30
00e7
cafe
3412
5556
0d34
0187
cafe
380b
5556
0d34
0185
cafe
3c1b
5556
0d34
01ca
cafe
2003
5556
0d34
01c8
cafe
2413
5556
0d38
00ca
cafe
280c
5556
0d38
01df
cafe
2c1c
5556
0d38
01d5
cafe
3004
5556
0d38
01b1
cafe
3414
5556
0d3c
011f
cafe
380d
5556
0d3c
0176
cafe
3c1d
5556
0d3c
0117
cafe
2005
5556
0d3c
0206
cafe
2415
5556
0d40
018a
cafe
280e
5556
0d40
0282
cafe
2c1e
5556
0d40
017e
cafe
3006
5556
0d40
0168
cafe
3416
5556
0d44
01c5
cafe
380f
5556
0d44
01f0
cafe
3c1f
5556
0d44
0187
cafe
2007
5556
0d44
01d9
cafe
2417
5556
0d48
014d
cafe
2808
5556
0d48
0100
cafe
2c18
5556
0d48
01cb
cafe
3000
5556
0d48
00fd
cafe
3410
5556
0d4c
0161
cafe
3809
5556
0d4c
0158
cafe
3c19
5556
0d4c
0120
cafe
2001
5556
0d4c
00bb
cafe
2411
5556
0d50
0147
cafe
280a
5556
0d50
00f8
cafe
2c1a
5556
0d50
014f
cafe
3002
5556
0d50
00eb
cafe
3412
5556
0d54
018c
cafe
380b
5556
0d54
017f
cafe
3c1b
5556
0d54
01cd
cafe
2003
5556
0d54
01c1
cafe
2413
5556
0d58
00c6
cafe
280c
5556
0d58
01e0
cafe
2c1c
5556
0d58
01dc
cafe
3004
5556
0d58
01b6
cafe
3414
5556
0d5c
0122
cafe
380d
5556
0d5c
0179
cafe
3c1d
5556
0d5c
011d
cafe
2005
5556
0d5c
0202
cafe
2415
5556
0d60
0189
cafe
280e
5556
0d60
0278
cafe
2c1e
5556
0d60
0182
cafe
3006
5556
0d60
016b
cafe
3416
5556
0d64
01ce
cafe
-
380f
5556
0d64
01f7
cafe
3c1f
5556
0d64
0187
cafe
2007
5556
0d64
01d9
cafe
2417
5556
0d68
0151
cafe
2808
5556
0d68
0100
cafe
2c18
5556
0d68
01cc
cafe
3000
5556
0d68
00f9
cafe
3410
5556
0d6c
0161
cafe
3809
5556
0d6c
015d
cafe
3c19
5556
0d6c
0121
cafe
2001
5556
0d6c
00c3
cafe
2411
5556
0d70
0144
cafe
280a
5556
0d70
00f1
cafe
2c1a
5556
0d70
0151
cafe
3002
5556
0d70
00eb
cafe
3412
5556
0d74
018c
cafe
380b
5556
0d74
0182
cafe
3c1b
5556
0d74
01c9
cafe
2003
5556
0d74
01c3
cafe
2413
5556
0d78
00c5
cafe
280c
5556
0d78
01de
cafe
2c1c
5556
0d78
01db
cafe
3004
5556
0d78
01b2
cafe
3414
5556
0d7c
011b
cafe
380d
5556
0d7c
0170
cafe
3c1d
5556
0d7c
011c
cafe
2005
5556
0d7c
0202
cafe
2415
5556
0d80
0185
cafe
280e
5556
0d80
0274
cafe
2c1e
5556
0d80
017d
cafe
3006
5556
0d80
016b
cafe
3416
5556
0d84
01c8
cafe
380f
5556
0d84
01f1
cafe
3c1f
5556
0d84
0186
cafe
2007
5556
0d84
01df
cafe
2417
5556
0d88
0150
cafe
2808
5556
0d88
00fc
cafe
2c18
5556
0d88
01ca
cafe
3000
5556
0d88
00f6
cafe
3410
5556
0d8c
015f
cafe
3809
5556
0d8c
015e
cafe
3c19
5556
0d8c
0120
cafe
2001
5556
0d8c
00bb
cafe
2411
5556
0d90
0146
cafe
280a
5556
0d90
00ed
cafe
2c1a
5556
0d90
015e
cafe
3002
5556
0d90
00e7
cafe
3412
5556
0d94
018d
cafe
380b
5556
0d94
017f
cafe
3c1b
5556
0d94
01c4
cafe
2003
5556
0d94
01bf
cafe
2413
-
5556
0d98
00c8
cafe
280c
5556
0d98
01dd
cafe
2c1c
5556
0d98
01e2
cafe
3004
5556
0d98
01bb
cafe
3414
5556
0d9c
0119
cafe
380d
5556
0d9c
0173
cafe
3c1d
5556
0d9c
011b
cafe
2005
5556
0d9c
0205
cafe
2415
5556
0da0
0182
cafe
280e
5556
0da0
0273
cafe
2c1e
5556
0da0
017c
cafe
3006
5556
0da0
0169
cafe
3416
5556
0da4
01be
cafe
380f
5556
0da4
01f1
cafe
3c1f
5556
0da4
0183
cafe
2007
5556
0da4
01d3
cafe
2417
5556
0da8
015c
cafe
2808
5556
0da8
0109
cafe
2c18
5556
0da8
01c5
cafe
3000
5556
0da8
00fa
cafe
3410
5556
0dac
0157
cafe
3809
5556
0dac
015f
cafe
3c19
5556
0dac
011d
cafe
2001
5556
0dac
00c9
cafe
2411
5556
0db0
0144
cafe
280a
5556
0db0
00f4
cafe
2c1a
5556
0db0
015e
cafe
3002
5556
0db0
00ec
cafe
3412
5556
0db4
0190
cafe
380b
5556
0db4
017a
cafe
3c1b
5556
0db4
01c4
cafe
2003
5556
0db4
01c0
cafe
2413
5556
0db8
00d1
cafe
280c
5556
0db8
01db
cafe
2c1c
5556
0db8
01e4
cafe
3004
5556
0db8
01b2
cafe
3414
5556
0dbc
0118
cafe
380d
5556
0dbc
017b
cafe
3c1d
5556
0dbc
0121
cafe
2005
5556
0dbc
0205
cafe
2415
5556
0dc0
017d
cafe
280e
5556
0dc0
0274
cafe
2c1e
5556
0dc0
0177
cafe
3006
5556
0dc0
016b
cafe
3416
5556
0dc4
01c1
cafe
380f
5556
0dc4
01f5
cafe
3c1f
5556
0dc4
018c
cafe
2007
5556
0dc4
01d5
cafe
2417
5556
0dc8
015c
cafe
2808
5556
0dc8
010c
cafe
2c18
5556
0dc8
01c3
cafe
3000
5556
-
0dc8
00f4
cafe
3410
5556
0dcc
0159
cafe
3809
5556
0dcc
015f
cafe
3c19
5556
0dcc
0122
cafe
2001
5556
0dcc
00ce
cafe
2411
5556
0dd0
014c
cafe
280a
5556
0dd0
00f8
cafe
2c1a
5556
0dd0
015f
cafe
3002
5556
0dd0
00f3
cafe
3412
5556
0dd4
018d
cafe
380b
5556
0dd4
017b
cafe
3c1b
5556
0dd4
01c1
cafe
2003
5556
0dd4
01bf
cafe
2413
5556
0dd8
00ce
cafe
280c
5556
0dd8
01d9
cafe
2c1c
5556
0dd8
01db
cafe
3004
5556
0dd8
01b4
cafe
3414
5556
0ddc
0111
cafe
380d
5556
0ddc
0183
cafe
3c1d
5556
0ddc
0125
cafe
2005
5556
0ddc
0200
cafe
2415
5556
0de0
0185
cafe
280e
5556
0de0
0273
cafe
2c1e
5556
0de0
0174
cafe
3006
5556
0de0
016c
cafe
3416
5556
0de4
01ca
cafe
380f
5556
0de4
01fc
cafe
3c1f
5556
0de4
0184
cafe
2007
5556
0de4
01e1
cafe
2417
5556
0de8
0161
cafe
2808
5556
0de8
010e
cafe
2c18
5556
0de8
01ce
cafe
3000
5556
0de8
00f8
cafe
3410
5556
0dec
015d
cafe
3809
5556
0dec
015d
cafe
3c19
5556
0dec
0120
cafe
2001
5556
0dec
00c8
cafe
2411
5556
0df0
0142
cafe
280a
5556
0df0
00f6
cafe
2c1a
5556
0df0
0155
cafe
3002
5556
0df0
00f9
cafe
3412
5556
0df4
0191
cafe
380b
5556
0df4
0176
cafe
3c1b
5556
0df4
01bf
cafe
2003
5556
0df4
01c4
cafe
2413
5556
0df8
00d1
cafe
280c
5556
0df8
01df
cafe
2c1c
5556
0df8
01d7
cafe
3004
5556
0df8
01b3
cafe
3414
5556
0dfc
0119
cafe
380d
5556
0dfc
017c
cafe
3c1d
5556
0dfc
-
0126
cafe
2005
5556
0dfc
01fa
cafe
2415
5556
0e00
017b
cafe
280e
5556
0e00
0275
cafe
2c1e
5556
0e00
0182
cafe
3006
5556
0e00
016a
cafe
3416
5556
0e04
01c6
cafe
380f
5556
0e04
01f2
cafe
3c1f
5556
0e04
0182
cafe
2007
5556
0e04
01db
cafe
2417
5556
0e08
0163
cafe
2808
5556
0e08
0107
cafe
2c18
5556
0e08
01cc
cafe
3000
5556
0e08
00f5
cafe
3410
5556
0e0c
0156
cafe
3809
5556
0e0c
015d
cafe
3c19
5556
0e0c
011b
cafe
2001
5556
0e0c
00bf
cafe
2411
5556
0e10
0147
cafe
280a
5556
0e10
00fb
cafe
2c1a
5556
0e10
0155
cafe
3002
5556
0e10
00f2
cafe
3412
5556
0e14
0193
cafe
380b
5556
0e14
0181
cafe
3c1b
5556
0e14
01ca
cafe
2003
5556
0e14
01c6
cafe
2413
5556
0e18
00ca
cafe
280c
5556
0e18
01d9
cafe
2c1c
5556
0e18
01da
cafe
3004
5556
0e18
01b1
cafe
3414
5556
0e1c
011b
cafe
380d
5556
0e1c
0184
cafe
3c1d
5556
0e1c
0122
cafe
2005
5556
0e1c
0201
cafe
2415
5556
0e20
017b
cafe
280e
5556
0e20
0277
cafe
2c1e
5556
0e20
017b
cafe
3006
5556
0e20
016c
cafe
3416
5556
0e24
01c1
cafe
380f
5556
0e24
01ef
cafe
3c1f
5556
0e24
0189
cafe
2007
5556
0e24
01dd
cafe
2417
5556
0e28
015e
cafe
2808
5556
0e28
0102
cafe
2c18
5556
0e28
01d3
cafe
3000
5556
0e28
00f6
cafe
3410
5556
0e2c
015f
cafe
3809
5556
0e2c
0160
cafe
3c19
5556
0e2c
0121
cafe
2001
5556
0e2c
00bb
cafe
2411
5556
0e30
014c
cafe
280a
5556
0e30
00f9
-
cafe
2c1a
5556
0e30
0157
cafe
3002
5556
0e30
00f6
cafe
3412
5556
0e34
0191
cafe
380b
5556
0e34
0181
cafe
3c1b
5556
0e34
01c7
cafe
2003
5556
0e34
01c3
cafe
2413
5556
0e38
00cc
cafe
280c
5556
0e38
01db
cafe
2c1c
5556
0e38
01d5
cafe
3004
5556
0e38
01ae
cafe
3414
5556
0e3c
011c
cafe
380d
5556
0e3c
0184
cafe
3c1d
5556
0e3c
0121
cafe
2005
5556
0e3c
0202
cafe
2415
5556
0e40
0172
cafe
280e
5556
0e40
027c
cafe
2c1e
5556
0e40
017a
cafe
3006
5556
0e40
0166
cafe
3416
5556
0e44
01ce
cafe
380f
5556
0e44
01f3
cafe
3c1f
5556
0e44
0187
cafe
2007
5556
0e44
01e3
cafe
2417
5556
0e48
0158
cafe
2808
5556
0e48
0105
cafe
2c18
5556
0e48
01d8
cafe
3000
5556
0e48
00fb
cafe
3410
5556
0e4c
015d
cafe
3809
5556
0e4c
015e
cafe
3c19
5556
0e4c
011b
cafe
2001
5556
0e4c
00bd
cafe
2411
5556
0e50
014e
cafe
280a
5556
0e50
00f2
cafe
2c1a
5556
0e50
015c
cafe
3002
5556
0e50
00f4
cafe
3412
5556
0e54
0185
cafe
380b
5556
0e54
017e
cafe
3c1b
5556
0e54
01c2
cafe
2003
5556
0e54
01bd
cafe
2413
5556
0e58
00d2
cafe
280c
5556
0e58
01de
cafe
2c1c
5556
0e58
01de
cafe
3004
5556
0e58
01ae
cafe
3414
5556
0e5c
0113
cafe
380d
5556
0e5c
017f
cafe
3c1d
5556
0e5c
011b
cafe
2005
5556
0e5c
01fe
cafe
2415
5556
0e60
017e
cafe
280e
5556
0e60
0274
cafe
2c1e
5556
0e60
0177
cafe
3006
5556
0e60
015c
cafe
3416
5556
0e64
01c1
cafe
-
380f
5556
0e64
01ee
cafe
3c1f
5556
0e64
018f
cafe
2007
5556
0e64
01de
cafe
2417
5556
0e68
0155
cafe
2808
5556
0e68
0105
cafe
2c18
5556
0e68
01d1
cafe
3000
5556
0e68
00f0
cafe
3410
5556
0e6c
0159
cafe
3809
5556
0e6c
0163
cafe
3c19
5556
0e6c
0121
cafe
2001
5556
0e6c
00bc
cafe
2411
5556
0e70
0152
cafe
280a
5556
0e70
00eb
cafe
2c1a
5556
0e70
0158
cafe
3002
5556
0e70
00eb
cafe
3412
5556
0e74
0188
cafe
380b
5556
0e74
0183
cafe
3c1b
5556
0e74
01c5
cafe
2003
5556
0e74
01c4
cafe
2413
5556
0e78
00db
cafe
280c
5556
0e78
01e7
cafe
2c1c
5556
0e78
01e4
cafe
3004
5556
0e78
01b4
cafe
3414
5556
0e7c
010f
cafe
380d
5556
0e7c
0183
cafe
3c1d
5556
0e7c
0118
cafe
2005
5556
0e7c
0208
cafe
2415
5556
0e80
0188
cafe
280e
5556
0e80
027a
cafe
2c1e
5556
0e80
0179
cafe
3006
5556
0e80
015e
cafe
3416
5556
0e84
01c0
cafe
380f
5556
0e84
01f2
cafe
3c1f
5556
0e84
018c
cafe
2007
5556
0e84
01e1
cafe
2417
5556
0e88
015d
cafe
2808
5556
0e88
00ff
cafe
2c18
5556
0e88
01d3
cafe
3000
5556
0e88
00fa
cafe
3410
5556
0e8c
015b
cafe
3809
5556
0e8c
0164
cafe
3c19
5556
0e8c
0121
cafe
2001
5556
0e8c
00bb
cafe
2411
5556
0e90
014d
cafe
280a
5556
0e90
00e9
cafe
2c1a
5556
0e90
0159
cafe
3002
5556
0e90
00eb
cafe
3412
5556
0e94
0180
cafe
380b
5556
0e94
018a
cafe
3c1b
5556
0e94
01cd
cafe
2003
5556
0e94
01c0
cafe
2413
-
5556
0e98
00d3
cafe
280c
5556
0e98
01dc
cafe
2c1c
5556
0e98
01de
cafe
3004
5556
0e98
01ba
cafe
3414
5556
0e9c
0110
cafe
380d
5556
0e9c
0178
cafe
3c1d
5556
0e9c
0114
cafe
2005
5556
0e9c
0205
cafe
2415
5556
0ea0
0187
cafe
280e
5556
0ea0
027b
cafe
2c1e
5556
0ea0
0182
cafe
3006
5556
0ea0
015d
cafe
3416
5556
0ea4
01c0
cafe
380f
5556
0ea4
01f5
cafe
3c1f
5556
0ea4
018b
cafe
2007
5556
0ea4
01e1
cafe
2417
5556
0ea8
015e
cafe
2808
5556
0ea8
00ff
cafe
2c18
5556
0ea8
01c8
cafe
3000
5556
0ea8
00fa
cafe
3410
5556
0eac
0154
cafe
3809
5556
0eac
015e
cafe
3c19
5556
0eac
0124
cafe
2001
5556
0eac
00c0
cafe
2411
5556
0eb0
014e
cafe
280a
5556
0eb0
00f7
cafe
2c1a
5556
0eb0
0161
cafe
3002
5556
0eb0
00eb
cafe
3412
5556
0eb4
017c
cafe
380b
5556
0eb4
018c
cafe
3c1b
5556
0eb4
01c9
cafe
2003
5556
0eb4
01bb
cafe
2413
5556
0eb8
00ce
cafe
280c
5556
0eb8
01e1
cafe
2c1c
5556
0eb8
01db
cafe
3004
5556
0eb8
01c3
cafe
3414
5556
0ebc
0117
cafe
380d
5556
0ebc
0179
cafe
3c1d
5556
0ebc
0115
cafe
2005
5556
0ebc
01f7
cafe
2415
5556
0ec0
018f
cafe
280e
5556
0ec0
027a
cafe
2c1e
5556
0ec0
0182
cafe
3006
5556
0ec0
0161
cafe
3416
5556
0ec4
01c6
cafe
380f
5556
0ec4
01f2
cafe
3c1f
5556
0ec4
018d
cafe
2007
5556
0ec4
01e2
cafe
2417
5556
0ec8
015f
cafe
2808
5556
0ec8
00fa
cafe
2c18
5556
0ec8
01c7
cafe
3000
5556
-
0ec8
00f6
cafe
3410
5556
0ecc
0159
cafe
3809
5556
0ecc
015d
cafe
3c19
5556
0ecc
0120
cafe
2001
5556
0ecc
00c5
cafe
2411
5556
0ed0
0148
cafe
280a
5556
0ed0
00f6
cafe
2c1a
5556
0ed0
0162
cafe
3002
5556
0ed0
00f4
cafe
3412
5556
0ed4
0181
cafe
380b
5556
0ed4
0186
cafe
3c1b
5556
0ed4
01c0
cafe
2003
5556
0ed4
01bf
cafe
2413
5556
0ed8
00cd
cafe
280c
5556
0ed8
01e1
cafe
2c1c
5556
0ed8
01d9
cafe
3004
5556
0ed8
01c2
cafe
3414
5556
0edc
0115
cafe
380d
5556
0edc
017c
cafe
3c1d
5556
0edc
0117
cafe
2005
5556
0edc
01ff
cafe
2415
5556
0ee0
0185
cafe
280e
5556
0ee0
027f
cafe
2c1e
5556
0ee0
0187
cafe
3006
5556
0ee0
0166
cafe
3416
5556
0ee4
01bf
cafe
380f
5556
0ee4
01ee
cafe
3c1f
5556
0ee4
0191
cafe
2007
5556
0ee4
01dc
cafe
2417
5556
0ee8
0163
cafe
2808
5556
0ee8
00ff
cafe
2c18
5556
0ee8
01c6
cafe
3000
5556
0ee8
00f6
cafe
3410
5556
0eec
015d
cafe
3809
5556
0eec
015a
cafe
3c19
5556
0eec
0124
cafe
2001
5556
0eec
00cd
cafe
2411
5556
0ef0
0147
cafe
280a
5556
0ef0
00fd
cafe
2c1a
5556
0ef0
0166
cafe
3002
5556
0ef0
00f3
cafe
3412
5556
0ef4
0187
cafe
380b
5556
0ef4
0192
cafe
3c1b
5556
0ef4
01c1
cafe
2003
5556
0ef4
01c4
cafe
2413
5556
0ef8
00c3
cafe
280c
5556
0ef8
01db
cafe
2c1c
5556
0ef8
01db
cafe
3004
5556
0ef8
01be
cafe
3414
5556
0efc
011c
cafe
380d
5556
0efc
0178
cafe
3c1d
5556
0efc
-
0111
cafe
2005
5556
0efc
0201
cafe
2415
5556
0f00
0184
cafe
280e
5556
0f00
027a
cafe
2c1e
5556
0f00
0181
cafe
3006
5556
0f00
0162
cafe
3416
5556
0f04
01b9
cafe
380f
5556
0f04
01fa
cafe
3c1f
5556
0f04
0192
cafe
2007
5556
0f04
01db
cafe
2417
5556
0f08
0163
cafe
2808
5556
0f08
00fa
cafe
2c18
5556
0f08
01cd
cafe
3000
5556
0f08
00fd
cafe
3410
5556
0f0c
0161
cafe
3809
5556
0f0c
015e
cafe
3c19
5556
0f0c
0120
cafe
2001
5556
0f0c
00c9
cafe
2411
5556
0f10
0145
cafe
280a
5556
0f10
0101
cafe
2c1a
5556
0f10
016b
cafe
3002
5556
0f10
00f2
cafe
3412
5556
0f14
018c
cafe
380b
5556
0f14
018d
cafe
3c1b
5556
0f14
01b9
cafe
2003
5556
0f14
01bf
cafe
2413
5556
0f18
00c3
cafe
280c
5556
0f18
01df
cafe
2c1c
5556
0f18
01e2
cafe
3004
5556
0f18
01be
cafe
3414
5556
0f1c
0117
cafe
380d
5556
0f1c
0177
cafe
3c1d
5556
0f1c
0111
cafe
2005
5556
0f1c
0204
cafe
2415
5556
0f20
018a
cafe
280e
5556
0f20
027a
cafe
2c1e
5556
0f20
017e
cafe
3006
5556
0f20
0154
cafe
3416
5556
0f24
01c0
cafe
380f
5556
0f24
01f1
cafe
3c1f
5556
0f24
0191
cafe
2007
5556
0f24
01dc
cafe
2417
5556
0f28
0162
cafe
2808
5556
0f28
00f6
cafe
2c18
5556
0f28
01c6
cafe
3000
5556
0f28
00fc
cafe
3410
5556
0f2c
0163
cafe
3809
5556
0f2c
016a
cafe
3c19
5556
0f2c
0123
cafe
2001
5556
0f2c
00cf
cafe
2411
5556
0f30
014a
cafe
280a
5556
0f30
00f8
-
cafe
2c1a
5556
0f30
0167
cafe
3002
5556
0f30
00f2
cafe
3412
5556
0f34
0184
cafe
380b
5556
0f34
0193
cafe
3c1b
5556
0f34
01c4
cafe
2003
5556
0f34
01cd
cafe
2413
5556
0f38
00c0
cafe
280c
5556
0f38
01e0
cafe
2c1c
5556
0f38
01e4
cafe
3004
5556
0f38
01bb
cafe
3414
5556
0f3c
0111
cafe
380d
5556
0f3c
0170
cafe
3c1d
5556
0f3c
0114
cafe
2005
5556
0f3c
01fd
cafe
2415
5556
0f40
0187
cafe
280e
5556
0f40
027b
cafe
2c1e
5556
0f40
0181
cafe
3006
5556
0f40
015d
cafe
3416
5556
0f44
01bf
cafe
380f
5556
0f44
01f5
cafe
3c1f
5556
0f44
0187
cafe
2007
5556
0f44
01d1
cafe
2417
5556
0f48
0165
cafe
2808
5556
0f48
0105
cafe
2c18
5556
0f48
01cb
cafe
3000
5556
0f48
00ff
cafe
3410
5556
0f4c
0168
cafe
3809
5556
0f4c
0166
cafe
3c19
5556
0f4c
0125
cafe
2001
5556
0f4c
00cf
cafe
2411
5556
0f50
0145
cafe
280a
5556
0f50
00f8
cafe
2c1a
5556
0f50
0165
cafe
3002
5556
0f50
00e9
cafe
3412
5556
0f54
018d
cafe
380b
5556
0f54
018b
cafe
3c1b
5556
0f54
01c1
cafe
2003
5556
0f54
01d1
cafe
2413
5556
0f58
00ba
cafe
280c
5556
0f58
01e6
cafe
2c1c
5556
0f58
01e1
cafe
3004
5556
0f58
01b9
cafe
3414
5556
0f5c
011c
cafe
380d
5556
0f5c
017a
cafe
3c1d
5556
0f5c
011e
cafe
2005
5556
0f5c
0206
cafe
2415
5556
0f60
0182
cafe
280e
5556
0f60
027f
cafe
2c1e
5556
0f60
0191
cafe
3006
5556
0f60
015c
cafe
3416
5556
0f64
01c5
cafe
-
380f
5556
0f64
01ef
cafe
3c1f
5556
0f64
018a
cafe
2007
5556
0f64
01d7
cafe
2417
5556
0f68
0160
cafe
2808
5556
0f68
00fb
cafe
2c18
5556
0f68
01c3
cafe
3000
5556
0f68
0102
cafe
3410
5556
0f6c
0162
cafe
3809
5556
0f6c
0168
cafe
3c19
5556
0f6c
0121
cafe
2001
5556
0f6c
00c6
cafe
2411
5556
0f70
0145
cafe
280a
5556
0f70
00f3
cafe
2c1a
5556
0f70
0167
cafe
3002
5556
0f70
00e9
cafe
3412
5556
0f74
0186
cafe
380b
5556
0f74
0187
cafe
3c1b
5556
0f74
01bf
cafe
2003
5556
0f74
01cf
cafe
2413
5556
0f78
00c2
cafe
280c
5556
0f78
01de
cafe
2c1c
5556
0f78
01d2
cafe
3004
5556
0f78
01bd
cafe
3414
5556
0f7c
011c
cafe
380d
5556
0f7c
017f
cafe
3c1d
5556
0f7c
011d
cafe
2005
5556
0f7c
0204
cafe
2415
5556
0f80
017d
cafe
280e
5556
0f80
0283
cafe
2c1e
5556
0f80
0188
cafe
3006
5556
0f80
015c
cafe
3416
5556
0f84
01c8
cafe
380f
5556
0f84
01f0
cafe
3c1f
5556
0f84
018e
cafe
2007
5556
0f84
01d8
cafe
2417
5556
0f88
0165
cafe
2808
5556
0f88
00f5
cafe
2c18
5556
0f88
01bd
cafe
3000
5556
0f88
00fa
cafe
3410
5556
0f8c
0161
cafe
3809
5556
0f8c
016b
cafe
3c19
5556
0f8c
011f
cafe
2001
5556
0f8c
00c9
cafe
2411
5556
0f90
0145
cafe
280a
5556
0f90
00f2
cafe
2c1a
5556
0f90
016c
cafe
3002
5556
0f90
00ee
cafe
3412
5556
0f94
0189
cafe
380b
5556
0f94
018c
cafe
3c1b
5556
0f94
01c8
cafe
2003
5556
0f94
01cd
cafe
2413
-
5556
0f98
00ca
cafe
280c
5556
0f98
01d8
cafe
2c1c
5556
0f98
01d8
cafe
3004
5556
0f98
01bf
cafe
3414
5556
0f9c
011a
cafe
380d
5556
0f9c
0182
cafe
3c1d
5556
0f9c
0115
cafe
2005
5556
0f9c
01ff
cafe
2415
5556
0fa0
0181
cafe
280e
5556
0fa0
0276
cafe
2c1e
5556
0fa0
017f
cafe
3006
5556
0fa0
015a
cafe
3416
5556
0fa4
01c9
cafe
380f
5556
0fa4
01f4
cafe
3c1f
5556
0fa4
0191
cafe
2007
5556
0fa4
01d7
cafe
2417
5556
0fa8
0160
cafe
2808
5556
0fa8
00fb
cafe
2c18
5556
0fa8
01be
cafe
3000
5556
0fa8
00fa
cafe
3410
5556
0fac
0165
cafe
3809
5556
0fac
0165
cafe
3c19
5556
0fac
011e
cafe
2001
5556
0fac
00c0
cafe
2411
5556
0fb0
013f
cafe
280a
5556
0fb0
00ee
cafe
2c1a
5556
0fb0
0169
cafe
3002
5556
0fb0
00fa
cafe
3412
5556
0fb4
017e
cafe
380b
5556
0fb4
018d
cafe
3c1b
5556
0fb4
01c1
cafe
2003
5556
0fb4
01cd
cafe
2413
5556
0fb8
00d2
cafe
280c
5556
0fb8
01da
cafe
2c1c
5556
0fb8
01db
cafe
3004
5556
0fb8
01bb
cafe
3414
5556
0fbc
0120
cafe
380d
5556
0fbc
0187
cafe
3c1d
5556
0fbc
011a
cafe
2005
5556
0fbc
01f7
cafe
2415
5556
0fc0
0184
cafe
280e
5556
0fc0
027e
cafe
2c1e
5556
0fc0
0184
cafe
3006
5556
0fc0
015b
cafe
3416
5556
0fc4
01cf
cafe
380f
5556
0fc4
01f3
cafe
3c1f
5556
0fc4
018d
cafe
2007
5556
0fc4
01d7
cafe
2417
5556
0fc8
0161
cafe
2808
5556
0fc8
00f5
cafe
2c18
5556
0fc8
01bb
cafe
3000
5556
-
0fc8
00ff
cafe
3410
5556
0fcc
015b
cafe
3809
5556
0fcc
0166
cafe
3c19
5556
0fcc
0120
cafe
2001
5556
0fcc
00c1
cafe
2411
5556
0fd0
0145
cafe
280a
5556
0fd0
00f6
cafe
2c1a
5556
0fd0
015f
cafe
3002
5556
0fd0
00ff
cafe
3412
5556
0fd4
017c
cafe
380b
5556
0fd4
0192
cafe
3c1b
5556
0fd4
01c7
cafe
2003
5556
0fd4
01cd
cafe
2413
5556
0fd8
00d4
cafe
280c
5556
0fd8
01d8
cafe
2c1c
5556
0fd8
01de
cafe
3004
5556
0fd8
01b7
cafe
3414
5556
0fdc
0118
cafe
380d
5556
0fdc
0188
cafe
3c1d
5556
0fdc
0123
cafe
2005
5556
0fdc
01fc
cafe
2415
5556
0fe0
017d
cafe
280e
5556
0fe0
027e
cafe
2c1e
5556
0fe0
0183
cafe
3006
5556
0fe0
015c
cafe
3416
5556
0fe4
01cf
cafe
380f
5556
0fe4
01f7
cafe
3c1f
5556
0fe4
018f
cafe
2007
5556
0fe4
01d7
cafe
2417
5556
0fe8
015e
cafe
2808
5556
0fe8
0100
cafe
2c18
5556
0fe8
01c4
cafe
3000
5556
0fe8
00fd
cafe
3410
5556
0fec
0165
cafe
3809
5556
0fec
016c
cafe
3c19
5556
0fec
011e
cafe
2001
5556
0fec
00c2
cafe
2411
5556
0ff0
0140
cafe
280a
5556
0ff0
00ee
cafe
2c1a
5556
0ff0
0157
cafe
3002
5556
0ff0
00f2
cafe
3412
5556
0ff4
0179
cafe
380b
5556
0ff4
0192
cafe
3c1b
5556
0ff4
01cb
cafe
2003
5556
0ff4
01c6
cafe
2413
5556
0ff8
00d2
cafe
280c
5556
0ff8
01d9
cafe
2c1c
5556
0ff8
01e4
cafe
3004
5556
0ff8
01c0
cafe
3414
5556
0ffc
0118
cafe
380d
5556
0ffc
0185
cafe
3c1d
5556
0ffc
-
0115
cafe
2005
5556
0ffc
01fd
cafe
2415
5556
1000
0182
cafe
280e
5556
1000
027d
cafe
2c1e
5556
1000
017f
cafe
3006
5556
1000
015c
cafe
3416
5556
1004
01cb
cafe
380f
5556
1004
01f5
cafe
3c1f
5556
1004
0188
cafe
2007
5556
1004
01d7
cafe
2417
5556
1008
0163
cafe
2808
5556
1008
00fe
cafe
2c18
5556
1008
01cd
cafe
3000
5556
1008
0105
cafe
3410
5556
100c
0167
cafe
3809
5556
100c
016e
cafe
3c19
5556
100c
011c
cafe
2001
5556
100c
00c6
cafe
2411
5556
1010
0147
cafe
280a
5556
1010
00ea
cafe
2c1a
5556
1010
0153
cafe
3002
5556
1010
00e4
cafe
3412
5556
1014
0179
cafe
380b
5556
1014
0189
cafe
3c1b
5556
1014
01c9
cafe
2003
5556
1014
01c1
cafe
2413
5556
1018
00cc
cafe
280c
5556
1018
01da
cafe
2c1c
5556
1018
01ea
cafe
3004
5556
1018
01bc
cafe
3414
5556
101c
011a
cafe
380d
5556
101c
0185
cafe
3c1d
5556
101c
010d
cafe
2005
5556
101c
0208
cafe
2415
5556
1020
017f
cafe
280e
5556
1020
0275
cafe
2c1e
5556
1020
017e
cafe
3006
5556
1020
015b
cafe
3416
5556
1024
01c9
cafe
380f
5556
1024
01f0
cafe
3c1f
5556
1024
018b
cafe
2007
5556
1024
01d0
cafe
2417
5556
1028
015c
cafe
2808
5556
1028
0102
cafe
2c18
5556
1028
01c9
cafe
3000
5556
1028
010f
cafe
3410
5556
102c
0167
cafe
3809
5556
102c
016d
cafe
3c19
5556
102c
0121
cafe
2001
5556
102c
00c5
cafe
2411
5556
1030
0147
cafe
280a
5556
1030
00e6
-
cafe
2c1a
5556
1030
0151
cafe
3002
5556
1030
00e5
cafe
3412
5556
1034
017c
cafe
380b
5556
1034
018a
cafe
3c1b
5556
1034
01ce
cafe
2003
5556
1034
01bd
cafe
2413
5556
1038
00cf
cafe
280c
5556
1038
01e0
cafe
2c1c
5556
1038
01e3
cafe
3004
5556
1038
01c6
cafe
3414
5556
103c
011d
cafe
380d
5556
103c
018a
cafe
3c1d
5556
103c
0112
cafe
2005
5556
103c
0204
cafe
2415
5556
1040
0183
cafe
280e
5556
1040
0273
cafe
2c1e
5556
1040
0181
cafe
3006
5556
1040
0154
cafe
3416
5556
1044
01cf
cafe
380f
5556
1044
01f2
cafe
3c1f
5556
1044
0191
cafe
2007
5556
1044
01d2
cafe
2417
5556
1048
0155
cafe
2808
5556
1048
0105
cafe
2c18
5556
1048
01cd
cafe
3000
5556
1048
010d
cafe
3410
5556
104c
015f
cafe
3809
5556
104c
0161
cafe
3c19
5556
104c
0126
cafe
2001
5556
104c
00ba
cafe
2411
5556
1050
0154
cafe
280a
5556
1050
00e6
cafe
2c1a
5556
1050
0154
cafe
3002
5556
1050
00f1
cafe
3412
5556
1054
0185
cafe
380b
5556
1054
0187
cafe
3c1b
5556
1054
01cb
cafe
2003
5556
1054
01b5
cafe
2413
5556
1058
00c6
cafe
280c
5556
1058
01da
cafe
2c1c
5556
1058
01de
cafe
3004
5556
1058
01c5
cafe
3414
5556
105c
0116
cafe
380d
5556
105c
0191
cafe
3c1d
5556
105c
0119
cafe
2005
5556
105c
020c
cafe
2415
5556
1060
0186
cafe
280e
5556
1060
0276
cafe
2c1e
5556
1060
017f
cafe
3006
5556
1060
0158
cafe
3416
5556
1064
01c5
cafe
-
