2408
5556
1048
018b
cafe
2818
5556
1048
01b3
cafe
2c00
5556
1048
01ba
cafe
3010
5556
104c
01c1
cafe
3409
5556
104c
014f
cafe
3819
5556
104c
009b
cafe
3c01
5556
104c
014e
cafe
2011
5556
1050
018c
cafe
240a
5556
1050
0192
cafe
281a
5556
1050
015d
cafe
2c02
5556
1050
0150
cafe
3012
5556
1054
0192
cafe
340b
5556
1054
01ba
cafe
381b
5556
1054
0233
cafe
3c03
5556
1054
0177
cafe
2013
5556
1058
014f
cafe
240c
5556
1058
01d8
cafe
281c
5556
1058
016a
cafe
2c04
5556
1058
01b2
cafe
3014
5556
105c
013b
cafe
340d
5556
105c
01e4
cafe
381d
5556
105c
00b8
cafe
3c05
5556
105c
01cc
cafe
2015
5556
1060
019e
cafe
240e
5556
1060
01f1
cafe
281e
5556
1060
01ac
cafe
2c06
5556
1060
019a
cafe
3016
5556
1064
0162
cafe
340f
5556
1064
0248
cafe
381f
5556
1064
0137
cafe
3c07
5556
1064
022b
cafe
2017
5556
1068
00d6
cafe
2408
5556
1068
018b
cafe
2818
5556
1068
01b4
cafe
2c00
5556
1068
01c1
cafe
3010
5556
106c
01c0
cafe
3409
5556
106c
014d
cafe
3819
5556
106c
0099
cafe
3c01
5556
106c
014e
cafe
2011
5556
1070
0188
cafe
240a
5556
1070
0190
cafe
281a
5556
1070
0153
cafe
2c02
5556
1070
014b
cafe
3012
5556
1074
0191
cafe
340b
5556
1074
01bd
cafe
381b
5556
1074
0233
cafe
3c03
5556
1074
0177
cafe
2013
5556
1078
014c
cafe
240c
5556
1078
01d6
cafe
281c
5556
1078
0169
cafe
2c04
5556
1078
01b4
cafe
3014
-
5556
107c
013d
cafe
340d
5556
107c
01e7
cafe
381d
5556
107c
00c0
cafe
3c05
5556
107c
01c4
cafe
2015
5556
1080
019f
cafe
240e
5556
1080
01f4
cafe
281e
5556
1080
01a6
cafe
2c06
5556
1080
019b
cafe
3016
5556
1084
0166
cafe
340f
5556
1084
0244
cafe
381f
5556
1084
0138
cafe
3c07
5556
1084
022e
cafe
2017
5556
1088
00cc
cafe
2408
5556
1088
018a
cafe
2818
5556
1088
01b6
cafe
2c00
5556
1088
01bc
cafe
3010
5556
108c
01be
cafe
3409
5556
108c
014a
cafe
3819
5556
108c
009a
cafe
3c01
5556
108c
014d
cafe
2011
5556
1090
0188
cafe
240a
5556
1090
0194
cafe
281a
5556
1090
0151
cafe
2c02
5556
1090
014c
cafe
3012
5556
1094
0192
cafe
340b
5556
1094
01bd
cafe
381b
5556
1094
0231
cafe
3c03
5556
1094
0176
cafe
2013
5556
1098
014e
cafe
240c
5556
1098
01d9
cafe
281c
5556
1098
016a
cafe
2c04
5556
1098
01b4
cafe
3014
5556
109c
0145
cafe
340d
5556
109c
01e5
cafe
381d
5556
109c
00bf
cafe
3c05
5556
109c
01c8
cafe
2015
5556
10a0
0198
cafe
240e
5556
10a0
01f3
cafe
281e
5556
10a0
01ac
cafe
2c06
5556
10a0
019c
cafe
3016
5556
10a4
0164
cafe
340f
5556
10a4
0243
cafe
381f
5556
10a4
0133
cafe
3c07
5556
10a4
022f
cafe
2017
5556
10a8
00cc
cafe
2408
5556
10a8
018a
cafe
2818
5556
10a8
01b7
cafe
2c00
5556
10a8
01c5
cafe
3010
5556
10ac
01c1
cafe
3409
5556
10ac
0149
cafe
3819
5556
10ac
0097
cafe
3c01
5556
-
10ac
0143
cafe
2011
5556
10b0
018c
cafe
240a
5556
10b0
0195
cafe
281a
5556
10b0
0150
cafe
2c02
5556
10b0
0147
cafe
3012
5556
10b4
018c
cafe
340b
5556
10b4
01bd
cafe
381b
5556
10b4
023b
cafe
3c03
5556
10b4
0178
cafe
2013
5556
10b8
014b
cafe
240c
5556
10b8
01da
cafe
281c
5556
10b8
0170
cafe
2c04
5556
10b8
01ac
cafe
3014
5556
10bc
0143
cafe
340d
5556
10bc
01e4
cafe
381d
5556
10bc
00bd
cafe
3c05
5556
10bc
01c9
cafe
2015
5556
10c0
019a
cafe
240e
5556
10c0
01fb
cafe
281e
5556
10c0
01b1
cafe
2c06
5556
10c0
019f
cafe
3016
5556
10c4
0165
cafe
340f
5556
10c4
0242
cafe
381f
5556
10c4
012d
cafe
3c07
5556
10c4
0231
cafe
2017
5556
10c8
00ca
cafe
2408
5556
10c8
0185
cafe
2818
5556
10c8
01b7
cafe
2c00
5556
10c8
01c7
cafe
3010
5556
10cc
01c2
cafe
3409
5556
10cc
014c
cafe
3819
5556
10cc
0097
cafe
3c01
5556
10cc
0143
cafe
2011
5556
10d0
018c
cafe
240a
5556
10d0
019e
cafe
281a
5556
10d0
0156
cafe
2c02
5556
10d0
0149
cafe
3012
5556
10d4
018f
cafe
340b
5556
10d4
01bd
cafe
381b
5556
10d4
0238
cafe
3c03
5556
10d4
017a
cafe
2013
5556
10d8
014c
cafe
240c
5556
10d8
01da
cafe
281c
5556
10d8
0176
cafe
2c04
5556
10d8
01ad
cafe
3014
5556
10dc
0148
cafe
340d
5556
10dc
01de
cafe
381d
5556
10dc
00bf
cafe
3c05
5556
10dc
01ca
cafe
2015
5556
10e0
0197
cafe
240e
5556
10e0
01f6
cafe
281e
5556
10e0
-
01b5
cafe
2c06
5556
10e0
01a4
cafe
3016
5556
10e4
0167
cafe
340f
5556
10e4
0244
cafe
381f
5556
10e4
0128
cafe
3c07
5556
10e4
022b
cafe
2017
5556
10e8
00ca
cafe
2408
5556
10e8
0186
cafe
2818
5556
10e8
01b7
cafe
2c00
5556
10e8
01c2
cafe
3010
5556
10ec
01c7
cafe
3409
5556
10ec
0149
cafe
3819
5556
10ec
009a
cafe
3c01
5556
10ec
0146
cafe
2011
5556
10f0
0185
cafe
240a
5556
10f0
019c
cafe
281a
5556
10f0
0151
cafe
2c02
5556
10f0
014b
cafe
3012
5556
10f4
0187
cafe
340b
5556
10f4
01bc
cafe
381b
5556
10f4
0239
cafe
3c03
5556
10f4
017e
cafe
2013
5556
10f8
0153
cafe
240c
5556
10f8
01da
cafe
281c
5556
10f8
017b
cafe
2c04
5556
10f8
01ae
cafe
3014
5556
10fc
0143
cafe
340d
5556
10fc
01df
cafe
381d
5556
10fc
00bc
cafe
3c05
5556
10fc
01cc
cafe
2015
5556
1100
019b
cafe
240e
5556
1100
01fa
cafe
281e
5556
1100
01b6
cafe
2c06
5556
1100
019f
cafe
3016
5556
1104
0168
cafe
340f
5556
1104
0244
cafe
381f
5556
1104
0126
cafe
3c07
5556
1104
0229
cafe
2017
5556
1108
00cc
cafe
2408
5556
1108
018e
cafe
2818
5556
1108
01af
cafe
2c00
5556
1108
01c1
cafe
3010
5556
110c
01c8
cafe
3409
5556
110c
0148
cafe
3819
5556
110c
00a0
cafe
3c01
5556
110c
0143
cafe
2011
5556
1110
0189
cafe
240a
5556
1110
0197
cafe
281a
5556
1110
0152
cafe
2c02
5556
1110
014a
cafe
3012
5556
1114
0184
cafe
340b
5556
1114
01c0
-
cafe
381b
5556
1114
0238
cafe
3c03
5556
1114
017c
cafe
2013
5556
1118
0150
cafe
240c
5556
1118
01db
cafe
281c
5556
1118
017b
cafe
2c04
5556
1118
01ac
cafe
3014
5556
111c
0144
cafe
340d
5556
111c
01de
cafe
381d
5556
111c
00bc
cafe
3c05
5556
111c
01cb
cafe
2015
5556
1120
01a4
cafe
240e
5556
1120
01fc
cafe
281e
5556
1120
01af
cafe
2c06
5556
1120
01a2
cafe
3016
5556
1124
0163
cafe
340f
5556
1124
0241
cafe
381f
5556
1124
0129
cafe
3c07
5556
1124
0228
cafe
2017
5556
1128
00cc
cafe
2408
5556
1128
018f
cafe
2818
5556
1128
01b1
cafe
2c00
5556
1128
01c2
cafe
3010
5556
112c
01cc
cafe
3409
5556
112c
0147
cafe
3819
5556
112c
009c
cafe
3c01
5556
112c
013e
cafe
2011
5556
1130
0187
cafe
240a
5556
1130
0193
cafe
281a
5556
1130
0153
cafe
2c02
5556
1130
0148
cafe
3012
5556
1134
017e
cafe
340b
5556
1134
01c1
cafe
381b
5556
1134
0236
cafe
3c03
5556
1134
017d
cafe
2013
5556
1138
0153
cafe
240c
5556
1138
01df
cafe
281c
5556
1138
0172
cafe
2c04
5556
1138
01b0
cafe
3014
5556
113c
0149
cafe
340d
5556
113c
01dd
cafe
381d
5556
113c
00b9
cafe
3c05
5556
113c
01c8
cafe
2015
5556
1140
01a2
cafe
240e
5556
1140
0200
cafe
281e
5556
1140
01b1
cafe
2c06
5556
1140
01a0
cafe
3016
5556
1144
015f
cafe
340f
5556
1144
0239
cafe
381f
5556
1144
012e
cafe
3c07
5556
1144
0228
cafe
2017
5556
1148
00d4
cafe
-
2408
5556
1148
018d
cafe
2818
5556
1148
01ae
cafe
2c00
5556
1148
01bd
cafe
3010
5556
114c
01c7
cafe
3409
5556
114c
0145
cafe
3819
5556
114c
0099
cafe
3c01
5556
114c
0142
cafe
2011
5556
1150
0182
cafe
240a
5556
1150
0191
cafe
281a
5556
1150
0152
cafe
2c02
5556
1150
014d
cafe
3012
5556
1154
0181
cafe
340b
5556
1154
01c8
cafe
381b
5556
1154
023e
cafe
3c03
5556
1154
017e
cafe
2013
5556
1158
0154
cafe
240c
5556
1158
01df
cafe
281c
5556
1158
0173
cafe
2c04
5556
1158
01ac
cafe
3014
5556
115c
014b
cafe
340d
5556
115c
01db
cafe
381d
5556
115c
00b7
cafe
3c05
5556
115c
01ce
cafe
2015
5556
1160
01a2
cafe
240e
5556
1160
0207
cafe
281e
5556
1160
01ad
cafe
2c06
5556
1160
0197
cafe
3016
5556
1164
0160
cafe
340f
5556
1164
023d
cafe
381f
5556
1164
0130
cafe
3c07
5556
1164
022b
cafe
2017
5556
1168
00d3
cafe
2408
5556
1168
0193
cafe
2818
5556
1168
01ac
cafe
2c00
5556
1168
01bb
cafe
3010
5556
116c
01c8
cafe
3409
5556
116c
0142
cafe
3819
5556
116c
009a
cafe
3c01
5556
116c
0146
cafe
2011
5556
1170
0186
cafe
240a
5556
1170
0191
cafe
281a
5556
1170
014f
cafe
2c02
5556
1170
014a
cafe
3012
5556
1174
0186
cafe
340b
5556
1174
01c4
cafe
381b
5556
1174
023e
cafe
3c03
5556
1174
017c
cafe
2013
5556
1178
014c
cafe
240c
5556
1178
01da
cafe
281c
5556
1178
0175
cafe
2c04
5556
1178
01a7
cafe
3014
-
5556
117c
014a
cafe
340d
5556
117c
01db
cafe
381d
5556
117c
00bc
cafe
3c05
5556
117c
01d0
cafe
2015
5556
1180
01a2
cafe
240e
5556
1180
0205
cafe
281e
5556
1180
01ac
cafe
2c06
5556
1180
0192
cafe
3016
5556
1184
015f
cafe
340f
5556
1184
023b
cafe
381f
5556
1184
012c
cafe
3c07
5556
1184
0231
cafe
2017
5556
1188
00d4
cafe
2408
5556
1188
0191
cafe
2818
5556
1188
01af
cafe
2c00
5556
1188
01b8
cafe
3010
5556
118c
01c6
cafe
3409
5556
118c
0144
cafe
3819
5556
118c
0098
cafe
3c01
5556
118c
0144
cafe
2011
5556
1190
0184
cafe
240a
5556
1190
018e
cafe
281a
5556
1190
0150
cafe
2c02
5556
1190
014c
cafe
3012
5556
1194
0184
cafe
340b
5556
1194
01c1
cafe
381b
5556
1194
0239
cafe
3c03
5556
1194
017e
cafe
2013
5556
1198
014c
cafe
240c
5556
1198
01de
cafe
281c
5556
1198
0176
cafe
2c04
5556
1198
01a2
cafe
3014
5556
119c
014d
cafe
340d
5556
119c
01df
cafe
381d
5556
119c
00ba
cafe
3c05
5556
119c
01cb
cafe
2015
5556
11a0
01a6
cafe
240e
5556
11a0
0202
cafe
281e
5556
11a0
01b2
cafe
2c06
5556
11a0
0193
cafe
3016
5556
11a4
015a
cafe
340f
5556
11a4
0245
cafe
381f
5556
11a4
0128
cafe
3c07
5556
11a4
022e
cafe
2017
5556
11a8
00d7
cafe
2408
5556
11a8
019b
cafe
2818
5556
11a8
01ad
cafe
2c00
5556
11a8
01af
cafe
3010
5556
11ac
01c6
cafe
3409
5556
11ac
0146
cafe
3819
5556
11ac
0097
cafe
3c01
5556
-
11ac
0144
cafe
2011
5556
11b0
0185
cafe
240a
5556
11b0
018c
cafe
281a
5556
11b0
014f
cafe
2c02
5556
11b0
014c
cafe
3012
5556
11b4
0182
cafe
340b
5556
11b4
01bc
cafe
381b
5556
11b4
0234
cafe
3c03
5556
11b4
0182
cafe
2013
5556
11b8
0149
cafe
240c
5556
11b8
01d9
cafe
281c
5556
11b8
0170
cafe
2c04
5556
11b8
019e
cafe
3014
5556
11bc
0141
cafe
340d
5556
11bc
01de
cafe
381d
5556
11bc
00bd
cafe
3c05
5556
11bc
01c3
cafe
2015
5556
11c0
01a7
cafe
240e
5556
11c0
0203
cafe
281e
5556
11c0
01af
cafe
2c06
5556
11c0
0193
cafe
3016
5556
11c4
015f
cafe
340f
5556
11c4
0249
cafe
381f
5556
11c4
0122
cafe
3c07
5556
11c4
0232
cafe
2017
5556
11c8
00da
cafe
2408
5556
11c8
019a
cafe
2818
5556
11c8
01b0
cafe
2c00
5556
11c8
01ac
cafe
3010
5556
11cc
01bc
cafe
3409
5556
11cc
0148
cafe
3819
5556
11cc
0094
cafe
3c01
5556
11cc
0142
cafe
2011
5556
11d0
0189
cafe
240a
5556
11d0
0189
cafe
281a
5556
11d0
0151
cafe
2c02
5556
11d0
014c
cafe
3012
5556
11d4
0179
cafe
340b
5556
11d4
01c0
cafe
381b
5556
11d4
0237
cafe
3c03
5556
11d4
0180
cafe
2013
5556
11d8
014c
cafe
240c
5556
11d8
01d4
cafe
281c
5556
11d8
0174
cafe
2c04
5556
11d8
019f
cafe
3014
5556
11dc
013a
cafe
340d
5556
11dc
01e1
cafe
381d
5556
11dc
00ba
cafe
3c05
5556
11dc
01ca
cafe
2015
5556
11e0
01a9
cafe
240e
5556
11e0
01fc
cafe
281e
5556
11e0
-
01af
cafe
2c06
5556
11e0
0195
cafe
3016
5556
11e4
015e
cafe
340f
5556
11e4
024d
cafe
381f
5556
11e4
0123
cafe
3c07
5556
11e4
0232
cafe
2017
5556
11e8
00db
cafe
2408
5556
11e8
0194
cafe
2818
5556
11e8
01b6
cafe
2c00
5556
11e8
01af
cafe
3010
5556
11ec
01b8
cafe
3409
5556
11ec
0146
cafe
3819
5556
11ec
0094
cafe
3c01
5556
11ec
013e
cafe
2011
5556
11f0
018e
cafe
240a
5556
11f0
018b
cafe
281a
5556
11f0
014f
cafe
2c02
5556
11f0
014d
cafe
3012
5556
11f4
0175
cafe
340b
5556
11f4
01bb
cafe
381b
5556
11f4
0237
cafe
3c03
5556
11f4
0182
cafe
2013
5556
11f8
0154
cafe
240c
5556
11f8
01d9
cafe
281c
5556
11f8
016d
cafe
2c04
5556
11f8
0197
cafe
3014
5556
11fc
013c
cafe
340d
5556
11fc
01e3
cafe
381d
5556
11fc
00bd
cafe
3c05
5556
11fc
01ca
cafe
2015
5556
1200
01aa
cafe
240e
5556
1200
01fa
cafe
281e
5556
1200
01b0
cafe
2c06
5556
1200
019a
cafe
3016
5556
1204
015c
cafe
340f
5556
1204
024f
cafe
381f
5556
1204
0128
cafe
3c07
5556
1204
0234
cafe
2017
5556
1208
00e6
cafe
2408
5556
1208
0194
cafe
2818
5556
1208
01b7
cafe
2c00
5556
1208
01b4
cafe
3010
5556
120c
01b6
cafe
3409
5556
120c
0148
cafe
3819
5556
120c
0094
cafe
3c01
5556
120c
013f
cafe
2011
5556
1210
018e
cafe
240a
5556
1210
0190
cafe
281a
5556
1210
014b
cafe
2c02
5556
1210
014c
cafe
3012
5556
1214
0178
cafe
340b
5556
1214
01bb
-
cafe
381b
5556
1214
023a
cafe
3c03
5556
1214
017c
cafe
2013
5556
1218
0150
cafe
240c
5556
1218
01d1
cafe
281c
5556
1218
0169
cafe
2c04
5556
1218
01a2
cafe
3014
5556
121c
013d
cafe
340d
5556
121c
01e5
cafe
381d
5556
121c
00be
cafe
3c05
5556
121c
01c4
cafe
2015
5556
1220
01a5
cafe
240e
5556
1220
01f7
cafe
281e
5556
1220
01b4
cafe
2c06
5556
1220
019e
cafe
3016
5556
1224
015a
cafe
340f
5556
1224
024c
cafe
381f
5556
1224
0126
cafe
3c07
5556
1224
0230
cafe
2017
5556
1228
00e9
cafe
2408
5556
1228
018e
cafe
2818
5556
1228
01b4
cafe
2c00
5556
1228
01ba
cafe
3010
5556
122c
01c0
cafe
3409
5556
122c
0148
cafe
3819
5556
122c
0094
cafe
3c01
5556
122c
0138
cafe
2011
5556
1230
0186
cafe
240a
5556
1230
0191
cafe
281a
5556
1230
014c
cafe
2c02
5556
1230
0147
cafe
3012
5556
1234
017a
cafe
340b
5556
1234
01c0
cafe
381b
5556
1234
023a
cafe
3c03
5556
1234
017f
cafe
2013
5556
1238
0152
cafe
240c
5556
1238
01d3
cafe
281c
5556
1238
0167
cafe
2c04
5556
1238
019f
cafe
3014
5556
123c
013c
cafe
340d
5556
123c
01e4
cafe
381d
5556
123c
00c5
cafe
3c05
5556
123c
01cb
cafe
2015
5556
1240
01a6
cafe
240e
5556
1240
01f7
cafe
281e
5556
1240
01b8
cafe
2c06
5556
1240
019b
cafe
3016
5556
1244
015a
cafe
340f
5556
1244
0248
cafe
381f
5556
1244
0128
cafe
3c07
5556
1244
022f
cafe
2017
5556
1248
00e6
cafe
-
2408
5556
1248
0194
cafe
2818
5556
1248
01af
cafe
2c00
5556
1248
01b9
cafe
3010
5556
124c
01bb
cafe
3409
5556
124c
0145
cafe
3819
5556
124c
0095
cafe
3c01
5556
124c
0131
cafe
2011
5556
1250
0186
cafe
240a
5556
1250
0196
cafe
281a
5556
1250
0148
cafe
2c02
5556
1250
014b
cafe
3012
5556
1254
0180
cafe
340b
5556
1254
01c0
cafe
381b
5556
1254
0239
cafe
3c03
5556
1254
017b
cafe
2013
5556
1258
014d
cafe
240c
5556
1258
01d8
cafe
281c
5556
1258
0167
cafe
2c04
5556
1258
019c
cafe
3014
5556
125c
0140
cafe
340d
5556
125c
01df
cafe
381d
5556
125c
00c9
cafe
3c05
5556
125c
01cb
cafe
2015
5556
1260
01a2
cafe
240e
5556
1260
01f4
cafe
281e
5556
1260
01ba
cafe
2c06
5556
1260
019c
cafe
3016
5556
1264
015b
cafe
340f
5556
1264
024a
cafe
381f
5556
1264
0128
cafe
3c07
5556
1264
0230
cafe
2017
5556
1268
00dc
cafe
2408
5556
1268
0195
cafe
2818
5556
1268
01ac
cafe
2c00
5556
1268
01b9
cafe
3010
5556
126c
01b6
cafe
3409
5556
126c
013f
cafe
3819
5556
126c
009c
cafe
3c01
5556
126c
0133
cafe
2011
5556
1270
0189
cafe
240a
5556
1270
0193
cafe
281a
5556
1270
0148
cafe
2c02
5556
1270
014a
cafe
3012
5556
1274
0182
cafe
340b
5556
1274
01fd
cafe
381b
5556
1274
0270
cafe
3c03
5556
1274
01ad
cafe
2013
5556
1278
018b
cafe
240c
5556
1278
02a5
cafe
281c
5556
1278
0232
cafe
2c04
5556
1278
026a
cafe
3014
-
5556
127c
020b
cafe
340d
5556
127c
0342
cafe
381d
5556
127c
022d
cafe
3c05
5556
127c
0321
cafe
2015
5556
1280
02fd
cafe
240e
5556
1280
03ea
cafe
281e
5556
1280
03a4
cafe
2c06
5556
1280
0380
cafe
3016
5556
1284
034d
cafe
340f
5556
1284
04b5
cafe
381f
5556
1284
0397
cafe
3c07
5556
1284
0495
cafe
2017
5556
1288
0340
cafe
2408
5556
1288
0471
cafe
2818
5556
1288
0495
cafe
2c00
5556
1288
048e
cafe
3010
5556
128c
049c
cafe
3409
5556
128c
0484
cafe
3819
5556
128c
03dd
cafe
3c01
5556
128c
0465
cafe
2011
5556
1290
04d0
cafe
240a
5556
1290
0542
cafe
281a
5556
1290
04f5
cafe
2c02
5556
1290
04e0
cafe
3012
5556
1294
0532
cafe
340b
5556
1294
05c3
cafe
381b
5556
1294
0637
cafe
3c03
5556
1294
0562
cafe
2013
5556
1298
054a
cafe
240c
5556
1298
062d
cafe
281c
5556
1298
05ba
cafe
2c04
5556
1298
05e4
cafe
3014
5556
129c
058c
cafe
340d
5556
129c
067e
cafe
381d
5556
129c
055d
cafe
3c05
5556
129c
064d
cafe
2015
5556
12a0
0630
cafe
240e
5556
12a0
06e8
cafe
281e
5556
12a0
06a6
cafe
2c06
5556
12a0
0663
cafe
3016
5556
12a4
063d
cafe
340f
5556
12a4
0764
cafe
381f
5556
12a4
0654
cafe
3c07
5556
12a4
073c
cafe
2017
5556
12a8
05ea
cafe
2408
5556
12a8
06ec
cafe
2818
5556
12a8
071c
cafe
2c00
5556
12a8
0704
cafe
3010
5556
12ac
0715
cafe
3409
5556
12ac
06c5
cafe
3819
5556
12ac
061d
cafe
3c01
5556
-
12ac
06a7
cafe
2011
5556
12b0
0719
cafe
240a
5556
12b0
0757
cafe
281a
5556
12b0
070a
cafe
2c02
5556
12b0
06df
cafe
3012
5556
12b4
0746
cafe
340b
5556
12b4
07a3
cafe
381b
5556
12b4
0820
cafe
3c03
5556
12b4
0742
cafe
2013
5556
12b8
072e
cafe
240c
5556
12b8
07ee
cafe
281c
5556
12b8
077c
cafe
2c04
5556
12b8
07a5
cafe
3014
5556
12bc
074a
cafe
340d
5556
12bc
0818
cafe
381d
5556
12bc
06f5
cafe
3c05
5556
12bc
07e0
cafe
2015
5556
12c0
07c7
cafe
240e
5556
12c0
0856
cafe
281e
5556
12c0
0823
cafe
2c06
5556
12c0
07d8
cafe
3016
5556
12c4
07b2
cafe
340f
5556
12c4
08b8
cafe
381f
5556
12c4
07b1
cafe
3c07
5556
12c4
0889
cafe
2017
5556
12c8
073a
cafe
2408
5556
12c8
0829
cafe
2818
5556
12c8
0856
cafe
2c00
5556
12c8
083e
cafe
3010
5556
12cc
084d
cafe
3409
5556
12cc
07dc
cafe
3819
5556
12cc
073a
cafe
3c01
5556
12cc
07c4
cafe
2011
5556
12d0
0837
cafe
240a
5556
12d0
0858
cafe
281a
5556
12d0
080e
cafe
2c02
5556
12d0
07de
cafe
3012
5556
12d4
0844
cafe
340b
5556
12d4
0892
cafe
381b
5556
12d4
090d
cafe
3c03
5556
12d4
0832
cafe
2013
5556
12d8
081e
cafe
240c
5556
12d8
08c9
cafe
281c
5556
12d8
0855
cafe
2c04
5556
12d8
087f
cafe
3014
5556
12dc
0823
cafe
340d
5556
12dc
08e0
cafe
381d
5556
12dc
07bb
cafe
3c05
5556
12dc
089e
cafe
2015
5556
12e0
088c
cafe
240e
5556
12e0
0906
cafe
281e
5556
12e0
-
08e0
cafe
2c06
5556
12e0
088b
cafe
3016
5556
12e4
0868
cafe
340f
5556
12e4
095b
cafe
381f
5556
12e4
0859
cafe
3c07
5556
12e4
092e
cafe
2017
5556
12e8
07d8
cafe
2408
5556
12e8
08bc
cafe
2818
5556
12e8
08e9
cafe
2c00
5556
12e8
08cc
cafe
3010
5556
12ec
08d5
cafe
3409
5556
12ec
0863
cafe
3819
5556
12ec
07c3
cafe
3c01
5556
12ec
084d
cafe
2011
5556
12f0
08bf
cafe
240a
5556
12f0
08cc
cafe
281a
5556
12f0
0889
cafe
2c02
5556
12f0
0856
cafe
3012
5556
12f4
08b8
cafe
340b
5556
12f4
0900
cafe
381b
5556
12f4
0980
cafe
3c03
5556
12f4
08a0
cafe
2013
5556
12f8
0892
cafe
240c
5556
12f8
092d
cafe
281c
5556
12f8
08bb
cafe
2c04
5556
12f8
08e2
cafe
3014
5556
12fc
0884
cafe
340d
5556
12fc
0937
cafe
381d
5556
12fc
0811
cafe
3c05
5556
12fc
08fe
cafe
2015
5556
1300
08e4
cafe
240e
5556
1300
0955
cafe
281e
5556
1300
0931
cafe
2c06
5556
1300
08d4
cafe
3016
5556
1304
08be
cafe
340f
5556
1304
09a8
cafe
381f
5556
1304
08a9
cafe
3c07
5556
1304
0978
cafe
2017
5556
1308
0821
cafe
2408
5556
1308
0901
cafe
2818
5556
1308
092b
cafe
2c00
5556
1308
090c
cafe
3010
5556
130c
091b
cafe
3409
5556
130c
0895
cafe
3819
5556
130c
07fc
cafe
3c01
5556
130c
0889
cafe
2011
5556
1310
08f9
cafe
240a
5556
1310
0903
cafe
281a
5556
1310
08bf
cafe
2c02
5556
1310
088a
cafe
3012
5556
1314
08ef
cafe
340b
5556
1314
092c
-
cafe
381b
5556
1314
09b2
cafe
3c03
5556
1314
08d0
cafe
2013
5556
1318
08be
cafe
240c
5556
1318
0957
cafe
281c
5556
1318
08de
cafe
2c04
5556
1318
0902
cafe
3014
5556
131c
08a7
cafe
340d
5556
131c
0955
cafe
381d
5556
131c
0837
cafe
3c05
5556
131c
091d
cafe
2015
5556
1320
090c
cafe
240e
5556
1320
0974
cafe
281e
5556
1320
094f
cafe
2c06
5556
1320
08f0
cafe
3016
5556
1324
08d3
cafe
340f
5556
1324
09c6
cafe
381f
5556
1324
08b8
cafe
3c07
5556
1324
0997
cafe
2017
5556
1328
083d
cafe
2408
5556
1328
0914
cafe
2818
5556
1328
0941
cafe
2c00
5556
1328
091d
cafe
3010
5556
132c
092a
cafe
3409
5556
132c
08ae
cafe
3819
5556
132c
080e
cafe
3c01
5556
132c
0896
cafe
2011
5556
1330
0905
cafe
240a
5556
1330
090c
cafe
281a
5556
1330
08c7
cafe
2c02
5556
1330
0890
cafe
3012
5556
1334
08f8
cafe
340b
5556
1334
0933
cafe
381b
5556
1334
09bd
cafe
3c03
5556
1334
08d7
cafe
2013
5556
1338
08cc
cafe
240c
5556
1338
095d
cafe
281c
5556
1338
08e6
cafe
2c04
5556
1338
0906
cafe
3014
5556
133c
08af
cafe
340d
5556
133c
095e
cafe
381d
5556
133c
083f
cafe
3c05
5556
133c
092d
cafe
2015
5556
1340
090f
cafe
240e
5556
1340
0976
cafe
281e
5556
1340
0956
cafe
2c06
5556
1340
08ee
cafe
3016
5556
1344
08d3
cafe
340f
5556
1344
09c6
cafe
381f
5556
1344
08b4
cafe
3c07
5556
1344
099d
cafe
2017
5556
1348
083b
cafe
-
2408
5556
1348
090e
cafe
2818
5556
1348
0941
cafe
2c00
5556
1348
091c
cafe
3010
5556
134c
0929
cafe
3409
5556
134c
08aa
cafe
3819
5556
134c
0809
cafe
3c01
5556
134c
0896
cafe
2011
5556
1350
0900
cafe
240a
5556
1350
0905
cafe
281a
5556
1350
08c8
cafe
2c02
5556
1350
0884
cafe
3012
5556
1354
08f5
cafe
340b
5556
1354
092e
cafe
381b
5556
1354
09af
cafe
3c03
5556
1354
08d3
cafe
2013
5556
1358
08bf
cafe
240c
5556
1358
0951
cafe
281c
5556
1358
08dd
cafe
2c04
5556
1358
08fa
cafe
3014
5556
135c
08a7
cafe
340d
5556
135c
0951
cafe
381d
5556
135c
0833
cafe
3c05
5556
135c
0923
cafe
2015
5556
1360
0907
cafe
240e
5556
1360
0964
cafe
281e
5556
1360
0947
cafe
2c06
5556
1360
08dd
cafe
3016
5556
1364
08c8
cafe
340f
5556
1364
09bf
cafe
381f
5556
1364
08a8
cafe
3c07
5556
1364
0994
cafe
2017
5556
1368
082c
cafe
2408
5556
1368
0904
cafe
2818
5556
1368
0938
cafe
2c00
5556
1368
0910
cafe
3010
5556
136c
0922
cafe
3409
5556
136c
089e
cafe
3819
5556
136c
07f6
cafe
3c01
5556
136c
0888
cafe
2011
5556
1370
08f5
cafe
240a
5556
1370
08fe
cafe
281a
5556
1370
08b2
cafe
2c02
5556
1370
0876
cafe
3012
5556
1374
08e2
cafe
340b
5556
1374
091e
cafe
381b
5556
1374
09a0
cafe
3c03
5556
1374
08c4
cafe
2013
5556
1378
08b1
cafe
240c
5556
1378
0946
cafe
281c
5556
1378
08d0
cafe
2c04
5556
1378
08ee
cafe
3014
-
5556
137c
0898
cafe
340d
5556
137c
093a
cafe
381d
5556
137c
0820
cafe
3c05
5556
137c
0911
cafe
2015
5556
1380
08f7
cafe
240e
5556
1380
0954
cafe
281e
5556
1380
093b
cafe
2c06
5556
1380
08c8
cafe
3016
5556
1384
08ba
cafe
340f
5556
1384
09b4
cafe
381f
5556
1384
0895
cafe
3c07
5556
1384
0984
cafe
2017
5556
1388
081e
cafe
2408
5556
1388
08f5
cafe
2818
5556
1388
0923
cafe
2c00
5556
1388
08ff
cafe
3010
5556
138c
0910
cafe
3409
5556
138c
0888
cafe
3819
5556
138c
07e7
cafe
3c01
5556
138c
0879
cafe
2011
5556
1390
08e7
cafe
240a
5556
1390
08ee
cafe
281a
5556
1390
089c
cafe
2c02
5556
1390
0865
cafe
3012
5556
1394
08c7
cafe
340b
5556
1394
090e
cafe
381b
5556
1394
098d
cafe
3c03
5556
1394
08aa
cafe
2013
5556
1398
089e
cafe
240c
5556
1398
0930
cafe
281c
5556
1398
08bf
cafe
2c04
5556
1398
08e2
cafe
3014
5556
139c
087c
cafe
340d
5556
139c
0923
cafe
381d
5556
139c
0803
cafe
3c05
5556
139c
08fc
cafe
2015
5556
13a0
08eb
cafe
240e
5556
13a0
0945
cafe
281e
5556
13a0
0924
cafe
2c06
5556
13a0
08b3
cafe
3016
5556
13a4
08a8
cafe
340f
5556
13a4
0995
cafe
381f
5556
13a4
0880
cafe
3c07
5556
13a4
096c
cafe
2017
5556
13a8
080a
cafe
2408
5556
13a8
08d6
cafe
2818
5556
13a8
0908
cafe
2c00
5556
13a8
08ee
cafe
3010
5556
13ac
08f7
cafe
3409
5556
13ac
0875
cafe
3819
5556
13ac
07d0
cafe
3c01
5556
-
13ac
0861
cafe
2011
5556
13b0
08d5
cafe
240a
5556
13b0
08d9
cafe
281a
5556
13b0
0887
cafe
2c02
5556
13b0
0844
cafe
3012
5556
13b4
08ad
cafe
340b
5556
13b4
08f7
cafe
381b
5556
13b4
0975
cafe
3c03
5556
13b4
0896
cafe
2013
5556
13b8
0881
cafe
240c
5556
13b8
0913
cafe
281c
5556
13b8
08a6
cafe
2c04
5556
13b8
08cd
cafe
3014
5556
13bc
086b
cafe
340d
5556
13bc
090f
cafe
381d
5556
13bc
07e9
cafe
3c05
5556
13bc
08e3
cafe
2015
5556
13c0
08d4
cafe
240e
5556
13c0
0932
cafe
281e
5556
13c0
090c
cafe
2c06
5556
13c0
089c
cafe
3016
5556
13c4
0893
cafe
340f
5556
13c4
0982
cafe
381f
5556
13c4
086f
cafe
3c07
5556
13c4
0957
cafe
2017
5556
13c8
07ef
cafe
2408
5556
13c8
08bf
cafe
2818
5556
13c8
08f2
cafe
2c00
5556
13c8
08dd
cafe
3010
5556
13cc
08e4
cafe
3409
5556
13cc
085d
cafe
3819
5556
13cc
07b9
cafe
3c01
5556
13cc
0846
cafe
2011
5556
13d0
08be
cafe
240a
5556
13d0
08bf
cafe
281a
5556
13d0
086d
cafe
2c02
5556
13d0
082f
cafe
3012
5556
13d4
0893
cafe
340b
5556
13d4
08e2
cafe
381b
5556
13d4
0962
cafe
3c03
5556
13d4
0880
cafe
2013
5556
13d8
0868
cafe
240c
5556
13d8
08f8
cafe
281c
5556
13d8
088e
cafe
2c04
5556
13d8
08b9
cafe
3014
5556
13dc
0850
cafe
340d
5556
13dc
08f7
cafe
381d
5556
13dc
07ca
cafe
3c05
5556
13dc
08c8
cafe
2015
5556
13e0
08b9
cafe
240e
5556
13e0
091c
cafe
281e
5556
13e0
-
08f4
cafe
2c06
5556
13e0
087d
cafe
3016
5556
13e4
087d
cafe
340f
5556
13e4
0969
cafe
381f
5556
13e4
085a
cafe
3c07
5556
13e4
0944
cafe
2017
5556
13e8
07d6
cafe
2408
5556
13e8
08a2
cafe
2818
5556
13e8
08d7
cafe
2c00
5556
13e8
08c5
cafe
3010
5556
13ec
08d3
cafe
3409
5556
13ec
084a
cafe
3819
5556
13ec
079d
cafe
3c01
5556
13ec
0829
cafe
2011
5556
13f0
08a4
cafe
240a
5556
13f0
08a7
cafe
281a
5556
13f0
084f
cafe
2c02
5556
13f0
0816
cafe
3012
5556
13f4
087b
cafe
340b
5556
13f4
08cd
cafe
381b
5556
13f4
094d
cafe
3c03
5556
13f4
086a
cafe
2013
5556
13f8
084d
cafe
240c
5556
13f8
08df
cafe
281c
5556
13f8
0873
cafe
2c04
5556
13f8
08a5
cafe
3014
5556
13fc
0839
cafe
340d
5556
13fc
08e5
cafe
381d
5556
13fc
07aa
cafe
3c05
5556
13fc
08ae
cafe
2015
5556
1400
08a0
cafe
240e
5556
1400
0906
cafe
281e
5556
1400
08d4
cafe
2c06
5556
1400
0865
cafe
3016
5556
1404
0864
cafe
340f
5556
1404
0955
cafe
381f
5556
1404
083c
cafe
3c07
5556
1404
092f
cafe
2017
5556
1408
07be
cafe
2408
5556
1408
0889
cafe
2818
5556
1408
08c0
cafe
2c00
5556
1408
08a7
cafe
3010
5556
140c
08b6
cafe
3409
5556
140c
0838
cafe
3819
5556
140c
0784
cafe
3c01
5556
140c
0812
cafe
2011
5556
1410
0886
cafe
240a
5556
1410
088b
cafe
281a
5556
1410
083a
cafe
2c02
5556
1410
07fb
cafe
3012
5556
1414
0867
cafe
340b
5556
1414
08b2
-
cafe
381b
5556
1414
0936
cafe
3c03
5556
1414
0857
cafe
2013
5556
1418
0835
cafe
240c
5556
1418
08c7
cafe
281c
5556
1418
0860
cafe
2c04
5556
1418
088e
cafe
3014
5556
141c
081e
cafe
340d
5556
141c
08d0
cafe
381d
5556
141c
078e
cafe
3c05
5556
141c
0898
cafe
2015
5556
1420
088e
cafe
240e
5556
1420
08ed
cafe
281e
5556
1420
08c0
cafe
2c06
5556
1420
084e
cafe
3016
5556
1424
0851
cafe
340f
5556
1424
093a
cafe
381f
5556
1424
081c
cafe
3c07
5556
1424
0917
cafe
2017
5556
1428
07a6
cafe
2408
5556
1428
0870
cafe
2818
5556
1428
089f
cafe
2c00
5556
1428
088f
cafe
3010
5556
142c
08a0
cafe
3409
5556
142c
081c
cafe
3819
5556
142c
076e
cafe
3c01
5556
142c
07f4
cafe
2011
5556
1430
086d
cafe
240a
5556
1430
0870
cafe
281a
5556
1430
0826
cafe
2c02
5556
1430
07e3
cafe
3012
5556
1434
084d
cafe
340b
5556
1434
089e
cafe
381b
5556
1434
091d
cafe
3c03
5556
1434
083f
cafe
2013
5556
1438
081d
cafe
240c
5556
1438
08b0
cafe
281c
5556
1438
084a
cafe
2c04
5556
1438
0873
cafe
3014
5556
143c
080b
cafe
340d
5556
143c
08b4
cafe
381d
5556
143c
0772
cafe
3c05
5556
143c
0882
cafe
2015
5556
1440
086c
cafe
240e
5556
1440
08d2
cafe
281e
5556
1440
08a8
cafe
2c06
5556
1440
0834
cafe
3016
5556
1444
083e
cafe
340f
5556
1444
0924
cafe
381f
5556
1444
0802
cafe
3c07
5556
1444
08fd
cafe
2017
5556
1448
078d
cafe
-
2408
5556
1448
0855
cafe
2818
5556
1448
0889
cafe
2c00
5556
1448
0878
cafe
3010
5556
144c
0884
cafe
3409
5556
144c
0806
cafe
3819
5556
144c
0752
cafe
3c01
5556
144c
07df
cafe
2011
5556
1450
085b
cafe
240a
5556
1450
0857
cafe
281a
5556
1450
080f
cafe
2c02
5556
1450
07c7
cafe
3012
5556
1454
083c
cafe
340b
5556
1454
088a
cafe
381b
5556
1454
0904
cafe
3c03
5556
1454
082a
cafe
2013
5556
1458
0809
cafe
240c
5556
1458
089d
cafe
281c
5556
1458
0833
cafe
2c04
5556
1458
0860
cafe
3014
5556
145c
07f6
cafe
340d
5556
145c
0898
cafe
381d
5556
145c
0758
cafe
3c05
5556
145c
0868
cafe
2015
5556
1460
0852
cafe
240e
5556
1460
08bc
cafe
281e
5556
1460
088b
cafe
2c06
5556
1460
0820
cafe
3016
5556
1464
0824
cafe
340f
5556
1464
090a
cafe
381f
5556
1464
07e8
cafe
3c07
5556
1464
08e2
cafe
2017
5556
1468
076f
cafe
2408
5556
1468
0842
cafe
2818
5556
1468
0876
cafe
2c00
5556
1468
0865
cafe
3010
5556
146c
086c
cafe
3409
5556
146c
07f0
cafe
3819
5556
146c
0737
cafe
3c01
5556
146c
07c2
cafe
2011
5556
1470
0843
cafe
240a
5556
1470
083f
cafe
281a
5556
1470
07f7
cafe
2c02
5556
1470
07b0
cafe
3012
5556
1474
0824
cafe
340b
5556
1474
086d
cafe
381b
5556
1474
08e9
cafe
3c03
5556
1474
0810
cafe
2013
5556
1478
07ee
cafe
240c
5556
1478
088b
cafe
281c
5556
1478
081a
cafe
2c04
5556
1478
0848
cafe
3014
-
5556
147c
07de
cafe
340d
5556
147c
0884
cafe
381d
5556
147c
073a
cafe
3c05
5556
147c
084b
cafe
2015
5556
1480
083b
cafe
240e
5556
1480
08a6
cafe
281e
5556
1480
0870
cafe
2c06
5556
1480
080c
cafe
3016
5556
1484
0811
cafe
340f
5556
1484
08f0
cafe
381f
5556
1484
07d7
cafe
3c07
5556
1484
08c9
cafe
2017
5556
1488
075e
cafe
2408
5556
1488
0824
cafe
2818
5556
1488
0866
cafe
2c00
5556
1488
0853
cafe
3010
5556
148c
0858
cafe
3409
5556
148c
07d5
cafe
3819
5556
148c
0719
cafe
3c01
5556
148c
07ac
cafe
2011
5556
1490
082b
cafe
240a
5556
1490
0827
cafe
281a
5556
1490
07dc
cafe
2c02
5556
1490
0794
cafe
3012
5556
1494
080b
cafe
340b
5556
1494
0853
cafe
381b
5556
1494
08d0
cafe
3c03
5556
1494
07f7
cafe
2013
5556
1498
07cd
cafe
240c
5556
1498
0873
cafe
281c
5556
1498
0804
cafe
2c04
5556
1498
0830
cafe
3014
5556
149c
07c3
cafe
340d
5556
149c
0867
cafe
381d
5556
149c
0722
cafe
3c05
5556
149c
0830
cafe
2015
5556
14a0
081c
cafe
240e
5556
14a0
088a
cafe
281e
5556
14a0
0859
cafe
2c06
5556
14a0
07f8
cafe
3016
5556
14a4
07fd
cafe
340f
5556
14a4
08da
cafe
381f
5556
14a4
07bb
cafe
3c07
5556
14a4
08b2
cafe
2017
5556
14a8
0740
cafe
2408
5556
14a8
080f
cafe
2818
5556
14a8
084d
cafe
2c00
5556
14a8
0839
cafe
3010
5556
14ac
0844
cafe
3409
5556
14ac
07b8
cafe
3819
5556
14ac
06fc
cafe
3c01
5556
-
14ac
0794
cafe
2011
5556
14b0
0815
cafe
240a
5556
14b0
0812
cafe
281a
5556
14b0
07c4
cafe
2c02
5556
14b0
0774
cafe
3012
5556
14b4
07f6
cafe
340b
5556
14b4
0840
cafe
381b
5556
14b4
08bc
cafe
3c03
5556
14b4
07e7
cafe
2013
5556
14b8
07bb
cafe
240c
5556
14b8
0860
cafe
281c
5556
14b8
07e9
cafe
2c04
5556
14b8
081b
cafe
3014
5556
14bc
07b3
cafe
340d
5556
14bc
0847
cafe
381d
5556
14bc
0707
cafe
3c05
5556
14bc
081d
cafe
2015
5556
14c0
0800
cafe
240e
5556
14c0
0870
cafe
281e
5556
14c0
0840
cafe
2c06
5556
14c0
07e0
cafe
3016
5556
14c4
07e4
cafe
340f
5556
14c4
08c3
cafe
381f
5556
14c4
07a2
cafe
3c07
5556
14c4
0897
cafe
2017
5556
14c8
072a
cafe
2408
5556
14c8
07f1
cafe
2818
5556
14c8
0831
cafe
2c00
5556
14c8
081a
cafe
3010
5556
14cc
0824
cafe
3409
5556
14cc
07a3
cafe
3819
5556
14cc
06e6
cafe
3c01
5556
14cc
077f
cafe
2011
5556
14d0
07fe
cafe
240a
5556
14d0
07f9
cafe
281a
5556
14d0
07a8
cafe
2c02
5556
14d0
0757
cafe
3012
5556
14d4
07da
cafe
340b
5556
14d4
082d
cafe
381b
5556
14d4
08a3
cafe
3c03
5556
14d4
07d4
cafe
2013
5556
14d8
07a7
cafe
240c
5556
14d8
0848
cafe
281c
5556
14d8
07d0
cafe
2c04
5556
14d8
0808
cafe
3014
5556
14dc
0792
cafe
340d
5556
14dc
082f
cafe
381d
5556
14dc
06f1
cafe
3c05
5556
14dc
0805
cafe
2015
5556
14e0
07ed
cafe
240e
5556
14e0
085b
cafe
281e
5556
14e0
-
0829
cafe
2c06
5556
14e0
07c6
cafe
3016
5556
14e4
07c6
cafe
340f
5556
14e4
08af
cafe
381f
5556
14e4
078b
cafe
3c07
5556
14e4
087f
cafe
2017
5556
14e8
071b
cafe
2408
5556
14e8
07d6
cafe
2818
5556
14e8
0812
cafe
2c00
5556
14e8
0801
cafe
3010
5556
14ec
0810
cafe
3409
5556
14ec
0789
cafe
3819
5556
14ec
06d8
cafe
3c01
5556
14ec
0769
cafe
2011
5556
14f0
07eb
cafe
240a
5556
14f0
07e5
cafe
281a
5556
14f0
078d
cafe
2c02
5556
14f0
0742
cafe
3012
5556
14f4
07c1
cafe
340b
5556
14f4
081a
cafe
381b
5556
14f4
0895
cafe
3c03
5556
14f4
07c3
cafe
2013
5556
14f8
078d
cafe
240c
5556
14f8
082d
cafe
281c
5556
14f8
07ae
cafe
2c04
5556
14f8
07f2
cafe
3014
5556
14fc
077b
cafe
340d
5556
14fc
081b
cafe
381d
5556
14fc
06d7
cafe
3c05
5556
14fc
07f0
cafe
2015
5556
1500
07d8
cafe
240e
5556
1500
083f
cafe
281e
5556
1500
0812
cafe
2c06
5556
1500
07aa
cafe
3016
5556
1504
07b1
cafe
340f
5556
1504
0895
cafe
381f
5556
1504
0770
cafe
3c07
5556
1504
0872
cafe
2017
5556
1508
0707
cafe
2408
5556
1508
07ba
cafe
2818
5556
1508
07f2
cafe
2c00
5556
1508
07e8
cafe
3010
5556
150c
07f8
cafe
3409
5556
150c
0773
cafe
3819
5556
150c
06c0
cafe
3c01
5556
150c
0750
cafe
2011
5556
1510
07d2
cafe
240a
5556
1510
07c7
cafe
281a
5556
1510
077a
cafe
2c02
5556
1510
0726
cafe
3012
5556
1514
07ae
cafe
340b
5556
1514
0800
-
cafe
381b
5556
1514
087d
cafe
3c03
5556
1514
07aa
cafe
2013
5556
1518
0776
cafe
240c
5556
1518
0815
cafe
281c
5556
1518
0793
cafe
2c04
5556
1518
07de
cafe
3014
5556
151c
0763
cafe
340d
5556
151c
080d
cafe
381d
5556
151c
06c0
cafe
3c05
5556
151c
07d9
cafe
2015
5556
1520
07bf
cafe
240e
5556
1520
082c
cafe
281e
5556
1520
07fe
cafe
2c06
5556
1520
078f
cafe
3016
5556
1524
0799
cafe
340f
5556
1524
0886
cafe
381f
5556
1524
0758
cafe
3c07
5556
1524
0860
cafe
2017
5556
1528
06f4
cafe
2408
5556
1528
07a1
cafe
2818
5556
1528
07d5
cafe
2c00
5556
1528
07d2
cafe
3010
5556
152c
07de
cafe
3409
5556
152c
0760
cafe
3819
5556
152c
06a9
cafe
3c01
5556
152c
0740
cafe
2011
5556
1530
07bc
cafe
240a
5556
1530
07ae
cafe
281a
5556
1530
0763
cafe
2c02
5556
1530
0710
cafe
3012
5556
1534
0796
cafe
340b
5556
1534
07e8
cafe
381b
5556
1534
0861
cafe
3c03
5556
1534
078f
cafe
2013
5556
1538
0764
cafe
240c
5556
1538
07fb
cafe
281c
5556
1538
0776
cafe
2c04
5556
1538
07c7
cafe
3014
5556
153c
0748
cafe
340d
5556
153c
07f2
cafe
381d
5556
153c
06ac
cafe
3c05
5556
153c
07c1
cafe
2015
5556
1540
07ac
cafe
240e
5556
1540
0814
cafe
281e
5556
1540
07ee
cafe
2c06
5556
1540
0776
cafe
3016
5556
1544
0780
cafe
340f
5556
1544
0874
cafe
381f
5556
1544
073f
cafe
3c07
5556
1544
0848
cafe
2017
5556
1548
06df
cafe
-
2408
5556
1548
0787
cafe
2818
5556
1548
07c2
cafe
2c00
5556
1548
07b6
cafe
3010
5556
154c
07c5
cafe
3409
5556
154c
0752
cafe
3819
5556
154c
0690
cafe
3c01
5556
154c
0729
cafe
2011
5556
1550
07a8
cafe
240a
5556
1550
079c
cafe
281a
5556
1550
0742
cafe
2c02
5556
1550
06f6
cafe
3012
5556
1554
0782
cafe
340b
5556
1554
07cd
cafe
381b
5556
1554
0847
cafe
3c03
5556
1554
077a
cafe
2013
5556
1558
0750
cafe
240c
5556
1558
07e8
cafe
281c
5556
1558
0766
cafe
2c04
5556
1558
07b2
cafe
3014
5556
155c
0732
cafe
340d
5556
155c
07da
cafe
381d
5556
155c
0690
cafe
3c05
5556
155c
07ab
cafe
2015
5556
1560
0790
cafe
240e
5556
1560
07f6
cafe
281e
5556
1560
07da
cafe
2c06
5556
1560
0758
cafe
3016
5556
1564
0761
cafe
340f
5556
1564
085f
cafe
381f
5556
1564
0728
cafe
3c07
5556
1564
0832
cafe
2017
5556
1568
06c7
cafe
2408
5556
1568
0773
cafe
2818
5556
1568
07ab
cafe
2c00
5556
1568
07a4
cafe
3010
5556
156c
07b0
cafe
3409
5556
156c
073e
cafe
3819
5556
156c
067c
cafe
3c01
5556
156c
0714
cafe
2011
5556
1570
0793
cafe
240a
5556
1570
0784
cafe
281a
5556
1570
072e
cafe
2c02
5556
1570
06db
cafe
3012
5556
1574
076c
cafe
340b
5556
1574
07b9
cafe
381b
5556
1574
082a
cafe
3c03
5556
1574
0760
cafe
2013
5556
1578
0737
cafe
240c
5556
1578
07d3
cafe
281c
5556
1578
074e
cafe
2c04
5556
1578
0797
cafe
3014
-
5556
157c
0721
cafe
340d
5556
157c
07bc
cafe
381d
5556
157c
0673
cafe
3c05
5556
157c
0796
cafe
2015
5556
1580
077b
cafe
240e
5556
1580
07df
cafe
281e
5556
1580
07c3
cafe
2c06
5556
1580
073b
cafe
3016
5556
1584
074c
cafe
340f
5556
1584
084a
cafe
381f
5556
1584
0710
cafe
3c07
5556
1584
0825
cafe
2017
5556
1588
06ab
cafe
2408
5556
1588
0762
cafe
2818
5556
1588
0792
cafe
2c00
5556
1588
0789
cafe
3010
5556
158c
0799
cafe
3409
5556
158c
0728
cafe
3819
5556
158c
0666
cafe
3c01
5556
158c
06f9
cafe
2011
5556
1590
0773
cafe
240a
5556
1590
0771
cafe
281a
5556
1590
0712
cafe
2c02
5556
1590
06c4
cafe
3012
5556
1594
0753
cafe
340b
5556
1594
07a3
cafe
381b
5556
1594
0818
cafe
3c03
5556
1594
0748
cafe
2013
5556
1598
0722
cafe
240c
5556
1598
07be
cafe
281c
5556
1598
0738
cafe
2c04
5556
1598
0780
cafe
3014
5556
159c
0707
cafe
340d
5556
159c
07a6
cafe
381d
5556
159c
0658
cafe
3c05
5556
159c
0782
cafe
2015
5556
15a0
0766
cafe
240e
5556
15a0
07d1
cafe
281e
5556
15a0
07aa
cafe
2c06
5556
15a0
0721
cafe
3016
5556
15a4
0739
cafe
340f
5556
15a4
0832
cafe
381f
5556
15a4
06f9
cafe
3c07
5556
15a4
0812
cafe
2017
5556
15a8
0692
cafe
2408
5556
15a8
074d
cafe
2818
5556
15a8
077b
cafe
2c00
5556
15a8
0770
cafe
3010
5556
15ac
077f
cafe
3409
5556
15ac
070c
cafe
3819
5556
15ac
064d
cafe
3c01
5556
-
15ac
06e6
cafe
2011
5556
15b0
0763
cafe
240a
5556
15b0
0755
cafe
281a
5556
15b0
06f8
cafe
2c02
5556
15b0
06ae
cafe
3012
5556
15b4
073b
cafe
340b
5556
15b4
0792
cafe
381b
5556
15b4
0807
cafe
3c03
5556
15b4
0737
cafe
2013
5556
15b8
0707
cafe
240c
5556
15b8
079c
cafe
281c
5556
15b8
0727
cafe
2c04
5556
15b8
0767
cafe
3014
5556
15bc
06eb
cafe
340d
5556
15bc
0791
cafe
381d
5556
15bc
0638
cafe
3c05
5556
15bc
076c
cafe
2015
5556
15c0
0752
cafe
240e
5556
15c0
07c2
cafe
281e
5556
15c0
0792
cafe
2c06
5556
15c0
0705
cafe
3016
5556
15c4
0728
cafe
340f
5556
15c4
081b
cafe
381f
5556
15c4
06df
cafe
3c07
5556
15c4
07fe
cafe
2017
5556
15c8
0679
cafe
2408
5556
15c8
0735
cafe
2818
5556
15c8
075f
cafe
2c00
5556
15c8
0758
cafe
3010
5556
15cc
0765
cafe
3409
5556
15cc
06f2
cafe
3819
5556
15cc
0640
cafe
3c01
5556
15cc
06d3
cafe
2011
5556
15d0
0757
cafe
240a
5556
15d0
073f
cafe
281a
5556
15d0
06de
cafe
2c02
5556
15d0
0690
cafe
3012
5556
15d4
0726
cafe
340b
5556
15d4
0781
cafe
381b
5556
15d4
07f2
cafe
3c03
5556
15d4
0726
cafe
2013
5556
15d8
06f2
cafe
240c
5556
15d8
0785
cafe
281c
5556
15d8
0712
cafe
2c04
5556
15d8
0751
cafe
3014
5556
15dc
06da
cafe
340d
5556
15dc
0776
cafe
381d
5556
15dc
0624
cafe
3c05
5556
15dc
0755
cafe
2015
5556
15e0
0734
cafe
240e
5556
15e0
07aa
cafe
281e
5556
15e0
-
077e
cafe
2c06
5556
15e0
06ed
cafe
3016
5556
15e4
070e
cafe
340f
5556
15e4
0803
cafe
381f
5556
15e4
06c5
cafe
3c07
5556
15e4
07e6
cafe
2017
5556
15e8
0661
cafe
2408
5556
15e8
0718
cafe
2818
5556
15e8
074a
cafe
2c00
5556
15e8
0746
cafe
3010
5556
15ec
074e
cafe
3409
5556
15ec
06e5
cafe
3819
5556
15ec
062b
cafe
3c01
5556
15ec
06ba
cafe
2011
5556
15f0
0745
cafe
240a
5556
15f0
0728
cafe
281a
5556
15f0
06c8
cafe
2c02
5556
15f0
0671
cafe
3012
5556
15f4
0710
cafe
340b
5556
15f4
076d
cafe
381b
5556
15f4
07d5
cafe
3c03
5556
15f4
0714
cafe
2013
5556
15f8
06df
cafe
240c
5556
15f8
076d
cafe
281c
5556
15f8
06fa
cafe
2c04
5556
15f8
0743
cafe
3014
5556
15fc
06d0
cafe
340d
5556
15fc
0765
cafe
381d
5556
15fc
060c
cafe
3c05
5556
15fc
073f
cafe
2015
5556
1600
0717
cafe
240e
5556
1600
0792
cafe
281e
5556
1600
0767
cafe
2c06
5556
1600
06d7
cafe
3016
5556
1604
06f5
cafe
340f
5556
1604
07f0
cafe
381f
5556
1604
06a6
cafe
3c07
5556
1604
07d2
cafe
2017
5556
1608
064b
cafe
2408
5556
1608
0700
cafe
2818
5556
1608
0733
cafe
2c00
5556
1608
0731
cafe
3010
5556
160c
073c
cafe
3409
5556
160c
06ce
cafe
3819
5556
160c
0611
cafe
3c01
5556
160c
06a4
cafe
2011
5556
1610
072c
cafe
240a
5556
1610
0714
cafe
281a
5556
1610
06b2
cafe
2c02
5556
1610
064f
cafe
3012
5556
1614
06ff
cafe
340b
5556
1614
0756
-
cafe
381b
5556
1614
07bf
cafe
3c03
5556
1614
0700
cafe
2013
5556
1618
06c8
cafe
240c
5556
1618
074f
cafe
281c
5556
1618
06e7
cafe
2c04
5556
1618
0737
cafe
3014
5556
161c
06c1
cafe
340d
5556
161c
0756
cafe
381d
5556
161c
05f2
cafe
3c05
5556
161c
0726
cafe
2015
5556
1620
06f8
cafe
240e
5556
1620
077f
cafe
281e
5556
1620
0754
cafe
2c06
5556
1620
06bd
cafe
3016
5556
1624
06e2
cafe
340f
5556
1624
07de
cafe
381f
5556
1624
0688
cafe
3c07
5556
1624
07b8
cafe
2017
5556
1628
0632
cafe
2408
5556
1628
06ee
cafe
2818
5556
1628
071f
cafe
2c00
5556
1628
0718
cafe
3010
5556
162c
0727
cafe
3409
5556
162c
06b8
cafe
3819
5556
162c
05fa
cafe
3c01
5556
162c
068e
cafe
2011
5556
1630
0718
cafe
240a
5556
1630
06fe
cafe
281a
5556
1630
06a2
cafe
2c02
5556
1630
0634
cafe
3012
5556
1634
06eb
cafe
340b
5556
1634
0743
cafe
381b
5556
1634
07a8
cafe
3c03
5556
1634
06ea
cafe
2013
5556
1638
06af
cafe
240c
5556
1638
073c
cafe
281c
5556
1638
06c8
cafe
2c04
5556
1638
0720
cafe
3014
5556
163c
06a6
cafe
340d
5556
163c
073a
cafe
381d
5556
163c
05d9
cafe
3c05
5556
163c
0718
cafe
2015
5556
1640
06e8
cafe
240e
5556
1640
076a
cafe
281e
5556
1640
0740
cafe
2c06
5556
1640
06a7
cafe
3016
5556
1644
06cf
cafe
340f
5556
1644
07cd
cafe
381f
5556
1644
0676
cafe
3c07
5556
1644
07a4
cafe
2017
5556
1648
061d
cafe
-
2408
5556
1648
06dd
cafe
2818
5556
1648
0708
cafe
2c00
5556
1648
0705
cafe
3010
5556
164c
0713
cafe
3409
5556
164c
06a1
cafe
3819
5556
164c
05e2
cafe
3c01
5556
164c
0678
cafe
2011
5556
1650
0700
cafe
240a
5556
1650
06e0
cafe
281a
5556
1650
068e
cafe
2c02
5556
1650
061a
cafe
3012
5556
1654
06d1
cafe
340b
5556
1654
0730
cafe
381b
5556
1654
0794
cafe
3c03
5556
1654
06d0
cafe
2013
5556
1658
0696
cafe
240c
5556
1658
0726
cafe
281c
5556
1658
06ac
cafe
2c04
5556
1658
0710
cafe
3014
5556
165c
068a
cafe
340d
5556
165c
0724
cafe
381d
5556
165c
05bf
cafe
3c05
5556
165c
0705
cafe
2015
5556
1660
06d6
cafe
240e
5556
1660
075b
cafe
281e
5556
1660
072c
cafe
2c06
5556
1660
0690
cafe
3016
5556
1664
06bd
cafe
340f
5556
1664
07b6
cafe
381f
5556
1664
0664
cafe
3c07
5556
1664
0790
cafe
2017
5556
1668
060d
cafe
2408
5556
1668
06cc
cafe
2818
5556
1668
06ea
cafe
2c00
5556
1668
06ec
cafe
3010
5556
166c
0705
cafe
3409
5556
166c
0686
cafe
3819
5556
166c
05cc
cafe
3c01
5556
166c
0664
cafe
2011
5556
1670
06e8
cafe
240a
5556
1670
06cf
cafe
281a
5556
1670
067d
cafe
2c02
5556
1670
0606
cafe
3012
5556
1674
06b8
cafe
340b
5556
1674
0718
cafe
381b
5556
1674
077e
cafe
3c03
5556
1674
06c5
cafe
2013
5556
1678
0684
cafe
240c
5556
1678
0716
cafe
281c
5556
1678
069e
cafe
2c04
5556
1678
06f9
cafe
3014
-
5556
167c
066a
cafe
340d
5556
167c
070e
cafe
381d
5556
167c
05a7
cafe
3c05
5556
167c
06eb
cafe
2015
5556
1680
06c4
cafe
240e
5556
1680
0747
cafe
281e
5556
1680
071a
cafe
2c06
5556
1680
0675
cafe
3016
5556
1684
06ae
cafe
340f
5556
1684
07a1
cafe
381f
5556
1684
064c
cafe
3c07
5556
1684
077c
cafe
2017
5556
1688
05f8
cafe
2408
5556
1688
06b8
cafe
2818
5556
1688
06d9
cafe
2c00
5556
1688
06cf
cafe
3010
5556
168c
06ee
cafe
3409
5556
168c
0674
cafe
3819
5556
168c
05b0
cafe
3c01
5556
168c
064c
cafe
2011
5556
1690
06d6
cafe
240a
5556
1690
06be
cafe
281a
5556
1690
0667
cafe
2c02
5556
1690
05ee
cafe
3012
5556
1694
06a2
cafe
340b
5556
1694
0706
cafe
381b
5556
1694
0764
cafe
3c03
5556
1694
06b2
cafe
2013
5556
1698
0674
cafe
240c
5556
1698
0702
cafe
281c
5556
1698
068d
cafe
2c04
5556
1698
06e8
cafe
3014
5556
169c
0656
cafe
340d
5556
169c
06f8
cafe
381d
5556
169c
0590
cafe
3c05
5556
169c
06d4
cafe
2015
5556
16a0
06b4
cafe
240e
5556
16a0
0733
cafe
281e
5556
16a0
0708
cafe
2c06
5556
16a0
0660
cafe
3016
5556
16a4
0698
cafe
340f
5556
16a4
078e
cafe
381f
5556
16a4
0638
cafe
3c07
5556
16a4
0767
cafe
2017
5556
16a8
05e4
cafe
2408
5556
16a8
06a3
cafe
2818
5556
16a8
06bf
cafe
2c00
5556
16a8
06b8
cafe
3010
5556
16ac
06d2
cafe
3409
5556
16ac
0660
cafe
3819
5556
16ac
05a0
cafe
3c01
5556
-
16ac
063b
cafe
2011
5556
16b0
06c5
cafe
240a
5556
16b0
06a8
cafe
281a
5556
16b0
0652
cafe
2c02
5556
16b0
05db
cafe
3012
5556
16b4
068f
cafe
340b
5556
16b4
06f0
cafe
381b
5556
16b4
074c
cafe
3c03
5556
16b4
0699
cafe
2013
5556
16b8
065b
cafe
240c
5556
16b8
06ea
cafe
281c
5556
16b8
0673
cafe
2c04
5556
16b8
06d5
cafe
3014
5556
16bc
0646
cafe
340d
5556
16bc
06e7
cafe
381d
5556
16bc
0575
cafe
3c05
5556
16bc
06bc
cafe
2015
5556
16c0
069c
cafe
240e
5556
16c0
071a
cafe
281e
5556
16c0
06f5
cafe
2c06
5556
16c0
0645
cafe
3016
5556
16c4
0682
cafe
340f
5556
16c4
077a
cafe
381f
5556
16c4
0624
cafe
3c07
5556
16c4
0752
cafe
2017
5556
16c8
05d2
cafe
2408
5556
16c8
0685
cafe
2818
5556
16c8
06a6
cafe
2c00
5556
16c8
06a7
cafe
3010
5556
16cc
06be
cafe
3409
5556
16cc
064f
cafe
3819
5556
16cc
058a
cafe
3c01
5556
16cc
0625
cafe
2011
5556
16d0
06b6
cafe
240a
5556
16d0
0690
cafe
281a
5556
16d0
063c
cafe
2c02
5556
16d0
05c5
cafe
3012
5556
16d4
0679
cafe
340b
5556
16d4
06e1
cafe
381b
5556
16d4
073f
cafe
3c03
5556
16d4
0683
cafe
2013
5556
16d8
0649
cafe
240c
5556
16d8
06d3
cafe
281c
5556
16d8
0660
cafe
2c04
5556
16d8
06bd
cafe
3014
5556
16dc
0632
cafe
340d
5556
16dc
06d4
cafe
381d
5556
16dc
055c
cafe
3c05
5556
16dc
06aa
cafe
2015
5556
16e0
0684
cafe
240e
5556
16e0
0703
cafe
281e
5556
16e0
-
06dc
cafe
2c06
5556
16e0
0634
cafe
3016
5556
16e4
066c
cafe
340f
5556
16e4
0765
cafe
381f
5556
16e4
060c
cafe
3c07
5556
16e4
0741
cafe
2017
5556
16e8
05ba
cafe
2408
5556
16e8
0671
cafe
2818
5556
16e8
068e
cafe
2c00
5556
16e8
068e
cafe
3010
5556
16ec
06ab
cafe
3409
5556
16ec
0634
cafe
3819
5556
16ec
0580
cafe
3c01
5556
16ec
060c
cafe
2011
5556
16f0
06a5
cafe
240a
5556
16f0
0676
cafe
281a
5556
16f0
0627
cafe
2c02
5556
16f0
05ac
cafe
3012
5556
16f4
0663
cafe
340b
5556
16f4
06cb
cafe
381b
5556
16f4
0729
cafe
3c03
5556
16f4
066b
cafe
2013
5556
16f8
0629
cafe
240c
5556
16f8
06c5
cafe
281c
5556
16f8
064b
cafe
2c04
5556
16f8
06a6
cafe
3014
5556
16fc
061d
cafe
340d
5556
16fc
06bc
cafe
381d
5556
16fc
0545
cafe
3c05
5556
16fc
0694
cafe
2015
5556
1700
0670
cafe
240e
5556
1700
06f0
cafe
281e
5556
1700
06c6
cafe
2c06
5556
1700
061e
cafe
3016
5556
1704
0656
cafe
340f
5556
1704
0753
cafe
381f
5556
1704
05f7
cafe
3c07
5556
1704
072e
cafe
2017
5556
1708
05a8
cafe
2408
5556
1708
0659
cafe
2818
5556
1708
0679
cafe
2c00
5556
1708
067c
cafe
3010
5556
170c
0697
cafe
3409
5556
170c
0624
cafe
3819
5556
170c
056c
cafe
3c01
5556
170c
05fb
cafe
2011
5556
1710
0695
cafe
240a
5556
1710
0667
cafe
281a
5556
1710
0614
cafe
2c02
5556
1710
059e
cafe
3012
5556
1714
0654
cafe
340b
5556
1714
06b1
-
cafe
381b
5556
1714
0711
cafe
3c03
5556
1714
0656
cafe
2013
5556
1718
0619
cafe
240c
5556
1718
06af
cafe
281c
5556
1718
0639
cafe
2c04
5556
1718
068b
cafe
3014
5556
171c
0604
cafe
340d
5556
171c
06a6
cafe
381d
5556
171c
0530
cafe
3c05
5556
171c
0682
cafe
2015
5556
1720
0663
cafe
240e
5556
1720
06d8
cafe
281e
5556
1720
06b0
cafe
2c06
5556
1720
060d
cafe
3016
5556
1724
0644
cafe
340f
5556
1724
073f
cafe
381f
5556
1724
05e3
cafe
3c07
5556
1724
071c
cafe
2017
5556
1728
058f
cafe
2408
5556
1728
063e
cafe
2818
5556
1728
0666
cafe
2c00
5556
1728
0669
cafe
3010
5556
172c
0683
cafe
3409
5556
172c
0611
cafe
3819
5556
172c
0558
cafe
3c01
5556
172c
05e7
cafe
2011
5556
1730
067d
cafe
240a
5556
1730
0655
cafe
281a
5556
1730
0600
cafe
2c02
5556
1730
0583
cafe
3012
5556
1734
063f
cafe
340b
5556
1734
06a1
cafe
381b
5556
1734
06fc
cafe
3c03
5556
1734
0643
cafe
2013
5556
1738
0605
cafe
240c
5556
1738
0698
cafe
281c
5556
1738
0627
cafe
2c04
5556
1738
0678
cafe
3014
5556
173c
05f1
cafe
340d
5556
173c
0698
cafe
381d
5556
173c
051d
cafe
3c05
5556
173c
066c
cafe
2015
5556
1740
064a
cafe
240e
5556
1740
06c8
cafe
281e
5556
1740
069b
cafe
2c06
5556
1740
0603
cafe
3016
5556
1744
0630
cafe
340f
5556
1744
0728
cafe
381f
5556
1744
05d2
cafe
3c07
5556
1744
0709
cafe
2017
5556
1748
0578
cafe
-
2408
5556
1748
062c
cafe
2818
5556
1748
0653
cafe
2c00
5556
1748
065c
cafe
3010
5556
174c
0673
cafe
3409
5556
174c
05f5
cafe
3819
5556
174c
054b
cafe
3c01
5556
174c
05c8
cafe
2011
5556
1750
0668
cafe
240a
5556
1750
0648
cafe
281a
5556
1750
05e8
cafe
2c02
5556
1750
0571
cafe
3012
5556
1754
0628
cafe
340b
5556
1754
0684
cafe
381b
5556
1754
06ea
cafe
3c03
5556
1754
0633
cafe
2013
5556
1758
05f9
cafe
240c
5556
1758
0685
cafe
281c
5556
1758
060e
cafe
2c04
5556
1758
0662
cafe
3014
5556
175c
05de
cafe
340d
5556
175c
0687
cafe
381d
5556
175c
0504
cafe
3c05
5556
175c
0657
cafe
2015
5556
1760
0635
cafe
240e
5556
1760
06b0
cafe
281e
5556
1760
0681
cafe
2c06
5556
1760
05f0
cafe
3016
5556
1764
061d
cafe
340f
5556
1764
0717
cafe
381f
5556
1764
05bd
cafe
3c07
5556
1764
06f2
cafe
2017
5556
1768
0564
cafe
2408
5556
1768
0614
cafe
2818
5556
1768
063a
cafe
2c00
5556
1768
064a
cafe
3010
5556
176c
065f
cafe
3409
5556
176c
05e3
cafe
3819
5556
176c
0537
cafe
3c01
5556
176c
05af
cafe
2011
5556
1770
065e
cafe
240a
5556
1770
0634
cafe
281a
5556
1770
05d4
cafe
2c02
5556
1770
0561
cafe
3012
5556
1774
060c
cafe
340b
5556
1774
0671
cafe
381b
5556
1774
06d5
cafe
3c03
5556
1774
061d
cafe
2013
5556
1778
05e3
cafe
240c
5556
1778
066f
cafe
281c
5556
1778
05fb
cafe
2c04
5556
1778
0658
cafe
3014
-
5556
177c
05cb
cafe
340d
5556
177c
0672
cafe
381d
5556
177c
04ee
cafe
3c05
5556
177c
063e
cafe
2015
5556
1780
0624
cafe
240e
5556
1780
069f
cafe
281e
5556
1780
066a
cafe
2c06
5556
1780
05dc
cafe
3016
5556
1784
060d
cafe
340f
5556
1784
0701
cafe
381f
5556
1784
05a9
cafe
3c07
5556
1784
06db
cafe
2017
5556
1788
0553
cafe
2408
5556
1788
0604
cafe
2818
5556
1788
0624
cafe
2c00
5556
1788
0631
cafe
3010
5556
178c
064f
cafe
3409
5556
178c
05d0
cafe
3819
5556
178c
0527
cafe
3c01
5556
178c
059f
cafe
2011
5556
1790
064d
cafe
240a
5556
1790
0626
cafe
281a
5556
1790
05c5
cafe
2c02
5556
1790
054d
cafe
3012
5556
1794
05f7
cafe
340b
5556
1794
0655
cafe
381b
5556
1794
06c6
cafe
3c03
5556
1794
0608
cafe
2013
5556
1798
05d1
cafe
240c
5556
1798
065c
cafe
281c
5556
1798
05e8
cafe
2c04
5556
1798
0645
cafe
3014
5556
179c
05b7
cafe
340d
5556
179c
065a
cafe
381d
5556
179c
04d4
cafe
3c05
5556
179c
062c
cafe
2015
5556
17a0
0611
cafe
240e
5556
17a0
0685
cafe
281e
5556
17a0
0650
cafe
2c06
5556
17a0
05c4
cafe
3016
5556
17a4
05f5
cafe
340f
5556
17a4
06ee
cafe
381f
5556
17a4
0593
cafe
3c07
5556
17a4
06d0
cafe
2017
5556
17a8
053a
cafe
2408
5556
17a8
05f8
cafe
2818
5556
17a8
0610
cafe
2c00
5556
17a8
061e
cafe
3010
5556
17ac
0639
cafe
3409
5556
17ac
05bf
cafe
3819
5556
17ac
0514
cafe
3c01
5556
-
17ac
0590
cafe
2011
5556
17b0
0641
cafe
240a
5556
17b0
060d
cafe
281a
5556
17b0
05b1
cafe
2c02
5556
17b0
0537
cafe
3012
5556
17b4
05e3
cafe
340b
5556
17b4
0647
cafe
381b
5556
17b4
06b2
cafe
3c03
5556
17b4
05f5
cafe
2013
5556
17b8
05c4
cafe
240c
5556
17b8
064a
cafe
281c
5556
17b8
05ce
cafe
2c04
5556
17b8
0635
cafe
3014
5556
17bc
059f
cafe
340d
5556
17bc
0644
cafe
381d
5556
17bc
04c4
cafe
3c05
5556
17bc
0618
cafe
2015
5556
17c0
05fb
cafe
240e
5556
17c0
0678
cafe
281e
5556
17c0
0638
cafe
2c06
5556
17c0
05b0
cafe
3016
5556
17c4
05e6
cafe
340f
5556
17c4
06d9
cafe
381f
5556
17c4
0582
cafe
3c07
5556
17c4
06c0
cafe
2017
5556
17c8
052a
cafe
2408
5556
17c8
05e7
cafe
2818
5556
17c8
05fb
cafe
2c00
5556
17c8
0609
cafe
3010
5556
17cc
0627
cafe
3409
5556
17cc
05a6
cafe
3819
5556
17cc
0502
cafe
3c01
5556
17cc
057d
cafe
2011
5556
17d0
0627
cafe
240a
5556
17d0
05fc
cafe
281a
5556
17d0
059b
cafe
2c02
5556
17d0
051d
cafe
3012
5556
17d4
05d6
cafe
340b
5556
17d4
0632
cafe
381b
5556
17d4
06a1
cafe
3c03
5556
17d4
05e4
cafe
2013
5556
17d8
05ad
cafe
240c
5556
17d8
063c
cafe
281c
5556
17d8
05b9
cafe
2c04
5556
17d8
0624
cafe
3014
5556
17dc
058b
cafe
340d
5556
17dc
0628
cafe
381d
5556
17dc
04b1
cafe
3c05
5556
17dc
0602
cafe
2015
5556
17e0
05e6
cafe
240e
5556
17e0
065f
cafe
281e
5556
17e0
-
0625
cafe
2c06
5556
17e0
059b
cafe
3016
5556
17e4
05ce
cafe
340f
5556
17e4
06c9
cafe
381f
5556
17e4
056e
cafe
3c07
5556
17e4
06ae
cafe
2017
5556
17e8
051b
cafe
2408
5556
17e8
05d0
cafe
2818
5556
17e8
05eb
cafe
2c00
5556
17e8
05f6
cafe
3010
5556
17ec
0615
cafe
3409
5556
17ec
0595
cafe
3819
5556
17ec
04ea
cafe
3c01
5556
17ec
0570
cafe
2011
5556
17f0
0611
cafe
240a
5556
17f0
05ed
cafe
281a
5556
17f0
0583
cafe
2c02
5556
17f0
050e
cafe
3012
5556
17f4
05c2
cafe
340b
5556
17f4
0622
cafe
381b
5556
17f4
0692
cafe
3c03
5556
17f4
05cf
cafe
2013
5556
17f8
059c
cafe
240c
5556
17f8
062a
cafe
281c
5556
17f8
05a6
cafe
2c04
5556
17f8
0610
cafe
3014
5556
17fc
0575
cafe
340d
5556
17fc
060f
cafe
381d
5556
17fc
04a0
cafe
3c05
5556
17fc
05f6
cafe
2015
5556
1800
05d0
cafe
240e
5556
1800
0653
cafe
281e
5556
1800
0613
cafe
2c06
5556
1800
0588
cafe
3016
5556
1804
05c0
cafe
340f
5556
1804
06bb
cafe
381f
5556
1804
0554
cafe
3c07
5556
1804
069d
cafe
2017
5556
1808
050a
cafe
2408
5556
1808
05bc
cafe
2818
5556
1808
05dc
cafe
2c00
5556
1808
05e5
cafe
3010
5556
180c
0600
cafe
3409
5556
180c
057b
cafe
3819
5556
180c
04da
cafe
3c01
5556
180c
055e
cafe
2011
5556
1810
0605
cafe
240a
5556
1810
05da
cafe
281a
5556
1810
0563
cafe
2c02
5556
1810
04fc
cafe
3012
5556
1814
05b6
cafe
340b
5556
1814
0612
-
cafe
381b
5556
1814
0685
cafe
3c03
5556
1814
05bd
cafe
2013
5556
1818
058b
cafe
240c
5556
1818
0614
cafe
281c
5556
1818
0598
cafe
2c04
5556
1818
05fd
cafe
3014
5556
181c
0566
cafe
340d
5556
181c
0602
cafe
381d
5556
181c
0494
cafe
3c05
5556
181c
05de
cafe
2015
5556
1820
05b8
cafe
240e
5556
1820
0633
cafe
281e
5556
1820
0600
cafe
2c06
5556
1820
056e
cafe
3016
5556
1824
05ac
cafe
340f
5556
1824
06ae
cafe
381f
5556
1824
0545
cafe
3c07
5556
1824
0689
cafe
2017
5556
1828
04f4
cafe
2408
5556
1828
05a6
cafe
2818
5556
1828
05c6
cafe
2c00
5556
1828
05d0
cafe
3010
5556
182c
05ea
cafe
3409
5556
182c
056e
cafe
3819
5556
182c
04c3
cafe
3c01
5556
182c
054b
cafe
2011
5556
1830
05f4
cafe
240a
5556
1830
05cc
cafe
281a
5556
1830
0552
cafe
2c02
5556
1830
04e8
cafe
3012
5556
1834
05a4
cafe
340b
5556
1834
05fc
cafe
381b
5556
1834
066e
cafe
3c03
5556
1834
05a8
cafe
2013
5556
1838
057a
cafe
240c
5556
1838
0600
cafe
281c
5556
1838
0583
cafe
2c04
5556
1838
05f2
cafe
3014
5556
183c
0556
cafe
340d
5556
183c
05f2
cafe
381d
5556
183c
0480
cafe
3c05
5556
183c
05c8
cafe
2015
5556
1840
05aa
cafe
240e
5556
1840
0623
cafe
281e
5556
1840
05eb
cafe
2c06
5556
1840
0558
cafe
3016
5556
1844
0590
cafe
340f
5556
1844
0697
cafe
381f
5556
1844
0529
cafe
3c07
5556
1844
067a
cafe
2017
5556
1848
04e1
cafe
-
