3c0f
5556
0864
0125
cafe
201f
5556
0864
0153
cafe
2407
5556
0864
0191
cafe
2817
5556
0868
01c3
cafe
2c08
5556
0868
020b
cafe
3018
5556
0868
0190
cafe
3400
5556
0868
01bb
cafe
3810
5556
086c
01b9
cafe
3c09
5556
086c
01f5
cafe
2019
5556
086c
019f
cafe
2401
5556
086c
01d4
cafe
2811
5556
0870
01ac
cafe
2c0a
5556
0870
01d3
cafe
301a
5556
0870
0238
cafe
3402
5556
0870
0201
cafe
3812
5556
0874
018e
cafe
3c0b
5556
0874
01e3
cafe
201b
5556
0874
0102
cafe
2403
5556
0874
01bd
cafe
2813
5556
0878
0103
cafe
2c0c
5556
0878
01b2
cafe
301c
5556
0878
0160
cafe
3404
5556
0878
0203
cafe
3814
5556
087c
015a
cafe
3c0d
5556
087c
01c8
cafe
201d
5556
087c
00fa
cafe
2405
5556
087c
0246
cafe
2815
5556
0880
011a
cafe
2c0e
5556
0880
015e
cafe
301e
5556
0880
0137
cafe
3406
5556
0880
0225
cafe
3816
5556
0884
013d
cafe
3c0f
5556
0884
012b
cafe
201f
5556
0884
0151
cafe
2407
5556
0884
018e
cafe
2817
5556
0888
01c0
cafe
2c08
5556
0888
0202
cafe
3018
5556
0888
0194
cafe
3400
5556
0888
01c6
cafe
3810
5556
088c
01b1
cafe
3c09
5556
088c
01f7
cafe
2019
5556
088c
019b
cafe
2401
5556
088c
01d2
cafe
2811
5556
0890
01a8
cafe
2c0a
5556
0890
01d3
cafe
301a
5556
0890
0237
cafe
3402
5556
0890
01f8
cafe
3812
5556
0894
0193
cafe
3c0b
5556
0894
01e4
cafe
201b
5556
0894
0101
cafe
2403
5556
0894
01bc
cafe
2813
-
5556
0898
0100
cafe
2c0c
5556
0898
01b1
cafe
301c
5556
0898
015d
cafe
3404
5556
0898
0201
cafe
3814
5556
089c
015e
cafe
3c0d
5556
089c
01c5
cafe
201d
5556
089c
00fb
cafe
2405
5556
089c
0245
cafe
2815
5556
08a0
0116
cafe
2c0e
5556
08a0
0160
cafe
301e
5556
08a0
0142
cafe
3406
5556
08a0
022f
cafe
3816
5556
08a4
0147
cafe
3c0f
5556
08a4
0128
cafe
201f
5556
08a4
014c
cafe
2407
5556
08a4
0187
cafe
2817
5556
08a8
01b9
cafe
2c08
5556
08a8
01ff
cafe
3018
5556
08a8
0198
cafe
3400
5556
08a8
01c7
cafe
3810
5556
08ac
01a9
cafe
3c09
5556
08ac
01fd
cafe
2019
5556
08ac
019b
cafe
2401
5556
08ac
01d9
cafe
2811
5556
08b0
01ad
cafe
2c0a
5556
08b0
01d8
cafe
301a
5556
08b0
0234
cafe
3402
5556
08b0
01f6
cafe
3812
5556
08b4
018a
cafe
3c0b
5556
08b4
01e7
cafe
201b
5556
08b4
00fa
cafe
2403
5556
08b4
01b9
cafe
2813
5556
08b8
0104
cafe
2c0c
5556
08b8
01b5
cafe
301c
5556
08b8
0150
cafe
3404
5556
08b8
01f9
cafe
3814
5556
08bc
015a
cafe
3c0d
5556
08bc
01c2
cafe
201d
5556
08bc
0109
cafe
2405
5556
08bc
0242
cafe
2815
5556
08c0
0114
cafe
2c0e
5556
08c0
0161
cafe
301e
5556
08c0
013f
cafe
3406
5556
08c0
0234
cafe
3816
5556
08c4
0143
cafe
3c0f
5556
08c4
012b
cafe
201f
5556
08c4
014e
cafe
2407
5556
08c4
0193
cafe
2817
5556
08c8
01b8
cafe
2c08
5556
08c8
01fb
cafe
3018
5556
08c8
019c
cafe
3400
5556
-
08c8
01c1
cafe
3810
5556
08cc
01aa
cafe
3c09
5556
08cc
01f3
cafe
2019
5556
08cc
019c
cafe
2401
5556
08cc
01d0
cafe
2811
5556
08d0
01aa
cafe
2c0a
5556
08d0
01d5
cafe
301a
5556
08d0
0234
cafe
3402
5556
08d0
01f9
cafe
3812
5556
08d4
018e
cafe
3c0b
5556
08d4
01df
cafe
201b
5556
08d4
00fa
cafe
2403
5556
08d4
01c8
cafe
2813
5556
08d8
0104
cafe
2c0c
5556
08d8
01ae
cafe
301c
5556
08d8
014e
cafe
3404
5556
08d8
01f8
cafe
3814
5556
08dc
0155
cafe
3c0d
5556
08dc
01c3
cafe
201d
5556
08dc
0108
cafe
2405
5556
08dc
0242
cafe
2815
5556
08e0
011c
cafe
2c0e
5556
08e0
015b
cafe
301e
5556
08e0
0140
cafe
3406
5556
08e0
0232
cafe
3816
5556
08e4
0144
cafe
3c0f
5556
08e4
0137
cafe
201f
5556
08e4
014a
cafe
2407
5556
08e4
0193
cafe
2817
5556
08e8
01bd
cafe
2c08
5556
08e8
01fc
cafe
3018
5556
08e8
01a0
cafe
3400
5556
08e8
01bf
cafe
3810
5556
08ec
01a5
cafe
3c09
5556
08ec
01fb
cafe
2019
5556
08ec
019d
cafe
2401
5556
08ec
01cb
cafe
2811
5556
08f0
01ae
cafe
2c0a
5556
08f0
01d3
cafe
301a
5556
08f0
0235
cafe
3402
5556
08f0
01fa
cafe
3812
5556
08f4
0197
cafe
3c0b
5556
08f4
01e0
cafe
201b
5556
08f4
00fc
cafe
2403
5556
08f4
01cd
cafe
2813
5556
08f8
0104
cafe
2c0c
5556
08f8
01ae
cafe
301c
5556
08f8
0155
cafe
3404
5556
08f8
01f4
cafe
3814
5556
08fc
0151
cafe
3c0d
5556
08fc
01c4
cafe
201d
5556
08fc
-
0107
cafe
2405
5556
08fc
023c
cafe
2815
5556
0900
0117
cafe
2c0e
5556
0900
015b
cafe
301e
5556
0900
013a
cafe
3406
5556
0900
022c
cafe
3816
5556
0904
013f
cafe
3c0f
5556
0904
0136
cafe
201f
5556
0904
014c
cafe
2407
5556
0904
019b
cafe
2817
5556
0908
01bf
cafe
2c08
5556
0908
0200
cafe
3018
5556
0908
01a0
cafe
3400
5556
0908
01b7
cafe
3810
5556
090c
01a3
cafe
3c09
5556
090c
01fb
cafe
2019
5556
090c
01a9
cafe
2401
5556
090c
01cf
cafe
2811
5556
0910
01af
cafe
2c0a
5556
0910
01db
cafe
301a
5556
0910
0232
cafe
3402
5556
0910
01f8
cafe
3812
5556
0914
0194
cafe
3c0b
5556
0914
01d3
cafe
201b
5556
0914
0101
cafe
2403
5556
0914
01ca
cafe
2813
5556
0918
010c
cafe
2c0c
5556
0918
01af
cafe
301c
5556
0918
014f
cafe
3404
5556
0918
01f3
cafe
3814
5556
091c
0154
cafe
3c0d
5556
091c
01cc
cafe
201d
5556
091c
0104
cafe
2405
5556
091c
0240
cafe
2815
5556
0920
0114
cafe
2c0e
5556
0920
0153
cafe
301e
5556
0920
0138
cafe
3406
5556
0920
0229
cafe
3816
5556
0924
0143
cafe
3c0f
5556
0924
0132
cafe
201f
5556
0924
0156
cafe
2407
5556
0924
019b
cafe
2817
5556
0928
01b6
cafe
2c08
5556
0928
01fe
cafe
3018
5556
0928
0193
cafe
3400
5556
0928
01b8
cafe
3810
5556
092c
01a0
cafe
3c09
5556
092c
01fd
cafe
2019
5556
092c
01a7
cafe
2401
5556
092c
01ce
cafe
2811
5556
0930
01b1
cafe
2c0a
5556
0930
01e3
-
cafe
301a
5556
0930
0230
cafe
3402
5556
0930
01fc
cafe
3812
5556
0934
0194
cafe
3c0b
5556
0934
01d4
cafe
201b
5556
0934
0101
cafe
2403
5556
0934
01ce
cafe
2813
5556
0938
0108
cafe
2c0c
5556
0938
01ab
cafe
301c
5556
0938
014f
cafe
3404
5556
0938
01fe
cafe
3814
5556
093c
015c
cafe
3c0d
5556
093c
01d6
cafe
201d
5556
093c
0103
cafe
2405
5556
093c
023c
cafe
2815
5556
0940
0118
cafe
2c0e
5556
0940
015d
cafe
301e
5556
0940
0135
cafe
3406
5556
0940
022a
cafe
3816
5556
0944
0140
cafe
3c0f
5556
0944
0132
cafe
201f
5556
0944
015c
cafe
2407
5556
0944
019c
cafe
2817
5556
0948
01bd
cafe
2c08
5556
0948
0200
cafe
3018
5556
0948
0195
cafe
3400
5556
0948
01bb
cafe
3810
5556
094c
01a3
cafe
3c09
5556
094c
01fa
cafe
2019
5556
094c
01b3
cafe
2401
5556
094c
01d1
cafe
2811
5556
0950
01a9
cafe
2c0a
5556
0950
01d1
cafe
301a
5556
0950
0231
cafe
3402
5556
0950
01f9
cafe
3812
5556
0954
0194
cafe
3c0b
5556
0954
01d4
cafe
201b
5556
0954
00fc
cafe
2403
5556
0954
01cb
cafe
2813
5556
0958
0103
cafe
2c0c
5556
0958
01ad
cafe
301c
5556
0958
0152
cafe
3404
5556
0958
0204
cafe
3814
5556
095c
015c
cafe
3c0d
5556
095c
01d2
cafe
201d
5556
095c
0102
cafe
2405
5556
095c
023c
cafe
2815
5556
0960
0119
cafe
2c0e
5556
0960
0154
cafe
301e
5556
0960
013e
cafe
3406
5556
0960
022b
cafe
3816
5556
0964
013e
cafe
-
3c0f
5556
0964
0137
cafe
201f
5556
0964
0152
cafe
2407
5556
0964
01a1
cafe
2817
5556
0968
01b5
cafe
2c08
5556
0968
0204
cafe
3018
5556
0968
0195
cafe
3400
5556
0968
01ba
cafe
3810
5556
096c
01ac
cafe
3c09
5556
096c
01fb
cafe
2019
5556
096c
01b5
cafe
2401
5556
096c
01d9
cafe
2811
5556
0970
01ac
cafe
2c0a
5556
0970
01cf
cafe
301a
5556
0970
0239
cafe
3402
5556
0970
01f3
cafe
3812
5556
0974
0195
cafe
3c0b
5556
0974
01d2
cafe
201b
5556
0974
0100
cafe
2403
5556
0974
01c6
cafe
2813
5556
0978
0107
cafe
2c0c
5556
0978
01b1
cafe
301c
5556
0978
015b
cafe
3404
5556
0978
0209
cafe
3814
5556
097c
015b
cafe
3c0d
5556
097c
01d7
cafe
201d
5556
097c
00f2
cafe
2405
5556
097c
0237
cafe
2815
5556
0980
011a
cafe
2c0e
5556
0980
014d
cafe
301e
5556
0980
0142
cafe
3406
5556
0980
0228
cafe
3816
5556
0984
0136
cafe
3c0f
5556
0984
011f
cafe
201f
5556
0984
0152
cafe
2407
5556
0984
0193
cafe
2817
5556
0988
01a7
cafe
2c08
5556
0988
01f6
cafe
3018
5556
0988
0182
cafe
3400
5556
0988
01b9
cafe
3810
5556
098c
019f
cafe
3c09
5556
098c
01f6
cafe
2019
5556
098c
01b4
cafe
2401
5556
098c
01d3
cafe
2811
5556
0990
01a3
cafe
2c0a
5556
0990
01d0
cafe
301a
5556
0990
0232
cafe
3402
5556
0990
01f4
cafe
3812
5556
0994
0198
cafe
3c0b
5556
0994
01cf
cafe
201b
5556
0994
0104
cafe
2403
5556
0994
01d0
cafe
2813
-
5556
0998
010a
cafe
2c0c
5556
0998
01bb
cafe
301c
5556
0998
015b
cafe
3404
5556
0998
0205
cafe
3814
5556
099c
0168
cafe
3c0d
5556
099c
01cb
cafe
201d
5556
099c
00fa
cafe
2405
5556
099c
023d
cafe
2815
5556
09a0
0119
cafe
2c0e
5556
09a0
0161
cafe
301e
5556
09a0
0135
cafe
3406
5556
09a0
0234
cafe
3816
5556
09a4
0140
cafe
3c0f
5556
09a4
012c
cafe
201f
5556
09a4
0153
cafe
2407
5556
09a4
019f
cafe
2817
5556
09a8
01b3
cafe
2c08
5556
09a8
0203
cafe
3018
5556
09a8
0196
cafe
3400
5556
09a8
01bb
cafe
3810
5556
09ac
01a8
cafe
3c09
5556
09ac
020a
cafe
2019
5556
09ac
01ae
cafe
2401
5556
09ac
01d9
cafe
2811
5556
09b0
01a7
cafe
2c0a
5556
09b0
01cf
cafe
301a
5556
09b0
0236
cafe
3402
5556
09b0
01f1
cafe
3812
5556
09b4
0192
cafe
3c0b
5556
09b4
01da
cafe
201b
5556
09b4
0100
cafe
2403
5556
09b4
01ce
cafe
2813
5556
09b8
010a
cafe
2c0c
5556
09b8
01b7
cafe
301c
5556
09b8
014a
cafe
3404
5556
09b8
01fe
cafe
3814
5556
09bc
0167
cafe
3c0d
5556
09bc
01c3
cafe
201d
5556
09bc
0102
cafe
2405
5556
09bc
023c
cafe
2815
5556
09c0
011a
cafe
2c0e
5556
09c0
0157
cafe
301e
5556
09c0
0139
cafe
3406
5556
09c0
0229
cafe
3816
5556
09c4
0147
cafe
3c0f
5556
09c4
0137
cafe
201f
5556
09c4
0154
cafe
2407
5556
09c4
0199
cafe
2817
5556
09c8
01ad
cafe
2c08
5556
09c8
01f8
cafe
3018
5556
09c8
0199
cafe
3400
5556
-
09c8
01ae
cafe
3810
5556
09cc
01a4
cafe
3c09
5556
09cc
020a
cafe
2019
5556
09cc
01ab
cafe
2401
5556
09cc
01db
cafe
2811
5556
09d0
01a6
cafe
2c0a
5556
09d0
01d8
cafe
301a
5556
09d0
0229
cafe
3402
5556
09d0
01f3
cafe
3812
5556
09d4
0194
cafe
3c0b
5556
09d4
01d9
cafe
201b
5556
09d4
0105
cafe
2403
5556
09d4
01cf
cafe
2813
5556
09d8
010c
cafe
2c0c
5556
09d8
01bf
cafe
301c
5556
09d8
0152
cafe
3404
5556
09d8
01fb
cafe
3814
5556
09dc
0160
cafe
3c0d
5556
09dc
01c3
cafe
201d
5556
09dc
0104
cafe
2405
5556
09dc
0238
cafe
2815
5556
09e0
0116
cafe
2c0e
5556
09e0
0159
cafe
301e
5556
09e0
0135
cafe
3406
5556
09e0
0224
cafe
3816
5556
09e4
013e
cafe
3c0f
5556
09e4
0132
cafe
201f
5556
09e4
0151
cafe
2407
5556
09e4
01a3
cafe
2817
5556
09e8
01b0
cafe
2c08
5556
09e8
01f0
cafe
3018
5556
09e8
0199
cafe
3400
5556
09e8
01ae
cafe
3810
5556
09ec
01a3
cafe
3c09
5556
09ec
0204
cafe
2019
5556
09ec
01a9
cafe
2401
5556
09ec
01d9
cafe
2811
5556
09f0
01a7
cafe
2c0a
5556
09f0
01db
cafe
301a
5556
09f0
0226
cafe
3402
5556
09f0
01f3
cafe
3812
5556
09f4
0191
cafe
3c0b
5556
09f4
01da
cafe
201b
5556
09f4
010e
cafe
2403
5556
09f4
01d4
cafe
2813
5556
09f8
0116
cafe
2c0c
5556
09f8
01c7
cafe
301c
5556
09f8
014d
cafe
3404
5556
09f8
01f6
cafe
3814
5556
09fc
015e
cafe
3c0d
5556
09fc
01ba
cafe
201d
5556
09fc
-
0104
cafe
2405
5556
09fc
0239
cafe
2815
5556
0a00
0116
cafe
2c0e
5556
0a00
015e
cafe
301e
5556
0a00
0133
cafe
3406
5556
0a00
0227
cafe
3816
5556
0a04
0131
cafe
3c0f
5556
0a04
012c
cafe
201f
5556
0a04
015c
cafe
2407
5556
0a04
0196
cafe
2817
5556
0a08
01bc
cafe
2c08
5556
0a08
01f5
cafe
3018
5556
0a08
0197
cafe
3400
5556
0a08
01b9
cafe
3810
5556
0a0c
01a2
cafe
3c09
5556
0a0c
0202
cafe
2019
5556
0a0c
01ab
cafe
2401
5556
0a0c
01e1
cafe
2811
5556
0a10
01a7
cafe
2c0a
5556
0a10
01e1
cafe
301a
5556
0a10
022d
cafe
3402
5556
0a10
01f6
cafe
3812
5556
0a14
018f
cafe
3c0b
5556
0a14
01d7
cafe
201b
5556
0a14
0108
cafe
2403
5556
0a14
01cc
cafe
2813
5556
0a18
0113
cafe
2c0c
5556
0a18
01bf
cafe
301c
5556
0a18
0157
cafe
3404
5556
0a18
0203
cafe
3814
5556
0a1c
015d
cafe
3c0d
5556
0a1c
01b9
cafe
201d
5556
0a1c
00ff
cafe
2405
5556
0a1c
023b
cafe
2815
5556
0a20
0117
cafe
2c0e
5556
0a20
015a
cafe
301e
5556
0a20
013c
cafe
3406
5556
0a20
0222
cafe
3816
5556
0a24
013d
cafe
3c0f
5556
0a24
012a
cafe
201f
5556
0a24
0152
cafe
2407
5556
0a24
0196
cafe
2817
5556
0a28
01b3
cafe
2c08
5556
0a28
01f5
cafe
3018
5556
0a28
0194
cafe
3400
5556
0a28
01ba
cafe
3810
5556
0a2c
01a3
cafe
3c09
5556
0a2c
01fc
cafe
2019
5556
0a2c
01af
cafe
2401
5556
0a2c
01d2
cafe
2811
5556
0a30
01a7
cafe
2c0a
5556
0a30
01dc
-
cafe
301a
5556
0a30
022f
cafe
3402
5556
0a30
01f0
cafe
3812
5556
0a34
0181
cafe
3c0b
5556
0a34
01d9
cafe
201b
5556
0a34
00fd
cafe
2403
5556
0a34
01cf
cafe
2813
5556
0a38
0114
cafe
2c0c
5556
0a38
01bb
cafe
301c
5556
0a38
015d
cafe
3404
5556
0a38
0203
cafe
3814
5556
0a3c
015d
cafe
3c0d
5556
0a3c
01c8
cafe
201d
5556
0a3c
00fd
cafe
2405
5556
0a3c
0232
cafe
2815
5556
0a40
0119
cafe
2c0e
5556
0a40
0161
cafe
301e
5556
0a40
0135
cafe
3406
5556
0a40
0228
cafe
3816
5556
0a44
013e
cafe
3c0f
5556
0a44
0123
cafe
201f
5556
0a44
014d
cafe
2407
5556
0a44
0197
cafe
2817
5556
0a48
01ad
cafe
2c08
5556
0a48
01ee
cafe
3018
5556
0a48
0194
cafe
3400
5556
0a48
01ad
cafe
3810
5556
0a4c
019d
cafe
3c09
5556
0a4c
01f7
cafe
2019
5556
0a4c
01ab
cafe
2401
5556
0a4c
01d7
cafe
2811
5556
0a50
01ab
cafe
2c0a
5556
0a50
01db
cafe
301a
5556
0a50
0231
cafe
3402
5556
0a50
01f2
cafe
3812
5556
0a54
0187
cafe
3c0b
5556
0a54
01e3
cafe
201b
5556
0a54
00fe
cafe
2403
5556
0a54
01d3
cafe
2813
5556
0a58
0111
cafe
2c0c
5556
0a58
01ad
cafe
301c
5556
0a58
015c
cafe
3404
5556
0a58
0206
cafe
3814
5556
0a5c
0162
cafe
3c0d
5556
0a5c
01d5
cafe
201d
5556
0a5c
0101
cafe
2405
5556
0a5c
0230
cafe
2815
5556
0a60
011a
cafe
2c0e
5556
0a60
015c
cafe
301e
5556
0a60
013d
cafe
3406
5556
0a60
022c
cafe
3816
5556
0a64
013a
cafe
-
3c0f
5556
0a64
0122
cafe
201f
5556
0a64
0148
cafe
2407
5556
0a64
0190
cafe
2817
5556
0a68
01af
cafe
2c08
5556
0a68
01f1
cafe
3018
5556
0a68
0187
cafe
3400
5556
0a68
01a9
cafe
3810
5556
0a6c
019c
cafe
3c09
5556
0a6c
01f3
cafe
2019
5556
0a6c
01a6
cafe
2401
5556
0a6c
01db
cafe
2811
5556
0a70
01ae
cafe
2c0a
5556
0a70
01ce
cafe
301a
5556
0a70
022c
cafe
3402
5556
0a70
01ea
cafe
3812
5556
0a74
0189
cafe
3c0b
5556
0a74
01e2
cafe
201b
5556
0a74
00fd
cafe
2403
5556
0a74
01d2
cafe
2813
5556
0a78
0114
cafe
2c0c
5556
0a78
01b4
cafe
301c
5556
0a78
0154
cafe
3404
5556
0a78
0205
cafe
3814
5556
0a7c
0165
cafe
3c0d
5556
0a7c
01d2
cafe
201d
5556
0a7c
0107
cafe
2405
5556
0a7c
0236
cafe
2815
5556
0a80
0114
cafe
2c0e
5556
0a80
0155
cafe
301e
5556
0a80
013d
cafe
3406
5556
0a80
0230
cafe
3816
5556
0a84
013d
cafe
3c0f
5556
0a84
0124
cafe
201f
5556
0a84
014e
cafe
2407
5556
0a84
018c
cafe
2817
5556
0a88
01b0
cafe
2c08
5556
0a88
01f7
cafe
3018
5556
0a88
018f
cafe
3400
5556
0a88
01a5
cafe
3810
5556
0a8c
01aa
cafe
3c09
5556
0a8c
01ef
cafe
2019
5556
0a8c
01a7
cafe
2401
5556
0a8c
01d8
cafe
2811
5556
0a90
01ae
cafe
2c0a
5556
0a90
0246
cafe
301a
5556
0a90
02ad
cafe
3402
5556
0a90
0267
cafe
3812
5556
0a94
0203
cafe
3c0b
5556
0a94
0380
cafe
201b
5556
0a94
029c
cafe
2403
5556
0a94
0362
cafe
2813
-
5556
0a98
02ab
cafe
2c0c
5556
0a98
0452
cafe
301c
5556
0a98
03f2
cafe
3404
5556
0a98
0495
cafe
3814
5556
0a9c
0402
cafe
3c0d
5556
0a9c
054e
cafe
201d
5556
0a9c
0475
cafe
2405
5556
0a9c
059e
cafe
2815
5556
0aa0
0496
cafe
2c0e
5556
0aa0
0594
cafe
301e
5556
0aa0
0567
cafe
3406
5556
0aa0
065f
cafe
3816
5556
0aa4
0583
cafe
3c0f
5556
0aa4
0607
cafe
201f
5556
0aa4
060e
cafe
2407
5556
0aa4
064f
cafe
2817
5556
0aa8
0685
cafe
2c08
5556
0aa8
0748
cafe
3018
5556
0aa8
06da
cafe
3400
5556
0aa8
06c8
cafe
3810
5556
0aac
0709
cafe
3c09
5556
0aac
07a0
cafe
2019
5556
0aac
0751
cafe
2401
5556
0aac
0766
cafe
2811
5556
0ab0
076d
cafe
2c0a
5556
0ab0
07d9
cafe
301a
5556
0ab0
083a
cafe
3402
5556
0ab0
07da
cafe
3812
5556
0ab4
079c
cafe
3c0b
5556
0ab4
0837
cafe
201b
5556
0ab4
072c
cafe
2403
5556
0ab4
07eb
cafe
2813
5556
0ab8
0760
cafe
2c0c
5556
0ab8
0843
cafe
301c
5556
0ab8
07cd
cafe
3404
5556
0ab8
0867
cafe
3814
5556
0abc
07ea
cafe
3c0d
5556
0abc
0893
cafe
201d
5556
0abc
07a4
cafe
2405
5556
0abc
08d8
cafe
2815
5556
0ac0
07df
cafe
2c0e
5556
0ac0
0882
cafe
301e
5556
0ac0
0805
cafe
3406
5556
0ac0
0918
cafe
3816
5556
0ac4
0847
cafe
3c0f
5556
0ac4
087e
cafe
201f
5556
0ac4
0835
cafe
2407
5556
0ac4
08a1
cafe
2817
5556
0ac8
08db
cafe
2c08
5556
0ac8
0953
cafe
3018
5556
0ac8
08c3
cafe
3400
5556
-
0ac8
0898
cafe
3810
5556
0acc
0919
cafe
3c09
5556
0acc
093d
cafe
2019
5556
0acc
08dd
cafe
2401
5556
0acc
08df
cafe
2811
5556
0ad0
0925
cafe
2c0a
5556
0ad0
0947
cafe
301a
5556
0ad0
0967
cafe
3402
5556
0ad0
0915
cafe
3812
5556
0ad4
0905
cafe
3c0b
5556
0ad4
0961
cafe
201b
5556
0ad4
0823
cafe
2403
5556
0ad4
08e8
cafe
2813
5556
0ad8
0899
cafe
2c0c
5556
0ad8
0962
cafe
301c
5556
0ad8
088d
cafe
3404
5556
0ad8
0947
cafe
3814
5556
0adc
08e7
cafe
3c0d
5556
0adc
0974
cafe
201d
5556
0adc
083b
cafe
2405
5556
0adc
0991
cafe
2815
5556
0ae0
08b1
cafe
2c0e
5556
0ae0
092e
cafe
301e
5556
0ae0
0872
cafe
3406
5556
0ae0
099f
cafe
3816
5556
0ae4
08d6
cafe
3c0f
5556
0ae4
08de
cafe
201f
5556
0ae4
0878
cafe
2407
5556
0ae4
0907
cafe
2817
5556
0ae8
0938
cafe
2c08
5556
0ae8
0990
cafe
3018
5556
0ae8
08fb
cafe
3400
5556
0ae8
08d6
cafe
3810
5556
0aec
0959
cafe
3c09
5556
0aec
0970
cafe
2019
5556
0aec
0909
cafe
2401
5556
0aec
08fa
cafe
2811
5556
0af0
095d
cafe
2c0a
5556
0af0
0983
cafe
301a
5556
0af0
0983
cafe
3402
5556
0af0
093a
cafe
3812
5556
0af4
093b
cafe
3c0b
5556
0af4
098a
cafe
201b
5556
0af4
0833
cafe
2403
5556
0af4
08fa
cafe
2813
5556
0af8
08b9
cafe
2c0c
5556
0af8
0971
cafe
301c
5556
0af8
0884
cafe
3404
5556
0af8
094d
cafe
3814
5556
0afc
08fa
cafe
3c0d
5556
0afc
0955
cafe
201d
5556
0afc
-
0827
cafe
2405
5556
0afc
0981
cafe
2815
5556
0b00
088f
cafe
2c0e
5556
0b00
08fc
cafe
301e
5556
0b00
0854
cafe
3406
5556
0b00
0972
cafe
3816
5556
0b04
08b1
cafe
3c0f
5556
0b04
08b4
cafe
201f
5556
0b04
0840
cafe
2407
5556
0b04
08d2
cafe
2817
5556
0b08
090e
cafe
2c08
5556
0b08
0977
cafe
3018
5556
0b08
08dc
cafe
3400
5556
0b08
08ab
cafe
3810
5556
0b0c
0941
cafe
3c09
5556
0b0c
0967
cafe
2019
5556
0b0c
08e3
cafe
2401
5556
0b0c
08d1
cafe
2811
5556
0b10
095a
cafe
2c0a
5556
0b10
0976
cafe
301a
5556
0b10
0951
cafe
3402
5556
0b10
090b
cafe
3812
5556
0b14
091f
cafe
3c0b
5556
0b14
094d
cafe
201b
5556
0b14
07fb
cafe
2403
5556
0b14
08bc
cafe
2813
5556
0b18
0873
cafe
2c0c
5556
0b18
0919
cafe
301c
5556
0b18
0842
cafe
3404
5556
0b18
08fa
cafe
3814
5556
0b1c
08a5
cafe
3c0d
5556
0b1c
08fa
cafe
201d
5556
0b1c
07dd
cafe
2405
5556
0b1c
0943
cafe
2815
5556
0b20
0833
cafe
2c0e
5556
0b20
08b6
cafe
301e
5556
0b20
081f
cafe
3406
5556
0b20
0935
cafe
3816
5556
0b24
086b
cafe
3c0f
5556
0b24
088c
cafe
201f
5556
0b24
07fa
cafe
2407
5556
0b24
089c
cafe
2817
5556
0b28
08d4
cafe
2c08
5556
0b28
0947
cafe
3018
5556
0b28
0894
cafe
3400
5556
0b28
086b
cafe
3810
5556
0b2c
090b
cafe
3c09
5556
0b2c
0914
cafe
2019
5556
0b2c
089f
cafe
2401
5556
0b2c
0888
cafe
2811
5556
0b30
0903
cafe
2c0a
5556
0b30
0912
-
cafe
301a
5556
0b30
0908
cafe
3402
5556
0b30
08be
cafe
3812
5556
0b34
08bb
cafe
3c0b
5556
0b34
08f0
cafe
201b
5556
0b34
07b1
cafe
2403
5556
0b34
0869
cafe
2813
5556
0b38
081c
cafe
2c0c
5556
0b38
08d0
cafe
301c
5556
0b38
07f3
cafe
3404
5556
0b38
08be
cafe
3814
5556
0b3c
0861
cafe
3c0d
5556
0b3c
08d5
cafe
201d
5556
0b3c
0795
cafe
2405
5556
0b3c
0912
cafe
2815
5556
0b40
0809
cafe
2c0e
5556
0b40
0888
cafe
301e
5556
0b40
07cc
cafe
3406
5556
0b40
08fd
cafe
3816
5556
0b44
0827
cafe
3c0f
5556
0b44
0839
cafe
201f
5556
0b44
07bc
cafe
2407
5556
0b44
0849
cafe
2817
5556
0b48
0891
cafe
2c08
5556
0b48
08e8
cafe
3018
5556
0b48
0843
cafe
3400
5556
0b48
081a
cafe
3810
5556
0b4c
08a2
cafe
3c09
5556
0b4c
08c1
cafe
2019
5556
0b4c
0850
cafe
2401
5556
0b4c
083d
cafe
2811
5556
0b50
089f
cafe
2c0a
5556
0b50
08c8
cafe
301a
5556
0b50
08c0
cafe
3402
5556
0b50
087b
cafe
3812
5556
0b54
0875
cafe
3c0b
5556
0b54
08c2
cafe
201b
5556
0b54
0761
cafe
2403
5556
0b54
0824
cafe
2813
5556
0b58
07e5
cafe
2c0c
5556
0b58
08a3
cafe
301c
5556
0b58
07a3
cafe
3404
5556
0b58
087c
cafe
3814
5556
0b5c
0817
cafe
3c0d
5556
0b5c
087f
cafe
201d
5556
0b5c
074e
cafe
2405
5556
0b5c
08c2
cafe
2815
5556
0b60
07ae
cafe
2c0e
5556
0b60
0823
cafe
301e
5556
0b60
0781
cafe
3406
5556
0b60
089c
cafe
3816
5556
0b64
07d1
cafe
-
3c0f
5556
0b64
07d8
cafe
201f
5556
0b64
0769
cafe
2407
5556
0b64
07f1
cafe
2817
5556
0b68
0835
cafe
2c08
5556
0b68
08a3
cafe
3018
5556
0b68
07fd
cafe
3400
5556
0b68
07d0
cafe
3810
5556
0b6c
0868
cafe
3c09
5556
0b6c
0882
cafe
2019
5556
0b6c
0814
cafe
2401
5556
0b6c
07f6
cafe
2811
5556
0b70
0869
cafe
2c0a
5556
0b70
0896
cafe
301a
5556
0b70
087e
cafe
3402
5556
0b70
083b
cafe
3812
5556
0b74
0836
cafe
3c0b
5556
0b74
0872
cafe
201b
5556
0b74
070f
cafe
2403
5556
0b74
07d8
cafe
2813
5556
0b78
078a
cafe
2c0c
5556
0b78
083a
cafe
301c
5556
0b78
0755
cafe
3404
5556
0b78
0828
cafe
3814
5556
0b7c
07b5
cafe
3c0d
5556
0b7c
0821
cafe
201d
5556
0b7c
06f5
cafe
2405
5556
0b7c
0878
cafe
2815
5556
0b80
0756
cafe
2c0e
5556
0b80
07db
cafe
301e
5556
0b80
073f
cafe
3406
5556
0b80
0852
cafe
3816
5556
0b84
0797
cafe
3c0f
5556
0b84
07ae
cafe
201f
5556
0b84
0727
cafe
2407
5556
0b84
07c2
cafe
2817
5556
0b88
0800
cafe
2c08
5556
0b88
0870
cafe
3018
5556
0b88
07c6
cafe
3400
5556
0b88
0788
cafe
3810
5556
0b8c
083d
cafe
3c09
5556
0b8c
0838
cafe
2019
5556
0b8c
07bf
cafe
2401
5556
0b8c
07ae
cafe
2811
5556
0b90
0828
cafe
2c0a
5556
0b90
083a
cafe
301a
5556
0b90
0835
cafe
3402
5556
0b90
07e4
cafe
3812
5556
0b94
07d1
cafe
3c0b
5556
0b94
0814
cafe
201b
5556
0b94
06bf
cafe
2403
5556
0b94
078c
cafe
2813
-
5556
0b98
0726
cafe
2c0c
5556
0b98
07ee
cafe
301c
5556
0b98
06fe
cafe
3404
5556
0b98
07e1
cafe
3814
5556
0b9c
0769
cafe
3c0d
5556
0b9c
07ef
cafe
201d
5556
0b9c
06ae
cafe
2405
5556
0b9c
0844
cafe
2815
5556
0ba0
071c
cafe
2c0e
5556
0ba0
07b2
cafe
301e
5556
0ba0
070a
cafe
3406
5556
0ba0
081f
cafe
3816
5556
0ba4
0750
cafe
3c0f
5556
0ba4
0756
cafe
201f
5556
0ba4
06d7
cafe
2407
5556
0ba4
077a
cafe
2817
5556
0ba8
07b5
cafe
2c08
5556
0ba8
0817
cafe
3018
5556
0ba8
0779
cafe
3400
5556
0ba8
0736
cafe
3810
5556
0bac
07d7
cafe
3c09
5556
0bac
07e0
cafe
2019
5556
0bac
0776
cafe
2401
5556
0bac
0765
cafe
2811
5556
0bb0
07cf
cafe
2c0a
5556
0bb0
07fd
cafe
301a
5556
0bb0
07f3
cafe
3402
5556
0bb0
07a0
cafe
3812
5556
0bb4
0799
cafe
3c0b
5556
0bb4
07ee
cafe
201b
5556
0bb4
0685
cafe
2403
5556
0bb4
075a
cafe
2813
5556
0bb8
06fc
cafe
2c0c
5556
0bb8
07c8
cafe
301c
5556
0bb8
06be
cafe
3404
5556
0bb8
07b0
cafe
3814
5556
0bbc
0736
cafe
3c0d
5556
0bbc
079f
cafe
201d
5556
0bbc
0666
cafe
2405
5556
0bbc
07fd
cafe
2815
5556
0bc0
06db
cafe
2c0e
5556
0bc0
074a
cafe
301e
5556
0bc0
06b9
cafe
3406
5556
0bc0
07d1
cafe
3816
5556
0bc4
06fe
cafe
3c0f
5556
0bc4
06f8
cafe
201f
5556
0bc4
0692
cafe
2407
5556
0bc4
0719
cafe
2817
5556
0bc8
0768
cafe
2c08
5556
0bc8
07d9
cafe
3018
5556
0bc8
0733
cafe
3400
5556
-
0bc8
06f6
cafe
3810
5556
0bcc
0794
cafe
3c09
5556
0bcc
07b1
cafe
2019
5556
0bcc
0743
cafe
2401
5556
0bcc
0727
cafe
2811
5556
0bd0
07ac
cafe
2c0a
5556
0bd0
07c6
cafe
301a
5556
0bd0
07be
cafe
3402
5556
0bd0
0762
cafe
3812
5556
0bd4
0764
cafe
3c0b
5556
0bd4
079e
cafe
201b
5556
0bd4
0636
cafe
2403
5556
0bd4
0717
cafe
2813
5556
0bd8
06b3
cafe
2c0c
5556
0bd8
076b
cafe
301c
5556
0bd8
067d
cafe
3404
5556
0bd8
075a
cafe
3814
5556
0bdc
06d2
cafe
3c0d
5556
0bdc
074b
cafe
201d
5556
0bdc
061c
cafe
2405
5556
0bdc
07b3
cafe
2815
5556
0be0
0689
cafe
2c0e
5556
0be0
070f
cafe
301e
5556
0be0
0675
cafe
3406
5556
0be0
078d
cafe
3816
5556
0be4
06c0
cafe
3c0f
5556
0be4
06cf
cafe
201f
5556
0be4
064a
cafe
2407
5556
0be4
06f1
cafe
2817
5556
0be8
073f
cafe
2c08
5556
0be8
07ad
cafe
3018
5556
0be8
06f8
cafe
3400
5556
0be8
06b3
cafe
3810
5556
0bec
0764
cafe
3c09
5556
0bec
076d
cafe
2019
5556
0bec
06f7
cafe
2401
5556
0bec
06ea
cafe
2811
5556
0bf0
0764
cafe
2c0a
5556
0bf0
0772
cafe
301a
5556
0bf0
0770
cafe
3402
5556
0bf0
071f
cafe
3812
5556
0bf4
070b
cafe
3c0b
5556
0bf4
074c
cafe
201b
5556
0bf4
05f5
cafe
2403
5556
0bf4
06d0
cafe
2813
5556
0bf8
0663
cafe
2c0c
5556
0bf8
0728
cafe
301c
5556
0bf8
0644
cafe
3404
5556
0bf8
0722
cafe
3814
5556
0bfc
0691
cafe
3c0d
5556
0bfc
0723
cafe
201d
5556
0bfc
-
05d8
cafe
2405
5556
0bfc
0780
cafe
2815
5556
0c00
065d
cafe
2c0e
5556
0c00
06e4
cafe
301e
5556
0c00
0635
cafe
3406
5556
0c00
074e
cafe
3816
5556
0c04
068a
cafe
3c0f
5556
0c04
0686
cafe
201f
5556
0c04
0612
cafe
2407
5556
0c04
06a8
cafe
2817
5556
0c08
06f5
cafe
2c08
5556
0c08
075b
cafe
3018
5556
0c08
06b1
cafe
3400
5556
0c08
065a
cafe
3810
5556
0c0c
06fd
cafe
3c09
5556
0c0c
0719
cafe
2019
5556
0c0c
06a9
cafe
2401
5556
0c0c
06b1
cafe
2811
5556
0c10
0700
cafe
2c0a
5556
0c10
072e
cafe
301a
5556
0c10
0730
cafe
3402
5556
0c10
06e1
cafe
3812
5556
0c14
06bf
cafe
3c0b
5556
0c14
071f
cafe
201b
5556
0c14
05be
cafe
2403
5556
0c14
069d
cafe
2813
5556
0c18
0637
cafe
2c0c
5556
0c18
06ef
cafe
301c
5556
0c18
0607
cafe
3404
5556
0c18
06dd
cafe
3814
5556
0c1c
065a
cafe
3c0d
5556
0c1c
06d1
cafe
201d
5556
0c1c
0596
cafe
2405
5556
0c1c
0742
cafe
2815
5556
0c20
0614
cafe
2c0e
5556
0c20
0680
cafe
301e
5556
0c20
05fa
cafe
3406
5556
0c20
0705
cafe
3816
5556
0c24
0634
cafe
3c0f
5556
0c24
0626
cafe
201f
5556
0c24
05cd
cafe
2407
5556
0c24
065d
cafe
2817
5556
0c28
06ad
cafe
2c08
5556
0c28
0714
cafe
3018
5556
0c28
0664
cafe
3400
5556
0c28
061a
cafe
3810
5556
0c2c
06b8
cafe
3c09
5556
0c2c
06e5
cafe
2019
5556
0c2c
0676
cafe
2401
5556
0c2c
0675
cafe
2811
5556
0c30
06e0
cafe
2c0a
5556
0c30
0704
-
cafe
301a
5556
0c30
06ff
cafe
3402
5556
0c30
06a9
cafe
3812
5556
0c34
069b
cafe
3c0b
5556
0c34
06e1
cafe
201b
5556
0c34
057e
cafe
2403
5556
0c34
0662
cafe
2813
5556
0c38
05ee
cafe
2c0c
5556
0c38
069d
cafe
301c
5556
0c38
05c9
cafe
3404
5556
0c38
0698
cafe
3814
5556
0c3c
0606
cafe
3c0d
5556
0c3c
0683
cafe
201d
5556
0c3c
0552
cafe
2405
5556
0c3c
0701
cafe
2815
5556
0c40
05c3
cafe
2c0e
5556
0c40
0642
cafe
301e
5556
0c40
05bb
cafe
3406
5556
0c40
06c5
cafe
3816
5556
0c44
05fe
cafe
3c0f
5556
0c44
05fd
cafe
201f
5556
0c44
0599
cafe
2407
5556
0c44
0635
cafe
2817
5556
0c48
0685
cafe
2c08
5556
0c48
06f2
cafe
3018
5556
0c48
0640
cafe
3400
5556
0c48
05e9
cafe
3810
5556
0c4c
06a0
cafe
3c09
5556
0c4c
06af
cafe
2019
5556
0c4c
0645
cafe
2401
5556
0c4c
063b
cafe
2811
5556
0c50
06ab
cafe
2c0a
5556
0c50
06b3
cafe
301a
5556
0c50
06c9
cafe
3402
5556
0c50
066c
cafe
3812
5556
0c54
0658
cafe
3c0b
5556
0c54
0692
cafe
201b
5556
0c54
0534
cafe
2403
5556
0c54
0618
cafe
2813
5556
0c58
0591
cafe
2c0c
5556
0c58
0653
cafe
301c
5556
0c58
0584
cafe
3404
5556
0c58
0656
cafe
3814
5556
0c5c
05cb
cafe
3c0d
5556
0c5c
065a
cafe
201d
5556
0c5c
051f
cafe
2405
5556
0c5c
06d3
cafe
2815
5556
0c60
058f
cafe
2c0e
5556
0c60
061f
cafe
301e
5556
0c60
0586
cafe
3406
5556
0c60
069e
cafe
3816
5556
0c64
05d2
cafe
-
3c0f
5556
0c64
05d8
cafe
201f
5556
0c64
055b
cafe
2407
5556
0c64
05fa
cafe
2817
5556
0c68
064e
cafe
2c08
5556
0c68
06a8
cafe
3018
5556
0c68
05f8
cafe
3400
5556
0c68
05b4
cafe
3810
5556
0c6c
064e
cafe
3c09
5556
0c6c
065b
cafe
2019
5556
0c6c
060e
cafe
2401
5556
0c6c
060b
cafe
2811
5556
0c70
0662
cafe
2c0a
5556
0c70
0677
cafe
301a
5556
0c70
0691
cafe
3402
5556
0c70
0634
cafe
3812
5556
0c74
0619
cafe
3c0b
5556
0c74
066e
cafe
201b
5556
0c74
0503
cafe
2403
5556
0c74
05e3
cafe
2813
5556
0c78
0570
cafe
2c0c
5556
0c78
063c
cafe
301c
5556
0c78
0554
cafe
3404
5556
0c78
0633
cafe
3814
5556
0c7c
05ab
cafe
3c0d
5556
0c7c
062a
cafe
201d
5556
0c7c
04eb
cafe
2405
5556
0c7c
06a7
cafe
2815
5556
0c80
0560
cafe
2c0e
5556
0c80
05c7
cafe
301e
5556
0c80
054b
cafe
3406
5556
0c80
0659
cafe
3816
5556
0c84
0590
cafe
3c0f
5556
0c84
0580
cafe
201f
5556
0c84
0524
cafe
2407
5556
0c84
05ba
cafe
2817
5556
0c88
05fe
cafe
2c08
5556
0c88
0665
cafe
3018
5556
0c88
05b7
cafe
3400
5556
0c88
0580
cafe
3810
5556
0c8c
0604
cafe
3c09
5556
0c8c
062a
cafe
2019
5556
0c8c
05dd
cafe
2401
5556
0c8c
05d2
cafe
2811
5556
0c90
063b
cafe
2c0a
5556
0c90
065c
cafe
301a
5556
0c90
065f
cafe
3402
5556
0c90
0607
cafe
3812
5556
0c94
05f2
cafe
3c0b
5556
0c94
0640
cafe
201b
5556
0c94
04c1
cafe
2403
5556
0c94
05a6
cafe
2813
-
5556
0c98
0548
cafe
2c0c
5556
0c98
05f3
cafe
301c
5556
0c98
0518
cafe
3404
5556
0c98
05f0
cafe
3814
5556
0c9c
0561
cafe
3c0d
5556
0c9c
05d8
cafe
201d
5556
0c9c
04b4
cafe
2405
5556
0c9c
065c
cafe
2815
5556
0ca0
050e
cafe
2c0e
5556
0ca0
057c
cafe
301e
5556
0ca0
0518
cafe
3406
5556
0ca0
060b
cafe
3816
5556
0ca4
0548
cafe
3c0f
5556
0ca4
054d
cafe
201f
5556
0ca4
04ed
cafe
2407
5556
0ca4
058f
cafe
2817
5556
0ca8
05d4
cafe
2c08
5556
0ca8
0653
cafe
3018
5556
0ca8
0590
cafe
3400
5556
0ca8
055a
cafe
3810
5556
0cac
05ee
cafe
3c09
5556
0cac
0607
cafe
2019
5556
0cac
05af
cafe
2401
5556
0cac
05a3
cafe
2811
5556
0cb0
0610
cafe
2c0a
5556
0cb0
0618
cafe
301a
5556
0cb0
062d
cafe
3402
5556
0cb0
05d4
cafe
3812
5556
0cb4
05b4
cafe
3c0b
5556
0cb4
05fb
cafe
201b
5556
0cb4
0485
cafe
2403
5556
0cb4
0571
cafe
2813
5556
0cb8
04f1
cafe
2c0c
5556
0cb8
05ac
cafe
301c
5556
0cb8
04ed
cafe
3404
5556
0cb8
05ba
cafe
3814
5556
0cbc
051c
cafe
3c0d
5556
0cbc
05a6
cafe
201d
5556
0cbc
047c
cafe
2405
5556
0cbc
0639
cafe
2815
5556
0cc0
04e3
cafe
2c0e
5556
0cc0
056f
cafe
301e
5556
0cc0
04f3
cafe
3406
5556
0cc0
05ef
cafe
3816
5556
0cc4
0538
cafe
3c0f
5556
0cc4
0532
cafe
201f
5556
0cc4
04b8
cafe
2407
5556
0cc4
0569
cafe
2817
5556
0cc8
05a7
cafe
2c08
5556
0cc8
0615
cafe
3018
5556
0cc8
0559
cafe
3400
5556
-
0cc8
0524
cafe
3810
5556
0ccc
05ba
cafe
3c09
5556
0ccc
05c8
cafe
2019
5556
0ccc
056d
cafe
2401
5556
0ccc
056e
cafe
2811
5556
0cd0
05bc
cafe
2c0a
5556
0cd0
05cb
cafe
301a
5556
0cd0
05f6
cafe
3402
5556
0cd0
0596
cafe
3812
5556
0cd4
056b
cafe
3c0b
5556
0cd4
05c7
cafe
201b
5556
0cd4
045b
cafe
2403
5556
0cd4
054c
cafe
2813
5556
0cd8
04c6
cafe
2c0c
5556
0cd8
0596
cafe
301c
5556
0cd8
04c1
cafe
3404
5556
0cd8
0590
cafe
3814
5556
0cdc
0501
cafe
3c0d
5556
0cdc
0592
cafe
201d
5556
0cdc
0453
cafe
2405
5556
0cdc
060f
cafe
2815
5556
0ce0
04c2
cafe
2c0e
5556
0ce0
0543
cafe
301e
5556
0ce0
04c6
cafe
3406
5556
0ce0
05b8
cafe
3816
5556
0ce4
0502
cafe
3c0f
5556
0ce4
04e2
cafe
201f
5556
0ce4
0485
cafe
2407
5556
0ce4
0528
cafe
2817
5556
0ce8
056a
cafe
2c08
5556
0ce8
05ca
cafe
3018
5556
0ce8
0524
cafe
3400
5556
0ce8
04ed
cafe
3810
5556
0cec
056e
cafe
3c09
5556
0cec
05a0
cafe
2019
5556
0cec
053d
cafe
2401
5556
0cec
0547
cafe
2811
5556
0cf0
058b
cafe
2c0a
5556
0cf0
05b0
cafe
301a
5556
0cf0
05cf
cafe
3402
5556
0cf0
0577
cafe
3812
5556
0cf4
0554
cafe
3c0b
5556
0cf4
05ac
cafe
201b
5556
0cf4
0430
cafe
2403
5556
0cf4
051f
cafe
2813
5556
0cf8
04aa
cafe
2c0c
5556
0cf8
0559
cafe
301c
5556
0cf8
0480
cafe
3404
5556
0cf8
0563
cafe
3814
5556
0cfc
04c7
cafe
3c0d
5556
0cfc
0550
cafe
201d
5556
0cfc
-
041d
cafe
2405
5556
0cfc
05d3
cafe
2815
5556
0d00
047d
cafe
2c0e
5556
0d00
04ea
cafe
301e
5556
0d00
0497
cafe
3406
5556
0d00
057a
cafe
3816
5556
0d04
04cc
cafe
3c0f
5556
0d04
04b8
cafe
201f
5556
0d04
0461
cafe
2407
5556
0d04
04f6
cafe
2817
5556
0d08
0542
cafe
2c08
5556
0d08
05a7
cafe
3018
5556
0d08
04ff
cafe
3400
5556
0d08
04c7
cafe
3810
5556
0d0c
0555
cafe
3c09
5556
0d0c
0590
cafe
2019
5556
0d0c
050d
cafe
2401
5556
0d0c
0522
cafe
2811
5556
0d10
057f
cafe
2c0a
5556
0d10
058a
cafe
301a
5556
0d10
05a2
cafe
3402
5556
0d10
0551
cafe
3812
5556
0d14
0524
cafe
3c0b
5556
0d14
0568
cafe
201b
5556
0d14
0404
cafe
2403
5556
0d14
04e0
cafe
2813
5556
0d18
0464
cafe
2c0c
5556
0d18
050a
cafe
301c
5556
0d18
044e
cafe
3404
5556
0d18
0534
cafe
3814
5556
0d1c
048b
cafe
3c0d
5556
0d1c
0518
cafe
201d
5556
0d1c
03f7
cafe
2405
5556
0d1c
05ab
cafe
2815
5556
0d20
0449
cafe
2c0e
5556
0d20
04e1
cafe
301e
5556
0d20
0463
cafe
3406
5556
0d20
0554
cafe
3816
5556
0d24
04a8
cafe
3c0f
5556
0d24
04a0
cafe
201f
5556
0d24
042e
cafe
2407
5556
0d24
04d7
cafe
2817
5556
0d28
0529
cafe
2c08
5556
0d28
0579
cafe
3018
5556
0d28
04df
cafe
3400
5556
0d28
04a0
cafe
3810
5556
0d2c
0531
cafe
3c09
5556
0d2c
0554
cafe
2019
5556
0d2c
04d7
cafe
2401
5556
0d2c
04eb
cafe
2811
5556
0d30
0533
cafe
2c0a
5556
0d30
0544
-
cafe
301a
5556
0d30
0569
cafe
3402
5556
0d30
051c
cafe
3812
5556
0d34
04e4
cafe
3c0b
5556
0d34
0539
cafe
201b
5556
0d34
03dc
cafe
2403
5556
0d34
04b7
cafe
2813
5556
0d38
0437
cafe
2c0c
5556
0d38
04f9
cafe
301c
5556
0d38
042b
cafe
3404
5556
0d38
0518
cafe
3814
5556
0d3c
046c
cafe
3c0d
5556
0d3c
0508
cafe
201d
5556
0d3c
03d5
cafe
2405
5556
0d3c
0581
cafe
2815
5556
0d40
0436
cafe
2c0e
5556
0d40
04ad
cafe
301e
5556
0d40
0434
cafe
3406
5556
0d40
052d
cafe
3816
5556
0d44
0479
cafe
3c0f
5556
0d44
0453
cafe
201f
5556
0d44
0407
cafe
2407
5556
0d44
049b
cafe
2817
5556
0d48
04e4
cafe
2c08
5556
0d48
053c
cafe
3018
5556
0d48
04ac
cafe
3400
5556
0d48
047a
cafe
3810
5556
0d4c
04e2
cafe
3c09
5556
0d4c
051b
cafe
2019
5556
0d4c
04ad
cafe
2401
5556
0d4c
04be
cafe
2811
5556
0d50
04f6
cafe
2c0a
5556
0d50
0530
cafe
301a
5556
0d50
0549
cafe
3402
5556
0d50
04f5
cafe
3812
5556
0d54
04c5
cafe
3c0b
5556
0d54
051a
cafe
201b
5556
0d54
03be
cafe
2403
5556
0d54
048f
cafe
2813
5556
0d58
0420
cafe
2c0c
5556
0d58
04d9
cafe
301c
5556
0d58
0408
cafe
3404
5556
0d58
04f5
cafe
3814
5556
0d5c
0446
cafe
3c0d
5556
0d5c
04c8
cafe
201d
5556
0d5c
03ac
cafe
2405
5556
0d5c
0553
cafe
2815
5556
0d60
0400
cafe
2c0e
5556
0d60
046b
cafe
301e
5556
0d60
0407
cafe
3406
5556
0d60
04ef
cafe
3816
5556
0d64
043a
cafe
-
3c0f
5556
0d64
040e
cafe
201f
5556
0d64
03df
cafe
2407
5556
0d64
0466
cafe
2817
5556
0d68
04be
cafe
2c08
5556
0d68
052d
cafe
3018
5556
0d68
047d
cafe
3400
5556
0d68
0453
cafe
3810
5556
0d6c
04ca
cafe
3c09
5556
0d6c
0501
cafe
2019
5556
0d6c
0496
cafe
2401
5556
0d6c
049b
cafe
2811
5556
0d70
04f0
cafe
2c0a
5556
0d70
050d
cafe
301a
5556
0d70
0520
cafe
3402
5556
0d70
04cd
cafe
3812
5556
0d74
04a0
cafe
3c0b
5556
0d74
04e7
cafe
201b
5556
0d74
0394
cafe
2403
5556
0d74
0463
cafe
2813
5556
0d78
03e9
cafe
2c0c
5556
0d78
0486
cafe
301c
5556
0d78
03d6
cafe
3404
5556
0d78
04bd
cafe
3814
5556
0d7c
0406
cafe
3c0d
5556
0d7c
0486
cafe
201d
5556
0d7c
0384
cafe
2405
5556
0d7c
051f
cafe
2815
5556
0d80
03ca
cafe
2c0e
5556
0d80
0456
cafe
301e
5556
0d80
03e4
cafe
3406
5556
0d80
04cc
cafe
3816
5556
0d84
0410
cafe
3c0f
5556
0d84
03fb
cafe
201f
5556
0d84
03b9
cafe
2407
5556
0d84
0455
cafe
2817
5556
0d88
04b0
cafe
2c08
5556
0d88
0511
cafe
3018
5556
0d88
0456
cafe
3400
5556
0d88
0438
cafe
3810
5556
0d8c
04ae
cafe
3c09
5556
0d8c
04cf
cafe
2019
5556
0d8c
0474
cafe
2401
5556
0d8c
046e
cafe
2811
5556
0d90
04b4
cafe
2c0a
5556
0d90
04c9
cafe
301a
5556
0d90
04f1
cafe
3402
5556
0d90
04ab
cafe
3812
5556
0d94
045f
cafe
3c0b
5556
0d94
04b1
cafe
201b
5556
0d94
0368
cafe
2403
5556
0d94
0444
cafe
2813
-
5556
0d98
03bf
cafe
2c0c
5556
0d98
046a
cafe
301c
5556
0d98
03b9
cafe
3404
5556
0d98
04a2
cafe
3814
5556
0d9c
03e7
cafe
3c0d
5556
0d9c
0482
cafe
201d
5556
0d9c
035c
cafe
2405
5556
0d9c
0503
cafe
2815
5556
0da0
03ba
cafe
2c0e
5556
0da0
044d
cafe
301e
5556
0da0
03c3
cafe
3406
5556
0da0
04c6
cafe
3816
5556
0da4
03fe
cafe
3c0f
5556
0da4
03d8
cafe
201f
5556
0da4
0394
cafe
2407
5556
0da4
042b
cafe
2817
5556
0da8
0481
cafe
2c08
5556
0da8
04cd
cafe
3018
5556
0da8
042e
cafe
3400
5556
0da8
0404
cafe
3810
5556
0dac
0471
cafe
3c09
5556
0dac
04a0
cafe
2019
5556
0dac
043e
cafe
2401
5556
0dac
044a
cafe
2811
5556
0db0
0474
cafe
2c0a
5556
0db0
04a9
cafe
301a
5556
0db0
04d9
cafe
3402
5556
0db0
0491
cafe
3812
5556
0db4
043d
cafe
3c0b
5556
0db4
04ad
cafe
201b
5556
0db4
0347
cafe
2403
5556
0db4
0422
cafe
2813
5556
0db8
03b5
cafe
2c0c
5556
0db8
0463
cafe
301c
5556
0db8
0393
cafe
3404
5556
0db8
0485
cafe
3814
5556
0dbc
03dc
cafe
3c0d
5556
0dbc
0450
cafe
201d
5556
0dbc
0337
cafe
2405
5556
0dbc
04dd
cafe
2815
5556
0dc0
038e
cafe
2c0e
5556
0dc0
0408
cafe
301e
5556
0dc0
039e
cafe
3406
5556
0dc0
0490
cafe
3816
5556
0dc4
03d7
cafe
3c0f
5556
0dc4
03a0
cafe
201f
5556
0dc4
036c
cafe
2407
5556
0dc4
03f7
cafe
2817
5556
0dc8
043c
cafe
2c08
5556
0dc8
04a4
cafe
3018
5556
0dc8
040c
cafe
3400
5556
-
0dc8
03d8
cafe
3810
5556
0dcc
044a
cafe
3c09
5556
0dcc
0492
cafe
2019
5556
0dcc
041c
cafe
2401
5556
0dcc
0431
cafe
2811
5556
0dd0
046b
cafe
2c0a
5556
0dd0
049e
cafe
301a
5556
0dd0
04bc
cafe
3402
5556
0dd0
046d
cafe
3812
5556
0dd4
0432
cafe
3c0b
5556
0dd4
0480
cafe
201b
5556
0dd4
0324
cafe
2403
5556
0dd4
03ff
cafe
2813
5556
0dd8
0384
cafe
2c0c
5556
0dd8
042b
cafe
301c
5556
0dd8
036f
cafe
3404
5556
0dd8
0461
cafe
3814
5556
0ddc
03a0
cafe
3c0d
5556
0ddc
0413
cafe
201d
5556
0ddc
030c
cafe
2405
5556
0ddc
04b3
cafe
2815
5556
0de0
0353
cafe
2c0e
5556
0de0
03db
cafe
301e
5556
0de0
037f
cafe
3406
5556
0de0
046c
cafe
3816
5556
0de4
03b9
cafe
3c0f
5556
0de4
03a0
cafe
201f
5556
0de4
034a
cafe
2407
5556
0de4
03e3
cafe
2817
5556
0de8
0429
cafe
2c08
5556
0de8
0495
cafe
3018
5556
0de8
03f6
cafe
3400
5556
0de8
03b8
cafe
3810
5556
0dec
0445
cafe
3c09
5556
0dec
0474
cafe
2019
5556
0dec
03fe
cafe
2401
5556
0dec
0411
cafe
2811
5556
0df0
0457
cafe
2c0a
5556
0df0
045e
cafe
301a
5556
0df0
0494
cafe
3402
5556
0df0
043b
cafe
3812
5556
0df4
0402
cafe
3c0b
5556
0df4
0446
cafe
201b
5556
0df4
0303
cafe
2403
5556
0df4
03e3
cafe
2813
5556
0df8
0348
cafe
2c0c
5556
0df8
040f
cafe
301c
5556
0df8
0350
cafe
3404
5556
0df8
043e
cafe
3814
5556
0dfc
0375
cafe
3c0d
5556
0dfc
0401
cafe
201d
5556
0dfc
-
02f5
cafe
2405
5556
0dfc
04a0
cafe
2815
5556
0e00
033e
cafe
2c0e
5556
0e00
03dc
cafe
301e
5556
0e00
0364
cafe
3406
5556
0e00
0466
cafe
3816
5556
0e04
03a3
cafe
3c0f
5556
0e04
037b
cafe
201f
5556
0e04
032b
cafe
2407
5556
0e04
03be
cafe
2817
5556
0e08
0416
cafe
2c08
5556
0e08
0467
cafe
3018
5556
0e08
03d5
cafe
3400
5556
0e08
039c
cafe
3810
5556
0e0c
040d
cafe
3c09
5556
0e0c
0433
cafe
2019
5556
0e0c
03d2
cafe
2401
5556
0e0c
03ee
cafe
2811
5556
0e10
040e
cafe
2c0a
5556
0e10
0436
cafe
301a
5556
0e10
0474
cafe
3402
5556
0e10
0413
cafe
3812
5556
0e14
03d4
cafe
3c0b
5556
0e14
0431
cafe
201b
5556
0e14
02e9
cafe
2403
5556
0e14
03c7
cafe
2813
5556
0e18
033f
cafe
2c0c
5556
0e18
040d
cafe
301c
5556
0e18
0334
cafe
3404
5556
0e18
0421
cafe
3814
5556
0e1c
0373
cafe
3c0d
5556
0e1c
03ee
cafe
201d
5556
0e1c
02d6
cafe
2405
5556
0e1c
048c
cafe
2815
5556
0e20
0327
cafe
2c0e
5556
0e20
03a3
cafe
301e
5556
0e20
033e
cafe
3406
5556
0e20
0434
cafe
3816
5556
0e24
0372
cafe
3c0f
5556
0e24
0339
cafe
201f
5556
0e24
0312
cafe
2407
5556
0e24
038c
cafe
2817
5556
0e28
03e1
cafe
2c08
5556
0e28
0446
cafe
3018
5556
0e28
03ae
cafe
3400
5556
0e28
037b
cafe
3810
5556
0e2c
03d9
cafe
3c09
5556
0e2c
041c
cafe
2019
5556
0e2c
03bc
cafe
2401
5556
0e2c
03da
cafe
2811
5556
0e30
03fd
cafe
2c0a
5556
0e30
0430
-
cafe
301a
5556
0e30
045c
cafe
3402
5556
0e30
03fc
cafe
3812
5556
0e34
03d0
cafe
3c0b
5556
0e34
0422
cafe
201b
5556
0e34
02c9
cafe
2403
5556
0e34
03a7
cafe
2813
5556
0e38
0323
cafe
2c0c
5556
0e38
03cc
cafe
301c
5556
0e38
031a
cafe
3404
5556
0e38
0401
cafe
3814
5556
0e3c
0342
cafe
3c0d
5556
0e3c
03bc
cafe
201d
5556
0e3c
02b8
cafe
2405
5556
0e3c
045d
cafe
2815
5556
0e40
02f1
cafe
2c0e
5556
0e40
036a
cafe
301e
5556
0e40
031e
cafe
3406
5556
0e40
0404
cafe
3816
5556
0e44
0350
cafe
3c0f
5556
0e44
0330
cafe
201f
5556
0e44
02f7
cafe
2407
5556
0e44
036b
cafe
2817
5556
0e48
03c7
cafe
2c08
5556
0e48
0444
cafe
3018
5556
0e48
039a
cafe
3400
5556
0e48
035d
cafe
3810
5556
0e4c
03d1
cafe
3c09
5556
0e4c
0408
cafe
2019
5556
0e4c
03ac
cafe
2401
5556
0e4c
03c4
cafe
2811
5556
0e50
03f5
cafe
2c0a
5556
0e50
0405
cafe
301a
5556
0e50
043a
cafe
3402
5556
0e50
03e1
cafe
3812
5556
0e54
03a8
cafe
3c0b
5556
0e54
03df
cafe
201b
5556
0e54
0298
cafe
2403
5556
0e54
0385
cafe
2813
5556
0e58
02e6
cafe
2c0c
5556
0e58
038f
cafe
301c
5556
0e58
02fb
cafe
3404
5556
0e58
03da
cafe
3814
5556
0e5c
030b
cafe
3c0d
5556
0e5c
03a5
cafe
201d
5556
0e5c
0292
cafe
2405
5556
0e5c
0443
cafe
2815
5556
0e60
02d3
cafe
2c0e
5556
0e60
036b
cafe
301e
5556
0e60
0302
cafe
3406
5556
0e60
03f8
cafe
3816
5556
0e64
0345
cafe
-
3c0f
5556
0e64
032c
cafe
201f
5556
0e64
02e6
cafe
2407
5556
0e64
0363
cafe
2817
5556
0e68
03ba
cafe
2c08
5556
0e68
0421
cafe
3018
5556
0e68
037f
cafe
3400
5556
0e68
034b
cafe
3810
5556
0e6c
03ad
cafe
3c09
5556
0e6c
03e4
cafe
2019
5556
0e6c
037d
cafe
2401
5556
0e6c
038d
cafe
2811
5556
0e70
03c6
cafe
2c0a
5556
0e70
03ce
cafe
301a
5556
0e70
0418
cafe
3402
5556
0e70
03bd
cafe
3812
5556
0e74
0372
cafe
3c0b
5556
0e74
03c9
cafe
201b
5556
0e74
027f
cafe
2403
5556
0e74
0361
cafe
2813
5556
0e78
02d0
cafe
2c0c
5556
0e78
0398
cafe
301c
5556
0e78
02e3
cafe
3404
5556
0e78
03cb
cafe
3814
5556
0e7c
0310
cafe
3c0d
5556
0e7c
03b0
cafe
201d
5556
0e7c
027b
cafe
2405
5556
0e7c
0431
cafe
2815
5556
0e80
02d3
cafe
2c0e
5556
0e80
0357
cafe
301e
5556
0e80
02e1
cafe
3406
5556
0e80
03e2
cafe
3816
5556
0e84
0336
cafe
3c0f
5556
0e84
02fe
cafe
201f
5556
0e84
02ca
cafe
2407
5556
0e84
033c
cafe
2817
5556
0e88
038c
cafe
2c08
5556
0e88
03ec
cafe
3018
5556
0e88
0355
cafe
3400
5556
0e88
0334
cafe
3810
5556
0e8c
036d
cafe
3c09
5556
0e8c
03ca
cafe
2019
5556
0e8c
035a
cafe
2401
5556
0e8c
0383
cafe
2811
5556
0e90
03ab
cafe
2c0a
5556
0e90
03cd
cafe
301a
5556
0e90
0403
cafe
3402
5556
0e90
03ae
cafe
3812
5556
0e94
0378
cafe
3c0b
5556
0e94
03cf
cafe
201b
5556
0e94
0278
cafe
2403
5556
0e94
0348
cafe
2813
-
5556
0e98
02cb
cafe
2c0c
5556
0e98
037f
cafe
301c
5556
0e98
02d1
cafe
3404
5556
0e98
03b5
cafe
3814
5556
0e9c
02f9
cafe
3c0d
5556
0e9c
037d
cafe
201d
5556
0e9c
0261
cafe
2405
5556
0e9c
0406
cafe
2815
5556
0ea0
02a4
cafe
2c0e
5556
0ea0
0319
cafe
301e
5556
0ea0
02bc
cafe
3406
5556
0ea0
03bf
cafe
3816
5556
0ea4
0304
cafe
3c0f
5556
0ea4
02d9
cafe
201f
5556
0ea4
02b1
cafe
2407
5556
0ea4
0324
cafe
2817
5556
0ea8
036f
cafe
2c08
5556
0ea8
03e6
cafe
3018
5556
0ea8
0348
cafe
3400
5556
0ea8
0320
cafe
3810
5556
0eac
037d
cafe
3c09
5556
0eac
03bf
cafe
2019
5556
0eac
0352
cafe
2401
5556
0eac
0366
cafe
2811
5556
0eb0
03ac
cafe
2c0a
5556
0eb0
03b7
cafe
301a
5556
0eb0
03e6
cafe
3402
5556
0eb0
0391
cafe
3812
5556
0eb4
035d
cafe
3c0b
5556
0eb4
03a4
cafe
201b
5556
0eb4
025a
cafe
2403
5556
0eb4
0328
cafe
2813
5556
0eb8
0295
cafe
2c0c
5556
0eb8
0343
cafe
301c
5556
0eb8
02b5
cafe
3404
5556
0eb8
0392
cafe
3814
5556
0ebc
02c6
cafe
3c0d
5556
0ebc
035a
cafe
201d
5556
0ebc
0246
cafe
2405
5556
0ebc
03e8
cafe
2815
5556
0ec0
028d
cafe
2c0e
5556
0ec0
031a
cafe
301e
5556
0ec0
02ae
cafe
3406
5556
0ec0
03b2
cafe
3816
5556
0ec4
02f3
cafe
3c0f
5556
0ec4
02d9
cafe
201f
5556
0ec4
0297
cafe
2407
5556
0ec4
031b
cafe
2817
5556
0ec8
0366
cafe
2c08
5556
0ec8
03d3
cafe
3018
5556
0ec8
032a
cafe
3400
5556
-
0ec8
030a
cafe
3810
5556
0ecc
0362
cafe
3c09
5556
0ecc
0395
cafe
2019
5556
0ecc
0332
cafe
2401
5556
0ecc
0348
cafe
2811
5556
0ed0
0377
cafe
2c0a
5556
0ed0
037f
cafe
301a
5556
0ed0
03ce
cafe
3402
5556
0ed0
036e
cafe
3812
5556
0ed4
032b
cafe
3c0b
5556
0ed4
037e
cafe
201b
5556
0ed4
0241
cafe
2403
5556
0ed4
0311
cafe
2813
5556
0ed8
0275
cafe
2c0c
5556
0ed8
0335
cafe
301c
5556
0ed8
02a1
cafe
3404
5556
0ed8
037c
cafe
3814
5556
0edc
02c3
cafe
3c0d
5556
0edc
035b
cafe
201d
5556
0edc
0230
cafe
2405
5556
0edc
03e3
cafe
2815
5556
0ee0
028a
cafe
2c0e
5556
0ee0
030c
cafe
301e
5556
0ee0
0298
cafe
3406
5556
0ee0
03a4
cafe
3816
5556
0ee4
02e7
cafe
3c0f
5556
0ee4
02a8
cafe
201f
5556
0ee4
028e
cafe
2407
5556
0ee4
02f4
cafe
2817
5556
0ee8
0343
cafe
2c08
5556
0ee8
039f
cafe
3018
5556
0ee8
0301
cafe
3400
5556
0ee8
02ee
cafe
3810
5556
0eec
0330
cafe
3c09
5556
0eec
0370
cafe
2019
5556
0eec
0310
cafe
2401
5556
0eec
031e
cafe
2811
5556
0ef0
034b
cafe
2c0a
5556
0ef0
0370
cafe
301a
5556
0ef0
03bf
cafe
3402
5556
0ef0
036c
cafe
3812
5556
0ef4
031b
cafe
3c0b
5556
0ef4
037e
cafe
201b
5556
0ef4
0234
cafe
2403
5556
0ef4
0304
cafe
2813
5556
0ef8
0282
cafe
2c0c
5556
0ef8
0332
cafe
301c
5556
0ef8
0287
cafe
3404
5556
0ef8
035e
cafe
3814
5556
0efc
02b4
cafe
3c0d
5556
0efc
0339
cafe
201d
5556
0efc
-
0211
cafe
2405
5556
0efc
03c3
cafe
2815
5556
0f00
0264
cafe
2c0e
5556
0f00
02cd
cafe
301e
5556
0f00
0282
cafe
3406
5556
0f00
0382
cafe
3816
5556
0f04
02b6
cafe
3c0f
5556
0f04
027e
cafe
201f
5556
0f04
0274
cafe
2407
5556
0f04
02ca
cafe
2817
5556
0f08
031c
cafe
2c08
5556
0f08
0391
cafe
3018
5556
0f08
02ed
cafe
3400
5556
0f08
02dd
cafe
3810
5556
0f0c
0328
cafe
3c09
5556
0f0c
0370
cafe
2019
5556
0f0c
030c
cafe
2401
5556
0f0c
0313
cafe
2811
5556
0f10
034a
cafe
2c0a
5556
0f10
0364
cafe
301a
5556
0f10
03a0
cafe
3402
5556
0f10
035b
cafe
3812
5556
0f14
031c
cafe
3c0b
5556
0f14
035a
cafe
201b
5556
0f14
0217
cafe
2403
5556
0f14
02f2
cafe
2813
5556
0f18
0251
cafe
2c0c
5556
0f18
0300
cafe
301c
5556
0f18
0273
cafe
3404
5556
0f18
0342
cafe
3814
5556
0f1c
028c
cafe
3c0d
5556
0f1c
0319
cafe
201d
5556
0f1c
0201
cafe
2405
5556
0f1c
03a6
cafe
2815
5556
0f20
0244
cafe
2c0e
5556
0f20
02be
cafe
301e
5556
0f20
0269
cafe
3406
5556
0f20
036c
cafe
3816
5556
0f24
02a1
cafe
3c0f
5556
0f24
0299
cafe
201f
5556
0f24
026c
cafe
2407
5556
0f24
02ca
cafe
2817
5556
0f28
0322
cafe
2c08
5556
0f28
0392
cafe
3018
5556
0f28
02f2
cafe
3400
5556
0f28
02ca
cafe
3810
5556
0f2c
032b
cafe
3c09
5556
0f2c
0360
cafe
2019
5556
0f2c
02ee
cafe
2401
5556
0f2c
02f4
cafe
2811
5556
0f30
0330
cafe
2c0a
5556
0f30
033b
-
cafe
301a
5556
0f30
0386
cafe
3402
5556
0f30
033b
cafe
3812
5556
0f34
02ee
cafe
3c0b
5556
0f34
0331
cafe
201b
5556
0f34
01fb
cafe
2403
5556
0f34
02d7
cafe
2813
5556
0f38
0230
cafe
2c0c
5556
0f38
02eb
cafe
301c
5556
0f38
026b
cafe
3404
5556
0f38
0333
cafe
3814
5556
0f3c
0272
cafe
3c0d
5556
0f3c
031a
cafe
201d
5556
0f3c
01f3
cafe
2405
5556
0f3c
039c
cafe
2815
5556
0f40
024f
cafe
2c0e
5556
0f40
02c2
cafe
301e
5556
0f40
0257
cafe
3406
5556
0f40
0368
cafe
3816
5556
0f44
0296
cafe
3c0f
5556
0f44
027a
cafe
201f
5556
0f44
0250
cafe
2407
5556
0f44
02b6
cafe
2817
5556
0f48
030a
cafe
2c08
5556
0f48
0366
cafe
3018
5556
0f48
02cd
cafe
3400
5556
0f48
02ab
cafe
3810
5556
0f4c
02e8
cafe
3c09
5556
0f4c
0330
cafe
2019
5556
0f4c
02d1
cafe
2401
5556
0f4c
02e6
cafe
2811
5556
0f50
0309
cafe
2c0a
5556
0f50
0324
cafe
301a
5556
0f50
036f
cafe
3402
5556
0f50
031c
cafe
3812
5556
0f54
02d0
cafe
3c0b
5556
0f54
0327
cafe
201b
5556
0f54
01e7
cafe
2403
5556
0f54
02cf
cafe
2813
5556
0f58
0235
cafe
2c0c
5556
0f58
02f9
cafe
301c
5556
0f58
025b
cafe
3404
5556
0f58
032d
cafe
3814
5556
0f5c
026e
cafe
3c0d
5556
0f5c
02f7
cafe
201d
5556
0f5c
01dd
cafe
2405
5556
0f5c
038b
cafe
2815
5556
0f60
023e
cafe
2c0e
5556
0f60
028f
cafe
301e
5556
0f60
024b
cafe
3406
5556
0f60
0341
cafe
3816
5556
0f64
0277
cafe
-
3c0f
5556
0f64
0247
cafe
201f
5556
0f64
023b
cafe
2407
5556
0f64
0293
cafe
2817
5556
0f68
02dd
cafe
2c08
5556
0f68
0340
cafe
3018
5556
0f68
02ba
cafe
3400
5556
0f68
0296
cafe
3810
5556
0f6c
02cb
cafe
3c09
5556
0f6c
0326
cafe
2019
5556
0f6c
02c6
cafe
2401
5556
0f6c
02d7
cafe
2811
5556
0f70
030d
cafe
2c0a
5556
0f70
0332
cafe
301a
5556
0f70
0366
cafe
3402
5556
0f70
030b
cafe
3812
5556
0f74
02d7
cafe
3c0b
5556
0f74
0323
cafe
201b
5556
0f74
01d7
cafe
2403
5556
0f74
02c0
cafe
2813
5556
0f78
0227
cafe
2c0c
5556
0f78
02cd
cafe
301c
5556
0f78
023e
cafe
3404
5556
0f78
0309
cafe
3814
5556
0f7c
0254
cafe
3c0d
5556
0f7c
02cb
cafe
201d
5556
0f7c
01c7
cafe
2405
5556
0f7c
036f
cafe
2815
5556
0f80
0213
cafe
2c0e
5556
0f80
026b
cafe
301e
5556
0f80
0234
cafe
3406
5556
0f80
0325
cafe
3816
5556
0f84
025b
cafe
3c0f
5556
0f84
0238
cafe
201f
5556
0f84
0235
cafe
2407
5556
0f84
0291
cafe
2817
5556
0f88
02ce
cafe
2c08
5556
0f88
0344
cafe
3018
5556
0f88
02bb
cafe
3400
5556
0f88
028b
cafe
3810
5556
0f8c
02dc
cafe
3c09
5556
0f8c
031d
cafe
2019
5556
0f8c
02ae
cafe
2401
5556
0f8c
02bd
cafe
2811
5556
0f90
0300
cafe
2c0a
5556
0f90
0317
cafe
301a
5556
0f90
034f
cafe
3402
5556
0f90
02fd
cafe
3812
5556
0f94
02bf
cafe
3c0b
5556
0f94
02f6
cafe
201b
5556
0f94
01c2
cafe
2403
5556
0f94
02aa
cafe
2813
-
5556
0f98
0203
cafe
2c0c
5556
0f98
02a5
cafe
301c
5556
0f98
0224
cafe
3404
5556
0f98
02ea
cafe
3814
5556
0f9c
0237
cafe
3c0d
5556
0f9c
02be
cafe
201d
5556
0f9c
01b7
cafe
2405
5556
0f9c
0366
cafe
2815
5556
0fa0
01f6
cafe
2c0e
5556
0fa0
027c
cafe
301e
5556
0fa0
021c
cafe
3406
5556
0fa0
0324
cafe
3816
5556
0fa4
025a
cafe
3c0f
5556
0fa4
0242
cafe
201f
5556
0fa4
022c
cafe
2407
5556
0fa4
028c
cafe
2817
5556
0fa8
02cc
cafe
2c08
5556
0fa8
0334
cafe
3018
5556
0fa8
02a3
cafe
3400
5556
0fa8
0272
cafe
3810
5556
0fac
02cf
cafe
3c09
5556
0fac
02f8
cafe
2019
5556
0fac
0296
cafe
2401
5556
0fac
02b0
cafe
2811
5556
0fb0
02d5
cafe
2c0a
5556
0fb0
02eb
cafe
301a
5556
0fb0
0337
cafe
3402
5556
0fb0
02e2
cafe
3812
5556
0fb4
029e
cafe
3c0b
5556
0fb4
02e8
cafe
201b
5556
0fb4
01c2
cafe
2403
5556
0fb4
029c
cafe
2813
5556
0fb8
01f7
cafe
2c0c
5556
0fb8
02bd
cafe
301c
5556
0fb8
0220
cafe
3404
5556
0fb8
02ea
cafe
3814
5556
0fbc
0239
cafe
3c0d
5556
0fbc
02c7
cafe
201d
5556
0fbc
01b4
cafe
2405
5556
0fbc
035d
cafe
2815
5556
0fc0
020c
cafe
2c0e
5556
0fc0
0271
cafe
301e
5556
0fc0
0216
cafe
3406
5556
0fc0
0314
cafe
3816
5556
0fc4
0257
cafe
3c0f
5556
0fc4
0221
cafe
201f
5556
0fc4
0213
cafe
2407
5556
0fc4
026d
cafe
2817
5556
0fc8
02a7
cafe
2c08
5556
0fc8
0314
cafe
3018
5556
0fc8
027d
cafe
3400
5556
-
0fc8
0266
cafe
3810
5556
0fcc
029f
cafe
3c09
5556
0fcc
02df
cafe
2019
5556
0fcc
0282
cafe
2401
5556
0fcc
02a2
cafe
2811
5556
0fd0
02bb
cafe
2c0a
5556
0fd0
02f6
cafe
301a
5556
0fd0
0331
cafe
3402
5556
0fd0
02d6
cafe
3812
5556
0fd4
02a2
cafe
3c0b
5556
0fd4
02ec
cafe
201b
5556
0fd4
01b1
cafe
2403
5556
0fd4
0299
cafe
2813
5556
0fd8
01fa
cafe
2c0c
5556
0fd8
02a8
cafe
301c
5556
0fd8
0215
cafe
3404
5556
0fd8
02da
cafe
3814
5556
0fdc
0231
cafe
3c0d
5556
0fdc
02a1
cafe
201d
5556
0fdc
01a0
cafe
2405
5556
0fdc
0344
cafe
2815
5556
0fe0
01f2
cafe
2c0e
5556
0fe0
0244
cafe
301e
5556
0fe0
0206
cafe
3406
5556
0fe0
02f5
cafe
3816
5556
0fe4
0233
cafe
3c0f
5556
0fe4
0205
cafe
201f
5556
0fe4
01ff
cafe
2407
5556
0fe4
0259
cafe
2817
5556
0fe8
029c
cafe
2c08
5556
0fe8
0316
cafe
3018
5556
0fe8
027e
cafe
3400
5556
0fe8
0255
cafe
3810
5556
0fec
02ad
cafe
3c09
5556
0fec
02ef
cafe
2019
5556
0fec
0281
cafe
2401
5556
0fec
029c
cafe
2811
5556
0ff0
02cc
cafe
2c0a
5556
0ff0
02ea
cafe
301a
5556
0ff0
031b
cafe
3402
5556
0ff0
02c7
cafe
3812
5556
0ff4
0294
cafe
3c0b
5556
0ff4
02c9
cafe
201b
5556
0ff4
01a3
cafe
2403
5556
0ff4
0283
cafe
2813
5556
0ff8
01d7
cafe
2c0c
5556
0ff8
0280
cafe
301c
5556
0ff8
0210
cafe
3404
5556
0ff8
02c6
cafe
3814
5556
0ffc
0208
cafe
3c0d
5556
0ffc
028e
cafe
201d
5556
0ffc
-
0197
cafe
2405
5556
0ffc
032b
cafe
2815
5556
1000
01d7
cafe
2c0e
5556
1000
0240
cafe
301e
5556
1000
0200
cafe
3406
5556
1000
02f4
cafe
3816
5556
1004
022d
cafe
3c0f
5556
1004
020e
cafe
201f
5556
1004
01e3
cafe
2407
5556
1004
0260
cafe
2817
5556
1008
02a3
cafe
2c08
5556
1008
0305
cafe
3018
5556
1008
026c
cafe
3400
5556
1008
024a
cafe
3810
5556
100c
02a0
cafe
3c09
5556
100c
02d2
cafe
2019
5556
100c
026b
cafe
2401
5556
100c
0289
cafe
2811
5556
1010
02a1
cafe
2c0a
5556
1010
02b8
cafe
301a
5556
1010
030d
cafe
3402
5556
1010
02ae
cafe
3812
5556
1014
026a
cafe
3c0b
5556
1014
02b2
cafe
201b
5556
1014
018c
cafe
2403
5556
1014
027d
cafe
2813
5556
1018
01be
cafe
2c0c
5556
1018
0282
cafe
301c
5556
1018
0200
cafe
3404
5556
1018
02b8
cafe
3814
5556
101c
0201
cafe
3c0d
5556
101c
0297
cafe
201d
5556
101c
018f
cafe
2405
5556
101c
0335
cafe
2815
5556
1020
01db
cafe
2c0e
5556
1020
023f
cafe
301e
5556
1020
01ee
cafe
3406
5556
1020
02f0
cafe
3816
5556
1024
0228
cafe
3c0f
5556
1024
01f7
cafe
201f
5556
1024
01e0
cafe
2407
5556
1024
023f
cafe
2817
5556
1028
028a
cafe
2c08
5556
1028
02da
cafe
3018
5556
1028
025a
cafe
3400
5556
1028
0242
cafe
3810
5556
102c
0275
cafe
3c09
5556
102c
02ba
cafe
2019
5556
102c
0252
cafe
2401
5556
102c
0271
cafe
2811
5556
1030
0289
cafe
2c0a
5556
1030
02c0
-
cafe
301a
5556
1030
02fb
cafe
3402
5556
1030
029f
cafe
3812
5556
1034
0265
cafe
3c0b
5556
1034
02c0
cafe
201b
5556
1034
0190
cafe
2403
5556
1034
0272
cafe
2813
5556
1038
01d8
cafe
2c0c
5556
1038
028e
cafe
301c
5556
1038
01ef
cafe
3404
5556
1038
02b4
cafe
3814
5556
103c
0207
cafe
3c0d
5556
103c
027b
cafe
201d
5556
103c
0181
cafe
2405
5556
103c
031d
cafe
2815
5556
1040
01c6
cafe
2c0e
5556
1040
0214
cafe
301e
5556
1040
01e2
cafe
3406
5556
1040
02d0
cafe
3816
5556
1044
0206
cafe
3c0f
5556
1044
01ca
cafe
201f
5556
1044
01d2
cafe
2407
5556
1044
0226
cafe
2817
5556
1048
026c
cafe
2c08
5556
1048
02c5
cafe
3018
5556
1048
024a
cafe
3400
5556
1048
022d
cafe
3810
5556
104c
0264
cafe
3c09
5556
104c
02c4
cafe
2019
5556
104c
0254
cafe
2401
5556
104c
0274
cafe
2811
5556
1050
0295
cafe
2c0a
5556
1050
02d1
cafe
301a
5556
1050
02ee
cafe
3402
5556
1050
0298
cafe
3812
5556
1054
0260
cafe
3c0b
5556
1054
02a4
cafe
201b
5556
1054
0184
cafe
2403
5556
1054
0268
cafe
2813
5556
1058
01c3
cafe
2c0c
5556
1058
025c
cafe
301c
5556
1058
01d7
cafe
3404
5556
1058
02a9
cafe
3814
5556
105c
01e4
cafe
3c0d
5556
105c
0259
cafe
201d
5556
105c
0171
cafe
2405
5556
105c
0303
cafe
2815
5556
1060
01ab
cafe
2c0e
5556
1060
01f7
cafe
301e
5556
1060
01d7
cafe
3406
5556
1060
02bd
cafe
3816
5556
1064
01ee
cafe
-
