340e
5556
0580
0103
cafe
381e
5556
0580
0132
cafe
3c06
5556
0580
0153
cafe
2016
5556
0584
015e
cafe
240f
5556
0584
00a6
cafe
281f
5556
0584
015e
cafe
2c07
5556
0584
01a9
cafe
3017
5556
0588
01a3
cafe
3408
5556
0588
01d3
cafe
3818
5556
0588
01e4
cafe
3c00
5556
0588
0170
cafe
2010
5556
058c
015e
cafe
2409
5556
058c
0104
cafe
2819
5556
058c
0174
cafe
2c01
5556
058c
0177
cafe
3011
5556
0590
0172
cafe
340a
5556
0590
01ab
cafe
381a
5556
0590
00d7
cafe
3c02
5556
0590
011d
cafe
2012
5556
0594
0162
cafe
240b
5556
0594
017e
cafe
281b
5556
0594
0263
cafe
2c03
5556
0594
0126
cafe
3013
5556
0598
018d
cafe
340c
5556
0598
01b9
cafe
381c
5556
0598
0149
cafe
3c04
5556
0598
0109
cafe
2014
5556
059c
012a
cafe
240d
5556
059c
0144
cafe
281d
5556
059c
017c
cafe
2c05
5556
059c
01ff
cafe
3015
5556
05a0
019d
cafe
340e
5556
05a0
0102
cafe
381e
5556
05a0
0139
cafe
3c06
5556
05a0
0152
cafe
2016
5556
05a4
015d
cafe
240f
5556
05a4
00a2
cafe
281f
5556
05a4
0160
cafe
2c07
5556
05a4
01a7
cafe
3017
5556
05a8
01a8
cafe
3408
5556
05a8
01d4
cafe
3818
5556
05a8
01e9
cafe
3c00
5556
05a8
0174
cafe
2010
5556
05ac
015c
cafe
2409
5556
05ac
0105
cafe
2819
5556
05ac
0173
cafe
2c01
5556
05ac
0170
cafe
3011
5556
05b0
0171
cafe
340a
5556
05b0
01a0
cafe
381a
5556
05b0
00db
cafe
3c02
5556
05b0
011e
cafe
2012
-
5556
05b4
0164
cafe
240b
5556
05b4
0185
cafe
281b
5556
05b4
0268
cafe
2c03
5556
05b4
0124
cafe
3013
5556
05b8
018d
cafe
340c
5556
05b8
01b8
cafe
381c
5556
05b8
0149
cafe
3c04
5556
05b8
0107
cafe
2014
5556
05bc
012a
cafe
240d
5556
05bc
0147
cafe
281d
5556
05bc
0177
cafe
2c05
5556
05bc
01fa
cafe
3015
5556
05c0
01a2
cafe
340e
5556
05c0
010c
cafe
381e
5556
05c0
013c
cafe
3c06
5556
05c0
0153
cafe
2016
5556
05c4
015a
cafe
240f
5556
05c4
00a5
cafe
281f
5556
05c4
015c
cafe
2c07
5556
05c4
01a6
cafe
3017
5556
05c8
01a8
cafe
3408
5556
05c8
01d7
cafe
3818
5556
05c8
01eb
cafe
3c00
5556
05c8
0173
cafe
2010
5556
05cc
0157
cafe
2409
5556
05cc
0100
cafe
2819
5556
05cc
0172
cafe
2c01
5556
05cc
016e
cafe
3011
5556
05d0
0171
cafe
340a
5556
05d0
01a0
cafe
381a
5556
05d0
00d7
cafe
3c02
5556
05d0
011c
cafe
2012
5556
05d4
0163
cafe
240b
5556
05d4
0187
cafe
281b
5556
05d4
026b
cafe
2c03
5556
05d4
0129
cafe
3013
5556
05d8
0193
cafe
340c
5556
05d8
01b2
cafe
381c
5556
05d8
014c
cafe
3c04
5556
05d8
010e
cafe
2014
5556
05dc
012b
cafe
240d
5556
05dc
0140
cafe
281d
5556
05dc
0174
cafe
2c05
5556
05dc
0200
cafe
3015
5556
05e0
01a6
cafe
340e
5556
05e0
0104
cafe
381e
5556
05e0
013e
cafe
3c06
5556
05e0
0151
cafe
2016
5556
05e4
015a
cafe
240f
5556
05e4
00ab
cafe
281f
5556
05e4
015b
cafe
2c07
5556
-
05e4
01ab
cafe
3017
5556
05e8
01a9
cafe
3408
5556
05e8
01d4
cafe
3818
5556
05e8
01f1
cafe
3c00
5556
05e8
016d
cafe
2010
5556
05ec
0158
cafe
2409
5556
05ec
00f9
cafe
2819
5556
05ec
016f
cafe
2c01
5556
05ec
0172
cafe
3011
5556
05f0
016f
cafe
340a
5556
05f0
01a8
cafe
381a
5556
05f0
00d6
cafe
3c02
5556
05f0
0119
cafe
2012
5556
05f4
0160
cafe
240b
5556
05f4
018a
cafe
281b
5556
05f4
0264
cafe
2c03
5556
05f4
012b
cafe
3013
5556
05f8
0196
cafe
340c
5556
05f8
01b0
cafe
381c
5556
05f8
0147
cafe
3c04
5556
05f8
010e
cafe
2014
5556
05fc
0127
cafe
240d
5556
05fc
013b
cafe
281d
5556
05fc
016f
cafe
2c05
5556
05fc
0202
cafe
3015
5556
0600
01a4
cafe
340e
5556
0600
0106
cafe
381e
5556
0600
0144
cafe
3c06
5556
0600
0151
cafe
2016
5556
0604
015d
cafe
240f
5556
0604
00a7
cafe
281f
5556
0604
015a
cafe
2c07
5556
0604
01ab
cafe
3017
5556
0608
01a5
cafe
3408
5556
0608
01d2
cafe
3818
5556
0608
01ee
cafe
3c00
5556
0608
016c
cafe
2010
5556
060c
015b
cafe
2409
5556
060c
00fb
cafe
2819
5556
060c
0174
cafe
2c01
5556
060c
0174
cafe
3011
5556
0610
0171
cafe
340a
5556
0610
01ac
cafe
381a
5556
0610
00de
cafe
3c02
5556
0610
0116
cafe
2012
5556
0614
0162
cafe
240b
5556
0614
018b
cafe
281b
5556
0614
0260
cafe
2c03
5556
0614
012b
cafe
3013
5556
0618
0195
cafe
340c
5556
0618
01af
cafe
381c
5556
0618
-
014b
cafe
3c04
5556
0618
010f
cafe
2014
5556
061c
0129
cafe
240d
5556
061c
013d
cafe
281d
5556
061c
016a
cafe
2c05
5556
061c
0202
cafe
3015
5556
0620
01a3
cafe
340e
5556
0620
0105
cafe
381e
5556
0620
0143
cafe
3c06
5556
0620
014e
cafe
2016
5556
0624
015d
cafe
240f
5556
0624
00ab
cafe
281f
5556
0624
0159
cafe
2c07
5556
0624
01ab
cafe
3017
5556
0628
01a2
cafe
3408
5556
0628
01ce
cafe
3818
5556
0628
01ee
cafe
3c00
5556
0628
0170
cafe
2010
5556
062c
0154
cafe
2409
5556
062c
00f8
cafe
2819
5556
062c
0177
cafe
2c01
5556
062c
0174
cafe
3011
5556
0630
016e
cafe
340a
5556
0630
01af
cafe
381a
5556
0630
00dd
cafe
3c02
5556
0630
0116
cafe
2012
5556
0634
015d
cafe
240b
5556
0634
0189
cafe
281b
5556
0634
025e
cafe
2c03
5556
0634
0133
cafe
3013
5556
0638
019b
cafe
340c
5556
0638
01ad
cafe
381c
5556
0638
014e
cafe
3c04
5556
0638
0108
cafe
2014
5556
063c
0135
cafe
240d
5556
063c
013a
cafe
281d
5556
063c
016d
cafe
2c05
5556
063c
0207
cafe
3015
5556
0640
019f
cafe
340e
5556
0640
0103
cafe
381e
5556
0640
013e
cafe
3c06
5556
0640
014e
cafe
2016
5556
0644
0158
cafe
240f
5556
0644
00b0
cafe
281f
5556
0644
015d
cafe
2c07
5556
0644
01ae
cafe
3017
5556
0648
01a6
cafe
3408
5556
0648
01d4
cafe
3818
5556
0648
01ef
cafe
3c00
5556
0648
0170
cafe
2010
5556
064c
0157
cafe
2409
5556
064c
00fd
-
cafe
2819
5556
064c
0175
cafe
2c01
5556
064c
0172
cafe
3011
5556
0650
016e
cafe
340a
5556
0650
01ae
cafe
381a
5556
0650
00de
cafe
3c02
5556
0650
0113
cafe
2012
5556
0654
0159
cafe
240b
5556
0654
0185
cafe
281b
5556
0654
025f
cafe
2c03
5556
0654
0130
cafe
3013
5556
0658
019e
cafe
340c
5556
0658
01af
cafe
381c
5556
0658
0148
cafe
3c04
5556
0658
0112
cafe
2014
5556
065c
0132
cafe
240d
5556
065c
0132
cafe
281d
5556
065c
016f
cafe
2c05
5556
065c
01ff
cafe
3015
5556
0660
019a
cafe
340e
5556
0660
00ff
cafe
381e
5556
0660
013a
cafe
3c06
5556
0660
0156
cafe
2016
5556
0664
015a
cafe
240f
5556
0664
00ad
cafe
281f
5556
0664
0162
cafe
2c07
5556
0664
01ab
cafe
3017
5556
0668
01a5
cafe
3408
5556
0668
01d7
cafe
3818
5556
0668
01f0
cafe
3c00
5556
0668
016f
cafe
2010
5556
066c
015b
cafe
2409
5556
066c
0100
cafe
2819
5556
066c
0176
cafe
2c01
5556
066c
0170
cafe
3011
5556
0670
016f
cafe
340a
5556
0670
01aa
cafe
381a
5556
0670
00e0
cafe
3c02
5556
0670
0114
cafe
2012
5556
0674
0159
cafe
240b
5556
0674
0186
cafe
281b
5556
0674
0259
cafe
2c03
5556
0674
012b
cafe
3013
5556
0678
019d
cafe
340c
5556
0678
01b2
cafe
381c
5556
0678
0149
cafe
3c04
5556
0678
0109
cafe
2014
5556
067c
0131
cafe
240d
5556
067c
012f
cafe
281d
5556
067c
016b
cafe
2c05
5556
067c
0202
cafe
3015
5556
0680
0197
cafe
-
340e
5556
0680
00fe
cafe
381e
5556
0680
0145
cafe
3c06
5556
0680
0157
cafe
2016
5556
0684
015b
cafe
240f
5556
0684
00ad
cafe
281f
5556
0684
015d
cafe
2c07
5556
0684
01a9
cafe
3017
5556
0688
01ab
cafe
3408
5556
0688
01da
cafe
3818
5556
0688
01ee
cafe
3c00
5556
0688
0173
cafe
2010
5556
068c
0162
cafe
2409
5556
068c
00fc
cafe
2819
5556
068c
017a
cafe
2c01
5556
068c
016f
cafe
3011
5556
0690
0168
cafe
340a
5556
0690
01ab
cafe
381a
5556
0690
00e1
cafe
3c02
5556
0690
010f
cafe
2012
5556
0694
0157
cafe
240b
5556
0694
018e
cafe
281b
5556
0694
0258
cafe
2c03
5556
0694
012a
cafe
3013
5556
0698
019c
cafe
340c
5556
0698
01b2
cafe
381c
5556
0698
014e
cafe
3c04
5556
0698
0109
cafe
2014
5556
069c
0135
cafe
240d
5556
069c
012c
cafe
281d
5556
069c
016d
cafe
2c05
5556
069c
0202
cafe
3015
5556
06a0
0199
cafe
340e
5556
06a0
00fe
cafe
381e
5556
06a0
0144
cafe
3c06
5556
06a0
0155
cafe
2016
5556
06a4
015c
cafe
240f
5556
06a4
00b0
cafe
281f
5556
06a4
015a
cafe
2c07
5556
06a4
01a8
cafe
3017
5556
06a8
01ad
cafe
3408
5556
06a8
01d8
cafe
3818
5556
06a8
01ee
cafe
3c00
5556
06a8
0176
cafe
2010
5556
06ac
0168
cafe
2409
5556
06ac
00fd
cafe
2819
5556
06ac
0177
cafe
2c01
5556
06ac
016b
cafe
3011
5556
06b0
0167
cafe
340a
5556
06b0
01ad
cafe
381a
5556
06b0
00e3
cafe
3c02
5556
06b0
0113
cafe
2012
-
5556
06b4
015d
cafe
240b
5556
06b4
018f
cafe
281b
5556
06b4
0256
cafe
2c03
5556
06b4
0129
cafe
3013
5556
06b8
0193
cafe
340c
5556
06b8
01b7
cafe
381c
5556
06b8
0148
cafe
3c04
5556
06b8
0108
cafe
2014
5556
06bc
0133
cafe
240d
5556
06bc
0128
cafe
281d
5556
06bc
016d
cafe
2c05
5556
06bc
0200
cafe
3015
5556
06c0
019b
cafe
340e
5556
06c0
00fb
cafe
381e
5556
06c0
0148
cafe
3c06
5556
06c0
0158
cafe
2016
5556
06c4
015a
cafe
240f
5556
06c4
00a8
cafe
281f
5556
06c4
015a
cafe
2c07
5556
06c4
01a6
cafe
3017
5556
06c8
01af
cafe
3408
5556
06c8
01d5
cafe
3818
5556
06c8
01eb
cafe
3c00
5556
06c8
0174
cafe
2010
5556
06cc
0169
cafe
2409
5556
06cc
00fa
cafe
2819
5556
06cc
0174
cafe
2c01
5556
06cc
0173
cafe
3011
5556
06d0
0166
cafe
340a
5556
06d0
01af
cafe
381a
5556
06d0
00d8
cafe
3c02
5556
06d0
0113
cafe
2012
5556
06d4
015d
cafe
240b
5556
06d4
018f
cafe
281b
5556
06d4
0260
cafe
2c03
5556
06d4
0128
cafe
3013
5556
06d8
0191
cafe
340c
5556
06d8
01c2
cafe
381c
5556
06d8
014c
cafe
3c04
5556
06d8
0102
cafe
2014
5556
06dc
0138
cafe
240d
5556
06dc
0125
cafe
281d
5556
06dc
0172
cafe
2c05
5556
06dc
01ff
cafe
3015
5556
06e0
019d
cafe
340e
5556
06e0
00fe
cafe
381e
5556
06e0
0148
cafe
3c06
5556
06e0
015c
cafe
2016
5556
06e4
0158
cafe
240f
5556
06e4
00ae
cafe
281f
5556
06e4
0159
cafe
2c07
5556
-
06e4
01ac
cafe
3017
5556
06e8
01a9
cafe
3408
5556
06e8
01d4
cafe
3818
5556
06e8
01eb
cafe
3c00
5556
06e8
016f
cafe
2010
5556
06ec
0162
cafe
2409
5556
06ec
0100
cafe
2819
5556
06ec
0174
cafe
2c01
5556
06ec
016f
cafe
3011
5556
06f0
0166
cafe
340a
5556
06f0
01ad
cafe
381a
5556
06f0
00d6
cafe
3c02
5556
06f0
0110
cafe
2012
5556
06f4
0163
cafe
240b
5556
06f4
0189
cafe
281b
5556
06f4
025e
cafe
2c03
5556
06f4
012a
cafe
3013
5556
06f8
018f
cafe
340c
5556
06f8
01c0
cafe
381c
5556
06f8
014b
cafe
3c04
5556
06f8
00ff
cafe
2014
5556
06fc
0136
cafe
240d
5556
06fc
0131
cafe
281d
5556
06fc
0179
cafe
2c05
5556
06fc
0201
cafe
3015
5556
0700
019b
cafe
340e
5556
0700
0101
cafe
381e
5556
0700
0149
cafe
3c06
5556
0700
0155
cafe
2016
5556
0704
015c
cafe
240f
5556
0704
00a9
cafe
281f
5556
0704
015b
cafe
2c07
5556
0704
01b2
cafe
3017
5556
0708
01a5
cafe
3408
5556
0708
01d3
cafe
3818
5556
0708
01e7
cafe
3c00
5556
0708
0170
cafe
2010
5556
070c
015f
cafe
2409
5556
070c
0102
cafe
2819
5556
070c
0170
cafe
2c01
5556
070c
016c
cafe
3011
5556
0710
0168
cafe
340a
5556
0710
01aa
cafe
381a
5556
0710
00d4
cafe
3c02
5556
0710
010f
cafe
2012
5556
0714
015f
cafe
240b
5556
0714
0186
cafe
281b
5556
0714
025c
cafe
2c03
5556
0714
012d
cafe
3013
5556
0718
018f
cafe
340c
5556
0718
01bd
cafe
381c
5556
0718
-
0149
cafe
3c04
5556
0718
0102
cafe
2014
5556
071c
012f
cafe
240d
5556
071c
0132
cafe
281d
5556
071c
017b
cafe
2c05
5556
071c
01fe
cafe
3015
5556
0720
019c
cafe
340e
5556
0720
00fc
cafe
381e
5556
0720
0146
cafe
3c06
5556
0720
015e
cafe
2016
5556
0724
0165
cafe
240f
5556
0724
00ad
cafe
281f
5556
0724
0158
cafe
2c07
5556
0724
01b2
cafe
3017
5556
0728
01ac
cafe
3408
5556
0728
01d4
cafe
3818
5556
0728
01f0
cafe
3c00
5556
0728
0170
cafe
2010
5556
072c
0160
cafe
2409
5556
072c
0102
cafe
2819
5556
072c
016b
cafe
2c01
5556
072c
0167
cafe
3011
5556
0730
0169
cafe
340a
5556
0730
01ad
cafe
381a
5556
0730
00d7
cafe
3c02
5556
0730
010f
cafe
2012
5556
0734
015a
cafe
240b
5556
0734
0183
cafe
281b
5556
0734
025d
cafe
2c03
5556
0734
0129
cafe
3013
5556
0738
0196
cafe
340c
5556
0738
01bd
cafe
381c
5556
0738
0142
cafe
3c04
5556
0738
00fe
cafe
2014
5556
073c
0134
cafe
240d
5556
073c
0133
cafe
281d
5556
073c
017a
cafe
2c05
5556
073c
01fb
cafe
3015
5556
0740
019b
cafe
340e
5556
0740
00fc
cafe
381e
5556
0740
0144
cafe
3c06
5556
0740
015e
cafe
2016
5556
0744
0167
cafe
240f
5556
0744
00ac
cafe
281f
5556
0744
015e
cafe
2c07
5556
0744
01ae
cafe
3017
5556
0748
01ac
cafe
3408
5556
0748
01d8
cafe
3818
5556
0748
01e8
cafe
3c00
5556
0748
0170
cafe
2010
5556
074c
0160
cafe
2409
5556
074c
0101
-
cafe
2819
5556
074c
0169
cafe
2c01
5556
074c
0168
cafe
3011
5556
0750
0171
cafe
340a
5556
0750
01a9
cafe
381a
5556
0750
00e2
cafe
3c02
5556
0750
010d
cafe
2012
5556
0754
0157
cafe
240b
5556
0754
0181
cafe
281b
5556
0754
025a
cafe
2c03
5556
0754
0125
cafe
3013
5556
0758
0196
cafe
340c
5556
0758
01bc
cafe
381c
5556
0758
0142
cafe
3c04
5556
0758
0100
cafe
2014
5556
075c
0137
cafe
240d
5556
075c
0132
cafe
281d
5556
075c
0171
cafe
2c05
5556
075c
01f9
cafe
3015
5556
0760
019c
cafe
340e
5556
0760
0102
cafe
381e
5556
0760
0147
cafe
3c06
5556
0760
0157
cafe
2016
5556
0764
0163
cafe
240f
5556
0764
00ab
cafe
281f
5556
0764
0166
cafe
2c07
5556
0764
01b4
cafe
3017
5556
0768
01b0
cafe
3408
5556
0768
01d9
cafe
3818
5556
0768
01ef
cafe
3c00
5556
0768
0174
cafe
2010
5556
076c
0163
cafe
2409
5556
076c
0102
cafe
2819
5556
076c
016e
cafe
2c01
5556
076c
0169
cafe
3011
5556
0770
0171
cafe
340a
5556
0770
01ac
cafe
381a
5556
0770
00d8
cafe
3c02
5556
0770
010b
cafe
2012
5556
0774
0155
cafe
240b
5556
0774
017e
cafe
281b
5556
0774
025b
cafe
2c03
5556
0774
0123
cafe
3013
5556
0778
0190
cafe
340c
5556
0778
01b2
cafe
381c
5556
0778
0141
cafe
3c04
5556
0778
0104
cafe
2014
5556
077c
0135
cafe
240d
5556
077c
0134
cafe
281d
5556
077c
0175
cafe
2c05
5556
077c
01f6
cafe
3015
5556
0780
01a1
cafe
-
340e
5556
0780
0107
cafe
381e
5556
0780
0138
cafe
3c06
5556
0780
0156
cafe
2016
5556
0784
0163
cafe
240f
5556
0784
00ab
cafe
281f
5556
0784
0171
cafe
2c07
5556
0784
01b0
cafe
3017
5556
0788
01a7
cafe
3408
5556
0788
01dd
cafe
3818
5556
0788
01ed
cafe
3c00
5556
0788
016f
cafe
2010
5556
078c
0164
cafe
2409
5556
078c
0104
cafe
2819
5556
078c
016d
cafe
2c01
5556
078c
016a
cafe
3011
5556
0790
016e
cafe
340a
5556
0790
01aa
cafe
381a
5556
0790
00d7
cafe
3c02
5556
0790
0115
cafe
2012
5556
0794
0159
cafe
240b
5556
0794
0182
cafe
281b
5556
0794
025f
cafe
2c03
5556
0794
0125
cafe
3013
5556
0798
018f
cafe
340c
5556
0798
01b8
cafe
381c
5556
0798
0144
cafe
3c04
5556
0798
010e
cafe
2014
5556
079c
013a
cafe
240d
5556
079c
0133
cafe
281d
5556
079c
017c
cafe
2c05
5556
079c
01f7
cafe
3015
5556
07a0
019c
cafe
340e
5556
07a0
010c
cafe
381e
5556
07a0
0136
cafe
3c06
5556
07a0
0153
cafe
2016
5556
07a4
015f
cafe
240f
5556
07a4
00a7
cafe
281f
5556
07a4
016f
cafe
2c07
5556
07a4
01b0
cafe
3017
5556
07a8
01ab
cafe
3408
5556
07a8
01d9
cafe
3818
5556
07a8
01ee
cafe
3c00
5556
07a8
0174
cafe
2010
5556
07ac
0169
cafe
2409
5556
07ac
0140
cafe
2819
5556
07ac
01aa
cafe
2c01
5556
07ac
01a0
cafe
3011
5556
07b0
01a0
cafe
340a
5556
07b0
027c
cafe
381a
5556
07b0
01ae
cafe
3c02
5556
07b0
01e6
cafe
2012
-
5556
07b4
022e
cafe
240b
5556
07b4
02ec
cafe
281b
5556
07b4
03ce
cafe
2c03
5556
07b4
028c
cafe
3013
5556
07b8
0300
cafe
340c
5556
07b8
03bb
cafe
381c
5556
07b8
0345
cafe
3c04
5556
07b8
030d
cafe
2014
5556
07bc
033c
cafe
240d
5556
07bc
03b2
cafe
281d
5556
07bc
03ef
cafe
2c05
5556
07bc
0468
cafe
3015
5556
07c0
041d
cafe
340e
5556
07c0
0410
cafe
381e
5556
07c0
0423
cafe
3c06
5556
07c0
0446
cafe
2016
5556
07c4
0456
cafe
240f
5556
07c4
0407
cafe
281f
5556
07c4
04c8
cafe
2c07
5556
07c4
050f
cafe
3017
5556
07c8
0511
cafe
3408
5556
07c8
05a8
cafe
3818
5556
07c8
05b2
cafe
3c00
5556
07c8
0521
cafe
2010
5556
07cc
0537
cafe
2409
5556
07cc
0521
cafe
2819
5556
07cc
0588
cafe
2c01
5556
07cc
0575
cafe
3011
5556
07d0
058b
cafe
340a
5556
07d0
0620
cafe
381a
5556
07d0
0545
cafe
3c02
5556
07d0
0569
cafe
2012
5556
07d4
05d0
cafe
240b
5556
07d4
0633
cafe
281b
5556
07d4
0716
cafe
2c03
5556
07d4
05c8
cafe
3013
5556
07d8
064e
cafe
340c
5556
07d8
06bb
cafe
381c
5556
07d8
0644
cafe
3c04
5556
07d8
0602
cafe
2014
5556
07dc
063f
cafe
240d
5556
07dc
0668
cafe
281d
5556
07dc
06a7
cafe
2c05
5556
07dc
0719
cafe
3015
5556
07e0
06d0
cafe
340e
5556
07e0
0692
cafe
381e
5556
07e0
06ac
cafe
3c06
5556
07e0
06c1
cafe
2016
5556
07e4
06cd
cafe
240f
5556
07e4
064f
cafe
281f
5556
07e4
0709
cafe
2c07
5556
-
07e4
074f
cafe
3017
5556
07e8
075d
cafe
3408
5556
07e8
07c5
cafe
3818
5556
07e8
07bf
cafe
3c00
5556
07e8
0733
cafe
2010
5556
07ec
0752
cafe
2409
5556
07ec
0708
cafe
2819
5556
07ec
0775
cafe
2c01
5556
07ec
0763
cafe
3011
5556
07f0
0778
cafe
340a
5556
07f0
07e0
cafe
381a
5556
07f0
06fe
cafe
3c02
5556
07f0
0725
cafe
2012
5556
07f4
0795
cafe
240b
5556
07f4
07ce
cafe
281b
5556
07f4
08b0
cafe
2c03
5556
07f4
075d
cafe
3013
5556
07f8
07ec
cafe
340c
5556
07f8
0836
cafe
381c
5556
07f8
07bf
cafe
3c04
5556
07f8
0778
cafe
2014
5556
07fc
07b5
cafe
240d
5556
07fc
07c2
cafe
281d
5556
07fc
07f6
cafe
2c05
5556
07fc
086d
cafe
3015
5556
0800
082c
cafe
340e
5556
0800
07c3
cafe
381e
5556
0800
07ea
cafe
3c06
5556
0800
07f8
cafe
2016
5556
0804
0809
cafe
240f
5556
0804
076a
cafe
281f
5556
0804
0821
cafe
2c07
5556
0804
0868
cafe
3017
5556
0808
0878
cafe
3408
5556
0808
08de
cafe
3818
5556
0808
08c7
cafe
3c00
5556
0808
083a
cafe
2010
5556
080c
0864
cafe
2409
5556
080c
0807
cafe
2819
5556
080c
086d
cafe
2c01
5556
080c
0850
cafe
3011
5556
0810
088e
cafe
340a
5556
0810
08e6
cafe
381a
5556
0810
07e6
cafe
3c02
5556
0810
0803
cafe
2012
5556
0814
089b
cafe
240b
5556
0814
08b3
cafe
281b
5556
0814
0988
cafe
2c03
5556
0814
082c
cafe
3013
5556
0818
08da
cafe
340c
5556
0818
0916
cafe
381c
5556
0818
-
0877
cafe
3c04
5556
0818
0830
cafe
2014
5556
081c
0889
cafe
240d
5556
081c
0898
cafe
281d
5556
081c
089b
cafe
2c05
5556
081c
0921
cafe
3015
5556
0820
0900
cafe
340e
5556
0820
089b
cafe
381e
5556
0820
0883
cafe
3c06
5556
0820
08bc
cafe
2016
5556
0824
08ce
cafe
240f
5556
0824
083f
cafe
281f
5556
0824
08a8
cafe
2c07
5556
0824
091a
cafe
3017
5556
0828
0929
cafe
3408
5556
0828
0981
cafe
3818
5556
0828
0960
cafe
3c00
5556
0828
08b6
cafe
2010
5556
082c
090f
cafe
2409
5556
082c
0889
cafe
2819
5556
082c
08e8
cafe
2c01
5556
082c
08c1
cafe
3011
5556
0830
091d
cafe
340a
5556
0830
0962
cafe
381a
5556
0830
084c
cafe
3c02
5556
0830
0863
cafe
2012
5556
0834
0913
cafe
240b
5556
0834
0928
cafe
281b
5556
0834
09e5
cafe
2c03
5556
0834
0889
cafe
3013
5556
0838
0958
cafe
340c
5556
0838
099a
cafe
381c
5556
0838
08c8
cafe
3c04
5556
0838
0891
cafe
2014
5556
083c
0901
cafe
240d
5556
083c
090d
cafe
281d
5556
083c
08e8
cafe
2c05
5556
083c
097c
cafe
3015
5556
0840
0978
cafe
340e
5556
0840
08f6
cafe
381e
5556
0840
08c2
cafe
3c06
5556
0840
0910
cafe
2016
5556
0844
0920
cafe
240f
5556
0844
088a
cafe
281f
5556
0844
08de
cafe
2c07
5556
0844
0958
cafe
3017
5556
0848
0962
cafe
3408
5556
0848
09b5
cafe
3818
5556
0848
0998
cafe
3c00
5556
0848
08e2
cafe
2010
5556
084c
093e
cafe
2409
5556
084c
08be
-
cafe
2819
5556
084c
0911
cafe
2c01
5556
084c
08eb
cafe
3011
5556
0850
0959
cafe
340a
5556
0850
09a1
cafe
381a
5556
0850
087b
cafe
3c02
5556
0850
088b
cafe
2012
5556
0854
0955
cafe
240b
5556
0854
0968
cafe
281b
5556
0854
0a0f
cafe
2c03
5556
0854
08ae
cafe
3013
5556
0858
099e
cafe
340c
5556
0858
09c1
cafe
381c
5556
0858
08df
cafe
3c04
5556
0858
08af
cafe
2014
5556
085c
0927
cafe
240d
5556
085c
0924
cafe
281d
5556
085c
0902
cafe
2c05
5556
085c
0998
cafe
3015
5556
0860
098a
cafe
340e
5556
0860
0902
cafe
381e
5556
0860
08cb
cafe
3c06
5556
0860
091d
cafe
2016
5556
0864
0930
cafe
240f
5556
0864
0898
cafe
281f
5556
0864
08f1
cafe
2c07
5556
0864
096b
cafe
3017
5556
0868
0973
cafe
3408
5556
0868
09d4
cafe
3818
5556
0868
09ac
cafe
3c00
5556
0868
08ee
cafe
2010
5556
086c
0957
cafe
2409
5556
086c
08d3
cafe
2819
5556
086c
0926
cafe
2c01
5556
086c
08ef
cafe
3011
5556
0870
097f
cafe
340a
5556
0870
09b3
cafe
381a
5556
0870
0880
cafe
3c02
5556
0870
0898
cafe
2012
5556
0874
0968
cafe
240b
5556
0874
096a
cafe
281b
5556
0874
0a18
cafe
2c03
5556
0874
08ad
cafe
3013
5556
0878
099b
cafe
340c
5556
0878
09bb
cafe
381c
5556
0878
08d9
cafe
3c04
5556
0878
08b4
cafe
2014
5556
087c
091e
cafe
240d
5556
087c
091a
cafe
281d
5556
087c
08fe
cafe
2c05
5556
087c
0990
cafe
3015
5556
0880
098b
cafe
-
340e
5556
0880
090a
cafe
381e
5556
0880
08c5
cafe
3c06
5556
0880
091e
cafe
2016
5556
0884
0932
cafe
240f
5556
0884
08a3
cafe
281f
5556
0884
08f2
cafe
2c07
5556
0884
0973
cafe
3017
5556
0888
097c
cafe
3408
5556
0888
09d6
cafe
3818
5556
0888
09a7
cafe
3c00
5556
0888
08ea
cafe
2010
5556
088c
0964
cafe
2409
5556
088c
08d0
cafe
2819
5556
088c
0921
cafe
2c01
5556
088c
08e6
cafe
3011
5556
0890
097f
cafe
340a
5556
0890
09a0
cafe
381a
5556
0890
086e
cafe
3c02
5556
0890
088f
cafe
2012
5556
0894
0955
cafe
240b
5556
0894
0962
cafe
281b
5556
0894
0a10
cafe
2c03
5556
0894
089f
cafe
3013
5556
0898
098e
cafe
340c
5556
0898
09bc
cafe
381c
5556
0898
08cc
cafe
3c04
5556
0898
08ad
cafe
2014
5556
089c
091a
cafe
240d
5556
089c
0932
cafe
281d
5556
089c
08fd
cafe
2c05
5556
089c
0991
cafe
3015
5556
08a0
0994
cafe
340e
5556
08a0
090f
cafe
381e
5556
08a0
08b6
cafe
3c06
5556
08a0
091c
cafe
2016
5556
08a4
0931
cafe
240f
5556
08a4
0892
cafe
281f
5556
08a4
08e3
cafe
2c07
5556
08a4
095f
cafe
3017
5556
08a8
0972
cafe
3408
5556
08a8
09be
cafe
3818
5556
08a8
0993
cafe
3c00
5556
08a8
08db
cafe
2010
5556
08ac
0944
cafe
2409
5556
08ac
08c0
cafe
2819
5556
08ac
0909
cafe
2c01
5556
08ac
08d2
cafe
3011
5556
08b0
0969
cafe
340a
5556
08b0
0992
cafe
381a
5556
08b0
085d
cafe
3c02
5556
08b0
087e
cafe
2012
-
5556
08b4
0949
cafe
240b
5556
08b4
0961
cafe
281b
5556
08b4
0a00
cafe
2c03
5556
08b4
0888
cafe
3013
5556
08b8
0994
cafe
340c
5556
08b8
09bc
cafe
381c
5556
08b8
08be
cafe
3c04
5556
08b8
089d
cafe
2014
5556
08bc
0918
cafe
240d
5556
08bc
091c
cafe
281d
5556
08bc
08e8
cafe
2c05
5556
08bc
097d
cafe
3015
5556
08c0
0981
cafe
340e
5556
08c0
08ea
cafe
381e
5556
08c0
08aa
cafe
3c06
5556
08c0
0905
cafe
2016
5556
08c4
090e
cafe
240f
5556
08c4
0866
cafe
281f
5556
08c4
08cd
cafe
2c07
5556
08c4
0943
cafe
3017
5556
08c8
0956
cafe
3408
5556
08c8
09aa
cafe
3818
5556
08c8
0983
cafe
3c00
5556
08c8
08cd
cafe
2010
5556
08cc
092c
cafe
2409
5556
08cc
08af
cafe
2819
5556
08cc
08fb
cafe
2c01
5556
08cc
08c1
cafe
3011
5556
08d0
0964
cafe
340a
5556
08d0
0992
cafe
381a
5556
08d0
0845
cafe
3c02
5556
08d0
086e
cafe
2012
5556
08d4
0943
cafe
240b
5556
08d4
0949
cafe
281b
5556
08d4
09eb
cafe
2c03
5556
08d4
0876
cafe
3013
5556
08d8
097e
cafe
340c
5556
08d8
09a4
cafe
381c
5556
08d8
08a7
cafe
3c04
5556
08d8
087a
cafe
2014
5556
08dc
08f0
cafe
240d
5556
08dc
08ef
cafe
281d
5556
08dc
08d2
cafe
2c05
5556
08dc
095e
cafe
3015
5556
08e0
0961
cafe
340e
5556
08e0
08cd
cafe
381e
5556
08e0
088d
cafe
3c06
5556
08e0
08f1
cafe
2016
5556
08e4
08fb
cafe
240f
5556
08e4
0857
cafe
281f
5556
08e4
08b8
cafe
2c07
5556
-
08e4
0934
cafe
3017
5556
08e8
0941
cafe
3408
5556
08e8
09a3
cafe
3818
5556
08e8
0979
cafe
3c00
5556
08e8
08b6
cafe
2010
5556
08ec
092a
cafe
2409
5556
08ec
0899
cafe
2819
5556
08ec
08e4
cafe
2c01
5556
08ec
08a9
cafe
3011
5556
08f0
0959
cafe
340a
5556
08f0
0970
cafe
381a
5556
08f0
082c
cafe
3c02
5556
08f0
084c
cafe
2012
5556
08f4
091e
cafe
240b
5556
08f4
0928
cafe
281b
5556
08f4
09d5
cafe
2c03
5556
08f4
085e
cafe
3013
5556
08f8
0960
cafe
340c
5556
08f8
0989
cafe
381c
5556
08f8
088e
cafe
3c04
5556
08f8
085f
cafe
2014
5556
08fc
08d9
cafe
240d
5556
08fc
08e4
cafe
281d
5556
08fc
08bc
cafe
2c05
5556
08fc
094b
cafe
3015
5556
0900
0955
cafe
340e
5556
0900
08cd
cafe
381e
5556
0900
0876
cafe
3c06
5556
0900
08f2
cafe
2016
5556
0904
08ef
cafe
240f
5556
0904
0848
cafe
281f
5556
0904
089f
cafe
2c07
5556
0904
0923
cafe
3017
5556
0908
0924
cafe
3408
5556
0908
0985
cafe
3818
5556
0908
095f
cafe
3c00
5556
0908
089a
cafe
2010
5556
090c
090b
cafe
2409
5556
090c
0872
cafe
2819
5556
090c
08c4
cafe
2c01
5556
090c
088c
cafe
3011
5556
0910
0935
cafe
340a
5556
0910
0953
cafe
381a
5556
0910
080c
cafe
3c02
5556
0910
0833
cafe
2012
5556
0914
08ff
cafe
240b
5556
0914
0917
cafe
281b
5556
0914
09bc
cafe
2c03
5556
0914
0851
cafe
3013
5556
0918
0950
cafe
340c
5556
0918
098b
cafe
381c
5556
0918
-
087e
cafe
3c04
5556
0918
084b
cafe
2014
5556
091c
08d0
cafe
240d
5556
091c
08d1
cafe
281d
5556
091c
08a0
cafe
2c05
5556
091c
093b
cafe
3015
5556
0920
0947
cafe
340e
5556
0920
08ad
cafe
381e
5556
0920
0864
cafe
3c06
5556
0920
08d2
cafe
2016
5556
0924
08cc
cafe
240f
5556
0924
081e
cafe
281f
5556
0924
0880
cafe
2c07
5556
0924
0903
cafe
3017
5556
0928
0901
cafe
3408
5556
0928
095f
cafe
3818
5556
0928
0941
cafe
3c00
5556
0928
0884
cafe
2010
5556
092c
08dc
cafe
2409
5556
092c
0851
cafe
2819
5556
092c
08ac
cafe
2c01
5556
092c
0870
cafe
3011
5556
0930
0920
cafe
340a
5556
0930
093e
cafe
381a
5556
0930
07f7
cafe
3c02
5556
0930
0824
cafe
2012
5556
0934
08f0
cafe
240b
5556
0934
090a
cafe
281b
5556
0934
09a5
cafe
2c03
5556
0934
083a
cafe
3013
5556
0938
0945
cafe
340c
5556
0938
0968
cafe
381c
5556
0938
0868
cafe
3c04
5556
0938
082c
cafe
2014
5556
093c
08b1
cafe
240d
5556
093c
08b2
cafe
281d
5556
093c
0880
cafe
2c05
5556
093c
091f
cafe
3015
5556
0940
0922
cafe
340e
5556
0940
0882
cafe
381e
5556
0940
0849
cafe
3c06
5556
0940
08bb
cafe
2016
5556
0944
08a2
cafe
240f
5556
0944
0803
cafe
281f
5556
0944
086e
cafe
2c07
5556
0944
08e6
cafe
3017
5556
0948
08ec
cafe
3408
5556
0948
095b
cafe
3818
5556
0948
0937
cafe
3c00
5556
0948
0867
cafe
2010
5556
094c
08d3
cafe
2409
5556
094c
084b
-
cafe
2819
5556
094c
089c
cafe
2c01
5556
094c
085c
cafe
3011
5556
0950
0923
cafe
340a
5556
0950
092e
cafe
381a
5556
0950
07e8
cafe
3c02
5556
0950
080f
cafe
2012
5556
0954
08e2
cafe
240b
5556
0954
08e8
cafe
281b
5556
0954
0989
cafe
2c03
5556
0954
0823
cafe
3013
5556
0958
092a
cafe
340c
5556
0958
093b
cafe
381c
5556
0958
084f
cafe
3c04
5556
0958
080d
cafe
2014
5556
095c
088e
cafe
240d
5556
095c
0897
cafe
281d
5556
095c
086a
cafe
2c05
5556
095c
0903
cafe
3015
5556
0960
0904
cafe
340e
5556
0960
087a
cafe
381e
5556
0960
082c
cafe
3c06
5556
0960
08aa
cafe
2016
5556
0964
0892
cafe
240f
5556
0964
0807
cafe
281f
5556
0964
0855
cafe
2c07
5556
0964
08e2
cafe
3017
5556
0968
08e0
cafe
3408
5556
0968
094b
cafe
3818
5556
0968
092a
cafe
3c00
5556
0968
0850
cafe
2010
5556
096c
08c3
cafe
2409
5556
096c
0826
cafe
2819
5556
096c
0881
cafe
2c01
5556
096c
0848
cafe
3011
5556
0970
090b
cafe
340a
5556
0970
090b
cafe
381a
5556
0970
07c2
cafe
3c02
5556
0970
07f2
cafe
2012
5556
0974
08b8
cafe
240b
5556
0974
08ce
cafe
281b
5556
0974
0973
cafe
2c03
5556
0974
080c
cafe
3013
5556
0978
0910
cafe
340c
5556
0978
0935
cafe
381c
5556
0978
083c
cafe
3c04
5556
0978
07fa
cafe
2014
5556
097c
087e
cafe
240d
5556
097c
0893
cafe
281d
5556
097c
0853
cafe
2c05
5556
097c
08f5
cafe
3015
5556
0980
0900
cafe
-
340e
5556
0980
086d
cafe
381e
5556
0980
081d
cafe
3c06
5556
0980
0899
cafe
2016
5556
0984
0881
cafe
240f
5556
0984
07df
cafe
281f
5556
0984
0836
cafe
2c07
5556
0984
08c7
cafe
3017
5556
0988
08be
cafe
3408
5556
0988
092b
cafe
3818
5556
0988
0905
cafe
3c00
5556
0988
0831
cafe
2010
5556
098c
08a0
cafe
2409
5556
098c
0801
cafe
2819
5556
098c
0861
cafe
2c01
5556
098c
082b
cafe
3011
5556
0990
08e9
cafe
340a
5556
0990
08fe
cafe
381a
5556
0990
07a6
cafe
3c02
5556
0990
07de
cafe
2012
5556
0994
08ab
cafe
240b
5556
0994
08c3
cafe
281b
5556
0994
0969
cafe
2c03
5556
0994
07f8
cafe
3013
5556
0998
090a
cafe
340c
5556
0998
0927
cafe
381c
5556
0998
0819
cafe
3c04
5556
0998
07da
cafe
2014
5556
099c
086e
cafe
240d
5556
099c
086a
cafe
281d
5556
099c
083b
cafe
2c05
5556
099c
08d5
cafe
3015
5556
09a0
08db
cafe
340e
5556
09a0
083f
cafe
381e
5556
09a0
0802
cafe
3c06
5556
09a0
0876
cafe
2016
5556
09a4
0860
cafe
240f
5556
09a4
07b2
cafe
281f
5556
09a4
081e
cafe
2c07
5556
09a4
08ab
cafe
3017
5556
09a8
08a2
cafe
3408
5556
09a8
0911
cafe
3818
5556
09a8
08ef
cafe
3c00
5556
09a8
081c
cafe
2010
5556
09ac
0887
cafe
2409
5556
09ac
07f6
cafe
2819
5556
09ac
0856
cafe
2c01
5556
09ac
0818
cafe
3011
5556
09b0
08df
cafe
340a
5556
09b0
08ef
cafe
381a
5556
09b0
078f
cafe
3c02
5556
09b0
07c2
cafe
2012
-
5556
09b4
08a1
cafe
240b
5556
09b4
08a2
cafe
281b
5556
09b4
094d
cafe
2c03
5556
09b4
07de
cafe
3013
5556
09b8
08ee
cafe
340c
5556
09b8
0902
cafe
381c
5556
09b8
07f9
cafe
3c04
5556
09b8
07be
cafe
2014
5556
09bc
084b
cafe
240d
5556
09bc
0849
cafe
281d
5556
09bc
0826
cafe
2c05
5556
09bc
08b6
cafe
3015
5556
09c0
08b7
cafe
340e
5556
09c0
0825
cafe
381e
5556
09c0
07ee
cafe
3c06
5556
09c0
0865
cafe
2016
5556
09c4
084a
cafe
240f
5556
09c4
07ad
cafe
281f
5556
09c4
080d
cafe
2c07
5556
09c4
08a1
cafe
3017
5556
09c8
089f
cafe
3408
5556
09c8
0910
cafe
3818
5556
09c8
08e1
cafe
3c00
5556
09c8
0801
cafe
2010
5556
09cc
0884
cafe
2409
5556
09cc
07d9
cafe
2819
5556
09cc
0830
cafe
2c01
5556
09cc
0800
cafe
3011
5556
09d0
08c9
cafe
340a
5556
09d0
08c8
cafe
381a
5556
09d0
0770
cafe
3c02
5556
09d0
07af
cafe
2012
5556
09d4
087d
cafe
240b
5556
09d4
087b
cafe
281b
5556
09d4
0932
cafe
2c03
5556
09d4
07be
cafe
3013
5556
09d8
08cc
cafe
340c
5556
09d8
08f4
cafe
381c
5556
09d8
07de
cafe
3c04
5556
09d8
07a8
cafe
2014
5556
09dc
082e
cafe
240d
5556
09dc
0840
cafe
281d
5556
09dc
0810
cafe
2c05
5556
09dc
089f
cafe
3015
5556
09e0
08ad
cafe
340e
5556
09e0
081f
cafe
381e
5556
09e0
07d1
cafe
3c06
5556
09e0
0859
cafe
2016
5556
09e4
0842
cafe
240f
5556
09e4
0791
cafe
281f
5556
09e4
07f7
cafe
2c07
5556
-
09e4
0890
cafe
3017
5556
09e8
088d
cafe
3408
5556
09e8
08eb
cafe
3818
5556
09e8
08c7
cafe
3c00
5556
09e8
07e5
cafe
2010
5556
09ec
085a
cafe
2409
5556
09ec
07ae
cafe
2819
5556
09ec
0808
cafe
2c01
5556
09ec
07e6
cafe
3011
5556
09f0
08a2
cafe
340a
5556
09f0
08ab
cafe
381a
5556
09f0
0750
cafe
3c02
5556
09f0
0790
cafe
2012
5556
09f4
0863
cafe
240b
5556
09f4
086d
cafe
281b
5556
09f4
0920
cafe
2c03
5556
09f4
07a4
cafe
3013
5556
09f8
08c3
cafe
340c
5556
09f8
08e8
cafe
381c
5556
09f8
07ca
cafe
3c04
5556
09f8
0791
cafe
2014
5556
09fc
0820
cafe
240d
5556
09fc
082b
cafe
281d
5556
09fc
07ff
cafe
2c05
5556
09fc
0893
cafe
3015
5556
0a00
0895
cafe
340e
5556
0a00
07fd
cafe
381e
5556
0a00
07b2
cafe
3c06
5556
0a00
083a
cafe
2016
5556
0a04
0821
cafe
240f
5556
0a04
076d
cafe
281f
5556
0a04
07dc
cafe
2c07
5556
0a04
0875
cafe
3017
5556
0a08
086c
cafe
3408
5556
0a08
08d1
cafe
3818
5556
0a08
08ac
cafe
3c00
5556
0a08
07c8
cafe
2010
5556
0a0c
0838
cafe
2409
5556
0a0c
079e
cafe
2819
5556
0a0c
07f8
cafe
2c01
5556
0a0c
07d4
cafe
3011
5556
0a10
0898
cafe
340a
5556
0a10
08a2
cafe
381a
5556
0a10
0741
cafe
3c02
5556
0a10
0780
cafe
2012
5556
0a14
0868
cafe
240b
5556
0a14
0858
cafe
281b
5556
0a14
0910
cafe
2c03
5556
0a14
0791
cafe
3013
5556
0a18
08b3
cafe
340c
5556
0a18
08c6
cafe
381c
5556
0a18
-
07ae
cafe
3c04
5556
0a18
0771
cafe
2014
5556
0a1c
0800
cafe
240d
5556
0a1c
080b
cafe
281d
5556
0a1c
07e0
cafe
2c05
5556
0a1c
086c
cafe
3015
5556
0a20
0879
cafe
340e
5556
0a20
07d9
cafe
381e
5556
0a20
079a
cafe
3c06
5556
0a20
0825
cafe
2016
5556
0a24
07fd
cafe
240f
5556
0a24
075c
cafe
281f
5556
0a24
07c1
cafe
2c07
5556
0a24
0864
cafe
3017
5556
0a28
085c
cafe
3408
5556
0a28
08ce
cafe
3818
5556
0a28
08a2
cafe
3c00
5556
0a28
07b2
cafe
2010
5556
0a2c
0836
cafe
2409
5556
0a2c
0785
cafe
2819
5556
0a2c
07e5
cafe
2c01
5556
0a2c
07be
cafe
3011
5556
0a30
0889
cafe
340a
5556
0a30
087f
cafe
381a
5556
0a30
0728
cafe
3c02
5556
0a30
0767
cafe
2012
5556
0a34
084a
cafe
240b
5556
0a34
0837
cafe
281b
5556
0a34
08f4
cafe
2c03
5556
0a34
0777
cafe
3013
5556
0a38
088c
cafe
340c
5556
0a38
08a1
cafe
381c
5556
0a38
0792
cafe
3c04
5556
0a38
0750
cafe
2014
5556
0a3c
07e0
cafe
240d
5556
0a3c
07f3
cafe
281d
5556
0a3c
07c4
cafe
2c05
5556
0a3c
0850
cafe
3015
5556
0a40
0866
cafe
340e
5556
0a40
07d2
cafe
381e
5556
0a40
0781
cafe
3c06
5556
0a40
081e
cafe
2016
5556
0a44
07e8
cafe
240f
5556
0a44
074a
cafe
281f
5556
0a44
07aa
cafe
2c07
5556
0a44
0854
cafe
3017
5556
0a48
084b
cafe
3408
5556
0a48
08ac
cafe
3818
5556
0a48
0889
cafe
3c00
5556
0a48
0798
cafe
2010
5556
0a4c
081a
cafe
2409
5556
0a4c
075c
-
cafe
2819
5556
0a4c
07cc
cafe
2c01
5556
0a4c
07a3
cafe
3011
5556
0a50
0867
cafe
340a
5556
0a50
085c
cafe
381a
5556
0a50
0711
cafe
3c02
5556
0a50
074b
cafe
2012
5556
0a54
0823
cafe
240b
5556
0a54
081d
cafe
281b
5556
0a54
08da
cafe
2c03
5556
0a54
075d
cafe
3013
5556
0a58
0872
cafe
340c
5556
0a58
089c
cafe
381c
5556
0a58
077e
cafe
3c04
5556
0a58
0743
cafe
2014
5556
0a5c
07dc
cafe
240d
5556
0a5c
07e7
cafe
281d
5556
0a5c
07ad
cafe
2c05
5556
0a5c
0838
cafe
3015
5556
0a60
085d
cafe
340e
5556
0a60
07b9
cafe
381e
5556
0a60
076d
cafe
3c06
5556
0a60
0807
cafe
2016
5556
0a64
07cc
cafe
240f
5556
0a64
0720
cafe
281f
5556
0a64
078d
cafe
2c07
5556
0a64
083d
cafe
3017
5556
0a68
0826
cafe
3408
5556
0a68
0885
cafe
3818
5556
0a68
0869
cafe
3c00
5556
0a68
077b
cafe
2010
5556
0a6c
07ef
cafe
2409
5556
0a6c
0740
cafe
2819
5556
0a6c
07b3
cafe
2c01
5556
0a6c
078f
cafe
3011
5556
0a70
084e
cafe
340a
5556
0a70
0848
cafe
381a
5556
0a70
06f7
cafe
3c02
5556
0a70
072f
cafe
2012
5556
0a74
080a
cafe
240b
5556
0a74
0817
cafe
281b
5556
0a74
08d0
cafe
2c03
5556
0a74
0749
cafe
3013
5556
0a78
0866
cafe
340c
5556
0a78
0888
cafe
381c
5556
0a78
076a
cafe
3c04
5556
0a78
0726
cafe
2014
5556
0a7c
07c4
cafe
240d
5556
0a7c
07c5
cafe
281d
5556
0a7c
078b
cafe
2c05
5556
0a7c
081f
cafe
3015
5556
0a80
0848
cafe
-
340e
5556
0a80
0790
cafe
381e
5556
0a80
0756
cafe
3c06
5556
0a80
07e0
cafe
2016
5556
0a84
07a5
cafe
240f
5556
0a84
06f6
cafe
281f
5556
0a84
076c
cafe
2c07
5556
0a84
081f
cafe
3017
5556
0a88
0802
cafe
3408
5556
0a88
0863
cafe
3818
5556
0a88
0851
cafe
3c00
5556
0a88
0762
cafe
2010
5556
0a8c
07cc
cafe
2409
5556
0a8c
0726
cafe
2819
5556
0a8c
079a
cafe
2c01
5556
0a8c
0777
cafe
3011
5556
0a90
0843
cafe
340a
5556
0a90
083b
cafe
381a
5556
0a90
06de
cafe
3c02
5556
0a90
071b
cafe
2012
5556
0a94
07fa
cafe
240b
5556
0a94
07f9
cafe
281b
5556
0a94
08b4
cafe
2c03
5556
0a94
0735
cafe
3013
5556
0a98
0850
cafe
340c
5556
0a98
0868
cafe
381c
5556
0a98
074f
cafe
3c04
5556
0a98
0707
cafe
2014
5556
0a9c
079d
cafe
240d
5556
0a9c
079f
cafe
281d
5556
0a9c
0772
cafe
2c05
5556
0a9c
0801
cafe
3015
5556
0aa0
0824
cafe
340e
5556
0aa0
076f
cafe
381e
5556
0aa0
0741
cafe
3c06
5556
0aa0
07c3
cafe
2016
5556
0aa4
078f
cafe
240f
5556
0aa4
06ed
cafe
281f
5556
0aa4
075b
cafe
2c07
5556
0aa4
0810
cafe
3017
5556
0aa8
07f6
cafe
3408
5556
0aa8
0864
cafe
3818
5556
0aa8
0847
cafe
3c00
5556
0aa8
0753
cafe
2010
5556
0aac
07c9
cafe
2409
5556
0aac
0721
cafe
2819
5556
0aac
078c
cafe
2c01
5556
0aac
0761
cafe
3011
5556
0ab0
0842
cafe
340a
5556
0ab0
0828
cafe
381a
5556
0ab0
06c6
cafe
3c02
5556
0ab0
070c
cafe
2012
-
5556
0ab4
07e6
cafe
240b
5556
0ab4
07d8
cafe
281b
5556
0ab4
089d
cafe
2c03
5556
0ab4
0718
cafe
3013
5556
0ab8
0834
cafe
340c
5556
0ab8
0844
cafe
381c
5556
0ab8
0733
cafe
3c04
5556
0ab8
06e8
cafe
2014
5556
0abc
077d
cafe
240d
5556
0abc
0790
cafe
281d
5556
0abc
0761
cafe
2c05
5556
0abc
07e8
cafe
3015
5556
0ac0
0812
cafe
340e
5556
0ac0
0766
cafe
381e
5556
0ac0
072b
cafe
3c06
5556
0ac0
07b8
cafe
2016
5556
0ac4
077f
cafe
240f
5556
0ac4
06e7
cafe
281f
5556
0ac4
074d
cafe
2c07
5556
0ac4
0800
cafe
3017
5556
0ac8
07ec
cafe
3408
5556
0ac8
0848
cafe
3818
5556
0ac8
0830
cafe
3c00
5556
0ac8
073b
cafe
2010
5556
0acc
07b3
cafe
2409
5556
0acc
070b
cafe
2819
5556
0acc
0773
cafe
2c01
5556
0acc
074c
cafe
3011
5556
0ad0
0828
cafe
340a
5556
0ad0
0813
cafe
381a
5556
0ad0
06a8
cafe
3c02
5556
0ad0
06f9
cafe
2012
5556
0ad4
07ce
cafe
240b
5556
0ad4
07ce
cafe
281b
5556
0ad4
0886
cafe
2c03
5556
0ad4
06fc
cafe
3013
5556
0ad8
0823
cafe
340c
5556
0ad8
0854
cafe
381c
5556
0ad8
0718
cafe
3c04
5556
0ad8
06db
cafe
2014
5556
0adc
0788
cafe
240d
5556
0adc
078e
cafe
281d
5556
0adc
0759
cafe
2c05
5556
0adc
07e3
cafe
3015
5556
0ae0
080b
cafe
340e
5556
0ae0
0754
cafe
381e
5556
0ae0
070e
cafe
3c06
5556
0ae0
07a4
cafe
2016
5556
0ae4
076d
cafe
240f
5556
0ae4
06ca
cafe
281f
5556
0ae4
0734
cafe
2c07
5556
-
0ae4
07e8
cafe
3017
5556
0ae8
07d0
cafe
3408
5556
0ae8
082d
cafe
3818
5556
0ae8
0814
cafe
3c00
5556
0ae8
0721
cafe
2010
5556
0aec
0786
cafe
2409
5556
0aec
06e9
cafe
2819
5556
0aec
0753
cafe
2c01
5556
0aec
0733
cafe
3011
5556
0af0
0812
cafe
340a
5556
0af0
0801
cafe
381a
5556
0af0
0691
cafe
3c02
5556
0af0
06e5
cafe
2012
5556
0af4
07c3
cafe
240b
5556
0af4
07c0
cafe
281b
5556
0af4
0877
cafe
2c03
5556
0af4
06e4
cafe
3013
5556
0af8
080f
cafe
340c
5556
0af8
0832
cafe
381c
5556
0af8
0703
cafe
3c04
5556
0af8
06c5
cafe
2014
5556
0afc
076c
cafe
240d
5556
0afc
0764
cafe
281d
5556
0afc
073f
cafe
2c05
5556
0afc
07c4
cafe
3015
5556
0b00
07e4
cafe
340e
5556
0b00
072d
cafe
381e
5556
0b00
06eb
cafe
3c06
5556
0b00
0785
cafe
2016
5556
0b04
074d
cafe
240f
5556
0b04
06a1
cafe
281f
5556
0b04
0715
cafe
2c07
5556
0b04
07c6
cafe
3017
5556
0b08
07b5
cafe
3408
5556
0b08
081c
cafe
3818
5556
0b08
07fe
cafe
3c00
5556
0b08
0708
cafe
2010
5556
0b0c
0777
cafe
2409
5556
0b0c
06d7
cafe
2819
5556
0b0c
073b
cafe
2c01
5556
0b0c
071d
cafe
3011
5556
0b10
0801
cafe
340a
5556
0b10
07f1
cafe
381a
5556
0b10
067d
cafe
3c02
5556
0b10
06cd
cafe
2012
5556
0b14
07b4
cafe
240b
5556
0b14
07a3
cafe
281b
5556
0b14
085a
cafe
2c03
5556
0b14
06cd
cafe
3013
5556
0b18
07f0
cafe
340c
5556
0b18
0810
cafe
381c
5556
0b18
-
06ed
cafe
3c04
5556
0b18
06ab
cafe
2014
5556
0b1c
0740
cafe
240d
5556
0b1c
073d
cafe
281d
5556
0b1c
072b
cafe
2c05
5556
0b1c
07a7
cafe
3015
5556
0b20
07c5
cafe
340e
5556
0b20
0711
cafe
381e
5556
0b20
06d3
cafe
3c06
5556
0b20
076c
cafe
2016
5556
0b24
0734
cafe
240f
5556
0b24
0699
cafe
281f
5556
0b24
06ff
cafe
2c07
5556
0b24
07b6
cafe
3017
5556
0b28
07a4
cafe
3408
5556
0b28
0815
cafe
3818
5556
0b28
07ef
cafe
3c00
5556
0b28
06f1
cafe
2010
5556
0b2c
076c
cafe
2409
5556
0b2c
06be
cafe
2819
5556
0b2c
0725
cafe
2c01
5556
0b2c
070b
cafe
3011
5556
0b30
07ea
cafe
340a
5556
0b30
07d4
cafe
381a
5556
0b30
0663
cafe
3c02
5556
0b30
06b1
cafe
2012
5556
0b34
0797
cafe
240b
5556
0b34
0780
cafe
281b
5556
0b34
083c
cafe
2c03
5556
0b34
06b0
cafe
3013
5556
0b38
07cf
cafe
340c
5556
0b38
07f1
cafe
381c
5556
0b38
06d7
cafe
3c04
5556
0b38
068e
cafe
2014
5556
0b3c
0726
cafe
240d
5556
0b3c
0734
cafe
281d
5556
0b3c
0718
cafe
2c05
5556
0b3c
079b
cafe
3015
5556
0b40
07b2
cafe
340e
5556
0b40
0710
cafe
381e
5556
0b40
06c6
cafe
3c06
5556
0b40
076a
cafe
2016
5556
0b44
0727
cafe
240f
5556
0b44
068a
cafe
281f
5556
0b44
06e8
cafe
2c07
5556
0b44
07a7
cafe
3017
5556
0b48
0796
cafe
3408
5556
0b48
07fd
cafe
3818
5556
0b48
07d2
cafe
3c00
5556
0b48
06df
cafe
2010
5556
0b4c
0751
cafe
2409
5556
0b4c
069c
-
cafe
2819
5556
0b4c
070e
cafe
2c01
5556
0b4c
06f1
cafe
3011
5556
0b50
07c7
cafe
340a
5556
0b50
07a7
cafe
381a
5556
0b50
064a
cafe
3c02
5556
0b50
0699
cafe
2012
5556
0b54
0777
cafe
240b
5556
0b54
076f
cafe
281b
5556
0b54
0827
cafe
2c03
5556
0b54
0694
cafe
3013
5556
0b58
07be
cafe
340c
5556
0b58
07ea
cafe
381c
5556
0b58
06c4
cafe
3c04
5556
0b58
067d
cafe
2014
5556
0b5c
071d
cafe
240d
5556
0b5c
0731
cafe
281d
5556
0b5c
0706
cafe
2c05
5556
0b5c
078e
cafe
3015
5556
0b60
07a8
cafe
340e
5556
0b60
06f7
cafe
381e
5556
0b60
06af
cafe
3c06
5556
0b60
074c
cafe
2016
5556
0b64
0710
cafe
240f
5556
0b64
066b
cafe
281f
5556
0b64
06d3
cafe
2c07
5556
0b64
0791
cafe
3017
5556
0b68
0778
cafe
3408
5556
0b68
07e1
cafe
3818
5556
0b68
07ba
cafe
3c00
5556
0b68
06cb
cafe
2010
5556
0b6c
072a
cafe
2409
5556
0b6c
0682
cafe
2819
5556
0b6c
06f4
cafe
2c01
5556
0b6c
06d7
cafe
3011
5556
0b70
07bb
cafe
340a
5556
0b70
07a7
cafe
381a
5556
0b70
0638
cafe
3c02
5556
0b70
0689
cafe
2012
5556
0b74
0775
cafe
240b
5556
0b74
076c
cafe
281b
5556
0b74
081a
cafe
2c03
5556
0b74
0687
cafe
3013
5556
0b78
07c0
cafe
340c
5556
0b78
07d9
cafe
381c
5556
0b78
06a8
cafe
3c04
5556
0b78
0665
cafe
2014
5556
0b7c
0706
cafe
240d
5556
0b7c
0716
cafe
281d
5556
0b7c
06f3
cafe
2c05
5556
0b7c
0773
cafe
3015
5556
0b80
078b
cafe
-
340e
5556
0b80
06d1
cafe
381e
5556
0b80
0692
cafe
3c06
5556
0b80
072f
cafe
2016
5556
0b84
06fc
cafe
240f
5556
0b84
064b
cafe
281f
5556
0b84
06b9
cafe
2c07
5556
0b84
0779
cafe
3017
5556
0b88
075a
cafe
3408
5556
0b88
07d4
cafe
3818
5556
0b88
07aa
cafe
3c00
5556
0b88
06b3
cafe
2010
5556
0b8c
071c
cafe
2409
5556
0b8c
0678
cafe
2819
5556
0b8c
06e1
cafe
2c01
5556
0b8c
06c4
cafe
3011
5556
0b90
07c0
cafe
340a
5556
0b90
078c
cafe
381a
5556
0b90
0625
cafe
3c02
5556
0b90
0672
cafe
2012
5556
0b94
0761
cafe
240b
5556
0b94
0750
cafe
281b
5556
0b94
0800
cafe
2c03
5556
0b94
0676
cafe
3013
5556
0b98
07a3
cafe
340c
5556
0b98
07b0
cafe
381c
5556
0b98
068c
cafe
3c04
5556
0b98
0646
cafe
2014
5556
0b9c
06e5
cafe
240d
5556
0b9c
06fa
cafe
281d
5556
0b9c
06df
cafe
2c05
5556
0b9c
0754
cafe
3015
5556
0ba0
0771
cafe
340e
5556
0ba0
06c5
cafe
381e
5556
0ba0
0676
cafe
3c06
5556
0ba0
0726
cafe
2016
5556
0ba4
06f0
cafe
240f
5556
0ba4
0642
cafe
281f
5556
0ba4
06a8
cafe
2c07
5556
0ba4
0772
cafe
3017
5556
0ba8
0751
cafe
3408
5556
0ba8
07c5
cafe
3818
5556
0ba8
079a
cafe
3c00
5556
0ba8
069d
cafe
2010
5556
0bac
0711
cafe
2409
5556
0bac
0662
cafe
2819
5556
0bac
06c9
cafe
2c01
5556
0bac
06ad
cafe
3011
5556
0bb0
07a7
cafe
340a
5556
0bb0
076f
cafe
381a
5556
0bb0
0609
cafe
3c02
5556
0bb0
0659
cafe
2012
-
5556
0bb4
0740
cafe
240b
5556
0bb4
072d
cafe
281b
5556
0bb4
07ea
cafe
2c03
5556
0bb4
065f
cafe
3013
5556
0bb8
0785
cafe
340c
5556
0bb8
07a8
cafe
381c
5556
0bb8
067c
cafe
3c04
5556
0bb8
0635
cafe
2014
5556
0bbc
06d5
cafe
240d
5556
0bbc
06f6
cafe
281d
5556
0bbc
06ce
cafe
2c05
5556
0bbc
0748
cafe
3015
5556
0bc0
076e
cafe
340e
5556
0bc0
06bb
cafe
381e
5556
0bc0
0662
cafe
3c06
5556
0bc0
070e
cafe
2016
5556
0bc4
06db
cafe
240f
5556
0bc4
0622
cafe
281f
5556
0bc4
0695
cafe
2c07
5556
0bc4
075c
cafe
3017
5556
0bc8
0738
cafe
3408
5556
0bc8
07a6
cafe
3818
5556
0bc8
0782
cafe
3c00
5556
0bc8
0682
cafe
2010
5556
0bcc
06eb
cafe
2409
5556
0bcc
0642
cafe
2819
5556
0bcc
06ab
cafe
2c01
5556
0bcc
069c
cafe
3011
5556
0bd0
0786
cafe
340a
5556
0bd0
0756
cafe
381a
5556
0bd0
05ee
cafe
3c02
5556
0bd0
0646
cafe
2012
5556
0bd4
072a
cafe
240b
5556
0bd4
0721
cafe
281b
5556
0bd4
07db
cafe
2c03
5556
0bd4
064c
cafe
3013
5556
0bd8
077b
cafe
340c
5556
0bd8
079b
cafe
381c
5556
0bd8
0668
cafe
3c04
5556
0bd8
062c
cafe
2014
5556
0bdc
06c2
cafe
240d
5556
0bdc
06e0
cafe
281d
5556
0bdc
06b8
cafe
2c05
5556
0bdc
0727
cafe
3015
5556
0be0
075a
cafe
340e
5556
0be0
0696
cafe
381e
5556
0be0
064a
cafe
3c06
5556
0be0
06f6
cafe
2016
5556
0be4
06b5
cafe
240f
5556
0be4
0603
cafe
281f
5556
0be4
0676
cafe
2c07
5556
-
0be4
073a
cafe
3017
5556
0be8
071a
cafe
3408
5556
0be8
078d
cafe
3818
5556
0be8
076e
cafe
3c00
5556
0be8
0670
cafe
2010
5556
0bec
06d1
cafe
2409
5556
0bec
0639
cafe
2819
5556
0bec
06a2
cafe
2c01
5556
0bec
0692
cafe
3011
5556
0bf0
0781
cafe
340a
5556
0bf0
0752
cafe
381a
5556
0bf0
05dc
cafe
3c02
5556
0bf0
0638
cafe
2012
5556
0bf4
071f
cafe
240b
5556
0bf4
0710
cafe
281b
5556
0bf4
07c8
cafe
2c03
5556
0bf4
062e
cafe
3013
5556
0bf8
0768
cafe
340c
5556
0bf8
077c
cafe
381c
5556
0bf8
0652
cafe
3c04
5556
0bf8
0614
cafe
2014
5556
0bfc
06a2
cafe
240d
5556
0bfc
06ba
cafe
281d
5556
0bfc
06a5
cafe
2c05
5556
0bfc
0712
cafe
3015
5556
0c00
073a
cafe
340e
5556
0c00
0677
cafe
381e
5556
0c00
0634
cafe
3c06
5556
0c00
06e0
cafe
2016
5556
0c04
0698
cafe
240f
5556
0c04
05f3
cafe
281f
5556
0c04
0666
cafe
2c07
5556
0c04
0724
cafe
3017
5556
0c08
070e
cafe
3408
5556
0c08
078a
cafe
3818
5556
0c08
0761
cafe
3c00
5556
0c08
065d
cafe
2010
5556
0c0c
06d5
cafe
2409
5556
0c0c
0624
cafe
2819
5556
0c0c
0690
cafe
2c01
5556
0c0c
0677
cafe
3011
5556
0c10
0774
cafe
340a
5556
0c10
0735
cafe
381a
5556
0c10
05c0
cafe
3c02
5556
0c10
061e
cafe
2012
5556
0c14
0701
cafe
240b
5556
0c14
06ee
cafe
281b
5556
0c14
07b2
cafe
2c03
5556
0c14
061e
cafe
3013
5556
0c18
0749
cafe
340c
5556
0c18
075c
cafe
381c
5556
0c18
-
0639
cafe
3c04
5556
0c18
05fb
cafe
2014
5556
0c1c
0684
cafe
240d
5556
0c1c
06af
cafe
281d
5556
0c1c
068d
cafe
2c05
5556
0c1c
0706
cafe
3015
5556
0c20
072c
cafe
340e
5556
0c20
0672
cafe
381e
5556
0c20
0623
cafe
3c06
5556
0c20
06dd
cafe
2016
5556
0c24
0695
cafe
240f
5556
0c24
05ed
cafe
281f
5556
0c24
064d
cafe
2c07
5556
0c24
0713
cafe
3017
5556
0c28
0702
cafe
3408
5556
0c28
077b
cafe
3818
5556
0c28
074f
cafe
3c00
5556
0c28
0645
cafe
2010
5556
0c2c
06b7
cafe
2409
5556
0c2c
0600
cafe
2819
5556
0c2c
066f
cafe
2c01
5556
0c2c
0660
cafe
3011
5556
0c30
0750
cafe
340a
5556
0c30
070d
cafe
381a
5556
0c30
05a9
cafe
3c02
5556
0c30
0603
cafe
2012
5556
0c34
06e1
cafe
240b
5556
0c34
06dd
cafe
281b
5556
0c34
079b
cafe
2c03
5556
0c34
0609
cafe
3013
5556
0c38
0736
cafe
340c
5556
0c38
075d
cafe
381c
5556
0c38
062c
cafe
3c04
5556
0c38
05ee
cafe
2014
5556
0c3c
0681
cafe
240d
5556
0c3c
06a6
cafe
281d
5556
0c3c
066e
cafe
2c05
5556
0c3c
06f3
cafe
3015
5556
0c40
0724
cafe
340e
5556
0c40
0658
cafe
381e
5556
0c40
0612
cafe
3c06
5556
0c40
06c0
cafe
2016
5556
0c44
067f
cafe
240f
5556
0c44
05c5
cafe
281f
5556
0c44
0638
cafe
2c07
5556
0c44
06f2
cafe
3017
5556
0c48
06e1
cafe
3408
5556
0c48
075d
cafe
3818
5556
0c48
0730
cafe
3c00
5556
0c48
062b
cafe
2010
5556
0c4c
0699
cafe
2409
5556
0c4c
05e9
-
cafe
2819
5556
0c4c
0659
cafe
2c01
5556
0c4c
064e
cafe
3011
5556
0c50
0736
cafe
340a
5556
0c50
0709
cafe
381a
5556
0c50
059c
cafe
3c02
5556
0c50
05f0
cafe
2012
5556
0c54
06dc
cafe
240b
5556
0c54
06d2
cafe
281b
5556
0c54
078b
cafe
2c03
5556
0c54
05fe
cafe
3013
5556
0c58
072c
cafe
340c
5556
0c58
0746
cafe
381c
5556
0c58
061e
cafe
3c04
5556
0c58
05db
cafe
2014
5556
0c5c
066b
cafe
240d
5556
0c5c
0686
cafe
281d
5556
0c5c
0652
cafe
2c05
5556
0c5c
06d4
cafe
3015
5556
0c60
070b
cafe
340e
5556
0c60
0632
cafe
381e
5556
0c60
05fe
cafe
3c06
5556
0c60
06a7
cafe
2016
5556
0c64
0660
cafe
240f
5556
0c64
05b0
cafe
281f
5556
0c64
0622
cafe
2c07
5556
0c64
06e3
cafe
3017
5556
0c68
06ca
cafe
3408
5556
0c68
074f
cafe
3818
5556
0c68
0721
cafe
3c00
5556
0c68
0613
cafe
2010
5556
0c6c
0696
cafe
2409
5556
0c6c
05ea
cafe
2819
5556
0c6c
064b
cafe
2c01
5556
0c6c
0644
cafe
3011
5556
0c70
0733
cafe
340a
5556
0c70
06fe
cafe
381a
5556
0c70
058a
cafe
3c02
5556
0c70
05da
cafe
2012
5556
0c74
06ca
cafe
240b
5556
0c74
06b5
cafe
281b
5556
0c74
0776
cafe
2c03
5556
0c74
05e9
cafe
3013
5556
0c78
0715
cafe
340c
5556
0c78
0725
cafe
381c
5556
0c78
0607
cafe
3c04
5556
0c78
05bb
cafe
2014
5556
0c7c
064b
cafe
240d
5556
0c7c
0662
cafe
281d
5556
0c7c
063b
cafe
2c05
5556
0c7c
06bd
cafe
3015
5556
0c80
06f0
cafe
-
340e
5556
0c80
0624
cafe
381e
5556
0c80
05ea
cafe
3c06
5556
0c80
0697
cafe
2016
5556
0c84
064f
cafe
240f
5556
0c84
05a8
cafe
281f
5556
0c84
060d
cafe
2c07
5556
0c84
06da
cafe
3017
5556
0c88
06bc
cafe
3408
5556
0c88
0745
cafe
3818
5556
0c88
070c
cafe
3c00
5556
0c88
05fd
cafe
2010
5556
0c8c
068c
cafe
2409
5556
0c8c
05c8
cafe
2819
5556
0c8c
0635
cafe
2c01
5556
0c8c
062d
cafe
3011
5556
0c90
0713
cafe
340a
5556
0c90
06da
cafe
381a
5556
0c90
056d
cafe
3c02
5556
0c90
05c9
cafe
2012
5556
0c94
06aa
cafe
240b
5556
0c94
068c
cafe
281b
5556
0c94
0762
cafe
2c03
5556
0c94
05d0
cafe
3013
5556
0c98
06e9
cafe
340c
5556
0c98
070c
cafe
381c
5556
0c98
05ec
cafe
3c04
5556
0c98
05a1
cafe
2014
5556
0c9c
062e
cafe
240d
5556
0c9c
0652
cafe
281d
5556
0c9c
0626
cafe
2c05
5556
0c9c
06aa
cafe
3015
5556
0ca0
06e3
cafe
340e
5556
0ca0
0614
cafe
381e
5556
0ca0
05d4
cafe
3c06
5556
0ca0
0686
cafe
2016
5556
0ca4
063c
cafe
240f
5556
0ca4
0589
cafe
281f
5556
0ca4
05fc
cafe
2c07
5556
0ca4
06c1
cafe
3017
5556
0ca8
069e
cafe
3408
5556
0ca8
072a
cafe
3818
5556
0ca8
06f3
cafe
3c00
5556
0ca8
05e5
cafe
2010
5556
0cac
066b
cafe
2409
5556
0cac
05a2
cafe
2819
5556
0cac
0618
cafe
2c01
5556
0cac
0613
cafe
3011
5556
0cb0
06ec
cafe
340a
5556
0cb0
06c3
cafe
381a
5556
0cb0
0557
cafe
3c02
5556
0cb0
05b1
cafe
2012
-
5556
0cb4
068e
cafe
240b
5556
0cb4
0682
cafe
281b
5556
0cb4
0750
cafe
2c03
5556
0cb4
05c0
cafe
3013
5556
0cb8
06dc
cafe
340c
5556
0cb8
070d
cafe
381c
5556
0cb8
05d7
cafe
3c04
5556
0cb8
0591
cafe
2014
5556
0cbc
0627
cafe
240d
5556
0cbc
064a
cafe
281d
5556
0cbc
0610
cafe
2c05
5556
0cbc
069b
cafe
3015
5556
0cc0
06dd
cafe
340e
5556
0cc0
05f9
cafe
381e
5556
0cc0
05bc
cafe
3c06
5556
0cc0
066e
cafe
2016
5556
0cc4
0620
cafe
240f
5556
0cc4
056e
cafe
281f
5556
0cc4
05e4
cafe
2c07
5556
0cc4
06a9
cafe
3017
5556
0cc8
0686
cafe
3408
5556
0cc8
070c
cafe
3818
5556
0cc8
06de
cafe
3c00
5556
0cc8
05cc
cafe
2010
5556
0ccc
064f
cafe
2409
5556
0ccc
058b
cafe
2819
5556
0ccc
0602
cafe
2c01
5556
0ccc
05fc
cafe
3011
5556
0cd0
06de
cafe
340a
5556
0cd0
06c4
cafe
381a
5556
0cd0
0551
cafe
3c02
5556
0cd0
05a5
cafe
2012
5556
0cd4
068f
cafe
240b
5556
0cd4
067c
cafe
281b
5556
0cd4
073e
cafe
2c03
5556
0cd4
05af
cafe
3013
5556
0cd8
06d7
cafe
340c
5556
0cd8
06f0
cafe
381c
5556
0cd8
05c1
cafe
3c04
5556
0cd8
057c
cafe
2014
5556
0cdc
0613
cafe
240d
5556
0cdc
062c
cafe
281d
5556
0cdc
05f4
cafe
2c05
5556
0cdc
0682
cafe
3015
5556
0ce0
06bf
cafe
340e
5556
0ce0
05d6
cafe
381e
5556
0ce0
05a8
cafe
3c06
5556
0ce0
064e
cafe
2016
5556
0ce4
0601
cafe
240f
5556
0ce4
0547
cafe
281f
5556
0ce4
05cd
cafe
2c07
5556
-
0ce4
0693
cafe
3017
5556
0ce8
0663
cafe
3408
5556
0ce8
06f2
cafe
3818
5556
0ce8
06c9
cafe
3c00
5556
0ce8
05bc
cafe
2010
5556
0cec
0631
cafe
2409
5556
0cec
0584
cafe
2819
5556
0cec
05f4
cafe
2c01
5556
0cec
05e8
cafe
3011
5556
0cf0
06d6
cafe
340a
5556
0cf0
06b6
cafe
381a
5556
0cf0
053d
cafe
3c02
5556
0cf0
0592
cafe
2012
5556
0cf4
0677
cafe
240b
5556
0cf4
065e
cafe
281b
5556
0cf4
0726
cafe
2c03
5556
0cf4
0595
cafe
3013
5556
0cf8
06bd
cafe
340c
5556
0cf8
06d2
cafe
381c
5556
0cf8
05b3
cafe
3c04
5556
0cf8
0562
cafe
2014
5556
0cfc
05f8
cafe
240d
5556
0cfc
0609
cafe
281d
5556
0cfc
05e0
cafe
2c05
5556
0cfc
066a
cafe
3015
5556
0d00
069c
cafe
340e
5556
0d00
05bb
cafe
381e
5556
0d00
058f
cafe
3c06
5556
0d00
0635
cafe
2016
5556
0d04
05eb
cafe
240f
5556
0d04
053a
cafe
281f
5556
0d04
05c0
cafe
2c07
5556
0d04
0688
cafe
3017
5556
0d08
065e
cafe
3408
5556
0d08
06ee
cafe
3818
5556
0d08
06bf
cafe
3c00
5556
0d08
05a9
cafe
2010
5556
0d0c
0634
cafe
2409
5556
0d0c
056f
cafe
2819
5556
0d0c
05df
cafe
2c01
5556
0d0c
05d1
cafe
3011
5556
0d10
06cb
cafe
340a
5556
0d10
0699
cafe
381a
5556
0d10
0526
cafe
3c02
5556
0d10
0583
cafe
2012
5556
0d14
065b
cafe
240b
5556
0d14
0644
cafe
281b
5556
0d14
0716
cafe
2c03
5556
0d14
0580
cafe
3013
5556
0d18
069c
cafe
340c
5556
0d18
06b6
cafe
381c
5556
0d18
-
05a3
cafe
3c04
5556
0d18
0547
cafe
2014
5556
0d1c
05df
cafe
240d
5556
0d1c
05fc
cafe
281d
5556
0d1c
05cc
cafe
2c05
5556
0d1c
0653
cafe
3015
5556
0d20
068d
cafe
340e
5556
0d20
05c1
cafe
381e
5556
0d20
057e
cafe
3c06
5556
0d20
0632
cafe
2016
5556
0d24
05e1
cafe
240f
5556
0d24
0534
cafe
281f
5556
0d24
05a8
cafe
2c07
5556
0d24
067c
cafe
3017
5556
0d28
0651
cafe
3408
5556
0d28
06db
cafe
3818
5556
0d28
06ab
cafe
3c00
5556
0d28
059b
cafe
2010
5556
0d2c
0619
cafe
2409
5556
0d2c
0550
cafe
2819
5556
0d2c
05c2
cafe
2c01
5556
0d2c
05be
cafe
3011
5556
0d30
06b0
cafe
340a
5556
0d30
0678
cafe
381a
5556
0d30
050c
cafe
3c02
5556
0d30
0563
cafe
2012
5556
0d34
063f
cafe
240b
5556
0d34
0632
cafe
281b
5556
0d34
0704
cafe
2c03
5556
0d34
0566
cafe
3013
5556
0d38
068a
cafe
340c
5556
0d38
06b4
cafe
381c
5556
0d38
0589
cafe
3c04
5556
0d38
0537
cafe
2014
5556
0d3c
05d5
cafe
240d
5556
0d3c
05f6
cafe
281d
5556
0d3c
05be
cafe
2c05
5556
0d3c
0647
cafe
3015
5556
0d40
0688
cafe
340e
5556
0d40
05b1
cafe
381e
5556
0d40
056f
cafe
3c06
5556
0d40
061b
cafe
2016
5556
0d44
05d9
cafe
240f
5556
0d44
0518
cafe
281f
5556
0d44
0591
cafe
2c07
5556
0d44
0668
cafe
3017
5556
0d48
0636
cafe
3408
5556
0d48
06b9
cafe
3818
5556
0d48
0695
cafe
3c00
5556
0d48
0585
cafe
2010
5556
0d4c
05fb
cafe
2409
5556
0d4c
053b
-
cafe
2819
5556
0d4c
05a9
cafe
2c01
5556
0d4c
05a6
cafe
3011
5556
0d50
0696
cafe
340a
5556
0d50
066f
cafe
381a
5556
0d50
04ff
cafe
3c02
5556
0d50
0551
cafe
2012
5556
0d54
062f
cafe
240b
5556
0d54
0633
cafe
281b
5556
0d54
06f4
cafe
2c03
5556
0d54
055a
cafe
3013
5556
0d58
0688
cafe
340c
5556
0d58
06aa
cafe
381c
5556
0d58
0577
cafe
3c04
5556
0d58
0526
cafe
2014
5556
0d5c
05cc
cafe
240d
5556
0d5c
05dd
cafe
281d
5556
0d5c
05ac
cafe
2c05
5556
0d5c
0630
cafe
3015
5556
0d60
0672
cafe
340e
5556
0d60
0591
cafe
381e
5556
0d60
0550
cafe
3c06
5556
0d60
0602
cafe
2016
5556
0d64
05bd
cafe
240f
5556
0d64
04f6
cafe
281f
5556
0d64
0581
cafe
2c07
5556
0d64
064d
cafe
3017
5556
0d68
061b
cafe
3408
5556
0d68
06a8
cafe
3818
5556
0d68
068a
cafe
3c00
5556
0d68
056d
cafe
2010
5556
0d6c
05eb
cafe
2409
5556
0d6c
0532
cafe
2819
5556
0d6c
059b
cafe
2c01
5556
0d6c
0595
cafe
3011
5556
0d70
0697
cafe
340a
5556
0d70
066a
cafe
381a
5556
0d70
04f1
cafe
3c02
5556
0d70
053e
cafe
2012
5556
0d74
062a
cafe
240b
5556
0d74
061f
cafe
281b
5556
0d74
06d8
cafe
2c03
5556
0d74
054c
cafe
3013
5556
0d78
0672
cafe
340c
5556
0d78
0690
cafe
381c
5556
0d78
0561
cafe
3c04
5556
0d78
0511
cafe
2014
5556
0d7c
05af
cafe
240d
5556
0d7c
05be
cafe
281d
5556
0d7c
0595
cafe
2c05
5556
0d7c
0618
cafe
3015
5556
0d80
0659
cafe
-
