340a
5555
fdb0
01d9
cafe
381a
5555
fdb0
0238
cafe
3c02
5555
fdb0
01ef
cafe
2012
5555
fdb4
0186
cafe
240b
5555
fdb4
01da
cafe
281b
5555
fdb4
00ed
cafe
2c03
5555
fdb4
01c7
cafe
3013
5555
fdb8
0106
cafe
340c
5555
fdb8
01b4
cafe
381c
5555
fdb8
0158
cafe
3c04
5555
fdb8
01f4
cafe
2014
5555
fdbc
0159
cafe
240d
5555
fdbc
01c3
cafe
281d
5555
fdbc
0107
cafe
2c05
5555
fdbc
023a
cafe
3015
5555
fdc0
0118
cafe
340e
5555
fdc0
0169
cafe
381e
5555
fdc0
0137
cafe
3c06
5555
fdc0
021f
cafe
2016
5555
fdc4
0145
cafe
240f
5555
fdc4
0122
cafe
281f
5555
fdc4
014e
cafe
2c07
5555
fdc4
019a
cafe
3017
5555
fdc8
01b4
cafe
3408
5555
fdc8
01f6
cafe
3818
5555
fdc8
019d
cafe
3c00
5555
fdc8
01a9
cafe
2010
5555
fdcc
01ab
cafe
2409
5555
fdcc
01fe
cafe
2819
5555
fdcc
01a1
cafe
2c01
5555
fdcc
01c5
cafe
3011
5555
fdd0
01b0
cafe
340a
5555
fdd0
01d9
cafe
381a
5555
fdd0
0237
cafe
3c02
5555
fdd0
01ee
cafe
2012
5555
fdd4
0185
cafe
240b
5555
fdd4
01d8
cafe
281b
5555
fdd4
00f0
cafe
2c03
5555
fdd4
01ce
cafe
3013
5555
fdd8
00ff
cafe
340c
5555
fdd8
01b0
cafe
381c
5555
fdd8
0154
cafe
3c04
5555
fdd8
01fa
cafe
2014
5555
fddc
0155
cafe
240d
5555
fddc
01ba
cafe
281d
5555
fddc
0108
cafe
2c05
5555
fddc
0240
cafe
3015
5555
fde0
011e
cafe
340e
5555
fde0
0168
cafe
381e
5555
fde0
0137
cafe
3c06
5555
fde0
021a
cafe
2016
-
5555
fde4
0149
cafe
240f
5555
fde4
0122
cafe
281f
5555
fde4
0151
cafe
2c07
5555
fde4
019c
cafe
3017
5555
fde8
01af
cafe
3408
5555
fde8
01fa
cafe
3818
5555
fde8
0196
cafe
3c00
5555
fde8
01a5
cafe
2010
5555
fdec
01a7
cafe
2409
5555
fdec
0202
cafe
2819
5555
fdec
01a5
cafe
2c01
5555
fdec
01c9
cafe
3011
5555
fdf0
01b3
cafe
340a
5555
fdf0
01da
cafe
381a
5555
fdf0
0236
cafe
3c02
5555
fdf0
01ea
cafe
2012
5555
fdf4
0184
cafe
240b
5555
fdf4
01d8
cafe
281b
5555
fdf4
00f3
cafe
2c03
5555
fdf4
01d9
cafe
3013
5555
fdf8
0104
cafe
340c
5555
fdf8
01ad
cafe
381c
5555
fdf8
015a
cafe
3c04
5555
fdf8
01fd
cafe
2014
5555
fdfc
0154
cafe
240d
5555
fdfc
01c0
cafe
281d
5555
fdfc
010c
cafe
2c05
5555
fdfc
023f
cafe
3015
5555
fe00
0127
cafe
340e
5555
fe00
0164
cafe
381e
5555
fe00
0137
cafe
3c06
5555
fe00
021d
cafe
2016
5555
fe04
0140
cafe
240f
5555
fe04
0123
cafe
281f
5555
fe04
014d
cafe
2c07
5555
fe04
0196
cafe
3017
5555
fe08
01ac
cafe
3408
5555
fe08
01ff
cafe
3818
5555
fe08
0195
cafe
3c00
5555
fe08
01a6
cafe
2010
5555
fe0c
01a2
cafe
2409
5555
fe0c
0200
cafe
2819
5555
fe0c
01a6
cafe
2c01
5555
fe0c
01ca
cafe
3011
5555
fe10
01b0
cafe
340a
5555
fe10
01da
cafe
381a
5555
fe10
0232
cafe
3c02
5555
fe10
01e8
cafe
2012
5555
fe14
0187
cafe
240b
5555
fe14
01db
cafe
281b
5555
fe14
00f4
cafe
2c03
5555
-
fe14
01df
cafe
3013
5555
fe18
010b
cafe
340c
5555
fe18
01b7
cafe
381c
5555
fe18
0159
cafe
3c04
5555
fe18
0202
cafe
2014
5555
fe1c
0151
cafe
240d
5555
fe1c
01ba
cafe
281d
5555
fe1c
0111
cafe
2c05
5555
fe1c
0241
cafe
3015
5555
fe20
0125
cafe
340e
5555
fe20
0167
cafe
381e
5555
fe20
0136
cafe
3c06
5555
fe20
0225
cafe
2016
5555
fe24
013e
cafe
240f
5555
fe24
011e
cafe
281f
5555
fe24
0147
cafe
2c07
5555
fe24
0190
cafe
3017
5555
fe28
01a9
cafe
3408
5555
fe28
01ff
cafe
3818
5555
fe28
0194
cafe
3c00
5555
fe28
01a3
cafe
2010
5555
fe2c
01a6
cafe
2409
5555
fe2c
01fc
cafe
2819
5555
fe2c
01a9
cafe
2c01
5555
fe2c
01c9
cafe
3011
5555
fe30
01b1
cafe
340a
5555
fe30
01d6
cafe
381a
5555
fe30
022a
cafe
3c02
5555
fe30
01f2
cafe
2012
5555
fe34
018c
cafe
240b
5555
fe34
01d8
cafe
281b
5555
fe34
00f8
cafe
2c03
5555
fe34
01dc
cafe
3013
5555
fe38
0106
cafe
340c
5555
fe38
01b3
cafe
381c
5555
fe38
0155
cafe
3c04
5555
fe38
01f8
cafe
2014
5555
fe3c
0152
cafe
240d
5555
fe3c
01c5
cafe
281d
5555
fe3c
0115
cafe
2c05
5555
fe3c
0243
cafe
3015
5555
fe40
0125
cafe
340e
5555
fe40
0168
cafe
381e
5555
fe40
0135
cafe
3c06
5555
fe40
0224
cafe
2016
5555
fe44
0140
cafe
240f
5555
fe44
0121
cafe
281f
5555
fe44
014b
cafe
2c07
5555
fe44
018e
cafe
3017
5555
fe48
01ab
cafe
3408
5555
fe48
0200
cafe
3818
5555
fe48
-
0194
cafe
3c00
5555
fe48
01a4
cafe
2010
5555
fe4c
01aa
cafe
2409
5555
fe4c
01f8
cafe
2819
5555
fe4c
01a3
cafe
2c01
5555
fe4c
01ca
cafe
3011
5555
fe50
01ac
cafe
340a
5555
fe50
01cf
cafe
381a
5555
fe50
0223
cafe
3c02
5555
fe50
01f5
cafe
2012
5555
fe54
0185
cafe
240b
5555
fe54
01d3
cafe
281b
5555
fe54
00fd
cafe
2c03
5555
fe54
01d3
cafe
3013
5555
fe58
0105
cafe
340c
5555
fe58
01aa
cafe
381c
5555
fe58
0157
cafe
3c04
5555
fe58
01f2
cafe
2014
5555
fe5c
0148
cafe
240d
5555
fe5c
01c4
cafe
281d
5555
fe5c
0112
cafe
2c05
5555
fe5c
0242
cafe
3015
5555
fe60
0123
cafe
340e
5555
fe60
015e
cafe
381e
5555
fe60
0135
cafe
3c06
5555
fe60
021f
cafe
2016
5555
fe64
013c
cafe
240f
5555
fe64
011c
cafe
281f
5555
fe64
014c
cafe
2c07
5555
fe64
018a
cafe
3017
5555
fe68
01aa
cafe
3408
5555
fe68
01fc
cafe
3818
5555
fe68
0194
cafe
3c00
5555
fe68
01a7
cafe
2010
5555
fe6c
01ab
cafe
2409
5555
fe6c
01f6
cafe
2819
5555
fe6c
01a1
cafe
2c01
5555
fe6c
01cb
cafe
3011
5555
fe70
01ac
cafe
340a
5555
fe70
01cf
cafe
381a
5555
fe70
0226
cafe
3c02
5555
fe70
01f3
cafe
2012
5555
fe74
0182
cafe
240b
5555
fe74
01d4
cafe
281b
5555
fe74
0100
cafe
2c03
5555
fe74
01d1
cafe
3013
5555
fe78
0109
cafe
340c
5555
fe78
01b3
cafe
381c
5555
fe78
0158
cafe
3c04
5555
fe78
01f2
cafe
2014
5555
fe7c
0148
cafe
240d
5555
fe7c
01c2
-
cafe
281d
5555
fe7c
010c
cafe
2c05
5555
fe7c
023d
cafe
3015
5555
fe80
0122
cafe
340e
5555
fe80
0162
cafe
381e
5555
fe80
0137
cafe
3c06
5555
fe80
0225
cafe
2016
5555
fe84
0143
cafe
240f
5555
fe84
0122
cafe
281f
5555
fe84
0156
cafe
2c07
5555
fe84
0191
cafe
3017
5555
fe88
01ac
cafe
3408
5555
fe88
0204
cafe
3818
5555
fe88
0195
cafe
3c00
5555
fe88
01a7
cafe
2010
5555
fe8c
01a8
cafe
2409
5555
fe8c
01f0
cafe
2819
5555
fe8c
01a6
cafe
2c01
5555
fe8c
01ce
cafe
3011
5555
fe90
01a8
cafe
340a
5555
fe90
01cf
cafe
381a
5555
fe90
022a
cafe
3c02
5555
fe90
01f6
cafe
2012
5555
fe94
0186
cafe
240b
5555
fe94
01d5
cafe
281b
5555
fe94
0102
cafe
2c03
5555
fe94
01d3
cafe
3013
5555
fe98
010c
cafe
340c
5555
fe98
01b4
cafe
381c
5555
fe98
0158
cafe
3c04
5555
fe98
01fb
cafe
2014
5555
fe9c
014f
cafe
240d
5555
fe9c
01c2
cafe
281d
5555
fe9c
0103
cafe
2c05
5555
fe9c
023d
cafe
3015
5555
fea0
011e
cafe
340e
5555
fea0
0164
cafe
381e
5555
fea0
013a
cafe
3c06
5555
fea0
0228
cafe
2016
5555
fea4
0141
cafe
240f
5555
fea4
0126
cafe
281f
5555
fea4
0150
cafe
2c07
5555
fea4
0194
cafe
3017
5555
fea8
01b4
cafe
3408
5555
fea8
0202
cafe
3818
5555
fea8
0196
cafe
3c00
5555
fea8
01a4
cafe
2010
5555
feac
01a8
cafe
2409
5555
feac
01f7
cafe
2819
5555
feac
01a5
cafe
2c01
5555
feac
01ce
cafe
3011
5555
feb0
01a8
cafe
-
340a
5555
feb0
01cf
cafe
381a
5555
feb0
022c
cafe
3c02
5555
feb0
01f6
cafe
2012
5555
feb4
018d
cafe
240b
5555
feb4
01d5
cafe
281b
5555
feb4
0101
cafe
2c03
5555
feb4
01d7
cafe
3013
5555
feb8
010a
cafe
340c
5555
feb8
01ae
cafe
381c
5555
feb8
0164
cafe
3c04
5555
feb8
01f4
cafe
2014
5555
febc
014e
cafe
240d
5555
febc
01cd
cafe
281d
5555
febc
00fe
cafe
2c05
5555
febc
0241
cafe
3015
5555
fec0
011b
cafe
340e
5555
fec0
0167
cafe
381e
5555
fec0
013c
cafe
3c06
5555
fec0
0222
cafe
2016
5555
fec4
0144
cafe
240f
5555
fec4
012c
cafe
281f
5555
fec4
014c
cafe
2c07
5555
fec4
0199
cafe
3017
5555
fec8
01b8
cafe
3408
5555
fec8
0208
cafe
3818
5555
fec8
0196
cafe
3c00
5555
fec8
01a9
cafe
2010
5555
fecc
01ad
cafe
2409
5555
fecc
01f8
cafe
2819
5555
fecc
01a4
cafe
2c01
5555
fecc
01d8
cafe
3011
5555
fed0
01a6
cafe
340a
5555
fed0
01cf
cafe
381a
5555
fed0
022e
cafe
3c02
5555
fed0
01fb
cafe
2012
5555
fed4
018a
cafe
240b
5555
fed4
01d7
cafe
281b
5555
fed4
0102
cafe
2c03
5555
fed4
01ca
cafe
3013
5555
fed8
010a
cafe
340c
5555
fed8
01ab
cafe
381c
5555
fed8
0163
cafe
3c04
5555
fed8
01f9
cafe
2014
5555
fedc
0156
cafe
240d
5555
fedc
01ce
cafe
281d
5555
fedc
0100
cafe
2c05
5555
fedc
023b
cafe
3015
5555
fee0
0119
cafe
340e
5555
fee0
016b
cafe
381e
5555
fee0
0139
cafe
3c06
5555
fee0
0220
cafe
2016
-
5555
fee4
0145
cafe
240f
5555
fee4
0136
cafe
281f
5555
fee4
014f
cafe
2c07
5555
fee4
0193
cafe
3017
5555
fee8
01b6
cafe
3408
5555
fee8
0206
cafe
3818
5555
fee8
0199
cafe
3c00
5555
fee8
01ab
cafe
2010
5555
feec
01a9
cafe
2409
5555
feec
01fb
cafe
2819
5555
feec
01a3
cafe
2c01
5555
feec
01d7
cafe
3011
5555
fef0
01a3
cafe
340a
5555
fef0
01cf
cafe
381a
5555
fef0
022c
cafe
3c02
5555
fef0
0202
cafe
2012
5555
fef4
0188
cafe
240b
5555
fef4
01dc
cafe
281b
5555
fef4
0102
cafe
2c03
5555
fef4
01c9
cafe
3013
5555
fef8
010b
cafe
340c
5555
fef8
01a7
cafe
381c
5555
fef8
0160
cafe
3c04
5555
fef8
01f8
cafe
2014
5555
fefc
015b
cafe
240d
5555
fefc
01ca
cafe
281d
5555
fefc
00fc
cafe
2c05
5555
fefc
023d
cafe
3015
5555
ff00
0115
cafe
340e
5555
ff00
0169
cafe
381e
5555
ff00
013e
cafe
3c06
5555
ff00
021d
cafe
2016
5555
ff04
0146
cafe
240f
5555
ff04
0136
cafe
281f
5555
ff04
014f
cafe
2c07
5555
ff04
0194
cafe
3017
5555
ff08
01ad
cafe
3408
5555
ff08
020b
cafe
3818
5555
ff08
0199
cafe
3c00
5555
ff08
01ab
cafe
2010
5555
ff0c
01a7
cafe
2409
5555
ff0c
01f7
cafe
2819
5555
ff0c
01a9
cafe
2c01
5555
ff0c
01cf
cafe
3011
5555
ff10
01ac
cafe
340a
5555
ff10
01d2
cafe
381a
5555
ff10
022b
cafe
3c02
5555
ff10
0208
cafe
2012
5555
ff14
018b
cafe
240b
5555
ff14
01de
cafe
281b
5555
ff14
0102
cafe
2c03
5555
-
ff14
01ca
cafe
3013
5555
ff18
0108
cafe
340c
5555
ff18
01aa
cafe
381c
5555
ff18
015f
cafe
3c04
5555
ff18
01fb
cafe
2014
5555
ff1c
015e
cafe
240d
5555
ff1c
01c3
cafe
281d
5555
ff1c
00ff
cafe
2c05
5555
ff1c
0237
cafe
3015
5555
ff20
011b
cafe
340e
5555
ff20
016b
cafe
381e
5555
ff20
0136
cafe
3c06
5555
ff20
0221
cafe
2016
5555
ff24
014b
cafe
240f
5555
ff24
0136
cafe
281f
5555
ff24
014e
cafe
2c07
5555
ff24
0197
cafe
3017
5555
ff28
01ae
cafe
3408
5555
ff28
0202
cafe
3818
5555
ff28
0198
cafe
3c00
5555
ff28
01a9
cafe
2010
5555
ff2c
01a8
cafe
2409
5555
ff2c
01fb
cafe
2819
5555
ff2c
01a8
cafe
2c01
5555
ff2c
01d8
cafe
3011
5555
ff30
01a8
cafe
340a
5555
ff30
01d5
cafe
381a
5555
ff30
0228
cafe
3c02
5555
ff30
0205
cafe
2012
5555
ff34
018c
cafe
240b
5555
ff34
01e3
cafe
281b
5555
ff34
0103
cafe
2c03
5555
ff34
01cc
cafe
3013
5555
ff38
0107
cafe
340c
5555
ff38
01a8
cafe
381c
5555
ff38
015c
cafe
3c04
5555
ff38
01f5
cafe
2014
5555
ff3c
015c
cafe
240d
5555
ff3c
01c4
cafe
281d
5555
ff3c
0100
cafe
2c05
5555
ff3c
023a
cafe
3015
5555
ff40
011d
cafe
340e
5555
ff40
016c
cafe
381e
5555
ff40
0132
cafe
3c06
5555
ff40
0220
cafe
2016
5555
ff44
0148
cafe
240f
5555
ff44
0137
cafe
281f
5555
ff44
014b
cafe
2c07
5555
ff44
0194
cafe
3017
5555
ff48
01b0
cafe
3408
5555
ff48
0202
cafe
3818
5555
ff48
-
0195
cafe
3c00
5555
ff48
01aa
cafe
2010
5555
ff4c
01a5
cafe
2409
5555
ff4c
01fc
cafe
2819
5555
ff4c
01aa
cafe
2c01
5555
ff4c
01d9
cafe
3011
5555
ff50
01af
cafe
340a
5555
ff50
01d8
cafe
381a
5555
ff50
0229
cafe
3c02
5555
ff50
0205
cafe
2012
5555
ff54
0184
cafe
240b
5555
ff54
01e2
cafe
281b
5555
ff54
00fd
cafe
2c03
5555
ff54
01cb
cafe
3013
5555
ff58
010d
cafe
340c
5555
ff58
01aa
cafe
381c
5555
ff58
0161
cafe
3c04
5555
ff58
01f6
cafe
2014
5555
ff5c
015b
cafe
240d
5555
ff5c
01c3
cafe
281d
5555
ff5c
0101
cafe
2c05
5555
ff5c
023b
cafe
3015
5555
ff60
0114
cafe
340e
5555
ff60
016d
cafe
381e
5555
ff60
012f
cafe
3c06
5555
ff60
0220
cafe
2016
5555
ff64
0143
cafe
240f
5555
ff64
0132
cafe
281f
5555
ff64
014f
cafe
2c07
5555
ff64
0191
cafe
3017
5555
ff68
01af
cafe
3408
5555
ff68
0201
cafe
3818
5555
ff68
0195
cafe
3c00
5555
ff68
01aa
cafe
2010
5555
ff6c
01a1
cafe
2409
5555
ff6c
01fd
cafe
2819
5555
ff6c
01a7
cafe
2c01
5555
ff6c
01d9
cafe
3011
5555
ff70
01ab
cafe
340a
5555
ff70
01d4
cafe
381a
5555
ff70
022b
cafe
3c02
5555
ff70
0202
cafe
2012
5555
ff74
0185
cafe
240b
5555
ff74
01e0
cafe
281b
5555
ff74
00f9
cafe
2c03
5555
ff74
01c3
cafe
3013
5555
ff78
010b
cafe
340c
5555
ff78
01b0
cafe
381c
5555
ff78
015c
cafe
3c04
5555
ff78
01fa
cafe
2014
5555
ff7c
015d
cafe
240d
5555
ff7c
01c2
-
cafe
281d
5555
ff7c
0100
cafe
2c05
5555
ff7c
023a
cafe
3015
5555
ff80
0115
cafe
340e
5555
ff80
0169
cafe
381e
5555
ff80
0130
cafe
3c06
5555
ff80
021c
cafe
2016
5555
ff84
013f
cafe
240f
5555
ff84
0130
cafe
281f
5555
ff84
014e
cafe
2c07
5555
ff84
0196
cafe
3017
5555
ff88
01b4
cafe
3408
5555
ff88
0203
cafe
3818
5555
ff88
0195
cafe
3c00
5555
ff88
01ac
cafe
2010
5555
ff8c
01a1
cafe
2409
5555
ff8c
01f8
cafe
2819
5555
ff8c
01a4
cafe
2c01
5555
ff8c
01da
cafe
3011
5555
ff90
01a6
cafe
340a
5555
ff90
01d5
cafe
381a
5555
ff90
022e
cafe
3c02
5555
ff90
01fe
cafe
2012
5555
ff94
0180
cafe
240b
5555
ff94
01dc
cafe
281b
5555
ff94
00f4
cafe
2c03
5555
ff94
01c9
cafe
3013
5555
ff98
0113
cafe
340c
5555
ff98
01b0
cafe
381c
5555
ff98
0160
cafe
3c04
5555
ff98
01fd
cafe
2014
5555
ff9c
015d
cafe
240d
5555
ff9c
01c5
cafe
281d
5555
ff9c
00ff
cafe
2c05
5555
ff9c
0235
cafe
3015
5555
ffa0
0117
cafe
340e
5555
ffa0
0169
cafe
381e
5555
ffa0
0138
cafe
3c06
5555
ffa0
021b
cafe
2016
5555
ffa4
0146
cafe
240f
5555
ffa4
012c
cafe
281f
5555
ffa4
0148
cafe
2c07
5555
ffa4
0196
cafe
3017
5555
ffa8
01b0
cafe
3408
5555
ffa8
020a
cafe
3818
5555
ffa8
0193
cafe
3c00
5555
ffa8
01ab
cafe
2010
5555
ffac
01a8
cafe
2409
5555
ffac
01f6
cafe
2819
5555
ffac
01a6
cafe
2c01
5555
ffac
01d8
cafe
3011
5555
ffb0
01a3
cafe
-
340a
5555
ffb0
01cf
cafe
381a
5555
ffb0
022e
cafe
3c02
5555
ffb0
0202
cafe
2012
5555
ffb4
0181
cafe
240b
5555
ffb4
01d8
cafe
281b
5555
ffb4
00f9
cafe
2c03
5555
ffb4
01c2
cafe
3013
5555
ffb8
0110
cafe
340c
5555
ffb8
01b5
cafe
381c
5555
ffb8
015f
cafe
3c04
5555
ffb8
0204
cafe
2014
5555
ffbc
0161
cafe
240d
5555
ffbc
01ce
cafe
281d
5555
ffbc
00fd
cafe
2c05
5555
ffbc
0235
cafe
3015
5555
ffc0
0117
cafe
340e
5555
ffc0
0163
cafe
381e
5555
ffc0
013d
cafe
3c06
5555
ffc0
021c
cafe
2016
5555
ffc4
0144
cafe
240f
5555
ffc4
0126
cafe
281f
5555
ffc4
0146
cafe
2c07
5555
ffc4
0194
cafe
3017
5555
ffc8
01ab
cafe
3408
5555
ffc8
0209
cafe
3818
5555
ffc8
0196
cafe
3c00
5555
ffc8
01a6
cafe
2010
5555
ffcc
01a7
cafe
2409
5555
ffcc
01f5
cafe
2819
5555
ffcc
019c
cafe
2c01
5555
ffcc
01d9
cafe
3011
5555
ffd0
01a1
cafe
340a
5555
ffd0
01d1
cafe
381a
5555
ffd0
022b
cafe
3c02
5555
ffd0
0205
cafe
2012
5555
ffd4
0186
cafe
240b
5555
ffd4
01d3
cafe
281b
5555
ffd4
00fb
cafe
2c03
5555
ffd4
01c4
cafe
3013
5555
ffd8
010f
cafe
340c
5555
ffd8
01b4
cafe
381c
5555
ffd8
0161
cafe
3c04
5555
ffd8
0209
cafe
2014
5555
ffdc
0161
cafe
240d
5555
ffdc
0209
cafe
281d
5555
ffdc
013a
cafe
2c05
5555
ffdc
026e
cafe
3015
5555
ffe0
0154
cafe
340e
5555
ffe0
0230
cafe
381e
5555
ffe0
0209
cafe
3c06
5555
ffe0
02e8
cafe
2016
-
5555
ffe4
0217
cafe
240f
5555
ffe4
0293
cafe
281f
5555
ffe4
02a8
cafe
2c07
5555
ffe4
02f8
cafe
3017
5555
ffe8
0312
cafe
3408
5555
ffe8
03fa
cafe
3818
5555
ffe8
038a
cafe
3c00
5555
ffe8
0390
cafe
2010
5555
ffec
039f
cafe
2409
5555
ffec
046b
cafe
2819
5555
ffec
040e
cafe
2c01
5555
ffec
0431
cafe
3011
5555
fff0
0415
cafe
340a
5555
fff0
04b7
cafe
381a
5555
fff0
0507
cafe
3c02
5555
fff0
04ce
cafe
2012
5555
fff4
046c
cafe
240b
5555
fff4
051b
cafe
281b
5555
fff4
0434
cafe
2c03
5555
fff4
04ef
cafe
3013
5555
fff8
045a
cafe
340c
5555
fff8
0552
cafe
381c
5555
fff8
04f4
cafe
3c04
5555
fff8
058d
cafe
2014
5555
fffc
0501
cafe
240d
5555
fffc
05c1
cafe
281d
5555
fffc
04e1
cafe
2c05
5555
fffc
061b
cafe
3015
5556
0000
0510
cafe
340e
5556
0000
05a5
cafe
381e
5556
0000
0565
cafe
3c06
5556
0000
0645
cafe
2016
5556
0004
0587
cafe
240f
5556
0004
05ca
cafe
281f
5556
0004
05b3
cafe
2c07
5556
0004
0612
cafe
3017
5556
0008
0634
cafe
3408
5556
0008
06e1
cafe
3818
5556
0008
0667
cafe
3c00
5556
0008
0654
cafe
2010
5556
000c
0690
cafe
2409
5556
000c
070d
cafe
2819
5556
000c
069e
cafe
2c01
5556
000c
06a1
cafe
3011
5556
0010
06cc
cafe
340a
5556
0010
0726
cafe
381a
5556
0010
0756
cafe
3c02
5556
0010
070c
cafe
2012
5556
0014
06da
cafe
240b
5556
0014
074d
cafe
281b
5556
0014
063d
cafe
2c03
5556
-
0014
06f7
cafe
3013
5556
0018
0680
cafe
340c
5556
0018
0755
cafe
381c
5556
0018
06c0
cafe
3c04
5556
0018
076b
cafe
2014
5556
001c
06f1
cafe
240d
5556
001c
07a3
cafe
281d
5556
001c
0683
cafe
2c05
5556
001c
07d0
cafe
3015
5556
0020
06e0
cafe
340e
5556
0020
0763
cafe
381e
5556
0020
06d2
cafe
3c06
5556
0020
07e1
cafe
2016
5556
0024
072b
cafe
240f
5556
0024
074f
cafe
281f
5556
0024
06ff
cafe
2c07
5556
0024
0777
cafe
3017
5556
0028
07a6
cafe
3408
5556
0028
0821
cafe
3818
5556
0028
079e
cafe
3c00
5556
0028
0772
cafe
2010
5556
002c
07df
cafe
2409
5556
002c
081e
cafe
2819
5556
002c
07a7
cafe
2c01
5556
002c
07a3
cafe
3011
5556
0030
07eb
cafe
340a
5556
0030
0827
cafe
381a
5556
0030
083f
cafe
3c02
5556
0030
07f8
cafe
2012
5556
0034
07d3
cafe
240b
5556
0034
0843
cafe
281b
5556
0034
0703
cafe
2c03
5556
0034
07c1
cafe
3013
5556
0038
0770
cafe
340c
5556
0038
0831
cafe
381c
5556
0038
0770
cafe
3c04
5556
0038
082c
cafe
2014
5556
003c
07c0
cafe
240d
5556
003c
0850
cafe
281d
5556
003c
070b
cafe
2c05
5556
003c
0870
cafe
3015
5556
0040
0787
cafe
340e
5556
0040
07f0
cafe
381e
5556
0040
0751
cafe
3c06
5556
0040
0862
cafe
2016
5556
0044
07ac
cafe
240f
5556
0044
07bf
cafe
281f
5556
0044
075f
cafe
2c07
5556
0044
07de
cafe
3017
5556
0048
0815
cafe
3408
5556
0048
0883
cafe
3818
5556
0048
-
07f9
cafe
3c00
5556
0048
07c9
cafe
2010
5556
004c
0846
cafe
2409
5556
004c
0874
cafe
2819
5556
004c
07f9
cafe
2c01
5556
004c
07e5
cafe
3011
5556
0050
0853
cafe
340a
5556
0050
0880
cafe
381a
5556
0050
087d
cafe
3c02
5556
0050
0837
cafe
2012
5556
0054
0824
cafe
240b
5556
0054
0876
cafe
281b
5556
0054
0723
cafe
2c03
5556
0054
07e5
cafe
3013
5556
0058
079d
cafe
340c
5556
0058
0848
cafe
381c
5556
0058
0783
cafe
3c04
5556
0058
0847
cafe
2014
5556
005c
07d4
cafe
240d
5556
005c
0854
cafe
281d
5556
005c
070a
cafe
2c05
5556
005c
0881
cafe
3015
5556
0060
0789
cafe
340e
5556
0060
0801
cafe
381e
5556
0060
0753
cafe
3c06
5556
0060
0872
cafe
2016
5556
0064
07b9
cafe
240f
5556
0064
07d6
cafe
281f
5556
0064
0754
cafe
2c07
5556
0064
07e1
cafe
3017
5556
0068
081f
cafe
3408
5556
0068
087d
cafe
3818
5556
0068
07f0
cafe
3c00
5556
0068
07bb
cafe
2010
5556
006c
0845
cafe
2409
5556
006c
0854
cafe
2819
5556
006c
07df
cafe
2c01
5556
006c
07cd
cafe
3011
5556
0070
083e
cafe
340a
5556
0070
085c
cafe
381a
5556
0070
085b
cafe
3c02
5556
0070
0813
cafe
2012
5556
0074
07fc
cafe
240b
5556
0074
084e
cafe
281b
5556
0074
0704
cafe
2c03
5556
0074
07bd
cafe
3013
5556
0078
0772
cafe
340c
5556
0078
0829
cafe
381c
5556
0078
0755
cafe
3c04
5556
0078
0826
cafe
2014
5556
007c
07b0
cafe
240d
5556
007c
082f
-
cafe
281d
5556
007c
06d5
cafe
2c05
5556
007c
0862
cafe
3015
5556
0080
0763
cafe
340e
5556
0080
07ca
cafe
381e
5556
0080
071f
cafe
3c06
5556
0080
0836
cafe
2016
5556
0084
0782
cafe
240f
5556
0084
0785
cafe
281f
5556
0084
0710
cafe
2c07
5556
0084
079b
cafe
3017
5556
0088
07dc
cafe
3408
5556
0088
083a
cafe
3818
5556
0088
07a6
cafe
3c00
5556
0088
0770
cafe
2010
5556
008c
07f7
cafe
2409
5556
008c
0815
cafe
2819
5556
008c
07a2
cafe
2c01
5556
008c
078a
cafe
3011
5556
0090
0805
cafe
340a
5556
0090
0822
cafe
381a
5556
0090
081b
cafe
3c02
5556
0090
07cc
cafe
2012
5556
0094
07c7
cafe
240b
5556
0094
080c
cafe
281b
5556
0094
06b9
cafe
2c03
5556
0094
0777
cafe
3013
5556
0098
072d
cafe
340c
5556
0098
07d3
cafe
381c
5556
0098
06fb
cafe
3c04
5556
0098
07d4
cafe
2014
5556
009c
0755
cafe
240d
5556
009c
07cb
cafe
281d
5556
009c
067d
cafe
2c05
5556
009c
0813
cafe
3015
5556
00a0
0704
cafe
340e
5556
00a0
0771
cafe
381e
5556
00a0
06d0
cafe
3c06
5556
00a0
07e7
cafe
2016
5556
00a4
072c
cafe
240f
5556
00a4
073a
cafe
281f
5556
00a4
06ba
cafe
2c07
5556
00a4
0749
cafe
3017
5556
00a8
0798
cafe
3408
5556
00a8
07f5
cafe
3818
5556
00a8
0756
cafe
3c00
5556
00a8
0722
cafe
2010
5556
00ac
07a6
cafe
2409
5556
00ac
07b9
cafe
2819
5556
00ac
074b
cafe
2c01
5556
00ac
0738
cafe
3011
5556
00b0
07ab
cafe
-
340a
5556
00b0
07ba
cafe
381a
5556
00b0
07bc
cafe
3c02
5556
00b0
0772
cafe
2012
5556
00b4
075c
cafe
240b
5556
00b4
07ae
cafe
281b
5556
00b4
0652
cafe
2c03
5556
00b4
071e
cafe
3013
5556
00b8
06c1
cafe
340c
5556
00b8
0775
cafe
381c
5556
00b8
069f
cafe
3c04
5556
00b8
0778
cafe
2014
5556
00bc
06f7
cafe
240d
5556
00bc
077d
cafe
281d
5556
00bc
0627
cafe
2c05
5556
00bc
07c0
cafe
3015
5556
00c0
06af
cafe
340e
5556
00c0
0718
cafe
381e
5556
00c0
0674
cafe
3c06
5556
00c0
0795
cafe
2016
5556
00c4
06d1
cafe
240f
5556
00c4
06ce
cafe
281f
5556
00c4
065d
cafe
2c07
5556
00c4
06e5
cafe
3017
5556
00c8
0737
cafe
3408
5556
00c8
078e
cafe
3818
5556
00c8
06ef
cafe
3c00
5556
00c8
06bc
cafe
2010
5556
00cc
073b
cafe
2409
5556
00cc
075c
cafe
2819
5556
00cc
06f1
cafe
2c01
5556
00cc
06df
cafe
3011
5556
00d0
074d
cafe
340a
5556
00d0
0766
cafe
381a
5556
00d0
0764
cafe
3c02
5556
00d0
0716
cafe
2012
5556
00d4
070b
cafe
240b
5556
00d4
075b
cafe
281b
5556
00d4
05fa
cafe
2c03
5556
00d4
06ca
cafe
3013
5556
00d8
066f
cafe
340c
5556
00d8
0710
cafe
381c
5556
00d8
0640
cafe
3c04
5556
00d8
0720
cafe
2014
5556
00dc
068a
cafe
240d
5556
00dc
0713
cafe
281d
5556
00dc
05be
cafe
2c05
5556
00dc
0755
cafe
3015
5556
00e0
0644
cafe
340e
5556
00e0
06a8
cafe
381e
5556
00e0
0616
cafe
3c06
5556
00e0
0735
cafe
2016
-
5556
00e4
066a
cafe
240f
5556
00e4
066f
cafe
281f
5556
00e4
0600
cafe
2c07
5556
00e4
0685
cafe
3017
5556
00e8
06db
cafe
3408
5556
00e8
0739
cafe
3818
5556
00e8
069e
cafe
3c00
5556
00e8
065c
cafe
2010
5556
00ec
06e7
cafe
2409
5556
00ec
0700
cafe
2819
5556
00ec
0698
cafe
2c01
5556
00ec
0686
cafe
3011
5556
00f0
06f2
cafe
340a
5556
00f0
06fc
cafe
381a
5556
00f0
0705
cafe
3c02
5556
00f0
06ba
cafe
2012
5556
00f4
06a3
cafe
240b
5556
00f4
06ec
cafe
281b
5556
00f4
058f
cafe
2c03
5556
00f4
0663
cafe
3013
5556
00f8
05fc
cafe
340c
5556
00f8
06ab
cafe
381c
5556
00f8
05de
cafe
3c04
5556
00f8
06c5
cafe
2014
5556
00fc
0622
cafe
240d
5556
00fc
06c3
cafe
281d
5556
00fc
055f
cafe
2c05
5556
00fc
06ff
cafe
3015
5556
0100
05f2
cafe
340e
5556
0100
064f
cafe
381e
5556
0100
05be
cafe
3c06
5556
0100
06e5
cafe
2016
5556
0104
060f
cafe
240f
5556
0104
060b
cafe
281f
5556
0104
05a7
cafe
2c07
5556
0104
0624
cafe
3017
5556
0108
0683
cafe
3408
5556
0108
06c6
cafe
3818
5556
0108
0639
cafe
3c00
5556
0108
05fc
cafe
2010
5556
010c
0672
cafe
2409
5556
010c
0698
cafe
2819
5556
010c
0632
cafe
2c01
5556
010c
0628
cafe
3011
5556
0110
0684
cafe
340a
5556
0110
069e
cafe
381a
5556
0110
06ae
cafe
3c02
5556
0110
065f
cafe
2012
5556
0114
063f
cafe
240b
5556
0114
0698
cafe
281b
5556
0114
0539
cafe
2c03
5556
-
0114
0609
cafe
3013
5556
0118
05aa
cafe
340c
5556
0118
0653
cafe
381c
5556
0118
057f
cafe
3c04
5556
0118
0666
cafe
2014
5556
011c
05c7
cafe
240d
5556
011c
0652
cafe
281d
5556
011c
0508
cafe
2c05
5556
011c
06aa
cafe
3015
5556
0120
0586
cafe
340e
5556
0120
05e3
cafe
381e
5556
0120
055c
cafe
3c06
5556
0120
067c
cafe
2016
5556
0124
05a9
cafe
240f
5556
0124
05a3
cafe
281f
5556
0124
0552
cafe
2c07
5556
0124
05c6
cafe
3017
5556
0128
062b
cafe
3408
5556
0128
0672
cafe
3818
5556
0128
05e5
cafe
3c00
5556
0128
05aa
cafe
2010
5556
012c
0624
cafe
2409
5556
012c
0652
cafe
2819
5556
012c
05e6
cafe
2c01
5556
012c
05d6
cafe
3011
5556
0130
0639
cafe
340a
5556
0130
0652
cafe
381a
5556
0130
0660
cafe
3c02
5556
0130
060d
cafe
2012
5556
0134
05ef
cafe
240b
5556
0134
0637
cafe
281b
5556
0134
04da
cafe
2c03
5556
0134
05b3
cafe
3013
5556
0138
053b
cafe
340c
5556
0138
05e6
cafe
381c
5556
0138
0527
cafe
3c04
5556
0138
0609
cafe
2014
5556
013c
0561
cafe
240d
5556
013c
05f8
cafe
281d
5556
013c
04b8
cafe
2c05
5556
013c
0659
cafe
3015
5556
0140
052e
cafe
340e
5556
0140
05a0
cafe
381e
5556
0140
050b
cafe
3c06
5556
0140
062c
cafe
2016
5556
0144
055c
cafe
240f
5556
0144
0554
cafe
281f
5556
0144
0502
cafe
2c07
5556
0144
057b
cafe
3017
5556
0148
05d6
cafe
3408
5556
0148
061b
cafe
3818
5556
0148
-
058e
cafe
3c00
5556
0148
0558
cafe
2010
5556
014c
05c5
cafe
2409
5556
014c
05ed
cafe
2819
5556
014c
0589
cafe
2c01
5556
014c
0588
cafe
3011
5556
0150
05d6
cafe
340a
5556
0150
05f4
cafe
381a
5556
0150
060d
cafe
3c02
5556
0150
05b8
cafe
2012
5556
0154
058a
cafe
240b
5556
0154
05e8
cafe
281b
5556
0154
0486
cafe
2c03
5556
0154
0566
cafe
3013
5556
0158
04ef
cafe
340c
5556
0158
05a5
cafe
381c
5556
0158
04e0
cafe
3c04
5556
0158
05bf
cafe
2014
5556
015c
0524
cafe
240d
5556
015c
05ae
cafe
281d
5556
015c
0467
cafe
2c05
5556
015c
060b
cafe
3015
5556
0160
04de
cafe
340e
5556
0160
053f
cafe
381e
5556
0160
04b6
cafe
3c06
5556
0160
05d7
cafe
2016
5556
0164
0507
cafe
240f
5556
0164
04ed
cafe
281f
5556
0164
04b5
cafe
2c07
5556
0164
0525
cafe
3017
5556
0168
0574
cafe
3408
5556
0168
05cb
cafe
3818
5556
0168
0541
cafe
3c00
5556
0168
0503
cafe
2010
5556
016c
0572
cafe
2409
5556
016c
05a4
cafe
2819
5556
016c
0542
cafe
2c01
5556
016c
0540
cafe
3011
5556
0170
0592
cafe
340a
5556
0170
05b4
cafe
381a
5556
0170
05c4
cafe
3c02
5556
0170
0576
cafe
2012
5556
0174
0547
cafe
240b
5556
0174
0595
cafe
281b
5556
0174
043b
cafe
2c03
5556
0174
0521
cafe
3013
5556
0178
0498
cafe
340c
5556
0178
0541
cafe
381c
5556
0178
0490
cafe
3c04
5556
0178
056e
cafe
2014
5556
017c
04cd
cafe
240d
5556
017c
0550
-
cafe
281d
5556
017c
0418
cafe
2c05
5556
017c
05bc
cafe
3015
5556
0180
0488
cafe
340e
5556
0180
04f0
cafe
381e
5556
0180
046e
cafe
3c06
5556
0180
0591
cafe
2016
5556
0184
04be
cafe
240f
5556
0184
04b6
cafe
281f
5556
0184
046d
cafe
2c07
5556
0184
04e1
cafe
3017
5556
0188
0532
cafe
3408
5556
0188
0587
cafe
3818
5556
0188
0500
cafe
3c00
5556
0188
04ba
cafe
2010
5556
018c
0537
cafe
2409
5556
018c
0550
cafe
2819
5556
018c
04f1
cafe
2c01
5556
018c
04f8
cafe
3011
5556
0190
053f
cafe
340a
5556
0190
0553
cafe
381a
5556
0190
0574
cafe
3c02
5556
0190
0525
cafe
2012
5556
0194
04e9
cafe
240b
5556
0194
0549
cafe
281b
5556
0194
03ec
cafe
2c03
5556
0194
04dd
cafe
3013
5556
0198
0453
cafe
340c
5556
0198
050b
cafe
381c
5556
0198
0455
cafe
3c04
5556
0198
0529
cafe
2014
5556
019c
048b
cafe
240d
5556
019c
051d
cafe
281d
5556
019c
03d4
cafe
2c05
5556
019c
057c
cafe
3015
5556
01a0
0450
cafe
340e
5556
01a0
04ac
cafe
381e
5556
01a0
0428
cafe
3c06
5556
01a0
054c
cafe
2016
5556
01a4
0483
cafe
240f
5556
01a4
045e
cafe
281f
5556
01a4
0425
cafe
2c07
5556
01a4
0492
cafe
3017
5556
01a8
04dd
cafe
3408
5556
01a8
0536
cafe
3818
5556
01a8
04b7
cafe
3c00
5556
01a8
0479
cafe
2010
5556
01ac
04db
cafe
2409
5556
01ac
050c
cafe
2819
5556
01ac
04ab
cafe
2c01
5556
01ac
04b7
cafe
3011
5556
01b0
04f4
cafe
-
340a
5556
01b0
051c
cafe
381a
5556
01b0
0535
cafe
3c02
5556
01b0
04ea
cafe
2012
5556
01b4
04af
cafe
240b
5556
01b4
050d
cafe
281b
5556
01b4
03b1
cafe
2c03
5556
01b4
04a0
cafe
3013
5556
01b8
0418
cafe
340c
5556
01b8
04bf
cafe
381c
5556
01b8
0411
cafe
3c04
5556
01b8
04e6
cafe
2014
5556
01bc
0443
cafe
240d
5556
01bc
04c4
cafe
281d
5556
01bc
0391
cafe
2c05
5556
01bc
0535
cafe
3015
5556
01c0
03fd
cafe
340e
5556
01c0
045e
cafe
381e
5556
01c0
03e3
cafe
3c06
5556
01c0
0502
cafe
2016
5556
01c4
0439
cafe
240f
5556
01c4
0423
cafe
281f
5556
01c4
03e8
cafe
2c07
5556
01c4
0452
cafe
3017
5556
01c8
04a0
cafe
3408
5556
01c8
0507
cafe
3818
5556
01c8
0480
cafe
3c00
5556
01c8
0437
cafe
2010
5556
01cc
04b0
cafe
2409
5556
01cc
04d1
cafe
2819
5556
01cc
0474
cafe
2c01
5556
01cc
047d
cafe
3011
5556
01d0
04b6
cafe
340a
5556
01d0
04d5
cafe
381a
5556
01d0
04f1
cafe
3c02
5556
01d0
04aa
cafe
2012
5556
01d4
0466
cafe
240b
5556
01d4
04bb
cafe
281b
5556
01d4
036f
cafe
2c03
5556
01d4
0460
cafe
3013
5556
01d8
03c8
cafe
340c
5556
01d8
047d
cafe
381c
5556
01d8
03d0
cafe
3c04
5556
01d8
04a8
cafe
2014
5556
01dc
0403
cafe
240d
5556
01dc
0489
cafe
281d
5556
01dc
035e
cafe
2c05
5556
01dc
0504
cafe
3015
5556
01e0
03c8
cafe
340e
5556
01e0
0435
cafe
381e
5556
01e0
03af
cafe
3c06
5556
01e0
04ce
cafe
2016
-
5556
01e4
0403
cafe
240f
5556
01e4
03e9
cafe
281f
5556
01e4
03b0
cafe
2c07
5556
01e4
041b
cafe
3017
5556
01e8
0463
cafe
3408
5556
01e8
04bd
cafe
3818
5556
01e8
043e
cafe
3c00
5556
01e8
03fe
cafe
2010
5556
01ec
0466
cafe
2409
5556
01ec
0484
cafe
2819
5556
01ec
0439
cafe
2c01
5556
01ec
0441
cafe
3011
5556
01f0
046a
cafe
340a
5556
01f0
04a2
cafe
381a
5556
01f0
04c0
cafe
3c02
5556
01f0
046b
cafe
2012
5556
01f4
042d
cafe
240b
5556
01f4
048a
cafe
281b
5556
01f4
0338
cafe
2c03
5556
01f4
042f
cafe
3013
5556
01f8
039d
cafe
340c
5556
01f8
044d
cafe
381c
5556
01f8
039b
cafe
3c04
5556
01f8
046f
cafe
2014
5556
01fc
03d1
cafe
240d
5556
01fc
044c
cafe
281d
5556
01fc
0329
cafe
2c05
5556
01fc
04c9
cafe
3015
5556
0200
0384
cafe
340e
5556
0200
03e6
cafe
381e
5556
0200
0377
cafe
3c06
5556
0200
048a
cafe
2016
5556
0204
03bc
cafe
240f
5556
0204
03a0
cafe
281f
5556
0204
0376
cafe
2c07
5556
0204
03e1
cafe
3017
5556
0208
0425
cafe
3408
5556
0208
048d
cafe
3818
5556
0208
0405
cafe
3c00
5556
0208
03cf
cafe
2010
5556
020c
0439
cafe
2409
5556
020c
0460
cafe
2819
5556
020c
040b
cafe
2c01
5556
020c
040b
cafe
3011
5556
0210
0442
cafe
340a
5556
0210
046f
cafe
381a
5556
0210
048f
cafe
3c02
5556
0210
043b
cafe
2012
5556
0214
03fe
cafe
240b
5556
0214
0446
cafe
281b
5556
0214
02fc
cafe
2c03
5556
-
0214
03f0
cafe
3013
5556
0218
0358
cafe
340c
5556
0218
0408
cafe
381c
5556
0218
0360
cafe
3c04
5556
0218
042d
cafe
2014
5556
021c
0397
cafe
240d
5556
021c
0414
cafe
281d
5556
021c
02f5
cafe
2c05
5556
021c
049b
cafe
3015
5556
0220
0343
cafe
340e
5556
0220
03be
cafe
381e
5556
0220
0347
cafe
3c06
5556
0220
0463
cafe
2016
5556
0224
0395
cafe
240f
5556
0224
037e
cafe
281f
5556
0224
0345
cafe
2c07
5556
0224
03b6
cafe
3017
5556
0228
0400
cafe
3408
5556
0228
0450
cafe
3818
5556
0228
03d4
cafe
3c00
5556
0228
03a0
cafe
2010
5556
022c
0406
cafe
2409
5556
022c
0423
cafe
2819
5556
022c
03d2
cafe
2c01
5556
022c
03de
cafe
3011
5556
0230
03fe
cafe
340a
5556
0230
0438
cafe
381a
5556
0230
045e
cafe
3c02
5556
0230
03fe
cafe
2012
5556
0234
03c1
cafe
240b
5556
0234
041c
cafe
281b
5556
0234
02d5
cafe
2c03
5556
0234
03c4
cafe
3013
5556
0238
0325
cafe
340c
5556
0238
03e8
cafe
381c
5556
0238
0335
cafe
3c04
5556
0238
0402
cafe
2014
5556
023c
0376
cafe
240d
5556
023c
03ea
cafe
281d
5556
023c
02c2
cafe
2c05
5556
023c
046e
cafe
3015
5556
0240
031d
cafe
340e
5556
0240
0380
cafe
381e
5556
0240
031d
cafe
3c06
5556
0240
0430
cafe
2016
5556
0244
0362
cafe
240f
5556
0244
033a
cafe
281f
5556
0244
0315
cafe
2c07
5556
0244
037e
cafe
3017
5556
0248
03c7
cafe
3408
5556
0248
041e
cafe
3818
5556
0248
-
03a3
cafe
3c00
5556
0248
036c
cafe
2010
5556
024c
03d2
cafe
2409
5556
024c
0403
cafe
2819
5556
024c
03a4
cafe
2c01
5556
024c
03b1
cafe
3011
5556
0250
03db
cafe
340a
5556
0250
0413
cafe
381a
5556
0250
0432
cafe
3c02
5556
0250
03d3
cafe
2012
5556
0254
039c
cafe
240b
5556
0254
03e6
cafe
281b
5556
0254
02a6
cafe
2c03
5556
0254
0399
cafe
3013
5556
0258
02f3
cafe
340c
5556
0258
03a6
cafe
381c
5556
0258
030c
cafe
3c04
5556
0258
03d3
cafe
2014
5556
025c
0336
cafe
240d
5556
025c
03ac
cafe
281d
5556
025c
0292
cafe
2c05
5556
025c
0432
cafe
3015
5556
0260
02e6
cafe
340e
5556
0260
0357
cafe
381e
5556
0260
02f5
cafe
3c06
5556
0260
0407
cafe
2016
5556
0264
0337
cafe
240f
5556
0264
031d
cafe
281f
5556
0264
02ea
cafe
2c07
5556
0264
035b
cafe
3017
5556
0268
03ae
cafe
3408
5556
0268
03fa
cafe
3818
5556
0268
037f
cafe
3c00
5556
0268
0348
cafe
2010
5556
026c
03b5
cafe
2409
5556
026c
03cb
cafe
2819
5556
026c
0371
cafe
2c01
5556
026c
0380
cafe
3011
5556
0270
03a6
cafe
340a
5556
0270
03d1
cafe
381a
5556
0270
0404
cafe
3c02
5556
0270
03a4
cafe
2012
5556
0274
0368
cafe
240b
5556
0274
03b9
cafe
281b
5556
0274
027e
cafe
2c03
5556
0274
036c
cafe
3013
5556
0278
02be
cafe
340c
5556
0278
038a
cafe
381c
5556
0278
02e4
cafe
3c04
5556
0278
03b4
cafe
2014
5556
027c
0318
cafe
240d
5556
027c
0392
-
cafe
281d
5556
027c
026f
cafe
2c05
5556
027c
0410
cafe
3015
5556
0280
02c7
cafe
340e
5556
0280
0334
cafe
381e
5556
0280
02c9
cafe
3c06
5556
0280
03e4
cafe
2016
5556
0284
0309
cafe
240f
5556
0284
02e5
cafe
281f
5556
0284
02c2
cafe
2c07
5556
0284
0325
cafe
3017
5556
0288
037b
cafe
3408
5556
0288
03c1
cafe
3818
5556
0288
034b
cafe
3c00
5556
0288
0320
cafe
2010
5556
028c
036b
cafe
2409
5556
028c
039e
cafe
2819
5556
028c
034d
cafe
2c01
5556
028c
035c
cafe
3011
5556
0290
037d
cafe
340a
5556
0290
03b1
cafe
381a
5556
0290
03e1
cafe
3c02
5556
0290
038a
cafe
2012
5556
0294
0351
cafe
240b
5556
0294
039d
cafe
281b
5556
0294
025e
cafe
2c03
5556
0294
0349
cafe
3013
5556
0298
02a8
cafe
340c
5556
0298
0358
cafe
381c
5556
0298
02c2
cafe
3c04
5556
0298
0391
cafe
2014
5556
029c
02e5
cafe
240d
5556
029c
035a
cafe
281d
5556
029c
024d
cafe
2c05
5556
029c
03e0
cafe
3015
5556
02a0
0297
cafe
340e
5556
02a0
0303
cafe
381e
5556
02a0
029b
cafe
3c06
5556
02a0
03b4
cafe
2016
5556
02a4
02db
cafe
240f
5556
02a4
02c4
cafe
281f
5556
02a4
02a5
cafe
2c07
5556
02a4
0307
cafe
3017
5556
02a8
0354
cafe
3408
5556
02a8
03a6
cafe
3818
5556
02a8
032f
cafe
3c00
5556
02a8
02fe
cafe
2010
5556
02ac
0354
cafe
2409
5556
02ac
0383
cafe
2819
5556
02ac
0330
cafe
2c01
5556
02ac
033d
cafe
3011
5556
02b0
035e
cafe
-
340a
5556
02b0
037b
cafe
381a
5556
02b0
03b5
cafe
3c02
5556
02b0
0369
cafe
2012
5556
02b4
0323
cafe
240b
5556
02b4
036a
cafe
281b
5556
02b4
023a
cafe
2c03
5556
02b4
0327
cafe
3013
5556
02b8
0278
cafe
340c
5556
02b8
0336
cafe
381c
5556
02b8
02a3
cafe
3c04
5556
02b8
0375
cafe
2014
5556
02bc
02c6
cafe
240d
5556
02bc
0341
cafe
281d
5556
02bc
0232
cafe
2c05
5556
02bc
03bd
cafe
3015
5556
02c0
027a
cafe
340e
5556
02c0
02f2
cafe
381e
5556
02c0
0278
cafe
3c06
5556
02c0
039c
cafe
2016
5556
02c4
02c2
cafe
240f
5556
02c4
029f
cafe
281f
5556
02c4
0288
cafe
2c07
5556
02c4
02e6
cafe
3017
5556
02c8
032b
cafe
3408
5556
02c8
037a
cafe
3818
5556
02c8
030a
cafe
3c00
5556
02c8
02d7
cafe
2010
5556
02cc
0321
cafe
2409
5556
02cc
0357
cafe
2819
5556
02cc
0302
cafe
2c01
5556
02cc
0317
cafe
3011
5556
02d0
0327
cafe
340a
5556
02d0
035f
cafe
381a
5556
02d0
0397
cafe
3c02
5556
02d0
0349
cafe
2012
5556
02d4
0306
cafe
240b
5556
02d4
0352
cafe
281b
5556
02d4
021f
cafe
2c03
5556
02d4
030c
cafe
3013
5556
02d8
026a
cafe
340c
5556
02d8
031e
cafe
381c
5556
02d8
0284
cafe
3c04
5556
02d8
0353
cafe
2014
5556
02dc
02b0
cafe
240d
5556
02dc
031b
cafe
281d
5556
02dc
0216
cafe
2c05
5556
02dc
0398
cafe
3015
5556
02e0
0251
cafe
340e
5556
02e0
02be
cafe
381e
5556
02e0
025d
cafe
3c06
5556
02e0
036c
cafe
2016
-
5556
02e4
0299
cafe
240f
5556
02e4
027c
cafe
281f
5556
02e4
0267
cafe
2c07
5556
02e4
02cb
cafe
3017
5556
02e8
0307
cafe
3408
5556
02e8
036b
cafe
3818
5556
02e8
02ef
cafe
3c00
5556
02e8
02c0
cafe
2010
5556
02ec
0311
cafe
2409
5556
02ec
034a
cafe
2819
5556
02ec
02eb
cafe
2c01
5556
02ec
02fe
cafe
3011
5556
02f0
0316
cafe
340a
5556
02f0
033c
cafe
381a
5556
02f0
0377
cafe
3c02
5556
02f0
0327
cafe
2012
5556
02f4
02e9
cafe
240b
5556
02f4
032e
cafe
281b
5556
02f4
0202
cafe
2c03
5556
02f4
02ec
cafe
3013
5556
02f8
0236
cafe
340c
5556
02f8
02ef
cafe
381c
5556
02f8
0268
cafe
3c04
5556
02f8
032b
cafe
2014
5556
02fc
0280
cafe
240d
5556
02fc
0300
cafe
281d
5556
02fc
01f8
cafe
2c05
5556
02fc
037e
cafe
3015
5556
0300
023f
cafe
340e
5556
0300
02ae
cafe
381e
5556
0300
0240
cafe
3c06
5556
0300
0355
cafe
2016
5556
0304
0283
cafe
240f
5556
0304
0265
cafe
281f
5556
0304
024d
cafe
2c07
5556
0304
02b1
cafe
3017
5556
0308
02eb
cafe
3408
5556
0308
0345
cafe
3818
5556
0308
02ce
cafe
3c00
5556
0308
02a7
cafe
2010
5556
030c
02e0
cafe
2409
5556
030c
0318
cafe
2819
5556
030c
02c4
cafe
2c01
5556
030c
02de
cafe
3011
5556
0310
02e8
cafe
340a
5556
0310
031b
cafe
381a
5556
0310
0359
cafe
3c02
5556
0310
030a
cafe
2012
5556
0314
02c3
cafe
240b
5556
0314
031a
cafe
281b
5556
0314
01e6
cafe
2c03
5556
-
0314
02d0
cafe
3013
5556
0318
0228
cafe
340c
5556
0318
02e3
cafe
381c
5556
0318
0254
cafe
3c04
5556
0318
0319
cafe
2014
5556
031c
0273
cafe
240d
5556
031c
02e5
cafe
281d
5556
031c
01db
cafe
2c05
5556
031c
0360
cafe
3015
5556
0320
0224
cafe
340e
5556
0320
0282
cafe
381e
5556
0320
0220
cafe
3c06
5556
0320
0329
cafe
2016
5556
0324
025c
cafe
240f
5556
0324
0236
cafe
281f
5556
0324
0232
cafe
2c07
5556
0324
028a
cafe
3017
5556
0328
02c8
cafe
3408
5556
0328
0334
cafe
3818
5556
0328
02b5
cafe
3c00
5556
0328
028c
cafe
2010
5556
032c
02cc
cafe
2409
5556
032c
0311
cafe
2819
5556
032c
02b5
cafe
2c01
5556
032c
02c9
cafe
3011
5556
0330
02db
cafe
340a
5556
0330
0308
cafe
381a
5556
0330
033e
cafe
3c02
5556
0330
02f6
cafe
2012
5556
0334
02b6
cafe
240b
5556
0334
02f3
cafe
281b
5556
0334
01cd
cafe
2c03
5556
0334
02b7
cafe
3013
5556
0338
0200
cafe
340c
5556
0338
02be
cafe
381c
5556
0338
0238
cafe
3c04
5556
0338
02f7
cafe
2014
5556
033c
024a
cafe
240d
5556
033c
02bb
cafe
281d
5556
033c
01bf
cafe
2c05
5556
033c
0342
cafe
3015
5556
0340
01fe
cafe
340e
5556
0340
0272
cafe
381e
5556
0340
020b
cafe
3c06
5556
0340
031a
cafe
2016
5556
0344
0241
cafe
240f
5556
0344
0226
cafe
281f
5556
0344
021e
cafe
2c07
5556
0344
027d
cafe
3017
5556
0348
02bc
cafe
3408
5556
0348
0321
cafe
3818
5556
0348
-
02a1
cafe
3c00
5556
0348
026f
cafe
2010
5556
034c
02b8
cafe
2409
5556
034c
02e4
cafe
2819
5556
034c
0299
cafe
2c01
5556
034c
02ac
cafe
3011
5556
0350
02b3
cafe
340a
5556
0350
02da
cafe
381a
5556
0350
0321
cafe
3c02
5556
0350
02d5
cafe
2012
5556
0354
0288
cafe
240b
5556
0354
02da
cafe
281b
5556
0354
01b8
cafe
2c03
5556
0354
02a1
cafe
3013
5556
0358
01f0
cafe
340c
5556
0358
02ba
cafe
381c
5556
0358
0227
cafe
3c04
5556
0358
02eb
cafe
2014
5556
035c
023d
cafe
240d
5556
035c
02b3
cafe
281d
5556
035c
01ac
cafe
2c05
5556
035c
0331
cafe
3015
5556
0360
01f7
cafe
340e
5556
0360
0252
cafe
381e
5556
0360
01f3
cafe
3c06
5556
0360
0308
cafe
2016
5556
0364
0227
cafe
240f
5556
0364
0204
cafe
281f
5556
0364
0208
cafe
2c07
5556
0364
0256
cafe
3017
5556
0368
0298
cafe
3408
5556
0368
0300
cafe
3818
5556
0368
027e
cafe
3c00
5556
0368
0257
cafe
2010
5556
036c
0290
cafe
2409
5556
036c
02c7
cafe
2819
5556
036c
027e
cafe
2c01
5556
036c
0299
cafe
3011
5556
0370
029f
cafe
340a
5556
0370
02d2
cafe
381a
5556
0370
030d
cafe
3c02
5556
0370
02c4
cafe
2012
5556
0374
027a
cafe
240b
5556
0374
02c8
cafe
281b
5556
0374
01a4
cafe
2c03
5556
0374
0290
cafe
3013
5556
0378
01e0
cafe
340c
5556
0378
0295
cafe
381c
5556
0378
020c
cafe
3c04
5556
0378
02cf
cafe
2014
5556
037c
021b
cafe
240d
5556
037c
028a
-
cafe
281d
5556
037c
0197
cafe
2c05
5556
037c
0314
cafe
3015
5556
0380
01d8
cafe
340e
5556
0380
0232
cafe
381e
5556
0380
01de
cafe
3c06
5556
0380
02ec
cafe
2016
5556
0384
0211
cafe
240f
5556
0384
0200
cafe
281f
5556
0384
01fb
cafe
2c07
5556
0384
0249
cafe
3017
5556
0388
0290
cafe
3408
5556
0388
02f5
cafe
3818
5556
0388
0272
cafe
3c00
5556
0388
0247
cafe
2010
5556
038c
028e
cafe
2409
5556
038c
02b5
cafe
2819
5556
038c
026a
cafe
2c01
5556
038c
0288
cafe
3011
5556
0390
0292
cafe
340a
5556
0390
02ad
cafe
381a
5556
0390
02f6
cafe
3c02
5556
0390
02ac
cafe
2012
5556
0394
024f
cafe
240b
5556
0394
02ab
cafe
281b
5556
0394
018e
cafe
2c03
5556
0394
0280
cafe
3013
5556
0398
01c8
cafe
340c
5556
0398
0289
cafe
381c
5556
0398
01fc
cafe
3c04
5556
0398
02bf
cafe
2014
5556
039c
0210
cafe
240d
5556
039c
028b
cafe
281d
5556
039c
018b
cafe
2c05
5556
039c
0309
cafe
3015
5556
03a0
01d1
cafe
340e
5556
03a0
0225
cafe
381e
5556
03a0
01ce
cafe
3c06
5556
03a0
02da
cafe
2016
5556
03a4
0200
cafe
240f
5556
03a4
01e3
cafe
281f
5556
03a4
01e4
cafe
2c07
5556
03a4
0230
cafe
3017
5556
03a8
0277
cafe
3408
5556
03a8
02c9
cafe
3818
5556
03a8
0257
cafe
3c00
5556
03a8
0236
cafe
2010
5556
03ac
0267
cafe
2409
5556
03ac
029d
cafe
2819
5556
03ac
0252
cafe
2c01
5556
03ac
0270
cafe
3011
5556
03b0
0271
cafe
-
340a
5556
03b0
02a0
cafe
381a
5556
03b0
02ed
cafe
3c02
5556
03b0
029f
cafe
2012
5556
03b4
023f
cafe
240b
5556
03b4
02a5
cafe
281b
5556
03b4
0183
cafe
2c03
5556
03b4
0270
cafe
3013
5556
03b8
01c7
cafe
340c
5556
03b8
0273
cafe
381c
5556
03b8
01ed
cafe
3c04
5556
03b8
02a6
cafe
2014
5556
03bc
01fe
cafe
240d
5556
03bc
026b
cafe
281d
5556
03bc
0174
cafe
2c05
5556
03bc
02ed
cafe
3015
5556
03c0
01b6
cafe
340e
5556
03c0
01fc
cafe
381e
5556
03c0
01c2
cafe
3c06
5556
03c0
02bf
cafe
2016
5556
03c4
01e0
cafe
240f
5556
03c4
01d6
cafe
281f
5556
03c4
01d0
cafe
2c07
5556
03c4
0225
cafe
3017
5556
03c8
0264
cafe
3408
5556
03c8
02bc
cafe
3818
5556
03c8
0250
cafe
3c00
5556
03c8
0223
cafe
2010
5556
03cc
0263
cafe
2409
5556
03cc
0297
cafe
2819
5556
03cc
0246
cafe
2c01
5556
03cc
025e
cafe
3011
5556
03d0
0275
cafe
340a
5556
03d0
028c
cafe
381a
5556
03d0
02d6
cafe
3c02
5556
03d0
028f
cafe
2012
5556
03d4
022c
cafe
240b
5556
03d4
0283
cafe
281b
5556
03d4
016e
cafe
2c03
5556
03d4
025c
cafe
3013
5556
03d8
019f
cafe
340c
5556
03d8
025b
cafe
381c
5556
03d8
01d7
cafe
3c04
5556
03d8
0291
cafe
2014
5556
03dc
01df
cafe
240d
5556
03dc
0263
cafe
281d
5556
03dc
016a
cafe
2c05
5556
03dc
02da
cafe
3015
5556
03e0
01b9
cafe
340e
5556
03e0
01f9
cafe
381e
5556
03e0
01b7
cafe
3c06
5556
03e0
02ba
cafe
2016
-
5556
03e4
01d9
cafe
240f
5556
03e4
01cf
cafe
281f
5556
03e4
01c5
cafe
2c07
5556
03e4
0216
cafe
3017
5556
03e8
0250
cafe
3408
5556
03e8
02a3
cafe
3818
5556
03e8
0236
cafe
3c00
5556
03e8
0214
cafe
2010
5556
03ec
0244
cafe
2409
5556
03ec
027d
cafe
2819
5556
03ec
0232
cafe
2c01
5556
03ec
024a
cafe
3011
5556
03f0
0252
cafe
340a
5556
03f0
0280
cafe
381a
5556
03f0
02c2
cafe
3c02
5556
03f0
0279
cafe
2012
5556
03f4
022b
cafe
240b
5556
03f4
0286
cafe
281b
5556
03f4
016b
cafe
2c03
5556
03f4
024a
cafe
3013
5556
03f8
019d
cafe
340c
5556
03f8
0254
cafe
381c
5556
03f8
01c5
cafe
3c04
5556
03f8
0291
cafe
2014
5556
03fc
01e0
cafe
240d
5556
03fc
0251
cafe
281d
5556
03fc
0162
cafe
2c05
5556
03fc
02ca
cafe
3015
5556
0400
01a2
cafe
340e
5556
0400
01d0
cafe
381e
5556
0400
01a8
cafe
3c06
5556
0400
029f
cafe
2016
5556
0404
01c2
cafe
240f
5556
0404
01c0
cafe
281f
5556
0404
01b6
cafe
2c07
5556
0404
0201
cafe
3017
5556
0408
023d
cafe
3408
5556
0408
029d
cafe
3818
5556
0408
0225
cafe
3c00
5556
0408
020d
cafe
2010
5556
040c
023c
cafe
2409
5556
040c
027f
cafe
2819
5556
040c
022d
cafe
2c01
5556
040c
023a
cafe
3011
5556
0410
024f
cafe
340a
5556
0410
027c
cafe
381a
5556
0410
02b7
cafe
3c02
5556
0410
0269
cafe
2012
5556
0414
0222
cafe
240b
5556
0414
0268
cafe
281b
5556
0414
0156
cafe
2c03
5556
-
0414
0239
cafe
3013
5556
0418
017e
cafe
340c
5556
0418
022a
cafe
381c
5556
0418
01b3
cafe
3c04
5556
0418
027b
cafe
2014
5556
041c
01c2
cafe
240d
5556
041c
0244
cafe
281d
5556
041c
0153
cafe
2c05
5556
041c
02b5
cafe
3015
5556
0420
018b
cafe
340e
5556
0420
01d7
cafe
381e
5556
0420
019d
cafe
3c06
5556
0420
0298
cafe
2016
5556
0424
01c5
cafe
240f
5556
0424
01bf
cafe
281f
5556
0424
01a9
cafe
2c07
5556
0424
01fc
cafe
3017
5556
0428
0238
cafe
3408
5556
0428
028b
cafe
3818
5556
0428
0215
cafe
3c00
5556
0428
0206
cafe
2010
5556
042c
0228
cafe
2409
5556
042c
0263
cafe
2819
5556
042c
0210
cafe
2c01
5556
042c
0228
cafe
3011
5556
0430
022e
cafe
340a
5556
0430
0260
cafe
381a
5556
0430
02a3
cafe
3c02
5556
0430
025b
cafe
2012
5556
0434
0207
cafe
240b
5556
0434
0260
cafe
281b
5556
0434
0148
cafe
2c03
5556
0434
0229
cafe
3013
5556
0438
0175
cafe
340c
5556
0438
0229
cafe
381c
5556
0438
01a6
cafe
3c04
5556
0438
0277
cafe
2014
5556
043c
01c7
cafe
240d
5556
043c
0243
cafe
281d
5556
043c
0151
cafe
2c05
5556
043c
02ab
cafe
3015
5556
0440
0188
cafe
340e
5556
0440
01bb
cafe
381e
5556
0440
0191
cafe
3c06
5556
0440
0280
cafe
2016
5556
0444
01b3
cafe
240f
5556
0444
019a
cafe
281f
5556
0444
019c
cafe
2c07
5556
0444
01ee
cafe
3017
5556
0448
021b
cafe
3408
5556
0448
0278
cafe
3818
5556
0448
-
0203
cafe
3c00
5556
0448
01f7
cafe
2010
5556
044c
0216
cafe
2409
5556
044c
0264
cafe
2819
5556
044c
020e
cafe
2c01
5556
044c
0225
cafe
3011
5556
0450
0231
cafe
340a
5556
0450
025f
cafe
381a
5556
0450
029c
cafe
3c02
5556
0450
025b
cafe
2012
5556
0454
020e
cafe
240b
5556
0454
0253
cafe
281b
5556
0454
0141
cafe
2c03
5556
0454
0219
cafe
3013
5556
0458
0166
cafe
340c
5556
0458
0206
cafe
381c
5556
0458
0198
cafe
3c04
5556
0458
025d
cafe
2014
5556
045c
01af
cafe
240d
5556
045c
022b
cafe
281d
5556
045c
013d
cafe
2c05
5556
045c
0294
cafe
3015
5556
0460
0169
cafe
340e
5556
0460
01bb
cafe
381e
5556
0460
0187
cafe
3c06
5556
0460
0279
cafe
2016
5556
0464
01a2
cafe
240f
5556
0464
0197
cafe
281f
5556
0464
0194
cafe
2c07
5556
0464
01ed
cafe
3017
5556
0468
0216
cafe
3408
5556
0468
0272
cafe
3818
5556
0468
01fe
cafe
3c00
5556
0468
01f0
cafe
2010
5556
046c
0218
cafe
2409
5556
046c
024f
cafe
2819
5556
046c
0203
cafe
2c01
5556
046c
0210
cafe
3011
5556
0470
0219
cafe
340a
5556
0470
023e
cafe
381a
5556
0470
028b
cafe
3c02
5556
0470
0246
cafe
2012
5556
0474
01f3
cafe
240b
5556
0474
023e
cafe
281b
5556
0474
0131
cafe
2c03
5556
0474
020e
cafe
3013
5556
0478
0148
cafe
340c
5556
0478
0208
cafe
381c
5556
0478
0192
cafe
3c04
5556
0478
0255
cafe
2014
5556
047c
01a6
cafe
240d
5556
047c
0231
-
cafe
281d
5556
047c
0135
cafe
2c05
5556
047c
0294
cafe
3015
5556
0480
0171
cafe
340e
5556
0480
01ae
cafe
381e
5556
0480
0184
cafe
3c06
5556
0480
0273
cafe
2016
5556
0484
019e
cafe
240f
5556
0484
017d
cafe
281f
5556
0484
0184
cafe
2c07
5556
0484
01dc
cafe
3017
5556
0488
01fd
cafe
3408
5556
0488
0258
cafe
3818
5556
0488
01eb
cafe
3c00
5556
0488
01e4
cafe
2010
5556
048c
0200
cafe
2409
5556
048c
0243
cafe
2819
5556
048c
01fb
cafe
2c01
5556
048c
0206
cafe
3011
5556
0490
020d
cafe
340a
5556
0490
023f
cafe
381a
5556
0490
0284
cafe
3c02
5556
0490
0240
cafe
2012
5556
0494
01f2
cafe
240b
5556
0494
023f
cafe
281b
5556
0494
012d
cafe
2c03
5556
0494
0209
cafe
3013
5556
0498
014e
cafe
340c
5556
0498
01ff
cafe
381c
5556
0498
018a
cafe
3c04
5556
0498
024b
cafe
2014
5556
049c
0197
cafe
240d
5556
049c
0217
cafe
281d
5556
049c
012d
cafe
2c05
5556
049c
0280
cafe
3015
5556
04a0
0163
cafe
340e
5556
04a0
019f
cafe
381e
5556
04a0
017d
cafe
3c06
5556
04a0
0267
cafe
2016
5556
04a4
0190
cafe
240f
5556
04a4
0174
cafe
281f
5556
04a4
0179
cafe
2c07
5556
04a4
01d7
cafe
3017
5556
04a8
01f8
cafe
3408
5556
04a8
025f
cafe
3818
5556
04a8
01e6
cafe
3c00
5556
04a8
01e0
cafe
2010
5556
04ac
0206
cafe
2409
5556
04ac
0241
cafe
2819
5556
04ac
01f2
cafe
2c01
5556
04ac
0201
cafe
3011
5556
04b0
020f
cafe
-
340a
5556
04b0
0225
cafe
381a
5556
04b0
027d
cafe
3c02
5556
04b0
0234
cafe
2012
5556
04b4
01d2
cafe
240b
5556
04b4
0223
cafe
281b
5556
04b4
011e
cafe
2c03
5556
04b4
01fc
cafe
3013
5556
04b8
0135
cafe
340c
5556
04b8
01f4
cafe
381c
5556
04b8
017c
cafe
3c04
5556
04b8
023f
cafe
2014
5556
04bc
018b
cafe
240d
5556
04bc
021b
cafe
281d
5556
04bc
0129
cafe
2c05
5556
04bc
027a
cafe
3015
5556
04c0
016c
cafe
340e
5556
04c0
01a8
cafe
381e
5556
04c0
0174
cafe
3c06
5556
04c0
0263
cafe
2016
5556
04c4
0193
cafe
240f
5556
04c4
016c
cafe
281f
5556
04c4
016f
cafe
2c07
5556
04c4
01ce
cafe
3017
5556
04c8
01f2
cafe
3408
5556
04c8
0246
cafe
3818
5556
04c8
01db
cafe
3c00
5556
04c8
01d1
cafe
2010
5556
04cc
01ec
cafe
2409
5556
04cc
022a
cafe
2819
5556
04cc
01d8
cafe
2c01
5556
04cc
01fd
cafe
3011
5556
04d0
01f9
cafe
340a
5556
04d0
021a
cafe
381a
5556
04d0
0273
cafe
3c02
5556
04d0
022c
cafe
2012
5556
04d4
01c8
cafe
240b
5556
04d4
0232
cafe
281b
5556
04d4
0122
cafe
2c03
5556
04d4
01f6
cafe
3013
5556
04d8
0140
cafe
340c
5556
04d8
01f5
cafe
381c
5556
04d8
0172
cafe
3c04
5556
04d8
023f
cafe
2014
5556
04dc
018f
cafe
240d
5556
04dc
0204
cafe
281d
5556
04dc
011c
cafe
2c05
5556
04dc
0270
cafe
3015
5556
04e0
0154
cafe
340e
5556
04e0
0185
cafe
381e
5556
04e0
016e
cafe
3c06
5556
04e0
0251
cafe
2016
-
5556
04e4
017d
cafe
240f
5556
04e4
015e
cafe
281f
5556
04e4
016c
cafe
2c07
5556
04e4
01c2
cafe
3017
5556
04e8
01e4
cafe
3408
5556
04e8
023c
cafe
3818
5556
04e8
01d9
cafe
3c00
5556
04e8
01c6
cafe
2010
5556
04ec
01ee
cafe
2409
5556
04ec
0236
cafe
2819
5556
04ec
01da
cafe
2c01
5556
04ec
01f5
cafe
3011
5556
04f0
0209
cafe
340a
5556
04f0
0222
cafe
381a
5556
04f0
0269
cafe
3c02
5556
04f0
0227
cafe
2012
5556
04f4
01ce
cafe
240b
5556
04f4
0224
cafe
281b
5556
04f4
0116
cafe
2c03
5556
04f4
01f1
cafe
3013
5556
04f8
0129
cafe
340c
5556
04f8
01da
cafe
381c
5556
04f8
0160
cafe
3c04
5556
04f8
022d
cafe
2014
5556
04fc
0182
cafe
240d
5556
04fc
01f1
cafe
281d
5556
04fc
011c
cafe
2c05
5556
04fc
0264
cafe
3015
5556
0500
0144
cafe
340e
5556
0500
0189
cafe
381e
5556
0500
0161
cafe
3c06
5556
0500
024f
cafe
2016
5556
0504
017d
cafe
240f
5556
0504
016b
cafe
281f
5556
0504
0168
cafe
2c07
5556
0504
01c1
cafe
3017
5556
0508
01e4
cafe
3408
5556
0508
022d
cafe
3818
5556
0508
01d0
cafe
3c00
5556
0508
01bf
cafe
2010
5556
050c
01e7
cafe
2409
5556
050c
0227
cafe
2819
5556
050c
01ce
cafe
2c01
5556
050c
01e9
cafe
3011
5556
0510
01f5
cafe
340a
5556
0510
0216
cafe
381a
5556
0510
025b
cafe
3c02
5556
0510
021a
cafe
2012
5556
0514
01bb
cafe
240b
5556
0514
0225
cafe
281b
5556
0514
0114
cafe
2c03
5556
-
0514
01ed
cafe
3013
5556
0518
012e
cafe
340c
5556
0518
01e3
cafe
381c
5556
0518
0164
cafe
3c04
5556
0518
022f
cafe
2014
5556
051c
018b
cafe
240d
5556
051c
01f7
cafe
281d
5556
051c
011d
cafe
2c05
5556
051c
0269
cafe
3015
5556
0520
0147
cafe
340e
5556
0520
0183
cafe
381e
5556
0520
0153
cafe
3c06
5556
0520
0245
cafe
2016
5556
0524
0177
cafe
240f
5556
0524
0158
cafe
281f
5556
0524
015f
cafe
2c07
5556
0524
01b5
cafe
3017
5556
0528
01ce
cafe
3408
5556
0528
022a
cafe
3818
5556
0528
01c6
cafe
3c00
5556
0528
01bc
cafe
2010
5556
052c
01e0
cafe
2409
5556
052c
022f
cafe
2819
5556
052c
01ce
cafe
2c01
5556
052c
01e9
cafe
3011
5556
0530
01f5
cafe
340a
5556
0530
021f
cafe
381a
5556
0530
0258
cafe
3c02
5556
0530
0217
cafe
2012
5556
0534
01c4
cafe
240b
5556
0534
0216
cafe
281b
5556
0534
010e
cafe
2c03
5556
0534
01e2
cafe
3013
5556
0538
0121
cafe
340c
5556
0538
01ca
cafe
381c
5556
0538
015d
cafe
3c04
5556
0538
021b
cafe
2014
5556
053c
0177
cafe
240d
5556
053c
01df
cafe
281d
5556
053c
0113
cafe
2c05
5556
053c
025d
cafe
3015
5556
0540
0137
cafe
340e
5556
0540
0186
cafe
381e
5556
0540
0148
cafe
3c06
5556
0540
0244
cafe
2016
5556
0544
0173
cafe
240f
5556
0544
0160
cafe
281f
5556
0544
0166
cafe
2c07
5556
0544
01b9
cafe
3017
5556
0548
01d4
cafe
3408
5556
0548
0227
cafe
3818
5556
0548
-
01c5
cafe
3c00
5556
0548
01be
cafe
2010
5556
054c
01e3
cafe
2409
5556
054c
021b
cafe
2819
5556
054c
01bd
cafe
2c01
5556
054c
01e0
cafe
3011
5556
0550
01df
cafe
340a
5556
0550
020b
cafe
381a
5556
0550
024e
cafe
3c02
5556
0550
020c
cafe
2012
5556
0554
01ac
cafe
240b
5556
0554
0207
cafe
281b
5556
0554
0104
cafe
2c03
5556
0554
01df
cafe
3013
5556
0558
011a
cafe
340c
5556
0558
01d1
cafe
381c
5556
0558
0159
cafe
3c04
5556
0558
021f
cafe
2014
5556
055c
017c
cafe
240d
5556
055c
01ec
cafe
281d
5556
055c
010b
cafe
2c05
5556
055c
025d
cafe
3015
5556
0560
0140
cafe
340e
5556
0560
0186
cafe
381e
5556
0560
0140
cafe
3c06
5556
0560
0240
cafe
2016
5556
0564
016b
cafe
240f
5556
0564
014b
cafe
281f
5556
0564
015b
cafe
2c07
5556
0564
01ac
cafe
3017
5556
0568
01c7
cafe
3408
5556
0568
0217
cafe
3818
5556
0568
01bb
cafe
3c00
5556
0568
01b8
cafe
2010
5556
056c
01cd
cafe
2409
5556
056c
0216
cafe
2819
5556
056c
01bd
cafe
2c01
5556
056c
01db
cafe
3011
5556
0570
01da
cafe
340a
5556
0570
020a
cafe
381a
5556
0570
024e
cafe
3c02
5556
0570
020f
cafe
2012
5556
0574
01b3
cafe
240b
5556
0574
0208
cafe
281b
5556
0574
0101
cafe
2c03
5556
0574
01d5
cafe
3013
5556
0578
011f
cafe
340c
5556
0578
01c2
cafe
381c
5556
0578
0159
cafe
3c04
5556
0578
0216
cafe
2014
5556
057c
016f
cafe
240d
5556
057c
01d6
-
cafe
281d
5556
057c
0103
cafe
2c05
5556
057c
0250
cafe
3015
5556
0580
012e
cafe
340e
5556
0580
0177
cafe
381e
5556
0580
013b
cafe
3c06
5556
0580
0239
cafe
2016
5556
0584
015e
cafe
240f
5556
0584
0154
cafe
281f
5556
0584
014d
cafe
2c07
5556
0584
01a9
cafe
3017
5556
0588
01c9
cafe
3408
5556
0588
0220
cafe
3818
5556
0588
01be
cafe
3c00
5556
0588
01be
cafe
2010
5556
058c
01d7
cafe
2409
5556
058c
0211
cafe
2819
5556
058c
01b6
cafe
2c01
5556
058c
01d2
cafe
3011
5556
0590
01d6
cafe
340a
5556
0590
01f4
cafe
381a
5556
0590
0245
cafe
3c02
5556
0590
0207
cafe
2012
5556
0594
0199
cafe
240b
5556
0594
01f6
cafe
281b
5556
0594
00f4
cafe
2c03
5556
0594
01c5
cafe
3013
5556
0598
0113
cafe
340c
5556
0598
01c3
cafe
381c
5556
0598
015b
cafe
3c04
5556
0598
0218
cafe
2014
5556
059c
0168
cafe
240d
5556
059c
01ea
cafe
281d
5556
059c
0105
cafe
2c05
5556
059c
0253
cafe
3015
5556
05a0
0139
cafe
340e
5556
05a0
017b
cafe
381e
5556
05a0
0138
cafe
3c06
5556
05a0
023c
cafe
2016
5556
05a4
015b
cafe
240f
5556
05a4
0142
cafe
281f
5556
05a4
0148
cafe
2c07
5556
05a4
019b
cafe
3017
5556
05a8
01be
cafe
3408
5556
05a8
020b
cafe
3818
5556
05a8
01b0
cafe
3c00
5556
05a8
01b3
cafe
2010
5556
05ac
01ba
cafe
2409
5556
05ac
0204
cafe
2819
5556
05ac
01ac
cafe
2c01
5556
05ac
01c8
cafe
3011
5556
05b0
01c7
cafe
-
