3c0d
0000
0000
07f7
cafe
201d
0000
0000
07f8
cafe
2405
0000
0000
07f3
cafe
2815
0000
0000
07fb
cafe
2c0e
0000
0000
07f8
cafe
301e
0000
0000
07f8
cafe
3406
0000
0000
07f3
cafe
3816
0000
0000
07fb
cafe
3c0f
0000
0000
07f7
cafe
201f
0000
0000
07f8
cafe
2407
0000
0000
07f2
cafe
2817
0000
0000
07fb
cafe
2c08
0000
0000
07f7
cafe
3018
0000
0000
07f8
cafe
3400
0000
0000
07f2
cafe
3810
0000
0000
07fb
cafe
3c09
0000
0000
07f7
cafe
2019
0000
0000
07f8
cafe
2401
0000
0000
07f2
cafe
2811
0000
0000
07fb
cafe
2c0a
0000
0000
07f7
cafe
301a
0000
0000
07f8
cafe
3402
0000
0000
07f2
cafe
3812
0000
0000
07fb
cafe
3c0b
0000
0000
07f7
cafe
201b
0000
0000
07f8
cafe
2403
0000
0000
07f3
cafe
2813
0000
0000
07fb
cafe
2c0c
0000
0000
07f8
cafe
301c
0000
0000
07f8
cafe
3404
0000
0000
07f2
cafe
3814
0000
0000
07fb
cafe
3c0d
0000
0000
07f8
cafe
201d
0000
0000
07f8
cafe
2405
0000
0000
07f3
cafe
2815
0000
0000
07fb
cafe
2c0e
0000
0000
07f8
cafe
301e
0000
0000
07f8
cafe
3406
0000
0000
07f2
cafe
3816
0000
0000
07fb
cafe
3c0f
0000
0000
07f7
cafe
201f
0000
0000
07f8
cafe
2407
0000
0000
07f2
cafe
2817
0000
0000
07fb
cafe
2c08
0000
0000
07f8
cafe
3018
0000
0000
07f8
cafe
3400
0000
0000
07f2
cafe
3810
0000
0000
07fb
cafe
3c09
0000
0000
07f8
cafe
2019
0000
0000
07f8
cafe
2401
0000
0000
07f2
cafe
2811
-
0000
0000
07fb
cafe
2c0a
0000
0000
07f8
cafe
301a
0000
0000
07f8
cafe
3402
0000
0000
07f2
cafe
3812
0000
0000
07fb
cafe
3c0b
0000
0000
07f7
cafe
201b
0000
0000
07f8
cafe
2403
0000
0000
07f3
cafe
2813
0000
0000
07fb
cafe
2c0c
0000
0000
07f7
cafe
301c
0000
0000
07f8
cafe
3404
0000
0000
07f3
cafe
3814
0000
0000
07fb
cafe
3c0d
0000
0000
07f8
cafe
201d
0000
0000
07f8
cafe
2405
0000
0000
07f3
cafe
2815
0000
0000
07fb
cafe
2c0e
0000
0000
07f7
cafe
301e
0000
0000
07f8
cafe
3406
0000
0000
07f3
cafe
3816
0000
0000
07fa
cafe
3c0f
0000
0000
07f8
cafe
201f
0000
0000
07f8
cafe
2407
0000
0000
07f2
cafe
2817
0000
0000
07fa
cafe
2c08
0000
0000
07f7
cafe
3018
0000
0000
07f8
cafe
3400
0000
0000
07f2
cafe
3810
0000
0000
07fb
cafe
3c09
0000
0000
07f8
cafe
2019
0000
0000
07f8
cafe
2401
0000
0000
07f2
cafe
2811
0000
0000
07fb
cafe
2c0a
0000
0000
07f7
cafe
301a
0000
0000
07f8
cafe
3402
0000
0000
07f3
cafe
3812
0000
0000
07fb
cafe
3c0b
0000
0000
07f8
cafe
201b
0000
0000
07f8
cafe
2403
0000
0000
07f3
cafe
2813
0000
0000
07fb
cafe
2c0c
0000
0000
07f8
cafe
301c
0000
0000
07f8
cafe
3404
0000
0000
07f3
cafe
3814
0000
0000
07fb
cafe
3c0d
0000
0000
07f7
cafe
201d
0000
0000
07f8
cafe
2405
0000
0000
07f3
cafe
2815
0000
0000
07fb
cafe
2c0e
0000
0000
07f8
cafe
301e
0000
0000
07f8
cafe
3406
0000
-
0000
07f2
cafe
3816
0000
0000
07fb
cafe
3c0f
0000
0000
07f8
cafe
201f
0000
0000
07f8
cafe
2407
0000
0000
07f2
cafe
2817
0000
0000
07fb
cafe
2c08
0000
0000
07f7
cafe
3018
0000
0000
07f8
cafe
3400
0000
0000
07f2
cafe
3810
0000
0000
07fb
cafe
3c09
0000
0000
07f7
cafe
2019
0000
0000
07f8
cafe
2401
0000
0000
07f3
cafe
2811
0000
0000
07fb
cafe
2c0a
0000
0000
07f8
cafe
301a
0000
0000
07f8
cafe
3402
0000
0000
07f3
cafe
3812
0000
0000
07fb
cafe
3c0b
0000
0000
07f7
cafe
201b
0000
0000
07f8
cafe
2403
0000
0000
07f2
cafe
2813
0000
0000
07fb
cafe
2c0c
0000
0000
07f7
cafe
301c
0000
0000
07f8
cafe
3404
0000
0000
07f2
cafe
3814
0000
0000
07fa
cafe
3c0d
0000
0000
07f7
cafe
201d
0000
0000
07f8
cafe
2405
0000
0000
07f2
cafe
2815
0000
0000
07fb
cafe
2c0e
0000
0000
07f7
cafe
301e
0000
0000
07f8
cafe
3406
0000
0000
07f2
cafe
3816
0000
0000
07fb
cafe
3c0f
0000
0000
07f7
cafe
201f
0000
0000
07f8
cafe
2407
0000
0000
07f2
cafe
2817
0000
0000
07fb
cafe
2c08
0000
0000
07f8
cafe
3018
0000
0000
07f8
cafe
3400
0000
0000
07f3
cafe
3810
0000
0000
07fb
cafe
3c09
0000
0000
07f7
cafe
2019
0000
0000
07f8
cafe
2401
0000
0000
07f2
cafe
2811
0000
0000
07fb
cafe
2c0a
0000
0000
07f7
cafe
301a
0000
0000
07f8
cafe
3402
0000
0000
07f2
cafe
3812
0000
0000
07fb
cafe
3c0b
0000
0000
07f7
cafe
201b
0000
0000
-
07f8
cafe
2403
0000
0000
07f2
cafe
2813
0000
0000
07fb
cafe
2c0c
0000
0000
07f7
cafe
301c
0000
0000
07f7
cafe
3404
0000
0000
07f2
cafe
3814
0000
0000
07fb
cafe
3c0d
0000
0000
07f8
cafe
201d
0000
0000
07f8
cafe
2405
0000
0000
07f3
cafe
2815
0000
0000
07fb
cafe
2c0e
0000
0000
07f8
cafe
301e
0000
0000
07f8
cafe
3406
0000
0000
07f2
cafe
3816
0000
0000
07fb
cafe
3c0f
0000
0000
07f8
cafe
201f
0000
0000
07f8
cafe
2407
0000
0000
07f2
cafe
2817
0000
0000
07fb
cafe
2c08
0000
0000
07f7
cafe
3018
0000
0000
07f8
cafe
3400
0000
0000
07f2
cafe
3810
0000
0000
07fb
cafe
3c09
0000
0000
07f7
cafe
2019
0000
0000
07f8
cafe
2401
0000
0000
07f2
cafe
2811
0000
0000
07fb
cafe
2c0a
0000
0000
07f7
cafe
301a
0000
0000
07f8
cafe
3402
0000
0000
07f2
cafe
3812
0000
0000
07fb
cafe
3c0b
0000
0000
07f7
cafe
201b
0000
0000
07f8
cafe
2403
0000
0000
07f2
cafe
2813
0000
0000
07fb
cafe
2c0c
0000
0000
07f8
cafe
301c
0000
0000
07f7
cafe
3404
0000
0000
07f2
cafe
3814
0000
0000
07fa
cafe
3c0d
0000
0000
07f8
cafe
201d
0000
0000
07f8
cafe
2405
0000
0000
07f2
cafe
2815
0000
0000
07fb
cafe
2c0e
0000
0000
07f8
cafe
301e
0000
0000
07f8
cafe
3406
0000
0000
07f2
cafe
3816
0000
0000
07fb
cafe
3c0f
0000
0000
07f7
cafe
201f
0000
0000
07f8
cafe
2407
0000
0000
07f3
cafe
2817
0000
0000
07fb
cafe
2c08
0000
0000
07f8
-
cafe
3018
0000
0000
07f8
cafe
3400
0000
0000
07f3
cafe
3810
0000
0000
07fb
cafe
3c09
0000
0000
07f8
cafe
2019
0000
0000
07f8
cafe
2401
0000
0000
07f2
cafe
2811
0000
0000
07fb
cafe
2c0a
0000
0000
07f7
cafe
301a
0000
0000
07f8
cafe
3402
0000
0000
07f3
cafe
3812
0000
0000
07fb
cafe
3c0b
0000
0000
07f8
cafe
201b
0000
0000
07f8
cafe
2403
0000
0000
07f2
cafe
2813
0000
0000
07fb
cafe
2c0c
0000
0000
07f7
cafe
301c
0000
0000
07f8
cafe
3404
0000
0000
07f3
cafe
3814
0000
0000
07fb
cafe
3c0d
0000
0000
07f8
cafe
201d
0000
0000
07f8
cafe
2405
0000
0000
07f3
cafe
2815
0000
0000
07fa
cafe
2c0e
0000
0000
07f8
cafe
301e
0000
0000
07f8
cafe
3406
0000
0000
07f3
cafe
3816
0000
0000
07fb
cafe
3c0f
0000
0000
07f7
cafe
201f
0000
0000
07f8
cafe
2407
0000
0000
07f3
cafe
2817
0000
0000
07fb
cafe
2c08
0000
0000
07f7
cafe
3018
0000
0000
07f8
cafe
3400
0000
0000
07f3
cafe
3810
0000
0000
07fb
cafe
3c09
0000
0000
07f8
cafe
2019
0000
0000
07f8
cafe
2401
0000
0000
07f3
cafe
2811
0000
0000
07fb
cafe
2c0a
0000
0000
07f8
cafe
301a
0000
0000
07f8
cafe
3402
0000
0000
07f2
cafe
3812
0000
0000
07fb
cafe
3c0b
0000
0000
07f8
cafe
201b
0000
0000
07f8
cafe
2403
0000
0000
07f2
cafe
2813
0000
0000
07fb
cafe
2c0c
0000
0000
07f7
cafe
301c
0000
0000
07f8
cafe
3404
0000
0000
07f2
cafe
3814
0000
0000
07fb
cafe
-
3c0d
0000
0000
07f8
cafe
201d
0000
0000
07f8
cafe
2405
0000
0000
07f2
cafe
2815
0000
0000
07fb
cafe
2c0e
0000
0000
07f8
cafe
301e
0000
0000
07f8
cafe
3406
0000
0000
07f2
cafe
3816
0000
0000
07fb
cafe
3c0f
0000
0000
07f8
cafe
201f
0000
0000
07f8
cafe
2407
0000
0000
07f2
cafe
2817
0000
0000
07fb
cafe
2c08
0000
0000
07f7
cafe
3018
0000
0000
07f8
cafe
3400
0000
0000
07f2
cafe
3810
0000
0000
07fb
cafe
3c09
0000
0000
07f8
cafe
2019
0000
0000
07f8
cafe
2401
0000
0000
07f2
cafe
2811
0000
0000
07fa
cafe
2c0a
0000
0000
07f7
cafe
301a
0000
0000
07f8
cafe
3402
0000
0000
07f2
cafe
3812
0000
0000
07fb
cafe
3c0b
0000
0000
07f8
cafe
201b
0000
0000
07f8
cafe
2403
0000
0000
07f2
cafe
2813
0000
0000
07fb
cafe
2c0c
0000
0000
07f8
cafe
301c
0000
0000
07f8
cafe
3404
0000
0000
07f3
cafe
3814
0000
0000
07fb
cafe
3c0d
0000
0000
07f7
cafe
201d
0000
0000
07f8
cafe
2405
0000
0000
07f3
cafe
2815
0000
0000
07fb
cafe
2c0e
0000
0000
07f7
cafe
301e
0000
0000
07f8
cafe
3406
0000
0000
07f3
cafe
3816
0000
0000
07fa
cafe
3c0f
0000
0000
07f8
cafe
201f
0000
0000
07f8
cafe
2407
0000
0000
07f2
cafe
2817
0000
0000
07fb
cafe
2c08
0000
0000
07f7
cafe
3018
0000
0000
07f8
cafe
3400
0000
0000
07f3
cafe
3810
0000
0000
07fa
cafe
3c09
0000
0000
07f7
cafe
2019
0000
0000
07f8
cafe
2401
0000
0000
07f3
cafe
2811
-
0000
0000
07fb
cafe
2c0a
0000
0000
07f8
cafe
301a
0000
0000
07f8
cafe
3402
0000
0000
07f3
cafe
3812
0000
0000
07fa
cafe
3c0b
0000
0000
07f8
cafe
201b
0000
0000
07f8
cafe
2403
0000
0000
07f2
cafe
2813
0000
0000
07fb
cafe
2c0c
0000
0000
07f7
cafe
301c
0000
0000
07f8
cafe
3404
0000
0000
07f2
cafe
3814
0000
0000
07fb
cafe
3c0d
0000
0000
07f7
cafe
201d
0000
0000
07f8
cafe
2405
0000
0000
07f2
cafe
2815
0000
0000
07fb
cafe
2c0e
0000
0000
07f7
cafe
301e
0000
0000
07f8
cafe
3406
0000
0000
07f2
cafe
3816
0000
0000
07fb
cafe
3c0f
0000
0000
07f8
cafe
201f
0000
0000
07f8
cafe
2407
0000
0000
07f3
cafe
2817
0000
0000
07fb
cafe
2c08
0000
0000
07f7
cafe
3018
0000
0000
07f8
cafe
3400
0000
0000
07f3
cafe
3810
0000
0000
07fb
cafe
3c09
0000
0000
07f8
cafe
2019
0000
0000
07f8
cafe
2401
0000
0000
07f3
cafe
2811
0000
0000
07fb
cafe
2c0a
0000
0000
07f8
cafe
301a
0000
0000
07f8
cafe
3402
0000
0000
07f2
cafe
3812
0000
0000
07fb
cafe
3c0b
0000
0000
07f7
cafe
201b
0000
0000
07f8
cafe
2403
0000
0000
07f2
cafe
2813
0000
0000
07fb
cafe
2c0c
0000
0000
07f8
cafe
301c
0000
0000
07f8
cafe
3404
0000
0000
07f2
cafe
3814
0000
0000
07fb
cafe
3c0d
0000
0000
07f7
cafe
201d
0000
0000
07f8
cafe
2405
0000
0000
07f2
cafe
2815
0000
0000
07fb
cafe
2c0e
0000
0000
07f7
cafe
301e
0000
0000
07f7
cafe
3406
0000
-
0000
07f2
cafe
3816
0000
0000
07fb
cafe
3c0f
0000
0000
07f7
cafe
201f
0000
0000
07f8
cafe
2407
0000
0000
07f2
cafe
2817
0000
0000
07fb
cafe
2c08
0000
0000
07f8
cafe
3018
0000
0000
07f8
cafe
3400
0000
0000
07f2
cafe
3810
0000
0000
07fb
cafe
3c09
0000
0000
07f7
cafe
2019
0000
0000
07f8
cafe
2401
0000
0000
07f3
cafe
2811
0000
0000
07fa
cafe
2c0a
0000
0000
07f8
cafe
301a
0000
0000
07f8
cafe
3402
0000
0000
07f2
cafe
3812
0000
0000
07fa
cafe
3c0b
0000
0000
07f8
cafe
201b
0000
0000
07f8
cafe
2403
0000
0000
07f3
cafe
2813
0000
0000
07fb
cafe
2c0c
0000
0000
07f8
cafe
301c
0000
0000
07f7
cafe
3404
0000
0000
07f3
cafe
3814
0000
0000
07fb
cafe
3c0d
0000
0000
07f7
cafe
201d
0000
0000
07f8
cafe
2405
0000
0000
07f2
cafe
2815
0000
0000
07fb
cafe
2c0e
0000
0000
07f8
cafe
301e
0000
0000
07f8
cafe
3406
0000
0000
07f2
cafe
3816
0000
0000
07fb
cafe
3c0f
0000
0000
07f7
cafe
201f
0000
0000
07f8
cafe
2407
0000
0000
07f3
cafe
2817
0000
0000
07fb
cafe
2c08
0000
0000
07f7
cafe
3018
0000
0000
07f8
cafe
3400
0000
0000
07f3
cafe
3810
0000
0000
07fb
cafe
3c09
0000
0000
07f7
cafe
2019
0000
0000
07f8
cafe
2401
0000
0000
07f2
cafe
2811
0000
0000
07fb
cafe
2c0a
0000
0000
07f7
cafe
301a
0000
0000
07f8
cafe
3402
0000
0000
07f3
cafe
3812
0000
0000
07fb
cafe
3c0b
0000
0000
07f8
cafe
201b
0000
0000
-
07f8
cafe
2403
0000
0000
07f2
cafe
2813
0000
0000
07fb
cafe
2c0c
0000
0000
07f8
cafe
301c
0000
0000
07f8
cafe
3404
0000
0000
07f2
cafe
3814
0000
0000
07fb
cafe
3c0d
0000
0000
07f7
cafe
201d
0000
0000
07f8
cafe
2405
0000
0000
07f2
cafe
2815
0000
0000
07fb
cafe
2c0e
0000
0000
07f8
cafe
301e
0000
0000
07f8
cafe
3406
0000
0000
07f3
cafe
3816
0000
0000
07fa
cafe
3c0f
0000
0000
07f7
cafe
201f
0000
0000
07f8
cafe
2407
0000
0000
07f3
cafe
2817
0000
0000
07fb
cafe
2c08
0000
0000
07f8
cafe
3018
0000
0000
07f7
cafe
3400
0000
0000
07f2
cafe
3810
0000
0000
07fb
cafe
3c09
0000
0000
07f7
cafe
2019
0000
0000
07f8
cafe
2401
0000
0000
07f2
cafe
2811
0000
0000
07fb
cafe
2c0a
0000
0000
07f7
cafe
301a
0000
0000
07f8
cafe
3402
0000
0000
07f3
cafe
3812
0000
0000
07fb
cafe
3c0b
0000
0000
07f7
cafe
201b
0000
0000
07f8
cafe
2403
0000
0000
07f2
cafe
2813
0000
0000
07fb
cafe
2c0c
0000
0000
07f8
cafe
301c
0000
0000
07f8
cafe
3404
0000
0000
07f2
cafe
3814
0000
0000
07fb
cafe
3c0d
0000
0000
07f7
cafe
201d
0000
0000
07f8
cafe
2405
0000
0000
07f3
cafe
2815
0000
0000
07fb
cafe
2c0e
0000
0000
07f8
cafe
301e
0000
0000
07f8
cafe
3406
0000
0000
07f2
cafe
3816
0000
0000
07fb
cafe
3c0f
0000
0000
07f7
cafe
201f
0000
0000
07f8
cafe
2407
0000
0000
07f2
cafe
2817
0000
0000
07fb
cafe
2c08
0000
0000
07f8
-
cafe
3018
0000
0000
07f8
cafe
3400
0000
0000
07f3
cafe
3810
0000
0000
07fb
cafe
3c09
0000
0000
07f8
cafe
2019
0000
0000
07f8
cafe
2401
0000
0000
07f3
cafe
2811
0000
0000
07fb
cafe
2c0a
0000
0000
07f8
cafe
301a
0000
0000
07f8
cafe
3402
0000
0000
07f2
cafe
3812
0000
0000
07fb
cafe
3c0b
0000
0000
07f8
cafe
201b
0000
0000
07f8
cafe
2403
0000
0000
07f3
cafe
2813
0000
0000
07fb
cafe
2c0c
0000
0000
07f7
cafe
301c
0000
0000
07f8
cafe
3404
0000
0000
07f2
cafe
3814
0000
0000
07fb
cafe
3c0d
0000
0000
07f7
cafe
201d
0000
0000
07f8
cafe
2405
0000
0000
07f2
cafe
2815
0000
0000
07fb
cafe
2c0e
0000
0000
07f8
cafe
301e
0000
0000
07f8
cafe
3406
0000
0000
07f2
cafe
3816
0000
0000
07fb
cafe
3c0f
0000
0000
07f7
cafe
201f
0000
0000
07f8
cafe
2407
0000
0000
07f2
cafe
2817
0000
0000
07fb
cafe
2c08
0000
0000
07f8
cafe
3018
0000
0000
07f8
cafe
3400
0000
0000
07f3
cafe
3810
0000
0000
07fb
cafe
3c09
0000
0000
07f7
cafe
2019
0000
0000
07f8
cafe
2401
0000
0000
07f2
cafe
2811
0000
0000
07fb
cafe
2c0a
0000
0000
07f7
cafe
301a
0000
0000
07f8
cafe
3402
0000
0000
07f3
cafe
3812
0000
0000
07fb
cafe
3c0b
0000
0000
07f7
cafe
201b
0000
0000
07f8
cafe
2403
0000
0000
07f2
cafe
2813
0000
0000
07fb
cafe
2c0c
0000
0000
07f7
cafe
301c
0000
0000
07f8
cafe
3404
0000
0000
07f2
cafe
3814
0000
0000
07fb
cafe
-
3c0d
0000
0000
07f8
cafe
201d
0000
0000
07f8
cafe
2405
0000
0000
07f2
cafe
2815
0000
0000
07fb
cafe
2c0e
0000
0000
07f7
cafe
301e
0000
0000
07f8
cafe
3406
0000
0000
07f2
cafe
3816
0000
0000
07fb
cafe
3c0f
0000
0000
07f7
cafe
201f
0000
0000
07f8
cafe
2407
0000
0000
07f2
cafe
2817
0000
0000
07fa
cafe
2c08
0000
0000
07f7
cafe
3018
0000
0000
07f8
cafe
3400
0000
0000
07f3
cafe
3810
0000
0000
07fb
cafe
3c09
0000
0000
07f8
cafe
2019
0000
0000
07f7
cafe
2401
0000
0000
07f2
cafe
2811
0000
0000
07fb
cafe
2c0a
0000
0000
07f7
cafe
301a
0000
0000
07f8
cafe
3402
0000
0000
07f2
cafe
3812
0000
0000
07fb
cafe
3c0b
0000
0000
07f7
cafe
201b
0000
0000
07f8
cafe
2403
0000
0000
07f2
cafe
2813
0000
0000
07fb
cafe
2c0c
0000
0000
07f8
cafe
301c
0000
0000
07f8
cafe
3404
0000
0000
07f2
cafe
3814
0000
0000
07fb
cafe
3c0d
0000
0000
07f7
cafe
201d
0000
0000
07f8
cafe
2405
0000
0000
07f3
cafe
2815
0000
0000
07fa
cafe
2c0e
0000
0000
07f7
cafe
301e
0000
0000
07f8
cafe
3406
0000
0000
07f2
cafe
3816
0000
0000
07fb
cafe
3c0f
0000
0000
07f7
cafe
201f
0000
0000
07f9
cafe
2407
0000
0000
07f2
cafe
2817
0000
0000
07fb
cafe
2c08
0000
0000
07f8
cafe
3018
0000
0000
07f8
cafe
3400
0000
0000
07f3
cafe
3810
0000
0000
07fb
cafe
3c09
0000
0000
07f7
cafe
2019
0000
0000
07f8
cafe
2401
0000
0000
07f3
cafe
2811
-
0000
0000
07fb
cafe
2c0a
0000
0000
07f8
cafe
301a
0000
0000
07f8
cafe
3402
0000
0000
07f2
cafe
3812
0000
0000
07fb
cafe
3c0b
0000
0000
07f7
cafe
201b
0000
0000
07f8
cafe
2403
0000
0000
07f2
cafe
2813
0000
0000
07fb
cafe
2c0c
0000
0000
07f7
cafe
301c
0000
0000
07f8
cafe
3404
0000
0000
07f3
cafe
3814
0000
0000
07fb
cafe
3c0d
0000
0000
07f8
cafe
201d
0000
0000
07f8
cafe
2405
0000
0000
07f2
cafe
2815
0000
0000
07fa
cafe
2c0e
0000
0000
07f8
cafe
301e
0000
0000
07f8
cafe
3406
0000
0000
07f2
cafe
3816
0000
0000
07fb
cafe
3c0f
0000
0000
07f8
cafe
201f
0000
0000
07f8
cafe
2407
0000
0000
07f2
cafe
2817
0000
0000
07fb
cafe
2c08
0000
0000
07f7
cafe
3018
0000
0000
07f8
cafe
3400
0000
0000
07f3
cafe
3810
0000
0000
07fb
cafe
3c09
0000
0000
07f7
cafe
2019
0000
0000
07f8
cafe
2401
0000
0000
07f2
cafe
2811
0000
0000
07fb
cafe
2c0a
0000
0000
07f7
cafe
301a
0000
0000
07f8
cafe
3402
0000
0000
07f2
cafe
3812
0000
0000
07fb
cafe
3c0b
0000
0000
07f7
cafe
201b
0000
0000
07f8
cafe
2403
0000
0000
07f2
cafe
2813
0000
0000
07fb
cafe
2c0c
0000
0000
07f8
cafe
301c
0000
0000
07f8
cafe
3404
0000
0000
07f3
cafe
3814
0000
0000
07fb
cafe
3c0d
0000
0000
07f7
cafe
201d
0000
0000
07f8
cafe
2405
0000
0000
07f2
cafe
2815
0000
0000
07fb
cafe
2c0e
0000
0000
07f7
cafe
301e
0000
0000
07f8
cafe
3406
0000
-
0000
07f2
cafe
3816
0000
0000
07fb
cafe
3c0f
0000
0000
07f7
cafe
201f
0000
0000
07f8
cafe
2407
0000
0000
07f2
cafe
2817
0000
0000
07fb
cafe
2c08
0000
0000
07f7
cafe
3018
0000
0000
07f8
cafe
3400
0000
0000
07f2
cafe
3810
0000
0000
07fb
cafe
3c09
0000
0000
07f7
cafe
2019
0000
0000
07f8
cafe
2401
0000
0000
07f2
cafe
2811
0000
0000
07fb
cafe
2c0a
0000
0000
07f7
cafe
301a
0000
0000
07f8
cafe
3402
0000
0000
07f2
cafe
3812
0000
0000
07fb
cafe
3c0b
0000
0000
07f7
cafe
201b
0000
0000
07f8
cafe
2403
0000
0000
07f3
cafe
2813
0000
0000
07fb
cafe
2c0c
0000
0000
07f7
cafe
301c
0000
0000
07f8
cafe
3404
0000
0000
07f2
cafe
3814
0000
0000
07fb
cafe
3c0d
0000
0000
07f7
cafe
201d
0000
0000
07f8
cafe
2405
0000
0000
07f2
cafe
2815
0000
0000
07fb
cafe
2c0e
0000
0000
07f7
cafe
301e
0000
0000
07f9
cafe
3406
0000
0000
07f3
cafe
3816
0000
0000
07fb
cafe
3c0f
0000
0000
07f7
cafe
201f
0000
0000
07f8
cafe
2407
0000
0000
07f2
cafe
2817
0000
0000
07fb
cafe
2c08
0000
0000
07f7
cafe
3018
0000
0000
07f8
cafe
3400
0000
0000
07f2
cafe
3810
0000
0000
07fb
cafe
3c09
0000
0000
07f7
cafe
2019
0000
0000
07f8
cafe
2401
0000
0000
07f2
cafe
2811
0000
0000
07fb
cafe
2c0a
0000
0000
07f7
cafe
301a
0000
0000
07f8
cafe
3402
0000
0000
07f3
cafe
3812
0000
0000
07fb
cafe
3c0b
0000
0000
07f7
cafe
201b
0000
0000
-
07f8
cafe
2403
0000
0000
07f2
cafe
2813
0000
0000
07fb
cafe
2c0c
0000
0000
07f7
cafe
301c
0000
0000
07f8
cafe
3404
0000
0000
07f2
cafe
3814
0000
0000
07fb
cafe
3c0d
0000
0000
07f7
cafe
201d
0000
0000
07f8
cafe
2405
0000
0000
07f2
cafe
2815
0000
0000
07fb
cafe
2c0e
0000
0000
07f8
cafe
301e
0000
0000
07f8
cafe
3406
0000
0000
07f3
cafe
3816
0000
0000
07fb
cafe
3c0f
0000
0000
07f7
cafe
201f
0000
0000
07f8
cafe
2407
0000
0000
07f3
cafe
2817
0000
0000
07fb
cafe
2c08
0000
0000
07f7
cafe
3018
0000
0000
07f8
cafe
3400
0000
0000
07f2
cafe
3810
0000
0000
07fb
cafe
3c09
0000
0000
07f7
cafe
2019
0000
0000
07f8
cafe
2401
0000
0000
07f3
cafe
2811
0000
0000
07fb
cafe
2c0a
0000
0000
07f7
cafe
301a
0000
0000
07f7
cafe
3402
0000
0000
07f3
cafe
3812
0000
0000
07fb
cafe
3c0b
0000
0000
07f8
cafe
201b
0000
0000
07f8
cafe
2403
0000
0000
07f2
cafe
2813
0000
0000
07fb
cafe
2c0c
0000
0000
07f7
cafe
301c
0000
0000
07f8
cafe
3404
0000
0000
07f2
cafe
3814
0000
0000
07fb
cafe
3c0d
0000
0000
07f7
cafe
201d
0000
0000
07f8
cafe
2405
0000
0000
07f2
cafe
2815
0000
0000
07fb
cafe
2c0e
0000
0000
07f8
cafe
301e
0000
0000
07f7
cafe
3406
0000
0000
07f2
cafe
3816
0000
0000
07fb
cafe
3c0f
0000
0000
07f8
cafe
201f
0000
0000
07f8
cafe
2407
0000
0000
07f3
cafe
2817
0000
0000
07fb
cafe
2c08
0000
0000
07f7
-
cafe
3018
0000
0000
07f8
cafe
3400
0000
0000
07f2
cafe
3810
0000
0000
07fb
cafe
3c09
0000
0000
07f7
cafe
2019
0000
0000
07f8
cafe
2401
0000
0000
07f2
cafe
2811
0000
0000
07fb
cafe
2c0a
0000
0000
07f8
cafe
301a
0000
0000
07f8
cafe
3402
0000
0000
07f2
cafe
3812
0000
0000
07fb
cafe
3c0b
0000
0000
07f8
cafe
201b
0000
0000
07f8
cafe
2403
0000
0000
07f3
cafe
2813
0000
0000
07fb
cafe
2c0c
0000
0000
07f7
cafe
301c
0000
0000
07f8
cafe
3404
0000
0000
07f3
cafe
3814
0000
0000
07fb
cafe
3c0d
0000
0000
07f8
cafe
201d
0000
0000
07f8
cafe
2405
0000
0000
07f2
cafe
2815
0000
0000
07fb
cafe
2c0e
0000
0000
07f8
cafe
301e
0000
0000
07f8
cafe
3406
0000
0000
07f2
cafe
3816
0000
0000
07fb
cafe
3c0f
0000
0000
07f7
cafe
201f
0000
0000
07f8
cafe
2407
0000
0000
07f2
cafe
2817
0000
0000
07fb
cafe
2c08
0000
0000
07f8
cafe
3018
0000
0000
07f8
cafe
3400
0000
0000
07f3
cafe
3810
0000
0000
07fb
cafe
3c09
0000
0000
07f7
cafe
2019
0000
0000
07f8
cafe
2401
0000
0000
07f2
cafe
2811
0000
0000
07fb
cafe
2c0a
0000
0000
07f7
cafe
301a
0000
0000
07f8
cafe
3402
0000
0000
07f2
cafe
3812
0000
0000
07fb
cafe
3c0b
0000
0000
07f7
cafe
201b
0000
0000
07f8
cafe
2403
0000
0000
07f2
cafe
2813
0000
0000
07fb
cafe
2c0c
0000
0000
07f7
cafe
301c
0000
0000
07f8
cafe
3404
0000
0000
07f2
cafe
3814
0000
0000
07fb
cafe
-
3c0d
0000
0000
07f7
cafe
201d
0000
0000
07f8
cafe
2405
0000
0000
07f3
cafe
2815
0000
0000
07fb
cafe
2c0e
0000
0000
07f7
cafe
301e
0000
0000
07f8
cafe
3406
0000
0000
07f2
cafe
3816
0000
0000
07fb
cafe
3c0f
0000
0000
07f8
cafe
201f
0000
0000
07f8
cafe
2407
0000
0000
07f2
cafe
2817
0000
0000
07fb
cafe
2c08
0000
0000
07f7
cafe
3018
0000
0000
07f8
cafe
3400
0000
0000
07f2
cafe
3810
0000
0000
07fb
cafe
3c09
0000
0000
07f8
cafe
2019
0000
0000
07f8
cafe
2401
0000
0000
07f2
cafe
2811
0000
0000
07fb
cafe
2c0a
0000
0000
07f7
cafe
301a
0000
0000
07f8
cafe
3402
0000
0000
07f2
cafe
3812
0000
0000
07fa
cafe
3c0b
0000
0000
07f7
cafe
201b
0000
0000
07f8
cafe
2403
0000
0000
07f2
cafe
2813
0000
0000
07fb
cafe
2c0c
0000
0000
07f7
cafe
301c
0000
0000
07f8
cafe
3404
0000
0000
07f2
cafe
3814
0000
0000
07fb
cafe
3c0d
0000
0000
07f8
cafe
201d
0000
0000
07f8
cafe
2405
0000
0000
07f2
cafe
2815
0000
0000
07fa
cafe
2c0e
0000
0000
07f7
cafe
301e
0000
0000
07f8
cafe
3406
0000
0000
07f2
cafe
3816
0000
0000
07fb
cafe
3c0f
0000
0000
07f7
cafe
201f
0000
0000
07f8
cafe
2407
0000
0000
07f2
cafe
2817
0000
0000
07fb
cafe
2c08
0000
0000
07f7
cafe
3018
0000
0000
07f8
cafe
3400
0000
0000
07f3
cafe
3810
0000
0000
07fb
cafe
3c09
0000
0000
07f7
cafe
2019
0000
0000
07f8
cafe
2401
0000
0000
07f2
cafe
2811
-
0000
0000
07fb
cafe
2c0a
0000
0000
07f7
cafe
301a
0000
0000
07f8
cafe
3402
0000
0000
07f2
cafe
3812
0000
0000
07fb
cafe
3c0b
0000
0000
07f7
cafe
201b
0000
0000
07f8
cafe
2403
0000
0000
07f2
cafe
2813
0000
0000
07fb
cafe
2c0c
0000
0000
07f8
cafe
301c
0000
0000
07f8
cafe
3404
0000
0000
07f2
cafe
3814
0000
0000
07fb
cafe
3c0d
0000
0000
07f8
cafe
201d
0000
0000
07f8
cafe
2405
0000
0000
07f2
cafe
2815
0000
0000
07fb
cafe
2c0e
0000
0000
07f8
cafe
301e
0000
0000
07f8
cafe
3406
0000
0000
07f2
cafe
3816
0000
0000
07fb
cafe
3c0f
0000
0000
07f7
cafe
201f
0000
0000
07f8
cafe
2407
0000
0000
07f2
cafe
2817
0000
0000
07fb
cafe
2c08
0000
0000
07f7
cafe
3018
0000
0000
07f8
cafe
3400
0000
0000
07f2
cafe
3810
0000
0000
07fb
cafe
3c09
0000
0000
07f7
cafe
2019
0000
0000
07f8
cafe
2401
0000
0000
07f3
cafe
2811
0000
0000
07fb
cafe
2c0a
0000
0000
07f7
cafe
301a
0000
0000
07f8
cafe
3402
0000
0000
07f3
cafe
3812
0000
0000
07fb
cafe
3c0b
0000
0000
07f7
cafe
201b
0000
0000
07f8
cafe
2403
0000
0000
07f3
cafe
2813
0000
0000
07fb
cafe
2c0c
0000
0000
07f8
cafe
301c
0000
0000
07f8
cafe
3404
0000
0000
07f3
cafe
3814
0000
0000
07fb
cafe
3c0d
0000
0000
07f8
cafe
201d
0000
0000
07f8
cafe
2405
0000
0000
07f3
cafe
2815
0000
0000
07fa
cafe
2c0e
0000
0000
07f7
cafe
301e
0000
0000
07f8
cafe
3406
0000
-
0000
07f3
cafe
3816
0000
0000
07fb
cafe
3c0f
0000
0000
07f8
cafe
201f
0000
0000
07f8
cafe
2407
0000
0000
07f2
cafe
2817
0000
0000
07fb
cafe
2c08
0000
0000
07f8
cafe
3018
0000
0000
07f8
cafe
3400
0000
0000
07f3
cafe
3810
0000
0000
07fb
cafe
3c09
0000
0000
07f8
cafe
2019
0000
0000
07f8
cafe
2401
0000
0000
07f3
cafe
2811
0000
0000
07fb
cafe
2c0a
0000
0000
07f7
cafe
301a
0000
0000
07f8
cafe
3402
0000
0000
07f2
cafe
3812
0000
0000
07fb
cafe
3c0b
0000
0000
07f7
cafe
201b
0000
0000
07f7
cafe
2403
0000
0000
07f2
cafe
2813
0000
0000
07fb
cafe
2c0c
0000
0000
07f7
cafe
301c
0000
0000
07f8
cafe
3404
0000
0000
07f2
cafe
3814
0000
0000
07fb
cafe
3c0d
0000
0000
07f7
cafe
201d
0000
0000
07f8
cafe
2405
0000
0000
07f2
cafe
2815
0000
0000
07fb
cafe
2c0e
0000
0000
07f7
cafe
301e
0000
0000
07f8
cafe
3406
0000
0000
07f2
cafe
3816
0000
0000
07fb
cafe
3c0f
0000
0000
07f7
cafe
201f
0000
0000
07f8
cafe
2407
0000
0000
07f2
cafe
2817
0000
0000
07fb
cafe
2c08
0000
0000
07f7
cafe
3018
0000
0000
07f8
cafe
3400
0000
0000
07f2
cafe
3810
0000
0000
07fb
cafe
3c09
0000
0000
07f7
cafe
2019
0000
0000
07f8
cafe
2401
0000
0000
07f2
cafe
2811
0000
0000
07fb
cafe
2c0a
0000
0000
07f7
cafe
301a
0000
0000
07f8
cafe
3402
0000
0000
07f2
cafe
3812
0000
0000
07fb
cafe
3c0b
0000
0000
07f7
cafe
201b
0000
0000
-
07f8
cafe
2403
0000
0000
07f2
cafe
2813
0000
0000
07fb
cafe
2c0c
0000
0000
07f7
cafe
301c
0000
0000
07f8
cafe
3404
0000
0000
07f2
cafe
3814
0000
0000
07fb
cafe
3c0d
0000
0000
07f7
cafe
201d
0000
0000
07f8
cafe
2405
0000
0000
07f2
cafe
2815
0000
0000
07fb
cafe
2c0e
0000
0000
07f7
cafe
301e
0000
0000
07f8
cafe
3406
0000
0000
07f2
cafe
3816
0000
0000
07fb
cafe
3c0f
0000
0000
07f7
cafe
201f
0000
0000
07f8
cafe
2407
0000
0000
07f2
cafe
2817
0000
0000
07fb
cafe
2c08
0000
0000
07f7
cafe
3018
0000
0000
07f8
cafe
3400
0000
0000
07f3
cafe
3810
0000
0000
07fb
cafe
3c09
0000
0000
07f7
cafe
2019
0000
0000
07f8
cafe
2401
0000
0000
07f2
cafe
2811
0000
0000
07fb
cafe
2c0a
0000
0000
07f7
cafe
301a
0000
0000
07f8
cafe
3402
0000
0000
07f2
cafe
3812
0000
0000
07fb
cafe
3c0b
0000
0000
07f8
cafe
201b
0000
0000
07f8
cafe
2403
0000
0000
07f2
cafe
2813
0000
0000
07fb
cafe
2c0c
0000
0000
07f7
cafe
301c
0000
0000
07f8
cafe
3404
0000
0000
07f2
cafe
3814
0000
0000
07fb
cafe
3c0d
0000
0000
07f7
cafe
201d
0000
0000
07f8
cafe
2405
0000
0000
07f2
cafe
2815
0000
0000
07fb
cafe
2c0e
0000
0000
07f7
cafe
301e
0000
0000
07f8
cafe
3406
0000
0000
07f3
cafe
3816
0000
0000
07fa
cafe
3c0f
0000
0000
07f8
cafe
201f
0000
0000
07f8
cafe
2407
0000
0000
07f2
cafe
2817
0000
0000
07fb
cafe
2c08
0000
0000
07f7
-
cafe
3018
0000
0000
07f8
cafe
3400
0000
0000
07f3
cafe
3810
0000
0000
07fa
cafe
3c09
0000
0000
07f7
cafe
2019
0000
0000
07f8
cafe
2401
0000
0000
07f2
cafe
2811
0000
0000
07fb
cafe
2c0a
0000
0000
07f7
cafe
301a
0000
0000
07f8
cafe
3402
0000
0000
07f2
cafe
3812
0000
0000
07fb
cafe
3c0b
0000
0000
07f7
cafe
201b
0000
0000
07f8
cafe
2403
0000
0000
07f2
cafe
2813
0000
0000
07fb
cafe
2c0c
0000
0000
07f7
cafe
301c
0000
0000
07f8
cafe
3404
0000
0000
07f3
cafe
3814
0000
0000
07fb
cafe
3c0d
0000
0000
07f8
cafe
201d
0000
0000
07f8
cafe
2405
0000
0000
07f3
cafe
2815
0000
0000
07fb
cafe
2c0e
0000
0000
07f8
cafe
301e
0000
0000
07f8
cafe
3406
0000
0000
07f3
cafe
3816
0000
0000
07fb
cafe
3c0f
0000
0000
07f7
cafe
201f
0000
0000
07f8
cafe
2407
0000
0000
07f3
cafe
2817
0000
0000
07fb
cafe
2c08
0000
0000
07f7
cafe
3018
0000
0000
07f8
cafe
3400
0000
0000
07f2
cafe
3810
0000
0000
07fb
cafe
3c09
0000
0000
07f7
cafe
2019
0000
0000
07f8
cafe
2401
0000
0000
07f3
cafe
2811
0000
0000
07fb
cafe
2c0a
0000
0000
07f7
cafe
301a
0000
0000
07f8
cafe
3402
0000
0000
07f3
cafe
3812
0000
0000
07fb
cafe
3c0b
0000
0000
07f7
cafe
201b
0000
0000
07f8
cafe
2403
0000
0000
07f2
cafe
2813
0000
0000
07fb
cafe
2c0c
0000
0000
07f8
cafe
301c
0000
0000
07f8
cafe
3404
0000
0000
07f2
cafe
3814
0000
0000
07fb
cafe
-
3c0d
0000
0000
07f7
cafe
201d
0000
0000
07f8
cafe
2405
0000
0000
07f3
cafe
2815
0000
0000
07fb
cafe
2c0e
0000
0000
07f8
cafe
301e
0000
0000
07f8
cafe
3406
0000
0000
07f2
cafe
3816
0000
0000
07fb
cafe
3c0f
0000
0000
07f8
cafe
201f
0000
0000
07f8
cafe
2407
0000
0000
07f2
cafe
2817
0000
0000
07fb
cafe
2c08
0000
0000
07f7
cafe
3018
0000
0000
07f8
cafe
3400
0000
0000
07f3
cafe
3810
0000
0000
07fb
cafe
3c09
0000
0000
07f7
cafe
2019
0000
0000
07f8
cafe
2401
0000
0000
07f2
cafe
2811
0000
0000
07fb
cafe
2c0a
0000
0000
07f7
cafe
301a
0000
0000
07f8
cafe
3402
0000
0000
07f2
cafe
3812
0000
0000
07fa
cafe
3c0b
0000
0000
07f7
cafe
201b
0000
0000
07f8
cafe
2403
0000
0000
07f3
cafe
2813
0000
0000
07fb
cafe
2c0c
0000
0000
07f7
cafe
301c
0000
0000
07f7
cafe
3404
0000
0000
07f2
cafe
3814
0000
0000
07fb
cafe
3c0d
0000
0000
07f7
cafe
201d
0000
0000
07f8
cafe
2405
0000
0000
07f2
cafe
2815
0000
0000
07fb
cafe
2c0e
0000
0000
07f7
cafe
301e
0000
0000
07f7
cafe
3406
0000
0000
07f3
cafe
3816
0000
0000
07fb
cafe
3c0f
0000
0000
07f7
cafe
201f
0000
0000
07f8
cafe
2407
0000
0000
07f2
cafe
2817
0000
0000
07fb
cafe
2c08
0000
0000
07f7
cafe
3018
0000
0000
07f8
cafe
3400
0000
0000
07f2
cafe
3810
0000
0000
07fb
cafe
3c09
0000
0000
07f7
cafe
2019
0000
0000
07f8
cafe
2401
0000
0000
07f3
cafe
2811
-
0000
0000
07fb
cafe
2c0a
0000
0000
07f8
cafe
301a
0000
0000
07f8
cafe
3402
0000
0000
07f3
cafe
3812
0000
0000
07fb
cafe
3c0b
0000
0000
07f7
cafe
201b
0000
0000
07f8
cafe
2403
0000
0000
07f2
cafe
2813
0000
0000
07fb
cafe
2c0c
0000
0000
07f7
cafe
301c
0000
0000
07f8
cafe
3404
0000
0000
07f2
cafe
3814
0000
0000
07fb
cafe
3c0d
0000
0000
07f7
cafe
201d
0000
0000
07f8
cafe
2405
0000
0000
07f2
cafe
2815
0000
0000
07fb
cafe
2c0e
0000
0000
07f8
cafe
301e
0000
0000
07f8
cafe
3406
0000
0000
07f2
cafe
3816
0000
0000
07fb
cafe
3c0f
0000
0000
07f8
cafe
201f
0000
0000
07f8
cafe
2407
0000
0000
07f2
cafe
2817
0000
0000
07fb
cafe
2c08
0000
0000
07f7
cafe
3018
0000
0000
07f8
cafe
3400
0000
0000
07f2
cafe
3810
0000
0000
07fb
cafe
3c09
0000
0000
07f8
cafe
2019
0000
0000
07f8
cafe
2401
0000
0000
07f2
cafe
2811
0000
0000
07fa
cafe
2c0a
0000
0000
07f7
cafe
301a
0000
0000
07f8
cafe
3402
0000
0000
07f2
cafe
3812
0000
0000
07fb
cafe
3c0b
0000
0000
07f8
cafe
201b
0000
0000
07f8
cafe
2403
0000
0000
07f2
cafe
2813
0000
0000
07fa
cafe
2c0c
0000
0000
07f7
cafe
301c
0000
0000
07f8
cafe
3404
0000
0000
07f2
cafe
3814
0000
0000
07fb
cafe
3c0d
0000
0000
07f7
cafe
201d
0000
0000
07f8
cafe
2405
0000
0000
07f2
cafe
2815
0000
0000
07fb
cafe
2c0e
0000
0000
07f8
cafe
301e
0000
0000
07f8
cafe
3406
0000
-
0000
07f2
cafe
3816
0000
0000
07fa
cafe
3c0f
0000
0000
07f7
cafe
201f
0000
0000
07f8
cafe
2407
0000
0000
07f2
cafe
2817
0000
0000
07fb
cafe
2c08
0000
0000
07f7
cafe
3018
0000
0000
07f8
cafe
3400
0000
0000
07f3
cafe
3810
0000
0000
07fb
cafe
3c09
0000
0000
07f7
cafe
2019
0000
0000
07f8
cafe
2401
0000
0000
07f3
cafe
2811
0000
0000
07fb
cafe
2c0a
0000
0000
07f7
cafe
301a
0000
0000
07f8
cafe
3402
0000
0000
07f2
cafe
3812
0000
0000
07fb
cafe
3c0b
0000
0000
07f7
cafe
201b
0000
0000
07f8
cafe
2403
0000
0000
07f2
cafe
2813
0000
0000
07fb
cafe
2c0c
0000
0000
07f7
cafe
301c
0000
0000
07f8
cafe
3404
0000
0000
07f3
cafe
3814
0000
0000
07fb
cafe
3c0d
0000
0000
07f7
cafe
201d
0000
0000
07f8
cafe
2405
0000
0000
07f2
cafe
2815
0000
0000
07fb
cafe
2c0e
0000
0000
07f7
cafe
301e
0000
0000
07f8
cafe
3406
0000
0000
07f3
cafe
3816
0000
0000
07fb
cafe
3c0f
0000
0000
07f7
cafe
201f
0000
0000
07f8
cafe
2407
0000
0000
07f2
cafe
2817
0000
0000
07fb
cafe
2c08
0000
0000
07f8
cafe
3018
0000
0000
07f8
cafe
3400
0000
0000
07f2
cafe
3810
0000
0000
07fb
cafe
3c09
0000
0000
07f8
cafe
2019
0000
0000
07f8
cafe
2401
0000
0000
07f3
cafe
2811
0000
0000
07fb
cafe
2c0a
0000
0000
07f7
cafe
301a
0000
0000
07f8
cafe
3402
0000
0000
07f2
cafe
3812
0000
0000
07fb
cafe
3c0b
0000
0000
07f8
cafe
201b
0000
0000
-
07f8
cafe
2403
0000
0000
07f2
cafe
2813
0000
0000
07fb
cafe
2c0c
0000
0000
07f8
cafe
301c
0000
0000
07f8
cafe
3404
0000
0000
07f2
cafe
3814
0000
0000
07fb
cafe
3c0d
0000
0000
07f7
cafe
201d
0000
0000
07f8
cafe
2405
0000
0000
07f2
cafe
2815
0000
0000
07fb
cafe
2c0e
0000
0000
07f8
cafe
301e
0000
0000
07f8
cafe
3406
0000
0000
07f2
cafe
3816
0000
0000
07fb
cafe
3c0f
0000
0000
07f7
cafe
201f
0000
0000
07f8
cafe
2407
0000
0000
07f2
cafe
2817
0000
0000
07fb
cafe
2c08
0000
0000
07f7
cafe
3018
0000
0000
07f8
cafe
3400
0000
0000
07f2
cafe
3810
0000
0000
07fb
cafe
3c09
0000
0000
07f7
cafe
2019
0000
0000
07f8
cafe
2401
0000
0000
07f2
cafe
2811
0000
0000
07fb
cafe
2c0a
0000
0000
07f7
cafe
301a
0000
0000
07f8
cafe
3402
0000
0000
07f2
cafe
3812
0000
0000
07fb
cafe
3c0b
0000
0000
07f7
cafe
201b
0000
0000
07f8
cafe
2403
0000
0000
07f2
cafe
2813
0000
0000
07fb
cafe
2c0c
0000
0000
07f8
cafe
301c
0000
0000
07f8
cafe
3404
0000
0000
07f2
cafe
3814
0000
0000
07fa
cafe
3c0d
0000
0000
07f7
cafe
201d
0000
0000
07f8
cafe
2405
0000
0000
07f2
cafe
2815
0000
0000
07fb
cafe
2c0e
0000
0000
07f7
cafe
301e
0000
0000
07f8
cafe
3406
0000
0000
07f2
cafe
3816
0000
0000
07fb
cafe
3c0f
0000
0000
07f7
cafe
201f
0000
0000
07f8
cafe
2407
0000
0000
07f2
cafe
2817
0000
0000
07fb
cafe
2c08
0000
0000
07f7
-
cafe
3018
0000
0000
07f8
cafe
3400
0000
0000
07f2
cafe
3810
0000
0000
07fb
cafe
3c09
0000
0000
07f7
cafe
2019
0000
0000
07f8
cafe
2401
0000
0000
07f2
cafe
2811
0000
0000
07fa
cafe
2c0a
0000
0000
07f7
cafe
301a
0000
0000
07f8
cafe
3402
0000
0000
07f2
cafe
3812
0000
0000
07fa
cafe
3c0b
0000
0000
07f7
cafe
201b
0000
0000
07f8
cafe
2403
0000
0000
07f3
cafe
2813
0000
0000
07fb
cafe
2c0c
0000
0000
07f7
cafe
301c
0000
0000
07f8
cafe
3404
0000
0000
07f3
cafe
3814
0000
0000
07fb
cafe
3c0d
0000
0000
07f8
cafe
201d
0000
0000
07f8
cafe
2405
0000
0000
07f3
cafe
2815
0000
0000
07fb
cafe
2c0e
0000
0000
07f7
cafe
301e
0000
0000
07f8
cafe
3406
0000
0000
07f2
cafe
3816
0000
0000
07fb
cafe
3c0f
0000
0000
07f7
cafe
201f
0000
0000
07f8
cafe
2407
0000
0000
07f3
cafe
2817
0000
0000
07fb
cafe
2c08
0000
0000
07f7
cafe
3018
0000
0000
07f8
cafe
3400
0000
0000
07f2
cafe
3810
0000
0000
07fa
cafe
3c09
0000
0000
07f7
cafe
2019
0000
0000
07f8
cafe
2401
0000
0000
07f3
cafe
2811
0000
0000
07fb
cafe
2c0a
0000
0000
07f7
cafe
301a
0000
0000
07f8
cafe
3402
0000
0000
07f3
cafe
3812
0000
0000
07fb
cafe
3c0b
0000
0000
07f7
cafe
201b
0000
0000
07f8
cafe
2403
0000
0000
07f2
cafe
2813
0000
0000
07fb
cafe
2c0c
0000
0000
07f7
cafe
301c
0000
0000
07f8
cafe
3404
0000
0000
07f3
cafe
3814
0000
0000
07fa
cafe
-
3c0d
0000
0000
07f7
cafe
201d
0000
0000
07f8
cafe
2405
0000
0000
07f2
cafe
2815
0000
0000
07fb
cafe
2c0e
0000
0000
07f8
cafe
301e
0000
0000
07f8
cafe
3406
0000
0000
07f2
cafe
3816
0000
0000
07fa
cafe
3c0f
0000
0000
07f7
cafe
201f
0000
0000
07f8
cafe
2407
0000
0000
07f2
cafe
2817
0000
0000
07fb
cafe
2c08
0000
0000
07f7
cafe
3018
0000
0000
07f8
cafe
3400
0000
0000
07f2
cafe
3810
0000
0000
07fb
cafe
3c09
0000
0000
07f7
cafe
2019
0000
0000
07f8
cafe
2401
0000
0000
07f2
cafe
2811
0000
0000
07fb
cafe
2c0a
0000
0000
07f7
cafe
301a
0000
0000
07f8
cafe
3402
0000
0000
07f2
cafe
3812
0000
0000
07fb
cafe
3c0b
0000
0000
07f7
cafe
201b
0000
0000
07f8
cafe
2403
0000
0000
07f2
cafe
2813
0000
0000
07fa
cafe
2c0c
0000
0000
07f7
cafe
301c
0000
0000
07f8
cafe
3404
0000
0000
07f3
cafe
3814
0000
0000
07fb
cafe
3c0d
0000
0000
07f7
cafe
201d
0000
0000
07f8
cafe
2405
0000
0000
07f2
cafe
2815
0000
0000
07fb
cafe
2c0e
0000
0000
07f8
cafe
301e
0000
0000
07f8
cafe
3406
0000
0000
07f2
cafe
3816
0000
0000
07fb
cafe
3c0f
0000
0000
07f7
cafe
201f
0000
0000
07f8
cafe
2407
0000
0000
07f2
cafe
2817
0000
0000
07fb
cafe
2c08
0000
0000
07f7
cafe
3018
0000
0000
07f8
cafe
3400
0000
0000
07f2
cafe
3810
0000
0000
07fb
cafe
3c09
0000
0000
07f8
cafe
2019
0000
0000
07f8
cafe
2401
0000
0000
07f3
cafe
2811
-
0000
0000
07fa
cafe
2c0a
0000
0000
07f7
cafe
301a
0000
0000
07f8
cafe
3402
0000
0000
07f2
cafe
3812
0000
0000
07fb
cafe
3c0b
0000
0000
07f7
cafe
201b
0000
0000
07f8
cafe
2403
0000
0000
07f3
cafe
2813
0000
0000
07fb
cafe
2c0c
0000
0000
07f7
cafe
301c
0000
0000
07f8
cafe
3404
0000
0000
07f2
cafe
3814
0000
0000
07fb
cafe
3c0d
0000
0000
07f7
cafe
201d
0000
0000
07f8
cafe
2405
0000
0000
07f2
cafe
2815
0000
0000
07fb
cafe
2c0e
0000
0000
07f8
cafe
301e
0000
0000
07f8
cafe
3406
0000
0000
07f2
cafe
3816
0000
0000
07fb
cafe
3c0f
0000
0000
07f8
cafe
201f
0000
0000
07f8
cafe
2407
0000
0000
07f3
cafe
2817
0000
0000
07fb
cafe
2c08
0000
0000
07f8
cafe
3018
0000
0000
07f8
cafe
3400
0000
0000
07f2
cafe
3810
0000
0000
07fa
cafe
3c09
0000
0000
07f7
cafe
2019
0000
0000
07f8
cafe
2401
0000
0000
07f2
cafe
2811
0000
0000
07fb
cafe
2c0a
0000
0000
07f7
cafe
301a
0000
0000
07f8
cafe
3402
0000
0000
07f2
cafe
3812
0000
0000
07fb
cafe
3c0b
0000
0000
07f8
cafe
201b
0000
0000
07f8
cafe
2403
0000
0000
07f2
cafe
2813
0000
0000
07fb
cafe
2c0c
0000
0000
07f7
cafe
301c
0000
0000
07f8
cafe
3404
0000
0000
07f3
cafe
3814
0000
0000
07fa
cafe
3c0d
0000
0000
07f8
cafe
201d
0000
0000
07f8
cafe
2405
0000
0000
07f3
cafe
2815
0000
0000
07fb
cafe
2c0e
0000
0000
07f7
cafe
301e
0000
0000
07f8
cafe
3406
0000
-
0000
07f2
cafe
3816
0000
0000
07fb
cafe
3c0f
0000
0000
07f8
cafe
201f
0000
0000
07f8
cafe
2407
0000
0000
07f3
cafe
2817
0000
0000
07fb
cafe
2c08
0000
0000
07f7
cafe
3018
0000
0000
07f8
cafe
3400
0000
0000
07f2
cafe
3810
0000
0000
07fb
cafe
3c09
0000
0000
07f8
cafe
2019
0000
0000
07f8
cafe
2401
0000
0000
07f3
cafe
2811
0000
0000
07fb
cafe
2c0a
0000
0000
07f8
cafe
301a
0000
0000
07f8
cafe
3402
0000
0000
07f2
cafe
3812
0000
0000
07fb
cafe
3c0b
0000
0000
07f8
cafe
201b
0000
0000
07f8
cafe
2403
0000
0000
07f2
cafe
2813
0000
0000
07fb
cafe
2c0c
0000
0000
07f8
cafe
301c
0000
0000
07f8
cafe
3404
0000
0000
07f3
cafe
3814
0000
0000
07fb
cafe
3c0d
0000
0000
07f8
cafe
201d
0000
0000
07f8
cafe
2405
0000
0000
07f2
cafe
2815
0000
0000
07fb
cafe
2c0e
0000
0000
07f7
cafe
301e
0000
0000
07f8
cafe
3406
0000
0000
07f3
cafe
3816
0000
0000
07fb
cafe
3c0f
0000
0000
07f7
cafe
201f
0000
0000
07f8
cafe
2407
0000
0000
07f2
cafe
2817
0000
0000
07fb
cafe
2c08
0000
0000
07f8
cafe
3018
0000
0000
07f8
cafe
3400
0000
0000
07f2
cafe
3810
0000
0000
07fb
cafe
3c09
0000
0000
07f7
cafe
2019
0000
0000
07f8
cafe
2401
0000
0000
07f2
cafe
2811
0000
0000
07fb
cafe
2c0a
0000
0000
07f7
cafe
301a
0000
0000
07f8
cafe
3402
0000
0000
07f2
cafe
3812
0000
0000
07fb
cafe
3c0b
0000
0000
07f7
cafe
201b
0000
0000
-
07f8
cafe
2403
0000
0000
07f2
cafe
2813
0000
0000
07fb
cafe
2c0c
0000
0000
07f7
cafe
301c
0000
0000
07f8
cafe
3404
0000
0000
07f2
cafe
3814
0000
0000
07fb
cafe
3c0d
0000
0000
07f7
cafe
201d
0000
0000
07f8
cafe
2405
0000
0000
07f3
cafe
2815
0000
0000
07fb
cafe
2c0e
0000
0000
07f7
cafe
301e
0000
0000
07f8
cafe
3406
0000
0000
07f2
cafe
3816
0000
0000
07fa
cafe
3c0f
0000
0000
07f7
cafe
201f
0000
0000
07f7
cafe
2407
0000
0000
07f2
cafe
2817
0000
0000
07fb
cafe
2c08
0000
0000
07f8
cafe
3018
0000
0000
07f8
cafe
3400
0000
0000
07f2
cafe
3810
0000
0000
07fb
cafe
3c09
0000
0000
07f7
cafe
2019
0000
0000
07f8
cafe
2401
0000
0000
07f2
cafe
2811
0000
0000
07fb
cafe
2c0a
0000
0000
07f7
cafe
301a
0000
0000
07f8
cafe
3402
0000
0000
07f3
cafe
3812
0000
0000
07fa
cafe
3c0b
0000
0000
07f7
cafe
201b
0000
0000
07f8
cafe
2403
0000
0000
07f2
cafe
2813
0000
0000
07fb
cafe
2c0c
0000
0000
07f7
cafe
301c
0000
0000
07f8
cafe
3404
0000
0000
07f2
cafe
3814
0000
0000
07fb
cafe
3c0d
0000
0000
07f7
cafe
201d
0000
0000
07f8
cafe
2405
0000
0000
07f2
cafe
2815
0000
0000
07fb
cafe
2c0e
0000
0000
07f7
cafe
301e
0000
0000
07f8
cafe
3406
0000
0000
07f2
cafe
3816
0000
0000
07fb
cafe
3c0f
0000
0000
07f7
cafe
201f
0000
0000
07f8
cafe
2407
0000
0000
07f3
cafe
2817
0000
0000
07fb
cafe
2c08
0000
0000
07f7
-
cafe
3018
0000
0000
07f8
cafe
3400
0000
0000
07f3
cafe
3810
0000
0000
07fb
cafe
3c09
0000
0000
07f7
cafe
2019
0000
0000
07f8
cafe
2401
0000
0000
07f2
cafe
2811
0000
0000
07fb
cafe
2c0a
0000
0000
07f7
cafe
301a
0000
0000
07f8
cafe
3402
0000
0000
07f3
cafe
3812
0000
0000
07fb
cafe
3c0b
0000
0000
07f7
cafe
201b
0000
0000
07f8
cafe
2403
0000
0000
07f2
cafe
2813
0000
0000
07fb
cafe
2c0c
0000
0000
07f8
cafe
301c
0000
0000
07f8
cafe
3404
0000
0000
07f3
cafe
3814
0000
0000
07fb
cafe
3c0d
0000
0000
07f7
cafe
201d
0000
0000
07f8
cafe
2405
0000
0000
07f2
cafe
2815
0000
0000
07fb
cafe
2c0e
0000
0000
07f8
cafe
301e
0000
0000
07f8
cafe
3406
0000
0000
07f2
cafe
3816
0000
0000
07fa
cafe
3c0f
0000
0000
07f7
cafe
201f
0000
0000
07f8
cafe
2407
0000
0000
07f2
cafe
2817
0000
0000
07fb
cafe
2c08
0000
0000
07f7
cafe
3018
0000
0000
07f8
cafe
3400
0000
0000
07f3
cafe
3810
0000
0000
07fa
cafe
3c09
0000
0000
07f7
cafe
2019
0000
0000
07f8
cafe
2401
0000
0000
07f3
cafe
2811
0000
0000
07fb
cafe
2c0a
0000
0000
07f7
cafe
301a
0000
0000
07f8
cafe
3402
0000
0000
07f2
cafe
3812
0000
0000
07fb
cafe
3c0b
0000
0000
07f7
cafe
201b
0000
0000
07f7
cafe
2403
0000
0000
07f2
cafe
2813
0000
0000
07fb
cafe
2c0c
0000
0000
07f7
cafe
301c
0000
0000
07f8
cafe
3404
0000
0000
07f2
cafe
3814
0000
0000
07fa
cafe
-
3c0d
0000
0000
07f8
cafe
201d
0000
0000
07f8
cafe
2405
0000
0000
07f3
cafe
2815
0000
0000
07fb
cafe
2c0e
0000
0000
07f8
cafe
301e
0000
0000
07f8
cafe
3406
0000
0000
07f3
cafe
3816
0000
0000
07fb
cafe
3c0f
0000
0000
07f8
cafe
201f
0000
0000
07f8
cafe
2407
0000
0000
07f2
cafe
2817
0000
0000
07fb
cafe
2c08
0000
0000
07f7
cafe
3018
0000
0000
07f8
cafe
3400
0000
0000
07f2
cafe
3810
0000
0000
07fb
cafe
3c09
0000
0000
07f8
cafe
2019
0000
0000
07f8
cafe
2401
0000
0000
07f2
cafe
2811
0000
0000
07fb
cafe
2c0a
0000
0000
07f8
cafe
301a
0000
0000
07f8
cafe
3402
0000
0000
07f2
cafe
3812
0000
0000
07fb
cafe
3c0b
0000
0000
07f7
cafe
201b
0000
0000
07f8
cafe
2403
0000
0000
07f2
cafe
2813
0000
0000
07fb
cafe
2c0c
0000
0000
07f7
cafe
301c
0000
0000
07f8
cafe
3404
0000
0000
07f2
cafe
3814
0000
0000
07fb
cafe
3c0d
0000
0000
07f7
cafe
201d
0000
0000
07f8
cafe
2405
0000
0000
07f3
cafe
2815
0000
0000
07fb
cafe
2c0e
0000
0000
07f8
cafe
301e
0000
0000
07f8
cafe
3406
0000
0000
07f3
cafe
3816
0000
0000
07fb
cafe
3c0f
0000
0000
07f8
cafe
201f
0000
0000
07f8
cafe
2407
0000
0000
07f2
cafe
2817
0000
0000
07fb
cafe
2c08
0000
0000
07f8
cafe
3018
0000
0000
07f8
cafe
3400
0000
0000
07f2
cafe
3810
0000
0000
07fb
cafe
3c09
0000
0000
07f8
cafe
2019
0000
0000
07f8
cafe
2401
0000
0000
07f2
cafe
2811
-
0000
0000
07fa
cafe
2c0a
0000
0000
07f8
cafe
301a
0000
0000
07f8
cafe
3402
0000
0000
07f2
cafe
3812
0000
0000
07fb
cafe
3c0b
0000
0000
07f8
cafe
201b
0000
0000
07f8
cafe
2403
0000
0000
07f2
cafe
2813
0000
0000
07fb
cafe
2c0c
0000
0000
07f8
cafe
301c
0000
0000
07f8
cafe
3404
0000
0000
07f3
cafe
3814
0000
0000
07fb
cafe
3c0d
0000
0000
07f8
cafe
201d
0000
0000
07f8
cafe
2405
0000
0000
07f2
cafe
2815
0000
0000
07fb
cafe
2c0e
0000
0000
07f7
cafe
301e
0000
0000
07f8
cafe
3406
0000
0000
07f2
cafe
3816
0000
0000
07fa
cafe
3c0f
0000
0000
07f7
cafe
201f
0000
0000
07f8
cafe
2407
0000
0000
07f3
cafe
2817
0000
0000
07fb
cafe
2c08
0000
0000
07f8
cafe
3018
0000
0000
07f8
cafe
3400
0000
0000
07f2
cafe
3810
0000
0000
07fb
cafe
3c09
0000
0000
07f8
cafe
2019
0000
0000
07f8
cafe
2401
0000
0000
07f2
cafe
2811
0000
0000
07fb
cafe
2c0a
0000
0000
07f7
cafe
301a
0000
0000
07f8
cafe
3402
0000
0000
07f2
cafe
3812
0000
0000
07fa
cafe
3c0b
0000
0000
07f7
cafe
201b
0000
0000
07f8
cafe
2403
0000
0000
07f3
cafe
2813
0000
0000
07fb
cafe
2c0c
0000
0000
07f7
cafe
301c
0000
0000
07f8
cafe
3404
0000
0000
07f2
cafe
3814
0000
0000
07fb
cafe
3c0d
0000
0000
07f7
cafe
201d
0000
0000
07f8
cafe
2405
0000
0000
07f2
cafe
2815
0000
0000
07fb
cafe
2c0e
0000
0000
07f7
cafe
301e
0000
0000
07f8
cafe
3406
0000
-
0000
07f2
cafe
3816
0000
0000
07fb
cafe
3c0f
0000
0000
07f7
cafe
201f
0000
0000
07f8
cafe
2407
0000
0000
07f3
cafe
2817
0000
0000
07fa
cafe
2c08
0000
0000
07f8
cafe
3018
0000
0000
07f8
cafe
3400
0000
0000
07f2
cafe
3810
0000
0000
07fb
cafe
3c09
0000
0000
07f7
cafe
2019
0000
0000
07f8
cafe
2401
0000
0000
07f2
cafe
2811
0000
0000
07fb
cafe
2c0a
0000
0000
07f8
cafe
301a
0000
0000
07f8
cafe
3402
0000
0000
07f2
cafe
3812
0000
0000
07fb
cafe
3c0b
0000
0000
07f8
cafe
201b
0000
0000
07f8
cafe
2403
0000
0000
07f2
cafe
2813
0000
0000
07fb
cafe
2c0c
0000
0000
07f7
cafe
301c
0000
0000
07f8
cafe
3404
0000
0000
07f2
cafe
3814
0000
0000
07fb
cafe
3c0d
0000
0000
07f8
cafe
201d
0000
0000
07f8
cafe
2405
0000
0000
07f2
cafe
2815
0000
0000
07fa
cafe
2c0e
0000
0000
07f8
cafe
301e
0000
0000
07f8
cafe
3406
0000
0000
07f2
cafe
3816
0000
0000
07fb
cafe
3c0f
0000
0000
07f7
cafe
201f
0000
0000
07f8
cafe
2407
0000
0000
07f2
cafe
2817
0000
0000
07fb
cafe
2c08
0000
0000
07f7
cafe
3018
0000
0000
07f8
cafe
3400
0000
0000
07f2
cafe
3810
0000
0000
07fb
cafe
3c09
0000
0000
07f7
cafe
2019
0000
0000
07f8
cafe
2401
0000
0000
07f2
cafe
2811
0000
0000
07fb
cafe
2c0a
0000
0000
07f7
cafe
301a
0000
0000
07f8
cafe
3402
0000
0000
07f2
cafe
3812
0000
0000
07fb
cafe
3c0b
0000
0000
07f7
cafe
201b
0000
0000
-
07f8
cafe
2403
0000
0000
07f2
cafe
2813
0000
0000
07fb
cafe
2c0c
0000
0000
07f7
cafe
301c
0000
0000
07f8
cafe
3404
0000
0000
07f2
cafe
3814
0000
0000
07fb
cafe
3c0d
0000
0000
07f7
cafe
201d
0000
0000
07f8
cafe
2405
0000
0000
07f3
cafe
2815
0000
0000
07fb
cafe
2c0e
0000
0000
07f7
cafe
301e
0000
0000
07f7
cafe
3406
0000
0000
07f2
cafe
3816
0000
0000
07fb
cafe
3c0f
0000
0000
07f7
cafe
201f
0000
0000
07f8
cafe
2407
0000
0000
07f2
cafe
2817
0000
0000
07fb
cafe
2c08
0000
0000
07f7
cafe
3018
0000
0000
07f8
cafe
3400
0000
0000
07f2
cafe
3810
0000
0000
07fb
cafe
3c09
0000
0000
07f7
cafe
2019
0000
0000
07f8
cafe
2401
0000
0000
07f3
cafe
2811
0000
0000
07fb
cafe
2c0a
0000
0000
07f7
cafe
301a
0000
0000
07f8
cafe
3402
0000
0000
07f3
cafe
3812
0000
0000
07fa
cafe
3c0b
0000
0000
07f7
cafe
201b
0000
0000
07f8
cafe
2403
0000
0000
07f2
cafe
2813
0000
0000
07fb
cafe
2c0c
0000
0000
07f7
cafe
301c
0000
0000
07f8
cafe
3404
0000
0000
07f2
cafe
3814
0000
0000
07fb
cafe
3c0d
0000
0000
07f7
cafe
201d
0000
0000
07f8
cafe
2405
0000
0000
07f3
cafe
2815
0000
0000
07fb
cafe
2c0e
0000
0000
07f7
cafe
301e
0000
0000
07f8
cafe
3406
0000
0000
07f2
cafe
3816
0000
0000
07fb
cafe
3c0f
0000
0000
07f7
cafe
201f
0000
0000
07f8
cafe
2407
0000
0000
07f2
cafe
2817
0000
0000
07fb
cafe
2c08
0000
0000
07f7
-
cafe
3018
0000
0000
07f8
cafe
3400
0000
0000
07f2
cafe
3810
0000
0000
07fb
cafe
3c09
0000
0000
07f8
cafe
2019
0000
0000
07f8
cafe
2401
0000
0000
07f2
cafe
2811
0000
0000
07fb
cafe
2c0a
0000
0000
07f8
cafe
301a
0000
0000
07f8
cafe
3402
0000
0000
07f2
cafe
3812
0000
0000
07fb
cafe
3c0b
0000
0000
07f7
cafe
201b
0000
0000
07f8
cafe
2403
0000
0000
07f3
cafe
2813
0000
0000
07fb
cafe
2c0c
0000
0000
07f7
cafe
301c
0000
0000
07f8
cafe
3404
0000
0000
07f2
cafe
3814
0000
0000
07fb
cafe
3c0d
0000
0000
07f7
cafe
201d
0000
0000
07f8
cafe
2405
0000
0000
07f3
cafe
2815
0000
0000
07fb
cafe
2c0e
0000
0000
07f7
cafe
301e
0000
0000
07f8
cafe
3406
0000
0000
07f3
cafe
3816
0000
0000
07fb
cafe
3c0f
0000
0000
07f8
cafe
201f
0000
0000
07f8
cafe
2407
0000
0000
07f2
cafe
2817
0000
0000
07fb
cafe
2c08
0000
0000
07f7
cafe
3018
0000
0000
07f8
cafe
3400
0000
0000
07f3
cafe
3810
0000
0000
07fb
cafe
3c09
0000
0000
07f7
cafe
2019
0000
0000
07f8
cafe
2401
0000
0000
07f2
cafe
2811
0000
0000
07fb
cafe
2c0a
0000
0000
07f7
cafe
301a
0000
0000
07f8
cafe
3402
0000
0000
07f3
cafe
3812
0000
0000
07fb
cafe
3c0b
0000
0000
07f7
cafe
201b
0000
0000
07f8
cafe
2403
0000
0000
07f2
cafe
2813
0000
0000
07fb
cafe
2c0c
0000
0000
07f7
cafe
301c
0000
0000
07f8
cafe
3404
0000
0000
07f2
cafe
3814
0000
0000
07fb
cafe
-
3c0d
0000
0000
07f7
cafe
201d
0000
0000
07f8
cafe
2405
0000
0000
07f2
cafe
2815
0000
0000
07fb
cafe
2c0e
0000
0000
07f7
cafe
301e
0000
0000
07f8
cafe
3406
0000
0000
07f2
cafe
3816
0000
0000
07fb
cafe
3c0f
0000
0000
07f7
cafe
201f
0000
0000
07f8
cafe
2407
0000
0000
07f2
cafe
2817
0000
0000
07fa
cafe
2c08
0000
0000
07f8
cafe
3018
0000
0000
07f8
cafe
3400
0000
0000
07f3
cafe
3810
0000
0000
07fb
cafe
3c09
0000
0000
07f7
cafe
2019
0000
0000
07f7
cafe
2401
0000
0000
07f2
cafe
2811
0000
0000
07fb
cafe
2c0a
0000
0000
07f7
cafe
301a
0000
0000
07f8
cafe
3402
0000
0000
07f2
cafe
3812
0000
0000
07fb
cafe
3c0b
0000
0000
07f7
cafe
201b
0000
0000
07f8
cafe
2403
0000
0000
07f2
cafe
2813
0000
0000
07fb
cafe
2c0c
0000
0000
07f7
cafe
301c
0000
0000
07f8
cafe
3404
0000
0000
07f2
cafe
3814
0000
0000
07fb
cafe
3c0d
0000
0000
07f7
cafe
201d
0000
0000
07f8
cafe
2405
0000
0000
07f2
cafe
2815
0000
0000
07fb
cafe
2c0e
0000
0000
07f8
cafe
301e
0000
0000
07f8
cafe
3406
0000
0000
07f2
cafe
3816
0000
0000
07fb
cafe
3c0f
0000
0000
07f7
cafe
201f
0000
0000
07f8
cafe
2407
0000
0000
07f3
cafe
2817
0000
0000
07fa
cafe
2c08
0000
0000
07f7
cafe
3018
0000
0000
07f8
cafe
3400
0000
0000
07f2
cafe
3810
0000
0000
07fb
cafe
3c09
0000
0000
07f8
cafe
2019
0000
0000
07f8
cafe
2401
0000
0000
07f2
cafe
2811
-
0000
0000
07fb
cafe
2c0a
0000
0000
07f8
cafe
301a
0000
0000
07f8
cafe
3402
0000
0000
07f2
cafe
3812
0000
0000
07fb
cafe
3c0b
0000
0000
07f7
cafe
201b
0000
0000
07f8
cafe
2403
0000
0000
07f2
cafe
2813
0000
0000
07fb
cafe
2c0c
0000
0000
07f8
cafe
301c
0000
0000
07f8
cafe
3404
0000
0000
07f2
cafe
3814
0000
0000
07fb
cafe
3c0d
0000
0000
07f7
cafe
201d
0000
0000
07f8
cafe
2405
0000
0000
07f2
cafe
2815
0000
0000
07fb
cafe
2c0e
0000
0000
07f8
cafe
301e
0000
0000
07f8
cafe
3406
0000
0000
07f2
cafe
3816
0000
0000
07fb
cafe
3c0f
0000
0000
07f8
cafe
201f
0000
0000
07f8
cafe
2407
0000
0000
07f2
cafe
2817
0000
0000
07fb
cafe
2c08
0000
0000
07f7
cafe
3018
0000
0000
07f8
cafe
3400
0000
0000
07f2
cafe
3810
0000
0000
07fb
cafe
3c09
0000
0000
07f8
cafe
2019
0000
0000
07f8
cafe
2401
0000
0000
07f2
cafe
2811
0000
0000
07fb
cafe
2c0a
0000
0000
07f7
cafe
301a
0000
0000
07f8
cafe
3402
0000
0000
07f2
cafe
3812
0000
0000
07fb
cafe
3c0b
0000
0000
07f7
cafe
201b
0000
0000
07f8
cafe
2403
0000
0000
07f2
cafe
2813
0000
0000
07fb
cafe
2c0c
0000
0000
07f7
cafe
301c
0000
0000
07f8
cafe
3404
0000
0000
07f2
cafe
3814
0000
0000
07fb
cafe
3c0d
0000
0000
07f7
cafe
201d
0000
0000
07f8
cafe
2405
0000
0000
07f2
cafe
2815
0000
0000
07fb
cafe
2c0e
0000
0000
07f8
cafe
301e
0000
0000
07f8
cafe
3406
0000
-
0000
07f3
cafe
3816
0000
0000
07fb
cafe
3c0f
0000
0000
07f8
cafe
201f
0000
0000
07f8
cafe
2407
0000
0000
07f2
cafe
2817
0000
0000
07fb
cafe
2c08
0000
0000
07f8
cafe
3018
0000
0000
07f8
cafe
3400
0000
0000
07f3
cafe
3810
0000
0000
07fb
cafe
3c09
0000
0000
07f7
cafe
2019
0000
0000
07f8
cafe
2401
0000
0000
07f3
cafe
2811
0000
0000
07fb
cafe
2c0a
0000
0000
07f7
cafe
301a
0000
0000
07f8
cafe
3402
0000
0000
07f3
cafe
3812
0000
0000
07fa
cafe
3c0b
0000
0000
07f7
cafe
201b
0000
0000
07f8
cafe
2403
0000
0000
07f2
cafe
2813
0000
0000
07fb
cafe
2c0c
0000
0000
07f7
cafe
301c
0000
0000
07f8
cafe
3404
0000
0000
07f2
cafe
3814
0000
0000
07fb
cafe
3c0d
0000
0000
07f8
cafe
201d
0000
0000
07f8
cafe
2405
0000
0000
07f3
cafe
2815
0000
0000
07fb
cafe
2c0e
0000
0000
07f8
cafe
301e
0000
0000
07f8
cafe
3406
0000
0000
07f2
cafe
3816
0000
0000
07fb
cafe
3c0f
0000
0000
07f7
cafe
201f
0000
0000
07f8
cafe
2407
0000
0000
07f2
cafe
2817
0000
0000
07fb
cafe
2c08
0000
0000
07f7
cafe
3018
0000
0000
07f7
cafe
3400
0000
0000
07f3
cafe
3810
0000
0000
07fb
cafe
3c09
0000
0000
07f8
cafe
2019
0000
0000
07f8
cafe
2401
0000
0000
07f2
cafe
2811
0000
0000
07fb
cafe
2c0a
0000
0000
07f7
cafe
301a
0000
0000
07f8
cafe
3402
0000
0000
07f2
cafe
3812
0000
0000
07fb
cafe
3c0b
0000
0000
07f8
cafe
201b
0000
0000
-
07f8
cafe
2403
0000
0000
07f2
cafe
2813
0000
0000
07fb
cafe
2c0c
0000
0000
07f7
cafe
301c
0000
0000
07f8
cafe
3404
0000
0000
07f2
cafe
3814
0000
0000
07fb
cafe
3c0d
0000
0000
07f7
cafe
201d
0000
0000
07f8
cafe
2405
0000
0000
07f3
cafe
2815
0000
0000
07fb
cafe
2c0e
0000
0000
07f7
cafe
301e
0000
0000
07f8
cafe
3406
0000
0000
07f2
cafe
3816
0000
0000
07fb
cafe
3c0f
0000
0000
07f7
cafe
201f
0000
0000
07f8
cafe
2407
0000
0000
07f2
cafe
2817
0000
0000
07fa
cafe
2c08
0000
0000
07f7
cafe
3018
0000
0000
07f8
cafe
3400
0000
0000
07f2
cafe
3810
0000
0000
07fb
cafe
3c09
0000
0000
07f8
cafe
2019
0000
0000
07f8
cafe
2401
0000
0000
07f3
cafe
2811
0000
0000
07fb
cafe
2c0a
0000
0000
07f7
cafe
301a
0000
0000
07f8
cafe
3402
0000
0000
07f2
cafe
3812
0000
0000
07fb
cafe
3c0b
0000
0000
07f7
cafe
201b
0000
0000
07f8
cafe
2403
0000
0000
07f2
cafe
2813
0000
0000
07fb
cafe
2c0c
0000
0000
07f8
cafe
301c
0000
0000
07f8
cafe
3404
0000
0000
07f2
cafe
3814
0000
0000
07fb
cafe
3c0d
0000
0000
07f7
cafe
201d
0000
0000
07f8
cafe
2405
0000
0000
07f2
cafe
2815
0000
0000
07fb
cafe
2c0e
0000
0000
07f7
cafe
301e
0000
0000
07f8
cafe
3406
0000
0000
07f2
cafe
3816
0000
0000
07fb
cafe
3c0f
0000
0000
07f7
cafe
201f
0000
0000
07f8
cafe
2407
0000
0000
07f3
cafe
2817
0000
0000
07fb
cafe
2c08
0000
0000
07f7
-
cafe
3018
0000
0000
07f8
cafe
3400
0000
0000
07f3
cafe
3810
0000
0000
07fb
cafe
3c09
0000
0000
07f7
cafe
2019
0000
0000
07f8
cafe
2401
0000
0000
07f3
cafe
2811
0000
0000
07fa
cafe
2c0a
0000
0000
07f7
cafe
301a
0000
0000
07f8
cafe
3402
0000
0000
07f3
cafe
3812
0000
0000
07fb
cafe
3c0b
0000
0000
07f8
cafe
201b
0000
0000
07f8
cafe
2403
0000
0000
07f3
cafe
2813
0000
0000
07fb
cafe
2c0c
0000
0000
07f8
cafe
301c
0000
0000
07f8
cafe
3404
0000
0000
07f2
cafe
3814
0000
0000
07fb
cafe
3c0d
0000
0000
07f7
cafe
201d
0000
0000
07f8
cafe
2405
0000
0000
07f2
cafe
2815
0000
0000
07fb
cafe
2c0e
0000
0000
07f7
cafe
301e
0000
0000
07f8
cafe
3406
0000
0000
07f2
cafe
3816
0000
0000
07fb
cafe
3c0f
0000
0000
07f8
cafe
201f
0000
0000
07f8
cafe
2407
0000
0000
07f3
cafe
2817
0000
0000
07fb
cafe
2c08
0000
0000
07f8
cafe
3018
0000
0000
07f8
cafe
3400
0000
0000
07f2
cafe
3810
0000
0000
07fb
cafe
3c09
0000
0000
07f7
cafe
2019
0000
0000
07f8
cafe
2401
0000
0000
07f2
cafe
2811
0000
0000
07fb
cafe
2c0a
0000
0000
07f7
cafe
301a
0000
0000
07f8
cafe
3402
0000
0000
07f2
cafe
3812
0000
0000
07fb
cafe
3c0b
0000
0000
07f7
cafe
201b
0000
0000
07f8
cafe
2403
0000
0000
07f2
cafe
2813
0000
0000
07fb
cafe
2c0c
0000
0000
07f8
cafe
301c
0000
0000
07f8
cafe
3404
0000
0000
07f3
cafe
3814
0000
0000
07fb
cafe
-
