380f
5556
0904
01c9
cafe
3c1f
5556
0904
0179
cafe
2007
5556
0904
01a0
cafe
2417
5556
0908
0289
cafe
2808
5556
0908
01e3
cafe
2c18
5556
0908
01f9
cafe
3000
5556
0908
00e5
cafe
3410
5556
090c
01aa
cafe
3809
5556
090c
018d
cafe
3c19
5556
090c
020d
cafe
2001
5556
090c
01b5
cafe
2411
5556
0910
0207
cafe
280a
5556
0910
01c4
cafe
2c1a
5556
0910
01ce
cafe
3002
5556
0910
0212
cafe
3412
5556
0914
013a
cafe
380b
5556
0914
01e8
cafe
3c1b
5556
0914
01ef
cafe
2003
5556
0914
01d5
cafe
2413
5556
0918
01c2
cafe
280c
5556
0918
0157
cafe
2c1c
5556
0918
01e1
cafe
3004
5556
0918
013d
cafe
3414
5556
091c
012c
cafe
380d
5556
091c
01c7
cafe
3c1d
5556
091c
01a5
cafe
2005
5556
091c
00eb
cafe
2415
5556
0920
01ae
cafe
280e
5556
0920
021f
cafe
2c1e
5556
0920
022e
cafe
3006
5556
0920
0257
cafe
3416
5556
0924
00cf
cafe
380f
5556
0924
01c5
cafe
3c1f
5556
0924
0174
cafe
2007
5556
0924
019b
cafe
2417
5556
0928
0283
cafe
2808
5556
0928
01db
cafe
2c18
5556
0928
01f6
cafe
3000
5556
0928
00ec
cafe
3410
5556
092c
01a7
cafe
3809
5556
092c
018c
cafe
3c19
5556
092c
020b
cafe
2001
5556
092c
01b5
cafe
2411
5556
0930
0206
cafe
280a
5556
0930
01c9
cafe
2c1a
5556
0930
01c5
cafe
3002
5556
0930
020e
cafe
3412
5556
0934
013b
cafe
380b
5556
0934
01e8
cafe
3c1b
5556
0934
01f7
cafe
2003
5556
0934
01d9
cafe
2413
-
5556
0938
01c3
cafe
280c
5556
0938
014d
cafe
2c1c
5556
0938
01e7
cafe
3004
5556
0938
0138
cafe
3414
5556
093c
012b
cafe
380d
5556
093c
01c3
cafe
3c1d
5556
093c
01a5
cafe
2005
5556
093c
00ee
cafe
2415
5556
0940
01b1
cafe
280e
5556
0940
021d
cafe
2c1e
5556
0940
0230
cafe
3006
5556
0940
0255
cafe
3416
5556
0944
00cd
cafe
380f
5556
0944
01c3
cafe
3c1f
5556
0944
017b
cafe
2007
5556
0944
019a
cafe
2417
5556
0948
0285
cafe
2808
5556
0948
01da
cafe
2c18
5556
0948
01f6
cafe
3000
5556
0948
00eb
cafe
3410
5556
094c
01ab
cafe
3809
5556
094c
018f
cafe
3c19
5556
094c
020a
cafe
2001
5556
094c
01ba
cafe
2411
5556
0950
020e
cafe
280a
5556
0950
01cb
cafe
2c1a
5556
0950
01c3
cafe
3002
5556
0950
020d
cafe
3412
5556
0954
013c
cafe
380b
5556
0954
01eb
cafe
3c1b
5556
0954
01f6
cafe
2003
5556
0954
01da
cafe
2413
5556
0958
01c1
cafe
280c
5556
0958
0151
cafe
2c1c
5556
0958
01e8
cafe
3004
5556
0958
0136
cafe
3414
5556
095c
0129
cafe
380d
5556
095c
01be
cafe
3c1d
5556
095c
01a6
cafe
2005
5556
095c
00ee
cafe
2415
5556
0960
01a8
cafe
280e
5556
0960
0215
cafe
2c1e
5556
0960
0231
cafe
3006
5556
0960
0259
cafe
3416
5556
0964
00d0
cafe
380f
5556
0964
01c7
cafe
3c1f
5556
0964
0179
cafe
2007
5556
0964
0197
cafe
2417
5556
0968
0280
cafe
2808
5556
0968
01d5
cafe
2c18
5556
0968
01f5
cafe
3000
5556
-
0968
00e8
cafe
3410
5556
096c
01aa
cafe
3809
5556
096c
018d
cafe
3c19
5556
096c
020b
cafe
2001
5556
096c
01be
cafe
2411
5556
0970
0215
cafe
280a
5556
0970
01cd
cafe
2c1a
5556
0970
01be
cafe
3002
5556
0970
0207
cafe
3412
5556
0974
0145
cafe
380b
5556
0974
01f3
cafe
3c1b
5556
0974
01f7
cafe
2003
5556
0974
01da
cafe
2413
5556
0978
01c2
cafe
280c
5556
0978
0156
cafe
2c1c
5556
0978
01e6
cafe
3004
5556
0978
0137
cafe
3414
5556
097c
012f
cafe
380d
5556
097c
01b8
cafe
3c1d
5556
097c
01a4
cafe
2005
5556
097c
00ed
cafe
2415
5556
0980
019e
cafe
280e
5556
0980
0211
cafe
2c1e
5556
0980
0233
cafe
3006
5556
0980
025a
cafe
3416
5556
0984
00ce
cafe
380f
5556
0984
01c7
cafe
3c1f
5556
0984
0177
cafe
2007
5556
0984
01a2
cafe
2417
5556
0988
027d
cafe
2808
5556
0988
01d2
cafe
2c18
5556
0988
01f0
cafe
3000
5556
0988
00ee
cafe
3410
5556
098c
01ac
cafe
3809
5556
098c
018c
cafe
3c19
5556
098c
0213
cafe
2001
5556
098c
01c0
cafe
2411
5556
0990
0218
cafe
280a
5556
0990
01cd
cafe
2c1a
5556
0990
01c2
cafe
3002
5556
0990
0202
cafe
3412
5556
0994
013f
cafe
380b
5556
0994
01f2
cafe
3c1b
5556
0994
01f6
cafe
2003
5556
0994
01de
cafe
2413
5556
0998
01c3
cafe
280c
5556
0998
0159
cafe
2c1c
5556
0998
01e4
cafe
3004
5556
0998
013c
cafe
3414
5556
099c
0138
cafe
380d
5556
099c
01b8
cafe
3c1d
5556
099c
-
01a2
cafe
2005
5556
099c
00eb
cafe
2415
5556
09a0
019f
cafe
280e
5556
09a0
020a
cafe
2c1e
5556
09a0
0232
cafe
3006
5556
09a0
025b
cafe
3416
5556
09a4
00ca
cafe
380f
5556
09a4
01c4
cafe
3c1f
5556
09a4
0173
cafe
2007
5556
09a4
019b
cafe
2417
5556
09a8
027b
cafe
2808
5556
09a8
01d5
cafe
2c18
5556
09a8
01f7
cafe
3000
5556
09a8
00f0
cafe
3410
5556
09ac
01ab
cafe
3809
5556
09ac
0188
cafe
3c19
5556
09ac
020f
cafe
2001
5556
09ac
01bc
cafe
2411
5556
09b0
021a
cafe
280a
5556
09b0
01cb
cafe
2c1a
5556
09b0
01c4
cafe
3002
5556
09b0
0208
cafe
3412
5556
09b4
0143
cafe
380b
5556
09b4
01f2
cafe
3c1b
5556
09b4
01f3
cafe
2003
5556
09b4
01da
cafe
2413
5556
09b8
01c6
cafe
280c
5556
09b8
0159
cafe
2c1c
5556
09b8
01e7
cafe
3004
5556
09b8
0139
cafe
3414
5556
09bc
0137
cafe
380d
5556
09bc
01bc
cafe
3c1d
5556
09bc
01a0
cafe
2005
5556
09bc
00ec
cafe
2415
5556
09c0
019f
cafe
280e
5556
09c0
0208
cafe
2c1e
5556
09c0
022e
cafe
3006
5556
09c0
0259
cafe
3416
5556
09c4
00cf
cafe
380f
5556
09c4
01c3
cafe
3c1f
5556
09c4
0175
cafe
2007
5556
09c4
01a4
cafe
2417
5556
09c8
027e
cafe
2808
5556
09c8
01db
cafe
2c18
5556
09c8
01f4
cafe
3000
5556
09c8
00f0
cafe
3410
5556
09cc
01ac
cafe
3809
5556
09cc
0185
cafe
3c19
5556
09cc
020c
cafe
2001
5556
09cc
01b8
cafe
2411
5556
09d0
0214
cafe
280a
5556
09d0
01c4
-
cafe
2c1a
5556
09d0
01c4
cafe
3002
5556
09d0
0205
cafe
3412
5556
09d4
0141
cafe
380b
5556
09d4
01ed
cafe
3c1b
5556
09d4
01f5
cafe
2003
5556
09d4
01db
cafe
2413
5556
09d8
01c6
cafe
280c
5556
09d8
0155
cafe
2c1c
5556
09d8
01df
cafe
3004
5556
09d8
0133
cafe
3414
5556
09dc
0131
cafe
380d
5556
09dc
01bf
cafe
3c1d
5556
09dc
01a4
cafe
2005
5556
09dc
00ea
cafe
2415
5556
09e0
0199
cafe
280e
5556
09e0
0206
cafe
2c1e
5556
09e0
0237
cafe
3006
5556
09e0
025a
cafe
3416
5556
09e4
00cd
cafe
380f
5556
09e4
01c1
cafe
3c1f
5556
09e4
016f
cafe
2007
5556
09e4
01a2
cafe
2417
5556
09e8
027f
cafe
2808
5556
09e8
01de
cafe
2c18
5556
09e8
01f2
cafe
3000
5556
09e8
00ec
cafe
3410
5556
09ec
01b3
cafe
3809
5556
09ec
018a
cafe
3c19
5556
09ec
020c
cafe
2001
5556
09ec
01b8
cafe
2411
5556
09f0
0212
cafe
280a
5556
09f0
01c0
cafe
2c1a
5556
09f0
01c5
cafe
3002
5556
09f0
0206
cafe
3412
5556
09f4
013c
cafe
380b
5556
09f4
01e3
cafe
3c1b
5556
09f4
01f9
cafe
2003
5556
09f4
01d7
cafe
2413
5556
09f8
01c4
cafe
280c
5556
09f8
0155
cafe
2c1c
5556
09f8
01dc
cafe
3004
5556
09f8
0136
cafe
3414
5556
09fc
0135
cafe
380d
5556
09fc
01bf
cafe
3c1d
5556
09fc
01a7
cafe
2005
5556
09fc
00f0
cafe
2415
5556
0a00
0199
cafe
280e
5556
0a00
020c
cafe
2c1e
5556
0a00
0236
cafe
3006
5556
0a00
025c
cafe
3416
5556
0a04
00cb
cafe
-
380f
5556
0a04
01c3
cafe
3c1f
5556
0a04
016c
cafe
2007
5556
0a04
01a1
cafe
2417
5556
0a08
0281
cafe
2808
5556
0a08
01e0
cafe
2c18
5556
0a08
01f4
cafe
3000
5556
0a08
00eb
cafe
3410
5556
0a0c
01b7
cafe
3809
5556
0a0c
018c
cafe
3c19
5556
0a0c
0204
cafe
2001
5556
0a0c
01b7
cafe
2411
5556
0a10
0212
cafe
280a
5556
0a10
01c4
cafe
2c1a
5556
0a10
01ca
cafe
3002
5556
0a10
0204
cafe
3412
5556
0a14
0148
cafe
380b
5556
0a14
01db
cafe
3c1b
5556
0a14
01f6
cafe
2003
5556
0a14
01d6
cafe
2413
5556
0a18
01ba
cafe
280c
5556
0a18
0151
cafe
2c1c
5556
0a18
01dc
cafe
3004
5556
0a18
0133
cafe
3414
5556
0a1c
0135
cafe
380d
5556
0a1c
01cb
cafe
3c1d
5556
0a1c
01a4
cafe
2005
5556
0a1c
00f3
cafe
2415
5556
0a20
0193
cafe
280e
5556
0a20
0205
cafe
2c1e
5556
0a20
0232
cafe
3006
5556
0a20
025a
cafe
3416
5556
0a24
00c7
cafe
380f
5556
0a24
01c9
cafe
3c1f
5556
0a24
0175
cafe
2007
5556
0a24
01a2
cafe
2417
5556
0a28
0281
cafe
2808
5556
0a28
01dd
cafe
2c18
5556
0a28
01fb
cafe
3000
5556
0a28
00eb
cafe
3410
5556
0a2c
01b6
cafe
3809
5556
0a2c
018f
cafe
3c19
5556
0a2c
0205
cafe
2001
5556
0a2c
01b8
cafe
2411
5556
0a30
0212
cafe
280a
5556
0a30
01c6
cafe
2c1a
5556
0a30
01cb
cafe
3002
5556
0a30
0205
cafe
3412
5556
0a34
0142
cafe
380b
5556
0a34
01dd
cafe
3c1b
5556
0a34
01f2
cafe
2003
5556
0a34
01dd
cafe
2413
-
5556
0a38
01be
cafe
280c
5556
0a38
0154
cafe
2c1c
5556
0a38
01da
cafe
3004
5556
0a38
0133
cafe
3414
5556
0a3c
0136
cafe
380d
5556
0a3c
01c7
cafe
3c1d
5556
0a3c
01a0
cafe
2005
5556
0a3c
00f1
cafe
2415
5556
0a40
0193
cafe
280e
5556
0a40
0203
cafe
2c1e
5556
0a40
0239
cafe
3006
5556
0a40
025a
cafe
3416
5556
0a44
00c3
cafe
380f
5556
0a44
01c4
cafe
3c1f
5556
0a44
0171
cafe
2007
5556
0a44
0199
cafe
2417
5556
0a48
027f
cafe
2808
5556
0a48
01d9
cafe
2c18
5556
0a48
01fb
cafe
3000
5556
0a48
00e9
cafe
3410
5556
0a4c
01ac
cafe
3809
5556
0a4c
018f
cafe
3c19
5556
0a4c
0205
cafe
2001
5556
0a4c
01b3
cafe
2411
5556
0a50
0219
cafe
280a
5556
0a50
01c5
cafe
2c1a
5556
0a50
01c9
cafe
3002
5556
0a50
0209
cafe
3412
5556
0a54
0143
cafe
380b
5556
0a54
01e0
cafe
3c1b
5556
0a54
01f5
cafe
2003
5556
0a54
01d3
cafe
2413
5556
0a58
01c0
cafe
280c
5556
0a58
0154
cafe
2c1c
5556
0a58
01e2
cafe
3004
5556
0a58
0137
cafe
3414
5556
0a5c
0139
cafe
380d
5556
0a5c
01c6
cafe
3c1d
5556
0a5c
019f
cafe
2005
5556
0a5c
00e8
cafe
2415
5556
0a60
0194
cafe
280e
5556
0a60
0206
cafe
2c1e
5556
0a60
0236
cafe
3006
5556
0a60
0254
cafe
3416
5556
0a64
00cc
cafe
380f
5556
0a64
01c4
cafe
3c1f
5556
0a64
0172
cafe
2007
5556
0a64
019e
cafe
2417
5556
0a68
0279
cafe
2808
5556
0a68
01e0
cafe
2c18
5556
0a68
01fd
cafe
3000
5556
-
0a68
00ee
cafe
3410
5556
0a6c
01a9
cafe
3809
5556
0a6c
0188
cafe
3c19
5556
0a6c
0203
cafe
2001
5556
0a6c
01b7
cafe
2411
5556
0a70
021d
cafe
280a
5556
0a70
01cb
cafe
2c1a
5556
0a70
01c7
cafe
3002
5556
0a70
020a
cafe
3412
5556
0a74
0140
cafe
380b
5556
0a74
01dd
cafe
3c1b
5556
0a74
01f2
cafe
2003
5556
0a74
01d0
cafe
2413
5556
0a78
01c6
cafe
280c
5556
0a78
0152
cafe
2c1c
5556
0a78
01e3
cafe
3004
5556
0a78
0138
cafe
3414
5556
0a7c
0139
cafe
380d
5556
0a7c
01c5
cafe
3c1d
5556
0a7c
01a5
cafe
2005
5556
0a7c
00e9
cafe
2415
5556
0a80
019b
cafe
280e
5556
0a80
020b
cafe
2c1e
5556
0a80
0235
cafe
3006
5556
0a80
0256
cafe
3416
5556
0a84
00ce
cafe
380f
5556
0a84
01c0
cafe
3c1f
5556
0a84
016a
cafe
2007
5556
0a84
0198
cafe
2417
5556
0a88
0276
cafe
2808
5556
0a88
01dd
cafe
2c18
5556
0a88
01fe
cafe
3000
5556
0a88
00ef
cafe
3410
5556
0a8c
01a3
cafe
3809
5556
0a8c
0188
cafe
3c19
5556
0a8c
0202
cafe
2001
5556
0a8c
01b7
cafe
2411
5556
0a90
0217
cafe
280a
5556
0a90
01cf
cafe
2c1a
5556
0a90
01c6
cafe
3002
5556
0a90
0210
cafe
3412
5556
0a94
013c
cafe
380b
5556
0a94
01dc
cafe
3c1b
5556
0a94
01ef
cafe
2003
5556
0a94
01cf
cafe
2413
5556
0a98
01c4
cafe
280c
5556
0a98
0155
cafe
2c1c
5556
0a98
01e9
cafe
3004
5556
0a98
013d
cafe
3414
5556
0a9c
0137
cafe
380d
5556
0a9c
01c8
cafe
3c1d
5556
0a9c
-
01a0
cafe
2005
5556
0a9c
00e6
cafe
2415
5556
0aa0
019c
cafe
280e
5556
0aa0
0212
cafe
2c1e
5556
0aa0
0239
cafe
3006
5556
0aa0
025b
cafe
3416
5556
0aa4
00d3
cafe
380f
5556
0aa4
01bc
cafe
3c1f
5556
0aa4
0163
cafe
2007
5556
0aa4
0198
cafe
2417
5556
0aa8
0276
cafe
2808
5556
0aa8
01dd
cafe
2c18
5556
0aa8
01fd
cafe
3000
5556
0aa8
00f0
cafe
3410
5556
0aac
01a5
cafe
3809
5556
0aac
0182
cafe
3c19
5556
0aac
0204
cafe
2001
5556
0aac
01b6
cafe
2411
5556
0ab0
0215
cafe
280a
5556
0ab0
01cb
cafe
2c1a
5556
0ab0
01c2
cafe
3002
5556
0ab0
020d
cafe
3412
5556
0ab4
013d
cafe
380b
5556
0ab4
01e5
cafe
3c1b
5556
0ab4
01ec
cafe
2003
5556
0ab4
01cb
cafe
2413
5556
0ab8
01c6
cafe
280c
5556
0ab8
0153
cafe
2c1c
5556
0ab8
01ec
cafe
3004
5556
0ab8
0138
cafe
3414
5556
0abc
0136
cafe
380d
5556
0abc
01c8
cafe
3c1d
5556
0abc
01a8
cafe
2005
5556
0abc
00f1
cafe
2415
5556
0ac0
019f
cafe
280e
5556
0ac0
0216
cafe
2c1e
5556
0ac0
0237
cafe
3006
5556
0ac0
025e
cafe
3416
5556
0ac4
00d3
cafe
380f
5556
0ac4
01ba
cafe
3c1f
5556
0ac4
0161
cafe
2007
5556
0ac4
0195
cafe
2417
5556
0ac8
0279
cafe
2808
5556
0ac8
01d3
cafe
2c18
5556
0ac8
01f7
cafe
3000
5556
0ac8
00f2
cafe
3410
5556
0acc
01a6
cafe
3809
5556
0acc
0185
cafe
3c19
5556
0acc
020c
cafe
2001
5556
0acc
01b3
cafe
2411
5556
0ad0
0213
cafe
280a
5556
0ad0
01c6
-
cafe
2c1a
5556
0ad0
01be
cafe
3002
5556
0ad0
0209
cafe
3412
5556
0ad4
0147
cafe
380b
5556
0ad4
01e9
cafe
3c1b
5556
0ad4
01ee
cafe
2003
5556
0ad4
01cb
cafe
2413
5556
0ad8
01cd
cafe
280c
5556
0ad8
0153
cafe
2c1c
5556
0ad8
01ed
cafe
3004
5556
0ad8
0135
cafe
3414
5556
0adc
0134
cafe
380d
5556
0adc
01c8
cafe
3c1d
5556
0adc
01a5
cafe
2005
5556
0adc
00f1
cafe
2415
5556
0ae0
019e
cafe
280e
5556
0ae0
0210
cafe
2c1e
5556
0ae0
0237
cafe
3006
5556
0ae0
025d
cafe
3416
5556
0ae4
00d4
cafe
380f
5556
0ae4
01ba
cafe
3c1f
5556
0ae4
0162
cafe
2007
5556
0ae4
0196
cafe
2417
5556
0ae8
0279
cafe
2808
5556
0ae8
01d9
cafe
2c18
5556
0ae8
01f6
cafe
3000
5556
0ae8
00f3
cafe
3410
5556
0aec
01a0
cafe
3809
5556
0aec
0180
cafe
3c19
5556
0aec
0208
cafe
2001
5556
0aec
01b4
cafe
2411
5556
0af0
0215
cafe
280a
5556
0af0
01c0
cafe
2c1a
5556
0af0
01c2
cafe
3002
5556
0af0
0203
cafe
3412
5556
0af4
0142
cafe
380b
5556
0af4
01e8
cafe
3c1b
5556
0af4
01ed
cafe
2003
5556
0af4
01c8
cafe
2413
5556
0af8
01ca
cafe
280c
5556
0af8
0154
cafe
2c1c
5556
0af8
01f5
cafe
3004
5556
0af8
013f
cafe
3414
5556
0afc
0135
cafe
380d
5556
0afc
01cc
cafe
3c1d
5556
0afc
01a4
cafe
2005
5556
0afc
00f0
cafe
2415
5556
0b00
019b
cafe
280e
5556
0b00
0212
cafe
2c1e
5556
0b00
0232
cafe
3006
5556
0b00
0264
cafe
3416
5556
0b04
00d7
cafe
-
380f
5556
0b04
01be
cafe
3c1f
5556
0b04
0163
cafe
2007
5556
0b04
018f
cafe
2417
5556
0b08
0274
cafe
2808
5556
0b08
01d1
cafe
2c18
5556
0b08
01f5
cafe
3000
5556
0b08
00f3
cafe
3410
5556
0b0c
01a3
cafe
3809
5556
0b0c
0185
cafe
3c19
5556
0b0c
020b
cafe
2001
5556
0b0c
01ae
cafe
2411
5556
0b10
0215
cafe
280a
5556
0b10
01bf
cafe
2c1a
5556
0b10
01c6
cafe
3002
5556
0b10
020a
cafe
3412
5556
0b14
0144
cafe
380b
5556
0b14
01ea
cafe
3c1b
5556
0b14
01eb
cafe
2003
5556
0b14
01c7
cafe
2413
5556
0b18
01ca
cafe
280c
5556
0b18
014f
cafe
2c1c
5556
0b18
01f0
cafe
3004
5556
0b18
0144
cafe
3414
5556
0b1c
0135
cafe
380d
5556
0b1c
01cb
cafe
3c1d
5556
0b1c
01a7
cafe
2005
5556
0b1c
00ea
cafe
2415
5556
0b20
0199
cafe
280e
5556
0b20
0210
cafe
2c1e
5556
0b20
022f
cafe
3006
5556
0b20
025f
cafe
3416
5556
0b24
00d5
cafe
380f
5556
0b24
01ba
cafe
3c1f
5556
0b24
0164
cafe
2007
5556
0b24
0194
cafe
2417
5556
0b28
0274
cafe
2808
5556
0b28
01d1
cafe
2c18
5556
0b28
01f5
cafe
3000
5556
0b28
00f2
cafe
3410
5556
0b2c
01a4
cafe
3809
5556
0b2c
0187
cafe
3c19
5556
0b2c
020e
cafe
2001
5556
0b2c
01ad
cafe
2411
5556
0b30
020f
cafe
280a
5556
0b30
01f3
cafe
2c1a
5556
0b30
0204
cafe
3002
5556
0b30
023b
cafe
3412
5556
0b34
0177
cafe
380b
5556
0b34
02be
cafe
3c1b
5556
0b34
02bb
cafe
2003
5556
0b34
0296
cafe
2413
-
5556
0b38
029f
cafe
280c
5556
0b38
02bb
cafe
2c1c
5556
0b38
0354
cafe
3004
5556
0b38
02ab
cafe
3414
5556
0b3c
029b
cafe
380d
5556
0b3c
03c0
cafe
3c1d
5556
0b3c
0392
cafe
2005
5556
0b3c
02cf
cafe
2415
5556
0b40
0390
cafe
280e
5556
0b40
047f
cafe
2c1e
5556
0b40
0491
cafe
3006
5556
0b40
04cf
cafe
3416
5556
0b44
0347
cafe
380f
5556
0b44
0491
cafe
3c1f
5556
0b44
0435
cafe
2007
5556
0b44
046c
cafe
2417
5556
0b48
0556
cafe
2808
5556
0b48
050e
cafe
2c18
5556
0b48
052b
cafe
3000
5556
0b48
0437
cafe
3410
5556
0b4c
04f7
cafe
3809
5556
0b4c
051b
cafe
3c19
5556
0b4c
05a7
cafe
2001
5556
0b4c
053a
cafe
2411
5556
0b50
05b3
cafe
280a
5556
0b50
059f
cafe
2c1a
5556
0b50
05ae
cafe
3002
5556
0b50
05e6
cafe
3412
5556
0b54
0538
cafe
380b
5556
0b54
0613
cafe
3c1b
5556
0b54
0619
cafe
2003
5556
0b54
05ec
cafe
2413
5556
0b58
0602
cafe
280c
5556
0b58
05cb
cafe
2c1c
5556
0b58
0660
cafe
3004
5556
0b58
05ab
cafe
3414
5556
0b5c
05ae
cafe
380d
5556
0b5c
067b
cafe
3c1d
5556
0b5c
0647
cafe
2005
5556
0b5c
0586
cafe
2415
5556
0b60
0656
cafe
280e
5556
0b60
06f1
cafe
2c1e
5556
0b60
0708
cafe
3006
5556
0b60
0748
cafe
3416
5556
0b64
05ba
cafe
380f
5556
0b64
06c4
cafe
3c1f
5556
0b64
0674
cafe
2007
5556
0b64
069a
cafe
2417
5556
0b68
0790
cafe
2808
5556
0b68
0709
cafe
2c18
5556
0b68
072c
cafe
3000
5556
-
0b68
0633
cafe
3410
5556
0b6c
06fd
cafe
3809
5556
0b6c
06dd
cafe
3c19
5556
0b6c
076a
cafe
2001
5556
0b6c
06fe
cafe
2411
5556
0b70
0779
cafe
280a
5556
0b70
073e
cafe
2c1a
5556
0b70
0743
cafe
3002
5556
0b70
077a
cafe
3412
5556
0b74
06d9
cafe
380b
5556
0b74
077a
cafe
3c1b
5556
0b74
0787
cafe
2003
5556
0b74
0752
cafe
2413
5556
0b78
0775
cafe
280c
5556
0b78
070c
cafe
2c1c
5556
0b78
07a6
cafe
3004
5556
0b78
06e6
cafe
3414
5556
0b7c
06f6
cafe
380d
5556
0b7c
078d
cafe
3c1d
5556
0b7c
0766
cafe
2005
5556
0b7c
069b
cafe
2415
5556
0b80
0770
cafe
280e
5556
0b80
07e5
cafe
2c1e
5556
0b80
0801
cafe
3006
5556
0b80
0841
cafe
3416
5556
0b84
06b2
cafe
380f
5556
0b84
0798
cafe
3c1f
5556
0b84
075a
cafe
2007
5556
0b84
0772
cafe
2417
5556
0b88
086b
cafe
2808
5556
0b88
07bc
cafe
2c18
5556
0b88
07eb
cafe
3000
5556
0b88
06ed
cafe
3410
5556
0b8c
07bd
cafe
3809
5556
0b8c
077a
cafe
3c19
5556
0b8c
080f
cafe
2001
5556
0b8c
07a2
cafe
2411
5556
0b90
081f
cafe
280a
5556
0b90
07cf
cafe
2c1a
5556
0b90
07d2
cafe
3002
5556
0b90
080a
cafe
3412
5556
0b94
0763
cafe
380b
5556
0b94
07e9
cafe
3c1b
5556
0b94
0805
cafe
2003
5556
0b94
07cb
cafe
2413
5556
0b98
07ea
cafe
280c
5556
0b98
076d
cafe
2c1c
5556
0b98
0805
cafe
3004
5556
0b98
073e
cafe
3414
5556
0b9c
075d
cafe
380d
5556
0b9c
07dc
cafe
3c1d
5556
0b9c
-
07be
cafe
2005
5556
0b9c
06e7
cafe
2415
5556
0ba0
07c4
cafe
280e
5556
0ba0
0827
cafe
2c1e
5556
0ba0
0847
cafe
3006
5556
0ba0
0886
cafe
3416
5556
0ba4
06ee
cafe
380f
5556
0ba4
07c6
cafe
3c1f
5556
0ba4
0793
cafe
2007
5556
0ba4
07a3
cafe
2417
5556
0ba8
08a6
cafe
2808
5556
0ba8
07e3
cafe
2c18
5556
0ba8
080f
cafe
3000
5556
0ba8
0704
cafe
3410
5556
0bac
07e5
cafe
3809
5556
0bac
078e
cafe
3c19
5556
0bac
0829
cafe
2001
5556
0bac
07b7
cafe
2411
5556
0bb0
0837
cafe
280a
5556
0bb0
07dd
cafe
2c1a
5556
0bb0
07de
cafe
3002
5556
0bb0
0811
cafe
3412
5556
0bb4
076d
cafe
380b
5556
0bb4
07e4
cafe
3c1b
5556
0bb4
080c
cafe
2003
5556
0bb4
07c8
cafe
2413
5556
0bb8
07e8
cafe
280c
5556
0bb8
0765
cafe
2c1c
5556
0bb8
0800
cafe
3004
5556
0bb8
072c
cafe
3414
5556
0bbc
0752
cafe
380d
5556
0bbc
07c1
cafe
3c1d
5556
0bbc
07b1
cafe
2005
5556
0bbc
06cf
cafe
2415
5556
0bc0
07b9
cafe
280e
5556
0bc0
0815
cafe
2c1e
5556
0bc0
082c
cafe
3006
5556
0bc0
086a
cafe
3416
5556
0bc4
06c8
cafe
380f
5556
0bc4
07a1
cafe
3c1f
5556
0bc4
0773
cafe
2007
5556
0bc4
0783
cafe
2417
5556
0bc8
088e
cafe
2808
5556
0bc8
07c1
cafe
2c18
5556
0bc8
07eb
cafe
3000
5556
0bc8
06cd
cafe
3410
5556
0bcc
07bb
cafe
3809
5556
0bcc
0758
cafe
3c19
5556
0bcc
0804
cafe
2001
5556
0bcc
078d
cafe
2411
5556
0bd0
080b
cafe
280a
5556
0bd0
07aa
-
cafe
2c1a
5556
0bd0
07ab
cafe
3002
5556
0bd0
07db
cafe
3412
5556
0bd4
073a
cafe
380b
5556
0bd4
07b3
cafe
3c1b
5556
0bd4
07d8
cafe
2003
5556
0bd4
078d
cafe
2413
5556
0bd8
07ab
cafe
280c
5556
0bd8
0725
cafe
2c1c
5556
0bd8
07cf
cafe
3004
5556
0bd8
06f5
cafe
3414
5556
0bdc
0713
cafe
380d
5556
0bdc
077d
cafe
3c1d
5556
0bdc
076f
cafe
2005
5556
0bdc
0684
cafe
2415
5556
0be0
077c
cafe
280e
5556
0be0
07d7
cafe
2c1e
5556
0be0
07f5
cafe
3006
5556
0be0
082c
cafe
3416
5556
0be4
0683
cafe
380f
5556
0be4
075f
cafe
3c1f
5556
0be4
072f
cafe
2007
5556
0be4
073d
cafe
2417
5556
0be8
084e
cafe
2808
5556
0be8
0777
cafe
2c18
5556
0be8
07a8
cafe
3000
5556
0be8
0684
cafe
3410
5556
0bec
076d
cafe
3809
5556
0bec
070c
cafe
3c19
5556
0bec
07b7
cafe
2001
5556
0bec
0736
cafe
2411
5556
0bf0
07cd
cafe
280a
5556
0bf0
0767
cafe
2c1a
5556
0bf0
0760
cafe
3002
5556
0bf0
078e
cafe
3412
5556
0bf4
06ea
cafe
380b
5556
0bf4
0760
cafe
3c1b
5556
0bf4
078b
cafe
2003
5556
0bf4
0739
cafe
2413
5556
0bf8
0765
cafe
280c
5556
0bf8
06d0
cafe
2c1c
5556
0bf8
0780
cafe
3004
5556
0bf8
069c
cafe
3414
5556
0bfc
06c3
cafe
380d
5556
0bfc
0722
cafe
3c1d
5556
0bfc
071c
cafe
2005
5556
0bfc
062c
cafe
2415
5556
0c00
0725
cafe
280e
5556
0c00
077f
cafe
2c1e
5556
0c00
07ac
cafe
3006
5556
0c00
07d6
cafe
3416
5556
0c04
0628
cafe
-
380f
5556
0c04
070f
cafe
3c1f
5556
0c04
06d0
cafe
2007
5556
0c04
06e8
cafe
2417
5556
0c08
07ff
cafe
2808
5556
0c08
071f
cafe
2c18
5556
0c08
0753
cafe
3000
5556
0c08
0621
cafe
3410
5556
0c0c
0711
cafe
3809
5556
0c0c
06b5
cafe
3c19
5556
0c0c
075e
cafe
2001
5556
0c0c
06d8
cafe
2411
5556
0c10
0773
cafe
280a
5556
0c10
0714
cafe
2c1a
5556
0c10
0711
cafe
3002
5556
0c10
073d
cafe
3412
5556
0c14
0695
cafe
380b
5556
0c14
0705
cafe
3c1b
5556
0c14
0733
cafe
2003
5556
0c14
06e6
cafe
2413
5556
0c18
070b
cafe
280c
5556
0c18
067b
cafe
2c1c
5556
0c18
072c
cafe
3004
5556
0c18
0640
cafe
3414
5556
0c1c
066b
cafe
380d
5556
0c1c
06cc
cafe
3c1d
5556
0c1c
06c4
cafe
2005
5556
0c1c
05d1
cafe
2415
5556
0c20
06cf
cafe
280e
5556
0c20
0721
cafe
2c1e
5556
0c20
0753
cafe
3006
5556
0c20
0778
cafe
3416
5556
0c24
05ca
cafe
380f
5556
0c24
06b6
cafe
3c1f
5556
0c24
0671
cafe
2007
5556
0c24
0693
cafe
2417
5556
0c28
07ad
cafe
2808
5556
0c28
06c5
cafe
2c18
5556
0c28
06fd
cafe
3000
5556
0c28
05ba
cafe
3410
5556
0c2c
06bc
cafe
3809
5556
0c2c
065a
cafe
3c19
5556
0c2c
06fb
cafe
2001
5556
0c2c
0679
cafe
2411
5556
0c30
0717
cafe
280a
5556
0c30
06c3
cafe
2c1a
5556
0c30
06b5
cafe
3002
5556
0c30
06e4
cafe
3412
5556
0c34
063a
cafe
380b
5556
0c34
06ad
cafe
3c1b
5556
0c34
06e2
cafe
2003
5556
0c34
068f
cafe
2413
-
5556
0c38
06b4
cafe
280c
5556
0c38
0626
cafe
2c1c
5556
0c38
06d5
cafe
3004
5556
0c38
05dc
cafe
3414
5556
0c3c
060c
cafe
380d
5556
0c3c
066f
cafe
3c1d
5556
0c3c
066c
cafe
2005
5556
0c3c
0576
cafe
2415
5556
0c40
0674
cafe
280e
5556
0c40
06cd
cafe
2c1e
5556
0c40
06fb
cafe
3006
5556
0c40
071f
cafe
3416
5556
0c44
0579
cafe
380f
5556
0c44
065b
cafe
3c1f
5556
0c44
0615
cafe
2007
5556
0c44
0637
cafe
2417
5556
0c48
0753
cafe
2808
5556
0c48
0670
cafe
2c18
5556
0c48
06a0
cafe
3000
5556
0c48
055a
cafe
3410
5556
0c4c
0663
cafe
3809
5556
0c4c
0601
cafe
3c19
5556
0c4c
06a4
cafe
2001
5556
0c4c
061a
cafe
2411
5556
0c50
06bb
cafe
280a
5556
0c50
066f
cafe
2c1a
5556
0c50
065a
cafe
3002
5556
0c50
068a
cafe
3412
5556
0c54
05e4
cafe
380b
5556
0c54
065d
cafe
3c1b
5556
0c54
068d
cafe
2003
5556
0c54
063c
cafe
2413
5556
0c58
0659
cafe
280c
5556
0c58
05ce
cafe
2c1c
5556
0c58
067e
cafe
3004
5556
0c58
0588
cafe
3414
5556
0c5c
05b6
cafe
380d
5556
0c5c
0618
cafe
3c1d
5556
0c5c
0610
cafe
2005
5556
0c5c
0521
cafe
2415
5556
0c60
0615
cafe
280e
5556
0c60
067b
cafe
2c1e
5556
0c60
06a2
cafe
3006
5556
0c60
06c8
cafe
3416
5556
0c64
0519
cafe
380f
5556
0c64
0607
cafe
3c1f
5556
0c64
05c3
cafe
2007
5556
0c64
05e0
cafe
2417
5556
0c68
06ff
cafe
2808
5556
0c68
061a
cafe
2c18
5556
0c68
064c
cafe
3000
5556
-
0c68
04fd
cafe
3410
5556
0c6c
060c
cafe
3809
5556
0c6c
05a5
cafe
3c19
5556
0c6c
064f
cafe
2001
5556
0c6c
05c6
cafe
2411
5556
0c70
0666
cafe
280a
5556
0c70
061d
cafe
2c1a
5556
0c70
0605
cafe
3002
5556
0c70
0636
cafe
3412
5556
0c74
058b
cafe
380b
5556
0c74
0608
cafe
3c1b
5556
0c74
0634
cafe
2003
5556
0c74
05ec
cafe
2413
5556
0c78
0603
cafe
280c
5556
0c78
0577
cafe
2c1c
5556
0c78
062a
cafe
3004
5556
0c78
0531
cafe
3414
5556
0c7c
0564
cafe
380d
5556
0c7c
05bd
cafe
3c1d
5556
0c7c
05bf
cafe
2005
5556
0c7c
04cc
cafe
2415
5556
0c80
05c6
cafe
280e
5556
0c80
062e
cafe
2c1e
5556
0c80
064b
cafe
3006
5556
0c80
066d
cafe
3416
5556
0c84
04bf
cafe
380f
5556
0c84
05b3
cafe
3c1f
5556
0c84
0573
cafe
2007
5556
0c84
058e
cafe
2417
5556
0c88
06ae
cafe
2808
5556
0c88
05ce
cafe
2c18
5556
0c88
0601
cafe
3000
5556
0c88
04ae
cafe
3410
5556
0c8c
05be
cafe
3809
5556
0c8c
0559
cafe
3c19
5556
0c8c
05fb
cafe
2001
5556
0c8c
0574
cafe
2411
5556
0c90
0616
cafe
280a
5556
0c90
05cc
cafe
2c1a
5556
0c90
05b1
cafe
3002
5556
0c90
05e1
cafe
3412
5556
0c94
0539
cafe
380b
5556
0c94
05c1
cafe
3c1b
5556
0c94
05e6
cafe
2003
5556
0c94
059b
cafe
2413
5556
0c98
05bc
cafe
280c
5556
0c98
0529
cafe
2c1c
5556
0c98
05e1
cafe
3004
5556
0c98
04e0
cafe
3414
5556
0c9c
0515
cafe
380d
5556
0c9c
056f
cafe
3c1d
5556
0c9c
-
056c
cafe
2005
5556
0c9c
047a
cafe
2415
5556
0ca0
0578
cafe
280e
5556
0ca0
05de
cafe
2c1e
5556
0ca0
05f4
cafe
3006
5556
0ca0
0621
cafe
3416
5556
0ca4
0471
cafe
380f
5556
0ca4
056c
cafe
3c1f
5556
0ca4
0527
cafe
2007
5556
0ca4
0542
cafe
2417
5556
0ca8
065e
cafe
2808
5556
0ca8
0586
cafe
2c18
5556
0ca8
05bd
cafe
3000
5556
0ca8
0460
cafe
3410
5556
0cac
0570
cafe
3809
5556
0cac
0506
cafe
3c19
5556
0cac
05ac
cafe
2001
5556
0cac
0527
cafe
2411
5556
0cb0
05c7
cafe
280a
5556
0cb0
0585
cafe
2c1a
5556
0cb0
0564
cafe
3002
5556
0cb0
0598
cafe
3412
5556
0cb4
04f3
cafe
380b
5556
0cb4
057e
cafe
3c1b
5556
0cb4
059b
cafe
2003
5556
0cb4
0557
cafe
2413
5556
0cb8
056d
cafe
280c
5556
0cb8
04e2
cafe
2c1c
5556
0cb8
0599
cafe
3004
5556
0cb8
048d
cafe
3414
5556
0cbc
04c7
cafe
380d
5556
0cbc
0520
cafe
3c1d
5556
0cbc
0520
cafe
2005
5556
0cbc
0430
cafe
2415
5556
0cc0
0529
cafe
280e
5556
0cc0
0581
cafe
2c1e
5556
0cc0
05a7
cafe
3006
5556
0cc0
05ca
cafe
3416
5556
0cc4
041b
cafe
380f
5556
0cc4
0519
cafe
3c1f
5556
0cc4
04da
cafe
2007
5556
0cc4
04f9
cafe
2417
5556
0cc8
0606
cafe
2808
5556
0cc8
0534
cafe
2c18
5556
0cc8
056f
cafe
3000
5556
0cc8
0409
cafe
3410
5556
0ccc
0515
cafe
3809
5556
0ccc
04bb
cafe
3c19
5556
0ccc
055d
cafe
2001
5556
0ccc
04e0
cafe
2411
5556
0cd0
057a
cafe
280a
5556
0cd0
0539
-
cafe
2c1a
5556
0cd0
051c
cafe
3002
5556
0cd0
054a
cafe
3412
5556
0cd4
04a3
cafe
380b
5556
0cd4
0535
cafe
3c1b
5556
0cd4
0550
cafe
2003
5556
0cd4
050f
cafe
2413
5556
0cd8
0526
cafe
280c
5556
0cd8
049d
cafe
2c1c
5556
0cd8
054a
cafe
3004
5556
0cd8
0448
cafe
3414
5556
0cdc
0487
cafe
380d
5556
0cdc
04e0
cafe
3c1d
5556
0cdc
04dd
cafe
2005
5556
0cdc
03eb
cafe
2415
5556
0ce0
04ea
cafe
280e
5556
0ce0
0539
cafe
2c1e
5556
0ce0
0565
cafe
3006
5556
0ce0
058e
cafe
3416
5556
0ce4
03d9
cafe
380f
5556
0ce4
04df
cafe
3c1f
5556
0ce4
0498
cafe
2007
5556
0ce4
04ba
cafe
2417
5556
0ce8
05c7
cafe
2808
5556
0ce8
04f8
cafe
2c18
5556
0ce8
052b
cafe
3000
5556
0ce8
03bf
cafe
3410
5556
0cec
04d8
cafe
3809
5556
0cec
0475
cafe
3c19
5556
0cec
0511
cafe
2001
5556
0cec
04a5
cafe
2411
5556
0cf0
0540
cafe
280a
5556
0cf0
04f3
cafe
2c1a
5556
0cf0
04db
cafe
3002
5556
0cf0
0505
cafe
3412
5556
0cf4
045b
cafe
380b
5556
0cf4
04f1
cafe
3c1b
5556
0cf4
0517
cafe
2003
5556
0cf4
04d4
cafe
2413
5556
0cf8
04e7
cafe
280c
5556
0cf8
045c
cafe
2c1c
5556
0cf8
0507
cafe
3004
5556
0cf8
0407
cafe
3414
5556
0cfc
0444
cafe
380d
5556
0cfc
049c
cafe
3c1d
5556
0cfc
0498
cafe
2005
5556
0cfc
03a7
cafe
2415
5556
0d00
04ac
cafe
280e
5556
0d00
04fe
cafe
2c1e
5556
0d00
0524
cafe
3006
5556
0d00
0557
cafe
3416
5556
0d04
039d
cafe
-
380f
5556
0d04
04a8
cafe
3c1f
5556
0d04
0458
cafe
2007
5556
0d04
0478
cafe
2417
5556
0d08
058a
cafe
2808
5556
0d08
04ba
cafe
2c18
5556
0d08
04ed
cafe
3000
5556
0d08
037f
cafe
3410
5556
0d0c
049e
cafe
3809
5556
0d0c
043b
cafe
3c19
5556
0d0c
04d7
cafe
2001
5556
0d0c
0467
cafe
2411
5556
0d10
0502
cafe
280a
5556
0d10
04ba
cafe
2c1a
5556
0d10
0498
cafe
3002
5556
0d10
04c8
cafe
3412
5556
0d14
0419
cafe
380b
5556
0d14
04b2
cafe
3c1b
5556
0d14
04d8
cafe
2003
5556
0d14
0496
cafe
2413
5556
0d18
04a4
cafe
280c
5556
0d18
041d
cafe
2c1c
5556
0d18
04ca
cafe
3004
5556
0d18
03cd
cafe
3414
5556
0d1c
0404
cafe
380d
5556
0d1c
0461
cafe
3c1d
5556
0d1c
045b
cafe
2005
5556
0d1c
036d
cafe
2415
5556
0d20
0473
cafe
280e
5556
0d20
04c8
cafe
2c1e
5556
0d20
04e8
cafe
3006
5556
0d20
051b
cafe
3416
5556
0d24
035f
cafe
380f
5556
0d24
0472
cafe
3c1f
5556
0d24
0421
cafe
2007
5556
0d24
0440
cafe
2417
5556
0d28
0555
cafe
2808
5556
0d28
0482
cafe
2c18
5556
0d28
04af
cafe
3000
5556
0d28
033e
cafe
3410
5556
0d2c
0466
cafe
3809
5556
0d2c
0406
cafe
3c19
5556
0d2c
04a5
cafe
2001
5556
0d2c
042f
cafe
2411
5556
0d30
04cc
cafe
280a
5556
0d30
047f
cafe
2c1a
5556
0d30
0461
cafe
3002
5556
0d30
048e
cafe
3412
5556
0d34
03db
cafe
380b
5556
0d34
0475
cafe
3c1b
5556
0d34
0498
cafe
2003
5556
0d34
045a
cafe
2413
-
5556
0d38
0469
cafe
280c
5556
0d38
03de
cafe
2c1c
5556
0d38
0494
cafe
3004
5556
0d38
0394
cafe
3414
5556
0d3c
03c9
cafe
380d
5556
0d3c
0431
cafe
3c1d
5556
0d3c
0424
cafe
2005
5556
0d3c
0331
cafe
2415
5556
0d40
0431
cafe
280e
5556
0d40
048f
cafe
2c1e
5556
0d40
04ad
cafe
3006
5556
0d40
04e0
cafe
3416
5556
0d44
032c
cafe
380f
5556
0d44
043b
cafe
3c1f
5556
0d44
03e1
cafe
2007
5556
0d44
040a
cafe
2417
5556
0d48
051a
cafe
2808
5556
0d48
0451
cafe
2c18
5556
0d48
047a
cafe
3000
5556
0d48
0304
cafe
3410
5556
0d4c
042c
cafe
3809
5556
0d4c
03d1
cafe
3c19
5556
0d4c
0470
cafe
2001
5556
0d4c
03fc
cafe
2411
5556
0d50
0499
cafe
280a
5556
0d50
0449
cafe
2c1a
5556
0d50
0427
cafe
3002
5556
0d50
045d
cafe
3412
5556
0d54
03a2
cafe
380b
5556
0d54
043f
cafe
3c1b
5556
0d54
0464
cafe
2003
5556
0d54
041f
cafe
2413
5556
0d58
0435
cafe
280c
5556
0d58
03a3
cafe
2c1c
5556
0d58
0463
cafe
3004
5556
0d58
0365
cafe
3414
5556
0d5c
0396
cafe
380d
5556
0d5c
0400
cafe
3c1d
5556
0d5c
03ea
cafe
2005
5556
0d5c
02fe
cafe
2415
5556
0d60
03fc
cafe
280e
5556
0d60
0455
cafe
2c1e
5556
0d60
0477
cafe
3006
5556
0d60
04a5
cafe
3416
5556
0d64
02f8
cafe
380f
5556
0d64
0408
cafe
3c1f
5556
0d64
03b0
cafe
2007
5556
0d64
03d3
cafe
2417
5556
0d68
04e8
cafe
2808
5556
0d68
0420
cafe
2c18
5556
0d68
0449
cafe
3000
5556
-
0d68
02cf
cafe
3410
5556
0d6c
03f6
cafe
3809
5556
0d6c
03a2
cafe
3c19
5556
0d6c
0442
cafe
2001
5556
0d6c
03ca
cafe
2411
5556
0d70
0469
cafe
280a
5556
0d70
0414
cafe
2c1a
5556
0d70
03fe
cafe
3002
5556
0d70
042f
cafe
3412
5556
0d74
0369
cafe
380b
5556
0d74
0411
cafe
3c1b
5556
0d74
042d
cafe
2003
5556
0d74
03ed
cafe
2413
5556
0d78
0408
cafe
280c
5556
0d78
036c
cafe
2c1c
5556
0d78
042f
cafe
3004
5556
0d78
0330
cafe
3414
5556
0d7c
0361
cafe
380d
5556
0d7c
03d7
cafe
3c1d
5556
0d7c
03b7
cafe
2005
5556
0d7c
02c9
cafe
2415
5556
0d80
03cc
cafe
280e
5556
0d80
0423
cafe
2c1e
5556
0d80
0441
cafe
3006
5556
0d80
0472
cafe
3416
5556
0d84
02c7
cafe
380f
5556
0d84
03d3
cafe
3c1f
5556
0d84
0383
cafe
2007
5556
0d84
03a7
cafe
2417
5556
0d88
04b5
cafe
2808
5556
0d88
03ec
cafe
2c18
5556
0d88
0419
cafe
3000
5556
0d88
02a3
cafe
3410
5556
0d8c
03c5
cafe
3809
5556
0d8c
037b
cafe
3c19
5556
0d8c
040d
cafe
2001
5556
0d8c
0398
cafe
2411
5556
0d90
0434
cafe
280a
5556
0d90
03e1
cafe
2c1a
5556
0d90
03c9
cafe
3002
5556
0d90
03ff
cafe
3412
5556
0d94
033a
cafe
380b
5556
0d94
03e1
cafe
3c1b
5556
0d94
0401
cafe
2003
5556
0d94
03be
cafe
2413
5556
0d98
03db
cafe
280c
5556
0d98
0342
cafe
2c1c
5556
0d98
0408
cafe
3004
5556
0d98
0301
cafe
3414
5556
0d9c
0330
cafe
380d
5556
0d9c
03a9
cafe
3c1d
5556
0d9c
-
038b
cafe
2005
5556
0d9c
02a6
cafe
2415
5556
0da0
03a1
cafe
280e
5556
0da0
03fa
cafe
2c1e
5556
0da0
0418
cafe
3006
5556
0da0
044b
cafe
3416
5556
0da4
029d
cafe
380f
5556
0da4
03ae
cafe
3c1f
5556
0da4
034f
cafe
2007
5556
0da4
037e
cafe
2417
5556
0da8
0486
cafe
2808
5556
0da8
03c4
cafe
2c18
5556
0da8
03e6
cafe
3000
5556
0da8
0279
cafe
3410
5556
0dac
0393
cafe
3809
5556
0dac
0353
cafe
3c19
5556
0dac
03e7
cafe
2001
5556
0dac
0368
cafe
2411
5556
0db0
040b
cafe
280a
5556
0db0
03b3
cafe
2c1a
5556
0db0
0397
cafe
3002
5556
0db0
03d1
cafe
3412
5556
0db4
0311
cafe
380b
5556
0db4
03b3
cafe
3c1b
5556
0db4
03e0
cafe
2003
5556
0db4
0392
cafe
2413
5556
0db8
03ac
cafe
280c
5556
0db8
0315
cafe
2c1c
5556
0db8
03db
cafe
3004
5556
0db8
02d5
cafe
3414
5556
0dbc
0302
cafe
380d
5556
0dbc
0381
cafe
3c1d
5556
0dbc
0362
cafe
2005
5556
0dbc
027d
cafe
2415
5556
0dc0
0375
cafe
280e
5556
0dc0
03d6
cafe
2c1e
5556
0dc0
03ef
cafe
3006
5556
0dc0
041e
cafe
3416
5556
0dc4
0275
cafe
380f
5556
0dc4
0384
cafe
3c1f
5556
0dc4
0320
cafe
2007
5556
0dc4
0354
cafe
2417
5556
0dc8
0459
cafe
2808
5556
0dc8
0399
cafe
2c18
5556
0dc8
03b6
cafe
3000
5556
0dc8
024f
cafe
3410
5556
0dcc
036c
cafe
3809
5556
0dcc
032b
cafe
3c19
5556
0dcc
03c1
cafe
2001
5556
0dcc
0345
cafe
2411
5556
0dd0
03de
cafe
280a
5556
0dd0
038b
-
cafe
2c1a
5556
0dd0
0371
cafe
3002
5556
0dd0
03a8
cafe
3412
5556
0dd4
02eb
cafe
380b
5556
0dd4
0389
cafe
3c1b
5556
0dd4
03b9
cafe
2003
5556
0dd4
0367
cafe
2413
5556
0dd8
0386
cafe
280c
5556
0dd8
02f1
cafe
2c1c
5556
0dd8
03b2
cafe
3004
5556
0dd8
02af
cafe
3414
5556
0ddc
02d9
cafe
380d
5556
0ddc
035b
cafe
3c1d
5556
0ddc
033b
cafe
2005
5556
0ddc
025d
cafe
2415
5556
0de0
0351
cafe
280e
5556
0de0
03af
cafe
2c1e
5556
0de0
03ca
cafe
3006
5556
0de0
03f5
cafe
3416
5556
0de4
024a
cafe
380f
5556
0de4
0357
cafe
3c1f
5556
0de4
02f3
cafe
2007
5556
0de4
032b
cafe
2417
5556
0de8
0433
cafe
2808
5556
0de8
036d
cafe
2c18
5556
0de8
0391
cafe
3000
5556
0de8
0230
cafe
3410
5556
0dec
0348
cafe
3809
5556
0dec
0307
cafe
3c19
5556
0dec
039c
cafe
2001
5556
0dec
0323
cafe
2411
5556
0df0
03b5
cafe
280a
5556
0df0
0365
cafe
2c1a
5556
0df0
034c
cafe
3002
5556
0df0
037c
cafe
3412
5556
0df4
02cc
cafe
380b
5556
0df4
036d
cafe
3c1b
5556
0df4
0391
cafe
2003
5556
0df4
033e
cafe
2413
5556
0df8
035d
cafe
280c
5556
0df8
02ca
cafe
2c1c
5556
0df8
0392
cafe
3004
5556
0df8
0294
cafe
3414
5556
0dfc
02b6
cafe
380d
5556
0dfc
0332
cafe
3c1d
5556
0dfc
0314
cafe
2005
5556
0dfc
0239
cafe
2415
5556
0e00
032a
cafe
280e
5556
0e00
0391
cafe
2c1e
5556
0e00
03a4
cafe
3006
5556
0e00
03d8
cafe
3416
5556
0e04
0229
cafe
-
380f
5556
0e04
0331
cafe
3c1f
5556
0e04
02d1
cafe
2007
5556
0e04
0302
cafe
2417
5556
0e08
040d
cafe
2808
5556
0e08
034d
cafe
2c18
5556
0e08
036c
cafe
3000
5556
0e08
021c
cafe
3410
5556
0e0c
0324
cafe
3809
5556
0e0c
02e7
cafe
3c19
5556
0e0c
037b
cafe
2001
5556
0e0c
02fd
cafe
2411
5556
0e10
038e
cafe
280a
5556
0e10
0344
cafe
2c1a
5556
0e10
0332
cafe
3002
5556
0e10
035e
cafe
3412
5556
0e14
02a9
cafe
380b
5556
0e14
0345
cafe
3c1b
5556
0e14
036b
cafe
2003
5556
0e14
031a
cafe
2413
5556
0e18
0339
cafe
280c
5556
0e18
02ac
cafe
2c1c
5556
0e18
036c
cafe
3004
5556
0e18
0273
cafe
3414
5556
0e1c
029a
cafe
380d
5556
0e1c
0318
cafe
3c1d
5556
0e1c
02f4
cafe
2005
5556
0e1c
0218
cafe
2415
5556
0e20
0308
cafe
280e
5556
0e20
036d
cafe
2c1e
5556
0e20
0386
cafe
3006
5556
0e20
03ba
cafe
3416
5556
0e24
020b
cafe
380f
5556
0e24
031a
cafe
3c1f
5556
0e24
02b1
cafe
2007
5556
0e24
02e3
cafe
2417
5556
0e28
03e7
cafe
2808
5556
0e28
0334
cafe
2c18
5556
0e28
034b
cafe
3000
5556
0e28
01fd
cafe
3410
5556
0e2c
0301
cafe
3809
5556
0e2c
02c2
cafe
3c19
5556
0e2c
0360
cafe
2001
5556
0e2c
02e1
cafe
2411
5556
0e30
0367
cafe
280a
5556
0e30
0322
cafe
2c1a
5556
0e30
0314
cafe
3002
5556
0e30
0344
cafe
3412
5556
0e34
028e
cafe
380b
5556
0e34
0327
cafe
3c1b
5556
0e34
0348
cafe
2003
5556
0e34
02f6
cafe
2413
-
5556
0e38
031a
cafe
280c
5556
0e38
028e
cafe
2c1c
5556
0e38
034b
cafe
3004
5556
0e38
0251
cafe
3414
5556
0e3c
027f
cafe
380d
5556
0e3c
02f9
cafe
3c1d
5556
0e3c
02de
cafe
2005
5556
0e3c
01fd
cafe
2415
5556
0e40
02e9
cafe
280e
5556
0e40
0355
cafe
2c1e
5556
0e40
0364
cafe
3006
5556
0e40
039e
cafe
3416
5556
0e44
01ed
cafe
380f
5556
0e44
02fd
cafe
3c1f
5556
0e44
0291
cafe
2007
5556
0e44
02c5
cafe
2417
5556
0e48
03c4
cafe
2808
5556
0e48
0313
cafe
2c18
5556
0e48
032c
cafe
3000
5556
0e48
01e3
cafe
3410
5556
0e4c
02e7
cafe
3809
5556
0e4c
02a0
cafe
3c19
5556
0e4c
0342
cafe
2001
5556
0e4c
02c1
cafe
2411
5556
0e50
033e
cafe
280a
5556
0e50
0309
cafe
2c1a
5556
0e50
02f1
cafe
3002
5556
0e50
0329
cafe
3412
5556
0e54
026d
cafe
380b
5556
0e54
030d
cafe
3c1b
5556
0e54
032e
cafe
2003
5556
0e54
02dc
cafe
2413
5556
0e58
02fc
cafe
280c
5556
0e58
026f
cafe
2c1c
5556
0e58
031f
cafe
3004
5556
0e58
0238
cafe
3414
5556
0e5c
0261
cafe
380d
5556
0e5c
02dd
cafe
3c1d
5556
0e5c
02c8
cafe
2005
5556
0e5c
01e4
cafe
2415
5556
0e60
02d3
cafe
280e
5556
0e60
033c
cafe
2c1e
5556
0e60
0348
cafe
3006
5556
0e60
0387
cafe
3416
5556
0e64
01d2
cafe
380f
5556
0e64
02e7
cafe
3c1f
5556
0e64
0275
cafe
2007
5556
0e64
02a3
cafe
2417
5556
0e68
03ac
cafe
2808
5556
0e68
02fc
cafe
2c18
5556
0e68
030e
cafe
3000
5556
-
0e68
01cc
cafe
3410
5556
0e6c
02cd
cafe
3809
5556
0e6c
0285
cafe
3c19
5556
0e6c
032a
cafe
2001
5556
0e6c
02a9
cafe
2411
5556
0e70
0328
cafe
280a
5556
0e70
02ee
cafe
2c1a
5556
0e70
02d5
cafe
3002
5556
0e70
0312
cafe
3412
5556
0e74
024f
cafe
380b
5556
0e74
02f6
cafe
3c1b
5556
0e74
0316
cafe
2003
5556
0e74
02c7
cafe
2413
5556
0e78
02e2
cafe
280c
5556
0e78
024f
cafe
2c1c
5556
0e78
0302
cafe
3004
5556
0e78
0220
cafe
3414
5556
0e7c
0248
cafe
380d
5556
0e7c
02c0
cafe
3c1d
5556
0e7c
02a5
cafe
2005
5556
0e7c
01c7
cafe
2415
5556
0e80
02b9
cafe
280e
5556
0e80
031b
cafe
2c1e
5556
0e80
032a
cafe
3006
5556
0e80
036a
cafe
3416
5556
0e84
01b6
cafe
380f
5556
0e84
02cc
cafe
3c1f
5556
0e84
0261
cafe
2007
5556
0e84
0288
cafe
2417
5556
0e88
038f
cafe
2808
5556
0e88
02e3
cafe
2c18
5556
0e88
02ff
cafe
3000
5556
0e88
01b8
cafe
3410
5556
0e8c
02b9
cafe
3809
5556
0e8c
026f
cafe
3c19
5556
0e8c
030b
cafe
2001
5556
0e8c
0291
cafe
2411
5556
0e90
030e
cafe
280a
5556
0e90
02ca
cafe
2c1a
5556
0e90
02bc
cafe
3002
5556
0e90
02f9
cafe
3412
5556
0e94
0235
cafe
380b
5556
0e94
02e2
cafe
3c1b
5556
0e94
02f8
cafe
2003
5556
0e94
02b4
cafe
2413
5556
0e98
02c6
cafe
280c
5556
0e98
0236
cafe
2c1c
5556
0e98
02e4
cafe
3004
5556
0e98
0206
cafe
3414
5556
0e9c
022d
cafe
380d
5556
0e9c
02a8
cafe
3c1d
5556
0e9c
-
028c
cafe
2005
5556
0e9c
01af
cafe
2415
5556
0ea0
02a0
cafe
280e
5556
0ea0
0300
cafe
2c1e
5556
0ea0
030f
cafe
3006
5556
0ea0
0350
cafe
3416
5556
0ea4
019e
cafe
380f
5556
0ea4
02bb
cafe
3c1f
5556
0ea4
024e
cafe
2007
5556
0ea4
0279
cafe
2417
5556
0ea8
037a
cafe
2808
5556
0ea8
02cb
cafe
2c18
5556
0ea8
02ee
cafe
3000
5556
0ea8
01a2
cafe
3410
5556
0eac
02a1
cafe
3809
5556
0eac
0257
cafe
3c19
5556
0eac
02ec
cafe
2001
5556
0eac
027b
cafe
2411
5556
0eb0
02fa
cafe
280a
5556
0eb0
02ab
cafe
2c1a
5556
0eb0
02a7
cafe
3002
5556
0eb0
02e0
cafe
3412
5556
0eb4
021d
cafe
380b
5556
0eb4
02d2
cafe
3c1b
5556
0eb4
02db
cafe
2003
5556
0eb4
02a0
cafe
2413
5556
0eb8
02b1
cafe
280c
5556
0eb8
021f
cafe
2c1c
5556
0eb8
02cf
cafe
3004
5556
0eb8
01f3
cafe
3414
5556
0ebc
0215
cafe
380d
5556
0ebc
0294
cafe
3c1d
5556
0ebc
0275
cafe
2005
5556
0ebc
01a5
cafe
2415
5556
0ec0
0283
cafe
280e
5556
0ec0
02ef
cafe
2c1e
5556
0ec0
02fa
cafe
3006
5556
0ec0
0333
cafe
3416
5556
0ec4
0186
cafe
380f
5556
0ec4
02a7
cafe
3c1f
5556
0ec4
023d
cafe
2007
5556
0ec4
025e
cafe
2417
5556
0ec8
0364
cafe
2808
5556
0ec8
02b6
cafe
2c18
5556
0ec8
02da
cafe
3000
5556
0ec8
018f
cafe
3410
5556
0ecc
0289
cafe
3809
5556
0ecc
0243
cafe
3c19
5556
0ecc
02d5
cafe
2001
5556
0ecc
0267
cafe
2411
5556
0ed0
02e5
cafe
280a
5556
0ed0
0298
-
cafe
2c1a
5556
0ed0
028c
cafe
3002
5556
0ed0
02c8
cafe
3412
5556
0ed4
0209
cafe
380b
5556
0ed4
02b9
cafe
3c1b
5556
0ed4
02c7
cafe
2003
5556
0ed4
028a
cafe
2413
5556
0ed8
029a
cafe
280c
5556
0ed8
0211
cafe
2c1c
5556
0ed8
02be
cafe
3004
5556
0ed8
01e3
cafe
3414
5556
0edc
01ff
cafe
380d
5556
0edc
027e
cafe
3c1d
5556
0edc
0267
cafe
2005
5556
0edc
018e
cafe
2415
5556
0ee0
026b
cafe
280e
5556
0ee0
02e2
cafe
2c1e
5556
0ee0
02e2
cafe
3006
5556
0ee0
031f
cafe
3416
5556
0ee4
0173
cafe
380f
5556
0ee4
028d
cafe
3c1f
5556
0ee4
022b
cafe
2007
5556
0ee4
024a
cafe
2417
5556
0ee8
0353
cafe
2808
5556
0ee8
02a1
cafe
2c18
5556
0ee8
02bc
cafe
3000
5556
0ee8
0181
cafe
3410
5556
0eec
0275
cafe
3809
5556
0eec
0238
cafe
3c19
5556
0eec
02c4
cafe
2001
5556
0eec
024d
cafe
2411
5556
0ef0
02d2
cafe
280a
5556
0ef0
0287
cafe
2c1a
5556
0ef0
0276
cafe
3002
5556
0ef0
02b5
cafe
3412
5556
0ef4
01f6
cafe
380b
5556
0ef4
029e
cafe
3c1b
5556
0ef4
02b7
cafe
2003
5556
0ef4
0276
cafe
2413
5556
0ef8
028c
cafe
280c
5556
0ef8
01fe
cafe
2c1c
5556
0ef8
02a9
cafe
3004
5556
0ef8
01d4
cafe
3414
5556
0efc
01eb
cafe
380d
5556
0efc
026c
cafe
3c1d
5556
0efc
0257
cafe
2005
5556
0efc
017e
cafe
2415
5556
0f00
0253
cafe
280e
5556
0f00
02cd
cafe
2c1e
5556
0f00
02ce
cafe
3006
5556
0f00
0305
cafe
3416
5556
0f04
0161
cafe
-
380f
5556
0f04
027c
cafe
3c1f
5556
0f04
0218
cafe
2007
5556
0f04
0236
cafe
2417
5556
0f08
0340
cafe
2808
5556
0f08
028e
cafe
2c18
5556
0f08
02ab
cafe
3000
5556
0f08
016e
cafe
3410
5556
0f0c
025d
cafe
3809
5556
0f0c
022e
cafe
3c19
5556
0f0c
02ae
cafe
2001
5556
0f0c
023d
cafe
2411
5556
0f10
02bf
cafe
280a
5556
0f10
027d
cafe
2c1a
5556
0f10
0267
cafe
3002
5556
0f10
02a8
cafe
3412
5556
0f14
01e3
cafe
380b
5556
0f14
0287
cafe
3c1b
5556
0f14
02a4
cafe
2003
5556
0f14
0265
cafe
2413
5556
0f18
0281
cafe
280c
5556
0f18
01f4
cafe
2c1c
5556
0f18
0292
cafe
3004
5556
0f18
01c6
cafe
3414
5556
0f1c
01da
cafe
380d
5556
0f1c
025b
cafe
3c1d
5556
0f1c
024a
cafe
2005
5556
0f1c
0164
cafe
2415
5556
0f20
0245
cafe
280e
5556
0f20
02b7
cafe
2c1e
5556
0f20
02c7
cafe
3006
5556
0f20
02f7
cafe
3416
5556
0f24
0150
cafe
380f
5556
0f24
0269
cafe
3c1f
5556
0f24
01fa
cafe
2007
5556
0f24
0227
cafe
2417
5556
0f28
0325
cafe
2808
5556
0f28
0278
cafe
2c18
5556
0f28
0298
cafe
3000
5556
0f28
015a
cafe
3410
5556
0f2c
0244
cafe
3809
5556
0f2c
0221
cafe
3c19
5556
0f2c
02a0
cafe
2001
5556
0f2c
0230
cafe
2411
5556
0f30
02ab
cafe
280a
5556
0f30
026b
cafe
2c1a
5556
0f30
025a
cafe
3002
5556
0f30
0297
cafe
3412
5556
0f34
01d8
cafe
380b
5556
0f34
0278
cafe
3c1b
5556
0f34
0291
cafe
2003
5556
0f34
0254
cafe
2413
-
5556
0f38
026a
cafe
280c
5556
0f38
01e7
cafe
2c1c
5556
0f38
0280
cafe
3004
5556
0f38
01b3
cafe
3414
5556
0f3c
01ca
cafe
380d
5556
0f3c
024f
cafe
3c1d
5556
0f3c
0236
cafe
2005
5556
0f3c
0156
cafe
2415
5556
0f40
0236
cafe
280e
5556
0f40
02a8
cafe
2c1e
5556
0f40
02bc
cafe
3006
5556
0f40
02e6
cafe
3416
5556
0f44
0140
cafe
380f
5556
0f44
024d
cafe
3c1f
5556
0f44
01eb
cafe
2007
5556
0f44
021c
cafe
2417
5556
0f48
0316
cafe
2808
5556
0f48
0267
cafe
2c18
5556
0f48
0282
cafe
3000
5556
0f48
014d
cafe
3410
5556
0f4c
0238
cafe
3809
5556
0f4c
0210
cafe
3c19
5556
0f4c
0299
cafe
2001
5556
0f4c
022a
cafe
2411
5556
0f50
02a4
cafe
280a
5556
0f50
0257
cafe
2c1a
5556
0f50
0248
cafe
3002
5556
0f50
0287
cafe
3412
5556
0f54
01cb
cafe
380b
5556
0f54
0268
cafe
3c1b
5556
0f54
0287
cafe
2003
5556
0f54
0247
cafe
2413
5556
0f58
0256
cafe
280c
5556
0f58
01d9
cafe
2c1c
5556
0f58
0273
cafe
3004
5556
0f58
01a7
cafe
3414
5556
0f5c
01b8
cafe
380d
5556
0f5c
0240
cafe
3c1d
5556
0f5c
0224
cafe
2005
5556
0f5c
0144
cafe
2415
5556
0f60
022d
cafe
280e
5556
0f60
0296
cafe
2c1e
5556
0f60
02ab
cafe
3006
5556
0f60
02dc
cafe
3416
5556
0f64
0134
cafe
380f
5556
0f64
023c
cafe
3c1f
5556
0f64
01d8
cafe
2007
5556
0f64
020e
cafe
2417
5556
0f68
0306
cafe
2808
5556
0f68
025b
cafe
2c18
5556
0f68
0272
cafe
3000
5556
-
0f68
013c
cafe
3410
5556
0f6c
0227
cafe
3809
5556
0f6c
01ff
cafe
3c19
5556
0f6c
0285
cafe
2001
5556
0f6c
021f
cafe
2411
5556
0f70
0295
cafe
280a
5556
0f70
024b
cafe
2c1a
5556
0f70
023a
cafe
3002
5556
0f70
0280
cafe
3412
5556
0f74
01bc
cafe
380b
5556
0f74
025a
cafe
3c1b
5556
0f74
0279
cafe
2003
5556
0f74
0234
cafe
2413
5556
0f78
0248
cafe
280c
5556
0f78
01ce
cafe
2c1c
5556
0f78
0269
cafe
3004
5556
0f78
019a
cafe
3414
5556
0f7c
01aa
cafe
380d
5556
0f7c
022e
cafe
3c1d
5556
0f7c
0216
cafe
2005
5556
0f7c
0139
cafe
2415
5556
0f80
021f
cafe
280e
5556
0f80
028d
cafe
2c1e
5556
0f80
0297
cafe
3006
5556
0f80
02cc
cafe
3416
5556
0f84
0129
cafe
380f
5556
0f84
0233
cafe
3c1f
5556
0f84
01d0
cafe
2007
5556
0f84
0202
cafe
2417
5556
0f88
02f8
cafe
2808
5556
0f88
0250
cafe
2c18
5556
0f88
026d
cafe
3000
5556
0f88
0131
cafe
3410
5556
0f8c
021b
cafe
3809
5556
0f8c
01f4
cafe
3c19
5556
0f8c
0279
cafe
2001
5556
0f8c
0210
cafe
2411
5556
0f90
0285
cafe
280a
5556
0f90
023d
cafe
2c1a
5556
0f90
0227
cafe
3002
5556
0f90
0276
cafe
3412
5556
0f94
01aa
cafe
380b
5556
0f94
024a
cafe
3c1b
5556
0f94
026f
cafe
2003
5556
0f94
022c
cafe
2413
5556
0f98
023b
cafe
280c
5556
0f98
01c2
cafe
2c1c
5556
0f98
0259
cafe
3004
5556
0f98
018e
cafe
3414
5556
0f9c
0199
cafe
380d
5556
0f9c
0221
cafe
3c1d
5556
0f9c
-
020b
cafe
2005
5556
0f9c
0132
cafe
2415
5556
0fa0
020e
cafe
280e
5556
0fa0
027f
cafe
2c1e
5556
0fa0
0287
cafe
3006
5556
0fa0
02bb
cafe
3416
5556
0fa4
0122
cafe
380f
5556
0fa4
022b
cafe
3c1f
5556
0fa4
01c5
cafe
2007
5556
0fa4
01fb
cafe
2417
5556
0fa8
02eb
cafe
2808
5556
0fa8
0241
cafe
2c18
5556
0fa8
0264
cafe
3000
5556
0fa8
012e
cafe
3410
5556
0fac
020f
cafe
3809
5556
0fac
01ec
cafe
3c19
5556
0fac
026a
cafe
2001
5556
0fac
0203
cafe
2411
5556
0fb0
027a
cafe
280a
5556
0fb0
0232
cafe
2c1a
5556
0fb0
021d
cafe
3002
5556
0fb0
026d
cafe
3412
5556
0fb4
01a2
cafe
380b
5556
0fb4
0241
cafe
3c1b
5556
0fb4
0260
cafe
2003
5556
0fb4
021c
cafe
2413
5556
0fb8
022d
cafe
280c
5556
0fb8
01b2
cafe
2c1c
5556
0fb8
0251
cafe
3004
5556
0fb8
0189
cafe
3414
5556
0fbc
018c
cafe
380d
5556
0fbc
0216
cafe
3c1d
5556
0fbc
01fa
cafe
2005
5556
0fbc
0125
cafe
2415
5556
0fc0
0200
cafe
280e
5556
0fc0
0271
cafe
2c1e
5556
0fc0
027b
cafe
3006
5556
0fc0
02b3
cafe
3416
5556
0fc4
0116
cafe
380f
5556
0fc4
0220
cafe
3c1f
5556
0fc4
01b4
cafe
2007
5556
0fc4
01e7
cafe
2417
5556
0fc8
02dc
cafe
2808
5556
0fc8
0231
cafe
2c18
5556
0fc8
0255
cafe
3000
5556
0fc8
0127
cafe
3410
5556
0fcc
020b
cafe
3809
5556
0fcc
01de
cafe
3c19
5556
0fcc
025e
cafe
2001
5556
0fcc
01f4
cafe
2411
5556
0fd0
026c
cafe
280a
5556
0fd0
0222
-
cafe
2c1a
5556
0fd0
0210
cafe
3002
5556
0fd0
025e
cafe
3412
5556
0fd4
0192
cafe
380b
5556
0fd4
0239
cafe
3c1b
5556
0fd4
0254
cafe
2003
5556
0fd4
0215
cafe
2413
5556
0fd8
021f
cafe
280c
5556
0fd8
01a6
cafe
2c1c
5556
0fd8
0242
cafe
3004
5556
0fd8
0183
cafe
3414
5556
0fdc
0181
cafe
380d
5556
0fdc
020e
cafe
3c1d
5556
0fdc
01f3
cafe
2005
5556
0fdc
0116
cafe
2415
5556
0fe0
01f6
cafe
280e
5556
0fe0
025e
cafe
2c1e
5556
0fe0
027d
cafe
3006
5556
0fe0
02ab
cafe
3416
5556
0fe4
010b
cafe
380f
5556
0fe4
0215
cafe
3c1f
5556
0fe4
01a8
cafe
2007
5556
0fe4
01de
cafe
2417
5556
0fe8
02cf
cafe
2808
5556
0fe8
0225
cafe
2c18
5556
0fe8
024e
cafe
3000
5556
0fe8
0120
cafe
3410
5556
0fec
0201
cafe
3809
5556
0fec
01d8
cafe
3c19
5556
0fec
024f
cafe
2001
5556
0fec
01ed
cafe
2411
5556
0ff0
0263
cafe
280a
5556
0ff0
021b
cafe
2c1a
5556
0ff0
01fe
cafe
3002
5556
0ff0
0257
cafe
3412
5556
0ff4
0189
cafe
380b
5556
0ff4
0232
cafe
3c1b
5556
0ff4
024a
cafe
2003
5556
0ff4
0207
cafe
2413
5556
0ff8
0213
cafe
280c
5556
0ff8
019c
cafe
2c1c
5556
0ff8
0233
cafe
3004
5556
0ff8
017d
cafe
3414
5556
0ffc
0178
cafe
380d
5556
0ffc
0208
cafe
3c1d
5556
0ffc
01ec
cafe
2005
5556
0ffc
0110
cafe
2415
5556
1000
01ee
cafe
280e
5556
1000
0254
cafe
2c1e
5556
1000
0276
cafe
3006
5556
1000
029f
cafe
3416
5556
1004
0102
cafe
-
380f
5556
1004
020d
cafe
3c1f
5556
1004
01a4
cafe
2007
5556
1004
01d5
cafe
2417
5556
1008
02cb
cafe
2808
5556
1008
021d
cafe
2c18
5556
1008
0242
cafe
3000
5556
1008
0113
cafe
3410
5556
100c
01f4
cafe
3809
5556
100c
01cb
cafe
3c19
5556
100c
0245
cafe
2001
5556
100c
01e5
cafe
2411
5556
1010
0257
cafe
280a
5556
1010
0212
cafe
2c1a
5556
1010
01f8
cafe
3002
5556
1010
024f
cafe
3412
5556
1014
0180
cafe
380b
5556
1014
0224
cafe
3c1b
5556
1014
023e
cafe
2003
5556
1014
0201
cafe
2413
5556
1018
020a
cafe
280c
5556
1018
0194
cafe
2c1c
5556
1018
0222
cafe
3004
5556
1018
0178
cafe
3414
5556
101c
016d
cafe
380d
5556
101c
01fb
cafe
3c1d
5556
101c
01e1
cafe
2005
5556
101c
0106
cafe
2415
5556
1020
01ea
cafe
280e
5556
1020
024b
cafe
2c1e
5556
1020
026a
cafe
3006
5556
1020
0293
cafe
3416
5556
1024
00fa
cafe
380f
5556
1024
0204
cafe
3c1f
5556
1024
01a1
cafe
2007
5556
1024
01cc
cafe
2417
5556
1028
02c3
cafe
2808
5556
1028
0218
cafe
2c18
5556
1028
0232
cafe
3000
5556
1028
010d
cafe
3410
5556
102c
01ea
cafe
3809
5556
102c
01c2
cafe
3c19
5556
102c
0244
cafe
2001
5556
102c
01dc
cafe
2411
5556
1030
024c
cafe
280a
5556
1030
020f
cafe
2c1a
5556
1030
01eb
cafe
3002
5556
1030
0244
cafe
3412
5556
1034
0177
cafe
380b
5556
1034
0218
cafe
3c1b
5556
1034
023b
cafe
2003
5556
1034
01f6
cafe
2413
-
5556
1038
0206
cafe
280c
5556
1038
0183
cafe
2c1c
5556
1038
0218
cafe
3004
5556
1038
0171
cafe
3414
5556
103c
015d
cafe
380d
5556
103c
01ef
cafe
3c1d
5556
103c
01d8
cafe
2005
5556
103c
00fb
cafe
2415
5556
1040
01e3
cafe
280e
5556
1040
0248
cafe
2c1e
5556
1040
025f
cafe
3006
5556
1040
0287
cafe
3416
5556
1044
00f5
cafe
380f
5556
1044
01ff
cafe
3c1f
5556
1044
019e
cafe
2007
5556
1044
01c3
cafe
2417
5556
1048
02ba
cafe
2808
5556
1048
020e
cafe
2c18
5556
1048
022c
cafe
3000
5556
1048
0109
cafe
3410
5556
104c
01e7
cafe
3809
5556
104c
01be
cafe
3c19
5556
104c
023b
cafe
2001
5556
104c
01d4
cafe
2411
5556
1050
0247
cafe
280a
5556
1050
0206
cafe
2c1a
5556
1050
01e5
cafe
3002
5556
1050
023a
cafe
3412
5556
1054
016b
cafe
380b
5556
1054
0219
cafe
3c1b
5556
1054
0230
cafe
2003
5556
1054
01ef
cafe
2413
5556
1058
01f7
cafe
280c
5556
1058
017d
cafe
2c1c
5556
1058
0211
cafe
3004
5556
1058
016e
cafe
3414
5556
105c
0156
cafe
380d
5556
105c
01ee
cafe
3c1d
5556
105c
01cf
cafe
2005
5556
105c
00f4
cafe
2415
5556
1060
01d8
cafe
280e
5556
1060
023a
cafe
2c1e
5556
1060
0258
cafe
3006
5556
1060
0282
cafe
3416
5556
1064
00ed
cafe
380f
5556
1064
01f4
cafe
3c1f
5556
1064
0198
cafe
2007
5556
1064
01bd
cafe
2417
5556
1068
02b4
cafe
2808
5556
1068
0206
cafe
2c18
5556
1068
021f
cafe
3000
5556
-
1068
00fd
cafe
3410
5556
106c
01dc
cafe
3809
5556
106c
01b4
cafe
3c19
5556
106c
0236
cafe
2001
5556
106c
01c8
cafe
2411
5556
1070
0242
cafe
280a
5556
1070
01fd
cafe
2c1a
5556
1070
01e1
cafe
3002
5556
1070
0234
cafe
3412
5556
1074
016c
cafe
380b
5556
1074
0210
cafe
3c1b
5556
1074
022d
cafe
2003
5556
1074
01ed
cafe
2413
5556
1078
01f4
cafe
280c
5556
1078
0177
cafe
2c1c
5556
1078
020c
cafe
3004
5556
1078
0168
cafe
3414
5556
107c
0156
cafe
380d
5556
107c
01e8
cafe
3c1d
5556
107c
01c7
cafe
2005
5556
107c
00ea
cafe
2415
5556
1080
01cb
cafe
280e
5556
1080
0239
cafe
2c1e
5556
1080
0252
cafe
3006
5556
1080
0279
cafe
3416
5556
1084
00e3
cafe
380f
5556
1084
01ea
cafe
3c1f
5556
1084
0186
cafe
2007
5556
1084
01b9
cafe
2417
5556
1088
02a7
cafe
2808
5556
1088
01fc
cafe
2c18
5556
1088
0219
cafe
3000
5556
1088
00f9
cafe
3410
5556
108c
01d0
cafe
3809
5556
108c
01ac
cafe
3c19
5556
108c
0233
cafe
2001
5556
108c
01c0
cafe
2411
5556
1090
023e
cafe
280a
5556
1090
01f5
cafe
2c1a
5556
1090
01db
cafe
3002
5556
1090
0230
cafe
3412
5556
1094
0166
cafe
380b
5556
1094
020c
cafe
3c1b
5556
1094
021e
cafe
2003
5556
1094
01e5
cafe
2413
5556
1098
01f3
cafe
280c
5556
1098
0175
cafe
2c1c
5556
1098
0204
cafe
3004
5556
1098
015f
cafe
3414
5556
109c
014f
cafe
380d
5556
109c
01ea
cafe
3c1d
5556
109c
-
01bf
cafe
2005
5556
109c
00e9
cafe
2415
5556
10a0
01c8
cafe
280e
5556
10a0
0235
cafe
2c1e
5556
10a0
0248
cafe
3006
5556
10a0
0279
cafe
3416
5556
10a4
00dd
cafe
380f
5556
10a4
01e3
cafe
3c1f
5556
10a4
0183
cafe
2007
5556
10a4
01b5
cafe
2417
5556
10a8
029f
cafe
2808
5556
10a8
01f3
cafe
2c18
5556
10a8
0214
cafe
3000
5556
10a8
00f2
cafe
3410
5556
10ac
01c2
cafe
3809
5556
10ac
01a2
cafe
3c19
5556
10ac
022d
cafe
2001
5556
10ac
01be
cafe
2411
5556
10b0
0233
cafe
280a
5556
10b0
01ed
cafe
2c1a
5556
10b0
01da
cafe
3002
5556
10b0
0225
cafe
3412
5556
10b4
0152
cafe
380b
5556
10b4
0206
cafe
3c1b
5556
10b4
0212
cafe
2003
5556
10b4
01da
cafe
2413
5556
10b8
01f4
cafe
280c
5556
10b8
0170
cafe
2c1c
5556
10b8
01fb
cafe
3004
5556
10b8
0159
cafe
3414
5556
10bc
014d
cafe
380d
5556
10bc
01db
cafe
3c1d
5556
10bc
01c0
cafe
2005
5556
10bc
00e7
cafe
2415
5556
10c0
01c0
cafe
280e
5556
10c0
022d
cafe
2c1e
5556
10c0
023e
cafe
3006
5556
10c0
0276
cafe
3416
5556
10c4
00d4
cafe
380f
5556
10c4
01e1
cafe
3c1f
5556
10c4
017c
cafe
2007
5556
10c4
01b2
cafe
2417
5556
10c8
02a1
cafe
2808
5556
10c8
01ed
cafe
2c18
5556
10c8
0211
cafe
3000
5556
10c8
00f2
cafe
3410
5556
10cc
01bb
cafe
3809
5556
10cc
019b
cafe
3c19
5556
10cc
0223
cafe
2001
5556
10cc
01b8
cafe
2411
5556
10d0
022f
cafe
280a
5556
10d0
01e6
-
cafe
2c1a
5556
10d0
01d1
cafe
3002
5556
10d0
0217
cafe
3412
5556
10d4
014e
cafe
380b
5556
10d4
0203
cafe
3c1b
5556
10d4
0208
cafe
2003
5556
10d4
01d8
cafe
2413
5556
10d8
01ef
cafe
280c
5556
10d8
0169
cafe
2c1c
5556
10d8
01fb
cafe
3004
5556
10d8
014e
cafe
3414
5556
10dc
0149
cafe
380d
5556
10dc
01d4
cafe
3c1d
5556
10dc
01b6
cafe
2005
5556
10dc
00e3
cafe
2415
5556
10e0
01b6
cafe
280e
5556
10e0
0227
cafe
2c1e
5556
10e0
0236
cafe
3006
5556
10e0
026a
cafe
3416
5556
10e4
00cf
cafe
380f
5556
10e4
01d6
cafe
3c1f
5556
10e4
0173
cafe
2007
5556
10e4
01af
cafe
2417
5556
10e8
0297
cafe
2808
5556
10e8
01ec
cafe
2c18
5556
10e8
020c
cafe
3000
5556
10e8
00e5
cafe
3410
5556
10ec
01b7
cafe
3809
5556
10ec
019b
cafe
3c19
5556
10ec
021c
cafe
2001
5556
10ec
01b2
cafe
2411
5556
10f0
0228
cafe
280a
5556
10f0
01e5
cafe
2c1a
5556
10f0
01ca
cafe
3002
5556
10f0
0213
cafe
3412
5556
10f4
0149
cafe
380b
5556
10f4
01fb
cafe
3c1b
5556
10f4
0205
cafe
2003
5556
10f4
01d5
cafe
2413
5556
10f8
01e7
cafe
280c
5556
10f8
0164
cafe
2c1c
5556
10f8
01f6
cafe
3004
5556
10f8
014b
cafe
3414
5556
10fc
0147
cafe
380d
5556
10fc
01cc
cafe
3c1d
5556
10fc
01b0
cafe
2005
5556
10fc
00e6
cafe
2415
5556
1100
01b7
cafe
280e
5556
1100
0218
cafe
2c1e
5556
1100
0230
cafe
3006
5556
1100
0262
cafe
3416
5556
1104
00c9
cafe
-
