3814
0000
0000
017b
cafe
3c14
0000
0000
017a
cafe
2014
0000
0000
0176
cafe
2414
0000
0000
0172
cafe
2814
0000
0000
0169
cafe
2c14
0000
0000
0170
cafe
3014
0000
0000
0172
cafe
3414
0000
0000
0176
cafe
3814
0000
0000
0172
cafe
3c14
0000
0000
017b
cafe
2014
0000
0000
0177
cafe
2414
0000
0000
017b
cafe
2814
0000
0000
0180
cafe
2c14
0000
0000
0185
cafe
3014
0000
0000
0183
cafe
3414
0000
0000
0183
cafe
3814
0000
0000
0178
cafe
3c14
0000
0000
0177
cafe
2014
0000
0000
0174
cafe
2414
0000
0000
016b
cafe
2814
0000
0000
0179
cafe
2c14
0000
0000
017b
cafe
3014
0000
0000
0181
cafe
3414
0000
0000
0180
cafe
3814
0000
0000
0180
cafe
3c14
0000
0000
0183
cafe
2014
0000
0000
0186
cafe
2414
0000
0000
0184
cafe
2814
0000
0000
0185
cafe
2c14
0000
0000
0188
cafe
3014
0000
0000
018b
cafe
3414
0000
0000
0181
cafe
3814
0000
0000
017d
cafe
3c14
0000
0000
0182
cafe
2014
0000
0000
017e
cafe
2414
0000
0000
017a
cafe
2814
0000
0000
017c
cafe
2c14
0000
0000
017e
cafe
3014
0000
0000
017e
cafe
3414
0000
0000
0184
cafe
3814
0000
0000
0184
cafe
3c14
0000
0000
0187
cafe
2014
0000
0000
017a
cafe
2414
0000
0000
017b
cafe
2814
0000
0000
0177
cafe
2c14
0000
0000
0174
cafe
3014
0000
0000
0179
cafe
3414
0000
0000
0180
cafe
3814
0000
0000
017c
cafe
3c14
0000
0000
017c
cafe
2014
0000
0000
017f
cafe
2414
-
0000
0000
0182
cafe
2814
0000
0000
0175
cafe
2c14
0000
0000
017e
cafe
3014
0000
0000
017f
cafe
3414
0000
0000
0185
cafe
3814
0000
0000
0182
cafe
3c14
0000
0000
017e
cafe
2014
0000
0000
017b
cafe
2414
0000
0000
017c
cafe
2814
0000
0000
0187
cafe
2c14
0000
0000
0180
cafe
3014
0000
0000
0184
cafe
3414
0000
0000
0180
cafe
3814
0000
0000
017c
cafe
3c14
0000
0000
0181
cafe
2014
0000
0000
0181
cafe
2414
0000
0000
0177
cafe
2814
0000
0000
0175
cafe
2c14
0000
0000
0179
cafe
3014
0000
0000
017b
cafe
3414
0000
0000
0182
cafe
3814
0000
0000
017d
cafe
3c14
0000
0000
017d
cafe
2014
0000
0000
0177
cafe
2414
0000
0000
017e
cafe
2814
0000
0000
017c
cafe
2c14
0000
0000
0174
cafe
3014
0000
0000
0179
cafe
3414
0000
0000
017a
cafe
3814
0000
0000
017c
cafe
3c14
0000
0000
0176
cafe
2014
0000
0000
016f
cafe
2414
0000
0000
017d
cafe
2814
0000
0000
0177
cafe
2c14
0000
0000
0179
cafe
3014
0000
0000
017e
cafe
3414
0000
0000
0177
cafe
3814
0000
0000
0179
cafe
3c14
0000
0000
017b
cafe
2014
0000
0000
017c
cafe
2414
0000
0000
0179
cafe
2814
0000
0000
0175
cafe
2c14
0000
0000
017d
cafe
3014
0000
0000
0182
cafe
3414
0000
0000
0182
cafe
3814
0000
0000
0186
cafe
3c14
0000
0000
0180
cafe
2014
0000
0000
0183
cafe
2414
0000
0000
017d
cafe
2814
0000
0000
017f
cafe
2c14
0000
0000
0186
cafe
3014
0000
-
0000
0186
cafe
3414
0000
0000
0182
cafe
3814
0000
0000
0183
cafe
3c14
0000
0000
0185
cafe
2014
0000
0000
0180
cafe
2414
0000
0000
017b
cafe
2814
0000
0000
017c
cafe
2c14
0000
0000
017c
cafe
3014
0000
0000
0187
cafe
3414
0000
0000
0181
cafe
3814
0000
0000
0182
cafe
3c14
0000
0000
017e
cafe
2014
0000
0000
0181
cafe
2414
0000
0000
0186
cafe
2814
0000
0000
0181
cafe
2c14
0000
0000
0178
cafe
3014
0000
0000
017b
cafe
3414
0000
0000
0178
cafe
3814
0000
0000
0171
cafe
3c14
0000
0000
0179
cafe
2014
0000
0000
017d
cafe
2414
0000
0000
017d
cafe
2814
0000
0000
0183
cafe
2c14
0000
0000
0186
cafe
3014
0000
0000
0180
cafe
3414
0000
0000
0183
cafe
3814
0000
0000
017c
cafe
3c14
0000
0000
017e
cafe
2014
0000
0000
0185
cafe
2414
0000
0000
018c
cafe
2814
0000
0000
018e
cafe
2c14
0000
0000
0185
cafe
3014
0000
0000
0181
cafe
3414
0000
0000
017e
cafe
3814
0000
0000
017b
cafe
3c14
0000
0000
0175
cafe
2014
0000
0000
017b
cafe
2414
0000
0000
0178
cafe
2814
0000
0000
0177
cafe
2c14
0000
0000
0179
cafe
3014
0000
0000
017c
cafe
3414
0000
0000
017f
cafe
3814
0000
0000
017a
cafe
3c14
0000
0000
0178
cafe
2014
0000
0000
017f
cafe
2414
0000
0000
0185
cafe
2814
0000
0000
0186
cafe
2c14
0000
0000
017e
cafe
3014
0000
0000
018a
cafe
3414
0000
0000
0185
cafe
3814
0000
0000
017b
cafe
3c14
0000
0000
-
0186
cafe
2014
0000
0000
018a
cafe
2414
0000
0000
0187
cafe
2814
0000
0000
0185
cafe
2c14
0000
0000
0187
cafe
3014
0000
0000
0189
cafe
3414
0000
0000
0185
cafe
3814
0000
0000
017e
cafe
3c14
0000
0000
017d
cafe
2014
0000
0000
017a
cafe
2414
0000
0000
0184
cafe
2814
0000
0000
0185
cafe
2c14
0000
0000
017e
cafe
3014
0000
0000
0184
cafe
3414
0000
0000
018c
cafe
3814
0000
0000
0184
cafe
3c14
0000
0000
0189
cafe
2014
0000
0000
0183
cafe
2414
0000
0000
0188
cafe
2814
0000
0000
0186
cafe
2c14
0000
0000
018c
cafe
3014
0000
0000
0187
cafe
3414
0000
0000
0181
cafe
3814
0000
0000
0184
cafe
3c14
0000
0000
017d
cafe
2014
0000
0000
0179
cafe
2414
0000
0000
017e
cafe
2814
0000
0000
017e
cafe
2c14
0000
0000
0182
cafe
3014
0000
0000
017a
cafe
3414
0000
0000
017e
cafe
3814
0000
0000
0177
cafe
3c14
0000
0000
0177
cafe
2014
0000
0000
0172
cafe
2414
0000
0000
0176
cafe
2814
0000
0000
0179
cafe
2c14
0000
0000
017a
cafe
3014
0000
0000
0175
cafe
3414
0000
0000
0174
cafe
3814
0000
0000
017a
cafe
3c14
0000
0000
0174
cafe
2014
0000
0000
017c
cafe
2414
0000
0000
0184
cafe
2814
0000
0000
0179
cafe
2c14
0000
0000
0175
cafe
3014
0000
0000
0174
cafe
3414
0000
0000
0177
cafe
3814
0000
0000
0173
cafe
3c14
0000
0000
0176
cafe
2014
0000
0000
0175
cafe
2414
0000
0000
017a
cafe
2814
0000
0000
0179
-
cafe
2c14
0000
0000
0178
cafe
3014
0000
0000
017e
cafe
3414
0000
0000
0180
cafe
3814
0000
0000
0182
cafe
3c14
0000
0000
0185
cafe
2014
0000
0000
0182
cafe
2414
0000
0000
0180
cafe
2814
0000
0000
0188
cafe
2c14
0000
0000
0185
cafe
3014
0000
0000
0184
cafe
3414
0000
0000
0183
cafe
3814
0000
0000
0187
cafe
3c14
0000
0000
018d
cafe
2014
0000
0000
0185
cafe
2414
0000
0000
0181
cafe
2814
0000
0000
017b
cafe
2c14
0000
0000
0181
cafe
3014
0000
0000
0185
cafe
3414
0000
0000
0180
cafe
3814
0000
0000
0183
cafe
3c14
0000
0000
0180
cafe
2014
0000
0000
0181
cafe
2414
0000
0000
0185
cafe
2814
0000
0000
0182
cafe
2c14
0000
0000
017e
cafe
3014
0000
0000
017d
cafe
3414
0000
0000
0183
cafe
3814
0000
0000
017c
cafe
3c14
0000
0000
0182
cafe
2014
0000
0000
017a
cafe
2414
0000
0000
017b
cafe
2814
0000
0000
0178
cafe
2c14
0000
0000
017b
cafe
3014
0000
0000
0170
cafe
3414
0000
0000
0177
cafe
3814
0000
0000
017e
cafe
3c14
0000
0000
017a
cafe
2014
0000
0000
0170
cafe
2414
0000
0000
0172
cafe
2814
0000
0000
0176
cafe
2c14
0000
0000
0175
cafe
3014
0000
0000
0177
cafe
3414
0000
0000
0176
cafe
3814
0000
0000
0177
cafe
3c14
0000
0000
0177
cafe
2014
0000
0000
017d
cafe
2414
0000
0000
017c
cafe
2814
0000
0000
0182
cafe
2c14
0000
0000
0187
cafe
3014
0000
0000
0184
cafe
3414
0000
0000
0180
cafe
-
3814
0000
0000
0179
cafe
3c14
0000
0000
017d
cafe
2014
0000
0000
0179
cafe
2414
0000
0000
017d
cafe
2814
0000
0000
017c
cafe
2c14
0000
0000
0179
cafe
3014
0000
0000
017d
cafe
3414
0000
0000
017d
cafe
3814
0000
0000
017b
cafe
3c14
0000
0000
0176
cafe
2014
0000
0000
0176
cafe
2414
0000
0000
0182
cafe
2814
0000
0000
0181
cafe
2c14
0000
0000
017e
cafe
3014
0000
0000
0175
cafe
3414
0000
0000
0175
cafe
3814
0000
0000
0172
cafe
3c14
0000
0000
0175
cafe
2014
0000
0000
016f
cafe
2414
0000
0000
017a
cafe
2814
0000
0000
0180
cafe
2c14
0000
0000
0181
cafe
3014
0000
0000
017a
cafe
3414
0000
0000
0180
cafe
3814
0000
0000
017a
cafe
3c14
0000
0000
017b
cafe
2014
0000
0000
017b
cafe
2414
0000
0000
017e
cafe
2814
0000
0000
017a
cafe
2c14
0000
0000
017d
cafe
3014
0000
0000
0179
cafe
3414
0000
0000
017a
cafe
3814
0000
0000
017c
cafe
3c14
0000
0000
017f
cafe
2014
0000
0000
0184
cafe
2414
0000
0000
017c
cafe
2814
0000
0000
017a
cafe
2c14
0000
0000
0180
cafe
3014
0000
0000
0177
cafe
3414
0000
0000
0180
cafe
3814
0000
0000
0183
cafe
3c14
0000
0000
017e
cafe
2014
0000
0000
017b
cafe
2414
0000
0000
0184
cafe
2814
0000
0000
0189
cafe
2c14
0000
0000
0182
cafe
3014
0000
0000
0184
cafe
3414
0000
0000
0188
cafe
3814
0000
0000
017a
cafe
3c14
0000
0000
017e
cafe
2014
0000
0000
017f
cafe
2414
-
0000
0000
0181
cafe
2814
0000
0000
0188
cafe
2c14
0000
0000
018a
cafe
3014
0000
0000
017e
cafe
3414
0000
0000
0181
cafe
3814
0000
0000
0184
cafe
3c14
0000
0000
018b
cafe
2014
0000
0000
0188
cafe
2414
0000
0000
018d
cafe
2814
0000
0000
0185
cafe
2c14
0000
0000
0184
cafe
3014
0000
0000
017f
cafe
3414
0000
0000
0188
cafe
3814
0000
0000
0183
cafe
3c14
0000
0000
017f
cafe
2014
0000
0000
017c
cafe
2414
0000
0000
017b
cafe
2814
0000
0000
017e
cafe
2c14
0000
0000
017c
cafe
3014
0000
0000
017b
cafe
3414
0000
0000
0178
cafe
3814
0000
0000
0171
cafe
3c14
0000
0000
0170
cafe
2014
0000
0000
0177
cafe
2414
0000
0000
0174
cafe
2814
0000
0000
017c
cafe
2c14
0000
0000
0181
cafe
3014
0000
0000
0183
cafe
3414
0000
0000
0187
cafe
3814
0000
0000
0183
cafe
3c14
0000
0000
0180
cafe
2014
0000
0000
0180
cafe
2414
0000
0000
017d
cafe
2814
0000
0000
017e
cafe
2c14
0000
0000
0177
cafe
3014
0000
0000
017c
cafe
3414
0000
0000
017b
cafe
3814
0000
0000
017d
cafe
3c14
0000
0000
0189
cafe
2014
0000
0000
017f
cafe
2414
0000
0000
0189
cafe
2814
0000
0000
017e
cafe
2c14
0000
0000
0177
cafe
3014
0000
0000
017c
cafe
3414
0000
0000
0178
cafe
3814
0000
0000
0175
cafe
3c14
0000
0000
017a
cafe
2014
0000
0000
0176
cafe
2414
0000
0000
017d
cafe
2814
0000
0000
017c
cafe
2c14
0000
0000
0184
cafe
3014
0000
-
0000
017a
cafe
3414
0000
0000
017c
cafe
3814
0000
0000
0175
cafe
3c14
0000
0000
017f
cafe
2014
0000
0000
0181
cafe
2414
0000
0000
0178
cafe
2814
0000
0000
017f
cafe
2c14
0000
0000
017a
cafe
3014
0000
0000
0179
cafe
3414
0000
0000
017d
cafe
3814
0000
0000
0177
cafe
3c14
0000
0000
017e
cafe
2014
0000
0000
017c
cafe
2414
0000
0000
0175
cafe
2814
0000
0000
017f
cafe
2c14
0000
0000
017a
cafe
3014
0000
0000
0171
cafe
3414
0000
0000
017b
cafe
3814
0000
0000
017c
cafe
3c14
0000
0000
017c
cafe
2014
0000
0000
017c
cafe
2414
0000
0000
017c
cafe
2814
0000
0000
017b
cafe
2c14
0000
0000
017c
cafe
3014
0000
0000
017d
cafe
3414
0000
0000
017b
cafe
3814
0000
0000
017e
cafe
3c14
0000
0000
017d
cafe
2014
0000
0000
0179
cafe
2414
0000
0000
0175
cafe
2814
0000
0000
017a
cafe
2c14
0000
0000
0177
cafe
3014
0000
0000
0171
cafe
3414
0000
0000
016b
cafe
3814
0000
0000
016a
cafe
3c14
0000
0000
0170
cafe
2014
0000
0000
017f
cafe
2414
0000
0000
0176
cafe
2814
0000
0000
017c
cafe
2c14
0000
0000
017b
cafe
3014
0000
0000
017f
cafe
3414
0000
0000
017e
cafe
3814
0000
0000
0180
cafe
3c14
0000
0000
0183
cafe
2014
0000
0000
0185
cafe
2414
0000
0000
0185
cafe
2814
0000
0000
0184
cafe
2c14
0000
0000
0180
cafe
3014
0000
0000
0185
cafe
3414
0000
0000
0182
cafe
3814
0000
0000
0185
cafe
3c14
0000
0000
-
0183
cafe
2014
0000
0000
0181
cafe
2414
0000
0000
017b
cafe
2814
0000
0000
017d
cafe
2c14
0000
0000
0182
cafe
3014
0000
0000
0180
cafe
3414
0000
0000
0185
cafe
3814
0000
0000
017c
cafe
3c14
0000
0000
0182
cafe
2014
0000
0000
017b
cafe
2414
0000
0000
0179
cafe
2814
0000
0000
017c
cafe
2c14
0000
0000
0177
cafe
3014
0000
0000
0171
cafe
3414
0000
0000
0171
cafe
3814
0000
0000
017e
cafe
3c14
0000
0000
017b
cafe
2014
0000
0000
017b
cafe
2414
0000
0000
0180
cafe
2814
0000
0000
0184
cafe
2c14
0000
0000
0180
cafe
3014
0000
0000
0185
cafe
3414
0000
0000
0187
cafe
3814
0000
0000
018b
cafe
3c14
0000
0000
018b
cafe
2014
0000
0000
0188
cafe
2414
0000
0000
018b
cafe
2814
0000
0000
017d
cafe
2c14
0000
0000
0176
cafe
3014
0000
0000
017e
cafe
3414
0000
0000
0176
cafe
3814
0000
0000
017b
cafe
3c14
0000
0000
0180
cafe
2014
0000
0000
0183
cafe
2414
0000
0000
0181
cafe
2814
0000
0000
017f
cafe
2c14
0000
0000
0189
cafe
3014
0000
0000
0182
cafe
3414
0000
0000
017a
cafe
3814
0000
0000
0181
cafe
3c14
0000
0000
017a
cafe
2014
0000
0000
0178
cafe
2414
0000
0000
017d
cafe
2814
0000
0000
0183
cafe
2c14
0000
0000
017f
cafe
3014
0000
0000
017f
cafe
3414
0000
0000
017f
cafe
3814
0000
0000
0186
cafe
3c14
0000
0000
0183
cafe
2014
0000
0000
018a
cafe
2414
0000
0000
0186
cafe
2814
0000
0000
017e
-
cafe
2c14
0000
0000
017e
cafe
3014
0000
0000
017d
cafe
3414
0000
0000
0183
cafe
3814
0000
0000
017c
cafe
3c14
0000
0000
017c
cafe
2014
0000
0000
0178
cafe
2414
0000
0000
0171
cafe
2814
0000
0000
0171
cafe
2c14
0000
0000
017a
cafe
3014
0000
0000
017a
cafe
3414
0000
0000
0181
cafe
3814
0000
0000
017d
cafe
3c14
0000
0000
017c
cafe
2014
0000
0000
0180
cafe
2414
0000
0000
0181
cafe
2814
0000
0000
0175
cafe
2c14
0000
0000
0173
cafe
3014
0000
0000
0173
cafe
3414
0000
0000
0175
cafe
3814
0000
0000
0176
cafe
3c14
0000
0000
0174
cafe
2014
0000
0000
0177
cafe
2414
0000
0000
017a
cafe
2814
0000
0000
0178
cafe
2c14
0000
0000
017c
cafe
3014
0000
0000
017b
cafe
3414
0000
0000
0170
cafe
3814
0000
0000
0171
cafe
3c14
0000
0000
0173
cafe
2014
0000
0000
017b
cafe
2414
0000
0000
017d
cafe
2814
0000
0000
0175
cafe
2c14
0000
0000
0177
cafe
3014
0000
0000
0178
cafe
3414
0000
0000
0178
cafe
3814
0000
0000
0175
cafe
3c14
0000
0000
0174
cafe
2014
0000
0000
0184
cafe
2414
0000
0000
017e
cafe
2814
0000
0000
017d
cafe
2c14
0000
0000
017f
cafe
3014
0000
0000
0184
cafe
3414
0000
0000
0181
cafe
3814
0000
0000
0186
cafe
3c14
0000
0000
017d
cafe
2014
0000
0000
0183
cafe
2414
0000
0000
0185
cafe
2814
0000
0000
0189
cafe
2c14
0000
0000
018e
cafe
3014
0000
0000
018a
cafe
3414
0000
0000
0183
cafe
-
3814
0000
0000
0184
cafe
3c14
0000
0000
0185
cafe
2014
0000
0000
0185
cafe
2414
0000
0000
0184
cafe
2814
0000
0000
018a
cafe
2c14
0000
0000
0187
cafe
3014
0000
0000
018f
cafe
3414
0000
0000
0192
cafe
3814
0000
0000
0189
cafe
3c14
0000
0000
018e
cafe
2014
0000
0000
0189
cafe
2414
0000
0000
017f
cafe
2814
0000
0000
0186
cafe
2c14
0000
0000
018c
cafe
3014
0000
0000
018a
cafe
3414
0000
0000
0182
cafe
3814
0000
0000
017d
cafe
3c14
0000
0000
017e
cafe
2014
0000
0000
0180
cafe
2414
0000
0000
018e
cafe
2814
0000
0000
0188
cafe
2c14
0000
0000
017f
cafe
3014
0000
0000
0178
cafe
3414
0000
0000
017d
cafe
3814
0000
0000
017f
cafe
3c14
0000
0000
0185
cafe
2014
0000
0000
0182
cafe
2414
0000
0000
0184
cafe
2814
0000
0000
0186
cafe
2c14
0000
0000
0182
cafe
3014
0000
0000
0180
cafe
3414
0000
0000
017f
cafe
3814
0000
0000
017d
cafe
3c14
0000
0000
0176
cafe
2014
0000
0000
0178
cafe
2414
0000
0000
0175
cafe
2814
0000
0000
0174
cafe
2c14
0000
0000
0178
cafe
3014
0000
0000
0177
cafe
3414
0000
0000
0178
cafe
3814
0000
0000
0173
cafe
3c14
0000
0000
017a
cafe
2014
0000
0000
017b
cafe
2414
0000
0000
017a
cafe
2814
0000
0000
0173
cafe
2c14
0000
0000
017a
cafe
3014
0000
0000
0172
cafe
3414
0000
0000
0179
cafe
3814
0000
0000
0177
cafe
3c14
0000
0000
017e
cafe
2014
0000
0000
0184
cafe
2414
-
0000
0000
017e
cafe
2814
0000
0000
017a
cafe
2c14
0000
0000
0179
cafe
3014
0000
0000
0189
cafe
3414
0000
0000
017f
cafe
3814
0000
0000
0187
cafe
3c14
0000
0000
0185
cafe
2014
0000
0000
0189
cafe
2414
0000
0000
0184
cafe
2814
0000
0000
0181
cafe
2c14
0000
0000
017b
cafe
3014
0000
0000
0179
cafe
3414
0000
0000
0181
cafe
3814
0000
0000
017a
cafe
3c14
0000
0000
017b
cafe
2014
0000
0000
0175
cafe
2414
0000
0000
0179
cafe
2814
0000
0000
017a
cafe
2c14
0000
0000
017b
cafe
3014
0000
0000
017f
cafe
3414
0000
0000
017a
cafe
3814
0000
0000
017e
cafe
3c14
0000
0000
0183
cafe
2014
0000
0000
017e
cafe
2414
0000
0000
0182
cafe
2814
0000
0000
0184
cafe
2c14
0000
0000
018a
cafe
3014
0000
0000
0185
cafe
3414
0000
0000
0182
cafe
3814
0000
0000
018a
cafe
3c14
0000
0000
0185
cafe
2014
0000
0000
0185
cafe
2414
0000
0000
0186
cafe
2814
0000
0000
0182
cafe
2c14
0000
0000
0178
cafe
3014
0000
0000
017f
cafe
3414
0000
0000
017f
cafe
3814
0000
0000
017e
cafe
3c14
0000
0000
017a
cafe
2014
0000
0000
0171
cafe
2414
0000
0000
017b
cafe
2814
0000
0000
0186
cafe
2c14
0000
0000
0180
cafe
3014
0000
0000
017d
cafe
3414
0000
0000
017f
cafe
3814
0000
0000
0175
cafe
3c14
0000
0000
0170
cafe
2014
0000
0000
0178
cafe
2414
0000
0000
0170
cafe
2814
0000
0000
017a
cafe
2c14
0000
0000
0178
cafe
3014
0000
-
0000
017d
cafe
3414
0000
0000
017d
cafe
3814
0000
0000
0173
cafe
3c14
0000
0000
017e
cafe
2014
0000
0000
0181
cafe
2414
0000
0000
0178
cafe
2814
0000
0000
0175
cafe
2c14
0000
0000
017e
cafe
3014
0000
0000
0179
cafe
3414
0000
0000
0177
cafe
3814
0000
0000
017c
cafe
3c14
0000
0000
017b
cafe
2014
0000
0000
0180
cafe
2414
0000
0000
0188
cafe
2814
0000
0000
0185
cafe
2c14
0000
0000
017f
cafe
3014
0000
0000
0182
cafe
3414
0000
0000
0182
cafe
3814
0000
0000
0187
cafe
3c14
0000
0000
0182
cafe
2014
0000
0000
0174
cafe
2414
0000
0000
017e
cafe
2814
0000
0000
017d
cafe
2c14
0000
0000
017b
cafe
3014
0000
0000
0177
cafe
3414
0000
0000
017b
cafe
3814
0000
0000
0179
cafe
3c14
0000
0000
0176
cafe
2014
0000
0000
0171
cafe
2414
0000
0000
0178
cafe
2814
0000
0000
017d
cafe
2c14
0000
0000
0177
cafe
3014
0000
0000
017d
cafe
3414
0000
0000
017c
cafe
3814
0000
0000
017d
cafe
3c14
0000
0000
017e
cafe
2014
0000
0000
0181
cafe
2414
0000
0000
0185
cafe
2814
0000
0000
0186
cafe
2c14
0000
0000
0184
cafe
3014
0000
0000
0178
cafe
3414
0000
0000
0188
cafe
3814
0000
0000
0181
cafe
3c14
0000
0000
017f
cafe
2014
0000
0000
0186
cafe
2414
0000
0000
018a
cafe
2814
0000
0000
0186
cafe
2c14
0000
0000
018d
cafe
3014
0000
0000
0184
cafe
3414
0000
0000
0187
cafe
3814
0000
0000
0185
cafe
3c14
0000
0000
-
0185
cafe
2014
0000
0000
018e
cafe
2414
0000
0000
0189
cafe
2814
0000
0000
018a
cafe
2c14
0000
0000
0187
cafe
3014
0000
0000
0187
cafe
3414
0000
0000
018c
cafe
3814
0000
0000
0188
cafe
3c14
0000
0000
0178
cafe
2014
0000
0000
0178
cafe
2414
0000
0000
0174
cafe
2814
0000
0000
0172
cafe
2c14
0000
0000
017b
cafe
3014
0000
0000
017a
cafe
3414
0000
0000
017f
cafe
3814
0000
0000
017e
cafe
3c14
0000
0000
017a
cafe
2014
0000
0000
017a
cafe
2414
0000
0000
0177
cafe
2814
0000
0000
0179
cafe
2c14
0000
0000
017c
cafe
3014
0000
0000
0176
cafe
3414
0000
0000
017b
cafe
3814
0000
0000
017c
cafe
3c14
0000
0000
017e
cafe
2014
0000
0000
017a
cafe
2414
0000
0000
0177
cafe
2814
0000
0000
017b
cafe
2c14
0000
0000
017c
cafe
3014
0000
0000
0183
cafe
3414
0000
0000
0180
cafe
3814
0000
0000
017f
cafe
3c14
0000
0000
0183
cafe
2014
0000
0000
018a
cafe
2414
0000
0000
0184
cafe
2814
0000
0000
018c
cafe
2c14
0000
0000
018c
cafe
3014
0000
0000
0189
cafe
3414
0000
0000
018a
cafe
3814
0000
0000
0190
cafe
3c14
0000
0000
018d
cafe
2014
0000
0000
0185
cafe
2414
0000
0000
017e
cafe
2814
0000
0000
017a
cafe
2c14
0000
0000
017a
cafe
3014
0000
0000
0180
cafe
3414
0000
0000
017c
cafe
3814
0000
0000
0179
cafe
3c14
0000
0000
017a
cafe
2014
0000
0000
017a
cafe
2414
0000
0000
0175
cafe
2814
0000
0000
017b
-
cafe
2c14
0000
0000
017c
cafe
3014
0000
0000
017f
cafe
3414
0000
0000
0184
cafe
3814
0000
0000
017a
cafe
3c14
0000
0000
0180
cafe
2014
0000
0000
0175
cafe
2414
0000
0000
0181
cafe
2814
0000
0000
017d
cafe
2c14
0000
0000
017e
cafe
3014
0000
0000
017d
cafe
3414
0000
0000
0181
cafe
3814
0000
0000
0177
cafe
3c14
0000
0000
017f
cafe
2014
0000
0000
0179
cafe
2414
0000
0000
0174
cafe
2814
0000
0000
0173
cafe
2c14
0000
0000
0173
cafe
3014
0000
0000
0176
cafe
3414
0000
0000
0177
cafe
3814
0000
0000
0173
cafe
3c14
0000
0000
016e
cafe
2014
0000
0000
0172
cafe
2414
0000
0000
0172
cafe
2814
0000
0000
0175
cafe
2c14
0000
0000
0173
cafe
3014
0000
0000
0176
cafe
3414
0000
0000
017a
cafe
3814
0000
0000
0177
cafe
3c14
0000
0000
017d
cafe
2014
0000
0000
017c
cafe
2414
0000
0000
0182
cafe
2814
0000
0000
018a
cafe
2c14
0000
0000
0188
cafe
3014
0000
0000
017a
cafe
3414
0000
0000
017d
cafe
3814
0000
0000
0189
cafe
3c14
0000
0000
0183
cafe
2014
0000
0000
0185
cafe
2414
0000
0000
0182
cafe
2814
0000
0000
0180
cafe
2c14
0000
0000
0186
cafe
3014
0000
0000
017f
cafe
3414
0000
0000
0178
cafe
3814
0000
0000
017a
cafe
3c14
0000
0000
0179
cafe
2014
0000
0000
0174
cafe
2414
0000
0000
017a
cafe
2814
0000
0000
016c
cafe
2c14
0000
0000
016d
cafe
3014
0000
0000
0171
cafe
3414
0000
0000
016d
cafe
-
3814
0000
0000
0168
cafe
3c14
0000
0000
016d
cafe
2014
0000
0000
0175
cafe
2414
0000
0000
0172
cafe
2814
0000
0000
0178
cafe
2c14
0000
0000
0177
cafe
3014
0000
0000
0179
cafe
3414
0000
0000
0179
cafe
3814
0000
0000
0176
cafe
3c14
0000
0000
0180
cafe
2014
0000
0000
017f
cafe
2414
0000
0000
017c
cafe
2814
0000
0000
017d
cafe
2c14
0000
0000
0175
cafe
3014
0000
0000
017d
cafe
3414
0000
0000
017a
cafe
3814
0000
0000
017f
cafe
3c14
0000
0000
017e
cafe
2014
0000
0000
017d
cafe
2414
0000
0000
017c
cafe
2814
0000
0000
0173
cafe
2c14
0000
0000
0173
cafe
3014
0000
0000
0175
cafe
3414
0000
0000
0179
cafe
3814
0000
0000
0175
cafe
3c14
0000
0000
0175
cafe
2014
0000
0000
0185
cafe
2414
0000
0000
017b
cafe
2814
0000
0000
017b
cafe
2c14
0000
0000
0179
cafe
3014
0000
0000
017e
cafe
3414
0000
0000
017b
cafe
3814
0000
0000
016f
cafe
3c14
0000
0000
016d
cafe
2014
0000
0000
016f
cafe
2414
0000
0000
0178
cafe
2814
0000
0000
017b
cafe
2c14
0000
0000
0171
cafe
3014
0000
0000
017e
cafe
3414
0000
0000
0177
cafe
3814
0000
0000
0171
cafe
3c14
0000
0000
016c
cafe
2014
0000
0000
0170
cafe
2414
0000
0000
0172
cafe
2814
0000
0000
0172
cafe
2c14
0000
0000
016e
cafe
3014
0000
0000
016e
cafe
3414
0000
0000
0179
cafe
3814
0000
0000
0177
cafe
3c14
0000
0000
0176
cafe
2014
0000
0000
0174
cafe
2414
-
0000
0000
016f
cafe
2814
0000
0000
0178
cafe
2c14
0000
0000
017f
cafe
3014
0000
0000
017e
cafe
3414
0000
0000
017a
cafe
3814
0000
0000
0179
cafe
3c14
0000
0000
017d
cafe
2014
0000
0000
0183
cafe
2414
0000
0000
017f
cafe
2814
0000
0000
0186
cafe
2c14
0000
0000
0185
cafe
3014
0000
0000
017e
cafe
3414
0000
0000
0180
cafe
3814
0000
0000
017f
cafe
3c14
0000
0000
0181
cafe
2014
0000
0000
0183
cafe
2414
0000
0000
0183
cafe
2814
0000
0000
017b
cafe
2c14
0000
0000
0182
cafe
3014
0000
0000
017f
cafe
3414
0000
0000
0184
cafe
3814
0000
0000
018b
cafe
3c14
0000
0000
0184
cafe
2014
0000
0000
018d
cafe
2414
0000
0000
0187
cafe
2814
0000
0000
0188
cafe
2c14
0000
0000
0185
cafe
3014
0000
0000
0186
cafe
3414
0000
0000
0189
cafe
3814
0000
0000
0188
cafe
3c14
0000
0000
018f
cafe
2014
0000
0000
0181
cafe
2414
0000
0000
0182
cafe
2814
0000
0000
0182
cafe
2c14
0000
0000
0181
cafe
3014
0000
0000
0184
cafe
3414
0000
0000
018d
cafe
3814
0000
0000
0183
cafe
3c14
0000
0000
0181
cafe
2014
0000
0000
017a
cafe
2414
0000
0000
0179
cafe
2814
0000
0000
0180
cafe
2c14
0000
0000
0179
cafe
3014
0000
0000
017b
cafe
3414
0000
0000
018c
cafe
3814
0000
0000
0182
cafe
3c14
0000
0000
0185
cafe
2014
0000
0000
0186
cafe
2414
0000
0000
0181
cafe
2814
0000
0000
0185
cafe
2c14
0000
0000
017e
cafe
3014
0000
-
0000
017d
cafe
3414
0000
0000
0177
cafe
3814
0000
0000
0178
cafe
3c14
0000
0000
0176
cafe
2014
0000
0000
016f
cafe
2414
0000
0000
0174
cafe
2814
0000
0000
0178
cafe
2c14
0000
0000
017f
cafe
3014
0000
0000
017b
cafe
3414
0000
0000
0179
cafe
3814
0000
0000
017c
cafe
3c14
0000
0000
0178
cafe
2014
0000
0000
017e
cafe
2414
0000
0000
0179
cafe
2814
0000
0000
017b
cafe
2c14
0000
0000
017a
cafe
3014
0000
0000
017d
cafe
3414
0000
0000
0185
cafe
3814
0000
0000
0189
cafe
3c14
0000
0000
0189
cafe
2014
0000
0000
0185
cafe
2414
0000
0000
0188
cafe
2814
0000
0000
0187
cafe
2c14
0000
0000
0189
cafe
3014
0000
0000
017d
cafe
3414
0000
0000
0183
cafe
3814
0000
0000
0185
cafe
3c14
0000
0000
0184
cafe
2014
0000
0000
017f
cafe
2414
0000
0000
0183
cafe
2814
0000
0000
0185
cafe
2c14
0000
0000
0187
cafe
3014
0000
0000
0183
cafe
3414
0000
0000
017e
cafe
3814
0000
0000
017d
cafe
3c14
0000
0000
017b
cafe
2014
0000
0000
0181
cafe
2414
0000
0000
0173
cafe
2814
0000
0000
0170
cafe
2c14
0000
0000
0173
cafe
3014
0000
0000
0178
cafe
3414
0000
0000
0179
cafe
3814
0000
0000
0178
cafe
3c14
0000
0000
0171
cafe
2014
0000
0000
0177
cafe
2414
0000
0000
017b
cafe
2814
0000
0000
0179
cafe
2c14
0000
0000
0178
cafe
3014
0000
0000
017f
cafe
3414
0000
0000
0180
cafe
3814
0000
0000
0181
cafe
3c14
0000
0000
-
0182
cafe
2014
0000
0000
0187
cafe
2414
0000
0000
0181
cafe
2814
0000
0000
0188
cafe
2c14
0000
0000
0187
cafe
3014
0000
0000
0191
cafe
3414
0000
0000
0188
cafe
3814
0000
0000
0182
cafe
3c14
0000
0000
018d
cafe
2014
0000
0000
0187
cafe
2414
0000
0000
0185
cafe
2814
0000
0000
0180
cafe
2c14
0000
0000
0186
cafe
3014
0000
0000
0184
cafe
3414
0000
0000
0183
cafe
3814
0000
0000
0186
cafe
3c14
0000
0000
0182
cafe
2014
0000
0000
0182
cafe
2414
0000
0000
0183
cafe
2814
0000
0000
017f
cafe
2c14
0000
0000
017b
cafe
3014
0000
0000
017c
cafe
3414
0000
0000
0178
cafe
3814
0000
0000
0179
cafe
3c14
0000
0000
0175
cafe
2014
0000
0000
017c
cafe
2414
0000
0000
017a
cafe
2814
0000
0000
0176
cafe
2c14
0000
0000
0179
cafe
3014
0000
0000
0182
cafe
3414
0000
0000
017f
cafe
3814
0000
0000
017e
cafe
3c14
0000
0000
017f
cafe
2014
0000
0000
0185
cafe
2414
0000
0000
018c
cafe
2814
0000
0000
017f
cafe
2c14
0000
0000
017c
cafe
3014
0000
0000
0172
cafe
3414
0000
0000
0178
cafe
3814
0000
0000
0170
cafe
3c14
0000
0000
0170
cafe
2014
0000
0000
016f
cafe
2414
0000
0000
0177
cafe
2814
0000
0000
0176
cafe
2c14
0000
0000
0178
cafe
3014
0000
0000
0181
cafe
3414
0000
0000
017c
cafe
3814
0000
0000
0180
cafe
3c14
0000
0000
017f
cafe
2014
0000
0000
017c
cafe
2414
0000
0000
0181
cafe
2814
0000
0000
0180
-
cafe
2c14
0000
0000
017f
cafe
3014
0000
0000
017c
cafe
3414
0000
0000
017c
cafe
3814
0000
0000
0180
cafe
3c14
0000
0000
0174
cafe
2014
0000
0000
017b
cafe
2414
0000
0000
017a
cafe
2814
0000
0000
0175
cafe
2c14
0000
0000
017f
cafe
3014
0000
0000
0186
cafe
3414
0000
0000
018e
cafe
3814
0000
0000
0189
cafe
3c14
0000
0000
018a
cafe
2014
0000
0000
0185
cafe
2414
0000
0000
0182
cafe
2814
0000
0000
0186
cafe
2c14
0000
0000
017f
cafe
3014
0000
0000
017c
cafe
3414
0000
0000
0173
cafe
3814
0000
0000
0177
cafe
3c14
0000
0000
0170
cafe
2014
0000
0000
0178
cafe
2414
0000
0000
017c
cafe
2814
0000
0000
017d
cafe
2c14
0000
0000
017e
cafe
3014
0000
0000
0184
cafe
3414
0000
0000
0180
cafe
3814
0000
0000
0185
cafe
3c14
0000
0000
0189
cafe
2014
0000
0000
0183
cafe
2414
0000
0000
0188
cafe
2814
0000
0000
0183
cafe
2c14
0000
0000
0185
cafe
3014
0000
0000
017b
cafe
3414
0000
0000
0182
cafe
3814
0000
0000
017d
cafe
3c14
0000
0000
0179
cafe
2014
0000
0000
017f
cafe
2414
0000
0000
0180
cafe
2814
0000
0000
017d
cafe
2c14
0000
0000
017c
cafe
3014
0000
0000
017a
cafe
3414
0000
0000
0179
cafe
3814
0000
0000
0175
cafe
3c14
0000
0000
0173
cafe
2014
0000
0000
0177
cafe
2414
0000
0000
017e
cafe
2814
0000
0000
0179
cafe
2c14
0000
0000
017b
cafe
3014
0000
0000
0176
cafe
3414
0000
0000
0176
cafe
-
3814
0000
0000
0174
cafe
3c14
0000
0000
0176
cafe
2014
0000
0000
017d
cafe
2414
0000
0000
0178
cafe
2814
0000
0000
017e
cafe
2c14
0000
0000
017f
cafe
3014
0000
0000
017c
cafe
3414
0000
0000
017c
cafe
3814
0000
0000
017a
cafe
3c14
0000
0000
0180
cafe
2014
0000
0000
0180
cafe
2414
0000
0000
0180
cafe
2814
0000
0000
0184
cafe
2c14
0000
0000
0182
cafe
3014
0000
0000
0180
cafe
3414
0000
0000
0184
cafe
3814
0000
0000
0183
cafe
3c14
0000
0000
0186
cafe
2014
0000
0000
0184
cafe
2414
0000
0000
0189
cafe
2814
0000
0000
0189
cafe
2c14
0000
0000
0188
cafe
3014
0000
0000
0189
cafe
3414
0000
0000
018b
cafe
3814
0000
0000
018c
cafe
3c14
0000
0000
018b
cafe
2014
0000
0000
018b
cafe
2414
0000
0000
0185
cafe
2814
0000
0000
017e
cafe
2c14
0000
0000
017d
cafe
3014
0000
0000
017f
cafe
3414
0000
0000
0173
cafe
3814
0000
0000
017c
cafe
3c14
0000
0000
0178
cafe
2014
0000
0000
0183
cafe
2414
0000
0000
017d
cafe
2814
0000
0000
0183
cafe
2c14
0000
0000
0184
cafe
3014
0000
0000
017e
cafe
3414
0000
0000
017e
cafe
3814
0000
0000
017a
cafe
3c14
0000
0000
017d
cafe
2014
0000
0000
0180
cafe
2414
0000
0000
0181
cafe
2814
0000
0000
0182
cafe
2c14
0000
0000
0186
cafe
3014
0000
0000
0183
cafe
3414
0000
0000
017d
cafe
3814
0000
0000
017f
cafe
3c14
0000
0000
017f
cafe
2014
0000
0000
0185
cafe
2414
-
0000
0000
0188
cafe
2814
0000
0000
017d
cafe
2c14
0000
0000
0181
cafe
3014
0000
0000
0182
cafe
3414
0000
0000
0182
cafe
3814
0000
0000
017d
cafe
3c14
0000
0000
017d
cafe
2014
0000
0000
0172
cafe
2414
0000
0000
0171
cafe
2814
0000
0000
0179
cafe
2c14
0000
0000
0174
cafe
3014
0000
0000
0179
cafe
3414
0000
0000
0183
cafe
3814
0000
0000
0175
cafe
3c14
0000
0000
0177
cafe
2014
0000
0000
0174
cafe
2414
0000
0000
0177
cafe
2814
0000
0000
017e
cafe
2c14
0000
0000
017d
cafe
3014
0000
0000
017c
cafe
3414
0000
0000
017e
cafe
3814
0000
0000
017e
cafe
3c14
0000
0000
0183
cafe
2014
0000
0000
0186
cafe
2414
0000
0000
017d
cafe
2814
0000
0000
017c
cafe
2c14
0000
0000
0182
cafe
3014
0000
0000
017d
cafe
3414
0000
0000
017d
cafe
3814
0000
0000
017c
cafe
3c14
0000
0000
017d
cafe
2014
0000
0000
0185
cafe
2414
0000
0000
018b
cafe
2814
0000
0000
018a
cafe
2c14
0000
0000
0187
cafe
3014
0000
0000
0185
cafe
3414
0000
0000
0187
cafe
3814
0000
0000
0183
cafe
3c14
0000
0000
0183
cafe
2014
0000
0000
0187
cafe
2414
0000
0000
0184
cafe
2814
0000
0000
0186
cafe
2c14
0000
0000
0181
cafe
3014
0000
0000
0182
cafe
3414
0000
0000
0182
cafe
3814
0000
0000
0181
cafe
3c14
0000
0000
018a
cafe
2014
0000
0000
0189
cafe
2414
0000
0000
0181
cafe
2814
0000
0000
017b
cafe
2c14
0000
0000
017f
cafe
3014
0000
-
0000
017e
cafe
3414
0000
0000
0180
cafe
3814
0000
0000
0184
cafe
3c14
0000
0000
017f
cafe
2014
0000
0000
017d
cafe
2414
0000
0000
0177
cafe
2814
0000
0000
0175
cafe
2c14
0000
0000
0171
cafe
3014
0000
0000
0173
cafe
3414
0000
0000
0179
cafe
3814
0000
0000
0176
cafe
3c14
0000
0000
017b
cafe
2014
0000
0000
0174
cafe
2414
0000
0000
0173
cafe
2814
0000
0000
016e
cafe
2c14
0000
0000
0175
cafe
3014
0000
0000
0179
cafe
3414
0000
0000
017c
cafe
3814
0000
0000
017d
cafe
3c14
0000
0000
0180
cafe
2014
0000
0000
0180
cafe
2414
0000
0000
0185
cafe
2814
0000
0000
0189
cafe
2c14
0000
0000
0187
cafe
3014
0000
0000
0183
cafe
3414
0000
0000
0184
cafe
3814
0000
0000
0188
cafe
3c14
0000
0000
018b
cafe
2014
0000
0000
0187
cafe
2414
0000
0000
0180
cafe
2814
0000
0000
0180
cafe
2c14
0000
0000
0182
cafe
3014
0000
0000
0185
cafe
3414
0000
0000
0180
cafe
3814
0000
0000
0184
cafe
3c14
0000
0000
0180
cafe
2014
0000
0000
017d
cafe
2414
0000
0000
0180
cafe
2814
0000
0000
017f
cafe
2c14
0000
0000
018a
cafe
3014
0000
0000
0185
cafe
3414
0000
0000
0180
cafe
3814
0000
0000
0184
cafe
3c14
0000
0000
0183
cafe
2014
0000
0000
017d
cafe
2414
0000
0000
0184
cafe
2814
0000
0000
0184
cafe
2c14
0000
0000
0181
cafe
3014
0000
0000
017a
cafe
3414
0000
0000
017e
cafe
3814
0000
0000
017e
cafe
3c14
0000
0000
-
017a
cafe
2014
0000
0000
017f
cafe
2414
0000
0000
0175
cafe
2814
0000
0000
0179
cafe
2c14
0000
0000
0178
cafe
3014
0000
0000
017c
cafe
3414
0000
0000
0179
cafe
3814
0000
0000
017a
cafe
3c14
0000
0000
017a
cafe
2014
0000
0000
017a
cafe
2414
0000
0000
017a
cafe
2814
0000
0000
017c
cafe
2c14
0000
0000
0178
cafe
3014
0000
0000
017c
cafe
3414
0000
0000
017e
cafe
3814
0000
0000
017d
cafe
3c14
0000
0000
017f
cafe
2014
0000
0000
017b
cafe
2414
0000
0000
017d
cafe
2814
0000
0000
0181
cafe
2c14
0000
0000
017e
cafe
3014
0000
0000
0180
cafe
3414
0000
0000
017b
cafe
3814
0000
0000
0181
cafe
3c14
0000
0000
0180
cafe
2014
0000
0000
0182
cafe
2414
0000
0000
0181
cafe
2814
0000
0000
0187
cafe
2c14
0000
0000
0189
cafe
3014
0000
0000
0182
cafe
3414
0000
0000
0187
cafe
3814
0000
0000
0187
cafe
3c14
0000
0000
0187
cafe
2014
0000
0000
0185
cafe
2414
0000
0000
018c
cafe
2814
0000
0000
018a
cafe
2c14
0000
0000
0182
cafe
3014
0000
0000
0185
cafe
3414
0000
0000
017d
cafe
3814
0000
0000
017b
cafe
3c14
0000
0000
017f
cafe
2014
0000
0000
0178
cafe
2414
0000
0000
017c
cafe
2814
0000
0000
017f
cafe
2c14
0000
0000
0175
cafe
3014
0000
0000
0171
cafe
3414
0000
0000
0173
cafe
3814
0000
0000
0172
cafe
3c14
0000
0000
0178
cafe
2014
0000
0000
0179
cafe
2414
0000
0000
017c
cafe
2814
0000
0000
017c
-
cafe
2c14
0000
0000
0186
cafe
3014
0000
0000
0181
cafe
3414
0000
0000
017d
cafe
3814
0000
0000
018b
cafe
3c14
0000
0000
0182
cafe
2014
0000
0000
017c
cafe
2414
0000
0000
0181
cafe
2814
0000
0000
017a
cafe
2c14
0000
0000
0180
cafe
3014
0000
0000
017e
cafe
3414
0000
0000
0177
cafe
3814
0000
0000
0181
cafe
3c14
0000
0000
017b
cafe
2014
0000
0000
017c
cafe
2414
0000
0000
017c
cafe
2814
0000
0000
0182
cafe
2c14
0000
0000
017b
cafe
3014
0000
0000
017c
cafe
3414
0000
0000
0181
cafe
3814
0000
0000
0181
cafe
3c14
0000
0000
0178
cafe
2014
0000
0000
0175
cafe
2414
0000
0000
0176
cafe
2814
0000
0000
0172
cafe
2c14
0000
0000
017a
cafe
3014
0000
0000
0176
cafe
3414
0000
0000
0178
cafe
3814
0000
0000
0172
cafe
3c14
0000
0000
016d
cafe
2014
0000
0000
0170
cafe
2414
0000
0000
0171
cafe
2814
0000
0000
0177
cafe
2c14
0000
0000
017c
cafe
3014
0000
0000
017f
cafe
3414
0000
0000
017f
cafe
3814
0000
0000
017a
cafe
3c14
0000
0000
017d
cafe
2014
0000
0000
017a
cafe
2414
0000
0000
0173
cafe
2814
0000
0000
017f
cafe
2c14
0000
0000
017f
cafe
3014
0000
0000
017c
cafe
3414
0000
0000
0184
cafe
3814
0000
0000
0177
cafe
3c14
0000
0000
017b
cafe
2014
0000
0000
017d
cafe
2414
0000
0000
0175
cafe
2814
0000
0000
0178
cafe
2c14
0000
0000
0184
cafe
3014
0000
0000
0181
cafe
3414
0000
0000
0181
cafe
-
3814
0000
0000
0176
cafe
3c14
0000
0000
0179
cafe
2014
0000
0000
0176
cafe
2414
0000
0000
0179
cafe
2814
0000
0000
0182
cafe
2c14
0000
0000
0181
cafe
3014
0000
0000
017b
cafe
3414
0000
0000
0183
cafe
3814
0000
0000
017e
cafe
3c14
0000
0000
0182
cafe
2014
0000
0000
0185
cafe
2414
0000
0000
0182
cafe
2814
0000
0000
0187
cafe
2c14
0000
0000
0180
cafe
3014
0000
0000
0187
cafe
3414
0000
0000
0183
cafe
3814
0000
0000
0176
cafe
3c14
0000
0000
017f
cafe
2014
0000
0000
017d
cafe
2414
0000
0000
0185
cafe
2814
0000
0000
0181
cafe
2c14
0000
0000
0187
cafe
3014
0000
0000
018c
cafe
3414
0000
0000
0183
cafe
3814
0000
0000
0186
cafe
3c14
0000
0000
0182
cafe
2014
0000
0000
0181
cafe
2414
0000
0000
0184
cafe
2814
0000
0000
0189
cafe
2c14
0000
0000
0183
cafe
3014
0000
0000
0187
cafe
3414
0000
0000
017d
cafe
3814
0000
0000
0176
cafe
3c14
0000
0000
0182
cafe
2014
0000
0000
0178
cafe
2414
0000
0000
0173
cafe
2814
0000
0000
017b
cafe
2c14
0000
0000
0179
cafe
3014
0000
0000
0178
cafe
3414
0000
0000
0178
cafe
3814
0000
0000
017b
cafe
3c14
0000
0000
0178
cafe
2014
0000
0000
0173
cafe
2414
0000
0000
017d
cafe
2814
0000
0000
0170
cafe
2c14
0000
0000
0173
cafe
3014
0000
0000
0173
cafe
3414
0000
0000
017d
cafe
3814
0000
0000
017b
cafe
3c14
0000
0000
017c
cafe
2014
0000
0000
017f
cafe
2414
-
0000
0000
017d
cafe
2814
0000
0000
017d
cafe
2c14
0000
0000
0182
cafe
3014
0000
0000
0177
cafe
3414
0000
0000
017a
cafe
3814
0000
0000
0180
cafe
3c14
0000
0000
017d
cafe
2014
0000
0000
017d
cafe
2414
0000
0000
017f
cafe
2814
0000
0000
017c
cafe
2c14
0000
0000
0178
cafe
3014
0000
0000
017d
cafe
3414
0000
0000
0178
cafe
3814
0000
0000
0179
cafe
3c14
0000
0000
0176
cafe
2014
0000
0000
017a
cafe
2414
0000
0000
0180
cafe
2814
0000
0000
0176
cafe
2c14
0000
0000
0177
cafe
3014
0000
0000
0174
cafe
3414
0000
0000
0172
cafe
3814
0000
0000
0175
cafe
3c14
0000
0000
0175
cafe
2014
0000
0000
0175
cafe
2414
0000
0000
0177
cafe
2814
0000
0000
0177
cafe
2c14
0000
0000
0180
cafe
3014
0000
0000
017e
cafe
3414
0000
0000
0180
cafe
3814
0000
0000
0180
cafe
3c14
0000
0000
0188
cafe
2014
0000
0000
017e
cafe
2414
0000
0000
0179
cafe
2814
0000
0000
0183
cafe
2c14
0000
0000
017c
cafe
3014
0000
0000
017f
cafe
3414
0000
0000
0182
cafe
3814
0000
0000
017c
cafe
3c14
0000
0000
0179
cafe
2014
0000
0000
0179
cafe
2414
0000
0000
0180
cafe
2814
0000
0000
017e
cafe
2c14
0000
0000
0175
cafe
3014
0000
0000
0172
cafe
3414
0000
0000
0179
cafe
3814
0000
0000
0183
cafe
3c14
0000
0000
0185
cafe
2014
0000
0000
017e
cafe
2414
0000
0000
017c
cafe
2814
0000
0000
017e
cafe
2c14
0000
0000
017d
cafe
3014
0000
-
0000
017c
cafe
3414
0000
0000
0178
cafe
3814
0000
0000
0185
cafe
3c14
0000
0000
0182
cafe
2014
0000
0000
0179
cafe
2414
0000
0000
0181
cafe
2814
0000
0000
0182
cafe
2c14
0000
0000
0182
cafe
3014
0000
0000
0188
cafe
3414
0000
0000
017e
cafe
3814
0000
0000
017b
cafe
3c14
0000
0000
0181
cafe
2014
0000
0000
017e
cafe
2414
0000
0000
0180
cafe
2814
0000
0000
017e
cafe
2c14
0000
0000
0183
cafe
3014
0000
0000
0180
cafe
3414
0000
0000
017b
cafe
3814
0000
0000
017a
cafe
3c14
0000
0000
0181
cafe
2014
0000
0000
0185
cafe
2414
0000
0000
0185
cafe
2814
0000
0000
0186
cafe
2c14
0000
0000
0185
cafe
3014
0000
0000
0184
cafe
3414
0000
0000
017f
cafe
3814
0000
0000
0181
cafe
3c14
0000
0000
0182
cafe
2014
0000
0000
0174
cafe
2414
0000
0000
017b
cafe
2814
0000
0000
017b
cafe
2c14
0000
0000
017e
cafe
3014
0000
0000
017e
cafe
3414
0000
0000
0183
cafe
3814
0000
0000
0178
cafe
3c14
0000
0000
0178
cafe
2014
0000
0000
0179
cafe
2414
0000
0000
017a
cafe
2814
0000
0000
017a
cafe
2c14
0000
0000
0176
cafe
3014
0000
0000
017a
cafe
3414
0000
0000
0178
cafe
3814
0000
0000
0178
cafe
3c14
0000
0000
017f
cafe
2014
0000
0000
017d
cafe
2414
0000
0000
017b
cafe
2814
0000
0000
017a
cafe
2c14
0000
0000
017d
cafe
3014
0000
0000
017a
cafe
3414
0000
0000
0182
cafe
3814
0000
0000
017f
cafe
3c14
0000
0000
-
017f
cafe
2014
0000
0000
0175
cafe
2414
0000
0000
017b
cafe
2814
0000
0000
017e
cafe
2c14
0000
0000
0175
cafe
3014
0000
0000
017b
cafe
3414
0000
0000
0181
cafe
3814
0000
0000
017e
cafe
3c14
0000
0000
017a
cafe
2014
0000
0000
0174
cafe
2414
0000
0000
0179
cafe
2814
0000
0000
0177
cafe
2c14
0000
0000
0175
cafe
3014
0000
0000
017e
cafe
3414
0000
0000
017d
cafe
3814
0000
0000
0178
cafe
3c14
0000
0000
017a
cafe
2014
0000
0000
0176
cafe
2414
0000
0000
017b
cafe
2814
0000
0000
0184
cafe
2c14
0000
0000
0177
cafe
3014
0000
0000
0179
cafe
3414
0000
0000
017a
cafe
3814
0000
0000
017d
cafe
3c14
0000
0000
0180
cafe
2014
0000
0000
0182
cafe
2414
0000
0000
0187
cafe
2814
0000
0000
0185
cafe
2c14
0000
0000
018a
cafe
3014
0000
0000
0185
cafe
3414
0000
0000
0184
cafe
3814
0000
0000
0186
cafe
3c14
0000
0000
0177
cafe
2014
0000
0000
017a
cafe
2414
0000
0000
017b
cafe
2814
0000
0000
017d
cafe
2c14
0000
0000
017d
cafe
3014
0000
0000
0181
cafe
3414
0000
0000
017f
cafe
3814
0000
0000
018a
cafe
3c14
0000
0000
0184
cafe
2014
0000
0000
018a
cafe
2414
0000
0000
017b
cafe
2814
0000
0000
0185
cafe
2c14
0000
0000
0181
cafe
3014
0000
0000
0183
cafe
3414
0000
0000
017d
cafe
3814
0000
0000
0189
cafe
3c14
0000
0000
017e
cafe
2014
0000
0000
017d
cafe
2414
0000
0000
0180
cafe
2814
0000
0000
0179
-
cafe
2c14
0000
0000
017b
cafe
3014
0000
0000
017d
cafe
3414
0000
0000
0177
cafe
3814
0000
0000
017d
cafe
3c14
0000
0000
0178
cafe
2014
0000
0000
0179
cafe
2414
0000
0000
0175
cafe
2814
0000
0000
017c
cafe
2c14
0000
0000
017d
cafe
3014
0000
0000
017d
cafe
3414
0000
0000
0177
cafe
3814
0000
0000
0170
cafe
3c14
0000
0000
0168
cafe
2014
0000
0000
016c
cafe
2414
0000
0000
0173
cafe
2814
0000
0000
0177
cafe
2c14
0000
0000
016e
cafe
3014
0000
0000
0172
cafe
3414
0000
0000
0177
cafe
3814
0000
0000
016d
cafe
3c14
0000
0000
016e
cafe
2014
0000
0000
0177
cafe
2414
0000
0000
017a
cafe
2814
0000
0000
0183
cafe
2c14
0000
0000
0183
cafe
3014
0000
0000
017b
cafe
3414
0000
0000
0181
cafe
3814
0000
0000
0181
cafe
3c14
0000
0000
0179
cafe
2014
0000
0000
017c
cafe
2414
0000
0000
0181
cafe
2814
0000
0000
0182
cafe
2c14
0000
0000
0181
cafe
3014
0000
0000
0184
cafe
3414
0000
0000
017e
cafe
3814
0000
0000
017d
cafe
3c14
0000
0000
0186
cafe
2014
0000
0000
0180
cafe
2414
0000
0000
0179
cafe
2814
0000
0000
017e
cafe
2c14
0000
0000
017f
cafe
3014
0000
0000
017d
cafe
3414
0000
0000
017e
cafe
3814
0000
0000
0181
cafe
3c14
0000
0000
0183
cafe
2014
0000
0000
017e
cafe
2414
0000
0000
0179
cafe
2814
0000
0000
0181
cafe
2c14
0000
0000
0182
cafe
3014
0000
0000
0182
cafe
3414
0000
0000
018b
cafe
-
3814
0000
0000
0182
cafe
3c14
0000
0000
0187
cafe
2014
0000
0000
0188
cafe
2414
0000
0000
018d
cafe
2814
0000
0000
018b
cafe
2c14
0000
0000
018a
cafe
3014
0000
0000
0185
cafe
3414
0000
0000
018d
cafe
3814
0000
0000
0184
cafe
3c14
0000
0000
0186
cafe
2014
0000
0000
017d
cafe
2414
0000
0000
017f
cafe
2814
0000
0000
017d
cafe
2c14
0000
0000
0181
cafe
3014
0000
0000
017d
cafe
3414
0000
0000
0177
cafe
3814
0000
0000
017a
cafe
3c14
0000
0000
017b
cafe
2014
0000
0000
0171
cafe
2414
0000
0000
0170
cafe
2814
0000
0000
0174
cafe
2c14
0000
0000
0174
cafe
3014
0000
0000
017e
cafe
3414
0000
0000
017f
cafe
3814
0000
0000
0183
cafe
3c14
0000
0000
0179
cafe
2014
0000
0000
0181
cafe
2414
0000
0000
018a
cafe
2814
0000
0000
0188
cafe
2c14
0000
0000
0188
cafe
3014
0000
0000
0184
cafe
3414
0000
0000
018b
cafe
3814
0000
0000
018c
cafe
3c14
0000
0000
0185
cafe
2014
0000
0000
0188
cafe
2414
0000
0000
018b
cafe
2814
0000
0000
0182
cafe
2c14
0000
0000
017b
cafe
3014
0000
0000
0177
cafe
3414
0000
0000
0177
cafe
3814
0000
0000
0178
cafe
3c14
0000
0000
0176
cafe
2014
0000
0000
016e
cafe
2414
0000
0000
0172
cafe
2814
0000
0000
0172
cafe
2c14
0000
0000
0172
cafe
3014
0000
0000
0177
cafe
3414
0000
0000
0179
cafe
3814
0000
0000
0179
cafe
3c14
0000
0000
0176
cafe
2014
0000
0000
017b
cafe
2414
-
0000
0000
017b
cafe
2814
0000
0000
0182
cafe
2c14
0000
0000
0185
cafe
3014
0000
0000
018a
cafe
3414
0000
0000
0183
cafe
3814
0000
0000
0186
cafe
3c14
0000
0000
0182
cafe
2014
0000
0000
0183
cafe
2414
0000
0000
0183
cafe
2814
0000
0000
017b
cafe
2c14
0000
0000
017d
cafe
3014
0000
0000
0182
cafe
3414
0000
0000
0177
cafe
3814
0000
0000
017d
cafe
3c14
0000
0000
0179
cafe
2014
0000
0000
0180
cafe
2414
0000
0000
017f
cafe
2814
0000
0000
017e
cafe
2c14
0000
0000
0188
cafe
3014
0000
0000
0181
cafe
3414
0000
0000
0181
cafe
3814
0000
0000
0183
cafe
3c14
0000
0000
0186
cafe
2014
0000
0000
0180
cafe
2414
0000
0000
0184
cafe
2814
0000
0000
017f
cafe
2c14
0000
0000
017a
cafe
3014
0000
0000
017e
cafe
3414
0000
0000
0181
cafe
3814
0000
0000
0183
cafe
3c14
0000
0000
0181
cafe
2014
0000
0000
017f
cafe
2414
0000
0000
017f
cafe
2814
0000
0000
0180
cafe
2c14
0000
0000
017e
cafe
3014
0000
0000
0177
cafe
3414
0000
0000
0176
cafe
3814
0000
0000
0177
cafe
3c14
0000
0000
0176
cafe
2014
0000
0000
0173
cafe
2414
0000
0000
0175
cafe
2814
0000
0000
0171
cafe
2c14
0000
0000
016f
cafe
3014
0000
0000
0172
cafe
3414
0000
0000
0171
cafe
3814
0000
0000
017b
cafe
3c14
0000
0000
0173
cafe
2014
0000
0000
0170
cafe
2414
0000
0000
0171
cafe
2814
0000
0000
0177
cafe
2c14
0000
0000
0178
cafe
3014
0000
-
0000
0177
cafe
3414
0000
0000
0170
cafe
3814
0000
0000
0170
cafe
3c14
0000
0000
0176
cafe
2014
0000
0000
017c
cafe
2414
0000
0000
0179
cafe
2814
0000
0000
017a
cafe
2c14
0000
0000
0180
cafe
3014
0000
0000
0175
cafe
3414
0000
0000
0177
cafe
3814
0000
0000
0178
cafe
3c14
0000
0000
017b
cafe
2014
0000
0000
0178
cafe
2414
0000
0000
017a
cafe
2814
0000
0000
017a
cafe
2c14
0000
0000
017b
cafe
3014
0000
0000
017f
cafe
3414
0000
0000
0185
cafe
3814
0000
0000
0180
cafe
3c14
0000
0000
0188
cafe
2014
0000
0000
0182
cafe
2414
0000
0000
017d
cafe
2814
0000
0000
0186
cafe
2c14
0000
0000
0178
cafe
3014
0000
0000
017f
cafe
3414
0000
0000
0187
cafe
3814
0000
0000
0184
cafe
3c14
0000
0000
0185
cafe
2014
0000
0000
0187
cafe
2414
0000
0000
018d
cafe
2814
0000
0000
0187
cafe
2c14
0000
0000
0184
cafe
3014
0000
0000
0189
cafe
3414
0000
0000
018c
cafe
3814
0000
0000
0183
cafe
3c14
0000
0000
0184
cafe
2014
0000
0000
018b
cafe
2414
0000
0000
0188
cafe
2814
0000
0000
018b
cafe
2c14
0000
0000
018b
cafe
3014
0000
0000
018a
cafe
3414
0000
0000
0187
cafe
3814
0000
0000
0188
cafe
3c14
0000
0000
0189
cafe
2014
0000
0000
0184
cafe
2414
0000
0000
017a
cafe
2814
0000
0000
017f
cafe
2c14
0000
0000
017e
cafe
3014
0000
0000
0182
cafe
3414
0000
0000
0181
cafe
3814
0000
0000
0183
cafe
3c14
0000
0000
-
0183
cafe
2014
0000
0000
0181
cafe
2414
0000
0000
017d
cafe
2814
0000
0000
016f
cafe
2c14
0000
0000
0171
cafe
3014
0000
0000
0174
cafe
3414
0000
0000
0173
cafe
3814
0000
0000
0179
cafe
3c14
0000
0000
017b
cafe
2014
0000
0000
017f
cafe
2414
0000
0000
0186
cafe
2814
0000
0000
0186
cafe
2c14
0000
0000
0186
cafe
3014
0000
0000
0183
cafe
3414
0000
0000
0188
cafe
3814
0000
0000
018d
cafe
3c14
0000
0000
0186
cafe
2014
0000
0000
018d
cafe
2414
0000
0000
0186
cafe
2814
0000
0000
0188
cafe
2c14
0000
0000
0184
cafe
3014
0000
0000
0180
cafe
3414
0000
0000
0177
cafe
3814
0000
0000
0181
cafe
3c14
0000
0000
0182
cafe
2014
0000
0000
017c
cafe
2414
0000
0000
0170
cafe
2814
0000
0000
016e
cafe
2c14
0000
0000
016e
cafe
3014
0000
0000
0167
cafe
3414
0000
0000
0176
cafe
3814
0000
0000
0178
cafe
3c14
0000
0000
0179
cafe
2014
0000
0000
0173
cafe
2414
0000
0000
0177
cafe
2814
0000
0000
0177
cafe
2c14
0000
0000
0184
cafe
3014
0000
0000
017b
cafe
3414
0000
0000
017f
cafe
3814
0000
0000
018a
cafe
3c14
0000
0000
017f
cafe
2014
0000
0000
017a
cafe
2414
0000
0000
0178
cafe
2814
0000
0000
0173
cafe
2c14
0000
0000
0175
cafe
3014
0000
0000
017d
cafe
3414
0000
0000
0176
cafe
3814
0000
0000
017d
cafe
3c14
0000
0000
017a
cafe
2014
0000
0000
017e
cafe
2414
0000
0000
0183
cafe
2814
0000
0000
017d
-
cafe
2c14
0000
0000
017a
cafe
3014
0000
0000
017c
cafe
3414
0000
0000
0178
cafe
3814
0000
0000
017c
cafe
3c14
0000
0000
0172
cafe
2014
0000
0000
0176
cafe
2414
0000
0000
017b
cafe
2814
0000
0000
017f
cafe
2c14
0000
0000
017e
cafe
3014
0000
0000
0182
cafe
3414
0000
0000
017d
cafe
3814
0000
0000
017d
cafe
3c14
0000
0000
0179
cafe
2014
0000
0000
0181
cafe
2414
0000
0000
0182
cafe
2814
0000
0000
0185
cafe
2c14
0000
0000
017b
cafe
3014
0000
0000
017e
cafe
3414
0000
0000
017d
cafe
3814
0000
0000
0186
cafe
3c14
0000
0000
0182
cafe
2014
0000
0000
0185
cafe
2414
0000
0000
0187
cafe
2814
0000
0000
018b
cafe
2c14
0000
0000
0181
cafe
3014
0000
0000
0180
cafe
3414
0000
0000
0184
cafe
3814
0000
0000
017d
cafe
3c14
0000
0000
017b
cafe
2014
0000
0000
0179
cafe
2414
0000
0000
017a
cafe
2814
0000
0000
017c
cafe
2c14
0000
0000
017a
cafe
3014
0000
0000
0170
cafe
3414
0000
0000
0169
cafe
3814
0000
0000
016e
cafe
3c14
0000
0000
016f
cafe
2014
0000
0000
0177
cafe
2414
0000
0000
017b
cafe
2814
0000
0000
017d
cafe
2c14
0000
0000
017c
cafe
3014
0000
0000
017f
cafe
3414
0000
0000
017c
cafe
3814
0000
0000
0181
cafe
3c14
0000
0000
017d
cafe
2014
0000
0000
017c
cafe
2414
0000
0000
0182
cafe
2814
0000
0000
017b
cafe
2c14
0000
0000
017d
cafe
3014
0000
0000
017b
cafe
3414
0000
0000
0181
cafe
-
3814
0000
0000
0178
cafe
3c14
0000
0000
017a
cafe
2014
0000
0000
017a
cafe
2414
0000
0000
017e
cafe
2814
0000
0000
0180
cafe
2c14
0000
0000
0181
cafe
3014
0000
0000
017c
cafe
3414
0000
0000
0183
cafe
3814
0000
0000
0185
cafe
3c14
0000
0000
0181
cafe
2014
0000
0000
017e
cafe
2414
0000
0000
017f
cafe
2814
0000
0000
017e
cafe
2c14
0000
0000
017d
cafe
3014
0000
0000
0180
cafe
3414
0000
0000
0180
cafe
3814
0000
0000
0173
cafe
3c14
0000
0000
017e
cafe
2014
0000
0000
0179
cafe
2414
0000
0000
0174
cafe
2814
0000
0000
0172
cafe
2c14
0000
0000
017a
cafe
3014
0000
0000
017c
cafe
3414
0000
0000
0189
cafe
3814
0000
0000
017d
cafe
3c14
0000
0000
017e
cafe
2014
0000
0000
0189
cafe
2414
0000
0000
0189
cafe
2814
0000
0000
0187
cafe
2c14
0000
0000
0189
cafe
3014
0000
0000
0184
cafe
3414
0000
0000
017d
cafe
3814
0000
0000
0186
cafe
3c14
0000
0000
0181
cafe
2014
0000
0000
0185
cafe
2414
0000
0000
0187
cafe
2814
0000
0000
0188
cafe
2c14
0000
0000
0186
cafe
3014
0000
0000
0187
cafe
3414
0000
0000
0183
cafe
3814
0000
0000
017f
cafe
3c14
0000
0000
017c
cafe
2014
0000
0000
017e
cafe
2414
0000
0000
0183
cafe
2814
0000
0000
0178
cafe
2c14
0000
0000
017b
cafe
3014
0000
0000
017f
cafe
3414
0000
0000
0188
cafe
3814
0000
0000
0190
cafe
3c14
0000
0000
018d
cafe
2014
0000
0000
0185
cafe
2414
-
0000
0000
0183
cafe
2814
0000
0000
017c
cafe
2c14
0000
0000
017e
cafe
3014
0000
0000
0175
cafe
3414
0000
0000
0177
cafe
3814
0000
0000
0170
cafe
3c14
0000
0000
0174
cafe
2014
0000
0000
0173
cafe
2414
0000
0000
016d
cafe
2814
0000
0000
0174
cafe
2c14
0000
0000
017b
cafe
3014
0000
0000
017b
cafe
3414
0000
0000
0173
cafe
3814
0000
0000
0176
cafe
3c14
0000
0000
0171
cafe
2014
0000
0000
0175
cafe
2414
0000
0000
0179
cafe
2814
0000
0000
0177
cafe
2c14
0000
0000
017a
cafe
3014
0000
0000
0175
cafe
3414
0000
0000
017d
cafe
3814
0000
0000
017c
cafe
3c14
0000
0000
017c
cafe
2014
0000
0000
0178
cafe
2414
0000
0000
0176
cafe
2814
0000
0000
0173
cafe
2c14
0000
0000
0171
cafe
3014
0000
0000
017b
cafe
3414
0000
0000
017e
cafe
3814
0000
0000
0179
cafe
3c14
0000
0000
017f
cafe
2014
0000
0000
017b
cafe
2414
0000
0000
017e
cafe
2814
0000
0000
017d
cafe
2c14
0000
0000
0179
cafe
3014
0000
0000
017a
cafe
3414
0000
0000
017c
cafe
3814
0000
0000
017f
cafe
3c14
0000
0000
0180
cafe
2014
0000
0000
017f
cafe
2414
0000
0000
017c
cafe
2814
0000
0000
017b
cafe
2c14
0000
0000
017d
cafe
3014
0000
0000
017b
cafe
3414
0000
0000
017a
cafe
3814
0000
0000
0177
cafe
3c14
0000
0000
017c
cafe
2014
0000
0000
017d
cafe
2414
0000
0000
017b
cafe
2814
0000
0000
0182
cafe
2c14
0000
0000
017e
cafe
3014
0000
-
0000
0181
cafe
3414
0000
0000
0180
cafe
3814
0000
0000
0185
cafe
3c14
0000
0000
0183
cafe
2014
0000
0000
0185
cafe
2414
0000
0000
0183
cafe
2814
0000
0000
0183
cafe
2c14
0000
0000
0181
cafe
3014
0000
0000
0183
cafe
3414
0000
0000
0180
cafe
3814
0000
0000
0177
cafe
3c14
0000
0000
017b
cafe
2014
0000
0000
017b
cafe
2414
0000
0000
0180
cafe
2814
0000
0000
017d
cafe
2c14
0000
0000
0179
cafe
3014
0000
0000
0175
cafe
3414
0000
0000
0176
cafe
3814
0000
0000
017c
cafe
3c14
0000
0000
017d
cafe
2014
0000
0000
0179
cafe
2414
0000
0000
0180
cafe
2814
0000
0000
017f
cafe
2c14
0000
0000
0185
cafe
3014
0000
0000
0185
cafe
3414
0000
0000
0179
cafe
3814
0000
0000
017a
cafe
3c14
0000
0000
017f
cafe
2014
0000
0000
0178
cafe
2414
0000
0000
0178
cafe
2814
0000
0000
017a
cafe
2c14
0000
0000
0181
cafe
3014
0000
0000
017a
cafe
3414
0000
0000
0173
cafe
3814
0000
0000
0175
cafe
3c14
0000
0000
0172
cafe
2014
0000
0000
017a
cafe
2414
0000
0000
0182
cafe
2814
0000
0000
0181
cafe
2c14
0000
0000
0181
cafe
3014
0000
0000
017d
cafe
3414
0000
0000
0186
cafe
3814
0000
0000
017e
cafe
3c14
0000
0000
0181
cafe
2014
0000
0000
017b
cafe
2414
0000
0000
0176
cafe
2814
0000
0000
017c
cafe
2c14
0000
0000
0175
cafe
3014
0000
0000
0178
cafe
3414
0000
0000
0174
cafe
3814
0000
0000
0171
cafe
3c14
0000
0000
-
0179
cafe
2014
0000
0000
0172
cafe
2414
0000
0000
0174
cafe
2814
0000
0000
0173
cafe
2c14
0000
0000
016e
cafe
3014
0000
0000
0173
cafe
3414
0000
0000
0172
cafe
3814
0000
0000
0179
cafe
3c14
0000
0000
017c
cafe
2014
0000
0000
0185
cafe
2414
0000
0000
0183
cafe
2814
0000
0000
0183
cafe
2c14
0000
0000
0188
cafe
3014
0000
0000
0183
cafe
3414
0000
0000
0188
cafe
3814
0000
0000
0182
cafe
3c14
0000
0000
0177
cafe
2014
0000
0000
0180
cafe
2414
0000
0000
0188
cafe
2814
0000
0000
0184
cafe
2c14
0000
0000
017e
cafe
3014
0000
0000
0178
cafe
3414
0000
0000
0174
cafe
3814
0000
0000
017b
cafe
3c14
0000
0000
0175
cafe
2014
0000
0000
017b
cafe
2414
0000
0000
017e
cafe
2814
0000
0000
017a
cafe
2c14
0000
0000
017c
cafe
3014
0000
0000
017a
cafe
3414
0000
0000
0179
cafe
3814
0000
0000
0180
cafe
3c14
0000
0000
0175
cafe
2014
0000
0000
0172
cafe
2414
0000
0000
0174
cafe
2814
0000
0000
0179
cafe
2c14
0000
0000
0181
cafe
3014
0000
0000
0180
cafe
3414
0000
0000
0179
cafe
3814
0000
0000
0176
cafe
3c14
0000
0000
0184
cafe
2014
0000
0000
017c
cafe
2414
0000
0000
017d
cafe
2814
0000
0000
017d
cafe
2c14
0000
0000
0178
cafe
3014
0000
0000
017f
cafe
3414
0000
0000
0178
cafe
3814
0000
0000
0170
cafe
3c14
0000
0000
0170
cafe
2014
0000
0000
017e
cafe
2414
0000
0000
017d
cafe
2814
0000
0000
017c
-
cafe
2c14
0000
0000
0185
cafe
3014
0000
0000
0184
cafe
3414
0000
0000
018e
cafe
3814
0000
0000
018a
cafe
3c14
0000
0000
0191
cafe
2014
0000
0000
018c
cafe
2414
0000
0000
018d
cafe
2814
0000
0000
018d
cafe
2c14
0000
0000
018d
cafe
3014
0000
0000
0187
cafe
3414
0000
0000
0187
cafe
3814
0000
0000
0183
cafe
3c14
0000
0000
017a
cafe
2014
0000
0000
017a
cafe
2414
0000
0000
017f
cafe
2814
0000
0000
0181
cafe
2c14
0000
0000
0174
cafe
3014
0000
0000
0177
cafe
3414
0000
0000
017c
cafe
3814
0000
0000
0179
cafe
3c14
0000
0000
0180
cafe
2014
0000
0000
0178
cafe
2414
0000
0000
017c
cafe
2814
0000
0000
017d
cafe
2c14
0000
0000
0182
cafe
3014
0000
0000
0184
cafe
3414
0000
0000
018e
cafe
3814
0000
0000
018a
cafe
3c14
0000
0000
0185
cafe
2014
0000
0000
0189
cafe
2414
0000
0000
0188
cafe
2814
0000
0000
0182
cafe
2c14
0000
0000
0178
cafe
3014
0000
0000
017e
cafe
3414
0000
0000
017e
cafe
3814
0000
0000
0181
cafe
3c14
0000
0000
017f
cafe
2014
0000
0000
0186
cafe
2414
0000
0000
0184
cafe
2814
0000
0000
017d
cafe
2c14
0000
0000
017d
cafe
3014
0000
0000
0177
cafe
3414
0000
0000
0173
cafe
3814
0000
0000
0176
cafe
3c14
0000
0000
017b
cafe
2014
0000
0000
017b
cafe
2414
0000
0000
0172
cafe
2814
0000
0000
0175
cafe
2c14
0000
0000
0173
cafe
3014
0000
0000
0173
cafe
3414
0000
0000
016e
cafe
-
3814
0000
0000
0178
cafe
3c14
0000
0000
0177
cafe
2014
0000
0000
0172
cafe
2414
0000
0000
0183
cafe
2814
0000
0000
0175
cafe
2c14
0000
0000
0179
cafe
3014
0000
0000
0184
cafe
3414
0000
0000
0183
cafe
3814
0000
0000
017a
cafe
3c14
0000
0000
017f
cafe
2014
0000
0000
0182
cafe
2414
0000
0000
0187
cafe
2814
0000
0000
0188
cafe
2c14
0000
0000
0189
cafe
3014
0000
0000
0186
cafe
3414
0000
0000
018c
cafe
3814
0000
0000
018a
cafe
3c14
0000
0000
0185
cafe
2014
0000
0000
0188
cafe
2414
0000
0000
0185
cafe
2814
0000
0000
0181
cafe
2c14
0000
0000
0187
cafe
3014
0000
0000
018e
cafe
3414
0000
0000
0187
cafe
3814
0000
0000
0188
cafe
3c14
0000
0000
018a
cafe
2014
0000
0000
0180
cafe
2414
0000
0000
017e
cafe
2814
0000
0000
0177
cafe
2c14
0000
0000
017b
cafe
3014
0000
0000
017c
cafe
3414
0000
0000
0178
cafe
3814
0000
0000
0182
cafe
3c14
0000
0000
0182
cafe
2014
0000
0000
017d
cafe
2414
0000
0000
0179
cafe
2814
0000
0000
017a
cafe
2c14
0000
0000
0178
cafe
3014
0000
0000
017b
cafe
3414
0000
0000
0178
cafe
3814
0000
0000
0176
cafe
3c14
0000
0000
0171
cafe
2014
0000
0000
0173
cafe
2414
0000
0000
0176
cafe
2814
0000
0000
0178
cafe
2c14
0000
0000
017c
cafe
3014
0000
0000
0175
cafe
3414
0000
0000
0179
cafe
3814
0000
0000
0182
cafe
3c14
0000
0000
017a
cafe
2014
0000
0000
0178
cafe
2414
-
0000
0000
0178
cafe
2814
0000
0000
0176
cafe
2c14
0000
0000
0176
cafe
3014
0000
0000
017c
cafe
3414
0000
0000
017d
cafe
3814
0000
0000
017c
cafe
3c14
0000
0000
0181
cafe
2014
0000
0000
0180
cafe
2414
0000
0000
0178
cafe
2814
0000
0000
017b
cafe
2c14
0000
0000
017a
cafe
3014
0000
0000
017c
cafe
3414
0000
0000
017e
cafe
3814
0000
0000
0181
cafe
3c14
0000
0000
017c
cafe
2014
0000
0000
017d
cafe
2414
0000
0000
017a
cafe
2814
0000
0000
017e
cafe
2c14
0000
0000
0183
cafe
3014
0000
0000
017f
cafe
3414
0000
0000
017f
cafe
3814
0000
0000
017f
cafe
3c14
0000
0000
017e
cafe
2014
0000
0000
0177
cafe
2414
0000
0000
017d
cafe
2814
0000
0000
0176
cafe
2c14
0000
0000
017e
cafe
3014
0000
0000
017f
cafe
3414
0000
0000
0178
cafe
3814
0000
0000
017c
cafe
3c14
0000
0000
017b
cafe
2014
0000
0000
0172
cafe
2414
0000
0000
017b
cafe
2814
0000
0000
0182
cafe
2c14
0000
0000
0183
cafe
3014
0000
0000
017a
cafe
3414
0000
0000
017e
cafe
3814
0000
0000
0186
cafe
3c14
0000
0000
017a
cafe
2014
0000
0000
0177
cafe
2414
0000
0000
0177
cafe
2814
0000
0000
016e
cafe
2c14
0000
0000
0173
cafe
3014
0000
0000
0178
cafe
3414
0000
0000
0175
cafe
3814
0000
0000
0178
cafe
3c14
0000
0000
0172
cafe
2014
0000
0000
0171
cafe
2414
0000
0000
017e
cafe
2814
0000
0000
017b
cafe
2c14
0000
0000
017d
cafe
3014
0000
-
0000
017e
cafe
3414
0000
0000
0184
cafe
3814
0000
0000
0186
cafe
3c14
0000
0000
018d
cafe
2014
0000
0000
0189
cafe
2414
0000
0000
0190
cafe
2814
0000
0000
0191
cafe
2c14
0000
0000
018d
cafe
3014
0000
0000
0188
cafe
3414
0000
0000
0187
cafe
3814
0000
0000
0185
cafe
3c14
0000
0000
018a
cafe
2014
0000
0000
0183
cafe
2414
0000
0000
0188
cafe
2814
0000
0000
0185
cafe
2c14
0000
0000
0188
cafe
3014
0000
0000
018a
cafe
3414
0000
0000
0190
cafe
3814
0000
0000
018d
cafe
3c14
0000
0000
0186
cafe
2014
0000
0000
018f
cafe
2414
0000
0000
018c
cafe
2814
0000
0000
0187
cafe
2c14
0000
0000
0185
cafe
3014
0000
0000
0188
cafe
3414
0000
0000
018d
cafe
3814
0000
0000
0184
cafe
3c14
0000
0000
0184
cafe
2014
0000
0000
0183
cafe
2414
0000
0000
0187
cafe
2814
0000
0000
018f
cafe
2c14
0000
0000
0192
cafe
3014
0000
0000
0195
cafe
3414
0000
0000
018f
cafe
3814
0000
0000
0194
cafe
3c14
0000
0000
0189
cafe
2014
0000
0000
0189
cafe
2414
0000
0000
0181
cafe
2814
0000
0000
017b
cafe
2c14
0000
0000
0173
cafe
3014
0000
0000
0176
cafe
3414
0000
0000
0176
cafe
3814
0000
0000
016e
cafe
3c14
0000
0000
0169
cafe
2014
0000
0000
0175
cafe
2414
0000
0000
0177
cafe
2814
0000
0000
017d
cafe
2c14
0000
0000
0175
cafe
3014
0000
0000
017a
cafe
3414
0000
0000
0175
cafe
3814
0000
0000
0173
cafe
3c14
0000
0000
-
0173
cafe
2014
0000
0000
017e
cafe
2414
0000
0000
0184
cafe
2814
0000
0000
0182
cafe
2c14
0000
0000
0183
cafe
3014
0000
0000
0178
cafe
3414
0000
0000
017d
cafe
3814
0000
0000
0185
cafe
3c14
0000
0000
0176
cafe
2014
0000
0000
0178
cafe
2414
0000
0000
0179
cafe
2814
0000
0000
0176
cafe
2c14
0000
0000
0179
cafe
3014
0000
0000
0177
cafe
3414
0000
0000
017a
cafe
3814
0000
0000
0181
cafe
3c14
0000
0000
0181
cafe
2014
0000
0000
017b
cafe
2414
0000
0000
0187
cafe
2814
0000
0000
0179
cafe
2c14
0000
0000
0181
cafe
3014
0000
0000
0185
cafe
3414
0000
0000
0180
cafe
3814
0000
0000
0183
cafe
3c14
0000
0000
017b
cafe
2014
0000
0000
017b
cafe
2414
0000
0000
017b
cafe
2814
0000
0000
017b
cafe
2c14
0000
0000
0175
cafe
3014
0000
0000
0175
cafe
3414
0000
0000
0176
cafe
3814
0000
0000
0177
cafe
3c14
0000
0000
017b
cafe
2014
0000
0000
0181
cafe
2414
0000
0000
017e
cafe
2814
0000
0000
0174
cafe
2c14
0000
0000
0181
cafe
3014
0000
0000
0185
cafe
3414
0000
0000
017e
cafe
3814
0000
0000
0181
cafe
3c14
0000
0000
0176
cafe
2014
0000
0000
017d
cafe
2414
0000
0000
017d
cafe
2814
0000
0000
017f
cafe
2c14
0000
0000
0180
cafe
3014
0000
0000
0183
cafe
3414
0000
0000
017c
cafe
3814
0000
0000
017d
cafe
3c14
0000
0000
0182
cafe
2014
0000
0000
0183
cafe
2414
0000
0000
0184
cafe
2814
0000
0000
0181
-
