2807
0000
0000
0143
cafe
2c07
0000
0000
0143
cafe
3007
0000
0000
0147
cafe
3407
0000
0000
0149
cafe
3807
0000
0000
014d
cafe
3c07
0000
0000
0144
cafe
2007
0000
0000
0145
cafe
2407
0000
0000
014a
cafe
2807
0000
0000
014b
cafe
2c07
0000
0000
0152
cafe
3007
0000
0000
0153
cafe
3407
0000
0000
0152
cafe
3807
0000
0000
0155
cafe
3c07
0000
0000
0158
cafe
2007
0000
0000
015a
cafe
2407
0000
0000
015c
cafe
2807
0000
0000
015f
cafe
2c07
0000
0000
0153
cafe
3007
0000
0000
014d
cafe
3407
0000
0000
014a
cafe
3807
0000
0000
014a
cafe
3c07
0000
0000
0145
cafe
2007
0000
0000
0140
cafe
2407
0000
0000
0144
cafe
2807
0000
0000
0148
cafe
2c07
0000
0000
0143
cafe
3007
0000
0000
0146
cafe
3407
0000
0000
0149
cafe
3807
0000
0000
014d
cafe
3c07
0000
0000
0150
cafe
2007
0000
0000
014b
cafe
2407
0000
0000
014a
cafe
2807
0000
0000
014d
cafe
2c07
0000
0000
014c
cafe
3007
0000
0000
014e
cafe
3407
0000
0000
0153
cafe
3807
0000
0000
0151
cafe
3c07
0000
0000
014b
cafe
2007
0000
0000
014a
cafe
2407
0000
0000
0149
cafe
2807
0000
0000
0147
cafe
2c07
0000
0000
014b
cafe
3007
0000
0000
0150
cafe
3407
0000
0000
014d
cafe
3807
0000
0000
014a
cafe
3c07
0000
0000
0147
cafe
2007
0000
0000
0145
cafe
2407
0000
0000
0141
cafe
2807
0000
0000
0144
cafe
2c07
0000
0000
0140
cafe
3007
0000
0000
013a
cafe
3407
-
0000
0000
013e
cafe
3807
0000
0000
0140
cafe
3c07
0000
0000
013c
cafe
2007
0000
0000
0143
cafe
2407
0000
0000
0146
cafe
2807
0000
0000
0148
cafe
2c07
0000
0000
0141
cafe
3007
0000
0000
0142
cafe
3407
0000
0000
0145
cafe
3807
0000
0000
0142
cafe
3c07
0000
0000
0148
cafe
2007
0000
0000
014e
cafe
2407
0000
0000
014f
cafe
2807
0000
0000
014d
cafe
2c07
0000
0000
014f
cafe
3007
0000
0000
014f
cafe
3407
0000
0000
0153
cafe
3807
0000
0000
0153
cafe
3c07
0000
0000
014d
cafe
2007
0000
0000
0150
cafe
2407
0000
0000
014f
cafe
2807
0000
0000
0155
cafe
2c07
0000
0000
0150
cafe
3007
0000
0000
014b
cafe
3407
0000
0000
014b
cafe
3807
0000
0000
0146
cafe
3c07
0000
0000
0147
cafe
2007
0000
0000
013f
cafe
2407
0000
0000
013e
cafe
2807
0000
0000
013e
cafe
2c07
0000
0000
0140
cafe
3007
0000
0000
0141
cafe
3407
0000
0000
0145
cafe
3807
0000
0000
0146
cafe
3c07
0000
0000
014b
cafe
2007
0000
0000
0146
cafe
2407
0000
0000
0145
cafe
2807
0000
0000
0145
cafe
2c07
0000
0000
0143
cafe
3007
0000
0000
014a
cafe
3407
0000
0000
0145
cafe
3807
0000
0000
0149
cafe
3c07
0000
0000
0149
cafe
2007
0000
0000
014b
cafe
2407
0000
0000
014e
cafe
2807
0000
0000
014b
cafe
2c07
0000
0000
014d
cafe
3007
0000
0000
014a
cafe
3407
0000
0000
0149
cafe
3807
0000
0000
0149
cafe
3c07
0000
0000
0148
cafe
2007
0000
-
0000
0144
cafe
2407
0000
0000
0148
cafe
2807
0000
0000
0147
cafe
2c07
0000
0000
014a
cafe
3007
0000
0000
014b
cafe
3407
0000
0000
0157
cafe
3807
0000
0000
0158
cafe
3c07
0000
0000
0159
cafe
2007
0000
0000
0152
cafe
2407
0000
0000
014e
cafe
2807
0000
0000
0153
cafe
2c07
0000
0000
0154
cafe
3007
0000
0000
0151
cafe
3407
0000
0000
014e
cafe
3807
0000
0000
014f
cafe
3c07
0000
0000
014d
cafe
2007
0000
0000
014e
cafe
2407
0000
0000
014c
cafe
2807
0000
0000
014e
cafe
2c07
0000
0000
0150
cafe
3007
0000
0000
0150
cafe
3407
0000
0000
014f
cafe
3807
0000
0000
014e
cafe
3c07
0000
0000
0156
cafe
2007
0000
0000
0158
cafe
2407
0000
0000
0155
cafe
2807
0000
0000
0157
cafe
2c07
0000
0000
0153
cafe
3007
0000
0000
0153
cafe
3407
0000
0000
0154
cafe
3807
0000
0000
0153
cafe
3c07
0000
0000
0150
cafe
2007
0000
0000
014c
cafe
2407
0000
0000
014a
cafe
2807
0000
0000
014a
cafe
2c07
0000
0000
014f
cafe
3007
0000
0000
014d
cafe
3407
0000
0000
014f
cafe
3807
0000
0000
0150
cafe
3c07
0000
0000
014b
cafe
2007
0000
0000
0147
cafe
2407
0000
0000
0143
cafe
2807
0000
0000
0144
cafe
2c07
0000
0000
0149
cafe
3007
0000
0000
0144
cafe
3407
0000
0000
0145
cafe
3807
0000
0000
0146
cafe
3c07
0000
0000
0144
cafe
2007
0000
0000
0146
cafe
2407
0000
0000
0146
cafe
2807
0000
0000
0145
cafe
2c07
0000
0000
-
0144
cafe
3007
0000
0000
0149
cafe
3407
0000
0000
014c
cafe
3807
0000
0000
014d
cafe
3c07
0000
0000
014d
cafe
2007
0000
0000
014f
cafe
2407
0000
0000
0150
cafe
2807
0000
0000
014b
cafe
2c07
0000
0000
014c
cafe
3007
0000
0000
0148
cafe
3407
0000
0000
014e
cafe
3807
0000
0000
014c
cafe
3c07
0000
0000
014b
cafe
2007
0000
0000
014a
cafe
2407
0000
0000
014e
cafe
2807
0000
0000
014c
cafe
2c07
0000
0000
014c
cafe
3007
0000
0000
014a
cafe
3407
0000
0000
014b
cafe
3807
0000
0000
0146
cafe
3c07
0000
0000
0148
cafe
2007
0000
0000
0146
cafe
2407
0000
0000
0149
cafe
2807
0000
0000
014b
cafe
2c07
0000
0000
0147
cafe
3007
0000
0000
0144
cafe
3407
0000
0000
0143
cafe
3807
0000
0000
0142
cafe
3c07
0000
0000
0146
cafe
2007
0000
0000
014b
cafe
2407
0000
0000
0147
cafe
2807
0000
0000
0148
cafe
2c07
0000
0000
0149
cafe
3007
0000
0000
014f
cafe
3407
0000
0000
014e
cafe
3807
0000
0000
0151
cafe
3c07
0000
0000
014f
cafe
2007
0000
0000
0142
cafe
2407
0000
0000
0148
cafe
2807
0000
0000
014b
cafe
2c07
0000
0000
0152
cafe
3007
0000
0000
015b
cafe
3407
0000
0000
0157
cafe
3807
0000
0000
0156
cafe
3c07
0000
0000
0153
cafe
2007
0000
0000
0155
cafe
2407
0000
0000
014f
cafe
2807
0000
0000
0153
cafe
2c07
0000
0000
014d
cafe
3007
0000
0000
0148
cafe
3407
0000
0000
0143
cafe
3807
0000
0000
0140
-
cafe
3c07
0000
0000
0144
cafe
2007
0000
0000
013e
cafe
2407
0000
0000
0141
cafe
2807
0000
0000
0142
cafe
2c07
0000
0000
0146
cafe
3007
0000
0000
014d
cafe
3407
0000
0000
014a
cafe
3807
0000
0000
014a
cafe
3c07
0000
0000
014a
cafe
2007
0000
0000
014c
cafe
2407
0000
0000
014c
cafe
2807
0000
0000
0153
cafe
2c07
0000
0000
0156
cafe
3007
0000
0000
0159
cafe
3407
0000
0000
0157
cafe
3807
0000
0000
0156
cafe
3c07
0000
0000
015a
cafe
2007
0000
0000
0153
cafe
2407
0000
0000
0156
cafe
2807
0000
0000
0154
cafe
2c07
0000
0000
0151
cafe
3007
0000
0000
0152
cafe
3407
0000
0000
0154
cafe
3807
0000
0000
0150
cafe
3c07
0000
0000
014b
cafe
2007
0000
0000
014c
cafe
2407
0000
0000
0149
cafe
2807
0000
0000
014a
cafe
2c07
0000
0000
0148
cafe
3007
0000
0000
0148
cafe
3407
0000
0000
014b
cafe
3807
0000
0000
014b
cafe
3c07
0000
0000
014c
cafe
2007
0000
0000
014e
cafe
2407
0000
0000
0154
cafe
2807
0000
0000
0154
cafe
2c07
0000
0000
0156
cafe
3007
0000
0000
0158
cafe
3407
0000
0000
015a
cafe
3807
0000
0000
0159
cafe
3c07
0000
0000
015e
cafe
2007
0000
0000
0162
cafe
2407
0000
0000
015a
cafe
2807
0000
0000
015e
cafe
2c07
0000
0000
0157
cafe
3007
0000
0000
0158
cafe
3407
0000
0000
0157
cafe
3807
0000
0000
0154
cafe
3c07
0000
0000
0150
cafe
2007
0000
0000
014f
cafe
2407
0000
0000
0148
cafe
-
2807
0000
0000
0145
cafe
2c07
0000
0000
0142
cafe
3007
0000
0000
0137
cafe
3407
0000
0000
0139
cafe
3807
0000
0000
013e
cafe
3c07
0000
0000
0144
cafe
2007
0000
0000
0142
cafe
2407
0000
0000
0145
cafe
2807
0000
0000
014b
cafe
2c07
0000
0000
0148
cafe
3007
0000
0000
0148
cafe
3407
0000
0000
0148
cafe
3807
0000
0000
0148
cafe
3c07
0000
0000
0148
cafe
2007
0000
0000
0145
cafe
2407
0000
0000
0145
cafe
2807
0000
0000
0145
cafe
2c07
0000
0000
014e
cafe
3007
0000
0000
0150
cafe
3407
0000
0000
014c
cafe
3807
0000
0000
014a
cafe
3c07
0000
0000
0149
cafe
2007
0000
0000
0142
cafe
2407
0000
0000
0149
cafe
2807
0000
0000
0149
cafe
2c07
0000
0000
0148
cafe
3007
0000
0000
014e
cafe
3407
0000
0000
014f
cafe
3807
0000
0000
014a
cafe
3c07
0000
0000
0147
cafe
2007
0000
0000
0147
cafe
2407
0000
0000
014d
cafe
2807
0000
0000
0149
cafe
2c07
0000
0000
014b
cafe
3007
0000
0000
0152
cafe
3407
0000
0000
014d
cafe
3807
0000
0000
014c
cafe
3c07
0000
0000
014f
cafe
2007
0000
0000
014d
cafe
2407
0000
0000
014b
cafe
2807
0000
0000
014d
cafe
2c07
0000
0000
014e
cafe
3007
0000
0000
014b
cafe
3407
0000
0000
014d
cafe
3807
0000
0000
0149
cafe
3c07
0000
0000
014b
cafe
2007
0000
0000
014e
cafe
2407
0000
0000
014b
cafe
2807
0000
0000
014a
cafe
2c07
0000
0000
014b
cafe
3007
0000
0000
014b
cafe
3407
-
0000
0000
0142
cafe
3807
0000
0000
0145
cafe
3c07
0000
0000
0143
cafe
2007
0000
0000
0144
cafe
2407
0000
0000
014e
cafe
2807
0000
0000
014d
cafe
2c07
0000
0000
014d
cafe
3007
0000
0000
0146
cafe
3407
0000
0000
0147
cafe
3807
0000
0000
0142
cafe
3c07
0000
0000
0145
cafe
2007
0000
0000
0147
cafe
2407
0000
0000
014c
cafe
2807
0000
0000
0142
cafe
2c07
0000
0000
0139
cafe
3007
0000
0000
0139
cafe
3407
0000
0000
013f
cafe
3807
0000
0000
0144
cafe
3c07
0000
0000
014b
cafe
2007
0000
0000
014f
cafe
2407
0000
0000
014f
cafe
2807
0000
0000
014c
cafe
2c07
0000
0000
014a
cafe
3007
0000
0000
014b
cafe
3407
0000
0000
0152
cafe
3807
0000
0000
0156
cafe
3c07
0000
0000
0155
cafe
2007
0000
0000
0152
cafe
2407
0000
0000
014e
cafe
2807
0000
0000
014e
cafe
2c07
0000
0000
014a
cafe
3007
0000
0000
0149
cafe
3407
0000
0000
0148
cafe
3807
0000
0000
0147
cafe
3c07
0000
0000
0142
cafe
2007
0000
0000
013e
cafe
2407
0000
0000
0143
cafe
2807
0000
0000
014a
cafe
2c07
0000
0000
014c
cafe
3007
0000
0000
0152
cafe
3407
0000
0000
0155
cafe
3807
0000
0000
015b
cafe
3c07
0000
0000
015a
cafe
2007
0000
0000
015b
cafe
2407
0000
0000
015b
cafe
2807
0000
0000
0159
cafe
2c07
0000
0000
0154
cafe
3007
0000
0000
014e
cafe
3407
0000
0000
0148
cafe
3807
0000
0000
014d
cafe
3c07
0000
0000
014f
cafe
2007
0000
-
0000
0151
cafe
2407
0000
0000
014e
cafe
2807
0000
0000
0149
cafe
2c07
0000
0000
0149
cafe
3007
0000
0000
0147
cafe
3407
0000
0000
0148
cafe
3807
0000
0000
014a
cafe
3c07
0000
0000
014d
cafe
2007
0000
0000
0150
cafe
2407
0000
0000
014f
cafe
2807
0000
0000
014b
cafe
2c07
0000
0000
014a
cafe
3007
0000
0000
014c
cafe
3407
0000
0000
014c
cafe
3807
0000
0000
014b
cafe
3c07
0000
0000
0151
cafe
2007
0000
0000
0156
cafe
2407
0000
0000
0157
cafe
2807
0000
0000
0151
cafe
2c07
0000
0000
014f
cafe
3007
0000
0000
014d
cafe
3407
0000
0000
0158
cafe
3807
0000
0000
0159
cafe
3c07
0000
0000
0159
cafe
2007
0000
0000
015e
cafe
2407
0000
0000
0161
cafe
2807
0000
0000
015c
cafe
2c07
0000
0000
0154
cafe
3007
0000
0000
0150
cafe
3407
0000
0000
0153
cafe
3807
0000
0000
0155
cafe
3c07
0000
0000
0158
cafe
2007
0000
0000
0157
cafe
2407
0000
0000
0155
cafe
2807
0000
0000
0158
cafe
2c07
0000
0000
0153
cafe
3007
0000
0000
0155
cafe
3407
0000
0000
0150
cafe
3807
0000
0000
0150
cafe
3c07
0000
0000
014d
cafe
2007
0000
0000
014f
cafe
2407
0000
0000
014c
cafe
2807
0000
0000
014e
cafe
2c07
0000
0000
0144
cafe
3007
0000
0000
0144
cafe
3407
0000
0000
0144
cafe
3807
0000
0000
0149
cafe
3c07
0000
0000
014b
cafe
2007
0000
0000
014b
cafe
2407
0000
0000
014c
cafe
2807
0000
0000
0149
cafe
2c07
0000
0000
-
0144
cafe
3007
0000
0000
0146
cafe
3407
0000
0000
0147
cafe
3807
0000
0000
014b
cafe
3c07
0000
0000
014c
cafe
2007
0000
0000
0147
cafe
2407
0000
0000
0146
cafe
2807
0000
0000
014d
cafe
2c07
0000
0000
0149
cafe
3007
0000
0000
0140
cafe
3407
0000
0000
0142
cafe
3807
0000
0000
0144
cafe
3c07
0000
0000
0140
cafe
2007
0000
0000
0141
cafe
2407
0000
0000
0144
cafe
2807
0000
0000
0149
cafe
2c07
0000
0000
0149
cafe
3007
0000
0000
014b
cafe
3407
0000
0000
014c
cafe
3807
0000
0000
0150
cafe
3c07
0000
0000
014e
cafe
2007
0000
0000
014d
cafe
2407
0000
0000
014b
cafe
2807
0000
0000
014d
cafe
2c07
0000
0000
0151
cafe
3007
0000
0000
0150
cafe
3407
0000
0000
0150
cafe
3807
0000
0000
0147
cafe
3c07
0000
0000
014b
cafe
2007
0000
0000
0149
cafe
2407
0000
0000
014c
cafe
2807
0000
0000
0150
cafe
2c07
0000
0000
014e
cafe
3007
0000
0000
0148
cafe
3407
0000
0000
0150
cafe
3807
0000
0000
014d
cafe
3c07
0000
0000
014d
cafe
2007
0000
0000
0149
cafe
2407
0000
0000
0147
cafe
2807
0000
0000
0145
cafe
2c07
0000
0000
013f
cafe
3007
0000
0000
013f
cafe
3407
0000
0000
0145
cafe
3807
0000
0000
013e
cafe
3c07
0000
0000
0143
cafe
2007
0000
0000
0146
cafe
2407
0000
0000
014a
cafe
2807
0000
0000
0148
cafe
2c07
0000
0000
014b
cafe
3007
0000
0000
0151
cafe
3407
0000
0000
0156
cafe
3807
0000
0000
0154
-
cafe
3c07
0000
0000
0150
cafe
2007
0000
0000
014c
cafe
2407
0000
0000
0146
cafe
2807
0000
0000
0149
cafe
2c07
0000
0000
0146
cafe
3007
0000
0000
0147
cafe
3407
0000
0000
0147
cafe
3807
0000
0000
014a
cafe
3c07
0000
0000
014e
cafe
2007
0000
0000
0155
cafe
2407
0000
0000
0159
cafe
2807
0000
0000
0153
cafe
2c07
0000
0000
014e
cafe
3007
0000
0000
014e
cafe
3407
0000
0000
014f
cafe
3807
0000
0000
014a
cafe
3c07
0000
0000
0144
cafe
2007
0000
0000
014b
cafe
2407
0000
0000
014e
cafe
2807
0000
0000
0155
cafe
2c07
0000
0000
015b
cafe
3007
0000
0000
0157
cafe
3407
0000
0000
015c
cafe
3807
0000
0000
0157
cafe
3c07
0000
0000
0155
cafe
2007
0000
0000
0154
cafe
2407
0000
0000
015a
cafe
2807
0000
0000
0152
cafe
2c07
0000
0000
0153
cafe
3007
0000
0000
014b
cafe
3407
0000
0000
014b
cafe
3807
0000
0000
014a
cafe
3c07
0000
0000
014a
cafe
2007
0000
0000
0146
cafe
2407
0000
0000
014b
cafe
2807
0000
0000
014f
cafe
2c07
0000
0000
014d
cafe
3007
0000
0000
0146
cafe
3407
0000
0000
014b
cafe
3807
0000
0000
014b
cafe
3c07
0000
0000
0143
cafe
2007
0000
0000
0149
cafe
2407
0000
0000
014f
cafe
2807
0000
0000
0150
cafe
2c07
0000
0000
0149
cafe
3007
0000
0000
0147
cafe
3407
0000
0000
0147
cafe
3807
0000
0000
0145
cafe
3c07
0000
0000
013f
cafe
2007
0000
0000
013f
cafe
2407
0000
0000
013e
cafe
-
2807
0000
0000
0143
cafe
2c07
0000
0000
0145
cafe
3007
0000
0000
0142
cafe
3407
0000
0000
013d
cafe
3807
0000
0000
013d
cafe
3c07
0000
0000
0141
cafe
2007
0000
0000
0144
cafe
2407
0000
0000
0143
cafe
2807
0000
0000
0140
cafe
2c07
0000
0000
013d
cafe
3007
0000
0000
0143
cafe
3407
0000
0000
0145
cafe
3807
0000
0000
0143
cafe
3c07
0000
0000
013d
cafe
2007
0000
0000
0139
cafe
2407
0000
0000
013b
cafe
2807
0000
0000
0140
cafe
2c07
0000
0000
013b
cafe
3007
0000
0000
013b
cafe
3407
0000
0000
013c
cafe
3807
0000
0000
0139
cafe
3c07
0000
0000
013c
cafe
2007
0000
0000
013d
cafe
2407
0000
0000
013c
cafe
2807
0000
0000
0135
cafe
2c07
0000
0000
013e
cafe
3007
0000
0000
013c
cafe
3407
0000
0000
013d
cafe
3807
0000
0000
013f
cafe
3c07
0000
0000
0142
cafe
2007
0000
0000
0141
cafe
2407
0000
0000
014b
cafe
2807
0000
0000
014d
cafe
2c07
0000
0000
014e
cafe
3007
0000
0000
0152
cafe
3407
0000
0000
0154
cafe
3807
0000
0000
014e
cafe
3c07
0000
0000
0152
cafe
2007
0000
0000
0154
cafe
2407
0000
0000
0159
cafe
2807
0000
0000
0151
cafe
2c07
0000
0000
014f
cafe
3007
0000
0000
0151
cafe
3407
0000
0000
0151
cafe
3807
0000
0000
0153
cafe
3c07
0000
0000
0156
cafe
2007
0000
0000
0150
cafe
2407
0000
0000
014c
cafe
2807
0000
0000
014c
cafe
2c07
0000
0000
0152
cafe
3007
0000
0000
0152
cafe
3407
-
0000
0000
0158
cafe
3807
0000
0000
0156
cafe
3c07
0000
0000
0159
cafe
2007
0000
0000
0158
cafe
2407
0000
0000
015b
cafe
2807
0000
0000
015a
cafe
2c07
0000
0000
0153
cafe
3007
0000
0000
014a
cafe
3407
0000
0000
0148
cafe
3807
0000
0000
014e
cafe
3c07
0000
0000
0152
cafe
2007
0000
0000
0151
cafe
2407
0000
0000
0150
cafe
2807
0000
0000
0151
cafe
2c07
0000
0000
014c
cafe
3007
0000
0000
0143
cafe
3407
0000
0000
013e
cafe
3807
0000
0000
013c
cafe
3c07
0000
0000
0143
cafe
2007
0000
0000
0146
cafe
2407
0000
0000
0146
cafe
2807
0000
0000
014b
cafe
2c07
0000
0000
0147
cafe
3007
0000
0000
0144
cafe
3407
0000
0000
0148
cafe
3807
0000
0000
0148
cafe
3c07
0000
0000
0146
cafe
2007
0000
0000
0146
cafe
2407
0000
0000
0144
cafe
2807
0000
0000
0144
cafe
2c07
0000
0000
0143
cafe
3007
0000
0000
013d
cafe
3407
0000
0000
013e
cafe
3807
0000
0000
013d
cafe
3c07
0000
0000
0147
cafe
2007
0000
0000
014a
cafe
2407
0000
0000
0143
cafe
2807
0000
0000
0142
cafe
2c07
0000
0000
0141
cafe
3007
0000
0000
0146
cafe
3407
0000
0000
0146
cafe
3807
0000
0000
0148
cafe
3c07
0000
0000
014b
cafe
2007
0000
0000
014d
cafe
2407
0000
0000
0146
cafe
2807
0000
0000
014a
cafe
2c07
0000
0000
014c
cafe
3007
0000
0000
0150
cafe
3407
0000
0000
0156
cafe
3807
0000
0000
0155
cafe
3c07
0000
0000
0152
cafe
2007
0000
-
0000
014b
cafe
2407
0000
0000
014f
cafe
2807
0000
0000
0153
cafe
2c07
0000
0000
014d
cafe
3007
0000
0000
0147
cafe
3407
0000
0000
0143
cafe
3807
0000
0000
014b
cafe
3c07
0000
0000
014d
cafe
2007
0000
0000
014f
cafe
2407
0000
0000
0150
cafe
2807
0000
0000
0149
cafe
2c07
0000
0000
0145
cafe
3007
0000
0000
0147
cafe
3407
0000
0000
014d
cafe
3807
0000
0000
014d
cafe
3c07
0000
0000
014d
cafe
2007
0000
0000
0155
cafe
2407
0000
0000
0153
cafe
2807
0000
0000
0154
cafe
2c07
0000
0000
0152
cafe
3007
0000
0000
0156
cafe
3407
0000
0000
0154
cafe
3807
0000
0000
0159
cafe
3c07
0000
0000
0156
cafe
2007
0000
0000
0155
cafe
2407
0000
0000
014e
cafe
2807
0000
0000
014b
cafe
2c07
0000
0000
014d
cafe
3007
0000
0000
014d
cafe
3407
0000
0000
0145
cafe
3807
0000
0000
013f
cafe
3c07
0000
0000
013d
cafe
2007
0000
0000
0142
cafe
2407
0000
0000
014c
cafe
2807
0000
0000
014b
cafe
2c07
0000
0000
014a
cafe
3007
0000
0000
0144
cafe
3407
0000
0000
013f
cafe
3807
0000
0000
0145
cafe
3c07
0000
0000
0144
cafe
2007
0000
0000
0141
cafe
2407
0000
0000
0141
cafe
2807
0000
0000
0146
cafe
2c07
0000
0000
0151
cafe
3007
0000
0000
0150
cafe
3407
0000
0000
0149
cafe
3807
0000
0000
014c
cafe
3c07
0000
0000
0153
cafe
2007
0000
0000
014e
cafe
2407
0000
0000
014c
cafe
2807
0000
0000
0153
cafe
2c07
0000
0000
-
014c
cafe
3007
0000
0000
0147
cafe
3407
0000
0000
014c
cafe
3807
0000
0000
0152
cafe
3c07
0000
0000
0152
cafe
2007
0000
0000
014f
cafe
2407
0000
0000
014a
cafe
2807
0000
0000
0145
cafe
2c07
0000
0000
013e
cafe
3007
0000
0000
013d
cafe
3407
0000
0000
0141
cafe
3807
0000
0000
014d
cafe
3c07
0000
0000
0153
cafe
2007
0000
0000
0157
cafe
2407
0000
0000
015b
cafe
2807
0000
0000
0157
cafe
2c07
0000
0000
0150
cafe
3007
0000
0000
014b
cafe
3407
0000
0000
0146
cafe
3807
0000
0000
0145
cafe
3c07
0000
0000
014a
cafe
2007
0000
0000
0146
cafe
2407
0000
0000
0141
cafe
2807
0000
0000
0142
cafe
2c07
0000
0000
0144
cafe
3007
0000
0000
0146
cafe
3407
0000
0000
014d
cafe
3807
0000
0000
014b
cafe
3c07
0000
0000
014f
cafe
2007
0000
0000
014d
cafe
2407
0000
0000
014e
cafe
2807
0000
0000
0153
cafe
2c07
0000
0000
0154
cafe
3007
0000
0000
015a
cafe
3407
0000
0000
015b
cafe
3807
0000
0000
0156
cafe
3c07
0000
0000
015b
cafe
2007
0000
0000
015a
cafe
2407
0000
0000
0156
cafe
2807
0000
0000
0159
cafe
2c07
0000
0000
015b
cafe
3007
0000
0000
015c
cafe
3407
0000
0000
0155
cafe
3807
0000
0000
014b
cafe
3c07
0000
0000
0153
cafe
2007
0000
0000
014b
cafe
2407
0000
0000
0148
cafe
2807
0000
0000
0144
cafe
2c07
0000
0000
0149
cafe
3007
0000
0000
014f
cafe
3407
0000
0000
014b
cafe
3807
0000
0000
0149
-
cafe
3c07
0000
0000
014b
cafe
2007
0000
0000
014f
cafe
2407
0000
0000
0150
cafe
2807
0000
0000
0154
cafe
2c07
0000
0000
0155
cafe
3007
0000
0000
0155
cafe
3407
0000
0000
0156
cafe
3807
0000
0000
015a
cafe
3c07
0000
0000
0159
cafe
2007
0000
0000
0157
cafe
2407
0000
0000
0154
cafe
2807
0000
0000
0156
cafe
2c07
0000
0000
014d
cafe
3007
0000
0000
014b
cafe
3407
0000
0000
014d
cafe
3807
0000
0000
0144
cafe
3c07
0000
0000
014c
cafe
2007
0000
0000
014a
cafe
2407
0000
0000
0150
cafe
2807
0000
0000
0156
cafe
2c07
0000
0000
0159
cafe
3007
0000
0000
0158
cafe
3407
0000
0000
015d
cafe
3807
0000
0000
0159
cafe
3c07
0000
0000
015d
cafe
2007
0000
0000
015a
cafe
2407
0000
0000
0153
cafe
2807
0000
0000
014c
cafe
2c07
0000
0000
014f
cafe
3007
0000
0000
014e
cafe
3407
0000
0000
014d
cafe
3807
0000
0000
0149
cafe
3c07
0000
0000
0148
cafe
2007
0000
0000
0147
cafe
2407
0000
0000
0143
cafe
2807
0000
0000
0146
cafe
2c07
0000
0000
014a
cafe
3007
0000
0000
014d
cafe
3407
0000
0000
0150
cafe
3807
0000
0000
0156
cafe
3c07
0000
0000
0154
cafe
2007
0000
0000
0153
cafe
2407
0000
0000
0150
cafe
2807
0000
0000
014c
cafe
2c07
0000
0000
0149
cafe
3007
0000
0000
014a
cafe
3407
0000
0000
0146
cafe
3807
0000
0000
0141
cafe
3c07
0000
0000
0141
cafe
2007
0000
0000
0140
cafe
2407
0000
0000
0148
cafe
-
2807
0000
0000
0147
cafe
2c07
0000
0000
014d
cafe
3007
0000
0000
0154
cafe
3407
0000
0000
0156
cafe
3807
0000
0000
0152
cafe
3c07
0000
0000
014e
cafe
2007
0000
0000
014e
cafe
2407
0000
0000
0151
cafe
2807
0000
0000
0154
cafe
2c07
0000
0000
0151
cafe
3007
0000
0000
014b
cafe
3407
0000
0000
014a
cafe
3807
0000
0000
014a
cafe
3c07
0000
0000
014e
cafe
2007
0000
0000
0150
cafe
2407
0000
0000
014e
cafe
2807
0000
0000
0151
cafe
2c07
0000
0000
014f
cafe
3007
0000
0000
014b
cafe
3407
0000
0000
0144
cafe
3807
0000
0000
0148
cafe
3c07
0000
0000
0145
cafe
2007
0000
0000
014a
cafe
2407
0000
0000
014f
cafe
2807
0000
0000
0153
cafe
2c07
0000
0000
0157
cafe
3007
0000
0000
014b
cafe
3407
0000
0000
014a
cafe
3807
0000
0000
014f
cafe
3c07
0000
0000
014c
cafe
2007
0000
0000
014d
cafe
2407
0000
0000
0150
cafe
2807
0000
0000
014e
cafe
2c07
0000
0000
0153
cafe
3007
0000
0000
0157
cafe
3407
0000
0000
0158
cafe
3807
0000
0000
0156
cafe
3c07
0000
0000
0154
cafe
2007
0000
0000
0153
cafe
2407
0000
0000
0154
cafe
2807
0000
0000
0152
cafe
2c07
0000
0000
0152
cafe
3007
0000
0000
0152
cafe
3407
0000
0000
0157
cafe
3807
0000
0000
0156
cafe
3c07
0000
0000
015b
cafe
2007
0000
0000
015b
cafe
2407
0000
0000
0156
cafe
2807
0000
0000
0153
cafe
2c07
0000
0000
0152
cafe
3007
0000
0000
0151
cafe
3407
-
0000
0000
014c
cafe
3807
0000
0000
014f
cafe
3c07
0000
0000
014d
cafe
2007
0000
0000
0144
cafe
2407
0000
0000
013e
cafe
2807
0000
0000
013b
cafe
2c07
0000
0000
013e
cafe
3007
0000
0000
013f
cafe
3407
0000
0000
013d
cafe
3807
0000
0000
013e
cafe
3c07
0000
0000
013b
cafe
2007
0000
0000
013f
cafe
2407
0000
0000
0145
cafe
2807
0000
0000
013f
cafe
2c07
0000
0000
0146
cafe
3007
0000
0000
0144
cafe
3407
0000
0000
0142
cafe
3807
0000
0000
013e
cafe
3c07
0000
0000
0149
cafe
2007
0000
0000
014d
cafe
2407
0000
0000
0153
cafe
2807
0000
0000
0150
cafe
2c07
0000
0000
0156
cafe
3007
0000
0000
0156
cafe
3407
0000
0000
0154
cafe
3807
0000
0000
014c
cafe
3c07
0000
0000
014b
cafe
2007
0000
0000
0145
cafe
2407
0000
0000
0144
cafe
2807
0000
0000
0146
cafe
2c07
0000
0000
0143
cafe
3007
0000
0000
013e
cafe
3407
0000
0000
0141
cafe
3807
0000
0000
0148
cafe
3c07
0000
0000
014c
cafe
2007
0000
0000
014c
cafe
2407
0000
0000
0147
cafe
2807
0000
0000
014c
cafe
2c07
0000
0000
014d
cafe
3007
0000
0000
014d
cafe
3407
0000
0000
014c
cafe
3807
0000
0000
014e
cafe
3c07
0000
0000
0151
cafe
2007
0000
0000
014b
cafe
2407
0000
0000
014d
cafe
2807
0000
0000
014b
cafe
2c07
0000
0000
014a
cafe
3007
0000
0000
0148
cafe
3407
0000
0000
0148
cafe
3807
0000
0000
014b
cafe
3c07
0000
0000
0146
cafe
2007
0000
-
0000
0142
cafe
2407
0000
0000
0140
cafe
2807
0000
0000
0148
cafe
2c07
0000
0000
0148
cafe
3007
0000
0000
0146
cafe
3407
0000
0000
0144
cafe
3807
0000
0000
0144
cafe
3c07
0000
0000
0146
cafe
2007
0000
0000
0148
cafe
2407
0000
0000
0154
cafe
2807
0000
0000
0159
cafe
2c07
0000
0000
0159
cafe
3007
0000
0000
0151
cafe
3407
0000
0000
014f
cafe
3807
0000
0000
014f
cafe
3c07
0000
0000
0151
cafe
2007
0000
0000
014c
cafe
2407
0000
0000
0150
cafe
2807
0000
0000
014d
cafe
2c07
0000
0000
014c
cafe
3007
0000
0000
014b
cafe
3407
0000
0000
0148
cafe
3807
0000
0000
0148
cafe
3c07
0000
0000
0147
cafe
2007
0000
0000
0147
cafe
2407
0000
0000
0144
cafe
2807
0000
0000
0149
cafe
2c07
0000
0000
014a
cafe
3007
0000
0000
0142
cafe
3407
0000
0000
0140
cafe
3807
0000
0000
0143
cafe
3c07
0000
0000
0144
cafe
2007
0000
0000
0140
cafe
2407
0000
0000
0145
cafe
2807
0000
0000
014a
cafe
2c07
0000
0000
014b
cafe
3007
0000
0000
014c
cafe
3407
0000
0000
014d
cafe
3807
0000
0000
0147
cafe
3c07
0000
0000
013f
cafe
2007
0000
0000
0143
cafe
2407
0000
0000
0140
cafe
2807
0000
0000
0141
cafe
2c07
0000
0000
0140
cafe
3007
0000
0000
013e
cafe
3407
0000
0000
0141
cafe
3807
0000
0000
0142
cafe
3c07
0000
0000
0146
cafe
2007
0000
0000
0146
cafe
2407
0000
0000
0149
cafe
2807
0000
0000
0150
cafe
2c07
0000
0000
-
0150
cafe
3007
0000
0000
0150
cafe
3407
0000
0000
0155
cafe
3807
0000
0000
0154
cafe
3c07
0000
0000
0157
cafe
2007
0000
0000
0153
cafe
2407
0000
0000
0151
cafe
2807
0000
0000
0155
cafe
2c07
0000
0000
0152
cafe
3007
0000
0000
0151
cafe
3407
0000
0000
014b
cafe
3807
0000
0000
014c
cafe
3c07
0000
0000
014f
cafe
2007
0000
0000
0148
cafe
2407
0000
0000
0143
cafe
2807
0000
0000
0144
cafe
2c07
0000
0000
0149
cafe
3007
0000
0000
0150
cafe
3407
0000
0000
014d
cafe
3807
0000
0000
014f
cafe
3c07
0000
0000
0144
cafe
2007
0000
0000
0146
cafe
2407
0000
0000
014e
cafe
2807
0000
0000
0150
cafe
2c07
0000
0000
0155
cafe
3007
0000
0000
0154
cafe
3407
0000
0000
0153
cafe
3807
0000
0000
0152
cafe
3c07
0000
0000
0151
cafe
2007
0000
0000
0153
cafe
2407
0000
0000
0151
cafe
2807
0000
0000
0150
cafe
2c07
0000
0000
014f
cafe
3007
0000
0000
0152
cafe
3407
0000
0000
014f
cafe
3807
0000
0000
014e
cafe
3c07
0000
0000
014e
cafe
2007
0000
0000
0147
cafe
2407
0000
0000
0143
cafe
2807
0000
0000
0145
cafe
2c07
0000
0000
0142
cafe
3007
0000
0000
0141
cafe
3407
0000
0000
0145
cafe
3807
0000
0000
0143
cafe
3c07
0000
0000
0146
cafe
2007
0000
0000
0148
cafe
2407
0000
0000
014a
cafe
2807
0000
0000
0147
cafe
2c07
0000
0000
0148
cafe
3007
0000
0000
0148
cafe
3407
0000
0000
0146
cafe
3807
0000
0000
0148
-
cafe
3c07
0000
0000
0145
cafe
2007
0000
0000
0146
cafe
2407
0000
0000
014e
cafe
2807
0000
0000
0150
cafe
2c07
0000
0000
014c
cafe
3007
0000
0000
014b
cafe
3407
0000
0000
0150
cafe
3807
0000
0000
014c
cafe
3c07
0000
0000
0149
cafe
2007
0000
0000
0148
cafe
2407
0000
0000
014e
cafe
2807
0000
0000
014d
cafe
2c07
0000
0000
014d
cafe
3007
0000
0000
014f
cafe
3407
0000
0000
014e
cafe
3807
0000
0000
014c
cafe
3c07
0000
0000
0148
cafe
2007
0000
0000
0149
cafe
2407
0000
0000
0143
cafe
2807
0000
0000
0142
cafe
2c07
0000
0000
0143
cafe
3007
0000
0000
0142
cafe
3407
0000
0000
014d
cafe
3807
0000
0000
0151
cafe
3c07
0000
0000
0151
cafe
2007
0000
0000
0150
cafe
2407
0000
0000
0148
cafe
2807
0000
0000
0147
cafe
2c07
0000
0000
014a
cafe
3007
0000
0000
0148
cafe
3407
0000
0000
014a
cafe
3807
0000
0000
014c
cafe
3c07
0000
0000
014b
cafe
2007
0000
0000
014b
cafe
2407
0000
0000
014f
cafe
2807
0000
0000
0151
cafe
2c07
0000
0000
014f
cafe
3007
0000
0000
014f
cafe
3407
0000
0000
0151
cafe
3807
0000
0000
0151
cafe
3c07
0000
0000
014f
cafe
2007
0000
0000
014f
cafe
2407
0000
0000
0154
cafe
2807
0000
0000
015b
cafe
2c07
0000
0000
015c
cafe
3007
0000
0000
015a
cafe
3407
0000
0000
0158
cafe
3807
0000
0000
015f
cafe
3c07
0000
0000
0160
cafe
2007
0000
0000
0162
cafe
2407
0000
0000
015f
cafe
-
2807
0000
0000
015f
cafe
2c07
0000
0000
0161
cafe
3007
0000
0000
0162
cafe
3407
0000
0000
0160
cafe
3807
0000
0000
015a
cafe
3c07
0000
0000
0155
cafe
2007
0000
0000
0153
cafe
2407
0000
0000
0155
cafe
2807
0000
0000
0151
cafe
2c07
0000
0000
0152
cafe
3007
0000
0000
0154
cafe
3407
0000
0000
0154
cafe
3807
0000
0000
0154
cafe
3c07
0000
0000
0155
cafe
2007
0000
0000
0152
cafe
2407
0000
0000
0156
cafe
2807
0000
0000
014c
cafe
2c07
0000
0000
014c
cafe
3007
0000
0000
0151
cafe
3407
0000
0000
014c
cafe
3807
0000
0000
0148
cafe
3c07
0000
0000
0147
cafe
2007
0000
0000
0148
cafe
2407
0000
0000
014a
cafe
2807
0000
0000
014c
cafe
2c07
0000
0000
0152
cafe
3007
0000
0000
014e
cafe
3407
0000
0000
0151
cafe
3807
0000
0000
014e
cafe
3c07
0000
0000
014c
cafe
2007
0000
0000
0146
cafe
2407
0000
0000
0143
cafe
2807
0000
0000
0147
cafe
2c07
0000
0000
0146
cafe
3007
0000
0000
0149
cafe
3407
0000
0000
014f
cafe
3807
0000
0000
014b
cafe
3c07
0000
0000
0148
cafe
2007
0000
0000
0147
cafe
2407
0000
0000
014b
cafe
2807
0000
0000
014e
cafe
2c07
0000
0000
014c
cafe
3007
0000
0000
0151
cafe
3407
0000
0000
0153
cafe
3807
0000
0000
014f
cafe
3c07
0000
0000
014d
cafe
2007
0000
0000
014a
cafe
2407
0000
0000
0149
cafe
2807
0000
0000
014d
cafe
2c07
0000
0000
0148
cafe
3007
0000
0000
0147
cafe
3407
-
0000
0000
0153
cafe
3807
0000
0000
0157
cafe
3c07
0000
0000
0157
cafe
2007
0000
0000
0156
cafe
2407
0000
0000
0156
cafe
2807
0000
0000
014f
cafe
2c07
0000
0000
014f
cafe
3007
0000
0000
014c
cafe
3407
0000
0000
0154
cafe
3807
0000
0000
0152
cafe
3c07
0000
0000
0155
cafe
2007
0000
0000
0151
cafe
2407
0000
0000
0154
cafe
2807
0000
0000
0159
cafe
2c07
0000
0000
015b
cafe
3007
0000
0000
0156
cafe
3407
0000
0000
014f
cafe
3807
0000
0000
014e
cafe
3c07
0000
0000
0148
cafe
2007
0000
0000
0142
cafe
2407
0000
0000
0147
cafe
2807
0000
0000
0147
cafe
2c07
0000
0000
014a
cafe
3007
0000
0000
0143
cafe
3407
0000
0000
0142
cafe
3807
0000
0000
0143
cafe
3c07
0000
0000
013f
cafe
2007
0000
0000
0148
cafe
2407
0000
0000
014f
cafe
2807
0000
0000
014e
cafe
2c07
0000
0000
0151
cafe
3007
0000
0000
0158
cafe
3407
0000
0000
0151
cafe
3807
0000
0000
014c
cafe
3c07
0000
0000
014b
cafe
2007
0000
0000
014a
cafe
2407
0000
0000
0143
cafe
2807
0000
0000
0146
cafe
2c07
0000
0000
0147
cafe
3007
0000
0000
014a
cafe
3407
0000
0000
0149
cafe
3807
0000
0000
0146
cafe
3c07
0000
0000
014a
cafe
2007
0000
0000
014b
cafe
2407
0000
0000
0153
cafe
2807
0000
0000
014d
cafe
2c07
0000
0000
0152
cafe
3007
0000
0000
014e
cafe
3407
0000
0000
0149
cafe
3807
0000
0000
0143
cafe
3c07
0000
0000
0141
cafe
2007
0000
-
0000
0144
cafe
2407
0000
0000
0142
cafe
2807
0000
0000
0147
cafe
2c07
0000
0000
0144
cafe
3007
0000
0000
0143
cafe
3407
0000
0000
0142
cafe
3807
0000
0000
0141
cafe
3c07
0000
0000
013e
cafe
2007
0000
0000
0141
cafe
2407
0000
0000
0144
cafe
2807
0000
0000
0144
cafe
2c07
0000
0000
0145
cafe
3007
0000
0000
0144
cafe
3407
0000
0000
013e
cafe
3807
0000
0000
013e
cafe
3c07
0000
0000
0140
cafe
2007
0000
0000
013f
cafe
2407
0000
0000
0140
cafe
2807
0000
0000
014c
cafe
2c07
0000
0000
014b
cafe
3007
0000
0000
014a
cafe
3407
0000
0000
014e
cafe
3807
0000
0000
014c
cafe
3c07
0000
0000
014d
cafe
2007
0000
0000
0148
cafe
2407
0000
0000
0148
cafe
2807
0000
0000
0144
cafe
2c07
0000
0000
0143
cafe
3007
0000
0000
0146
cafe
3407
0000
0000
0149
cafe
3807
0000
0000
014b
cafe
3c07
0000
0000
014b
cafe
2007
0000
0000
0148
cafe
2407
0000
0000
0147
cafe
2807
0000
0000
014a
cafe
2c07
0000
0000
014b
cafe
3007
0000
0000
0149
cafe
3407
0000
0000
014b
cafe
3807
0000
0000
014c
cafe
3c07
0000
0000
0152
cafe
2007
0000
0000
0152
cafe
2407
0000
0000
0153
cafe
2807
0000
0000
0159
cafe
2c07
0000
0000
0156
cafe
3007
0000
0000
014e
cafe
3407
0000
0000
014d
cafe
3807
0000
0000
014e
cafe
3c07
0000
0000
0155
cafe
2007
0000
0000
014f
cafe
2407
0000
0000
014c
cafe
2807
0000
0000
014d
cafe
2c07
0000
0000
-
0154
cafe
3007
0000
0000
0154
cafe
3407
0000
0000
0159
cafe
3807
0000
0000
0156
cafe
3c07
0000
0000
0151
cafe
2007
0000
0000
014f
cafe
2407
0000
0000
0150
cafe
2807
0000
0000
014d
cafe
2c07
0000
0000
014f
cafe
3007
0000
0000
014d
cafe
3407
0000
0000
0154
cafe
3807
0000
0000
0156
cafe
3c07
0000
0000
0152
cafe
2007
0000
0000
0157
cafe
2407
0000
0000
015a
cafe
2807
0000
0000
015d
cafe
2c07
0000
0000
0154
cafe
3007
0000
0000
0150
cafe
3407
0000
0000
0152
cafe
3807
0000
0000
0154
cafe
3c07
0000
0000
0155
cafe
2007
0000
0000
0151
cafe
2407
0000
0000
014f
cafe
2807
0000
0000
014c
cafe
2c07
0000
0000
014b
cafe
3007
0000
0000
0147
cafe
3407
0000
0000
0148
cafe
3807
0000
0000
0147
cafe
3c07
0000
0000
0145
cafe
2007
0000
0000
0145
cafe
2407
0000
0000
0143
cafe
2807
0000
0000
0143
cafe
2c07
0000
0000
014a
cafe
3007
0000
0000
014b
cafe
3407
0000
0000
014f
cafe
3807
0000
0000
014e
cafe
3c07
0000
0000
014b
cafe
2007
0000
0000
014a
cafe
2407
0000
0000
0148
cafe
2807
0000
0000
0145
cafe
2c07
0000
0000
0146
cafe
3007
0000
0000
0143
cafe
3407
0000
0000
0147
cafe
3807
0000
0000
0146
cafe
3c07
0000
0000
0144
cafe
2007
0000
0000
0145
cafe
2407
0000
0000
0149
cafe
2807
0000
0000
014d
cafe
2c07
0000
0000
014f
cafe
3007
0000
0000
0153
cafe
3407
0000
0000
0153
cafe
3807
0000
0000
0150
-
cafe
3c07
0000
0000
014e
cafe
2007
0000
0000
0154
cafe
2407
0000
0000
0153
cafe
2807
0000
0000
0152
cafe
2c07
0000
0000
014f
cafe
3007
0000
0000
014c
cafe
3407
0000
0000
014b
cafe
3807
0000
0000
014b
cafe
3c07
0000
0000
0146
cafe
2007
0000
0000
0145
cafe
2407
0000
0000
0147
cafe
2807
0000
0000
0145
cafe
2c07
0000
0000
0144
cafe
3007
0000
0000
0145
cafe
3407
0000
0000
0141
cafe
3807
0000
0000
014c
cafe
3c07
0000
0000
014c
cafe
2007
0000
0000
0152
cafe
2407
0000
0000
014e
cafe
2807
0000
0000
0153
cafe
2c07
0000
0000
0152
cafe
3007
0000
0000
0154
cafe
3407
0000
0000
014e
cafe
3807
0000
0000
0148
cafe
3c07
0000
0000
0148
cafe
2007
0000
0000
0148
cafe
2407
0000
0000
014c
cafe
2807
0000
0000
014f
cafe
2c07
0000
0000
0156
cafe
3007
0000
0000
0157
cafe
3407
0000
0000
014e
cafe
3807
0000
0000
014c
cafe
3c07
0000
0000
0146
cafe
2007
0000
0000
0146
cafe
2407
0000
0000
0140
cafe
2807
0000
0000
013f
cafe
2c07
0000
0000
014c
cafe
3007
0000
0000
014f
cafe
3407
0000
0000
0151
cafe
3807
0000
0000
0149
cafe
3c07
0000
0000
014a
cafe
2007
0000
0000
0149
cafe
2407
0000
0000
014f
cafe
2807
0000
0000
014f
cafe
2c07
0000
0000
014d
cafe
3007
0000
0000
0155
cafe
3407
0000
0000
0157
cafe
3807
0000
0000
0154
cafe
3c07
0000
0000
0159
cafe
2007
0000
0000
0155
cafe
2407
0000
0000
0150
cafe
-
2807
0000
0000
0153
cafe
2c07
0000
0000
0158
cafe
3007
0000
0000
0159
cafe
3407
0000
0000
0156
cafe
3807
0000
0000
014d
cafe
3c07
0000
0000
014c
cafe
2007
0000
0000
014e
cafe
2407
0000
0000
014a
cafe
2807
0000
0000
014d
cafe
2c07
0000
0000
0149
cafe
3007
0000
0000
0149
cafe
3407
0000
0000
0152
cafe
3807
0000
0000
0158
cafe
3c07
0000
0000
0152
cafe
2007
0000
0000
0151
cafe
2407
0000
0000
014e
cafe
2807
0000
0000
0159
cafe
2c07
0000
0000
0153
cafe
3007
0000
0000
014e
cafe
3407
0000
0000
0153
cafe
3807
0000
0000
014f
cafe
3c07
0000
0000
014f
cafe
2007
0000
0000
0156
cafe
2407
0000
0000
0150
cafe
2807
0000
0000
014f
cafe
2c07
0000
0000
0153
cafe
3007
0000
0000
0153
cafe
3407
0000
0000
0150
cafe
3807
0000
0000
014c
cafe
3c07
0000
0000
0148
cafe
2007
0000
0000
0146
cafe
2407
0000
0000
014a
cafe
2807
0000
0000
014d
cafe
2c07
0000
0000
0150
cafe
3007
0000
0000
014f
cafe
3407
0000
0000
014b
cafe
3807
0000
0000
014a
cafe
3c07
0000
0000
0143
cafe
2007
0000
0000
0144
cafe
2407
0000
0000
014a
cafe
2807
0000
0000
014d
cafe
2c07
0000
0000
014f
cafe
3007
0000
0000
014d
cafe
3407
0000
0000
014a
cafe
3807
0000
0000
014c
cafe
3c07
0000
0000
014e
cafe
2007
0000
0000
014c
cafe
2407
0000
0000
014f
cafe
2807
0000
0000
0150
cafe
2c07
0000
0000
014e
cafe
3007
0000
0000
014e
cafe
3407
-
0000
0000
014c
cafe
3807
0000
0000
014c
cafe
3c07
0000
0000
0149
cafe
2007
0000
0000
014a
cafe
2407
0000
0000
014c
cafe
2807
0000
0000
0147
cafe
2c07
0000
0000
0146
cafe
3007
0000
0000
014d
cafe
3407
0000
0000
014d
cafe
3807
0000
0000
014a
cafe
3c07
0000
0000
0150
cafe
2007
0000
0000
014e
cafe
2407
0000
0000
0150
cafe
2807
0000
0000
014d
cafe
2c07
0000
0000
0151
cafe
3007
0000
0000
0156
cafe
3407
0000
0000
0155
cafe
3807
0000
0000
0156
cafe
3c07
0000
0000
014f
cafe
2007
0000
0000
014e
cafe
2407
0000
0000
014d
cafe
2807
0000
0000
0151
cafe
2c07
0000
0000
014b
cafe
3007
0000
0000
014f
cafe
3407
0000
0000
014e
cafe
3807
0000
0000
014e
cafe
3c07
0000
0000
0154
cafe
2007
0000
0000
0150
cafe
2407
0000
0000
014e
cafe
2807
0000
0000
0152
cafe
2c07
0000
0000
0159
cafe
3007
0000
0000
0155
cafe
3407
0000
0000
0159
cafe
3807
0000
0000
0156
cafe
3c07
0000
0000
015a
cafe
2007
0000
0000
015f
cafe
2407
0000
0000
015f
cafe
2807
0000
0000
015a
cafe
2c07
0000
0000
0157
cafe
3007
0000
0000
0156
cafe
3407
0000
0000
0156
cafe
3807
0000
0000
0153
cafe
3c07
0000
0000
014f
cafe
2007
0000
0000
0146
cafe
2407
0000
0000
0143
cafe
2807
0000
0000
0142
cafe
2c07
0000
0000
0140
cafe
3007
0000
0000
0140
cafe
3407
0000
0000
0142
cafe
3807
0000
0000
0140
cafe
3c07
0000
0000
0137
cafe
2007
0000
-
0000
0137
cafe
2407
0000
0000
013e
cafe
2807
0000
0000
013d
cafe
2c07
0000
0000
0142
cafe
3007
0000
0000
0145
cafe
3407
0000
0000
0143
cafe
3807
0000
0000
0148
cafe
3c07
0000
0000
0149
cafe
2007
0000
0000
0142
cafe
2407
0000
0000
0143
cafe
2807
0000
0000
0148
cafe
2c07
0000
0000
014a
cafe
3007
0000
0000
014e
cafe
3407
0000
0000
0152
cafe
3807
0000
0000
0151
cafe
3c07
0000
0000
014e
cafe
2007
0000
0000
014d
cafe
2407
0000
0000
014b
cafe
2807
0000
0000
0150
cafe
2c07
0000
0000
014c
cafe
3007
0000
0000
0147
cafe
3407
0000
0000
014d
cafe
3807
0000
0000
014f
cafe
3c07
0000
0000
014d
cafe
2007
0000
0000
0144
cafe
2407
0000
0000
0146
cafe
2807
0000
0000
0148
cafe
2c07
0000
0000
0149
cafe
3007
0000
0000
014a
cafe
3407
0000
0000
014b
cafe
3807
0000
0000
0143
cafe
3c07
0000
0000
0146
cafe
2007
0000
0000
0141
cafe
2407
0000
0000
0141
cafe
2807
0000
0000
0143
cafe
2c07
0000
0000
0145
cafe
3007
0000
0000
0149
cafe
3407
0000
0000
0145
cafe
3807
0000
0000
0149
cafe
3c07
0000
0000
0142
cafe
2007
0000
0000
0141
cafe
2407
0000
0000
0142
cafe
2807
0000
0000
0142
cafe
2c07
0000
0000
013f
cafe
3007
0000
0000
013c
cafe
3407
0000
0000
013c
cafe
3807
0000
0000
013d
cafe
3c07
0000
0000
013b
cafe
2007
0000
0000
013d
cafe
2407
0000
0000
013c
cafe
2807
0000
0000
0140
cafe
2c07
0000
0000
-
0142
cafe
3007
0000
0000
0146
cafe
3407
0000
0000
0146
cafe
3807
0000
0000
0143
cafe
3c07
0000
0000
0142
cafe
2007
0000
0000
0143
cafe
2407
0000
0000
0142
cafe
2807
0000
0000
0142
cafe
2c07
0000
0000
0145
cafe
3007
0000
0000
0147
cafe
3407
0000
0000
0148
cafe
3807
0000
0000
0147
cafe
3c07
0000
0000
0142
cafe
2007
0000
0000
0142
cafe
2407
0000
0000
0145
cafe
2807
0000
0000
0149
cafe
2c07
0000
0000
014c
cafe
3007
0000
0000
0145
cafe
3407
0000
0000
0142
cafe
3807
0000
0000
013f
cafe
3c07
0000
0000
013f
cafe
2007
0000
0000
013e
cafe
2407
0000
0000
0142
cafe
2807
0000
0000
0146
cafe
2c07
0000
0000
0146
cafe
3007
0000
0000
0147
cafe
3407
0000
0000
0149
cafe
3807
0000
0000
0149
cafe
3c07
0000
0000
0146
cafe
2007
0000
0000
0149
cafe
2407
0000
0000
014c
cafe
2807
0000
0000
0152
cafe
2c07
0000
0000
0152
cafe
3007
0000
0000
014c
cafe
3407
0000
0000
014d
cafe
3807
0000
0000
014f
cafe
3c07
0000
0000
0159
cafe
2007
0000
0000
0159
cafe
2407
0000
0000
0159
cafe
2807
0000
0000
015a
cafe
2c07
0000
0000
0151
cafe
3007
0000
0000
0155
cafe
3407
0000
0000
0152
cafe
3807
0000
0000
0150
cafe
3c07
0000
0000
014f
cafe
2007
0000
0000
014e
cafe
2407
0000
0000
014b
cafe
2807
0000
0000
0150
cafe
2c07
0000
0000
014f
cafe
3007
0000
0000
0151
cafe
3407
0000
0000
0153
cafe
3807
0000
0000
0152
-
cafe
3c07
0000
0000
014c
cafe
2007
0000
0000
0157
cafe
2407
0000
0000
0155
cafe
2807
0000
0000
014f
cafe
2c07
0000
0000
0146
cafe
3007
0000
0000
0143
cafe
3407
0000
0000
014b
cafe
3807
0000
0000
014b
cafe
3c07
0000
0000
0151
cafe
2007
0000
0000
014f
cafe
2407
0000
0000
0156
cafe
2807
0000
0000
014f
cafe
2c07
0000
0000
014d
cafe
3007
0000
0000
0149
cafe
3407
0000
0000
0148
cafe
3807
0000
0000
014d
cafe
3c07
0000
0000
0153
cafe
2007
0000
0000
0156
cafe
2407
0000
0000
0156
cafe
2807
0000
0000
0154
cafe
2c07
0000
0000
014c
cafe
3007
0000
0000
0146
cafe
3407
0000
0000
0148
cafe
3807
0000
0000
014f
cafe
3c07
0000
0000
0152
cafe
2007
0000
0000
0152
cafe
2407
0000
0000
014b
cafe
2807
0000
0000
014c
cafe
2c07
0000
0000
0151
cafe
3007
0000
0000
014e
cafe
3407
0000
0000
014b
cafe
3807
0000
0000
014c
cafe
3c07
0000
0000
0153
cafe
2007
0000
0000
0152
cafe
2407
0000
0000
014b
cafe
2807
0000
0000
014e
cafe
2c07
0000
0000
014f
cafe
3007
0000
0000
014f
cafe
3407
0000
0000
0150
cafe
3807
0000
0000
0157
cafe
3c07
0000
0000
0155
cafe
2007
0000
0000
0153
cafe
2407
0000
0000
0153
cafe
2807
0000
0000
0151
cafe
2c07
0000
0000
0150
cafe
3007
0000
0000
0150
cafe
3407
0000
0000
014d
cafe
3807
0000
0000
014d
cafe
3c07
0000
0000
0148
cafe
2007
0000
0000
0151
cafe
2407
0000
0000
0153
cafe
-
2807
0000
0000
0153
cafe
2c07
0000
0000
014f
cafe
3007
0000
0000
0146
cafe
3407
0000
0000
0146
cafe
3807
0000
0000
0142
cafe
3c07
0000
0000
0143
cafe
2007
0000
0000
0144
cafe
2407
0000
0000
0140
cafe
2807
0000
0000
0145
cafe
2c07
0000
0000
014b
cafe
3007
0000
0000
014a
cafe
3407
0000
0000
014e
cafe
3807
0000
0000
014d
cafe
3c07
0000
0000
014d
cafe
2007
0000
0000
014e
cafe
2407
0000
0000
0150
cafe
2807
0000
0000
0152
cafe
2c07
0000
0000
014e
cafe
3007
0000
0000
014d
cafe
3407
0000
0000
014a
cafe
3807
0000
0000
014f
cafe
3c07
0000
0000
014e
cafe
2007
0000
0000
0152
cafe
2407
0000
0000
014d
cafe
2807
0000
0000
0151
cafe
2c07
0000
0000
0156
cafe
3007
0000
0000
0153
cafe
3407
0000
0000
0152
cafe
3807
0000
0000
0152
cafe
3c07
0000
0000
0152
cafe
2007
0000
0000
0151
cafe
2407
0000
0000
014e
cafe
2807
0000
0000
0158
cafe
2c07
0000
0000
0158
cafe
3007
0000
0000
0159
cafe
3407
0000
0000
0159
cafe
3807
0000
0000
015b
cafe
3c07
0000
0000
0157
cafe
2007
0000
0000
0156
cafe
2407
0000
0000
0152
cafe
2807
0000
0000
014c
cafe
2c07
0000
0000
014c
cafe
3007
0000
0000
0140
cafe
3407
0000
0000
0144
cafe
3807
0000
0000
0141
cafe
3c07
0000
0000
0149
cafe
2007
0000
0000
014a
cafe
2407
0000
0000
0141
cafe
2807
0000
0000
0148
cafe
2c07
0000
0000
0143
cafe
3007
0000
0000
0147
cafe
3407
-
0000
0000
0143
cafe
3807
0000
0000
0146
cafe
3c07
0000
0000
0147
cafe
2007
0000
0000
013f
cafe
2407
0000
0000
0143
cafe
2807
0000
0000
0141
cafe
2c07
0000
0000
0149
cafe
3007
0000
0000
014d
cafe
3407
0000
0000
0151
cafe
3807
0000
0000
0150
cafe
3c07
0000
0000
0150
cafe
2007
0000
0000
014b
cafe
2407
0000
0000
014b
cafe
2807
0000
0000
0144
cafe
2c07
0000
0000
014c
cafe
3007
0000
0000
014e
cafe
3407
0000
0000
014f
cafe
3807
0000
0000
0152
cafe
3c07
0000
0000
0154
cafe
2007
0000
0000
0150
cafe
2407
0000
0000
0154
cafe
2807
0000
0000
0154
cafe
2c07
0000
0000
014d
cafe
3007
0000
0000
014a
cafe
3407
0000
0000
0146
cafe
3807
0000
0000
0140
cafe
3c07
0000
0000
013e
cafe
2007
0000
0000
0140
cafe
2407
0000
0000
013d
cafe
2807
0000
0000
013c
cafe
2c07
0000
0000
013c
cafe
3007
0000
0000
013b
cafe
3407
0000
0000
013f
cafe
3807
0000
0000
0145
cafe
3c07
0000
0000
0148
cafe
2007
0000
0000
0147
cafe
2407
0000
0000
0145
cafe
2807
0000
0000
0146
cafe
2c07
0000
0000
0143
cafe
3007
0000
0000
0141
cafe
3407
0000
0000
0145
cafe
3807
0000
0000
0140
cafe
3c07
0000
0000
013e
cafe
2007
0000
0000
0143
cafe
2407
0000
0000
0143
cafe
2807
0000
0000
0147
cafe
2c07
0000
0000
0143
cafe
3007
0000
0000
0145
cafe
3407
0000
0000
014b
cafe
3807
0000
0000
014c
cafe
3c07
0000
0000
014b
cafe
2007
0000
-
0000
014d
cafe
2407
0000
0000
014c
cafe
2807
0000
0000
014d
cafe
2c07
0000
0000
014a
cafe
3007
0000
0000
014c
cafe
3407
0000
0000
014f
cafe
3807
0000
0000
014c
cafe
3c07
0000
0000
0146
cafe
2007
0000
0000
0143
cafe
2407
0000
0000
014b
cafe
2807
0000
0000
014c
cafe
2c07
0000
0000
0151
cafe
3007
0000
0000
0154
cafe
3407
0000
0000
0155
cafe
3807
0000
0000
0150
cafe
3c07
0000
0000
014a
cafe
2007
0000
0000
0146
cafe
2407
0000
0000
0141
cafe
2807
0000
0000
0146
cafe
2c07
0000
0000
0145
cafe
3007
0000
0000
0145
cafe
3407
0000
0000
0143
cafe
3807
0000
0000
0139
cafe
3c07
0000
0000
013d
cafe
2007
0000
0000
0141
cafe
2407
0000
0000
013c
cafe
2807
0000
0000
013e
cafe
2c07
0000
0000
0140
cafe
3007
0000
0000
0146
cafe
3407
0000
0000
0143
cafe
3807
0000
0000
0141
cafe
3c07
0000
0000
0142
cafe
2007
0000
0000
0145
cafe
2407
0000
0000
0145
cafe
2807
0000
0000
0148
cafe
2c07
0000
0000
0149
cafe
3007
0000
0000
014c
cafe
3407
0000
0000
014b
cafe
3807
0000
0000
014c
cafe
3c07
0000
0000
0151
cafe
2007
0000
0000
014d
cafe
2407
0000
0000
0147
cafe
2807
0000
0000
014b
cafe
2c07
0000
0000
0145
cafe
3007
0000
0000
0147
cafe
3407
0000
0000
0148
cafe
3807
0000
0000
014a
cafe
3c07
0000
0000
014d
cafe
2007
0000
0000
0148
cafe
2407
0000
0000
0142
cafe
2807
0000
0000
0146
cafe
2c07
0000
0000
-
014a
cafe
3007
0000
0000
014e
cafe
3407
0000
0000
0150
cafe
3807
0000
0000
014e
cafe
3c07
0000
0000
0151
cafe
2007
0000
0000
0150
cafe
2407
0000
0000
0155
cafe
2807
0000
0000
014e
cafe
2c07
0000
0000
014b
cafe
3007
0000
0000
0149
cafe
3407
0000
0000
014c
cafe
3807
0000
0000
0155
cafe
3c07
0000
0000
0153
cafe
2007
0000
0000
0153
cafe
2407
0000
0000
0158
cafe
2807
0000
0000
015e
cafe
2c07
0000
0000
015c
cafe
3007
0000
0000
0157
cafe
3407
0000
0000
0158
cafe
3807
0000
0000
0158
cafe
3c07
0000
0000
014e
cafe
2007
0000
0000
0148
cafe
2407
0000
0000
0146
cafe
2807
0000
0000
0147
cafe
2c07
0000
0000
0146
cafe
3007
0000
0000
0141
cafe
3407
0000
0000
0143
cafe
3807
0000
0000
0144
cafe
3c07
0000
0000
0140
cafe
2007
0000
0000
0143
cafe
2407
0000
0000
0146
cafe
2807
0000
0000
0149
cafe
2c07
0000
0000
014f
cafe
3007
0000
0000
014f
cafe
3407
0000
0000
014c
cafe
3807
0000
0000
0145
cafe
3c07
0000
0000
0148
cafe
2007
0000
0000
014b
cafe
2407
0000
0000
014a
cafe
2807
0000
0000
014a
cafe
2c07
0000
0000
0152
cafe
3007
0000
0000
0157
cafe
3407
0000
0000
0155
cafe
3807
0000
0000
0156
cafe
3c07
0000
0000
0155
cafe
2007
0000
0000
0157
cafe
2407
0000
0000
014e
cafe
2807
0000
0000
014b
cafe
2c07
0000
0000
014b
cafe
3007
0000
0000
0150
cafe
3407
0000
0000
014a
cafe
3807
0000
0000
0151
-
cafe
3c07
0000
0000
014e
cafe
2007
0000
0000
0150
cafe
2407
0000
0000
0152
cafe
2807
0000
0000
0157
cafe
2c07
0000
0000
0157
cafe
3007
0000
0000
0150
cafe
3407
0000
0000
0152
cafe
3807
0000
0000
014e
cafe
3c07
0000
0000
014e
cafe
2007
0000
0000
014e
cafe
2407
0000
0000
0145
cafe
2807
0000
0000
0143
cafe
2c07
0000
0000
0145
cafe
3007
0000
0000
0148
cafe
3407
0000
0000
0147
cafe
3807
0000
0000
0145
cafe
3c07
0000
0000
014b
cafe
2007
0000
0000
0150
cafe
2407
0000
0000
0154
cafe
2807
0000
0000
0159
cafe
2c07
0000
0000
015b
cafe
3007
0000
0000
015d
cafe
3407
0000
0000
015d
cafe
3807
0000
0000
0157
cafe
3c07
0000
0000
0159
cafe
2007
0000
0000
014f
cafe
2407
0000
0000
0150
cafe
2807
0000
0000
014f
cafe
2c07
0000
0000
0154
cafe
3007
0000
0000
0153
cafe
3407
0000
0000
0156
cafe
3807
0000
0000
014f
cafe
3c07
0000
0000
0151
cafe
2007
0000
0000
014f
cafe
2407
0000
0000
014e
cafe
2807
0000
0000
014f
cafe
2c07
0000
0000
014f
cafe
3007
0000
0000
014a
cafe
3407
0000
0000
014b
cafe
3807
0000
0000
0145
cafe
3c07
0000
0000
0149
cafe
2007
0000
0000
0148
cafe
2407
0000
0000
0149
cafe
2807
0000
0000
014d
cafe
2c07
0000
0000
0149
cafe
3007
0000
0000
014d
cafe
3407
0000
0000
014e
cafe
3807
0000
0000
0146
cafe
3c07
0000
0000
0143
cafe
2007
0000
0000
0144
cafe
2407
0000
0000
0144
cafe
-
2807
0000
0000
0147
cafe
2c07
0000
0000
0144
cafe
3007
0000
0000
014a
cafe
3407
0000
0000
0150
cafe
3807
0000
0000
0154
cafe
3c07
0000
0000
0157
cafe
2007
0000
0000
0154
cafe
2407
0000
0000
0154
cafe
2807
0000
0000
0154
cafe
2c07
0000
0000
0155
cafe
3007
0000
0000
0161
cafe
3407
0000
0000
015b
cafe
3807
0000
0000
0158
cafe
3c07
0000
0000
0156
cafe
2007
0000
0000
015a
cafe
2407
0000
0000
015e
cafe
2807
0000
0000
0155
cafe
2c07
0000
0000
0159
cafe
3007
0000
0000
015c
cafe
3407
0000
0000
0157
cafe
3807
0000
0000
0157
cafe
3c07
0000
0000
0155
cafe
2007
0000
0000
0151
cafe
2407
0000
0000
014e
cafe
2807
0000
0000
014f
cafe
2c07
0000
0000
014c
cafe
3007
0000
0000
014c
cafe
3407
0000
0000
0145
cafe
3807
0000
0000
0145
cafe
3c07
0000
0000
013f
cafe
2007
0000
0000
0138
cafe
2407
0000
0000
0134
cafe
2807
0000
0000
0134
cafe
2c07
0000
0000
0134
cafe
3007
0000
0000
0140
cafe
3407
0000
0000
0143
cafe
3807
0000
0000
0148
cafe
3c07
0000
0000
0146
cafe
2007
0000
0000
0143
cafe
2407
0000
0000
014d
cafe
2807
0000
0000
0149
cafe
2c07
0000
0000
014c
cafe
3007
0000
0000
0149
cafe
3407
0000
0000
014f
cafe
3807
0000
0000
014c
cafe
3c07
0000
0000
0150
cafe
2007
0000
0000
014e
cafe
2407
0000
0000
0145
cafe
2807
0000
0000
0147
cafe
2c07
0000
0000
0149
cafe
3007
0000
0000
014a
cafe
3407
-
0000
0000
0144
cafe
3807
0000
0000
0145
cafe
3c07
0000
0000
0149
cafe
2007
0000
0000
0147
cafe
2407
0000
0000
0146
cafe
2807
0000
0000
014a
cafe
2c07
0000
0000
014a
cafe
3007
0000
0000
014c
cafe
3407
0000
0000
0152
cafe
3807
0000
0000
0155
cafe
3c07
0000
0000
014f
cafe
2007
0000
0000
0156
cafe
2407
0000
0000
0154
cafe
2807
0000
0000
014f
cafe
2c07
0000
0000
014b
cafe
3007
0000
0000
014e
cafe
3407
0000
0000
0149
cafe
3807
0000
0000
0145
cafe
3c07
0000
0000
0146
cafe
2007
0000
0000
014b
cafe
2407
0000
0000
0149
cafe
2807
0000
0000
014a
cafe
2c07
0000
0000
014d
cafe
3007
0000
0000
0152
cafe
3407
0000
0000
014c
cafe
3807
0000
0000
014e
cafe
3c07
0000
0000
0154
cafe
2007
0000
0000
0158
cafe
2407
0000
0000
0155
cafe
2807
0000
0000
0152
cafe
2c07
0000
0000
0153
cafe
3007
0000
0000
014d
cafe
3407
0000
0000
014c
cafe
3807
0000
0000
0148
cafe
3c07
0000
0000
0144
cafe
2007
0000
0000
0145
cafe
2407
0000
0000
014c
cafe
2807
0000
0000
014b
cafe
2c07
0000
0000
0145
cafe
3007
0000
0000
013f
cafe
3407
0000
0000
0145
cafe
3807
0000
0000
014c
cafe
3c07
0000
0000
014e
cafe
2007
0000
0000
0149
cafe
2407
0000
0000
014a
cafe
2807
0000
0000
014e
cafe
2c07
0000
0000
0150
cafe
3007
0000
0000
014f
cafe
3407
0000
0000
0149
cafe
3807
0000
0000
0145
cafe
3c07
0000
0000
0144
cafe
2007
0000
-
0000
0148
cafe
2407
0000
0000
014d
cafe
2807
0000
0000
014a
cafe
2c07
0000
0000
0147
cafe
3007
0000
0000
0148
cafe
3407
0000
0000
0148
cafe
3807
0000
0000
014a
cafe
3c07
0000
0000
014c
cafe
2007
0000
0000
0148
cafe
2407
0000
0000
014b
cafe
2807
0000
0000
0152
cafe
2c07
0000
0000
014f
cafe
3007
0000
0000
014d
cafe
3407
0000
0000
014f
cafe
3807
0000
0000
014a
cafe
3c07
0000
0000
0147
cafe
2007
0000
0000
0143
cafe
2407
0000
0000
0143
cafe
2807
0000
0000
0149
cafe
2c07
0000
0000
0143
cafe
3007
0000
0000
0146
cafe
3407
0000
0000
0147
cafe
3807
0000
0000
0146
cafe
3c07
0000
0000
0146
cafe
2007
0000
0000
0143
cafe
2407
0000
0000
0149
cafe
2807
0000
0000
014a
cafe
2c07
0000
0000
014a
cafe
3007
0000
0000
0148
cafe
3407
0000
0000
0140
cafe
3807
0000
0000
013a
cafe
3c07
0000
0000
013b
cafe
2007
0000
0000
0139
cafe
2407
0000
0000
013a
cafe
2807
0000
0000
013e
cafe
2c07
0000
0000
0143
cafe
3007
0000
0000
0146
cafe
3407
0000
0000
014b
cafe
3807
0000
0000
014b
cafe
3c07
0000
0000
0150
cafe
2007
0000
0000
014b
cafe
2407
0000
0000
0142
cafe
2807
0000
0000
0144
cafe
2c07
0000
0000
014b
cafe
3007
0000
0000
0152
cafe
3407
0000
0000
0154
cafe
3807
0000
0000
014e
cafe
3c07
0000
0000
0154
cafe
2007
0000
0000
0157
cafe
2407
0000
0000
0152
cafe
2807
0000
0000
0152
cafe
2c07
0000
0000
-
014d
cafe
3007
0000
0000
014d
cafe
3407
0000
0000
014a
cafe
3807
0000
0000
014d
cafe
3c07
0000
0000
014c
cafe
2007
0000
0000
014f
cafe
2407
0000
0000
014d
cafe
2807
0000
0000
0150
cafe
2c07
0000
0000
0153
cafe
3007
0000
0000
0155
cafe
3407
0000
0000
015c
cafe
3807
0000
0000
015b
cafe
3c07
0000
0000
015c
cafe
2007
0000
0000
015a
cafe
2407
0000
0000
015a
cafe
2807
0000
0000
015d
cafe
2c07
0000
0000
0158
cafe
3007
0000
0000
0157
cafe
3407
0000
0000
015a
cafe
3807
0000
0000
0158
cafe
3c07
0000
0000
0153
cafe
2007
0000
0000
0151
cafe
2407
0000
0000
0155
cafe
2807
0000
0000
015b
cafe
2c07
0000
0000
015b
cafe
3007
0000
0000
015e
cafe
3407
0000
0000
015f
cafe
3807
0000
0000
0162
cafe
3c07
0000
0000
0161
cafe
2007
0000
0000
015b
cafe
2407
0000
0000
0157
cafe
2807
0000
0000
014c
cafe
2c07
0000
0000
014e
cafe
3007
0000
0000
0148
cafe
3407
0000
0000
014e
cafe
3807
0000
0000
0150
cafe
3c07
0000
0000
014e
cafe
2007
0000
0000
0149
cafe
2407
0000
0000
014c
cafe
2807
0000
0000
014d
cafe
2c07
0000
0000
014e
cafe
3007
0000
0000
0150
cafe
3407
0000
0000
0151
cafe
3807
0000
0000
0151
cafe
3c07
0000
0000
014c
cafe
2007
0000
0000
0145
cafe
2407
0000
0000
0146
cafe
2807
0000
0000
014a
cafe
2c07
0000
0000
0148
cafe
3007
0000
0000
0144
cafe
3407
0000
0000
0145
cafe
3807
0000
0000
0141
-
cafe
3c07
0000
0000
0143
cafe
2007
0000
0000
0144
cafe
2407
0000
0000
0147
cafe
2807
0000
0000
0148
cafe
2c07
0000
0000
0147
cafe
3007
0000
0000
0149
cafe
3407
0000
0000
014a
cafe
3807
0000
0000
0148
cafe
3c07
0000
0000
014a
cafe
2007
0000
0000
0149
cafe
2407
0000
0000
014a
cafe
2807
0000
0000
0148
cafe
2c07
0000
0000
014b
cafe
3007
0000
0000
0149
cafe
3407
0000
0000
0144
cafe
3807
0000
0000
0143
cafe
3c07
0000
0000
0144
cafe
2007
0000
0000
0147
cafe
2407
0000
0000
0145
cafe
2807
0000
0000
0147
cafe
2c07
0000
0000
0149
cafe
3007
0000
0000
014a
cafe
3407
0000
0000
014a
cafe
3807
0000
0000
0144
cafe
3c07
0000
0000
0148
cafe
2007
0000
0000
0145
cafe
2407
0000
0000
0145
cafe
2807
0000
0000
0147
cafe
2c07
0000
0000
0145
cafe
3007
0000
0000
0144
cafe
3407
0000
0000
0144
cafe
3807
0000
0000
0150
cafe
3c07
0000
0000
0155
cafe
2007
0000
0000
0152
cafe
2407
0000
0000
0151
cafe
2807
0000
0000
014f
cafe
2c07
0000
0000
0147
cafe
3007
0000
0000
0142
cafe
3407
0000
0000
0148
cafe
3807
0000
0000
0149
cafe
3c07
0000
0000
014e
cafe
2007
0000
0000
014d
cafe
2407
0000
0000
0151
cafe
2807
0000
0000
0154
cafe
2c07
0000
0000
0159
cafe
3007
0000
0000
015b
cafe
3407
0000
0000
015a
cafe
3807
0000
0000
0154
cafe
3c07
0000
0000
0158
cafe
2007
0000
0000
0153
cafe
2407
0000
0000
0153
cafe
-
2807
0000
0000
0154
cafe
2c07
0000
0000
0153
cafe
3007
0000
0000
0158
cafe
3407
0000
0000
0155
cafe
3807
0000
0000
0154
cafe
3c07
0000
0000
0154
cafe
2007
0000
0000
014e
cafe
2407
0000
0000
014b
cafe
2807
0000
0000
0143
cafe
2c07
0000
0000
0146
cafe
3007
0000
0000
0143
cafe
3407
0000
0000
0146
cafe
3807
0000
0000
0148
cafe
3c07
0000
0000
0143
cafe
2007
0000
0000
0143
cafe
2407
0000
0000
0141
cafe
2807
0000
0000
0141
cafe
2c07
0000
0000
0141
cafe
3007
0000
0000
0144
cafe
3407
0000
0000
0148
cafe
3807
0000
0000
0148
cafe
3c07
0000
0000
014a
cafe
2007
0000
0000
014d
cafe
2407
0000
0000
014e
cafe
2807
0000
0000
014d
cafe
2c07
0000
0000
0146
cafe
3007
0000
0000
0147
cafe
3407
0000
0000
014d
cafe
3807
0000
0000
014e
cafe
3c07
0000
0000
014d
cafe
2007
0000
0000
014c
cafe
2407
0000
0000
0148
cafe
2807
0000
0000
014b
cafe
2c07
0000
0000
0152
cafe
3007
0000
0000
0156
cafe
3407
0000
0000
0153
cafe
3807
0000
0000
0152
cafe
3c07
0000
0000
0154
cafe
2007
0000
0000
0150
cafe
2407
0000
0000
014b
cafe
2807
0000
0000
0149
cafe
2c07
0000
0000
014b
cafe
3007
0000
0000
0149
cafe
3407
0000
0000
014c
cafe
3807
0000
0000
0151
cafe
3c07
0000
0000
0147
cafe
2007
0000
0000
014d
cafe
2407
0000
0000
0149
cafe
2807
0000
0000
014b
cafe
2c07
0000
0000
014d
cafe
3007
0000
0000
014f
cafe
3407
-
0000
0000
014c
cafe
3807
0000
0000
0143
cafe
3c07
0000
0000
0147
cafe
2007
0000
0000
0149
cafe
2407
0000
0000
014b
cafe
2807
0000
0000
0147
cafe
2c07
0000
0000
014c
cafe
3007
0000
0000
0147
cafe
3407
0000
0000
0147
cafe
3807
0000
0000
014b
cafe
3c07
0000
0000
0146
cafe
2007
0000
0000
0145
cafe
2407
0000
0000
0142
cafe
2807
0000
0000
0146
cafe
2c07
0000
0000
013f
cafe
3007
0000
0000
0141
cafe
3407
0000
0000
0144
cafe
3807
0000
0000
013f
cafe
3c07
0000
0000
013f
cafe
2007
0000
0000
0147
cafe
2407
0000
0000
0144
cafe
2807
0000
0000
0145
cafe
2c07
0000
0000
0142
cafe
3007
0000
0000
0145
cafe
3407
0000
0000
0145
cafe
3807
0000
0000
0149
cafe
3c07
0000
0000
014c
cafe
2007
0000
0000
014b
cafe
2407
0000
0000
014c
cafe
2807
0000
0000
014f
cafe
2c07
0000
0000
0152
cafe
3007
0000
0000
0151
cafe
3407
0000
0000
0149
cafe
3807
0000
0000
0144
cafe
3c07
0000
0000
0148
cafe
2007
0000
0000
0147
cafe
2407
0000
0000
0148
cafe
2807
0000
0000
0150
cafe
2c07
0000
0000
0153
cafe
3007
0000
0000
0147
cafe
3407
0000
0000
014d
cafe
3807
0000
0000
014b
cafe
3c07
0000
0000
014f
cafe
2007
0000
0000
0150
cafe
2407
0000
0000
014d
cafe
2807
0000
0000
014d
cafe
2c07
0000
0000
0151
cafe
3007
0000
0000
014f
cafe
3407
0000
0000
0150
cafe
3807
0000
0000
0152
cafe
3c07
0000
0000
0157
cafe
2007
0000
-
0000
0156
cafe
2407
0000
0000
0155
cafe
2807
0000
0000
0150
cafe
2c07
0000
0000
0150
cafe
3007
0000
0000
014d
cafe
3407
0000
0000
0147
cafe
3807
0000
0000
014c
cafe
3c07
0000
0000
014e
cafe
2007
0000
0000
014b
cafe
2407
0000
0000
014b
cafe
2807
0000
0000
0144
cafe
2c07
0000
0000
0145
cafe
3007
0000
0000
0145
cafe
3407
0000
0000
0144
cafe
3807
0000
0000
0142
cafe
3c07
0000
0000
0138
cafe
2007
0000
0000
013e
cafe
2407
0000
0000
013d
cafe
2807
0000
0000
013f
cafe
2c07
0000
0000
0145
cafe
3007
0000
0000
014c
cafe
3407
0000
0000
0146
cafe
3807
0000
0000
0144
cafe
3c07
0000
0000
0145
cafe
2007
0000
0000
0146
cafe
2407
0000
0000
0141
cafe
2807
0000
0000
014d
cafe
2c07
0000
0000
014e
cafe
3007
0000
0000
0149
cafe
3407
0000
0000
0144
cafe
3807
0000
0000
0143
cafe
3c07
0000
0000
0143
cafe
2007
0000
0000
013e
cafe
2407
0000
0000
0141
cafe
2807
0000
0000
0140
cafe
2c07
0000
0000
0142
cafe
3007
0000
0000
013f
cafe
3407
0000
0000
0141
cafe
3807
0000
0000
0140
cafe
3c07
0000
0000
0145
cafe
2007
0000
0000
0147
cafe
2407
0000
0000
0140
cafe
2807
0000
0000
0142
cafe
2c07
0000
0000
0141
cafe
3007
0000
0000
0140
cafe
3407
0000
0000
0146
cafe
3807
0000
0000
0150
cafe
3c07
0000
0000
014f
cafe
2007
0000
0000
0150
cafe
2407
0000
0000
0155
cafe
2807
0000
0000
0154
cafe
2c07
0000
0000
-
0153
cafe
3007
0000
0000
0152
cafe
3407
0000
0000
0153
cafe
3807
0000
0000
0157
cafe
3c07
0000
0000
0156
cafe
2007
0000
0000
0155
cafe
2407
0000
0000
015a
cafe
2807
0000
0000
0159
cafe
2c07
0000
0000
0157
cafe
3007
0000
0000
0154
cafe
3407
0000
0000
014b
cafe
3807
0000
0000
014b
cafe
3c07
0000
0000
014e
cafe
2007
0000
0000
0157
cafe
2407
0000
0000
0154
cafe
2807
0000
0000
0153
cafe
2c07
0000
0000
014f
cafe
3007
0000
0000
0150
cafe
3407
0000
0000
0151
cafe
3807
0000
0000
0149
cafe
3c07
0000
0000
0149
cafe
2007
0000
0000
0147
cafe
2407
0000
0000
0149
cafe
2807
0000
0000
014b
cafe
2c07
0000
0000
0154
cafe
3007
0000
0000
014e
cafe
3407
0000
0000
0151
cafe
3807
0000
0000
0153
cafe
3c07
0000
0000
0154
cafe
2007
0000
0000
014f
cafe
2407
0000
0000
014e
cafe
2807
0000
0000
0152
cafe
2c07
0000
0000
014a
cafe
3007
0000
0000
014d
cafe
3407
0000
0000
0152
cafe
3807
0000
0000
0151
cafe
3c07
0000
0000
014d
cafe
2007
0000
0000
014e
cafe
2407
0000
0000
0156
cafe
2807
0000
0000
0150
cafe
2c07
0000
0000
0153
cafe
3007
0000
0000
0151
cafe
3407
0000
0000
0153
cafe
3807
0000
0000
0155
cafe
3c07
0000
0000
014f
cafe
2007
0000
0000
0152
cafe
2407
0000
0000
0152
cafe
2807
0000
0000
0152
cafe
2c07
0000
0000
0154
cafe
3007
0000
0000
0158
cafe
3407
0000
0000
015a
cafe
3807
0000
0000
0155
-
