340a
0000
0000
01a2
cafe
380a
0000
0000
01a1
cafe
3c0a
0000
0000
01a5
cafe
200a
0000
0000
01a4
cafe
240a
0000
0000
01a5
cafe
280a
0000
0000
01a3
cafe
2c0a
0000
0000
019f
cafe
300a
0000
0000
019f
cafe
340a
0000
0000
019d
cafe
380a
0000
0000
019e
cafe
3c0a
0000
0000
019f
cafe
200a
0000
0000
01a0
cafe
240a
0000
0000
019d
cafe
280a
0000
0000
019d
cafe
2c0a
0000
0000
019c
cafe
300a
0000
0000
019d
cafe
340a
0000
0000
01a0
cafe
380a
0000
0000
01a2
cafe
3c0a
0000
0000
01a3
cafe
200a
0000
0000
019e
cafe
240a
0000
0000
01a0
cafe
280a
0000
0000
019f
cafe
2c0a
0000
0000
019d
cafe
300a
0000
0000
01a2
cafe
340a
0000
0000
01a2
cafe
380a
0000
0000
01a1
cafe
3c0a
0000
0000
019b
cafe
200a
0000
0000
019c
cafe
240a
0000
0000
019e
cafe
280a
0000
0000
01a2
cafe
2c0a
0000
0000
01a6
cafe
300a
0000
0000
01a2
cafe
340a
0000
0000
01a5
cafe
380a
0000
0000
01a0
cafe
3c0a
0000
0000
019e
cafe
200a
0000
0000
01a1
cafe
240a
0000
0000
01a1
cafe
280a
0000
0000
01a2
cafe
2c0a
0000
0000
019e
cafe
300a
0000
0000
01a2
cafe
340a
0000
0000
01a3
cafe
380a
0000
0000
01a4
cafe
3c0a
0000
0000
01a3
cafe
200a
0000
0000
01a2
cafe
240a
0000
0000
01a2
cafe
280a
0000
0000
01a3
cafe
2c0a
0000
0000
01a5
cafe
300a
0000
0000
01a7
cafe
340a
0000
0000
01a8
cafe
380a
0000
0000
01a4
cafe
3c0a
0000
0000
01a5
cafe
200a
-
0000
0000
01a6
cafe
240a
0000
0000
01a6
cafe
280a
0000
0000
01a6
cafe
2c0a
0000
0000
01a5
cafe
300a
0000
0000
01a3
cafe
340a
0000
0000
01a2
cafe
380a
0000
0000
01a1
cafe
3c0a
0000
0000
019f
cafe
200a
0000
0000
01a2
cafe
240a
0000
0000
019c
cafe
280a
0000
0000
019f
cafe
2c0a
0000
0000
01a2
cafe
300a
0000
0000
019e
cafe
340a
0000
0000
019e
cafe
380a
0000
0000
01a2
cafe
3c0a
0000
0000
01a4
cafe
200a
0000
0000
019e
cafe
240a
0000
0000
01a3
cafe
280a
0000
0000
019e
cafe
2c0a
0000
0000
019f
cafe
300a
0000
0000
01a0
cafe
340a
0000
0000
01a0
cafe
380a
0000
0000
019f
cafe
3c0a
0000
0000
01a1
cafe
200a
0000
0000
01a0
cafe
240a
0000
0000
01a3
cafe
280a
0000
0000
01a3
cafe
2c0a
0000
0000
01a8
cafe
300a
0000
0000
01a4
cafe
340a
0000
0000
01a2
cafe
380a
0000
0000
01a2
cafe
3c0a
0000
0000
01a3
cafe
200a
0000
0000
01a3
cafe
240a
0000
0000
01a2
cafe
280a
0000
0000
01a1
cafe
2c0a
0000
0000
019f
cafe
300a
0000
0000
019e
cafe
340a
0000
0000
01a0
cafe
380a
0000
0000
01a2
cafe
3c0a
0000
0000
01a8
cafe
200a
0000
0000
01a6
cafe
240a
0000
0000
01a3
cafe
280a
0000
0000
01a5
cafe
2c0a
0000
0000
01a0
cafe
300a
0000
0000
01a0
cafe
340a
0000
0000
01a1
cafe
380a
0000
0000
019e
cafe
3c0a
0000
0000
01a1
cafe
200a
0000
0000
019e
cafe
240a
0000
0000
019f
cafe
280a
0000
0000
019f
cafe
2c0a
0000
-
0000
01a3
cafe
300a
0000
0000
01a3
cafe
340a
0000
0000
01a6
cafe
380a
0000
0000
01a6
cafe
3c0a
0000
0000
01a5
cafe
200a
0000
0000
01a3
cafe
240a
0000
0000
01a3
cafe
280a
0000
0000
01a4
cafe
2c0a
0000
0000
01a1
cafe
300a
0000
0000
01a0
cafe
340a
0000
0000
01a5
cafe
380a
0000
0000
01a4
cafe
3c0a
0000
0000
01a4
cafe
200a
0000
0000
01a5
cafe
240a
0000
0000
01a8
cafe
280a
0000
0000
01a9
cafe
2c0a
0000
0000
01a4
cafe
300a
0000
0000
01a3
cafe
340a
0000
0000
01aa
cafe
380a
0000
0000
01a2
cafe
3c0a
0000
0000
01a9
cafe
200a
0000
0000
01a2
cafe
240a
0000
0000
019e
cafe
280a
0000
0000
01a5
cafe
2c0a
0000
0000
01a2
cafe
300a
0000
0000
01a2
cafe
340a
0000
0000
01a2
cafe
380a
0000
0000
01a0
cafe
3c0a
0000
0000
01a2
cafe
200a
0000
0000
01a6
cafe
240a
0000
0000
01a6
cafe
280a
0000
0000
01a3
cafe
2c0a
0000
0000
01a3
cafe
300a
0000
0000
01a4
cafe
340a
0000
0000
01a2
cafe
380a
0000
0000
01a5
cafe
3c0a
0000
0000
01a9
cafe
200a
0000
0000
01ac
cafe
240a
0000
0000
01ac
cafe
280a
0000
0000
01a9
cafe
2c0a
0000
0000
01a5
cafe
300a
0000
0000
01a3
cafe
340a
0000
0000
01a2
cafe
380a
0000
0000
01a4
cafe
3c0a
0000
0000
019e
cafe
200a
0000
0000
019d
cafe
240a
0000
0000
019c
cafe
280a
0000
0000
019d
cafe
2c0a
0000
0000
019d
cafe
300a
0000
0000
019c
cafe
340a
0000
0000
01a3
cafe
380a
0000
0000
-
01a2
cafe
3c0a
0000
0000
01a0
cafe
200a
0000
0000
019c
cafe
240a
0000
0000
019c
cafe
280a
0000
0000
019f
cafe
2c0a
0000
0000
01a7
cafe
300a
0000
0000
01a0
cafe
340a
0000
0000
019d
cafe
380a
0000
0000
019c
cafe
3c0a
0000
0000
019b
cafe
200a
0000
0000
019f
cafe
240a
0000
0000
019e
cafe
280a
0000
0000
019c
cafe
2c0a
0000
0000
019f
cafe
300a
0000
0000
01a1
cafe
340a
0000
0000
019d
cafe
380a
0000
0000
019e
cafe
3c0a
0000
0000
01a2
cafe
200a
0000
0000
019e
cafe
240a
0000
0000
01a4
cafe
280a
0000
0000
01a0
cafe
2c0a
0000
0000
01a8
cafe
300a
0000
0000
01a2
cafe
340a
0000
0000
01a2
cafe
380a
0000
0000
019e
cafe
3c0a
0000
0000
01a0
cafe
200a
0000
0000
01a0
cafe
240a
0000
0000
01a0
cafe
280a
0000
0000
01a2
cafe
2c0a
0000
0000
01a6
cafe
300a
0000
0000
01a7
cafe
340a
0000
0000
01a0
cafe
380a
0000
0000
01a3
cafe
3c0a
0000
0000
019e
cafe
200a
0000
0000
019b
cafe
240a
0000
0000
01a0
cafe
280a
0000
0000
019f
cafe
2c0a
0000
0000
0199
cafe
300a
0000
0000
019f
cafe
340a
0000
0000
01a2
cafe
380a
0000
0000
01a0
cafe
3c0a
0000
0000
01a4
cafe
200a
0000
0000
019c
cafe
240a
0000
0000
019e
cafe
280a
0000
0000
019c
cafe
2c0a
0000
0000
019c
cafe
300a
0000
0000
01a2
cafe
340a
0000
0000
01a1
cafe
380a
0000
0000
019f
cafe
3c0a
0000
0000
01a0
cafe
200a
0000
0000
01a4
cafe
240a
0000
0000
01a5
-
cafe
280a
0000
0000
019e
cafe
2c0a
0000
0000
019e
cafe
300a
0000
0000
019b
cafe
340a
0000
0000
019d
cafe
380a
0000
0000
019c
cafe
3c0a
0000
0000
019e
cafe
200a
0000
0000
019e
cafe
240a
0000
0000
019c
cafe
280a
0000
0000
01a3
cafe
2c0a
0000
0000
019a
cafe
300a
0000
0000
019f
cafe
340a
0000
0000
01a0
cafe
380a
0000
0000
01a2
cafe
3c0a
0000
0000
01a0
cafe
200a
0000
0000
01a4
cafe
240a
0000
0000
019f
cafe
280a
0000
0000
01a6
cafe
2c0a
0000
0000
01a2
cafe
300a
0000
0000
01a4
cafe
340a
0000
0000
019f
cafe
380a
0000
0000
01a7
cafe
3c0a
0000
0000
01a4
cafe
200a
0000
0000
019b
cafe
240a
0000
0000
0199
cafe
280a
0000
0000
0199
cafe
2c0a
0000
0000
0197
cafe
300a
0000
0000
019a
cafe
340a
0000
0000
0197
cafe
380a
0000
0000
0199
cafe
3c0a
0000
0000
0195
cafe
200a
0000
0000
019b
cafe
240a
0000
0000
019c
cafe
280a
0000
0000
0196
cafe
2c0a
0000
0000
019b
cafe
300a
0000
0000
01a0
cafe
340a
0000
0000
019a
cafe
380a
0000
0000
01a0
cafe
3c0a
0000
0000
01a2
cafe
200a
0000
0000
01a3
cafe
240a
0000
0000
01a6
cafe
280a
0000
0000
01a6
cafe
2c0a
0000
0000
01a5
cafe
300a
0000
0000
01a5
cafe
340a
0000
0000
01a5
cafe
380a
0000
0000
01a4
cafe
3c0a
0000
0000
01a3
cafe
200a
0000
0000
01a5
cafe
240a
0000
0000
01a6
cafe
280a
0000
0000
01ac
cafe
2c0a
0000
0000
01ac
cafe
300a
0000
0000
01ab
cafe
-
340a
0000
0000
01a8
cafe
380a
0000
0000
01a6
cafe
3c0a
0000
0000
01a2
cafe
200a
0000
0000
01a2
cafe
240a
0000
0000
01a2
cafe
280a
0000
0000
019d
cafe
2c0a
0000
0000
019f
cafe
300a
0000
0000
019c
cafe
340a
0000
0000
019c
cafe
380a
0000
0000
01a1
cafe
3c0a
0000
0000
01a2
cafe
200a
0000
0000
01a3
cafe
240a
0000
0000
019f
cafe
280a
0000
0000
019f
cafe
2c0a
0000
0000
01a1
cafe
300a
0000
0000
01a2
cafe
340a
0000
0000
01a1
cafe
380a
0000
0000
01a1
cafe
3c0a
0000
0000
01a2
cafe
200a
0000
0000
01a2
cafe
240a
0000
0000
01a4
cafe
280a
0000
0000
01a4
cafe
2c0a
0000
0000
01a4
cafe
300a
0000
0000
01a8
cafe
340a
0000
0000
01a7
cafe
380a
0000
0000
01a3
cafe
3c0a
0000
0000
01a3
cafe
200a
0000
0000
01a3
cafe
240a
0000
0000
01a0
cafe
280a
0000
0000
01a7
cafe
2c0a
0000
0000
01a6
cafe
300a
0000
0000
01a9
cafe
340a
0000
0000
01a8
cafe
380a
0000
0000
01a5
cafe
3c0a
0000
0000
01a7
cafe
200a
0000
0000
01a2
cafe
240a
0000
0000
01a6
cafe
280a
0000
0000
01aa
cafe
2c0a
0000
0000
01a5
cafe
300a
0000
0000
01a5
cafe
340a
0000
0000
01a2
cafe
380a
0000
0000
01a6
cafe
3c0a
0000
0000
01a3
cafe
200a
0000
0000
01a2
cafe
240a
0000
0000
01a3
cafe
280a
0000
0000
019f
cafe
2c0a
0000
0000
019f
cafe
300a
0000
0000
019e
cafe
340a
0000
0000
01a5
cafe
380a
0000
0000
01a1
cafe
3c0a
0000
0000
019e
cafe
200a
-
0000
0000
01a5
cafe
240a
0000
0000
01a1
cafe
280a
0000
0000
019e
cafe
2c0a
0000
0000
01a0
cafe
300a
0000
0000
01a2
cafe
340a
0000
0000
01a2
cafe
380a
0000
0000
01a0
cafe
3c0a
0000
0000
01a1
cafe
200a
0000
0000
01a1
cafe
240a
0000
0000
01a4
cafe
280a
0000
0000
01a1
cafe
2c0a
0000
0000
01a6
cafe
300a
0000
0000
01a0
cafe
340a
0000
0000
019d
cafe
380a
0000
0000
019c
cafe
3c0a
0000
0000
019c
cafe
200a
0000
0000
019d
cafe
240a
0000
0000
019c
cafe
280a
0000
0000
0199
cafe
2c0a
0000
0000
01a0
cafe
300a
0000
0000
01a0
cafe
340a
0000
0000
01a5
cafe
380a
0000
0000
01a2
cafe
3c0a
0000
0000
01a0
cafe
200a
0000
0000
019b
cafe
240a
0000
0000
019e
cafe
280a
0000
0000
01a5
cafe
2c0a
0000
0000
01a5
cafe
300a
0000
0000
019d
cafe
340a
0000
0000
019d
cafe
380a
0000
0000
0198
cafe
3c0a
0000
0000
019a
cafe
200a
0000
0000
019d
cafe
240a
0000
0000
019e
cafe
280a
0000
0000
019e
cafe
2c0a
0000
0000
01a1
cafe
300a
0000
0000
01a2
cafe
340a
0000
0000
01a1
cafe
380a
0000
0000
01a1
cafe
3c0a
0000
0000
01a0
cafe
200a
0000
0000
01a3
cafe
240a
0000
0000
01a2
cafe
280a
0000
0000
01a3
cafe
2c0a
0000
0000
01a1
cafe
300a
0000
0000
01aa
cafe
340a
0000
0000
01a5
cafe
380a
0000
0000
01a5
cafe
3c0a
0000
0000
01a5
cafe
200a
0000
0000
01a2
cafe
240a
0000
0000
01a0
cafe
280a
0000
0000
01a4
cafe
2c0a
0000
-
0000
01a2
cafe
300a
0000
0000
01a3
cafe
340a
0000
0000
01a4
cafe
380a
0000
0000
01a4
cafe
3c0a
0000
0000
01a6
cafe
200a
0000
0000
01a6
cafe
240a
0000
0000
019f
cafe
280a
0000
0000
01a1
cafe
2c0a
0000
0000
01a2
cafe
300a
0000
0000
01a3
cafe
340a
0000
0000
01a5
cafe
380a
0000
0000
01a2
cafe
3c0a
0000
0000
01a0
cafe
200a
0000
0000
01a0
cafe
240a
0000
0000
019d
cafe
280a
0000
0000
019b
cafe
2c0a
0000
0000
019f
cafe
300a
0000
0000
01a1
cafe
340a
0000
0000
01a1
cafe
380a
0000
0000
01a5
cafe
3c0a
0000
0000
01a2
cafe
200a
0000
0000
01a2
cafe
240a
0000
0000
01a3
cafe
280a
0000
0000
019f
cafe
2c0a
0000
0000
01a0
cafe
300a
0000
0000
01a0
cafe
340a
0000
0000
01a5
cafe
380a
0000
0000
01a0
cafe
3c0a
0000
0000
019f
cafe
200a
0000
0000
019e
cafe
240a
0000
0000
01a3
cafe
280a
0000
0000
01a0
cafe
2c0a
0000
0000
01a4
cafe
300a
0000
0000
01a3
cafe
340a
0000
0000
01a2
cafe
380a
0000
0000
01a6
cafe
3c0a
0000
0000
01a7
cafe
200a
0000
0000
01a9
cafe
240a
0000
0000
01a5
cafe
280a
0000
0000
01a7
cafe
2c0a
0000
0000
01a7
cafe
300a
0000
0000
01a8
cafe
340a
0000
0000
01a4
cafe
380a
0000
0000
01a1
cafe
3c0a
0000
0000
01a3
cafe
200a
0000
0000
01a6
cafe
240a
0000
0000
01a2
cafe
280a
0000
0000
01a2
cafe
2c0a
0000
0000
019e
cafe
300a
0000
0000
019e
cafe
340a
0000
0000
01a0
cafe
380a
0000
0000
-
019e
cafe
3c0a
0000
0000
01a1
cafe
200a
0000
0000
01a3
cafe
240a
0000
0000
01a2
cafe
280a
0000
0000
01a0
cafe
2c0a
0000
0000
01a5
cafe
300a
0000
0000
01a3
cafe
340a
0000
0000
01a2
cafe
380a
0000
0000
01a3
cafe
3c0a
0000
0000
01a3
cafe
200a
0000
0000
01a5
cafe
240a
0000
0000
01a3
cafe
280a
0000
0000
01a7
cafe
2c0a
0000
0000
01a9
cafe
300a
0000
0000
01a9
cafe
340a
0000
0000
01aa
cafe
380a
0000
0000
01aa
cafe
3c0a
0000
0000
019f
cafe
200a
0000
0000
01a4
cafe
240a
0000
0000
01a4
cafe
280a
0000
0000
01a8
cafe
2c0a
0000
0000
01a8
cafe
300a
0000
0000
01aa
cafe
340a
0000
0000
01aa
cafe
380a
0000
0000
01a5
cafe
3c0a
0000
0000
01a2
cafe
200a
0000
0000
01a0
cafe
240a
0000
0000
01a0
cafe
280a
0000
0000
019f
cafe
2c0a
0000
0000
019e
cafe
300a
0000
0000
019c
cafe
340a
0000
0000
01a0
cafe
380a
0000
0000
01a3
cafe
3c0a
0000
0000
01a5
cafe
200a
0000
0000
01a6
cafe
240a
0000
0000
01a4
cafe
280a
0000
0000
01a4
cafe
2c0a
0000
0000
01a3
cafe
300a
0000
0000
01a5
cafe
340a
0000
0000
01a1
cafe
380a
0000
0000
019c
cafe
3c0a
0000
0000
019b
cafe
200a
0000
0000
019e
cafe
240a
0000
0000
01a1
cafe
280a
0000
0000
019d
cafe
2c0a
0000
0000
01a0
cafe
300a
0000
0000
01a0
cafe
340a
0000
0000
01a1
cafe
380a
0000
0000
01a2
cafe
3c0a
0000
0000
01a5
cafe
200a
0000
0000
01a6
cafe
240a
0000
0000
01a4
-
cafe
280a
0000
0000
01a7
cafe
2c0a
0000
0000
01a9
cafe
300a
0000
0000
01a5
cafe
340a
0000
0000
01a6
cafe
380a
0000
0000
01a6
cafe
3c0a
0000
0000
01a6
cafe
200a
0000
0000
01a7
cafe
240a
0000
0000
01a8
cafe
280a
0000
0000
01aa
cafe
2c0a
0000
0000
01a8
cafe
300a
0000
0000
01a6
cafe
340a
0000
0000
01a4
cafe
380a
0000
0000
01a1
cafe
3c0a
0000
0000
01a0
cafe
200a
0000
0000
019b
cafe
240a
0000
0000
019f
cafe
280a
0000
0000
019a
cafe
2c0a
0000
0000
019f
cafe
300a
0000
0000
01a0
cafe
340a
0000
0000
01a4
cafe
380a
0000
0000
019d
cafe
3c0a
0000
0000
019d
cafe
200a
0000
0000
01a1
cafe
240a
0000
0000
01a4
cafe
280a
0000
0000
01a1
cafe
2c0a
0000
0000
01a4
cafe
300a
0000
0000
01a2
cafe
340a
0000
0000
019d
cafe
380a
0000
0000
019b
cafe
3c0a
0000
0000
01a0
cafe
200a
0000
0000
01a4
cafe
240a
0000
0000
01a2
cafe
280a
0000
0000
01a2
cafe
2c0a
0000
0000
01a4
cafe
300a
0000
0000
01a5
cafe
340a
0000
0000
01a3
cafe
380a
0000
0000
01a3
cafe
3c0a
0000
0000
01a0
cafe
200a
0000
0000
01a0
cafe
240a
0000
0000
019c
cafe
280a
0000
0000
019e
cafe
2c0a
0000
0000
01a2
cafe
300a
0000
0000
019d
cafe
340a
0000
0000
01a0
cafe
380a
0000
0000
01a2
cafe
3c0a
0000
0000
01a5
cafe
200a
0000
0000
01a2
cafe
240a
0000
0000
01a7
cafe
280a
0000
0000
01a9
cafe
2c0a
0000
0000
01a5
cafe
300a
0000
0000
01a5
cafe
-
340a
0000
0000
01a1
cafe
380a
0000
0000
019c
cafe
3c0a
0000
0000
019c
cafe
200a
0000
0000
019e
cafe
240a
0000
0000
019c
cafe
280a
0000
0000
019e
cafe
2c0a
0000
0000
019f
cafe
300a
0000
0000
019d
cafe
340a
0000
0000
019b
cafe
380a
0000
0000
019d
cafe
3c0a
0000
0000
019f
cafe
200a
0000
0000
01a0
cafe
240a
0000
0000
019d
cafe
280a
0000
0000
01a1
cafe
2c0a
0000
0000
019d
cafe
300a
0000
0000
0197
cafe
340a
0000
0000
019b
cafe
380a
0000
0000
01a0
cafe
3c0a
0000
0000
019d
cafe
200a
0000
0000
019b
cafe
240a
0000
0000
0198
cafe
280a
0000
0000
0199
cafe
2c0a
0000
0000
019f
cafe
300a
0000
0000
019f
cafe
340a
0000
0000
019f
cafe
380a
0000
0000
019f
cafe
3c0a
0000
0000
019a
cafe
200a
0000
0000
01a1
cafe
240a
0000
0000
01a0
cafe
280a
0000
0000
019d
cafe
2c0a
0000
0000
01a1
cafe
300a
0000
0000
01a5
cafe
340a
0000
0000
01a4
cafe
380a
0000
0000
01a7
cafe
3c0a
0000
0000
01a4
cafe
200a
0000
0000
01a0
cafe
240a
0000
0000
01a7
cafe
280a
0000
0000
01a7
cafe
2c0a
0000
0000
01a6
cafe
300a
0000
0000
01a1
cafe
340a
0000
0000
019f
cafe
380a
0000
0000
019f
cafe
3c0a
0000
0000
019f
cafe
200a
0000
0000
01a0
cafe
240a
0000
0000
019f
cafe
280a
0000
0000
01a1
cafe
2c0a
0000
0000
01a1
cafe
300a
0000
0000
01a2
cafe
340a
0000
0000
01a4
cafe
380a
0000
0000
01a9
cafe
3c0a
0000
0000
01a2
cafe
200a
-
0000
0000
01a1
cafe
240a
0000
0000
01a0
cafe
280a
0000
0000
01a4
cafe
2c0a
0000
0000
01a2
cafe
300a
0000
0000
01a5
cafe
340a
0000
0000
01a3
cafe
380a
0000
0000
01a5
cafe
3c0a
0000
0000
01a4
cafe
200a
0000
0000
01a0
cafe
240a
0000
0000
01a6
cafe
280a
0000
0000
019c
cafe
2c0a
0000
0000
019d
cafe
300a
0000
0000
019f
cafe
340a
0000
0000
01a2
cafe
380a
0000
0000
019d
cafe
3c0a
0000
0000
019f
cafe
200a
0000
0000
01a0
cafe
240a
0000
0000
01a0
cafe
280a
0000
0000
01a1
cafe
2c0a
0000
0000
01a1
cafe
300a
0000
0000
019f
cafe
340a
0000
0000
019f
cafe
380a
0000
0000
019d
cafe
3c0a
0000
0000
01a2
cafe
200a
0000
0000
01a5
cafe
240a
0000
0000
01a0
cafe
280a
0000
0000
01a5
cafe
2c0a
0000
0000
01a3
cafe
300a
0000
0000
019e
cafe
340a
0000
0000
01a2
cafe
380a
0000
0000
01a1
cafe
3c0a
0000
0000
01a3
cafe
200a
0000
0000
01a1
cafe
240a
0000
0000
01a4
cafe
280a
0000
0000
01a3
cafe
2c0a
0000
0000
01a3
cafe
300a
0000
0000
01a7
cafe
340a
0000
0000
01a2
cafe
380a
0000
0000
019e
cafe
3c0a
0000
0000
01a1
cafe
200a
0000
0000
01a2
cafe
240a
0000
0000
019e
cafe
280a
0000
0000
01a4
cafe
2c0a
0000
0000
019d
cafe
300a
0000
0000
019c
cafe
340a
0000
0000
019c
cafe
380a
0000
0000
0199
cafe
3c0a
0000
0000
01a2
cafe
200a
0000
0000
019d
cafe
240a
0000
0000
01a6
cafe
280a
0000
0000
01a0
cafe
2c0a
0000
-
0000
01a2
cafe
300a
0000
0000
01a1
cafe
340a
0000
0000
01a3
cafe
380a
0000
0000
019f
cafe
3c0a
0000
0000
01a1
cafe
200a
0000
0000
01a3
cafe
240a
0000
0000
019d
cafe
280a
0000
0000
019a
cafe
2c0a
0000
0000
01a2
cafe
300a
0000
0000
01a3
cafe
340a
0000
0000
01a5
cafe
380a
0000
0000
01a3
cafe
3c0a
0000
0000
01a3
cafe
200a
0000
0000
01a3
cafe
240a
0000
0000
01a0
cafe
280a
0000
0000
01a4
cafe
2c0a
0000
0000
019f
cafe
300a
0000
0000
01a1
cafe
340a
0000
0000
01a6
cafe
380a
0000
0000
01a2
cafe
3c0a
0000
0000
01a5
cafe
200a
0000
0000
01a2
cafe
240a
0000
0000
01a0
cafe
280a
0000
0000
01a6
cafe
2c0a
0000
0000
01a1
cafe
300a
0000
0000
01a1
cafe
340a
0000
0000
01a2
cafe
380a
0000
0000
01a0
cafe
3c0a
0000
0000
01a2
cafe
200a
0000
0000
01a0
cafe
240a
0000
0000
01a1
cafe
280a
0000
0000
01a1
cafe
2c0a
0000
0000
01a3
cafe
300a
0000
0000
019f
cafe
340a
0000
0000
01a1
cafe
380a
0000
0000
01a0
cafe
3c0a
0000
0000
019e
cafe
200a
0000
0000
019e
cafe
240a
0000
0000
01a0
cafe
280a
0000
0000
01a1
cafe
2c0a
0000
0000
019f
cafe
300a
0000
0000
019f
cafe
340a
0000
0000
0198
cafe
380a
0000
0000
019b
cafe
3c0a
0000
0000
019e
cafe
200a
0000
0000
019f
cafe
240a
0000
0000
01a5
cafe
280a
0000
0000
019d
cafe
2c0a
0000
0000
01a3
cafe
300a
0000
0000
019f
cafe
340a
0000
0000
01a0
cafe
380a
0000
0000
-
01a3
cafe
3c0a
0000
0000
01a2
cafe
200a
0000
0000
019f
cafe
240a
0000
0000
019b
cafe
280a
0000
0000
019d
cafe
2c0a
0000
0000
019e
cafe
300a
0000
0000
01a3
cafe
340a
0000
0000
01a7
cafe
380a
0000
0000
01a5
cafe
3c0a
0000
0000
01a5
cafe
200a
0000
0000
01a3
cafe
240a
0000
0000
01a1
cafe
280a
0000
0000
019d
cafe
2c0a
0000
0000
019d
cafe
300a
0000
0000
019e
cafe
340a
0000
0000
01a1
cafe
380a
0000
0000
01a1
cafe
3c0a
0000
0000
01a2
cafe
200a
0000
0000
01a5
cafe
240a
0000
0000
01a3
cafe
280a
0000
0000
01a3
cafe
2c0a
0000
0000
01a2
cafe
300a
0000
0000
01a0
cafe
340a
0000
0000
019c
cafe
380a
0000
0000
0198
cafe
3c0a
0000
0000
019a
cafe
200a
0000
0000
01a0
cafe
240a
0000
0000
01a4
cafe
280a
0000
0000
01a4
cafe
2c0a
0000
0000
01a3
cafe
300a
0000
0000
01a7
cafe
340a
0000
0000
01a6
cafe
380a
0000
0000
01a0
cafe
3c0a
0000
0000
019f
cafe
200a
0000
0000
01a2
cafe
240a
0000
0000
01a4
cafe
280a
0000
0000
01a1
cafe
2c0a
0000
0000
01a5
cafe
300a
0000
0000
01a2
cafe
340a
0000
0000
01a4
cafe
380a
0000
0000
01a6
cafe
3c0a
0000
0000
01a7
cafe
200a
0000
0000
01a2
cafe
240a
0000
0000
01a4
cafe
280a
0000
0000
01a5
cafe
2c0a
0000
0000
01a1
cafe
300a
0000
0000
019b
cafe
340a
0000
0000
01a4
cafe
380a
0000
0000
019e
cafe
3c0a
0000
0000
01a0
cafe
200a
0000
0000
01a4
cafe
240a
0000
0000
01a2
-
cafe
280a
0000
0000
019a
cafe
2c0a
0000
0000
019c
cafe
300a
0000
0000
019e
cafe
340a
0000
0000
01a0
cafe
380a
0000
0000
019f
cafe
3c0a
0000
0000
019e
cafe
200a
0000
0000
01a0
cafe
240a
0000
0000
01a2
cafe
280a
0000
0000
01a4
cafe
2c0a
0000
0000
01a1
cafe
300a
0000
0000
019b
cafe
340a
0000
0000
01a4
cafe
380a
0000
0000
01a7
cafe
3c0a
0000
0000
01a3
cafe
200a
0000
0000
01a5
cafe
240a
0000
0000
01a4
cafe
280a
0000
0000
01a4
cafe
2c0a
0000
0000
01a4
cafe
300a
0000
0000
019e
cafe
340a
0000
0000
01a4
cafe
380a
0000
0000
01a4
cafe
3c0a
0000
0000
01a2
cafe
200a
0000
0000
01a3
cafe
240a
0000
0000
01a6
cafe
280a
0000
0000
01a5
cafe
2c0a
0000
0000
01a9
cafe
300a
0000
0000
01a6
cafe
340a
0000
0000
01a5
cafe
380a
0000
0000
019f
cafe
3c0a
0000
0000
019a
cafe
200a
0000
0000
019f
cafe
240a
0000
0000
01a1
cafe
280a
0000
0000
01a2
cafe
2c0a
0000
0000
01a4
cafe
300a
0000
0000
01a4
cafe
340a
0000
0000
01a8
cafe
380a
0000
0000
01a6
cafe
3c0a
0000
0000
01a5
cafe
200a
0000
0000
019f
cafe
240a
0000
0000
01a4
cafe
280a
0000
0000
01a3
cafe
2c0a
0000
0000
01a3
cafe
300a
0000
0000
01a5
cafe
340a
0000
0000
01a3
cafe
380a
0000
0000
01a7
cafe
3c0a
0000
0000
01a4
cafe
200a
0000
0000
01a3
cafe
240a
0000
0000
019f
cafe
280a
0000
0000
01a0
cafe
2c0a
0000
0000
019e
cafe
300a
0000
0000
01a0
cafe
-
340a
0000
0000
019f
cafe
380a
0000
0000
01a5
cafe
3c0a
0000
0000
01a7
cafe
200a
0000
0000
01a3
cafe
240a
0000
0000
01a4
cafe
280a
0000
0000
01a1
cafe
2c0a
0000
0000
01a4
cafe
300a
0000
0000
01a5
cafe
340a
0000
0000
01a4
cafe
380a
0000
0000
01a2
cafe
3c0a
0000
0000
01a3
cafe
200a
0000
0000
01a3
cafe
240a
0000
0000
019e
cafe
280a
0000
0000
01a1
cafe
2c0a
0000
0000
019f
cafe
300a
0000
0000
01a0
cafe
340a
0000
0000
019f
cafe
380a
0000
0000
019f
cafe
3c0a
0000
0000
019b
cafe
200a
0000
0000
01a2
cafe
240a
0000
0000
01a0
cafe
280a
0000
0000
019d
cafe
2c0a
0000
0000
019d
cafe
300a
0000
0000
019c
cafe
340a
0000
0000
019f
cafe
380a
0000
0000
0199
cafe
3c0a
0000
0000
019e
cafe
200a
0000
0000
019e
cafe
240a
0000
0000
019f
cafe
280a
0000
0000
01a1
cafe
2c0a
0000
0000
01a4
cafe
300a
0000
0000
01a3
cafe
340a
0000
0000
01a0
cafe
380a
0000
0000
01a2
cafe
3c0a
0000
0000
01a4
cafe
200a
0000
0000
01a2
cafe
240a
0000
0000
01a2
cafe
280a
0000
0000
01a6
cafe
2c0a
0000
0000
01a5
cafe
300a
0000
0000
01a5
cafe
340a
0000
0000
01a2
cafe
380a
0000
0000
01a0
cafe
3c0a
0000
0000
0197
cafe
200a
0000
0000
0199
cafe
240a
0000
0000
019d
cafe
280a
0000
0000
01a0
cafe
2c0a
0000
0000
01a3
cafe
300a
0000
0000
01a6
cafe
340a
0000
0000
01a5
cafe
380a
0000
0000
01a4
cafe
3c0a
0000
0000
01a4
cafe
200a
-
0000
0000
01a5
cafe
240a
0000
0000
01a6
cafe
280a
0000
0000
01a6
cafe
2c0a
0000
0000
019e
cafe
300a
0000
0000
019d
cafe
340a
0000
0000
019d
cafe
380a
0000
0000
019e
cafe
3c0a
0000
0000
01a1
cafe
200a
0000
0000
01a3
cafe
240a
0000
0000
019e
cafe
280a
0000
0000
01a3
cafe
2c0a
0000
0000
01a4
cafe
300a
0000
0000
01ab
cafe
340a
0000
0000
01a6
cafe
380a
0000
0000
019e
cafe
3c0a
0000
0000
01a0
cafe
200a
0000
0000
01a0
cafe
240a
0000
0000
019c
cafe
280a
0000
0000
01a2
cafe
2c0a
0000
0000
019d
cafe
300a
0000
0000
01a1
cafe
340a
0000
0000
01a3
cafe
380a
0000
0000
01a6
cafe
3c0a
0000
0000
01a4
cafe
200a
0000
0000
01a1
cafe
240a
0000
0000
01a0
cafe
280a
0000
0000
01a2
cafe
2c0a
0000
0000
01a0
cafe
300a
0000
0000
019e
cafe
340a
0000
0000
019b
cafe
380a
0000
0000
019f
cafe
3c0a
0000
0000
019e
cafe
200a
0000
0000
019d
cafe
240a
0000
0000
019d
cafe
280a
0000
0000
01a0
cafe
2c0a
0000
0000
019f
cafe
300a
0000
0000
019c
cafe
340a
0000
0000
01a2
cafe
380a
0000
0000
019d
cafe
3c0a
0000
0000
019b
cafe
200a
0000
0000
01a2
cafe
240a
0000
0000
019d
cafe
280a
0000
0000
01a1
cafe
2c0a
0000
0000
019d
cafe
300a
0000
0000
019e
cafe
340a
0000
0000
019d
cafe
380a
0000
0000
01a1
cafe
3c0a
0000
0000
019d
cafe
200a
0000
0000
019e
cafe
240a
0000
0000
019f
cafe
280a
0000
0000
019e
cafe
2c0a
0000
-
0000
019c
cafe
300a
0000
0000
019d
cafe
340a
0000
0000
019a
cafe
380a
0000
0000
019f
cafe
3c0a
0000
0000
019f
cafe
200a
0000
0000
01a2
cafe
240a
0000
0000
019f
cafe
280a
0000
0000
019f
cafe
2c0a
0000
0000
01a3
cafe
300a
0000
0000
01a0
cafe
340a
0000
0000
01a3
cafe
380a
0000
0000
019b
cafe
3c0a
0000
0000
01a0
cafe
200a
0000
0000
019e
cafe
240a
0000
0000
01a3
cafe
280a
0000
0000
019c
cafe
2c0a
0000
0000
019f
cafe
300a
0000
0000
01a1
cafe
340a
0000
0000
019e
cafe
380a
0000
0000
01a3
cafe
3c0a
0000
0000
01a0
cafe
200a
0000
0000
01a2
cafe
240a
0000
0000
01a5
cafe
280a
0000
0000
01a7
cafe
2c0a
0000
0000
01a2
cafe
300a
0000
0000
01a2
cafe
340a
0000
0000
01a1
cafe
380a
0000
0000
019a
cafe
3c0a
0000
0000
019f
cafe
200a
0000
0000
019f
cafe
240a
0000
0000
019d
cafe
280a
0000
0000
019d
cafe
2c0a
0000
0000
019c
cafe
300a
0000
0000
01a2
cafe
340a
0000
0000
019f
cafe
380a
0000
0000
01a0
cafe
3c0a
0000
0000
019e
cafe
200a
0000
0000
01a4
cafe
240a
0000
0000
01a3
cafe
280a
0000
0000
01a0
cafe
2c0a
0000
0000
019f
cafe
300a
0000
0000
019e
cafe
340a
0000
0000
019f
cafe
380a
0000
0000
01a1
cafe
3c0a
0000
0000
01a1
cafe
200a
0000
0000
01a7
cafe
240a
0000
0000
01a3
cafe
280a
0000
0000
01a5
cafe
2c0a
0000
0000
01a7
cafe
300a
0000
0000
01a7
cafe
340a
0000
0000
01a6
cafe
380a
0000
0000
-
01a7
cafe
3c0a
0000
0000
01a4
cafe
200a
0000
0000
01a3
cafe
240a
0000
0000
019e
cafe
280a
0000
0000
01a1
cafe
2c0a
0000
0000
01a1
cafe
300a
0000
0000
01a1
cafe
340a
0000
0000
01a2
cafe
380a
0000
0000
019f
cafe
3c0a
0000
0000
01a2
cafe
200a
0000
0000
01a2
cafe
240a
0000
0000
01a3
cafe
280a
0000
0000
019c
cafe
2c0a
0000
0000
019d
cafe
300a
0000
0000
019d
cafe
340a
0000
0000
019c
cafe
380a
0000
0000
019b
cafe
3c0a
0000
0000
019d
cafe
200a
0000
0000
019d
cafe
240a
0000
0000
01a6
cafe
280a
0000
0000
019e
cafe
2c0a
0000
0000
01a1
cafe
300a
0000
0000
01a0
cafe
340a
0000
0000
01a4
cafe
380a
0000
0000
01a6
cafe
3c0a
0000
0000
01a3
cafe
200a
0000
0000
01a4
cafe
240a
0000
0000
01a6
cafe
280a
0000
0000
01a6
cafe
2c0a
0000
0000
01a6
cafe
300a
0000
0000
01a4
cafe
340a
0000
0000
01a1
cafe
380a
0000
0000
01a4
cafe
3c0a
0000
0000
01a1
cafe
200a
0000
0000
01a4
cafe
240a
0000
0000
01a4
cafe
280a
0000
0000
01a1
cafe
2c0a
0000
0000
019f
cafe
300a
0000
0000
019c
cafe
340a
0000
0000
01a2
cafe
380a
0000
0000
01a3
cafe
3c0a
0000
0000
01a0
cafe
200a
0000
0000
01a1
cafe
240a
0000
0000
01a0
cafe
280a
0000
0000
01a0
cafe
2c0a
0000
0000
01a0
cafe
300a
0000
0000
01a3
cafe
340a
0000
0000
01a1
cafe
380a
0000
0000
01a4
cafe
3c0a
0000
0000
01a1
cafe
200a
0000
0000
01a0
cafe
240a
0000
0000
019e
-
cafe
280a
0000
0000
01a1
cafe
2c0a
0000
0000
01a0
cafe
300a
0000
0000
019d
cafe
340a
0000
0000
01a4
cafe
380a
0000
0000
01a5
cafe
3c0a
0000
0000
01a4
cafe
200a
0000
0000
01a0
cafe
240a
0000
0000
01a4
cafe
280a
0000
0000
01a0
cafe
2c0a
0000
0000
01a1
cafe
300a
0000
0000
01a4
cafe
340a
0000
0000
01a7
cafe
380a
0000
0000
01a2
cafe
3c0a
0000
0000
01a5
cafe
200a
0000
0000
01a5
cafe
240a
0000
0000
01a8
cafe
280a
0000
0000
01a6
cafe
2c0a
0000
0000
01a6
cafe
300a
0000
0000
01a0
cafe
340a
0000
0000
01a2
cafe
380a
0000
0000
01a1
cafe
3c0a
0000
0000
019f
cafe
200a
0000
0000
019d
cafe
240a
0000
0000
019f
cafe
280a
0000
0000
019d
cafe
2c0a
0000
0000
019e
cafe
300a
0000
0000
019f
cafe
340a
0000
0000
019f
cafe
380a
0000
0000
01a4
cafe
3c0a
0000
0000
01a3
cafe
200a
0000
0000
01a2
cafe
240a
0000
0000
01a5
cafe
280a
0000
0000
01a1
cafe
2c0a
0000
0000
01a1
cafe
300a
0000
0000
019f
cafe
340a
0000
0000
019f
cafe
380a
0000
0000
01a2
cafe
3c0a
0000
0000
019f
cafe
200a
0000
0000
01a5
cafe
240a
0000
0000
01a7
cafe
280a
0000
0000
01a9
cafe
2c0a
0000
0000
01ab
cafe
300a
0000
0000
01a9
cafe
340a
0000
0000
01a5
cafe
380a
0000
0000
01a3
cafe
3c0a
0000
0000
01a7
cafe
200a
0000
0000
01a7
cafe
240a
0000
0000
01a6
cafe
280a
0000
0000
01a4
cafe
2c0a
0000
0000
01a5
cafe
300a
0000
0000
01a2
cafe
-
340a
0000
0000
01a3
cafe
380a
0000
0000
019d
cafe
3c0a
0000
0000
019b
cafe
200a
0000
0000
01a1
cafe
240a
0000
0000
01a4
cafe
280a
0000
0000
01a2
cafe
2c0a
0000
0000
01a4
cafe
300a
0000
0000
01a1
cafe
340a
0000
0000
01a0
cafe
380a
0000
0000
01a3
cafe
3c0a
0000
0000
01a3
cafe
200a
0000
0000
01a6
cafe
240a
0000
0000
01a5
cafe
280a
0000
0000
01a3
cafe
2c0a
0000
0000
01a2
cafe
300a
0000
0000
01a6
cafe
340a
0000
0000
01a5
cafe
380a
0000
0000
01a5
cafe
3c0a
0000
0000
01a6
cafe
200a
0000
0000
01a9
cafe
240a
0000
0000
01aa
cafe
280a
0000
0000
01a5
cafe
2c0a
0000
0000
01a5
cafe
300a
0000
0000
01a4
cafe
340a
0000
0000
01a7
cafe
380a
0000
0000
01a4
cafe
3c0a
0000
0000
01a5
cafe
200a
0000
0000
01a2
cafe
240a
0000
0000
019e
cafe
280a
0000
0000
019e
cafe
2c0a
0000
0000
01a2
cafe
300a
0000
0000
01a2
cafe
340a
0000
0000
01a2
cafe
380a
0000
0000
01a1
cafe
3c0a
0000
0000
01a3
cafe
200a
0000
0000
01a2
cafe
240a
0000
0000
01a2
cafe
280a
0000
0000
01a2
cafe
2c0a
0000
0000
01a3
cafe
300a
0000
0000
01a3
cafe
340a
0000
0000
01a1
cafe
380a
0000
0000
01a8
cafe
3c0a
0000
0000
01a4
cafe
200a
0000
0000
01a4
cafe
240a
0000
0000
019f
cafe
280a
0000
0000
019f
cafe
2c0a
0000
0000
01a0
cafe
300a
0000
0000
019c
cafe
340a
0000
0000
019e
cafe
380a
0000
0000
019e
cafe
3c0a
0000
0000
019a
cafe
200a
-
0000
0000
019c
cafe
240a
0000
0000
019a
cafe
280a
0000
0000
019e
cafe
2c0a
0000
0000
01a0
cafe
300a
0000
0000
019e
cafe
340a
0000
0000
019b
cafe
380a
0000
0000
019c
cafe
3c0a
0000
0000
019f
cafe
200a
0000
0000
01a0
cafe
240a
0000
0000
01a1
cafe
280a
0000
0000
01a1
cafe
2c0a
0000
0000
019d
cafe
300a
0000
0000
019d
cafe
340a
0000
0000
01a0
cafe
380a
0000
0000
019a
cafe
3c0a
0000
0000
0199
cafe
200a
0000
0000
01a1
cafe
240a
0000
0000
01a4
cafe
280a
0000
0000
01a7
cafe
2c0a
0000
0000
01a9
cafe
300a
0000
0000
01a5
cafe
340a
0000
0000
01a8
cafe
380a
0000
0000
01ac
cafe
3c0a
0000
0000
01a9
cafe
200a
0000
0000
01a0
cafe
240a
0000
0000
01a5
cafe
280a
0000
0000
01a1
cafe
2c0a
0000
0000
01a4
cafe
300a
0000
0000
01a1
cafe
340a
0000
0000
01a5
cafe
380a
0000
0000
01a5
cafe
3c0a
0000
0000
01a8
cafe
200a
0000
0000
01a4
cafe
240a
0000
0000
01a3
cafe
280a
0000
0000
01a0
cafe
2c0a
0000
0000
019f
cafe
300a
0000
0000
019d
cafe
340a
0000
0000
01a1
cafe
380a
0000
0000
01a3
cafe
3c0a
0000
0000
01a0
cafe
200a
0000
0000
01a1
cafe
240a
0000
0000
019f
cafe
280a
0000
0000
019f
cafe
2c0a
0000
0000
019e
cafe
300a
0000
0000
019e
cafe
340a
0000
0000
01a0
cafe
380a
0000
0000
019f
cafe
3c0a
0000
0000
019b
cafe
200a
0000
0000
019a
cafe
240a
0000
0000
01a1
cafe
280a
0000
0000
019e
cafe
2c0a
0000
-
0000
01a2
cafe
300a
0000
0000
01a5
cafe
340a
0000
0000
01a5
cafe
380a
0000
0000
01a5
cafe
3c0a
0000
0000
01a5
cafe
200a
0000
0000
01a4
cafe
240a
0000
0000
01a0
cafe
280a
0000
0000
01a2
cafe
2c0a
0000
0000
01a1
cafe
300a
0000
0000
019e
cafe
340a
0000
0000
019f
cafe
380a
0000
0000
019c
cafe
3c0a
0000
0000
01a1
cafe
200a
0000
0000
01a2
cafe
240a
0000
0000
01a3
cafe
280a
0000
0000
019e
cafe
2c0a
0000
0000
019f
cafe
300a
0000
0000
019f
cafe
340a
0000
0000
01a4
cafe
380a
0000
0000
01a2
cafe
3c0a
0000
0000
01a2
cafe
200a
0000
0000
019e
cafe
240a
0000
0000
01a1
cafe
280a
0000
0000
01a2
cafe
2c0a
0000
0000
01a7
cafe
300a
0000
0000
01a7
cafe
340a
0000
0000
01a3
cafe
380a
0000
0000
01a0
cafe
3c0a
0000
0000
01a5
cafe
200a
0000
0000
01a5
cafe
240a
0000
0000
01a5
cafe
280a
0000
0000
01a8
cafe
2c0a
0000
0000
01a5
cafe
300a
0000
0000
01a5
cafe
340a
0000
0000
01a6
cafe
380a
0000
0000
01a6
cafe
3c0a
0000
0000
01a4
cafe
200a
0000
0000
01a5
cafe
240a
0000
0000
01ab
cafe
280a
0000
0000
01aa
cafe
2c0a
0000
0000
01a9
cafe
300a
0000
0000
01ab
cafe
340a
0000
0000
01ae
cafe
380a
0000
0000
01ad
cafe
3c0a
0000
0000
01ad
cafe
200a
0000
0000
01ab
cafe
240a
0000
0000
01ac
cafe
280a
0000
0000
01a7
cafe
2c0a
0000
0000
01a4
cafe
300a
0000
0000
019f
cafe
340a
0000
0000
01a1
cafe
380a
0000
0000
-
01a2
cafe
3c0a
0000
0000
01a2
cafe
200a
0000
0000
019d
cafe
240a
0000
0000
019f
cafe
280a
0000
0000
01a0
cafe
2c0a
0000
0000
019a
cafe
300a
0000
0000
019d
cafe
340a
0000
0000
019e
cafe
380a
0000
0000
019e
cafe
3c0a
0000
0000
01a3
cafe
200a
0000
0000
01a6
cafe
240a
0000
0000
01a8
cafe
280a
0000
0000
01a6
cafe
2c0a
0000
0000
01a6
cafe
300a
0000
0000
01a7
cafe
340a
0000
0000
01a8
cafe
380a
0000
0000
01a5
cafe
3c0a
0000
0000
01a5
cafe
200a
0000
0000
01aa
cafe
240a
0000
0000
01a7
cafe
280a
0000
0000
01a1
cafe
2c0a
0000
0000
01a3
cafe
300a
0000
0000
01a4
cafe
340a
0000
0000
01a1
cafe
380a
0000
0000
01a5
cafe
3c0a
0000
0000
01a1
cafe
200a
0000
0000
01a1
cafe
240a
0000
0000
01a4
cafe
280a
0000
0000
019f
cafe
2c0a
0000
0000
019f
cafe
300a
0000
0000
019c
cafe
340a
0000
0000
019d
cafe
380a
0000
0000
01a0
cafe
3c0a
0000
0000
01a2
cafe
200a
0000
0000
01a3
cafe
240a
0000
0000
01a9
cafe
280a
0000
0000
01aa
cafe
2c0a
0000
0000
01a3
cafe
300a
0000
0000
01a6
cafe
340a
0000
0000
01a2
cafe
380a
0000
0000
01a2
cafe
3c0a
0000
0000
01a1
cafe
200a
0000
0000
01a7
cafe
240a
0000
0000
01a3
cafe
280a
0000
0000
01a5
cafe
2c0a
0000
0000
019f
cafe
300a
0000
0000
01a4
cafe
340a
0000
0000
01a4
cafe
380a
0000
0000
01a3
cafe
3c0a
0000
0000
01a2
cafe
200a
0000
0000
01a3
cafe
240a
0000
0000
01a1
-
cafe
280a
0000
0000
01a2
cafe
2c0a
0000
0000
01a4
cafe
300a
0000
0000
01a2
cafe
340a
0000
0000
019f
cafe
380a
0000
0000
019e
cafe
3c0a
0000
0000
019d
cafe
200a
0000
0000
019b
cafe
240a
0000
0000
019c
cafe
280a
0000
0000
019d
cafe
2c0a
0000
0000
019d
cafe
300a
0000
0000
019f
cafe
340a
0000
0000
019f
cafe
380a
0000
0000
019b
cafe
3c0a
0000
0000
019b
cafe
200a
0000
0000
019b
cafe
240a
0000
0000
019b
cafe
280a
0000
0000
019d
cafe
2c0a
0000
0000
019a
cafe
300a
0000
0000
019f
cafe
340a
0000
0000
0199
cafe
380a
0000
0000
0198
cafe
3c0a
0000
0000
019d
cafe
200a
0000
0000
019e
cafe
240a
0000
0000
019c
cafe
280a
0000
0000
01a3
cafe
2c0a
0000
0000
01a2
cafe
300a
0000
0000
01a0
cafe
340a
0000
0000
01a2
cafe
380a
0000
0000
01a5
cafe
3c0a
0000
0000
019e
cafe
200a
0000
0000
01a1
cafe
240a
0000
0000
01a2
cafe
280a
0000
0000
01a1
cafe
2c0a
0000
0000
019f
cafe
300a
0000
0000
019e
cafe
340a
0000
0000
01a2
cafe
380a
0000
0000
01a1
cafe
3c0a
0000
0000
01a4
cafe
200a
0000
0000
01a7
cafe
240a
0000
0000
01a3
cafe
280a
0000
0000
019e
cafe
2c0a
0000
0000
01a0
cafe
300a
0000
0000
019d
cafe
340a
0000
0000
0199
cafe
380a
0000
0000
019a
cafe
3c0a
0000
0000
019b
cafe
200a
0000
0000
01a1
cafe
240a
0000
0000
01a0
cafe
280a
0000
0000
019e
cafe
2c0a
0000
0000
019d
cafe
300a
0000
0000
01a0
cafe
-
340a
0000
0000
01a2
cafe
380a
0000
0000
01a2
cafe
3c0a
0000
0000
01a7
cafe
200a
0000
0000
01a6
cafe
240a
0000
0000
01a4
cafe
280a
0000
0000
01a5
cafe
2c0a
0000
0000
01a2
cafe
300a
0000
0000
01a4
cafe
340a
0000
0000
01a5
cafe
380a
0000
0000
01a5
cafe
3c0a
0000
0000
01a4
cafe
200a
0000
0000
01a2
cafe
240a
0000
0000
019c
cafe
280a
0000
0000
01a0
cafe
2c0a
0000
0000
019e
cafe
300a
0000
0000
01a0
cafe
340a
0000
0000
01a0
cafe
380a
0000
0000
01a6
cafe
3c0a
0000
0000
01a7
cafe
200a
0000
0000
01a5
cafe
240a
0000
0000
01a4
cafe
280a
0000
0000
01a3
cafe
2c0a
0000
0000
01a3
cafe
300a
0000
0000
019e
cafe
340a
0000
0000
01a3
cafe
380a
0000
0000
019b
cafe
3c0a
0000
0000
019a
cafe
200a
0000
0000
0199
cafe
240a
0000
0000
019d
cafe
280a
0000
0000
01a1
cafe
2c0a
0000
0000
019c
cafe
300a
0000
0000
019d
cafe
340a
0000
0000
019e
cafe
380a
0000
0000
019d
cafe
3c0a
0000
0000
019f
cafe
200a
0000
0000
019f
cafe
240a
0000
0000
01a5
cafe
280a
0000
0000
01a3
cafe
2c0a
0000
0000
01a9
cafe
300a
0000
0000
01a6
cafe
340a
0000
0000
01a3
cafe
380a
0000
0000
01a4
cafe
3c0a
0000
0000
01a0
cafe
200a
0000
0000
01a4
cafe
240a
0000
0000
01aa
cafe
280a
0000
0000
01a5
cafe
2c0a
0000
0000
01a8
cafe
300a
0000
0000
01a5
cafe
340a
0000
0000
01a5
cafe
380a
0000
0000
01a7
cafe
3c0a
0000
0000
01a6
cafe
200a
-
0000
0000
01a4
cafe
240a
0000
0000
01ac
cafe
280a
0000
0000
01a7
cafe
2c0a
0000
0000
01a1
cafe
300a
0000
0000
019f
cafe
340a
0000
0000
019f
cafe
380a
0000
0000
01a1
cafe
3c0a
0000
0000
01a1
cafe
200a
0000
0000
019e
cafe
240a
0000
0000
019d
cafe
280a
0000
0000
019f
cafe
2c0a
0000
0000
01a4
cafe
300a
0000
0000
01a7
cafe
340a
0000
0000
01a4
cafe
380a
0000
0000
01a6
cafe
3c0a
0000
0000
01a4
cafe
200a
0000
0000
01a0
cafe
240a
0000
0000
019c
cafe
280a
0000
0000
01a0
cafe
2c0a
0000
0000
01a2
cafe
300a
0000
0000
01a2
cafe
340a
0000
0000
01a2
cafe
380a
0000
0000
01a5
cafe
3c0a
0000
0000
01a9
cafe
200a
0000
0000
01a3
cafe
240a
0000
0000
01a3
cafe
280a
0000
0000
01a0
cafe
2c0a
0000
0000
01a0
cafe
300a
0000
0000
01a2
cafe
340a
0000
0000
01a6
cafe
380a
0000
0000
01a5
cafe
3c0a
0000
0000
01a2
cafe
200a
0000
0000
01a6
cafe
240a
0000
0000
01a5
cafe
280a
0000
0000
01a0
cafe
2c0a
0000
0000
01a3
cafe
300a
0000
0000
01a3
cafe
340a
0000
0000
01a1
cafe
380a
0000
0000
01a3
cafe
3c0a
0000
0000
01a6
cafe
200a
0000
0000
01a1
cafe
240a
0000
0000
01a0
cafe
280a
0000
0000
01a6
cafe
2c0a
0000
0000
01a4
cafe
300a
0000
0000
01a4
cafe
340a
0000
0000
01a2
cafe
380a
0000
0000
01a3
cafe
3c0a
0000
0000
019e
cafe
200a
0000
0000
01a3
cafe
240a
0000
0000
01a4
cafe
280a
0000
0000
01a7
cafe
2c0a
0000
-
0000
01a6
cafe
300a
0000
0000
01a7
cafe
340a
0000
0000
01a6
cafe
380a
0000
0000
01ab
cafe
3c0a
0000
0000
01aa
cafe
200a
0000
0000
01a6
cafe
240a
0000
0000
01a1
cafe
280a
0000
0000
01a1
cafe
2c0a
0000
0000
019e
cafe
300a
0000
0000
019f
cafe
340a
0000
0000
01a3
cafe
380a
0000
0000
019f
cafe
3c0a
0000
0000
01a1
cafe
200a
0000
0000
01a3
cafe
240a
0000
0000
01a3
cafe
280a
0000
0000
01a2
cafe
2c0a
0000
0000
01a4
cafe
300a
0000
0000
01a2
cafe
340a
0000
0000
01a0
cafe
380a
0000
0000
01a1
cafe
3c0a
0000
0000
01a1
cafe
200a
0000
0000
01a1
cafe
240a
0000
0000
019e
cafe
280a
0000
0000
01a0
cafe
2c0a
0000
0000
019f
cafe
300a
0000
0000
01a0
cafe
340a
0000
0000
01a1
cafe
380a
0000
0000
01a6
cafe
3c0a
0000
0000
01a3
cafe
200a
0000
0000
01a3
cafe
240a
0000
0000
019e
cafe
280a
0000
0000
019a
cafe
2c0a
0000
0000
019c
cafe
300a
0000
0000
01a3
cafe
340a
0000
0000
01a1
cafe
380a
0000
0000
01a2
cafe
3c0a
0000
0000
01a3
cafe
200a
0000
0000
01a3
cafe
240a
0000
0000
01a5
cafe
280a
0000
0000
01a8
cafe
2c0a
0000
0000
01a6
cafe
300a
0000
0000
01a4
cafe
340a
0000
0000
01a2
cafe
380a
0000
0000
01a0
cafe
3c0a
0000
0000
019e
cafe
200a
0000
0000
019f
cafe
240a
0000
0000
01a0
cafe
280a
0000
0000
019b
cafe
2c0a
0000
0000
019a
cafe
300a
0000
0000
019a
cafe
340a
0000
0000
01a1
cafe
380a
0000
0000
-
019f
cafe
3c0a
0000
0000
01a0
cafe
200a
0000
0000
01a1
cafe
240a
0000
0000
01a1
cafe
280a
0000
0000
01a1
cafe
2c0a
0000
0000
01a3
cafe
300a
0000
0000
019f
cafe
340a
0000
0000
01a0
cafe
380a
0000
0000
019e
cafe
3c0a
0000
0000
019d
cafe
200a
0000
0000
019b
cafe
240a
0000
0000
0199
cafe
280a
0000
0000
019f
cafe
2c0a
0000
0000
019c
cafe
300a
0000
0000
019e
cafe
340a
0000
0000
019c
cafe
380a
0000
0000
019b
cafe
3c0a
0000
0000
019d
cafe
200a
0000
0000
019e
cafe
240a
0000
0000
019d
cafe
280a
0000
0000
019f
cafe
2c0a
0000
0000
019f
cafe
300a
0000
0000
019d
cafe
340a
0000
0000
019e
cafe
380a
0000
0000
01a3
cafe
3c0a
0000
0000
01a5
cafe
200a
0000
0000
01a3
cafe
240a
0000
0000
01a1
cafe
280a
0000
0000
01a0
cafe
2c0a
0000
0000
01a4
cafe
300a
0000
0000
019f
cafe
340a
0000
0000
019c
cafe
380a
0000
0000
019d
cafe
3c0a
0000
0000
0199
cafe
200a
0000
0000
019f
cafe
240a
0000
0000
01a1
cafe
280a
0000
0000
01a0
cafe
2c0a
0000
0000
019d
cafe
300a
0000
0000
019e
cafe
340a
0000
0000
01a1
cafe
380a
0000
0000
01a4
cafe
3c0a
0000
0000
019e
cafe
200a
0000
0000
01a2
cafe
240a
0000
0000
019d
cafe
280a
0000
0000
019c
cafe
2c0a
0000
0000
0199
cafe
300a
0000
0000
019a
cafe
340a
0000
0000
01a2
cafe
380a
0000
0000
019e
cafe
3c0a
0000
0000
01a0
cafe
200a
0000
0000
01a0
cafe
240a
0000
0000
019b
-
cafe
280a
0000
0000
01a1
cafe
2c0a
0000
0000
01a2
cafe
300a
0000
0000
01a1
cafe
340a
0000
0000
01a5
cafe
380a
0000
0000
01a4
cafe
3c0a
0000
0000
01a0
cafe
200a
0000
0000
019b
cafe
240a
0000
0000
019e
cafe
280a
0000
0000
019b
cafe
2c0a
0000
0000
0199
cafe
300a
0000
0000
019c
cafe
340a
0000
0000
01a3
cafe
380a
0000
0000
01a6
cafe
3c0a
0000
0000
019f
cafe
200a
0000
0000
01a3
cafe
240a
0000
0000
019e
cafe
280a
0000
0000
01a2
cafe
2c0a
0000
0000
01a3
cafe
300a
0000
0000
019b
cafe
340a
0000
0000
019d
cafe
380a
0000
0000
0194
cafe
3c0a
0000
0000
019c
cafe
200a
0000
0000
019f
cafe
240a
0000
0000
01a2
cafe
280a
0000
0000
01a4
cafe
2c0a
0000
0000
01a3
cafe
300a
0000
0000
01a5
cafe
340a
0000
0000
01a5
cafe
380a
0000
0000
01a6
cafe
3c0a
0000
0000
01a8
cafe
200a
0000
0000
01a9
cafe
240a
0000
0000
01a5
cafe
280a
0000
0000
01ac
cafe
2c0a
0000
0000
01a9
cafe
300a
0000
0000
01a3
cafe
340a
0000
0000
01a6
cafe
380a
0000
0000
01a5
cafe
3c0a
0000
0000
01a2
cafe
200a
0000
0000
01a0
cafe
240a
0000
0000
01a4
cafe
280a
0000
0000
01a2
cafe
2c0a
0000
0000
01a3
cafe
300a
0000
0000
019f
cafe
340a
0000
0000
01a0
cafe
380a
0000
0000
01a0
cafe
3c0a
0000
0000
01a2
cafe
200a
0000
0000
01a0
cafe
240a
0000
0000
01a3
cafe
280a
0000
0000
01a5
cafe
2c0a
0000
0000
01a3
cafe
300a
0000
0000
01a0
cafe
-
340a
0000
0000
019c
cafe
380a
0000
0000
019c
cafe
3c0a
0000
0000
01a0
cafe
200a
0000
0000
019d
cafe
240a
0000
0000
019b
cafe
280a
0000
0000
0198
cafe
2c0a
0000
0000
019b
cafe
300a
0000
0000
019c
cafe
340a
0000
0000
019d
cafe
380a
0000
0000
019d
cafe
3c0a
0000
0000
01a2
cafe
200a
0000
0000
01a4
cafe
240a
0000
0000
01a7
cafe
280a
0000
0000
01a0
cafe
2c0a
0000
0000
019c
cafe
300a
0000
0000
01a0
cafe
340a
0000
0000
019d
cafe
380a
0000
0000
01a1
cafe
3c0a
0000
0000
019e
cafe
200a
0000
0000
01a0
cafe
240a
0000
0000
019d
cafe
280a
0000
0000
01a1
cafe
2c0a
0000
0000
01a8
cafe
300a
0000
0000
01a2
cafe
340a
0000
0000
01a2
cafe
380a
0000
0000
01a1
cafe
3c0a
0000
0000
019c
cafe
200a
0000
0000
01a0
cafe
240a
0000
0000
019b
cafe
280a
0000
0000
019b
cafe
2c0a
0000
0000
01a0
cafe
300a
0000
0000
019f
cafe
340a
0000
0000
019f
cafe
380a
0000
0000
019c
cafe
3c0a
0000
0000
019d
cafe
200a
0000
0000
01a0
cafe
240a
0000
0000
01a3
cafe
280a
0000
0000
01a3
cafe
2c0a
0000
0000
01a7
cafe
300a
0000
0000
01a1
cafe
340a
0000
0000
019f
cafe
380a
0000
0000
01a0
cafe
3c0a
0000
0000
01a4
cafe
200a
0000
0000
01a6
cafe
240a
0000
0000
01a7
cafe
280a
0000
0000
01a5
cafe
2c0a
0000
0000
01a1
cafe
300a
0000
0000
01a3
cafe
340a
0000
0000
01a6
cafe
380a
0000
0000
01a8
cafe
3c0a
0000
0000
01a5
cafe
200a
-
0000
0000
01a6
cafe
240a
0000
0000
01a7
cafe
280a
0000
0000
01a6
cafe
2c0a
0000
0000
01a9
cafe
300a
0000
0000
01a9
cafe
340a
0000
0000
01a7
cafe
380a
0000
0000
01a7
cafe
3c0a
0000
0000
01a8
cafe
200a
0000
0000
01a3
cafe
240a
0000
0000
01a0
cafe
280a
0000
0000
019d
cafe
2c0a
0000
0000
01a2
cafe
300a
0000
0000
01a1
cafe
340a
0000
0000
019f
cafe
380a
0000
0000
019d
cafe
3c0a
0000
0000
019a
cafe
200a
0000
0000
019b
cafe
240a
0000
0000
01a0
cafe
280a
0000
0000
01a0
cafe
2c0a
0000
0000
019e
cafe
300a
0000
0000
01a3
cafe
340a
0000
0000
01a0
cafe
380a
0000
0000
01a1
cafe
3c0a
0000
0000
01a0
cafe
200a
0000
0000
01a1
cafe
240a
0000
0000
01a6
cafe
280a
0000
0000
01a5
cafe
2c0a
0000
0000
01a8
cafe
300a
0000
0000
01a8
cafe
340a
0000
0000
01a0
cafe
380a
0000
0000
01a0
cafe
3c0a
0000
0000
01a0
cafe
200a
0000
0000
01a3
cafe
240a
0000
0000
01a1
cafe
280a
0000
0000
01a1
cafe
2c0a
0000
0000
01a5
cafe
300a
0000
0000
01a5
cafe
340a
0000
0000
019d
cafe
380a
0000
0000
019f
cafe
3c0a
0000
0000
01a4
cafe
200a
0000
0000
01a3
cafe
240a
0000
0000
019e
cafe
280a
0000
0000
019c
cafe
2c0a
0000
0000
01a1
cafe
300a
0000
0000
01a6
cafe
340a
0000
0000
01a4
cafe
380a
0000
0000
01a7
cafe
3c0a
0000
0000
01a8
cafe
200a
0000
0000
01ab
cafe
240a
0000
0000
01a6
cafe
280a
0000
0000
01a6
cafe
2c0a
0000
-
0000
01a6
cafe
300a
0000
0000
01a7
cafe
340a
0000
0000
01a4
cafe
380a
0000
0000
01a3
cafe
3c0a
0000
0000
019e
cafe
200a
0000
0000
01a3
cafe
240a
0000
0000
01a2
cafe
280a
0000
0000
01a3
cafe
2c0a
0000
0000
01a5
cafe
300a
0000
0000
01a2
cafe
340a
0000
0000
019d
cafe
380a
0000
0000
019e
cafe
3c0a
0000
0000
01a2
cafe
200a
0000
0000
01a5
cafe
240a
0000
0000
01a2
cafe
280a
0000
0000
019e
cafe
2c0a
0000
0000
0199
cafe
300a
0000
0000
0199
cafe
340a
0000
0000
019e
cafe
380a
0000
0000
019f
cafe
3c0a
0000
0000
019a
cafe
200a
0000
0000
019e
cafe
240a
0000
0000
01a4
cafe
280a
0000
0000
019f
cafe
2c0a
0000
0000
019d
cafe
300a
0000
0000
019c
cafe
340a
0000
0000
019f
cafe
380a
0000
0000
019d
cafe
3c0a
0000
0000
019d
cafe
200a
0000
0000
01a2
cafe
240a
0000
0000
019d
cafe
280a
0000
0000
019a
cafe
2c0a
0000
0000
019d
cafe
300a
0000
0000
01a0
cafe
340a
0000
0000
01a0
cafe
380a
0000
0000
01a0
cafe
3c0a
0000
0000
019e
cafe
200a
0000
0000
01a5
cafe
240a
0000
0000
01a4
cafe
280a
0000
0000
019f
cafe
2c0a
0000
0000
01a0
cafe
300a
0000
0000
019f
cafe
340a
0000
0000
01a1
cafe
380a
0000
0000
01a2
cafe
3c0a
0000
0000
019e
cafe
200a
0000
0000
019f
cafe
240a
0000
0000
01a3
cafe
280a
0000
0000
01a2
cafe
2c0a
0000
0000
01a4
cafe
300a
0000
0000
01a6
cafe
340a
0000
0000
01a3
cafe
380a
0000
0000
-
01a3
cafe
3c0a
0000
0000
01a2
cafe
200a
0000
0000
01a6
cafe
240a
0000
0000
01a4
cafe
280a
0000
0000
01a3
cafe
2c0a
0000
0000
01a2
cafe
300a
0000
0000
01a1
cafe
340a
0000
0000
01a4
cafe
380a
0000
0000
01a0
cafe
3c0a
0000
0000
01a0
cafe
200a
0000
0000
01a3
cafe
240a
0000
0000
01a6
cafe
280a
0000
0000
01a8
cafe
2c0a
0000
0000
01a3
cafe
300a
0000
0000
01a4
cafe
340a
0000
0000
01a9
cafe
380a
0000
0000
01a1
cafe
3c0a
0000
0000
01a7
cafe
200a
0000
0000
01a8
cafe
240a
0000
0000
01ab
cafe
280a
0000
0000
01aa
cafe
2c0a
0000
0000
01a5
cafe
300a
0000
0000
01a7
cafe
340a
0000
0000
01a8
cafe
380a
0000
0000
01a4
cafe
3c0a
0000
0000
01a1
cafe
200a
0000
0000
01a2
cafe
240a
0000
0000
019e
cafe
280a
0000
0000
019e
cafe
2c0a
0000
0000
0199
cafe
300a
0000
0000
019d
cafe
340a
0000
0000
019d
cafe
380a
0000
0000
019f
cafe
3c0a
0000
0000
01a5
cafe
200a
0000
0000
01a8
cafe
240a
0000
0000
01a6
cafe
280a
0000
0000
01a4
cafe
2c0a
0000
0000
01a5
cafe
300a
0000
0000
01a6
cafe
340a
0000
0000
01a2
cafe
380a
0000
0000
01a5
cafe
3c0a
0000
0000
01a4
cafe
200a
0000
0000
01a2
cafe
240a
0000
0000
01a1
cafe
280a
0000
0000
01a0
cafe
2c0a
0000
0000
01a2
cafe
300a
0000
0000
01a4
cafe
340a
0000
0000
01a8
cafe
380a
0000
0000
01a2
cafe
3c0a
0000
0000
01a7
cafe
200a
0000
0000
01a4
cafe
240a
0000
0000
01a2
-
cafe
280a
0000
0000
01a5
cafe
2c0a
0000
0000
01a3
cafe
300a
0000
0000
01a3
cafe
340a
0000
0000
019f
cafe
380a
0000
0000
019f
cafe
3c0a
0000
0000
019c
cafe
200a
0000
0000
0199
cafe
240a
0000
0000
019f
cafe
280a
0000
0000
01a1
cafe
2c0a
0000
0000
01a2
cafe
300a
0000
0000
019e
cafe
340a
0000
0000
019f
cafe
380a
0000
0000
01a3
cafe
3c0a
0000
0000
01a0
cafe
200a
0000
0000
01a2
cafe
240a
0000
0000
01a3
cafe
280a
0000
0000
019f
cafe
2c0a
0000
0000
01a4
cafe
300a
0000
0000
019e
cafe
340a
0000
0000
01a0
cafe
380a
0000
0000
01a5
cafe
3c0a
0000
0000
01a3
cafe
200a
0000
0000
01a6
cafe
240a
0000
0000
01a7
cafe
280a
0000
0000
01a7
cafe
2c0a
0000
0000
01a5
cafe
300a
0000
0000
01a5
cafe
340a
0000
0000
01a6
cafe
380a
0000
0000
01a4
cafe
3c0a
0000
0000
01a5
cafe
200a
0000
0000
01a6
cafe
240a
0000
0000
019e
cafe
280a
0000
0000
019f
cafe
2c0a
0000
0000
01a2
cafe
300a
0000
0000
01a3
cafe
340a
0000
0000
01a0
cafe
380a
0000
0000
019f
cafe
3c0a
0000
0000
01a1
cafe
200a
0000
0000
019f
cafe
240a
0000
0000
01a0
cafe
280a
0000
0000
019e
cafe
2c0a
0000
0000
019c
cafe
300a
0000
0000
019e
cafe
340a
0000
0000
01a7
cafe
380a
0000
0000
01a2
cafe
3c0a
0000
0000
019e
cafe
200a
0000
0000
019b
cafe
240a
0000
0000
0198
cafe
280a
0000
0000
019c
cafe
2c0a
0000
0000
019e
cafe
300a
0000
0000
019b
cafe
-
340a
0000
0000
019a
cafe
380a
0000
0000
019b
cafe
3c0a
0000
0000
019b
cafe
200a
0000
0000
019c
cafe
240a
0000
0000
01a1
cafe
280a
0000
0000
01a2
cafe
2c0a
0000
0000
01a3
cafe
300a
0000
0000
01a4
cafe
340a
0000
0000
01a4
cafe
380a
0000
0000
01a3
cafe
3c0a
0000
0000
01a4
cafe
200a
0000
0000
01a1
cafe
240a
0000
0000
019e
cafe
280a
0000
0000
019e
cafe
2c0a
0000
0000
019e
cafe
300a
0000
0000
019d
cafe
340a
0000
0000
01a1
cafe
380a
0000
0000
01a2
cafe
3c0a
0000
0000
01a2
cafe
200a
0000
0000
01a0
cafe
240a
0000
0000
01a8
cafe
280a
0000
0000
01a9
cafe
2c0a
0000
0000
01a6
cafe
300a
0000
0000
01a4
cafe
340a
0000
0000
01a0
cafe
380a
0000
0000
01a3
cafe
3c0a
0000
0000
01a4
cafe
200a
0000
0000
01a3
cafe
240a
0000
0000
01a1
cafe
280a
0000
0000
01a1
cafe
2c0a
0000
0000
01a3
cafe
300a
0000
0000
019e
cafe
340a
0000
0000
01a2
cafe
380a
0000
0000
01aa
cafe
3c0a
0000
0000
01aa
cafe
200a
0000
0000
01aa
cafe
240a
0000
0000
01a6
cafe
280a
0000
0000
01a3
cafe
2c0a
0000
0000
019f
cafe
300a
0000
0000
019e
cafe
340a
0000
0000
019d
cafe
380a
0000
0000
019d
cafe
3c0a
0000
0000
01a0
cafe
200a
0000
0000
019d
cafe
240a
0000
0000
01a3
cafe
280a
0000
0000
019e
cafe
2c0a
0000
0000
019d
cafe
300a
0000
0000
01a1
cafe
340a
0000
0000
019f
cafe
380a
0000
0000
01a1
cafe
3c0a
0000
0000
01a3
cafe
200a
-
0000
0000
01a1
cafe
240a
0000
0000
01a1
cafe
280a
0000
0000
01a3
cafe
2c0a
0000
0000
01a3
cafe
300a
0000
0000
01a1
cafe
340a
0000
0000
01a4
cafe
380a
0000
0000
019f
cafe
3c0a
0000
0000
019d
cafe
200a
0000
0000
019f
cafe
240a
0000
0000
019d
cafe
280a
0000
0000
01a3
cafe
2c0a
0000
0000
019e
cafe
300a
0000
0000
019f
cafe
340a
0000
0000
01a1
cafe
380a
0000
0000
01a1
cafe
3c0a
0000
0000
01a0
cafe
200a
0000
0000
01a0
cafe
240a
0000
0000
0199
cafe
280a
0000
0000
019f
cafe
2c0a
0000
0000
019d
cafe
300a
0000
0000
0198
cafe
340a
0000
0000
019c
cafe
380a
0000
0000
0199
cafe
3c0a
0000
0000
01a1
cafe
200a
0000
0000
019d
cafe
240a
0000
0000
01a5
cafe
280a
0000
0000
019f
cafe
2c0a
0000
0000
01a3
cafe
300a
0000
0000
01a9
cafe
340a
0000
0000
01a5
cafe
380a
0000
0000
01a2
cafe
3c0a
0000
0000
01a3
cafe
200a
0000
0000
01a0
cafe
240a
0000
0000
019e
cafe
280a
0000
0000
019e
cafe
2c0a
0000
0000
01a0
cafe
300a
0000
0000
01a0
cafe
340a
0000
0000
019e
cafe
380a
0000
0000
019c
cafe
3c0a
0000
0000
019b
cafe
200a
0000
0000
019d
cafe
240a
0000
0000
01a0
cafe
280a
0000
0000
01a1
cafe
2c0a
0000
0000
01a2
cafe
300a
0000
0000
01a8
cafe
340a
0000
0000
01ab
cafe
380a
0000
0000
01a5
cafe
3c0a
0000
0000
01a2
cafe
200a
0000
0000
01a2
cafe
240a
0000
0000
019e
cafe
280a
0000
0000
019e
cafe
2c0a
0000
-
0000
01a3
cafe
300a
0000
0000
019d
cafe
340a
0000
0000
019f
cafe
380a
0000
0000
01a2
cafe
3c0a
0000
0000
01a0
cafe
200a
0000
0000
019d
cafe
240a
0000
0000
019e
cafe
280a
0000
0000
01a1
cafe
2c0a
0000
0000
01a1
cafe
300a
0000
0000
01a2
cafe
340a
0000
0000
01a2
cafe
380a
0000
0000
01a4
cafe
3c0a
0000
0000
01a4
cafe
200a
0000
0000
01a7
cafe
240a
0000
0000
01ab
cafe
280a
0000
0000
01a5
cafe
2c0a
0000
0000
01a4
cafe
300a
0000
0000
01a3
cafe
340a
0000
0000
01a6
cafe
380a
0000
0000
01a0
cafe
3c0a
0000
0000
01a4
cafe
200a
0000
0000
01a5
cafe
240a
0000
0000
01a5
cafe
280a
0000
0000
01a3
cafe
2c0a
0000
0000
01a5
cafe
300a
0000
0000
01a6
cafe
340a
0000
0000
01a6
cafe
380a
0000
0000
01a5
cafe
3c0a
0000
0000
01a1
cafe
200a
0000
0000
01a2
cafe
240a
0000
0000
01a2
cafe
280a
0000
0000
019e
cafe
2c0a
0000
0000
01a5
cafe
300a
0000
0000
01a4
cafe
340a
0000
0000
01a0
cafe
380a
0000
0000
019d
cafe
3c0a
0000
0000
019d
cafe
200a
0000
0000
019c
cafe
240a
0000
0000
019d
cafe
280a
0000
0000
01a3
cafe
2c0a
0000
0000
01a0
cafe
300a
0000
0000
019c
cafe
340a
0000
0000
019c
cafe
380a
0000
0000
019b
cafe
3c0a
0000
0000
019a
cafe
200a
0000
0000
019d
cafe
240a
0000
0000
019c
cafe
280a
0000
0000
019c
cafe
2c0a
0000
0000
019f
cafe
300a
0000
0000
019d
cafe
340a
0000
0000
01a0
cafe
380a
0000
0000
-
01a2
cafe
3c0a
0000
0000
01a0
cafe
200a
0000
0000
01a2
cafe
240a
0000
0000
01a5
cafe
280a
0000
0000
01a3
cafe
2c0a
0000
0000
019f
cafe
300a
0000
0000
01a2
cafe
340a
0000
0000
019d
cafe
380a
0000
0000
01a0
cafe
3c0a
0000
0000
01a2
cafe
200a
0000
0000
01a5
cafe
240a
0000
0000
01a4
cafe
280a
0000
0000
01a3
cafe
2c0a
0000
0000
01a2
cafe
300a
0000
0000
01a8
cafe
340a
0000
0000
01a3
cafe
380a
0000
0000
01a0
cafe
3c0a
0000
0000
01a1
cafe
200a
0000
0000
019e
cafe
240a
0000
0000
01a0
cafe
280a
0000
0000
01a5
cafe
2c0a
0000
0000
019d
cafe
300a
0000
0000
01a4
cafe
340a
0000
0000
01a6
cafe
380a
0000
0000
01a9
cafe
3c0a
0000
0000
01ac
cafe
200a
0000
0000
01a9
cafe
240a
0000
0000
01a9
cafe
280a
0000
0000
01a9
cafe
2c0a
0000
0000
01a6
cafe
300a
0000
0000
01a7
cafe
340a
0000
0000
01a5
cafe
380a
0000
0000
01a1
cafe
3c0a
0000
0000
01a3
cafe
200a
0000
0000
01a1
cafe
240a
0000
0000
019f
cafe
280a
0000
0000
01a4
cafe
2c0a
0000
0000
01a1
cafe
300a
0000
0000
01a5
cafe
340a
0000
0000
01a2
cafe
380a
0000
0000
019e
cafe
3c0a
0000
0000
019f
cafe
200a
0000
0000
019d
cafe
240a
0000
0000
019a
cafe
280a
0000
0000
019e
cafe
2c0a
0000
0000
01a3
cafe
300a
0000
0000
019d
cafe
340a
0000
0000
019d
cafe
380a
0000
0000
019d
cafe
3c0a
0000
0000
019b
cafe
200a
0000
0000
019c
cafe
240a
0000
0000
019d
-
cafe
280a
0000
0000
01a1
cafe
2c0a
0000
0000
019f
cafe
300a
0000
0000
01a2
cafe
340a
0000
0000
01a7
cafe
380a
0000
0000
01a5
cafe
3c0a
0000
0000
01a6
cafe
200a
0000
0000
01a9
cafe
240a
0000
0000
01a5
cafe
280a
0000
0000
01a8
cafe
2c0a
0000
0000
01a4
cafe
300a
0000
0000
01a1
cafe
340a
0000
0000
01a3
cafe
380a
0000
0000
01a1
cafe
3c0a
0000
0000
01a9
cafe
200a
0000
0000
01a5
cafe
240a
0000
0000
01a4
cafe
280a
0000
0000
01a1
cafe
2c0a
0000
0000
019f
cafe
300a
0000
0000
019e
cafe
340a
0000
0000
01a2
cafe
380a
0000
0000
019f
cafe
3c0a
0000
0000
01a5
cafe
200a
0000
0000
01a1
cafe
240a
0000
0000
019b
cafe
280a
0000
0000
019e
cafe
2c0a
0000
0000
01a2
cafe
300a
0000
0000
01a4
cafe
340a
0000
0000
01a0
cafe
380a
0000
0000
01a6
cafe
3c0a
0000
0000
01a3
cafe
200a
0000
0000
01a7
cafe
240a
0000
0000
01a1
cafe
280a
0000
0000
01a1
cafe
2c0a
0000
0000
01a2
cafe
300a
0000
0000
01a6
cafe
340a
0000
0000
01a6
cafe
380a
0000
0000
01a8
cafe
3c0a
0000
0000
01a8
cafe
200a
0000
0000
01a4
cafe
240a
0000
0000
01a4
cafe
280a
0000
0000
01a4
cafe
2c0a
0000
0000
01a5
cafe
300a
0000
0000
019f
cafe
340a
0000
0000
01a0
cafe
380a
0000
0000
019f
cafe
3c0a
0000
0000
01a2
cafe
200a
0000
0000
01a0
cafe
240a
0000
0000
01a3
cafe
280a
0000
0000
01a2
cafe
2c0a
0000
0000
01a3
cafe
300a
0000
0000
01a2
cafe
-
340a
0000
0000
01a0
cafe
380a
0000
0000
01a2
cafe
3c0a
0000
0000
019f
cafe
200a
0000
0000
019d
cafe
240a
0000
0000
019d
cafe
280a
0000
0000
019f
cafe
2c0a
0000
0000
019e
cafe
300a
0000
0000
019f
cafe
340a
0000
0000
019e
cafe
380a
0000
0000
01a5
cafe
3c0a
0000
0000
01a0
cafe
200a
0000
0000
01a1
cafe
240a
0000
0000
019d
cafe
280a
0000
0000
019e
cafe
2c0a
0000
0000
019e
cafe
300a
0000
0000
01a0
cafe
340a
0000
0000
01a5
cafe
380a
0000
0000
019e
cafe
3c0a
0000
0000
01a4
cafe
200a
0000
0000
01a2
cafe
240a
0000
0000
019e
cafe
280a
0000
0000
019f
cafe
2c0a
0000
0000
019e
cafe
300a
0000
0000
01a3
cafe
340a
0000
0000
01a1
cafe
380a
0000
0000
01a2
cafe
3c0a
0000
0000
019d
cafe
200a
0000
0000
01a0
cafe
240a
0000
0000
01a3
cafe
280a
0000
0000
01a1
cafe
2c0a
0000
0000
019a
cafe
300a
0000
0000
019c
cafe
340a
0000
0000
019e
cafe
380a
0000
0000
019e
cafe
3c0a
0000
0000
019c
cafe
200a
0000
0000
019b
cafe
240a
0000
0000
019e
cafe
280a
0000
0000
019f
cafe
2c0a
0000
0000
019e
cafe
300a
0000
0000
01a1
cafe
340a
0000
0000
01a2
cafe
380a
0000
0000
0199
cafe
3c0a
0000
0000
019c
cafe
200a
0000
0000
019c
cafe
240a
0000
0000
019c
cafe
280a
0000
0000
019f
cafe
2c0a
0000
0000
01a4
cafe
300a
0000
0000
01a3
cafe
340a
0000
0000
01a2
cafe
380a
0000
0000
01a4
cafe
3c0a
0000
0000
01a3
cafe
200a
-
0000
0000
01a5
cafe
240a
0000
0000
01a2
cafe
280a
0000
0000
019d
cafe
2c0a
0000
0000
019d
cafe
300a
0000
0000
019b
cafe
340a
0000
0000
019d
cafe
380a
0000
0000
019c
cafe
3c0a
0000
0000
019f
cafe
200a
0000
0000
01a1
cafe
240a
0000
0000
019e
cafe
280a
0000
0000
01a2
cafe
2c0a
0000
0000
01a2
cafe
300a
0000
0000
019d
cafe
340a
0000
0000
019d
cafe
380a
0000
0000
019b
cafe
3c0a
0000
0000
019e
cafe
200a
0000
0000
01a0
cafe
240a
0000
0000
019e
cafe
280a
0000
0000
01a1
cafe
2c0a
0000
0000
019e
cafe
300a
0000
0000
019e
cafe
340a
0000
0000
019a
cafe
380a
0000
0000
0199
cafe
3c0a
0000
0000
019f
cafe
200a
0000
0000
019c
cafe
240a
0000
0000
01a0
cafe
280a
0000
0000
019f
cafe
2c0a
0000
0000
01a4
cafe
300a
0000
0000
01a8
cafe
340a
0000
0000
01a4
cafe
380a
0000
0000
01a3
cafe
3c0a
0000
0000
01a6
cafe
200a
0000
0000
01a4
cafe
240a
0000
0000
01a5
cafe
280a
0000
0000
01a0
cafe
2c0a
0000
0000
019f
cafe
300a
0000
0000
01a4
cafe
340a
0000
0000
019c
cafe
380a
0000
0000
019e
cafe
3c0a
0000
0000
019d
cafe
200a
0000
0000
019d
cafe
240a
0000
0000
019e
cafe
280a
0000
0000
01a0
cafe
2c0a
0000
0000
019c
cafe
300a
0000
0000
019b
cafe
340a
0000
0000
01a4
cafe
380a
0000
0000
01a5
cafe
3c0a
0000
0000
01a2
cafe
200a
0000
0000
01a2
cafe
240a
0000
0000
01a6
cafe
280a
0000
0000
01a4
cafe
2c0a
0000
-
0000
01a3
cafe
300a
0000
0000
01a5
cafe
340a
0000
0000
01a1
cafe
380a
0000
0000
01a8
cafe
3c0a
0000
0000
01a5
cafe
200a
0000
0000
01a0
cafe
240a
0000
0000
01a3
cafe
280a
0000
0000
019e
cafe
2c0a
0000
0000
019f
cafe
300a
0000
0000
019d
cafe
340a
0000
0000
01a1
cafe
380a
0000
0000
019e
cafe
3c0a
0000
0000
01a2
cafe
200a
0000
0000
01a0
cafe
240a
0000
0000
01a4
cafe
280a
0000
0000
01a4
cafe
2c0a
0000
0000
01a6
cafe
300a
0000
0000
01a1
cafe
340a
0000
0000
01a2
cafe
380a
0000
0000
01a3
cafe
3c0a
0000
0000
01a1
cafe
200a
0000
0000
019e
cafe
240a
0000
0000
01a2
cafe
280a
0000
0000
01aa
cafe
2c0a
0000
0000
01a6
cafe
300a
0000
0000
01a2
cafe
340a
0000
0000
01a7
cafe
380a
0000
0000
01a3
cafe
3c0a
0000
0000
01a2
cafe
200a
0000
0000
019c
cafe
240a
0000
0000
019e
cafe
280a
0000
0000
019c
cafe
2c0a
0000
0000
019f
cafe
300a
0000
0000
01a1
cafe
340a
0000
0000
01a5
cafe
380a
0000
0000
01a4
cafe
3c0a
0000
0000
01a5
cafe
200a
0000
0000
01a7
cafe
240a
0000
0000
01a5
cafe
280a
0000
0000
01a2
cafe
2c0a
0000
0000
01a2
cafe
300a
0000
0000
01a4
cafe
340a
0000
0000
01a4
cafe
380a
0000
0000
01a1
cafe
3c0a
0000
0000
019d
cafe
200a
0000
0000
01a3
cafe
240a
0000
0000
019d
cafe
280a
0000
0000
019f
cafe
2c0a
0000
0000
019f
cafe
300a
0000
0000
019f
cafe
340a
0000
0000
01a0
cafe
380a
0000
0000
-
019f
cafe
3c0a
0000
0000
019d
cafe
200a
0000
0000
019d
cafe
240a
0000
0000
019b
cafe
280a
0000
0000
01a3
cafe
2c0a
0000
0000
01a4
cafe
300a
0000
0000
01a8
cafe
340a
0000
0000
01a8
cafe
380a
0000
0000
01a3
cafe
3c0a
0000
0000
01ab
cafe
200a
0000
0000
01a6
cafe
240a
0000
0000
01a3
cafe
280a
0000
0000
019d
cafe
2c0a
0000
0000
01a3
cafe
300a
0000
0000
01a4
cafe
340a
0000
0000
01a9
cafe
380a
0000
0000
01a9
cafe
3c0a
0000
0000
01aa
cafe
200a
0000
0000
01a9
cafe
240a
0000
0000
01a6
cafe
280a
0000
0000
01a8
cafe
2c0a
0000
0000
01a9
cafe
300a
0000
0000
01a9
cafe
340a
0000
0000
01a8
cafe
380a
0000
0000
01a8
cafe
3c0a
0000
0000
01a3
cafe
200a
0000
0000
01a3
cafe
240a
0000
0000
01a3
cafe
280a
0000
0000
01a2
cafe
2c0a
0000
0000
019e
cafe
300a
0000
0000
01a2
cafe
340a
0000
0000
01a0
cafe
380a
0000
0000
01a1
cafe
3c0a
0000
0000
019e
cafe
200a
0000
0000
01a1
cafe
240a
0000
0000
01a5
cafe
280a
0000
0000
01a5
cafe
2c0a
0000
0000
01a4
cafe
300a
0000
0000
01a8
cafe
340a
0000
0000
01a3
cafe
380a
0000
0000
01a0
cafe
3c0a
0000
0000
01a4
cafe
200a
0000
0000
01a1
cafe
240a
0000
0000
01a3
cafe
280a
0000
0000
01a2
cafe
2c0a
0000
0000
01a7
cafe
300a
0000
0000
01a2
cafe
340a
0000
0000
01a2
cafe
380a
0000
0000
019f
cafe
3c0a
0000
0000
01a3
cafe
200a
0000
0000
01a9
cafe
240a
0000
0000
01a2
-
