2c1f
0000
0000
0122
cafe
301f
0000
0000
0120
cafe
341f
0000
0000
011e
cafe
381f
0000
0000
0126
cafe
3c1f
0000
0000
012a
cafe
201f
0000
0000
0135
cafe
241f
0000
0000
0138
cafe
281f
0000
0000
013b
cafe
2c1f
0000
0000
0148
cafe
301f
0000
0000
014e
cafe
341f
0000
0000
0153
cafe
381f
0000
0000
0153
cafe
3c1f
0000
0000
0155
cafe
201f
0000
0000
0157
cafe
241f
0000
0000
014a
cafe
281f
0000
0000
014d
cafe
2c1f
0000
0000
0145
cafe
301f
0000
0000
013b
cafe
341f
0000
0000
017e
cafe
381f
0000
0000
017b
cafe
3c1f
0000
0000
016c
cafe
201f
0000
0000
016b
cafe
241f
0000
0000
0167
cafe
281f
0000
0000
015f
cafe
2c1f
0000
0000
0163
cafe
301f
0000
0000
0155
cafe
341f
0000
0000
0157
cafe
381f
0000
0000
015f
cafe
3c1f
0000
0000
0149
cafe
201f
0000
0000
013f
cafe
241f
0000
0000
013a
cafe
281f
0000
0000
0131
cafe
2c1f
0000
0000
0126
cafe
301f
0000
0000
0122
cafe
341f
0000
0000
011f
cafe
381f
0000
0000
0124
cafe
3c1f
0000
0000
013a
cafe
201f
0000
0000
0131
cafe
241f
0000
0000
012f
cafe
281f
0000
0000
013b
cafe
2c1f
0000
0000
0133
cafe
301f
0000
0000
012f
cafe
341f
0000
0000
0133
cafe
381f
0000
0000
013a
cafe
3c1f
0000
0000
013d
cafe
201f
0000
0000
0147
cafe
241f
0000
0000
014e
cafe
281f
0000
0000
0152
cafe
2c1f
0000
0000
0145
cafe
301f
0000
0000
0144
cafe
341f
0000
0000
0148
cafe
381f
-
0000
0000
013c
cafe
3c1f
0000
0000
013f
cafe
201f
0000
0000
0148
cafe
241f
0000
0000
0149
cafe
281f
0000
0000
0140
cafe
2c1f
0000
0000
013e
cafe
301f
0000
0000
0128
cafe
341f
0000
0000
012f
cafe
381f
0000
0000
012d
cafe
3c1f
0000
0000
011e
cafe
201f
0000
0000
0125
cafe
241f
0000
0000
011d
cafe
281f
0000
0000
0114
cafe
2c1f
0000
0000
0114
cafe
301f
0000
0000
0115
cafe
341f
0000
0000
011b
cafe
381f
0000
0000
011f
cafe
3c1f
0000
0000
0123
cafe
201f
0000
0000
0125
cafe
241f
0000
0000
0132
cafe
281f
0000
0000
013d
cafe
2c1f
0000
0000
013a
cafe
301f
0000
0000
013d
cafe
341f
0000
0000
013d
cafe
381f
0000
0000
013a
cafe
3c1f
0000
0000
0149
cafe
201f
0000
0000
014a
cafe
241f
0000
0000
0151
cafe
281f
0000
0000
0151
cafe
2c1f
0000
0000
015c
cafe
301f
0000
0000
014d
cafe
341f
0000
0000
0142
cafe
381f
0000
0000
013c
cafe
3c1f
0000
0000
012f
cafe
201f
0000
0000
0124
cafe
241f
0000
0000
0126
cafe
281f
0000
0000
0129
cafe
2c1f
0000
0000
0122
cafe
301f
0000
0000
011f
cafe
341f
0000
0000
0121
cafe
381f
0000
0000
0120
cafe
3c1f
0000
0000
0121
cafe
201f
0000
0000
0117
cafe
241f
0000
0000
0120
cafe
281f
0000
0000
0119
cafe
2c1f
0000
0000
0122
cafe
301f
0000
0000
012c
cafe
341f
0000
0000
012d
cafe
381f
0000
0000
014b
cafe
3c1f
0000
0000
0142
cafe
201f
0000
0000
014f
cafe
241f
0000
-
0000
0144
cafe
281f
0000
0000
014e
cafe
2c1f
0000
0000
0158
cafe
301f
0000
0000
014f
cafe
341f
0000
0000
015a
cafe
381f
0000
0000
015a
cafe
3c1f
0000
0000
0154
cafe
201f
0000
0000
0143
cafe
241f
0000
0000
0144
cafe
281f
0000
0000
013d
cafe
2c1f
0000
0000
0141
cafe
301f
0000
0000
013c
cafe
341f
0000
0000
013a
cafe
381f
0000
0000
0139
cafe
3c1f
0000
0000
013d
cafe
201f
0000
0000
0139
cafe
241f
0000
0000
0137
cafe
281f
0000
0000
012c
cafe
2c1f
0000
0000
0133
cafe
301f
0000
0000
0125
cafe
341f
0000
0000
0138
cafe
381f
0000
0000
0127
cafe
3c1f
0000
0000
011b
cafe
201f
0000
0000
0121
cafe
241f
0000
0000
0123
cafe
281f
0000
0000
0124
cafe
2c1f
0000
0000
0126
cafe
301f
0000
0000
012c
cafe
341f
0000
0000
013b
cafe
381f
0000
0000
0141
cafe
3c1f
0000
0000
0139
cafe
201f
0000
0000
0134
cafe
241f
0000
0000
0135
cafe
281f
0000
0000
013d
cafe
2c1f
0000
0000
013a
cafe
301f
0000
0000
013a
cafe
341f
0000
0000
0144
cafe
381f
0000
0000
0134
cafe
3c1f
0000
0000
013a
cafe
201f
0000
0000
013d
cafe
241f
0000
0000
014c
cafe
281f
0000
0000
0144
cafe
2c1f
0000
0000
013d
cafe
301f
0000
0000
0134
cafe
341f
0000
0000
013c
cafe
381f
0000
0000
013c
cafe
3c1f
0000
0000
013b
cafe
201f
0000
0000
0130
cafe
241f
0000
0000
011f
cafe
281f
0000
0000
0126
cafe
2c1f
0000
0000
0127
cafe
301f
0000
0000
-
011f
cafe
341f
0000
0000
0126
cafe
381f
0000
0000
0121
cafe
3c1f
0000
0000
0116
cafe
201f
0000
0000
0127
cafe
241f
0000
0000
0126
cafe
281f
0000
0000
011c
cafe
2c1f
0000
0000
011c
cafe
301f
0000
0000
0122
cafe
341f
0000
0000
0131
cafe
381f
0000
0000
012d
cafe
3c1f
0000
0000
0130
cafe
201f
0000
0000
0133
cafe
241f
0000
0000
0130
cafe
281f
0000
0000
0138
cafe
2c1f
0000
0000
0138
cafe
301f
0000
0000
012f
cafe
341f
0000
0000
0140
cafe
381f
0000
0000
014a
cafe
3c1f
0000
0000
014a
cafe
201f
0000
0000
014f
cafe
241f
0000
0000
0156
cafe
281f
0000
0000
0144
cafe
2c1f
0000
0000
0149
cafe
301f
0000
0000
0145
cafe
341f
0000
0000
0146
cafe
381f
0000
0000
0140
cafe
3c1f
0000
0000
0147
cafe
201f
0000
0000
013f
cafe
241f
0000
0000
013c
cafe
281f
0000
0000
0132
cafe
2c1f
0000
0000
0132
cafe
301f
0000
0000
012c
cafe
341f
0000
0000
012b
cafe
381f
0000
0000
0121
cafe
3c1f
0000
0000
0126
cafe
201f
0000
0000
0117
cafe
241f
0000
0000
0119
cafe
281f
0000
0000
0113
cafe
2c1f
0000
0000
010e
cafe
301f
0000
0000
0120
cafe
341f
0000
0000
0126
cafe
381f
0000
0000
0125
cafe
3c1f
0000
0000
012e
cafe
201f
0000
0000
0136
cafe
241f
0000
0000
013d
cafe
281f
0000
0000
013a
cafe
2c1f
0000
0000
0145
cafe
301f
0000
0000
0142
cafe
341f
0000
0000
0146
cafe
381f
0000
0000
0163
cafe
3c1f
0000
0000
0154
-
cafe
201f
0000
0000
0153
cafe
241f
0000
0000
0155
cafe
281f
0000
0000
0153
cafe
2c1f
0000
0000
0143
cafe
301f
0000
0000
013a
cafe
341f
0000
0000
0127
cafe
381f
0000
0000
011c
cafe
3c1f
0000
0000
0114
cafe
201f
0000
0000
010b
cafe
241f
0000
0000
010f
cafe
281f
0000
0000
0108
cafe
2c1f
0000
0000
0103
cafe
301f
0000
0000
0100
cafe
341f
0000
0000
00fb
cafe
381f
0000
0000
0115
cafe
3c1f
0000
0000
011d
cafe
201f
0000
0000
0119
cafe
241f
0000
0000
011f
cafe
281f
0000
0000
0129
cafe
2c1f
0000
0000
0125
cafe
301f
0000
0000
012d
cafe
341f
0000
0000
012d
cafe
381f
0000
0000
013b
cafe
3c1f
0000
0000
013e
cafe
201f
0000
0000
013e
cafe
241f
0000
0000
0147
cafe
281f
0000
0000
0146
cafe
2c1f
0000
0000
0142
cafe
301f
0000
0000
014c
cafe
341f
0000
0000
014b
cafe
381f
0000
0000
0152
cafe
3c1f
0000
0000
0155
cafe
201f
0000
0000
0151
cafe
241f
0000
0000
0156
cafe
281f
0000
0000
014f
cafe
2c1f
0000
0000
013a
cafe
301f
0000
0000
0141
cafe
341f
0000
0000
013a
cafe
381f
0000
0000
013d
cafe
3c1f
0000
0000
0142
cafe
201f
0000
0000
013e
cafe
241f
0000
0000
013b
cafe
281f
0000
0000
012b
cafe
2c1f
0000
0000
0124
cafe
301f
0000
0000
012b
cafe
341f
0000
0000
011d
cafe
381f
0000
0000
0113
cafe
3c1f
0000
0000
0112
cafe
201f
0000
0000
010f
cafe
241f
0000
0000
010b
cafe
281f
0000
0000
0114
cafe
-
2c1f
0000
0000
0119
cafe
301f
0000
0000
0123
cafe
341f
0000
0000
0124
cafe
381f
0000
0000
013a
cafe
3c1f
0000
0000
0140
cafe
201f
0000
0000
014f
cafe
241f
0000
0000
0143
cafe
281f
0000
0000
0146
cafe
2c1f
0000
0000
0146
cafe
301f
0000
0000
0148
cafe
341f
0000
0000
014f
cafe
381f
0000
0000
0153
cafe
3c1f
0000
0000
014f
cafe
201f
0000
0000
0145
cafe
241f
0000
0000
0141
cafe
281f
0000
0000
0134
cafe
2c1f
0000
0000
012f
cafe
301f
0000
0000
0129
cafe
341f
0000
0000
0133
cafe
381f
0000
0000
012f
cafe
3c1f
0000
0000
0121
cafe
201f
0000
0000
0116
cafe
241f
0000
0000
011f
cafe
281f
0000
0000
0117
cafe
2c1f
0000
0000
0117
cafe
301f
0000
0000
0111
cafe
341f
0000
0000
0115
cafe
381f
0000
0000
010f
cafe
3c1f
0000
0000
0115
cafe
201f
0000
0000
0118
cafe
241f
0000
0000
0118
cafe
281f
0000
0000
0113
cafe
2c1f
0000
0000
0122
cafe
301f
0000
0000
012b
cafe
341f
0000
0000
0135
cafe
381f
0000
0000
0133
cafe
3c1f
0000
0000
0139
cafe
201f
0000
0000
013d
cafe
241f
0000
0000
013c
cafe
281f
0000
0000
0155
cafe
2c1f
0000
0000
015f
cafe
301f
0000
0000
015e
cafe
341f
0000
0000
0159
cafe
381f
0000
0000
0150
cafe
3c1f
0000
0000
015a
cafe
201f
0000
0000
0155
cafe
241f
0000
0000
0143
cafe
281f
0000
0000
0144
cafe
2c1f
0000
0000
012e
cafe
301f
0000
0000
012c
cafe
341f
0000
0000
0128
cafe
381f
-
0000
0000
0116
cafe
3c1f
0000
0000
011a
cafe
201f
0000
0000
011d
cafe
241f
0000
0000
0120
cafe
281f
0000
0000
0115
cafe
2c1f
0000
0000
0114
cafe
301f
0000
0000
010f
cafe
341f
0000
0000
0112
cafe
381f
0000
0000
011a
cafe
3c1f
0000
0000
0126
cafe
201f
0000
0000
0127
cafe
241f
0000
0000
0126
cafe
281f
0000
0000
0136
cafe
2c1f
0000
0000
0135
cafe
301f
0000
0000
013e
cafe
341f
0000
0000
0144
cafe
381f
0000
0000
0144
cafe
3c1f
0000
0000
013f
cafe
201f
0000
0000
0145
cafe
241f
0000
0000
014d
cafe
281f
0000
0000
014b
cafe
2c1f
0000
0000
0148
cafe
301f
0000
0000
0144
cafe
341f
0000
0000
014d
cafe
381f
0000
0000
014e
cafe
3c1f
0000
0000
014c
cafe
201f
0000
0000
0146
cafe
241f
0000
0000
013a
cafe
281f
0000
0000
012e
cafe
2c1f
0000
0000
0128
cafe
301f
0000
0000
0121
cafe
341f
0000
0000
0115
cafe
381f
0000
0000
0113
cafe
3c1f
0000
0000
0110
cafe
201f
0000
0000
0109
cafe
241f
0000
0000
0111
cafe
281f
0000
0000
0113
cafe
2c1f
0000
0000
011c
cafe
301f
0000
0000
011b
cafe
341f
0000
0000
011f
cafe
381f
0000
0000
0119
cafe
3c1f
0000
0000
0114
cafe
201f
0000
0000
0111
cafe
241f
0000
0000
0114
cafe
281f
0000
0000
0121
cafe
2c1f
0000
0000
0120
cafe
301f
0000
0000
0132
cafe
341f
0000
0000
013b
cafe
381f
0000
0000
0146
cafe
3c1f
0000
0000
014a
cafe
201f
0000
0000
0157
cafe
241f
0000
-
0000
0153
cafe
281f
0000
0000
0152
cafe
2c1f
0000
0000
014d
cafe
301f
0000
0000
0163
cafe
341f
0000
0000
015c
cafe
381f
0000
0000
0160
cafe
3c1f
0000
0000
0153
cafe
201f
0000
0000
0153
cafe
241f
0000
0000
0151
cafe
281f
0000
0000
0149
cafe
2c1f
0000
0000
013d
cafe
301f
0000
0000
0130
cafe
341f
0000
0000
012d
cafe
381f
0000
0000
0127
cafe
3c1f
0000
0000
0120
cafe
201f
0000
0000
011f
cafe
241f
0000
0000
0116
cafe
281f
0000
0000
0115
cafe
2c1f
0000
0000
010d
cafe
301f
0000
0000
0117
cafe
341f
0000
0000
0109
cafe
381f
0000
0000
0116
cafe
3c1f
0000
0000
0112
cafe
201f
0000
0000
0111
cafe
241f
0000
0000
0113
cafe
281f
0000
0000
0129
cafe
2c1f
0000
0000
0128
cafe
301f
0000
0000
012f
cafe
341f
0000
0000
012c
cafe
381f
0000
0000
012f
cafe
3c1f
0000
0000
0132
cafe
201f
0000
0000
0136
cafe
241f
0000
0000
0133
cafe
281f
0000
0000
0147
cafe
2c1f
0000
0000
0147
cafe
301f
0000
0000
014d
cafe
341f
0000
0000
0152
cafe
381f
0000
0000
0152
cafe
3c1f
0000
0000
0150
cafe
201f
0000
0000
0153
cafe
241f
0000
0000
0143
cafe
281f
0000
0000
0140
cafe
2c1f
0000
0000
0147
cafe
301f
0000
0000
013f
cafe
341f
0000
0000
013c
cafe
381f
0000
0000
0138
cafe
3c1f
0000
0000
013b
cafe
201f
0000
0000
0130
cafe
241f
0000
0000
012f
cafe
281f
0000
0000
0124
cafe
2c1f
0000
0000
012a
cafe
301f
0000
0000
-
0125
cafe
341f
0000
0000
0113
cafe
381f
0000
0000
0110
cafe
3c1f
0000
0000
010d
cafe
201f
0000
0000
010f
cafe
241f
0000
0000
010f
cafe
281f
0000
0000
0116
cafe
2c1f
0000
0000
0118
cafe
301f
0000
0000
0123
cafe
341f
0000
0000
0134
cafe
381f
0000
0000
0134
cafe
3c1f
0000
0000
012d
cafe
201f
0000
0000
0137
cafe
241f
0000
0000
012f
cafe
281f
0000
0000
0136
cafe
2c1f
0000
0000
013a
cafe
301f
0000
0000
0138
cafe
341f
0000
0000
012b
cafe
381f
0000
0000
013b
cafe
3c1f
0000
0000
013b
cafe
201f
0000
0000
0135
cafe
241f
0000
0000
0124
cafe
281f
0000
0000
0113
cafe
2c1f
0000
0000
0114
cafe
301f
0000
0000
011a
cafe
341f
0000
0000
0120
cafe
381f
0000
0000
0125
cafe
3c1f
0000
0000
0130
cafe
201f
0000
0000
0123
cafe
241f
0000
0000
0123
cafe
281f
0000
0000
0120
cafe
2c1f
0000
0000
0120
cafe
301f
0000
0000
011a
cafe
341f
0000
0000
0123
cafe
381f
0000
0000
012b
cafe
3c1f
0000
0000
012e
cafe
201f
0000
0000
012e
cafe
241f
0000
0000
012d
cafe
281f
0000
0000
0135
cafe
2c1f
0000
0000
0136
cafe
301f
0000
0000
013b
cafe
341f
0000
0000
0136
cafe
381f
0000
0000
0137
cafe
3c1f
0000
0000
013f
cafe
201f
0000
0000
0142
cafe
241f
0000
0000
014c
cafe
281f
0000
0000
0141
cafe
2c1f
0000
0000
013c
cafe
301f
0000
0000
0139
cafe
341f
0000
0000
0133
cafe
381f
0000
0000
014a
cafe
3c1f
0000
0000
014b
-
cafe
201f
0000
0000
0131
cafe
241f
0000
0000
0131
cafe
281f
0000
0000
012f
cafe
2c1f
0000
0000
012f
cafe
301f
0000
0000
0128
cafe
341f
0000
0000
0127
cafe
381f
0000
0000
0126
cafe
3c1f
0000
0000
0133
cafe
201f
0000
0000
0134
cafe
241f
0000
0000
012a
cafe
281f
0000
0000
0123
cafe
2c1f
0000
0000
0128
cafe
301f
0000
0000
0126
cafe
341f
0000
0000
011d
cafe
381f
0000
0000
011f
cafe
3c1f
0000
0000
0127
cafe
201f
0000
0000
0128
cafe
241f
0000
0000
0130
cafe
281f
0000
0000
013b
cafe
2c1f
0000
0000
0140
cafe
301f
0000
0000
013c
cafe
341f
0000
0000
0148
cafe
381f
0000
0000
0150
cafe
3c1f
0000
0000
0154
cafe
201f
0000
0000
0154
cafe
241f
0000
0000
015b
cafe
281f
0000
0000
0156
cafe
2c1f
0000
0000
0147
cafe
301f
0000
0000
014e
cafe
341f
0000
0000
013e
cafe
381f
0000
0000
0140
cafe
3c1f
0000
0000
0143
cafe
201f
0000
0000
013b
cafe
241f
0000
0000
012b
cafe
281f
0000
0000
012e
cafe
2c1f
0000
0000
0123
cafe
301f
0000
0000
012d
cafe
341f
0000
0000
012a
cafe
381f
0000
0000
0126
cafe
3c1f
0000
0000
0121
cafe
201f
0000
0000
0124
cafe
241f
0000
0000
0129
cafe
281f
0000
0000
012a
cafe
2c1f
0000
0000
0127
cafe
301f
0000
0000
0129
cafe
341f
0000
0000
0129
cafe
381f
0000
0000
012d
cafe
3c1f
0000
0000
0134
cafe
201f
0000
0000
012e
cafe
241f
0000
0000
0138
cafe
281f
0000
0000
0141
cafe
-
2c1f
0000
0000
0144
cafe
301f
0000
0000
0144
cafe
341f
0000
0000
0143
cafe
381f
0000
0000
0144
cafe
3c1f
0000
0000
0139
cafe
201f
0000
0000
0138
cafe
241f
0000
0000
013e
cafe
281f
0000
0000
013b
cafe
2c1f
0000
0000
013b
cafe
301f
0000
0000
013e
cafe
341f
0000
0000
013e
cafe
381f
0000
0000
014c
cafe
3c1f
0000
0000
0142
cafe
201f
0000
0000
013e
cafe
241f
0000
0000
013e
cafe
281f
0000
0000
0148
cafe
2c1f
0000
0000
0138
cafe
301f
0000
0000
013d
cafe
341f
0000
0000
0138
cafe
381f
0000
0000
013a
cafe
3c1f
0000
0000
0138
cafe
201f
0000
0000
0139
cafe
241f
0000
0000
012b
cafe
281f
0000
0000
0122
cafe
2c1f
0000
0000
012d
cafe
301f
0000
0000
012b
cafe
341f
0000
0000
012b
cafe
381f
0000
0000
012c
cafe
3c1f
0000
0000
0134
cafe
201f
0000
0000
0136
cafe
241f
0000
0000
0144
cafe
281f
0000
0000
0152
cafe
2c1f
0000
0000
0147
cafe
301f
0000
0000
014a
cafe
341f
0000
0000
014f
cafe
381f
0000
0000
014c
cafe
3c1f
0000
0000
0152
cafe
201f
0000
0000
0148
cafe
241f
0000
0000
014c
cafe
281f
0000
0000
0150
cafe
2c1f
0000
0000
0153
cafe
301f
0000
0000
014e
cafe
341f
0000
0000
0158
cafe
381f
0000
0000
015a
cafe
3c1f
0000
0000
0153
cafe
201f
0000
0000
0140
cafe
241f
0000
0000
0143
cafe
281f
0000
0000
0139
cafe
2c1f
0000
0000
0135
cafe
301f
0000
0000
0134
cafe
341f
0000
0000
013e
cafe
381f
-
0000
0000
013e
cafe
3c1f
0000
0000
0137
cafe
201f
0000
0000
013a
cafe
241f
0000
0000
0135
cafe
281f
0000
0000
013b
cafe
2c1f
0000
0000
0125
cafe
301f
0000
0000
0123
cafe
341f
0000
0000
0129
cafe
381f
0000
0000
0125
cafe
3c1f
0000
0000
012a
cafe
201f
0000
0000
0128
cafe
241f
0000
0000
013a
cafe
281f
0000
0000
013b
cafe
2c1f
0000
0000
0136
cafe
301f
0000
0000
013f
cafe
341f
0000
0000
0147
cafe
381f
0000
0000
0138
cafe
3c1f
0000
0000
0148
cafe
201f
0000
0000
0149
cafe
241f
0000
0000
014b
cafe
281f
0000
0000
0147
cafe
2c1f
0000
0000
013a
cafe
301f
0000
0000
014e
cafe
341f
0000
0000
014c
cafe
381f
0000
0000
014c
cafe
3c1f
0000
0000
0148
cafe
201f
0000
0000
013b
cafe
241f
0000
0000
0138
cafe
281f
0000
0000
0132
cafe
2c1f
0000
0000
0136
cafe
301f
0000
0000
013a
cafe
341f
0000
0000
012e
cafe
381f
0000
0000
0130
cafe
3c1f
0000
0000
0128
cafe
201f
0000
0000
0121
cafe
241f
0000
0000
0121
cafe
281f
0000
0000
011f
cafe
2c1f
0000
0000
011d
cafe
301f
0000
0000
0112
cafe
341f
0000
0000
0112
cafe
381f
0000
0000
0114
cafe
3c1f
0000
0000
0117
cafe
201f
0000
0000
011b
cafe
241f
0000
0000
011c
cafe
281f
0000
0000
0123
cafe
2c1f
0000
0000
0133
cafe
301f
0000
0000
0130
cafe
341f
0000
0000
0132
cafe
381f
0000
0000
0136
cafe
3c1f
0000
0000
013e
cafe
201f
0000
0000
0140
cafe
241f
0000
-
0000
014b
cafe
281f
0000
0000
0146
cafe
2c1f
0000
0000
0146
cafe
301f
0000
0000
0144
cafe
341f
0000
0000
0143
cafe
381f
0000
0000
0143
cafe
3c1f
0000
0000
0134
cafe
201f
0000
0000
0139
cafe
241f
0000
0000
012f
cafe
281f
0000
0000
012f
cafe
2c1f
0000
0000
0127
cafe
301f
0000
0000
0129
cafe
341f
0000
0000
0125
cafe
381f
0000
0000
011d
cafe
3c1f
0000
0000
0127
cafe
201f
0000
0000
0121
cafe
241f
0000
0000
0122
cafe
281f
0000
0000
011d
cafe
2c1f
0000
0000
0118
cafe
301f
0000
0000
0122
cafe
341f
0000
0000
011e
cafe
381f
0000
0000
011f
cafe
3c1f
0000
0000
011f
cafe
201f
0000
0000
012c
cafe
241f
0000
0000
0131
cafe
281f
0000
0000
013a
cafe
2c1f
0000
0000
0134
cafe
301f
0000
0000
013d
cafe
341f
0000
0000
014c
cafe
381f
0000
0000
0151
cafe
3c1f
0000
0000
0151
cafe
201f
0000
0000
0154
cafe
241f
0000
0000
0151
cafe
281f
0000
0000
0152
cafe
2c1f
0000
0000
014b
cafe
301f
0000
0000
0150
cafe
341f
0000
0000
0144
cafe
381f
0000
0000
0144
cafe
3c1f
0000
0000
0132
cafe
201f
0000
0000
0128
cafe
241f
0000
0000
012f
cafe
281f
0000
0000
0134
cafe
2c1f
0000
0000
0125
cafe
301f
0000
0000
0122
cafe
341f
0000
0000
0133
cafe
381f
0000
0000
0130
cafe
3c1f
0000
0000
012e
cafe
201f
0000
0000
0117
cafe
241f
0000
0000
0119
cafe
281f
0000
0000
011f
cafe
2c1f
0000
0000
011c
cafe
301f
0000
0000
-
0115
cafe
341f
0000
0000
0110
cafe
381f
0000
0000
0117
cafe
3c1f
0000
0000
011b
cafe
201f
0000
0000
012d
cafe
241f
0000
0000
0144
cafe
281f
0000
0000
0140
cafe
2c1f
0000
0000
0147
cafe
301f
0000
0000
0146
cafe
341f
0000
0000
0148
cafe
381f
0000
0000
0136
cafe
3c1f
0000
0000
0149
cafe
201f
0000
0000
014d
cafe
241f
0000
0000
014f
cafe
281f
0000
0000
0142
cafe
2c1f
0000
0000
014b
cafe
301f
0000
0000
013d
cafe
341f
0000
0000
0132
cafe
381f
0000
0000
012b
cafe
3c1f
0000
0000
012c
cafe
201f
0000
0000
012b
cafe
241f
0000
0000
0125
cafe
281f
0000
0000
0129
cafe
2c1f
0000
0000
0126
cafe
301f
0000
0000
0121
cafe
341f
0000
0000
011b
cafe
381f
0000
0000
011c
cafe
3c1f
0000
0000
0113
cafe
201f
0000
0000
0115
cafe
241f
0000
0000
0118
cafe
281f
0000
0000
010d
cafe
2c1f
0000
0000
011e
cafe
301f
0000
0000
0114
cafe
341f
0000
0000
011c
cafe
381f
0000
0000
011f
cafe
3c1f
0000
0000
012a
cafe
201f
0000
0000
0136
cafe
241f
0000
0000
013a
cafe
281f
0000
0000
013b
cafe
2c1f
0000
0000
0140
cafe
301f
0000
0000
0145
cafe
341f
0000
0000
0145
cafe
381f
0000
0000
0143
cafe
3c1f
0000
0000
0148
cafe
201f
0000
0000
014d
cafe
241f
0000
0000
014a
cafe
281f
0000
0000
015b
cafe
2c1f
0000
0000
015f
cafe
301f
0000
0000
015c
cafe
341f
0000
0000
0158
cafe
381f
0000
0000
0161
cafe
3c1f
0000
0000
0147
-
cafe
201f
0000
0000
0140
cafe
241f
0000
0000
013a
cafe
281f
0000
0000
0126
cafe
2c1f
0000
0000
0132
cafe
301f
0000
0000
0129
cafe
341f
0000
0000
012b
cafe
381f
0000
0000
0120
cafe
3c1f
0000
0000
0123
cafe
201f
0000
0000
0126
cafe
241f
0000
0000
012d
cafe
281f
0000
0000
0132
cafe
2c1f
0000
0000
012b
cafe
301f
0000
0000
012b
cafe
341f
0000
0000
0129
cafe
381f
0000
0000
0134
cafe
3c1f
0000
0000
0135
cafe
201f
0000
0000
0138
cafe
241f
0000
0000
013c
cafe
281f
0000
0000
0147
cafe
2c1f
0000
0000
013d
cafe
301f
0000
0000
013d
cafe
341f
0000
0000
0140
cafe
381f
0000
0000
0146
cafe
3c1f
0000
0000
0145
cafe
201f
0000
0000
0159
cafe
241f
0000
0000
0158
cafe
281f
0000
0000
015c
cafe
2c1f
0000
0000
0160
cafe
301f
0000
0000
0163
cafe
341f
0000
0000
015a
cafe
381f
0000
0000
013e
cafe
3c1f
0000
0000
0142
cafe
201f
0000
0000
013e
cafe
241f
0000
0000
0131
cafe
281f
0000
0000
013b
cafe
2c1f
0000
0000
0132
cafe
301f
0000
0000
0134
cafe
341f
0000
0000
0126
cafe
381f
0000
0000
0127
cafe
3c1f
0000
0000
011b
cafe
201f
0000
0000
0123
cafe
241f
0000
0000
0123
cafe
281f
0000
0000
0128
cafe
2c1f
0000
0000
0120
cafe
301f
0000
0000
012e
cafe
341f
0000
0000
0126
cafe
381f
0000
0000
012c
cafe
3c1f
0000
0000
0123
cafe
201f
0000
0000
012d
cafe
241f
0000
0000
0138
cafe
281f
0000
0000
013c
cafe
-
2c1f
0000
0000
013f
cafe
301f
0000
0000
013a
cafe
341f
0000
0000
0143
cafe
381f
0000
0000
0148
cafe
3c1f
0000
0000
0144
cafe
201f
0000
0000
0154
cafe
241f
0000
0000
0150
cafe
281f
0000
0000
0146
cafe
2c1f
0000
0000
0153
cafe
301f
0000
0000
042d
cafe
341f
0000
0000
040b
cafe
381f
0000
0000
03d6
cafe
3c1f
0000
0000
039e
cafe
201f
0000
0000
0375
cafe
241f
0000
0000
0356
cafe
281f
0000
0000
0337
cafe
2c1f
0000
0000
0311
cafe
301f
0000
0000
02f5
cafe
341f
0000
0000
02e3
cafe
381f
0000
0000
02c1
cafe
3c1f
0000
0000
02af
cafe
201f
0000
0000
028c
cafe
241f
0000
0000
026d
cafe
281f
0000
0000
0259
cafe
2c1f
0000
0000
0247
cafe
301f
0000
0000
023e
cafe
341f
0000
0000
021a
cafe
381f
0000
0000
0207
cafe
3c1f
0000
0000
01ff
cafe
201f
0000
0000
01ff
cafe
241f
0000
0000
01f6
cafe
281f
0000
0000
01ef
cafe
2c1f
0000
0000
01de
cafe
301f
0000
0000
01d6
cafe
341f
0000
0000
01cf
cafe
381f
0000
0000
01c1
cafe
3c1f
0000
0000
01bd
cafe
201f
0000
0000
01ab
cafe
241f
0000
0000
01b3
cafe
281f
0000
0000
01af
cafe
2c1f
0000
0000
01b4
cafe
301f
0000
0000
019c
cafe
341f
0000
0000
0192
cafe
381f
0000
0000
0177
cafe
3c1f
0000
0000
016f
cafe
201f
0000
0000
0162
cafe
241f
0000
0000
015c
cafe
281f
0000
0000
014c
cafe
2c1f
0000
0000
0157
cafe
301f
0000
0000
0140
cafe
341f
0000
0000
0138
cafe
381f
-
0000
0000
012c
cafe
3c1f
0000
0000
0127
cafe
201f
0000
0000
0120
cafe
241f
0000
0000
0125
cafe
281f
0000
0000
0125
cafe
2c1f
0000
0000
0119
cafe
301f
0000
0000
0116
cafe
341f
0000
0000
0117
cafe
381f
0000
0000
0119
cafe
3c1f
0000
0000
012a
cafe
201f
0000
0000
0142
cafe
241f
0000
0000
0139
cafe
281f
0000
0000
013b
cafe
2c1f
0000
0000
0140
cafe
301f
0000
0000
013b
cafe
341f
0000
0000
0137
cafe
381f
0000
0000
013f
cafe
3c1f
0000
0000
0129
cafe
201f
0000
0000
0120
cafe
241f
0000
0000
0122
cafe
281f
0000
0000
011b
cafe
2c1f
0000
0000
0120
cafe
301f
0000
0000
011d
cafe
341f
0000
0000
011d
cafe
381f
0000
0000
010c
cafe
3c1f
0000
0000
00fd
cafe
201f
0000
0000
00f5
cafe
241f
0000
0000
00f5
cafe
281f
0000
0000
00e6
cafe
2c1f
0000
0000
00ef
cafe
301f
0000
0000
00eb
cafe
341f
0000
0000
00ef
cafe
381f
0000
0000
00fc
cafe
3c1f
0000
0000
00f9
cafe
201f
0000
0000
00fe
cafe
241f
0000
0000
00fe
cafe
281f
0000
0000
010b
cafe
2c1f
0000
0000
00fe
cafe
301f
0000
0000
0101
cafe
341f
0000
0000
00fc
cafe
381f
0000
0000
0101
cafe
3c1f
0000
0000
0108
cafe
201f
0000
0000
0109
cafe
241f
0000
0000
0111
cafe
281f
0000
0000
010e
cafe
2c1f
0000
0000
011a
cafe
301f
0000
0000
0112
cafe
341f
0000
0000
011a
cafe
381f
0000
0000
0110
cafe
3c1f
0000
0000
011d
cafe
201f
0000
0000
011c
cafe
241f
0000
-
0000
0116
cafe
281f
0000
0000
0121
cafe
2c1f
0000
0000
011e
cafe
301f
0000
0000
0125
cafe
341f
0000
0000
0134
cafe
381f
0000
0000
0121
cafe
3c1f
0000
0000
0118
cafe
201f
0000
0000
0112
cafe
241f
0000
0000
010c
cafe
281f
0000
0000
010c
cafe
2c1f
0000
0000
0103
cafe
301f
0000
0000
00f6
cafe
341f
0000
0000
00e9
cafe
381f
0000
0000
00e0
cafe
3c1f
0000
0000
00df
cafe
201f
0000
0000
00dc
cafe
241f
0000
0000
00dc
cafe
281f
0000
0000
00db
cafe
2c1f
0000
0000
00e8
cafe
301f
0000
0000
00f0
cafe
341f
0000
0000
00f2
cafe
381f
0000
0000
00f8
cafe
3c1f
0000
0000
0101
cafe
201f
0000
0000
0100
cafe
241f
0000
0000
010a
cafe
281f
0000
0000
010d
cafe
2c1f
0000
0000
0110
cafe
301f
0000
0000
011d
cafe
341f
0000
0000
010d
cafe
381f
0000
0000
0113
cafe
3c1f
0000
0000
0121
cafe
201f
0000
0000
011b
cafe
241f
0000
0000
0111
cafe
281f
0000
0000
011d
cafe
2c1f
0000
0000
0116
cafe
301f
0000
0000
0110
cafe
341f
0000
0000
0111
cafe
381f
0000
0000
0106
cafe
3c1f
0000
0000
010c
cafe
201f
0000
0000
010b
cafe
241f
0000
0000
00f7
cafe
281f
0000
0000
00fa
cafe
2c1f
0000
0000
00f3
cafe
301f
0000
0000
00f1
cafe
341f
0000
0000
00f0
cafe
381f
0000
0000
00f3
cafe
3c1f
0000
0000
00f2
cafe
201f
0000
0000
00f4
cafe
241f
0000
0000
00f3
cafe
281f
0000
0000
00f6
cafe
2c1f
0000
0000
00ee
cafe
301f
0000
0000
-
00ed
cafe
341f
0000
0000
00f2
cafe
381f
0000
0000
00f5
cafe
3c1f
0000
0000
00fc
cafe
201f
0000
0000
010a
cafe
241f
0000
0000
010c
cafe
281f
0000
0000
010c
cafe
2c1f
0000
0000
0112
cafe
301f
0000
0000
010f
cafe
341f
0000
0000
0109
cafe
381f
0000
0000
0107
cafe
3c1f
0000
0000
0111
cafe
201f
0000
0000
010e
cafe
241f
0000
0000
0105
cafe
281f
0000
0000
010a
cafe
2c1f
0000
0000
010e
cafe
301f
0000
0000
010b
cafe
341f
0000
0000
010a
cafe
381f
0000
0000
0108
cafe
3c1f
0000
0000
0102
cafe
201f
0000
0000
0101
cafe
241f
0000
0000
0103
cafe
281f
0000
0000
0108
cafe
2c1f
0000
0000
00fb
cafe
301f
0000
0000
00f5
cafe
341f
0000
0000
00fe
cafe
381f
0000
0000
00f5
cafe
3c1f
0000
0000
00e7
cafe
201f
0000
0000
00ed
cafe
241f
0000
0000
00e7
cafe
281f
0000
0000
00fa
cafe
2c1f
0000
0000
00fc
cafe
301f
0000
0000
00f9
cafe
341f
0000
0000
00ff
cafe
381f
0000
0000
0109
cafe
3c1f
0000
0000
011b
cafe
201f
0000
0000
011a
cafe
241f
0000
0000
0123
cafe
281f
0000
0000
0126
cafe
2c1f
0000
0000
012d
cafe
301f
0000
0000
012e
cafe
341f
0000
0000
0133
cafe
381f
0000
0000
0130
cafe
3c1f
0000
0000
0130
cafe
201f
0000
0000
012f
cafe
241f
0000
0000
012d
cafe
281f
0000
0000
0130
cafe
2c1f
0000
0000
012a
cafe
301f
0000
0000
0126
cafe
341f
0000
0000
0125
cafe
381f
0000
0000
011f
cafe
3c1f
0000
0000
010d
-
cafe
201f
0000
0000
0104
cafe
241f
0000
0000
00fa
cafe
281f
0000
0000
00ff
cafe
2c1f
0000
0000
00f1
cafe
301f
0000
0000
00f2
cafe
341f
0000
0000
00ef
cafe
381f
0000
0000
00f8
cafe
3c1f
0000
0000
00f6
cafe
201f
0000
0000
00fe
cafe
241f
0000
0000
00fe
cafe
281f
0000
0000
0101
cafe
2c1f
0000
0000
00f8
cafe
301f
0000
0000
00ff
cafe
341f
0000
0000
0103
cafe
381f
0000
0000
0112
cafe
3c1f
0000
0000
0122
cafe
201f
0000
0000
0124
cafe
241f
0000
0000
0126
cafe
281f
0000
0000
012a
cafe
2c1f
0000
0000
012e
cafe
301f
0000
0000
012c
cafe
341f
0000
0000
012c
cafe
381f
0000
0000
0126
cafe
3c1f
0000
0000
012b
cafe
201f
0000
0000
012c
cafe
241f
0000
0000
0121
cafe
281f
0000
0000
012d
cafe
2c1f
0000
0000
0124
cafe
301f
0000
0000
0123
cafe
341f
0000
0000
0118
cafe
381f
0000
0000
011e
cafe
3c1f
0000
0000
0112
cafe
201f
0000
0000
010f
cafe
241f
0000
0000
011d
cafe
281f
0000
0000
011f
cafe
2c1f
0000
0000
011d
cafe
301f
0000
0000
0118
cafe
341f
0000
0000
011a
cafe
381f
0000
0000
010c
cafe
3c1f
0000
0000
0116
cafe
201f
0000
0000
011a
cafe
241f
0000
0000
0114
cafe
281f
0000
0000
0117
cafe
2c1f
0000
0000
0119
cafe
301f
0000
0000
0124
cafe
341f
0000
0000
011b
cafe
381f
0000
0000
012e
cafe
3c1f
0000
0000
012f
cafe
201f
0000
0000
012e
cafe
241f
0000
0000
012d
cafe
281f
0000
0000
0125
cafe
-
2c1f
0000
0000
0121
cafe
301f
0000
0000
011c
cafe
341f
0000
0000
0120
cafe
381f
0000
0000
012f
cafe
3c1f
0000
0000
0128
cafe
201f
0000
0000
0123
cafe
241f
0000
0000
012a
cafe
281f
0000
0000
0130
cafe
2c1f
0000
0000
0133
cafe
301f
0000
0000
0137
cafe
341f
0000
0000
012e
cafe
381f
0000
0000
0122
cafe
3c1f
0000
0000
0128
cafe
201f
0000
0000
012e
cafe
241f
0000
0000
012d
cafe
281f
0000
0000
0124
cafe
2c1f
0000
0000
0121
cafe
301f
0000
0000
0125
cafe
341f
0000
0000
00c6
cafe
381f
0000
0000
00cd
cafe
3c1f
0000
0000
00d8
cafe
201f
0000
0000
00d1
cafe
241f
0000
0000
00d2
cafe
281f
0000
0000
00df
cafe
2c1f
0000
0000
00df
cafe
301f
0000
0000
00dd
cafe
341f
0000
0000
00ed
cafe
381f
0000
0000
00f9
cafe
3c1f
0000
0000
0101
cafe
201f
0000
0000
0114
cafe
241f
0000
0000
0106
cafe
281f
0000
0000
0119
cafe
2c1f
0000
0000
011b
cafe
301f
0000
0000
011d
cafe
341f
0000
0000
011b
cafe
381f
0000
0000
0128
cafe
3c1f
0000
0000
012d
cafe
201f
0000
0000
011c
cafe
241f
0000
0000
0123
cafe
281f
0000
0000
0132
cafe
2c1f
0000
0000
012c
cafe
301f
0000
0000
012c
cafe
341f
0000
0000
011e
cafe
381f
0000
0000
0119
cafe
3c1f
0000
0000
0112
cafe
201f
0000
0000
010b
cafe
241f
0000
0000
0112
cafe
281f
0000
0000
010c
cafe
2c1f
0000
0000
0115
cafe
301f
0000
0000
011c
cafe
341f
0000
0000
011d
cafe
381f
-
0000
0000
011e
cafe
3c1f
0000
0000
011c
cafe
201f
0000
0000
0121
cafe
241f
0000
0000
011e
cafe
281f
0000
0000
0113
cafe
2c1f
0000
0000
011d
cafe
301f
0000
0000
0113
cafe
341f
0000
0000
012f
cafe
381f
0000
0000
012a
cafe
3c1f
0000
0000
0127
cafe
201f
0000
0000
012b
cafe
241f
0000
0000
0137
cafe
281f
0000
0000
012e
cafe
2c1f
0000
0000
0136
cafe
301f
0000
0000
0138
cafe
341f
0000
0000
0138
cafe
381f
0000
0000
012c
cafe
3c1f
0000
0000
012c
cafe
201f
0000
0000
012c
cafe
241f
0000
0000
012a
cafe
281f
0000
0000
012e
cafe
2c1f
0000
0000
0128
cafe
301f
0000
0000
0118
cafe
341f
0000
0000
0118
cafe
381f
0000
0000
011c
cafe
3c1f
0000
0000
0112
cafe
201f
0000
0000
010c
cafe
241f
0000
0000
010a
cafe
281f
0000
0000
010d
cafe
2c1f
0000
0000
0103
cafe
301f
0000
0000
00ff
cafe
341f
0000
0000
0102
cafe
381f
0000
0000
010b
cafe
3c1f
0000
0000
010c
cafe
201f
0000
0000
010d
cafe
241f
0000
0000
010e
cafe
281f
0000
0000
0107
cafe
2c1f
0000
0000
0112
cafe
301f
0000
0000
0124
cafe
341f
0000
0000
011d
cafe
381f
0000
0000
012e
cafe
3c1f
0000
0000
0134
cafe
201f
0000
0000
013e
cafe
241f
0000
0000
0140
cafe
281f
0000
0000
013f
cafe
2c1f
0000
0000
0150
cafe
301f
0000
0000
0151
cafe
341f
0000
0000
0149
cafe
381f
0000
0000
0149
cafe
3c1f
0000
0000
0154
cafe
201f
0000
0000
0158
cafe
241f
0000
-
0000
014f
cafe
281f
0000
0000
014b
cafe
2c1f
0000
0000
014b
cafe
301f
0000
0000
0140
cafe
341f
0000
0000
0133
cafe
381f
0000
0000
0136
cafe
3c1f
0000
0000
0135
cafe
201f
0000
0000
0122
cafe
241f
0000
0000
0124
cafe
281f
0000
0000
0124
cafe
2c1f
0000
0000
0122
cafe
301f
0000
0000
0127
cafe
341f
0000
0000
0129
cafe
381f
0000
0000
0123
cafe
3c1f
0000
0000
0125
cafe
201f
0000
0000
0121
cafe
241f
0000
0000
0116
cafe
281f
0000
0000
0111
cafe
2c1f
0000
0000
0111
cafe
301f
0000
0000
010a
cafe
341f
0000
0000
0113
cafe
381f
0000
0000
0119
cafe
3c1f
0000
0000
0123
cafe
201f
0000
0000
012f
cafe
241f
0000
0000
013d
cafe
281f
0000
0000
013b
cafe
2c1f
0000
0000
0140
cafe
301f
0000
0000
0152
cafe
341f
0000
0000
0158
cafe
381f
0000
0000
014d
cafe
3c1f
0000
0000
0156
cafe
201f
0000
0000
015b
cafe
241f
0000
0000
015e
cafe
281f
0000
0000
0151
cafe
2c1f
0000
0000
0160
cafe
301f
0000
0000
0155
cafe
341f
0000
0000
0147
cafe
381f
0000
0000
0144
cafe
3c1f
0000
0000
013e
cafe
201f
0000
0000
0137
cafe
241f
0000
0000
0129
cafe
281f
0000
0000
012d
cafe
2c1f
0000
0000
011c
cafe
301f
0000
0000
011f
cafe
341f
0000
0000
0119
cafe
381f
0000
0000
0119
cafe
3c1f
0000
0000
0113
cafe
201f
0000
0000
0105
cafe
241f
0000
0000
0106
cafe
281f
0000
0000
0106
cafe
2c1f
0000
0000
0112
cafe
301f
0000
0000
-
0109
cafe
341f
0000
0000
0117
cafe
381f
0000
0000
012a
cafe
3c1f
0000
0000
0130
cafe
201f
0000
0000
0139
cafe
241f
0000
0000
013a
cafe
281f
0000
0000
013a
cafe
2c1f
0000
0000
0132
cafe
301f
0000
0000
013d
cafe
341f
0000
0000
0144
cafe
381f
0000
0000
0146
cafe
3c1f
0000
0000
0152
cafe
201f
0000
0000
0154
cafe
241f
0000
0000
014f
cafe
281f
0000
0000
0156
cafe
2c1f
0000
0000
0156
cafe
301f
0000
0000
0143
cafe
341f
0000
0000
013d
cafe
381f
0000
0000
013d
cafe
3c1f
0000
0000
0132
cafe
201f
0000
0000
0121
cafe
241f
0000
0000
0125
cafe
281f
0000
0000
0120
cafe
2c1f
0000
0000
0119
cafe
301f
0000
0000
0121
cafe
341f
0000
0000
011a
cafe
381f
0000
0000
011a
cafe
3c1f
0000
0000
0116
cafe
201f
0000
0000
011c
cafe
241f
0000
0000
0120
cafe
281f
0000
0000
0114
cafe
2c1f
0000
0000
011a
cafe
301f
0000
0000
011f
cafe
341f
0000
0000
0123
cafe
381f
0000
0000
012a
cafe
3c1f
0000
0000
0137
cafe
201f
0000
0000
012b
cafe
241f
0000
0000
0130
cafe
281f
0000
0000
012a
cafe
2c1f
0000
0000
0128
cafe
301f
0000
0000
012c
cafe
341f
0000
0000
0133
cafe
381f
0000
0000
0133
cafe
3c1f
0000
0000
013e
cafe
201f
0000
0000
0148
cafe
241f
0000
0000
0141
cafe
281f
0000
0000
0141
cafe
2c1f
0000
0000
014b
cafe
301f
0000
0000
0145
cafe
341f
0000
0000
014b
cafe
381f
0000
0000
014a
cafe
3c1f
0000
0000
0142
-
cafe
201f
0000
0000
0132
cafe
241f
0000
0000
0139
cafe
281f
0000
0000
0134
cafe
2c1f
0000
0000
0131
cafe
301f
0000
0000
012c
cafe
341f
0000
0000
012d
cafe
381f
0000
0000
0127
cafe
3c1f
0000
0000
012b
cafe
201f
0000
0000
0136
cafe
241f
0000
0000
0130
cafe
281f
0000
0000
012b
cafe
2c1f
0000
0000
012b
cafe
301f
0000
0000
0121
cafe
341f
0000
0000
012a
cafe
381f
0000
0000
0127
cafe
3c1f
0000
0000
013f
cafe
201f
0000
0000
013c
cafe
241f
0000
0000
0144
cafe
281f
0000
0000
0147
cafe
2c1f
0000
0000
015a
cafe
301f
0000
0000
0160
cafe
341f
0000
0000
015f
cafe
381f
0000
0000
0164
cafe
3c1f
0000
0000
0163
cafe
201f
0000
0000
0164
cafe
241f
0000
0000
0147
cafe
281f
0000
0000
0145
cafe
2c1f
0000
0000
0154
cafe
301f
0000
0000
0140
cafe
341f
0000
0000
0136
cafe
381f
0000
0000
0139
cafe
3c1f
0000
0000
0126
cafe
201f
0000
0000
0125
cafe
241f
0000
0000
0126
cafe
281f
0000
0000
0128
cafe
2c1f
0000
0000
0127
cafe
301f
0000
0000
011c
cafe
341f
0000
0000
0127
cafe
381f
0000
0000
0122
cafe
3c1f
0000
0000
0128
cafe
201f
0000
0000
012e
cafe
241f
0000
0000
0125
cafe
281f
0000
0000
0126
cafe
2c1f
0000
0000
0121
cafe
301f
0000
0000
0130
cafe
341f
0000
0000
0131
cafe
381f
0000
0000
0132
cafe
3c1f
0000
0000
0134
cafe
201f
0000
0000
0131
cafe
241f
0000
0000
013b
cafe
281f
0000
0000
0148
cafe
-
2c1f
0000
0000
0145
cafe
301f
0000
0000
0144
cafe
341f
0000
0000
014c
cafe
381f
0000
0000
0148
cafe
3c1f
0000
0000
0150
cafe
201f
0000
0000
0152
cafe
241f
0000
0000
0157
cafe
281f
0000
0000
0161
cafe
2c1f
0000
0000
014f
cafe
301f
0000
0000
014d
cafe
341f
0000
0000
014f
cafe
381f
0000
0000
014b
cafe
3c1f
0000
0000
0151
cafe
201f
0000
0000
0154
cafe
241f
0000
0000
0143
cafe
281f
0000
0000
0140
cafe
2c1f
0000
0000
012f
cafe
301f
0000
0000
0132
cafe
341f
0000
0000
0131
cafe
381f
0000
0000
0134
cafe
3c1f
0000
0000
0131
cafe
201f
0000
0000
012e
cafe
241f
0000
0000
0128
cafe
281f
0000
0000
0120
cafe
2c1f
0000
0000
011b
cafe
301f
0000
0000
0125
cafe
341f
0000
0000
0133
cafe
381f
0000
0000
013e
cafe
3c1f
0000
0000
0143
cafe
201f
0000
0000
0141
cafe
241f
0000
0000
013d
cafe
281f
0000
0000
0145
cafe
2c1f
0000
0000
0146
cafe
301f
0000
0000
013a
cafe
341f
0000
0000
0137
cafe
381f
0000
0000
0140
cafe
3c1f
0000
0000
0144
cafe
201f
0000
0000
014d
cafe
241f
0000
0000
0151
cafe
281f
0000
0000
0155
cafe
2c1f
0000
0000
014a
cafe
301f
0000
0000
013f
cafe
341f
0000
0000
0135
cafe
381f
0000
0000
012e
cafe
3c1f
0000
0000
0122
cafe
201f
0000
0000
0124
cafe
241f
0000
0000
011d
cafe
281f
0000
0000
010d
cafe
2c1f
0000
0000
010e
cafe
301f
0000
0000
010e
cafe
341f
0000
0000
0105
cafe
381f
-
0000
0000
0109
cafe
3c1f
0000
0000
010a
cafe
201f
0000
0000
0112
cafe
241f
0000
0000
010f
cafe
281f
0000
0000
0116
cafe
2c1f
0000
0000
0113
cafe
301f
0000
0000
0116
cafe
341f
0000
0000
0135
cafe
381f
0000
0000
0139
cafe
3c1f
0000
0000
0143
cafe
201f
0000
0000
014b
cafe
241f
0000
0000
0145
cafe
281f
0000
0000
0147
cafe
2c1f
0000
0000
014a
cafe
301f
0000
0000
014b
cafe
341f
0000
0000
0146
cafe
381f
0000
0000
0144
cafe
3c1f
0000
0000
0147
cafe
201f
0000
0000
0147
cafe
241f
0000
0000
0142
cafe
281f
0000
0000
0145
cafe
2c1f
0000
0000
0146
cafe
301f
0000
0000
0133
cafe
341f
0000
0000
012c
cafe
381f
0000
0000
012f
cafe
3c1f
0000
0000
0126
cafe
201f
0000
0000
012b
cafe
241f
0000
0000
0120
cafe
281f
0000
0000
0122
cafe
2c1f
0000
0000
0124
cafe
301f
0000
0000
012f
cafe
341f
0000
0000
0126
cafe
381f
0000
0000
0126
cafe
3c1f
0000
0000
0127
cafe
201f
0000
0000
0123
cafe
241f
0000
0000
011f
cafe
281f
0000
0000
011d
cafe
2c1f
0000
0000
011e
cafe
301f
0000
0000
0120
cafe
341f
0000
0000
012b
cafe
381f
0000
0000
0138
cafe
3c1f
0000
0000
0142
cafe
201f
0000
0000
0149
cafe
241f
0000
0000
014f
cafe
281f
0000
0000
014c
cafe
2c1f
0000
0000
014c
cafe
301f
0000
0000
0000
cafe
341f
0000
0000
0000
cafe
381f
0000
0000
0000
cafe
3c1f
0000
0000
0000
cafe
201f
0000
0000
0000
cafe
241f
0000
-
0000
0000
cafe
281f
0000
0000
0000
cafe
2c1f
0000
0000
0000
cafe
301f
0000
0000
0000
cafe
341f
0000
0000
0000
cafe
381f
0000
0000
0016
cafe
3c1f
0000
0000
002f
cafe
201f
0000
0000
004c
cafe
241f
0000
0000
005b
cafe
281f
0000
0000
0071
cafe
2c1f
0000
0000
0077
cafe
301f
0000
0000
0090
cafe
341f
0000
0000
00a4
cafe
381f
0000
0000
009f
cafe
3c1f
0000
0000
00c2
cafe
201f
0000
0000
00d1
cafe
241f
0000
0000
00e0
cafe
281f
0000
0000
00f4
cafe
2c1f
0000
0000
00fb
cafe
301f
0000
0000
0109
cafe
341f
0000
0000
011e
cafe
381f
0000
0000
012e
cafe
3c1f
0000
0000
0148
cafe
201f
0000
0000
0145
cafe
241f
0000
0000
0166
cafe
281f
0000
0000
0161
cafe
2c1f
0000
0000
0167
cafe
301f
0000
0000
0167
cafe
341f
0000
0000
0168
cafe
381f
0000
0000
0177
cafe
3c1f
0000
0000
0176
cafe
201f
0000
0000
016e
cafe
241f
0000
0000
016e
cafe
281f
0000
0000
016e
cafe
2c1f
0000
0000
0167
cafe
301f
0000
0000
0162
cafe
341f
0000
0000
0156
cafe
381f
0000
0000
0158
cafe
3c1f
0000
0000
0153
cafe
201f
0000
0000
0150
cafe
241f
0000
0000
014f
cafe
281f
0000
0000
0150
cafe
2c1f
0000
0000
0146
cafe
301f
0000
0000
0148
cafe
341f
0000
0000
0148
cafe
381f
0000
0000
0148
cafe
3c1f
0000
0000
0155
cafe
201f
0000
0000
0162
cafe
241f
0000
0000
015b
cafe
281f
0000
0000
0165
cafe
2c1f
0000
0000
0161
cafe
301f
0000
0000
-
0161
cafe
341f
0000
0000
0174
cafe
381f
0000
0000
0179
cafe
3c1f
0000
0000
0186
cafe
201f
0000
0000
0191
cafe
241f
0000
0000
019f
cafe
281f
0000
0000
019f
cafe
2c1f
0000
0000
01a1
cafe
301f
0000
0000
01a5
cafe
341f
0000
0000
01b0
cafe
381f
0000
0000
01b4
cafe
3c1f
0000
0000
01a5
cafe
201f
0000
0000
01a5
cafe
241f
0000
0000
0196
cafe
281f
0000
0000
019b
cafe
2c1f
0000
0000
0198
cafe
301f
0000
0000
0189
cafe
341f
0000
0000
0170
cafe
381f
0000
0000
0168
cafe
3c1f
0000
0000
0158
cafe
201f
0000
0000
014a
cafe
241f
0000
0000
0146
cafe
281f
0000
0000
0142
cafe
2c1f
0000
0000
0141
cafe
301f
0000
0000
0139
cafe
341f
0000
0000
013c
cafe
381f
0000
0000
0145
cafe
3c1f
0000
0000
0139
cafe
201f
0000
0000
0137
cafe
241f
0000
0000
0141
cafe
281f
0000
0000
013f
cafe
2c1f
0000
0000
013d
cafe
301f
0000
0000
0147
cafe
341f
0000
0000
014d
cafe
381f
0000
0000
015b
cafe
3c1f
0000
0000
0176
cafe
201f
0000
0000
0179
cafe
241f
0000
0000
0180
cafe
281f
0000
0000
018b
cafe
2c1f
0000
0000
017d
cafe
301f
0000
0000
0185
cafe
341f
0000
0000
017f
cafe
381f
0000
0000
0180
cafe
3c1f
0000
0000
0185
cafe
201f
0000
0000
0186
cafe
241f
0000
0000
018b
cafe
281f
0000
0000
0184
cafe
2c1f
0000
0000
0182
cafe
301f
0000
0000
0166
cafe
341f
0000
0000
0166
cafe
381f
0000
0000
0164
cafe
3c1f
0000
0000
015f
-
cafe
201f
0000
0000
0165
cafe
241f
0000
0000
0163
cafe
281f
0000
0000
0163
cafe
2c1f
0000
0000
0159
cafe
301f
0000
0000
0155
cafe
341f
0000
0000
0156
cafe
381f
0000
0000
014c
cafe
3c1f
0000
0000
0148
cafe
201f
0000
0000
0147
cafe
241f
0000
0000
0150
cafe
281f
0000
0000
0143
cafe
2c1f
0000
0000
0140
cafe
301f
0000
0000
013a
cafe
341f
0000
0000
0143
cafe
381f
0000
0000
0157
cafe
3c1f
0000
0000
0154
cafe
201f
0000
0000
0154
cafe
241f
0000
0000
0155
cafe
281f
0000
0000
0156
cafe
2c1f
0000
0000
015b
cafe
301f
0000
0000
015c
cafe
341f
0000
0000
0164
cafe
381f
0000
0000
016f
cafe
3c1f
0000
0000
0167
cafe
201f
0000
0000
0161
cafe
241f
0000
0000
016c
cafe
281f
0000
0000
016a
cafe
2c1f
0000
0000
0164
cafe
301f
0000
0000
0153
cafe
341f
0000
0000
014e
cafe
381f
0000
0000
0144
cafe
3c1f
0000
0000
0140
cafe
201f
0000
0000
0138
cafe
241f
0000
0000
013a
cafe
281f
0000
0000
0141
cafe
2c1f
0000
0000
0139
cafe
301f
0000
0000
0136
cafe
341f
0000
0000
0137
cafe
381f
0000
0000
013d
cafe
3c1f
0000
0000
013b
cafe
201f
0000
0000
013a
cafe
241f
0000
0000
012d
cafe
281f
0000
0000
0128
cafe
2c1f
0000
0000
0125
cafe
301f
0000
0000
0133
cafe
341f
0000
0000
0137
cafe
381f
0000
0000
0139
cafe
3c1f
0000
0000
0141
cafe
201f
0000
0000
013b
cafe
241f
0000
0000
0144
cafe
281f
0000
0000
0144
cafe
-
2c1f
0000
0000
0151
cafe
301f
0000
0000
0153
cafe
341f
0000
0000
015e
cafe
381f
0000
0000
015a
cafe
3c1f
0000
0000
0160
cafe
201f
0000
0000
0160
cafe
241f
0000
0000
0167
cafe
281f
0000
0000
015e
cafe
2c1f
0000
0000
0151
cafe
301f
0000
0000
014c
cafe
341f
0000
0000
0140
cafe
381f
0000
0000
0145
cafe
3c1f
0000
0000
0146
cafe
201f
0000
0000
0145
cafe
241f
0000
0000
0145
cafe
281f
0000
0000
0142
cafe
2c1f
0000
0000
0133
cafe
301f
0000
0000
0138
cafe
341f
0000
0000
0133
cafe
381f
0000
0000
0136
cafe
3c1f
0000
0000
0132
cafe
201f
0000
0000
0135
cafe
241f
0000
0000
013c
cafe
281f
0000
0000
0139
cafe
2c1f
0000
0000
0142
cafe
301f
0000
0000
0141
cafe
341f
0000
0000
014b
cafe
381f
0000
0000
0140
cafe
3c1f
0000
0000
0149
cafe
201f
0000
0000
014a
cafe
241f
0000
0000
0157
cafe
281f
0000
0000
014d
cafe
2c1f
0000
0000
0153
cafe
301f
0000
0000
015f
cafe
341f
0000
0000
0160
cafe
381f
0000
0000
016a
cafe
3c1f
0000
0000
0165
cafe
201f
0000
0000
016d
cafe
241f
0000
0000
0161
cafe
281f
0000
0000
0152
cafe
2c1f
0000
0000
014d
cafe
301f
0000
0000
0149
cafe
341f
0000
0000
0136
cafe
381f
0000
0000
0132
cafe
3c1f
0000
0000
012e
cafe
201f
0000
0000
0130
cafe
241f
0000
0000
0134
cafe
281f
0000
0000
012a
cafe
2c1f
0000
0000
0123
cafe
301f
0000
0000
0123
cafe
341f
0000
0000
0124
cafe
381f
-
0000
0000
0121
cafe
3c1f
0000
0000
011b
cafe
201f
0000
0000
0115
cafe
241f
0000
0000
0118
cafe
281f
0000
0000
0115
cafe
2c1f
0000
0000
0125
cafe
301f
0000
0000
0122
cafe
341f
0000
0000
0133
cafe
381f
0000
0000
013d
cafe
3c1f
0000
0000
0149
cafe
201f
0000
0000
0153
cafe
241f
0000
0000
0152
cafe
281f
0000
0000
0158
cafe
2c1f
0000
0000
0151
cafe
301f
0000
0000
0157
cafe
341f
0000
0000
014c
cafe
381f
0000
0000
014c
cafe
3c1f
0000
0000
0146
cafe
201f
0000
0000
014f
cafe
241f
0000
0000
014e
cafe
281f
0000
0000
014e
cafe
2c1f
0000
0000
0148
cafe
301f
0000
0000
013a
cafe
341f
0000
0000
0138
cafe
381f
0000
0000
0131
cafe
3c1f
0000
0000
0128
cafe
201f
0000
0000
011f
cafe
241f
0000
0000
0118
cafe
281f
0000
0000
011b
cafe
2c1f
0000
0000
0126
cafe
301f
0000
0000
0122
cafe
341f
0000
0000
0128
cafe
381f
0000
0000
011b
cafe
3c1f
0000
0000
0113
cafe
201f
0000
0000
011e
cafe
241f
0000
0000
0123
cafe
281f
0000
0000
0128
cafe
2c1f
0000
0000
0130
cafe
301f
0000
0000
013d
cafe
341f
0000
0000
0144
cafe
381f
0000
0000
0154
cafe
3c1f
0000
0000
0158
cafe
201f
0000
0000
014d
cafe
241f
0000
0000
014e
cafe
281f
0000
0000
0153
cafe
2c1f
0000
0000
0153
cafe
301f
0000
0000
0150
cafe
341f
0000
0000
014c
cafe
381f
0000
0000
0146
cafe
3c1f
0000
0000
014d
cafe
201f
0000
0000
0153
cafe
241f
0000
-
0000
0155
cafe
281f
0000
0000
014f
cafe
2c1f
0000
0000
014e
cafe
301f
0000
0000
0142
cafe
341f
0000
0000
0139
cafe
381f
0000
0000
0131
cafe
3c1f
0000
0000
0125
cafe
201f
0000
0000
0124
cafe
241f
0000
0000
0121
cafe
281f
0000
0000
0123
cafe
2c1f
0000
0000
011b
cafe
301f
0000
0000
011e
cafe
341f
0000
0000
0119
cafe
381f
0000
0000
011d
cafe
3c1f
0000
0000
011e
cafe
201f
0000
0000
012d
cafe
241f
0000
0000
0124
cafe
281f
0000
0000
0127
cafe
2c1f
0000
0000
0125
cafe
301f
0000
0000
0125
cafe
341f
0000
0000
012e
cafe
381f
0000
0000
0139
cafe
3c1f
0000
0000
0131
cafe
201f
0000
0000
0142
cafe
241f
0000
0000
014a
cafe
281f
0000
0000
014b
cafe
2c1f
0000
0000
0149
cafe
301f
0000
0000
013d
cafe
341f
0000
0000
013e
cafe
381f
0000
0000
0139
cafe
3c1f
0000
0000
0143
cafe
201f
0000
0000
0133
cafe
241f
0000
0000
0139
cafe
281f
0000
0000
013d
cafe
2c1f
0000
0000
0142
cafe
301f
0000
0000
0147
cafe
341f
0000
0000
013f
cafe
381f
0000
0000
0138
cafe
3c1f
0000
0000
012f
cafe
201f
0000
0000
0127
cafe
241f
0000
0000
0135
cafe
281f
0000
0000
012b
cafe
2c1f
0000
0000
012c
cafe
301f
0000
0000
0130
cafe
341f
0000
0000
0125
cafe
381f
0000
0000
012b
cafe
3c1f
0000
0000
012d
cafe
201f
0000
0000
0133
cafe
241f
0000
0000
012f
cafe
281f
0000
0000
0126
cafe
2c1f
0000
0000
0131
cafe
301f
0000
0000
-
012d
cafe
341f
0000
0000
0142
cafe
381f
0000
0000
0147
cafe
3c1f
0000
0000
0155
cafe
201f
0000
0000
014a
cafe
241f
0000
0000
014a
cafe
281f
0000
0000
0156
cafe
2c1f
0000
0000
0140
cafe
301f
0000
0000
0143
cafe
341f
0000
0000
014c
cafe
381f
0000
0000
014b
cafe
3c1f
0000
0000
0142
cafe
201f
0000
0000
0139
cafe
241f
0000
0000
0133
cafe
281f
0000
0000
0134
cafe
2c1f
0000
0000
012c
cafe
301f
0000
0000
012e
cafe
341f
0000
0000
011f
cafe
381f
0000
0000
011b
cafe
3c1f
0000
0000
0124
cafe
201f
0000
0000
011f
cafe
241f
0000
0000
011f
cafe
281f
0000
0000
011a
cafe
2c1f
0000
0000
0123
cafe
301f
0000
0000
011f
cafe
341f
0000
0000
0121
cafe
381f
0000
0000
0120
cafe
3c1f
0000
0000
0121
cafe
201f
0000
0000
012a
cafe
241f
0000
0000
0126
cafe
281f
0000
0000
0128
cafe
2c1f
0000
0000
0121
cafe
301f
0000
0000
0130
cafe
341f
0000
0000
0130
cafe
381f
0000
0000
0138
cafe
3c1f
0000
0000
0134
cafe
201f
0000
0000
013c
cafe
241f
0000
0000
0142
cafe
281f
0000
0000
0144
cafe
2c1f
0000
0000
0141
cafe
301f
0000
0000
0138
cafe
341f
0000
0000
013b
cafe
381f
0000
0000
0137
cafe
3c1f
0000
0000
0133
cafe
201f
0000
0000
0135
cafe
241f
0000
0000
0140
cafe
281f
0000
0000
013d
cafe
2c1f
0000
0000
013a
cafe
301f
0000
0000
0133
cafe
341f
0000
0000
0130
cafe
381f
0000
0000
0132
cafe
3c1f
0000
0000
0135
-
cafe
201f
0000
0000
0130
cafe
241f
0000
0000
013b
cafe
281f
0000
0000
0138
cafe
2c1f
0000
0000
013d
cafe
301f
0000
0000
0133
cafe
341f
0000
0000
012d
cafe
381f
0000
0000
012a
cafe
3c1f
0000
0000
0128
cafe
201f
0000
0000
012d
cafe
241f
0000
0000
012b
cafe
281f
0000
0000
0128
cafe
2c1f
0000
0000
011d
cafe
301f
0000
0000
0125
cafe
341f
0000
0000
0130
cafe
381f
0000
0000
0130
cafe
3c1f
0000
0000
0135
cafe
201f
0000
0000
0133
cafe
241f
0000
0000
0144
cafe
281f
0000
0000
013e
cafe
2c1f
0000
0000
0147
cafe
301f
0000
0000
0145
cafe
341f
0000
0000
013f
cafe
381f
0000
0000
013d
cafe
3c1f
0000
0000
0142
cafe
201f
0000
0000
0140
cafe
241f
0000
0000
013c
cafe
281f
0000
0000
0139
cafe
2c1f
0000
0000
0134
cafe
301f
0000
0000
0134
cafe
341f
0000
0000
0132
cafe
381f
0000
0000
0133
cafe
3c1f
0000
0000
0137
cafe
201f
0000
0000
0139
cafe
241f
0000
0000
0138
cafe
281f
0000
0000
013c
cafe
2c1f
0000
0000
0135
cafe
301f
0000
0000
012d
cafe
341f
0000
0000
0125
cafe
381f
0000
0000
0124
cafe
3c1f
0000
0000
0127
cafe
201f
0000
0000
0121
cafe
241f
0000
0000
0113
cafe
281f
0000
0000
011c
cafe
2c1f
0000
0000
0122
cafe
301f
0000
0000
0129
cafe
341f
0000
0000
0136
cafe
381f
0000
0000
013f
cafe
3c1f
0000
0000
0144
cafe
201f
0000
0000
0148
cafe
241f
0000
0000
0143
cafe
281f
0000
0000
0140
cafe
-
2c1f
0000
0000
0148
cafe
301f
0000
0000
0143
cafe
341f
0000
0000
0145
cafe
381f
0000
0000
0141
cafe
3c1f
0000
0000
013d
cafe
201f
0000
0000
0138
cafe
241f
0000
0000
0140
cafe
281f
0000
0000
0139
cafe
2c1f
0000
0000
013a
cafe
301f
0000
0000
0137
cafe
341f
0000
0000
0130
cafe
381f
0000
0000
0139
cafe
3c1f
0000
0000
012d
cafe
201f
0000
0000
012d
cafe
241f
0000
0000
012b
cafe
281f
0000
0000
0133
cafe
2c1f
0000
0000
0129
cafe
301f
0000
0000
012d
cafe
341f
0000
0000
012e
cafe
381f
0000
0000
0130
cafe
3c1f
0000
0000
0133
cafe
201f
0000
0000
0135
cafe
241f
0000
0000
0134
cafe
281f
0000
0000
0133
cafe
2c1f
0000
0000
0139
cafe
301f
0000
0000
013c
cafe
341f
0000
0000
0141
cafe
381f
0000
0000
0141
cafe
3c1f
0000
0000
0144
cafe
201f
0000
0000
0142
cafe
241f
0000
0000
0153
cafe
281f
0000
0000
015a
cafe
2c1f
0000
0000
0156
cafe
301f
0000
0000
015a
cafe
341f
0000
0000
015d
cafe
381f
0000
0000
0158
cafe
3c1f
0000
0000
015c
cafe
201f
0000
0000
0160
cafe
241f
0000
0000
0163
cafe
281f
0000
0000
015e
cafe
2c1f
0000
0000
015f
cafe
301f
0000
0000
0157
cafe
341f
0000
0000
0147
cafe
381f
0000
0000
0146
cafe
3c1f
0000
0000
0138
cafe
201f
0000
0000
012e
cafe
241f
0000
0000
0123
cafe
281f
0000
0000
0120
cafe
2c1f
0000
0000
0124
cafe
301f
0000
0000
0114
cafe
341f
0000
0000
0112
cafe
381f
-
0000
0000
011a
cafe
3c1f
0000
0000
010e
cafe
201f
0000
0000
0112
cafe
241f
0000
0000
0104
cafe
281f
0000
0000
010c
cafe
2c1f
0000
0000
0113
cafe
301f
0000
0000
0117
cafe
341f
0000
0000
0127
cafe
381f
0000
0000
012d
cafe
3c1f
0000
0000
012d
cafe
201f
0000
0000
013b
cafe
241f
0000
0000
013a
cafe
281f
0000
0000
0135
cafe
2c1f
0000
0000
013b
cafe
301f
0000
0000
0145
cafe
341f
0000
0000
0149
cafe
381f
0000
0000
0148
cafe
3c1f
0000
0000
0148
cafe
201f
0000
0000
0154
cafe
241f
0000
0000
0150
cafe
281f
0000
0000
0155
cafe
2c1f
0000
0000
014c
cafe
301f
0000
0000
0144
cafe
341f
0000
0000
0139
cafe
381f
0000
0000
0144
cafe
3c1f
0000
0000
013f
cafe
201f
0000
0000
0131
cafe
241f
0000
0000
0136
cafe
281f
0000
0000
0135
cafe
2c1f
0000
0000
0125
cafe
301f
0000
0000
011b
cafe
341f
0000
0000
011e
cafe
381f
0000
0000
0124
cafe
3c1f
0000
0000
011e
cafe
201f
0000
0000
0125
cafe
241f
0000
0000
0124
cafe
281f
0000
0000
012f
cafe
2c1f
0000
0000
0127
cafe
301f
0000
0000
0127
cafe
341f
0000
0000
0136
cafe
381f
0000
0000
0139
cafe
3c1f
0000
0000
0146
cafe
201f
0000
0000
014f
cafe
241f
0000
0000
0149
cafe
281f
0000
0000
0146
cafe
2c1f
0000
0000
014d
cafe
301f
0000
0000
0148
cafe
341f
0000
0000
0149
cafe
381f
0000
0000
013f
cafe
3c1f
0000
0000
0144
cafe
201f
0000
0000
014f
cafe
241f
0000
-
0000
0151
cafe
281f
0000
0000
0149
cafe
2c1f
0000
0000
0142
cafe
301f
0000
0000
013d
cafe
341f
0000
0000
013c
cafe
381f
0000
0000
013e
cafe
3c1f
0000
0000
0132
cafe
201f
0000
0000
0123
cafe
241f
0000
0000
0124
cafe
281f
0000
0000
0127
cafe
2c1f
0000
0000
011d
cafe
301f
0000
0000
0129
cafe
341f
0000
0000
011c
cafe
381f
0000
0000
0116
cafe
3c1f
0000
0000
011f
cafe
201f
0000
0000
0122
cafe
241f
0000
0000
012c
cafe
281f
0000
0000
012e
cafe
2c1f
0000
0000
0127
cafe
301f
0000
0000
012b
cafe
341f
0000
0000
0139
cafe
381f
0000
0000
0154
cafe
3c1f
0000
0000
014d
cafe
201f
0000
0000
014c
cafe
241f
0000
0000
0156
cafe
281f
0000
0000
015c
cafe
2c1f
0000
0000
0158
cafe
301f
0000
0000
015e
cafe
341f
0000
0000
0160
cafe
381f
0000
0000
015d
cafe
3c1f
0000
0000
015e
cafe
201f
0000
0000
015f
cafe
241f
0000
0000
0156
cafe
281f
0000
0000
014c
cafe
2c1f
0000
0000
0148
cafe
301f
0000
0000
013d
cafe
341f
0000
0000
013c
cafe
381f
0000
0000
0134
cafe
3c1f
0000
0000
012c
cafe
201f
0000
0000
0128
cafe
241f
0000
0000
0125
cafe
281f
0000
0000
011d
cafe
2c1f
0000
0000
0111
cafe
301f
0000
0000
0115
cafe
341f
0000
0000
011d
cafe
381f
0000
0000
0112
cafe
3c1f
0000
0000
0115
cafe
201f
0000
0000
0114
cafe
241f
0000
0000
010e
cafe
281f
0000
0000
0114
cafe
2c1f
0000
0000
011b
cafe
301f
0000
0000
-
0125
cafe
341f
0000
0000
0135
cafe
381f
0000
0000
013a
cafe
3c1f
0000
0000
013f
cafe
201f
0000
0000
0141
cafe
241f
0000
0000
014a
cafe
281f
0000
0000
014f
cafe
2c1f
0000
0000
0148
cafe
301f
0000
0000
0144
cafe
341f
0000
0000
0150
cafe
381f
0000
0000
0157
cafe
3c1f
0000
0000
0158
cafe
201f
0000
0000
0150
cafe
241f
0000
0000
0160
cafe
281f
0000
0000
0152
cafe
2c1f
0000
0000
0155
cafe
301f
0000
0000
013b
cafe
341f
0000
0000
0142
cafe
381f
0000
0000
0141
cafe
3c1f
0000
0000
0141
cafe
201f
0000
0000
013f
cafe
241f
0000
0000
0135
cafe
281f
0000
0000
0139
cafe
2c1f
0000
0000
0135
cafe
301f
0000
0000
012e
cafe
341f
0000
0000
0130
cafe
381f
0000
0000
012d
cafe
3c1f
0000
0000
0126
cafe
201f
0000
0000
0126
cafe
241f
0000
0000
011e
cafe
281f
0000
0000
011a
cafe
2c1f
0000
0000
0122
cafe
301f
0000
0000
0114
cafe
341f
0000
0000
011f
cafe
381f
0000
0000
0125
cafe
3c1f
0000
0000
0128
cafe
201f
0000
0000
012c
cafe
241f
0000
0000
0122
cafe
281f
0000
0000
0127
cafe
2c1f
0000
0000
0132
cafe
301f
0000
0000
0135
cafe
341f
0000
0000
0140
cafe
381f
0000
0000
0137
cafe
3c1f
0000
0000
0141
cafe
201f
0000
0000
0138
cafe
241f
0000
0000
0143
cafe
281f
0000
0000
0144
cafe
2c1f
0000
0000
013c
cafe
301f
0000
0000
013d
cafe
341f
0000
0000
013b
cafe
381f
0000
0000
013d
cafe
3c1f
0000
0000
0145
-
cafe
201f
0000
0000
014c
cafe
241f
0000
0000
0151
cafe
281f
0000
0000
014e
cafe
2c1f
0000
0000
0150
cafe
301f
0000
0000
014c
cafe
341f
0000
0000
014e
cafe
381f
0000
0000
0143
cafe
3c1f
0000
0000
0143
cafe
201f
0000
0000
013b
cafe
241f
0000
0000
013a
cafe
281f
0000
0000
0139
cafe
2c1f
0000
0000
012c
cafe
301f
0000
0000
0135
cafe
341f
0000
0000
0142
cafe
381f
0000
0000
013c
cafe
3c1f
0000
0000
014b
cafe
201f
0000
0000
0143
cafe
241f
0000
0000
014f
cafe
281f
0000
0000
014b
cafe
2c1f
0000
0000
014e
cafe
301f
0000
0000
0150
cafe
341f
0000
0000
0146
cafe
381f
0000
0000
015c
cafe
3c1f
0000
0000
0151
cafe
201f
0000
0000
014c
cafe
241f
0000
0000
014e
cafe
281f
0000
0000
014c
cafe
2c1f
0000
0000
0138
cafe
301f
0000
0000
0142
cafe
341f
0000
0000
0131
cafe
381f
0000
0000
0130
cafe
3c1f
0000
0000
012f
cafe
201f
0000
0000
0125
cafe
241f
0000
0000
0128
cafe
281f
0000
0000
0129
cafe
2c1f
0000
0000
0129
cafe
301f
0000
0000
0122
cafe
341f
0000
0000
011f
cafe
381f
0000
0000
011c
cafe
3c1f
0000
0000
0119
cafe
201f
0000
0000
011f
cafe
241f
0000
0000
0111
cafe
281f
0000
0000
010c
cafe
2c1f
0000
0000
010f
cafe
301f
0000
0000
0119
cafe
341f
0000
0000
0121
cafe
381f
0000
0000
0131
cafe
3c1f
0000
0000
012b
cafe
201f
0000
0000
0139
cafe
241f
0000
0000
0143
cafe
281f
0000
0000
014e
cafe
-
2c1f
0000
0000
014f
cafe
301f
0000
0000
0150
cafe
341f
0000
0000
0157
cafe
381f
0000
0000
0158
cafe
3c1f
0000
0000
0151
cafe
201f
0000
0000
014e
cafe
241f
0000
0000
0146
cafe
281f
0000
0000
0148
cafe
2c1f
0000
0000
0141
cafe
301f
0000
0000
0139
cafe
341f
0000
0000
012f
cafe
381f
0000
0000
0124
cafe
3c1f
0000
0000
0122
cafe
201f
0000
0000
0120
cafe
241f
0000
0000
0110
cafe
281f
0000
0000
0106
cafe
2c1f
0000
0000
010e
cafe
301f
0000
0000
010f
cafe
341f
0000
0000
0110
cafe
381f
0000
0000
010e
cafe
3c1f
0000
0000
0114
cafe
201f
0000
0000
0112
cafe
241f
0000
0000
011c
cafe
281f
0000
0000
011c
cafe
2c1f
0000
0000
0120
cafe
301f
0000
0000
0120
cafe
341f
0000
0000
012e
cafe
381f
0000
0000
012c
cafe
3c1f
0000
0000
0132
cafe
201f
0000
0000
0137
cafe
241f
0000
0000
0146
cafe
281f
0000
0000
0147
cafe
2c1f
0000
0000
014d
cafe
301f
0000
0000
0154
cafe
341f
0000
0000
0162
cafe
381f
0000
0000
0158
cafe
3c1f
0000
0000
0154
cafe
201f
0000
0000
015a
cafe
241f
0000
0000
0155
cafe
281f
0000
0000
0158
cafe
2c1f
0000
0000
014a
cafe
301f
0000
0000
0134
cafe
341f
0000
0000
0138
cafe
381f
0000
0000
0128
cafe
3c1f
0000
0000
0122
cafe
201f
0000
0000
0122
cafe
241f
0000
0000
0119
cafe
281f
0000
0000
0126
cafe
2c1f
0000
0000
011e
cafe
301f
0000
0000
011e
cafe
341f
0000
0000
011d
cafe
381f
-
0000
0000
011c
cafe
3c1f
0000
0000
011c
cafe
201f
0000
0000
011f
cafe
241f
0000
0000
0117
cafe
281f
0000
0000
0118
cafe
2c1f
0000
0000
011f
cafe
301f
0000
0000
0118
cafe
341f
0000
0000
0133
cafe
381f
0000
0000
0135
cafe
3c1f
0000
0000
0140
cafe
201f
0000
0000
0143
cafe
241f
0000
0000
014d
cafe
281f
0000
0000
0153
cafe
2c1f
0000
0000
0158
cafe
301f
0000
0000
015e
cafe
341f
0000
0000
0163
cafe
381f
0000
0000
0162
cafe
3c1f
0000
0000
0158
cafe
201f
0000
0000
0142
cafe
241f
0000
0000
0146
cafe
281f
0000
0000
013a
cafe
2c1f
0000
0000
0134
cafe
301f
0000
0000
0125
cafe
341f
0000
0000
0116
cafe
381f
0000
0000
0122
cafe
3c1f
0000
0000
0113
cafe
201f
0000
0000
010a
cafe
241f
0000
0000
010c
cafe
281f
0000
0000
010f
cafe
2c1f
0000
0000
010d
cafe
301f
0000
0000
0108
cafe
341f
0000
0000
010d
cafe
381f
0000
0000
0114
cafe
3c1f
0000
0000
011a
cafe
201f
0000
0000
011c
cafe
241f
0000
0000
0123
cafe
281f
0000
0000
0123
cafe
2c1f
0000
0000
012e
cafe
301f
0000
0000
0123
cafe
341f
0000
0000
012b
cafe
381f
0000
0000
0135
cafe
3c1f
0000
0000
0131
cafe
201f
0000
0000
012f
cafe
241f
0000
0000
0134
cafe
281f
0000
0000
0137
cafe
2c1f
0000
0000
013c
cafe
301f
0000
0000
013e
cafe
341f
0000
0000
0140
cafe
381f
0000
0000
014d
cafe
3c1f
0000
0000
014e
cafe
201f
0000
0000
0158
cafe
241f
0000
-
0000
0155
cafe
281f
0000
0000
0150
cafe
2c1f
0000
0000
014a
cafe
301f
0000
0000
0141
cafe
341f
0000
0000
0137
cafe
381f
0000
0000
0130
cafe
3c1f
0000
0000
0126
cafe
201f
0000
0000
012a
cafe
241f
0000
0000
0130
cafe
281f
0000
0000
0133
cafe
2c1f
0000
0000
0127
cafe
301f
0000
0000
0129
cafe
341f
0000
0000
0123
cafe
381f
0000
0000
012b
cafe
3c1f
0000
0000
011b
cafe
201f
0000
0000
0113
cafe
241f
0000
0000
010a
cafe
281f
0000
0000
00f8
cafe
2c1f
0000
0000
0102
cafe
301f
0000
0000
00fb
cafe
341f
0000
0000
010c
cafe
381f
0000
0000
0115
cafe
3c1f
0000
0000
0122
cafe
201f
0000
0000
0123
cafe
241f
0000
0000
012a
cafe
281f
0000
0000
012e
cafe
2c1f
0000
0000
013f
cafe
301f
0000
0000
013f
cafe
341f
0000
0000
0147
cafe
381f
0000
0000
0145
cafe
3c1f
0000
0000
0149
cafe
201f
0000
0000
0145
cafe
241f
0000
0000
0147
cafe
281f
0000
0000
0148
cafe
2c1f
0000
0000
0146
cafe
301f
0000
0000
013c
cafe
341f
0000
0000
0139
cafe
381f
0000
0000
0136
cafe
3c1f
0000
0000
012e
cafe
201f
0000
0000
0129
cafe
241f
0000
0000
012d
cafe
281f
0000
0000
0125
cafe
2c1f
0000
0000
011a
cafe
301f
0000
0000
0128
cafe
341f
0000
0000
0122
cafe
381f
0000
0000
0129
cafe
3c1f
0000
0000
012f
cafe
201f
0000
0000
012e
cafe
241f
0000
0000
0129
cafe
281f
0000
0000
011f
cafe
2c1f
0000
0000
0122
cafe
301f
0000
0000
-
0118
cafe
341f
0000
0000
0120
cafe
381f
0000
0000
0122
cafe
3c1f
0000
0000
0127
cafe
201f
0000
0000
0133
cafe
241f
0000
0000
012c
cafe
281f
0000
0000
013a
cafe
2c1f
0000
0000
013e
cafe
301f
0000
0000
0143
cafe
341f
0000
0000
0146
cafe
381f
0000
0000
0148
cafe
3c1f
0000
0000
015f
cafe
201f
0000
0000
0152
cafe
241f
0000
0000
015f
cafe
281f
0000
0000
0161
cafe
2c1f
0000
0000
0164
cafe
301f
0000
0000
015d
cafe
341f
0000
0000
0158
cafe
381f
0000
0000
0152
cafe
3c1f
0000
0000
0149
cafe
201f
0000
0000
014b
cafe
241f
0000
0000
0136
cafe
281f
0000
0000
0134
cafe
2c1f
0000
0000
012e
cafe
301f
0000
0000
0123
cafe
341f
0000
0000
0124
cafe
381f
0000
0000
0119
cafe
3c1f
0000
0000
011a
cafe
201f
0000
0000
010f
cafe
241f
0000
0000
0115
cafe
281f
0000
0000
011c
cafe
2c1f
0000
0000
0115
cafe
301f
0000
0000
011b
cafe
341f
0000
0000
0129
cafe
381f
0000
0000
0133
cafe
3c1f
0000
0000
013f
cafe
201f
0000
0000
0147
cafe
241f
0000
0000
0144
cafe
281f
0000
0000
0142
cafe
2c1f
0000
0000
014a
cafe
301f
0000
0000
014c
cafe
341f
0000
0000
015b
cafe
381f
0000
0000
0151
cafe
3c1f
0000
0000
0152
cafe
201f
0000
0000
0150
cafe
241f
0000
0000
0154
cafe
281f
0000
0000
0147
cafe
2c1f
0000
0000
0148
cafe
301f
0000
0000
0130
cafe
341f
0000
0000
012d
cafe
381f
0000
0000
012e
cafe
3c1f
0000
0000
0120
-
