3408
5556
0dc8
0162
cafe
3818
5556
0dc8
0144
cafe
3c00
5556
0dc8
017c
cafe
2010
5556
0dcc
013f
cafe
2409
5556
0dcc
016b
cafe
2819
5556
0dcc
0171
cafe
2c01
5556
0dcc
00e7
cafe
3011
5556
0dd0
017d
cafe
340a
5556
0dd0
01b8
cafe
381a
5556
0dd0
01d5
cafe
3c02
5556
0dd0
01bf
cafe
2012
5556
0dd4
0168
cafe
240b
5556
0dd4
01cd
cafe
281b
5556
0dd4
0167
cafe
2c03
5556
0dd4
0190
cafe
3013
5556
0dd8
01dd
cafe
340c
5556
0dd8
0180
cafe
381c
5556
0dd8
01c3
cafe
3c04
5556
0dd8
0146
cafe
2014
5556
0ddc
01d4
cafe
240d
5556
0ddc
01c5
cafe
281d
5556
0ddc
0117
cafe
2c05
5556
0ddc
01b3
cafe
3015
5556
0de0
0147
cafe
340e
5556
0de0
0153
cafe
381e
5556
0de0
00dd
cafe
3c06
5556
0de0
01c1
cafe
2016
5556
0de4
015c
cafe
240f
5556
0de4
01d9
cafe
281f
5556
0de4
01b5
cafe
2c07
5556
0de4
01c5
cafe
3017
5556
0de8
017f
cafe
3408
5556
0de8
0155
cafe
3818
5556
0de8
0132
cafe
3c00
5556
0de8
0177
cafe
2010
5556
0dec
013c
cafe
2409
5556
0dec
0178
cafe
2819
5556
0dec
016b
cafe
2c01
5556
0dec
00dc
cafe
3011
5556
0df0
017b
cafe
340a
5556
0df0
01c3
cafe
381a
5556
0df0
01df
cafe
3c02
5556
0df0
01c1
cafe
2012
5556
0df4
0163
cafe
240b
5556
0df4
01c1
cafe
281b
5556
0df4
0173
cafe
2c03
5556
0df4
016e
cafe
3013
5556
0df8
01f3
cafe
340c
5556
0df8
0188
cafe
381c
5556
0df8
01ab
cafe
3c04
5556
0df8
0143
cafe
2014
-
5556
0dfc
01d0
cafe
240d
5556
0dfc
01bb
cafe
281d
5556
0dfc
0107
cafe
2c05
5556
0dfc
01b6
cafe
3015
5556
0e00
0150
cafe
340e
5556
0e00
0145
cafe
381e
5556
0e00
00ba
cafe
3c06
5556
0e00
01cd
cafe
2016
5556
0e04
015c
cafe
240f
5556
0e04
01d6
cafe
281f
5556
0e04
01bc
cafe
2c07
5556
0e04
01b5
cafe
3017
5556
0e08
017b
cafe
3408
5556
0e08
0161
cafe
3818
5556
0e08
013f
cafe
3c00
5556
0e08
0167
cafe
2010
5556
0e0c
012c
cafe
2409
5556
0e0c
0158
cafe
2819
5556
0e0c
0160
cafe
2c01
5556
0e0c
00fb
cafe
3011
5556
0e10
017f
cafe
340a
5556
0e10
01af
cafe
381a
5556
0e10
01de
cafe
3c02
5556
0e10
01c1
cafe
2012
5556
0e14
0159
cafe
240b
5556
0e14
01d7
cafe
281b
5556
0e14
0182
cafe
2c03
5556
0e14
0182
cafe
3013
5556
0e18
01f7
cafe
340c
5556
0e18
0194
cafe
381c
5556
0e18
01b0
cafe
3c04
5556
0e18
0131
cafe
2014
5556
0e1c
01d5
cafe
240d
5556
0e1c
01c4
cafe
281d
5556
0e1c
0124
cafe
2c05
5556
0e1c
01b8
cafe
3015
5556
0e20
015d
cafe
340e
5556
0e20
0152
cafe
381e
5556
0e20
00cd
cafe
3c06
5556
0e20
01c6
cafe
2016
5556
0e24
0153
cafe
240f
5556
0e24
01db
cafe
281f
5556
0e24
01bd
cafe
2c07
5556
0e24
01c6
cafe
3017
5556
0e28
0173
cafe
3408
5556
0e28
0169
cafe
3818
5556
0e28
013a
cafe
3c00
5556
0e28
016a
cafe
2010
5556
0e2c
012b
cafe
2409
5556
0e2c
015f
cafe
2819
5556
0e2c
015a
cafe
2c01
5556
-
0e2c
00f0
cafe
3011
5556
0e30
0188
cafe
340a
5556
0e30
01a6
cafe
381a
5556
0e30
01de
cafe
3c02
5556
0e30
01c3
cafe
2012
5556
0e34
015b
cafe
240b
5556
0e34
01cf
cafe
281b
5556
0e34
0168
cafe
2c03
5556
0e34
0176
cafe
3013
5556
0e38
01f1
cafe
340c
5556
0e38
0186
cafe
381c
5556
0e38
01bb
cafe
3c04
5556
0e38
0142
cafe
2014
5556
0e3c
01d0
cafe
240d
5556
0e3c
01c5
cafe
281d
5556
0e3c
011d
cafe
2c05
5556
0e3c
01c5
cafe
3015
5556
0e40
0157
cafe
340e
5556
0e40
0147
cafe
381e
5556
0e40
00e7
cafe
3c06
5556
0e40
01c7
cafe
2016
5556
0e44
0179
cafe
240f
5556
0e44
01e9
cafe
281f
5556
0e44
01b9
cafe
2c07
5556
0e44
01bd
cafe
3017
5556
0e48
0176
cafe
3408
5556
0e48
0147
cafe
3818
5556
0e48
0137
cafe
3c00
5556
0e48
0167
cafe
2010
5556
0e4c
0136
cafe
2409
5556
0e4c
017d
cafe
2819
5556
0e4c
0170
cafe
2c01
5556
0e4c
00e9
cafe
3011
5556
0e50
0193
cafe
340a
5556
0e50
01b1
cafe
381a
5556
0e50
01e4
cafe
3c02
5556
0e50
01cd
cafe
2012
5556
0e54
015d
cafe
240b
5556
0e54
01ba
cafe
281b
5556
0e54
016c
cafe
2c03
5556
0e54
0175
cafe
3013
5556
0e58
01e7
cafe
340c
5556
0e58
0182
cafe
381c
5556
0e58
01b8
cafe
3c04
5556
0e58
0141
cafe
2014
5556
0e5c
01cf
cafe
240d
5556
0e5c
01d5
cafe
281d
5556
0e5c
0107
cafe
2c05
5556
0e5c
01bd
cafe
3015
5556
0e60
0159
cafe
340e
5556
0e60
014b
cafe
381e
5556
0e60
-
00d9
cafe
3c06
5556
0e60
01c4
cafe
2016
5556
0e64
0168
cafe
240f
5556
0e64
01c9
cafe
281f
5556
0e64
01b5
cafe
2c07
5556
0e64
01c4
cafe
3017
5556
0e68
0177
cafe
3408
5556
0e68
014d
cafe
3818
5556
0e68
0148
cafe
3c00
5556
0e68
016c
cafe
2010
5556
0e6c
013c
cafe
2409
5556
0e6c
0171
cafe
2819
5556
0e6c
0150
cafe
2c01
5556
0e6c
00f9
cafe
3011
5556
0e70
017d
cafe
340a
5556
0e70
01b9
cafe
381a
5556
0e70
01d9
cafe
3c02
5556
0e70
01b6
cafe
2012
5556
0e74
0165
cafe
240b
5556
0e74
01c4
cafe
281b
5556
0e74
0175
cafe
2c03
5556
0e74
017e
cafe
3013
5556
0e78
01ed
cafe
340c
5556
0e78
0192
cafe
381c
5556
0e78
01b0
cafe
3c04
5556
0e78
0151
cafe
2014
5556
0e7c
01d4
cafe
240d
5556
0e7c
01d1
cafe
281d
5556
0e7c
0125
cafe
2c05
5556
0e7c
01c9
cafe
3015
5556
0e80
0158
cafe
340e
5556
0e80
0159
cafe
381e
5556
0e80
00e3
cafe
3c06
5556
0e80
01b5
cafe
2016
5556
0e84
0163
cafe
240f
5556
0e84
01dc
cafe
281f
5556
0e84
01b0
cafe
2c07
5556
0e84
01bd
cafe
3017
5556
0e88
0177
cafe
3408
5556
0e88
014f
cafe
3818
5556
0e88
011f
cafe
3c00
5556
0e88
015d
cafe
2010
5556
0e8c
0140
cafe
2409
5556
0e8c
0161
cafe
2819
5556
0e8c
0164
cafe
2c01
5556
0e8c
00e3
cafe
3011
5556
0e90
0173
cafe
340a
5556
0e90
01b2
cafe
381a
5556
0e90
01db
cafe
3c02
5556
0e90
01c7
cafe
2012
5556
0e94
0165
cafe
240b
5556
0e94
01d9
-
cafe
281b
5556
0e94
017c
cafe
2c03
5556
0e94
0165
cafe
3013
5556
0e98
01f5
cafe
340c
5556
0e98
0198
cafe
381c
5556
0e98
01be
cafe
3c04
5556
0e98
0144
cafe
2014
5556
0e9c
01e3
cafe
240d
5556
0e9c
01c8
cafe
281d
5556
0e9c
0123
cafe
2c05
5556
0e9c
01cf
cafe
3015
5556
0ea0
015c
cafe
340e
5556
0ea0
015b
cafe
381e
5556
0ea0
00d6
cafe
3c06
5556
0ea0
01b5
cafe
2016
5556
0ea4
0175
cafe
240f
5556
0ea4
01df
cafe
281f
5556
0ea4
01b0
cafe
2c07
5556
0ea4
01bd
cafe
3017
5556
0ea8
017e
cafe
3408
5556
0ea8
015c
cafe
3818
5556
0ea8
012c
cafe
3c00
5556
0ea8
016d
cafe
2010
5556
0eac
0129
cafe
2409
5556
0eac
016d
cafe
2819
5556
0eac
016a
cafe
2c01
5556
0eac
00e8
cafe
3011
5556
0eb0
017f
cafe
340a
5556
0eb0
01ad
cafe
381a
5556
0eb0
01e1
cafe
3c02
5556
0eb0
01b5
cafe
2012
5556
0eb4
0168
cafe
240b
5556
0eb4
01bd
cafe
281b
5556
0eb4
0173
cafe
2c03
5556
0eb4
0174
cafe
3013
5556
0eb8
01e4
cafe
340c
5556
0eb8
0174
cafe
381c
5556
0eb8
01c8
cafe
3c04
5556
0eb8
0149
cafe
2014
5556
0ebc
01d0
cafe
240d
5556
0ebc
01ce
cafe
281d
5556
0ebc
0116
cafe
2c05
5556
0ebc
01c6
cafe
3015
5556
0ec0
0155
cafe
340e
5556
0ec0
015d
cafe
381e
5556
0ec0
00cb
cafe
3c06
5556
0ec0
01c6
cafe
2016
5556
0ec4
014b
cafe
240f
5556
0ec4
01dd
cafe
281f
5556
0ec4
01a9
cafe
2c07
5556
0ec4
01b3
cafe
3017
5556
0ec8
0188
cafe
-
3408
5556
0ec8
0163
cafe
3818
5556
0ec8
0131
cafe
3c00
5556
0ec8
017c
cafe
2010
5556
0ecc
0120
cafe
2409
5556
0ecc
0176
cafe
2819
5556
0ecc
016f
cafe
2c01
5556
0ecc
00de
cafe
3011
5556
0ed0
0183
cafe
340a
5556
0ed0
01ac
cafe
381a
5556
0ed0
01dc
cafe
3c02
5556
0ed0
01be
cafe
2012
5556
0ed4
0165
cafe
240b
5556
0ed4
01c1
cafe
281b
5556
0ed4
016f
cafe
2c03
5556
0ed4
017c
cafe
3013
5556
0ed8
01e9
cafe
340c
5556
0ed8
0188
cafe
381c
5556
0ed8
01b4
cafe
3c04
5556
0ed8
014d
cafe
2014
5556
0edc
01cb
cafe
240d
5556
0edc
01cd
cafe
281d
5556
0edc
0122
cafe
2c05
5556
0edc
01bd
cafe
3015
5556
0ee0
0154
cafe
340e
5556
0ee0
0163
cafe
381e
5556
0ee0
00d7
cafe
3c06
5556
0ee0
01b2
cafe
2016
5556
0ee4
0168
cafe
240f
5556
0ee4
01d8
cafe
281f
5556
0ee4
01c8
cafe
2c07
5556
0ee4
01c8
cafe
3017
5556
0ee8
0186
cafe
3408
5556
0ee8
014d
cafe
3818
5556
0ee8
0137
cafe
3c00
5556
0ee8
0166
cafe
2010
5556
0eec
0127
cafe
2409
5556
0eec
017a
cafe
2819
5556
0eec
016a
cafe
2c01
5556
0eec
00e4
cafe
3011
5556
0ef0
0195
cafe
340a
5556
0ef0
01c1
cafe
381a
5556
0ef0
01e3
cafe
3c02
5556
0ef0
01c3
cafe
2012
5556
0ef4
016b
cafe
240b
5556
0ef4
01b6
cafe
281b
5556
0ef4
0162
cafe
2c03
5556
0ef4
0180
cafe
3013
5556
0ef8
01f1
cafe
340c
5556
0ef8
018b
cafe
381c
5556
0ef8
01c1
cafe
3c04
5556
0ef8
013d
cafe
2014
-
5556
0efc
01c9
cafe
240d
5556
0efc
01cc
cafe
281d
5556
0efc
010d
cafe
2c05
5556
0efc
01b9
cafe
3015
5556
0f00
0159
cafe
340e
5556
0f00
015d
cafe
381e
5556
0f00
00c9
cafe
3c06
5556
0f00
01ba
cafe
2016
5556
0f04
014a
cafe
240f
5556
0f04
01d6
cafe
281f
5556
0f04
01bf
cafe
2c07
5556
0f04
01c1
cafe
3017
5556
0f08
0187
cafe
3408
5556
0f08
0155
cafe
3818
5556
0f08
0142
cafe
3c00
5556
0f08
016e
cafe
2010
5556
0f0c
012b
cafe
2409
5556
0f0c
0186
cafe
2819
5556
0f0c
0168
cafe
2c01
5556
0f0c
00fb
cafe
3011
5556
0f10
0186
cafe
340a
5556
0f10
01ab
cafe
381a
5556
0f10
01cf
cafe
3c02
5556
0f10
01ae
cafe
2012
5556
0f14
015f
cafe
240b
5556
0f14
01c0
cafe
281b
5556
0f14
0168
cafe
2c03
5556
0f14
0176
cafe
3013
5556
0f18
01f2
cafe
340c
5556
0f18
018b
cafe
381c
5556
0f18
01bd
cafe
3c04
5556
0f18
014c
cafe
2014
5556
0f1c
01d3
cafe
240d
5556
0f1c
01dd
cafe
281d
5556
0f1c
0113
cafe
2c05
5556
0f1c
01c4
cafe
3015
5556
0f20
0160
cafe
340e
5556
0f20
016c
cafe
381e
5556
0f20
00db
cafe
3c06
5556
0f20
01c3
cafe
2016
5556
0f24
0160
cafe
240f
5556
0f24
01dd
cafe
281f
5556
0f24
01bd
cafe
2c07
5556
0f24
01ba
cafe
3017
5556
0f28
0182
cafe
3408
5556
0f28
0162
cafe
3818
5556
0f28
0140
cafe
3c00
5556
0f28
0178
cafe
2010
5556
0f2c
013d
cafe
2409
5556
0f2c
016e
cafe
2819
5556
0f2c
0175
cafe
2c01
5556
-
0f2c
00d6
cafe
3011
5556
0f30
0179
cafe
340a
5556
0f30
01a4
cafe
381a
5556
0f30
01de
cafe
3c02
5556
0f30
01ce
cafe
2012
5556
0f34
015d
cafe
240b
5556
0f34
01d4
cafe
281b
5556
0f34
0177
cafe
2c03
5556
0f34
0177
cafe
3013
5556
0f38
01f2
cafe
340c
5556
0f38
018f
cafe
381c
5556
0f38
01bd
cafe
3c04
5556
0f38
0153
cafe
2014
5556
0f3c
01da
cafe
240d
5556
0f3c
01d4
cafe
281d
5556
0f3c
0116
cafe
2c05
5556
0f3c
01b5
cafe
3015
5556
0f40
015e
cafe
340e
5556
0f40
015a
cafe
381e
5556
0f40
00d6
cafe
3c06
5556
0f40
01be
cafe
2016
5556
0f44
0149
cafe
240f
5556
0f44
01e1
cafe
281f
5556
0f44
01bc
cafe
2c07
5556
0f44
01d4
cafe
3017
5556
0f48
017d
cafe
3408
5556
0f48
014d
cafe
3818
5556
0f48
012c
cafe
3c00
5556
0f48
018f
cafe
2010
5556
0f4c
0135
cafe
2409
5556
0f4c
018b
cafe
2819
5556
0f4c
017e
cafe
2c01
5556
0f4c
00e9
cafe
3011
5556
0f50
0183
cafe
340a
5556
0f50
01a4
cafe
381a
5556
0f50
01dd
cafe
3c02
5556
0f50
01cf
cafe
2012
5556
0f54
014a
cafe
240b
5556
0f54
01ba
cafe
281b
5556
0f54
0165
cafe
2c03
5556
0f54
0177
cafe
3013
5556
0f58
01f5
cafe
340c
5556
0f58
017a
cafe
381c
5556
0f58
01b3
cafe
3c04
5556
0f58
0143
cafe
2014
5556
0f5c
01d5
cafe
240d
5556
0f5c
01d5
cafe
281d
5556
0f5c
0117
cafe
2c05
5556
0f5c
01c8
cafe
3015
5556
0f60
016f
cafe
340e
5556
0f60
0174
cafe
381e
5556
0f60
-
00bf
cafe
3c06
5556
0f60
01d5
cafe
2016
5556
0f64
014d
cafe
240f
5556
0f64
01db
cafe
281f
5556
0f64
01c7
cafe
2c07
5556
0f64
01b4
cafe
3017
5556
0f68
0184
cafe
3408
5556
0f68
0157
cafe
3818
5556
0f68
0147
cafe
3c00
5556
0f68
0171
cafe
2010
5556
0f6c
012a
cafe
2409
5556
0f6c
017e
cafe
2819
5556
0f6c
0162
cafe
2c01
5556
0f6c
00e6
cafe
3011
5556
0f70
017d
cafe
340a
5556
0f70
01a8
cafe
381a
5556
0f70
01df
cafe
3c02
5556
0f70
01b6
cafe
2012
5556
0f74
0155
cafe
240b
5556
0f74
01b8
cafe
281b
5556
0f74
0178
cafe
2c03
5556
0f74
017a
cafe
3013
5556
0f78
01d9
cafe
340c
5556
0f78
0183
cafe
381c
5556
0f78
01cf
cafe
3c04
5556
0f78
0150
cafe
2014
5556
0f7c
01cb
cafe
240d
5556
0f7c
01c7
cafe
281d
5556
0f7c
010f
cafe
2c05
5556
0f7c
01a2
cafe
3015
5556
0f80
015e
cafe
340e
5556
0f80
0156
cafe
381e
5556
0f80
00de
cafe
3c06
5556
0f80
01bc
cafe
2016
5556
0f84
0157
cafe
240f
5556
0f84
01d1
cafe
281f
5556
0f84
01b6
cafe
2c07
5556
0f84
01af
cafe
3017
5556
0f88
0174
cafe
3408
5556
0f88
0157
cafe
3818
5556
0f88
0147
cafe
3c00
5556
0f88
0178
cafe
2010
5556
0f8c
012b
cafe
2409
5556
0f8c
0185
cafe
2819
5556
0f8c
0176
cafe
2c01
5556
0f8c
00de
cafe
3011
5556
0f90
0187
cafe
340a
5556
0f90
01a5
cafe
381a
5556
0f90
01d8
cafe
3c02
5556
0f90
01dc
cafe
2012
5556
0f94
014d
cafe
240b
5556
0f94
01bf
-
cafe
281b
5556
0f94
017a
cafe
2c03
5556
0f94
016f
cafe
3013
5556
0f98
01ec
cafe
340c
5556
0f98
0182
cafe
381c
5556
0f98
01c1
cafe
3c04
5556
0f98
0156
cafe
2014
5556
0f9c
01d3
cafe
240d
5556
0f9c
01c7
cafe
281d
5556
0f9c
0112
cafe
2c05
5556
0f9c
01c0
cafe
3015
5556
0fa0
015d
cafe
340e
5556
0fa0
0149
cafe
381e
5556
0fa0
00d7
cafe
3c06
5556
0fa0
01c4
cafe
2016
5556
0fa4
014e
cafe
240f
5556
0fa4
01b7
cafe
281f
5556
0fa4
01ba
cafe
2c07
5556
0fa4
01b8
cafe
3017
5556
0fa8
0181
cafe
3408
5556
0fa8
0167
cafe
3818
5556
0fa8
0134
cafe
3c00
5556
0fa8
0164
cafe
2010
5556
0fac
0135
cafe
2409
5556
0fac
017d
cafe
2819
5556
0fac
0177
cafe
2c01
5556
0fac
00de
cafe
3011
5556
0fb0
0181
cafe
340a
5556
0fb0
01b0
cafe
381a
5556
0fb0
01f3
cafe
3c02
5556
0fb0
01bc
cafe
2012
5556
0fb4
0168
cafe
240b
5556
0fb4
01ca
cafe
281b
5556
0fb4
0169
cafe
2c03
5556
0fb4
0183
cafe
3013
5556
0fb8
01f0
cafe
340c
5556
0fb8
0188
cafe
381c
5556
0fb8
01cb
cafe
3c04
5556
0fb8
014c
cafe
2014
5556
0fbc
01e0
cafe
240d
5556
0fbc
01d0
cafe
281d
5556
0fbc
010b
cafe
2c05
5556
0fbc
01b5
cafe
3015
5556
0fc0
0146
cafe
340e
5556
0fc0
0154
cafe
381e
5556
0fc0
00d5
cafe
3c06
5556
0fc0
01c6
cafe
2016
5556
0fc4
0165
cafe
240f
5556
0fc4
01d9
cafe
281f
5556
0fc4
01c8
cafe
2c07
5556
0fc4
01b6
cafe
3017
5556
0fc8
0176
cafe
-
3408
5556
0fc8
0140
cafe
3818
5556
0fc8
0130
cafe
3c00
5556
0fc8
0169
cafe
2010
5556
0fcc
013b
cafe
2409
5556
0fcc
018c
cafe
2819
5556
0fcc
0173
cafe
2c01
5556
0fcc
00dc
cafe
3011
5556
0fd0
0181
cafe
340a
5556
0fd0
01b7
cafe
381a
5556
0fd0
01e8
cafe
3c02
5556
0fd0
01d5
cafe
2012
5556
0fd4
0167
cafe
240b
5556
0fd4
01bf
cafe
281b
5556
0fd4
0173
cafe
2c03
5556
0fd4
016a
cafe
3013
5556
0fd8
01f4
cafe
340c
5556
0fd8
017e
cafe
381c
5556
0fd8
01b0
cafe
3c04
5556
0fd8
014f
cafe
2014
5556
0fdc
01d0
cafe
240d
5556
0fdc
01d9
cafe
281d
5556
0fdc
011c
cafe
2c05
5556
0fdc
01a5
cafe
3015
5556
0fe0
014c
cafe
340e
5556
0fe0
015d
cafe
381e
5556
0fe0
00d1
cafe
3c06
5556
0fe0
01b6
cafe
2016
5556
0fe4
015a
cafe
240f
5556
0fe4
01c7
cafe
281f
5556
0fe4
01bf
cafe
2c07
5556
0fe4
01b4
cafe
3017
5556
0fe8
0173
cafe
3408
5556
0fe8
0157
cafe
3818
5556
0fe8
014d
cafe
3c00
5556
0fe8
0159
cafe
2010
5556
0fec
012f
cafe
2409
5556
0fec
0175
cafe
2819
5556
0fec
017e
cafe
2c01
5556
0fec
00ef
cafe
3011
5556
0ff0
0172
cafe
340a
5556
0ff0
01bc
cafe
381a
5556
0ff0
01ed
cafe
3c02
5556
0ff0
01c9
cafe
2012
5556
0ff4
015d
cafe
240b
5556
0ff4
04b1
cafe
281b
5556
0ff4
045d
cafe
2c03
5556
0ff4
046b
cafe
3013
5556
0ff8
04d5
cafe
340c
5556
0ff8
082d
cafe
381c
5556
0ff8
089d
cafe
3c04
5556
0ff8
080b
cafe
2014
-
5556
0ffc
08ab
cafe
240d
5556
0ffc
097d
cafe
281d
5556
0ffc
08cb
cafe
2c05
5556
0ffc
0956
cafe
3015
5556
1000
0917
cafe
340e
5556
1000
096e
cafe
381e
5556
1000
08be
cafe
3c06
5556
1000
09ae
cafe
2016
5556
1004
097a
cafe
240f
5556
1004
09de
cafe
281f
5556
1004
099c
cafe
2c07
5556
1004
09a2
cafe
3017
5556
1008
0985
cafe
3408
5556
1008
0925
cafe
3818
5556
1008
0913
cafe
3c00
5556
1008
092a
cafe
2010
5556
100c
093d
cafe
2409
5556
100c
091d
cafe
2819
5556
100c
0922
cafe
2c01
5556
100c
0863
cafe
3011
5556
1010
0957
cafe
340a
5556
1010
0966
cafe
381a
5556
1010
0995
cafe
3c02
5556
1010
0941
cafe
2012
5556
1014
0934
cafe
240b
5556
1014
0948
cafe
281b
5556
1014
08fa
cafe
2c03
5556
1014
08c0
cafe
3013
5556
1018
0991
cafe
340c
5556
1018
0908
cafe
381c
5556
1018
093a
cafe
3c04
5556
1018
08ae
cafe
2014
5556
101c
0952
cafe
240d
5556
101c
0943
cafe
281d
5556
101c
086e
cafe
2c05
5556
101c
0907
cafe
3015
5556
1020
08c9
cafe
340e
5556
1020
08ba
cafe
381e
5556
1020
0832
cafe
3c06
5556
1020
0909
cafe
2016
5556
1024
08d0
cafe
240f
5556
1024
0913
cafe
281f
5556
1024
090f
cafe
2c07
5556
1024
08f6
cafe
3017
5556
1028
08ed
cafe
3408
5556
1028
0888
cafe
3818
5556
1028
087d
cafe
3c00
5556
1028
08af
cafe
2010
5556
102c
08a7
cafe
2409
5556
102c
0899
cafe
2819
5556
102c
08a1
cafe
2c01
5556
-
102c
07da
cafe
3011
5556
1030
08c7
cafe
340a
5556
1030
08c0
cafe
381a
5556
1030
0930
cafe
3c02
5556
1030
08d3
cafe
2012
5556
1034
08a3
cafe
240b
5556
1034
08d1
cafe
281b
5556
1034
0871
cafe
2c03
5556
1034
084c
cafe
3013
5556
1038
091b
cafe
340c
5556
1038
088a
cafe
381c
5556
1038
08b7
cafe
3c04
5556
1038
081f
cafe
2014
5556
103c
08dd
cafe
240d
5556
103c
08d1
cafe
281d
5556
103c
07e2
cafe
2c05
5556
103c
0898
cafe
3015
5556
1040
0848
cafe
340e
5556
1040
082e
cafe
381e
5556
1040
07af
cafe
3c06
5556
1040
088f
cafe
2016
5556
1044
0847
cafe
240f
5556
1044
08b4
cafe
281f
5556
1044
0882
cafe
2c07
5556
1044
0881
cafe
3017
5556
1048
0853
cafe
3408
5556
1048
0821
cafe
3818
5556
1048
0817
cafe
3c00
5556
1048
0819
cafe
2010
5556
104c
0818
cafe
2409
5556
104c
07fa
cafe
2819
5556
104c
081d
cafe
2c01
5556
104c
0759
cafe
3011
5556
1050
083d
cafe
340a
5556
1050
0863
cafe
381a
5556
1050
08bc
cafe
3c02
5556
1050
084c
cafe
2012
5556
1054
0841
cafe
240b
5556
1054
0843
cafe
281b
5556
1054
07f7
cafe
2c03
5556
1054
07c3
cafe
3013
5556
1058
0893
cafe
340c
5556
1058
0826
cafe
381c
5556
1058
083d
cafe
3c04
5556
1058
07ae
cafe
2014
5556
105c
0844
cafe
240d
5556
105c
0843
cafe
281d
5556
105c
075e
cafe
2c05
5556
105c
080e
cafe
3015
5556
1060
07d2
cafe
340e
5556
1060
07b1
cafe
381e
5556
1060
-
072f
cafe
3c06
5556
1060
0815
cafe
2016
5556
1064
07cf
cafe
240f
5556
1064
0829
cafe
281f
5556
1064
080e
cafe
2c07
5556
1064
07fc
cafe
3017
5556
1068
07d8
cafe
3408
5556
1068
078e
cafe
3818
5556
1068
0780
cafe
3c00
5556
1068
079a
cafe
2010
5556
106c
079a
cafe
2409
5556
106c
0798
cafe
2819
5556
106c
07a5
cafe
2c01
5556
106c
06ed
cafe
3011
5556
1070
07c5
cafe
340a
5556
1070
07e1
cafe
381a
5556
1070
084f
cafe
3c02
5556
1070
07c7
cafe
2012
5556
1074
07bb
cafe
240b
5556
1074
07d5
cafe
281b
5556
1074
078b
cafe
2c03
5556
1074
075f
cafe
3013
5556
1078
081e
cafe
340c
5556
1078
07ad
cafe
381c
5556
1078
07c5
cafe
3c04
5556
1078
0732
cafe
2014
5556
107c
07e9
cafe
240d
5556
107c
07f2
cafe
281d
5556
107c
06ea
cafe
2c05
5556
107c
07a3
cafe
3015
5556
1080
0765
cafe
340e
5556
1080
0740
cafe
381e
5556
1080
06a8
cafe
3c06
5556
1080
0798
cafe
2016
5556
1084
0761
cafe
240f
5556
1084
07b3
cafe
281f
5556
1084
07a3
cafe
2c07
5556
1084
07a9
cafe
3017
5556
1088
0763
cafe
3408
5556
1088
071e
cafe
3818
5556
1088
071c
cafe
3c00
5556
1088
072c
cafe
2010
5556
108c
0721
cafe
2409
5556
108c
071d
cafe
2819
5556
108c
072a
cafe
2c01
5556
108c
067d
cafe
3011
5556
1090
0745
cafe
340a
5556
1090
0778
cafe
381a
5556
1090
07bf
cafe
3c02
5556
1090
0755
cafe
2012
5556
1094
0756
cafe
240b
5556
1094
0770
-
cafe
281b
5556
1094
0713
cafe
2c03
5556
1094
06f1
cafe
3013
5556
1098
07b3
cafe
340c
5556
1098
073f
cafe
381c
5556
1098
0768
cafe
3c04
5556
1098
06ba
cafe
2014
5556
109c
0767
cafe
240d
5556
109c
076d
cafe
281d
5556
109c
067e
cafe
2c05
5556
109c
073f
cafe
3015
5556
10a0
06ea
cafe
340e
5556
10a0
06d4
cafe
381e
5556
10a0
0638
cafe
3c06
5556
10a0
0734
cafe
2016
5556
10a4
06d5
cafe
240f
5556
10a4
0749
cafe
281f
5556
10a4
0725
cafe
2c07
5556
10a4
0721
cafe
3017
5556
10a8
06fd
cafe
3408
5556
10a8
06bc
cafe
3818
5556
10a8
06aa
cafe
3c00
5556
10a8
06c1
cafe
2010
5556
10ac
06ab
cafe
2409
5556
10ac
06c9
cafe
2819
5556
10ac
06c8
cafe
2c01
5556
10ac
0611
cafe
3011
5556
10b0
06e8
cafe
340a
5556
10b0
0711
cafe
381a
5556
10b0
0767
cafe
3c02
5556
10b0
06fb
cafe
2012
5556
10b4
06d8
cafe
240b
5556
10b4
06f9
cafe
281b
5556
10b4
06ab
cafe
2c03
5556
10b4
067e
cafe
3013
5556
10b8
0749
cafe
340c
5556
10b8
06d2
cafe
381c
5556
10b8
06ee
cafe
3c04
5556
10b8
063e
cafe
2014
5556
10bc
0703
cafe
240d
5556
10bc
06fc
cafe
281d
5556
10bc
061e
cafe
2c05
5556
10bc
06d9
cafe
3015
5556
10c0
0685
cafe
340e
5556
10c0
0664
cafe
381e
5556
10c0
05bd
cafe
3c06
5556
10c0
06db
cafe
2016
5556
10c4
0694
cafe
240f
5556
10c4
06de
cafe
281f
5556
10c4
06bf
cafe
2c07
5556
10c4
06cc
cafe
3017
5556
10c8
0679
cafe
-
3408
5556
10c8
064d
cafe
3818
5556
10c8
0649
cafe
3c00
5556
10c8
065f
cafe
2010
5556
10cc
0643
cafe
2409
5556
10cc
0657
cafe
2819
5556
10cc
0657
cafe
2c01
5556
10cc
05a7
cafe
3011
5556
10d0
0678
cafe
340a
5556
10d0
06d4
cafe
381a
5556
10d0
06f5
cafe
3c02
5556
10d0
06b0
cafe
2012
5556
10d4
0680
cafe
240b
5556
10d4
06ac
cafe
281b
5556
10d4
0651
cafe
2c03
5556
10d4
061d
cafe
3013
5556
10d8
06f4
cafe
340c
5556
10d8
0694
cafe
381c
5556
10d8
06a1
cafe
3c04
5556
10d8
05f6
cafe
2014
5556
10dc
06bc
cafe
240d
5556
10dc
06b5
cafe
281d
5556
10dc
05bb
cafe
2c05
5556
10dc
067b
cafe
3015
5556
10e0
062c
cafe
340e
5556
10e0
05f1
cafe
381e
5556
10e0
0566
cafe
3c06
5556
10e0
0663
cafe
2016
5556
10e4
0623
cafe
240f
5556
10e4
0691
cafe
281f
5556
10e4
065c
cafe
2c07
5556
10e4
0670
cafe
3017
5556
10e8
061e
cafe
3408
5556
10e8
05fc
cafe
3818
5556
10e8
05f6
cafe
3c00
5556
10e8
05e3
cafe
2010
5556
10ec
05eb
cafe
2409
5556
10ec
05fb
cafe
2819
5556
10ec
05f8
cafe
2c01
5556
10ec
054b
cafe
3011
5556
10f0
0629
cafe
340a
5556
10f0
0646
cafe
381a
5556
10f0
068d
cafe
3c02
5556
10f0
0633
cafe
2012
5556
10f4
0616
cafe
240b
5556
10f4
0647
cafe
281b
5556
10f4
05f1
cafe
2c03
5556
10f4
05a8
cafe
3013
5556
10f8
0691
cafe
340c
5556
10f8
062e
cafe
381c
5556
10f8
0636
cafe
3c04
5556
10f8
05a0
cafe
2014
-
5556
10fc
0657
cafe
240d
5556
10fc
0647
cafe
281d
5556
10fc
0554
cafe
2c05
5556
10fc
0614
cafe
3015
5556
1100
05ca
cafe
340e
5556
1100
059a
cafe
381e
5556
1100
051a
cafe
3c06
5556
1100
060b
cafe
2016
5556
1104
05ca
cafe
240f
5556
1104
063f
cafe
281f
5556
1104
0602
cafe
2c07
5556
1104
060e
cafe
3017
5556
1108
05c6
cafe
3408
5556
1108
057d
cafe
3818
5556
1108
0592
cafe
3c00
5556
1108
0596
cafe
2010
5556
110c
0588
cafe
2409
5556
110c
05c0
cafe
2819
5556
110c
05b7
cafe
2c01
5556
110c
0502
cafe
3011
5556
1110
05d1
cafe
340a
5556
1110
060f
cafe
381a
5556
1110
0647
cafe
3c02
5556
1110
05dd
cafe
2012
5556
1114
05cf
cafe
240b
5556
1114
05f3
cafe
281b
5556
1114
059f
cafe
2c03
5556
1114
0573
cafe
3013
5556
1118
063c
cafe
340c
5556
1118
05d9
cafe
381c
5556
1118
05ce
cafe
3c04
5556
1118
0543
cafe
2014
5556
111c
0617
cafe
240d
5556
111c
05eb
cafe
281d
5556
111c
0509
cafe
2c05
5556
111c
05a1
cafe
3015
5556
1120
056b
cafe
340e
5556
1120
0532
cafe
381e
5556
1120
04b1
cafe
3c06
5556
1120
05ac
cafe
2016
5556
1124
057d
cafe
240f
5556
1124
05d8
cafe
281f
5556
1124
05a9
cafe
2c07
5556
1124
05b3
cafe
3017
5556
1128
0563
cafe
3408
5556
1128
0533
cafe
3818
5556
1128
052f
cafe
3c00
5556
1128
052c
cafe
2010
5556
112c
0534
cafe
2409
5556
112c
056c
cafe
2819
5556
112c
0565
cafe
2c01
5556
-
112c
04af
cafe
3011
5556
1130
0567
cafe
340a
5556
1130
05b5
cafe
381a
5556
1130
05f5
cafe
3c02
5556
1130
058d
cafe
2012
5556
1134
0568
cafe
240b
5556
1134
0598
cafe
281b
5556
1134
0539
cafe
2c03
5556
1134
050c
cafe
3013
5556
1138
05e8
cafe
340c
5556
1138
059c
cafe
381c
5556
1138
058a
cafe
3c04
5556
1138
04ff
cafe
2014
5556
113c
05ba
cafe
240d
5556
113c
059f
cafe
281d
5556
113c
04bf
cafe
2c05
5556
113c
0571
cafe
3015
5556
1140
0524
cafe
340e
5556
1140
04ef
cafe
381e
5556
1140
0452
cafe
3c06
5556
1140
056d
cafe
2016
5556
1144
051d
cafe
240f
5556
1144
05a2
cafe
281f
5556
1144
0561
cafe
2c07
5556
1144
0560
cafe
3017
5556
1148
052d
cafe
3408
5556
1148
04eb
cafe
3818
5556
1148
04e7
cafe
3c00
5556
1148
04cf
cafe
2010
5556
114c
04fa
cafe
2409
5556
114c
050e
cafe
2819
5556
114c
04fa
cafe
2c01
5556
114c
045c
cafe
3011
5556
1150
051c
cafe
340a
5556
1150
0567
cafe
381a
5556
1150
05a4
cafe
3c02
5556
1150
0549
cafe
2012
5556
1154
052b
cafe
240b
5556
1154
054d
cafe
281b
5556
1154
04f8
cafe
2c03
5556
1154
04e0
cafe
3013
5556
1158
05ad
cafe
340c
5556
1158
0548
cafe
381c
5556
1158
052d
cafe
3c04
5556
1158
04a6
cafe
2014
5556
115c
0560
cafe
240d
5556
115c
0545
cafe
281d
5556
115c
047b
cafe
2c05
5556
115c
0528
cafe
3015
5556
1160
04db
cafe
340e
5556
1160
04a2
cafe
381e
5556
1160
-
040d
cafe
3c06
5556
1160
051d
cafe
2016
5556
1164
04e7
cafe
240f
5556
1164
0549
cafe
281f
5556
1164
0514
cafe
2c07
5556
1164
051a
cafe
3017
5556
1168
04c7
cafe
3408
5556
1168
049c
cafe
3818
5556
1168
04a2
cafe
3c00
5556
1168
0489
cafe
2010
5556
116c
04a1
cafe
2409
5556
116c
04bb
cafe
2819
5556
116c
04b3
cafe
2c01
5556
116c
0415
cafe
3011
5556
1170
04ee
cafe
340a
5556
1170
051c
cafe
381a
5556
1170
0552
cafe
3c02
5556
1170
0501
cafe
2012
5556
1174
04e2
cafe
240b
5556
1174
050f
cafe
281b
5556
1174
04a6
cafe
2c03
5556
1174
0490
cafe
3013
5556
1178
054e
cafe
340c
5556
1178
04dc
cafe
381c
5556
1178
0501
cafe
3c04
5556
1178
0462
cafe
2014
5556
117c
0513
cafe
240d
5556
117c
050b
cafe
281d
5556
117c
042f
cafe
2c05
5556
117c
04e1
cafe
3015
5556
1180
0491
cafe
340e
5556
1180
047b
cafe
381e
5556
1180
03cb
cafe
3c06
5556
1180
04ed
cafe
2016
5556
1184
04ab
cafe
240f
5556
1184
051b
cafe
281f
5556
1184
04ba
cafe
2c07
5556
1184
04ea
cafe
3017
5556
1188
04a4
cafe
3408
5556
1188
0461
cafe
3818
5556
1188
0458
cafe
3c00
5556
1188
045f
cafe
2010
5556
118c
0461
cafe
2409
5556
118c
0471
cafe
2819
5556
118c
0477
cafe
2c01
5556
118c
03ca
cafe
3011
5556
1190
048b
cafe
340a
5556
1190
04dd
cafe
381a
5556
1190
050f
cafe
3c02
5556
1190
04bb
cafe
2012
5556
1194
0477
cafe
240b
5556
1194
04bb
-
cafe
281b
5556
1194
046b
cafe
2c03
5556
1194
043b
cafe
3013
5556
1198
050c
cafe
340c
5556
1198
04b8
cafe
381c
5556
1198
04bd
cafe
3c04
5556
1198
0402
cafe
2014
5556
119c
04d7
cafe
240d
5556
119c
04c1
cafe
281d
5556
119c
03e2
cafe
2c05
5556
119c
04a6
cafe
3015
5556
11a0
0461
cafe
340e
5556
11a0
041c
cafe
381e
5556
11a0
038b
cafe
3c06
5556
11a0
04a7
cafe
2016
5556
11a4
0454
cafe
240f
5556
11a4
04d0
cafe
281f
5556
11a4
048f
cafe
2c07
5556
11a4
04ae
cafe
3017
5556
11a8
045b
cafe
3408
5556
11a8
0417
cafe
3818
5556
11a8
0423
cafe
3c00
5556
11a8
041e
cafe
2010
5556
11ac
040b
cafe
2409
5556
11ac
044a
cafe
2819
5556
11ac
0436
cafe
2c01
5556
11ac
039c
cafe
3011
5556
11b0
0455
cafe
340a
5556
11b0
048a
cafe
381a
5556
11b0
04cc
cafe
3c02
5556
11b0
0477
cafe
2012
5556
11b4
044f
cafe
240b
5556
11b4
0496
cafe
281b
5556
11b4
0426
cafe
2c03
5556
11b4
0404
cafe
3013
5556
11b8
04d1
cafe
340c
5556
11b8
0493
cafe
381c
5556
11b8
0482
cafe
3c04
5556
11b8
03e4
cafe
2014
5556
11bc
0494
cafe
240d
5556
11bc
0489
cafe
281d
5556
11bc
03b4
cafe
2c05
5556
11bc
0467
cafe
3015
5556
11c0
0419
cafe
340e
5556
11c0
03eb
cafe
381e
5556
11c0
0351
cafe
3c06
5556
11c0
0469
cafe
2016
5556
11c4
0417
cafe
240f
5556
11c4
0485
cafe
281f
5556
11c4
0444
cafe
2c07
5556
11c4
046f
cafe
3017
5556
11c8
0417
cafe
-
3408
5556
11c8
03e1
cafe
3818
5556
11c8
03ed
cafe
3c00
5556
11c8
03d6
cafe
2010
5556
11cc
03dd
cafe
2409
5556
11cc
040a
cafe
2819
5556
11cc
0406
cafe
2c01
5556
11cc
0354
cafe
3011
5556
11d0
0427
cafe
340a
5556
11d0
0455
cafe
381a
5556
11d0
049c
cafe
3c02
5556
11d0
0445
cafe
2012
5556
11d4
041f
cafe
240b
5556
11d4
0459
cafe
281b
5556
11d4
03f0
cafe
2c03
5556
11d4
03d6
cafe
3013
5556
11d8
0495
cafe
340c
5556
11d8
0451
cafe
381c
5556
11d8
044b
cafe
3c04
5556
11d8
0399
cafe
2014
5556
11dc
0469
cafe
240d
5556
11dc
0465
cafe
281d
5556
11dc
036a
cafe
2c05
5556
11dc
043e
cafe
3015
5556
11e0
03cf
cafe
340e
5556
11e0
03b6
cafe
381e
5556
11e0
031d
cafe
3c06
5556
11e0
0416
cafe
2016
5556
11e4
03df
cafe
240f
5556
11e4
0443
cafe
281f
5556
11e4
0401
cafe
2c07
5556
11e4
0421
cafe
3017
5556
11e8
03d4
cafe
3408
5556
11e8
039d
cafe
3818
5556
11e8
03b4
cafe
3c00
5556
11e8
03b1
cafe
2010
5556
11ec
0398
cafe
2409
5556
11ec
03d0
cafe
2819
5556
11ec
03c7
cafe
2c01
5556
11ec
0317
cafe
3011
5556
11f0
03ef
cafe
340a
5556
11f0
0427
cafe
381a
5556
11f0
0462
cafe
3c02
5556
11f0
040d
cafe
2012
5556
11f4
03d7
cafe
240b
5556
11f4
0417
cafe
281b
5556
11f4
03af
cafe
2c03
5556
11f4
0395
cafe
3013
5556
11f8
045b
cafe
340c
5556
11f8
0409
cafe
381c
5556
11f8
041f
cafe
3c04
5556
11f8
0369
cafe
2014
-
5556
11fc
0425
cafe
240d
5556
11fc
041f
cafe
281d
5556
11fc
0337
cafe
2c05
5556
11fc
03f7
cafe
3015
5556
1200
03ab
cafe
340e
5556
1200
0378
cafe
381e
5556
1200
02dd
cafe
3c06
5556
1200
03fd
cafe
2016
5556
1204
03a5
cafe
240f
5556
1204
0422
cafe
281f
5556
1204
03e1
cafe
2c07
5556
1204
0401
cafe
3017
5556
1208
03af
cafe
3408
5556
1208
0387
cafe
3818
5556
1208
0373
cafe
3c00
5556
1208
0377
cafe
2010
5556
120c
036d
cafe
2409
5556
120c
0391
cafe
2819
5556
120c
03a4
cafe
2c01
5556
120c
02eb
cafe
3011
5556
1210
03bb
cafe
340a
5556
1210
0401
cafe
381a
5556
1210
0439
cafe
3c02
5556
1210
03e1
cafe
2012
5556
1214
03ad
cafe
240b
5556
1214
03e5
cafe
281b
5556
1214
038b
cafe
2c03
5556
1214
037c
cafe
3013
5556
1218
042e
cafe
340c
5556
1218
03da
cafe
381c
5556
1218
03d3
cafe
3c04
5556
1218
033c
cafe
2014
5556
121c
0409
cafe
240d
5556
121c
03ef
cafe
281d
5556
121c
030f
cafe
2c05
5556
121c
03ce
cafe
3015
5556
1220
0362
cafe
340e
5556
1220
035c
cafe
381e
5556
1220
02c3
cafe
3c06
5556
1220
03b0
cafe
2016
5556
1224
037d
cafe
240f
5556
1224
03df
cafe
281f
5556
1224
03ab
cafe
2c07
5556
1224
03c6
cafe
3017
5556
1228
037b
cafe
3408
5556
1228
0355
cafe
3818
5556
1228
0359
cafe
3c00
5556
1228
0347
cafe
2010
5556
122c
0337
cafe
2409
5556
122c
0362
cafe
2819
5556
122c
036a
cafe
2c01
5556
-
122c
02b2
cafe
3011
5556
1230
037a
cafe
340a
5556
1230
03c8
cafe
381a
5556
1230
0400
cafe
3c02
5556
1230
03c2
cafe
2012
5556
1234
038b
cafe
240b
5556
1234
03c3
cafe
281b
5556
1234
035e
cafe
2c03
5556
1234
034c
cafe
3013
5556
1238
0409
cafe
340c
5556
1238
03b4
cafe
381c
5556
1238
03ac
cafe
3c04
5556
1238
0311
cafe
2014
5556
123c
03d3
cafe
240d
5556
123c
03d1
cafe
281d
5556
123c
02e4
cafe
2c05
5556
123c
0394
cafe
3015
5556
1240
0335
cafe
340e
5556
1240
0325
cafe
381e
5556
1240
0282
cafe
3c06
5556
1240
0396
cafe
2016
5556
1244
0345
cafe
240f
5556
1244
03b5
cafe
281f
5556
1244
0380
cafe
2c07
5556
1244
0399
cafe
3017
5556
1248
035f
cafe
3408
5556
1248
0321
cafe
3818
5556
1248
032f
cafe
3c00
5556
1248
031d
cafe
2010
5556
124c
0314
cafe
2409
5556
124c
0351
cafe
2819
5556
124c
0327
cafe
2c01
5556
124c
0290
cafe
3011
5556
1250
0358
cafe
340a
5556
1250
039d
cafe
381a
5556
1250
03de
cafe
3c02
5556
1250
03a5
cafe
2012
5556
1254
0356
cafe
240b
5556
1254
0399
cafe
281b
5556
1254
0327
cafe
2c03
5556
1254
0303
cafe
3013
5556
1258
03f1
cafe
340c
5556
1258
0397
cafe
381c
5556
1258
0397
cafe
3c04
5556
1258
02ec
cafe
2014
5556
125c
03a4
cafe
240d
5556
125c
03c1
cafe
281d
5556
125c
02ac
cafe
2c05
5556
125c
0386
cafe
3015
5556
1260
030d
cafe
340e
5556
1260
02f9
cafe
381e
5556
1260
-
0264
cafe
3c06
5556
1260
0379
cafe
2016
5556
1264
031c
cafe
240f
5556
1264
0390
cafe
281f
5556
1264
034d
cafe
2c07
5556
1264
037b
cafe
3017
5556
1268
0335
cafe
3408
5556
1268
02ec
cafe
3818
5556
1268
0309
cafe
3c00
5556
1268
02f7
cafe
2010
5556
126c
02dd
cafe
2409
5556
126c
0317
cafe
2819
5556
126c
0318
cafe
2c01
5556
126c
0267
cafe
3011
5556
1270
0331
cafe
340a
5556
1270
036c
cafe
381a
5556
1270
03ab
cafe
3c02
5556
1270
0356
cafe
2012
5556
1274
032c
cafe
240b
5556
1274
036c
cafe
281b
5556
1274
02ff
cafe
2c03
5556
1274
02ff
cafe
3013
5556
1278
039d
cafe
340c
5556
1278
0360
cafe
381c
5556
1278
035f
cafe
3c04
5556
1278
02c5
cafe
2014
5556
127c
0377
cafe
240d
5556
127c
0373
cafe
281d
5556
127c
028f
cafe
2c05
5556
127c
035a
cafe
3015
5556
1280
02f8
cafe
340e
5556
1280
02e2
cafe
381e
5556
1280
023c
cafe
3c06
5556
1280
034d
cafe
2016
5556
1284
02f7
cafe
240f
5556
1284
036a
cafe
281f
5556
1284
033e
cafe
2c07
5556
1284
034b
cafe
3017
5556
1288
02fd
cafe
3408
5556
1288
02c9
cafe
3818
5556
1288
02e2
cafe
3c00
5556
1288
02ce
cafe
2010
5556
128c
02c1
cafe
2409
5556
128c
0304
cafe
2819
5556
128c
02f6
cafe
2c01
5556
128c
0241
cafe
3011
5556
1290
0315
cafe
340a
5556
1290
0345
cafe
381a
5556
1290
036e
cafe
3c02
5556
1290
0330
cafe
2012
5556
1294
02fd
cafe
240b
5556
1294
033e
-
cafe
281b
5556
1294
02d8
cafe
2c03
5556
1294
02cf
cafe
3013
5556
1298
0396
cafe
340c
5556
1298
032b
cafe
381c
5556
1298
0339
cafe
3c04
5556
1298
02a8
cafe
2014
5556
129c
0358
cafe
240d
5556
129c
0359
cafe
281d
5556
129c
0271
cafe
2c05
5556
129c
032e
cafe
3015
5556
12a0
02c8
cafe
340e
5556
12a0
02bb
cafe
381e
5556
12a0
020f
cafe
3c06
5556
12a0
031a
cafe
2016
5556
12a4
02cf
cafe
240f
5556
12a4
0353
cafe
281f
5556
12a4
0314
cafe
2c07
5556
12a4
032b
cafe
3017
5556
12a8
02de
cafe
3408
5556
12a8
02b4
cafe
3818
5556
12a8
02a9
cafe
3c00
5556
12a8
02bb
cafe
2010
5556
12ac
02a3
cafe
2409
5556
12ac
02dd
cafe
2819
5556
12ac
02d8
cafe
2c01
5556
12ac
022d
cafe
3011
5556
12b0
02e5
cafe
340a
5556
12b0
031a
cafe
381a
5556
12b0
0371
cafe
3c02
5556
12b0
0317
cafe
2012
5556
12b4
02d3
cafe
240b
5556
12b4
032f
cafe
281b
5556
12b4
02b9
cafe
2c03
5556
12b4
02ba
cafe
3013
5556
12b8
0365
cafe
340c
5556
12b8
0310
cafe
381c
5556
12b8
0314
cafe
3c04
5556
12b8
028a
cafe
2014
5556
12bc
032e
cafe
240d
5556
12bc
033c
cafe
281d
5556
12bc
0253
cafe
2c05
5556
12bc
030e
cafe
3015
5556
12c0
02a8
cafe
340e
5556
12c0
02a1
cafe
381e
5556
12c0
01f5
cafe
3c06
5556
12c0
0301
cafe
2016
5556
12c4
02a1
cafe
240f
5556
12c4
032a
cafe
281f
5556
12c4
02da
cafe
2c07
5556
12c4
030f
cafe
3017
5556
12c8
02af
cafe
-
3408
5556
12c8
0287
cafe
3818
5556
12c8
029e
cafe
3c00
5556
12c8
02a6
cafe
2010
5556
12cc
0288
cafe
2409
5556
12cc
02ba
cafe
2819
5556
12cc
02b5
cafe
2c01
5556
12cc
0205
cafe
3011
5556
12d0
02c0
cafe
340a
5556
12d0
02fe
cafe
381a
5556
12d0
034b
cafe
3c02
5556
12d0
02e8
cafe
2012
5556
12d4
02ac
cafe
240b
5556
12d4
031b
cafe
281b
5556
12d4
0293
cafe
2c03
5556
12d4
0290
cafe
3013
5556
12d8
034b
cafe
340c
5556
12d8
02ef
cafe
381c
5556
12d8
02f6
cafe
3c04
5556
12d8
027b
cafe
2014
5556
12dc
0324
cafe
240d
5556
12dc
0328
cafe
281d
5556
12dc
0231
cafe
2c05
5556
12dc
0301
cafe
3015
5556
12e0
0279
cafe
340e
5556
12e0
0267
cafe
381e
5556
12e0
01d4
cafe
3c06
5556
12e0
02ea
cafe
2016
5556
12e4
029d
cafe
240f
5556
12e4
0307
cafe
281f
5556
12e4
02d7
cafe
2c07
5556
12e4
02fa
cafe
3017
5556
12e8
0292
cafe
3408
5556
12e8
0260
cafe
3818
5556
12e8
0268
cafe
3c00
5556
12e8
0291
cafe
2010
5556
12ec
0267
cafe
2409
5556
12ec
02a4
cafe
2819
5556
12ec
0288
cafe
2c01
5556
12ec
01e3
cafe
3011
5556
12f0
02b3
cafe
340a
5556
12f0
02e4
cafe
381a
5556
12f0
0330
cafe
3c02
5556
12f0
02d2
cafe
2012
5556
12f4
0295
cafe
240b
5556
12f4
02f1
cafe
281b
5556
12f4
0285
cafe
2c03
5556
12f4
0277
cafe
3013
5556
12f8
0321
cafe
340c
5556
12f8
02c9
cafe
381c
5556
12f8
02e1
cafe
3c04
5556
12f8
024d
cafe
2014
-
5556
12fc
02f7
cafe
240d
5556
12fc
02ec
cafe
281d
5556
12fc
0207
cafe
2c05
5556
12fc
02e5
cafe
3015
5556
1300
0282
cafe
340e
5556
1300
0255
cafe
381e
5556
1300
01bf
cafe
3c06
5556
1300
02cb
cafe
2016
5556
1304
0285
cafe
240f
5556
1304
02f7
cafe
281f
5556
1304
02c0
cafe
2c07
5556
1304
02c4
cafe
3017
5556
1308
0287
cafe
3408
5556
1308
0253
cafe
3818
5556
1308
024a
cafe
3c00
5556
1308
0261
cafe
2010
5556
130c
0252
cafe
2409
5556
130c
0276
cafe
2819
5556
130c
027e
cafe
2c01
5556
130c
01c8
cafe
3011
5556
1310
0295
cafe
340a
5556
1310
02d3
cafe
381a
5556
1310
02fb
cafe
3c02
5556
1310
02b3
cafe
2012
5556
1314
0259
cafe
240b
5556
1314
02ca
cafe
281b
5556
1314
0275
cafe
2c03
5556
1314
025f
cafe
3013
5556
1318
0305
cafe
340c
5556
1318
02b8
cafe
381c
5556
1318
02b0
cafe
3c04
5556
1318
0233
cafe
2014
5556
131c
02e7
cafe
240d
5556
131c
02e1
cafe
281d
5556
131c
01f9
cafe
2c05
5556
131c
02cd
cafe
3015
5556
1320
025c
cafe
340e
5556
1320
0227
cafe
381e
5556
1320
019b
cafe
3c06
5556
1320
02af
cafe
2016
5556
1324
0257
cafe
240f
5556
1324
02d3
cafe
281f
5556
1324
02a8
cafe
2c07
5556
1324
02ae
cafe
3017
5556
1328
026d
cafe
3408
5556
1328
024c
cafe
3818
5556
1328
0241
cafe
3c00
5556
1328
0259
cafe
2010
5556
132c
0233
cafe
2409
5556
132c
0267
cafe
2819
5556
132c
0267
cafe
2c01
5556
-
132c
01a1
cafe
3011
5556
1330
0279
cafe
340a
5556
1330
02b7
cafe
381a
5556
1330
02e5
cafe
3c02
5556
1330
028e
cafe
2012
5556
1334
0249
cafe
240b
5556
1334
02b5
cafe
281b
5556
1334
0249
cafe
2c03
5556
1334
0254
cafe
3013
5556
1338
02eb
cafe
340c
5556
1338
02a8
cafe
381c
5556
1338
02b2
cafe
3c04
5556
1338
0219
cafe
2014
5556
133c
02d3
cafe
240d
5556
133c
02ba
cafe
281d
5556
133c
01e2
cafe
2c05
5556
133c
0298
cafe
3015
5556
1340
0237
cafe
340e
5556
1340
0237
cafe
381e
5556
1340
01a1
cafe
3c06
5556
1340
028a
cafe
2016
5556
1344
023f
cafe
240f
5556
1344
02d3
cafe
281f
5556
1344
028a
cafe
2c07
5556
1344
02aa
cafe
3017
5556
1348
0250
cafe
3408
5556
1348
021f
cafe
3818
5556
1348
0214
cafe
3c00
5556
1348
0234
cafe
2010
5556
134c
0212
cafe
2409
5556
134c
0257
cafe
2819
5556
134c
0245
cafe
2c01
5556
134c
01ae
cafe
3011
5556
1350
0253
cafe
340a
5556
1350
02ac
cafe
381a
5556
1350
02ed
cafe
3c02
5556
1350
0293
cafe
2012
5556
1354
0251
cafe
240b
5556
1354
02bd
cafe
281b
5556
1354
0232
cafe
2c03
5556
1354
022f
cafe
3013
5556
1358
02fb
cafe
340c
5556
1358
0290
cafe
381c
5556
1358
0293
cafe
3c04
5556
1358
0223
cafe
2014
5556
135c
02b6
cafe
240d
5556
135c
0298
cafe
281d
5556
135c
01d2
cafe
2c05
5556
135c
0280
cafe
3015
5556
1360
021b
cafe
340e
5556
1360
01fb
cafe
381e
5556
1360
-
016a
cafe
3c06
5556
1360
0280
cafe
2016
5556
1364
0233
cafe
240f
5556
1364
02ae
cafe
281f
5556
1364
0273
cafe
2c07
5556
1364
0277
cafe
3017
5556
1368
022d
cafe
3408
5556
1368
021a
cafe
3818
5556
1368
020f
cafe
3c00
5556
1368
0223
cafe
2010
5556
136c
0201
cafe
2409
5556
136c
0238
cafe
2819
5556
136c
022f
cafe
2c01
5556
136c
0198
cafe
3011
5556
1370
024d
cafe
340a
5556
1370
026b
cafe
381a
5556
1370
02b9
cafe
3c02
5556
1370
0265
cafe
2012
5556
1374
0213
cafe
240b
5556
1374
027c
cafe
281b
5556
1374
0226
cafe
2c03
5556
1374
021d
cafe
3013
5556
1378
02c5
cafe
340c
5556
1378
0279
cafe
381c
5556
1378
027f
cafe
3c04
5556
1378
01fe
cafe
2014
5556
137c
02ab
cafe
240d
5556
137c
0291
cafe
281d
5556
137c
01a9
cafe
2c05
5556
137c
026d
cafe
3015
5556
1380
0220
cafe
340e
5556
1380
020a
cafe
381e
5556
1380
016d
cafe
3c06
5556
1380
027f
cafe
2016
5556
1384
0227
cafe
240f
5556
1384
02ac
cafe
281f
5556
1384
0263
cafe
2c07
5556
1384
0275
cafe
3017
5556
1388
0221
cafe
3408
5556
1388
0206
cafe
3818
5556
1388
020a
cafe
3c00
5556
1388
0215
cafe
2010
5556
138c
01e5
cafe
2409
5556
138c
021d
cafe
2819
5556
138c
0216
cafe
2c01
5556
138c
018a
cafe
3011
5556
1390
0238
cafe
340a
5556
1390
0272
cafe
381a
5556
1390
02b5
cafe
3c02
5556
1390
0255
cafe
2012
5556
1394
021d
cafe
240b
5556
1394
0275
-
cafe
281b
5556
1394
0209
cafe
2c03
5556
1394
021b
cafe
3013
5556
1398
02ae
cafe
340c
5556
1398
024d
cafe
381c
5556
1398
0262
cafe
3c04
5556
1398
01fe
cafe
2014
5556
139c
028b
cafe
240d
5556
139c
028b
cafe
281d
5556
139c
018d
cafe
2c05
5556
139c
025c
cafe
3015
5556
13a0
0203
cafe
340e
5556
13a0
01e7
cafe
381e
5556
13a0
015d
cafe
3c06
5556
13a0
0268
cafe
2016
5556
13a4
021a
cafe
240f
5556
13a4
029d
cafe
281f
5556
13a4
0247
cafe
2c07
5556
13a4
0261
cafe
3017
5556
13a8
0219
cafe
3408
5556
13a8
01eb
cafe
3818
5556
13a8
01e5
cafe
3c00
5556
13a8
020d
cafe
2010
5556
13ac
01e0
cafe
2409
5556
13ac
0215
cafe
2819
5556
13ac
020e
cafe
2c01
5556
13ac
016f
cafe
3011
5556
13b0
0213
cafe
340a
5556
13b0
0262
cafe
381a
5556
13b0
028e
cafe
3c02
5556
13b0
0247
cafe
2012
5556
13b4
0203
cafe
240b
5556
13b4
0268
cafe
281b
5556
13b4
01f7
cafe
2c03
5556
13b4
0200
cafe
3013
5556
13b8
028b
cafe
340c
5556
13b8
0238
cafe
381c
5556
13b8
0269
cafe
3c04
5556
13b8
01d9
cafe
2014
5556
13bc
027b
cafe
240d
5556
13bc
0272
cafe
281d
5556
13bc
0179
cafe
2c05
5556
13bc
0238
cafe
3015
5556
13c0
01f5
cafe
340e
5556
13c0
01dd
cafe
381e
5556
13c0
0149
cafe
3c06
5556
13c0
0244
cafe
2016
5556
13c4
0200
cafe
240f
5556
13c4
0285
cafe
281f
5556
13c4
0238
cafe
2c07
5556
13c4
024c
cafe
3017
5556
13c8
0200
cafe
-
3408
5556
13c8
01db
cafe
3818
5556
13c8
01df
cafe
3c00
5556
13c8
01f2
cafe
2010
5556
13cc
01c7
cafe
2409
5556
13cc
01e8
cafe
2819
5556
13cc
01f5
cafe
2c01
5556
13cc
0154
cafe
3011
5556
13d0
0215
cafe
340a
5556
13d0
023e
cafe
381a
5556
13d0
0292
cafe
3c02
5556
13d0
022d
cafe
2012
5556
13d4
01f7
cafe
240b
5556
13d4
0254
cafe
281b
5556
13d4
01ee
cafe
2c03
5556
13d4
01f5
cafe
3013
5556
13d8
0282
cafe
340c
5556
13d8
0231
cafe
381c
5556
13d8
0243
cafe
3c04
5556
13d8
01cb
cafe
2014
5556
13dc
0259
cafe
240d
5556
13dc
0259
cafe
281d
5556
13dc
0175
cafe
2c05
5556
13dc
022c
cafe
3015
5556
13e0
01f3
cafe
340e
5556
13e0
01c4
cafe
381e
5556
13e0
0134
cafe
3c06
5556
13e0
0247
cafe
2016
5556
13e4
01e2
cafe
240f
5556
13e4
0274
cafe
281f
5556
13e4
0237
cafe
2c07
5556
13e4
0241
cafe
3017
5556
13e8
01e1
cafe
3408
5556
13e8
01ca
cafe
3818
5556
13e8
01c1
cafe
3c00
5556
13e8
01e2
cafe
2010
5556
13ec
01b6
cafe
2409
5556
13ec
01de
cafe
2819
5556
13ec
01ea
cafe
2c01
5556
13ec
014e
cafe
3011
5556
13f0
01ff
cafe
340a
5556
13f0
0239
cafe
381a
5556
13f0
0296
cafe
3c02
5556
13f0
021a
cafe
2012
5556
13f4
01e7
cafe
240b
5556
13f4
0259
cafe
281b
5556
13f4
01cf
cafe
2c03
5556
13f4
01ff
cafe
3013
5556
13f8
028c
cafe
340c
5556
13f8
0219
cafe
381c
5556
13f8
0239
cafe
3c04
5556
13f8
01c8
cafe
2014
-
5556
13fc
024a
cafe
240d
5556
13fc
0252
cafe
281d
5556
13fc
0177
cafe
2c05
5556
13fc
0231
cafe
3015
5556
1400
01ce
cafe
340e
5556
1400
01ac
cafe
381e
5556
1400
0138
cafe
3c06
5556
1400
0236
cafe
2016
5556
1404
01ea
cafe
240f
5556
1404
025d
cafe
281f
5556
1404
0223
cafe
2c07
5556
1404
0227
cafe
3017
5556
1408
01e4
cafe
3408
5556
1408
01bc
cafe
3818
5556
1408
01c0
cafe
3c00
5556
1408
01cf
cafe
2010
5556
140c
019c
cafe
2409
5556
140c
01f8
cafe
2819
5556
140c
01cf
cafe
2c01
5556
140c
014e
cafe
3011
5556
1410
01e0
cafe
340a
5556
1410
022f
cafe
381a
5556
1410
0271
cafe
3c02
5556
1410
0222
cafe
2012
5556
1414
01da
cafe
240b
5556
1414
023a
cafe
281b
5556
1414
01c3
cafe
2c03
5556
1414
01de
cafe
3013
5556
1418
0274
cafe
340c
5556
1418
0202
cafe
381c
5556
1418
023b
cafe
3c04
5556
1418
019b
cafe
2014
5556
141c
024e
cafe
240d
5556
141c
0245
cafe
281d
5556
141c
0163
cafe
2c05
5556
141c
0218
cafe
3015
5556
1420
01ae
cafe
340e
5556
1420
019b
cafe
381e
5556
1420
0122
cafe
3c06
5556
1420
0216
cafe
2016
5556
1424
01c8
cafe
240f
5556
1424
023c
cafe
281f
5556
1424
0203
cafe
2c07
5556
1424
021b
cafe
3017
5556
1428
01d9
cafe
3408
5556
1428
01bd
cafe
3818
5556
1428
01a9
cafe
3c00
5556
1428
01c2
cafe
2010
5556
142c
01a1
cafe
2409
5556
142c
01d7
cafe
2819
5556
142c
01c8
cafe
2c01
5556
-
142c
0138
cafe
3011
5556
1430
01df
cafe
340a
5556
1430
0201
cafe
381a
5556
1430
0259
cafe
3c02
5556
1430
0222
cafe
2012
5556
1434
01d1
cafe
240b
5556
1434
0235
cafe
281b
5556
1434
01bb
cafe
2c03
5556
1434
01c3
cafe
3013
5556
1438
0272
cafe
340c
5556
1438
020b
cafe
381c
5556
1438
021a
cafe
3c04
5556
1438
01a8
cafe
2014
5556
143c
022b
cafe
240d
5556
143c
0231
cafe
281d
5556
143c
015d
cafe
2c05
5556
143c
020c
cafe
3015
5556
1440
01b2
cafe
340e
5556
1440
01a5
cafe
381e
5556
1440
0109
cafe
3c06
5556
1440
020a
cafe
2016
5556
1444
01c6
cafe
240f
5556
1444
024b
cafe
281f
5556
1444
0204
cafe
2c07
5556
1444
020d
cafe
3017
5556
1448
01c5
cafe
3408
5556
1448
01a9
cafe
3818
5556
1448
018e
cafe
3c00
5556
1448
01b5
cafe
2010
5556
144c
0193
cafe
2409
5556
144c
01c2
cafe
2819
5556
144c
01c4
cafe
2c01
5556
144c
012d
cafe
3011
5556
1450
01cd
cafe
340a
5556
1450
0219
cafe
381a
5556
1450
0254
cafe
3c02
5556
1450
0213
cafe
2012
5556
1454
01d6
cafe
240b
5556
1454
0212
cafe
281b
5556
1454
01ad
cafe
2c03
5556
1454
01b5
cafe
3013
5556
1458
024b
cafe
340c
5556
1458
01f9
cafe
381c
5556
1458
0216
cafe
3c04
5556
1458
0189
cafe
2014
5556
145c
0225
cafe
240d
5556
145c
0236
cafe
281d
5556
145c
0149
cafe
2c05
5556
145c
0206
cafe
3015
5556
1460
01a8
cafe
340e
5556
1460
019b
cafe
381e
5556
1460
-
011a
cafe
3c06
5556
1460
0213
cafe
2016
5556
1464
01b1
cafe
240f
5556
1464
0238
cafe
281f
5556
1464
01f1
cafe
2c07
5556
1464
0202
cafe
3017
5556
1468
01c8
cafe
3408
5556
1468
01a6
cafe
3818
5556
1468
0181
cafe
3c00
5556
1468
01b1
cafe
2010
5556
146c
018f
cafe
2409
5556
146c
01cc
cafe
2819
5556
146c
01ab
cafe
2c01
5556
146c
0119
cafe
3011
5556
1470
01cc
cafe
340a
5556
1470
0205
cafe
381a
5556
1470
024b
cafe
3c02
5556
1470
01ef
cafe
2012
5556
1474
01bd
cafe
240b
5556
1474
0200
cafe
281b
5556
1474
01ae
cafe
2c03
5556
1474
01a8
cafe
3013
5556
1478
023e
cafe
340c
5556
1478
01d9
cafe
381c
5556
1478
0203
cafe
3c04
5556
1478
0176
cafe
2014
5556
147c
0218
cafe
240d
5556
147c
0224
cafe
281d
5556
147c
014c
cafe
2c05
5556
147c
01fb
cafe
3015
5556
1480
01a1
cafe
340e
5556
1480
019c
cafe
381e
5556
1480
0114
cafe
3c06
5556
1480
01fb
cafe
2016
5556
1484
01a4
cafe
240f
5556
1484
0233
cafe
281f
5556
1484
01eb
cafe
2c07
5556
1484
01ff
cafe
3017
5556
1488
01bb
cafe
3408
5556
1488
0182
cafe
3818
5556
1488
017c
cafe
3c00
5556
1488
01ab
cafe
2010
5556
148c
0165
cafe
2409
5556
148c
01c7
cafe
2819
5556
148c
019d
cafe
2c01
5556
148c
0110
cafe
3011
5556
1490
01bc
cafe
340a
5556
1490
01ef
cafe
381a
5556
1490
0234
cafe
3c02
5556
1490
01f5
cafe
2012
5556
1494
01b1
cafe
240b
5556
1494
0205
-
cafe
281b
5556
1494
01af
cafe
2c03
5556
1494
01ab
cafe
3013
5556
1498
023d
cafe
340c
5556
1498
01e2
cafe
381c
5556
1498
01ed
cafe
3c04
5556
1498
0182
cafe
2014
5556
149c
0208
cafe
240d
5556
149c
022d
cafe
281d
5556
149c
014b
cafe
2c05
5556
149c
01fa
cafe
3015
5556
14a0
0198
cafe
340e
5556
14a0
0178
cafe
381e
5556
14a0
00fe
cafe
3c06
5556
14a0
01f3
cafe
2016
5556
14a4
01a4
cafe
240f
5556
14a4
0222
cafe
281f
5556
14a4
01df
cafe
2c07
5556
14a4
01e5
cafe
3017
5556
14a8
019d
cafe
3408
5556
14a8
0199
cafe
3818
5556
14a8
017e
cafe
3c00
5556
14a8
01a6
cafe
2010
5556
14ac
017a
cafe
2409
5556
14ac
01a6
cafe
2819
5556
14ac
01a3
cafe
2c01
5556
14ac
00f9
cafe
3011
5556
14b0
01b5
cafe
340a
5556
14b0
01fc
cafe
381a
5556
14b0
0239
cafe
3c02
5556
14b0
01fb
cafe
2012
5556
14b4
01b0
cafe
240b
5556
14b4
0204
cafe
281b
5556
14b4
01a4
cafe
2c03
5556
14b4
01a1
cafe
3013
5556
14b8
023d
cafe
340c
5556
14b8
01e8
cafe
381c
5556
14b8
01fc
cafe
3c04
5556
14b8
017c
cafe
2014
5556
14bc
0211
cafe
240d
5556
14bc
01fb
cafe
281d
5556
14bc
012e
cafe
2c05
5556
14bc
01db
cafe
3015
5556
14c0
0189
cafe
340e
5556
14c0
0181
cafe
381e
5556
14c0
00fa
cafe
3c06
5556
14c0
01f2
cafe
2016
5556
14c4
019f
cafe
240f
5556
14c4
0205
cafe
281f
5556
14c4
01d5
cafe
2c07
5556
14c4
01ea
cafe
3017
5556
14c8
0190
cafe
-
3408
5556
14c8
0184
cafe
3818
5556
14c8
0172
cafe
3c00
5556
14c8
0186
cafe
2010
5556
14cc
0175
cafe
2409
5556
14cc
01aa
cafe
2819
5556
14cc
0185
cafe
2c01
5556
14cc
0107
cafe
3011
5556
14d0
019a
cafe
340a
5556
14d0
01e1
cafe
381a
5556
14d0
0226
cafe
3c02
5556
14d0
01ec
cafe
2012
5556
14d4
0194
cafe
240b
5556
14d4
01fa
cafe
281b
5556
14d4
0199
cafe
2c03
5556
14d4
01a5
cafe
3013
5556
14d8
0231
cafe
340c
5556
14d8
01d3
cafe
381c
5556
14d8
01ed
cafe
3c04
5556
14d8
017e
cafe
2014
5556
14dc
0201
cafe
240d
5556
14dc
0214
cafe
281d
5556
14dc
0135
cafe
2c05
5556
14dc
01e9
cafe
3015
5556
14e0
0194
cafe
340e
5556
14e0
018d
cafe
381e
5556
14e0
00ec
cafe
3c06
5556
14e0
01e6
cafe
2016
5556
14e4
018a
cafe
240f
5556
14e4
01fd
cafe
281f
5556
14e4
01cf
cafe
2c07
5556
14e4
01de
cafe
3017
5556
14e8
0198
cafe
3408
5556
14e8
0175
cafe
3818
5556
14e8
016d
cafe
3c00
5556
14e8
018d
cafe
2010
5556
14ec
015b
cafe
2409
5556
14ec
01b0
cafe
2819
5556
14ec
0178
cafe
2c01
5556
14ec
0105
cafe
3011
5556
14f0
01a5
cafe
340a
5556
14f0
01eb
cafe
381a
5556
14f0
020e
cafe
3c02
5556
14f0
01de
cafe
2012
5556
14f4
018e
cafe
240b
5556
14f4
01dc
cafe
281b
5556
14f4
0189
cafe
2c03
5556
14f4
018a
cafe
3013
5556
14f8
0221
cafe
340c
5556
14f8
01d3
cafe
381c
5556
14f8
01db
cafe
3c04
5556
14f8
0164
cafe
2014
-
5556
14fc
01f6
cafe
240d
5556
14fc
01f9
cafe
281d
5556
14fc
013a
cafe
2c05
5556
14fc
01d3
cafe
3015
5556
1500
0187
cafe
340e
5556
1500
0187
cafe
381e
5556
1500
00ec
cafe
3c06
5556
1500
01e6
cafe
2016
5556
1504
0187
cafe
240f
5556
1504
01fc
cafe
281f
5556
1504
01d2
cafe
2c07
5556
1504
01f0
cafe
3017
5556
1508
01a6
cafe
3408
5556
1508
0181
cafe
3818
5556
1508
0154
cafe
3c00
5556
1508
0183
cafe
2010
5556
150c
0157
cafe
2409
5556
150c
0195
cafe
2819
5556
150c
0177
cafe
2c01
5556
150c
00ea
cafe
3011
5556
1510
01a3
cafe
340a
5556
1510
01d0
cafe
381a
5556
1510
020e
cafe
3c02
5556
1510
01ec
cafe
2012
5556
1514
0182
cafe
240b
5556
1514
01de
cafe
281b
5556
1514
0173
cafe
2c03
5556
1514
018a
cafe
3013
5556
1518
0223
cafe
340c
5556
1518
01cc
cafe
381c
5556
1518
01cb
cafe
3c04
5556
1518
0169
cafe
2014
5556
151c
01f4
cafe
240d
5556
151c
01f6
cafe
281d
5556
151c
0133
cafe
2c05
5556
151c
01ce
cafe
3015
5556
1520
0177
cafe
340e
5556
1520
016e
cafe
381e
5556
1520
00e2
cafe
3c06
5556
1520
01d5
cafe
2016
5556
1524
0197
cafe
240f
5556
1524
01f9
cafe
281f
5556
1524
01d9
cafe
2c07
5556
1524
01d4
cafe
3017
5556
1528
018b
cafe
3408
5556
1528
016d
cafe
3818
5556
1528
015d
cafe
3c00
5556
1528
017d
cafe
2010
5556
152c
0134
cafe
2409
5556
152c
0191
cafe
2819
5556
152c
0170
cafe
2c01
5556
-
152c
00ed
cafe
3011
5556
1530
019f
cafe
340a
5556
1530
01d8
cafe
381a
5556
1530
020b
cafe
3c02
5556
1530
01dd
cafe
2012
5556
1534
01a2
cafe
240b
5556
1534
01e2
cafe
281b
5556
1534
0168
cafe
2c03
5556
1534
0185
cafe
3013
5556
1538
021f
cafe
340c
5556
1538
01b7
cafe
381c
5556
1538
01dd
cafe
3c04
5556
1538
014c
cafe
2014
5556
153c
01f1
cafe
240d
5556
153c
01e4
cafe
281d
5556
153c
0112
cafe
2c05
5556
153c
01c1
cafe
3015
5556
1540
0172
cafe
340e
5556
1540
0163
cafe
381e
5556
1540
00e2
cafe
3c06
5556
1540
01d1
cafe
2016
5556
1544
016c
cafe
240f
5556
1544
020f
cafe
281f
5556
1544
01c7
cafe
2c07
5556
1544
01c5
cafe
3017
5556
1548
0193
cafe
3408
5556
1548
016a
cafe
3818
5556
1548
015e
cafe
3c00
5556
1548
0181
cafe
2010
5556
154c
0154
cafe
2409
5556
154c
0181
cafe
2819
5556
154c
016c
cafe
2c01
5556
154c
00e8
cafe
3011
5556
1550
01a1
cafe
340a
5556
1550
01dd
cafe
381a
5556
1550
0202
cafe
3c02
5556
1550
01d0
cafe
2012
5556
1554
0175
cafe
240b
5556
1554
01d0
cafe
281b
5556
1554
017b
cafe
2c03
5556
1554
0183
cafe
3013
5556
1558
0215
cafe
340c
5556
1558
01b2
cafe
381c
5556
1558
01be
cafe
3c04
5556
1558
0157
cafe
2014
5556
155c
01ef
cafe
240d
5556
155c
01ed
cafe
281d
5556
155c
010e
cafe
2c05
5556
155c
01e1
cafe
3015
5556
1560
0155
cafe
340e
5556
1560
0168
cafe
381e
5556
1560
-
00d9
cafe
3c06
5556
1560
01d7
cafe
2016
5556
1564
0177
cafe
240f
5556
1564
01f3
cafe
281f
5556
1564
01c9
cafe
2c07
5556
1564
01c5
cafe
3017
5556
1568
0187
cafe
3408
5556
1568
014f
cafe
3818
5556
1568
0148
cafe
3c00
5556
1568
017d
cafe
2010
5556
156c
0159
cafe
2409
5556
156c
018f
cafe
2819
5556
156c
016a
cafe
2c01
5556
156c
00e8
cafe
3011
5556
1570
0189
cafe
340a
5556
1570
01d8
cafe
381a
5556
1570
020a
cafe
3c02
5556
1570
01ce
cafe
2012
5556
1574
017b
cafe
240b
5556
1574
01d1
cafe
281b
5556
1574
0173
cafe
2c03
5556
1574
0175
cafe
3013
5556
1578
0209
cafe
340c
5556
1578
019d
cafe
381c
5556
1578
01c4
cafe
3c04
5556
1578
0146
cafe
2014
5556
157c
01f3
cafe
240d
5556
157c
01e4
cafe
281d
5556
157c
010d
cafe
2c05
5556
157c
01c1
cafe
3015
5556
1580
0174
cafe
340e
5556
1580
0167
cafe
381e
5556
1580
00cf
cafe
3c06
5556
1580
01d3
cafe
2016
5556
1584
016c
cafe
240f
5556
1584
01f5
cafe
281f
5556
1584
01a4
cafe
2c07
5556
1584
01b8
cafe
3017
5556
1588
018e
cafe
3408
5556
1588
0158
cafe
3818
5556
1588
013d
cafe
3c00
5556
1588
0172
cafe
2010
5556
158c
014c
cafe
2409
5556
158c
0189
cafe
2819
5556
158c
0183
cafe
2c01
5556
158c
00cd
cafe
3011
5556
1590
0181
cafe
340a
5556
1590
01c9
cafe
381a
5556
1590
01f3
cafe
3c02
5556
1590
01c5
cafe
2012
5556
1594
0171
cafe
240b
5556
1594
01c0
-
cafe
281b
5556
1594
0178
cafe
2c03
5556
1594
015c
cafe
3013
5556
1598
01ee
cafe
340c
5556
1598
01ad
cafe
381c
5556
1598
01b7
cafe
3c04
5556
1598
0147
cafe
2014
5556
159c
01d5
cafe
240d
5556
159c
01e9
cafe
281d
5556
159c
010e
cafe
2c05
5556
159c
01bf
cafe
3015
5556
15a0
0177
cafe
340e
5556
15a0
0160
cafe
381e
5556
15a0
00c9
cafe
3c06
5556
15a0
01c5
cafe
2016
5556
15a4
016a
cafe
240f
5556
15a4
01d7
cafe
281f
5556
15a4
01ab
cafe
2c07
5556
15a4
01b6
cafe
3017
5556
15a8
0177
cafe
3408
5556
15a8
0167
cafe
3818
5556
15a8
0129
cafe
3c00
5556
15a8
0172
cafe
2010
5556
15ac
0144
cafe
2409
5556
15ac
0179
cafe
2819
5556
15ac
0156
cafe
2c01
5556
15ac
00dd
cafe
3011
5556
15b0
017f
cafe
340a
5556
15b0
01b7
cafe
381a
5556
15b0
0200
cafe
3c02
5556
15b0
01c2
cafe
2012
5556
15b4
0171
cafe
240b
5556
15b4
01bc
cafe
281b
5556
15b4
015f
cafe
2c03
5556
15b4
0169
cafe
3013
5556
15b8
0203
cafe
340c
5556
15b8
01a5
cafe
381c
5556
15b8
01c0
cafe
3c04
5556
15b8
014b
cafe
2014
5556
15bc
01c9
cafe
240d
5556
15bc
01cb
cafe
281d
5556
15bc
010c
cafe
2c05
5556
15bc
01cc
cafe
3015
5556
15c0
0162
cafe
340e
5556
15c0
014d
cafe
381e
5556
15c0
00c0
cafe
3c06
5556
15c0
01c1
cafe
2016
5556
15c4
015b
cafe
240f
5556
15c4
01f8
cafe
281f
5556
15c4
01bf
cafe
2c07
5556
15c4
01c0
cafe
3017
5556
15c8
018d
cafe
-
