3014
0000
0000
0136
cafe
3414
0000
0000
0135
cafe
3814
0000
0000
0133
cafe
3c14
0000
0000
0136
cafe
2014
0000
0000
013a
cafe
2414
0000
0000
0138
cafe
2814
0000
0000
0135
cafe
2c14
0000
0000
0136
cafe
3014
0000
0000
0139
cafe
3414
0000
0000
0137
cafe
3814
0000
0000
0137
cafe
3c14
0000
0000
013a
cafe
2014
0000
0000
0138
cafe
2414
0000
0000
0134
cafe
2814
0000
0000
0134
cafe
2c14
0000
0000
0133
cafe
3014
0000
0000
012d
cafe
3414
0000
0000
012d
cafe
3814
0000
0000
012b
cafe
3c14
0000
0000
0129
cafe
2014
0000
0000
0128
cafe
2414
0000
0000
012d
cafe
2814
0000
0000
012f
cafe
2c14
0000
0000
012f
cafe
3014
0000
0000
0130
cafe
3414
0000
0000
0132
cafe
3814
0000
0000
0132
cafe
3c14
0000
0000
0132
cafe
2014
0000
0000
0131
cafe
2414
0000
0000
012d
cafe
2814
0000
0000
0132
cafe
2c14
0000
0000
0132
cafe
3014
0000
0000
012f
cafe
3414
0000
0000
0130
cafe
3814
0000
0000
012f
cafe
3c14
0000
0000
0131
cafe
2014
0000
0000
012d
cafe
2414
0000
0000
012b
cafe
2814
0000
0000
012b
cafe
2c14
0000
0000
012a
cafe
3014
0000
0000
0128
cafe
3414
0000
0000
012a
cafe
3814
0000
0000
012d
cafe
3c14
0000
0000
012c
cafe
2014
0000
0000
012a
cafe
2414
0000
0000
012b
cafe
2814
0000
0000
0131
cafe
2c14
0000
0000
0131
cafe
3014
0000
0000
0132
cafe
3414
0000
0000
0132
cafe
3814
0000
0000
0133
cafe
3c14
-
0000
0000
0131
cafe
2014
0000
0000
012f
cafe
2414
0000
0000
012d
cafe
2814
0000
0000
0130
cafe
2c14
0000
0000
0130
cafe
3014
0000
0000
0130
cafe
3414
0000
0000
0130
cafe
3814
0000
0000
012c
cafe
3c14
0000
0000
0130
cafe
2014
0000
0000
012e
cafe
2414
0000
0000
0130
cafe
2814
0000
0000
012f
cafe
2c14
0000
0000
012e
cafe
3014
0000
0000
012e
cafe
3414
0000
0000
0130
cafe
3814
0000
0000
012f
cafe
3c14
0000
0000
012d
cafe
2014
0000
0000
012c
cafe
2414
0000
0000
012c
cafe
2814
0000
0000
0130
cafe
2c14
0000
0000
0131
cafe
3014
0000
0000
0131
cafe
3414
0000
0000
0132
cafe
3814
0000
0000
012e
cafe
3c14
0000
0000
012f
cafe
2014
0000
0000
0131
cafe
2414
0000
0000
012d
cafe
2814
0000
0000
0132
cafe
2c14
0000
0000
012e
cafe
3014
0000
0000
012a
cafe
3414
0000
0000
012c
cafe
3814
0000
0000
012e
cafe
3c14
0000
0000
012f
cafe
2014
0000
0000
012f
cafe
2414
0000
0000
012e
cafe
2814
0000
0000
012d
cafe
2c14
0000
0000
012d
cafe
3014
0000
0000
012d
cafe
3414
0000
0000
012f
cafe
3814
0000
0000
0128
cafe
3c14
0000
0000
0129
cafe
2014
0000
0000
012a
cafe
2414
0000
0000
012b
cafe
2814
0000
0000
012c
cafe
2c14
0000
0000
012f
cafe
3014
0000
0000
012f
cafe
3414
0000
0000
012d
cafe
3814
0000
0000
012a
cafe
3c14
0000
0000
0128
cafe
2014
0000
0000
0125
cafe
2414
0000
0000
0128
cafe
2814
0000
-
0000
012e
cafe
2c14
0000
0000
0127
cafe
3014
0000
0000
012b
cafe
3414
0000
0000
012a
cafe
3814
0000
0000
0129
cafe
3c14
0000
0000
012c
cafe
2014
0000
0000
012b
cafe
2414
0000
0000
012a
cafe
2814
0000
0000
012a
cafe
2c14
0000
0000
012f
cafe
3014
0000
0000
012b
cafe
3414
0000
0000
012d
cafe
3814
0000
0000
012e
cafe
3c14
0000
0000
012f
cafe
2014
0000
0000
012f
cafe
2414
0000
0000
0130
cafe
2814
0000
0000
0131
cafe
2c14
0000
0000
0132
cafe
3014
0000
0000
0133
cafe
3414
0000
0000
0131
cafe
3814
0000
0000
012f
cafe
3c14
0000
0000
012e
cafe
2014
0000
0000
012d
cafe
2414
0000
0000
012b
cafe
2814
0000
0000
0129
cafe
2c14
0000
0000
012b
cafe
3014
0000
0000
012a
cafe
3414
0000
0000
012a
cafe
3814
0000
0000
012c
cafe
3c14
0000
0000
0127
cafe
2014
0000
0000
012c
cafe
2414
0000
0000
012d
cafe
2814
0000
0000
012a
cafe
2c14
0000
0000
012b
cafe
3014
0000
0000
012c
cafe
3414
0000
0000
012d
cafe
3814
0000
0000
012a
cafe
3c14
0000
0000
012c
cafe
2014
0000
0000
012d
cafe
2414
0000
0000
012c
cafe
2814
0000
0000
012b
cafe
2c14
0000
0000
012d
cafe
3014
0000
0000
012b
cafe
3414
0000
0000
012b
cafe
3814
0000
0000
0126
cafe
3c14
0000
0000
0129
cafe
2014
0000
0000
012b
cafe
2414
0000
0000
012b
cafe
2814
0000
0000
012f
cafe
2c14
0000
0000
012d
cafe
3014
0000
0000
012a
cafe
3414
0000
0000
-
012b
cafe
3814
0000
0000
012c
cafe
3c14
0000
0000
012e
cafe
2014
0000
0000
012e
cafe
2414
0000
0000
012c
cafe
2814
0000
0000
012d
cafe
2c14
0000
0000
0132
cafe
3014
0000
0000
0132
cafe
3414
0000
0000
0131
cafe
3814
0000
0000
0130
cafe
3c14
0000
0000
0132
cafe
2014
0000
0000
012a
cafe
2414
0000
0000
012e
cafe
2814
0000
0000
012e
cafe
2c14
0000
0000
0130
cafe
3014
0000
0000
0130
cafe
3414
0000
0000
0132
cafe
3814
0000
0000
012d
cafe
3c14
0000
0000
0130
cafe
2014
0000
0000
0131
cafe
2414
0000
0000
0133
cafe
2814
0000
0000
012f
cafe
2c14
0000
0000
012c
cafe
3014
0000
0000
012d
cafe
3414
0000
0000
012d
cafe
3814
0000
0000
0130
cafe
3c14
0000
0000
0130
cafe
2014
0000
0000
0130
cafe
2414
0000
0000
012d
cafe
2814
0000
0000
012d
cafe
2c14
0000
0000
012f
cafe
3014
0000
0000
012f
cafe
3414
0000
0000
0130
cafe
3814
0000
0000
0132
cafe
3c14
0000
0000
0134
cafe
2014
0000
0000
012f
cafe
2414
0000
0000
0130
cafe
2814
0000
0000
012f
cafe
2c14
0000
0000
0130
cafe
3014
0000
0000
0130
cafe
3414
0000
0000
0133
cafe
3814
0000
0000
0134
cafe
3c14
0000
0000
0134
cafe
2014
0000
0000
0132
cafe
2414
0000
0000
0134
cafe
2814
0000
0000
0131
cafe
2c14
0000
0000
0132
cafe
3014
0000
0000
0130
cafe
3414
0000
0000
0131
cafe
3814
0000
0000
0130
cafe
3c14
0000
0000
0136
cafe
2014
0000
0000
0139
-
cafe
2414
0000
0000
0135
cafe
2814
0000
0000
0134
cafe
2c14
0000
0000
0135
cafe
3014
0000
0000
0131
cafe
3414
0000
0000
0134
cafe
3814
0000
0000
0136
cafe
3c14
0000
0000
0131
cafe
2014
0000
0000
0132
cafe
2414
0000
0000
0133
cafe
2814
0000
0000
0130
cafe
2c14
0000
0000
0133
cafe
3014
0000
0000
0132
cafe
3414
0000
0000
0130
cafe
3814
0000
0000
012f
cafe
3c14
0000
0000
0130
cafe
2014
0000
0000
012e
cafe
2414
0000
0000
0130
cafe
2814
0000
0000
0133
cafe
2c14
0000
0000
0131
cafe
3014
0000
0000
0130
cafe
3414
0000
0000
0133
cafe
3814
0000
0000
0134
cafe
3c14
0000
0000
0133
cafe
2014
0000
0000
0138
cafe
2414
0000
0000
0135
cafe
2814
0000
0000
0137
cafe
2c14
0000
0000
0137
cafe
3014
0000
0000
0135
cafe
3414
0000
0000
0136
cafe
3814
0000
0000
0135
cafe
3c14
0000
0000
0137
cafe
2014
0000
0000
0136
cafe
2414
0000
0000
0135
cafe
2814
0000
0000
0137
cafe
2c14
0000
0000
0139
cafe
3014
0000
0000
0135
cafe
3414
0000
0000
0133
cafe
3814
0000
0000
0130
cafe
3c14
0000
0000
0133
cafe
2014
0000
0000
0132
cafe
2414
0000
0000
0134
cafe
2814
0000
0000
0138
cafe
2c14
0000
0000
0138
cafe
3014
0000
0000
0137
cafe
3414
0000
0000
0137
cafe
3814
0000
0000
0134
cafe
3c14
0000
0000
0134
cafe
2014
0000
0000
0133
cafe
2414
0000
0000
0134
cafe
2814
0000
0000
0133
cafe
2c14
0000
0000
0136
cafe
-
3014
0000
0000
0133
cafe
3414
0000
0000
0135
cafe
3814
0000
0000
0130
cafe
3c14
0000
0000
0133
cafe
2014
0000
0000
0137
cafe
2414
0000
0000
0134
cafe
2814
0000
0000
0133
cafe
2c14
0000
0000
0131
cafe
3014
0000
0000
0131
cafe
3414
0000
0000
0133
cafe
3814
0000
0000
0131
cafe
3c14
0000
0000
0130
cafe
2014
0000
0000
0133
cafe
2414
0000
0000
0134
cafe
2814
0000
0000
0132
cafe
2c14
0000
0000
0133
cafe
3014
0000
0000
012e
cafe
3414
0000
0000
012f
cafe
3814
0000
0000
012f
cafe
3c14
0000
0000
012e
cafe
2014
0000
0000
0130
cafe
2414
0000
0000
012b
cafe
2814
0000
0000
012a
cafe
2c14
0000
0000
012e
cafe
3014
0000
0000
012f
cafe
3414
0000
0000
012d
cafe
3814
0000
0000
012c
cafe
3c14
0000
0000
012c
cafe
2014
0000
0000
012d
cafe
2414
0000
0000
012b
cafe
2814
0000
0000
012e
cafe
2c14
0000
0000
012a
cafe
3014
0000
0000
012d
cafe
3414
0000
0000
0129
cafe
3814
0000
0000
012d
cafe
3c14
0000
0000
012d
cafe
2014
0000
0000
012f
cafe
2414
0000
0000
012f
cafe
2814
0000
0000
0132
cafe
2c14
0000
0000
0134
cafe
3014
0000
0000
012f
cafe
3414
0000
0000
0132
cafe
3814
0000
0000
0136
cafe
3c14
0000
0000
0137
cafe
2014
0000
0000
0133
cafe
2414
0000
0000
0131
cafe
2814
0000
0000
012f
cafe
2c14
0000
0000
012f
cafe
3014
0000
0000
0130
cafe
3414
0000
0000
0131
cafe
3814
0000
0000
012f
cafe
3c14
-
0000
0000
012d
cafe
2014
0000
0000
012e
cafe
2414
0000
0000
0130
cafe
2814
0000
0000
012f
cafe
2c14
0000
0000
012c
cafe
3014
0000
0000
012f
cafe
3414
0000
0000
0131
cafe
3814
0000
0000
012e
cafe
3c14
0000
0000
0131
cafe
2014
0000
0000
0132
cafe
2414
0000
0000
0138
cafe
2814
0000
0000
0137
cafe
2c14
0000
0000
0137
cafe
3014
0000
0000
0137
cafe
3414
0000
0000
013b
cafe
3814
0000
0000
0138
cafe
3c14
0000
0000
0139
cafe
2014
0000
0000
0137
cafe
2414
0000
0000
0139
cafe
2814
0000
0000
013b
cafe
2c14
0000
0000
013a
cafe
3014
0000
0000
0138
cafe
3414
0000
0000
0137
cafe
3814
0000
0000
013b
cafe
3c14
0000
0000
0136
cafe
2014
0000
0000
0135
cafe
2414
0000
0000
0134
cafe
2814
0000
0000
0133
cafe
2c14
0000
0000
012f
cafe
3014
0000
0000
012c
cafe
3414
0000
0000
012d
cafe
3814
0000
0000
012c
cafe
3c14
0000
0000
012b
cafe
2014
0000
0000
012c
cafe
2414
0000
0000
012e
cafe
2814
0000
0000
012c
cafe
2c14
0000
0000
0133
cafe
3014
0000
0000
012c
cafe
3414
0000
0000
012d
cafe
3814
0000
0000
012f
cafe
3c14
0000
0000
012f
cafe
2014
0000
0000
012f
cafe
2414
0000
0000
0132
cafe
2814
0000
0000
0134
cafe
2c14
0000
0000
012e
cafe
3014
0000
0000
0131
cafe
3414
0000
0000
0133
cafe
3814
0000
0000
0130
cafe
3c14
0000
0000
0131
cafe
2014
0000
0000
0131
cafe
2414
0000
0000
0134
cafe
2814
0000
-
0000
0136
cafe
2c14
0000
0000
0134
cafe
3014
0000
0000
0133
cafe
3414
0000
0000
0133
cafe
3814
0000
0000
012f
cafe
3c14
0000
0000
0132
cafe
2014
0000
0000
012e
cafe
2414
0000
0000
012d
cafe
2814
0000
0000
012f
cafe
2c14
0000
0000
012f
cafe
3014
0000
0000
0130
cafe
3414
0000
0000
012d
cafe
3814
0000
0000
0130
cafe
3c14
0000
0000
0130
cafe
2014
0000
0000
012e
cafe
2414
0000
0000
012e
cafe
2814
0000
0000
012e
cafe
2c14
0000
0000
0132
cafe
3014
0000
0000
0130
cafe
3414
0000
0000
0132
cafe
3814
0000
0000
0132
cafe
3c14
0000
0000
0130
cafe
2014
0000
0000
012f
cafe
2414
0000
0000
012c
cafe
2814
0000
0000
012f
cafe
2c14
0000
0000
0131
cafe
3014
0000
0000
0131
cafe
3414
0000
0000
0137
cafe
3814
0000
0000
0136
cafe
3c14
0000
0000
0137
cafe
2014
0000
0000
0134
cafe
2414
0000
0000
0131
cafe
2814
0000
0000
0130
cafe
2c14
0000
0000
0132
cafe
3014
0000
0000
0131
cafe
3414
0000
0000
0132
cafe
3814
0000
0000
0132
cafe
3c14
0000
0000
012f
cafe
2014
0000
0000
0131
cafe
2414
0000
0000
0133
cafe
2814
0000
0000
0130
cafe
2c14
0000
0000
012d
cafe
3014
0000
0000
012d
cafe
3414
0000
0000
012e
cafe
3814
0000
0000
0131
cafe
3c14
0000
0000
0131
cafe
2014
0000
0000
0131
cafe
2414
0000
0000
012f
cafe
2814
0000
0000
0131
cafe
2c14
0000
0000
012f
cafe
3014
0000
0000
0131
cafe
3414
0000
0000
-
0134
cafe
3814
0000
0000
0132
cafe
3c14
0000
0000
0130
cafe
2014
0000
0000
0132
cafe
2414
0000
0000
0135
cafe
2814
0000
0000
0132
cafe
2c14
0000
0000
0137
cafe
3014
0000
0000
0135
cafe
3414
0000
0000
0130
cafe
3814
0000
0000
0137
cafe
3c14
0000
0000
0132
cafe
2014
0000
0000
0134
cafe
2414
0000
0000
0135
cafe
2814
0000
0000
0133
cafe
2c14
0000
0000
0134
cafe
3014
0000
0000
0132
cafe
3414
0000
0000
0133
cafe
3814
0000
0000
0132
cafe
3c14
0000
0000
012a
cafe
2014
0000
0000
012d
cafe
2414
0000
0000
012a
cafe
2814
0000
0000
012b
cafe
2c14
0000
0000
012e
cafe
3014
0000
0000
012d
cafe
3414
0000
0000
0129
cafe
3814
0000
0000
0127
cafe
3c14
0000
0000
012a
cafe
2014
0000
0000
012e
cafe
2414
0000
0000
012b
cafe
2814
0000
0000
012c
cafe
2c14
0000
0000
0129
cafe
3014
0000
0000
0128
cafe
3414
0000
0000
0128
cafe
3814
0000
0000
0128
cafe
3c14
0000
0000
0126
cafe
2014
0000
0000
012d
cafe
2414
0000
0000
012f
cafe
2814
0000
0000
012f
cafe
2c14
0000
0000
0131
cafe
3014
0000
0000
012f
cafe
3414
0000
0000
012f
cafe
3814
0000
0000
0130
cafe
3c14
0000
0000
0134
cafe
2014
0000
0000
0130
cafe
2414
0000
0000
012e
cafe
2814
0000
0000
0131
cafe
2c14
0000
0000
0132
cafe
3014
0000
0000
0132
cafe
3414
0000
0000
0133
cafe
3814
0000
0000
0132
cafe
3c14
0000
0000
0135
cafe
2014
0000
0000
0133
-
cafe
2414
0000
0000
012e
cafe
2814
0000
0000
0131
cafe
2c14
0000
0000
012f
cafe
3014
0000
0000
012f
cafe
3414
0000
0000
012d
cafe
3814
0000
0000
012e
cafe
3c14
0000
0000
012c
cafe
2014
0000
0000
012c
cafe
2414
0000
0000
012f
cafe
2814
0000
0000
0130
cafe
2c14
0000
0000
0130
cafe
3014
0000
0000
0131
cafe
3414
0000
0000
0132
cafe
3814
0000
0000
0130
cafe
3c14
0000
0000
0130
cafe
2014
0000
0000
012d
cafe
2414
0000
0000
012b
cafe
2814
0000
0000
012b
cafe
2c14
0000
0000
0132
cafe
3014
0000
0000
012f
cafe
3414
0000
0000
012f
cafe
3814
0000
0000
012f
cafe
3c14
0000
0000
012d
cafe
2014
0000
0000
012f
cafe
2414
0000
0000
012e
cafe
2814
0000
0000
012d
cafe
2c14
0000
0000
012e
cafe
3014
0000
0000
012a
cafe
3414
0000
0000
012b
cafe
3814
0000
0000
012e
cafe
3c14
0000
0000
0130
cafe
2014
0000
0000
0130
cafe
2414
0000
0000
012e
cafe
2814
0000
0000
012f
cafe
2c14
0000
0000
012e
cafe
3014
0000
0000
0133
cafe
3414
0000
0000
0131
cafe
3814
0000
0000
0136
cafe
3c14
0000
0000
0133
cafe
2014
0000
0000
0133
cafe
2414
0000
0000
0137
cafe
2814
0000
0000
0134
cafe
2c14
0000
0000
0136
cafe
3014
0000
0000
0132
cafe
3414
0000
0000
0136
cafe
3814
0000
0000
0132
cafe
3c14
0000
0000
012f
cafe
2014
0000
0000
0130
cafe
2414
0000
0000
0131
cafe
2814
0000
0000
0131
cafe
2c14
0000
0000
0132
cafe
-
3014
0000
0000
0133
cafe
3414
0000
0000
012f
cafe
3814
0000
0000
0132
cafe
3c14
0000
0000
0131
cafe
2014
0000
0000
0130
cafe
2414
0000
0000
012f
cafe
2814
0000
0000
012f
cafe
2c14
0000
0000
0130
cafe
3014
0000
0000
012b
cafe
3414
0000
0000
0129
cafe
3814
0000
0000
012c
cafe
3c14
0000
0000
012f
cafe
2014
0000
0000
012c
cafe
2414
0000
0000
012a
cafe
2814
0000
0000
012c
cafe
2c14
0000
0000
012d
cafe
3014
0000
0000
012f
cafe
3414
0000
0000
012f
cafe
3814
0000
0000
0130
cafe
3c14
0000
0000
0130
cafe
2014
0000
0000
0131
cafe
2414
0000
0000
0133
cafe
2814
0000
0000
0132
cafe
2c14
0000
0000
0131
cafe
3014
0000
0000
0137
cafe
3414
0000
0000
0132
cafe
3814
0000
0000
0131
cafe
3c14
0000
0000
0134
cafe
2014
0000
0000
0130
cafe
2414
0000
0000
0133
cafe
2814
0000
0000
0135
cafe
2c14
0000
0000
0135
cafe
3014
0000
0000
0132
cafe
3414
0000
0000
0134
cafe
3814
0000
0000
0137
cafe
3c14
0000
0000
0137
cafe
2014
0000
0000
0135
cafe
2414
0000
0000
0134
cafe
2814
0000
0000
0136
cafe
2c14
0000
0000
0138
cafe
3014
0000
0000
0138
cafe
3414
0000
0000
0137
cafe
3814
0000
0000
0138
cafe
3c14
0000
0000
0134
cafe
2014
0000
0000
0137
cafe
2414
0000
0000
0133
cafe
2814
0000
0000
0134
cafe
2c14
0000
0000
0137
cafe
3014
0000
0000
0135
cafe
3414
0000
0000
0134
cafe
3814
0000
0000
0135
cafe
3c14
-
0000
0000
0136
cafe
2014
0000
0000
0134
cafe
2414
0000
0000
0131
cafe
2814
0000
0000
0135
cafe
2c14
0000
0000
0135
cafe
3014
0000
0000
0136
cafe
3414
0000
0000
0134
cafe
3814
0000
0000
0132
cafe
3c14
0000
0000
0138
cafe
2014
0000
0000
0137
cafe
2414
0000
0000
0138
cafe
2814
0000
0000
0135
cafe
2c14
0000
0000
0135
cafe
3014
0000
0000
0132
cafe
3414
0000
0000
0131
cafe
3814
0000
0000
0134
cafe
3c14
0000
0000
0133
cafe
2014
0000
0000
0133
cafe
2414
0000
0000
0135
cafe
2814
0000
0000
0137
cafe
2c14
0000
0000
0131
cafe
3014
0000
0000
0131
cafe
3414
0000
0000
0133
cafe
3814
0000
0000
0132
cafe
3c14
0000
0000
0134
cafe
2014
0000
0000
0138
cafe
2414
0000
0000
0136
cafe
2814
0000
0000
0133
cafe
2c14
0000
0000
013a
cafe
3014
0000
0000
0137
cafe
3414
0000
0000
0138
cafe
3814
0000
0000
0139
cafe
3c14
0000
0000
0138
cafe
2014
0000
0000
013d
cafe
2414
0000
0000
013d
cafe
2814
0000
0000
013e
cafe
2c14
0000
0000
013f
cafe
3014
0000
0000
013e
cafe
3414
0000
0000
013a
cafe
3814
0000
0000
013a
cafe
3c14
0000
0000
013e
cafe
2014
0000
0000
013f
cafe
2414
0000
0000
013c
cafe
2814
0000
0000
013c
cafe
2c14
0000
0000
0140
cafe
3014
0000
0000
013d
cafe
3414
0000
0000
013c
cafe
3814
0000
0000
0138
cafe
3c14
0000
0000
0139
cafe
2014
0000
0000
013a
cafe
2414
0000
0000
0138
cafe
2814
0000
-
0000
0133
cafe
2c14
0000
0000
0136
cafe
3014
0000
0000
0136
cafe
3414
0000
0000
013a
cafe
3814
0000
0000
0139
cafe
3c14
0000
0000
013c
cafe
2014
0000
0000
013a
cafe
2414
0000
0000
013b
cafe
2814
0000
0000
013c
cafe
2c14
0000
0000
0137
cafe
3014
0000
0000
0139
cafe
3414
0000
0000
013a
cafe
3814
0000
0000
0138
cafe
3c14
0000
0000
0139
cafe
2014
0000
0000
0136
cafe
2414
0000
0000
0133
cafe
2814
0000
0000
012e
cafe
2c14
0000
0000
0130
cafe
3014
0000
0000
012e
cafe
3414
0000
0000
0130
cafe
3814
0000
0000
0130
cafe
3c14
0000
0000
012f
cafe
2014
0000
0000
0136
cafe
2414
0000
0000
0137
cafe
2814
0000
0000
0137
cafe
2c14
0000
0000
0136
cafe
3014
0000
0000
0134
cafe
3414
0000
0000
0133
cafe
3814
0000
0000
0132
cafe
3c14
0000
0000
0136
cafe
2014
0000
0000
0132
cafe
2414
0000
0000
0134
cafe
2814
0000
0000
0135
cafe
2c14
0000
0000
0133
cafe
3014
0000
0000
0133
cafe
3414
0000
0000
0131
cafe
3814
0000
0000
0132
cafe
3c14
0000
0000
0132
cafe
2014
0000
0000
0134
cafe
2414
0000
0000
0134
cafe
2814
0000
0000
0135
cafe
2c14
0000
0000
0134
cafe
3014
0000
0000
0135
cafe
3414
0000
0000
0134
cafe
3814
0000
0000
0136
cafe
3c14
0000
0000
0135
cafe
2014
0000
0000
0138
cafe
2414
0000
0000
0135
cafe
2814
0000
0000
0136
cafe
2c14
0000
0000
0136
cafe
3014
0000
0000
0137
cafe
3414
0000
0000
-
0133
cafe
3814
0000
0000
0134
cafe
3c14
0000
0000
013a
cafe
2014
0000
0000
0133
cafe
2414
0000
0000
012e
cafe
2814
0000
0000
012f
cafe
2c14
0000
0000
0133
cafe
3014
0000
0000
0132
cafe
3414
0000
0000
0133
cafe
3814
0000
0000
0134
cafe
3c14
0000
0000
0137
cafe
2014
0000
0000
0137
cafe
2414
0000
0000
013a
cafe
2814
0000
0000
0139
cafe
2c14
0000
0000
0139
cafe
3014
0000
0000
013c
cafe
3414
0000
0000
0139
cafe
3814
0000
0000
0134
cafe
3c14
0000
0000
0136
cafe
2014
0000
0000
0131
cafe
2414
0000
0000
012f
cafe
2814
0000
0000
012d
cafe
2c14
0000
0000
0131
cafe
3014
0000
0000
0130
cafe
3414
0000
0000
012e
cafe
3814
0000
0000
012c
cafe
3c14
0000
0000
012d
cafe
2014
0000
0000
012b
cafe
2414
0000
0000
012a
cafe
2814
0000
0000
0129
cafe
2c14
0000
0000
012a
cafe
3014
0000
0000
012f
cafe
3414
0000
0000
012a
cafe
3814
0000
0000
012d
cafe
3c14
0000
0000
012c
cafe
2014
0000
0000
012b
cafe
2414
0000
0000
012d
cafe
2814
0000
0000
012c
cafe
2c14
0000
0000
0130
cafe
3014
0000
0000
0131
cafe
3414
0000
0000
0137
cafe
3814
0000
0000
0134
cafe
3c14
0000
0000
0131
cafe
2014
0000
0000
0133
cafe
2414
0000
0000
0133
cafe
2814
0000
0000
012f
cafe
2c14
0000
0000
012d
cafe
3014
0000
0000
012b
cafe
3414
0000
0000
0129
cafe
3814
0000
0000
012c
cafe
3c14
0000
0000
0129
cafe
2014
0000
0000
0127
-
cafe
2414
0000
0000
0129
cafe
2814
0000
0000
012c
cafe
2c14
0000
0000
012d
cafe
3014
0000
0000
012b
cafe
3414
0000
0000
012c
cafe
3814
0000
0000
0128
cafe
3c14
0000
0000
0127
cafe
2014
0000
0000
012b
cafe
2414
0000
0000
012c
cafe
2814
0000
0000
0127
cafe
2c14
0000
0000
012f
cafe
3014
0000
0000
012d
cafe
3414
0000
0000
012c
cafe
3814
0000
0000
012c
cafe
3c14
0000
0000
012a
cafe
2014
0000
0000
012e
cafe
2414
0000
0000
0130
cafe
2814
0000
0000
0129
cafe
2c14
0000
0000
012c
cafe
3014
0000
0000
012c
cafe
3414
0000
0000
012d
cafe
3814
0000
0000
012e
cafe
3c14
0000
0000
012f
cafe
2014
0000
0000
012d
cafe
2414
0000
0000
012c
cafe
2814
0000
0000
0130
cafe
2c14
0000
0000
012d
cafe
3014
0000
0000
012c
cafe
3414
0000
0000
012b
cafe
3814
0000
0000
012e
cafe
3c14
0000
0000
012f
cafe
2014
0000
0000
012e
cafe
2414
0000
0000
012e
cafe
2814
0000
0000
012d
cafe
2c14
0000
0000
012f
cafe
3014
0000
0000
0130
cafe
3414
0000
0000
012f
cafe
3814
0000
0000
0133
cafe
3c14
0000
0000
012f
cafe
2014
0000
0000
0130
cafe
2414
0000
0000
0130
cafe
2814
0000
0000
012e
cafe
2c14
0000
0000
0131
cafe
3014
0000
0000
0132
cafe
3414
0000
0000
012e
cafe
3814
0000
0000
012b
cafe
3c14
0000
0000
0126
cafe
2014
0000
0000
0125
cafe
2414
0000
0000
0128
cafe
2814
0000
0000
012e
cafe
2c14
0000
0000
0130
cafe
-
3014
0000
0000
012f
cafe
3414
0000
0000
012f
cafe
3814
0000
0000
0130
cafe
3c14
0000
0000
012e
cafe
2014
0000
0000
012f
cafe
2414
0000
0000
0133
cafe
2814
0000
0000
0134
cafe
2c14
0000
0000
0130
cafe
3014
0000
0000
0134
cafe
3414
0000
0000
0134
cafe
3814
0000
0000
0132
cafe
3c14
0000
0000
0131
cafe
2014
0000
0000
012e
cafe
2414
0000
0000
012e
cafe
2814
0000
0000
012e
cafe
2c14
0000
0000
012c
cafe
3014
0000
0000
0127
cafe
3414
0000
0000
012a
cafe
3814
0000
0000
0129
cafe
3c14
0000
0000
0130
cafe
2014
0000
0000
0131
cafe
2414
0000
0000
0135
cafe
2814
0000
0000
0132
cafe
2c14
0000
0000
0132
cafe
3014
0000
0000
0135
cafe
3414
0000
0000
0133
cafe
3814
0000
0000
0132
cafe
3c14
0000
0000
0131
cafe
2014
0000
0000
012f
cafe
2414
0000
0000
0132
cafe
2814
0000
0000
0132
cafe
2c14
0000
0000
0134
cafe
3014
0000
0000
0132
cafe
3414
0000
0000
0133
cafe
3814
0000
0000
0134
cafe
3c14
0000
0000
0133
cafe
2014
0000
0000
012e
cafe
2414
0000
0000
0131
cafe
2814
0000
0000
012f
cafe
2c14
0000
0000
012e
cafe
3014
0000
0000
012b
cafe
3414
0000
0000
0131
cafe
3814
0000
0000
0131
cafe
3c14
0000
0000
012f
cafe
2014
0000
0000
0133
cafe
2414
0000
0000
0131
cafe
2814
0000
0000
0130
cafe
2c14
0000
0000
012d
cafe
3014
0000
0000
012f
cafe
3414
0000
0000
0131
cafe
3814
0000
0000
0132
cafe
3c14
-
0000
0000
0130
cafe
2014
0000
0000
0130
cafe
2414
0000
0000
0131
cafe
2814
0000
0000
0130
cafe
2c14
0000
0000
0136
cafe
3014
0000
0000
0130
cafe
3414
0000
0000
0134
cafe
3814
0000
0000
0132
cafe
3c14
0000
0000
0130
cafe
2014
0000
0000
0132
cafe
2414
0000
0000
0132
cafe
2814
0000
0000
012e
cafe
2c14
0000
0000
0131
cafe
3014
0000
0000
0130
cafe
3414
0000
0000
012e
cafe
3814
0000
0000
012a
cafe
3c14
0000
0000
012d
cafe
2014
0000
0000
012d
cafe
2414
0000
0000
012f
cafe
2814
0000
0000
012c
cafe
2c14
0000
0000
0130
cafe
3014
0000
0000
012c
cafe
3414
0000
0000
012b
cafe
3814
0000
0000
012e
cafe
3c14
0000
0000
012c
cafe
2014
0000
0000
012c
cafe
2414
0000
0000
0129
cafe
2814
0000
0000
012c
cafe
2c14
0000
0000
0130
cafe
3014
0000
0000
012e
cafe
3414
0000
0000
012f
cafe
3814
0000
0000
012c
cafe
3c14
0000
0000
012c
cafe
2014
0000
0000
012e
cafe
2414
0000
0000
012e
cafe
2814
0000
0000
012e
cafe
2c14
0000
0000
0133
cafe
3014
0000
0000
0133
cafe
3414
0000
0000
0134
cafe
3814
0000
0000
0134
cafe
3c14
0000
0000
0137
cafe
2014
0000
0000
0134
cafe
2414
0000
0000
0132
cafe
2814
0000
0000
0132
cafe
2c14
0000
0000
0132
cafe
3014
0000
0000
0132
cafe
3414
0000
0000
0133
cafe
3814
0000
0000
0136
cafe
3c14
0000
0000
0135
cafe
2014
0000
0000
0134
cafe
2414
0000
0000
0136
cafe
2814
0000
-
0000
0133
cafe
2c14
0000
0000
0134
cafe
3014
0000
0000
0136
cafe
3414
0000
0000
0136
cafe
3814
0000
0000
0132
cafe
3c14
0000
0000
012f
cafe
2014
0000
0000
0131
cafe
2414
0000
0000
0130
cafe
2814
0000
0000
0133
cafe
2c14
0000
0000
0134
cafe
3014
0000
0000
0137
cafe
3414
0000
0000
0133
cafe
3814
0000
0000
0134
cafe
3c14
0000
0000
0131
cafe
2014
0000
0000
0133
cafe
2414
0000
0000
012f
cafe
2814
0000
0000
012c
cafe
2c14
0000
0000
012e
cafe
3014
0000
0000
012d
cafe
3414
0000
0000
0130
cafe
3814
0000
0000
012e
cafe
3c14
0000
0000
0132
cafe
2014
0000
0000
0135
cafe
2414
0000
0000
0134
cafe
2814
0000
0000
0130
cafe
2c14
0000
0000
0132
cafe
3014
0000
0000
0131
cafe
3414
0000
0000
0134
cafe
3814
0000
0000
0132
cafe
3c14
0000
0000
0135
cafe
2014
0000
0000
0132
cafe
2414
0000
0000
0133
cafe
2814
0000
0000
0133
cafe
2c14
0000
0000
0133
cafe
3014
0000
0000
0134
cafe
3414
0000
0000
0133
cafe
3814
0000
0000
0131
cafe
3c14
0000
0000
0132
cafe
2014
0000
0000
0134
cafe
2414
0000
0000
0130
cafe
2814
0000
0000
0130
cafe
2c14
0000
0000
0134
cafe
3014
0000
0000
0130
cafe
3414
0000
0000
0131
cafe
3814
0000
0000
012f
cafe
3c14
0000
0000
0133
cafe
2014
0000
0000
0132
cafe
2414
0000
0000
0132
cafe
2814
0000
0000
0133
cafe
2c14
0000
0000
012e
cafe
3014
0000
0000
0129
cafe
3414
0000
0000
-
0129
cafe
3814
0000
0000
012d
cafe
3c14
0000
0000
012e
cafe
2014
0000
0000
0130
cafe
2414
0000
0000
012e
cafe
2814
0000
0000
0130
cafe
2c14
0000
0000
0130
cafe
3014
0000
0000
0131
cafe
3414
0000
0000
012f
cafe
3814
0000
0000
012e
cafe
3c14
0000
0000
012d
cafe
2014
0000
0000
012d
cafe
2414
0000
0000
012d
cafe
2814
0000
0000
012c
cafe
2c14
0000
0000
0127
cafe
3014
0000
0000
012a
cafe
3414
0000
0000
0129
cafe
3814
0000
0000
0128
cafe
3c14
0000
0000
012a
cafe
2014
0000
0000
0129
cafe
2414
0000
0000
012b
cafe
2814
0000
0000
012d
cafe
2c14
0000
0000
012c
cafe
3014
0000
0000
012b
cafe
3414
0000
0000
012d
cafe
3814
0000
0000
012b
cafe
3c14
0000
0000
0132
cafe
2014
0000
0000
0131
cafe
2414
0000
0000
0131
cafe
2814
0000
0000
0131
cafe
2c14
0000
0000
0131
cafe
3014
0000
0000
0133
cafe
3414
0000
0000
0132
cafe
3814
0000
0000
0135
cafe
3c14
0000
0000
0135
cafe
2014
0000
0000
0131
cafe
2414
0000
0000
0131
cafe
2814
0000
0000
0131
cafe
2c14
0000
0000
012e
cafe
3014
0000
0000
012e
cafe
3414
0000
0000
0131
cafe
3814
0000
0000
0130
cafe
3c14
0000
0000
0132
cafe
2014
0000
0000
0133
cafe
2414
0000
0000
0132
cafe
2814
0000
0000
0135
cafe
2c14
0000
0000
0136
cafe
3014
0000
0000
0133
cafe
3414
0000
0000
0133
cafe
3814
0000
0000
0133
cafe
3c14
0000
0000
0131
cafe
2014
0000
0000
0132
-
cafe
2414
0000
0000
0131
cafe
2814
0000
0000
0131
cafe
2c14
0000
0000
0130
cafe
3014
0000
0000
012b
cafe
3414
0000
0000
0128
cafe
3814
0000
0000
0127
cafe
3c14
0000
0000
012a
cafe
2014
0000
0000
012b
cafe
2414
0000
0000
012c
cafe
2814
0000
0000
012b
cafe
2c14
0000
0000
0127
cafe
3014
0000
0000
0128
cafe
3414
0000
0000
012b
cafe
3814
0000
0000
012c
cafe
3c14
0000
0000
012d
cafe
2014
0000
0000
012c
cafe
2414
0000
0000
0132
cafe
2814
0000
0000
0134
cafe
2c14
0000
0000
0134
cafe
3014
0000
0000
012e
cafe
3414
0000
0000
012e
cafe
3814
0000
0000
0130
cafe
3c14
0000
0000
0129
cafe
2014
0000
0000
012b
cafe
2414
0000
0000
012e
cafe
2814
0000
0000
012f
cafe
2c14
0000
0000
0130
cafe
3014
0000
0000
012d
cafe
3414
0000
0000
012c
cafe
3814
0000
0000
0129
cafe
3c14
0000
0000
0129
cafe
2014
0000
0000
0129
cafe
2414
0000
0000
012a
cafe
2814
0000
0000
012c
cafe
2c14
0000
0000
012f
cafe
3014
0000
0000
012e
cafe
3414
0000
0000
0132
cafe
3814
0000
0000
0132
cafe
3c14
0000
0000
0134
cafe
2014
0000
0000
0132
cafe
2414
0000
0000
012f
cafe
2814
0000
0000
012f
cafe
2c14
0000
0000
012d
cafe
3014
0000
0000
012c
cafe
3414
0000
0000
0132
cafe
3814
0000
0000
0132
cafe
3c14
0000
0000
0133
cafe
2014
0000
0000
0133
cafe
2414
0000
0000
0131
cafe
2814
0000
0000
0132
cafe
2c14
0000
0000
0133
cafe
-
3014
0000
0000
0132
cafe
3414
0000
0000
0134
cafe
3814
0000
0000
0136
cafe
3c14
0000
0000
0136
cafe
2014
0000
0000
0135
cafe
2414
0000
0000
0134
cafe
2814
0000
0000
0132
cafe
2c14
0000
0000
0132
cafe
3014
0000
0000
0132
cafe
3414
0000
0000
0132
cafe
3814
0000
0000
0134
cafe
3c14
0000
0000
0131
cafe
2014
0000
0000
0134
cafe
2414
0000
0000
0131
cafe
2814
0000
0000
0131
cafe
2c14
0000
0000
0131
cafe
3014
0000
0000
0130
cafe
3414
0000
0000
012e
cafe
3814
0000
0000
0130
cafe
3c14
0000
0000
0133
cafe
2014
0000
0000
0131
cafe
2414
0000
0000
0133
cafe
2814
0000
0000
0131
cafe
2c14
0000
0000
0133
cafe
3014
0000
0000
0130
cafe
3414
0000
0000
0132
cafe
3814
0000
0000
0132
cafe
3c14
0000
0000
0135
cafe
2014
0000
0000
0134
cafe
2414
0000
0000
0132
cafe
2814
0000
0000
0132
cafe
2c14
0000
0000
0132
cafe
3014
0000
0000
0131
cafe
3414
0000
0000
0131
cafe
3814
0000
0000
012d
cafe
3c14
0000
0000
012e
cafe
2014
0000
0000
012e
cafe
2414
0000
0000
0130
cafe
2814
0000
0000
0130
cafe
2c14
0000
0000
0132
cafe
3014
0000
0000
012d
cafe
3414
0000
0000
012a
cafe
3814
0000
0000
012b
cafe
3c14
0000
0000
0129
cafe
2014
0000
0000
012e
cafe
2414
0000
0000
012d
cafe
2814
0000
0000
012c
cafe
2c14
0000
0000
012d
cafe
3014
0000
0000
012c
cafe
3414
0000
0000
012f
cafe
3814
0000
0000
0132
cafe
3c14
-
0000
0000
0130
cafe
2014
0000
0000
012d
cafe
2414
0000
0000
012f
cafe
2814
0000
0000
0129
cafe
2c14
0000
0000
012c
cafe
3014
0000
0000
012d
cafe
3414
0000
0000
012a
cafe
3814
0000
0000
0129
cafe
3c14
0000
0000
012a
cafe
2014
0000
0000
0129
cafe
2414
0000
0000
012a
cafe
2814
0000
0000
012a
cafe
2c14
0000
0000
012a
cafe
3014
0000
0000
012a
cafe
3414
0000
0000
012a
cafe
3814
0000
0000
012d
cafe
3c14
0000
0000
012c
cafe
2014
0000
0000
012b
cafe
2414
0000
0000
012e
cafe
2814
0000
0000
012e
cafe
2c14
0000
0000
0131
cafe
3014
0000
0000
012d
cafe
3414
0000
0000
012d
cafe
3814
0000
0000
0130
cafe
3c14
0000
0000
012f
cafe
2014
0000
0000
0131
cafe
2414
0000
0000
0134
cafe
2814
0000
0000
0131
cafe
2c14
0000
0000
012e
cafe
3014
0000
0000
0131
cafe
3414
0000
0000
0133
cafe
3814
0000
0000
0130
cafe
3c14
0000
0000
012f
cafe
2014
0000
0000
012e
cafe
2414
0000
0000
0131
cafe
2814
0000
0000
012e
cafe
2c14
0000
0000
012c
cafe
3014
0000
0000
012b
cafe
3414
0000
0000
0129
cafe
3814
0000
0000
0127
cafe
3c14
0000
0000
0128
cafe
2014
0000
0000
0129
cafe
2414
0000
0000
0125
cafe
2814
0000
0000
0123
cafe
2c14
0000
0000
0126
cafe
3014
0000
0000
0127
cafe
3414
0000
0000
012b
cafe
3814
0000
0000
012d
cafe
3c14
0000
0000
012e
cafe
2014
0000
0000
0130
cafe
2414
0000
0000
012d
cafe
2814
0000
-
0000
0130
cafe
2c14
0000
0000
0130
cafe
3014
0000
0000
012f
cafe
3414
0000
0000
012d
cafe
3814
0000
0000
0131
cafe
3c14
0000
0000
0132
cafe
2014
0000
0000
0131
cafe
2414
0000
0000
0131
cafe
2814
0000
0000
0132
cafe
2c14
0000
0000
0135
cafe
3014
0000
0000
012c
cafe
3414
0000
0000
012c
cafe
3814
0000
0000
0129
cafe
3c14
0000
0000
012b
cafe
2014
0000
0000
0129
cafe
2414
0000
0000
012f
cafe
2814
0000
0000
012f
cafe
2c14
0000
0000
012e
cafe
3014
0000
0000
012c
cafe
3414
0000
0000
012e
cafe
3814
0000
0000
0131
cafe
3c14
0000
0000
012f
cafe
2014
0000
0000
0131
cafe
2414
0000
0000
0133
cafe
2814
0000
0000
0135
cafe
2c14
0000
0000
013a
cafe
3014
0000
0000
0136
cafe
3414
0000
0000
0139
cafe
3814
0000
0000
013a
cafe
3c14
0000
0000
0135
cafe
2014
0000
0000
0134
cafe
2414
0000
0000
0134
cafe
2814
0000
0000
0134
cafe
2c14
0000
0000
0132
cafe
3014
0000
0000
012f
cafe
3414
0000
0000
0132
cafe
3814
0000
0000
012c
cafe
3c14
0000
0000
012f
cafe
2014
0000
0000
012d
cafe
2414
0000
0000
012f
cafe
2814
0000
0000
0132
cafe
2c14
0000
0000
0132
cafe
3014
0000
0000
0134
cafe
3414
0000
0000
0135
cafe
3814
0000
0000
012d
cafe
3c14
0000
0000
012d
cafe
2014
0000
0000
0131
cafe
2414
0000
0000
0132
cafe
2814
0000
0000
0131
cafe
2c14
0000
0000
0135
cafe
3014
0000
0000
0134
cafe
3414
0000
0000
-
0131
cafe
3814
0000
0000
0130
cafe
3c14
0000
0000
0133
cafe
2014
0000
0000
0135
cafe
2414
0000
0000
012d
cafe
2814
0000
0000
012f
cafe
2c14
0000
0000
0130
cafe
3014
0000
0000
0130
cafe
3414
0000
0000
012b
cafe
3814
0000
0000
012e
cafe
3c14
0000
0000
012d
cafe
2014
0000
0000
012e
cafe
2414
0000
0000
0130
cafe
2814
0000
0000
012e
cafe
2c14
0000
0000
012a
cafe
3014
0000
0000
0127
cafe
3414
0000
0000
0129
cafe
3814
0000
0000
012b
cafe
3c14
0000
0000
0130
cafe
2014
0000
0000
012c
cafe
2414
0000
0000
012f
cafe
2814
0000
0000
012f
cafe
2c14
0000
0000
012f
cafe
3014
0000
0000
012b
cafe
3414
0000
0000
012a
cafe
3814
0000
0000
012d
cafe
3c14
0000
0000
012c
cafe
2014
0000
0000
012f
cafe
2414
0000
0000
0134
cafe
2814
0000
0000
0131
cafe
2c14
0000
0000
0133
cafe
3014
0000
0000
0137
cafe
3414
0000
0000
0134
cafe
3814
0000
0000
012d
cafe
3c14
0000
0000
0131
cafe
2014
0000
0000
012f
cafe
2414
0000
0000
012f
cafe
2814
0000
0000
012e
cafe
2c14
0000
0000
012f
cafe
3014
0000
0000
012d
cafe
3414
0000
0000
0133
cafe
3814
0000
0000
012d
cafe
3c14
0000
0000
012b
cafe
2014
0000
0000
012d
cafe
2414
0000
0000
012f
cafe
2814
0000
0000
0134
cafe
2c14
0000
0000
0131
cafe
3014
0000
0000
0130
cafe
3414
0000
0000
0132
cafe
3814
0000
0000
0130
cafe
3c14
0000
0000
012f
cafe
2014
0000
0000
0133
-
cafe
2414
0000
0000
012f
cafe
2814
0000
0000
0131
cafe
2c14
0000
0000
012e
cafe
3014
0000
0000
0133
cafe
3414
0000
0000
012f
cafe
3814
0000
0000
0130
cafe
3c14
0000
0000
012f
cafe
2014
0000
0000
0132
cafe
2414
0000
0000
0134
cafe
2814
0000
0000
012f
cafe
2c14
0000
0000
0131
cafe
3014
0000
0000
0131
cafe
3414
0000
0000
012f
cafe
3814
0000
0000
0131
cafe
3c14
0000
0000
0133
cafe
2014
0000
0000
0134
cafe
2414
0000
0000
0135
cafe
2814
0000
0000
0136
cafe
2c14
0000
0000
0131
cafe
3014
0000
0000
0133
cafe
3414
0000
0000
0132
cafe
3814
0000
0000
0130
cafe
3c14
0000
0000
012f
cafe
2014
0000
0000
012c
cafe
2414
0000
0000
012d
cafe
2814
0000
0000
012e
cafe
2c14
0000
0000
012d
cafe
3014
0000
0000
0133
cafe
3414
0000
0000
0130
cafe
3814
0000
0000
0131
cafe
3c14
0000
0000
0131
cafe
2014
0000
0000
0135
cafe
2414
0000
0000
0132
cafe
2814
0000
0000
0134
cafe
2c14
0000
0000
0135
cafe
3014
0000
0000
0136
cafe
3414
0000
0000
0136
cafe
3814
0000
0000
0137
cafe
3c14
0000
0000
0135
cafe
2014
0000
0000
013a
cafe
2414
0000
0000
0136
cafe
2814
0000
0000
0137
cafe
2c14
0000
0000
0138
cafe
3014
0000
0000
013a
cafe
3414
0000
0000
0137
cafe
3814
0000
0000
0135
cafe
3c14
0000
0000
0133
cafe
2014
0000
0000
0133
cafe
2414
0000
0000
0135
cafe
2814
0000
0000
0130
cafe
2c14
0000
0000
0135
cafe
-
3014
0000
0000
0137
cafe
3414
0000
0000
0136
cafe
3814
0000
0000
0139
cafe
3c14
0000
0000
0139
cafe
2014
0000
0000
0137
cafe
2414
0000
0000
0133
cafe
2814
0000
0000
0133
cafe
2c14
0000
0000
0132
cafe
3014
0000
0000
0132
cafe
3414
0000
0000
0131
cafe
3814
0000
0000
0134
cafe
3c14
0000
0000
0132
cafe
2014
0000
0000
0138
cafe
2414
0000
0000
0138
cafe
2814
0000
0000
013b
cafe
2c14
0000
0000
013a
cafe
3014
0000
0000
0139
cafe
3414
0000
0000
013d
cafe
3814
0000
0000
013e
cafe
3c14
0000
0000
013a
cafe
2014
0000
0000
0136
cafe
2414
0000
0000
0139
cafe
2814
0000
0000
0136
cafe
2c14
0000
0000
0139
cafe
3014
0000
0000
0136
cafe
3414
0000
0000
0133
cafe
3814
0000
0000
0133
cafe
3c14
0000
0000
0135
cafe
2014
0000
0000
0135
cafe
2414
0000
0000
0136
cafe
2814
0000
0000
0135
cafe
2c14
0000
0000
0133
cafe
3014
0000
0000
0134
cafe
3414
0000
0000
0132
cafe
3814
0000
0000
012f
cafe
3c14
0000
0000
0131
cafe
2014
0000
0000
0135
cafe
2414
0000
0000
0136
cafe
2814
0000
0000
0135
cafe
2c14
0000
0000
0130
cafe
3014
0000
0000
0132
cafe
3414
0000
0000
012e
cafe
3814
0000
0000
012e
cafe
3c14
0000
0000
012f
cafe
2014
0000
0000
012c
cafe
2414
0000
0000
0130
cafe
2814
0000
0000
0131
cafe
2c14
0000
0000
012c
cafe
3014
0000
0000
0134
cafe
3414
0000
0000
0132
cafe
3814
0000
0000
0132
cafe
3c14
-
0000
0000
0130
cafe
2014
0000
0000
012e
cafe
2414
0000
0000
012d
cafe
2814
0000
0000
012f
cafe
2c14
0000
0000
012f
cafe
3014
0000
0000
012e
cafe
3414
0000
0000
012e
cafe
3814
0000
0000
0130
cafe
3c14
0000
0000
012d
cafe
2014
0000
0000
0129
cafe
2414
0000
0000
012a
cafe
2814
0000
0000
0126
cafe
2c14
0000
0000
0128
cafe
3014
0000
0000
0127
cafe
3414
0000
0000
0126
cafe
3814
0000
0000
0127
cafe
3c14
0000
0000
012c
cafe
2014
0000
0000
012a
cafe
2414
0000
0000
012c
cafe
2814
0000
0000
012a
cafe
2c14
0000
0000
012b
cafe
3014
0000
0000
0128
cafe
3414
0000
0000
0130
cafe
3814
0000
0000
012d
cafe
3c14
0000
0000
012d
cafe
2014
0000
0000
0131
cafe
2414
0000
0000
012c
cafe
2814
0000
0000
012d
cafe
2c14
0000
0000
012e
cafe
3014
0000
0000
012c
cafe
3414
0000
0000
012d
cafe
3814
0000
0000
012d
cafe
3c14
0000
0000
0131
cafe
2014
0000
0000
0131
cafe
2414
0000
0000
0132
cafe
2814
0000
0000
0131
cafe
2c14
0000
0000
012e
cafe
3014
0000
0000
012c
cafe
3414
0000
0000
012b
cafe
3814
0000
0000
012d
cafe
3c14
0000
0000
012d
cafe
2014
0000
0000
012f
cafe
2414
0000
0000
012d
cafe
2814
0000
0000
012e
cafe
2c14
0000
0000
0130
cafe
3014
0000
0000
012f
cafe
3414
0000
0000
012f
cafe
3814
0000
0000
0131
cafe
3c14
0000
0000
0130
cafe
2014
0000
0000
012f
cafe
2414
0000
0000
012c
cafe
2814
0000
-
0000
012d
cafe
2c14
0000
0000
012f
cafe
3014
0000
0000
012f
cafe
3414
0000
0000
012e
cafe
3814
0000
0000
0126
cafe
3c14
0000
0000
012d
cafe
2014
0000
0000
012c
cafe
2414
0000
0000
012d
cafe
2814
0000
0000
012d
cafe
2c14
0000
0000
012b
cafe
3014
0000
0000
0131
cafe
3414
0000
0000
0130
cafe
3814
0000
0000
012e
cafe
3c14
0000
0000
0130
cafe
2014
0000
0000
012c
cafe
2414
0000
0000
012b
cafe
2814
0000
0000
012b
cafe
2c14
0000
0000
0128
cafe
3014
0000
0000
012b
cafe
3414
0000
0000
012d
cafe
3814
0000
0000
012a
cafe
3c14
0000
0000
012a
cafe
2014
0000
0000
012b
cafe
2414
0000
0000
012e
cafe
2814
0000
0000
012c
cafe
2c14
0000
0000
012c
cafe
3014
0000
0000
012c
cafe
3414
0000
0000
012d
cafe
3814
0000
0000
012c
cafe
3c14
0000
0000
0129
cafe
2014
0000
0000
012d
cafe
2414
0000
0000
012b
cafe
2814
0000
0000
012c
cafe
2c14
0000
0000
012b
cafe
3014
0000
0000
0130
cafe
3414
0000
0000
012d
cafe
3814
0000
0000
012e
cafe
3c14
0000
0000
012d
cafe
2014
0000
0000
012e
cafe
2414
0000
0000
012c
cafe
2814
0000
0000
012c
cafe
2c14
0000
0000
012d
cafe
3014
0000
0000
012c
cafe
3414
0000
0000
0128
cafe
3814
0000
0000
0127
cafe
3c14
0000
0000
012b
cafe
2014
0000
0000
012d
cafe
2414
0000
0000
012a
cafe
2814
0000
0000
012a
cafe
2c14
0000
0000
012c
cafe
3014
0000
0000
0129
cafe
3414
0000
0000
-
012b
cafe
3814
0000
0000
012e
cafe
3c14
0000
0000
0132
cafe
2014
0000
0000
0134
cafe
2414
0000
0000
0133
cafe
2814
0000
0000
012f
cafe
2c14
0000
0000
0130
cafe
3014
0000
0000
012d
cafe
3414
0000
0000
0131
cafe
3814
0000
0000
0132
cafe
3c14
0000
0000
0131
cafe
2014
0000
0000
0132
cafe
2414
0000
0000
0137
cafe
2814
0000
0000
0135
cafe
2c14
0000
0000
0132
cafe
3014
0000
0000
0131
cafe
3414
0000
0000
0132
cafe
3814
0000
0000
0133
cafe
3c14
0000
0000
0133
cafe
2014
0000
0000
0133
cafe
2414
0000
0000
0131
cafe
2814
0000
0000
012d
cafe
2c14
0000
0000
012e
cafe
3014
0000
0000
0131
cafe
3414
0000
0000
012c
cafe
3814
0000
0000
012e
cafe
3c14
0000
0000
012a
cafe
2014
0000
0000
012d
cafe
2414
0000
0000
0129
cafe
2814
0000
0000
012b
cafe
2c14
0000
0000
0128
cafe
3014
0000
0000
012e
cafe
3414
0000
0000
0130
cafe
3814
0000
0000
012b
cafe
3c14
0000
0000
012e
cafe
2014
0000
0000
012e
cafe
2414
0000
0000
012f
cafe
2814
0000
0000
012f
cafe
2c14
0000
0000
012f
cafe
3014
0000
0000
012d
cafe
3414
0000
0000
012f
cafe
3814
0000
0000
012f
cafe
3c14
0000
0000
0132
cafe
2014
0000
0000
012e
cafe
2414
0000
0000
012b
cafe
2814
0000
0000
012e
cafe
2c14
0000
0000
012f
cafe
3014
0000
0000
012c
cafe
3414
0000
0000
012b
cafe
3814
0000
0000
0130
cafe
3c14
0000
0000
012f
cafe
2014
0000
0000
0131
-
cafe
2414
0000
0000
012f
cafe
2814
0000
0000
012d
cafe
2c14
0000
0000
0131
cafe
3014
0000
0000
0130
cafe
3414
0000
0000
012e
cafe
3814
0000
0000
012f
cafe
3c14
0000
0000
0133
cafe
2014
0000
0000
0132
cafe
2414
0000
0000
0131
cafe
2814
0000
0000
0130
cafe
2c14
0000
0000
0131
cafe
3014
0000
0000
012e
cafe
3414
0000
0000
012d
cafe
3814
0000
0000
0132
cafe
3c14
0000
0000
0132
cafe
2014
0000
0000
0130
cafe
2414
0000
0000
012e
cafe
2814
0000
0000
0128
cafe
2c14
0000
0000
0127
cafe
3014
0000
0000
012b
cafe
3414
0000
0000
0128
cafe
3814
0000
0000
0128
cafe
3c14
0000
0000
012b
cafe
2014
0000
0000
012e
cafe
2414
0000
0000
012c
cafe
2814
0000
0000
012a
cafe
2c14
0000
0000
0129
cafe
3014
0000
0000
0128
cafe
3414
0000
0000
012a
cafe
3814
0000
0000
0127
cafe
3c14
0000
0000
0129
cafe
2014
0000
0000
0129
cafe
2414
0000
0000
012a
cafe
2814
0000
0000
012a
cafe
2c14
0000
0000
012e
cafe
3014
0000
0000
012e
cafe
3414
0000
0000
0131
cafe
3814
0000
0000
012e
cafe
3c14
0000
0000
0132
cafe
2014
0000
0000
0137
cafe
2414
0000
0000
0130
cafe
2814
0000
0000
0135
cafe
2c14
0000
0000
0136
cafe
3014
0000
0000
0132
cafe
3414
0000
0000
0130
cafe
3814
0000
0000
0130
cafe
3c14
0000
0000
0133
cafe
2014
0000
0000
0130
cafe
2414
0000
0000
0130
cafe
2814
0000
0000
0130
cafe
2c14
0000
0000
0133
cafe
-
3014
0000
0000
0133
cafe
3414
0000
0000
0131
cafe
3814
0000
0000
012c
cafe
3c14
0000
0000
012a
cafe
2014
0000
0000
012c
cafe
2414
0000
0000
012e
cafe
2814
0000
0000
012f
cafe
2c14
0000
0000
0130
cafe
3014
0000
0000
0131
cafe
3414
0000
0000
0130
cafe
3814
0000
0000
0132
cafe
3c14
0000
0000
012f
cafe
2014
0000
0000
0131
cafe
2414
0000
0000
0131
cafe
2814
0000
0000
0132
cafe
2c14
0000
0000
0133
cafe
3014
0000
0000
012f
cafe
3414
0000
0000
0131
cafe
3814
0000
0000
0134
cafe
3c14
0000
0000
0133
cafe
2014
0000
0000
0134
cafe
2414
0000
0000
0133
cafe
2814
0000
0000
0134
cafe
2c14
0000
0000
0134
cafe
3014
0000
0000
0136
cafe
3414
0000
0000
0134
cafe
3814
0000
0000
0131
cafe
3c14
0000
0000
0131
cafe
2014
0000
0000
0133
cafe
2414
0000
0000
0135
cafe
2814
0000
0000
0131
cafe
2c14
0000
0000
0134
cafe
3014
0000
0000
0130
cafe
3414
0000
0000
0134
cafe
3814
0000
0000
0134
cafe
3c14
0000
0000
0134
cafe
2014
0000
0000
0132
cafe
2414
0000
0000
0131
cafe
2814
0000
0000
0130
cafe
2c14
0000
0000
012d
cafe
3014
0000
0000
0130
cafe
3414
0000
0000
012e
cafe
3814
0000
0000
012e
cafe
3c14
0000
0000
012a
cafe
2014
0000
0000
012a
cafe
2414
0000
0000
012a
cafe
2814
0000
0000
0128
cafe
2c14
0000
0000
012a
cafe
3014
0000
0000
012d
cafe
3414
0000
0000
012f
cafe
3814
0000
0000
012f
cafe
3c14
-
0000
0000
0130
cafe
2014
0000
0000
012d
cafe
2414
0000
0000
0131
cafe
2814
0000
0000
0130
cafe
2c14
0000
0000
0133
cafe
3014
0000
0000
0133
cafe
3414
0000
0000
0133
cafe
3814
0000
0000
0133
cafe
3c14
0000
0000
0131
cafe
2014
0000
0000
0131
cafe
2414
0000
0000
0130
cafe
2814
0000
0000
0130
cafe
2c14
0000
0000
0133
cafe
3014
0000
0000
0130
cafe
3414
0000
0000
012f
cafe
3814
0000
0000
012b
cafe
3c14
0000
0000
012f
cafe
2014
0000
0000
012b
cafe
2414
0000
0000
012c
cafe
2814
0000
0000
012b
cafe
2c14
0000
0000
0132
cafe
3014
0000
0000
0131
cafe
3414
0000
0000
0130
cafe
3814
0000
0000
0133
cafe
3c14
0000
0000
0135
cafe
2014
0000
0000
0132
cafe
2414
0000
0000
0133
cafe
2814
0000
0000
0130
cafe
2c14
0000
0000
0136
cafe
3014
0000
0000
0135
cafe
3414
0000
0000
0132
cafe
3814
0000
0000
0131
cafe
3c14
0000
0000
0132
cafe
2014
0000
0000
0131
cafe
2414
0000
0000
0134
cafe
2814
0000
0000
012f
cafe
2c14
0000
0000
0134
cafe
3014
0000
0000
012e
cafe
3414
0000
0000
012d
cafe
3814
0000
0000
012e
cafe
3c14
0000
0000
012f
cafe
2014
0000
0000
012c
cafe
2414
0000
0000
0129
cafe
2814
0000
0000
012c
cafe
2c14
0000
0000
012c
cafe
3014
0000
0000
012a
cafe
3414
0000
0000
012e
cafe
3814
0000
0000
012b
cafe
3c14
0000
0000
012a
cafe
2014
0000
0000
0128
cafe
2414
0000
0000
012d
cafe
2814
0000
-
0000
0133
cafe
2c14
0000
0000
0130
cafe
3014
0000
0000
0130
cafe
3414
0000
0000
0131
cafe
3814
0000
0000
0135
cafe
3c14
0000
0000
0132
cafe
2014
0000
0000
0134
cafe
2414
0000
0000
0130
cafe
2814
0000
0000
012a
cafe
2c14
0000
0000
012b
cafe
3014
0000
0000
012c
cafe
3414
0000
0000
012e
cafe
3814
0000
0000
012e
cafe
3c14
0000
0000
012f
cafe
2014
0000
0000
0132
cafe
2414
0000
0000
0133
cafe
2814
0000
0000
0133
cafe
2c14
0000
0000
0132
cafe
3014
0000
0000
012f
cafe
3414
0000
0000
012d
cafe
3814
0000
0000
0132
cafe
3c14
0000
0000
0133
cafe
2014
0000
0000
0137
cafe
2414
0000
0000
0134
cafe
2814
0000
0000
0132
cafe
2c14
0000
0000
0135
cafe
3014
0000
0000
0136
cafe
3414
0000
0000
0133
cafe
3814
0000
0000
0134
cafe
3c14
0000
0000
0132
cafe
2014
0000
0000
012e
cafe
2414
0000
0000
012d
cafe
2814
0000
0000
0130
cafe
2c14
0000
0000
012f
cafe
3014
0000
0000
012e
cafe
3414
0000
0000
012c
cafe
3814
0000
0000
012a
cafe
3c14
0000
0000
0129
cafe
2014
0000
0000
012a
cafe
2414
0000
0000
012b
cafe
2814
0000
0000
012a
cafe
2c14
0000
0000
012c
cafe
3014
0000
0000
0129
cafe
3414
0000
0000
012a
cafe
3814
0000
0000
012b
cafe
3c14
0000
0000
012e
cafe
2014
0000
0000
012a
cafe
2414
0000
0000
012f
cafe
2814
0000
0000
012b
cafe
2c14
0000
0000
0129
cafe
3014
0000
0000
012b
cafe
3414
0000
0000
-
012a
cafe
3814
0000
0000
012c
cafe
3c14
0000
0000
012b
cafe
2014
0000
0000
012f
cafe
2414
0000
0000
0130
cafe
2814
0000
0000
0132
cafe
2c14
0000
0000
0134
cafe
3014
0000
0000
0132
cafe
3414
0000
0000
0139
cafe
3814
0000
0000
0137
cafe
3c14
0000
0000
0131
cafe
2014
0000
0000
0130
cafe
2414
0000
0000
012f
cafe
2814
0000
0000
012f
cafe
2c14
0000
0000
0133
cafe
3014
0000
0000
0132
cafe
3414
0000
0000
0131
cafe
3814
0000
0000
0131
cafe
3c14
0000
0000
0130
cafe
2014
0000
0000
0132
cafe
2414
0000
0000
0132
cafe
2814
0000
0000
0139
cafe
2c14
0000
0000
0133
cafe
3014
0000
0000
0134
cafe
3414
0000
0000
0135
cafe
3814
0000
0000
0134
cafe
3c14
0000
0000
0133
cafe
2014
0000
0000
0135
cafe
2414
0000
0000
0137
cafe
2814
0000
0000
0135
cafe
2c14
0000
0000
0137
cafe
3014
0000
0000
0137
cafe
3414
0000
0000
0135
cafe
3814
0000
0000
0135
cafe
3c14
0000
0000
0131
cafe
2014
0000
0000
012e
cafe
2414
0000
0000
012f
cafe
2814
0000
0000
0132
cafe
2c14
0000
0000
0132
cafe
3014
0000
0000
0132
cafe
3414
0000
0000
0133
cafe
3814
0000
0000
0136
cafe
3c14
0000
0000
0135
cafe
2014
0000
0000
0133
cafe
2414
0000
0000
0135
cafe
2814
0000
0000
0133
cafe
2c14
0000
0000
0132
cafe
3014
0000
0000
0131
cafe
3414
0000
0000
0132
cafe
3814
0000
0000
0133
cafe
3c14
0000
0000
0135
cafe
2014
0000
0000
0134
-
cafe
2414
0000
0000
0135
cafe
2814
0000
0000
0133
cafe
2c14
0000
0000
0131
cafe
3014
0000
0000
0135
cafe
3414
0000
0000
0132
cafe
3814
0000
0000
0132
cafe
3c14
0000
0000
0134
cafe
2014
0000
0000
0132
cafe
2414
0000
0000
0133
cafe
2814
0000
0000
012f
cafe
2c14
0000
0000
0132
cafe
3014
0000
0000
0130
cafe
3414
0000
0000
0131
cafe
3814
0000
0000
0130
cafe
3c14
0000
0000
0130
cafe
2014
0000
0000
0133
cafe
2414
0000
0000
0138
cafe
2814
0000
0000
0135
cafe
2c14
0000
0000
0133
cafe
3014
0000
0000
0132
cafe
3414
0000
0000
0133
cafe
3814
0000
0000
012f
cafe
3c14
0000
0000
0131
cafe
2014
0000
0000
0130
cafe
2414
0000
0000
0136
cafe
2814
0000
0000
0135
cafe
2c14
0000
0000
0133
cafe
3014
0000
0000
0135
cafe
3414
0000
0000
0136
cafe
3814
0000
0000
0131
cafe
3c14
0000
0000
012f
cafe
2014
0000
0000
0132
cafe
2414
0000
0000
0132
cafe
2814
0000
0000
0132
cafe
2c14
0000
0000
0134
cafe
3014
0000
0000
0134
cafe
3414
0000
0000
0131
cafe
3814
0000
0000
0134
cafe
3c14
0000
0000
012e
cafe
2014
0000
0000
0130
cafe
2414
0000
0000
0131
cafe
2814
0000
0000
0131
cafe
2c14
0000
0000
0130
cafe
3014
0000
0000
012d
cafe
3414
0000
0000
012a
cafe
3814
0000
0000
012a
cafe
3c14
0000
0000
012c
cafe
2014
0000
0000
012f
cafe
2414
0000
0000
012e
cafe
2814
0000
0000
012e
cafe
2c14
0000
0000
012a
cafe
-
3014
0000
0000
012f
cafe
3414
0000
0000
012b
cafe
3814
0000
0000
0130
cafe
3c14
0000
0000
0130
cafe
2014
0000
0000
0132
cafe
2414
0000
0000
0134
cafe
2814
0000
0000
0135
cafe
2c14
0000
0000
0134
cafe
3014
0000
0000
0132
cafe
3414
0000
0000
0133
cafe
3814
0000
0000
0137
cafe
3c14
0000
0000
0135
cafe
2014
0000
0000
0136
cafe
2414
0000
0000
0134
cafe
2814
0000
0000
0135
cafe
2c14
0000
0000
0137
cafe
3014
0000
0000
0136
cafe
3414
0000
0000
0137
cafe
3814
0000
0000
0136
cafe
3c14
0000
0000
0135
cafe
2014
0000
0000
0136
cafe
2414
0000
0000
0134
cafe
2814
0000
0000
0134
cafe
2c14
0000
0000
012f
cafe
3014
0000
0000
012b
cafe
3414
0000
0000
012d
cafe
3814
0000
0000
0133
cafe
3c14
0000
0000
0132
cafe
2014
0000
0000
0131
cafe
2414
0000
0000
0134
cafe
2814
0000
0000
0134
cafe
2c14
0000
0000
0131
cafe
3014
0000
0000
0130
cafe
3414
0000
0000
0131
cafe
3814
0000
0000
012e
cafe
3c14
0000
0000
0133
cafe
2014
0000
0000
0134
cafe
2414
0000
0000
0132
cafe
2814
0000
0000
0135
cafe
2c14
0000
0000
0136
cafe
3014
0000
0000
0138
cafe
3414
0000
0000
0135
cafe
3814
0000
0000
0134
cafe
3c14
0000
0000
0137
cafe
2014
0000
0000
0134
cafe
2414
0000
0000
0138
cafe
2814
0000
0000
0136
cafe
2c14
0000
0000
013a
cafe
3014
0000
0000
0137
cafe
3414
0000
0000
0138
cafe
3814
0000
0000
0136
cafe
3c14
-
0000
0000
0134
cafe
2014
0000
0000
0135
cafe
2414
0000
0000
0132
cafe
2814
0000
0000
0132
cafe
2c14
0000
0000
0136
cafe
3014
0000
0000
0135
cafe
3414
0000
0000
0137
cafe
3814
0000
0000
0132
cafe
3c14
0000
0000
0136
cafe
2014
0000
0000
0136
cafe
2414
0000
0000
0139
cafe
2814
0000
0000
0137
cafe
2c14
0000
0000
0136
cafe
3014
0000
0000
0136
cafe
3414
0000
0000
0133
cafe
3814
0000
0000
0136
cafe
3c14
0000
0000
0130
cafe
2014
0000
0000
0130
cafe
2414
0000
0000
0131
cafe
2814
0000
0000
012f
cafe
2c14
0000
0000
0132
cafe
3014
0000
0000
0130
cafe
3414
0000
0000
0132
cafe
3814
0000
0000
0134
cafe
3c14
0000
0000
0133
cafe
2014
0000
0000
0132
cafe
2414
0000
0000
0133
cafe
2814
0000
0000
0132
cafe
2c14
0000
0000
0131
cafe
3014
0000
0000
0133
cafe
3414
0000
0000
0131
cafe
3814
0000
0000
0134
cafe
3c14
0000
0000
0136
cafe
2014
0000
0000
0133
cafe
2414
0000
0000
0132
cafe
2814
0000
0000
0130
cafe
2c14
0000
0000
012f
cafe
3014
0000
0000
0131
cafe
3414
0000
0000
0133
cafe
3814
0000
0000
012f
cafe
3c14
0000
0000
012c
cafe
2014
0000
0000
012e
cafe
2414
0000
0000
0129
cafe
2814
0000
0000
012c
cafe
2c14
0000
0000
012c
cafe
3014
0000
0000
012e
cafe
3414
0000
0000
012f
cafe
3814
0000
0000
012d
cafe
3c14
0000
0000
012b
cafe
2014
0000
0000
012a
cafe
2414
0000
0000
0128
cafe
2814
0000
-
0000
0127
cafe
2c14
0000
0000
0126
cafe
3014
0000
0000
0127
cafe
3414
0000
0000
012f
cafe
3814
0000
0000
012f
cafe
3c14
0000
0000
012e
cafe
2014
0000
0000
0131
cafe
2414
0000
0000
0130
cafe
2814
0000
0000
012a
cafe
2c14
0000
0000
012b
cafe
3014
0000
0000
012a
cafe
3414
0000
0000
012b
cafe
3814
0000
0000
012b
cafe
3c14
0000
0000
012c
cafe
2014
0000
0000
012a
cafe
2414
0000
0000
012e
cafe
2814
0000
0000
012a
cafe
2c14
0000
0000
012a
cafe
3014
0000
0000
0128
cafe
3414
0000
0000
0128
cafe
3814
0000
0000
0127
cafe
3c14
0000
0000
0127
cafe
2014
0000
0000
0125
cafe
2414
0000
0000
0128
cafe
2814
0000
0000
0127
cafe
2c14
0000
0000
0126
cafe
3014
0000
0000
0128
cafe
3414
0000
0000
0127
cafe
3814
0000
0000
012c
cafe
3c14
0000
0000
012c
cafe
2014
0000
0000
012b
cafe
2414
0000
0000
0128
cafe
2814
0000
0000
012a
cafe
2c14
0000
0000
012d
cafe
3014
0000
0000
0129
cafe
3414
0000
0000
012c
cafe
3814
0000
0000
012c
cafe
3c14
0000
0000
0129
cafe
2014
0000
0000
012b
cafe
2414
0000
0000
0128
cafe
2814
0000
0000
012b
cafe
2c14
0000
0000
012a
cafe
3014
0000
0000
012b
cafe
3414
0000
0000
012b
cafe
3814
0000
0000
012d
cafe
3c14
0000
0000
012a
cafe
2014
0000
0000
012c
cafe
2414
0000
0000
012d
cafe
2814
0000
0000
012d
cafe
2c14
0000
0000
0130
cafe
3014
0000
0000
0132
cafe
3414
0000
0000
-
0134
cafe
3814
0000
0000
0135
cafe
3c14
0000
0000
0132
cafe
2014
0000
0000
012e
cafe
2414
0000
0000
012e
cafe
2814
0000
0000
012f
cafe
2c14
0000
0000
012e
cafe
3014
0000
0000
0133
cafe
3414
0000
0000
0131
cafe
3814
0000
0000
0131
cafe
3c14
0000
0000
012d
cafe
2014
0000
0000
012d
cafe
2414
0000
0000
0129
cafe
2814
0000
0000
012c
cafe
2c14
0000
0000
012b
cafe
3014
0000
0000
012c
cafe
3414
0000
0000
012c
cafe
3814
0000
0000
012b
cafe
3c14
0000
0000
012e
cafe
2014
0000
0000
012c
cafe
2414
0000
0000
012c
cafe
2814
0000
0000
012a
cafe
2c14
0000
0000
0127
cafe
3014
0000
0000
0127
cafe
3414
0000
0000
0129
cafe
3814
0000
0000
012b
cafe
3c14
0000
0000
0128
cafe
2014
0000
0000
0128
cafe
2414
0000
0000
012c
cafe
2814
0000
0000
0129
cafe
2c14
0000
0000
0128
cafe
3014
0000
0000
012a
cafe
3414
0000
0000
012b
cafe
3814
0000
0000
012c
cafe
3c14
0000
0000
0131
cafe
2014
0000
0000
0130
cafe
2414
0000
0000
0130
cafe
2814
0000
0000
012f
cafe
2c14
0000
0000
0131
cafe
3014
0000
0000
012c
cafe
3414
0000
0000
012d
cafe
3814
0000
0000
012c
cafe
3c14
0000
0000
012c
cafe
2014
0000
0000
0126
cafe
2414
0000
0000
0129
cafe
2814
0000
0000
012b
cafe
2c14
0000
0000
012d
cafe
3014
0000
0000
012b
cafe
3414
0000
0000
0127
cafe
3814
0000
0000
0128
cafe
3c14
0000
0000
012a
cafe
2014
0000
0000
0128
-
cafe
2414
0000
0000
012a
cafe
2814
0000
0000
0129
cafe
2c14
0000
0000
0129
cafe
3014
0000
0000
012c
cafe
3414
0000
0000
012b
cafe
3814
0000
0000
012a
cafe
3c14
0000
0000
012d
cafe
2014
0000
0000
012f
cafe
2414
0000
0000
012e
cafe
2814
0000
0000
012b
cafe
2c14
0000
0000
012d
cafe
3014
0000
0000
012f
cafe
3414
0000
0000
012c
cafe
3814
0000
0000
012c
cafe
3c14
0000
0000
012e
cafe
2014
0000
0000
0131
cafe
2414
0000
0000
0133
cafe
2814
0000
0000
0136
cafe
2c14
0000
0000
0138
cafe
3014
0000
0000
0139
cafe
3414
0000
0000
0137
cafe
3814
0000
0000
0135
cafe
3c14
0000
0000
0134
cafe
2014
0000
0000
0135
cafe
2414
0000
0000
0139
cafe
2814
0000
0000
0138
cafe
2c14
0000
0000
0136
cafe
3014
0000
0000
0136
cafe
3414
0000
0000
0137
cafe
3814
0000
0000
0135
cafe
3c14
0000
0000
0133
cafe
2014
0000
0000
0133
cafe
2414
0000
0000
0139
cafe
2814
0000
0000
0136
cafe
2c14
0000
0000
0135
cafe
3014
0000
0000
0133
cafe
3414
0000
0000
0130
cafe
3814
0000
0000
012d
cafe
3c14
0000
0000
012d
cafe
2014
0000
0000
012f
cafe
2414
0000
0000
012f
cafe
2814
0000
0000
012f
cafe
2c14
0000
0000
0130
cafe
3014
0000
0000
012f
cafe
3414
0000
0000
0131
cafe
3814
0000
0000
0131
cafe
3c14
0000
0000
0131
cafe
2014
0000
0000
012e
cafe
2414
0000
0000
0131
cafe
2814
0000
0000
0132
cafe
2c14
0000
0000
0134
cafe
-
3014
0000
0000
0133
cafe
3414
0000
0000
0132
cafe
3814
0000
0000
012e
cafe
3c14
0000
0000
0131
cafe
2014
0000
0000
0130
cafe
2414
0000
0000
012e
cafe
2814
0000
0000
012c
cafe
2c14
0000
0000
0129
cafe
3014
0000
0000
0127
cafe
3414
0000
0000
0126
cafe
3814
0000
0000
0126
cafe
3c14
0000
0000
0128
cafe
2014
0000
0000
012e
cafe
2414
0000
0000
012b
cafe
2814
0000
0000
012c
cafe
2c14
0000
0000
0128
cafe
3014
0000
0000
012b
cafe
3414
0000
0000
012e
cafe
3814
0000
0000
012d
cafe
3c14
0000
0000
012e
cafe
2014
0000
0000
012a
cafe
2414
0000
0000
012d
cafe
2814
0000
0000
012d
cafe
2c14
0000
0000
012b
cafe
3014
0000
0000
012f
cafe
3414
0000
0000
012b
cafe
3814
0000
0000
012c
cafe
3c14
0000
0000
012c
cafe
2014
0000
0000
012b
cafe
2414
0000
0000
012d
cafe
2814
0000
0000
012d
cafe
2c14
0000
0000
012f
cafe
3014
0000
0000
0132
cafe
3414
0000
0000
0132
cafe
3814
0000
0000
0130
cafe
3c14
0000
0000
012c
cafe
2014
0000
0000
0129
cafe
2414
0000
0000
012a
cafe
2814
0000
0000
012f
cafe
2c14
0000
0000
0131
cafe
3014
0000
0000
012c
cafe
3414
0000
0000
012b
cafe
3814
0000
0000
012c
cafe
3c14
0000
0000
0131
cafe
2014
0000
0000
012c
cafe
2414
0000
0000
0129
cafe
2814
0000
0000
012d
cafe
2c14
0000
0000
012c
cafe
3014
0000
0000
012c
cafe
3414
0000
0000
012f
cafe
3814
0000
0000
0134
cafe
3c14
-
0000
0000
0133
cafe
2014
0000
0000
0135
cafe
2414
0000
0000
0131
cafe
2814
0000
0000
0134
cafe
2c14
0000
0000
0135
cafe
3014
0000
0000
0132
cafe
3414
0000
0000
0134
cafe
3814
0000
0000
012f
cafe
3c14
0000
0000
012c
cafe
2014
0000
0000
012e
cafe
2414
0000
0000
012f
cafe
2814
0000
0000
012c
cafe
2c14
0000
0000
012b
cafe
3014
0000
0000
012e
cafe
3414
0000
0000
012e
cafe
3814
0000
0000
012f
cafe
3c14
0000
0000
012e
cafe
2014
0000
0000
012e
cafe
2414
0000
0000
012c
cafe
2814
0000
0000
012f
cafe
2c14
0000
0000
0133
cafe
3014
0000
0000
0132
cafe
3414
0000
0000
0130
cafe
3814
0000
0000
012f
cafe
3c14
0000
0000
012c
cafe
2014
0000
0000
0130
cafe
2414
0000
0000
012d
cafe
2814
0000
0000
0130
cafe
2c14
0000
0000
0131
cafe
3014
0000
0000
012a
cafe
3414
0000
0000
012c
cafe
3814
0000
0000
012d
cafe
3c14
0000
0000
0130
cafe
2014
0000
0000
012e
cafe
2414
0000
0000
0133
cafe
2814
0000
0000
0132
cafe
2c14
0000
0000
012f
cafe
3014
0000
0000
0132
cafe
3414
0000
0000
0130
cafe
3814
0000
0000
0134
cafe
3c14
0000
0000
0130
cafe
2014
0000
0000
0130
cafe
2414
0000
0000
012f
cafe
2814
0000
0000
012e
cafe
2c14
0000
0000
0131
cafe
3014
0000
0000
0130
cafe
3414
0000
0000
0131
cafe
3814
0000
0000
0132
cafe
3c14
0000
0000
0132
cafe
2014
0000
0000
0133
cafe
2414
0000
0000
0130
cafe
2814
0000
-
0000
0130
cafe
2c14
0000
0000
012e
cafe
3014
0000
0000
012b
cafe
3414
0000
0000
012d
cafe
3814
0000
0000
012c
cafe
3c14
0000
0000
012b
cafe
2014
0000
0000
012a
cafe
2414
0000
0000
012a
cafe
2814
0000
0000
012d
cafe
2c14
0000
0000
012b
cafe
3014
0000
0000
012e
cafe
3414
0000
0000
0131
cafe
3814
0000
0000
0130
cafe
3c14
0000
0000
012e
cafe
2014
0000
0000
0132
cafe
2414
0000
0000
0131
cafe
2814
0000
0000
012e
cafe
2c14
0000
0000
0130
cafe
3014
0000
0000
0132
cafe
3414
0000
0000
0134
cafe
3814
0000
0000
0131
cafe
3c14
0000
0000
0130
cafe
2014
0000
0000
0133
cafe
2414
0000
0000
0131
cafe
2814
0000
0000
012f
cafe
2c14
0000
0000
0130
cafe
3014
0000
0000
012f
cafe
3414
0000
0000
012b
cafe
3814
0000
0000
012b
cafe
3c14
0000
0000
0130
cafe
2014
0000
0000
0132
cafe
2414
0000
0000
0130
cafe
2814
0000
0000
0134
cafe
2c14
0000
0000
012e
cafe
3014
0000
0000
0134
cafe
3414
0000
0000
0135
cafe
3814
0000
0000
0137
cafe
3c14
0000
0000
0137
cafe
2014
0000
0000
0134
cafe
2414
0000
0000
013a
cafe
2814
0000
0000
0133
cafe
2c14
0000
0000
0133
cafe
3014
0000
0000
0134
cafe
3414
0000
0000
0137
cafe
3814
0000
0000
0133
cafe
3c14
0000
0000
0133
cafe
2014
0000
0000
0132
cafe
2414
0000
0000
0133
cafe
2814
0000
0000
0131
cafe
2c14
0000
0000
0131
cafe
3014
0000
0000
0131
cafe
3414
0000
0000
-
0131
cafe
3814
0000
0000
0130
cafe
3c14
0000
0000
012b
cafe
2014
0000
0000
012f
cafe
2414
0000
0000
012e
cafe
2814
0000
0000
012e
cafe
2c14
0000
0000
012f
cafe
3014
0000
0000
012f
cafe
3414
0000
0000
012a
cafe
3814
0000
0000
012c
cafe
3c14
0000
0000
012d
cafe
2014
0000
0000
012e
cafe
2414
0000
0000
012e
cafe
2814
0000
0000
012b
cafe
2c14
0000
0000
012d
cafe
3014
0000
0000
012e
cafe
3414
0000
0000
012a
cafe
3814
0000
0000
012d
cafe
3c14
0000
0000
012b
cafe
2014
0000
0000
012b
cafe
2414
0000
0000
012d
cafe
2814
0000
0000
0131
cafe
2c14
0000
0000
012f
cafe
3014
0000
0000
0132
cafe
3414
0000
0000
012f
cafe
3814
0000
0000
0131
cafe
3c14
0000
0000
0130
cafe
2014
0000
0000
012f
cafe
2414
0000
0000
0131
cafe
2814
0000
0000
0130
cafe
2c14
0000
0000
012e
cafe
3014
0000
0000
012c
cafe
3414
0000
0000
012b
cafe
3814
0000
0000
012d
cafe
3c14
0000
0000
012b
cafe
2014
0000
0000
012f
cafe
2414
0000
0000
0131
cafe
2814
0000
0000
0130
cafe
2c14
0000
0000
0131
cafe
3014
0000
0000
0130
cafe
3414
0000
0000
012f
cafe
3814
0000
0000
012f
cafe
3c14
0000
0000
0133
cafe
2014
0000
0000
0131
cafe
2414
0000
0000
0135
cafe
2814
0000
0000
0130
cafe
2c14
0000
0000
0130
cafe
3014
0000
0000
012c
cafe
3414
0000
0000
012c
cafe
3814
0000
0000
012d
cafe
3c14
0000
0000
0130
cafe
2014
0000
0000
012e
-
