3c15
0000
0000
01c1
cafe
2015
0000
0000
01c2
cafe
2415
0000
0000
01c3
cafe
2815
0000
0000
01c4
cafe
2c15
0000
0000
01c1
cafe
3015
0000
0000
01be
cafe
3415
0000
0000
01c0
cafe
3815
0000
0000
01bb
cafe
3c15
0000
0000
01bf
cafe
2015
0000
0000
01bc
cafe
2415
0000
0000
01bb
cafe
2815
0000
0000
01bf
cafe
2c15
0000
0000
01bb
cafe
3015
0000
0000
01bd
cafe
3415
0000
0000
01b9
cafe
3815
0000
0000
01b7
cafe
3c15
0000
0000
01bb
cafe
2015
0000
0000
01c3
cafe
2415
0000
0000
01bd
cafe
2815
0000
0000
01bf
cafe
2c15
0000
0000
01bd
cafe
3015
0000
0000
01bb
cafe
3415
0000
0000
01bc
cafe
3815
0000
0000
01bf
cafe
3c15
0000
0000
01ba
cafe
2015
0000
0000
01b8
cafe
2415
0000
0000
01bb
cafe
2815
0000
0000
01b7
cafe
2c15
0000
0000
01b6
cafe
3015
0000
0000
01b5
cafe
3415
0000
0000
01b6
cafe
3815
0000
0000
01b2
cafe
3c15
0000
0000
01b6
cafe
2015
0000
0000
01b9
cafe
2415
0000
0000
01be
cafe
2815
0000
0000
01b1
cafe
2c15
0000
0000
01b7
cafe
3015
0000
0000
01bd
cafe
3415
0000
0000
01b5
cafe
3815
0000
0000
01b1
cafe
3c15
0000
0000
01b0
cafe
2015
0000
0000
01b4
cafe
2415
0000
0000
01b0
cafe
2815
0000
0000
01b2
cafe
2c15
0000
0000
01b1
cafe
3015
0000
0000
01b5
cafe
3415
0000
0000
01b9
cafe
3815
0000
0000
01b5
cafe
3c15
0000
0000
01b7
cafe
2015
0000
0000
01b8
cafe
2415
0000
0000
01bb
cafe
2815
-
0000
0000
01b8
cafe
2c15
0000
0000
01b9
cafe
3015
0000
0000
01b3
cafe
3415
0000
0000
01b6
cafe
3815
0000
0000
01b6
cafe
3c15
0000
0000
01b6
cafe
2015
0000
0000
01b6
cafe
2415
0000
0000
01ae
cafe
2815
0000
0000
01b2
cafe
2c15
0000
0000
01b6
cafe
3015
0000
0000
01b8
cafe
3415
0000
0000
01bc
cafe
3815
0000
0000
01be
cafe
3c15
0000
0000
01ba
cafe
2015
0000
0000
01b7
cafe
2415
0000
0000
01bc
cafe
2815
0000
0000
01b7
cafe
2c15
0000
0000
01ba
cafe
3015
0000
0000
01ba
cafe
3415
0000
0000
01bc
cafe
3815
0000
0000
01bf
cafe
3c15
0000
0000
01bf
cafe
2015
0000
0000
01b8
cafe
2415
0000
0000
01bb
cafe
2815
0000
0000
01bb
cafe
2c15
0000
0000
01bb
cafe
3015
0000
0000
01bf
cafe
3415
0000
0000
01bb
cafe
3815
0000
0000
01bf
cafe
3c15
0000
0000
01bc
cafe
2015
0000
0000
01bd
cafe
2415
0000
0000
01c0
cafe
2815
0000
0000
01bb
cafe
2c15
0000
0000
01bd
cafe
3015
0000
0000
01bd
cafe
3415
0000
0000
01b7
cafe
3815
0000
0000
01b9
cafe
3c15
0000
0000
01bd
cafe
2015
0000
0000
01b8
cafe
2415
0000
0000
01b8
cafe
2815
0000
0000
01ba
cafe
2c15
0000
0000
01b9
cafe
3015
0000
0000
01bb
cafe
3415
0000
0000
01be
cafe
3815
0000
0000
01bb
cafe
3c15
0000
0000
01bc
cafe
2015
0000
0000
01ba
cafe
2415
0000
0000
01c1
cafe
2815
0000
0000
01c0
cafe
2c15
0000
0000
01bf
cafe
3015
0000
0000
01bc
cafe
3415
0000
-
0000
01b9
cafe
3815
0000
0000
01be
cafe
3c15
0000
0000
01bb
cafe
2015
0000
0000
01b4
cafe
2415
0000
0000
01b7
cafe
2815
0000
0000
01b7
cafe
2c15
0000
0000
01b4
cafe
3015
0000
0000
01b9
cafe
3415
0000
0000
01bc
cafe
3815
0000
0000
01be
cafe
3c15
0000
0000
01c1
cafe
2015
0000
0000
01bd
cafe
2415
0000
0000
01c0
cafe
2815
0000
0000
01be
cafe
2c15
0000
0000
01bc
cafe
3015
0000
0000
01bc
cafe
3415
0000
0000
01bc
cafe
3815
0000
0000
01be
cafe
3c15
0000
0000
01c1
cafe
2015
0000
0000
01be
cafe
2415
0000
0000
01be
cafe
2815
0000
0000
01c0
cafe
2c15
0000
0000
01c1
cafe
3015
0000
0000
01bf
cafe
3415
0000
0000
01c0
cafe
3815
0000
0000
01c0
cafe
3c15
0000
0000
01bd
cafe
2015
0000
0000
01bd
cafe
2415
0000
0000
01be
cafe
2815
0000
0000
01bc
cafe
2c15
0000
0000
01b6
cafe
3015
0000
0000
01bb
cafe
3415
0000
0000
01bd
cafe
3815
0000
0000
01bb
cafe
3c15
0000
0000
01bd
cafe
2015
0000
0000
01bc
cafe
2415
0000
0000
01c2
cafe
2815
0000
0000
01c1
cafe
2c15
0000
0000
01c1
cafe
3015
0000
0000
01c0
cafe
3415
0000
0000
01ba
cafe
3815
0000
0000
01ba
cafe
3c15
0000
0000
01b3
cafe
2015
0000
0000
01b7
cafe
2415
0000
0000
01bb
cafe
2815
0000
0000
01bc
cafe
2c15
0000
0000
01be
cafe
3015
0000
0000
01b9
cafe
3415
0000
0000
01c0
cafe
3815
0000
0000
01bd
cafe
3c15
0000
0000
01b9
cafe
2015
0000
0000
-
01bc
cafe
2415
0000
0000
01c1
cafe
2815
0000
0000
01c1
cafe
2c15
0000
0000
01be
cafe
3015
0000
0000
01bd
cafe
3415
0000
0000
01c0
cafe
3815
0000
0000
01bb
cafe
3c15
0000
0000
01ba
cafe
2015
0000
0000
01b9
cafe
2415
0000
0000
01bd
cafe
2815
0000
0000
01be
cafe
2c15
0000
0000
01b9
cafe
3015
0000
0000
01b8
cafe
3415
0000
0000
01ba
cafe
3815
0000
0000
01b7
cafe
3c15
0000
0000
01bc
cafe
2015
0000
0000
01ba
cafe
2415
0000
0000
01bf
cafe
2815
0000
0000
01be
cafe
2c15
0000
0000
01bb
cafe
3015
0000
0000
01b8
cafe
3415
0000
0000
01b6
cafe
3815
0000
0000
01b2
cafe
3c15
0000
0000
01b9
cafe
2015
0000
0000
01b5
cafe
2415
0000
0000
01b6
cafe
2815
0000
0000
01bb
cafe
2c15
0000
0000
01bd
cafe
3015
0000
0000
01bc
cafe
3415
0000
0000
01b9
cafe
3815
0000
0000
01b7
cafe
3c15
0000
0000
01b7
cafe
2015
0000
0000
01b7
cafe
2415
0000
0000
01bb
cafe
2815
0000
0000
01b6
cafe
2c15
0000
0000
01be
cafe
3015
0000
0000
01b9
cafe
3415
0000
0000
01bf
cafe
3815
0000
0000
01bd
cafe
3c15
0000
0000
01c2
cafe
2015
0000
0000
01bd
cafe
2415
0000
0000
01c1
cafe
2815
0000
0000
01c5
cafe
2c15
0000
0000
01c0
cafe
3015
0000
0000
01be
cafe
3415
0000
0000
01c3
cafe
3815
0000
0000
01bd
cafe
3c15
0000
0000
01ba
cafe
2015
0000
0000
01bb
cafe
2415
0000
0000
01ba
cafe
2815
0000
0000
01ba
cafe
2c15
0000
0000
01ba
-
cafe
3015
0000
0000
01c1
cafe
3415
0000
0000
01ba
cafe
3815
0000
0000
01bc
cafe
3c15
0000
0000
01bd
cafe
2015
0000
0000
01ba
cafe
2415
0000
0000
01bb
cafe
2815
0000
0000
01c0
cafe
2c15
0000
0000
01bd
cafe
3015
0000
0000
01b7
cafe
3415
0000
0000
01be
cafe
3815
0000
0000
01bd
cafe
3c15
0000
0000
01b7
cafe
2015
0000
0000
01ba
cafe
2415
0000
0000
01b8
cafe
2815
0000
0000
01be
cafe
2c15
0000
0000
01b7
cafe
3015
0000
0000
01bb
cafe
3415
0000
0000
01b8
cafe
3815
0000
0000
01b8
cafe
3c15
0000
0000
01bc
cafe
2015
0000
0000
01bb
cafe
2415
0000
0000
01c0
cafe
2815
0000
0000
01bc
cafe
2c15
0000
0000
01be
cafe
3015
0000
0000
01c1
cafe
3415
0000
0000
01c1
cafe
3815
0000
0000
01bd
cafe
3c15
0000
0000
01bc
cafe
2015
0000
0000
01be
cafe
2415
0000
0000
01be
cafe
2815
0000
0000
01b9
cafe
2c15
0000
0000
01b4
cafe
3015
0000
0000
01b9
cafe
3415
0000
0000
01b9
cafe
3815
0000
0000
01ba
cafe
3c15
0000
0000
01b7
cafe
2015
0000
0000
01b8
cafe
2415
0000
0000
01b6
cafe
2815
0000
0000
01ba
cafe
2c15
0000
0000
01bd
cafe
3015
0000
0000
01bd
cafe
3415
0000
0000
01ba
cafe
3815
0000
0000
01ba
cafe
3c15
0000
0000
01c2
cafe
2015
0000
0000
01c2
cafe
2415
0000
0000
01c1
cafe
2815
0000
0000
01c0
cafe
2c15
0000
0000
01c0
cafe
3015
0000
0000
01c4
cafe
3415
0000
0000
01b9
cafe
3815
0000
0000
01bf
cafe
-
3c15
0000
0000
01b7
cafe
2015
0000
0000
01b9
cafe
2415
0000
0000
01b8
cafe
2815
0000
0000
01ba
cafe
2c15
0000
0000
01bb
cafe
3015
0000
0000
01b8
cafe
3415
0000
0000
01b9
cafe
3815
0000
0000
01bb
cafe
3c15
0000
0000
01bc
cafe
2015
0000
0000
01c1
cafe
2415
0000
0000
01bd
cafe
2815
0000
0000
01bd
cafe
2c15
0000
0000
01b6
cafe
3015
0000
0000
01bb
cafe
3415
0000
0000
01c5
cafe
3815
0000
0000
01c5
cafe
3c15
0000
0000
01c0
cafe
2015
0000
0000
01c4
cafe
2415
0000
0000
01c1
cafe
2815
0000
0000
01c2
cafe
2c15
0000
0000
01c0
cafe
3015
0000
0000
01bf
cafe
3415
0000
0000
01bf
cafe
3815
0000
0000
01c1
cafe
3c15
0000
0000
01c1
cafe
2015
0000
0000
01c3
cafe
2415
0000
0000
01c0
cafe
2815
0000
0000
01c3
cafe
2c15
0000
0000
01bc
cafe
3015
0000
0000
01ba
cafe
3415
0000
0000
01b7
cafe
3815
0000
0000
01bd
cafe
3c15
0000
0000
01b9
cafe
2015
0000
0000
01b9
cafe
2415
0000
0000
01b6
cafe
2815
0000
0000
01ba
cafe
2c15
0000
0000
01bc
cafe
3015
0000
0000
01b7
cafe
3415
0000
0000
01ba
cafe
3815
0000
0000
01b8
cafe
3c15
0000
0000
01b8
cafe
2015
0000
0000
01bc
cafe
2415
0000
0000
01bf
cafe
2815
0000
0000
01bc
cafe
2c15
0000
0000
01bb
cafe
3015
0000
0000
01b7
cafe
3415
0000
0000
01b7
cafe
3815
0000
0000
01ba
cafe
3c15
0000
0000
01ba
cafe
2015
0000
0000
01be
cafe
2415
0000
0000
01ba
cafe
2815
-
0000
0000
01b6
cafe
2c15
0000
0000
01ba
cafe
3015
0000
0000
01bf
cafe
3415
0000
0000
01bc
cafe
3815
0000
0000
01be
cafe
3c15
0000
0000
01bf
cafe
2015
0000
0000
01bd
cafe
2415
0000
0000
01bd
cafe
2815
0000
0000
01c3
cafe
2c15
0000
0000
01c2
cafe
3015
0000
0000
01c2
cafe
3415
0000
0000
01be
cafe
3815
0000
0000
01be
cafe
3c15
0000
0000
01ba
cafe
2015
0000
0000
01bf
cafe
2415
0000
0000
01b9
cafe
2815
0000
0000
01be
cafe
2c15
0000
0000
01b1
cafe
3015
0000
0000
01b6
cafe
3415
0000
0000
01b9
cafe
3815
0000
0000
01b7
cafe
3c15
0000
0000
01b5
cafe
2015
0000
0000
01b7
cafe
2415
0000
0000
01bb
cafe
2815
0000
0000
01bc
cafe
2c15
0000
0000
01bd
cafe
3015
0000
0000
01bb
cafe
3415
0000
0000
01b8
cafe
3815
0000
0000
01bb
cafe
3c15
0000
0000
01bf
cafe
2015
0000
0000
01bd
cafe
2415
0000
0000
01bd
cafe
2815
0000
0000
01ba
cafe
2c15
0000
0000
01b9
cafe
3015
0000
0000
01ba
cafe
3415
0000
0000
01bf
cafe
3815
0000
0000
01bc
cafe
3c15
0000
0000
01be
cafe
2015
0000
0000
01bf
cafe
2415
0000
0000
01bf
cafe
2815
0000
0000
01c0
cafe
2c15
0000
0000
01c2
cafe
3015
0000
0000
01bb
cafe
3415
0000
0000
01b8
cafe
3815
0000
0000
01b7
cafe
3c15
0000
0000
01bb
cafe
2015
0000
0000
01bb
cafe
2415
0000
0000
01b8
cafe
2815
0000
0000
01b8
cafe
2c15
0000
0000
01bb
cafe
3015
0000
0000
01bb
cafe
3415
0000
-
0000
01bd
cafe
3815
0000
0000
01bb
cafe
3c15
0000
0000
01bf
cafe
2015
0000
0000
01ba
cafe
2415
0000
0000
01bc
cafe
2815
0000
0000
01bf
cafe
2c15
0000
0000
01c2
cafe
3015
0000
0000
01bd
cafe
3415
0000
0000
01c0
cafe
3815
0000
0000
01be
cafe
3c15
0000
0000
01bf
cafe
2015
0000
0000
01bb
cafe
2415
0000
0000
01bb
cafe
2815
0000
0000
01b7
cafe
2c15
0000
0000
01b7
cafe
3015
0000
0000
01b8
cafe
3415
0000
0000
01b9
cafe
3815
0000
0000
01be
cafe
3c15
0000
0000
01b6
cafe
2015
0000
0000
01b8
cafe
2415
0000
0000
01bb
cafe
2815
0000
0000
01ba
cafe
2c15
0000
0000
01be
cafe
3015
0000
0000
01bf
cafe
3415
0000
0000
01bb
cafe
3815
0000
0000
01c2
cafe
3c15
0000
0000
01c5
cafe
2015
0000
0000
01c3
cafe
2415
0000
0000
01c0
cafe
2815
0000
0000
01c6
cafe
2c15
0000
0000
01c4
cafe
3015
0000
0000
01c5
cafe
3415
0000
0000
01c6
cafe
3815
0000
0000
01c2
cafe
3c15
0000
0000
01bf
cafe
2015
0000
0000
01bd
cafe
2415
0000
0000
01c1
cafe
2815
0000
0000
01c0
cafe
2c15
0000
0000
01c0
cafe
3015
0000
0000
01c0
cafe
3415
0000
0000
01bf
cafe
3815
0000
0000
01bf
cafe
3c15
0000
0000
01bd
cafe
2015
0000
0000
01c3
cafe
2415
0000
0000
01be
cafe
2815
0000
0000
01c4
cafe
2c15
0000
0000
01c5
cafe
3015
0000
0000
01c1
cafe
3415
0000
0000
01c2
cafe
3815
0000
0000
01b9
cafe
3c15
0000
0000
01b5
cafe
2015
0000
0000
-
01b9
cafe
2415
0000
0000
01b7
cafe
2815
0000
0000
01c0
cafe
2c15
0000
0000
01bb
cafe
3015
0000
0000
01bc
cafe
3415
0000
0000
01b8
cafe
3815
0000
0000
01bc
cafe
3c15
0000
0000
01bf
cafe
2015
0000
0000
01b9
cafe
2415
0000
0000
01bb
cafe
2815
0000
0000
01b9
cafe
2c15
0000
0000
01b7
cafe
3015
0000
0000
01b2
cafe
3415
0000
0000
01ba
cafe
3815
0000
0000
01b4
cafe
3c15
0000
0000
01b9
cafe
2015
0000
0000
01ba
cafe
2415
0000
0000
01bc
cafe
2815
0000
0000
01b6
cafe
2c15
0000
0000
01af
cafe
3015
0000
0000
01b9
cafe
3415
0000
0000
01b6
cafe
3815
0000
0000
01b8
cafe
3c15
0000
0000
01b5
cafe
2015
0000
0000
01b7
cafe
2415
0000
0000
01b9
cafe
2815
0000
0000
01bc
cafe
2c15
0000
0000
01bb
cafe
3015
0000
0000
01bb
cafe
3415
0000
0000
01b4
cafe
3815
0000
0000
01b8
cafe
3c15
0000
0000
01b7
cafe
2015
0000
0000
01bb
cafe
2415
0000
0000
01b6
cafe
2815
0000
0000
01b4
cafe
2c15
0000
0000
01b6
cafe
3015
0000
0000
01b4
cafe
3415
0000
0000
01b3
cafe
3815
0000
0000
01b9
cafe
3c15
0000
0000
01b8
cafe
2015
0000
0000
01b7
cafe
2415
0000
0000
01bf
cafe
2815
0000
0000
01c3
cafe
2c15
0000
0000
01bd
cafe
3015
0000
0000
01bf
cafe
3415
0000
0000
01bc
cafe
3815
0000
0000
01bd
cafe
3c15
0000
0000
01b9
cafe
2015
0000
0000
01be
cafe
2415
0000
0000
01be
cafe
2815
0000
0000
01be
cafe
2c15
0000
0000
01c3
-
cafe
3015
0000
0000
01b8
cafe
3415
0000
0000
01b6
cafe
3815
0000
0000
01b6
cafe
3c15
0000
0000
01b5
cafe
2015
0000
0000
01b5
cafe
2415
0000
0000
01b6
cafe
2815
0000
0000
01b5
cafe
2c15
0000
0000
01b3
cafe
3015
0000
0000
01b8
cafe
3415
0000
0000
01b1
cafe
3815
0000
0000
01b1
cafe
3c15
0000
0000
01b4
cafe
2015
0000
0000
01b6
cafe
2415
0000
0000
01b9
cafe
2815
0000
0000
01b6
cafe
2c15
0000
0000
01bc
cafe
3015
0000
0000
01b9
cafe
3415
0000
0000
01b4
cafe
3815
0000
0000
01bb
cafe
3c15
0000
0000
01bb
cafe
2015
0000
0000
01ba
cafe
2415
0000
0000
01b5
cafe
2815
0000
0000
01ba
cafe
2c15
0000
0000
01b9
cafe
3015
0000
0000
01c1
cafe
3415
0000
0000
01bf
cafe
3815
0000
0000
01bd
cafe
3c15
0000
0000
01bd
cafe
2015
0000
0000
01be
cafe
2415
0000
0000
01be
cafe
2815
0000
0000
01b8
cafe
2c15
0000
0000
01ba
cafe
3015
0000
0000
01ba
cafe
3415
0000
0000
01ba
cafe
3815
0000
0000
01b4
cafe
3c15
0000
0000
01b4
cafe
2015
0000
0000
01b9
cafe
2415
0000
0000
01b9
cafe
2815
0000
0000
01b6
cafe
2c15
0000
0000
01b4
cafe
3015
0000
0000
01b9
cafe
3415
0000
0000
01ba
cafe
3815
0000
0000
01b8
cafe
3c15
0000
0000
01be
cafe
2015
0000
0000
01b8
cafe
2415
0000
0000
01b6
cafe
2815
0000
0000
01b6
cafe
2c15
0000
0000
01b2
cafe
3015
0000
0000
01b3
cafe
3415
0000
0000
01bb
cafe
3815
0000
0000
01b7
cafe
-
3c15
0000
0000
01bd
cafe
2015
0000
0000
01bc
cafe
2415
0000
0000
01ba
cafe
2815
0000
0000
01b9
cafe
2c15
0000
0000
01b7
cafe
3015
0000
0000
01ba
cafe
3415
0000
0000
01ba
cafe
3815
0000
0000
01b9
cafe
3c15
0000
0000
01b8
cafe
2015
0000
0000
01b6
cafe
2415
0000
0000
01b9
cafe
2815
0000
0000
01b9
cafe
2c15
0000
0000
01b9
cafe
3015
0000
0000
01b7
cafe
3415
0000
0000
01bd
cafe
3815
0000
0000
01bd
cafe
3c15
0000
0000
01b8
cafe
2015
0000
0000
01b9
cafe
2415
0000
0000
01b6
cafe
2815
0000
0000
01b9
cafe
2c15
0000
0000
01b2
cafe
3015
0000
0000
01b8
cafe
3415
0000
0000
01b7
cafe
3815
0000
0000
01ae
cafe
3c15
0000
0000
01b5
cafe
2015
0000
0000
01b8
cafe
2415
0000
0000
01bb
cafe
2815
0000
0000
01ba
cafe
2c15
0000
0000
01ba
cafe
3015
0000
0000
01b8
cafe
3415
0000
0000
01ba
cafe
3815
0000
0000
01b9
cafe
3c15
0000
0000
01b9
cafe
2015
0000
0000
01b5
cafe
2415
0000
0000
01b5
cafe
2815
0000
0000
01b7
cafe
2c15
0000
0000
01b5
cafe
3015
0000
0000
01bc
cafe
3415
0000
0000
01bc
cafe
3815
0000
0000
01bd
cafe
3c15
0000
0000
01ba
cafe
2015
0000
0000
01bd
cafe
2415
0000
0000
01bd
cafe
2815
0000
0000
01b8
cafe
2c15
0000
0000
01b6
cafe
3015
0000
0000
01ba
cafe
3415
0000
0000
01be
cafe
3815
0000
0000
01c9
cafe
3c15
0000
0000
01c4
cafe
2015
0000
0000
01c3
cafe
2415
0000
0000
01c3
cafe
2815
-
0000
0000
01c4
cafe
2c15
0000
0000
01c0
cafe
3015
0000
0000
01c1
cafe
3415
0000
0000
01bd
cafe
3815
0000
0000
01bf
cafe
3c15
0000
0000
01bc
cafe
2015
0000
0000
01ba
cafe
2415
0000
0000
01ba
cafe
2815
0000
0000
01ba
cafe
2c15
0000
0000
01ba
cafe
3015
0000
0000
01b7
cafe
3415
0000
0000
01b9
cafe
3815
0000
0000
01b9
cafe
3c15
0000
0000
01b9
cafe
2015
0000
0000
01ba
cafe
2415
0000
0000
01b9
cafe
2815
0000
0000
01ba
cafe
2c15
0000
0000
01bb
cafe
3015
0000
0000
01b5
cafe
3415
0000
0000
01be
cafe
3815
0000
0000
01bb
cafe
3c15
0000
0000
01bc
cafe
2015
0000
0000
01b8
cafe
2415
0000
0000
01b8
cafe
2815
0000
0000
01b4
cafe
2c15
0000
0000
01b6
cafe
3015
0000
0000
01ba
cafe
3415
0000
0000
01ba
cafe
3815
0000
0000
01b6
cafe
3c15
0000
0000
01b8
cafe
2015
0000
0000
01b6
cafe
2415
0000
0000
01bc
cafe
2815
0000
0000
01b8
cafe
2c15
0000
0000
01bb
cafe
3015
0000
0000
01bc
cafe
3415
0000
0000
01bf
cafe
3815
0000
0000
01b9
cafe
3c15
0000
0000
01bb
cafe
2015
0000
0000
01bc
cafe
2415
0000
0000
01bb
cafe
2815
0000
0000
01bc
cafe
2c15
0000
0000
01ba
cafe
3015
0000
0000
01bb
cafe
3415
0000
0000
01bb
cafe
3815
0000
0000
01c1
cafe
3c15
0000
0000
01be
cafe
2015
0000
0000
01ba
cafe
2415
0000
0000
01bc
cafe
2815
0000
0000
01bb
cafe
2c15
0000
0000
01bb
cafe
3015
0000
0000
01bb
cafe
3415
0000
-
0000
01ba
cafe
3815
0000
0000
01b8
cafe
3c15
0000
0000
01bd
cafe
2015
0000
0000
01c4
cafe
2415
0000
0000
01c1
cafe
2815
0000
0000
01c8
cafe
2c15
0000
0000
01cb
cafe
3015
0000
0000
01c8
cafe
3415
0000
0000
01c6
cafe
3815
0000
0000
01c3
cafe
3c15
0000
0000
01c5
cafe
2015
0000
0000
01c2
cafe
2415
0000
0000
01c6
cafe
2815
0000
0000
01c2
cafe
2c15
0000
0000
01c4
cafe
3015
0000
0000
01c2
cafe
3415
0000
0000
01c3
cafe
3815
0000
0000
01be
cafe
3c15
0000
0000
01c1
cafe
2015
0000
0000
01be
cafe
2415
0000
0000
01ba
cafe
2815
0000
0000
01be
cafe
2c15
0000
0000
01be
cafe
3015
0000
0000
01be
cafe
3415
0000
0000
01bd
cafe
3815
0000
0000
01b6
cafe
3c15
0000
0000
01b8
cafe
2015
0000
0000
01c0
cafe
2415
0000
0000
01b7
cafe
2815
0000
0000
01ba
cafe
2c15
0000
0000
01b9
cafe
3015
0000
0000
01bf
cafe
3415
0000
0000
01bb
cafe
3815
0000
0000
01c0
cafe
3c15
0000
0000
01b9
cafe
2015
0000
0000
01bc
cafe
2415
0000
0000
01be
cafe
2815
0000
0000
01bb
cafe
2c15
0000
0000
01b8
cafe
3015
0000
0000
01b9
cafe
3415
0000
0000
01ba
cafe
3815
0000
0000
01c0
cafe
3c15
0000
0000
01c2
cafe
2015
0000
0000
01c0
cafe
2415
0000
0000
01c2
cafe
2815
0000
0000
01c1
cafe
2c15
0000
0000
01c6
cafe
3015
0000
0000
01c2
cafe
3415
0000
0000
01c1
cafe
3815
0000
0000
01c2
cafe
3c15
0000
0000
01c3
cafe
2015
0000
0000
-
01c3
cafe
2415
0000
0000
01c4
cafe
2815
0000
0000
01c2
cafe
2c15
0000
0000
01c0
cafe
3015
0000
0000
01c3
cafe
3415
0000
0000
01c1
cafe
3815
0000
0000
01c1
cafe
3c15
0000
0000
01bf
cafe
2015
0000
0000
01ba
cafe
2415
0000
0000
01be
cafe
2815
0000
0000
01bd
cafe
2c15
0000
0000
01bb
cafe
3015
0000
0000
01bd
cafe
3415
0000
0000
01b8
cafe
3815
0000
0000
01b9
cafe
3c15
0000
0000
01bc
cafe
2015
0000
0000
01b7
cafe
2415
0000
0000
01b8
cafe
2815
0000
0000
01b5
cafe
2c15
0000
0000
01b8
cafe
3015
0000
0000
01b8
cafe
3415
0000
0000
01bd
cafe
3815
0000
0000
01bc
cafe
3c15
0000
0000
01b9
cafe
2015
0000
0000
01bb
cafe
2415
0000
0000
01b9
cafe
2815
0000
0000
01bb
cafe
2c15
0000
0000
01bd
cafe
3015
0000
0000
01c3
cafe
3415
0000
0000
01c0
cafe
3815
0000
0000
01bf
cafe
3c15
0000
0000
01c3
cafe
2015
0000
0000
01c4
cafe
2415
0000
0000
01c9
cafe
2815
0000
0000
01c9
cafe
2c15
0000
0000
01ca
cafe
3015
0000
0000
01c8
cafe
3415
0000
0000
01c6
cafe
3815
0000
0000
01c1
cafe
3c15
0000
0000
01bd
cafe
2015
0000
0000
01b5
cafe
2415
0000
0000
01b7
cafe
2815
0000
0000
01bc
cafe
2c15
0000
0000
01bc
cafe
3015
0000
0000
01c4
cafe
3415
0000
0000
01be
cafe
3815
0000
0000
01bc
cafe
3c15
0000
0000
01b9
cafe
2015
0000
0000
01b7
cafe
2415
0000
0000
01b6
cafe
2815
0000
0000
01b2
cafe
2c15
0000
0000
01b7
-
cafe
3015
0000
0000
01b7
cafe
3415
0000
0000
01b5
cafe
3815
0000
0000
01ba
cafe
3c15
0000
0000
01bb
cafe
2015
0000
0000
01b9
cafe
2415
0000
0000
01b6
cafe
2815
0000
0000
01bb
cafe
2c15
0000
0000
01b2
cafe
3015
0000
0000
01bb
cafe
3415
0000
0000
01b9
cafe
3815
0000
0000
01b7
cafe
3c15
0000
0000
01bb
cafe
2015
0000
0000
01b8
cafe
2415
0000
0000
01b7
cafe
2815
0000
0000
01b4
cafe
2c15
0000
0000
01b5
cafe
3015
0000
0000
01b9
cafe
3415
0000
0000
01ba
cafe
3815
0000
0000
01b4
cafe
3c15
0000
0000
01b5
cafe
2015
0000
0000
01b7
cafe
2415
0000
0000
01b3
cafe
2815
0000
0000
01b7
cafe
2c15
0000
0000
01b3
cafe
3015
0000
0000
01b2
cafe
3415
0000
0000
01b9
cafe
3815
0000
0000
01b7
cafe
3c15
0000
0000
01ba
cafe
2015
0000
0000
01ba
cafe
2415
0000
0000
01bb
cafe
2815
0000
0000
01ba
cafe
2c15
0000
0000
01b8
cafe
3015
0000
0000
01b6
cafe
3415
0000
0000
01bc
cafe
3815
0000
0000
01b7
cafe
3c15
0000
0000
01b4
cafe
2015
0000
0000
01b3
cafe
2415
0000
0000
01b5
cafe
2815
0000
0000
01b8
cafe
2c15
0000
0000
01bd
cafe
3015
0000
0000
01bb
cafe
3415
0000
0000
01b9
cafe
3815
0000
0000
01b4
cafe
3c15
0000
0000
01b5
cafe
2015
0000
0000
01bc
cafe
2415
0000
0000
01b9
cafe
2815
0000
0000
01ba
cafe
2c15
0000
0000
01b9
cafe
3015
0000
0000
01bb
cafe
3415
0000
0000
01c2
cafe
3815
0000
0000
01c0
cafe
-
3c15
0000
0000
01c3
cafe
2015
0000
0000
01bc
cafe
2415
0000
0000
01ba
cafe
2815
0000
0000
01b7
cafe
2c15
0000
0000
01b6
cafe
3015
0000
0000
01be
cafe
3415
0000
0000
01b9
cafe
3815
0000
0000
01ba
cafe
3c15
0000
0000
01bb
cafe
2015
0000
0000
01b7
cafe
2415
0000
0000
01b6
cafe
2815
0000
0000
01b7
cafe
2c15
0000
0000
01ba
cafe
3015
0000
0000
01b7
cafe
3415
0000
0000
01b5
cafe
3815
0000
0000
01ba
cafe
3c15
0000
0000
01b9
cafe
2015
0000
0000
01bb
cafe
2415
0000
0000
01ba
cafe
2815
0000
0000
01bf
cafe
2c15
0000
0000
01c1
cafe
3015
0000
0000
01b7
cafe
3415
0000
0000
01ba
cafe
3815
0000
0000
01bc
cafe
3c15
0000
0000
01bd
cafe
2015
0000
0000
01bc
cafe
2415
0000
0000
01c0
cafe
2815
0000
0000
01b9
cafe
2c15
0000
0000
01bc
cafe
3015
0000
0000
01bc
cafe
3415
0000
0000
01be
cafe
3815
0000
0000
01ba
cafe
3c15
0000
0000
01bd
cafe
2015
0000
0000
01c0
cafe
2415
0000
0000
01bc
cafe
2815
0000
0000
01bc
cafe
2c15
0000
0000
01bd
cafe
3015
0000
0000
01ba
cafe
3415
0000
0000
01be
cafe
3815
0000
0000
01bf
cafe
3c15
0000
0000
01bc
cafe
2015
0000
0000
01b9
cafe
2415
0000
0000
01b8
cafe
2815
0000
0000
01b7
cafe
2c15
0000
0000
01b9
cafe
3015
0000
0000
01ba
cafe
3415
0000
0000
01b9
cafe
3815
0000
0000
01ba
cafe
3c15
0000
0000
01b9
cafe
2015
0000
0000
01b7
cafe
2415
0000
0000
01b8
cafe
2815
-
0000
0000
01b4
cafe
2c15
0000
0000
01b6
cafe
3015
0000
0000
01b1
cafe
3415
0000
0000
01b7
cafe
3815
0000
0000
01bb
cafe
3c15
0000
0000
01bb
cafe
2015
0000
0000
01bc
cafe
2415
0000
0000
01bf
cafe
2815
0000
0000
01bc
cafe
2c15
0000
0000
01ba
cafe
3015
0000
0000
01b6
cafe
3415
0000
0000
01b9
cafe
3815
0000
0000
01b9
cafe
3c15
0000
0000
01b5
cafe
2015
0000
0000
01b8
cafe
2415
0000
0000
01b7
cafe
2815
0000
0000
01b5
cafe
2c15
0000
0000
01bb
cafe
3015
0000
0000
01bf
cafe
3415
0000
0000
01bc
cafe
3815
0000
0000
01bd
cafe
3c15
0000
0000
01bc
cafe
2015
0000
0000
01be
cafe
2415
0000
0000
01bb
cafe
2815
0000
0000
01bb
cafe
2c15
0000
0000
01bc
cafe
3015
0000
0000
01bf
cafe
3415
0000
0000
01ba
cafe
3815
0000
0000
01b7
cafe
3c15
0000
0000
01b6
cafe
2015
0000
0000
01bd
cafe
2415
0000
0000
01b9
cafe
2815
0000
0000
01b9
cafe
2c15
0000
0000
01ba
cafe
3015
0000
0000
01b9
cafe
3415
0000
0000
01bf
cafe
3815
0000
0000
01b8
cafe
3c15
0000
0000
01bc
cafe
2015
0000
0000
01bf
cafe
2415
0000
0000
01be
cafe
2815
0000
0000
01c4
cafe
2c15
0000
0000
01c5
cafe
3015
0000
0000
01c0
cafe
3415
0000
0000
01c0
cafe
3815
0000
0000
01bd
cafe
3c15
0000
0000
01ba
cafe
2015
0000
0000
01b9
cafe
2415
0000
0000
01b8
cafe
2815
0000
0000
01b8
cafe
2c15
0000
0000
01b9
cafe
3015
0000
0000
01bd
cafe
3415
0000
-
0000
01bc
cafe
3815
0000
0000
01ba
cafe
3c15
0000
0000
01b5
cafe
2015
0000
0000
01b8
cafe
2415
0000
0000
01b6
cafe
2815
0000
0000
01b9
cafe
2c15
0000
0000
01b8
cafe
3015
0000
0000
01ba
cafe
3415
0000
0000
01ba
cafe
3815
0000
0000
01b7
cafe
3c15
0000
0000
01ba
cafe
2015
0000
0000
01b6
cafe
2415
0000
0000
01b5
cafe
2815
0000
0000
01b8
cafe
2c15
0000
0000
01b6
cafe
3015
0000
0000
01b6
cafe
3415
0000
0000
01b6
cafe
3815
0000
0000
01b6
cafe
3c15
0000
0000
01b6
cafe
2015
0000
0000
01b5
cafe
2415
0000
0000
01ba
cafe
2815
0000
0000
01bc
cafe
2c15
0000
0000
01bb
cafe
3015
0000
0000
01bb
cafe
3415
0000
0000
01bc
cafe
3815
0000
0000
01bb
cafe
3c15
0000
0000
01bb
cafe
2015
0000
0000
01bc
cafe
2415
0000
0000
01bc
cafe
2815
0000
0000
01bf
cafe
2c15
0000
0000
01b9
cafe
3015
0000
0000
01bd
cafe
3415
0000
0000
01bc
cafe
3815
0000
0000
01bf
cafe
3c15
0000
0000
01bd
cafe
2015
0000
0000
01be
cafe
2415
0000
0000
01ba
cafe
2815
0000
0000
01bb
cafe
2c15
0000
0000
01bf
cafe
3015
0000
0000
01c1
cafe
3415
0000
0000
01c2
cafe
3815
0000
0000
01c4
cafe
3c15
0000
0000
01be
cafe
2015
0000
0000
01bf
cafe
2415
0000
0000
01bd
cafe
2815
0000
0000
01bd
cafe
2c15
0000
0000
01be
cafe
3015
0000
0000
01b9
cafe
3415
0000
0000
01b9
cafe
3815
0000
0000
01bc
cafe
3c15
0000
0000
01bd
cafe
2015
0000
0000
-
01bc
cafe
2415
0000
0000
01be
cafe
2815
0000
0000
01bd
cafe
2c15
0000
0000
01c0
cafe
3015
0000
0000
01bd
cafe
3415
0000
0000
01b9
cafe
3815
0000
0000
01b7
cafe
3c15
0000
0000
01b9
cafe
2015
0000
0000
01b7
cafe
2415
0000
0000
01be
cafe
2815
0000
0000
01b8
cafe
2c15
0000
0000
01bb
cafe
3015
0000
0000
01b8
cafe
3415
0000
0000
01ba
cafe
3815
0000
0000
01c2
cafe
3c15
0000
0000
01c1
cafe
2015
0000
0000
01be
cafe
2415
0000
0000
01bc
cafe
2815
0000
0000
01ba
cafe
2c15
0000
0000
01b9
cafe
3015
0000
0000
01b3
cafe
3415
0000
0000
01b6
cafe
3815
0000
0000
01b4
cafe
3c15
0000
0000
01b5
cafe
2015
0000
0000
01b7
cafe
2415
0000
0000
01bc
cafe
2815
0000
0000
01b7
cafe
2c15
0000
0000
01be
cafe
3015
0000
0000
01b8
cafe
3415
0000
0000
01bf
cafe
3815
0000
0000
01b7
cafe
3c15
0000
0000
01b8
cafe
2015
0000
0000
01b6
cafe
2415
0000
0000
01ba
cafe
2815
0000
0000
01bd
cafe
2c15
0000
0000
01bb
cafe
3015
0000
0000
01bc
cafe
3415
0000
0000
01bf
cafe
3815
0000
0000
01c0
cafe
3c15
0000
0000
01bd
cafe
2015
0000
0000
01bc
cafe
2415
0000
0000
01c4
cafe
2815
0000
0000
01c4
cafe
2c15
0000
0000
01be
cafe
3015
0000
0000
01bf
cafe
3415
0000
0000
01bc
cafe
3815
0000
0000
01bb
cafe
3c15
0000
0000
01bc
cafe
2015
0000
0000
01b9
cafe
2415
0000
0000
01bf
cafe
2815
0000
0000
01b8
cafe
2c15
0000
0000
01be
-
cafe
3015
0000
0000
01bc
cafe
3415
0000
0000
01b9
cafe
3815
0000
0000
01bb
cafe
3c15
0000
0000
01c2
cafe
2015
0000
0000
01ba
cafe
2415
0000
0000
01bf
cafe
2815
0000
0000
01bd
cafe
2c15
0000
0000
01c2
cafe
3015
0000
0000
01c1
cafe
3415
0000
0000
01c2
cafe
3815
0000
0000
01bd
cafe
3c15
0000
0000
01bc
cafe
2015
0000
0000
01c3
cafe
2415
0000
0000
01c0
cafe
2815
0000
0000
01bc
cafe
2c15
0000
0000
01bd
cafe
3015
0000
0000
01bd
cafe
3415
0000
0000
01bb
cafe
3815
0000
0000
01b7
cafe
3c15
0000
0000
01bb
cafe
2015
0000
0000
01bc
cafe
2415
0000
0000
01bd
cafe
2815
0000
0000
01bd
cafe
2c15
0000
0000
01ba
cafe
3015
0000
0000
01bc
cafe
3415
0000
0000
01bc
cafe
3815
0000
0000
01b9
cafe
3c15
0000
0000
01bb
cafe
2015
0000
0000
01b8
cafe
2415
0000
0000
01b7
cafe
2815
0000
0000
01b9
cafe
2c15
0000
0000
01b6
cafe
3015
0000
0000
01b6
cafe
3415
0000
0000
01b4
cafe
3815
0000
0000
01b8
cafe
3c15
0000
0000
01bf
cafe
2015
0000
0000
01bb
cafe
2415
0000
0000
01b9
cafe
2815
0000
0000
01bb
cafe
2c15
0000
0000
01c1
cafe
3015
0000
0000
01b9
cafe
3415
0000
0000
01bb
cafe
3815
0000
0000
01b9
cafe
3c15
0000
0000
01bc
cafe
2015
0000
0000
01ba
cafe
2415
0000
0000
01b8
cafe
2815
0000
0000
01b6
cafe
2c15
0000
0000
01bd
cafe
3015
0000
0000
01c4
cafe
3415
0000
0000
01bc
cafe
3815
0000
0000
01be
cafe
-
3c15
0000
0000
01be
cafe
2015
0000
0000
01bd
cafe
2415
0000
0000
01bc
cafe
2815
0000
0000
01bb
cafe
2c15
0000
0000
01bb
cafe
3015
0000
0000
01bd
cafe
3415
0000
0000
01bf
cafe
3815
0000
0000
01ba
cafe
3c15
0000
0000
01ba
cafe
2015
0000
0000
01bd
cafe
2415
0000
0000
01bd
cafe
2815
0000
0000
01b9
cafe
2c15
0000
0000
01b9
cafe
3015
0000
0000
01ba
cafe
3415
0000
0000
01b7
cafe
3815
0000
0000
01bd
cafe
3c15
0000
0000
01be
cafe
2015
0000
0000
01be
cafe
2415
0000
0000
01bd
cafe
2815
0000
0000
01b6
cafe
2c15
0000
0000
01b9
cafe
3015
0000
0000
01b2
cafe
3415
0000
0000
01b5
cafe
3815
0000
0000
01b5
cafe
3c15
0000
0000
01b5
cafe
2015
0000
0000
01b1
cafe
2415
0000
0000
01b4
cafe
2815
0000
0000
01b6
cafe
2c15
0000
0000
01b9
cafe
3015
0000
0000
01b2
cafe
3415
0000
0000
01b8
cafe
3815
0000
0000
01ba
cafe
3c15
0000
0000
01bb
cafe
2015
0000
0000
01b9
cafe
2415
0000
0000
01b9
cafe
2815
0000
0000
01b5
cafe
2c15
0000
0000
01b5
cafe
3015
0000
0000
01b8
cafe
3415
0000
0000
01bc
cafe
3815
0000
0000
01bd
cafe
3c15
0000
0000
01bc
cafe
2015
0000
0000
01c2
cafe
2415
0000
0000
01c0
cafe
2815
0000
0000
01bd
cafe
2c15
0000
0000
01bb
cafe
3015
0000
0000
01bc
cafe
3415
0000
0000
01bb
cafe
3815
0000
0000
01bb
cafe
3c15
0000
0000
01bd
cafe
2015
0000
0000
01c0
cafe
2415
0000
0000
01bc
cafe
2815
-
0000
0000
01bf
cafe
2c15
0000
0000
01bd
cafe
3015
0000
0000
01bc
cafe
3415
0000
0000
01bc
cafe
3815
0000
0000
01bc
cafe
3c15
0000
0000
01b9
cafe
2015
0000
0000
01b7
cafe
2415
0000
0000
01b7
cafe
2815
0000
0000
01b9
cafe
2c15
0000
0000
01b5
cafe
3015
0000
0000
01b5
cafe
3415
0000
0000
01b5
cafe
3815
0000
0000
01b4
cafe
3c15
0000
0000
01b1
cafe
2015
0000
0000
01b7
cafe
2415
0000
0000
01b5
cafe
2815
0000
0000
01b1
cafe
2c15
0000
0000
01bb
cafe
3015
0000
0000
01ba
cafe
3415
0000
0000
01bd
cafe
3815
0000
0000
01ba
cafe
3c15
0000
0000
01b7
cafe
2015
0000
0000
01b7
cafe
2415
0000
0000
01b7
cafe
2815
0000
0000
01b8
cafe
2c15
0000
0000
01ba
cafe
3015
0000
0000
01c0
cafe
3415
0000
0000
01ba
cafe
3815
0000
0000
01b5
cafe
3c15
0000
0000
01bb
cafe
2015
0000
0000
01b5
cafe
2415
0000
0000
01b9
cafe
2815
0000
0000
01b6
cafe
2c15
0000
0000
01ba
cafe
3015
0000
0000
01bc
cafe
3415
0000
0000
01bc
cafe
3815
0000
0000
01bf
cafe
3c15
0000
0000
01bd
cafe
2015
0000
0000
01bd
cafe
2415
0000
0000
01bd
cafe
2815
0000
0000
01be
cafe
2c15
0000
0000
01b9
cafe
3015
0000
0000
01b9
cafe
3415
0000
0000
01b6
cafe
3815
0000
0000
01b4
cafe
3c15
0000
0000
01b9
cafe
2015
0000
0000
01b9
cafe
2415
0000
0000
01b6
cafe
2815
0000
0000
01b8
cafe
2c15
0000
0000
01b6
cafe
3015
0000
0000
01bb
cafe
3415
0000
-
0000
01ba
cafe
3815
0000
0000
01bb
cafe
3c15
0000
0000
01b6
cafe
2015
0000
0000
01b8
cafe
2415
0000
0000
01b8
cafe
2815
0000
0000
01b4
cafe
2c15
0000
0000
01b4
cafe
3015
0000
0000
01b7
cafe
3415
0000
0000
01b9
cafe
3815
0000
0000
01bc
cafe
3c15
0000
0000
01ba
cafe
2015
0000
0000
01bb
cafe
2415
0000
0000
01bc
cafe
2815
0000
0000
01bb
cafe
2c15
0000
0000
01bf
cafe
3015
0000
0000
01c3
cafe
3415
0000
0000
01c2
cafe
3815
0000
0000
01bc
cafe
3c15
0000
0000
01c0
cafe
2015
0000
0000
01bc
cafe
2415
0000
0000
01bd
cafe
2815
0000
0000
01b9
cafe
2c15
0000
0000
01ba
cafe
3015
0000
0000
01bc
cafe
3415
0000
0000
01b9
cafe
3815
0000
0000
01bb
cafe
3c15
0000
0000
01bb
cafe
2015
0000
0000
01bc
cafe
2415
0000
0000
01b8
cafe
2815
0000
0000
01bb
cafe
2c15
0000
0000
01be
cafe
3015
0000
0000
01c0
cafe
3415
0000
0000
01c3
cafe
3815
0000
0000
01bd
cafe
3c15
0000
0000
01bf
cafe
2015
0000
0000
01c5
cafe
2415
0000
0000
01be
cafe
2815
0000
0000
01bf
cafe
2c15
0000
0000
01be
cafe
3015
0000
0000
01c0
cafe
3415
0000
0000
01bd
cafe
3815
0000
0000
01c1
cafe
3c15
0000
0000
01c4
cafe
2015
0000
0000
01c1
cafe
2415
0000
0000
01c3
cafe
2815
0000
0000
01bf
cafe
2c15
0000
0000
01bc
cafe
3015
0000
0000
01b9
cafe
3415
0000
0000
01b8
cafe
3815
0000
0000
01b7
cafe
3c15
0000
0000
01ba
cafe
2015
0000
0000
-
01b8
cafe
2415
0000
0000
01bd
cafe
2815
0000
0000
01bc
cafe
2c15
0000
0000
01bc
cafe
3015
0000
0000
01bc
cafe
3415
0000
0000
01b7
cafe
3815
0000
0000
01b5
cafe
3c15
0000
0000
01b8
cafe
2015
0000
0000
01b3
cafe
2415
0000
0000
01b9
cafe
2815
0000
0000
01bc
cafe
2c15
0000
0000
01bb
cafe
3015
0000
0000
01bc
cafe
3415
0000
0000
01bd
cafe
3815
0000
0000
01c0
cafe
3c15
0000
0000
01bd
cafe
2015
0000
0000
01bb
cafe
2415
0000
0000
01c0
cafe
2815
0000
0000
01c1
cafe
2c15
0000
0000
01c0
cafe
3015
0000
0000
01c1
cafe
3415
0000
0000
01c1
cafe
3815
0000
0000
01bf
cafe
3c15
0000
0000
01b7
cafe
2015
0000
0000
01ba
cafe
2415
0000
0000
01be
cafe
2815
0000
0000
01be
cafe
2c15
0000
0000
01b9
cafe
3015
0000
0000
01b9
cafe
3415
0000
0000
01b8
cafe
3815
0000
0000
01b8
cafe
3c15
0000
0000
01ba
cafe
2015
0000
0000
01c1
cafe
2415
0000
0000
01be
cafe
2815
0000
0000
01bc
cafe
2c15
0000
0000
01be
cafe
3015
0000
0000
01c1
cafe
3415
0000
0000
01b9
cafe
3815
0000
0000
01bb
cafe
3c15
0000
0000
01bc
cafe
2015
0000
0000
01b9
cafe
2415
0000
0000
01b3
cafe
2815
0000
0000
01b3
cafe
2c15
0000
0000
01b2
cafe
3015
0000
0000
01b8
cafe
3415
0000
0000
01b5
cafe
3815
0000
0000
01b5
cafe
3c15
0000
0000
01b3
cafe
2015
0000
0000
01b2
cafe
2415
0000
0000
01ba
cafe
2815
0000
0000
01bc
cafe
2c15
0000
0000
01ba
-
cafe
3015
0000
0000
01b7
cafe
3415
0000
0000
01b7
cafe
3815
0000
0000
01ba
cafe
3c15
0000
0000
01c0
cafe
2015
0000
0000
01bc
cafe
2415
0000
0000
01bb
cafe
2815
0000
0000
01ba
cafe
2c15
0000
0000
01bc
cafe
3015
0000
0000
01c1
cafe
3415
0000
0000
01bc
cafe
3815
0000
0000
01c1
cafe
3c15
0000
0000
01be
cafe
2015
0000
0000
01bd
cafe
2415
0000
0000
01c1
cafe
2815
0000
0000
01bd
cafe
2c15
0000
0000
01bd
cafe
3015
0000
0000
01c2
cafe
3415
0000
0000
01c0
cafe
3815
0000
0000
01bb
cafe
3c15
0000
0000
01c1
cafe
2015
0000
0000
01bb
cafe
2415
0000
0000
01be
cafe
2815
0000
0000
01bb
cafe
2c15
0000
0000
01b6
cafe
3015
0000
0000
01b8
cafe
3415
0000
0000
01ba
cafe
3815
0000
0000
01ba
cafe
3c15
0000
0000
01be
cafe
2015
0000
0000
01b9
cafe
2415
0000
0000
01b9
cafe
2815
0000
0000
01ba
cafe
2c15
0000
0000
01bc
cafe
3015
0000
0000
01be
cafe
3415
0000
0000
01be
cafe
3815
0000
0000
01be
cafe
3c15
0000
0000
01b8
cafe
2015
0000
0000
01be
cafe
2415
0000
0000
01be
cafe
2815
0000
0000
01c0
cafe
2c15
0000
0000
01c1
cafe
3015
0000
0000
01be
cafe
3415
0000
0000
01c3
cafe
3815
0000
0000
01c0
cafe
3c15
0000
0000
01c0
cafe
2015
0000
0000
01c5
cafe
2415
0000
0000
01c5
cafe
2815
0000
0000
01c0
cafe
2c15
0000
0000
01c7
cafe
3015
0000
0000
01c7
cafe
3415
0000
0000
01c2
cafe
3815
0000
0000
01c4
cafe
-
3c15
0000
0000
01c2
cafe
2015
0000
0000
01c0
cafe
2415
0000
0000
01c3
cafe
2815
0000
0000
01ba
cafe
2c15
0000
0000
01ba
cafe
3015
0000
0000
01b3
cafe
3415
0000
0000
01b7
cafe
3815
0000
0000
01bc
cafe
3c15
0000
0000
01b8
cafe
2015
0000
0000
01b6
cafe
2415
0000
0000
01ba
cafe
2815
0000
0000
01b9
cafe
2c15
0000
0000
01b9
cafe
3015
0000
0000
01ba
cafe
3415
0000
0000
01c0
cafe
3815
0000
0000
01c2
cafe
3c15
0000
0000
01c1
cafe
2015
0000
0000
01b9
cafe
2415
0000
0000
01bd
cafe
2815
0000
0000
01bc
cafe
2c15
0000
0000
01c1
cafe
3015
0000
0000
01bc
cafe
3415
0000
0000
01ba
cafe
3815
0000
0000
01b7
cafe
3c15
0000
0000
01b7
cafe
2015
0000
0000
01b8
cafe
2415
0000
0000
01bc
cafe
2815
0000
0000
01b8
cafe
2c15
0000
0000
01bd
cafe
3015
0000
0000
01bc
cafe
3415
0000
0000
01bc
cafe
3815
0000
0000
01c0
cafe
3c15
0000
0000
01c0
cafe
2015
0000
0000
01c1
cafe
2415
0000
0000
01bd
cafe
2815
0000
0000
01bf
cafe
2c15
0000
0000
01bc
cafe
3015
0000
0000
01bd
cafe
3415
0000
0000
01b8
cafe
3815
0000
0000
01bb
cafe
3c15
0000
0000
01bd
cafe
2015
0000
0000
01ba
cafe
2415
0000
0000
01c4
cafe
2815
0000
0000
01be
cafe
2c15
0000
0000
01be
cafe
3015
0000
0000
01ba
cafe
3415
0000
0000
01bc
cafe
3815
0000
0000
01bd
cafe
3c15
0000
0000
01bd
cafe
2015
0000
0000
01bb
cafe
2415
0000
0000
01ba
cafe
2815
-
0000
0000
01bb
cafe
2c15
0000
0000
01bf
cafe
3015
0000
0000
01bb
cafe
3415
0000
0000
01be
cafe
3815
0000
0000
01bb
cafe
3c15
0000
0000
01bd
cafe
2015
0000
0000
01b9
cafe
2415
0000
0000
01be
cafe
2815
0000
0000
01bf
cafe
2c15
0000
0000
01be
cafe
3015
0000
0000
01bf
cafe
3415
0000
0000
01be
cafe
3815
0000
0000
01bd
cafe
3c15
0000
0000
01be
cafe
2015
0000
0000
01c3
cafe
2415
0000
0000
01c3
cafe
2815
0000
0000
01c2
cafe
2c15
0000
0000
01bd
cafe
3015
0000
0000
01c2
cafe
3415
0000
0000
01bf
cafe
3815
0000
0000
01c3
cafe
3c15
0000
0000
01bd
cafe
2015
0000
0000
01bf
cafe
2415
0000
0000
01bc
cafe
2815
0000
0000
01c0
cafe
2c15
0000
0000
01bd
cafe
3015
0000
0000
01c0
cafe
3415
0000
0000
01ba
cafe
3815
0000
0000
01b7
cafe
3c15
0000
0000
01b6
cafe
2015
0000
0000
01b9
cafe
2415
0000
0000
01b9
cafe
2815
0000
0000
01b9
cafe
2c15
0000
0000
01bd
cafe
3015
0000
0000
01bc
cafe
3415
0000
0000
01bb
cafe
3815
0000
0000
01bf
cafe
3c15
0000
0000
01bb
cafe
2015
0000
0000
01be
cafe
2415
0000
0000
01be
cafe
2815
0000
0000
01bc
cafe
2c15
0000
0000
01bd
cafe
3015
0000
0000
01c2
cafe
3415
0000
0000
01c2
cafe
3815
0000
0000
01c0
cafe
3c15
0000
0000
01bd
cafe
2015
0000
0000
01be
cafe
2415
0000
0000
01ba
cafe
2815
0000
0000
01bb
cafe
2c15
0000
0000
01b8
cafe
3015
0000
0000
01b5
cafe
3415
0000
-
0000
01b7
cafe
3815
0000
0000
01b9
cafe
3c15
0000
0000
01b8
cafe
2015
0000
0000
01bb
cafe
2415
0000
0000
01b8
cafe
2815
0000
0000
01b7
cafe
2c15
0000
0000
01b5
cafe
3015
0000
0000
01b7
cafe
3415
0000
0000
01b4
cafe
3815
0000
0000
01b7
cafe
3c15
0000
0000
01b6
cafe
2015
0000
0000
01b8
cafe
2415
0000
0000
01b8
cafe
2815
0000
0000
01b2
cafe
2c15
0000
0000
01c1
cafe
3015
0000
0000
01bd
cafe
3415
0000
0000
01c4
cafe
3815
0000
0000
01c1
cafe
3c15
0000
0000
01c0
cafe
2015
0000
0000
01c4
cafe
2415
0000
0000
01c2
cafe
2815
0000
0000
01bb
cafe
2c15
0000
0000
01ba
cafe
3015
0000
0000
01be
cafe
3415
0000
0000
01be
cafe
3815
0000
0000
01bb
cafe
3c15
0000
0000
01ba
cafe
2015
0000
0000
01bc
cafe
2415
0000
0000
01b7
cafe
2815
0000
0000
01bd
cafe
2c15
0000
0000
01b7
cafe
3015
0000
0000
01bf
cafe
3415
0000
0000
01c2
cafe
3815
0000
0000
01bd
cafe
3c15
0000
0000
01b9
cafe
2015
0000
0000
01bd
cafe
2415
0000
0000
01b7
cafe
2815
0000
0000
01b8
cafe
2c15
0000
0000
01bf
cafe
3015
0000
0000
01bc
cafe
3415
0000
0000
01ba
cafe
3815
0000
0000
01b5
cafe
3c15
0000
0000
01b8
cafe
2015
0000
0000
01bd
cafe
2415
0000
0000
01ba
cafe
2815
0000
0000
01bb
cafe
2c15
0000
0000
01b9
cafe
3015
0000
0000
01b8
cafe
3415
0000
0000
01bc
cafe
3815
0000
0000
01bb
cafe
3c15
0000
0000
01bd
cafe
2015
0000
0000
-
01c1
cafe
2415
0000
0000
01be
cafe
2815
0000
0000
01b9
cafe
2c15
0000
0000
01b6
cafe
3015
0000
0000
01b5
cafe
3415
0000
0000
01b4
cafe
3815
0000
0000
01b5
cafe
3c15
0000
0000
01b6
cafe
2015
0000
0000
01b5
cafe
2415
0000
0000
01b8
cafe
2815
0000
0000
01b7
cafe
2c15
0000
0000
01bc
cafe
3015
0000
0000
01b5
cafe
3415
0000
0000
01ba
cafe
3815
0000
0000
01b9
cafe
3c15
0000
0000
01b6
cafe
2015
0000
0000
01b2
cafe
2415
0000
0000
01b8
cafe
2815
0000
0000
01bb
cafe
2c15
0000
0000
01b9
cafe
3015
0000
0000
01bc
cafe
3415
0000
0000
01bd
cafe
3815
0000
0000
01bc
cafe
3c15
0000
0000
01b9
cafe
2015
0000
0000
01b9
cafe
2415
0000
0000
01b9
cafe
2815
0000
0000
01bb
cafe
2c15
0000
0000
01bf
cafe
3015
0000
0000
01be
cafe
3415
0000
0000
01c0
cafe
3815
0000
0000
01bd
cafe
3c15
0000
0000
01b9
cafe
2015
0000
0000
01bf
cafe
2415
0000
0000
01b9
cafe
2815
0000
0000
01b6
cafe
2c15
0000
0000
01b8
cafe
3015
0000
0000
01ba
cafe
3415
0000
0000
01c0
cafe
3815
0000
0000
01c1
cafe
3c15
0000
0000
01c0
cafe
2015
0000
0000
01c7
cafe
2415
0000
0000
01c3
cafe
2815
0000
0000
01c3
cafe
2c15
0000
0000
01c5
cafe
3015
0000
0000
01c2
cafe
3415
0000
0000
01bd
cafe
3815
0000
0000
01c0
cafe
3c15
0000
0000
01ba
cafe
2015
0000
0000
01b8
cafe
2415
0000
0000
01be
cafe
2815
0000
0000
01be
cafe
2c15
0000
0000
01b9
-
cafe
3015
0000
0000
01b9
cafe
3415
0000
0000
01bb
cafe
3815
0000
0000
01ba
cafe
3c15
0000
0000
01ba
cafe
2015
0000
0000
01b6
cafe
2415
0000
0000
01b5
cafe
2815
0000
0000
01ba
cafe
2c15
0000
0000
01bb
cafe
3015
0000
0000
01bb
cafe
3415
0000
0000
01bb
cafe
3815
0000
0000
01bf
cafe
3c15
0000
0000
01bc
cafe
2015
0000
0000
01bb
cafe
2415
0000
0000
01bc
cafe
2815
0000
0000
01ba
cafe
2c15
0000
0000
01b9
cafe
3015
0000
0000
01b7
cafe
3415
0000
0000
01b5
cafe
3815
0000
0000
01b1
cafe
3c15
0000
0000
01b4
cafe
2015
0000
0000
01b6
cafe
2415
0000
0000
01bc
cafe
2815
0000
0000
01ba
cafe
2c15
0000
0000
01be
cafe
3015
0000
0000
01b9
cafe
3415
0000
0000
01b7
cafe
3815
0000
0000
01ba
cafe
3c15
0000
0000
01b9
cafe
2015
0000
0000
01b7
cafe
2415
0000
0000
01b6
cafe
2815
0000
0000
01b7
cafe
2c15
0000
0000
01b7
cafe
3015
0000
0000
01b7
cafe
3415
0000
0000
01b4
cafe
3815
0000
0000
01b7
cafe
3c15
0000
0000
01b6
cafe
2015
0000
0000
01b8
cafe
2415
0000
0000
01b9
cafe
2815
0000
0000
01b8
cafe
2c15
0000
0000
01b3
cafe
3015
0000
0000
01b5
cafe
3415
0000
0000
01b8
cafe
3815
0000
0000
01b5
cafe
3c15
0000
0000
01ba
cafe
2015
0000
0000
01b7
cafe
2415
0000
0000
01bc
cafe
2815
0000
0000
01bd
cafe
2c15
0000
0000
01bf
cafe
3015
0000
0000
01bb
cafe
3415
0000
0000
01bd
cafe
3815
0000
0000
01bc
cafe
-
3c15
0000
0000
01c0
cafe
2015
0000
0000
01bc
cafe
2415
0000
0000
01be
cafe
2815
0000
0000
01bb
cafe
2c15
0000
0000
01bb
cafe
3015
0000
0000
01bc
cafe
3415
0000
0000
01b9
cafe
3815
0000
0000
01bb
cafe
3c15
0000
0000
01b9
cafe
2015
0000
0000
01b7
cafe
2415
0000
0000
01bf
cafe
2815
0000
0000
01ba
cafe
2c15
0000
0000
01ba
cafe
3015
0000
0000
01b9
cafe
3415
0000
0000
01b5
cafe
3815
0000
0000
01bb
cafe
3c15
0000
0000
01be
cafe
2015
0000
0000
01c0
cafe
2415
0000
0000
01c1
cafe
2815
0000
0000
01c5
cafe
2c15
0000
0000
01c0
cafe
3015
0000
0000
01c0
cafe
3415
0000
0000
01bd
cafe
3815
0000
0000
01c0
cafe
3c15
0000
0000
01bf
cafe
2015
0000
0000
01ba
cafe
2415
0000
0000
01bd
cafe
2815
0000
0000
01c0
cafe
2c15
0000
0000
01c0
cafe
3015
0000
0000
01c0
cafe
3415
0000
0000
01bf
cafe
3815
0000
0000
01bf
cafe
3c15
0000
0000
01c7
cafe
2015
0000
0000
01c2
cafe
2415
0000
0000
01c2
cafe
2815
0000
0000
01bd
cafe
2c15
0000
0000
01bd
cafe
3015
0000
0000
01b6
cafe
3415
0000
0000
01b9
cafe
3815
0000
0000
01b9
cafe
3c15
0000
0000
01b8
cafe
2015
0000
0000
01b9
cafe
2415
0000
0000
01bd
cafe
2815
0000
0000
01c2
cafe
2c15
0000
0000
01bf
cafe
3015
0000
0000
01c3
cafe
3415
0000
0000
01c0
cafe
3815
0000
0000
01c0
cafe
3c15
0000
0000
01b9
cafe
2015
0000
0000
01b9
cafe
2415
0000
0000
01bc
cafe
2815
-
0000
0000
01bc
cafe
2c15
0000
0000
01c1
cafe
3015
0000
0000
01be
cafe
3415
0000
0000
01c1
cafe
3815
0000
0000
01c4
cafe
3c15
0000
0000
01c2
cafe
2015
0000
0000
01bf
cafe
2415
0000
0000
01ba
cafe
2815
0000
0000
01ba
cafe
2c15
0000
0000
01b7
cafe
3015
0000
0000
01c0
cafe
3415
0000
0000
01bc
cafe
3815
0000
0000
01bc
cafe
3c15
0000
0000
01b9
cafe
2015
0000
0000
01b5
cafe
2415
0000
0000
01b2
cafe
2815
0000
0000
01b8
cafe
2c15
0000
0000
01bc
cafe
3015
0000
0000
01c0
cafe
3415
0000
0000
01bb
cafe
3815
0000
0000
01bd
cafe
3c15
0000
0000
01ba
cafe
2015
0000
0000
01c0
cafe
2415
0000
0000
01c1
cafe
2815
0000
0000
01c1
cafe
2c15
0000
0000
01bc
cafe
3015
0000
0000
01ba
cafe
3415
0000
0000
01c1
cafe
3815
0000
0000
01b8
cafe
3c15
0000
0000
01b9
cafe
2015
0000
0000
01ba
cafe
2415
0000
0000
01bc
cafe
2815
0000
0000
01be
cafe
2c15
0000
0000
01bb
cafe
3015
0000
0000
01ba
cafe
3415
0000
0000
01b9
cafe
3815
0000
0000
01bb
cafe
3c15
0000
0000
01b9
cafe
2015
0000
0000
01bc
cafe
2415
0000
0000
01bd
cafe
2815
0000
0000
01bf
cafe
2c15
0000
0000
01bd
cafe
3015
0000
0000
01c1
cafe
3415
0000
0000
01b9
cafe
3815
0000
0000
01bb
cafe
3c15
0000
0000
01c0
cafe
2015
0000
0000
01c2
cafe
2415
0000
0000
01be
cafe
2815
0000
0000
01c4
cafe
2c15
0000
0000
01bf
cafe
3015
0000
0000
01bc
cafe
3415
0000
-
0000
01bb
cafe
3815
0000
0000
01bc
cafe
3c15
0000
0000
01c0
cafe
2015
0000
0000
01c0
cafe
2415
0000
0000
01be
cafe
2815
0000
0000
01bb
cafe
2c15
0000
0000
01bb
cafe
3015
0000
0000
01b7
cafe
3415
0000
0000
01bb
cafe
3815
0000
0000
01b9
cafe
3c15
0000
0000
01b8
cafe
2015
0000
0000
01b8
cafe
2415
0000
0000
01bc
cafe
2815
0000
0000
01bb
cafe
2c15
0000
0000
01b5
cafe
3015
0000
0000
01b9
cafe
3415
0000
0000
01bf
cafe
3815
0000
0000
01bb
cafe
3c15
0000
0000
01be
cafe
2015
0000
0000
01b8
cafe
2415
0000
0000
01b6
cafe
2815
0000
0000
01b4
cafe
2c15
0000
0000
01b3
cafe
3015
0000
0000
01b9
cafe
3415
0000
0000
01b7
cafe
3815
0000
0000
01ba
cafe
3c15
0000
0000
01bb
cafe
2015
0000
0000
01ba
cafe
2415
0000
0000
01bf
cafe
2815
0000
0000
01bf
cafe
2c15
0000
0000
01bc
cafe
3015
0000
0000
01b9
cafe
3415
0000
0000
01b9
cafe
3815
0000
0000
01bc
cafe
3c15
0000
0000
01b7
cafe
2015
0000
0000
01be
cafe
2415
0000
0000
01bc
cafe
2815
0000
0000
01b2
cafe
2c15
0000
0000
01b2
cafe
3015
0000
0000
01b4
cafe
3415
0000
0000
01b5
cafe
3815
0000
0000
01b8
cafe
3c15
0000
0000
01ba
cafe
2015
0000
0000
01bf
cafe
2415
0000
0000
01be
cafe
2815
0000
0000
01be
cafe
2c15
0000
0000
01be
cafe
3015
0000
0000
01bc
cafe
3415
0000
0000
01b8
cafe
3815
0000
0000
01bd
cafe
3c15
0000
0000
01bc
cafe
2015
0000
0000
-
01ba
cafe
2415
0000
0000
01bd
cafe
2815
0000
0000
01bb
cafe
2c15
0000
0000
01b7
cafe
3015
0000
0000
01ba
cafe
3415
0000
0000
01be
cafe
3815
0000
0000
01c0
cafe
3c15
0000
0000
01c0
cafe
2015
0000
0000
01c1
cafe
2415
0000
0000
01c2
cafe
2815
0000
0000
01ba
cafe
2c15
0000
0000
01ba
cafe
3015
0000
0000
01be
cafe
3415
0000
0000
01c0
cafe
3815
0000
0000
01be
cafe
3c15
0000
0000
01bb
cafe
2015
0000
0000
01bd
cafe
2415
0000
0000
01be
cafe
2815
0000
0000
01bf
cafe
2c15
0000
0000
01bb
cafe
3015
0000
0000
01bc
cafe
3415
0000
0000
01bb
cafe
3815
0000
0000
01bb
cafe
3c15
0000
0000
01b7
cafe
2015
0000
0000
01b5
cafe
2415
0000
0000
01be
cafe
2815
0000
0000
01ba
cafe
2c15
0000
0000
01b6
cafe
3015
0000
0000
01bb
cafe
3415
0000
0000
01b8
cafe
3815
0000
0000
01b9
cafe
3c15
0000
0000
01b8
cafe
2015
0000
0000
01b6
cafe
2415
0000
0000
01b4
cafe
2815
0000
0000
01b8
cafe
2c15
0000
0000
01b7
cafe
3015
0000
0000
01ba
cafe
3415
0000
0000
01b5
cafe
3815
0000
0000
01b2
cafe
3c15
0000
0000
01af
cafe
2015
0000
0000
01b5
cafe
2415
0000
0000
01bb
cafe
2815
0000
0000
01bb
cafe
2c15
0000
0000
01bd
cafe
3015
0000
0000
01bc
cafe
3415
0000
0000
01bc
cafe
3815
0000
0000
01be
cafe
3c15
0000
0000
01b6
cafe
2015
0000
0000
01b9
cafe
2415
0000
0000
01bb
cafe
2815
0000
0000
01ba
cafe
2c15
0000
0000
01bd
-
cafe
3015
0000
0000
01ba
cafe
3415
0000
0000
01b9
cafe
3815
0000
0000
01ba
cafe
3c15
0000
0000
01bb
cafe
2015
0000
0000
01c0
cafe
2415
0000
0000
01bf
cafe
2815
0000
0000
01bc
cafe
2c15
0000
0000
01bd
cafe
3015
0000
0000
01bc
cafe
3415
0000
0000
01b9
cafe
3815
0000
0000
01bd
cafe
3c15
0000
0000
01bc
cafe
2015
0000
0000
01ba
cafe
2415
0000
0000
01bd
cafe
2815
0000
0000
01c0
cafe
2c15
0000
0000
01bb
cafe
3015
0000
0000
01bb
cafe
3415
0000
0000
01bb
cafe
3815
0000
0000
01bb
cafe
3c15
0000
0000
01bc
cafe
2015
0000
0000
01bb
cafe
2415
0000
0000
01bb
cafe
2815
0000
0000
01bc
cafe
2c15
0000
0000
01ba
cafe
3015
0000
0000
01b5
cafe
3415
0000
0000
01bf
cafe
3815
0000
0000
01b7
cafe
3c15
0000
0000
01b6
cafe
2015
0000
0000
01bd
cafe
2415
0000
0000
01bd
cafe
2815
0000
0000
01bf
cafe
2c15
0000
0000
01bc
cafe
3015
0000
0000
01bc
cafe
3415
0000
0000
01c1
cafe
3815
0000
0000
01be
cafe
3c15
0000
0000
01b6
cafe
2015
0000
0000
01bc
cafe
2415
0000
0000
01be
cafe
2815
0000
0000
01be
cafe
2c15
0000
0000
01c0
cafe
3015
0000
0000
01bf
cafe
3415
0000
0000
01bf
cafe
3815
0000
0000
01bc
cafe
3c15
0000
0000
01bd
cafe
2015
0000
0000
01b9
cafe
2415
0000
0000
01bd
cafe
2815
0000
0000
01bd
cafe
2c15
0000
0000
01bb
cafe
3015
0000
0000
01bc
cafe
3415
0000
0000
01be
cafe
3815
0000
0000
01c1
cafe
-
3c15
0000
0000
01b4
cafe
2015
0000
0000
01bb
cafe
2415
0000
0000
01bb
cafe
2815
0000
0000
01b9
cafe
2c15
0000
0000
01b7
cafe
3015
0000
0000
01bb
cafe
3415
0000
0000
01bb
cafe
3815
0000
0000
01c0
cafe
3c15
0000
0000
01ba
cafe
2015
0000
0000
01b5
cafe
2415
0000
0000
01bb
cafe
2815
0000
0000
01ba
cafe
2c15
0000
0000
01b8
cafe
3015
0000
0000
01ba
cafe
3415
0000
0000
01b6
cafe
3815
0000
0000
01bb
cafe
3c15
0000
0000
01ba
cafe
2015
0000
0000
01be
cafe
2415
0000
0000
01bf
cafe
2815
0000
0000
01b9
cafe
2c15
0000
0000
01bb
cafe
3015
0000
0000
01b9
cafe
3415
0000
0000
01bc
cafe
3815
0000
0000
01be
cafe
3c15
0000
0000
01bf
cafe
2015
0000
0000
01c1
cafe
2415
0000
0000
01b9
cafe
2815
0000
0000
01b8
cafe
2c15
0000
0000
01bb
cafe
3015
0000
0000
01be
cafe
3415
0000
0000
01bc
cafe
3815
0000
0000
01bf
cafe
3c15
0000
0000
01b9
cafe
2015
0000
0000
01be
cafe
2415
0000
0000
01bc
cafe
2815
0000
0000
01bc
cafe
2c15
0000
0000
01bc
cafe
3015
0000
0000
01b5
cafe
3415
0000
0000
01bb
cafe
3815
0000
0000
01bb
cafe
3c15
0000
0000
01b5
cafe
2015
0000
0000
01b5
cafe
2415
0000
0000
01be
cafe
2815
0000
0000
01c2
cafe
2c15
0000
0000
01bd
cafe
3015
0000
0000
01bf
cafe
3415
0000
0000
01bd
cafe
3815
0000
0000
01be
cafe
3c15
0000
0000
01bf
cafe
2015
0000
0000
01c2
cafe
2415
0000
0000
01c3
cafe
2815
-
0000
0000
01bc
cafe
2c15
0000
0000
01ba
cafe
3015
0000
0000
01c6
cafe
3415
0000
0000
01c6
cafe
3815
0000
0000
01c9
cafe
3c15
0000
0000
01c7
cafe
2015
0000
0000
01ca
cafe
2415
0000
0000
01c4
cafe
2815
0000
0000
01c6
cafe
2c15
0000
0000
01c4
cafe
3015
0000
0000
01c2
cafe
3415
0000
0000
01c1
cafe
3815
0000
0000
01c4
cafe
3c15
0000
0000
01c8
cafe
2015
0000
0000
01c6
cafe
2415
0000
0000
01c6
cafe
2815
0000
0000
01c1
cafe
2c15
0000
0000
01c0
cafe
3015
0000
0000
01bf
cafe
3415
0000
0000
01bd
cafe
3815
0000
0000
01bf
cafe
3c15
0000
0000
01bd
cafe
2015
0000
0000
01bd
cafe
2415
0000
0000
01b9
cafe
2815
0000
0000
01bd
cafe
2c15
0000
0000
01b9
cafe
3015
0000
0000
01b7
cafe
3415
0000
0000
01b5
cafe
3815
0000
0000
01bb
cafe
3c15
0000
0000
01b8
cafe
2015
0000
0000
01ba
cafe
2415
0000
0000
01b9
cafe
2815
0000
0000
01bb
cafe
2c15
0000
0000
01bf
cafe
3015
0000
0000
01bd
cafe
3415
0000
0000
01be
cafe
3815
0000
0000
01bd
cafe
3c15
0000
0000
01be
cafe
2015
0000
0000
01be
cafe
2415
0000
0000
01be
cafe
2815
0000
0000
01c0
cafe
2c15
0000
0000
01c1
cafe
3015
0000
0000
01bf
cafe
3415
0000
0000
01bf
cafe
3815
0000
0000
01bb
cafe
3c15
0000
0000
01c1
cafe
2015
0000
0000
01be
cafe
2415
0000
0000
01c0
cafe
2815
0000
0000
01be
cafe
2c15
0000
0000
01be
cafe
3015
0000
0000
01c0
cafe
3415
0000
-
0000
01c2
cafe
3815
0000
0000
01c0
cafe
3c15
0000
0000
01c1
cafe
2015
0000
0000
01c1
cafe
2415
0000
0000
01b9
cafe
2815
0000
0000
01bc
cafe
2c15
0000
0000
01ba
cafe
3015
0000
0000
01bf
cafe
3415
0000
0000
01bc
cafe
3815
0000
0000
01ba
cafe
3c15
0000
0000
01bf
cafe
2015
0000
0000
01c5
cafe
2415
0000
0000
01c0
cafe
2815
0000
0000
01bc
cafe
2c15
0000
0000
01b5
cafe
3015
0000
0000
01b5
cafe
3415
0000
0000
01b8
cafe
3815
0000
0000
01bc
cafe
3c15
0000
0000
01b9
cafe
2015
0000
0000
01b8
cafe
2415
0000
0000
01bb
cafe
2815
0000
0000
01b6
cafe
2c15
0000
0000
01b9
cafe
3015
0000
0000
01b7
cafe
3415
0000
0000
01b7
cafe
3815
0000
0000
01bc
cafe
3c15
0000
0000
01bc
cafe
2015
0000
0000
01bf
cafe
2415
0000
0000
01c3
cafe
2815
0000
0000
01b7
cafe
2c15
0000
0000
01b9
cafe
3015
0000
0000
01bc
cafe
3415
0000
0000
01b8
cafe
3815
0000
0000
01ba
cafe
3c15
0000
0000
01ba
cafe
2015
0000
0000
01b8
cafe
2415
0000
0000
01be
cafe
2815
0000
0000
01bf
cafe
2c15
0000
0000
01b7
cafe
3015
0000
0000
01b5
cafe
3415
0000
0000
01b8
cafe
3815
0000
0000
01b9
cafe
3c15
0000
0000
01b8
cafe
2015
0000
0000
01b7
cafe
2415
0000
0000
01bf
cafe
2815
0000
0000
01bc
cafe
2c15
0000
0000
01b9
cafe
3015
0000
0000
01b8
cafe
3415
0000
0000
01bb
cafe
3815
0000
0000
01b7
cafe
3c15
0000
0000
01b8
cafe
2015
0000
0000
-
01b4
cafe
2415
0000
0000
01ba
cafe
2815
0000
0000
01b3
cafe
2c15
0000
0000
01b9
cafe
3015
0000
0000
01bb
cafe
3415
0000
0000
01be
cafe
3815
0000
0000
01bb
cafe
3c15
0000
0000
01b8
cafe
2015
0000
0000
01b6
cafe
2415
0000
0000
01b8
cafe
2815
0000
0000
01bb
cafe
2c15
0000
0000
01ba
cafe
3015
0000
0000
01bc
cafe
3415
0000
0000
01bb
cafe
3815
0000
0000
01ba
cafe
3c15
0000
0000
01b9
cafe
2015
0000
0000
01bc
cafe
2415
0000
0000
01bd
cafe
2815
0000
0000
01b9
cafe
2c15
0000
0000
01bc
cafe
3015
0000
0000
01bf
cafe
3415
0000
0000
01bd
cafe
3815
0000
0000
01b8
cafe
3c15
0000
0000
01b3
cafe
2015
0000
0000
01b8
cafe
2415
0000
0000
01b5
cafe
2815
0000
0000
01b9
cafe
2c15
0000
0000
01b6
cafe
3015
0000
0000
01ba
cafe
3415
0000
0000
01b9
cafe
3815
0000
0000
01b6
cafe
3c15
0000
0000
01c0
cafe
2015
0000
0000
01be
cafe
2415
0000
0000
01be
cafe
2815
0000
0000
01bc
cafe
2c15
0000
0000
01b9
cafe
3015
0000
0000
01bb
cafe
3415
0000
0000
01be
cafe
3815
0000
0000
01bd
cafe
3c15
0000
0000
01bd
cafe
2015
0000
0000
01bb
cafe
2415
0000
0000
01b8
cafe
2815
0000
0000
01be
cafe
2c15
0000
0000
01ba
cafe
3015
0000
0000
01ba
cafe
3415
0000
0000
01ba
cafe
3815
0000
0000
01ba
cafe
3c15
0000
0000
01ba
cafe
2015
0000
0000
01ba
cafe
2415
0000
0000
01bc
cafe
2815
0000
0000
01bf
cafe
2c15
0000
0000
01bb
-
cafe
3015
0000
0000
01c0
cafe
3415
0000
0000
01be
cafe
3815
0000
0000
01bf
cafe
3c15
0000
0000
01bf
cafe
2015
0000
0000
01bd
cafe
2415
0000
0000
01bc
cafe
2815
0000
0000
01ba
cafe
2c15
0000
0000
01ba
cafe
3015
0000
0000
01c0
cafe
3415
0000
0000
01c1
cafe
3815
0000
0000
01c2
cafe
3c15
0000
0000
01c2
cafe
2015
0000
0000
01b8
cafe
2415
0000
0000
01b9
cafe
2815
0000
0000
01b4
cafe
2c15
0000
0000
01b4
cafe
3015
0000
0000
01b6
cafe
3415
0000
0000
01bf
cafe
3815
0000
0000
01bb
cafe
3c15
0000
0000
01ba
cafe
2015
0000
0000
01bd
cafe
2415
0000
0000
01bb
cafe
2815
0000
0000
01bd
cafe
2c15
0000
0000
01b7
cafe
3015
0000
0000
01ba
cafe
3415
0000
0000
01b8
cafe
3815
0000
0000
01b5
cafe
3c15
0000
0000
01b8
cafe
2015
0000
0000
01bb
cafe
2415
0000
0000
01b7
cafe
2815
0000
0000
01bc
cafe
2c15
0000
0000
01bd
cafe
3015
0000
0000
01b9
cafe
3415
0000
0000
01be
cafe
3815
0000
0000
01bb
cafe
3c15
0000
0000
01bb
cafe
2015
0000
0000
01b7
cafe
2415
0000
0000
01be
cafe
2815
0000
0000
01bc
cafe
2c15
0000
0000
01b7
cafe
3015
0000
0000
01b5
cafe
3415
0000
0000
01b6
cafe
3815
0000
0000
01b6
cafe
3c15
0000
0000
01bb
cafe
2015
0000
0000
01b7
cafe
2415
0000
0000
01be
cafe
2815
0000
0000
01bc
cafe
2c15
0000
0000
01bf
cafe
3015
0000
0000
01be
cafe
3415
0000
0000
01bd
cafe
3815
0000
0000
01bb
cafe
-
3c15
0000
0000
01bc
cafe
2015
0000
0000
01bd
cafe
2415
0000
0000
01bf
cafe
2815
0000
0000
01bd
cafe
2c15
0000
0000
01c2
cafe
3015
0000
0000
01c5
cafe
3415
0000
0000
01be
cafe
3815
0000
0000
01bd
cafe
3c15
0000
0000
01bf
cafe
2015
0000
0000
01c0
cafe
2415
0000
0000
01b6
cafe
2815
0000
0000
01b7
cafe
2c15
0000
0000
01bd
cafe
3015
0000
0000
01be
cafe
3415
0000
0000
01bc
cafe
3815
0000
0000
01b9
cafe
3c15
0000
0000
01b7
cafe
2015
0000
0000
01bc
cafe
2415
0000
0000
01b9
cafe
2815
0000
0000
01bb
cafe
2c15
0000
0000
01b5
cafe
3015
0000
0000
01bd
cafe
3415
0000
0000
01b9
cafe
3815
0000
0000
01ba
cafe
3c15
0000
0000
01be
cafe
2015
0000
0000
01bc
cafe
2415
0000
0000
01ba
cafe
2815
0000
0000
01b7
cafe
2c15
0000
0000
01b8
cafe
3015
0000
0000
01b6
cafe
3415
0000
0000
01b5
cafe
3815
0000
0000
01b6
cafe
3c15
0000
0000
01b5
cafe
2015
0000
0000
01bc
cafe
2415
0000
0000
01b8
cafe
2815
0000
0000
01b7
cafe
2c15
0000
0000
01b3
cafe
3015
0000
0000
01b6
cafe
3415
0000
0000
01b2
cafe
3815
0000
0000
01b5
cafe
3c15
0000
0000
01ba
cafe
2015
0000
0000
01b5
cafe
2415
0000
0000
01ba
cafe
2815
0000
0000
01b9
cafe
2c15
0000
0000
01ba
cafe
3015
0000
0000
01b4
cafe
3415
0000
0000
01b7
cafe
3815
0000
0000
01ba
cafe
3c15
0000
0000
01ba
cafe
2015
0000
0000
01bc
cafe
2415
0000
0000
01bd
cafe
2815
-
0000
0000
01bb
cafe
2c15
0000
0000
01bb
cafe
3015
0000
0000
01ba
cafe
3415
0000
0000
01bc
cafe
3815
0000
0000
01b8
cafe
3c15
0000
0000
01bb
cafe
2015
0000
0000
01be
cafe
2415
0000
0000
01bd
cafe
2815
0000
0000
01bd
cafe
2c15
0000
0000
01bc
cafe
3015
0000
0000
01bf
cafe
3415
0000
0000
01bf
cafe
3815
0000
0000
01c1
cafe
3c15
0000
0000
01be
cafe
2015
0000
0000
01be
cafe
2415
0000
0000
01ba
cafe
2815
0000
0000
01b9
cafe
2c15
0000
0000
01bc
cafe
3015
0000
0000
01be
cafe
3415
0000
0000
01bc
cafe
3815
0000
0000
01bd
cafe
3c15
0000
0000
01be
cafe
2015
0000
0000
01c0
cafe
2415
0000
0000
01c0
cafe
2815
0000
0000
01c5
cafe
2c15
0000
0000
01be
cafe
3015
0000
0000
01bd
cafe
3415
0000
0000
01c2
cafe
3815
0000
0000
01ba
cafe
3c15
0000
0000
01ba
cafe
2015
0000
0000
01be
cafe
2415
0000
0000
01bb
cafe
2815
0000
0000
01b9
cafe
2c15
0000
0000
01bd
cafe
3015
0000
0000
01b7
cafe
3415
0000
0000
01ba
cafe
3815
0000
0000
01b7
cafe
3c15
0000
0000
01c0
cafe
2015
0000
0000
01c0
cafe
2415
0000
0000
01bd
cafe
2815
0000
0000
01bb
cafe
2c15
0000
0000
01b9
cafe
3015
0000
0000
01ba
cafe
3415
0000
0000
01bf
cafe
3815
0000
0000
01bd
cafe
3c15
0000
0000
01bf
cafe
2015
0000
0000
01bc
cafe
2415
0000
0000
01bd
cafe
2815
0000
0000
01c1
cafe
2c15
0000
0000
01c1
cafe
3015
0000
0000
01c0
cafe
3415
0000
-
0000
01c4
cafe
3815
0000
0000
01c5
cafe
3c15
0000
0000
01c6
cafe
2015
0000
0000
01c8
cafe
2415
0000
0000
01c2
cafe
2815
0000
0000
01c6
cafe
2c15
0000
0000
01c1
cafe
3015
0000
0000
01c5
cafe
3415
0000
0000
01c9
cafe
3815
0000
0000
01c5
cafe
3c15
0000
0000
01c3
cafe
2015
0000
0000
01c4
cafe
2415
0000
0000
01be
cafe
2815
0000
0000
01bd
cafe
2c15
0000
0000
01c3
cafe
3015
0000
0000
01c6
cafe
3415
0000
0000
01c2
cafe
3815
0000
0000
01be
cafe
3c15
0000
0000
01b9
cafe
2015
0000
0000
01be
cafe
2415
0000
0000
01b8
cafe
2815
0000
0000
01bb
cafe
2c15
0000
0000
01bd
cafe
3015
0000
0000
01be
cafe
3415
0000
0000
01ba
cafe
3815
0000
0000
01bb
cafe
3c15
0000
0000
01ba
cafe
2015
0000
0000
01b6
cafe
2415
0000
0000
01b8
cafe
2815
0000
0000
01ba
cafe
2c15
0000
0000
01b6
cafe
3015
0000
0000
01b9
cafe
3415
0000
0000
01b7
cafe
3815
0000
0000
01b5
cafe
3c15
0000
0000
01bc
cafe
2015
0000
0000
01bc
cafe
2415
0000
0000
01bb
cafe
2815
0000
0000
01be
cafe
2c15
0000
0000
01bd
cafe
3015
0000
0000
01bf
cafe
3415
0000
0000
01bf
cafe
3815
0000
0000
01bc
cafe
3c15
0000
0000
01bc
cafe
2015
0000
0000
01c0
cafe
2415
0000
0000
01bd
cafe
2815
0000
0000
01be
cafe
2c15
0000
0000
01c1
cafe
3015
0000
0000
01bd
cafe
3415
0000
0000
01c0
cafe
3815
0000
0000
01be
cafe
3c15
0000
0000
01c4
cafe
2015
0000
0000
-
01c5
cafe
2415
0000
0000
01be
cafe
2815
0000
0000
01bd
cafe
2c15
0000
0000
01bf
cafe
3015
0000
0000
01bb
cafe
3415
0000
0000
01b8
cafe
3815
0000
0000
01bd
cafe
3c15
0000
0000
01b7
cafe
2015
0000
0000
01bb
cafe
2415
0000
0000
01b8
cafe
2815
0000
0000
01bb
cafe
2c15
0000
0000
01ba
cafe
3015
0000
0000
01ba
cafe
3415
0000
0000
01bc
cafe
3815
0000
0000
01bc
cafe
3c15
0000
0000
01c1
cafe
2015
0000
0000
01bf
cafe
2415
0000
0000
01bb
cafe
2815
0000
0000
01be
cafe
2c15
0000
0000
01bb
cafe
3015
0000
0000
01be
cafe
3415
0000
0000
01bd
cafe
3815
0000
0000
01bb
cafe
3c15
0000
0000
01ba
cafe
2015
0000
0000
01ba
cafe
2415
0000
0000
01b8
cafe
2815
0000
0000
01bc
cafe
2c15
0000
0000
01bb
cafe
3015
0000
0000
01c0
cafe
3415
0000
0000
01bc
cafe
3815
0000
0000
01bb
cafe
3c15
0000
0000
01bc
cafe
2015
0000
0000
01ba
cafe
2415
0000
0000
01b5
cafe
2815
0000
0000
01bb
cafe
2c15
0000
0000
01b6
cafe
3015
0000
0000
01b5
cafe
3415
0000
0000
01b8
cafe
3815
0000
0000
01b6
cafe
3c15
0000
0000
01ba
cafe
2015
0000
0000
01ba
cafe
2415
0000
0000
01b6
cafe
2815
0000
0000
01b4
cafe
2c15
0000
0000
01b5
cafe
3015
0000
0000
01b5
cafe
3415
0000
0000
01b4
cafe
3815
0000
0000
01b0
cafe
3c15
0000
0000
01b4
cafe
2015
0000
0000
01b5
cafe
2415
0000
0000
01b4
cafe
2815
0000
0000
01b2
cafe
2c15
0000
0000
01bc
-
