380,252,161,282,205,344,222,365,471,442,267,440,241,343,481,482,351,229,209,273,361,211,217,390,328,335,338,253,419,216,282,141
381,247,161,279,206,345,223,368,473,437,270,440,241,347,486,479,348,233,207,274,359,212,219,393,328,338,333,251,417,215,285,138
385,248,161,282,204,346,225,365,471,435,271,438,241,346,481,481,349,235,210,273,357,210,219,393,327,335,334,249,415,221,284,139
385,246,164,284,204,343,225,366,473,439,270,435,241,349,483,483,350,233,209,274,360,212,217,391,326,335,337,252,417,215,282,143
382,248,163,281,205,343,227,366,473,440,269,442,241,350,483,483,350,237,209,281,359,211,217,393,327,335,338,254,418,217,283,141
383,246,164,283,204,343,228,367,473,441,270,437,243,350,485,482,349,234,212,281,359,213,219,392,332,334,337,254,415,215,283,142
383,246,167,283,204,345,229,365,477,446,271,436,241,353,488,482,355,239,211,279,357,213,218,393,333,336,335,251,420,217,286,144
386,244,163,285,205,343,230,365,475,444,271,439,242,356,486,484,352,237,211,285,356,217,219,393,335,333,340,253,421,218,282,145
387,243,164,284,209,346,228,365,477,444,274,435,243,352,484,481,352,237,212,282,356,217,217,392,333,333,338,253,420,218,281,145
389,247,164,284,210,347,232,369,475,442,275,439,242,354,486,484,353,239,212,281,364,216,218,396,332,337,342,255,423,217,282,147
388,248,167,279,209,349,229,369,473,442,272,445,242,355,488,482,353,237,210,280,363,216,219,396,331,333,337,258,418,216,285,145
389,245,166,282,209,348,233,366,474,443,274,441,243,351,490,483,357,236,208,279,365,213,219,398,330,335,339,257,421,216,284,145
386,247,164,283,207,349,231,365,472,444,272,441,242,355,486,482,356,235,210,279,367,214,216,397,328,335,341,255,419,219,284,142
385,249,161,286,206,347,228,366,474,439,271,440,240,353,488,482,353,236,213,277,365,213,218,399,332,335,341,254,417,216,287,144
386,247,162,285,207,349,229,367,477,441,271,444,240,352,485,479,354,236,215,276,363,214,219,395,327,335,340,258,416,215,286,141
386,245,162,283,206,351,231,363,471,446,270,441,239,353,485,475,355,235,214,277,361,213,219,394,327,332,339,255,417,215,287,142
385,247,163,283,203,345,228,364,474,443,269,439,239,353,484,478,353,234,214,275,365,213,220,393,325,334,339,256,415,215,286,139
382,245,159,282,206,346,231,362,471,443,270,439,239,350,483,475,354,229,211,276,365,213,221,393,325,330,338,255,411,214,284,140
383,247,158,283,205,347,228,363,472,447,265,438,239,348,483,478,351,229,211,276,363,216,217,393,324,330,337,258,413,216,284,142
382,247,157,285,203,350,228,360,470,446,266,440,242,348,482,479,349,230,209,272,364,214,218,394,325,329,340,255,415,216,282,144
384,246,162,282,205,349,226,362,469,445,269,438,240,348,481,480,347,230,211,274,362,213,219,392,324,329,334,251,413,218,280,146
385,245,157,280,205,347,224,363,468,442,267,437,240,347,483,481,347,232,210,275,360,213,216,394,323,331,339,253,418,221,279,143
385,244,157,289,205,346,223,365,466,439,267,439,241,350,485,484,343,233,209,275,363,212,214,393,323,332,338,254,416,220,278,142
384,243,157,289,205,343,222,366,467,440,268,436,243,350,482,481,345,232,207,275,361,214,216,393,320,331,339,254,414,219,277,143
385,246,158,287,203,345,225,362,470,440,270,436,245,351,485,479,346,232,210,275,363,212,215,393,324,330,340,254,412,224,278,142
385,247,158,287,206,348,224,365,469,441,269,436,243,351,485,482,349,231,207,275,359,213,215,395,323,333,340,256,414,224,276,141
386,246,160,287,206,349,225,362,466,440,272,432,242,351,485,479,353,230,207,279,360,214,216,396,324,327,341,255,417,226,277,143
386,244,159,284,207,349,223,364,470,440,273,436,241,352,485,479,348,230,213,280,360,214,217,396,323,332,342,253,416,227,276,143
386,251,157,287,204,349,225,366,471,442,274,437,245,357,485,480,355,228,209,279,363,209,216,398,322,333,343,254,419,227,275,144
387,251,157,288,205,351,225,367,468,442,275,436,245,352,488,483,353,230,212,279,362,210,214,396,328,335,343,252,420,226,279,142
386,252,156,285,205,349,224,368,472,443,277,438,243,351,487,482,354,231,212,276,362,213,217,397,324,334,342,253,418,228,281,141
388,253,157,283,206,349,221,367,470,446,274,437,245,349,487,483,355,229,214,275,359,214,217,393,327,330,342,251,421,229,276,137
387,250,158,284,204,349,226,367,468,444,273,436,240,348,488,483,355,229,212,277,360,215,217,391,327,329,343,253,419,227,281,139
389,249,157,281,207,349,222,369,469,446,272,438,239,348,488,483,352,233,212,274,360,215,217,393,328,334,340,250,419,229,281,140
392,247,158,282,208,349,226,369,466,446,271,435,241,349,492,483,351,232,214,276,360,214,217,396,325,333,342,251,415,227,281,134
389,246,160,283,209,346,225,368,467,446,270,432,239,348,489,480,353,233,209,275,360,213,216,395,323,334,341,253,415,226,281,137
384,244,159,285,210,347,227,369,467,449,272,436,238,348,488,480,350,231,208,279,359,213,215,393,319,331,340,253,414,226,279,135
389,244,161,281,207,345,224,367,468,447,272,434,236,347,490,479,353,231,211,279,361,211,217,396,319,333,341,254,413,223,281,138
392,244,162,281,208,344,227,362,469,448,271,435,238,348,487,480,353,231,212,277,362,209,219,396,318,333,341,249,416,223,282,137
392,245,159,282,209,349,226,366,470,450,271,438,235,349,485,481,353,229,210,276,363,209,215,397,321,334,339,251,416,222,281,139
391,245,161,284,209,346,225,362,470,452,266,440,238,349,484,480,356,225,213,273,360,209,212,397,319,335,337,253,415,221,281,137
387,247,160,282,212,350,225,364,468,450,268,438,236,350,485,480,354,227,210,273,360,212,214,398,324,334,338,251,414,221,282,137
390,248,158,283,210,351,225,363,468,451,270,441,238,353,486,480,355,226,211,273,359,211,214,399,323,332,338,253,414,223,282,142
390,247,159,283,209,349,221,363,472,453,272,439,237,351,486,480,357,228,210,273,364,212,216,398,324,329,338,252,415,223,280,140
388,246,160,287,210,347,225,363,471,450,270,437,237,348,489,480,353,227,209,277,361,211,221,397,323,331,339,251,411,224,279,141
388,247,161,283,207,349,223,362,471,449,273,441,237,351,490,477,352,229,209,276,359,212,216,397,322,330,339,250,419,224,281,142
391,246,159,284,209,352,222,365,471,447,273,437,237,352,486,479,353,225,210,279,359,212,215,396,325,330,336,251,415,222,281,140
391,246,157,285,205,354,223,365,470,449,273,439,234,351,487,481,353,228,213,277,357,215,216,394,326,330,339,253,415,222,277,145
391,244,160,285,209,353,222,366,470,448,271,439,238,349,488,483,354,228,211,273,361,216,216,395,327,329,336,252,416,223,281,144
391,246,160,285,210,356,223,366,474,449,274,443,239,347,488,483,356,227,215,277,359,218,218,392,324,330,336,257,417,221,279,142
390,246,162,282,211,355,223,368,473,449,274,444,241,351,488,483,357,230,212,273,359,219,216,391,326,331,339,253,418,224,281,146
391,242,163,283,214,353,223,368,473,449,274,444,242,349,487,485,355,231,215,273,358,217,217,396,327,328,340,257,417,225,283,143
393,246,161,281,212,357,226,369,474,447,277,441,247,350,487,487,353,231,213,274,363,221,224,394,327,330,339,256,416,225,284,146
389,245,161,283,216,357,227,369,476,449,281,439,246,353,489,490,354,232,214,279,362,219,223,397,324,331,343,259,416,228,284,145
390,245,163,286,210,358,227,369,480,452,279,438,243,354,487,485,353,231,218,277,362,215,222,395,325,335,343,262,417,228,281,144
392,248,164,287,211,354,226,370,480,454,278,440,238,351,487,487,356,234,216,277,361,221,223,396,323,335,343,263,417,229,283,143
393,247,164,291,213,353,230,370,478,454,278,438,241,351,489,490,358,234,215,276,363,218,221,398,326,334,342,264,423,226,282,145
394,248,164,290,210,350,226,370,479,453,277,441,240,351,491,485,357,233,214,278,362,222,219,397,327,334,343,263,420,229,281,145
390,248,163,290,208,350,229,369,474,454,274,438,240,348,489,484,359,234,214,278,362,221,219,396,327,331,345,257,422,224,277,145
390,244,165,287,209,354,229,368,475,453,275,439,241,348,489,483,355,234,216,277,359,224,220,392,324,330,342,258,422,229,276,144
391,246,160,287,210,353,226,366,471,451,276,435,239,349,490,483,359,230,214,276,361,223,220,391,325,336,342,257,423,225,278,144
393,245,157,289,206,353,224,366,473,450,275,433,236,347,491,483,357,231,213,277,357,221,219,390,323,337,341,255,426,223,278,142
390,245,157,288,202,355,226,359,474,449,277,440,236,347,487,482,357,229,210,275,354,217,216,389,319,335,341,253,420,221,278,141
388,247,156,286,202,354,229,361,470,451,273,435,238,347,485,483,353,223,207,273,357,218,219,386,321,334,340,254,419,222,275,140
