3002
0000
0000
010d
cafe
3402
0000
0000
010c
cafe
3802
0000
0000
0109
cafe
3c02
0000
0000
0111
cafe
2002
0000
0000
0112
cafe
2402
0000
0000
010c
cafe
2802
0000
0000
0112
cafe
2c02
0000
0000
0107
cafe
3002
0000
0000
0104
cafe
3402
0000
0000
0102
cafe
3802
0000
0000
0108
cafe
3c02
0000
0000
0106
cafe
2002
0000
0000
0106
cafe
2402
0000
0000
010e
cafe
2802
0000
0000
0104
cafe
2c02
0000
0000
010d
cafe
3002
0000
0000
0104
cafe
3402
0000
0000
0104
cafe
3802
0000
0000
010a
cafe
3c02
0000
0000
010d
cafe
2002
0000
0000
010c
cafe
2402
0000
0000
0107
cafe
2802
0000
0000
0114
cafe
2c02
0000
0000
0104
cafe
3002
0000
0000
0104
cafe
3402
0000
0000
0102
cafe
3802
0000
0000
0104
cafe
3c02
0000
0000
010a
cafe
2002
0000
0000
0106
cafe
2402
0000
0000
0102
cafe
2802
0000
0000
00fa
cafe
2c02
0000
0000
00f9
cafe
3002
0000
0000
0100
cafe
3402
0000
0000
0104
cafe
3802
0000
0000
0100
cafe
3c02
0000
0000
00fc
cafe
2002
0000
0000
010e
cafe
2402
0000
0000
0103
cafe
2802
0000
0000
0108
cafe
2c02
0000
0000
010f
cafe
3002
0000
0000
0107
cafe
3402
0000
0000
0105
cafe
3802
0000
0000
0100
cafe
3c02
0000
0000
010a
cafe
2002
0000
0000
0100
cafe
2402
0000
0000
00f7
cafe
2802
0000
0000
0101
cafe
2c02
0000
0000
00fc
cafe
3002
0000
0000
00fd
cafe
3402
0000
0000
0108
cafe
3802
0000
0000
010d
cafe
3c02
-
0000
0000
0103
cafe
2002
0000
0000
0117
cafe
2402
0000
0000
0123
cafe
2802
0000
0000
0117
cafe
2c02
0000
0000
0114
cafe
3002
0000
0000
010c
cafe
3402
0000
0000
0114
cafe
3802
0000
0000
0117
cafe
3c02
0000
0000
011b
cafe
2002
0000
0000
0116
cafe
2402
0000
0000
0111
cafe
2802
0000
0000
010a
cafe
2c02
0000
0000
010c
cafe
3002
0000
0000
0109
cafe
3402
0000
0000
0109
cafe
3802
0000
0000
0104
cafe
3c02
0000
0000
00fe
cafe
2002
0000
0000
0100
cafe
2402
0000
0000
0104
cafe
2802
0000
0000
010b
cafe
2c02
0000
0000
0119
cafe
3002
0000
0000
010d
cafe
3402
0000
0000
010e
cafe
3802
0000
0000
0110
cafe
3c02
0000
0000
010f
cafe
2002
0000
0000
010e
cafe
2402
0000
0000
0114
cafe
2802
0000
0000
0108
cafe
2c02
0000
0000
010c
cafe
3002
0000
0000
0112
cafe
3402
0000
0000
0117
cafe
3802
0000
0000
0111
cafe
3c02
0000
0000
010c
cafe
2002
0000
0000
0111
cafe
2402
0000
0000
010e
cafe
2802
0000
0000
0110
cafe
2c02
0000
0000
0108
cafe
3002
0000
0000
010a
cafe
3402
0000
0000
010d
cafe
3802
0000
0000
0111
cafe
3c02
0000
0000
0111
cafe
2002
0000
0000
0119
cafe
2402
0000
0000
0111
cafe
2802
0000
0000
0112
cafe
2c02
0000
0000
0114
cafe
3002
0000
0000
0113
cafe
3402
0000
0000
011c
cafe
3802
0000
0000
0118
cafe
3c02
0000
0000
011a
cafe
2002
0000
0000
0118
cafe
2402
0000
0000
011e
cafe
2802
0000
-
0000
011e
cafe
2c02
0000
0000
011e
cafe
3002
0000
0000
0107
cafe
3402
0000
0000
0111
cafe
3802
0000
0000
0105
cafe
3c02
0000
0000
0103
cafe
2002
0000
0000
0101
cafe
2402
0000
0000
0109
cafe
2802
0000
0000
0111
cafe
2c02
0000
0000
0109
cafe
3002
0000
0000
0112
cafe
3402
0000
0000
0110
cafe
3802
0000
0000
0111
cafe
3c02
0000
0000
0117
cafe
2002
0000
0000
010a
cafe
2402
0000
0000
0111
cafe
2802
0000
0000
0111
cafe
2c02
0000
0000
0108
cafe
3002
0000
0000
0101
cafe
3402
0000
0000
0105
cafe
3802
0000
0000
0107
cafe
3c02
0000
0000
010d
cafe
2002
0000
0000
011d
cafe
2402
0000
0000
010e
cafe
2802
0000
0000
010f
cafe
2c02
0000
0000
010e
cafe
3002
0000
0000
0110
cafe
3402
0000
0000
010e
cafe
3802
0000
0000
010c
cafe
3c02
0000
0000
0114
cafe
2002
0000
0000
0114
cafe
2402
0000
0000
0111
cafe
2802
0000
0000
0119
cafe
2c02
0000
0000
0113
cafe
3002
0000
0000
010c
cafe
3402
0000
0000
0115
cafe
3802
0000
0000
010a
cafe
3c02
0000
0000
0103
cafe
2002
0000
0000
0111
cafe
2402
0000
0000
0119
cafe
2802
0000
0000
0124
cafe
2c02
0000
0000
0127
cafe
3002
0000
0000
0113
cafe
3402
0000
0000
011b
cafe
3802
0000
0000
011d
cafe
3c02
0000
0000
011f
cafe
2002
0000
0000
011b
cafe
2402
0000
0000
0110
cafe
2802
0000
0000
0119
cafe
2c02
0000
0000
010d
cafe
3002
0000
0000
0112
cafe
3402
0000
0000
-
010f
cafe
3802
0000
0000
010c
cafe
3c02
0000
0000
010f
cafe
2002
0000
0000
0102
cafe
2402
0000
0000
0106
cafe
2802
0000
0000
0108
cafe
2c02
0000
0000
010b
cafe
3002
0000
0000
0109
cafe
3402
0000
0000
0109
cafe
3802
0000
0000
010c
cafe
3c02
0000
0000
00fc
cafe
2002
0000
0000
0104
cafe
2402
0000
0000
0100
cafe
2802
0000
0000
00fe
cafe
2c02
0000
0000
00ff
cafe
3002
0000
0000
0107
cafe
3402
0000
0000
0108
cafe
3802
0000
0000
010b
cafe
3c02
0000
0000
010f
cafe
2002
0000
0000
0118
cafe
2402
0000
0000
0112
cafe
2802
0000
0000
0113
cafe
2c02
0000
0000
010c
cafe
3002
0000
0000
0115
cafe
3402
0000
0000
010e
cafe
3802
0000
0000
0104
cafe
3c02
0000
0000
010f
cafe
2002
0000
0000
00f9
cafe
2402
0000
0000
0101
cafe
2802
0000
0000
0107
cafe
2c02
0000
0000
00ff
cafe
3002
0000
0000
0105
cafe
3402
0000
0000
00fd
cafe
3802
0000
0000
0111
cafe
3c02
0000
0000
0100
cafe
2002
0000
0000
00ff
cafe
2402
0000
0000
00fa
cafe
2802
0000
0000
0108
cafe
2c02
0000
0000
0116
cafe
3002
0000
0000
0114
cafe
3402
0000
0000
0107
cafe
3802
0000
0000
0109
cafe
3c02
0000
0000
010c
cafe
2002
0000
0000
010a
cafe
2402
0000
0000
0110
cafe
2802
0000
0000
0118
cafe
2c02
0000
0000
011a
cafe
3002
0000
0000
0119
cafe
3402
0000
0000
0107
cafe
3802
0000
0000
010f
cafe
3c02
0000
0000
0112
cafe
2002
0000
0000
0118
-
cafe
2402
0000
0000
0114
cafe
2802
0000
0000
0105
cafe
2c02
0000
0000
010b
cafe
3002
0000
0000
010a
cafe
3402
0000
0000
0103
cafe
3802
0000
0000
00fd
cafe
3c02
0000
0000
0106
cafe
2002
0000
0000
0109
cafe
2402
0000
0000
0109
cafe
2802
0000
0000
0110
cafe
2c02
0000
0000
0105
cafe
3002
0000
0000
0105
cafe
3402
0000
0000
0108
cafe
3802
0000
0000
0104
cafe
3c02
0000
0000
0115
cafe
2002
0000
0000
0107
cafe
2402
0000
0000
0109
cafe
2802
0000
0000
0114
cafe
2c02
0000
0000
0118
cafe
3002
0000
0000
010b
cafe
3402
0000
0000
0114
cafe
3802
0000
0000
010e
cafe
3c02
0000
0000
010e
cafe
2002
0000
0000
0107
cafe
2402
0000
0000
0113
cafe
2802
0000
0000
010e
cafe
2c02
0000
0000
0106
cafe
3002
0000
0000
0103
cafe
3402
0000
0000
0118
cafe
3802
0000
0000
0113
cafe
3c02
0000
0000
010b
cafe
2002
0000
0000
0110
cafe
2402
0000
0000
0113
cafe
2802
0000
0000
010c
cafe
2c02
0000
0000
010e
cafe
3002
0000
0000
0105
cafe
3402
0000
0000
0107
cafe
3802
0000
0000
010b
cafe
3c02
0000
0000
0115
cafe
2002
0000
0000
010b
cafe
2402
0000
0000
010d
cafe
2802
0000
0000
010d
cafe
2c02
0000
0000
0104
cafe
3002
0000
0000
0108
cafe
3402
0000
0000
0110
cafe
3802
0000
0000
0104
cafe
3c02
0000
0000
0106
cafe
2002
0000
0000
00fe
cafe
2402
0000
0000
010c
cafe
2802
0000
0000
0104
cafe
2c02
0000
0000
0106
cafe
-
3002
0000
0000
0109
cafe
3402
0000
0000
010e
cafe
3802
0000
0000
010a
cafe
3c02
0000
0000
0108
cafe
2002
0000
0000
0117
cafe
2402
0000
0000
0114
cafe
2802
0000
0000
0110
cafe
2c02
0000
0000
0119
cafe
3002
0000
0000
0113
cafe
3402
0000
0000
0118
cafe
3802
0000
0000
010c
cafe
3c02
0000
0000
0112
cafe
2002
0000
0000
010e
cafe
2402
0000
0000
010d
cafe
2802
0000
0000
010b
cafe
2c02
0000
0000
0110
cafe
3002
0000
0000
0106
cafe
3402
0000
0000
0112
cafe
3802
0000
0000
010d
cafe
3c02
0000
0000
0119
cafe
2002
0000
0000
010c
cafe
2402
0000
0000
0115
cafe
2802
0000
0000
0103
cafe
2c02
0000
0000
011b
cafe
3002
0000
0000
0111
cafe
3402
0000
0000
0112
cafe
3802
0000
0000
010d
cafe
3c02
0000
0000
0119
cafe
2002
0000
0000
0114
cafe
2402
0000
0000
0113
cafe
2802
0000
0000
010e
cafe
2c02
0000
0000
00fc
cafe
3002
0000
0000
010a
cafe
3402
0000
0000
010e
cafe
3802
0000
0000
0116
cafe
3c02
0000
0000
0112
cafe
2002
0000
0000
010e
cafe
2402
0000
0000
0116
cafe
2802
0000
0000
011e
cafe
2c02
0000
0000
0110
cafe
3002
0000
0000
0105
cafe
3402
0000
0000
010c
cafe
3802
0000
0000
0106
cafe
3c02
0000
0000
0117
cafe
2002
0000
0000
0110
cafe
2402
0000
0000
010c
cafe
2802
0000
0000
010a
cafe
2c02
0000
0000
010b
cafe
3002
0000
0000
0109
cafe
3402
0000
0000
010d
cafe
3802
0000
0000
010d
cafe
3c02
-
0000
0000
010c
cafe
2002
0000
0000
0111
cafe
2402
0000
0000
0103
cafe
2802
0000
0000
0106
cafe
2c02
0000
0000
00fe
cafe
3002
0000
0000
0104
cafe
3402
0000
0000
0109
cafe
3802
0000
0000
0107
cafe
3c02
0000
0000
0108
cafe
2002
0000
0000
0108
cafe
2402
0000
0000
0108
cafe
2802
0000
0000
00fc
cafe
2c02
0000
0000
0105
cafe
3002
0000
0000
010c
cafe
3402
0000
0000
0110
cafe
3802
0000
0000
010c
cafe
3c02
0000
0000
0112
cafe
2002
0000
0000
0116
cafe
2402
0000
0000
0106
cafe
2802
0000
0000
010b
cafe
2c02
0000
0000
0106
cafe
3002
0000
0000
0102
cafe
3402
0000
0000
0107
cafe
3802
0000
0000
00f9
cafe
3c02
0000
0000
00fe
cafe
2002
0000
0000
010b
cafe
2402
0000
0000
0113
cafe
2802
0000
0000
010e
cafe
2c02
0000
0000
0111
cafe
3002
0000
0000
0105
cafe
3402
0000
0000
0114
cafe
3802
0000
0000
010d
cafe
3c02
0000
0000
0112
cafe
2002
0000
0000
0117
cafe
2402
0000
0000
010d
cafe
2802
0000
0000
0116
cafe
2c02
0000
0000
0111
cafe
3002
0000
0000
0111
cafe
3402
0000
0000
0109
cafe
3802
0000
0000
010c
cafe
3c02
0000
0000
010c
cafe
2002
0000
0000
010d
cafe
2402
0000
0000
0112
cafe
2802
0000
0000
0111
cafe
2c02
0000
0000
0119
cafe
3002
0000
0000
0110
cafe
3402
0000
0000
0104
cafe
3802
0000
0000
0108
cafe
3c02
0000
0000
0112
cafe
2002
0000
0000
0111
cafe
2402
0000
0000
0102
cafe
2802
0000
-
0000
0102
cafe
2c02
0000
0000
0101
cafe
3002
0000
0000
0107
cafe
3402
0000
0000
010a
cafe
3802
0000
0000
010f
cafe
3c02
0000
0000
0111
cafe
2002
0000
0000
010a
cafe
2402
0000
0000
011a
cafe
2802
0000
0000
010c
cafe
2c02
0000
0000
010c
cafe
3002
0000
0000
010e
cafe
3402
0000
0000
00fc
cafe
3802
0000
0000
010e
cafe
3c02
0000
0000
0110
cafe
2002
0000
0000
0113
cafe
2402
0000
0000
0104
cafe
2802
0000
0000
0108
cafe
2c02
0000
0000
0102
cafe
3002
0000
0000
0108
cafe
3402
0000
0000
00fd
cafe
3802
0000
0000
0109
cafe
3c02
0000
0000
010c
cafe
2002
0000
0000
0100
cafe
2402
0000
0000
010b
cafe
2802
0000
0000
010a
cafe
2c02
0000
0000
0105
cafe
3002
0000
0000
010e
cafe
3402
0000
0000
010c
cafe
3802
0000
0000
0105
cafe
3c02
0000
0000
010a
cafe
2002
0000
0000
010e
cafe
2402
0000
0000
0106
cafe
2802
0000
0000
0107
cafe
2c02
0000
0000
0105
cafe
3002
0000
0000
00fd
cafe
3402
0000
0000
0102
cafe
3802
0000
0000
00fa
cafe
3c02
0000
0000
0102
cafe
2002
0000
0000
0105
cafe
2402
0000
0000
0107
cafe
2802
0000
0000
010c
cafe
2c02
0000
0000
0117
cafe
3002
0000
0000
0112
cafe
3402
0000
0000
010e
cafe
3802
0000
0000
0112
cafe
3c02
0000
0000
0113
cafe
2002
0000
0000
010c
cafe
2402
0000
0000
0118
cafe
2802
0000
0000
0119
cafe
2c02
0000
0000
0112
cafe
3002
0000
0000
0112
cafe
3402
0000
0000
-
0110
cafe
3802
0000
0000
010e
cafe
3c02
0000
0000
00fc
cafe
2002
0000
0000
010b
cafe
2402
0000
0000
010a
cafe
2802
0000
0000
0115
cafe
2c02
0000
0000
010c
cafe
3002
0000
0000
0114
cafe
3402
0000
0000
0114
cafe
3802
0000
0000
0118
cafe
3c02
0000
0000
0105
cafe
2002
0000
0000
010a
cafe
2402
0000
0000
010d
cafe
2802
0000
0000
0112
cafe
2c02
0000
0000
0117
cafe
3002
0000
0000
0101
cafe
3402
0000
0000
0107
cafe
3802
0000
0000
0108
cafe
3c02
0000
0000
0114
cafe
2002
0000
0000
010a
cafe
2402
0000
0000
00fa
cafe
2802
0000
0000
0104
cafe
2c02
0000
0000
010a
cafe
3002
0000
0000
010a
cafe
3402
0000
0000
010d
cafe
3802
0000
0000
010b
cafe
3c02
0000
0000
00fd
cafe
2002
0000
0000
0110
cafe
2402
0000
0000
0114
cafe
2802
0000
0000
011c
cafe
2c02
0000
0000
0116
cafe
3002
0000
0000
0107
cafe
3402
0000
0000
0104
cafe
3802
0000
0000
0103
cafe
3c02
0000
0000
00fe
cafe
2002
0000
0000
0101
cafe
2402
0000
0000
010b
cafe
2802
0000
0000
0104
cafe
2c02
0000
0000
0112
cafe
3002
0000
0000
0108
cafe
3402
0000
0000
010d
cafe
3802
0000
0000
010b
cafe
3c02
0000
0000
0112
cafe
2002
0000
0000
010e
cafe
2402
0000
0000
011a
cafe
2802
0000
0000
0120
cafe
2c02
0000
0000
010d
cafe
3002
0000
0000
0107
cafe
3402
0000
0000
0105
cafe
3802
0000
0000
0105
cafe
3c02
0000
0000
0109
cafe
2002
0000
0000
011a
-
cafe
2402
0000
0000
010f
cafe
2802
0000
0000
010f
cafe
2c02
0000
0000
0113
cafe
3002
0000
0000
010d
cafe
3402
0000
0000
010b
cafe
3802
0000
0000
0107
cafe
3c02
0000
0000
010d
cafe
2002
0000
0000
0102
cafe
2402
0000
0000
0109
cafe
2802
0000
0000
0106
cafe
2c02
0000
0000
0110
cafe
3002
0000
0000
010a
cafe
3402
0000
0000
010a
cafe
3802
0000
0000
0105
cafe
3c02
0000
0000
00fd
cafe
2002
0000
0000
00f7
cafe
2402
0000
0000
0102
cafe
2802
0000
0000
0109
cafe
2c02
0000
0000
0105
cafe
3002
0000
0000
0105
cafe
3402
0000
0000
0101
cafe
3802
0000
0000
0112
cafe
3c02
0000
0000
0108
cafe
2002
0000
0000
0109
cafe
2402
0000
0000
0107
cafe
2802
0000
0000
0108
cafe
2c02
0000
0000
0111
cafe
3002
0000
0000
0115
cafe
3402
0000
0000
0100
cafe
3802
0000
0000
010e
cafe
3c02
0000
0000
0110
cafe
2002
0000
0000
010f
cafe
2402
0000
0000
0112
cafe
2802
0000
0000
0117
cafe
2c02
0000
0000
011a
cafe
3002
0000
0000
0118
cafe
3402
0000
0000
0116
cafe
3802
0000
0000
0111
cafe
3c02
0000
0000
011a
cafe
2002
0000
0000
0113
cafe
2402
0000
0000
0105
cafe
2802
0000
0000
0114
cafe
2c02
0000
0000
010d
cafe
3002
0000
0000
0112
cafe
3402
0000
0000
0109
cafe
3802
0000
0000
0105
cafe
3c02
0000
0000
00f3
cafe
2002
0000
0000
0102
cafe
2402
0000
0000
0108
cafe
2802
0000
0000
0103
cafe
2c02
0000
0000
00fd
cafe
-
3002
0000
0000
0101
cafe
3402
0000
0000
00f5
cafe
3802
0000
0000
00ff
cafe
3c02
0000
0000
0102
cafe
2002
0000
0000
010e
cafe
2402
0000
0000
010c
cafe
2802
0000
0000
0106
cafe
2c02
0000
0000
010a
cafe
3002
0000
0000
010c
cafe
3402
0000
0000
0109
cafe
3802
0000
0000
0109
cafe
3c02
0000
0000
0105
cafe
2002
0000
0000
0117
cafe
2402
0000
0000
010e
cafe
2802
0000
0000
0110
cafe
2c02
0000
0000
011d
cafe
3002
0000
0000
0112
cafe
3402
0000
0000
0111
cafe
3802
0000
0000
011c
cafe
3c02
0000
0000
0114
cafe
2002
0000
0000
0118
cafe
2402
0000
0000
0118
cafe
2802
0000
0000
0111
cafe
2c02
0000
0000
010a
cafe
3002
0000
0000
010e
cafe
3402
0000
0000
0118
cafe
3802
0000
0000
011b
cafe
3c02
0000
0000
0115
cafe
2002
0000
0000
0110
cafe
2402
0000
0000
0112
cafe
2802
0000
0000
010f
cafe
2c02
0000
0000
010b
cafe
3002
0000
0000
010e
cafe
3402
0000
0000
0106
cafe
3802
0000
0000
010e
cafe
3c02
0000
0000
0105
cafe
2002
0000
0000
010f
cafe
2402
0000
0000
010d
cafe
2802
0000
0000
0105
cafe
2c02
0000
0000
0111
cafe
3002
0000
0000
0110
cafe
3402
0000
0000
0118
cafe
3802
0000
0000
0114
cafe
3c02
0000
0000
011e
cafe
2002
0000
0000
0106
cafe
2402
0000
0000
0109
cafe
2802
0000
0000
00f9
cafe
2c02
0000
0000
0108
cafe
3002
0000
0000
0114
cafe
3402
0000
0000
0111
cafe
3802
0000
0000
0107
cafe
3c02
-
0000
0000
010e
cafe
2002
0000
0000
00fb
cafe
2402
0000
0000
00fc
cafe
2802
0000
0000
0107
cafe
2c02
0000
0000
010f
cafe
3002
0000
0000
010e
cafe
3402
0000
0000
010c
cafe
3802
0000
0000
0109
cafe
3c02
0000
0000
0105
cafe
2002
0000
0000
010b
cafe
2402
0000
0000
010c
cafe
2802
0000
0000
0106
cafe
2c02
0000
0000
0113
cafe
3002
0000
0000
010c
cafe
3402
0000
0000
0104
cafe
3802
0000
0000
0101
cafe
3c02
0000
0000
010c
cafe
2002
0000
0000
00f8
cafe
2402
0000
0000
0103
cafe
2802
0000
0000
0101
cafe
2c02
0000
0000
010d
cafe
3002
0000
0000
0110
cafe
3402
0000
0000
0102
cafe
3802
0000
0000
0104
cafe
3c02
0000
0000
010f
cafe
2002
0000
0000
010e
cafe
2402
0000
0000
0117
cafe
2802
0000
0000
010c
cafe
2c02
0000
0000
011a
cafe
3002
0000
0000
0122
cafe
3402
0000
0000
011e
cafe
3802
0000
0000
011b
cafe
3c02
0000
0000
011c
cafe
2002
0000
0000
0115
cafe
2402
0000
0000
0116
cafe
2802
0000
0000
010f
cafe
2c02
0000
0000
010a
cafe
3002
0000
0000
0112
cafe
3402
0000
0000
010f
cafe
3802
0000
0000
010f
cafe
3c02
0000
0000
0108
cafe
2002
0000
0000
0101
cafe
2402
0000
0000
00f8
cafe
2802
0000
0000
0105
cafe
2c02
0000
0000
010c
cafe
3002
0000
0000
00ff
cafe
3402
0000
0000
0106
cafe
3802
0000
0000
0103
cafe
3c02
0000
0000
010a
cafe
2002
0000
0000
0109
cafe
2402
0000
0000
010d
cafe
2802
0000
-
0000
010d
cafe
2c02
0000
0000
0116
cafe
3002
0000
0000
0120
cafe
3402
0000
0000
0113
cafe
3802
0000
0000
011a
cafe
3c02
0000
0000
0117
cafe
2002
0000
0000
011a
cafe
2402
0000
0000
0122
cafe
2802
0000
0000
011e
cafe
2c02
0000
0000
010d
cafe
3002
0000
0000
0110
cafe
3402
0000
0000
0106
cafe
3802
0000
0000
0108
cafe
3c02
0000
0000
010e
cafe
2002
0000
0000
010f
cafe
2402
0000
0000
0112
cafe
2802
0000
0000
0110
cafe
2c02
0000
0000
0117
cafe
3002
0000
0000
0116
cafe
3402
0000
0000
0109
cafe
3802
0000
0000
011a
cafe
3c02
0000
0000
010c
cafe
2002
0000
0000
010b
cafe
2402
0000
0000
010e
cafe
2802
0000
0000
0113
cafe
2c02
0000
0000
0112
cafe
3002
0000
0000
0114
cafe
3402
0000
0000
011e
cafe
3802
0000
0000
0112
cafe
3c02
0000
0000
010b
cafe
2002
0000
0000
0114
cafe
2402
0000
0000
0104
cafe
2802
0000
0000
0102
cafe
2c02
0000
0000
0109
cafe
3002
0000
0000
00f9
cafe
3402
0000
0000
0102
cafe
3802
0000
0000
0105
cafe
3c02
0000
0000
0103
cafe
2002
0000
0000
0101
cafe
2402
0000
0000
010b
cafe
2802
0000
0000
0103
cafe
2c02
0000
0000
010f
cafe
3002
0000
0000
010c
cafe
3402
0000
0000
0108
cafe
3802
0000
0000
0104
cafe
3c02
0000
0000
00f3
cafe
2002
0000
0000
00ff
cafe
2402
0000
0000
0104
cafe
2802
0000
0000
0108
cafe
2c02
0000
0000
0103
cafe
3002
0000
0000
011a
cafe
3402
0000
0000
-
0119
cafe
3802
0000
0000
010e
cafe
3c02
0000
0000
0113
cafe
2002
0000
0000
0117
cafe
2402
0000
0000
0119
cafe
2802
0000
0000
010f
cafe
2c02
0000
0000
0109
cafe
3002
0000
0000
0107
cafe
3402
0000
0000
010c
cafe
3802
0000
0000
011b
cafe
3c02
0000
0000
0114
cafe
2002
0000
0000
0116
cafe
2402
0000
0000
0107
cafe
2802
0000
0000
010f
cafe
2c02
0000
0000
0111
cafe
3002
0000
0000
010e
cafe
3402
0000
0000
0122
cafe
3802
0000
0000
011e
cafe
3c02
0000
0000
0109
cafe
2002
0000
0000
0106
cafe
2402
0000
0000
010e
cafe
2802
0000
0000
0101
cafe
2c02
0000
0000
010f
cafe
3002
0000
0000
0107
cafe
3402
0000
0000
00fc
cafe
3802
0000
0000
0104
cafe
3c02
0000
0000
0103
cafe
2002
0000
0000
0102
cafe
2402
0000
0000
0106
cafe
2802
0000
0000
0101
cafe
2c02
0000
0000
010b
cafe
3002
0000
0000
0114
cafe
3402
0000
0000
00fd
cafe
3802
0000
0000
010c
cafe
3c02
0000
0000
0114
cafe
2002
0000
0000
0112
cafe
2402
0000
0000
010c
cafe
2802
0000
0000
010a
cafe
2c02
0000
0000
0108
cafe
3002
0000
0000
010e
cafe
3402
0000
0000
0112
cafe
3802
0000
0000
0110
cafe
3c02
0000
0000
0103
cafe
2002
0000
0000
0108
cafe
2402
0000
0000
0116
cafe
2802
0000
0000
010a
cafe
2c02
0000
0000
0100
cafe
3002
0000
0000
010e
cafe
3402
0000
0000
0104
cafe
3802
0000
0000
010b
cafe
3c02
0000
0000
0107
cafe
2002
0000
0000
0105
-
cafe
2402
0000
0000
0102
cafe
2802
0000
0000
0109
cafe
2c02
0000
0000
0107
cafe
3002
0000
0000
010b
cafe
3402
0000
0000
0107
cafe
3802
0000
0000
010a
cafe
3c02
0000
0000
0109
cafe
2002
0000
0000
010e
cafe
2402
0000
0000
0110
cafe
2802
0000
0000
0109
cafe
2c02
0000
0000
0104
cafe
3002
0000
0000
0100
cafe
3402
0000
0000
0102
cafe
3802
0000
0000
0105
cafe
3c02
0000
0000
010a
cafe
2002
0000
0000
0105
cafe
2402
0000
0000
0109
cafe
2802
0000
0000
010a
cafe
2c02
0000
0000
0112
cafe
3002
0000
0000
010a
cafe
3402
0000
0000
010d
cafe
3802
0000
0000
0104
cafe
3c02
0000
0000
0116
cafe
2002
0000
0000
00ff
cafe
2402
0000
0000
0110
cafe
2802
0000
0000
0103
cafe
2c02
0000
0000
0106
cafe
3002
0000
0000
0109
cafe
3402
0000
0000
0109
cafe
3802
0000
0000
010f
cafe
3c02
0000
0000
0100
cafe
2002
0000
0000
00f7
cafe
2402
0000
0000
0109
cafe
2802
0000
0000
0106
cafe
2c02
0000
0000
0109
cafe
3002
0000
0000
0102
cafe
3402
0000
0000
00ff
cafe
3802
0000
0000
0102
cafe
3c02
0000
0000
0105
cafe
2002
0000
0000
00ff
cafe
2402
0000
0000
010e
cafe
2802
0000
0000
0107
cafe
2c02
0000
0000
0114
cafe
3002
0000
0000
0110
cafe
3402
0000
0000
0111
cafe
3802
0000
0000
0115
cafe
3c02
0000
0000
0114
cafe
2002
0000
0000
010d
cafe
2402
0000
0000
0116
cafe
2802
0000
0000
0114
cafe
2c02
0000
0000
0113
cafe
-
3002
0000
0000
010a
cafe
3402
0000
0000
0107
cafe
3802
0000
0000
010a
cafe
3c02
0000
0000
0111
cafe
2002
0000
0000
010e
cafe
2402
0000
0000
0102
cafe
2802
0000
0000
010d
cafe
2c02
0000
0000
0111
cafe
3002
0000
0000
0112
cafe
3402
0000
0000
0112
cafe
3802
0000
0000
010e
cafe
3c02
0000
0000
0112
cafe
2002
0000
0000
010b
cafe
2402
0000
0000
0111
cafe
2802
0000
0000
010d
cafe
2c02
0000
0000
0114
cafe
3002
0000
0000
010a
cafe
3402
0000
0000
010b
cafe
3802
0000
0000
010c
cafe
3c02
0000
0000
010e
cafe
2002
0000
0000
0116
cafe
2402
0000
0000
011a
cafe
2802
0000
0000
0119
cafe
2c02
0000
0000
0118
cafe
3002
0000
0000
010f
cafe
3402
0000
0000
010e
cafe
3802
0000
0000
010e
cafe
3c02
0000
0000
010d
cafe
2002
0000
0000
0112
cafe
2402
0000
0000
0111
cafe
2802
0000
0000
010a
cafe
2c02
0000
0000
010a
cafe
3002
0000
0000
010c
cafe
3402
0000
0000
0114
cafe
3802
0000
0000
0114
cafe
3c02
0000
0000
0115
cafe
2002
0000
0000
0120
cafe
2402
0000
0000
0118
cafe
2802
0000
0000
0116
cafe
2c02
0000
0000
011d
cafe
3002
0000
0000
0114
cafe
3402
0000
0000
010f
cafe
3802
0000
0000
010e
cafe
3c02
0000
0000
010c
cafe
2002
0000
0000
0119
cafe
2402
0000
0000
0115
cafe
2802
0000
0000
0110
cafe
2c02
0000
0000
0110
cafe
3002
0000
0000
0110
cafe
3402
0000
0000
010c
cafe
3802
0000
0000
0115
cafe
3c02
-
0000
0000
0111
cafe
2002
0000
0000
0100
cafe
2402
0000
0000
0113
cafe
2802
0000
0000
010c
cafe
2c02
0000
0000
0110
cafe
3002
0000
0000
0110
cafe
3402
0000
0000
0112
cafe
3802
0000
0000
0110
cafe
3c02
0000
0000
0103
cafe
2002
0000
0000
0102
cafe
2402
0000
0000
00fd
cafe
2802
0000
0000
00fd
cafe
2c02
0000
0000
00fe
cafe
3002
0000
0000
010a
cafe
3402
0000
0000
010c
cafe
3802
0000
0000
0103
cafe
3c02
0000
0000
0102
cafe
2002
0000
0000
0109
cafe
2402
0000
0000
0112
cafe
2802
0000
0000
0112
cafe
2c02
0000
0000
010a
cafe
3002
0000
0000
010c
cafe
3402
0000
0000
0108
cafe
3802
0000
0000
010b
cafe
3c02
0000
0000
0119
cafe
2002
0000
0000
011c
cafe
2402
0000
0000
0113
cafe
2802
0000
0000
0120
cafe
2c02
0000
0000
0111
cafe
3002
0000
0000
0110
cafe
3402
0000
0000
010e
cafe
3802
0000
0000
0110
cafe
3c02
0000
0000
0110
cafe
2002
0000
0000
0116
cafe
2402
0000
0000
010e
cafe
2802
0000
0000
0104
cafe
2c02
0000
0000
0103
cafe
3002
0000
0000
0106
cafe
3402
0000
0000
0109
cafe
3802
0000
0000
0108
cafe
3c02
0000
0000
010c
cafe
2002
0000
0000
010c
cafe
2402
0000
0000
0108
cafe
2802
0000
0000
0108
cafe
2c02
0000
0000
010c
cafe
3002
0000
0000
0108
cafe
3402
0000
0000
0102
cafe
3802
0000
0000
00ff
cafe
3c02
0000
0000
010a
cafe
2002
0000
0000
00fc
cafe
2402
0000
0000
0105
cafe
2802
0000
-
0000
0109
cafe
2c02
0000
0000
010d
cafe
3002
0000
0000
0112
cafe
3402
0000
0000
0114
cafe
3802
0000
0000
010f
cafe
3c02
0000
0000
0107
cafe
2002
0000
0000
0105
cafe
2402
0000
0000
010e
cafe
2802
0000
0000
0110
cafe
2c02
0000
0000
010e
cafe
3002
0000
0000
010b
cafe
3402
0000
0000
0102
cafe
3802
0000
0000
0104
cafe
3c02
0000
0000
010e
cafe
2002
0000
0000
010e
cafe
2402
0000
0000
010b
cafe
2802
0000
0000
010a
cafe
2c02
0000
0000
0106
cafe
3002
0000
0000
0114
cafe
3402
0000
0000
011a
cafe
3802
0000
0000
0115
cafe
3c02
0000
0000
00ff
cafe
2002
0000
0000
010c
cafe
2402
0000
0000
010b
cafe
2802
0000
0000
0112
cafe
2c02
0000
0000
0102
cafe
3002
0000
0000
0102
cafe
3402
0000
0000
010b
cafe
3802
0000
0000
0110
cafe
3c02
0000
0000
0110
cafe
2002
0000
0000
0114
cafe
2402
0000
0000
010e
cafe
2802
0000
0000
010f
cafe
2c02
0000
0000
0114
cafe
3002
0000
0000
010e
cafe
3402
0000
0000
010d
cafe
3802
0000
0000
0114
cafe
3c02
0000
0000
0112
cafe
2002
0000
0000
010f
cafe
2402
0000
0000
0113
cafe
2802
0000
0000
0112
cafe
2c02
0000
0000
0111
cafe
3002
0000
0000
0115
cafe
3402
0000
0000
0110
cafe
3802
0000
0000
0111
cafe
3c02
0000
0000
0104
cafe
2002
0000
0000
0109
cafe
2402
0000
0000
0107
cafe
2802
0000
0000
010e
cafe
2c02
0000
0000
0113
cafe
3002
0000
0000
010c
cafe
3402
0000
0000
-
010b
cafe
3802
0000
0000
0117
cafe
3c02
0000
0000
010a
cafe
2002
0000
0000
011c
cafe
2402
0000
0000
0101
cafe
2802
0000
0000
0109
cafe
2c02
0000
0000
0108
cafe
3002
0000
0000
010e
cafe
3402
0000
0000
0110
cafe
3802
0000
0000
010c
cafe
3c02
0000
0000
010c
cafe
2002
0000
0000
010a
cafe
2402
0000
0000
0105
cafe
2802
0000
0000
0102
cafe
2c02
0000
0000
00fc
cafe
3002
0000
0000
00fd
cafe
3402
0000
0000
010a
cafe
3802
0000
0000
0110
cafe
3c02
0000
0000
010e
cafe
2002
0000
0000
0101
cafe
2402
0000
0000
0103
cafe
2802
0000
0000
010a
cafe
2c02
0000
0000
00f8
cafe
3002
0000
0000
0105
cafe
3402
0000
0000
0105
cafe
3802
0000
0000
010c
cafe
3c02
0000
0000
010f
cafe
2002
0000
0000
0100
cafe
2402
0000
0000
010d
cafe
2802
0000
0000
010b
cafe
2c02
0000
0000
010a
cafe
3002
0000
0000
010d
cafe
3402
0000
0000
0112
cafe
3802
0000
0000
0117
cafe
3c02
0000
0000
010c
cafe
2002
0000
0000
0103
cafe
2402
0000
0000
010b
cafe
2802
0000
0000
010c
cafe
2c02
0000
0000
0101
cafe
3002
0000
0000
0106
cafe
3402
0000
0000
0105
cafe
3802
0000
0000
0105
cafe
3c02
0000
0000
0107
cafe
2002
0000
0000
0114
cafe
2402
0000
0000
0114
cafe
2802
0000
0000
0117
cafe
2c02
0000
0000
0111
cafe
3002
0000
0000
010e
cafe
3402
0000
0000
0115
cafe
3802
0000
0000
011a
cafe
3c02
0000
0000
0107
cafe
2002
0000
0000
0101
-
cafe
2402
0000
0000
0101
cafe
2802
0000
0000
0109
cafe
2c02
0000
0000
0106
cafe
3002
0000
0000
010a
cafe
3402
0000
0000
0114
cafe
3802
0000
0000
010c
cafe
3c02
0000
0000
0107
cafe
2002
0000
0000
010f
cafe
2402
0000
0000
010c
cafe
2802
0000
0000
0108
cafe
2c02
0000
0000
010b
cafe
3002
0000
0000
010d
cafe
3402
0000
0000
011a
cafe
3802
0000
0000
010a
cafe
3c02
0000
0000
0109
cafe
2002
0000
0000
010d
cafe
2402
0000
0000
011d
cafe
2802
0000
0000
0110
cafe
2c02
0000
0000
0106
cafe
3002
0000
0000
0109
cafe
3402
0000
0000
010d
cafe
3802
0000
0000
00fe
cafe
3c02
0000
0000
00fc
cafe
2002
0000
0000
010f
cafe
2402
0000
0000
0107
cafe
2802
0000
0000
010e
cafe
2c02
0000
0000
0107
cafe
3002
0000
0000
0116
cafe
3402
0000
0000
010f
cafe
3802
0000
0000
0104
cafe
3c02
0000
0000
010c
cafe
2002
0000
0000
010e
cafe
2402
0000
0000
010c
cafe
2802
0000
0000
0110
cafe
2c02
0000
0000
010b
cafe
3002
0000
0000
0105
cafe
3402
0000
0000
010a
cafe
3802
0000
0000
0115
cafe
3c02
0000
0000
010a
cafe
2002
0000
0000
0113
cafe
2402
0000
0000
0101
cafe
2802
0000
0000
0105
cafe
2c02
0000
0000
0113
cafe
3002
0000
0000
010c
cafe
3402
0000
0000
0118
cafe
3802
0000
0000
0113
cafe
3c02
0000
0000
0112
cafe
2002
0000
0000
0102
cafe
2402
0000
0000
0110
cafe
2802
0000
0000
0115
cafe
2c02
0000
0000
0108
cafe
-
3002
0000
0000
0108
cafe
3402
0000
0000
0113
cafe
3802
0000
0000
0107
cafe
3c02
0000
0000
0107
cafe
2002
0000
0000
00fd
cafe
2402
0000
0000
0110
cafe
2802
0000
0000
0100
cafe
2c02
0000
0000
0102
cafe
3002
0000
0000
0100
cafe
3402
0000
0000
0103
cafe
3802
0000
0000
0109
cafe
3c02
0000
0000
010a
cafe
2002
0000
0000
0100
cafe
2402
0000
0000
0104
cafe
2802
0000
0000
010d
cafe
2c02
0000
0000
010f
cafe
3002
0000
0000
0113
cafe
3402
0000
0000
0114
cafe
3802
0000
0000
011a
cafe
3c02
0000
0000
0112
cafe
2002
0000
0000
010b
cafe
2402
0000
0000
0101
cafe
2802
0000
0000
010d
cafe
2c02
0000
0000
010d
cafe
3002
0000
0000
0108
cafe
3402
0000
0000
010c
cafe
3802
0000
0000
011a
cafe
3c02
0000
0000
011b
cafe
2002
0000
0000
0116
cafe
2402
0000
0000
0116
cafe
2802
0000
0000
011b
cafe
2c02
0000
0000
010a
cafe
3002
0000
0000
0102
cafe
3402
0000
0000
0109
cafe
3802
0000
0000
0114
cafe
3c02
0000
0000
010f
cafe
2002
0000
0000
010e
cafe
2402
0000
0000
0113
cafe
2802
0000
0000
011c
cafe
2c02
0000
0000
0119
cafe
3002
0000
0000
0111
cafe
3402
0000
0000
010c
cafe
3802
0000
0000
011a
cafe
3c02
0000
0000
0119
cafe
2002
0000
0000
0119
cafe
2402
0000
0000
011a
cafe
2802
0000
0000
010b
cafe
2c02
0000
0000
011f
cafe
3002
0000
0000
011c
cafe
3402
0000
0000
0126
cafe
3802
0000
0000
011f
cafe
3c02
-
0000
0000
011c
cafe
2002
0000
0000
010f
cafe
2402
0000
0000
010e
cafe
2802
0000
0000
0104
cafe
2c02
0000
0000
0105
cafe
3002
0000
0000
0109
cafe
3402
0000
0000
00f8
cafe
3802
0000
0000
00fa
cafe
3c02
0000
0000
0103
cafe
2002
0000
0000
00fa
cafe
2402
0000
0000
00f5
cafe
2802
0000
0000
0100
cafe
2c02
0000
0000
0102
cafe
3002
0000
0000
00fe
cafe
3402
0000
0000
010b
cafe
3802
0000
0000
0103
cafe
3c02
0000
0000
0100
cafe
2002
0000
0000
010e
cafe
2402
0000
0000
00fa
cafe
2802
0000
0000
00fa
cafe
2c02
0000
0000
00fa
cafe
3002
0000
0000
00ff
cafe
3402
0000
0000
0105
cafe
3802
0000
0000
0107
cafe
3c02
0000
0000
0103
cafe
2002
0000
0000
0103
cafe
2402
0000
0000
00fa
cafe
2802
0000
0000
00fd
cafe
2c02
0000
0000
0103
cafe
3002
0000
0000
0109
cafe
3402
0000
0000
0107
cafe
3802
0000
0000
010f
cafe
3c02
0000
0000
0114
cafe
2002
0000
0000
010a
cafe
2402
0000
0000
010c
cafe
2802
0000
0000
010a
cafe
2c02
0000
0000
00fa
cafe
3002
0000
0000
010f
cafe
3402
0000
0000
0118
cafe
3802
0000
0000
0119
cafe
3c02
0000
0000
011d
cafe
2002
0000
0000
0116
cafe
2402
0000
0000
0110
cafe
2802
0000
0000
0110
cafe
2c02
0000
0000
010f
cafe
3002
0000
0000
0110
cafe
3402
0000
0000
0107
cafe
3802
0000
0000
010d
cafe
3c02
0000
0000
0104
cafe
2002
0000
0000
0111
cafe
2402
0000
0000
0114
cafe
2802
0000
-
0000
010f
cafe
2c02
0000
0000
0109
cafe
3002
0000
0000
010a
cafe
3402
0000
0000
0106
cafe
3802
0000
0000
0100
cafe
3c02
0000
0000
0105
cafe
2002
0000
0000
010c
cafe
2402
0000
0000
0107
cafe
2802
0000
0000
0109
cafe
2c02
0000
0000
0118
cafe
3002
0000
0000
011a
cafe
3402
0000
0000
0110
cafe
3802
0000
0000
010b
cafe
3c02
0000
0000
0103
cafe
2002
0000
0000
0106
cafe
2402
0000
0000
0104
cafe
2802
0000
0000
0112
cafe
2c02
0000
0000
010e
cafe
3002
0000
0000
0105
cafe
3402
0000
0000
0106
cafe
3802
0000
0000
0112
cafe
3c02
0000
0000
0113
cafe
2002
0000
0000
010e
cafe
2402
0000
0000
010a
cafe
2802
0000
0000
0112
cafe
2c02
0000
0000
0107
cafe
3002
0000
0000
011a
cafe
3402
0000
0000
011e
cafe
3802
0000
0000
0114
cafe
3c02
0000
0000
0112
cafe
2002
0000
0000
010e
cafe
2402
0000
0000
010c
cafe
2802
0000
0000
010a
cafe
2c02
0000
0000
010b
cafe
3002
0000
0000
0118
cafe
3402
0000
0000
0111
cafe
3802
0000
0000
0115
cafe
3c02
0000
0000
0111
cafe
2002
0000
0000
010a
cafe
2402
0000
0000
010f
cafe
2802
0000
0000
0116
cafe
2c02
0000
0000
010f
cafe
3002
0000
0000
0114
cafe
3402
0000
0000
010f
cafe
3802
0000
0000
010d
cafe
3c02
0000
0000
010a
cafe
2002
0000
0000
0108
cafe
2402
0000
0000
0108
cafe
2802
0000
0000
00fe
cafe
2c02
0000
0000
0104
cafe
3002
0000
0000
0108
cafe
3402
0000
0000
-
010c
cafe
3802
0000
0000
0105
cafe
3c02
0000
0000
0107
cafe
2002
0000
0000
010a
cafe
2402
0000
0000
0104
cafe
2802
0000
0000
0100
cafe
2c02
0000
0000
00f4
cafe
3002
0000
0000
00f5
cafe
3402
0000
0000
00f3
cafe
3802
0000
0000
00f9
cafe
3c02
0000
0000
00fc
cafe
2002
0000
0000
0109
cafe
2402
0000
0000
0108
cafe
2802
0000
0000
00ff
cafe
2c02
0000
0000
0101
cafe
3002
0000
0000
0109
cafe
3402
0000
0000
00f9
cafe
3802
0000
0000
0104
cafe
3c02
0000
0000
0103
cafe
2002
0000
0000
0113
cafe
2402
0000
0000
0106
cafe
2802
0000
0000
0113
cafe
2c02
0000
0000
0101
cafe
3002
0000
0000
010d
cafe
3402
0000
0000
0104
cafe
3802
0000
0000
0108
cafe
3c02
0000
0000
00ff
cafe
2002
0000
0000
0110
cafe
2402
0000
0000
010c
cafe
2802
0000
0000
010e
cafe
2c02
0000
0000
0105
cafe
3002
0000
0000
0100
cafe
3402
0000
0000
010f
cafe
3802
0000
0000
0104
cafe
3c02
0000
0000
010a
cafe
2002
0000
0000
0104
cafe
2402
0000
0000
0119
cafe
2802
0000
0000
010d
cafe
2c02
0000
0000
010a
cafe
3002
0000
0000
0112
cafe
3402
0000
0000
0116
cafe
3802
0000
0000
0107
cafe
3c02
0000
0000
0103
cafe
2002
0000
0000
0100
cafe
2402
0000
0000
0106
cafe
2802
0000
0000
0115
cafe
2c02
0000
0000
011f
cafe
3002
0000
0000
010a
cafe
3402
0000
0000
0107
cafe
3802
0000
0000
0105
cafe
3c02
0000
0000
010c
cafe
2002
0000
0000
010b
-
cafe
2402
0000
0000
0110
cafe
2802
0000
0000
0110
cafe
2c02
0000
0000
0105
cafe
3002
0000
0000
010c
cafe
3402
0000
0000
010b
cafe
3802
0000
0000
0110
cafe
3c02
0000
0000
0113
cafe
2002
0000
0000
0110
cafe
2402
0000
0000
0115
cafe
2802
0000
0000
0119
cafe
2c02
0000
0000
0110
cafe
3002
0000
0000
0107
cafe
3402
0000
0000
0115
cafe
3802
0000
0000
0116
cafe
3c02
0000
0000
011a
cafe
2002
0000
0000
0117
cafe
2402
0000
0000
0116
cafe
2802
0000
0000
0114
cafe
2c02
0000
0000
010c
cafe
3002
0000
0000
010a
cafe
3402
0000
0000
0112
cafe
3802
0000
0000
010a
cafe
3c02
0000
0000
0113
cafe
2002
0000
0000
0114
cafe
2402
0000
0000
00fe
cafe
2802
0000
0000
010c
cafe
2c02
0000
0000
00ff
cafe
3002
0000
0000
0109
cafe
3402
0000
0000
0105
cafe
3802
0000
0000
00fc
cafe
3c02
0000
0000
00fb
cafe
2002
0000
0000
00fd
cafe
2402
0000
0000
00fc
cafe
2802
0000
0000
0100
cafe
2c02
0000
0000
0107
cafe
3002
0000
0000
00fd
cafe
3402
0000
0000
010a
cafe
3802
0000
0000
010b
cafe
3c02
0000
0000
0108
cafe
2002
0000
0000
0105
cafe
2402
0000
0000
0107
cafe
2802
0000
0000
00fd
cafe
2c02
0000
0000
0103
cafe
3002
0000
0000
0103
cafe
3402
0000
0000
0109
cafe
3802
0000
0000
0108
cafe
3c02
0000
0000
010d
cafe
2002
0000
0000
0112
cafe
2402
0000
0000
0113
cafe
2802
0000
0000
0112
cafe
2c02
0000
0000
010d
cafe
-
3002
0000
0000
0115
cafe
3402
0000
0000
0117
cafe
3802
0000
0000
010d
cafe
3c02
0000
0000
010e
cafe
2002
0000
0000
0114
cafe
2402
0000
0000
0118
cafe
2802
0000
0000
0121
cafe
2c02
0000
0000
0113
cafe
3002
0000
0000
0112
cafe
3402
0000
0000
010e
cafe
3802
0000
0000
010b
cafe
3c02
0000
0000
010f
cafe
2002
0000
0000
0104
cafe
2402
0000
0000
010a
cafe
2802
0000
0000
010b
cafe
2c02
0000
0000
0104
cafe
3002
0000
0000
0103
cafe
3402
0000
0000
0105
cafe
3802
0000
0000
0107
cafe
3c02
0000
0000
0104
cafe
2002
0000
0000
0110
cafe
2402
0000
0000
0110
cafe
2802
0000
0000
0106
cafe
2c02
0000
0000
0110
cafe
3002
0000
0000
011b
cafe
3402
0000
0000
011b
cafe
3802
0000
0000
011d
cafe
3c02
0000
0000
011c
cafe
2002
0000
0000
011a
cafe
2402
0000
0000
0115
cafe
2802
0000
0000
011e
cafe
2c02
0000
0000
0115
cafe
3002
0000
0000
0124
cafe
3402
0000
0000
011f
cafe
3802
0000
0000
011e
cafe
3c02
0000
0000
0110
cafe
2002
0000
0000
010c
cafe
2402
0000
0000
010d
cafe
2802
0000
0000
0108
cafe
2c02
0000
0000
0112
cafe
3002
0000
0000
0109
cafe
3402
0000
0000
010f
cafe
3802
0000
0000
0113
cafe
3c02
0000
0000
011b
cafe
2002
0000
0000
0110
cafe
2402
0000
0000
0110
cafe
2802
0000
0000
0119
cafe
2c02
0000
0000
0108
cafe
3002
0000
0000
0102
cafe
3402
0000
0000
0106
cafe
3802
0000
0000
0107
cafe
3c02
-
0000
0000
0110
cafe
2002
0000
0000
00fa
cafe
2402
0000
0000
00fe
cafe
2802
0000
0000
011a
cafe
2c02
0000
0000
0111
cafe
3002
0000
0000
0118
cafe
3402
0000
0000
0116
cafe
3802
0000
0000
010f
cafe
3c02
0000
0000
010e
cafe
2002
0000
0000
0114
cafe
2402
0000
0000
010b
cafe
2802
0000
0000
0114
cafe
2c02
0000
0000
010f
cafe
3002
0000
0000
0111
cafe
3402
0000
0000
0110
cafe
3802
0000
0000
0110
cafe
3c02
0000
0000
010a
cafe
2002
0000
0000
010f
cafe
2402
0000
0000
0111
cafe
2802
0000
0000
00fe
cafe
2c02
0000
0000
0108
cafe
3002
0000
0000
010a
cafe
3402
0000
0000
00fd
cafe
3802
0000
0000
0112
cafe
3c02
0000
0000
010c
cafe
2002
0000
0000
0105
cafe
2402
0000
0000
0100
cafe
2802
0000
0000
0107
cafe
2c02
0000
0000
010b
cafe
3002
0000
0000
00fd
cafe
3402
0000
0000
0101
cafe
3802
0000
0000
0101
cafe
3c02
0000
0000
0107
cafe
2002
0000
0000
0108
cafe
2402
0000
0000
0108
cafe
2802
0000
0000
0116
cafe
2c02
0000
0000
0107
cafe
3002
0000
0000
010f
cafe
3402
0000
0000
010d
cafe
3802
0000
0000
0100
cafe
3c02
0000
0000
0106
cafe
2002
0000
0000
010e
cafe
2402
0000
0000
0100
cafe
2802
0000
0000
0103
cafe
2c02
0000
0000
010b
cafe
3002
0000
0000
010d
cafe
3402
0000
0000
0103
cafe
3802
0000
0000
010b
cafe
3c02
0000
0000
0104
cafe
2002
0000
0000
010a
cafe
2402
0000
0000
0113
cafe
2802
0000
-
0000
010b
cafe
2c02
0000
0000
0106
cafe
3002
0000
0000
0114
cafe
3402
0000
0000
010d
cafe
3802
0000
0000
0111
cafe
3c02
0000
0000
010f
cafe
2002
0000
0000
0113
cafe
2402
0000
0000
0112
cafe
2802
0000
0000
010a
cafe
2c02
0000
0000
0109
cafe
3002
0000
0000
0116
cafe
3402
0000
0000
0113
cafe
3802
0000
0000
0110
cafe
3c02
0000
0000
0122
cafe
2002
0000
0000
0112
cafe
2402
0000
0000
010b
cafe
2802
0000
0000
010f
cafe
2c02
0000
0000
010b
cafe
3002
0000
0000
0111
cafe
3402
0000
0000
00ff
cafe
3802
0000
0000
00ff
cafe
3c02
0000
0000
00fd
cafe
2002
0000
0000
0102
cafe
2402
0000
0000
0112
cafe
2802
0000
0000
0109
cafe
2c02
0000
0000
00fc
cafe
3002
0000
0000
010b
cafe
3402
0000
0000
0103
cafe
3802
0000
0000
0104
cafe
3c02
0000
0000
0102
cafe
2002
0000
0000
00ff
cafe
2402
0000
0000
00f8
cafe
2802
0000
0000
00f1
cafe
2c02
0000
0000
00f3
cafe
3002
0000
0000
00ea
cafe
3402
0000
0000
00ff
cafe
3802
0000
0000
0108
cafe
3c02
0000
0000
0105
cafe
2002
0000
0000
0112
cafe
2402
0000
0000
0108
cafe
2802
0000
0000
0114
cafe
2c02
0000
0000
0107
cafe
3002
0000
0000
010c
cafe
3402
0000
0000
010c
cafe
3802
0000
0000
010e
cafe
3c02
0000
0000
010c
cafe
2002
0000
0000
0114
cafe
2402
0000
0000
010e
cafe
2802
0000
0000
0106
cafe
2c02
0000
0000
011b
cafe
3002
0000
0000
0111
cafe
3402
0000
0000
-
010d
cafe
3802
0000
0000
0105
cafe
3c02
0000
0000
010c
cafe
2002
0000
0000
0108
cafe
2402
0000
0000
0105
cafe
2802
0000
0000
010c
cafe
2c02
0000
0000
0103
cafe
3002
0000
0000
010c
cafe
3402
0000
0000
010b
cafe
3802
0000
0000
0115
cafe
3c02
0000
0000
010f
cafe
2002
0000
0000
0116
cafe
2402
0000
0000
010f
cafe
2802
0000
0000
010f
cafe
2c02
0000
0000
0115
cafe
3002
0000
0000
0114
cafe
3402
0000
0000
0112
cafe
3802
0000
0000
0108
cafe
3c02
0000
0000
0116
cafe
2002
0000
0000
0108
cafe
2402
0000
0000
0107
cafe
2802
0000
0000
010e
cafe
2c02
0000
0000
010d
cafe
3002
0000
0000
0114
cafe
3402
0000
0000
011b
cafe
3802
0000
0000
010a
cafe
3c02
0000
0000
0108
cafe
2002
0000
0000
010d
cafe
2402
0000
0000
00ff
cafe
2802
0000
0000
00fc
cafe
2c02
0000
0000
00f7
cafe
3002
0000
0000
00fe
cafe
3402
0000
0000
0100
cafe
3802
0000
0000
0104
cafe
3c02
0000
0000
0103
cafe
2002
0000
0000
0107
cafe
2402
0000
0000
0102
cafe
2802
0000
0000
0107
cafe
2c02
0000
0000
010e
cafe
3002
0000
0000
010e
cafe
3402
0000
0000
00fd
cafe
3802
0000
0000
0108
cafe
3c02
0000
0000
0105
cafe
2002
0000
0000
0111
cafe
2402
0000
0000
0115
cafe
2802
0000
0000
0115
cafe
2c02
0000
0000
010d
cafe
3002
0000
0000
0116
cafe
3402
0000
0000
0108
cafe
3802
0000
0000
00fe
cafe
3c02
0000
0000
0118
cafe
2002
0000
0000
0112
-
cafe
2402
0000
0000
011e
cafe
2802
0000
0000
0123
cafe
2c02
0000
0000
0112
cafe
3002
0000
0000
0113
cafe
3402
0000
0000
010e
cafe
3802
0000
0000
0115
cafe
3c02
0000
0000
0114
cafe
2002
0000
0000
0114
cafe
2402
0000
0000
0110
cafe
2802
0000
0000
0114
cafe
2c02
0000
0000
0119
cafe
3002
0000
0000
0116
cafe
3402
0000
0000
010a
cafe
3802
0000
0000
0119
cafe
3c02
0000
0000
011e
cafe
2002
0000
0000
0116
cafe
2402
0000
0000
0111
cafe
2802
0000
0000
010e
cafe
2c02
0000
0000
00fe
cafe
3002
0000
0000
0108
cafe
3402
0000
0000
010c
cafe
3802
0000
0000
010a
cafe
3c02
0000
0000
0111
cafe
2002
0000
0000
0112
cafe
2402
0000
0000
010a
cafe
2802
0000
0000
00fb
cafe
2c02
0000
0000
0100
cafe
3002
0000
0000
0103
cafe
3402
0000
0000
00f8
cafe
3802
0000
0000
010c
cafe
3c02
0000
0000
0109
cafe
2002
0000
0000
0104
cafe
2402
0000
0000
0107
cafe
2802
0000
0000
00fe
cafe
2c02
0000
0000
00ff
cafe
3002
0000
0000
010a
cafe
3402
0000
0000
0108
cafe
3802
0000
0000
0105
cafe
3c02
0000
0000
0106
cafe
2002
0000
0000
0108
cafe
2402
0000
0000
0107
cafe
2802
0000
0000
0118
cafe
2c02
0000
0000
010f
cafe
3002
0000
0000
010f
cafe
3402
0000
0000
0100
cafe
3802
0000
0000
0108
cafe
3c02
0000
0000
0114
cafe
2002
0000
0000
0110
cafe
2402
0000
0000
0107
cafe
2802
0000
0000
010a
cafe
2c02
0000
0000
0113
cafe
-
3002
0000
0000
0110
cafe
3402
0000
0000
010d
cafe
3802
0000
0000
0115
cafe
3c02
0000
0000
0116
cafe
2002
0000
0000
0115
cafe
2402
0000
0000
0109
cafe
2802
0000
0000
0113
cafe
2c02
0000
0000
0110
cafe
3002
0000
0000
010e
cafe
3402
0000
0000
0107
cafe
3802
0000
0000
0108
cafe
3c02
0000
0000
0112
cafe
2002
0000
0000
010f
cafe
2402
0000
0000
010c
cafe
2802
0000
0000
010f
cafe
2c02
0000
0000
011a
cafe
3002
0000
0000
011b
cafe
3402
0000
0000
011d
cafe
3802
0000
0000
0116
cafe
3c02
0000
0000
0120
cafe
2002
0000
0000
0119
cafe
2402
0000
0000
0114
cafe
2802
0000
0000
0118
cafe
2c02
0000
0000
0109
cafe
3002
0000
0000
0111
cafe
3402
0000
0000
010a
cafe
3802
0000
0000
010a
cafe
3c02
0000
0000
010f
cafe
2002
0000
0000
010c
cafe
2402
0000
0000
010d
cafe
2802
0000
0000
0114
cafe
2c02
0000
0000
010e
cafe
3002
0000
0000
0121
cafe
3402
0000
0000
010e
cafe
3802
0000
0000
0117
cafe
3c02
0000
0000
0111
cafe
2002
0000
0000
0116
cafe
2402
0000
0000
011d
cafe
2802
0000
0000
011b
cafe
2c02
0000
0000
0123
cafe
3002
0000
0000
0118
cafe
3402
0000
0000
0112
cafe
3802
0000
0000
011c
cafe
3c02
0000
0000
0119
cafe
2002
0000
0000
0112
cafe
2402
0000
0000
0114
cafe
2802
0000
0000
0111
cafe
2c02
0000
0000
0112
cafe
3002
0000
0000
0113
cafe
3402
0000
0000
0112
cafe
3802
0000
0000
0107
cafe
3c02
-
0000
0000
0101
cafe
2002
0000
0000
010b
cafe
2402
0000
0000
0101
cafe
2802
0000
0000
00fc
cafe
2c02
0000
0000
0102
cafe
3002
0000
0000
0108
cafe
3402
0000
0000
0108
cafe
3802
0000
0000
00f9
cafe
3c02
0000
0000
0107
cafe
2002
0000
0000
0111
cafe
2402
0000
0000
010a
cafe
2802
0000
0000
0118
cafe
2c02
0000
0000
0116
cafe
3002
0000
0000
0115
cafe
3402
0000
0000
011b
cafe
3802
0000
0000
0110
cafe
3c02
0000
0000
0111
cafe
2002
0000
0000
0117
cafe
2402
0000
0000
0109
cafe
2802
0000
0000
010a
cafe
2c02
0000
0000
00fc
cafe
3002
0000
0000
010a
cafe
3402
0000
0000
010e
cafe
3802
0000
0000
010b
cafe
3c02
0000
0000
0109
cafe
2002
0000
0000
0104
cafe
2402
0000
0000
00fd
cafe
2802
0000
0000
0107
cafe
2c02
0000
0000
0100
cafe
3002
0000
0000
0104
cafe
3402
0000
0000
0103
cafe
3802
0000
0000
00fb
cafe
3c02
0000
0000
0101
cafe
2002
0000
0000
0106
cafe
2402
0000
0000
010d
cafe
2802
0000
0000
00fd
cafe
2c02
0000
0000
00f9
cafe
3002
0000
0000
0107
cafe
3402
0000
0000
010e
cafe
3802
0000
0000
0111
cafe
3c02
0000
0000
0105
cafe
2002
0000
0000
00ff
cafe
2402
0000
0000
00f0
cafe
2802
0000
0000
0103
cafe
2c02
0000
0000
00fe
cafe
3002
0000
0000
00fc
cafe
3402
0000
0000
0103
cafe
3802
0000
0000
010f
cafe
3c02
0000
0000
010b
cafe
2002
0000
0000
010f
cafe
2402
0000
0000
0102
cafe
2802
0000
-
0000
0100
cafe
2c02
0000
0000
010c
cafe
3002
0000
0000
010d
cafe
3402
0000
0000
0106
cafe
3802
0000
0000
010b
cafe
3c02
0000
0000
0103
cafe
2002
0000
0000
010d
cafe
2402
0000
0000
010e
cafe
2802
0000
0000
0110
cafe
2c02
0000
0000
010e
cafe
3002
0000
0000
0118
cafe
3402
0000
0000
0116
cafe
3802
0000
0000
0112
cafe
3c02
0000
0000
010e
cafe
2002
0000
0000
0108
cafe
2402
0000
0000
0105
cafe
2802
0000
0000
0104
cafe
2c02
0000
0000
00fc
cafe
3002
0000
0000
0108
cafe
3402
0000
0000
010a
cafe
3802
0000
0000
0112
cafe
3c02
0000
0000
0108
cafe
2002
0000
0000
010f
cafe
2402
0000
0000
011a
cafe
2802
0000
0000
0114
cafe
2c02
0000
0000
0127
cafe
3002
0000
0000
011f
cafe
3402
0000
0000
011e
cafe
3802
0000
0000
0112
cafe
3c02
0000
0000
010f
cafe
2002
0000
0000
0110
cafe
2402
0000
0000
0119
cafe
2802
0000
0000
0109
cafe
2c02
0000
0000
0114
cafe
3002
0000
0000
0118
cafe
3402
0000
0000
0116
cafe
3802
0000
0000
0118
cafe
3c02
0000
0000
0114
cafe
2002
0000
0000
0111
cafe
2402
0000
0000
010d
cafe
2802
0000
0000
0112
cafe
2c02
0000
0000
0113
cafe
3002
0000
0000
0115
cafe
3402
0000
0000
0118
cafe
3802
0000
0000
0115
cafe
3c02
0000
0000
0114
cafe
2002
0000
0000
0119
cafe
2402
0000
0000
0114
cafe
2802
0000
0000
010d
cafe
2c02
0000
0000
010e
cafe
3002
0000
0000
010e
cafe
3402
0000
0000
-
0114
cafe
3802
0000
0000
00ff
cafe
3c02
0000
0000
010c
cafe
2002
0000
0000
0106
cafe
2402
0000
0000
0105
cafe
2802
0000
0000
0105
cafe
2c02
0000
0000
010a
cafe
3002
0000
0000
0107
cafe
3402
0000
0000
0114
cafe
3802
0000
0000
011a
cafe
3c02
0000
0000
010c
cafe
2002
0000
0000
011b
cafe
2402
0000
0000
011e
cafe
2802
0000
0000
010c
cafe
2c02
0000
0000
0112
cafe
3002
0000
0000
0109
cafe
3402
0000
0000
0110
cafe
3802
0000
0000
0101
cafe
3c02
0000
0000
010b
cafe
2002
0000
0000
0119
cafe
2402
0000
0000
010e
cafe
2802
0000
0000
0109
cafe
2c02
0000
0000
0110
cafe
3002
0000
0000
0112
cafe
3402
0000
0000
010a
cafe
3802
0000
0000
010a
cafe
3c02
0000
0000
010c
cafe
2002
0000
0000
00ff
cafe
2402
0000
0000
00fe
cafe
2802
0000
0000
0104
cafe
2c02
0000
0000
0111
cafe
3002
0000
0000
0112
cafe
3402
0000
0000
010a
cafe
3802
0000
0000
00fe
cafe
3c02
0000
0000
0109
cafe
2002
0000
0000
0107
cafe
2402
0000
0000
0102
cafe
2802
0000
0000
0104
cafe
2c02
0000
0000
010e
cafe
3002
0000
0000
0109
cafe
3402
0000
0000
0108
cafe
3802
0000
0000
0103
cafe
3c02
0000
0000
0105
cafe
2002
0000
0000
010d
cafe
2402
0000
0000
0113
cafe
2802
0000
0000
010a
cafe
2c02
0000
0000
010e
cafe
3002
0000
0000
010c
cafe
3402
0000
0000
011c
cafe
3802
0000
0000
0115
cafe
3c02
0000
0000
0110
cafe
2002
0000
0000
0114
-
cafe
2402
0000
0000
0110
cafe
2802
0000
0000
0111
cafe
2c02
0000
0000
0114
cafe
3002
0000
0000
0112
cafe
3402
0000
0000
0117
cafe
3802
0000
0000
0108
cafe
3c02
0000
0000
010b
cafe
2002
0000
0000
0106
cafe
2402
0000
0000
0105
cafe
2802
0000
0000
010c
cafe
2c02
0000
0000
010d
cafe
3002
0000
0000
011c
cafe
3402
0000
0000
0112
cafe
3802
0000
0000
0114
cafe
3c02
0000
0000
0104
cafe
2002
0000
0000
0110
cafe
2402
0000
0000
0107
cafe
2802
0000
0000
0108
cafe
2c02
0000
0000
010b
cafe
3002
0000
0000
0112
cafe
3402
0000
0000
010a
cafe
3802
0000
0000
0115
cafe
3c02
0000
0000
0113
cafe
2002
0000
0000
0119
cafe
2402
0000
0000
0112
cafe
2802
0000
0000
0103
cafe
2c02
0000
0000
011c
cafe
3002
0000
0000
0115
cafe
3402
0000
0000
0119
cafe
3802
0000
0000
0105
cafe
3c02
0000
0000
0102
cafe
2002
0000
0000
0100
cafe
2402
0000
0000
0115
cafe
2802
0000
0000
010a
cafe
2c02
0000
0000
011a
cafe
3002
0000
0000
010a
cafe
3402
0000
0000
0102
cafe
3802
0000
0000
0109
cafe
3c02
0000
0000
0110
cafe
2002
0000
0000
010e
cafe
2402
0000
0000
0114
cafe
2802
0000
0000
0119
cafe
2c02
0000
0000
0115
cafe
3002
0000
0000
0114
cafe
3402
0000
0000
0111
cafe
3802
0000
0000
0108
cafe
3c02
0000
0000
0113
cafe
2002
0000
0000
0103
cafe
2402
0000
0000
0110
cafe
2802
0000
0000
0109
cafe
2c02
0000
0000
010a
cafe
-
3002
0000
0000
0114
cafe
3402
0000
0000
0118
cafe
3802
0000
0000
010c
cafe
3c02
0000
0000
0118
cafe
2002
0000
0000
010f
cafe
2402
0000
0000
0113
cafe
2802
0000
0000
010a
cafe
2c02
0000
0000
010a
cafe
3002
0000
0000
0105
cafe
3402
0000
0000
0106
cafe
3802
0000
0000
00fb
cafe
3c02
0000
0000
0104
cafe
2002
0000
0000
010e
cafe
2402
0000
0000
0106
cafe
2802
0000
0000
00fe
cafe
2c02
0000
0000
0105
cafe
3002
0000
0000
00fe
cafe
3402
0000
0000
0105
cafe
3802
0000
0000
0115
cafe
3c02
0000
0000
0113
cafe
2002
0000
0000
0114
cafe
2402
0000
0000
0114
cafe
2802
0000
0000
010e
cafe
2c02
0000
0000
0116
cafe
3002
0000
0000
010c
cafe
3402
0000
0000
010d
cafe
3802
0000
0000
0100
cafe
3c02
0000
0000
00fd
cafe
2002
0000
0000
0102
cafe
2402
0000
0000
0109
cafe
2802
0000
0000
0106
cafe
2c02
0000
0000
0108
cafe
3002
0000
0000
0112
cafe
3402
0000
0000
0109
cafe
3802
0000
0000
0107
cafe
3c02
0000
0000
0102
cafe
2002
0000
0000
010a
cafe
2402
0000
0000
0105
cafe
2802
0000
0000
0109
cafe
2c02
0000
0000
010b
cafe
3002
0000
0000
0109
cafe
3402
0000
0000
0107
cafe
3802
0000
0000
0106
cafe
3c02
0000
0000
010e
cafe
2002
0000
0000
010f
cafe
2402
0000
0000
00fd
cafe
2802
0000
0000
010d
cafe
2c02
0000
0000
010f
cafe
3002
0000
0000
0103
cafe
3402
0000
0000
0114
cafe
3802
0000
0000
010c
cafe
3c02
-
0000
0000
0110
cafe
2002
0000
0000
0103
cafe
2402
0000
0000
0105
cafe
2802
0000
0000
00fe
cafe
2c02
0000
0000
0115
cafe
3002
0000
0000
010d
cafe
3402
0000
0000
010c
cafe
3802
0000
0000
0109
cafe
3c02
0000
0000
0116
cafe
2002
0000
0000
010b
cafe
2402
0000
0000
0114
cafe
2802
0000
0000
0104
cafe
2c02
0000
0000
0114
cafe
3002
0000
0000
010c
cafe
3402
0000
0000
0114
cafe
3802
0000
0000
0122
cafe
3c02
0000
0000
011a
cafe
2002
0000
0000
0117
cafe
2402
0000
0000
010c
cafe
2802
0000
0000
0111
cafe
2c02
0000
0000
0106
cafe
3002
0000
0000
0116
cafe
3402
0000
0000
0105
cafe
3802
0000
0000
00fe
cafe
3c02
0000
0000
0107
cafe
2002
0000
0000
010d
cafe
2402
0000
0000
0118
cafe
2802
0000
0000
0104
cafe
2c02
0000
0000
0108
cafe
3002
0000
0000
0106
cafe
3402
0000
0000
010c
cafe
3802
0000
0000
0109
cafe
3c02
0000
0000
0112
cafe
2002
0000
0000
00fd
cafe
2402
0000
0000
00fe
cafe
2802
0000
0000
010e
cafe
2c02
0000
0000
0105
cafe
3002
0000
0000
0108
cafe
3402
0000
0000
0103
cafe
3802
0000
0000
0102
cafe
3c02
0000
0000
010a
cafe
2002
0000
0000
0107
cafe
2402
0000
0000
0107
cafe
2802
0000
0000
00f3
cafe
2c02
0000
0000
00f4
cafe
3002
0000
0000
0113
cafe
3402
0000
0000
0104
cafe
3802
0000
0000
0102
cafe
3c02
0000
0000
0105
cafe
2002
0000
0000
00f9
cafe
2402
0000
0000
0108
cafe
2802
0000
-
0000
010d
cafe
2c02
0000
0000
010a
cafe
3002
0000
0000
0100
cafe
3402
0000
0000
0105
cafe
3802
0000
0000
00fc
cafe
3c02
0000
0000
0100
cafe
2002
0000
0000
0101
cafe
2402
0000
0000
00f4
cafe
2802
0000
0000
0101
cafe
2c02
0000
0000
010a
cafe
3002
0000
0000
0106
cafe
3402
0000
0000
00fe
cafe
3802
0000
0000
0101
cafe
3c02
0000
0000
0101
cafe
2002
0000
0000
0109
cafe
2402
0000
0000
0114
cafe
2802
0000
0000
0112
cafe
2c02
0000
0000
0106
cafe
3002
0000
0000
0111
cafe
3402
0000
0000
0113
cafe
3802
0000
0000
0117
cafe
3c02
0000
0000
0111
cafe
2002
0000
0000
0115
cafe
2402
0000
0000
010b
cafe
2802
0000
0000
0103
cafe
2c02
0000
0000
0102
cafe
3002
0000
0000
0101
cafe
3402
0000
0000
00ff
cafe
3802
0000
0000
010d
cafe
3c02
0000
0000
0102
cafe
2002
0000
0000
0116
cafe
2402
0000
0000
010c
cafe
2802
0000
0000
0113
cafe
2c02
0000
0000
0110
cafe
3002
0000
0000
0100
cafe
3402
0000
0000
0115
cafe
3802
0000
0000
011a
cafe
3c02
0000
0000
0110
cafe
2002
0000
0000
0113
cafe
2402
0000
0000
010b
cafe
2802
0000
0000
0114
cafe
2c02
0000
0000
0115
cafe
3002
0000
0000
0110
cafe
3402
0000
0000
0119
cafe
3802
0000
0000
0111
cafe
3c02
0000
0000
010b
cafe
2002
0000
0000
0119
cafe
2402
0000
0000
0113
cafe
2802
0000
0000
0114
cafe
2c02
0000
0000
0111
cafe
3002
0000
0000
0103
cafe
3402
0000
0000
-
0109
cafe
3802
0000
0000
010a
cafe
3c02
0000
0000
010e
cafe
2002
0000
0000
010b
cafe
2402
0000
0000
0108
cafe
2802
0000
0000
00fb
cafe
2c02
0000
0000
010a
cafe
3002
0000
0000
010f
cafe
3402
0000
0000
0109
cafe
3802
0000
0000
0112
cafe
3c02
0000
0000
0110
cafe
2002
0000
0000
0116
cafe
2402
0000
0000
0115
cafe
2802
0000
0000
0116
cafe
2c02
0000
0000
0112
cafe
3002
0000
0000
010c
cafe
3402
0000
0000
010e
cafe
3802
0000
0000
010e
cafe
3c02
0000
0000
00fe
cafe
2002
0000
0000
0109
cafe
2402
0000
0000
010a
cafe
2802
0000
0000
0107
cafe
2c02
0000
0000
0115
cafe
3002
0000
0000
011b
cafe
3402
0000
0000
011d
cafe
3802
0000
0000
0118
cafe
3c02
0000
0000
0115
cafe
2002
0000
0000
0122
cafe
2402
0000
0000
0120
cafe
2802
0000
0000
0120
cafe
2c02
0000
0000
010a
cafe
3002
0000
0000
0114
cafe
3402
0000
0000
0115
cafe
3802
0000
0000
0110
cafe
3c02
0000
0000
010f
cafe
2002
0000
0000
0114
cafe
2402
0000
0000
0113
cafe
2802
0000
0000
0114
cafe
2c02
0000
0000
011c
cafe
3002
0000
0000
011f
cafe
3402
0000
0000
0121
cafe
3802
0000
0000
011f
cafe
3c02
0000
0000
0116
cafe
2002
0000
0000
010f
cafe
2402
0000
0000
0105
cafe
2802
0000
0000
0110
cafe
2c02
0000
0000
0104
cafe
3002
0000
0000
010d
cafe
3402
0000
0000
010a
cafe
3802
0000
0000
010c
cafe
3c02
0000
0000
010f
cafe
2002
0000
0000
0115
-
cafe
2402
0000
0000
010f
cafe
2802
0000
0000
0113
cafe
2c02
0000
0000
0116
cafe
3002
0000
0000
011c
cafe
3402
0000
0000
0116
cafe
3802
0000
0000
0114
cafe
3c02
0000
0000
0122
cafe
2002
0000
0000
0110
cafe
2402
0000
0000
0108
cafe
2802
0000
0000
0107
cafe
2c02
0000
0000
0107
cafe
3002
0000
0000
010b
cafe
3402
0000
0000
010e
cafe
3802
0000
0000
0106
cafe
3c02
0000
0000
010d
cafe
2002
0000
0000
0116
cafe
2402
0000
0000
0106
cafe
2802
0000
0000
00fe
cafe
2c02
0000
0000
00ff
cafe
3002
0000
0000
0104
cafe
3402
0000
0000
0101
cafe
3802
0000
0000
0111
cafe
3c02
0000
0000
00fe
cafe
2002
0000
0000
010a
cafe
2402
0000
0000
0103
cafe
2802
0000
0000
00ff
cafe
2c02
0000
0000
010d
cafe
3002
0000
0000
010d
cafe
3402
0000
0000
0118
cafe
3802
0000
0000
0114
cafe
3c02
0000
0000
010a
cafe
2002
0000
0000
010a
cafe
2402
0000
0000
0106
cafe
2802
0000
0000
0111
cafe
2c02
0000
0000
0101
cafe
3002
0000
0000
0103
cafe
3402
0000
0000
00f4
cafe
3802
0000
0000
00ff
cafe
3c02
0000
0000
0108
cafe
2002
0000
0000
00fa
cafe
2402
0000
0000
010c
cafe
2802
0000
0000
0104
cafe
2c02
0000
0000
0110
cafe
3002
0000
0000
0113
cafe
3402
0000
0000
0103
cafe
3802
0000
0000
0102
cafe
3c02
0000
0000
0101
cafe
2002
0000
0000
0103
cafe
2402
0000
0000
00ff
cafe
2802
0000
0000
010a
cafe
2c02
0000
0000
0103
cafe
-
3002
0000
0000
0112
cafe
3402
0000
0000
0116
cafe
3802
0000
0000
011e
cafe
3c02
0000
0000
0101
cafe
2002
0000
0000
0109
cafe
2402
0000
0000
011b
cafe
2802
0000
0000
011c
cafe
2c02
0000
0000
0109
cafe
3002
0000
0000
010b
cafe
3402
0000
0000
0108
cafe
3802
0000
0000
0111
cafe
3c02
0000
0000
010e
cafe
2002
0000
0000
0100
cafe
2402
0000
0000
0106
cafe
2802
0000
0000
0104
cafe
2c02
0000
0000
010e
cafe
3002
0000
0000
0104
cafe
3402
0000
0000
010e
cafe
3802
0000
0000
0109
cafe
3c02
0000
0000
0106
cafe
2002
0000
0000
0106
cafe
2402
0000
0000
0109
cafe
2802
0000
0000
011a
cafe
2c02
0000
0000
0108
cafe
3002
0000
0000
00fc
cafe
3402
0000
0000
0101
cafe
3802
0000
0000
010e
cafe
3c02
0000
0000
0115
cafe
2002
0000
0000
0115
cafe
2402
0000
0000
0116
cafe
2802
0000
0000
0110
cafe
2c02
0000
0000
0107
cafe
3002
0000
0000
010b
cafe
3402
0000
0000
0111
cafe
3802
0000
0000
0119
cafe
3c02
0000
0000
0115
cafe
2002
0000
0000
0117
cafe
2402
0000
0000
0112
cafe
2802
0000
0000
0105
cafe
2c02
0000
0000
010d
cafe
3002
0000
0000
0109
cafe
3402
0000
0000
010d
cafe
3802
0000
0000
0102
cafe
3c02
0000
0000
00fe
cafe
2002
0000
0000
00fc
cafe
2402
0000
0000
0103
cafe
2802
0000
0000
010a
cafe
2c02
0000
0000
0104
cafe
3002
0000
0000
010b
cafe
3402
0000
0000
010f
cafe
3802
0000
0000
0105
cafe
3c02
-
0000
0000
010e
cafe
2002
0000
0000
0103
cafe
2402
0000
0000
010d
cafe
2802
0000
0000
010f
cafe
2c02
0000
0000
0107
cafe
3002
0000
0000
0108
cafe
3402
0000
0000
010e
cafe
3802
0000
0000
010f
cafe
3c02
0000
0000
011a
cafe
2002
0000
0000
010a
cafe
2402
0000
0000
0109
cafe
2802
0000
0000
010e
cafe
2c02
0000
0000
0101
cafe
3002
0000
0000
0108
cafe
3402
0000
0000
010c
cafe
3802
0000
0000
0105
cafe
3c02
0000
0000
0104
cafe
2002
0000
0000
010a
cafe
2402
0000
0000
010c
cafe
2802
0000
0000
010c
cafe
2c02
0000
0000
0113
cafe
3002
0000
0000
0114
cafe
3402
0000
0000
0112
cafe
3802
0000
0000
0119
cafe
3c02
0000
0000
0112
cafe
2002
0000
0000
0115
cafe
2402
0000
0000
0110
cafe
2802
0000
0000
0112
cafe
2c02
0000
0000
010e
cafe
3002
0000
0000
010d
cafe
3402
0000
0000
0112
cafe
3802
0000
0000
0115
cafe
3c02
0000
0000
010c
cafe
2002
0000
0000
0105
cafe
2402
0000
0000
010d
cafe
2802
0000
0000
0104
cafe
2c02
0000
0000
0100
cafe
3002
0000
0000
0107
cafe
3402
0000
0000
010e
cafe
3802
0000
0000
0109
cafe
3c02
0000
0000
0114
cafe
2002
0000
0000
0118
cafe
2402
0000
0000
010d
cafe
2802
0000
0000
0110
cafe
2c02
0000
0000
0107
cafe
3002
0000
0000
0105
cafe
3402
0000
0000
0108
cafe
3802
0000
0000
0104
cafe
3c02
0000
0000
010b
cafe
2002
0000
0000
0100
cafe
2402
0000
0000
0109
cafe
2802
0000
-
0000
0103
cafe
2c02
0000
0000
0104
cafe
3002
0000
0000
0110
cafe
3402
0000
0000
0110
cafe
3802
0000
0000
0117
cafe
3c02
0000
0000
0107
cafe
2002
0000
0000
0105
cafe
2402
0000
0000
0107
cafe
2802
0000
0000
0107
cafe
2c02
0000
0000
010c
cafe
3002
0000
0000
0104
cafe
3402
0000
0000
010a
cafe
3802
0000
0000
0115
cafe
3c02
0000
0000
0102
cafe
2002
0000
0000
0105
cafe
2402
0000
0000
0106
cafe
2802
0000
0000
0103
cafe
2c02
0000
0000
0110
cafe
3002
0000
0000
0100
cafe
3402
0000
0000
0100
cafe
3802
0000
0000
0102
cafe
3c02
0000
0000
0106
cafe
2002
0000
0000
0116
cafe
2402
0000
0000
0104
cafe
2802
0000
0000
010d
cafe
2c02
0000
0000
0110
cafe
3002
0000
0000
010a
cafe
3402
0000
0000
0100
cafe
3802
0000
0000
0101
cafe
3c02
0000
0000
00fb
cafe
2002
0000
0000
00f8
cafe
2402
0000
0000
00fc
cafe
2802
0000
0000
0105
cafe
2c02
0000
0000
0105
cafe
3002
0000
0000
010b
cafe
3402
0000
0000
0108
cafe
3802
0000
0000
0104
cafe
3c02
0000
0000
010e
cafe
2002
0000
0000
0112
cafe
2402
0000
0000
0112
cafe
2802
0000
0000
010a
cafe
2c02
0000
0000
010d
cafe
3002
0000
0000
010a
cafe
3402
0000
0000
010d
cafe
3802
0000
0000
010e
cafe
3c02
0000
0000
010a
cafe
2002
0000
0000
010e
cafe
2402
0000
0000
010d
cafe
2802
0000
0000
0110
cafe
2c02
0000
0000
0106
cafe
3002
0000
0000
0105
cafe
3402
0000
0000
-
010f
cafe
3802
0000
0000
010a
cafe
3c02
0000
0000
0106
cafe
2002
0000
0000
010d
cafe
2402
0000
0000
010a
cafe
2802
0000
0000
0103
cafe
2c02
0000
0000
0108
cafe
3002
0000
0000
0104
cafe
3402
0000
0000
0109
cafe
3802
0000
0000
010e
cafe
3c02
0000
0000
0111
cafe
2002
0000
0000
010e
cafe
2402
0000
0000
0105
cafe
2802
0000
0000
0112
cafe
2c02
0000
0000
0100
cafe
3002
0000
0000
010e
cafe
3402
0000
0000
0115
cafe
3802
0000
0000
0112
cafe
3c02
0000
0000
0118
cafe
2002
0000
0000
011f
cafe
2402
0000
0000
010d
cafe
2802
0000
0000
011a
cafe
2c02
0000
0000
010b
cafe
3002
0000
0000
0108
cafe
3402
0000
0000
011d
cafe
3802
0000
0000
0118
cafe
3c02
0000
0000
010a
cafe
2002
0000
0000
0112
cafe
2402
0000
0000
010c
cafe
2802
0000
0000
0103
cafe
2c02
0000
0000
010e
cafe
3002
0000
0000
0114
cafe
3402
0000
0000
010b
cafe
3802
0000
0000
0110
cafe
3c02
0000
0000
0114
cafe
2002
0000
0000
0114
cafe
2402
0000
0000
0117
cafe
2802
0000
0000
0119
cafe
2c02
0000
0000
0117
cafe
3002
0000
0000
0112
cafe
3402
0000
0000
0109
cafe
3802
0000
0000
0113
cafe
3c02
0000
0000
0107
cafe
2002
0000
0000
010d
cafe
2402
0000
0000
010c
cafe
2802
0000
0000
0105
cafe
2c02
0000
0000
0116
cafe
3002
0000
0000
010b
cafe
3402
0000
0000
0107
cafe
3802
0000
0000
0106
cafe
3c02
0000
0000
0106
cafe
2002
0000
0000
0100
-
