380b
5555
f054
016d
cafe
3c1b
5555
f054
01b9
cafe
2003
5555
f054
01dc
cafe
2413
5555
f058
00b2
cafe
280c
5555
f058
0172
cafe
2c1c
5555
f058
01c4
cafe
3004
5555
f058
01dd
cafe
3414
5555
f05c
0111
cafe
380d
5555
f05c
01cc
cafe
3c1d
5555
f05c
018f
cafe
2005
5555
f05c
01a8
cafe
2415
5555
f060
01aa
cafe
280e
5555
f060
0115
cafe
2c1e
5555
f060
0201
cafe
3006
5555
f060
026b
cafe
3416
5555
f064
00fc
cafe
380f
5555
f064
013e
cafe
3c1f
5555
f064
015f
cafe
2007
5555
f064
011e
cafe
2417
5555
f068
00b6
cafe
2808
5555
f068
014c
cafe
2c18
5555
f068
0129
cafe
3000
5555
f068
012a
cafe
3410
5555
f06c
01a3
cafe
3809
5555
f06c
01c4
cafe
3c19
5555
f06c
019f
cafe
2001
5555
f06c
01a8
cafe
2411
5555
f070
01dc
cafe
280a
5555
f070
0172
cafe
2c1a
5555
f070
018b
cafe
3002
5555
f070
01dc
cafe
3412
5555
f074
013e
cafe
380b
5555
f074
0178
cafe
3c1b
5555
f074
01bb
cafe
2003
5555
f074
01d2
cafe
2413
5555
f078
00c2
cafe
280c
5555
f078
0151
cafe
2c1c
5555
f078
01b3
cafe
3004
5555
f078
01cf
cafe
3414
5555
f07c
00e8
cafe
380d
5555
f07c
01e3
cafe
3c1d
5555
f07c
01a4
cafe
2005
5555
f07c
01ac
cafe
2415
5555
f080
019e
cafe
280e
5555
f080
0127
cafe
2c1e
5555
f080
0211
cafe
3006
5555
f080
025e
cafe
3416
5555
f084
0110
cafe
380f
5555
f084
013a
cafe
3c1f
5555
f084
015a
cafe
2007
5555
f084
011f
cafe
2417
-
5555
f088
00ad
cafe
2808
5555
f088
0147
cafe
2c18
5555
f088
0136
cafe
3000
5555
f088
0137
cafe
3410
5555
f08c
01a8
cafe
3809
5555
f08c
01da
cafe
3c19
5555
f08c
01b6
cafe
2001
5555
f08c
01b4
cafe
2411
5555
f090
01f2
cafe
280a
5555
f090
0174
cafe
2c1a
5555
f090
0191
cafe
3002
5555
f090
01d4
cafe
3412
5555
f094
0168
cafe
380b
5555
f094
0168
cafe
3c1b
5555
f094
01ba
cafe
2003
5555
f094
01db
cafe
2413
5555
f098
00b6
cafe
280c
5555
f098
016a
cafe
2c1c
5555
f098
01ba
cafe
3004
5555
f098
01d2
cafe
3414
5555
f09c
00f3
cafe
380d
5555
f09c
01e8
cafe
3c1d
5555
f09c
01a5
cafe
2005
5555
f09c
01b8
cafe
2415
5555
f0a0
01ab
cafe
280e
5555
f0a0
0108
cafe
2c1e
5555
f0a0
0209
cafe
3006
5555
f0a0
026c
cafe
3416
5555
f0a4
0112
cafe
380f
5555
f0a4
0138
cafe
3c1f
5555
f0a4
0148
cafe
2007
5555
f0a4
0114
cafe
2417
5555
f0a8
00b4
cafe
2808
5555
f0a8
0151
cafe
2c18
5555
f0a8
013f
cafe
3000
5555
f0a8
0130
cafe
3410
5555
f0ac
01b3
cafe
3809
5555
f0ac
01db
cafe
3c19
5555
f0ac
01ba
cafe
2001
5555
f0ac
01ae
cafe
2411
5555
f0b0
01f4
cafe
280a
5555
f0b0
0160
cafe
2c1a
5555
f0b0
017c
cafe
3002
5555
f0b0
01d3
cafe
3412
5555
f0b4
0152
cafe
380b
5555
f0b4
016c
cafe
3c1b
5555
f0b4
01c0
cafe
2003
5555
f0b4
01d3
cafe
2413
5555
f0b8
00b4
cafe
280c
5555
f0b8
0159
cafe
2c1c
5555
f0b8
01af
cafe
3004
5555
-
f0b8
01d3
cafe
3414
5555
f0bc
00f0
cafe
380d
5555
f0bc
01eb
cafe
3c1d
5555
f0bc
01c0
cafe
2005
5555
f0bc
01a1
cafe
2415
5555
f0c0
01ab
cafe
280e
5555
f0c0
0120
cafe
2c1e
5555
f0c0
0209
cafe
3006
5555
f0c0
025a
cafe
3416
5555
f0c4
0101
cafe
380f
5555
f0c4
013a
cafe
3c1f
5555
f0c4
015d
cafe
2007
5555
f0c4
011e
cafe
2417
5555
f0c8
00b0
cafe
2808
5555
f0c8
0160
cafe
2c18
5555
f0c8
013e
cafe
3000
5555
f0c8
014f
cafe
3410
5555
f0cc
01b8
cafe
3809
5555
f0cc
01d3
cafe
3c19
5555
f0cc
01b9
cafe
2001
5555
f0cc
01bd
cafe
2411
5555
f0d0
01e3
cafe
280a
5555
f0d0
0160
cafe
2c1a
5555
f0d0
0188
cafe
3002
5555
f0d0
01dd
cafe
3412
5555
f0d4
0145
cafe
380b
5555
f0d4
0162
cafe
3c1b
5555
f0d4
01b5
cafe
2003
5555
f0d4
01c7
cafe
2413
5555
f0d8
00b5
cafe
280c
5555
f0d8
0156
cafe
2c1c
5555
f0d8
01b2
cafe
3004
5555
f0d8
01cf
cafe
3414
5555
f0dc
00fc
cafe
380d
5555
f0dc
01e9
cafe
3c1d
5555
f0dc
01af
cafe
2005
5555
f0dc
01a2
cafe
2415
5555
f0e0
01b6
cafe
280e
5555
f0e0
012e
cafe
2c1e
5555
f0e0
0210
cafe
3006
5555
f0e0
0273
cafe
3416
5555
f0e4
00f4
cafe
380f
5555
f0e4
0142
cafe
3c1f
5555
f0e4
014a
cafe
2007
5555
f0e4
0115
cafe
2417
5555
f0e8
00a7
cafe
2808
5555
f0e8
014b
cafe
2c18
5555
f0e8
0140
cafe
3000
5555
f0e8
0137
cafe
3410
5555
f0ec
01a3
cafe
3809
5555
f0ec
01d3
cafe
3c19
5555
f0ec
-
01b6
cafe
2001
5555
f0ec
01b3
cafe
2411
5555
f0f0
01d0
cafe
280a
5555
f0f0
015a
cafe
2c1a
5555
f0f0
0175
cafe
3002
5555
f0f0
01e1
cafe
3412
5555
f0f4
014d
cafe
380b
5555
f0f4
0167
cafe
3c1b
5555
f0f4
01c0
cafe
2003
5555
f0f4
01bd
cafe
2413
5555
f0f8
00b1
cafe
280c
5555
f0f8
0152
cafe
2c1c
5555
f0f8
01ae
cafe
3004
5555
f0f8
01d8
cafe
3414
5555
f0fc
00f8
cafe
380d
5555
f0fc
01ea
cafe
3c1d
5555
f0fc
01a4
cafe
2005
5555
f0fc
01b4
cafe
2415
5555
f100
01a6
cafe
280e
5555
f100
012a
cafe
2c1e
5555
f100
0224
cafe
3006
5555
f100
026d
cafe
3416
5555
f104
00f9
cafe
380f
5555
f104
0142
cafe
3c1f
5555
f104
014b
cafe
2007
5555
f104
00fc
cafe
2417
5555
f108
00c3
cafe
2808
5555
f108
0157
cafe
2c18
5555
f108
0140
cafe
3000
5555
f108
0138
cafe
3410
5555
f10c
01ba
cafe
3809
5555
f10c
01d2
cafe
3c19
5555
f10c
01b8
cafe
2001
5555
f10c
01b1
cafe
2411
5555
f110
01dc
cafe
280a
5555
f110
0173
cafe
2c1a
5555
f110
0189
cafe
3002
5555
f110
01d8
cafe
3412
5555
f114
0161
cafe
380b
5555
f114
016d
cafe
3c1b
5555
f114
01c1
cafe
2003
5555
f114
01ce
cafe
2413
5555
f118
00b9
cafe
280c
5555
f118
0173
cafe
2c1c
5555
f118
01ba
cafe
3004
5555
f118
01c6
cafe
3414
5555
f11c
0104
cafe
380d
5555
f11c
01cc
cafe
3c1d
5555
f11c
01a9
cafe
2005
5555
f11c
01ab
cafe
2415
5555
f120
0193
cafe
280e
5555
f120
012d
-
cafe
2c1e
5555
f120
021a
cafe
3006
5555
f120
0256
cafe
3416
5555
f124
0106
cafe
380f
5555
f124
013e
cafe
3c1f
5555
f124
014b
cafe
2007
5555
f124
0113
cafe
2417
5555
f128
00cf
cafe
2808
5555
f128
0144
cafe
2c18
5555
f128
0136
cafe
3000
5555
f128
0134
cafe
3410
5555
f12c
01c2
cafe
3809
5555
f12c
01dd
cafe
3c19
5555
f12c
01af
cafe
2001
5555
f12c
01b5
cafe
2411
5555
f130
01f4
cafe
280a
5555
f130
015f
cafe
2c1a
5555
f130
018a
cafe
3002
5555
f130
01d8
cafe
3412
5555
f134
0166
cafe
380b
5555
f134
0175
cafe
3c1b
5555
f134
01b5
cafe
2003
5555
f134
01d2
cafe
2413
5555
f138
00b6
cafe
280c
5555
f138
016b
cafe
2c1c
5555
f138
01bd
cafe
3004
5555
f138
01c6
cafe
3414
5555
f13c
00e3
cafe
380d
5555
f13c
01cb
cafe
3c1d
5555
f13c
01a7
cafe
2005
5555
f13c
01ac
cafe
2415
5555
f140
01a9
cafe
280e
5555
f140
011c
cafe
2c1e
5555
f140
0217
cafe
3006
5555
f140
0276
cafe
3416
5555
f144
010a
cafe
380f
5555
f144
0138
cafe
3c1f
5555
f144
014f
cafe
2007
5555
f144
0125
cafe
2417
5555
f148
00b9
cafe
2808
5555
f148
014b
cafe
2c18
5555
f148
0137
cafe
3000
5555
f148
013e
cafe
3410
5555
f14c
01b6
cafe
3809
5555
f14c
01e7
cafe
3c19
5555
f14c
01a8
cafe
2001
5555
f14c
01ae
cafe
2411
5555
f150
01e2
cafe
280a
5555
f150
016c
cafe
2c1a
5555
f150
0184
cafe
3002
5555
f150
01de
cafe
3412
5555
f154
0164
cafe
-
380b
5555
f154
0172
cafe
3c1b
5555
f154
01d7
cafe
2003
5555
f154
01bf
cafe
2413
5555
f158
00c5
cafe
280c
5555
f158
0165
cafe
2c1c
5555
f158
01cb
cafe
3004
5555
f158
01d2
cafe
3414
5555
f15c
00f0
cafe
380d
5555
f15c
01b7
cafe
3c1d
5555
f15c
01a2
cafe
2005
5555
f15c
01b8
cafe
2415
5555
f160
01a0
cafe
280e
5555
f160
0117
cafe
2c1e
5555
f160
021f
cafe
3006
5555
f160
025b
cafe
3416
5555
f164
00fd
cafe
380f
5555
f164
0146
cafe
3c1f
5555
f164
0125
cafe
2007
5555
f164
011e
cafe
2417
5555
f168
00b4
cafe
2808
5555
f168
0159
cafe
2c18
5555
f168
0140
cafe
3000
5555
f168
0137
cafe
3410
5555
f16c
01af
cafe
3809
5555
f16c
01e7
cafe
3c19
5555
f16c
01ab
cafe
2001
5555
f16c
01bd
cafe
2411
5555
f170
01e8
cafe
280a
5555
f170
0158
cafe
2c1a
5555
f170
017c
cafe
3002
5555
f170
01db
cafe
3412
5555
f174
015b
cafe
380b
5555
f174
0192
cafe
3c1b
5555
f174
01ce
cafe
2003
5555
f174
01c9
cafe
2413
5555
f178
00cc
cafe
280c
5555
f178
016e
cafe
2c1c
5555
f178
01c8
cafe
3004
5555
f178
01c8
cafe
3414
5555
f17c
00f2
cafe
380d
5555
f17c
01d8
cafe
3c1d
5555
f17c
01a0
cafe
2005
5555
f17c
01ba
cafe
2415
5555
f180
01a8
cafe
280e
5555
f180
0120
cafe
2c1e
5555
f180
0232
cafe
3006
5555
f180
0255
cafe
3416
5555
f184
010d
cafe
380f
5555
f184
0135
cafe
3c1f
5555
f184
0130
cafe
2007
5555
f184
011e
cafe
2417
-
5555
f188
00b4
cafe
2808
5555
f188
0156
cafe
2c18
5555
f188
0140
cafe
3000
5555
f188
013a
cafe
3410
5555
f18c
01ab
cafe
3809
5555
f18c
01d1
cafe
3c19
5555
f18c
01a9
cafe
2001
5555
f18c
01af
cafe
2411
5555
f190
01ec
cafe
280a
5555
f190
0162
cafe
2c1a
5555
f190
0197
cafe
3002
5555
f190
01d6
cafe
3412
5555
f194
0155
cafe
380b
5555
f194
017a
cafe
3c1b
5555
f194
01bc
cafe
2003
5555
f194
01c4
cafe
2413
5555
f198
00b7
cafe
280c
5555
f198
0166
cafe
2c1c
5555
f198
01ae
cafe
3004
5555
f198
01dc
cafe
3414
5555
f19c
00e4
cafe
380d
5555
f19c
01d6
cafe
3c1d
5555
f19c
0194
cafe
2005
5555
f19c
01ba
cafe
2415
5555
f1a0
01a9
cafe
280e
5555
f1a0
011f
cafe
2c1e
5555
f1a0
0214
cafe
3006
5555
f1a0
026f
cafe
3416
5555
f1a4
0101
cafe
380f
5555
f1a4
0142
cafe
3c1f
5555
f1a4
013d
cafe
2007
5555
f1a4
0121
cafe
2417
5555
f1a8
00aa
cafe
2808
5555
f1a8
0152
cafe
2c18
5555
f1a8
013d
cafe
3000
5555
f1a8
0147
cafe
3410
5555
f1ac
01ac
cafe
3809
5555
f1ac
01da
cafe
3c19
5555
f1ac
01a3
cafe
2001
5555
f1ac
01aa
cafe
2411
5555
f1b0
01fa
cafe
280a
5555
f1b0
0161
cafe
2c1a
5555
f1b0
0193
cafe
3002
5555
f1b0
01e0
cafe
3412
5555
f1b4
015d
cafe
380b
5555
f1b4
0180
cafe
3c1b
5555
f1b4
01c2
cafe
2003
5555
f1b4
01cb
cafe
2413
5555
f1b8
00cc
cafe
280c
5555
f1b8
0164
cafe
2c1c
5555
f1b8
01bf
cafe
3004
5555
-
f1b8
01bf
cafe
3414
5555
f1bc
00fa
cafe
380d
5555
f1bc
01cc
cafe
3c1d
5555
f1bc
019a
cafe
2005
5555
f1bc
01b5
cafe
2415
5555
f1c0
0196
cafe
280e
5555
f1c0
011a
cafe
2c1e
5555
f1c0
0221
cafe
3006
5555
f1c0
026c
cafe
3416
5555
f1c4
0103
cafe
380f
5555
f1c4
0133
cafe
3c1f
5555
f1c4
013a
cafe
2007
5555
f1c4
0110
cafe
2417
5555
f1c8
00b1
cafe
2808
5555
f1c8
0146
cafe
2c18
5555
f1c8
0144
cafe
3000
5555
f1c8
013c
cafe
3410
5555
f1cc
01af
cafe
3809
5555
f1cc
01e5
cafe
3c19
5555
f1cc
01bc
cafe
2001
5555
f1cc
01bb
cafe
2411
5555
f1d0
01f3
cafe
280a
5555
f1d0
0172
cafe
2c1a
5555
f1d0
01b3
cafe
3002
5555
f1d0
01e7
cafe
3412
5555
f1d4
0166
cafe
380b
5555
f1d4
0195
cafe
3c1b
5555
f1d4
01b9
cafe
2003
5555
f1d4
01bf
cafe
2413
5555
f1d8
00bb
cafe
280c
5555
f1d8
0169
cafe
2c1c
5555
f1d8
01a2
cafe
3004
5555
f1d8
01c4
cafe
3414
5555
f1dc
0100
cafe
380d
5555
f1dc
01c5
cafe
3c1d
5555
f1dc
01a5
cafe
2005
5555
f1dc
01ba
cafe
2415
5555
f1e0
0192
cafe
280e
5555
f1e0
0120
cafe
2c1e
5555
f1e0
022e
cafe
3006
5555
f1e0
0271
cafe
3416
5555
f1e4
00ff
cafe
380f
5555
f1e4
0135
cafe
3c1f
5555
f1e4
013f
cafe
2007
5555
f1e4
0116
cafe
2417
5555
f1e8
00ba
cafe
2808
5555
f1e8
013e
cafe
2c18
5555
f1e8
013c
cafe
3000
5555
f1e8
013f
cafe
3410
5555
f1ec
01a4
cafe
3809
5555
f1ec
01ef
cafe
3c19
5555
f1ec
-
01a8
cafe
2001
5555
f1ec
01a0
cafe
2411
5555
f1f0
01f0
cafe
280a
5555
f1f0
0166
cafe
2c1a
5555
f1f0
018f
cafe
3002
5555
f1f0
01e6
cafe
3412
5555
f1f4
0162
cafe
380b
5555
f1f4
0181
cafe
3c1b
5555
f1f4
01ca
cafe
2003
5555
f1f4
01d2
cafe
2413
5555
f1f8
00d8
cafe
280c
5555
f1f8
0167
cafe
2c1c
5555
f1f8
01af
cafe
3004
5555
f1f8
01df
cafe
3414
5555
f1fc
0103
cafe
380d
5555
f1fc
01de
cafe
3c1d
5555
f1fc
0198
cafe
2005
5555
f1fc
01bb
cafe
2415
5555
f200
01a9
cafe
280e
5555
f200
012a
cafe
2c1e
5555
f200
0212
cafe
3006
5555
f200
0277
cafe
3416
5555
f204
0106
cafe
380f
5555
f204
012e
cafe
3c1f
5555
f204
0151
cafe
2007
5555
f204
0102
cafe
2417
5555
f208
00a9
cafe
2808
5555
f208
0149
cafe
2c18
5555
f208
0120
cafe
3000
5555
f208
0148
cafe
3410
5555
f20c
0198
cafe
3809
5555
f20c
01dd
cafe
3c19
5555
f20c
01a8
cafe
2001
5555
f20c
01a8
cafe
2411
5555
f210
01ef
cafe
280a
5555
f210
015f
cafe
2c1a
5555
f210
018a
cafe
3002
5555
f210
01cd
cafe
3412
5555
f214
0153
cafe
380b
5555
f214
0183
cafe
3c1b
5555
f214
01c0
cafe
2003
5555
f214
01c6
cafe
2413
5555
f218
00c0
cafe
280c
5555
f218
015f
cafe
2c1c
5555
f218
01be
cafe
3004
5555
f218
01e6
cafe
3414
5555
f21c
0109
cafe
380d
5555
f21c
01e1
cafe
3c1d
5555
f21c
019e
cafe
2005
5555
f21c
01be
cafe
2415
5555
f220
01b0
cafe
280e
5555
f220
0131
-
cafe
2c1e
5555
f220
0204
cafe
3006
5555
f220
0278
cafe
3416
5555
f224
010e
cafe
380f
5555
f224
013a
cafe
3c1f
5555
f224
014f
cafe
2007
5555
f224
0118
cafe
2417
5555
f228
00bb
cafe
2808
5555
f228
0154
cafe
2c18
5555
f228
0129
cafe
3000
5555
f228
0145
cafe
3410
5555
f22c
01a1
cafe
3809
5555
f22c
01d6
cafe
3c19
5555
f22c
01b9
cafe
2001
5555
f22c
0198
cafe
2411
5555
f230
01ee
cafe
280a
5555
f230
0158
cafe
2c1a
5555
f230
018c
cafe
3002
5555
f230
01d2
cafe
3412
5555
f234
014b
cafe
380b
5555
f234
0170
cafe
3c1b
5555
f234
01ac
cafe
2003
5555
f234
01d4
cafe
2413
5555
f238
00cc
cafe
280c
5555
f238
015b
cafe
2c1c
5555
f238
01b2
cafe
3004
5555
f238
01d3
cafe
3414
5555
f23c
0102
cafe
380d
5555
f23c
01c4
cafe
3c1d
5555
f23c
01a6
cafe
2005
5555
f23c
01b6
cafe
2415
5555
f240
01b0
cafe
280e
5555
f240
012c
cafe
2c1e
5555
f240
0212
cafe
3006
5555
f240
027f
cafe
3416
5555
f244
0100
cafe
380f
5555
f244
0116
cafe
3c1f
5555
f244
0136
cafe
2007
5555
f244
0104
cafe
2417
5555
f248
00c3
cafe
2808
5555
f248
0154
cafe
2c18
5555
f248
012d
cafe
3000
5555
f248
0139
cafe
3410
5555
f24c
01a6
cafe
3809
5555
f24c
01cb
cafe
3c19
5555
f24c
01b6
cafe
2001
5555
f24c
0193
cafe
2411
5555
f250
01e5
cafe
280a
5555
f250
0168
cafe
2c1a
5555
f250
0188
cafe
3002
5555
f250
01cc
cafe
3412
5555
f254
0165
cafe
-
380b
5555
f254
016d
cafe
3c1b
5555
f254
01c0
cafe
2003
5555
f254
01c9
cafe
2413
5555
f258
00bc
cafe
280c
5555
f258
016b
cafe
2c1c
5555
f258
01b1
cafe
3004
5555
f258
01dc
cafe
3414
5555
f25c
00ef
cafe
380d
5555
f25c
01cd
cafe
3c1d
5555
f25c
01a0
cafe
2005
5555
f25c
01a8
cafe
2415
5555
f260
01be
cafe
280e
5555
f260
0122
cafe
2c1e
5555
f260
0214
cafe
3006
5555
f260
026c
cafe
3416
5555
f264
00fc
cafe
380f
5555
f264
0135
cafe
3c1f
5555
f264
0140
cafe
2007
5555
f264
0112
cafe
2417
5555
f268
00b9
cafe
2808
5555
f268
0163
cafe
2c18
5555
f268
012b
cafe
3000
5555
f268
012b
cafe
3410
5555
f26c
01b1
cafe
3809
5555
f26c
01d6
cafe
3c19
5555
f26c
01af
cafe
2001
5555
f26c
01a5
cafe
2411
5555
f270
01ef
cafe
280a
5555
f270
0166
cafe
2c1a
5555
f270
018d
cafe
3002
5555
f270
01d3
cafe
3412
5555
f274
0154
cafe
380b
5555
f274
016a
cafe
3c1b
5555
f274
01c0
cafe
2003
5555
f274
01cd
cafe
2413
5555
f278
00b0
cafe
280c
5555
f278
015f
cafe
2c1c
5555
f278
019f
cafe
3004
5555
f278
01d5
cafe
3414
5555
f27c
00f6
cafe
380d
5555
f27c
01c7
cafe
3c1d
5555
f27c
019f
cafe
2005
5555
f27c
01af
cafe
2415
5555
f280
01b1
cafe
280e
5555
f280
040f
cafe
2c1e
5555
f280
04e5
cafe
3006
5555
f280
056f
cafe
3416
5555
f284
03e3
cafe
380f
5555
f284
0810
cafe
3c1f
5555
f284
082f
cafe
2007
5555
f284
07e6
cafe
2417
-
5555
f288
0799
cafe
2808
5555
f288
0951
cafe
2c18
5555
f288
091d
cafe
3000
5555
f288
090e
cafe
3410
5555
f28c
098c
cafe
3809
5555
f28c
0a19
cafe
3c19
5555
f28c
09f4
cafe
2001
5555
f28c
099a
cafe
2411
5555
f290
0a30
cafe
280a
5555
f290
09c8
cafe
2c1a
5555
f290
09bd
cafe
3002
5555
f290
09f1
cafe
3412
5555
f294
09bd
cafe
380b
5555
f294
09bf
cafe
3c1b
5555
f294
09ea
cafe
2003
5555
f294
09d2
cafe
2413
5555
f298
0919
cafe
280c
5555
f298
09a8
cafe
2c1c
5555
f298
09c4
cafe
3004
5555
f298
09e4
cafe
3414
5555
f29c
090b
cafe
380d
5555
f29c
09f1
cafe
3c1d
5555
f29c
09b0
cafe
2005
5555
f29c
09af
cafe
2415
5555
f2a0
09cc
cafe
280e
5555
f2a0
093e
cafe
2c1e
5555
f2a0
0a30
cafe
3006
5555
f2a0
0a74
cafe
3416
5555
f2a4
0900
cafe
380f
5555
f2a4
0961
cafe
3c1f
5555
f2a4
0962
cafe
2007
5555
f2a4
0902
cafe
2417
5555
f2a8
08c8
cafe
2808
5555
f2a8
095d
cafe
2c18
5555
f2a8
0952
cafe
3000
5555
f2a8
0935
cafe
3410
5555
f2ac
09af
cafe
3809
5555
f2ac
09fa
cafe
3c19
5555
f2ac
09aa
cafe
2001
5555
f2ac
0982
cafe
2411
5555
f2b0
0a09
cafe
280a
5555
f2b0
097f
cafe
2c1a
5555
f2b0
0995
cafe
3002
5555
f2b0
09c1
cafe
3412
5555
f2b4
096a
cafe
380b
5555
f2b4
0982
cafe
3c1b
5555
f2b4
09bf
cafe
2003
5555
f2b4
09ae
cafe
2413
5555
f2b8
08d1
cafe
280c
5555
f2b8
0990
cafe
2c1c
5555
f2b8
09b9
cafe
3004
5555
-
f2b8
09ca
cafe
3414
5555
f2bc
0906
cafe
380d
5555
f2bc
09e4
cafe
3c1d
5555
f2bc
0998
cafe
2005
5555
f2bc
09b2
cafe
2415
5555
f2c0
09b5
cafe
280e
5555
f2c0
0946
cafe
2c1e
5555
f2c0
0a19
cafe
3006
5555
f2c0
0a5f
cafe
3416
5555
f2c4
08ff
cafe
380f
5555
f2c4
092e
cafe
3c1f
5555
f2c4
093d
cafe
2007
5555
f2c4
08e0
cafe
2417
5555
f2c8
08a4
cafe
2808
5555
f2c8
093b
cafe
2c18
5555
f2c8
094a
cafe
3000
5555
f2c8
090d
cafe
3410
5555
f2cc
09b2
cafe
3809
5555
f2cc
09e4
cafe
3c19
5555
f2cc
09a6
cafe
2001
5555
f2cc
0979
cafe
2411
5555
f2d0
09ea
cafe
280a
5555
f2d0
096e
cafe
2c1a
5555
f2d0
0989
cafe
3002
5555
f2d0
09c2
cafe
3412
5555
f2d4
094c
cafe
380b
5555
f2d4
0960
cafe
3c1b
5555
f2d4
09ad
cafe
2003
5555
f2d4
0983
cafe
2413
5555
f2d8
08ba
cafe
280c
5555
f2d8
097a
cafe
2c1c
5555
f2d8
099c
cafe
3004
5555
f2d8
09b2
cafe
3414
5555
f2dc
08ec
cafe
380d
5555
f2dc
09b4
cafe
3c1d
5555
f2dc
098b
cafe
2005
5555
f2dc
0973
cafe
2415
5555
f2e0
09ac
cafe
280e
5555
f2e0
0926
cafe
2c1e
5555
f2e0
0a02
cafe
3006
5555
f2e0
0a3d
cafe
3416
5555
f2e4
08df
cafe
380f
5555
f2e4
0923
cafe
3c1f
5555
f2e4
0927
cafe
2007
5555
f2e4
08d2
cafe
2417
5555
f2e8
0881
cafe
2808
5555
f2e8
0958
cafe
2c18
5555
f2e8
0933
cafe
3000
5555
f2e8
091b
cafe
3410
5555
f2ec
09a0
cafe
3809
5555
f2ec
09c2
cafe
3c19
5555
f2ec
-
098c
cafe
2001
5555
f2ec
0956
cafe
2411
5555
f2f0
09d5
cafe
280a
5555
f2f0
0956
cafe
2c1a
5555
f2f0
0970
cafe
3002
5555
f2f0
0998
cafe
3412
5555
f2f4
0934
cafe
380b
5555
f2f4
094d
cafe
3c1b
5555
f2f4
0988
cafe
2003
5555
f2f4
096d
cafe
2413
5555
f2f8
088b
cafe
280c
5555
f2f8
096f
cafe
2c1c
5555
f2f8
0993
cafe
3004
5555
f2f8
09b3
cafe
3414
5555
f2fc
08dc
cafe
380d
5555
f2fc
09cb
cafe
3c1d
5555
f2fc
097c
cafe
2005
5555
f2fc
097e
cafe
2415
5555
f300
099f
cafe
280e
5555
f300
08f4
cafe
2c1e
5555
f300
09e3
cafe
3006
5555
f300
0a31
cafe
3416
5555
f304
08cc
cafe
380f
5555
f304
091a
cafe
3c1f
5555
f304
091b
cafe
2007
5555
f304
08b3
cafe
2417
5555
f308
087b
cafe
2808
5555
f308
092e
cafe
2c18
5555
f308
091a
cafe
3000
5555
f308
08dd
cafe
3410
5555
f30c
09aa
cafe
3809
5555
f30c
09ae
cafe
3c19
5555
f30c
0966
cafe
2001
5555
f30c
093e
cafe
2411
5555
f310
09d4
cafe
280a
5555
f310
0928
cafe
2c1a
5555
f310
0944
cafe
3002
5555
f310
0972
cafe
3412
5555
f314
0914
cafe
380b
5555
f314
092d
cafe
3c1b
5555
f314
0970
cafe
2003
5555
f314
095d
cafe
2413
5555
f318
087c
cafe
280c
5555
f318
094e
cafe
2c1c
5555
f318
0978
cafe
3004
5555
f318
0977
cafe
3414
5555
f31c
08ac
cafe
380d
5555
f31c
0999
cafe
3c1d
5555
f31c
095b
cafe
2005
5555
f31c
0957
cafe
2415
5555
f320
0962
cafe
280e
5555
f320
08d1
-
cafe
2c1e
5555
f320
09d5
cafe
3006
5555
f320
0a25
cafe
3416
5555
f324
08ac
cafe
380f
5555
f324
0908
cafe
3c1f
5555
f324
08ed
cafe
2007
5555
f324
089d
cafe
2417
5555
f328
0855
cafe
2808
5555
f328
090b
cafe
2c18
5555
f328
08f8
cafe
3000
5555
f328
08bd
cafe
3410
5555
f32c
098f
cafe
3809
5555
f32c
0990
cafe
3c19
5555
f32c
0963
cafe
2001
5555
f32c
0928
cafe
2411
5555
f330
09aa
cafe
280a
5555
f330
0923
cafe
2c1a
5555
f330
0936
cafe
3002
5555
f330
0969
cafe
3412
5555
f334
090c
cafe
380b
5555
f334
0924
cafe
3c1b
5555
f334
096a
cafe
2003
5555
f334
0946
cafe
2413
5555
f338
085f
cafe
280c
5555
f338
0946
cafe
2c1c
5555
f338
0954
cafe
3004
5555
f338
0978
cafe
3414
5555
f33c
0893
cafe
380d
5555
f33c
0985
cafe
3c1d
5555
f33c
095c
cafe
2005
5555
f33c
0940
cafe
2415
5555
f340
095c
cafe
280e
5555
f340
08b6
cafe
2c1e
5555
f340
09cb
cafe
3006
5555
f340
0a1d
cafe
3416
5555
f344
088c
cafe
380f
5555
f344
08db
cafe
3c1f
5555
f344
08cd
cafe
2007
5555
f344
0873
cafe
2417
5555
f348
0841
cafe
2808
5555
f348
08ee
cafe
2c18
5555
f348
08cf
cafe
3000
5555
f348
08a1
cafe
3410
5555
f34c
0975
cafe
3809
5555
f34c
097e
cafe
3c19
5555
f34c
0948
cafe
2001
5555
f34c
0918
cafe
2411
5555
f350
0993
cafe
280a
5555
f350
091a
cafe
2c1a
5555
f350
0923
cafe
3002
5555
f350
0940
cafe
3412
5555
f354
08eb
cafe
-
380b
5555
f354
0900
cafe
3c1b
5555
f354
0947
cafe
2003
5555
f354
093b
cafe
2413
5555
f358
083b
cafe
280c
5555
f358
0920
cafe
2c1c
5555
f358
092d
cafe
3004
5555
f358
0961
cafe
3414
5555
f35c
0883
cafe
380d
5555
f35c
0982
cafe
3c1d
5555
f35c
092d
cafe
2005
5555
f35c
092f
cafe
2415
5555
f360
093b
cafe
280e
5555
f360
088d
cafe
2c1e
5555
f360
09ba
cafe
3006
5555
f360
0a09
cafe
3416
5555
f364
087d
cafe
380f
5555
f364
08d6
cafe
3c1f
5555
f364
08b1
cafe
2007
5555
f364
086d
cafe
2417
5555
f368
082a
cafe
2808
5555
f368
08c7
cafe
2c18
5555
f368
08b7
cafe
3000
5555
f368
0879
cafe
3410
5555
f36c
0948
cafe
3809
5555
f36c
0966
cafe
3c19
5555
f36c
0938
cafe
2001
5555
f36c
08fa
cafe
2411
5555
f370
0988
cafe
280a
5555
f370
0906
cafe
2c1a
5555
f370
0917
cafe
3002
5555
f370
092a
cafe
3412
5555
f374
08ec
cafe
380b
5555
f374
08e7
cafe
3c1b
5555
f374
0928
cafe
2003
5555
f374
091f
cafe
2413
5555
f378
083f
cafe
280c
5555
f378
0913
cafe
2c1c
5555
f378
0927
cafe
3004
5555
f378
094e
cafe
3414
5555
f37c
0862
cafe
380d
5555
f37c
0956
cafe
3c1d
5555
f37c
0913
cafe
2005
5555
f37c
0914
cafe
2415
5555
f380
091e
cafe
280e
5555
f380
0880
cafe
2c1e
5555
f380
099c
cafe
3006
5555
f380
09e2
cafe
3416
5555
f384
0854
cafe
380f
5555
f384
08ad
cafe
3c1f
5555
f384
089b
cafe
2007
5555
f384
0848
cafe
2417
-
5555
f388
0817
cafe
2808
5555
f388
08b1
cafe
2c18
5555
f388
08ad
cafe
3000
5555
f388
086d
cafe
3410
5555
f38c
0944
cafe
3809
5555
f38c
094f
cafe
3c19
5555
f38c
091c
cafe
2001
5555
f38c
08df
cafe
2411
5555
f390
095f
cafe
280a
5555
f390
08d3
cafe
2c1a
5555
f390
08fe
cafe
3002
5555
f390
0917
cafe
3412
5555
f394
08de
cafe
380b
5555
f394
08c8
cafe
3c1b
5555
f394
0918
cafe
2003
5555
f394
08e9
cafe
2413
5555
f398
0806
cafe
280c
5555
f398
08fd
cafe
2c1c
5555
f398
08f1
cafe
3004
5555
f398
0940
cafe
3414
5555
f39c
0850
cafe
380d
5555
f39c
0957
cafe
3c1d
5555
f39c
08ed
cafe
2005
5555
f39c
0901
cafe
2415
5555
f3a0
08fe
cafe
280e
5555
f3a0
086e
cafe
2c1e
5555
f3a0
0980
cafe
3006
5555
f3a0
09d1
cafe
3416
5555
f3a4
083f
cafe
380f
5555
f3a4
089a
cafe
3c1f
5555
f3a4
0878
cafe
2007
5555
f3a4
083b
cafe
2417
5555
f3a8
07f8
cafe
2808
5555
f3a8
0893
cafe
2c18
5555
f3a8
088a
cafe
3000
5555
f3a8
0850
cafe
3410
5555
f3ac
0930
cafe
3809
5555
f3ac
092f
cafe
3c19
5555
f3ac
08f5
cafe
2001
5555
f3ac
08b8
cafe
2411
5555
f3b0
095b
cafe
280a
5555
f3b0
08c4
cafe
2c1a
5555
f3b0
08e1
cafe
3002
5555
f3b0
0909
cafe
3412
5555
f3b4
08ca
cafe
380b
5555
f3b4
08af
cafe
3c1b
5555
f3b4
0902
cafe
2003
5555
f3b4
08df
cafe
2413
5555
f3b8
07f2
cafe
280c
5555
f3b8
08e0
cafe
2c1c
5555
f3b8
08e5
cafe
3004
5555
-
f3b8
0928
cafe
3414
5555
f3bc
0833
cafe
380d
5555
f3bc
0932
cafe
3c1d
5555
f3bc
08e7
cafe
2005
5555
f3bc
08e8
cafe
2415
5555
f3c0
08ca
cafe
280e
5555
f3c0
0845
cafe
2c1e
5555
f3c0
0978
cafe
3006
5555
f3c0
09ba
cafe
3416
5555
f3c4
0829
cafe
380f
5555
f3c4
087c
cafe
3c1f
5555
f3c4
084e
cafe
2007
5555
f3c4
0810
cafe
2417
5555
f3c8
07da
cafe
2808
5555
f3c8
087b
cafe
2c18
5555
f3c8
0879
cafe
3000
5555
f3c8
082a
cafe
3410
5555
f3cc
092c
cafe
3809
5555
f3cc
091f
cafe
3c19
5555
f3cc
08f3
cafe
2001
5555
f3cc
08af
cafe
2411
5555
f3d0
0954
cafe
280a
5555
f3d0
08c0
cafe
2c1a
5555
f3d0
08c8
cafe
3002
5555
f3d0
08d7
cafe
3412
5555
f3d4
08b3
cafe
380b
5555
f3d4
088f
cafe
3c1b
5555
f3d4
08d8
cafe
2003
5555
f3d4
08c3
cafe
2413
5555
f3d8
07e1
cafe
280c
5555
f3d8
08b8
cafe
2c1c
5555
f3d8
08ca
cafe
3004
5555
f3d8
0918
cafe
3414
5555
f3dc
0810
cafe
380d
5555
f3dc
0913
cafe
3c1d
5555
f3dc
08c7
cafe
2005
5555
f3dc
08c6
cafe
2415
5555
f3e0
08da
cafe
280e
5555
f3e0
082a
cafe
2c1e
5555
f3e0
0949
cafe
3006
5555
f3e0
09ae
cafe
3416
5555
f3e4
0816
cafe
380f
5555
f3e4
0871
cafe
3c1f
5555
f3e4
084e
cafe
2007
5555
f3e4
07f9
cafe
2417
5555
f3e8
07ba
cafe
2808
5555
f3e8
0874
cafe
2c18
5555
f3e8
0863
cafe
3000
5555
f3e8
080b
cafe
3410
5555
f3ec
090e
cafe
3809
5555
f3ec
08f7
cafe
3c19
5555
f3ec
-
08dc
cafe
2001
5555
f3ec
088d
cafe
2411
5555
f3f0
0922
cafe
280a
5555
f3f0
08b6
cafe
2c1a
5555
f3f0
08a5
cafe
3002
5555
f3f0
08d6
cafe
3412
5555
f3f4
087f
cafe
380b
5555
f3f4
088a
cafe
3c1b
5555
f3f4
08db
cafe
2003
5555
f3f4
08ae
cafe
2413
5555
f3f8
07c9
cafe
280c
5555
f3f8
08a5
cafe
2c1c
5555
f3f8
08bf
cafe
3004
5555
f3f8
08f8
cafe
3414
5555
f3fc
0809
cafe
380d
5555
f3fc
0902
cafe
3c1d
5555
f3fc
08b4
cafe
2005
5555
f3fc
08b5
cafe
2415
5555
f400
08c0
cafe
280e
5555
f400
0818
cafe
2c1e
5555
f400
092b
cafe
3006
5555
f400
0997
cafe
3416
5555
f404
07f9
cafe
380f
5555
f404
0857
cafe
3c1f
5555
f404
081a
cafe
2007
5555
f404
07e2
cafe
2417
5555
f408
0792
cafe
2808
5555
f408
084c
cafe
2c18
5555
f408
0854
cafe
3000
5555
f408
07f3
cafe
3410
5555
f40c
08fb
cafe
3809
5555
f40c
08ef
cafe
3c19
5555
f40c
08bb
cafe
2001
5555
f40c
0878
cafe
2411
5555
f410
0927
cafe
280a
5555
f410
0882
cafe
2c1a
5555
f410
08a7
cafe
3002
5555
f410
08ab
cafe
3412
5555
f414
0863
cafe
380b
5555
f414
0864
cafe
3c1b
5555
f414
08ad
cafe
2003
5555
f414
0892
cafe
2413
5555
f418
079f
cafe
280c
5555
f418
0891
cafe
2c1c
5555
f418
08aa
cafe
3004
5555
f418
08e1
cafe
3414
5555
f41c
07fa
cafe
380d
5555
f41c
08ec
cafe
3c1d
5555
f41c
08b4
cafe
2005
5555
f41c
08b3
cafe
2415
5555
f420
08ae
cafe
280e
5555
f420
0818
-
cafe
2c1e
5555
f420
091c
cafe
3006
5555
f420
0986
cafe
3416
5555
f424
07e6
cafe
380f
5555
f424
0846
cafe
3c1f
5555
f424
0813
cafe
2007
5555
f424
07dd
cafe
2417
5555
f428
078b
cafe
2808
5555
f428
0837
cafe
2c18
5555
f428
0825
cafe
3000
5555
f428
07d0
cafe
3410
5555
f42c
08e7
cafe
3809
5555
f42c
08cf
cafe
3c19
5555
f42c
08a0
cafe
2001
5555
f42c
086e
cafe
2411
5555
f430
08f7
cafe
280a
5555
f430
0867
cafe
2c1a
5555
f430
087c
cafe
3002
5555
f430
0891
cafe
3412
5555
f434
085b
cafe
380b
5555
f434
084d
cafe
3c1b
5555
f434
08aa
cafe
2003
5555
f434
087e
cafe
2413
5555
f438
077f
cafe
280c
5555
f438
0879
cafe
2c1c
5555
f438
087e
cafe
3004
5555
f438
08ca
cafe
3414
5555
f43c
07e2
cafe
380d
5555
f43c
08d8
cafe
3c1d
5555
f43c
088d
cafe
2005
5555
f43c
08a2
cafe
2415
5555
f440
088f
cafe
280e
5555
f440
07e9
cafe
2c1e
5555
f440
0911
cafe
3006
5555
f440
0963
cafe
3416
5555
f444
07d6
cafe
380f
5555
f444
0827
cafe
3c1f
5555
f444
07ff
cafe
2007
5555
f444
07b1
cafe
2417
5555
f448
076f
cafe
2808
5555
f448
082a
cafe
2c18
5555
f448
0811
cafe
3000
5555
f448
07bf
cafe
3410
5555
f44c
08c6
cafe
3809
5555
f44c
08b4
cafe
3c19
5555
f44c
088c
cafe
2001
5555
f44c
0841
cafe
2411
5555
f450
08ee
cafe
280a
5555
f450
085a
cafe
2c1a
5555
f450
0864
cafe
3002
5555
f450
088a
cafe
3412
5555
f454
0852
cafe
-
380b
5555
f454
0830
cafe
3c1b
5555
f454
0890
cafe
2003
5555
f454
0867
cafe
2413
5555
f458
0775
cafe
280c
5555
f458
0868
cafe
2c1c
5555
f458
087a
cafe
3004
5555
f458
08b6
cafe
3414
5555
f45c
07b4
cafe
380d
5555
f45c
08bf
cafe
3c1d
5555
f45c
086f
cafe
2005
5555
f45c
0877
cafe
2415
5555
f460
088a
cafe
280e
5555
f460
07cb
cafe
2c1e
5555
f460
08ea
cafe
3006
5555
f460
0950
cafe
3416
5555
f464
07c4
cafe
380f
5555
f464
0800
cafe
3c1f
5555
f464
07e6
cafe
2007
5555
f464
0796
cafe
2417
5555
f468
0748
cafe
2808
5555
f468
0807
cafe
2c18
5555
f468
07fd
cafe
3000
5555
f468
07a2
cafe
3410
5555
f46c
089d
cafe
3809
5555
f46c
089d
cafe
3c19
5555
f46c
0877
cafe
2001
5555
f46c
083b
cafe
2411
5555
f470
08db
cafe
280a
5555
f470
0858
cafe
2c1a
5555
f470
084b
cafe
3002
5555
f470
086b
cafe
3412
5555
f474
0838
cafe
380b
5555
f474
0828
cafe
3c1b
5555
f474
0881
cafe
2003
5555
f474
0845
cafe
2413
5555
f478
0768
cafe
280c
5555
f478
085c
cafe
2c1c
5555
f478
0863
cafe
3004
5555
f478
08b6
cafe
3414
5555
f47c
079d
cafe
380d
5555
f47c
08ad
cafe
3c1d
5555
f47c
0858
cafe
2005
5555
f47c
086b
cafe
2415
5555
f480
0850
cafe
280e
5555
f480
07aa
cafe
2c1e
5555
f480
08c5
cafe
3006
5555
f480
092b
cafe
3416
5555
f484
079a
cafe
380f
5555
f484
07f7
cafe
3c1f
5555
f484
07cd
cafe
2007
5555
f484
0796
cafe
2417
-
5555
f488
0752
cafe
2808
5555
f488
0804
cafe
2c18
5555
f488
07e6
cafe
3000
5555
f488
0784
cafe
3410
5555
f48c
08a1
cafe
3809
5555
f48c
0888
cafe
3c19
5555
f48c
0866
cafe
2001
5555
f48c
0814
cafe
2411
5555
f490
08c7
cafe
280a
5555
f490
082c
cafe
2c1a
5555
f490
0824
cafe
3002
5555
f490
085b
cafe
3412
5555
f494
0808
cafe
380b
5555
f494
07fa
cafe
3c1b
5555
f494
0849
cafe
2003
5555
f494
0834
cafe
2413
5555
f498
074a
cafe
280c
5555
f498
0854
cafe
2c1c
5555
f498
084b
cafe
3004
5555
f498
088d
cafe
3414
5555
f49c
0794
cafe
380d
5555
f49c
0898
cafe
3c1d
5555
f49c
0841
cafe
2005
5555
f49c
0859
cafe
2415
5555
f4a0
0845
cafe
280e
5555
f4a0
078f
cafe
2c1e
5555
f4a0
08af
cafe
3006
5555
f4a0
0920
cafe
3416
5555
f4a4
0785
cafe
380f
5555
f4a4
07d4
cafe
3c1f
5555
f4a4
07b8
cafe
2007
5555
f4a4
075f
cafe
2417
5555
f4a8
0719
cafe
2808
5555
f4a8
07d7
cafe
2c18
5555
f4a8
07de
cafe
3000
5555
f4a8
0765
cafe
3410
5555
f4ac
088a
cafe
3809
5555
f4ac
0884
cafe
3c19
5555
f4ac
0847
cafe
2001
5555
f4ac
07fb
cafe
2411
5555
f4b0
08b7
cafe
280a
5555
f4b0
081c
cafe
2c1a
5555
f4b0
0825
cafe
3002
5555
f4b0
0849
cafe
3412
5555
f4b4
0808
cafe
380b
5555
f4b4
07e0
cafe
3c1b
5555
f4b4
085c
cafe
2003
5555
f4b4
0808
cafe
2413
5555
f4b8
0740
cafe
280c
5555
f4b8
0836
cafe
2c1c
5555
f4b8
081e
cafe
3004
5555
-
f4b8
0884
cafe
3414
5555
f4bc
0778
cafe
380d
5555
f4bc
0886
cafe
3c1d
5555
f4bc
082b
cafe
2005
5555
f4bc
082e
cafe
2415
5555
f4c0
0830
cafe
280e
5555
f4c0
0784
cafe
2c1e
5555
f4c0
08aa
cafe
3006
5555
f4c0
0924
cafe
3416
5555
f4c4
0760
cafe
380f
5555
f4c4
07d8
cafe
3c1f
5555
f4c4
07a4
cafe
2007
5555
f4c4
074c
cafe
2417
5555
f4c8
0717
cafe
2808
5555
f4c8
07a7
cafe
2c18
5555
f4c8
07b9
cafe
3000
5555
f4c8
0740
cafe
3410
5555
f4cc
0872
cafe
3809
5555
f4cc
0867
cafe
3c19
5555
f4cc
082c
cafe
2001
5555
f4cc
07fc
cafe
2411
5555
f4d0
0890
cafe
280a
5555
f4d0
0800
cafe
2c1a
5555
f4d0
0809
cafe
3002
5555
f4d0
083b
cafe
3412
5555
f4d4
07d6
cafe
380b
5555
f4d4
07dd
cafe
3c1b
5555
f4d4
0836
cafe
2003
5555
f4d4
080f
cafe
2413
5555
f4d8
0733
cafe
280c
5555
f4d8
0823
cafe
2c1c
5555
f4d8
080e
cafe
3004
5555
f4d8
086b
cafe
3414
5555
f4dc
0761
cafe
380d
5555
f4dc
0868
cafe
3c1d
5555
f4dc
081a
cafe
2005
5555
f4dc
0822
cafe
2415
5555
f4e0
081b
cafe
280e
5555
f4e0
0757
cafe
2c1e
5555
f4e0
0889
cafe
3006
5555
f4e0
08f6
cafe
3416
5555
f4e4
0753
cafe
380f
5555
f4e4
07b8
cafe
3c1f
5555
f4e4
077e
cafe
2007
5555
f4e4
0734
cafe
2417
5555
f4e8
06f0
cafe
2808
5555
f4e8
07a0
cafe
2c18
5555
f4e8
07ab
cafe
3000
5555
f4e8
072f
cafe
3410
5555
f4ec
0865
cafe
3809
5555
f4ec
0861
cafe
3c19
5555
f4ec
-
082f
cafe
2001
5555
f4ec
07d8
cafe
2411
5555
f4f0
08a5
cafe
280a
5555
f4f0
07db
cafe
2c1a
5555
f4f0
07e6
cafe
3002
5555
f4f0
082d
cafe
3412
5555
f4f4
07d2
cafe
380b
5555
f4f4
07a2
cafe
3c1b
5555
f4f4
0820
cafe
2003
5555
f4f4
07e3
cafe
2413
5555
f4f8
06ec
cafe
280c
5555
f4f8
080e
cafe
2c1c
5555
f4f8
0803
cafe
3004
5555
f4f8
0850
cafe
3414
5555
f4fc
0755
cafe
380d
5555
f4fc
0861
cafe
3c1d
5555
f4fc
07fd
cafe
2005
5555
f4fc
0812
cafe
2415
5555
f500
0805
cafe
280e
5555
f500
074a
cafe
2c1e
5555
f500
0878
cafe
3006
5555
f500
08f2
cafe
3416
5555
f504
0739
cafe
380f
5555
f504
0791
cafe
3c1f
5555
f504
0765
cafe
2007
5555
f504
0711
cafe
2417
5555
f508
06e0
cafe
2808
5555
f508
077f
cafe
2c18
5555
f508
078a
cafe
3000
5555
f508
070c
cafe
3410
5555
f50c
0829
cafe
3809
5555
f50c
083b
cafe
3c19
5555
f50c
0800
cafe
2001
5555
f50c
07b3
cafe
2411
5555
f510
086d
cafe
280a
5555
f510
07c4
cafe
2c1a
5555
f510
07da
cafe
3002
5555
f510
07ff
cafe
3412
5555
f514
07bf
cafe
380b
5555
f514
07a7
cafe
3c1b
5555
f514
080f
cafe
2003
5555
f514
07dc
cafe
2413
5555
f518
06fe
cafe
280c
5555
f518
07f5
cafe
2c1c
5555
f518
07df
cafe
3004
5555
f518
083b
cafe
3414
5555
f51c
0733
cafe
380d
5555
f51c
0842
cafe
3c1d
5555
f51c
07f8
cafe
2005
5555
f51c
07f9
cafe
2415
5555
f520
07d5
cafe
280e
5555
f520
0732
-
cafe
2c1e
5555
f520
085b
cafe
3006
5555
f520
08d5
cafe
3416
5555
f524
072c
cafe
380f
5555
f524
0783
cafe
3c1f
5555
f524
0748
cafe
2007
5555
f524
0709
cafe
2417
5555
f528
06c7
cafe
2808
5555
f528
076b
cafe
2c18
5555
f528
076a
cafe
3000
5555
f528
0708
cafe
3410
5555
f52c
0844
cafe
3809
5555
f52c
082b
cafe
3c19
5555
f52c
07f9
cafe
2001
5555
f52c
079d
cafe
2411
5555
f530
0861
cafe
280a
5555
f530
07bb
cafe
2c1a
5555
f530
07be
cafe
3002
5555
f530
07f1
cafe
3412
5555
f534
07a0
cafe
380b
5555
f534
078c
cafe
3c1b
5555
f534
07f5
cafe
2003
5555
f534
07b1
cafe
2413
5555
f538
06d7
cafe
280c
5555
f538
07ed
cafe
2c1c
5555
f538
07d7
cafe
3004
5555
f538
0838
cafe
3414
5555
f53c
0716
cafe
380d
5555
f53c
0832
cafe
3c1d
5555
f53c
07da
cafe
2005
5555
f53c
07f4
cafe
2415
5555
f540
07e7
cafe
280e
5555
f540
0717
cafe
2c1e
5555
f540
083d
cafe
3006
5555
f540
08ba
cafe
3416
5555
f544
0726
cafe
380f
5555
f544
076e
cafe
3c1f
5555
f544
072d
cafe
2007
5555
f544
06db
cafe
2417
5555
f548
06ae
cafe
2808
5555
f548
074f
cafe
2c18
5555
f548
0744
cafe
3000
5555
f548
06d2
cafe
3410
5555
f54c
080e
cafe
3809
5555
f54c
07fc
cafe
3c19
5555
f54c
07f1
cafe
2001
5555
f54c
078c
cafe
2411
5555
f550
0845
cafe
280a
5555
f550
07a5
cafe
2c1a
5555
f550
079e
cafe
3002
5555
f550
07ce
cafe
3412
5555
f554
078b
cafe
-
380b
5555
f554
0778
cafe
3c1b
5555
f554
07e3
cafe
2003
5555
f554
07ac
cafe
2413
5555
f558
06bb
cafe
280c
5555
f558
07cc
cafe
2c1c
5555
f558
07a9
cafe
3004
5555
f558
0812
cafe
3414
5555
f55c
0703
cafe
380d
5555
f55c
0826
cafe
3c1d
5555
f55c
07c6
cafe
2005
5555
f55c
07e2
cafe
2415
5555
f560
07d3
cafe
280e
5555
f560
070d
cafe
2c1e
5555
f560
0823
cafe
3006
5555
f560
08c8
cafe
3416
5555
f564
06f5
cafe
380f
5555
f564
0762
cafe
3c1f
5555
f564
071c
cafe
2007
5555
f564
06c7
cafe
2417
5555
f568
068e
cafe
2808
5555
f568
073a
cafe
2c18
5555
f568
0749
cafe
3000
5555
f568
06b8
cafe
3410
5555
f56c
0808
cafe
3809
5555
f56c
07e8
cafe
3c19
5555
f56c
07e0
cafe
2001
5555
f56c
077d
cafe
2411
5555
f570
0842
cafe
280a
5555
f570
077c
cafe
2c1a
5555
f570
078c
cafe
3002
5555
f570
07bb
cafe
3412
5555
f574
077c
cafe
380b
5555
f574
0771
cafe
3c1b
5555
f574
07d0
cafe
2003
5555
f574
0794
cafe
2413
5555
f578
069b
cafe
280c
5555
f578
07b1
cafe
2c1c
5555
f578
0796
cafe
3004
5555
f578
0806
cafe
3414
5555
f57c
06ed
cafe
380d
5555
f57c
0806
cafe
3c1d
5555
f57c
07a8
cafe
2005
5555
f57c
07b9
cafe
2415
5555
f580
0799
cafe
280e
5555
f580
06f3
cafe
2c1e
5555
f580
0817
cafe
3006
5555
f580
08a1
cafe
3416
5555
f584
06de
cafe
380f
5555
f584
0742
cafe
3c1f
5555
f584
0707
cafe
2007
5555
f584
06bb
cafe
2417
-
5555
f588
066c
cafe
2808
5555
f588
072a
cafe
2c18
5555
f588
0729
cafe
3000
5555
f588
06b0
cafe
3410
5555
f58c
07fb
cafe
3809
5555
f58c
07e2
cafe
3c19
5555
f58c
07d1
cafe
2001
5555
f58c
0764
cafe
2411
5555
f590
0829
cafe
280a
5555
f590
0776
cafe
2c1a
5555
f590
077d
cafe
3002
5555
f590
07a0
cafe
3412
5555
f594
076d
cafe
380b
5555
f594
0753
cafe
3c1b
5555
f594
07c7
cafe
2003
5555
f594
0771
cafe
2413
5555
f598
0692
cafe
280c
5555
f598
0797
cafe
2c1c
5555
f598
0786
cafe
3004
5555
f598
07e2
cafe
3414
5555
f59c
06d8
cafe
380d
5555
f59c
07fb
cafe
3c1d
5555
f59c
07a3
cafe
2005
5555
f59c
079b
cafe
2415
5555
f5a0
07a3
cafe
280e
5555
f5a0
06d6
cafe
2c1e
5555
f5a0
0801
cafe
3006
5555
f5a0
087e
cafe
3416
5555
f5a4
06c0
cafe
380f
5555
f5a4
0727
cafe
3c1f
5555
f5a4
06dd
cafe
2007
5555
f5a4
06bb
cafe
2417
5555
f5a8
0660
cafe
2808
5555
f5a8
070c
cafe
2c18
5555
f5a8
0718
cafe
3000
5555
f5a8
0692
cafe
3410
5555
f5ac
07ec
cafe
3809
5555
f5ac
07e1
cafe
3c19
5555
f5ac
07b4
cafe
2001
5555
f5ac
0744
cafe
2411
5555
f5b0
0820
cafe
280a
5555
f5b0
0745
cafe
2c1a
5555
f5b0
075a
cafe
3002
5555
f5b0
079a
cafe
3412
5555
f5b4
075d
cafe
380b
5555
f5b4
0735
cafe
3c1b
5555
f5b4
07a3
cafe
2003
5555
f5b4
075c
cafe
2413
5555
f5b8
0684
cafe
280c
5555
f5b8
077e
cafe
2c1c
5555
f5b8
0767
cafe
3004
5555
-
f5b8
07cd
cafe
3414
5555
f5bc
06c1
cafe
380d
5555
f5bc
07e6
cafe
3c1d
5555
f5bc
0775
cafe
2005
5555
f5bc
0797
cafe
2415
5555
f5c0
076f
cafe
280e
5555
f5c0
06be
cafe
2c1e
5555
f5c0
07dd
cafe
3006
5555
f5c0
0876
cafe
3416
5555
f5c4
06c1
cafe
380f
5555
f5c4
0722
cafe
3c1f
5555
f5c4
06cc
cafe
2007
5555
f5c4
0686
cafe
2417
5555
f5c8
0645
cafe
2808
5555
f5c8
06e6
cafe
2c18
5555
f5c8
0701
cafe
3000
5555
f5c8
0676
cafe
3410
5555
f5cc
07c5
cafe
3809
5555
f5cc
07c3
cafe
3c19
5555
f5cc
079d
cafe
2001
5555
f5cc
071a
cafe
2411
5555
f5d0
0806
cafe
280a
5555
f5d0
074c
cafe
2c1a
5555
f5d0
074a
cafe
3002
5555
f5d0
077b
cafe
3412
5555
f5d4
0747
cafe
380b
5555
f5d4
0724
cafe
3c1b
5555
f5d4
0787
cafe
2003
5555
f5d4
073d
cafe
2413
5555
f5d8
066e
cafe
280c
5555
f5d8
0766
cafe
2c1c
5555
f5d8
076c
cafe
3004
5555
f5d8
07b3
cafe
3414
5555
f5dc
069d
cafe
380d
5555
f5dc
07ca
cafe
3c1d
5555
f5dc
0767
cafe
2005
5555
f5dc
0770
cafe
2415
5555
f5e0
0755
cafe
280e
5555
f5e0
06b3
cafe
2c1e
5555
f5e0
07d7
cafe
3006
5555
f5e0
085c
cafe
3416
5555
f5e4
0692
cafe
380f
5555
f5e4
0701
cafe
3c1f
5555
f5e4
06b1
cafe
2007
5555
f5e4
067d
cafe
2417
5555
f5e8
0630
cafe
2808
5555
f5e8
06da
cafe
2c18
5555
f5e8
06e0
cafe
3000
5555
f5e8
0670
cafe
3410
5555
f5ec
07cb
cafe
3809
5555
f5ec
0796
cafe
3c19
5555
f5ec
-
078c
cafe
2001
5555
f5ec
0701
cafe
2411
5555
f5f0
07f4
cafe
280a
5555
f5f0
0739
cafe
2c1a
5555
f5f0
0727
cafe
3002
5555
f5f0
0763
cafe
3412
5555
f5f4
0730
cafe
380b
5555
f5f4
0714
cafe
3c1b
5555
f5f4
077e
cafe
2003
5555
f5f4
072d
cafe
2413
5555
f5f8
0654
cafe
280c
5555
f5f8
0759
cafe
2c1c
5555
f5f8
0754
cafe
3004
5555
f5f8
07a8
cafe
3414
5555
f5fc
0693
cafe
380d
5555
f5fc
07b8
cafe
3c1d
5555
f5fc
075e
cafe
2005
5555
f5fc
077e
cafe
2415
5555
f600
0764
cafe
280e
5555
f600
069e
cafe
2c1e
5555
f600
07b5
cafe
3006
5555
f600
085b
cafe
3416
5555
f604
068a
cafe
380f
5555
f604
06fd
cafe
3c1f
5555
f604
06a1
cafe
2007
5555
f604
0663
cafe
2417
5555
f608
061e
cafe
2808
5555
f608
06c7
cafe
2c18
5555
f608
06c4
cafe
3000
5555
f608
063d
cafe
3410
5555
f60c
07a8
cafe
3809
5555
f60c
0790
cafe
3c19
5555
f60c
0770
cafe
2001
5555
f60c
0710
cafe
2411
5555
f610
07d9
cafe
280a
5555
f610
071c
cafe
2c1a
5555
f610
0724
cafe
3002
5555
f610
0762
cafe
3412
5555
f614
0724
cafe
380b
5555
f614
06e4
cafe
3c1b
5555
f614
0774
cafe
2003
5555
f614
0704
cafe
2413
5555
f618
063f
cafe
280c
5555
f618
0747
cafe
2c1c
5555
f618
073e
cafe
3004
5555
f618
0797
cafe
3414
5555
f61c
0692
cafe
380d
5555
f61c
07af
cafe
3c1d
5555
f61c
072b
cafe
2005
5555
f61c
075c
cafe
2415
5555
f620
0737
cafe
280e
5555
f620
0695
-
cafe
2c1e
5555
f620
07a6
cafe
3006
5555
f620
083f
cafe
3416
5555
f624
0686
cafe
380f
5555
f624
06ea
cafe
3c1f
5555
f624
069c
cafe
2007
5555
f624
0657
cafe
2417
5555
f628
0604
cafe
2808
5555
f628
06b7
cafe
2c18
5555
f628
06bc
cafe
3000
5555
f628
0631
cafe
3410
5555
f62c
07a0
cafe
3809
5555
f62c
076f
cafe
3c19
5555
f62c
074c
cafe
2001
5555
f62c
06fd
cafe
2411
5555
f630
07ad
cafe
280a
5555
f630
0709
cafe
2c1a
5555
f630
06ff
cafe
3002
5555
f630
0744
cafe
3412
5555
f634
0705
cafe
380b
5555
f634
06d8
cafe
3c1b
5555
f634
075f
cafe
2003
5555
f634
06f8
cafe
2413
5555
f638
0626
cafe
280c
5555
f638
072f
cafe
2c1c
5555
f638
0716
cafe
3004
5555
f638
0790
cafe
3414
5555
f63c
0666
cafe
380d
5555
f63c
0798
cafe
3c1d
5555
f63c
072a
cafe
2005
5555
f63c
0744
cafe
2415
5555
f640
0732
cafe
280e
5555
f640
0675
cafe
2c1e
5555
f640
0799
cafe
3006
5555
f640
081c
cafe
3416
5555
f644
0656
cafe
380f
5555
f644
06b7
cafe
3c1f
5555
f644
0670
cafe
2007
5555
f644
0639
cafe
2417
5555
f648
05fa
cafe
2808
5555
f648
068c
cafe
2c18
5555
f648
0693
cafe
3000
5555
f648
061b
cafe
3410
5555
f64c
0775
cafe
3809
5555
f64c
0760
cafe
3c19
5555
f64c
075f
cafe
2001
5555
f64c
06d4
cafe
2411
5555
f650
07ba
cafe
280a
5555
f650
0702
cafe
2c1a
5555
f650
06f4
cafe
3002
5555
f650
071a
cafe
3412
5555
f654
06f7
cafe
-
380b
5555
f654
06be
cafe
3c1b
5555
f654
0744
cafe
2003
5555
f654
06ef
cafe
2413
5555
f658
0618
cafe
280c
5555
f658
0725
cafe
2c1c
5555
f658
070a
cafe
3004
5555
f658
0771
cafe
3414
5555
f65c
0657
cafe
380d
5555
f65c
0777
cafe
3c1d
5555
f65c
0710
cafe
2005
5555
f65c
0725
cafe
2415
5555
f660
0713
cafe
280e
5555
f660
063b
cafe
2c1e
5555
f660
076f
cafe
3006
5555
f660
080e
cafe
3416
5555
f664
0637
cafe
380f
5555
f664
06a9
cafe
3c1f
5555
f664
065f
cafe
2007
5555
f664
0618
cafe
2417
5555
f668
05de
cafe
2808
5555
f668
0688
cafe
2c18
5555
f668
069e
cafe
3000
5555
f668
05f6
cafe
3410
5555
f66c
0779
cafe
3809
5555
f66c
0758
cafe
3c19
5555
f66c
072f
cafe
2001
5555
f66c
06b3
cafe
2411
5555
f670
07a9
cafe
280a
5555
f670
06df
cafe
2c1a
5555
f670
06ee
cafe
3002
5555
f670
070c
cafe
3412
5555
f674
06d4
cafe
380b
5555
f674
06bb
cafe
3c1b
5555
f674
0730
cafe
2003
5555
f674
06c5
cafe
2413
5555
f678
0607
cafe
280c
5555
f678
0718
cafe
2c1c
5555
f678
0700
cafe
3004
5555
f678
0772
cafe
3414
5555
f67c
0646
cafe
380d
5555
f67c
0778
cafe
3c1d
5555
f67c
06ef
cafe
2005
5555
f67c
0724
cafe
2415
5555
f680
0711
cafe
280e
5555
f680
063d
cafe
2c1e
5555
f680
0760
cafe
3006
5555
f680
0804
cafe
3416
5555
f684
0632
cafe
380f
5555
f684
0694
cafe
3c1f
5555
f684
063a
cafe
2007
5555
f684
0610
cafe
2417
-
5555
f688
05ba
cafe
2808
5555
f688
0662
cafe
2c18
5555
f688
0680
cafe
3000
5555
f688
05e9
cafe
3410
5555
f68c
076a
cafe
3809
5555
f68c
072a
cafe
3c19
5555
f68c
071d
cafe
2001
5555
f68c
06b9
cafe
2411
5555
f690
0778
cafe
280a
5555
f690
06d1
cafe
2c1a
5555
f690
06e2
cafe
3002
5555
f690
06f0
cafe
3412
5555
f694
06db
cafe
380b
5555
f694
0690
cafe
3c1b
5555
f694
0709
cafe
2003
5555
f694
06b1
cafe
2413
5555
f698
05df
cafe
280c
5555
f698
06f4
cafe
2c1c
5555
f698
06eb
cafe
3004
5555
f698
075e
cafe
3414
5555
f69c
061d
cafe
380d
5555
f69c
0763
cafe
3c1d
5555
f69c
06dd
cafe
2005
5555
f69c
06f6
cafe
2415
5555
f6a0
06e0
cafe
280e
5555
f6a0
0621
cafe
2c1e
5555
f6a0
075f
cafe
3006
5555
f6a0
07f2
cafe
3416
5555
f6a4
0618
cafe
380f
5555
f6a4
0691
cafe
3c1f
5555
f6a4
062b
cafe
2007
5555
f6a4
05ee
cafe
2417
5555
f6a8
05aa
cafe
2808
5555
f6a8
0659
cafe
2c18
5555
f6a8
0670
cafe
3000
5555
f6a8
05d4
cafe
3410
5555
f6ac
0759
cafe
3809
5555
f6ac
0726
cafe
3c19
5555
f6ac
0700
cafe
2001
5555
f6ac
0688
cafe
2411
5555
f6b0
0777
cafe
280a
5555
f6b0
06c9
cafe
2c1a
5555
f6b0
06b9
cafe
3002
5555
f6b0
06f7
cafe
3412
5555
f6b4
06b6
cafe
380b
5555
f6b4
0671
cafe
3c1b
5555
f6b4
0709
cafe
2003
5555
f6b4
0699
cafe
2413
5555
f6b8
05db
cafe
280c
5555
f6b8
06e7
cafe
2c1c
5555
f6b8
06d2
cafe
3004
5555
-
f6b8
0745
cafe
3414
5555
f6bc
0615
cafe
380d
5555
f6bc
0726
cafe
3c1d
5555
f6bc
06cd
cafe
2005
5555
f6bc
06e0
cafe
2415
5555
f6c0
06dd
cafe
280e
5555
f6c0
05f9
cafe
2c1e
5555
f6c0
0740
cafe
3006
5555
f6c0
07d2
cafe
3416
5555
f6c4
0607
cafe
380f
5555
f6c4
0680
cafe
3c1f
5555
f6c4
0612
cafe
2007
5555
f6c4
05e2
cafe
2417
5555
f6c8
0592
cafe
2808
5555
f6c8
064c
cafe
2c18
5555
f6c8
0653
cafe
3000
5555
f6c8
05bc
cafe
3410
5555
f6cc
075a
cafe
3809
5555
f6cc
0702
cafe
3c19
5555
f6cc
070c
cafe
2001
5555
f6cc
0694
cafe
2411
5555
f6d0
0760
cafe
280a
5555
f6d0
069e
cafe
2c1a
5555
f6d0
069e
cafe
3002
5555
f6d0
06c6
cafe
3412
5555
f6d4
06a1
cafe
380b
5555
f6d4
0655
cafe
3c1b
5555
f6d4
06dc
cafe
2003
5555
f6d4
0694
cafe
2413
5555
f6d8
05b0
cafe
280c
5555
f6d8
06d5
cafe
2c1c
5555
f6d8
06aa
cafe
3004
5555
f6d8
0729
cafe
3414
5555
f6dc
060f
cafe
380d
5555
f6dc
0739
cafe
3c1d
5555
f6dc
06c4
cafe
2005
5555
f6dc
06e4
cafe
2415
5555
f6e0
06c8
cafe
280e
5555
f6e0
05fb
cafe
2c1e
5555
f6e0
0729
cafe
3006
5555
f6e0
07cf
cafe
3416
5555
f6e4
05fc
cafe
380f
5555
f6e4
0679
cafe
3c1f
5555
f6e4
05fd
cafe
2007
5555
f6e4
05d0
cafe
2417
5555
f6e8
0586
cafe
2808
5555
f6e8
061c
cafe
2c18
5555
f6e8
0643
cafe
3000
5555
f6e8
05af
cafe
3410
5555
f6ec
0726
cafe
3809
5555
f6ec
06f6
cafe
3c19
5555
f6ec
-
06ea
cafe
2001
5555
f6ec
0673
cafe
2411
5555
f6f0
075d
cafe
280a
5555
f6f0
068c
cafe
2c1a
5555
f6f0
0698
cafe
3002
5555
f6f0
06b7
cafe
3412
5555
f6f4
068d
cafe
380b
5555
f6f4
065b
cafe
3c1b
5555
f6f4
06de
cafe
2003
5555
f6f4
065b
cafe
2413
5555
f6f8
0598
cafe
280c
5555
f6f8
06bc
cafe
2c1c
5555
f6f8
06a5
cafe
3004
5555
f6f8
070e
cafe
3414
5555
f6fc
05ef
cafe
380d
5555
f6fc
072c
cafe
3c1d
5555
f6fc
06af
cafe
2005
5555
f6fc
06cf
cafe
2415
5555
f700
06b4
cafe
280e
5555
f700
05df
cafe
2c1e
5555
f700
0710
cafe
3006
5555
f700
07b3
cafe
3416
5555
f704
05e6
cafe
380f
5555
f704
064b
cafe
3c1f
5555
f704
05db
cafe
2007
5555
f704
05b5
cafe
2417
5555
f708
0560
cafe
2808
5555
f708
0606
cafe
2c18
5555
f708
0624
cafe
3000
5555
f708
0580
cafe
3410
5555
f70c
0728
cafe
3809
5555
f70c
06e1
cafe
3c19
5555
f70c
06cb
cafe
2001
5555
f70c
0663
cafe
2411
5555
f710
074f
cafe
280a
5555
f710
068c
cafe
2c1a
5555
f710
0677
cafe
3002
5555
f710
06bb
cafe
3412
5555
f714
0660
cafe
380b
5555
f714
0637
cafe
3c1b
5555
f714
06d8
cafe
2003
5555
f714
0658
cafe
2413
5555
f718
058e
cafe
280c
5555
f718
06ba
cafe
2c1c
5555
f718
0691
cafe
3004
5555
f718
06fc
cafe
3414
5555
f71c
05ef
cafe
380d
5555
f71c
06fd
cafe
3c1d
5555
f71c
0690
cafe
2005
5555
f71c
06b9
cafe
2415
5555
f720
06b0
cafe
280e
5555
f720
05bb
-
cafe
2c1e
5555
f720
06f1
cafe
3006
5555
f720
07a8
cafe
3416
5555
f724
05bc
cafe
380f
5555
f724
0630
cafe
3c1f
5555
f724
05d6
cafe
2007
5555
f724
0599
cafe
2417
5555
f728
0548
cafe
2808
5555
f728
0605
cafe
2c18
5555
f728
060d
cafe
3000
5555
f728
057e
cafe
3410
5555
f72c
070e
cafe
3809
5555
f72c
06c2
cafe
3c19
5555
f72c
06be
cafe
2001
5555
f72c
0652
cafe
2411
5555
f730
071f
cafe
280a
5555
f730
0672
cafe
2c1a
5555
f730
066b
cafe
3002
5555
f730
06a4
cafe
3412
5555
f734
0659
cafe
380b
5555
f734
062c
cafe
3c1b
5555
f734
06b9
cafe
2003
5555
f734
064d
cafe
2413
5555
f738
057e
cafe
280c
5555
f738
06a8
cafe
2c1c
5555
f738
0681
cafe
3004
5555
f738
06eb
cafe
3414
5555
f73c
05e1
cafe
380d
5555
f73c
06ed
cafe
3c1d
5555
f73c
0669
cafe
2005
5555
f73c
06b1
cafe
2415
5555
f740
0696
cafe
280e
5555
f740
05c2
cafe
2c1e
5555
f740
06e3
cafe
3006
5555
f740
07a6
cafe
3416
5555
f744
05b3
cafe
380f
5555
f744
0631
cafe
3c1f
5555
f744
05c5
cafe
2007
5555
f744
0578
cafe
2417
5555
f748
0540
cafe
2808
5555
f748
05e9
cafe
2c18
5555
f748
05e5
cafe
3000
5555
f748
056b
cafe
3410
5555
f74c
06e6
cafe
3809
5555
f74c
06b8
cafe
3c19
5555
f74c
06b4
cafe
2001
5555
f74c
0632
cafe
2411
5555
f750
0715
cafe
280a
5555
f750
0662
cafe
2c1a
5555
f750
0645
cafe
3002
5555
f750
0684
cafe
3412
5555
f754
0659
cafe
-
380b
5555
f754
0617
cafe
3c1b
5555
f754
06b5
cafe
2003
5555
f754
062c
cafe
2413
5555
f758
056c
cafe
280c
5555
f758
0693
cafe
2c1c
5555
f758
066b
cafe
3004
5555
f758
06e8
cafe
3414
5555
f75c
05b7
cafe
380d
5555
f75c
06f3
cafe
3c1d
5555
f75c
065d
cafe
2005
5555
f75c
06a9
cafe
2415
5555
f760
067a
cafe
280e
5555
f760
05a2
cafe
2c1e
5555
f760
06e2
cafe
3006
5555
f760
0788
cafe
3416
5555
f764
059f
cafe
380f
5555
f764
0624
cafe
3c1f
5555
f764
05b4
cafe
2007
5555
f764
0564
cafe
2417
5555
f768
0523
cafe
2808
5555
f768
05d1
cafe
2c18
5555
f768
05da
cafe
3000
5555
f768
0539
cafe
3410
5555
f76c
06da
cafe
3809
5555
f76c
06a5
cafe
3c19
5555
f76c
06ab
cafe
2001
5555
f76c
0619
cafe
2411
5555
f770
0704
cafe
280a
5555
f770
0652
cafe
2c1a
5555
f770
0641
cafe
3002
5555
f770
067f
cafe
3412
5555
f774
064c
cafe
380b
5555
f774
0603
cafe
3c1b
5555
f774
069e
cafe
2003
5555
f774
060f
cafe
2413
5555
f778
0547
cafe
280c
5555
f778
0665
cafe
2c1c
5555
f778
0663
cafe
3004
5555
f778
06df
cafe
3414
5555
f77c
05a3
cafe
380d
5555
f77c
06bf
cafe
3c1d
5555
f77c
0645
cafe
2005
5555
f77c
0670
cafe
2415
5555
f780
0663
cafe
280e
5555
f780
0572
cafe
2c1e
5555
f780
06c5
cafe
3006
5555
f780
0785
cafe
3416
5555
f784
0582
cafe
380f
5555
f784
060b
cafe
3c1f
5555
f784
05a0
cafe
2007
5555
f784
0548
cafe
2417
-
5555
f788
0519
cafe
2808
5555
f788
05b6
cafe
2c18
5555
f788
05cf
cafe
3000
5555
f788
0538
cafe
3410
5555
f78c
06cb
cafe
3809
5555
f78c
06ab
cafe
3c19
5555
f78c
0694
cafe
2001
5555
f78c
060c
cafe
2411
5555
f790
06f6
cafe
280a
5555
f790
0643
cafe
2c1a
5555
f790
0628
cafe
3002
5555
f790
064f
cafe
3412
5555
f794
063d
cafe
380b
5555
f794
05fe
cafe
3c1b
5555
f794
0696
cafe
2003
5555
f794
0607
cafe
2413
5555
f798
0542
cafe
280c
5555
f798
0660
cafe
2c1c
5555
f798
064a
cafe
3004
5555
f798
06c9
cafe
3414
5555
f79c
0585
cafe
380d
5555
f79c
06bc
cafe
3c1d
5555
f79c
064a
cafe
2005
5555
f79c
0681
cafe
2415
5555
f7a0
0659
cafe
280e
5555
f7a0
056e
cafe
2c1e
5555
f7a0
06ae
cafe
3006
5555
f7a0
0763
cafe
3416
5555
f7a4
0572
cafe
380f
5555
f7a4
05ed
cafe
3c1f
5555
f7a4
058d
cafe
2007
5555
f7a4
053a
cafe
2417
5555
f7a8
04fc
cafe
2808
5555
f7a8
05aa
cafe
2c18
5555
f7a8
05c1
cafe
3000
5555
f7a8
0523
cafe
3410
5555
f7ac
06bb
cafe
3809
5555
f7ac
0688
cafe
3c19
5555
f7ac
0677
cafe
2001
5555
f7ac
05e1
cafe
2411
5555
f7b0
06dc
cafe
280a
5555
f7b0
061e
cafe
2c1a
5555
f7b0
0612
cafe
3002
5555
f7b0
0638
cafe
3412
5555
f7b4
0622
cafe
380b
5555
f7b4
05d8
cafe
3c1b
5555
f7b4
066e
cafe
2003
5555
f7b4
05f7
cafe
2413
5555
f7b8
0523
cafe
280c
5555
f7b8
0658
cafe
2c1c
5555
f7b8
0635
cafe
3004
5555
-
f7b8
06b6
cafe
3414
5555
f7bc
058b
cafe
380d
5555
f7bc
06ab
cafe
3c1d
5555
f7bc
0627
cafe
2005
5555
f7bc
0660
cafe
2415
5555
f7c0
063f
cafe
280e
5555
f7c0
056d
cafe
2c1e
5555
f7c0
06a2
cafe
3006
5555
f7c0
0763
cafe
3416
5555
f7c4
055d
cafe
380f
5555
f7c4
05dc
cafe
3c1f
5555
f7c4
0565
cafe
2007
5555
f7c4
052b
cafe
2417
5555
f7c8
04e9
cafe
2808
5555
f7c8
05a8
cafe
2c18
5555
f7c8
05ad
cafe
3000
5555
f7c8
050f
cafe
3410
5555
f7cc
06b6
cafe
3809
5555
f7cc
066d
cafe
3c19
5555
f7cc
066b
cafe
2001
5555
f7cc
05ce
cafe
2411
5555
f7d0
06c8
cafe
280a
5555
f7d0
0610
cafe
2c1a
5555
f7d0
05ff
cafe
3002
5555
f7d0
063d
cafe
3412
5555
f7d4
0609
cafe
380b
5555
f7d4
05b7
cafe
3c1b
5555
f7d4
063f
cafe
2003
5555
f7d4
05e9
cafe
2413
5555
f7d8
0517
cafe
280c
5555
f7d8
0648
cafe
2c1c
5555
f7d8
0625
cafe
3004
5555
f7d8
069e
cafe
3414
5555
f7dc
0578
cafe
380d
5555
f7dc
069b
cafe
3c1d
5555
f7dc
0627
cafe
2005
5555
f7dc
0652
cafe
2415
5555
f7e0
0619
cafe
280e
5555
f7e0
0548
cafe
2c1e
5555
f7e0
0693
cafe
3006
5555
f7e0
0736
cafe
3416
5555
f7e4
0558
cafe
380f
5555
f7e4
05d9
cafe
3c1f
5555
f7e4
054c
cafe
2007
5555
f7e4
0503
cafe
2417
5555
f7e8
04d6
cafe
2808
5555
f7e8
0593
cafe
2c18
5555
f7e8
05b5
cafe
3000
5555
f7e8
04f5
cafe
3410
5555
f7ec
06a1
cafe
3809
5555
f7ec
0668
cafe
3c19
5555
f7ec
-
064a
cafe
2001
5555
f7ec
05cb
cafe
2411
5555
f7f0
06c6
cafe
280a
5555
f7f0
05f4
cafe
2c1a
5555
f7f0
05f9
cafe
3002
5555
f7f0
0625
cafe
3412
5555
f7f4
0602
cafe
380b
5555
f7f4
059f
cafe
3c1b
5555
f7f4
062e
cafe
2003
5555
f7f4
05de
cafe
2413
5555
f7f8
0510
cafe
280c
5555
f7f8
061c
cafe
2c1c
5555
f7f8
05fb
cafe
3004
5555
f7f8
066f
cafe
3414
5555
f7fc
055c
cafe
380d
5555
f7fc
0689
cafe
3c1d
5555
f7fc
0610
cafe
2005
5555
f7fc
063e
cafe
2415
5555
f800
05f2
cafe
280e
5555
f800
0539
cafe
2c1e
5555
f800
0694
cafe
3006
5555
f800
073e
cafe
3416
5555
f804
0545
cafe
380f
5555
f804
05ca
cafe
3c1f
5555
f804
0541
cafe
2007
5555
f804
04fe
cafe
2417
5555
f808
04ba
cafe
2808
5555
f808
0573
cafe
2c18
5555
f808
0598
cafe
3000
5555
f808
04d5
cafe
3410
5555
f80c
068e
cafe
3809
5555
f80c
065a
cafe
3c19
5555
f80c
063e
cafe
2001
5555
f80c
05aa
cafe
2411
5555
f810
06a8
cafe
280a
5555
f810
05e1
cafe
2c1a
5555
f810
05d7
cafe
3002
5555
f810
060a
cafe
3412
5555
f814
05d8
cafe
380b
5555
f814
058a
cafe
3c1b
5555
f814
0633
cafe
2003
5555
f814
05bf
cafe
2413
5555
f818
04eb
cafe
280c
5555
f818
061f
cafe
2c1c
5555
f818
05ec
cafe
3004
5555
f818
065d
cafe
3414
5555
f81c
0545
cafe
380d
5555
f81c
0685
cafe
3c1d
5555
f81c
05f3
cafe
2005
5555
f81c
0641
cafe
2415
5555
f820
0600
cafe
280e
5555
f820
0539
-
cafe
2c1e
5555
f820
0664
cafe
3006
5555
f820
0725
cafe
3416
5555
f824
051c
cafe
380f
5555
f824
0593
cafe
3c1f
5555
f824
0522
cafe
2007
5555
f824
04f0
cafe
2417
5555
f828
04c0
cafe
2808
5555
f828
0558
cafe
2c18
5555
f828
0589
cafe
3000
5555
f828
04b8
cafe
3410
5555
f82c
066c
cafe
3809
5555
f82c
0649
cafe
3c19
5555
f82c
062c
cafe
2001
5555
f82c
05c1
cafe
2411
5555
f830
0699
cafe
280a
5555
f830
05cf
cafe
2c1a
5555
f830
05d3
cafe
3002
5555
f830
0606
cafe
3412
5555
f834
05cc
cafe
380b
5555
f834
057c
cafe
3c1b
5555
f834
061b
cafe
2003
5555
f834
059f
cafe
2413
5555
f838
04eb
cafe
280c
5555
f838
0603
cafe
2c1c
5555
f838
05f0
cafe
3004
5555
f838
0641
cafe
3414
5555
f83c
0542
cafe
380d
5555
f83c
0675
cafe
3c1d
5555
f83c
05dd
cafe
2005
5555
f83c
062a
cafe
2415
5555
f840
05eb
cafe
280e
5555
f840
051c
cafe
2c1e
5555
f840
0669
cafe
3006
5555
f840
0719
cafe
3416
5555
f844
0501
cafe
380f
5555
f844
0591
cafe
3c1f
5555
f844
0520
cafe
2007
5555
f844
04dc
cafe
2417
5555
f848
04a2
cafe
2808
5555
f848
055f
cafe
2c18
5555
f848
057a
cafe
3000
5555
f848
04c8
cafe
3410
5555
f84c
0675
cafe
3809
5555
f84c
061e
cafe
3c19
5555
f84c
0615
cafe
2001
5555
f84c
058a
cafe
2411
5555
f850
0678
cafe
280a
5555
f850
05bb
cafe
2c1a
5555
f850
05c9
cafe
3002
5555
f850
05f9
cafe
3412
5555
f854
05c4
cafe
-
