380b
5555
d074
0155
cafe
3c1b
5555
d074
01ab
cafe
2003
5555
d074
00fd
cafe
2413
5555
d078
014f
cafe
280c
5555
d078
014b
cafe
2c1c
5555
d078
0176
cafe
3004
5555
d078
0186
cafe
3414
5555
d07c
0167
cafe
380d
5555
d07c
014b
cafe
3c1d
5555
d07c
0119
cafe
2005
5555
d07c
01ea
cafe
2415
5555
d080
0122
cafe
280e
5555
d080
0130
cafe
2c1e
5555
d080
0162
cafe
3006
5555
d080
01c8
cafe
3416
5555
d084
01f0
cafe
380f
5555
d084
0240
cafe
3c1f
5555
d084
01c8
cafe
2007
5555
d084
0140
cafe
2417
5555
d088
018c
cafe
2808
5555
d088
0190
cafe
2c18
5555
d088
01a7
cafe
3000
5555
d088
018a
cafe
3410
5555
d08c
018d
cafe
3809
5555
d08c
0179
cafe
3c19
5555
d08c
0193
cafe
2001
5555
d08c
01d2
cafe
2411
5555
d090
0178
cafe
280a
5555
d090
017f
cafe
2c1a
5555
d090
014f
cafe
3002
5555
d090
0184
cafe
3412
5555
d094
01c7
cafe
380b
5555
d094
0161
cafe
3c1b
5555
d094
01a4
cafe
2003
5555
d094
00fe
cafe
2413
5555
d098
0153
cafe
280c
5555
d098
0151
cafe
2c1c
5555
d098
0169
cafe
3004
5555
d098
018b
cafe
3414
5555
d09c
015e
cafe
380d
5555
d09c
013e
cafe
3c1d
5555
d09c
0117
cafe
2005
5555
d09c
01e9
cafe
2415
5555
d0a0
011a
cafe
280e
5555
d0a0
0121
cafe
2c1e
5555
d0a0
0169
cafe
3006
5555
d0a0
01c8
cafe
3416
5555
d0a4
01df
cafe
380f
5555
d0a4
0242
cafe
3c1f
5555
d0a4
01d7
cafe
2007
5555
d0a4
0155
cafe
2417
-
5555
d0a8
0177
cafe
2808
5555
d0a8
019d
cafe
2c18
5555
d0a8
01b8
cafe
3000
5555
d0a8
0193
cafe
3410
5555
d0ac
018e
cafe
3809
5555
d0ac
0164
cafe
3c19
5555
d0ac
01a6
cafe
2001
5555
d0ac
01c8
cafe
2411
5555
d0b0
0177
cafe
280a
5555
d0b0
016d
cafe
2c1a
5555
d0b0
014a
cafe
3002
5555
d0b0
017a
cafe
3412
5555
d0b4
01c1
cafe
380b
5555
d0b4
0167
cafe
3c1b
5555
d0b4
01ac
cafe
2003
5555
d0b4
010e
cafe
2413
5555
d0b8
0151
cafe
280c
5555
d0b8
014a
cafe
2c1c
5555
d0b8
016f
cafe
3004
5555
d0b8
017b
cafe
3414
5555
d0bc
015b
cafe
380d
5555
d0bc
0147
cafe
3c1d
5555
d0bc
010f
cafe
2005
5555
d0bc
01f1
cafe
2415
5555
d0c0
011b
cafe
280e
5555
d0c0
0125
cafe
2c1e
5555
d0c0
015b
cafe
3006
5555
d0c0
01d7
cafe
3416
5555
d0c4
01f4
cafe
380f
5555
d0c4
0241
cafe
3c1f
5555
d0c4
01d6
cafe
2007
5555
d0c4
0153
cafe
2417
5555
d0c8
0170
cafe
2808
5555
d0c8
0189
cafe
2c18
5555
d0c8
01af
cafe
3000
5555
d0c8
0187
cafe
3410
5555
d0cc
018a
cafe
3809
5555
d0cc
0168
cafe
3c19
5555
d0cc
019b
cafe
2001
5555
d0cc
01db
cafe
2411
5555
d0d0
0179
cafe
280a
5555
d0d0
017b
cafe
2c1a
5555
d0d0
0149
cafe
3002
5555
d0d0
017e
cafe
3412
5555
d0d4
01d5
cafe
380b
5555
d0d4
016f
cafe
3c1b
5555
d0d4
01b8
cafe
2003
5555
d0d4
0110
cafe
2413
5555
d0d8
0169
cafe
280c
5555
d0d8
0151
cafe
2c1c
5555
d0d8
0178
cafe
3004
5555
-
d0d8
0175
cafe
3414
5555
d0dc
016a
cafe
380d
5555
d0dc
0134
cafe
3c1d
5555
d0dc
010b
cafe
2005
5555
d0dc
01f3
cafe
2415
5555
d0e0
0111
cafe
280e
5555
d0e0
011f
cafe
2c1e
5555
d0e0
0152
cafe
3006
5555
d0e0
01d6
cafe
3416
5555
d0e4
01ed
cafe
380f
5555
d0e4
023b
cafe
3c1f
5555
d0e4
01d2
cafe
2007
5555
d0e4
0151
cafe
2417
5555
d0e8
0176
cafe
2808
5555
d0e8
019d
cafe
2c18
5555
d0e8
01ac
cafe
3000
5555
d0e8
018b
cafe
3410
5555
d0ec
018e
cafe
3809
5555
d0ec
016b
cafe
3c19
5555
d0ec
01a6
cafe
2001
5555
d0ec
01c7
cafe
2411
5555
d0f0
0187
cafe
280a
5555
d0f0
017d
cafe
2c1a
5555
d0f0
014f
cafe
3002
5555
d0f0
016f
cafe
3412
5555
d0f4
01bf
cafe
380b
5555
d0f4
0159
cafe
3c1b
5555
d0f4
01a3
cafe
2003
5555
d0f4
00fc
cafe
2413
5555
d0f8
0150
cafe
280c
5555
d0f8
014e
cafe
2c1c
5555
d0f8
0175
cafe
3004
5555
d0f8
0177
cafe
3414
5555
d0fc
0162
cafe
380d
5555
d0fc
0132
cafe
3c1d
5555
d0fc
0103
cafe
2005
5555
d0fc
01fb
cafe
2415
5555
d100
0127
cafe
280e
5555
d100
0131
cafe
2c1e
5555
d100
016d
cafe
3006
5555
d100
01cc
cafe
3416
5555
d104
01e8
cafe
380f
5555
d104
0253
cafe
3c1f
5555
d104
01d4
cafe
2007
5555
d104
0160
cafe
2417
5555
d108
017b
cafe
2808
5555
d108
0190
cafe
2c18
5555
d108
01aa
cafe
3000
5555
d108
01a7
cafe
3410
5555
d10c
0194
cafe
3809
5555
d10c
0168
cafe
3c19
5555
d10c
-
01a8
cafe
2001
5555
d10c
01d9
cafe
2411
5555
d110
017f
cafe
280a
5555
d110
0186
cafe
2c1a
5555
d110
0155
cafe
3002
5555
d110
0184
cafe
3412
5555
d114
01cf
cafe
380b
5555
d114
0169
cafe
3c1b
5555
d114
01a7
cafe
2003
5555
d114
00f5
cafe
2413
5555
d118
014e
cafe
280c
5555
d118
015e
cafe
2c1c
5555
d118
016e
cafe
3004
5555
d118
017b
cafe
3414
5555
d11c
0151
cafe
380d
5555
d11c
0129
cafe
3c1d
5555
d11c
00fa
cafe
2005
5555
d11c
01f0
cafe
2415
5555
d120
0116
cafe
280e
5555
d120
0120
cafe
2c1e
5555
d120
0152
cafe
3006
5555
d120
01ce
cafe
3416
5555
d124
01ed
cafe
380f
5555
d124
0239
cafe
3c1f
5555
d124
01d2
cafe
2007
5555
d124
013f
cafe
2417
5555
d128
017a
cafe
2808
5555
d128
0186
cafe
2c18
5555
d128
01bd
cafe
3000
5555
d128
017d
cafe
3410
5555
d12c
0186
cafe
3809
5555
d12c
015d
cafe
3c19
5555
d12c
019a
cafe
2001
5555
d12c
01db
cafe
2411
5555
d130
017c
cafe
280a
5555
d130
0189
cafe
2c1a
5555
d130
014b
cafe
3002
5555
d130
017b
cafe
3412
5555
d134
01c3
cafe
380b
5555
d134
014f
cafe
3c1b
5555
d134
01b2
cafe
2003
5555
d134
00f5
cafe
2413
5555
d138
0149
cafe
280c
5555
d138
0156
cafe
2c1c
5555
d138
0174
cafe
3004
5555
d138
016c
cafe
3414
5555
d13c
015f
cafe
380d
5555
d13c
012d
cafe
3c1d
5555
d13c
00f9
cafe
2005
5555
d13c
0200
cafe
2415
5555
d140
0124
cafe
280e
5555
d140
011f
-
cafe
2c1e
5555
d140
0166
cafe
3006
5555
d140
01cf
cafe
3416
5555
d144
01e7
cafe
380f
5555
d144
024f
cafe
3c1f
5555
d144
01ca
cafe
2007
5555
d144
0152
cafe
2417
5555
d148
0171
cafe
2808
5555
d148
018b
cafe
2c18
5555
d148
01ad
cafe
3000
5555
d148
016c
cafe
3410
5555
d14c
019e
cafe
3809
5555
d14c
0152
cafe
3c19
5555
d14c
01a7
cafe
2001
5555
d14c
01c8
cafe
2411
5555
d150
0185
cafe
280a
5555
d150
0180
cafe
2c1a
5555
d150
015d
cafe
3002
5555
d150
0164
cafe
3412
5555
d154
01cc
cafe
380b
5555
d154
0160
cafe
3c1b
5555
d154
01a5
cafe
2003
5555
d154
00f9
cafe
2413
5555
d158
0144
cafe
280c
5555
d158
0161
cafe
2c1c
5555
d158
0170
cafe
3004
5555
d158
0173
cafe
3414
5555
d15c
015b
cafe
380d
5555
d15c
0133
cafe
3c1d
5555
d15c
00e9
cafe
2005
5555
d15c
01f5
cafe
2415
5555
d160
012a
cafe
280e
5555
d160
0128
cafe
2c1e
5555
d160
0163
cafe
3006
5555
d160
01da
cafe
3416
5555
d164
01dc
cafe
380f
5555
d164
0246
cafe
3c1f
5555
d164
01d9
cafe
2007
5555
d164
0144
cafe
2417
5555
d168
017d
cafe
2808
5555
d168
019d
cafe
2c18
5555
d168
01b1
cafe
3000
5555
d168
018e
cafe
3410
5555
d16c
017d
cafe
3809
5555
d16c
0161
cafe
3c19
5555
d16c
01a2
cafe
2001
5555
d16c
01c7
cafe
2411
5555
d170
0182
cafe
280a
5555
d170
017d
cafe
2c1a
5555
d170
0147
cafe
3002
5555
d170
0177
cafe
3412
5555
d174
01ca
cafe
-
380b
5555
d174
0158
cafe
3c1b
5555
d174
01be
cafe
2003
5555
d174
0108
cafe
2413
5555
d178
015a
cafe
280c
5555
d178
0163
cafe
2c1c
5555
d178
017c
cafe
3004
5555
d178
0189
cafe
3414
5555
d17c
015c
cafe
380d
5555
d17c
012f
cafe
3c1d
5555
d17c
00f4
cafe
2005
5555
d17c
020c
cafe
2415
5555
d180
0131
cafe
280e
5555
d180
0125
cafe
2c1e
5555
d180
0154
cafe
3006
5555
d180
01df
cafe
3416
5555
d184
01de
cafe
380f
5555
d184
0252
cafe
3c1f
5555
d184
01df
cafe
2007
5555
d184
013b
cafe
2417
5555
d188
017f
cafe
2808
5555
d188
01a4
cafe
2c18
5555
d188
01b2
cafe
3000
5555
d188
0174
cafe
3410
5555
d18c
0183
cafe
3809
5555
d18c
015c
cafe
3c19
5555
d18c
01a2
cafe
2001
5555
d18c
01cd
cafe
2411
5555
d190
0187
cafe
280a
5555
d190
0184
cafe
2c1a
5555
d190
014d
cafe
3002
5555
d190
0178
cafe
3412
5555
d194
01c1
cafe
380b
5555
d194
0169
cafe
3c1b
5555
d194
01af
cafe
2003
5555
d194
010a
cafe
2413
5555
d198
0148
cafe
280c
5555
d198
0166
cafe
2c1c
5555
d198
0171
cafe
3004
5555
d198
0181
cafe
3414
5555
d19c
0166
cafe
380d
5555
d19c
012d
cafe
3c1d
5555
d19c
0101
cafe
2005
5555
d19c
0201
cafe
2415
5555
d1a0
0127
cafe
280e
5555
d1a0
0135
cafe
2c1e
5555
d1a0
0161
cafe
3006
5555
d1a0
01d9
cafe
3416
5555
d1a4
01dc
cafe
380f
5555
d1a4
0233
cafe
3c1f
5555
d1a4
01fc
cafe
2007
5555
d1a4
014e
cafe
2417
-
5555
d1a8
017f
cafe
2808
5555
d1a8
01ac
cafe
2c18
5555
d1a8
01be
cafe
3000
5555
d1a8
0192
cafe
3410
5555
d1ac
0185
cafe
3809
5555
d1ac
014a
cafe
3c19
5555
d1ac
019e
cafe
2001
5555
d1ac
01e5
cafe
2411
5555
d1b0
0187
cafe
280a
5555
d1b0
0188
cafe
2c1a
5555
d1b0
0147
cafe
3002
5555
d1b0
0183
cafe
3412
5555
d1b4
01c3
cafe
380b
5555
d1b4
0164
cafe
3c1b
5555
d1b4
01af
cafe
2003
5555
d1b4
0110
cafe
2413
5555
d1b8
0154
cafe
280c
5555
d1b8
0165
cafe
2c1c
5555
d1b8
0184
cafe
3004
5555
d1b8
0186
cafe
3414
5555
d1bc
0158
cafe
380d
5555
d1bc
0133
cafe
3c1d
5555
d1bc
00f5
cafe
2005
5555
d1bc
01e1
cafe
2415
5555
d1c0
0127
cafe
280e
5555
d1c0
011b
cafe
2c1e
5555
d1c0
015d
cafe
3006
5555
d1c0
01dc
cafe
3416
5555
d1c4
01cf
cafe
380f
5555
d1c4
0239
cafe
3c1f
5555
d1c4
01e1
cafe
2007
5555
d1c4
0150
cafe
2417
5555
d1c8
0178
cafe
2808
5555
d1c8
0199
cafe
2c18
5555
d1c8
01a3
cafe
3000
5555
d1c8
0186
cafe
3410
5555
d1cc
0184
cafe
3809
5555
d1cc
014f
cafe
3c19
5555
d1cc
01a5
cafe
2001
5555
d1cc
01bf
cafe
2411
5555
d1d0
0182
cafe
280a
5555
d1d0
0180
cafe
2c1a
5555
d1d0
014f
cafe
3002
5555
d1d0
0184
cafe
3412
5555
d1d4
01b4
cafe
380b
5555
d1d4
0161
cafe
3c1b
5555
d1d4
019e
cafe
2003
5555
d1d4
010b
cafe
2413
5555
d1d8
015d
cafe
280c
5555
d1d8
0153
cafe
2c1c
5555
d1d8
018a
cafe
3004
5555
-
d1d8
0177
cafe
3414
5555
d1dc
0175
cafe
380d
5555
d1dc
012b
cafe
3c1d
5555
d1dc
0104
cafe
2005
5555
d1dc
01e9
cafe
2415
5555
d1e0
0110
cafe
280e
5555
d1e0
0130
cafe
2c1e
5555
d1e0
0160
cafe
3006
5555
d1e0
01c5
cafe
3416
5555
d1e4
01d4
cafe
380f
5555
d1e4
0243
cafe
3c1f
5555
d1e4
01e3
cafe
2007
5555
d1e4
0157
cafe
2417
5555
d1e8
017d
cafe
2808
5555
d1e8
01a1
cafe
2c18
5555
d1e8
01bc
cafe
3000
5555
d1e8
0182
cafe
3410
5555
d1ec
0185
cafe
3809
5555
d1ec
014d
cafe
3c19
5555
d1ec
019a
cafe
2001
5555
d1ec
01cf
cafe
2411
5555
d1f0
0183
cafe
280a
5555
d1f0
018b
cafe
2c1a
5555
d1f0
013a
cafe
3002
5555
d1f0
017d
cafe
3412
5555
d1f4
01ce
cafe
380b
5555
d1f4
0157
cafe
3c1b
5555
d1f4
01ad
cafe
2003
5555
d1f4
0117
cafe
2413
5555
d1f8
013d
cafe
280c
5555
d1f8
014a
cafe
2c1c
5555
d1f8
017c
cafe
3004
5555
d1f8
016e
cafe
3414
5555
d1fc
016e
cafe
380d
5555
d1fc
0120
cafe
3c1d
5555
d1fc
00f7
cafe
2005
5555
d1fc
01e8
cafe
2415
5555
d200
010d
cafe
280e
5555
d200
0121
cafe
2c1e
5555
d200
0157
cafe
3006
5555
d200
01c8
cafe
3416
5555
d204
01d9
cafe
380f
5555
d204
0245
cafe
3c1f
5555
d204
01de
cafe
2007
5555
d204
014a
cafe
2417
5555
d208
0182
cafe
2808
5555
d208
019a
cafe
2c18
5555
d208
01c1
cafe
3000
5555
d208
018a
cafe
3410
5555
d20c
018e
cafe
3809
5555
d20c
014d
cafe
3c19
5555
d20c
-
019f
cafe
2001
5555
d20c
01d4
cafe
2411
5555
d210
0172
cafe
280a
5555
d210
0186
cafe
2c1a
5555
d210
0136
cafe
3002
5555
d210
0170
cafe
3412
5555
d214
01aa
cafe
380b
5555
d214
0169
cafe
3c1b
5555
d214
01bc
cafe
2003
5555
d214
010d
cafe
2413
5555
d218
0150
cafe
280c
5555
d218
014e
cafe
2c1c
5555
d218
0175
cafe
3004
5555
d218
017d
cafe
3414
5555
d21c
016b
cafe
380d
5555
d21c
0126
cafe
3c1d
5555
d21c
00ef
cafe
2005
5555
d21c
01f1
cafe
2415
5555
d220
0122
cafe
280e
5555
d220
0125
cafe
2c1e
5555
d220
0158
cafe
3006
5555
d220
01cd
cafe
3416
5555
d224
01e4
cafe
380f
5555
d224
023a
cafe
3c1f
5555
d224
01e1
cafe
2007
5555
d224
0146
cafe
2417
5555
d228
017b
cafe
2808
5555
d228
01ae
cafe
2c18
5555
d228
01a7
cafe
3000
5555
d228
017b
cafe
3410
5555
d22c
018a
cafe
3809
5555
d22c
0155
cafe
3c19
5555
d22c
019a
cafe
2001
5555
d22c
01d7
cafe
2411
5555
d230
0176
cafe
280a
5555
d230
0182
cafe
2c1a
5555
d230
0151
cafe
3002
5555
d230
0181
cafe
3412
5555
d234
01b7
cafe
380b
5555
d234
0170
cafe
3c1b
5555
d234
01ae
cafe
2003
5555
d234
0101
cafe
2413
5555
d238
0157
cafe
280c
5555
d238
0151
cafe
2c1c
5555
d238
0177
cafe
3004
5555
d238
0177
cafe
3414
5555
d23c
0169
cafe
380d
5555
d23c
0129
cafe
3c1d
5555
d23c
0102
cafe
2005
5555
d23c
01df
cafe
2415
5555
d240
0122
cafe
280e
5555
d240
011d
-
cafe
2c1e
5555
d240
014d
cafe
3006
5555
d240
01bd
cafe
3416
5555
d244
01c9
cafe
380f
5555
d244
023e
cafe
3c1f
5555
d244
01d7
cafe
2007
5555
d244
0143
cafe
2417
5555
d248
0181
cafe
2808
5555
d248
01a7
cafe
2c18
5555
d248
01b6
cafe
3000
5555
d248
0170
cafe
3410
5555
d24c
0195
cafe
3809
5555
d24c
0160
cafe
3c19
5555
d24c
0192
cafe
2001
5555
d24c
01d5
cafe
2411
5555
d250
017a
cafe
280a
5555
d250
018a
cafe
2c1a
5555
d250
0149
cafe
3002
5555
d250
0189
cafe
3412
5555
d254
01c4
cafe
380b
5555
d254
0172
cafe
3c1b
5555
d254
01c5
cafe
2003
5555
d254
010c
cafe
2413
5555
d258
015c
cafe
280c
5555
d258
0172
cafe
2c1c
5555
d258
0177
cafe
3004
5555
d258
0185
cafe
3414
5555
d25c
0156
cafe
380d
5555
d25c
0127
cafe
3c1d
5555
d25c
00ff
cafe
2005
5555
d25c
01de
cafe
2415
5555
d260
011d
cafe
280e
5555
d260
0122
cafe
2c1e
5555
d260
0150
cafe
3006
5555
d260
01cc
cafe
3416
5555
d264
01d9
cafe
380f
5555
d264
024a
cafe
3c1f
5555
d264
01d2
cafe
2007
5555
d264
0151
cafe
2417
5555
d268
017f
cafe
2808
5555
d268
0190
cafe
2c18
5555
d268
01ae
cafe
3000
5555
d268
0161
cafe
3410
5555
d26c
018c
cafe
3809
5555
d26c
0168
cafe
3c19
5555
d26c
0195
cafe
2001
5555
d26c
01bc
cafe
2411
5555
d270
017f
cafe
280a
5555
d270
016c
cafe
2c1a
5555
d270
0140
cafe
3002
5555
d270
0185
cafe
3412
5555
d274
01ac
cafe
-
380b
5555
d274
017b
cafe
3c1b
5555
d274
01a5
cafe
2003
5555
d274
010c
cafe
2413
5555
d278
0164
cafe
280c
5555
d278
0155
cafe
2c1c
5555
d278
0184
cafe
3004
5555
d278
0189
cafe
3414
5555
d27c
014c
cafe
380d
5555
d27c
0135
cafe
3c1d
5555
d27c
00fe
cafe
2005
5555
d27c
01df
cafe
2415
5555
d280
012d
cafe
280e
5555
d280
012e
cafe
2c1e
5555
d280
0153
cafe
3006
5555
d280
01cc
cafe
3416
5555
d284
01e5
cafe
380f
5555
d284
0243
cafe
3c1f
5555
d284
01d8
cafe
2007
5555
d284
014b
cafe
2417
5555
d288
0176
cafe
2808
5555
d288
01a6
cafe
2c18
5555
d288
01b3
cafe
3000
5555
d288
016b
cafe
3410
5555
d28c
019c
cafe
3809
5555
d28c
0166
cafe
3c19
5555
d28c
01a4
cafe
2001
5555
d28c
01d5
cafe
2411
5555
d290
0181
cafe
280a
5555
d290
017a
cafe
2c1a
5555
d290
012d
cafe
3002
5555
d290
0175
cafe
3412
5555
d294
01ba
cafe
380b
5555
d294
015d
cafe
3c1b
5555
d294
019c
cafe
2003
5555
d294
0126
cafe
2413
5555
d298
0146
cafe
280c
5555
d298
0159
cafe
2c1c
5555
d298
0177
cafe
3004
5555
d298
017c
cafe
3414
5555
d29c
014f
cafe
380d
5555
d29c
010c
cafe
3c1d
5555
d29c
00f9
cafe
2005
5555
d29c
01d3
cafe
2415
5555
d2a0
0124
cafe
280e
5555
d2a0
0416
cafe
2c1e
5555
d2a0
0439
cafe
3006
5555
d2a0
04c5
cafe
3416
5555
d2a4
04ca
cafe
380f
5555
d2a4
08f4
cafe
3c1f
5555
d2a4
0890
cafe
2007
5555
d2a4
0805
cafe
2417
-
5555
d2a8
0847
cafe
2808
5555
d2a8
093b
cafe
2c18
5555
d2a8
095a
cafe
3000
5555
d2a8
0935
cafe
3410
5555
d2ac
094a
cafe
3809
5555
d2ac
091f
cafe
3c19
5555
d2ac
0964
cafe
2001
5555
d2ac
09ac
cafe
2411
5555
d2b0
0938
cafe
280a
5555
d2b0
094e
cafe
2c1a
5555
d2b0
090e
cafe
3002
5555
d2b0
0942
cafe
3412
5555
d2b4
098b
cafe
380b
5555
d2b4
0902
cafe
3c1b
5555
d2b4
094b
cafe
2003
5555
d2b4
08ac
cafe
2413
5555
d2b8
08fd
cafe
280c
5555
d2b8
08f4
cafe
2c1c
5555
d2b8
0927
cafe
3004
5555
d2b8
0924
cafe
3414
5555
d2bc
0907
cafe
380d
5555
d2bc
08a8
cafe
3c1d
5555
d2bc
0888
cafe
2005
5555
d2bc
0967
cafe
2415
5555
d2c0
08b9
cafe
280e
5555
d2c0
08b2
cafe
2c1e
5555
d2c0
08ee
cafe
3006
5555
d2c0
0948
cafe
3416
5555
d2c4
0967
cafe
380f
5555
d2c4
09a0
cafe
3c1f
5555
d2c4
0955
cafe
2007
5555
d2c4
08ae
cafe
2417
5555
d2c8
08da
cafe
2808
5555
d2c8
08f6
cafe
2c18
5555
d2c8
0905
cafe
3000
5555
d2c8
08da
cafe
3410
5555
d2cc
08ff
cafe
3809
5555
d2cc
08ac
cafe
3c19
5555
d2cc
08ea
cafe
2001
5555
d2cc
0923
cafe
2411
5555
d2d0
08cd
cafe
280a
5555
d2d0
08c8
cafe
2c1a
5555
d2d0
087d
cafe
3002
5555
d2d0
08bb
cafe
3412
5555
d2d4
0904
cafe
380b
5555
d2d4
0887
cafe
3c1b
5555
d2d4
08d2
cafe
2003
5555
d2d4
0827
cafe
2413
5555
d2d8
087f
cafe
280c
5555
d2d8
0867
cafe
2c1c
5555
d2d8
08a4
cafe
3004
5555
-
d2d8
08a8
cafe
3414
5555
d2dc
0892
cafe
380d
5555
d2dc
083b
cafe
3c1d
5555
d2dc
0815
cafe
2005
5555
d2dc
0909
cafe
2415
5555
d2e0
082a
cafe
280e
5555
d2e0
0830
cafe
2c1e
5555
d2e0
0881
cafe
3006
5555
d2e0
08d2
cafe
3416
5555
d2e4
08f8
cafe
380f
5555
d2e4
0931
cafe
3c1f
5555
d2e4
08e3
cafe
2007
5555
d2e4
082b
cafe
2417
5555
d2e8
0868
cafe
2808
5555
d2e8
087c
cafe
2c18
5555
d2e8
088c
cafe
3000
5555
d2e8
0865
cafe
3410
5555
d2ec
0889
cafe
3809
5555
d2ec
083b
cafe
3c19
5555
d2ec
0887
cafe
2001
5555
d2ec
08c5
cafe
2411
5555
d2f0
0861
cafe
280a
5555
d2f0
084b
cafe
2c1a
5555
d2f0
0808
cafe
3002
5555
d2f0
0844
cafe
3412
5555
d2f4
0887
cafe
380b
5555
d2f4
0817
cafe
3c1b
5555
d2f4
0854
cafe
2003
5555
d2f4
079f
cafe
2413
5555
d2f8
07ff
cafe
280c
5555
d2f8
07fb
cafe
2c1c
5555
d2f8
0847
cafe
3004
5555
d2f8
0827
cafe
3414
5555
d2fc
081c
cafe
380d
5555
d2fc
07ae
cafe
3c1d
5555
d2fc
0785
cafe
2005
5555
d2fc
08a0
cafe
2415
5555
d300
07c4
cafe
280e
5555
d300
07b4
cafe
2c1e
5555
d300
07fc
cafe
3006
5555
d300
084b
cafe
3416
5555
d304
0882
cafe
380f
5555
d304
08bd
cafe
3c1f
5555
d304
086c
cafe
2007
5555
d304
07b9
cafe
2417
5555
d308
0802
cafe
2808
5555
d308
0810
cafe
2c18
5555
d308
0825
cafe
3000
5555
d308
07dd
cafe
3410
5555
d30c
081f
cafe
3809
5555
d30c
07a7
cafe
3c19
5555
d30c
-
0800
cafe
2001
5555
d30c
083f
cafe
2411
5555
d310
07e0
cafe
280a
5555
d310
07d1
cafe
2c1a
5555
d310
0785
cafe
3002
5555
d310
07c8
cafe
3412
5555
d314
081a
cafe
380b
5555
d314
07b1
cafe
3c1b
5555
d314
07eb
cafe
2003
5555
d314
0731
cafe
2413
5555
d318
0794
cafe
280c
5555
d318
0787
cafe
2c1c
5555
d318
07cf
cafe
3004
5555
d318
07b5
cafe
3414
5555
d31c
07bd
cafe
380d
5555
d31c
0745
cafe
3c1d
5555
d31c
0718
cafe
2005
5555
d31c
0818
cafe
2415
5555
d320
0738
cafe
280e
5555
d320
0748
cafe
2c1e
5555
d320
078c
cafe
3006
5555
d320
07de
cafe
3416
5555
d324
080e
cafe
380f
5555
d324
0853
cafe
3c1f
5555
d324
0802
cafe
2007
5555
d324
0747
cafe
2417
5555
d328
078a
cafe
2808
5555
d328
07a0
cafe
2c18
5555
d328
07ac
cafe
3000
5555
d328
077e
cafe
3410
5555
d32c
0799
cafe
3809
5555
d32c
0745
cafe
3c19
5555
d32c
07a2
cafe
2001
5555
d32c
07db
cafe
2411
5555
d330
077b
cafe
280a
5555
d330
076a
cafe
2c1a
5555
d330
0716
cafe
3002
5555
d330
073d
cafe
3412
5555
d334
07ad
cafe
380b
5555
d334
0741
cafe
3c1b
5555
d334
0786
cafe
2003
5555
d334
06ae
cafe
2413
5555
d338
0729
cafe
280c
5555
d338
0721
cafe
2c1c
5555
d338
0751
cafe
3004
5555
d338
0753
cafe
3414
5555
d33c
0746
cafe
380d
5555
d33c
06d0
cafe
3c1d
5555
d33c
06a8
cafe
2005
5555
d33c
07a5
cafe
2415
5555
d340
06dc
cafe
280e
5555
d340
06d1
-
cafe
2c1e
5555
d340
0710
cafe
3006
5555
d340
076d
cafe
3416
5555
d344
0796
cafe
380f
5555
d344
07ec
cafe
3c1f
5555
d344
077c
cafe
2007
5555
d344
06ca
cafe
2417
5555
d348
0710
cafe
2808
5555
d348
0735
cafe
2c18
5555
d348
073c
cafe
3000
5555
d348
0707
cafe
3410
5555
d34c
073e
cafe
3809
5555
d34c
06e2
cafe
3c19
5555
d34c
073a
cafe
2001
5555
d34c
077b
cafe
2411
5555
d350
070b
cafe
280a
5555
d350
06ef
cafe
2c1a
5555
d350
06b9
cafe
3002
5555
d350
06d0
cafe
3412
5555
d354
0753
cafe
380b
5555
d354
06d9
cafe
3c1b
5555
d354
0706
cafe
2003
5555
d354
0643
cafe
2413
5555
d358
06b7
cafe
280c
5555
d358
06b8
cafe
2c1c
5555
d358
06fb
cafe
3004
5555
d358
06de
cafe
3414
5555
d35c
06c2
cafe
380d
5555
d35c
0683
cafe
3c1d
5555
d35c
063b
cafe
2005
5555
d35c
075a
cafe
2415
5555
d360
0678
cafe
280e
5555
d360
0664
cafe
2c1e
5555
d360
06bc
cafe
3006
5555
d360
070a
cafe
3416
5555
d364
073f
cafe
380f
5555
d364
0788
cafe
3c1f
5555
d364
0715
cafe
2007
5555
d364
0659
cafe
2417
5555
d368
06b4
cafe
2808
5555
d368
06c9
cafe
2c18
5555
d368
06db
cafe
3000
5555
d368
068d
cafe
3410
5555
d36c
06d3
cafe
3809
5555
d36c
067a
cafe
3c19
5555
d36c
06cd
cafe
2001
5555
d36c
0701
cafe
2411
5555
d370
069c
cafe
280a
5555
d370
068e
cafe
2c1a
5555
d370
063e
cafe
3002
5555
d370
0683
cafe
3412
5555
d374
06f1
cafe
-
380b
5555
d374
0685
cafe
3c1b
5555
d374
069f
cafe
2003
5555
d374
05c8
cafe
2413
5555
d378
0651
cafe
280c
5555
d378
0634
cafe
2c1c
5555
d378
067f
cafe
3004
5555
d378
066b
cafe
3414
5555
d37c
0677
cafe
380d
5555
d37c
0600
cafe
3c1d
5555
d37c
05dc
cafe
2005
5555
d37c
06f1
cafe
2415
5555
d380
0615
cafe
280e
5555
d380
05ff
cafe
2c1e
5555
d380
0643
cafe
3006
5555
d380
06b7
cafe
3416
5555
d384
06e8
cafe
380f
5555
d384
0722
cafe
3c1f
5555
d384
06bb
cafe
2007
5555
d384
0604
cafe
2417
5555
d388
0659
cafe
2808
5555
d388
0665
cafe
2c18
5555
d388
068c
cafe
3000
5555
d388
0636
cafe
3410
5555
d38c
067b
cafe
3809
5555
d38c
0613
cafe
3c19
5555
d38c
0661
cafe
2001
5555
d38c
06b1
cafe
2411
5555
d390
0657
cafe
280a
5555
d390
0637
cafe
2c1a
5555
d390
05ec
cafe
3002
5555
d390
0625
cafe
3412
5555
d394
0692
cafe
380b
5555
d394
0614
cafe
3c1b
5555
d394
064f
cafe
2003
5555
d394
0583
cafe
2413
5555
d398
05ee
cafe
280c
5555
d398
05dd
cafe
2c1c
5555
d398
062b
cafe
3004
5555
d398
0613
cafe
3414
5555
d39c
061b
cafe
380d
5555
d39c
05bd
cafe
3c1d
5555
d39c
0584
cafe
2005
5555
d39c
069c
cafe
2415
5555
d3a0
05b4
cafe
280e
5555
d3a0
05a7
cafe
2c1e
5555
d3a0
05f4
cafe
3006
5555
d3a0
064b
cafe
3416
5555
d3a4
0685
cafe
380f
5555
d3a4
06cc
cafe
3c1f
5555
d3a4
0667
cafe
2007
5555
d3a4
05ab
cafe
2417
-
5555
d3a8
05e9
cafe
2808
5555
d3a8
060a
cafe
2c18
5555
d3a8
062d
cafe
3000
5555
d3a8
05f1
cafe
3410
5555
d3ac
0600
cafe
3809
5555
d3ac
05c2
cafe
3c19
5555
d3ac
061a
cafe
2001
5555
d3ac
0650
cafe
2411
5555
d3b0
05f2
cafe
280a
5555
d3b0
05dc
cafe
2c1a
5555
d3b0
058c
cafe
3002
5555
d3b0
05d0
cafe
3412
5555
d3b4
062a
cafe
380b
5555
d3b4
05c0
cafe
3c1b
5555
d3b4
05ec
cafe
2003
5555
d3b4
0517
cafe
2413
5555
d3b8
0595
cafe
280c
5555
d3b8
0581
cafe
2c1c
5555
d3b8
05dc
cafe
3004
5555
d3b8
05c1
cafe
3414
5555
d3bc
05bb
cafe
380d
5555
d3bc
0558
cafe
3c1d
5555
d3bc
0537
cafe
2005
5555
d3bc
064c
cafe
2415
5555
d3c0
0557
cafe
280e
5555
d3c0
056d
cafe
2c1e
5555
d3c0
0587
cafe
3006
5555
d3c0
05f7
cafe
3416
5555
d3c4
062e
cafe
380f
5555
d3c4
067d
cafe
3c1f
5555
d3c4
0608
cafe
2007
5555
d3c4
054c
cafe
2417
5555
d3c8
058c
cafe
2808
5555
d3c8
05b8
cafe
2c18
5555
d3c8
05cd
cafe
3000
5555
d3c8
059a
cafe
3410
5555
d3cc
05c6
cafe
3809
5555
d3cc
056c
cafe
3c19
5555
d3cc
05cd
cafe
2001
5555
d3cc
05f7
cafe
2411
5555
d3d0
059a
cafe
280a
5555
d3d0
0591
cafe
2c1a
5555
d3d0
0531
cafe
3002
5555
d3d0
0572
cafe
3412
5555
d3d4
05da
cafe
380b
5555
d3d4
057e
cafe
3c1b
5555
d3d4
05a1
cafe
2003
5555
d3d4
04b2
cafe
2413
5555
d3d8
053f
cafe
280c
5555
d3d8
052c
cafe
2c1c
5555
d3d8
058d
cafe
3004
5555
-
d3d8
0563
cafe
3414
5555
d3dc
055d
cafe
380d
5555
d3dc
0507
cafe
3c1d
5555
d3dc
04db
cafe
2005
5555
d3dc
05e7
cafe
2415
5555
d3e0
0512
cafe
280e
5555
d3e0
050d
cafe
2c1e
5555
d3e0
0531
cafe
3006
5555
d3e0
05b5
cafe
3416
5555
d3e4
05e0
cafe
380f
5555
d3e4
062a
cafe
3c1f
5555
d3e4
05aa
cafe
2007
5555
d3e4
04f2
cafe
2417
5555
d3e8
0553
cafe
2808
5555
d3e8
0574
cafe
2c18
5555
d3e8
0580
cafe
3000
5555
d3e8
051d
cafe
3410
5555
d3ec
0570
cafe
3809
5555
d3ec
0516
cafe
3c19
5555
d3ec
0564
cafe
2001
5555
d3ec
05b1
cafe
2411
5555
d3f0
0559
cafe
280a
5555
d3f0
0532
cafe
2c1a
5555
d3f0
04fe
cafe
3002
5555
d3f0
051c
cafe
3412
5555
d3f4
0597
cafe
380b
5555
d3f4
0534
cafe
3c1b
5555
d3f4
0556
cafe
2003
5555
d3f4
047d
cafe
2413
5555
d3f8
04f0
cafe
280c
5555
d3f8
04e1
cafe
2c1c
5555
d3f8
052b
cafe
3004
5555
d3f8
0514
cafe
3414
5555
d3fc
0515
cafe
380d
5555
d3fc
04ba
cafe
3c1d
5555
d3fc
0494
cafe
2005
5555
d3fc
05ae
cafe
2415
5555
d400
04cb
cafe
280e
5555
d400
04d3
cafe
2c1e
5555
d400
04f7
cafe
3006
5555
d400
0557
cafe
3416
5555
d404
05ac
cafe
380f
5555
d404
05e3
cafe
3c1f
5555
d404
056b
cafe
2007
5555
d404
04c4
cafe
2417
5555
d408
050b
cafe
2808
5555
d408
0531
cafe
2c18
5555
d408
0557
cafe
3000
5555
d408
04f7
cafe
3410
5555
d40c
0530
cafe
3809
5555
d40c
04cd
cafe
3c19
5555
d40c
-
0525
cafe
2001
5555
d40c
0569
cafe
2411
5555
d410
0515
cafe
280a
5555
d410
04f4
cafe
2c1a
5555
d410
04b7
cafe
3002
5555
d410
04d9
cafe
3412
5555
d414
0552
cafe
380b
5555
d414
04ea
cafe
3c1b
5555
d414
050f
cafe
2003
5555
d414
042d
cafe
2413
5555
d418
04ab
cafe
280c
5555
d418
04a5
cafe
2c1c
5555
d418
04f5
cafe
3004
5555
d418
04bf
cafe
3414
5555
d41c
04db
cafe
380d
5555
d41c
046f
cafe
3c1d
5555
d41c
0433
cafe
2005
5555
d41c
056e
cafe
2415
5555
d420
047e
cafe
280e
5555
d420
0481
cafe
2c1e
5555
d420
04ac
cafe
3006
5555
d420
051b
cafe
3416
5555
d424
0564
cafe
380f
5555
d424
059b
cafe
3c1f
5555
d424
052a
cafe
2007
5555
d424
0473
cafe
2417
5555
d428
04be
cafe
2808
5555
d428
04ed
cafe
2c18
5555
d428
0506
cafe
3000
5555
d428
04b5
cafe
3410
5555
d42c
04d9
cafe
3809
5555
d42c
048b
cafe
3c19
5555
d42c
04ea
cafe
2001
5555
d42c
051f
cafe
2411
5555
d430
04d8
cafe
280a
5555
d430
04ae
cafe
2c1a
5555
d430
046c
cafe
3002
5555
d430
048a
cafe
3412
5555
d434
0508
cafe
380b
5555
d434
049d
cafe
3c1b
5555
d434
04cb
cafe
2003
5555
d434
03e3
cafe
2413
5555
d438
046c
cafe
280c
5555
d438
044f
cafe
2c1c
5555
d438
04b9
cafe
3004
5555
d438
0494
cafe
3414
5555
d43c
0495
cafe
380d
5555
d43c
0448
cafe
3c1d
5555
d43c
03f9
cafe
2005
5555
d43c
0516
cafe
2415
5555
d440
043a
cafe
280e
5555
d440
0434
-
cafe
2c1e
5555
d440
0476
cafe
3006
5555
d440
04df
cafe
3416
5555
d444
050e
cafe
380f
5555
d444
055e
cafe
3c1f
5555
d444
04e9
cafe
2007
5555
d444
0434
cafe
2417
5555
d448
0477
cafe
2808
5555
d448
049f
cafe
2c18
5555
d448
04c7
cafe
3000
5555
d448
045c
cafe
3410
5555
d44c
0494
cafe
3809
5555
d44c
0450
cafe
3c19
5555
d44c
04a7
cafe
2001
5555
d44c
04e7
cafe
2411
5555
d450
0483
cafe
280a
5555
d450
0469
cafe
2c1a
5555
d450
0423
cafe
3002
5555
d450
0450
cafe
3412
5555
d454
04d7
cafe
380b
5555
d454
046c
cafe
3c1b
5555
d454
0487
cafe
2003
5555
d454
03a7
cafe
2413
5555
d458
0435
cafe
280c
5555
d458
040a
cafe
2c1c
5555
d458
0472
cafe
3004
5555
d458
043e
cafe
3414
5555
d45c
044c
cafe
380d
5555
d45c
0404
cafe
3c1d
5555
d45c
03c4
cafe
2005
5555
d45c
04e3
cafe
2415
5555
d460
03f4
cafe
280e
5555
d460
0417
cafe
2c1e
5555
d460
043f
cafe
3006
5555
d460
0499
cafe
3416
5555
d464
04e0
cafe
380f
5555
d464
051c
cafe
3c1f
5555
d464
04a2
cafe
2007
5555
d464
03fa
cafe
2417
5555
d468
043b
cafe
2808
5555
d468
045f
cafe
2c18
5555
d468
0480
cafe
3000
5555
d468
0438
cafe
3410
5555
d46c
046c
cafe
3809
5555
d46c
0416
cafe
3c19
5555
d46c
046d
cafe
2001
5555
d46c
049a
cafe
2411
5555
d470
044b
cafe
280a
5555
d470
0437
cafe
2c1a
5555
d470
03e7
cafe
3002
5555
d470
040c
cafe
3412
5555
d474
0489
cafe
-
380b
5555
d474
0427
cafe
3c1b
5555
d474
044d
cafe
2003
5555
d474
035c
cafe
2413
5555
d478
03fd
cafe
280c
5555
d478
03d8
cafe
2c1c
5555
d478
0440
cafe
3004
5555
d478
040e
cafe
3414
5555
d47c
0416
cafe
380d
5555
d47c
03d4
cafe
3c1d
5555
d47c
0371
cafe
2005
5555
d47c
04ae
cafe
2415
5555
d480
03cb
cafe
280e
5555
d480
03cf
cafe
2c1e
5555
d480
03e9
cafe
3006
5555
d480
0471
cafe
3416
5555
d484
048b
cafe
380f
5555
d484
04df
cafe
3c1f
5555
d484
0462
cafe
2007
5555
d484
03be
cafe
2417
5555
d488
041c
cafe
2808
5555
d488
0425
cafe
2c18
5555
d488
043f
cafe
3000
5555
d488
03f9
cafe
3410
5555
d48c
041e
cafe
3809
5555
d48c
03d2
cafe
3c19
5555
d48c
0435
cafe
2001
5555
d48c
0441
cafe
2411
5555
d490
0419
cafe
280a
5555
d490
040c
cafe
2c1a
5555
d490
03ab
cafe
3002
5555
d490
03d5
cafe
3412
5555
d494
0452
cafe
380b
5555
d494
03e7
cafe
3c1b
5555
d494
0425
cafe
2003
5555
d494
0338
cafe
2413
5555
d498
03c1
cafe
280c
5555
d498
03b8
cafe
2c1c
5555
d498
03f0
cafe
3004
5555
d498
03d5
cafe
3414
5555
d49c
03e4
cafe
380d
5555
d49c
0399
cafe
3c1d
5555
d49c
035a
cafe
2005
5555
d49c
047f
cafe
2415
5555
d4a0
037f
cafe
280e
5555
d4a0
03a0
cafe
2c1e
5555
d4a0
03c3
cafe
3006
5555
d4a0
042d
cafe
3416
5555
d4a4
0460
cafe
380f
5555
d4a4
04a9
cafe
3c1f
5555
d4a4
0449
cafe
2007
5555
d4a4
0381
cafe
2417
-
5555
d4a8
03d3
cafe
2808
5555
d4a8
03f8
cafe
2c18
5555
d4a8
041f
cafe
3000
5555
d4a8
03ce
cafe
3410
5555
d4ac
0406
cafe
3809
5555
d4ac
03b8
cafe
3c19
5555
d4ac
041d
cafe
2001
5555
d4ac
0443
cafe
2411
5555
d4b0
03e2
cafe
280a
5555
d4b0
03ca
cafe
2c1a
5555
d4b0
037e
cafe
3002
5555
d4b0
03bc
cafe
3412
5555
d4b4
0434
cafe
380b
5555
d4b4
03bb
cafe
3c1b
5555
d4b4
03e8
cafe
2003
5555
d4b4
0303
cafe
2413
5555
d4b8
0391
cafe
280c
5555
d4b8
0380
cafe
2c1c
5555
d4b8
03d6
cafe
3004
5555
d4b8
03b0
cafe
3414
5555
d4bc
03b0
cafe
380d
5555
d4bc
036a
cafe
3c1d
5555
d4bc
0315
cafe
2005
5555
d4bc
0448
cafe
2415
5555
d4c0
0365
cafe
280e
5555
d4c0
036a
cafe
2c1e
5555
d4c0
037e
cafe
3006
5555
d4c0
03f3
cafe
3416
5555
d4c4
0432
cafe
380f
5555
d4c4
048f
cafe
3c1f
5555
d4c4
0416
cafe
2007
5555
d4c4
035e
cafe
2417
5555
d4c8
03ad
cafe
2808
5555
d4c8
03d8
cafe
2c18
5555
d4c8
03ea
cafe
3000
5555
d4c8
0388
cafe
3410
5555
d4cc
03c0
cafe
3809
5555
d4cc
038e
cafe
3c19
5555
d4cc
03d7
cafe
2001
5555
d4cc
0404
cafe
2411
5555
d4d0
03a9
cafe
280a
5555
d4d0
0395
cafe
2c1a
5555
d4d0
0346
cafe
3002
5555
d4d0
0386
cafe
3412
5555
d4d4
03fc
cafe
380b
5555
d4d4
038a
cafe
3c1b
5555
d4d4
03d7
cafe
2003
5555
d4d4
02ed
cafe
2413
5555
d4d8
0363
cafe
280c
5555
d4d8
0343
cafe
2c1c
5555
d4d8
03a5
cafe
3004
5555
-
d4d8
0383
cafe
3414
5555
d4dc
0394
cafe
380d
5555
d4dc
0344
cafe
3c1d
5555
d4dc
0303
cafe
2005
5555
d4dc
041c
cafe
2415
5555
d4e0
0331
cafe
280e
5555
d4e0
0336
cafe
2c1e
5555
d4e0
034d
cafe
3006
5555
d4e0
03da
cafe
3416
5555
d4e4
03ef
cafe
380f
5555
d4e4
0451
cafe
3c1f
5555
d4e4
03d8
cafe
2007
5555
d4e4
032d
cafe
2417
5555
d4e8
0380
cafe
2808
5555
d4e8
03a0
cafe
2c18
5555
d4e8
03a6
cafe
3000
5555
d4e8
035f
cafe
3410
5555
d4ec
0395
cafe
3809
5555
d4ec
0364
cafe
3c19
5555
d4ec
03c2
cafe
2001
5555
d4ec
03da
cafe
2411
5555
d4f0
0382
cafe
280a
5555
d4f0
036d
cafe
2c1a
5555
d4f0
031c
cafe
3002
5555
d4f0
0346
cafe
3412
5555
d4f4
03c9
cafe
380b
5555
d4f4
0378
cafe
3c1b
5555
d4f4
038e
cafe
2003
5555
d4f4
02a2
cafe
2413
5555
d4f8
0349
cafe
280c
5555
d4f8
030d
cafe
2c1c
5555
d4f8
036c
cafe
3004
5555
d4f8
036b
cafe
3414
5555
d4fc
034a
cafe
380d
5555
d4fc
0313
cafe
3c1d
5555
d4fc
02c8
cafe
2005
5555
d4fc
03f3
cafe
2415
5555
d500
02ff
cafe
280e
5555
d500
0302
cafe
2c1e
5555
d500
032c
cafe
3006
5555
d500
03b9
cafe
3416
5555
d504
03c1
cafe
380f
5555
d504
042d
cafe
3c1f
5555
d504
03c0
cafe
2007
5555
d504
030e
cafe
2417
5555
d508
0357
cafe
2808
5555
d508
0369
cafe
2c18
5555
d508
0385
cafe
3000
5555
d508
0337
cafe
3410
5555
d50c
0368
cafe
3809
5555
d50c
031e
cafe
3c19
5555
d50c
-
0380
cafe
2001
5555
d50c
03a1
cafe
2411
5555
d510
0361
cafe
280a
5555
d510
0363
cafe
2c1a
5555
d510
030b
cafe
3002
5555
d510
0315
cafe
3412
5555
d514
038a
cafe
380b
5555
d514
033b
cafe
3c1b
5555
d514
035c
cafe
2003
5555
d514
028b
cafe
2413
5555
d518
0316
cafe
280c
5555
d518
02f5
cafe
2c1c
5555
d518
033d
cafe
3004
5555
d518
0318
cafe
3414
5555
d51c
0332
cafe
380d
5555
d51c
02e3
cafe
3c1d
5555
d51c
028b
cafe
2005
5555
d51c
03a2
cafe
2415
5555
d520
02c2
cafe
280e
5555
d520
02e3
cafe
2c1e
5555
d520
0301
cafe
3006
5555
d520
0384
cafe
3416
5555
d524
03a4
cafe
380f
5555
d524
040c
cafe
3c1f
5555
d524
03a1
cafe
2007
5555
d524
02ec
cafe
2417
5555
d528
0340
cafe
2808
5555
d528
0369
cafe
2c18
5555
d528
037e
cafe
3000
5555
d528
034f
cafe
3410
5555
d52c
0355
cafe
3809
5555
d52c
030c
cafe
3c19
5555
d52c
0376
cafe
2001
5555
d52c
03dd
cafe
2411
5555
d530
034b
cafe
280a
5555
d530
0323
cafe
2c1a
5555
d530
02d6
cafe
3002
5555
d530
02ee
cafe
3412
5555
d534
036a
cafe
380b
5555
d534
02f7
cafe
3c1b
5555
d534
0338
cafe
2003
5555
d534
0246
cafe
2413
5555
d538
02e4
cafe
280c
5555
d538
02ce
cafe
2c1c
5555
d538
032f
cafe
3004
5555
d538
02f6
cafe
3414
5555
d53c
0309
cafe
380d
5555
d53c
02be
cafe
3c1d
5555
d53c
0288
cafe
2005
5555
d53c
03bf
cafe
2415
5555
d540
02b5
cafe
280e
5555
d540
02c9
-
cafe
2c1e
5555
d540
02e3
cafe
3006
5555
d540
0367
cafe
3416
5555
d544
0376
cafe
380f
5555
d544
03de
cafe
3c1f
5555
d544
036b
cafe
2007
5555
d544
02bb
cafe
2417
5555
d548
0313
cafe
2808
5555
d548
0315
cafe
2c18
5555
d548
0345
cafe
3000
5555
d548
02e6
cafe
3410
5555
d54c
031f
cafe
3809
5555
d54c
02d2
cafe
3c19
5555
d54c
0345
cafe
2001
5555
d54c
0373
cafe
2411
5555
d550
0309
cafe
280a
5555
d550
0310
cafe
2c1a
5555
d550
02c3
cafe
3002
5555
d550
02d5
cafe
3412
5555
d554
0366
cafe
380b
5555
d554
02e3
cafe
3c1b
5555
d554
0320
cafe
2003
5555
d554
0247
cafe
2413
5555
d558
02bf
cafe
280c
5555
d558
02bb
cafe
2c1c
5555
d558
02fe
cafe
3004
5555
d558
02e6
cafe
3414
5555
d55c
02f3
cafe
380d
5555
d55c
02ab
cafe
3c1d
5555
d55c
0266
cafe
2005
5555
d55c
037d
cafe
2415
5555
d560
028b
cafe
280e
5555
d560
029f
cafe
2c1e
5555
d560
02d3
cafe
3006
5555
d560
0334
cafe
3416
5555
d564
0362
cafe
380f
5555
d564
03b6
cafe
3c1f
5555
d564
033c
cafe
2007
5555
d564
02a5
cafe
2417
5555
d568
02c6
cafe
2808
5555
d568
0301
cafe
2c18
5555
d568
031c
cafe
3000
5555
d568
02c6
cafe
3410
5555
d56c
0300
cafe
3809
5555
d56c
02b9
cafe
3c19
5555
d56c
031c
cafe
2001
5555
d56c
0344
cafe
2411
5555
d570
02ef
cafe
280a
5555
d570
02f6
cafe
2c1a
5555
d570
029c
cafe
3002
5555
d570
02b8
cafe
3412
5555
d574
033e
cafe
-
380b
5555
d574
02cd
cafe
3c1b
5555
d574
0301
cafe
2003
5555
d574
0223
cafe
2413
5555
d578
02ba
cafe
280c
5555
d578
029c
cafe
2c1c
5555
d578
02c4
cafe
3004
5555
d578
02b2
cafe
3414
5555
d57c
02c8
cafe
380d
5555
d57c
0285
cafe
3c1d
5555
d57c
0243
cafe
2005
5555
d57c
0369
cafe
2415
5555
d580
026d
cafe
280e
5555
d580
0283
cafe
2c1e
5555
d580
02b7
cafe
3006
5555
d580
0306
cafe
3416
5555
d584
0346
cafe
380f
5555
d584
03a1
cafe
3c1f
5555
d584
0329
cafe
2007
5555
d584
0276
cafe
2417
5555
d588
02cf
cafe
2808
5555
d588
02e9
cafe
2c18
5555
d588
02ff
cafe
3000
5555
d588
02c1
cafe
3410
5555
d58c
02ce
cafe
3809
5555
d58c
029e
cafe
3c19
5555
d58c
02f8
cafe
2001
5555
d58c
031d
cafe
2411
5555
d590
02d9
cafe
280a
5555
d590
02d5
cafe
2c1a
5555
d590
0276
cafe
3002
5555
d590
0295
cafe
3412
5555
d594
0330
cafe
380b
5555
d594
02b0
cafe
3c1b
5555
d594
02fe
cafe
2003
5555
d594
021d
cafe
2413
5555
d598
0283
cafe
280c
5555
d598
0285
cafe
2c1c
5555
d598
02c2
cafe
3004
5555
d598
02a4
cafe
3414
5555
d59c
02a2
cafe
380d
5555
d59c
0260
cafe
3c1d
5555
d59c
0219
cafe
2005
5555
d59c
0355
cafe
2415
5555
d5a0
0250
cafe
280e
5555
d5a0
025a
cafe
2c1e
5555
d5a0
0276
cafe
3006
5555
d5a0
02e3
cafe
3416
5555
d5a4
031f
cafe
380f
5555
d5a4
037e
cafe
3c1f
5555
d5a4
02f3
cafe
2007
5555
d5a4
024a
cafe
2417
-
5555
d5a8
0286
cafe
2808
5555
d5a8
02ca
cafe
2c18
5555
d5a8
02f3
cafe
3000
5555
d5a8
0283
cafe
3410
5555
d5ac
02b4
cafe
3809
5555
d5ac
0285
cafe
3c19
5555
d5ac
02e2
cafe
2001
5555
d5ac
0310
cafe
2411
5555
d5b0
02c1
cafe
280a
5555
d5b0
02b8
cafe
2c1a
5555
d5b0
0254
cafe
3002
5555
d5b0
0285
cafe
3412
5555
d5b4
02f9
cafe
380b
5555
d5b4
0285
cafe
3c1b
5555
d5b4
02c2
cafe
2003
5555
d5b4
01ec
cafe
2413
5555
d5b8
026b
cafe
280c
5555
d5b8
025e
cafe
2c1c
5555
d5b8
029a
cafe
3004
5555
d5b8
0287
cafe
3414
5555
d5bc
0280
cafe
380d
5555
d5bc
0239
cafe
3c1d
5555
d5bc
0200
cafe
2005
5555
d5bc
0324
cafe
2415
5555
d5c0
0239
cafe
280e
5555
d5c0
024e
cafe
2c1e
5555
d5c0
0262
cafe
3006
5555
d5c0
02d4
cafe
3416
5555
d5c4
030b
cafe
380f
5555
d5c4
0364
cafe
3c1f
5555
d5c4
02f3
cafe
2007
5555
d5c4
0234
cafe
2417
5555
d5c8
028f
cafe
2808
5555
d5c8
029c
cafe
2c18
5555
d5c8
02d0
cafe
3000
5555
d5c8
0279
cafe
3410
5555
d5cc
02ad
cafe
3809
5555
d5cc
026f
cafe
3c19
5555
d5cc
02c3
cafe
2001
5555
d5cc
02d6
cafe
2411
5555
d5d0
029d
cafe
280a
5555
d5d0
029b
cafe
2c1a
5555
d5d0
023f
cafe
3002
5555
d5d0
026d
cafe
3412
5555
d5d4
02dc
cafe
380b
5555
d5d4
0274
cafe
3c1b
5555
d5d4
02a5
cafe
2003
5555
d5d4
01cd
cafe
2413
5555
d5d8
0253
cafe
280c
5555
d5d8
0255
cafe
2c1c
5555
d5d8
027a
cafe
3004
5555
-
d5d8
026e
cafe
3414
5555
d5dc
0270
cafe
380d
5555
d5dc
0229
cafe
3c1d
5555
d5dc
01ec
cafe
2005
5555
d5dc
030c
cafe
2415
5555
d5e0
0214
cafe
280e
5555
d5e0
022c
cafe
2c1e
5555
d5e0
024b
cafe
3006
5555
d5e0
02c1
cafe
3416
5555
d5e4
02ed
cafe
380f
5555
d5e4
0344
cafe
3c1f
5555
d5e4
02d0
cafe
2007
5555
d5e4
022b
cafe
2417
5555
d5e8
0270
cafe
2808
5555
d5e8
02a3
cafe
2c18
5555
d5e8
029e
cafe
3000
5555
d5e8
025d
cafe
3410
5555
d5ec
0299
cafe
3809
5555
d5ec
0248
cafe
3c19
5555
d5ec
02b8
cafe
2001
5555
d5ec
02d0
cafe
2411
5555
d5f0
0279
cafe
280a
5555
d5f0
0279
cafe
2c1a
5555
d5f0
0229
cafe
3002
5555
d5f0
0257
cafe
3412
5555
d5f4
02b8
cafe
380b
5555
d5f4
0262
cafe
3c1b
5555
d5f4
0295
cafe
2003
5555
d5f4
01b5
cafe
2413
5555
d5f8
0256
cafe
280c
5555
d5f8
0232
cafe
2c1c
5555
d5f8
0269
cafe
3004
5555
d5f8
0257
cafe
3414
5555
d5fc
025f
cafe
380d
5555
d5fc
0211
cafe
3c1d
5555
d5fc
01e6
cafe
2005
5555
d5fc
0305
cafe
2415
5555
d600
020e
cafe
280e
5555
d600
0213
cafe
2c1e
5555
d600
0243
cafe
3006
5555
d600
02b2
cafe
3416
5555
d604
02d0
cafe
380f
5555
d604
033a
cafe
3c1f
5555
d604
02a4
cafe
2007
5555
d604
0213
cafe
2417
5555
d608
026b
cafe
2808
5555
d608
027f
cafe
2c18
5555
d608
0287
cafe
3000
5555
d608
0243
cafe
3410
5555
d60c
0284
cafe
3809
5555
d60c
0238
cafe
3c19
5555
d60c
-
0297
cafe
2001
5555
d60c
02bc
cafe
2411
5555
d610
0270
cafe
280a
5555
d610
0265
cafe
2c1a
5555
d610
021a
cafe
3002
5555
d610
023d
cafe
3412
5555
d614
02be
cafe
380b
5555
d614
024f
cafe
3c1b
5555
d614
0276
cafe
2003
5555
d614
01b1
cafe
2413
5555
d618
022a
cafe
280c
5555
d618
0220
cafe
2c1c
5555
d618
0260
cafe
3004
5555
d618
0245
cafe
3414
5555
d61c
0240
cafe
380d
5555
d61c
0200
cafe
3c1d
5555
d61c
01bc
cafe
2005
5555
d61c
02e6
cafe
2415
5555
d620
01e1
cafe
280e
5555
d620
01f6
cafe
2c1e
5555
d620
022a
cafe
3006
5555
d620
0289
cafe
3416
5555
d624
02c6
cafe
380f
5555
d624
0325
cafe
3c1f
5555
d624
02ab
cafe
2007
5555
d624
0200
cafe
2417
5555
d628
0248
cafe
2808
5555
d628
026f
cafe
2c18
5555
d628
028d
cafe
3000
5555
d628
023b
cafe
3410
5555
d62c
025d
cafe
3809
5555
d62c
0241
cafe
3c19
5555
d62c
0286
cafe
2001
5555
d62c
02b1
cafe
2411
5555
d630
0263
cafe
280a
5555
d630
0267
cafe
2c1a
5555
d630
0207
cafe
3002
5555
d630
0239
cafe
3412
5555
d634
02a5
cafe
380b
5555
d634
0222
cafe
3c1b
5555
d634
026c
cafe
2003
5555
d634
01a0
cafe
2413
5555
d638
0220
cafe
280c
5555
d638
0215
cafe
2c1c
5555
d638
0258
cafe
3004
5555
d638
0232
cafe
3414
5555
d63c
023b
cafe
380d
5555
d63c
01d6
cafe
3c1d
5555
d63c
019e
cafe
2005
5555
d63c
02c7
cafe
2415
5555
d640
01cf
cafe
280e
5555
d640
01ee
-
cafe
2c1e
5555
d640
0209
cafe
3006
5555
d640
0291
cafe
3416
5555
d644
02a2
cafe
380f
5555
d644
030c
cafe
3c1f
5555
d644
0286
cafe
2007
5555
d644
01f1
cafe
2417
5555
d648
0232
cafe
2808
5555
d648
0270
cafe
2c18
5555
d648
0273
cafe
3000
5555
d648
0217
cafe
3410
5555
d64c
024d
cafe
3809
5555
d64c
0212
cafe
3c19
5555
d64c
026f
cafe
2001
5555
d64c
0298
cafe
2411
5555
d650
0246
cafe
280a
5555
d650
024e
cafe
2c1a
5555
d650
01d9
cafe
3002
5555
d650
0217
cafe
3412
5555
d654
0282
cafe
380b
5555
d654
0211
cafe
3c1b
5555
d654
0258
cafe
2003
5555
d654
017f
cafe
2413
5555
d658
020e
cafe
280c
5555
d658
01fc
cafe
2c1c
5555
d658
023d
cafe
3004
5555
d658
0227
cafe
3414
5555
d65c
0214
cafe
380d
5555
d65c
01d1
cafe
3c1d
5555
d65c
0182
cafe
2005
5555
d65c
02b6
cafe
2415
5555
d660
01cf
cafe
280e
5555
d660
01d9
cafe
2c1e
5555
d660
01f4
cafe
3006
5555
d660
0268
cafe
3416
5555
d664
027e
cafe
380f
5555
d664
02f2
cafe
3c1f
5555
d664
027b
cafe
2007
5555
d664
01dd
cafe
2417
5555
d668
021f
cafe
2808
5555
d668
0251
cafe
2c18
5555
d668
025b
cafe
3000
5555
d668
020b
cafe
3410
5555
d66c
023b
cafe
3809
5555
d66c
01fc
cafe
3c19
5555
d66c
026b
cafe
2001
5555
d66c
0275
cafe
2411
5555
d670
0233
cafe
280a
5555
d670
022c
cafe
2c1a
5555
d670
01d2
cafe
3002
5555
d670
01fd
cafe
3412
5555
d674
026e
cafe
-
380b
5555
d674
020f
cafe
3c1b
5555
d674
0243
cafe
2003
5555
d674
0167
cafe
2413
5555
d678
01f5
cafe
280c
5555
d678
01d4
cafe
2c1c
5555
d678
0212
cafe
3004
5555
d678
01f4
cafe
3414
5555
d67c
0207
cafe
380d
5555
d67c
01ce
cafe
3c1d
5555
d67c
0186
cafe
2005
5555
d67c
02a9
cafe
2415
5555
d680
01b3
cafe
280e
5555
d680
01c8
cafe
2c1e
5555
d680
01ef
cafe
3006
5555
d680
0267
cafe
3416
5555
d684
0282
cafe
380f
5555
d684
02e5
cafe
3c1f
5555
d684
0265
cafe
2007
5555
d684
01e0
cafe
2417
5555
d688
021d
cafe
2808
5555
d688
0237
cafe
2c18
5555
d688
0244
cafe
3000
5555
d688
01f9
cafe
3410
5555
d68c
0239
cafe
3809
5555
d68c
01e7
cafe
3c19
5555
d68c
0254
cafe
2001
5555
d68c
025c
cafe
2411
5555
d690
0221
cafe
280a
5555
d690
0206
cafe
2c1a
5555
d690
01c9
cafe
3002
5555
d690
01ed
cafe
3412
5555
d694
025c
cafe
380b
5555
d694
01f1
cafe
3c1b
5555
d694
022d
cafe
2003
5555
d694
016c
cafe
2413
5555
d698
01e3
cafe
280c
5555
d698
01d9
cafe
2c1c
5555
d698
0217
cafe
3004
5555
d698
01fb
cafe
3414
5555
d69c
0200
cafe
380d
5555
d69c
01ba
cafe
3c1d
5555
d69c
0181
cafe
2005
5555
d69c
028d
cafe
2415
5555
d6a0
01a7
cafe
280e
5555
d6a0
01af
cafe
2c1e
5555
d6a0
01d7
cafe
3006
5555
d6a0
024b
cafe
3416
5555
d6a4
0269
cafe
380f
5555
d6a4
02cb
cafe
3c1f
5555
d6a4
024f
cafe
2007
5555
d6a4
01d6
cafe
2417
-
5555
d6a8
01fa
cafe
2808
5555
d6a8
0227
cafe
2c18
5555
d6a8
023f
cafe
3000
5555
d6a8
0205
cafe
3410
5555
d6ac
022e
cafe
3809
5555
d6ac
01da
cafe
3c19
5555
d6ac
023d
cafe
2001
5555
d6ac
0258
cafe
2411
5555
d6b0
0219
cafe
280a
5555
d6b0
020b
cafe
2c1a
5555
d6b0
01bd
cafe
3002
5555
d6b0
01ef
cafe
3412
5555
d6b4
0262
cafe
380b
5555
d6b4
01d9
cafe
3c1b
5555
d6b4
020e
cafe
2003
5555
d6b4
0141
cafe
2413
5555
d6b8
01d3
cafe
280c
5555
d6b8
01cf
cafe
2c1c
5555
d6b8
0206
cafe
3004
5555
d6b8
01eb
cafe
3414
5555
d6bc
01e5
cafe
380d
5555
d6bc
01a3
cafe
3c1d
5555
d6bc
0162
cafe
2005
5555
d6bc
0288
cafe
2415
5555
d6c0
019d
cafe
280e
5555
d6c0
01a8
cafe
2c1e
5555
d6c0
01c6
cafe
3006
5555
d6c0
0230
cafe
3416
5555
d6c4
0257
cafe
380f
5555
d6c4
02be
cafe
3c1f
5555
d6c4
023c
cafe
2007
5555
d6c4
01c4
cafe
2417
5555
d6c8
01ef
cafe
2808
5555
d6c8
0222
cafe
2c18
5555
d6c8
022c
cafe
3000
5555
d6c8
0203
cafe
3410
5555
d6cc
020f
cafe
3809
5555
d6cc
01c8
cafe
3c19
5555
d6cc
022e
cafe
2001
5555
d6cc
022a
cafe
2411
5555
d6d0
01ff
cafe
280a
5555
d6d0
0200
cafe
2c1a
5555
d6d0
01a2
cafe
3002
5555
d6d0
01e7
cafe
3412
5555
d6d4
0258
cafe
380b
5555
d6d4
01d8
cafe
3c1b
5555
d6d4
0216
cafe
2003
5555
d6d4
0140
cafe
2413
5555
d6d8
01bc
cafe
280c
5555
d6d8
01c4
cafe
2c1c
5555
d6d8
01e7
cafe
3004
5555
-
d6d8
01e6
cafe
3414
5555
d6dc
01e3
cafe
380d
5555
d6dc
01a6
cafe
3c1d
5555
d6dc
0154
cafe
2005
5555
d6dc
026f
cafe
2415
5555
d6e0
018e
cafe
280e
5555
d6e0
019f
cafe
2c1e
5555
d6e0
01bf
cafe
3006
5555
d6e0
0222
cafe
3416
5555
d6e4
0254
cafe
380f
5555
d6e4
02ad
cafe
3c1f
5555
d6e4
023c
cafe
2007
5555
d6e4
01a2
cafe
2417
5555
d6e8
01dd
cafe
2808
5555
d6e8
0215
cafe
2c18
5555
d6e8
0225
cafe
3000
5555
d6e8
01d8
cafe
3410
5555
d6ec
0208
cafe
3809
5555
d6ec
01bd
cafe
3c19
5555
d6ec
021b
cafe
2001
5555
d6ec
022c
cafe
2411
5555
d6f0
01e7
cafe
280a
5555
d6f0
01f4
cafe
2c1a
5555
d6f0
01a7
cafe
3002
5555
d6f0
01ce
cafe
3412
5555
d6f4
0235
cafe
380b
5555
d6f4
01c3
cafe
3c1b
5555
d6f4
0205
cafe
2003
5555
d6f4
0142
cafe
2413
5555
d6f8
01b2
cafe
280c
5555
d6f8
01c0
cafe
2c1c
5555
d6f8
01df
cafe
3004
5555
d6f8
01d2
cafe
3414
5555
d6fc
01d9
cafe
380d
5555
d6fc
0188
cafe
3c1d
5555
d6fc
0145
cafe
2005
5555
d6fc
024e
cafe
2415
5555
d700
0180
cafe
280e
5555
d700
0192
cafe
2c1e
5555
d700
01be
cafe
3006
5555
d700
0211
cafe
3416
5555
d704
024d
cafe
380f
5555
d704
02af
cafe
3c1f
5555
d704
020e
cafe
2007
5555
d704
01ad
cafe
2417
5555
d708
01d6
cafe
2808
5555
d708
0200
cafe
2c18
5555
d708
020b
cafe
3000
5555
d708
01cd
cafe
3410
5555
d70c
01ea
cafe
3809
5555
d70c
01ba
cafe
3c19
5555
d70c
-
0216
cafe
2001
5555
d70c
022e
cafe
2411
5555
d710
01ea
cafe
280a
5555
d710
01e6
cafe
2c1a
5555
d710
0185
cafe
3002
5555
d710
01d8
cafe
3412
5555
d714
021e
cafe
380b
5555
d714
01b2
cafe
3c1b
5555
d714
0202
cafe
2003
5555
d714
011f
cafe
2413
5555
d718
01aa
cafe
280c
5555
d718
019d
cafe
2c1c
5555
d718
01cc
cafe
3004
5555
d718
01d1
cafe
3414
5555
d71c
01c1
cafe
380d
5555
d71c
0182
cafe
3c1d
5555
d71c
0149
cafe
2005
5555
d71c
024d
cafe
2415
5555
d720
017e
cafe
280e
5555
d720
0178
cafe
2c1e
5555
d720
01c1
cafe
3006
5555
d720
0207
cafe
3416
5555
d724
023e
cafe
380f
5555
d724
02a0
cafe
3c1f
5555
d724
021c
cafe
2007
5555
d724
019f
cafe
2417
5555
d728
01bf
cafe
2808
5555
d728
01f1
cafe
2c18
5555
d728
0201
cafe
3000
5555
d728
01d3
cafe
3410
5555
d72c
01e8
cafe
3809
5555
d72c
01ba
cafe
3c19
5555
d72c
01fd
cafe
2001
5555
d72c
021c
cafe
2411
5555
d730
01da
cafe
280a
5555
d730
01cf
cafe
2c1a
5555
d730
017d
cafe
3002
5555
d730
01bf
cafe
3412
5555
d734
023c
cafe
380b
5555
d734
01b6
cafe
3c1b
5555
d734
01f9
cafe
2003
5555
d734
0134
cafe
2413
5555
d738
0190
cafe
280c
5555
d738
0190
cafe
2c1c
5555
d738
01ba
cafe
3004
5555
d738
01bb
cafe
3414
5555
d73c
01c6
cafe
380d
5555
d73c
0188
cafe
3c1d
5555
d73c
0144
cafe
2005
5555
d73c
0230
cafe
2415
5555
d740
015b
cafe
280e
5555
d740
0178
-
cafe
2c1e
5555
d740
01a8
cafe
3006
5555
d740
01fa
cafe
3416
5555
d744
0224
cafe
380f
5555
d744
0298
cafe
3c1f
5555
d744
020f
cafe
2007
5555
d744
0197
cafe
2417
5555
d748
01c3
cafe
2808
5555
d748
01e5
cafe
2c18
5555
d748
0202
cafe
3000
5555
d748
01c4
cafe
3410
5555
d74c
01ee
cafe
3809
5555
d74c
01a9
cafe
3c19
5555
d74c
01e8
cafe
2001
5555
d74c
0215
cafe
2411
5555
d750
01ce
cafe
280a
5555
d750
01ca
cafe
2c1a
5555
d750
018d
cafe
3002
5555
d750
01ac
cafe
3412
5555
d754
021c
cafe
380b
5555
d754
01a6
cafe
3c1b
5555
d754
01e2
cafe
2003
5555
d754
011b
cafe
2413
5555
d758
0185
cafe
280c
5555
d758
018c
cafe
2c1c
5555
d758
01bf
cafe
3004
5555
d758
01c9
cafe
3414
5555
d75c
0198
cafe
380d
5555
d75c
017f
cafe
3c1d
5555
d75c
0133
cafe
2005
5555
d75c
0232
cafe
2415
5555
d760
0165
cafe
280e
5555
d760
0161
cafe
2c1e
5555
d760
0192
cafe
3006
5555
d760
01f8
cafe
3416
5555
d764
0223
cafe
380f
5555
d764
028d
cafe
3c1f
5555
d764
0202
cafe
2007
5555
d764
0183
cafe
2417
5555
d768
01b6
cafe
2808
5555
d768
01db
cafe
2c18
5555
d768
01f3
cafe
3000
5555
d768
01b4
cafe
3410
5555
d76c
01e2
cafe
3809
5555
d76c
01ab
cafe
3c19
5555
d76c
01eb
cafe
2001
5555
d76c
0213
cafe
2411
5555
d770
01d7
cafe
280a
5555
d770
01d8
cafe
2c1a
5555
d770
0180
cafe
3002
5555
d770
01ab
cafe
3412
5555
d774
0210
cafe
-
380b
5555
d774
01a7
cafe
3c1b
5555
d774
01f2
cafe
2003
5555
d774
0122
cafe
2413
5555
d778
018a
cafe
280c
5555
d778
0193
cafe
2c1c
5555
d778
01c0
cafe
3004
5555
d778
01b2
cafe
3414
5555
d77c
019d
cafe
380d
5555
d77c
0155
cafe
3c1d
5555
d77c
0117
cafe
2005
5555
d77c
022c
cafe
2415
5555
d780
015e
cafe
280e
5555
d780
0145
cafe
2c1e
5555
d780
0184
cafe
3006
5555
d780
01f3
cafe
3416
5555
d784
0213
cafe
380f
5555
d784
0281
cafe
3c1f
5555
d784
01ff
cafe
2007
5555
d784
017b
cafe
2417
5555
d788
01ad
cafe
2808
5555
d788
01c8
cafe
2c18
5555
d788
01d8
cafe
3000
5555
d788
01a9
cafe
3410
5555
d78c
01c7
cafe
3809
5555
d78c
019b
cafe
3c19
5555
d78c
01d9
cafe
2001
5555
d78c
01ef
cafe
2411
5555
d790
01c5
cafe
280a
5555
d790
01af
cafe
2c1a
5555
d790
0179
cafe
3002
5555
d790
019d
cafe
3412
5555
d794
0207
cafe
380b
5555
d794
0196
cafe
3c1b
5555
d794
01c5
cafe
2003
5555
d794
010c
cafe
2413
5555
d798
018c
cafe
280c
5555
d798
017b
cafe
2c1c
5555
d798
01b7
cafe
3004
5555
d798
019b
cafe
3414
5555
d79c
01a0
cafe
380d
5555
d79c
0175
cafe
3c1d
5555
d79c
0112
cafe
2005
5555
d79c
022c
cafe
2415
5555
d7a0
0144
cafe
280e
5555
d7a0
015a
cafe
2c1e
5555
d7a0
017c
cafe
3006
5555
d7a0
01dd
cafe
3416
5555
d7a4
0214
cafe
380f
5555
d7a4
0276
cafe
3c1f
5555
d7a4
0204
cafe
2007
5555
d7a4
017c
cafe
2417
-
5555
d7a8
01b0
cafe
2808
5555
d7a8
01d6
cafe
2c18
5555
d7a8
01cc
cafe
3000
5555
d7a8
019e
cafe
3410
5555
d7ac
01bc
cafe
3809
5555
d7ac
018c
cafe
3c19
5555
d7ac
01cb
cafe
2001
5555
d7ac
01ff
cafe
2411
5555
d7b0
01cd
cafe
280a
5555
d7b0
01b6
cafe
2c1a
5555
d7b0
0177
cafe
3002
5555
d7b0
018b
cafe
3412
5555
d7b4
01f9
cafe
380b
5555
d7b4
018a
cafe
3c1b
5555
d7b4
01b7
cafe
2003
5555
d7b4
0120
cafe
2413
5555
d7b8
018b
cafe
280c
5555
d7b8
017d
cafe
2c1c
5555
d7b8
01a9
cafe
3004
5555
d7b8
01b9
cafe
3414
5555
d7bc
019a
cafe
380d
5555
d7bc
0159
cafe
3c1d
5555
d7bc
0110
cafe
2005
5555
d7bc
0207
cafe
2415
5555
d7c0
0140
cafe
280e
5555
d7c0
0142
cafe
2c1e
5555
d7c0
0170
cafe
3006
5555
d7c0
01e7
cafe
3416
5555
d7c4
0217
cafe
380f
5555
d7c4
0266
cafe
3c1f
5555
d7c4
01e0
cafe
2007
5555
d7c4
0163
cafe
2417
5555
d7c8
0199
cafe
2808
5555
d7c8
01bc
cafe
2c18
5555
d7c8
01d0
cafe
3000
5555
d7c8
019f
cafe
3410
5555
d7cc
01c3
cafe
3809
5555
d7cc
0194
cafe
3c19
5555
d7cc
01d6
cafe
2001
5555
d7cc
0202
cafe
2411
5555
d7d0
01ad
cafe
280a
5555
d7d0
01c4
cafe
2c1a
5555
d7d0
016c
cafe
3002
5555
d7d0
017f
cafe
3412
5555
d7d4
01ef
cafe
380b
5555
d7d4
0186
cafe
3c1b
5555
d7d4
01aa
cafe
2003
5555
d7d4
0102
cafe
2413
5555
d7d8
016e
cafe
280c
5555
d7d8
0169
cafe
2c1c
5555
d7d8
01a2
cafe
3004
5555
-
d7d8
0192
cafe
3414
5555
d7dc
0194
cafe
380d
5555
d7dc
015f
cafe
3c1d
5555
d7dc
0106
cafe
2005
5555
d7dc
0200
cafe
2415
5555
d7e0
0142
cafe
280e
5555
d7e0
014a
cafe
2c1e
5555
d7e0
0171
cafe
3006
5555
d7e0
01e2
cafe
3416
5555
d7e4
020f
cafe
380f
5555
d7e4
026d
cafe
3c1f
5555
d7e4
01ed
cafe
2007
5555
d7e4
015c
cafe
2417
5555
d7e8
018f
cafe
2808
5555
d7e8
01bc
cafe
2c18
5555
d7e8
01c2
cafe
3000
5555
d7e8
017f
cafe
3410
5555
d7ec
01c6
cafe
3809
5555
d7ec
0184
cafe
3c19
5555
d7ec
01d1
cafe
2001
5555
d7ec
01e5
cafe
2411
5555
d7f0
01ad
cafe
280a
5555
d7f0
01a1
cafe
2c1a
5555
d7f0
0152
cafe
3002
5555
d7f0
0192
cafe
3412
5555
d7f4
01e3
cafe
380b
5555
d7f4
017e
cafe
3c1b
5555
d7f4
01af
cafe
2003
5555
d7f4
0103
cafe
2413
5555
d7f8
0171
cafe
280c
5555
d7f8
016f
cafe
2c1c
5555
d7f8
019a
cafe
3004
5555
d7f8
0194
cafe
3414
5555
d7fc
0194
cafe
380d
5555
d7fc
0150
cafe
3c1d
5555
d7fc
0104
cafe
2005
5555
d7fc
020a
cafe
2415
5555
d800
013d
cafe
280e
5555
d800
015e
cafe
2c1e
5555
d800
016e
cafe
3006
5555
d800
01e7
cafe
3416
5555
d804
01fc
cafe
380f
5555
d804
0257
cafe
3c1f
5555
d804
01e9
cafe
2007
5555
d804
0161
cafe
2417
5555
d808
019b
cafe
2808
5555
d808
01ac
cafe
2c18
5555
d808
01cc
cafe
3000
5555
d808
0183
cafe
3410
5555
d80c
01bc
cafe
3809
5555
d80c
017e
cafe
3c19
5555
d80c
-
01c1
cafe
2001
5555
d80c
01e8
cafe
2411
5555
d810
01bc
cafe
280a
5555
d810
01aa
cafe
2c1a
5555
d810
0157
cafe
3002
5555
d810
019b
cafe
3412
5555
d814
01ee
cafe
380b
5555
d814
0186
cafe
3c1b
5555
d814
01c4
cafe
2003
5555
d814
00f8
cafe
2413
5555
d818
0164
cafe
280c
5555
d818
016b
cafe
2c1c
5555
d818
018c
cafe
3004
5555
d818
0190
cafe
3414
5555
d81c
018c
cafe
380d
5555
d81c
014a
cafe
3c1d
5555
d81c
010d
cafe
2005
5555
d81c
01f5
cafe
2415
5555
d820
012b
cafe
280e
5555
d820
014b
cafe
2c1e
5555
d820
0165
cafe
3006
5555
d820
01df
cafe
3416
5555
d824
01f6
cafe
380f
5555
d824
0260
cafe
3c1f
5555
d824
01e3
cafe
2007
5555
d824
015a
cafe
2417
5555
d828
0191
cafe
2808
5555
d828
01a1
cafe
2c18
5555
d828
01c0
cafe
3000
5555
d828
0188
cafe
3410
5555
d82c
01b2
cafe
3809
5555
d82c
0176
cafe
3c19
5555
d82c
01b8
cafe
2001
5555
d82c
01eb
cafe
2411
5555
d830
0191
cafe
280a
5555
d830
0181
cafe
2c1a
5555
d830
0141
cafe
3002
5555
d830
0182
cafe
3412
5555
d834
01e1
cafe
380b
5555
d834
017a
cafe
3c1b
5555
d834
01b4
cafe
2003
5555
d834
00e7
cafe
2413
5555
d838
015a
cafe
280c
5555
d838
0179
cafe
2c1c
5555
d838
0177
cafe
3004
5555
d838
0180
cafe
3414
5555
d83c
017c
cafe
380d
5555
d83c
014a
cafe
3c1d
5555
d83c
010c
cafe
2005
5555
d83c
01e8
cafe
2415
5555
d840
0130
cafe
280e
5555
d840
013e
-
cafe
2c1e
5555
d840
0158
cafe
3006
5555
d840
01d4
cafe
3416
5555
d844
01ed
cafe
380f
5555
d844
0249
cafe
3c1f
5555
d844
01e1
cafe
2007
5555
d844
0159
cafe
2417
5555
d848
0178
cafe
2808
5555
d848
01a1
cafe
2c18
5555
d848
01b9
cafe
3000
5555
d848
0176
cafe
3410
5555
d84c
01a6
cafe
3809
5555
d84c
0170
cafe
3c19
5555
d84c
01ab
cafe
2001
5555
d84c
01e3
cafe
2411
5555
d850
0190
cafe
280a
5555
d850
0184
cafe
2c1a
5555
d850
0147
cafe
3002
5555
d850
0178
cafe
3412
5555
d854
01e6
cafe
380b
5555
d854
0163
cafe
3c1b
5555
d854
01b4
cafe
2003
5555
d854
00fa
cafe
2413
5555
d858
016f
cafe
280c
5555
d858
0168
cafe
2c1c
5555
d858
015d
cafe
3004
5555
d858
0170
cafe
3414
5555
d85c
0171
cafe
380d
5555
d85c
0146
cafe
3c1d
5555
d85c
00e9
cafe
2005
5555
d85c
01f3
cafe
2415
5555
d860
0126
cafe
280e
5555
d860
012f
cafe
2c1e
5555
d860
0148
cafe
3006
5555
d860
01ca
cafe
3416
5555
d864
01e8
cafe
380f
5555
d864
025a
cafe
3c1f
5555
d864
01d4
cafe
2007
5555
d864
0147
cafe
2417
5555
d868
018b
cafe
2808
5555
d868
019f
cafe
2c18
5555
d868
01b7
cafe
3000
5555
d868
0172
cafe
3410
5555
d86c
01ae
cafe
3809
5555
d86c
0166
cafe
3c19
5555
d86c
01ae
cafe
2001
5555
d86c
01ec
cafe
2411
5555
d870
0183
cafe
280a
5555
d870
0181
cafe
2c1a
5555
d870
0158
cafe
3002
5555
d870
0175
cafe
3412
5555
d874
01e0
cafe
-
