240a
5556
0850
0125
cafe
281a
5556
0850
0126
cafe
2c02
5556
0850
0113
cafe
3012
5556
0854
00f0
cafe
340b
5556
0854
01d5
cafe
381b
5556
0854
012d
cafe
3c03
5556
0854
0185
cafe
2013
5556
0858
0138
cafe
240c
5556
0858
0154
cafe
281c
5556
0858
0145
cafe
2c04
5556
0858
0190
cafe
3014
5556
085c
0130
cafe
340d
5556
085c
018d
cafe
381d
5556
085c
0177
cafe
3c05
5556
085c
0175
cafe
2015
5556
0860
0138
cafe
240e
5556
0860
010a
cafe
281e
5556
0860
012e
cafe
2c06
5556
0860
0140
cafe
3016
5556
0864
010d
cafe
340f
5556
0864
01ba
cafe
381f
5556
0864
017c
cafe
3c07
5556
0864
014f
cafe
2017
5556
0868
015f
cafe
2408
5556
0868
01f3
cafe
2818
5556
0868
0234
cafe
2c00
5556
0868
00fa
cafe
3010
5556
086c
0187
cafe
3409
5556
086c
0158
cafe
3819
5556
086c
0178
cafe
3c01
5556
086c
012d
cafe
2011
5556
0870
0181
cafe
240a
5556
0870
011d
cafe
281a
5556
0870
0126
cafe
2c02
5556
0870
0108
cafe
3012
5556
0874
00f2
cafe
340b
5556
0874
01d3
cafe
381b
5556
0874
012f
cafe
3c03
5556
0874
017f
cafe
2013
5556
0878
0135
cafe
240c
5556
0878
0154
cafe
281c
5556
0878
014d
cafe
2c04
5556
0878
0194
cafe
3014
5556
087c
012c
cafe
340d
5556
087c
018f
cafe
381d
5556
087c
017c
cafe
3c05
5556
087c
017f
cafe
2015
5556
0880
0142
cafe
240e
5556
0880
0109
cafe
281e
5556
0880
012d
cafe
2c06
5556
0880
0145
cafe
3016
-
5556
0884
0113
cafe
340f
5556
0884
01b6
cafe
381f
5556
0884
017e
cafe
3c07
5556
0884
0143
cafe
2017
5556
0888
0155
cafe
2408
5556
0888
01fc
cafe
2818
5556
0888
022b
cafe
2c00
5556
0888
00fe
cafe
3010
5556
088c
0179
cafe
3409
5556
088c
0155
cafe
3819
5556
088c
017c
cafe
3c01
5556
088c
012b
cafe
2011
5556
0890
0183
cafe
240a
5556
0890
011b
cafe
281a
5556
0890
0120
cafe
2c02
5556
0890
0101
cafe
3012
5556
0894
00ea
cafe
340b
5556
0894
01cb
cafe
381b
5556
0894
0131
cafe
3c03
5556
0894
0188
cafe
2013
5556
0898
012d
cafe
240c
5556
0898
0150
cafe
281c
5556
0898
0149
cafe
2c04
5556
0898
018d
cafe
3014
5556
089c
0128
cafe
340d
5556
089c
018d
cafe
381d
5556
089c
017a
cafe
3c05
5556
089c
017b
cafe
2015
5556
08a0
0144
cafe
240e
5556
08a0
0106
cafe
281e
5556
08a0
0137
cafe
2c06
5556
08a0
013b
cafe
3016
5556
08a4
0110
cafe
340f
5556
08a4
01bf
cafe
381f
5556
08a4
017c
cafe
3c07
5556
08a4
0148
cafe
2017
5556
08a8
0162
cafe
2408
5556
08a8
01fb
cafe
2818
5556
08a8
022c
cafe
2c00
5556
08a8
00f4
cafe
3010
5556
08ac
017a
cafe
3409
5556
08ac
0168
cafe
3819
5556
08ac
017d
cafe
3c01
5556
08ac
0124
cafe
2011
5556
08b0
0192
cafe
240a
5556
08b0
0123
cafe
281a
5556
08b0
0120
cafe
2c02
5556
08b0
010b
cafe
3012
5556
08b4
00e3
cafe
340b
5556
08b4
01ce
cafe
381b
5556
08b4
012f
cafe
3c03
5556
-
08b4
0185
cafe
2013
5556
08b8
0131
cafe
240c
5556
08b8
0149
cafe
281c
5556
08b8
014b
cafe
2c04
5556
08b8
0193
cafe
3014
5556
08bc
012f
cafe
340d
5556
08bc
0184
cafe
381d
5556
08bc
016c
cafe
3c05
5556
08bc
017e
cafe
2015
5556
08c0
0149
cafe
240e
5556
08c0
0109
cafe
281e
5556
08c0
013e
cafe
2c06
5556
08c0
013c
cafe
3016
5556
08c4
010e
cafe
340f
5556
08c4
01c1
cafe
381f
5556
08c4
0177
cafe
3c07
5556
08c4
0144
cafe
2017
5556
08c8
0163
cafe
2408
5556
08c8
01ea
cafe
2818
5556
08c8
0228
cafe
2c00
5556
08c8
00ee
cafe
3010
5556
08cc
0180
cafe
3409
5556
08cc
016c
cafe
3819
5556
08cc
0182
cafe
3c01
5556
08cc
011a
cafe
2011
5556
08d0
018a
cafe
240a
5556
08d0
0127
cafe
281a
5556
08d0
0124
cafe
2c02
5556
08d0
010a
cafe
3012
5556
08d4
00e2
cafe
340b
5556
08d4
01d1
cafe
381b
5556
08d4
0130
cafe
3c03
5556
08d4
0187
cafe
2013
5556
08d8
0132
cafe
240c
5556
08d8
0150
cafe
281c
5556
08d8
0145
cafe
2c04
5556
08d8
0192
cafe
3014
5556
08dc
012a
cafe
340d
5556
08dc
0184
cafe
381d
5556
08dc
0172
cafe
3c05
5556
08dc
017e
cafe
2015
5556
08e0
014c
cafe
240e
5556
08e0
010e
cafe
281e
5556
08e0
013b
cafe
2c06
5556
08e0
0140
cafe
3016
5556
08e4
0114
cafe
340f
5556
08e4
01c7
cafe
381f
5556
08e4
0181
cafe
3c07
5556
08e4
0143
cafe
2017
5556
08e8
016b
cafe
2408
5556
08e8
01e4
cafe
2818
5556
08e8
-
022c
cafe
2c00
5556
08e8
00eb
cafe
3010
5556
08ec
0185
cafe
3409
5556
08ec
0163
cafe
3819
5556
08ec
017b
cafe
3c01
5556
08ec
0119
cafe
2011
5556
08f0
018c
cafe
240a
5556
08f0
012e
cafe
281a
5556
08f0
0127
cafe
2c02
5556
08f0
0105
cafe
3012
5556
08f4
00e3
cafe
340b
5556
08f4
01cb
cafe
381b
5556
08f4
012e
cafe
3c03
5556
08f4
018b
cafe
2013
5556
08f8
0133
cafe
240c
5556
08f8
014c
cafe
281c
5556
08f8
0140
cafe
2c04
5556
08f8
0198
cafe
3014
5556
08fc
011e
cafe
340d
5556
08fc
018e
cafe
381d
5556
08fc
017b
cafe
3c05
5556
08fc
017b
cafe
2015
5556
0900
014c
cafe
240e
5556
0900
010f
cafe
281e
5556
0900
0134
cafe
2c06
5556
0900
0138
cafe
3016
5556
0904
0113
cafe
340f
5556
0904
01be
cafe
381f
5556
0904
0187
cafe
3c07
5556
0904
013d
cafe
2017
5556
0908
0173
cafe
2408
5556
0908
01e4
cafe
2818
5556
0908
022c
cafe
2c00
5556
0908
00f4
cafe
3010
5556
090c
0180
cafe
3409
5556
090c
016c
cafe
3819
5556
090c
0178
cafe
3c01
5556
090c
0119
cafe
2011
5556
0910
018f
cafe
240a
5556
0910
012e
cafe
281a
5556
0910
0127
cafe
2c02
5556
0910
0104
cafe
3012
5556
0914
00eb
cafe
340b
5556
0914
01d2
cafe
381b
5556
0914
012f
cafe
3c03
5556
0914
0186
cafe
2013
5556
0918
0129
cafe
240c
5556
0918
0154
cafe
281c
5556
0918
0141
cafe
2c04
5556
0918
01ad
cafe
3014
5556
091c
0125
cafe
340d
5556
091c
0195
-
cafe
381d
5556
091c
0179
cafe
3c05
5556
091c
0171
cafe
2015
5556
0920
014c
cafe
240e
5556
0920
010d
cafe
281e
5556
0920
0139
cafe
2c06
5556
0920
0135
cafe
3016
5556
0924
0114
cafe
340f
5556
0924
01ba
cafe
381f
5556
0924
0184
cafe
3c07
5556
0924
0149
cafe
2017
5556
0928
016d
cafe
2408
5556
0928
01d8
cafe
2818
5556
0928
022d
cafe
2c00
5556
0928
00f7
cafe
3010
5556
092c
016e
cafe
3409
5556
092c
016a
cafe
3819
5556
092c
017b
cafe
3c01
5556
092c
011d
cafe
2011
5556
0930
018f
cafe
240a
5556
0930
0131
cafe
281a
5556
0930
0121
cafe
2c02
5556
0930
0104
cafe
3012
5556
0934
00ed
cafe
340b
5556
0934
01d4
cafe
381b
5556
0934
012a
cafe
3c03
5556
0934
0184
cafe
2013
5556
0938
012b
cafe
240c
5556
0938
014c
cafe
281c
5556
0938
0142
cafe
2c04
5556
0938
01a1
cafe
3014
5556
093c
0122
cafe
340d
5556
093c
0197
cafe
381d
5556
093c
0178
cafe
3c05
5556
093c
0170
cafe
2015
5556
0940
014b
cafe
240e
5556
0940
0104
cafe
281e
5556
0940
0131
cafe
2c06
5556
0940
012b
cafe
3016
5556
0944
010f
cafe
340f
5556
0944
01c2
cafe
381f
5556
0944
018a
cafe
3c07
5556
0944
014d
cafe
2017
5556
0948
0169
cafe
2408
5556
0948
01e3
cafe
2818
5556
0948
0232
cafe
2c00
5556
0948
00f5
cafe
3010
5556
094c
0174
cafe
3409
5556
094c
0168
cafe
3819
5556
094c
0178
cafe
3c01
5556
094c
011c
cafe
2011
5556
0950
0190
cafe
-
240a
5556
0950
012e
cafe
281a
5556
0950
0119
cafe
2c02
5556
0950
010a
cafe
3012
5556
0954
00e7
cafe
340b
5556
0954
01cd
cafe
381b
5556
0954
0130
cafe
3c03
5556
0954
0188
cafe
2013
5556
0958
0129
cafe
240c
5556
0958
0147
cafe
281c
5556
0958
0143
cafe
2c04
5556
0958
019c
cafe
3014
5556
095c
0127
cafe
340d
5556
095c
0191
cafe
381d
5556
095c
0175
cafe
3c05
5556
095c
0173
cafe
2015
5556
0960
014b
cafe
240e
5556
0960
010f
cafe
281e
5556
0960
0124
cafe
2c06
5556
0960
0127
cafe
3016
5556
0964
0113
cafe
340f
5556
0964
01c7
cafe
381f
5556
0964
018c
cafe
3c07
5556
0964
014d
cafe
2017
5556
0968
016d
cafe
2408
5556
0968
01e1
cafe
2818
5556
0968
022f
cafe
2c00
5556
0968
00f3
cafe
3010
5556
096c
017a
cafe
3409
5556
096c
016d
cafe
3819
5556
096c
017b
cafe
3c01
5556
096c
011c
cafe
2011
5556
0970
0187
cafe
240a
5556
0970
0138
cafe
281a
5556
0970
011e
cafe
2c02
5556
0970
0103
cafe
3012
5556
0974
00f1
cafe
340b
5556
0974
01c9
cafe
381b
5556
0974
0136
cafe
3c03
5556
0974
018b
cafe
2013
5556
0978
012f
cafe
240c
5556
0978
0148
cafe
281c
5556
0978
014b
cafe
2c04
5556
0978
0195
cafe
3014
5556
097c
0128
cafe
340d
5556
097c
018a
cafe
381d
5556
097c
0175
cafe
3c05
5556
097c
017c
cafe
2015
5556
0980
0144
cafe
240e
5556
0980
010e
cafe
281e
5556
0980
0123
cafe
2c06
5556
0980
0124
cafe
3016
-
5556
0984
0112
cafe
340f
5556
0984
01c4
cafe
381f
5556
0984
018a
cafe
3c07
5556
0984
0151
cafe
2017
5556
0988
0169
cafe
2408
5556
0988
01f1
cafe
2818
5556
0988
022c
cafe
2c00
5556
0988
00ec
cafe
3010
5556
098c
017b
cafe
3409
5556
098c
0167
cafe
3819
5556
098c
017e
cafe
3c01
5556
098c
011c
cafe
2011
5556
0990
0183
cafe
240a
5556
0990
0137
cafe
281a
5556
0990
0121
cafe
2c02
5556
0990
0106
cafe
3012
5556
0994
00f0
cafe
340b
5556
0994
01ca
cafe
381b
5556
0994
0130
cafe
3c03
5556
0994
0185
cafe
2013
5556
0998
0128
cafe
240c
5556
0998
0152
cafe
281c
5556
0998
0150
cafe
2c04
5556
0998
0198
cafe
3014
5556
099c
0129
cafe
340d
5556
099c
017d
cafe
381d
5556
099c
016e
cafe
3c05
5556
099c
0178
cafe
2015
5556
09a0
014b
cafe
240e
5556
09a0
010d
cafe
281e
5556
09a0
0124
cafe
2c06
5556
09a0
0122
cafe
3016
5556
09a4
010e
cafe
340f
5556
09a4
01c8
cafe
381f
5556
09a4
0187
cafe
3c07
5556
09a4
0156
cafe
2017
5556
09a8
0155
cafe
2408
5556
09a8
01ed
cafe
2818
5556
09a8
022a
cafe
2c00
5556
09a8
00ef
cafe
3010
5556
09ac
0180
cafe
3409
5556
09ac
016b
cafe
3819
5556
09ac
0180
cafe
3c01
5556
09ac
011c
cafe
2011
5556
09b0
0183
cafe
240a
5556
09b0
0134
cafe
281a
5556
09b0
0126
cafe
2c02
5556
09b0
00fc
cafe
3012
5556
09b4
00f0
cafe
340b
5556
09b4
01cc
cafe
381b
5556
09b4
0137
cafe
3c03
5556
-
09b4
018e
cafe
2013
5556
09b8
012a
cafe
240c
5556
09b8
0150
cafe
281c
5556
09b8
014f
cafe
2c04
5556
09b8
0192
cafe
3014
5556
09bc
0129
cafe
340d
5556
09bc
0180
cafe
381d
5556
09bc
016e
cafe
3c05
5556
09bc
017e
cafe
2015
5556
09c0
0150
cafe
240e
5556
09c0
010b
cafe
281e
5556
09c0
0129
cafe
2c06
5556
09c0
012a
cafe
3016
5556
09c4
0109
cafe
340f
5556
09c4
01c8
cafe
381f
5556
09c4
017f
cafe
3c07
5556
09c4
0153
cafe
2017
5556
09c8
015a
cafe
2408
5556
09c8
01f3
cafe
2818
5556
09c8
0230
cafe
2c00
5556
09c8
00ef
cafe
3010
5556
09cc
0184
cafe
3409
5556
09cc
0166
cafe
3819
5556
09cc
018e
cafe
3c01
5556
09cc
0116
cafe
2011
5556
09d0
0184
cafe
240a
5556
09d0
0131
cafe
281a
5556
09d0
011c
cafe
2c02
5556
09d0
00fe
cafe
3012
5556
09d4
00ef
cafe
340b
5556
09d4
01c8
cafe
381b
5556
09d4
0131
cafe
3c03
5556
09d4
0190
cafe
2013
5556
09d8
0127
cafe
240c
5556
09d8
0151
cafe
281c
5556
09d8
0158
cafe
2c04
5556
09d8
0192
cafe
3014
5556
09dc
0123
cafe
340d
5556
09dc
0185
cafe
381d
5556
09dc
0170
cafe
3c05
5556
09dc
017d
cafe
2015
5556
09e0
014c
cafe
240e
5556
09e0
010b
cafe
281e
5556
09e0
012c
cafe
2c06
5556
09e0
012c
cafe
3016
5556
09e4
0107
cafe
340f
5556
09e4
01c1
cafe
381f
5556
09e4
0184
cafe
3c07
5556
09e4
014e
cafe
2017
5556
09e8
0163
cafe
2408
5556
09e8
01ec
cafe
2818
5556
09e8
-
0226
cafe
2c00
5556
09e8
00e7
cafe
3010
5556
09ec
017d
cafe
3409
5556
09ec
016c
cafe
3819
5556
09ec
0190
cafe
3c01
5556
09ec
0119
cafe
2011
5556
09f0
0191
cafe
240a
5556
09f0
0138
cafe
281a
5556
09f0
011e
cafe
2c02
5556
09f0
0103
cafe
3012
5556
09f4
00e5
cafe
340b
5556
09f4
01be
cafe
381b
5556
09f4
0136
cafe
3c03
5556
09f4
018f
cafe
2013
5556
09f8
0134
cafe
240c
5556
09f8
0151
cafe
281c
5556
09f8
0153
cafe
2c04
5556
09f8
018a
cafe
3014
5556
09fc
011f
cafe
340d
5556
09fc
0186
cafe
381d
5556
09fc
0170
cafe
3c05
5556
09fc
0181
cafe
2015
5556
0a00
014c
cafe
240e
5556
0a00
0107
cafe
281e
5556
0a00
0134
cafe
2c06
5556
0a00
0128
cafe
3016
5556
0a04
0104
cafe
340f
5556
0a04
01c2
cafe
381f
5556
0a04
017c
cafe
3c07
5556
0a04
0152
cafe
2017
5556
0a08
0163
cafe
2408
5556
0a08
01f3
cafe
2818
5556
0a08
021c
cafe
2c00
5556
0a08
00f0
cafe
3010
5556
0a0c
0171
cafe
3409
5556
0a0c
016b
cafe
3819
5556
0a0c
018f
cafe
3c01
5556
0a0c
010e
cafe
2011
5556
0a10
018e
cafe
240a
5556
0a10
0139
cafe
281a
5556
0a10
0116
cafe
2c02
5556
0a10
00fb
cafe
3012
5556
0a14
00ed
cafe
340b
5556
0a14
01c0
cafe
381b
5556
0a14
0136
cafe
3c03
5556
0a14
0187
cafe
2013
5556
0a18
0132
cafe
240c
5556
0a18
014d
cafe
281c
5556
0a18
015a
cafe
2c04
5556
0a18
0184
cafe
3014
5556
0a1c
011b
cafe
340d
5556
0a1c
0188
-
cafe
381d
5556
0a1c
0171
cafe
3c05
5556
0a1c
017d
cafe
2015
5556
0a20
0144
cafe
240e
5556
0a20
010f
cafe
281e
5556
0a20
013d
cafe
2c06
5556
0a20
0122
cafe
3016
5556
0a24
0107
cafe
340f
5556
0a24
01b0
cafe
381f
5556
0a24
017b
cafe
3c07
5556
0a24
015d
cafe
2017
5556
0a28
0162
cafe
2408
5556
0a28
01f5
cafe
2818
5556
0a28
021c
cafe
2c00
5556
0a28
00f0
cafe
3010
5556
0a2c
0171
cafe
3409
5556
0a2c
0167
cafe
3819
5556
0a2c
018a
cafe
3c01
5556
0a2c
0111
cafe
2011
5556
0a30
0191
cafe
240a
5556
0a30
013d
cafe
281a
5556
0a30
0117
cafe
2c02
5556
0a30
00fd
cafe
3012
5556
0a34
00f5
cafe
340b
5556
0a34
01c3
cafe
381b
5556
0a34
0136
cafe
3c03
5556
0a34
0191
cafe
2013
5556
0a38
012c
cafe
240c
5556
0a38
0149
cafe
281c
5556
0a38
0155
cafe
2c04
5556
0a38
0183
cafe
3014
5556
0a3c
011c
cafe
340d
5556
0a3c
0188
cafe
381d
5556
0a3c
0172
cafe
3c05
5556
0a3c
0178
cafe
2015
5556
0a40
014b
cafe
240e
5556
0a40
0115
cafe
281e
5556
0a40
0135
cafe
2c06
5556
0a40
0120
cafe
3016
5556
0a44
010a
cafe
340f
5556
0a44
01b4
cafe
381f
5556
0a44
017d
cafe
3c07
5556
0a44
0150
cafe
2017
5556
0a48
0165
cafe
2408
5556
0a48
01ef
cafe
2818
5556
0a48
0223
cafe
2c00
5556
0a48
00eb
cafe
3010
5556
0a4c
0176
cafe
3409
5556
0a4c
0165
cafe
3819
5556
0a4c
018c
cafe
3c01
5556
0a4c
010c
cafe
2011
5556
0a50
0190
cafe
-
240a
5556
0a50
013b
cafe
281a
5556
0a50
0122
cafe
2c02
5556
0a50
00f9
cafe
3012
5556
0a54
00f7
cafe
340b
5556
0a54
01c9
cafe
381b
5556
0a54
0133
cafe
3c03
5556
0a54
0190
cafe
2013
5556
0a58
012a
cafe
240c
5556
0a58
0143
cafe
281c
5556
0a58
0156
cafe
2c04
5556
0a58
0187
cafe
3014
5556
0a5c
011c
cafe
340d
5556
0a5c
0184
cafe
381d
5556
0a5c
0175
cafe
3c05
5556
0a5c
017a
cafe
2015
5556
0a60
0147
cafe
240e
5556
0a60
0108
cafe
281e
5556
0a60
012d
cafe
2c06
5556
0a60
012c
cafe
3016
5556
0a64
010a
cafe
340f
5556
0a64
01c3
cafe
381f
5556
0a64
017e
cafe
3c07
5556
0a64
014b
cafe
2017
5556
0a68
0163
cafe
2408
5556
0a68
01ea
cafe
2818
5556
0a68
0228
cafe
2c00
5556
0a68
00f4
cafe
3010
5556
0a6c
0177
cafe
3409
5556
0a6c
016f
cafe
3819
5556
0a6c
0186
cafe
3c01
5556
0a6c
010b
cafe
2011
5556
0a70
0193
cafe
240a
5556
0a70
0135
cafe
281a
5556
0a70
0113
cafe
2c02
5556
0a70
00fa
cafe
3012
5556
0a74
00fd
cafe
340b
5556
0a74
01ca
cafe
381b
5556
0a74
013d
cafe
3c03
5556
0a74
018d
cafe
2013
5556
0a78
0123
cafe
240c
5556
0a78
0149
cafe
281c
5556
0a78
0159
cafe
2c04
5556
0a78
018f
cafe
3014
5556
0a7c
0115
cafe
340d
5556
0a7c
0184
cafe
381d
5556
0a7c
0177
cafe
3c05
5556
0a7c
017f
cafe
2015
5556
0a80
014c
cafe
240e
5556
0a80
0107
cafe
281e
5556
0a80
0132
cafe
2c06
5556
0a80
0126
cafe
3016
-
5556
0a84
0113
cafe
340f
5556
0a84
01c4
cafe
381f
5556
0a84
017e
cafe
3c07
5556
0a84
013e
cafe
2017
5556
0a88
0165
cafe
2408
5556
0a88
01ee
cafe
2818
5556
0a88
021e
cafe
2c00
5556
0a88
00f3
cafe
3010
5556
0a8c
017c
cafe
3409
5556
0a8c
016b
cafe
3819
5556
0a8c
018b
cafe
3c01
5556
0a8c
010f
cafe
2011
5556
0a90
0191
cafe
240a
5556
0a90
0139
cafe
281a
5556
0a90
011a
cafe
2c02
5556
0a90
00f8
cafe
3012
5556
0a94
00f7
cafe
340b
5556
0a94
01cd
cafe
381b
5556
0a94
013d
cafe
3c03
5556
0a94
0195
cafe
2013
5556
0a98
0129
cafe
240c
5556
0a98
0140
cafe
281c
5556
0a98
0155
cafe
2c04
5556
0a98
019b
cafe
3014
5556
0a9c
0119
cafe
340d
5556
0a9c
0188
cafe
381d
5556
0a9c
0178
cafe
3c05
5556
0a9c
017c
cafe
2015
5556
0aa0
0142
cafe
240e
5556
0aa0
00fb
cafe
281e
5556
0aa0
012d
cafe
2c06
5556
0aa0
0123
cafe
3016
5556
0aa4
0108
cafe
340f
5556
0aa4
01c7
cafe
381f
5556
0aa4
017d
cafe
3c07
5556
0aa4
0143
cafe
2017
5556
0aa8
0165
cafe
2408
5556
0aa8
01f8
cafe
2818
5556
0aa8
0223
cafe
2c00
5556
0aa8
00f9
cafe
3010
5556
0aac
0177
cafe
3409
5556
0aac
016a
cafe
3819
5556
0aac
018d
cafe
3c01
5556
0aac
0118
cafe
2011
5556
0ab0
0196
cafe
240a
5556
0ab0
0133
cafe
281a
5556
0ab0
011f
cafe
2c02
5556
0ab0
00f4
cafe
3012
5556
0ab4
00f9
cafe
340b
5556
0ab4
01c7
cafe
381b
5556
0ab4
013a
cafe
3c03
5556
-
0ab4
0193
cafe
2013
5556
0ab8
0124
cafe
240c
5556
0ab8
0144
cafe
281c
5556
0ab8
0150
cafe
2c04
5556
0ab8
019b
cafe
3014
5556
0abc
011b
cafe
340d
5556
0abc
018d
cafe
381d
5556
0abc
0184
cafe
3c05
5556
0abc
017b
cafe
2015
5556
0ac0
014d
cafe
240e
5556
0ac0
010e
cafe
281e
5556
0ac0
0130
cafe
2c06
5556
0ac0
0124
cafe
3016
5556
0ac4
010b
cafe
340f
5556
0ac4
01bd
cafe
381f
5556
0ac4
0176
cafe
3c07
5556
0ac4
0149
cafe
2017
5556
0ac8
016d
cafe
2408
5556
0ac8
01fa
cafe
2818
5556
0ac8
021b
cafe
2c00
5556
0ac8
00fa
cafe
3010
5556
0acc
017d
cafe
3409
5556
0acc
0171
cafe
3819
5556
0acc
0187
cafe
3c01
5556
0acc
011a
cafe
2011
5556
0ad0
0190
cafe
240a
5556
0ad0
013b
cafe
281a
5556
0ad0
0119
cafe
2c02
5556
0ad0
00fb
cafe
3012
5556
0ad4
00f6
cafe
340b
5556
0ad4
01c1
cafe
381b
5556
0ad4
0136
cafe
3c03
5556
0ad4
0196
cafe
2013
5556
0ad8
0129
cafe
240c
5556
0ad8
0156
cafe
281c
5556
0ad8
0158
cafe
2c04
5556
0ad8
0197
cafe
3014
5556
0adc
0120
cafe
340d
5556
0adc
0185
cafe
381d
5556
0adc
0185
cafe
3c05
5556
0adc
017e
cafe
2015
5556
0ae0
0147
cafe
240e
5556
0ae0
010f
cafe
281e
5556
0ae0
012f
cafe
2c06
5556
0ae0
0126
cafe
3016
5556
0ae4
0112
cafe
340f
5556
0ae4
01c2
cafe
381f
5556
0ae4
0175
cafe
3c07
5556
0ae4
014c
cafe
2017
5556
0ae8
016f
cafe
2408
5556
0ae8
01f2
cafe
2818
5556
0ae8
-
0216
cafe
2c00
5556
0ae8
00eb
cafe
3010
5556
0aec
0178
cafe
3409
5556
0aec
016a
cafe
3819
5556
0aec
017f
cafe
3c01
5556
0aec
0125
cafe
2011
5556
0af0
018b
cafe
240a
5556
0af0
013c
cafe
281a
5556
0af0
0117
cafe
2c02
5556
0af0
00fa
cafe
3012
5556
0af4
00ec
cafe
340b
5556
0af4
01c2
cafe
381b
5556
0af4
0131
cafe
3c03
5556
0af4
0193
cafe
2013
5556
0af8
0128
cafe
240c
5556
0af8
014e
cafe
281c
5556
0af8
0159
cafe
2c04
5556
0af8
0194
cafe
3014
5556
0afc
0120
cafe
340d
5556
0afc
0185
cafe
381d
5556
0afc
017d
cafe
3c05
5556
0afc
0175
cafe
2015
5556
0b00
0150
cafe
240e
5556
0b00
0118
cafe
281e
5556
0b00
012a
cafe
2c06
5556
0b00
012a
cafe
3016
5556
0b04
0113
cafe
340f
5556
0b04
01c0
cafe
381f
5556
0b04
0176
cafe
3c07
5556
0b04
0152
cafe
2017
5556
0b08
016a
cafe
2408
5556
0b08
01ec
cafe
2818
5556
0b08
021f
cafe
2c00
5556
0b08
00ef
cafe
3010
5556
0b0c
0173
cafe
3409
5556
0b0c
0167
cafe
3819
5556
0b0c
017d
cafe
3c01
5556
0b0c
0125
cafe
2011
5556
0b10
0187
cafe
240a
5556
0b10
0141
cafe
281a
5556
0b10
0116
cafe
2c02
5556
0b10
00fa
cafe
3012
5556
0b14
00e5
cafe
340b
5556
0b14
01c4
cafe
381b
5556
0b14
0138
cafe
3c03
5556
0b14
0196
cafe
2013
5556
0b18
012d
cafe
240c
5556
0b18
0150
cafe
281c
5556
0b18
0161
cafe
2c04
5556
0b18
018e
cafe
3014
5556
0b1c
0123
cafe
340d
5556
0b1c
0175
-
cafe
381d
5556
0b1c
0177
cafe
3c05
5556
0b1c
0177
cafe
2015
5556
0b20
0153
cafe
240e
5556
0b20
0107
cafe
281e
5556
0b20
012d
cafe
2c06
5556
0b20
012c
cafe
3016
5556
0b24
010d
cafe
340f
5556
0b24
01ba
cafe
381f
5556
0b24
0176
cafe
3c07
5556
0b24
0149
cafe
2017
5556
0b28
0164
cafe
2408
5556
0b28
01f1
cafe
2818
5556
0b28
0223
cafe
2c00
5556
0b28
00f6
cafe
3010
5556
0b2c
0178
cafe
3409
5556
0b2c
0159
cafe
3819
5556
0b2c
0184
cafe
3c01
5556
0b2c
011c
cafe
2011
5556
0b30
018a
cafe
240a
5556
0b30
0140
cafe
281a
5556
0b30
0113
cafe
2c02
5556
0b30
00fa
cafe
3012
5556
0b34
00ed
cafe
340b
5556
0b34
01c9
cafe
381b
5556
0b34
013d
cafe
3c03
5556
0b34
018e
cafe
2013
5556
0b38
012b
cafe
240c
5556
0b38
0155
cafe
281c
5556
0b38
015f
cafe
2c04
5556
0b38
018a
cafe
3014
5556
0b3c
0120
cafe
340d
5556
0b3c
0180
cafe
381d
5556
0b3c
0176
cafe
3c05
5556
0b3c
017c
cafe
2015
5556
0b40
0158
cafe
240e
5556
0b40
0112
cafe
281e
5556
0b40
012e
cafe
2c06
5556
0b40
013a
cafe
3016
5556
0b44
010d
cafe
340f
5556
0b44
01c2
cafe
381f
5556
0b44
0174
cafe
3c07
5556
0b44
014c
cafe
2017
5556
0b48
0165
cafe
2408
5556
0b48
01ee
cafe
2818
5556
0b48
022a
cafe
2c00
5556
0b48
00f3
cafe
3010
5556
0b4c
0180
cafe
3409
5556
0b4c
0163
cafe
3819
5556
0b4c
0181
cafe
3c01
5556
0b4c
0120
cafe
2011
5556
0b50
0187
cafe
-
240a
5556
0b50
013f
cafe
281a
5556
0b50
010f
cafe
2c02
5556
0b50
00fb
cafe
3012
5556
0b54
00ed
cafe
340b
5556
0b54
01d7
cafe
381b
5556
0b54
0133
cafe
3c03
5556
0b54
0198
cafe
2013
5556
0b58
0122
cafe
240c
5556
0b58
014b
cafe
281c
5556
0b58
0151
cafe
2c04
5556
0b58
0186
cafe
3014
5556
0b5c
0120
cafe
340d
5556
0b5c
0184
cafe
381d
5556
0b5c
0180
cafe
3c05
5556
0b5c
017e
cafe
2015
5556
0b60
014c
cafe
240e
5556
0b60
010f
cafe
281e
5556
0b60
0135
cafe
2c06
5556
0b60
0138
cafe
3016
5556
0b64
010b
cafe
340f
5556
0b64
01ba
cafe
381f
5556
0b64
017b
cafe
3c07
5556
0b64
014e
cafe
2017
5556
0b68
0166
cafe
2408
5556
0b68
01de
cafe
2818
5556
0b68
022d
cafe
2c00
5556
0b68
00ec
cafe
3010
5556
0b6c
017d
cafe
3409
5556
0b6c
016e
cafe
3819
5556
0b6c
0181
cafe
3c01
5556
0b6c
0121
cafe
2011
5556
0b70
018b
cafe
240a
5556
0b70
013e
cafe
281a
5556
0b70
0106
cafe
2c02
5556
0b70
00f5
cafe
3012
5556
0b74
00e9
cafe
340b
5556
0b74
01d1
cafe
381b
5556
0b74
0131
cafe
3c03
5556
0b74
019d
cafe
2013
5556
0b78
0125
cafe
240c
5556
0b78
014e
cafe
281c
5556
0b78
015a
cafe
2c04
5556
0b78
018a
cafe
3014
5556
0b7c
011f
cafe
340d
5556
0b7c
0186
cafe
381d
5556
0b7c
0184
cafe
3c05
5556
0b7c
017d
cafe
2015
5556
0b80
014f
cafe
240e
5556
0b80
010f
cafe
281e
5556
0b80
0139
cafe
2c06
5556
0b80
0132
cafe
3016
-
5556
0b84
0109
cafe
340f
5556
0b84
01b6
cafe
381f
5556
0b84
0179
cafe
3c07
5556
0b84
014e
cafe
2017
5556
0b88
0164
cafe
2408
5556
0b88
01e6
cafe
2818
5556
0b88
022a
cafe
2c00
5556
0b88
00e5
cafe
3010
5556
0b8c
017f
cafe
3409
5556
0b8c
016b
cafe
3819
5556
0b8c
0183
cafe
3c01
5556
0b8c
011f
cafe
2011
5556
0b90
0181
cafe
240a
5556
0b90
013b
cafe
281a
5556
0b90
0103
cafe
2c02
5556
0b90
00fb
cafe
3012
5556
0b94
00f1
cafe
340b
5556
0b94
01cb
cafe
381b
5556
0b94
013a
cafe
3c03
5556
0b94
0192
cafe
2013
5556
0b98
0126
cafe
240c
5556
0b98
014b
cafe
281c
5556
0b98
0153
cafe
2c04
5556
0b98
0192
cafe
3014
5556
0b9c
0129
cafe
340d
5556
0b9c
0188
cafe
381d
5556
0b9c
017f
cafe
3c05
5556
0b9c
0176
cafe
2015
5556
0ba0
0148
cafe
240e
5556
0ba0
010c
cafe
281e
5556
0ba0
0139
cafe
2c06
5556
0ba0
013a
cafe
3016
5556
0ba4
0102
cafe
340f
5556
0ba4
01b6
cafe
381f
5556
0ba4
0177
cafe
3c07
5556
0ba4
0149
cafe
2017
5556
0ba8
0160
cafe
2408
5556
0ba8
01e5
cafe
2818
5556
0ba8
022f
cafe
2c00
5556
0ba8
00f2
cafe
3010
5556
0bac
017e
cafe
3409
5556
0bac
016b
cafe
3819
5556
0bac
0187
cafe
3c01
5556
0bac
011d
cafe
2011
5556
0bb0
018b
cafe
240a
5556
0bb0
0141
cafe
281a
5556
0bb0
010c
cafe
2c02
5556
0bb0
00fa
cafe
3012
5556
0bb4
0101
cafe
340b
5556
0bb4
01cf
cafe
381b
5556
0bb4
012c
cafe
3c03
5556
-
0bb4
018f
cafe
2013
5556
0bb8
0126
cafe
240c
5556
0bb8
0148
cafe
281c
5556
0bb8
0153
cafe
2c04
5556
0bb8
0192
cafe
3014
5556
0bbc
0129
cafe
340d
5556
0bbc
0193
cafe
381d
5556
0bbc
0186
cafe
3c05
5556
0bbc
0185
cafe
2015
5556
0bc0
0144
cafe
240e
5556
0bc0
010a
cafe
281e
5556
0bc0
0138
cafe
2c06
5556
0bc0
013c
cafe
3016
5556
0bc4
010c
cafe
340f
5556
0bc4
01b8
cafe
381f
5556
0bc4
0174
cafe
3c07
5556
0bc4
0150
cafe
2017
5556
0bc8
0164
cafe
2408
5556
0bc8
01e3
cafe
2818
5556
0bc8
0224
cafe
2c00
5556
0bc8
00f4
cafe
3010
5556
0bcc
0178
cafe
3409
5556
0bcc
015d
cafe
3819
5556
0bcc
0183
cafe
3c01
5556
0bcc
011e
cafe
2011
5556
0bd0
0185
cafe
240a
5556
0bd0
013d
cafe
281a
5556
0bd0
010c
cafe
2c02
5556
0bd0
00fc
cafe
3012
5556
0bd4
0100
cafe
340b
5556
0bd4
01c4
cafe
381b
5556
0bd4
012e
cafe
3c03
5556
0bd4
018d
cafe
2013
5556
0bd8
011f
cafe
240c
5556
0bd8
0149
cafe
281c
5556
0bd8
014f
cafe
2c04
5556
0bd8
018c
cafe
3014
5556
0bdc
0125
cafe
340d
5556
0bdc
018b
cafe
381d
5556
0bdc
0187
cafe
3c05
5556
0bdc
0178
cafe
2015
5556
0be0
0149
cafe
240e
5556
0be0
010d
cafe
281e
5556
0be0
013b
cafe
2c06
5556
0be0
013d
cafe
3016
5556
0be4
0110
cafe
340f
5556
0be4
01c6
cafe
381f
5556
0be4
0178
cafe
3c07
5556
0be4
014a
cafe
2017
5556
0be8
0165
cafe
2408
5556
0be8
01f0
cafe
2818
5556
0be8
-
0222
cafe
2c00
5556
0be8
00fc
cafe
3010
5556
0bec
0188
cafe
3409
5556
0bec
015f
cafe
3819
5556
0bec
0188
cafe
3c01
5556
0bec
0123
cafe
2011
5556
0bf0
0179
cafe
240a
5556
0bf0
0137
cafe
281a
5556
0bf0
010c
cafe
2c02
5556
0bf0
00ff
cafe
3012
5556
0bf4
00fb
cafe
340b
5556
0bf4
01c3
cafe
381b
5556
0bf4
0130
cafe
3c03
5556
0bf4
0189
cafe
2013
5556
0bf8
0123
cafe
240c
5556
0bf8
0147
cafe
281c
5556
0bf8
0151
cafe
2c04
5556
0bf8
0193
cafe
3014
5556
0bfc
0129
cafe
340d
5556
0bfc
0193
cafe
381d
5556
0bfc
017c
cafe
3c05
5556
0bfc
017c
cafe
2015
5556
0c00
0146
cafe
240e
5556
0c00
0111
cafe
281e
5556
0c00
0139
cafe
2c06
5556
0c00
012c
cafe
3016
5556
0c04
0106
cafe
340f
5556
0c04
01ca
cafe
381f
5556
0c04
017c
cafe
3c07
5556
0c04
0145
cafe
2017
5556
0c08
0165
cafe
2408
5556
0c08
01f3
cafe
2818
5556
0c08
021b
cafe
2c00
5556
0c08
00f6
cafe
3010
5556
0c0c
017f
cafe
3409
5556
0c0c
0170
cafe
3819
5556
0c0c
018d
cafe
3c01
5556
0c0c
010a
cafe
2011
5556
0c10
017f
cafe
240a
5556
0c10
0135
cafe
281a
5556
0c10
0117
cafe
2c02
5556
0c10
00f1
cafe
3012
5556
0c14
00f9
cafe
340b
5556
0c14
01c4
cafe
381b
5556
0c14
012e
cafe
3c03
5556
0c14
0189
cafe
2013
5556
0c18
0126
cafe
240c
5556
0c18
0149
cafe
281c
5556
0c18
0157
cafe
2c04
5556
0c18
0196
cafe
3014
5556
0c1c
0123
cafe
340d
5556
0c1c
018a
-
cafe
381d
5556
0c1c
017a
cafe
3c05
5556
0c1c
0183
cafe
2015
5556
0c20
0151
cafe
240e
5556
0c20
0111
cafe
281e
5556
0c20
0136
cafe
2c06
5556
0c20
012b
cafe
3016
5556
0c24
0106
cafe
340f
5556
0c24
01c5
cafe
381f
5556
0c24
0181
cafe
3c07
5556
0c24
0148
cafe
2017
5556
0c28
016d
cafe
2408
5556
0c28
01f3
cafe
2818
5556
0c28
021e
cafe
2c00
5556
0c28
010c
cafe
3010
5556
0c2c
0184
cafe
3409
5556
0c2c
016f
cafe
3819
5556
0c2c
018b
cafe
3c01
5556
0c2c
0129
cafe
2011
5556
0c30
0183
cafe
240a
5556
0c30
0138
cafe
281a
5556
0c30
0111
cafe
2c02
5556
0c30
00f3
cafe
3012
5556
0c34
00fb
cafe
340b
5556
0c34
01c5
cafe
381b
5556
0c34
0130
cafe
3c03
5556
0c34
018a
cafe
2013
5556
0c38
0125
cafe
240c
5556
0c38
015c
cafe
281c
5556
0c38
0150
cafe
2c04
5556
0c38
0196
cafe
3014
5556
0c3c
0119
cafe
340d
5556
0c3c
017c
cafe
381d
5556
0c3c
017c
cafe
3c05
5556
0c3c
017e
cafe
2015
5556
0c40
0152
cafe
240e
5556
0c40
010f
cafe
281e
5556
0c40
012f
cafe
2c06
5556
0c40
012d
cafe
3016
5556
0c44
010e
cafe
340f
5556
0c44
01c3
cafe
381f
5556
0c44
017e
cafe
3c07
5556
0c44
014a
cafe
2017
5556
0c48
015f
cafe
2408
5556
0c48
01ee
cafe
2818
5556
0c48
0222
cafe
2c00
5556
0c48
00fb
cafe
3010
5556
0c4c
0186
cafe
3409
5556
0c4c
016c
cafe
3819
5556
0c4c
0190
cafe
3c01
5556
0c4c
0125
cafe
2011
5556
0c50
017e
cafe
-
240a
5556
0c50
0136
cafe
281a
5556
0c50
0112
cafe
2c02
5556
0c50
0101
cafe
3012
5556
0c54
00f4
cafe
340b
5556
0c54
01c1
cafe
381b
5556
0c54
0131
cafe
3c03
5556
0c54
018f
cafe
2013
5556
0c58
0127
cafe
240c
5556
0c58
0154
cafe
281c
5556
0c58
0157
cafe
2c04
5556
0c58
0193
cafe
3014
5556
0c5c
011b
cafe
340d
5556
0c5c
0188
cafe
381d
5556
0c5c
0180
cafe
3c05
5556
0c5c
0182
cafe
2015
5556
0c60
014f
cafe
240e
5556
0c60
0115
cafe
281e
5556
0c60
0138
cafe
2c06
5556
0c60
0136
cafe
3016
5556
0c64
010d
cafe
340f
5556
0c64
01c0
cafe
381f
5556
0c64
017e
cafe
3c07
5556
0c64
013e
cafe
2017
5556
0c68
0163
cafe
2408
5556
0c68
01f1
cafe
2818
5556
0c68
0222
cafe
2c00
5556
0c68
00f2
cafe
3010
5556
0c6c
017d
cafe
3409
5556
0c6c
0176
cafe
3819
5556
0c6c
018e
cafe
3c01
5556
0c6c
012b
cafe
2011
5556
0c70
0185
cafe
240a
5556
0c70
012a
cafe
281a
5556
0c70
010d
cafe
2c02
5556
0c70
0101
cafe
3012
5556
0c74
00f8
cafe
340b
5556
0c74
01c8
cafe
381b
5556
0c74
0133
cafe
3c03
5556
0c74
018e
cafe
2013
5556
0c78
012b
cafe
240c
5556
0c78
0156
cafe
281c
5556
0c78
015d
cafe
2c04
5556
0c78
01a4
cafe
3014
5556
0c7c
011e
cafe
340d
5556
0c7c
0183
cafe
381d
5556
0c7c
017d
cafe
3c05
5556
0c7c
017b
cafe
2015
5556
0c80
014b
cafe
240e
5556
0c80
011a
cafe
281e
5556
0c80
0132
cafe
2c06
5556
0c80
0132
cafe
3016
-
5556
0c84
010f
cafe
340f
5556
0c84
01c5
cafe
381f
5556
0c84
0179
cafe
3c07
5556
0c84
0140
cafe
2017
5556
0c88
015e
cafe
2408
5556
0c88
01f3
cafe
2818
5556
0c88
021f
cafe
2c00
5556
0c88
00fc
cafe
3010
5556
0c8c
0181
cafe
3409
5556
0c8c
017a
cafe
3819
5556
0c8c
0185
cafe
3c01
5556
0c8c
011f
cafe
2011
5556
0c90
018a
cafe
240a
5556
0c90
0132
cafe
281a
5556
0c90
0117
cafe
2c02
5556
0c90
0109
cafe
3012
5556
0c94
00f5
cafe
340b
5556
0c94
01c9
cafe
381b
5556
0c94
0138
cafe
3c03
5556
0c94
018b
cafe
2013
5556
0c98
012b
cafe
240c
5556
0c98
0150
cafe
281c
5556
0c98
0156
cafe
2c04
5556
0c98
019b
cafe
3014
5556
0c9c
011f
cafe
340d
5556
0c9c
0189
cafe
381d
5556
0c9c
0178
cafe
3c05
5556
0c9c
0179
cafe
2015
5556
0ca0
014b
cafe
240e
5556
0ca0
0118
cafe
281e
5556
0ca0
012f
cafe
2c06
5556
0ca0
0133
cafe
3016
5556
0ca4
0113
cafe
340f
5556
0ca4
01c9
cafe
381f
5556
0ca4
0176
cafe
3c07
5556
0ca4
0142
cafe
2017
5556
0ca8
0167
cafe
2408
5556
0ca8
01f5
cafe
2818
5556
0ca8
021d
cafe
2c00
5556
0ca8
00f3
cafe
3010
5556
0cac
017e
cafe
3409
5556
0cac
0172
cafe
3819
5556
0cac
0185
cafe
3c01
5556
0cac
011f
cafe
2011
5556
0cb0
0181
cafe
240a
5556
0cb0
012f
cafe
281a
5556
0cb0
0116
cafe
2c02
5556
0cb0
0106
cafe
3012
5556
0cb4
00e8
cafe
340b
5556
0cb4
01cc
cafe
381b
5556
0cb4
0140
cafe
3c03
5556
-
0cb4
018a
cafe
2013
5556
0cb8
0128
cafe
240c
5556
0cb8
014a
cafe
281c
5556
0cb8
0156
cafe
2c04
5556
0cb8
01a2
cafe
3014
5556
0cbc
0123
cafe
340d
5556
0cbc
018b
cafe
381d
5556
0cbc
017b
cafe
3c05
5556
0cbc
0179
cafe
2015
5556
0cc0
014a
cafe
240e
5556
0cc0
011d
cafe
281e
5556
0cc0
0135
cafe
2c06
5556
0cc0
0138
cafe
3016
5556
0cc4
0113
cafe
340f
5556
0cc4
01cc
cafe
381f
5556
0cc4
0176
cafe
3c07
5556
0cc4
0137
cafe
2017
5556
0cc8
0162
cafe
2408
5556
0cc8
01f4
cafe
2818
5556
0cc8
0221
cafe
2c00
5556
0cc8
00fb
cafe
3010
5556
0ccc
0177
cafe
3409
5556
0ccc
0168
cafe
3819
5556
0ccc
018a
cafe
3c01
5556
0ccc
011f
cafe
2011
5556
0cd0
0187
cafe
240a
5556
0cd0
012a
cafe
281a
5556
0cd0
0117
cafe
2c02
5556
0cd0
0104
cafe
3012
5556
0cd4
00f0
cafe
340b
5556
0cd4
01c7
cafe
381b
5556
0cd4
013a
cafe
3c03
5556
0cd4
0181
cafe
2013
5556
0cd8
0127
cafe
240c
5556
0cd8
0152
cafe
281c
5556
0cd8
0151
cafe
2c04
5556
0cd8
0198
cafe
3014
5556
0cdc
0122
cafe
340d
5556
0cdc
0194
cafe
381d
5556
0cdc
0174
cafe
3c05
5556
0cdc
017e
cafe
2015
5556
0ce0
0147
cafe
240e
5556
0ce0
0113
cafe
281e
5556
0ce0
0136
cafe
2c06
5556
0ce0
0132
cafe
3016
5556
0ce4
010b
cafe
340f
5556
0ce4
01bd
cafe
381f
5556
0ce4
017a
cafe
3c07
5556
0ce4
0137
cafe
2017
5556
0ce8
0162
cafe
2408
5556
0ce8
01f5
cafe
2818
5556
0ce8
-
021a
cafe
2c00
5556
0ce8
00f8
cafe
3010
5556
0cec
0174
cafe
3409
5556
0cec
0167
cafe
3819
5556
0cec
0192
cafe
3c01
5556
0cec
011d
cafe
2011
5556
0cf0
0188
cafe
240a
5556
0cf0
0124
cafe
281a
5556
0cf0
0120
cafe
2c02
5556
0cf0
0103
cafe
3012
5556
0cf4
00e6
cafe
340b
5556
0cf4
01c8
cafe
381b
5556
0cf4
0134
cafe
3c03
5556
0cf4
017d
cafe
2013
5556
0cf8
0122
cafe
240c
5556
0cf8
0146
cafe
281c
5556
0cf8
014b
cafe
2c04
5556
0cf8
019b
cafe
3014
5556
0cfc
011d
cafe
340d
5556
0cfc
0190
cafe
381d
5556
0cfc
0175
cafe
3c05
5556
0cfc
0177
cafe
2015
5556
0d00
013f
cafe
240e
5556
0d00
010a
cafe
281e
5556
0d00
0132
cafe
2c06
5556
0d00
0131
cafe
3016
5556
0d04
010c
cafe
340f
5556
0d04
01bc
cafe
381f
5556
0d04
0183
cafe
3c07
5556
0d04
013d
cafe
2017
5556
0d08
015b
cafe
2408
5556
0d08
01ed
cafe
2818
5556
0d08
0217
cafe
2c00
5556
0d08
00f4
cafe
3010
5556
0d0c
017b
cafe
3409
5556
0d0c
016d
cafe
3819
5556
0d0c
0190
cafe
3c01
5556
0d0c
0118
cafe
2011
5556
0d10
018f
cafe
240a
5556
0d10
0121
cafe
281a
5556
0d10
0123
cafe
2c02
5556
0d10
010e
cafe
3012
5556
0d14
00e7
cafe
340b
5556
0d14
01d7
cafe
381b
5556
0d14
0132
cafe
3c03
5556
0d14
017a
cafe
2013
5556
0d18
0129
cafe
240c
5556
0d18
014e
cafe
281c
5556
0d18
014a
cafe
2c04
5556
0d18
019e
cafe
3014
5556
0d1c
0121
cafe
340d
5556
0d1c
0189
-
cafe
381d
5556
0d1c
0173
cafe
3c05
5556
0d1c
0175
cafe
2015
5556
0d20
0145
cafe
240e
5556
0d20
010f
cafe
281e
5556
0d20
0132
cafe
2c06
5556
0d20
012e
cafe
3016
5556
0d24
0111
cafe
340f
5556
0d24
01c6
cafe
381f
5556
0d24
018c
cafe
3c07
5556
0d24
0142
cafe
2017
5556
0d28
0163
cafe
2408
5556
0d28
01f0
cafe
2818
5556
0d28
021d
cafe
2c00
5556
0d28
00f9
cafe
3010
5556
0d2c
017d
cafe
3409
5556
0d2c
0171
cafe
3819
5556
0d2c
0190
cafe
3c01
5556
0d2c
011a
cafe
2011
5556
0d30
0194
cafe
240a
5556
0d30
012b
cafe
281a
5556
0d30
0126
cafe
2c02
5556
0d30
010f
cafe
3012
5556
0d34
00e9
cafe
340b
5556
0d34
01d4
cafe
381b
5556
0d34
012f
cafe
3c03
5556
0d34
0181
cafe
2013
5556
0d38
0128
cafe
240c
5556
0d38
0153
cafe
281c
5556
0d38
0144
cafe
2c04
5556
0d38
01a4
cafe
3014
5556
0d3c
0122
cafe
340d
5556
0d3c
018f
cafe
381d
5556
0d3c
0172
cafe
3c05
5556
0d3c
016e
cafe
2015
5556
0d40
0145
cafe
240e
5556
0d40
010f
cafe
281e
5556
0d40
0132
cafe
2c06
5556
0d40
0136
cafe
3016
5556
0d44
0117
cafe
340f
5556
0d44
01c0
cafe
381f
5556
0d44
0194
cafe
3c07
5556
0d44
013f
cafe
2017
5556
0d48
0163
cafe
2408
5556
0d48
01e8
cafe
2818
5556
0d48
0222
cafe
2c00
5556
0d48
00f6
cafe
3010
5556
0d4c
017e
cafe
3409
5556
0d4c
0171
cafe
3819
5556
0d4c
018d
cafe
3c01
5556
0d4c
0114
cafe
2011
5556
0d50
0193
cafe
-
240a
5556
0d50
0134
cafe
281a
5556
0d50
0125
cafe
2c02
5556
0d50
0110
cafe
3012
5556
0d54
00f0
cafe
340b
5556
0d54
01d1
cafe
381b
5556
0d54
0131
cafe
3c03
5556
0d54
0189
cafe
2013
5556
0d58
012a
cafe
240c
5556
0d58
0154
cafe
281c
5556
0d58
0145
cafe
2c04
5556
0d58
019f
cafe
3014
5556
0d5c
0127
cafe
340d
5556
0d5c
0187
cafe
381d
5556
0d5c
0171
cafe
3c05
5556
0d5c
016c
cafe
2015
5556
0d60
0148
cafe
240e
5556
0d60
0113
cafe
281e
5556
0d60
012e
cafe
2c06
5556
0d60
0140
cafe
3016
5556
0d64
0121
cafe
340f
5556
0d64
01bc
cafe
381f
5556
0d64
0191
cafe
3c07
5556
0d64
013d
cafe
2017
5556
0d68
015a
cafe
2408
5556
0d68
01ed
cafe
2818
5556
0d68
021e
cafe
2c00
5556
0d68
00fc
cafe
3010
5556
0d6c
0179
cafe
3409
5556
0d6c
0160
cafe
3819
5556
0d6c
0187
cafe
3c01
5556
0d6c
0121
cafe
2011
5556
0d70
0196
cafe
240a
5556
0d70
013d
cafe
281a
5556
0d70
0122
cafe
2c02
5556
0d70
010e
cafe
3012
5556
0d74
00f3
cafe
340b
5556
0d74
01cf
cafe
381b
5556
0d74
0139
cafe
3c03
5556
0d74
018c
cafe
2013
5556
0d78
012f
cafe
240c
5556
0d78
014b
cafe
281c
5556
0d78
0141
cafe
2c04
5556
0d78
0194
cafe
3014
5556
0d7c
011b
cafe
340d
5556
0d7c
0189
cafe
381d
5556
0d7c
0173
cafe
3c05
5556
0d7c
016c
cafe
2015
5556
0d80
0143
cafe
240e
5556
0d80
0110
cafe
281e
5556
0d80
0130
cafe
2c06
5556
0d80
014a
cafe
3016
-
5556
0d84
011b
cafe
340f
5556
0d84
01ba
cafe
381f
5556
0d84
018c
cafe
3c07
5556
0d84
0139
cafe
2017
5556
0d88
0164
cafe
2408
5556
0d88
01f4
cafe
2818
5556
0d88
021a
cafe
2c00
5556
0d88
00f9
cafe
3010
5556
0d8c
017c
cafe
3409
5556
0d8c
0166
cafe
3819
5556
0d8c
0181
cafe
3c01
5556
0d8c
011d
cafe
2011
5556
0d90
0195
cafe
240a
5556
0d90
012f
cafe
281a
5556
0d90
0129
cafe
2c02
5556
0d90
0110
cafe
3012
5556
0d94
00eb
cafe
340b
5556
0d94
01d0
cafe
381b
5556
0d94
0136
cafe
3c03
5556
0d94
018c
cafe
2013
5556
0d98
0130
cafe
240c
5556
0d98
014e
cafe
281c
5556
0d98
0148
cafe
2c04
5556
0d98
0195
cafe
3014
5556
0d9c
0119
cafe
340d
5556
0d9c
0186
cafe
381d
5556
0d9c
0179
cafe
3c05
5556
0d9c
0174
cafe
2015
5556
0da0
0153
cafe
240e
5556
0da0
0112
cafe
281e
5556
0da0
012f
cafe
2c06
5556
0da0
0147
cafe
3016
5556
0da4
011c
cafe
340f
5556
0da4
01b3
cafe
381f
5556
0da4
0186
cafe
3c07
5556
0da4
0137
cafe
2017
5556
0da8
0164
cafe
2408
5556
0da8
01f8
cafe
2818
5556
0da8
021d
cafe
2c00
5556
0da8
00f9
cafe
3010
5556
0dac
0174
cafe
3409
5556
0dac
0162
cafe
3819
5556
0dac
0182
cafe
3c01
5556
0dac
011d
cafe
2011
5556
0db0
0195
cafe
240a
5556
0db0
012c
cafe
281a
5556
0db0
0127
cafe
2c02
5556
0db0
0103
cafe
3012
5556
0db4
00f0
cafe
340b
5556
0db4
01cc
cafe
381b
5556
0db4
0130
cafe
3c03
5556
-
0db4
0189
cafe
2013
5556
0db8
012c
cafe
240c
5556
0db8
014b
cafe
281c
5556
0db8
014c
cafe
2c04
5556
0db8
0198
cafe
3014
5556
0dbc
011c
cafe
340d
5556
0dbc
018a
cafe
381d
5556
0dbc
0176
cafe
3c05
5556
0dbc
017b
cafe
2015
5556
0dc0
014b
cafe
240e
5556
0dc0
010e
cafe
281e
5556
0dc0
012f
cafe
2c06
5556
0dc0
0141
cafe
3016
5556
0dc4
0114
cafe
340f
5556
0dc4
01b3
cafe
381f
5556
0dc4
0187
cafe
3c07
5556
0dc4
013b
cafe
2017
5556
0dc8
0163
cafe
2408
5556
0dc8
01ef
cafe
2818
5556
0dc8
0221
cafe
2c00
5556
0dc8
0100
cafe
3010
5556
0dcc
0177
cafe
3409
5556
0dcc
0161
cafe
3819
5556
0dcc
0184
cafe
3c01
5556
0dcc
0110
cafe
2011
5556
0dd0
0190
cafe
240a
5556
0dd0
0127
cafe
281a
5556
0dd0
0125
cafe
2c02
5556
0dd0
0102
cafe
3012
5556
0dd4
00ef
cafe
340b
5556
0dd4
01cc
cafe
381b
5556
0dd4
0133
cafe
3c03
5556
0dd4
0185
cafe
2013
5556
0dd8
0127
cafe
240c
5556
0dd8
014a
cafe
281c
5556
0dd8
0148
cafe
2c04
5556
0dd8
019e
cafe
3014
5556
0ddc
0113
cafe
340d
5556
0ddc
018a
cafe
381d
5556
0ddc
017c
cafe
3c05
5556
0ddc
0174
cafe
2015
5556
0de0
0158
cafe
240e
5556
0de0
0110
cafe
281e
5556
0de0
012f
cafe
2c06
5556
0de0
0142
cafe
3016
5556
0de4
0112
cafe
340f
5556
0de4
01b6
cafe
381f
5556
0de4
0181
cafe
3c07
5556
0de4
013c
cafe
2017
5556
0de8
0169
cafe
2408
5556
0de8
01f6
cafe
2818
5556
0de8
-
021e
cafe
2c00
5556
0de8
00f5
cafe
3010
5556
0dec
017c
cafe
3409
5556
0dec
0160
cafe
3819
5556
0dec
0184
cafe
3c01
5556
0dec
0116
cafe
2011
5556
0df0
0193
cafe
240a
5556
0df0
012e
cafe
281a
5556
0df0
0124
cafe
2c02
5556
0df0
010c
cafe
3012
5556
0df4
00ef
cafe
340b
5556
0df4
01cd
cafe
381b
5556
0df4
0132
cafe
3c03
5556
0df4
0187
cafe
2013
5556
0df8
012a
cafe
240c
5556
0df8
014b
cafe
281c
5556
0df8
0150
cafe
2c04
5556
0df8
019e
cafe
3014
5556
0dfc
0115
cafe
340d
5556
0dfc
018e
cafe
381d
5556
0dfc
0176
cafe
3c05
5556
0dfc
0173
cafe
2015
5556
0e00
0156
cafe
240e
5556
0e00
0114
cafe
281e
5556
0e00
0131
cafe
2c06
5556
0e00
0138
cafe
3016
5556
0e04
0119
cafe
340f
5556
0e04
01b3
cafe
381f
5556
0e04
017e
cafe
3c07
5556
0e04
0140
cafe
2017
5556
0e08
016d
cafe
2408
5556
0e08
01f8
cafe
2818
5556
0e08
021d
cafe
2c00
5556
0e08
00fb
cafe
3010
5556
0e0c
0177
cafe
3409
5556
0e0c
0167
cafe
3819
5556
0e0c
0180
cafe
3c01
5556
0e0c
0112
cafe
2011
5556
0e10
0191
cafe
240a
5556
0e10
0121
cafe
281a
5556
0e10
011c
cafe
2c02
5556
0e10
0108
cafe
3012
5556
0e14
00f1
cafe
340b
5556
0e14
01c2
cafe
381b
5556
0e14
0135
cafe
3c03
5556
0e14
018d
cafe
2013
5556
0e18
012b
cafe
240c
5556
0e18
0156
cafe
281c
5556
0e18
014d
cafe
2c04
5556
0e18
01a4
cafe
3014
5556
0e1c
011a
cafe
340d
5556
0e1c
0182
-
cafe
381d
5556
0e1c
0177
cafe
3c05
5556
0e1c
0171
cafe
2015
5556
0e20
0146
cafe
240e
5556
0e20
010e
cafe
281e
5556
0e20
012b
cafe
2c06
5556
0e20
013f
cafe
3016
5556
0e24
0116
cafe
340f
5556
0e24
01b6
cafe
381f
5556
0e24
017f
cafe
3c07
5556
0e24
0142
cafe
2017
5556
0e28
0165
cafe
2408
5556
0e28
01f7
cafe
2818
5556
0e28
021a
cafe
2c00
5556
0e28
00ee
cafe
3010
5556
0e2c
0181
cafe
3409
5556
0e2c
0163
cafe
3819
5556
0e2c
0184
cafe
3c01
5556
0e2c
010f
cafe
2011
5556
0e30
018c
cafe
240a
5556
0e30
011d
cafe
281a
5556
0e30
0114
cafe
2c02
5556
0e30
010f
cafe
3012
5556
0e34
00ea
cafe
340b
5556
0e34
01c6
cafe
381b
5556
0e34
013c
cafe
3c03
5556
0e34
0187
cafe
2013
5556
0e38
0124
cafe
240c
5556
0e38
0158
cafe
281c
5556
0e38
0149
cafe
2c04
5556
0e38
01a7
cafe
3014
5556
0e3c
0121
cafe
340d
5556
0e3c
0180
cafe
381d
5556
0e3c
0178
cafe
3c05
5556
0e3c
0178
cafe
2015
5556
0e40
0141
cafe
240e
5556
0e40
0108
cafe
281e
5556
0e40
0129
cafe
2c06
5556
0e40
0136
cafe
3016
5556
0e44
0119
cafe
340f
5556
0e44
01ad
cafe
381f
5556
0e44
017e
cafe
3c07
5556
0e44
013d
cafe
2017
5556
0e48
015d
cafe
2408
5556
0e48
01f1
cafe
2818
5556
0e48
0215
cafe
2c00
5556
0e48
00f8
cafe
3010
5556
0e4c
017d
cafe
3409
5556
0e4c
0166
cafe
3819
5556
0e4c
018d
cafe
3c01
5556
0e4c
011f
cafe
2011
5556
0e50
0188
cafe
-
240a
5556
0e50
0125
cafe
281a
5556
0e50
0110
cafe
2c02
5556
0e50
010f
cafe
3012
5556
0e54
00eb
cafe
340b
5556
0e54
01ca
cafe
381b
5556
0e54
013f
cafe
3c03
5556
0e54
0181
cafe
2013
5556
0e58
0128
cafe
240c
5556
0e58
015b
cafe
281c
5556
0e58
0145
cafe
2c04
5556
0e58
01a3
cafe
3014
5556
0e5c
012a
cafe
340d
5556
0e5c
018c
cafe
381d
5556
0e5c
0178
cafe
3c05
5556
0e5c
0173
cafe
2015
5556
0e60
014a
cafe
240e
5556
0e60
010c
cafe
281e
5556
0e60
0131
cafe
2c06
5556
0e60
0136
cafe
3016
5556
0e64
0111
cafe
340f
5556
0e64
01b6
cafe
381f
5556
0e64
0182
cafe
3c07
5556
0e64
0148
cafe
2017
5556
0e68
016f
cafe
2408
5556
0e68
01f4
cafe
2818
5556
0e68
0213
cafe
2c00
5556
0e68
00f6
cafe
3010
5556
0e6c
017e
cafe
3409
5556
0e6c
016b
cafe
3819
5556
0e6c
018d
cafe
3c01
5556
0e6c
0121
cafe
2011
5556
0e70
0193
cafe
240a
5556
0e70
0124
cafe
281a
5556
0e70
011b
cafe
2c02
5556
0e70
0106
cafe
3012
5556
0e74
00ec
cafe
340b
5556
0e74
01cc
cafe
381b
5556
0e74
0136
cafe
3c03
5556
0e74
0190
cafe
2013
5556
0e78
0128
cafe
240c
5556
0e78
0160
cafe
281c
5556
0e78
0147
cafe
2c04
5556
0e78
01ab
cafe
3014
5556
0e7c
0129
cafe
340d
5556
0e7c
0186
cafe
381d
5556
0e7c
0172
cafe
3c05
5556
0e7c
016b
cafe
2015
5556
0e80
0150
cafe
240e
5556
0e80
0109
cafe
281e
5556
0e80
012f
cafe
2c06
5556
0e80
012d
cafe
3016
-
5556
0e84
011c
cafe
340f
5556
0e84
01bb
cafe
381f
5556
0e84
0180
cafe
3c07
5556
0e84
0150
cafe
2017
5556
0e88
016a
cafe
2408
5556
0e88
01e8
cafe
2818
5556
0e88
0216
cafe
2c00
5556
0e88
00fe
cafe
3010
5556
0e8c
0181
cafe
3409
5556
0e8c
016c
cafe
3819
5556
0e8c
018e
cafe
3c01
5556
0e8c
0119
cafe
2011
5556
0e90
0192
cafe
240a
5556
0e90
0126
cafe
281a
5556
0e90
011d
cafe
2c02
5556
0e90
0102
cafe
3012
5556
0e94
00ee
cafe
340b
5556
0e94
01d0
cafe
381b
5556
0e94
0134
cafe
3c03
5556
0e94
018f
cafe
2013
5556
0e98
012b
cafe
240c
5556
0e98
015b
cafe
281c
5556
0e98
014f
cafe
2c04
5556
0e98
01a5
cafe
3014
5556
0e9c
012b
cafe
340d
5556
0e9c
0181
cafe
381d
5556
0e9c
016b
cafe
3c05
5556
0e9c
016b
cafe
2015
5556
0ea0
014c
cafe
240e
5556
0ea0
010a
cafe
281e
5556
0ea0
0131
cafe
2c06
5556
0ea0
0133
cafe
3016
5556
0ea4
0119
cafe
340f
5556
0ea4
01be
cafe
381f
5556
0ea4
017f
cafe
3c07
5556
0ea4
014f
cafe
2017
5556
0ea8
0166
cafe
2408
5556
0ea8
01ef
cafe
2818
5556
0ea8
021b
cafe
2c00
5556
0ea8
00ff
cafe
3010
5556
0eac
018a
cafe
3409
5556
0eac
0166
cafe
3819
5556
0eac
018c
cafe
3c01
5556
0eac
011c
cafe
2011
5556
0eb0
0190
cafe
240a
5556
0eb0
012a
cafe
281a
5556
0eb0
0125
cafe
2c02
5556
0eb0
010b
cafe
3012
5556
0eb4
00ed
cafe
340b
5556
0eb4
01cc
cafe
381b
5556
0eb4
012f
cafe
3c03
5556
-
0eb4
0192
cafe
2013
5556
0eb8
011e
cafe
240c
5556
0eb8
0153
cafe
281c
5556
0eb8
0150
cafe
2c04
5556
0eb8
01a1
cafe
3014
5556
0ebc
0130
cafe
340d
5556
0ebc
0186
cafe
381d
5556
0ebc
016b
cafe
3c05
5556
0ebc
016f
cafe
2015
5556
0ec0
0145
cafe
240e
5556
0ec0
010a
cafe
281e
5556
0ec0
0140
cafe
2c06
5556
0ec0
0132
cafe
3016
5556
0ec4
010d
cafe
340f
5556
0ec4
01c3
cafe
381f
5556
0ec4
0176
cafe
3c07
5556
0ec4
0149
cafe
2017
5556
0ec8
0170
cafe
2408
5556
0ec8
01ec
cafe
2818
5556
0ec8
0219
cafe
2c00
5556
0ec8
0101
cafe
3010
5556
0ecc
0180
cafe
3409
5556
0ecc
0163
cafe
3819
5556
0ecc
018d
cafe
3c01
5556
0ecc
0118
cafe
2011
5556
0ed0
0189
cafe
240a
5556
0ed0
0123
cafe
281a
5556
0ed0
011c
cafe
2c02
5556
0ed0
0109
cafe
3012
5556
0ed4
00f4
cafe
340b
5556
0ed4
01d4
cafe
381b
5556
0ed4
0134
cafe
3c03
5556
0ed4
018e
cafe
2013
5556
0ed8
0120
cafe
240c
5556
0ed8
0153
cafe
281c
5556
0ed8
0156
cafe
2c04
5556
0ed8
019f
cafe
3014
5556
0edc
012d
cafe
340d
5556
0edc
018d
cafe
381d
5556
0edc
0168
cafe
3c05
5556
0edc
0168
cafe
2015
5556
0ee0
0148
cafe
240e
5556
0ee0
0104
cafe
281e
5556
0ee0
0136
cafe
2c06
5556
0ee0
0133
cafe
3016
5556
0ee4
0116
cafe
340f
5556
0ee4
01c9
cafe
381f
5556
0ee4
017b
cafe
3c07
5556
0ee4
014b
cafe
2017
5556
0ee8
016c
cafe
2408
5556
0ee8
01eb
cafe
2818
5556
0ee8
-
0219
cafe
2c00
5556
0ee8
0104
cafe
3010
5556
0eec
0180
cafe
3409
5556
0eec
0161
cafe
3819
5556
0eec
0188
cafe
3c01
5556
0eec
0117
cafe
2011
5556
0ef0
0190
cafe
240a
5556
0ef0
012a
cafe
281a
5556
0ef0
0113
cafe
2c02
5556
0ef0
010a
cafe
3012
5556
0ef4
00f6
cafe
340b
5556
0ef4
01c6
cafe
381b
5556
0ef4
0131
cafe
3c03
5556
0ef4
018f
cafe
2013
5556
0ef8
011c
cafe
240c
5556
0ef8
0152
cafe
281c
5556
0ef8
015d
cafe
2c04
5556
0ef8
01a3
cafe
3014
5556
0efc
0128
cafe
340d
5556
0efc
018a
cafe
381d
5556
0efc
0173
cafe
3c05
5556
0efc
0166
cafe
2015
5556
0f00
0149
cafe
240e
5556
0f00
0105
cafe
281e
5556
0f00
0139
cafe
2c06
5556
0f00
0131
cafe
3016
5556
0f04
010f
cafe
340f
5556
0f04
01c5
cafe
381f
5556
0f04
0170
cafe
3c07
5556
0f04
014b
cafe
2017
5556
0f08
016d
cafe
2408
5556
0f08
01f1
cafe
2818
5556
0f08
021d
cafe
2c00
5556
0f08
00fd
cafe
3010
5556
0f0c
0182
cafe
3409
5556
0f0c
0165
cafe
3819
5556
0f0c
017d
cafe
3c01
5556
0f0c
0116
cafe
2011
5556
0f10
0195
cafe
240a
5556
0f10
0126
cafe
281a
5556
0f10
010c
cafe
2c02
5556
0f10
0107
cafe
3012
5556
0f14
00f9
cafe
340b
5556
0f14
01cb
cafe
381b
5556
0f14
013d
cafe
3c03
5556
0f14
018a
cafe
2013
5556
0f18
011d
cafe
240c
5556
0f18
015b
cafe
281c
5556
0f18
0166
cafe
2c04
5556
0f18
01aa
cafe
3014
5556
0f1c
012d
cafe
340d
5556
0f1c
018d
-
cafe
381d
5556
0f1c
0175
cafe
3c05
5556
0f1c
016f
cafe
2015
5556
0f20
014e
cafe
240e
5556
0f20
0100
cafe
281e
5556
0f20
012f
cafe
2c06
5556
0f20
0140
cafe
3016
5556
0f24
010f
cafe
340f
5556
0f24
01c3
cafe
381f
5556
0f24
0177
cafe
3c07
5556
0f24
0144
cafe
2017
5556
0f28
016f
cafe
2408
5556
0f28
01f5
cafe
2818
5556
0f28
021e
cafe
2c00
5556
0f28
00f8
cafe
3010
5556
0f2c
0186
cafe
3409
5556
0f2c
015b
cafe
3819
5556
0f2c
017e
cafe
3c01
5556
0f2c
0115
cafe
2011
5556
0f30
018b
cafe
240a
5556
0f30
011b
cafe
281a
5556
0f30
010d
cafe
2c02
5556
0f30
00fa
cafe
3012
5556
0f34
00fb
cafe
340b
5556
0f34
01cf
cafe
381b
5556
0f34
0134
cafe
3c03
5556
0f34
0183
cafe
2013
5556
0f38
011b
cafe
240c
5556
0f38
0159
cafe
281c
5556
0f38
0159
cafe
2c04
5556
0f38
019d
cafe
3014
5556
0f3c
0124
cafe
340d
5556
0f3c
018f
cafe
381d
5556
0f3c
0179
cafe
3c05
5556
0f3c
0178
cafe
2015
5556
0f40
014b
cafe
240e
5556
0f40
0107
cafe
281e
5556
0f40
0133
cafe
2c06
5556
0f40
0135
cafe
3016
5556
0f44
0109
cafe
340f
5556
0f44
01c1
cafe
381f
5556
0f44
0182
cafe
3c07
5556
0f44
0147
cafe
2017
5556
0f48
0171
cafe
2408
5556
0f48
01e9
cafe
2818
5556
0f48
021a
cafe
2c00
5556
0f48
00fa
cafe
3010
5556
0f4c
0189
cafe
3409
5556
0f4c
015f
cafe
3819
5556
0f4c
0182
cafe
3c01
5556
0f4c
0115
cafe
2011
5556
0f50
0182
cafe
-
240a
5556
0f50
011f
cafe
281a
5556
0f50
010c
cafe
2c02
5556
0f50
00fe
cafe
3012
5556
0f54
00f3
cafe
340b
5556
0f54
01d3
cafe
381b
5556
0f54
0137
cafe
3c03
5556
0f54
0189
cafe
2013
5556
0f58
011a
cafe
240c
5556
0f58
015f
cafe
281c
5556
0f58
014e
cafe
2c04
5556
0f58
019a
cafe
3014
5556
0f5c
0128
cafe
340d
5556
0f5c
0188
cafe
381d
5556
0f5c
017c
cafe
3c05
5556
0f5c
0178
cafe
2015
5556
0f60
0147
cafe
240e
5556
0f60
0106
cafe
281e
5556
0f60
0137
cafe
2c06
5556
0f60
0135
cafe
3016
5556
0f64
010d
cafe
340f
5556
0f64
01c7
cafe
381f
5556
0f64
017c
cafe
3c07
5556
0f64
0152
cafe
2017
5556
0f68
0168
cafe
2408
5556
0f68
01e2
cafe
2818
5556
0f68
021e
cafe
2c00
5556
0f68
00fc
cafe
3010
5556
0f6c
018f
cafe
3409
5556
0f6c
015c
cafe
3819
5556
0f6c
0186
cafe
3c01
5556
0f6c
011d
cafe
2011
5556
0f70
018a
cafe
240a
5556
0f70
0127
cafe
281a
5556
0f70
0109
cafe
2c02
5556
0f70
0100
cafe
3012
5556
0f74
00ef
cafe
340b
5556
0f74
01d1
cafe
381b
5556
0f74
0139
cafe
3c03
5556
0f74
0187
cafe
2013
5556
0f78
011e
cafe
240c
5556
0f78
015d
cafe
281c
5556
0f78
014a
cafe
2c04
5556
0f78
0196
cafe
3014
5556
0f7c
012c
cafe
340d
5556
0f7c
0188
cafe
381d
5556
0f7c
017e
cafe
3c05
5556
0f7c
0179
cafe
2015
5556
0f80
0145
cafe
240e
5556
0f80
00fb
cafe
281e
5556
0f80
0135
cafe
2c06
5556
0f80
0133
cafe
3016
-
5556
0f84
010d
cafe
340f
5556
0f84
01c2
cafe
381f
5556
0f84
0184
cafe
3c07
5556
0f84
014e
cafe
2017
5556
0f88
0163
cafe
2408
5556
0f88
01ee
cafe
2818
5556
0f88
0219
cafe
2c00
5556
0f88
00f5
cafe
3010
5556
0f8c
018a
cafe
3409
5556
0f8c
0166
cafe
3819
5556
0f8c
018e
cafe
3c01
5556
0f8c
0119
cafe
2011
5556
0f90
018d
cafe
240a
5556
0f90
012d
cafe
281a
5556
0f90
0105
cafe
2c02
5556
0f90
0100
cafe
3012
5556
0f94
00f3
cafe
340b
5556
0f94
01c9
cafe
381b
5556
0f94
013e
cafe
3c03
5556
0f94
0186
cafe
2013
5556
0f98
0120
cafe
240c
5556
0f98
0156
cafe
281c
5556
0f98
0142
cafe
2c04
5556
0f98
019d
cafe
3014
5556
0f9c
012d
cafe
340d
5556
0f9c
0186
cafe
381d
5556
0f9c
0181
cafe
3c05
5556
0f9c
0175
cafe
2015
5556
0fa0
0141
cafe
240e
5556
0fa0
0103
cafe
281e
5556
0fa0
0137
cafe
2c06
5556
0fa0
012d
cafe
3016
5556
0fa4
010d
cafe
340f
5556
0fa4
01bf
cafe
381f
5556
0fa4
017e
cafe
3c07
5556
0fa4
014d
cafe
2017
5556
0fa8
015f
cafe
2408
5556
0fa8
01f5
cafe
2818
5556
0fa8
0221
cafe
2c00
5556
0fa8
00fd
cafe
3010
5556
0fac
0188
cafe
3409
5556
0fac
015d
cafe
3819
5556
0fac
0185
cafe
3c01
5556
0fac
0116
cafe
2011
5556
0fb0
0190
cafe
240a
5556
0fb0
012c
cafe
281a
5556
0fb0
010b
cafe
2c02
5556
0fb0
00fd
cafe
3012
5556
0fb4
00ec
cafe
340b
5556
0fb4
01d4
cafe
381b
5556
0fb4
013f
cafe
3c03
5556
-
0fb4
017e
cafe
2013
5556
0fb8
011f
cafe
240c
5556
0fb8
014f
cafe
281c
5556
0fb8
0148
cafe
2c04
5556
0fb8
019a
cafe
3014
5556
0fbc
0130
cafe
340d
5556
0fbc
018b
cafe
381d
5556
0fbc
0175
cafe
3c05
5556
0fbc
0185
cafe
2015
5556
0fc0
0149
cafe
240e
5556
0fc0
010a
cafe
281e
5556
0fc0
0132
cafe
2c06
5556
0fc0
0130
cafe
3016
5556
0fc4
0119
cafe
340f
5556
0fc4
01c1
cafe
381f
5556
0fc4
0184
cafe
3c07
5556
0fc4
0147
cafe
2017
5556
0fc8
0162
cafe
2408
5556
0fc8
01f1
cafe
2818
5556
0fc8
0224
cafe
2c00
5556
0fc8
00f9
cafe
3010
5556
0fcc
018d
cafe
3409
5556
0fcc
0168
cafe
3819
5556
0fcc
0185
cafe
3c01
5556
0fcc
0120
cafe
2011
5556
0fd0
018e
cafe
240a
5556
0fd0
012a
cafe
281a
5556
0fd0
010b
cafe
2c02
5556
0fd0
0107
cafe
3012
5556
0fd4
00f1
cafe
340b
5556
0fd4
01d8
cafe
381b
5556
0fd4
0141
cafe
3c03
5556
0fd4
017a
cafe
2013
5556
0fd8
0114
cafe
240c
5556
0fd8
0150
cafe
281c
5556
0fd8
014b
cafe
2c04
5556
0fd8
0199
cafe
3014
5556
0fdc
013b
cafe
340d
5556
0fdc
0191
cafe
381d
5556
0fdc
0175
cafe
3c05
5556
0fdc
017e
cafe
2015
5556
0fe0
0146
cafe
240e
5556
0fe0
010d
cafe
281e
5556
0fe0
0130
cafe
2c06
5556
0fe0
0139
cafe
3016
5556
0fe4
0108
cafe
340f
5556
0fe4
01c3
cafe
381f
5556
0fe4
0189
cafe
3c07
5556
0fe4
0147
cafe
2017
5556
0fe8
0165
cafe
2408
5556
0fe8
01e5
cafe
2818
5556
0fe8
-
0229
cafe
2c00
5556
0fe8
00fe
cafe
3010
5556
0fec
018a
cafe
3409
5556
0fec
016c
cafe
3819
5556
0fec
017f
cafe
3c01
5556
0fec
011e
cafe
2011
5556
0ff0
0189
cafe
240a
5556
0ff0
012c
cafe
281a
5556
0ff0
0112
cafe
2c02
5556
0ff0
00ff
cafe
3012
5556
0ff4
00f3
cafe
340b
5556
0ff4
01d7
cafe
381b
5556
0ff4
0137
cafe
3c03
5556
0ff4
017d
cafe
2013
5556
0ff8
0121
cafe
240c
5556
0ff8
014e
cafe
281c
5556
0ff8
0155
cafe
2c04
5556
0ff8
019a
cafe
3014
5556
0ffc
0137
cafe
340d
5556
0ffc
018d
cafe
381d
5556
0ffc
0171
cafe
3c05
5556
0ffc
0175
cafe
2015
5556
1000
0141
cafe
240e
5556
1000
0112
cafe
281e
5556
1000
0137
cafe
2c06
5556
1000
0141
cafe
3016
5556
1004
0109
cafe
340f
5556
1004
01c2
cafe
381f
5556
1004
017f
cafe
3c07
5556
1004
0149
cafe
2017
5556
1008
0161
cafe
2408
5556
1008
01e0
cafe
2818
5556
1008
022b
cafe
2c00
5556
1008
00fc
cafe
3010
5556
100c
017f
cafe
3409
5556
100c
0168
cafe
3819
5556
100c
017f
cafe
3c01
5556
100c
010f
cafe
2011
5556
1010
0184
cafe
240a
5556
1010
0129
cafe
281a
5556
1010
0109
cafe
2c02
5556
1010
0105
cafe
3012
5556
1014
00ed
cafe
340b
5556
1014
01ce
cafe
381b
5556
1014
013d
cafe
3c03
5556
1014
0178
cafe
2013
5556
1018
011f
cafe
240c
5556
1018
014d
cafe
281c
5556
1018
014d
cafe
2c04
5556
1018
0197
cafe
3014
5556
101c
013c
cafe
340d
5556
101c
018b
-
cafe
381d
5556
101c
0170
cafe
3c05
5556
101c
0171
cafe
2015
5556
1020
013e
cafe
240e
5556
1020
0114
cafe
281e
5556
1020
0136
cafe
2c06
5556
1020
0133
cafe
3016
5556
1024
0114
cafe
340f
5556
1024
01c4
cafe
381f
5556
1024
017c
cafe
3c07
5556
1024
014a
cafe
2017
5556
1028
015b
cafe
2408
5556
1028
01e5
cafe
2818
5556
1028
022f
cafe
2c00
5556
1028
00fc
cafe
3010
5556
102c
0187
cafe
3409
5556
102c
016b
cafe
3819
5556
102c
018a
cafe
3c01
5556
102c
012c
cafe
2011
5556
1030
0180
cafe
240a
5556
1030
0129
cafe
281a
5556
1030
010f
cafe
2c02
5556
1030
010d
cafe
3012
5556
1034
00f1
cafe
340b
5556
1034
01d8
cafe
381b
5556
1034
0133
cafe
3c03
5556
1034
0187
cafe
2013
5556
1038
0123
cafe
240c
5556
1038
014a
cafe
281c
5556
1038
014b
cafe
2c04
5556
1038
01a1
cafe
3014
5556
103c
013a
cafe
340d
5556
103c
018d
cafe
381d
5556
103c
0173
cafe
3c05
5556
103c
016f
cafe
2015
5556
1040
0141
cafe
240e
5556
1040
0115
cafe
281e
5556
1040
013a
cafe
2c06
5556
1040
012e
cafe
3016
5556
1044
0114
cafe
340f
5556
1044
01bf
cafe
381f
5556
1044
0181
cafe
3c07
5556
1044
0141
cafe
2017
5556
1048
015d
cafe
2408
5556
1048
01e3
cafe
2818
5556
1048
0223
cafe
2c00
5556
1048
00f0
cafe
3010
5556
104c
0184
cafe
3409
5556
104c
0161
cafe
3819
5556
104c
0191
cafe
3c01
5556
104c
0121
cafe
2011
5556
1050
017f
cafe
-
