240a
5555
fe50
0246
cafe
281a
5555
fe50
00ee
cafe
2c02
5555
fe50
0184
cafe
3012
5555
fe54
0177
cafe
340b
5555
fe54
0163
cafe
381b
5555
fe54
01c9
cafe
3c03
5555
fe54
019d
cafe
2013
5555
fe58
015f
cafe
240c
5555
fe58
01a6
cafe
281c
5555
fe58
012a
cafe
2c04
5555
fe58
016e
cafe
3014
5555
fe5c
0204
cafe
340d
5555
fe5c
024d
cafe
381d
5555
fe5c
01b2
cafe
3c05
5555
fe5c
0196
cafe
2015
5555
fe60
0107
cafe
240e
5555
fe60
026b
cafe
281e
5555
fe60
0101
cafe
2c06
5555
fe60
01cf
cafe
3016
5555
fe64
014f
cafe
340f
5555
fe64
014d
cafe
381f
5555
fe64
0168
cafe
3c07
5555
fe64
0248
cafe
2017
5555
fe68
01c4
cafe
2408
5555
fe68
0198
cafe
2818
5555
fe68
0223
cafe
2c00
5555
fe68
01ac
cafe
3010
5555
fe6c
01f8
cafe
3409
5555
fe6c
01dc
cafe
3819
5555
fe6c
022f
cafe
3c01
5555
fe6c
0182
cafe
2011
5555
fe70
0175
cafe
240a
5555
fe70
0245
cafe
281a
5555
fe70
00ee
cafe
2c02
5555
fe70
0182
cafe
3012
5555
fe74
0176
cafe
340b
5555
fe74
0164
cafe
381b
5555
fe74
01cc
cafe
3c03
5555
fe74
01a0
cafe
2013
5555
fe78
015c
cafe
240c
5555
fe78
01a7
cafe
281c
5555
fe78
0127
cafe
2c04
5555
fe78
016f
cafe
3014
5555
fe7c
0206
cafe
340d
5555
fe7c
0252
cafe
381d
5555
fe7c
01b8
cafe
3c05
5555
fe7c
019a
cafe
2015
5555
fe80
010e
cafe
240e
5555
fe80
0270
cafe
281e
5555
fe80
0106
cafe
2c06
5555
fe80
01d9
cafe
3016
-
5555
fe84
0150
cafe
340f
5555
fe84
0146
cafe
381f
5555
fe84
0164
cafe
3c07
5555
fe84
0243
cafe
2017
5555
fe88
01c4
cafe
2408
5555
fe88
019a
cafe
2818
5555
fe88
0222
cafe
2c00
5555
fe88
01ab
cafe
3010
5555
fe8c
01f9
cafe
3409
5555
fe8c
01db
cafe
3819
5555
fe8c
022f
cafe
3c01
5555
fe8c
0181
cafe
2011
5555
fe90
0173
cafe
240a
5555
fe90
023f
cafe
281a
5555
fe90
00e7
cafe
2c02
5555
fe90
017f
cafe
3012
5555
fe94
0177
cafe
340b
5555
fe94
0161
cafe
381b
5555
fe94
01cb
cafe
3c03
5555
fe94
019e
cafe
2013
5555
fe98
0157
cafe
240c
5555
fe98
01a8
cafe
281c
5555
fe98
012d
cafe
2c04
5555
fe98
016e
cafe
3014
5555
fe9c
0203
cafe
340d
5555
fe9c
0251
cafe
381d
5555
fe9c
01b9
cafe
3c05
5555
fe9c
0196
cafe
2015
5555
fea0
010b
cafe
240e
5555
fea0
0275
cafe
281e
5555
fea0
010e
cafe
2c06
5555
fea0
01d6
cafe
3016
5555
fea4
0151
cafe
340f
5555
fea4
0145
cafe
381f
5555
fea4
0164
cafe
3c07
5555
fea4
023b
cafe
2017
5555
fea8
01c5
cafe
2408
5555
fea8
019f
cafe
2818
5555
fea8
021f
cafe
2c00
5555
fea8
01a7
cafe
3010
5555
feac
01fa
cafe
3409
5555
feac
01da
cafe
3819
5555
feac
0233
cafe
3c01
5555
feac
017e
cafe
2011
5555
feb0
016f
cafe
240a
5555
feb0
023d
cafe
281a
5555
feb0
00e5
cafe
2c02
5555
feb0
0183
cafe
3012
5555
feb4
017b
cafe
340b
5555
feb4
0161
cafe
381b
5555
feb4
01c9
cafe
3c03
5555
-
feb4
019c
cafe
2013
5555
feb8
0153
cafe
240c
5555
feb8
01ae
cafe
281c
5555
feb8
012e
cafe
2c04
5555
feb8
0169
cafe
3014
5555
febc
01ff
cafe
340d
5555
febc
0250
cafe
381d
5555
febc
01b2
cafe
3c05
5555
febc
019e
cafe
2015
5555
fec0
010c
cafe
240e
5555
fec0
026c
cafe
281e
5555
fec0
010f
cafe
2c06
5555
fec0
01d2
cafe
3016
5555
fec4
0153
cafe
340f
5555
fec4
0148
cafe
381f
5555
fec4
0165
cafe
3c07
5555
fec4
023f
cafe
2017
5555
fec8
01c6
cafe
2408
5555
fec8
0199
cafe
2818
5555
fec8
0220
cafe
2c00
5555
fec8
01aa
cafe
3010
5555
fecc
01f5
cafe
3409
5555
fecc
01d9
cafe
3819
5555
fecc
023a
cafe
3c01
5555
fecc
0183
cafe
2011
5555
fed0
0172
cafe
240a
5555
fed0
023e
cafe
281a
5555
fed0
00e7
cafe
2c02
5555
fed0
0187
cafe
3012
5555
fed4
0182
cafe
340b
5555
fed4
0167
cafe
381b
5555
fed4
01c7
cafe
3c03
5555
fed4
019d
cafe
2013
5555
fed8
015a
cafe
240c
5555
fed8
01ae
cafe
281c
5555
fed8
012e
cafe
2c04
5555
fed8
016a
cafe
3014
5555
fedc
01ff
cafe
340d
5555
fedc
0252
cafe
381d
5555
fedc
01b8
cafe
3c05
5555
fedc
019e
cafe
2015
5555
fee0
010c
cafe
240e
5555
fee0
0268
cafe
281e
5555
fee0
0115
cafe
2c06
5555
fee0
01cf
cafe
3016
5555
fee4
015a
cafe
340f
5555
fee4
0143
cafe
381f
5555
fee4
015d
cafe
3c07
5555
fee4
023f
cafe
2017
5555
fee8
01c1
cafe
2408
5555
fee8
019d
cafe
2818
5555
fee8
-
0220
cafe
2c00
5555
fee8
01ab
cafe
3010
5555
feec
01f3
cafe
3409
5555
feec
01d9
cafe
3819
5555
feec
0239
cafe
3c01
5555
feec
017f
cafe
2011
5555
fef0
0172
cafe
240a
5555
fef0
023e
cafe
281a
5555
fef0
00ea
cafe
2c02
5555
fef0
018a
cafe
3012
5555
fef4
017e
cafe
340b
5555
fef4
0165
cafe
381b
5555
fef4
01c9
cafe
3c03
5555
fef4
01a3
cafe
2013
5555
fef8
0161
cafe
240c
5555
fef8
01af
cafe
281c
5555
fef8
012f
cafe
2c04
5555
fef8
0171
cafe
3014
5555
fefc
0207
cafe
340d
5555
fefc
0258
cafe
381d
5555
fefc
01b0
cafe
3c05
5555
fefc
019b
cafe
2015
5555
ff00
0109
cafe
240e
5555
ff00
026f
cafe
281e
5555
ff00
0118
cafe
2c06
5555
ff00
01c8
cafe
3016
5555
ff04
0158
cafe
340f
5555
ff04
0145
cafe
381f
5555
ff04
015d
cafe
3c07
5555
ff04
023e
cafe
2017
5555
ff08
01be
cafe
2408
5555
ff08
0196
cafe
2818
5555
ff08
0220
cafe
2c00
5555
ff08
01a6
cafe
3010
5555
ff0c
01f1
cafe
3409
5555
ff0c
01da
cafe
3819
5555
ff0c
0233
cafe
3c01
5555
ff0c
017f
cafe
2011
5555
ff10
016e
cafe
240a
5555
ff10
023c
cafe
281a
5555
ff10
00e9
cafe
2c02
5555
ff10
0186
cafe
3012
5555
ff14
0181
cafe
340b
5555
ff14
0166
cafe
381b
5555
ff14
01cb
cafe
3c03
5555
ff14
01a4
cafe
2013
5555
ff18
0164
cafe
240c
5555
ff18
01ad
cafe
281c
5555
ff18
012f
cafe
2c04
5555
ff18
016e
cafe
3014
5555
ff1c
0205
cafe
340d
5555
ff1c
0253
-
cafe
381d
5555
ff1c
01ad
cafe
3c05
5555
ff1c
0199
cafe
2015
5555
ff20
010c
cafe
240e
5555
ff20
0269
cafe
281e
5555
ff20
0112
cafe
2c06
5555
ff20
01cc
cafe
3016
5555
ff24
015b
cafe
340f
5555
ff24
014e
cafe
381f
5555
ff24
0162
cafe
3c07
5555
ff24
0241
cafe
2017
5555
ff28
01c0
cafe
2408
5555
ff28
019b
cafe
2818
5555
ff28
0221
cafe
2c00
5555
ff28
019e
cafe
3010
5555
ff2c
01f1
cafe
3409
5555
ff2c
01d7
cafe
3819
5555
ff2c
0236
cafe
3c01
5555
ff2c
017e
cafe
2011
5555
ff30
0172
cafe
240a
5555
ff30
0237
cafe
281a
5555
ff30
00e8
cafe
2c02
5555
ff30
0183
cafe
3012
5555
ff34
0176
cafe
340b
5555
ff34
0169
cafe
381b
5555
ff34
01cc
cafe
3c03
5555
ff34
01a9
cafe
2013
5555
ff38
0164
cafe
240c
5555
ff38
01ab
cafe
281c
5555
ff38
012f
cafe
2c04
5555
ff38
016f
cafe
3014
5555
ff3c
0204
cafe
340d
5555
ff3c
0251
cafe
381d
5555
ff3c
01b5
cafe
3c05
5555
ff3c
0197
cafe
2015
5555
ff40
0112
cafe
240e
5555
ff40
0267
cafe
281e
5555
ff40
010d
cafe
2c06
5555
ff40
01cb
cafe
3016
5555
ff44
015c
cafe
340f
5555
ff44
0150
cafe
381f
5555
ff44
015f
cafe
3c07
5555
ff44
0244
cafe
2017
5555
ff48
01bc
cafe
2408
5555
ff48
019e
cafe
2818
5555
ff48
021e
cafe
2c00
5555
ff48
019d
cafe
3010
5555
ff4c
01ed
cafe
3409
5555
ff4c
01d6
cafe
3819
5555
ff4c
023b
cafe
3c01
5555
ff4c
017d
cafe
2011
5555
ff50
0174
cafe
-
240a
5555
ff50
0237
cafe
281a
5555
ff50
00e7
cafe
2c02
5555
ff50
0182
cafe
3012
5555
ff54
017b
cafe
340b
5555
ff54
0168
cafe
381b
5555
ff54
01c8
cafe
3c03
5555
ff54
01a7
cafe
2013
5555
ff58
0160
cafe
240c
5555
ff58
01ae
cafe
281c
5555
ff58
0133
cafe
2c04
5555
ff58
016e
cafe
3014
5555
ff5c
0200
cafe
340d
5555
ff5c
024e
cafe
381d
5555
ff5c
01b8
cafe
3c05
5555
ff5c
0195
cafe
2015
5555
ff60
010f
cafe
240e
5555
ff60
0269
cafe
281e
5555
ff60
010b
cafe
2c06
5555
ff60
01cf
cafe
3016
5555
ff64
015d
cafe
340f
5555
ff64
014e
cafe
381f
5555
ff64
0161
cafe
3c07
5555
ff64
024c
cafe
2017
5555
ff68
01bd
cafe
2408
5555
ff68
0199
cafe
2818
5555
ff68
0216
cafe
2c00
5555
ff68
019e
cafe
3010
5555
ff6c
01f4
cafe
3409
5555
ff6c
01d8
cafe
3819
5555
ff6c
0240
cafe
3c01
5555
ff6c
017b
cafe
2011
5555
ff70
0171
cafe
240a
5555
ff70
0232
cafe
281a
5555
ff70
00ec
cafe
2c02
5555
ff70
0183
cafe
3012
5555
ff74
0178
cafe
340b
5555
ff74
016b
cafe
381b
5555
ff74
01c3
cafe
3c03
5555
ff74
01a7
cafe
2013
5555
ff78
015b
cafe
240c
5555
ff78
01a7
cafe
281c
5555
ff78
012d
cafe
2c04
5555
ff78
0178
cafe
3014
5555
ff7c
0203
cafe
340d
5555
ff7c
0250
cafe
381d
5555
ff7c
01ba
cafe
3c05
5555
ff7c
018f
cafe
2015
5555
ff80
010c
cafe
240e
5555
ff80
0264
cafe
281e
5555
ff80
010a
cafe
2c06
5555
ff80
01ce
cafe
3016
-
5555
ff84
015b
cafe
340f
5555
ff84
0152
cafe
381f
5555
ff84
0165
cafe
3c07
5555
ff84
024e
cafe
2017
5555
ff88
01c3
cafe
2408
5555
ff88
019a
cafe
2818
5555
ff88
0212
cafe
2c00
5555
ff88
01a0
cafe
3010
5555
ff8c
01f5
cafe
3409
5555
ff8c
01d2
cafe
3819
5555
ff8c
0247
cafe
3c01
5555
ff8c
017e
cafe
2011
5555
ff90
016f
cafe
240a
5555
ff90
023a
cafe
281a
5555
ff90
00e7
cafe
2c02
5555
ff90
0186
cafe
3012
5555
ff94
017a
cafe
340b
5555
ff94
016c
cafe
381b
5555
ff94
01c7
cafe
3c03
5555
ff94
01a3
cafe
2013
5555
ff98
015a
cafe
240c
5555
ff98
01a8
cafe
281c
5555
ff98
0134
cafe
2c04
5555
ff98
0178
cafe
3014
5555
ff9c
0200
cafe
340d
5555
ff9c
024b
cafe
381d
5555
ff9c
01b6
cafe
3c05
5555
ff9c
018f
cafe
2015
5555
ffa0
010a
cafe
240e
5555
ffa0
025e
cafe
281e
5555
ffa0
0108
cafe
2c06
5555
ffa0
01ce
cafe
3016
5555
ffa4
0159
cafe
340f
5555
ffa4
0156
cafe
381f
5555
ffa4
0166
cafe
3c07
5555
ffa4
0247
cafe
2017
5555
ffa8
01bf
cafe
2408
5555
ffa8
019f
cafe
2818
5555
ffa8
0212
cafe
2c00
5555
ffa8
01a8
cafe
3010
5555
ffac
01ea
cafe
3409
5555
ffac
01cf
cafe
3819
5555
ffac
0244
cafe
3c01
5555
ffac
017b
cafe
2011
5555
ffb0
0175
cafe
240a
5555
ffb0
023c
cafe
281a
5555
ffb0
00e9
cafe
2c02
5555
ffb0
0189
cafe
3012
5555
ffb4
0176
cafe
340b
5555
ffb4
016e
cafe
381b
5555
ffb4
01d0
cafe
3c03
5555
-
ffb4
01a1
cafe
2013
5555
ffb8
015d
cafe
240c
5555
ffb8
01a8
cafe
281c
5555
ffb8
0130
cafe
2c04
5555
ffb8
0173
cafe
3014
5555
ffbc
0203
cafe
340d
5555
ffbc
024b
cafe
381d
5555
ffbc
01b8
cafe
3c05
5555
ffbc
018f
cafe
2015
5555
ffc0
010e
cafe
240e
5555
ffc0
025f
cafe
281e
5555
ffc0
0108
cafe
2c06
5555
ffc0
01cf
cafe
3016
5555
ffc4
0157
cafe
340f
5555
ffc4
015b
cafe
381f
5555
ffc4
0169
cafe
3c07
5555
ffc4
0249
cafe
2017
5555
ffc8
01b9
cafe
2408
5555
ffc8
01a2
cafe
2818
5555
ffc8
0218
cafe
2c00
5555
ffc8
01a9
cafe
3010
5555
ffcc
01eb
cafe
3409
5555
ffcc
01d1
cafe
3819
5555
ffcc
0245
cafe
3c01
5555
ffcc
017c
cafe
2011
5555
ffd0
0176
cafe
240a
5555
ffd0
0237
cafe
281a
5555
ffd0
00ee
cafe
2c02
5555
ffd0
0186
cafe
3012
5555
ffd4
0171
cafe
340b
5555
ffd4
016a
cafe
381b
5555
ffd4
01ca
cafe
3c03
5555
ffd4
01a1
cafe
2013
5555
ffd8
015f
cafe
240c
5555
ffd8
01a6
cafe
281c
5555
ffd8
012e
cafe
2c04
5555
ffd8
0174
cafe
3014
5555
ffdc
0203
cafe
340d
5555
ffdc
024e
cafe
381d
5555
ffdc
01b3
cafe
3c05
5555
ffdc
0191
cafe
2015
5555
ffe0
010f
cafe
240e
5555
ffe0
025f
cafe
281e
5555
ffe0
0109
cafe
2c06
5555
ffe0
01d0
cafe
3016
5555
ffe4
015c
cafe
340f
5555
ffe4
015b
cafe
381f
5555
ffe4
0168
cafe
3c07
5555
ffe4
0247
cafe
2017
5555
ffe8
01bb
cafe
2408
5555
ffe8
01a3
cafe
2818
5555
ffe8
-
0216
cafe
2c00
5555
ffe8
01ac
cafe
3010
5555
ffec
01e6
cafe
3409
5555
ffec
01d1
cafe
3819
5555
ffec
0244
cafe
3c01
5555
ffec
017f
cafe
2011
5555
fff0
0177
cafe
240a
5555
fff0
0237
cafe
281a
5555
fff0
00f3
cafe
2c02
5555
fff0
0183
cafe
3012
5555
fff4
0172
cafe
340b
5555
fff4
0169
cafe
381b
5555
fff4
01c8
cafe
3c03
5555
fff4
01a4
cafe
2013
5555
fff8
015e
cafe
240c
5555
fff8
01aa
cafe
281c
5555
fff8
012b
cafe
2c04
5555
fff8
0171
cafe
3014
5555
fffc
0201
cafe
340d
5555
fffc
024b
cafe
381d
5555
fffc
01ae
cafe
3c05
5555
fffc
0192
cafe
2015
5556
0000
010f
cafe
240e
5556
0000
0261
cafe
281e
5556
0000
010a
cafe
2c06
5556
0000
01d5
cafe
3016
5556
0004
015f
cafe
340f
5556
0004
0156
cafe
381f
5556
0004
016b
cafe
3c07
5556
0004
0246
cafe
2017
5556
0008
01bd
cafe
2408
5556
0008
01a5
cafe
2818
5556
0008
0218
cafe
2c00
5556
0008
01a5
cafe
3010
5556
000c
01e6
cafe
3409
5556
000c
01cd
cafe
3819
5556
000c
023e
cafe
3c01
5556
000c
017f
cafe
2011
5556
0010
017f
cafe
240a
5556
0010
023a
cafe
281a
5556
0010
00ed
cafe
2c02
5556
0010
0185
cafe
3012
5556
0014
0177
cafe
340b
5556
0014
0168
cafe
381b
5556
0014
01c2
cafe
3c03
5556
0014
01a9
cafe
2013
5556
0018
0163
cafe
240c
5556
0018
01aa
cafe
281c
5556
0018
0127
cafe
2c04
5556
0018
016e
cafe
3014
5556
001c
01fa
cafe
340d
5556
001c
024e
-
cafe
381d
5556
001c
01af
cafe
3c05
5556
001c
018d
cafe
2015
5556
0020
010d
cafe
240e
5556
0020
0261
cafe
281e
5556
0020
0114
cafe
2c06
5556
0020
01d5
cafe
3016
5556
0024
015f
cafe
340f
5556
0024
0151
cafe
381f
5556
0024
0169
cafe
3c07
5556
0024
0248
cafe
2017
5556
0028
01b8
cafe
2408
5556
0028
019f
cafe
2818
5556
0028
021f
cafe
2c00
5556
0028
01a2
cafe
3010
5556
002c
01e4
cafe
3409
5556
002c
01d0
cafe
3819
5556
002c
023d
cafe
3c01
5556
002c
017f
cafe
2011
5556
0030
017e
cafe
240a
5556
0030
0237
cafe
281a
5556
0030
00ed
cafe
2c02
5556
0030
018b
cafe
3012
5556
0034
0171
cafe
340b
5556
0034
016c
cafe
381b
5556
0034
01c2
cafe
3c03
5556
0034
01a3
cafe
2013
5556
0038
0164
cafe
240c
5556
0038
01ae
cafe
281c
5556
0038
0125
cafe
2c04
5556
0038
016b
cafe
3014
5556
003c
0200
cafe
340d
5556
003c
0251
cafe
381d
5556
003c
01b0
cafe
3c05
5556
003c
018a
cafe
2015
5556
0040
010f
cafe
240e
5556
0040
025f
cafe
281e
5556
0040
0117
cafe
2c06
5556
0040
01d2
cafe
3016
5556
0044
015f
cafe
340f
5556
0044
0155
cafe
381f
5556
0044
0165
cafe
3c07
5556
0044
0247
cafe
2017
5556
0048
01bb
cafe
2408
5556
0048
019c
cafe
2818
5556
0048
021f
cafe
2c00
5556
0048
01a3
cafe
3010
5556
004c
01e7
cafe
3409
5556
004c
01cf
cafe
3819
5556
004c
023b
cafe
3c01
5556
004c
0182
cafe
2011
5556
0050
017c
cafe
-
240a
5556
0050
022e
cafe
281a
5556
0050
00e9
cafe
2c02
5556
0050
0186
cafe
3012
5556
0054
0171
cafe
340b
5556
0054
016d
cafe
381b
5556
0054
01bf
cafe
3c03
5556
0054
01a7
cafe
2013
5556
0058
015d
cafe
240c
5556
0058
01af
cafe
281c
5556
0058
0123
cafe
2c04
5556
0058
0168
cafe
3014
5556
005c
0205
cafe
340d
5556
005c
024f
cafe
381d
5556
005c
01b5
cafe
3c05
5556
005c
0191
cafe
2015
5556
0060
0111
cafe
240e
5556
0060
0265
cafe
281e
5556
0060
011c
cafe
2c06
5556
0060
01d7
cafe
3016
5556
0064
015b
cafe
340f
5556
0064
014f
cafe
381f
5556
0064
0163
cafe
3c07
5556
0064
0248
cafe
2017
5556
0068
01bc
cafe
2408
5556
0068
019b
cafe
2818
5556
0068
0221
cafe
2c00
5556
0068
01a0
cafe
3010
5556
006c
01e3
cafe
3409
5556
006c
01d4
cafe
3819
5556
006c
023a
cafe
3c01
5556
006c
0183
cafe
2011
5556
0070
017b
cafe
240a
5556
0070
0233
cafe
281a
5556
0070
00e9
cafe
2c02
5556
0070
0182
cafe
3012
5556
0074
0177
cafe
340b
5556
0074
016b
cafe
381b
5556
0074
01bf
cafe
3c03
5556
0074
01a3
cafe
2013
5556
0078
0164
cafe
240c
5556
0078
01b5
cafe
281c
5556
0078
0122
cafe
2c04
5556
0078
016f
cafe
3014
5556
007c
0204
cafe
340d
5556
007c
028d
cafe
381d
5556
007c
01f3
cafe
3c05
5556
007c
01c5
cafe
2015
5556
0080
0147
cafe
240e
5556
0080
032d
cafe
281e
5556
0080
01ef
cafe
2c06
5556
0080
02a7
cafe
3016
-
5556
0084
022a
cafe
340f
5556
0084
02ac
cafe
381f
5556
0084
02b4
cafe
3c07
5556
0084
03a1
cafe
2017
5556
0088
031d
cafe
2408
5556
0088
0385
cafe
2818
5556
0088
0409
cafe
2c00
5556
0088
0387
cafe
3010
5556
008c
03d2
cafe
3409
5556
008c
0437
cafe
3819
5556
008c
049c
cafe
3c01
5556
008c
03e1
cafe
2011
5556
0090
03dd
cafe
240a
5556
0090
0504
cafe
281a
5556
0090
03b6
cafe
2c02
5556
0090
0447
cafe
3012
5556
0094
0455
cafe
340b
5556
0094
04a0
cafe
381b
5556
0094
04ee
cafe
3c03
5556
0094
04cf
cafe
2013
5556
0098
049b
cafe
240c
5556
0098
054e
cafe
281c
5556
0098
04af
cafe
2c04
5556
0098
04f7
cafe
3014
5556
009c
0595
cafe
340d
5556
009c
062f
cafe
381d
5556
009c
058f
cafe
3c05
5556
009c
0561
cafe
2015
5556
00a0
04ed
cafe
240e
5556
00a0
0695
cafe
281e
5556
00a0
0546
cafe
2c06
5556
00a0
05fb
cafe
3016
5556
00a4
0580
cafe
340f
5556
00a4
05b9
cafe
381f
5556
00a4
05b6
cafe
3c07
5556
00a4
069d
cafe
2017
5556
00a8
062c
cafe
2408
5556
00a8
063b
cafe
2818
5556
00a8
06bf
cafe
2c00
5556
00a8
0642
cafe
3010
5556
00ac
069c
cafe
3409
5556
00ac
06af
cafe
3819
5556
00ac
071a
cafe
3c01
5556
00ac
0657
cafe
2011
5556
00b0
0653
cafe
240a
5556
00b0
0745
cafe
281a
5556
00b0
05f1
cafe
2c02
5556
00b0
0676
cafe
3012
5556
00b4
068e
cafe
340b
5556
00b4
0699
cafe
381b
5556
00b4
06e9
cafe
3c03
5556
-
00b4
06c6
cafe
2013
5556
00b8
0693
cafe
240c
5556
00b8
0717
cafe
281c
5556
00b8
067d
cafe
2c04
5556
00b8
06b4
cafe
3014
5556
00bc
075d
cafe
340d
5556
00bc
07c4
cafe
381d
5556
00bc
0723
cafe
3c05
5556
00bc
06fa
cafe
2015
5556
00c0
067e
cafe
240e
5556
00c0
0809
cafe
281e
5556
00c0
06b1
cafe
2c06
5556
00c0
0768
cafe
3016
5556
00c4
06ed
cafe
340f
5556
00c4
06fd
cafe
381f
5556
00c4
06fa
cafe
3c07
5556
00c4
07df
cafe
2017
5556
00c8
076c
cafe
2408
5556
00c8
0756
cafe
2818
5556
00c8
07df
cafe
2c00
5556
00c8
075c
cafe
3010
5556
00cc
07bf
cafe
3409
5556
00cc
07ab
cafe
3819
5556
00cc
0821
cafe
3c01
5556
00cc
0757
cafe
2011
5556
00d0
074b
cafe
240a
5556
00d0
082c
cafe
281a
5556
00d0
06ce
cafe
2c02
5556
00d0
075a
cafe
3012
5556
00d4
0767
cafe
340b
5556
00d4
0761
cafe
381b
5556
00d4
07a5
cafe
3c03
5556
00d4
0787
cafe
2013
5556
00d8
0756
cafe
240c
5556
00d8
07c0
cafe
281c
5556
00d8
072a
cafe
2c04
5556
00d8
0750
cafe
3014
5556
00dc
080b
cafe
340d
5556
00dc
0854
cafe
381d
5556
00dc
07b3
cafe
3c05
5556
00dc
078b
cafe
2015
5556
00e0
070c
cafe
240e
5556
00e0
0881
cafe
281e
5556
00e0
0728
cafe
2c06
5556
00e0
07e0
cafe
3016
5556
00e4
0762
cafe
340f
5556
00e4
0762
cafe
381f
5556
00e4
0760
cafe
3c07
5556
00e4
084a
cafe
2017
5556
00e8
07d3
cafe
2408
5556
00e8
07a9
cafe
2818
5556
00e8
-
0831
cafe
2c00
5556
00e8
07af
cafe
3010
5556
00ec
0811
cafe
3409
5556
00ec
07ed
cafe
3819
5556
00ec
0869
cafe
3c01
5556
00ec
079c
cafe
2011
5556
00f0
0789
cafe
240a
5556
00f0
0869
cafe
281a
5556
00f0
06f9
cafe
2c02
5556
00f0
078c
cafe
3012
5556
00f4
0792
cafe
340b
5556
00f4
0789
cafe
381b
5556
00f4
07cb
cafe
3c03
5556
00f4
07b4
cafe
2013
5556
00f8
077a
cafe
240c
5556
00f8
07d5
cafe
281c
5556
00f8
074a
cafe
2c04
5556
00f8
076d
cafe
3014
5556
00fc
082c
cafe
340d
5556
00fc
086c
cafe
381d
5556
00fc
07c7
cafe
3c05
5556
00fc
079d
cafe
2015
5556
0100
0723
cafe
240e
5556
0100
0887
cafe
281e
5556
0100
072b
cafe
2c06
5556
0100
07ef
cafe
3016
5556
0104
0763
cafe
340f
5556
0104
075e
cafe
381f
5556
0104
0762
cafe
3c07
5556
0104
084a
cafe
2017
5556
0108
07d1
cafe
2408
5556
0108
0796
cafe
2818
5556
0108
0825
cafe
2c00
5556
0108
07a1
cafe
3010
5556
010c
0804
cafe
3409
5556
010c
07d5
cafe
3819
5556
010c
0856
cafe
3c01
5556
010c
0782
cafe
2011
5556
0110
076c
cafe
240a
5556
0110
0854
cafe
281a
5556
0110
06d5
cafe
2c02
5556
0110
0771
cafe
3012
5556
0114
0770
cafe
340b
5556
0114
0762
cafe
381b
5556
0114
07ac
cafe
3c03
5556
0114
0790
cafe
2013
5556
0118
0756
cafe
240c
5556
0118
07ab
cafe
281c
5556
0118
071d
cafe
2c04
5556
0118
0745
cafe
3014
5556
011c
0806
cafe
340d
5556
011c
083f
-
cafe
381d
5556
011c
079a
cafe
3c05
5556
011c
0769
cafe
2015
5556
0120
06ef
cafe
240e
5556
0120
0858
cafe
281e
5556
0120
06eb
cafe
2c06
5556
0120
07c4
cafe
3016
5556
0124
0724
cafe
340f
5556
0124
072a
cafe
381f
5556
0124
072c
cafe
3c07
5556
0124
0810
cafe
2017
5556
0128
079e
cafe
2408
5556
0128
075e
cafe
2818
5556
0128
07ef
cafe
2c00
5556
0128
0761
cafe
3010
5556
012c
07c7
cafe
3409
5556
012c
078f
cafe
3819
5556
012c
081c
cafe
3c01
5556
012c
073b
cafe
2011
5556
0130
072d
cafe
240a
5556
0130
0816
cafe
281a
5556
0130
0689
cafe
2c02
5556
0130
0729
cafe
3012
5556
0134
0727
cafe
340b
5556
0134
0710
cafe
381b
5556
0134
0767
cafe
3c03
5556
0134
0749
cafe
2013
5556
0138
070c
cafe
240c
5556
0138
0751
cafe
281c
5556
0138
06d5
cafe
2c04
5556
0138
06fc
cafe
3014
5556
013c
07b6
cafe
340d
5556
013c
07ee
cafe
381d
5556
013c
074d
cafe
3c05
5556
013c
071b
cafe
2015
5556
0140
06a9
cafe
240e
5556
0140
080c
cafe
281e
5556
0140
0695
cafe
2c06
5556
0140
077e
cafe
3016
5556
0144
06d4
cafe
340f
5556
0144
06e0
cafe
381f
5556
0144
06d7
cafe
3c07
5556
0144
07ba
cafe
2017
5556
0148
0750
cafe
2408
5556
0148
0716
cafe
2818
5556
0148
079b
cafe
2c00
5556
0148
0717
cafe
3010
5556
014c
0777
cafe
3409
5556
014c
0741
cafe
3819
5556
014c
07cf
cafe
3c01
5556
014c
06e9
cafe
2011
5556
0150
06e2
cafe
-
240a
5556
0150
07c8
cafe
281a
5556
0150
0631
cafe
2c02
5556
0150
06d0
cafe
3012
5556
0154
06d5
cafe
340b
5556
0154
06be
cafe
381b
5556
0154
0717
cafe
3c03
5556
0154
06f4
cafe
2013
5556
0158
06bd
cafe
240c
5556
0158
06f5
cafe
281c
5556
0158
067c
cafe
2c04
5556
0158
06a7
cafe
3014
5556
015c
0760
cafe
340d
5556
015c
0798
cafe
381d
5556
015c
06f5
cafe
3c05
5556
015c
06be
cafe
2015
5556
0160
064c
cafe
240e
5556
0160
07b5
cafe
281e
5556
0160
0631
cafe
2c06
5556
0160
0723
cafe
3016
5556
0164
0673
cafe
340f
5556
0164
0687
cafe
381f
5556
0164
0681
cafe
3c07
5556
0164
0763
cafe
2017
5556
0168
06fc
cafe
2408
5556
0168
06bb
cafe
2818
5556
0168
0744
cafe
2c00
5556
0168
06c0
cafe
3010
5556
016c
071a
cafe
3409
5556
016c
06ec
cafe
3819
5556
016c
077d
cafe
3c01
5556
016c
068c
cafe
2011
5556
0170
068c
cafe
240a
5556
0170
0770
cafe
281a
5556
0170
05ce
cafe
2c02
5556
0170
0675
cafe
3012
5556
0174
0679
cafe
340b
5556
0174
0669
cafe
381b
5556
0174
06c3
cafe
3c03
5556
0174
069d
cafe
2013
5556
0178
0669
cafe
240c
5556
0178
06a4
cafe
281c
5556
0178
061e
cafe
2c04
5556
0178
064b
cafe
3014
5556
017c
070e
cafe
340d
5556
017c
0746
cafe
381d
5556
017c
0697
cafe
3c05
5556
017c
0664
cafe
2015
5556
0180
05f1
cafe
240e
5556
0180
0759
cafe
281e
5556
0180
05cd
cafe
2c06
5556
0180
06c7
cafe
3016
-
5556
0184
0618
cafe
340f
5556
0184
062c
cafe
381f
5556
0184
0629
cafe
3c07
5556
0184
070b
cafe
2017
5556
0188
06a0
cafe
2408
5556
0188
065e
cafe
2818
5556
0188
06e1
cafe
2c00
5556
0188
0663
cafe
3010
5556
018c
06c4
cafe
3409
5556
018c
0693
cafe
3819
5556
018c
072b
cafe
3c01
5556
018c
062f
cafe
2011
5556
0190
0630
cafe
240a
5556
0190
0714
cafe
281a
5556
0190
0572
cafe
2c02
5556
0190
061e
cafe
3012
5556
0194
0624
cafe
340b
5556
0194
0616
cafe
381b
5556
0194
0669
cafe
3c03
5556
0194
0649
cafe
2013
5556
0198
060d
cafe
240c
5556
0198
0648
cafe
281c
5556
0198
05c9
cafe
2c04
5556
0198
05f7
cafe
3014
5556
019c
06ba
cafe
340d
5556
019c
06f2
cafe
381d
5556
019c
0641
cafe
3c05
5556
019c
0608
cafe
2015
5556
01a0
058f
cafe
240e
5556
01a0
0708
cafe
281e
5556
01a0
0574
cafe
2c06
5556
01a0
0676
cafe
3016
5556
01a4
05bf
cafe
340f
5556
01a4
05d4
cafe
381f
5556
01a4
05cd
cafe
3c07
5556
01a4
06af
cafe
2017
5556
01a8
064e
cafe
2408
5556
01a8
0605
cafe
2818
5556
01a8
068a
cafe
2c00
5556
01a8
0600
cafe
3010
5556
01ac
066c
cafe
3409
5556
01ac
063b
cafe
3819
5556
01ac
06d5
cafe
3c01
5556
01ac
05da
cafe
2011
5556
01b0
05d4
cafe
240a
5556
01b0
06c7
cafe
281a
5556
01b0
0516
cafe
2c02
5556
01b0
05d2
cafe
3012
5556
01b4
05ce
cafe
340b
5556
01b4
05c0
cafe
381b
5556
01b4
060c
cafe
3c03
5556
-
01b4
05ef
cafe
2013
5556
01b8
05b6
cafe
240c
5556
01b8
05f8
cafe
281c
5556
01b8
0574
cafe
2c04
5556
01b8
05a4
cafe
3014
5556
01bc
0668
cafe
340d
5556
01bc
069a
cafe
381d
5556
01bc
05ea
cafe
3c05
5556
01bc
05b1
cafe
2015
5556
01c0
053c
cafe
240e
5556
01c0
06b5
cafe
281e
5556
01c0
051c
cafe
2c06
5556
01c0
0624
cafe
3016
5556
01c4
0570
cafe
340f
5556
01c4
057d
cafe
381f
5556
01c4
0579
cafe
3c07
5556
01c4
0664
cafe
2017
5556
01c8
05fd
cafe
2408
5556
01c8
05b0
cafe
2818
5556
01c8
0638
cafe
2c00
5556
01c8
05a8
cafe
3010
5556
01cc
0617
cafe
3409
5556
01cc
05e9
cafe
3819
5556
01cc
0685
cafe
3c01
5556
01cc
0586
cafe
2011
5556
01d0
0580
cafe
240a
5556
01d0
067b
cafe
281a
5556
01d0
04c4
cafe
2c02
5556
01d0
0580
cafe
3012
5556
01d4
0578
cafe
340b
5556
01d4
056d
cafe
381b
5556
01d4
05b6
cafe
3c03
5556
01d4
05a0
cafe
2013
5556
01d8
0567
cafe
240c
5556
01d8
05a8
cafe
281c
5556
01d8
0529
cafe
2c04
5556
01d8
054d
cafe
3014
5556
01dc
0617
cafe
340d
5556
01dc
0646
cafe
381d
5556
01dc
0597
cafe
3c05
5556
01dc
055f
cafe
2015
5556
01e0
04e2
cafe
240e
5556
01e0
066b
cafe
281e
5556
01e0
04c6
cafe
2c06
5556
01e0
05cc
cafe
3016
5556
01e4
051b
cafe
340f
5556
01e4
052d
cafe
381f
5556
01e4
052a
cafe
3c07
5556
01e4
061a
cafe
2017
5556
01e8
05a5
cafe
2408
5556
01e8
0561
cafe
2818
5556
01e8
-
05e9
cafe
2c00
5556
01e8
055a
cafe
3010
5556
01ec
05bf
cafe
3409
5556
01ec
0599
cafe
3819
5556
01ec
0633
cafe
3c01
5556
01ec
0535
cafe
2011
5556
01f0
052f
cafe
240a
5556
01f0
0631
cafe
281a
5556
01f0
0471
cafe
2c02
5556
01f0
0537
cafe
3012
5556
01f4
0532
cafe
340b
5556
01f4
051e
cafe
381b
5556
01f4
0568
cafe
3c03
5556
01f4
054a
cafe
2013
5556
01f8
0517
cafe
240c
5556
01f8
055e
cafe
281c
5556
01f8
04d6
cafe
2c04
5556
01f8
04fe
cafe
3014
5556
01fc
05d5
cafe
340d
5556
01fc
05fa
cafe
381d
5556
01fc
054b
cafe
3c05
5556
01fc
0511
cafe
2015
5556
0200
048d
cafe
240e
5556
0200
0621
cafe
281e
5556
0200
0479
cafe
2c06
5556
0200
057f
cafe
3016
5556
0204
04ca
cafe
340f
5556
0204
04e0
cafe
381f
5556
0204
04dd
cafe
3c07
5556
0204
05d0
cafe
2017
5556
0208
0557
cafe
2408
5556
0208
0517
cafe
2818
5556
0208
05a5
cafe
2c00
5556
0208
0513
cafe
3010
5556
020c
0578
cafe
3409
5556
020c
0552
cafe
3819
5556
020c
05ea
cafe
3c01
5556
020c
04ee
cafe
2011
5556
0210
04e9
cafe
240a
5556
0210
05ed
cafe
281a
5556
0210
0424
cafe
2c02
5556
0210
04ef
cafe
3012
5556
0214
04ee
cafe
340b
5556
0214
04d7
cafe
381b
5556
0214
0521
cafe
3c03
5556
0214
050a
cafe
2013
5556
0218
04c9
cafe
240c
5556
0218
0511
cafe
281c
5556
0218
0485
cafe
2c04
5556
0218
04b1
cafe
3014
5556
021c
058b
cafe
340d
5556
021c
05b4
-
cafe
381d
5556
021c
0507
cafe
3c05
5556
021c
04c9
cafe
2015
5556
0220
0447
cafe
240e
5556
0220
05d6
cafe
281e
5556
0220
0433
cafe
2c06
5556
0220
0537
cafe
3016
5556
0224
0483
cafe
340f
5556
0224
0498
cafe
381f
5556
0224
0493
cafe
3c07
5556
0224
058b
cafe
2017
5556
0228
0512
cafe
2408
5556
0228
04d5
cafe
2818
5556
0228
0562
cafe
2c00
5556
0228
04cd
cafe
3010
5556
022c
053a
cafe
3409
5556
022c
050e
cafe
3819
5556
022c
05a0
cafe
3c01
5556
022c
04ad
cafe
2011
5556
0230
04a1
cafe
240a
5556
0230
05aa
cafe
281a
5556
0230
03dd
cafe
2c02
5556
0230
04af
cafe
3012
5556
0234
04a5
cafe
340b
5556
0234
048d
cafe
381b
5556
0234
04de
cafe
3c03
5556
0234
04c3
cafe
2013
5556
0238
0485
cafe
240c
5556
0238
04c3
cafe
281c
5556
0238
0441
cafe
2c04
5556
0238
046d
cafe
3014
5556
023c
0546
cafe
340d
5556
023c
0575
cafe
381d
5556
023c
04ca
cafe
3c05
5556
023c
0484
cafe
2015
5556
0240
0402
cafe
240e
5556
0240
059c
cafe
281e
5556
0240
03e9
cafe
2c06
5556
0240
04f6
cafe
3016
5556
0244
0442
cafe
340f
5556
0244
045c
cafe
381f
5556
0244
0458
cafe
3c07
5556
0244
054b
cafe
2017
5556
0248
04da
cafe
2408
5556
0248
0491
cafe
2818
5556
0248
0522
cafe
2c00
5556
0248
048d
cafe
3010
5556
024c
04fb
cafe
3409
5556
024c
04ce
cafe
3819
5556
024c
055b
cafe
3c01
5556
024c
0464
cafe
2011
5556
0250
0461
cafe
-
240a
5556
0250
0569
cafe
281a
5556
0250
039a
cafe
2c02
5556
0250
0471
cafe
3012
5556
0254
045f
cafe
340b
5556
0254
044e
cafe
381b
5556
0254
049f
cafe
3c03
5556
0254
0487
cafe
2013
5556
0258
044f
cafe
240c
5556
0258
0486
cafe
281c
5556
0258
03fa
cafe
2c04
5556
0258
0431
cafe
3014
5556
025c
0506
cafe
340d
5556
025c
0538
cafe
381d
5556
025c
048e
cafe
3c05
5556
025c
0443
cafe
2015
5556
0260
03c7
cafe
240e
5556
0260
055f
cafe
281e
5556
0260
03ad
cafe
2c06
5556
0260
04b7
cafe
3016
5556
0264
0408
cafe
340f
5556
0264
041d
cafe
381f
5556
0264
0416
cafe
3c07
5556
0264
050a
cafe
2017
5556
0268
049d
cafe
2408
5556
0268
0457
cafe
2818
5556
0268
04e1
cafe
2c00
5556
0268
044a
cafe
3010
5556
026c
04bd
cafe
3409
5556
026c
0499
cafe
3819
5556
026c
0520
cafe
3c01
5556
026c
0426
cafe
2011
5556
0270
0423
cafe
240a
5556
0270
0532
cafe
281a
5556
0270
0366
cafe
2c02
5556
0270
0431
cafe
3012
5556
0274
041f
cafe
340b
5556
0274
040b
cafe
381b
5556
0274
0463
cafe
3c03
5556
0274
0450
cafe
2013
5556
0278
0415
cafe
240c
5556
0278
0447
cafe
281c
5556
0278
03c2
cafe
2c04
5556
0278
03f3
cafe
3014
5556
027c
04c8
cafe
340d
5556
027c
04fd
cafe
381d
5556
027c
044f
cafe
3c05
5556
027c
040d
cafe
2015
5556
0280
0392
cafe
240e
5556
0280
051a
cafe
281e
5556
0280
0374
cafe
2c06
5556
0280
047d
cafe
3016
-
5556
0284
03cd
cafe
340f
5556
0284
03e8
cafe
381f
5556
0284
03d8
cafe
3c07
5556
0284
04d2
cafe
2017
5556
0288
0461
cafe
2408
5556
0288
0425
cafe
2818
5556
0288
04ad
cafe
2c00
5556
0288
040c
cafe
3010
5556
028c
0489
cafe
3409
5556
028c
045e
cafe
3819
5556
028c
04ed
cafe
3c01
5556
028c
03f2
cafe
2011
5556
0290
03ee
cafe
240a
5556
0290
04fb
cafe
281a
5556
0290
032d
cafe
2c02
5556
0290
03fb
cafe
3012
5556
0294
03e9
cafe
340b
5556
0294
03d4
cafe
381b
5556
0294
042d
cafe
3c03
5556
0294
0419
cafe
2013
5556
0298
03da
cafe
240c
5556
0298
0417
cafe
281c
5556
0298
038b
cafe
2c04
5556
0298
03be
cafe
3014
5556
029c
0497
cafe
340d
5556
029c
04c6
cafe
381d
5556
029c
0413
cafe
3c05
5556
029c
03dc
cafe
2015
5556
02a0
035b
cafe
240e
5556
02a0
04e4
cafe
281e
5556
02a0
033e
cafe
2c06
5556
02a0
044a
cafe
3016
5556
02a4
0396
cafe
340f
5556
02a4
03b6
cafe
381f
5556
02a4
03a7
cafe
3c07
5556
02a4
049b
cafe
2017
5556
02a8
042c
cafe
2408
5556
02a8
03f5
cafe
2818
5556
02a8
0479
cafe
2c00
5556
02a8
03d7
cafe
3010
5556
02ac
044f
cafe
3409
5556
02ac
0429
cafe
3819
5556
02ac
04bd
cafe
3c01
5556
02ac
03c2
cafe
2011
5556
02b0
03bc
cafe
240a
5556
02b0
04c8
cafe
281a
5556
02b0
02fa
cafe
2c02
5556
02b0
03bc
cafe
3012
5556
02b4
03bb
cafe
340b
5556
02b4
0399
cafe
381b
5556
02b4
03f7
cafe
3c03
5556
-
02b4
03e7
cafe
2013
5556
02b8
03aa
cafe
240c
5556
02b8
03e2
cafe
281c
5556
02b8
035c
cafe
2c04
5556
02b8
0387
cafe
3014
5556
02bc
0466
cafe
340d
5556
02bc
048f
cafe
381d
5556
02bc
03e6
cafe
3c05
5556
02bc
03b1
cafe
2015
5556
02c0
0321
cafe
240e
5556
02c0
04b4
cafe
281e
5556
02c0
030b
cafe
2c06
5556
02c0
0420
cafe
3016
5556
02c4
0366
cafe
340f
5556
02c4
0398
cafe
381f
5556
02c4
0374
cafe
3c07
5556
02c4
0476
cafe
2017
5556
02c8
0407
cafe
2408
5556
02c8
03db
cafe
2818
5556
02c8
0457
cafe
2c00
5556
02c8
03ac
cafe
3010
5556
02cc
0441
cafe
3409
5556
02cc
0420
cafe
3819
5556
02cc
04a3
cafe
3c01
5556
02cc
0398
cafe
2011
5556
02d0
03b6
cafe
240a
5556
02d0
04be
cafe
281a
5556
02d0
02de
cafe
2c02
5556
02d0
039b
cafe
3012
5556
02d4
03ae
cafe
340b
5556
02d4
038e
cafe
381b
5556
02d4
03da
cafe
3c03
5556
02d4
03c2
cafe
2013
5556
02d8
03a0
cafe
240c
5556
02d8
03d5
cafe
281c
5556
02d8
0331
cafe
2c04
5556
02d8
0364
cafe
3014
5556
02dc
0451
cafe
340d
5556
02dc
047d
cafe
381d
5556
02dc
03bf
cafe
3c05
5556
02dc
0394
cafe
2015
5556
02e0
0311
cafe
240e
5556
02e0
0492
cafe
281e
5556
02e0
02e2
cafe
2c06
5556
02e0
03fb
cafe
3016
5556
02e4
0346
cafe
340f
5556
02e4
0364
cafe
381f
5556
02e4
0348
cafe
3c07
5556
02e4
0449
cafe
2017
5556
02e8
03d3
cafe
2408
5556
02e8
0399
cafe
2818
5556
02e8
-
041b
cafe
2c00
5556
02e8
037c
cafe
3010
5556
02ec
03f5
cafe
3409
5556
02ec
03d2
cafe
3819
5556
02ec
045f
cafe
3c01
5556
02ec
0365
cafe
2011
5556
02f0
0362
cafe
240a
5556
02f0
0470
cafe
281a
5556
02f0
02ad
cafe
2c02
5556
02f0
0369
cafe
3012
5556
02f4
0360
cafe
340b
5556
02f4
035e
cafe
381b
5556
02f4
03a7
cafe
3c03
5556
02f4
0393
cafe
2013
5556
02f8
0369
cafe
240c
5556
02f8
03b4
cafe
281c
5556
02f8
02fe
cafe
2c04
5556
02f8
0340
cafe
3014
5556
02fc
0430
cafe
340d
5556
02fc
0472
cafe
381d
5556
02fc
038f
cafe
3c05
5556
02fc
036e
cafe
2015
5556
0300
02fd
cafe
240e
5556
0300
048a
cafe
281e
5556
0300
02c0
cafe
2c06
5556
0300
03e4
cafe
3016
5556
0304
032b
cafe
340f
5556
0304
034f
cafe
381f
5556
0304
0321
cafe
3c07
5556
0304
0428
cafe
2017
5556
0308
03b7
cafe
2408
5556
0308
0384
cafe
2818
5556
0308
03f9
cafe
2c00
5556
0308
035a
cafe
3010
5556
030c
03ed
cafe
3409
5556
030c
03b1
cafe
3819
5556
030c
0437
cafe
3c01
5556
030c
0340
cafe
2011
5556
0310
0343
cafe
240a
5556
0310
0447
cafe
281a
5556
0310
0283
cafe
2c02
5556
0310
0336
cafe
3012
5556
0314
033a
cafe
340b
5556
0314
0321
cafe
381b
5556
0314
037b
cafe
3c03
5556
0314
0369
cafe
2013
5556
0318
0324
cafe
240c
5556
0318
0363
cafe
281c
5556
0318
02ce
cafe
2c04
5556
0318
030c
cafe
3014
5556
031c
03df
cafe
340d
5556
031c
0422
-
cafe
381d
5556
031c
035f
cafe
3c05
5556
031c
0334
cafe
2015
5556
0320
02b3
cafe
240e
5556
0320
044f
cafe
281e
5556
0320
029b
cafe
2c06
5556
0320
03b0
cafe
3016
5556
0324
02fd
cafe
340f
5556
0324
0330
cafe
381f
5556
0324
0304
cafe
3c07
5556
0324
0405
cafe
2017
5556
0328
038f
cafe
2408
5556
0328
0369
cafe
2818
5556
0328
03d6
cafe
2c00
5556
0328
0338
cafe
3010
5556
032c
03d7
cafe
3409
5556
032c
03a1
cafe
3819
5556
032c
0415
cafe
3c01
5556
032c
0316
cafe
2011
5556
0330
0331
cafe
240a
5556
0330
043d
cafe
281a
5556
0330
0266
cafe
2c02
5556
0330
0310
cafe
3012
5556
0334
032d
cafe
340b
5556
0334
030c
cafe
381b
5556
0334
0363
cafe
3c03
5556
0334
034f
cafe
2013
5556
0338
0317
cafe
240c
5556
0338
034f
cafe
281c
5556
0338
02af
cafe
2c04
5556
0338
02f1
cafe
3014
5556
033c
03c3
cafe
340d
5556
033c
03f7
cafe
381d
5556
033c
0337
cafe
3c05
5556
033c
0318
cafe
2015
5556
0340
0293
cafe
240e
5556
0340
0411
cafe
281e
5556
0340
026f
cafe
2c06
5556
0340
0373
cafe
3016
5556
0344
02ca
cafe
340f
5556
0344
02da
cafe
381f
5556
0344
02d9
cafe
3c07
5556
0344
03c4
cafe
2017
5556
0348
034e
cafe
2408
5556
0348
031f
cafe
2818
5556
0348
03a1
cafe
2c00
5556
0348
0304
cafe
3010
5556
034c
037f
cafe
3409
5556
034c
035f
cafe
3819
5556
034c
03de
cafe
3c01
5556
034c
02f1
cafe
2011
5556
0350
02ec
cafe
-
240a
5556
0350
0403
cafe
281a
5556
0350
0237
cafe
2c02
5556
0350
02e7
cafe
3012
5556
0354
02f6
cafe
340b
5556
0354
02d7
cafe
381b
5556
0354
033d
cafe
3c03
5556
0354
0324
cafe
2013
5556
0358
02de
cafe
240c
5556
0358
0327
cafe
281c
5556
0358
028d
cafe
2c04
5556
0358
02ca
cafe
3014
5556
035c
039a
cafe
340d
5556
035c
03ce
cafe
381d
5556
035c
0312
cafe
3c05
5556
035c
02ee
cafe
2015
5556
0360
0268
cafe
240e
5556
0360
03ea
cafe
281e
5556
0360
024c
cafe
2c06
5556
0360
0353
cafe
3016
5556
0364
02a9
cafe
340f
5556
0364
02bc
cafe
381f
5556
0364
02b9
cafe
3c07
5556
0364
03a3
cafe
2017
5556
0368
0325
cafe
2408
5556
0368
02f4
cafe
2818
5556
0368
0383
cafe
2c00
5556
0368
02df
cafe
3010
5556
036c
0355
cafe
3409
5556
036c
0335
cafe
3819
5556
036c
03b2
cafe
3c01
5556
036c
02cf
cafe
2011
5556
0370
02c0
cafe
240a
5556
0370
03d8
cafe
281a
5556
0370
0213
cafe
2c02
5556
0370
02c3
cafe
3012
5556
0374
02ca
cafe
340b
5556
0374
02af
cafe
381b
5556
0374
0316
cafe
3c03
5556
0374
02ff
cafe
2013
5556
0378
02af
cafe
240c
5556
0378
02fb
cafe
281c
5556
0378
026c
cafe
2c04
5556
0378
02a9
cafe
3014
5556
037c
0374
cafe
340d
5556
037c
03a9
cafe
381d
5556
037c
02f1
cafe
3c05
5556
037c
02cd
cafe
2015
5556
0380
0248
cafe
240e
5556
0380
03c5
cafe
281e
5556
0380
022e
cafe
2c06
5556
0380
0333
cafe
3016
-
5556
0384
028b
cafe
340f
5556
0384
029c
cafe
381f
5556
0384
0294
cafe
3c07
5556
0384
0382
cafe
2017
5556
0388
0308
cafe
2408
5556
0388
02d0
cafe
2818
5556
0388
035b
cafe
2c00
5556
0388
02c0
cafe
3010
5556
038c
0332
cafe
3409
5556
038c
0315
cafe
3819
5556
038c
0395
cafe
3c01
5556
038c
02aa
cafe
2011
5556
0390
02a2
cafe
240a
5556
0390
03ab
cafe
281a
5556
0390
01fc
cafe
2c02
5556
0390
02a6
cafe
3012
5556
0394
02a6
cafe
340b
5556
0394
028a
cafe
381b
5556
0394
02f7
cafe
3c03
5556
0394
02df
cafe
2013
5556
0398
0293
cafe
240c
5556
0398
02dc
cafe
281c
5556
0398
024d
cafe
2c04
5556
0398
0287
cafe
3014
5556
039c
034c
cafe
340d
5556
039c
0381
cafe
381d
5556
039c
02d6
cafe
3c05
5556
039c
02a9
cafe
2015
5556
03a0
0229
cafe
240e
5556
03a0
03aa
cafe
281e
5556
03a0
020e
cafe
2c06
5556
03a0
0312
cafe
3016
5556
03a4
026c
cafe
340f
5556
03a4
027e
cafe
381f
5556
03a4
0279
cafe
3c07
5556
03a4
036b
cafe
2017
5556
03a8
02ec
cafe
2408
5556
03a8
02bd
cafe
2818
5556
03a8
0343
cafe
2c00
5556
03a8
02a9
cafe
3010
5556
03ac
031a
cafe
3409
5556
03ac
02fa
cafe
3819
5556
03ac
0380
cafe
3c01
5556
03ac
028b
cafe
2011
5556
03b0
0291
cafe
240a
5556
03b0
0392
cafe
281a
5556
03b0
01df
cafe
2c02
5556
03b0
0291
cafe
3012
5556
03b4
028f
cafe
340b
5556
03b4
026a
cafe
381b
5556
03b4
02db
cafe
3c03
5556
-
03b4
02c3
cafe
2013
5556
03b8
0274
cafe
240c
5556
03b8
02bb
cafe
281c
5556
03b8
0232
cafe
2c04
5556
03b8
0268
cafe
3014
5556
03bc
0331
cafe
340d
5556
03bc
0362
cafe
381d
5556
03bc
02bc
cafe
3c05
5556
03bc
0289
cafe
2015
5556
03c0
0206
cafe
240e
5556
03c0
0389
cafe
281e
5556
03c0
01f3
cafe
2c06
5556
03c0
02f5
cafe
3016
5556
03c4
024c
cafe
340f
5556
03c4
025d
cafe
381f
5556
03c4
025c
cafe
3c07
5556
03c4
034d
cafe
2017
5556
03c8
02d4
cafe
2408
5556
03c8
029e
cafe
2818
5556
03c8
0327
cafe
2c00
5556
03c8
028f
cafe
3010
5556
03cc
02fb
cafe
3409
5556
03cc
02e3
cafe
3819
5556
03cc
0365
cafe
3c01
5556
03cc
0272
cafe
2011
5556
03d0
0276
cafe
240a
5556
03d0
0377
cafe
281a
5556
03d0
01ca
cafe
2c02
5556
03d0
027e
cafe
3012
5556
03d4
027c
cafe
340b
5556
03d4
0252
cafe
381b
5556
03d4
02c5
cafe
3c03
5556
03d4
02a6
cafe
2013
5556
03d8
0259
cafe
240c
5556
03d8
02a5
cafe
281c
5556
03d8
0219
cafe
2c04
5556
03d8
0248
cafe
3014
5556
03dc
0315
cafe
340d
5556
03dc
034e
cafe
381d
5556
03dc
02a5
cafe
3c05
5556
03dc
0272
cafe
2015
5556
03e0
01ed
cafe
240e
5556
03e0
0372
cafe
281e
5556
03e0
01da
cafe
2c06
5556
03e0
02e4
cafe
3016
5556
03e4
0236
cafe
340f
5556
03e4
0240
cafe
381f
5556
03e4
0242
cafe
3c07
5556
03e4
032e
cafe
2017
5556
03e8
02b8
cafe
2408
5556
03e8
0284
cafe
2818
5556
03e8
-
030f
cafe
2c00
5556
03e8
0276
cafe
3010
5556
03ec
02e2
cafe
3409
5556
03ec
02cd
cafe
3819
5556
03ec
034e
cafe
3c01
5556
03ec
025a
cafe
2011
5556
03f0
025d
cafe
240a
5556
03f0
035b
cafe
281a
5556
03f0
01ae
cafe
2c02
5556
03f0
026e
cafe
3012
5556
03f4
0263
cafe
340b
5556
03f4
023c
cafe
381b
5556
03f4
02ac
cafe
3c03
5556
03f4
0288
cafe
2013
5556
03f8
023d
cafe
240c
5556
03f8
028c
cafe
281c
5556
03f8
0204
cafe
2c04
5556
03f8
0231
cafe
3014
5556
03fc
02fc
cafe
340d
5556
03fc
0337
cafe
381d
5556
03fc
028e
cafe
3c05
5556
03fc
025a
cafe
2015
5556
0400
01d9
cafe
240e
5556
0400
0357
cafe
281e
5556
0400
01c5
cafe
2c06
5556
0400
02ce
cafe
3016
5556
0404
0225
cafe
340f
5556
0404
022d
cafe
381f
5556
0404
022e
cafe
3c07
5556
0404
0314
cafe
2017
5556
0408
02a0
cafe
2408
5556
0408
026f
cafe
2818
5556
0408
02f4
cafe
2c00
5556
0408
025b
cafe
3010
5556
040c
02d5
cafe
3409
5556
040c
02bb
cafe
3819
5556
040c
0336
cafe
3c01
5556
040c
0248
cafe
2011
5556
0410
0246
cafe
240a
5556
0410
033e
cafe
281a
5556
0410
0198
cafe
2c02
5556
0410
0256
cafe
3012
5556
0414
0244
cafe
340b
5556
0414
022e
cafe
381b
5556
0414
029a
cafe
3c03
5556
0414
026a
cafe
2013
5556
0418
0228
cafe
240c
5556
0418
0279
cafe
281c
5556
0418
01f1
cafe
2c04
5556
0418
022c
cafe
3014
5556
041c
02ea
cafe
340d
5556
041c
0321
-
cafe
381d
5556
041c
0278
cafe
3c05
5556
041c
024e
cafe
2015
5556
0420
01c9
cafe
240e
5556
0420
0344
cafe
281e
5556
0420
01ac
cafe
2c06
5556
0420
02b8
cafe
3016
5556
0424
0212
cafe
340f
5556
0424
0216
cafe
381f
5556
0424
0215
cafe
3c07
5556
0424
02fd
cafe
2017
5556
0428
0288
cafe
2408
5556
0428
025d
cafe
2818
5556
0428
02da
cafe
2c00
5556
0428
0247
cafe
3010
5556
042c
02b5
cafe
3409
5556
042c
02a1
cafe
3819
5556
042c
031e
cafe
3c01
5556
042c
022f
cafe
2011
5556
0430
0233
cafe
240a
5556
0430
0327
cafe
281a
5556
0430
0188
cafe
2c02
5556
0430
023f
cafe
3012
5556
0434
022a
cafe
340b
5556
0434
021b
cafe
381b
5556
0434
0284
cafe
3c03
5556
0434
0258
cafe
2013
5556
0438
020e
cafe
240c
5556
0438
0264
cafe
281c
5556
0438
01d9
cafe
2c04
5556
0438
0219
cafe
3014
5556
043c
02dc
cafe
340d
5556
043c
030c
cafe
381d
5556
043c
0266
cafe
3c05
5556
043c
0235
cafe
2015
5556
0440
01b9
cafe
240e
5556
0440
032e
cafe
281e
5556
0440
019e
cafe
2c06
5556
0440
02a4
cafe
3016
5556
0444
0202
cafe
340f
5556
0444
0209
cafe
381f
5556
0444
0203
cafe
3c07
5556
0444
02ea
cafe
2017
5556
0448
0278
cafe
2408
5556
0448
024b
cafe
2818
5556
0448
02c7
cafe
2c00
5556
0448
023b
cafe
3010
5556
044c
02a3
cafe
3409
5556
044c
028c
cafe
3819
5556
044c
0307
cafe
3c01
5556
044c
021e
cafe
2011
5556
0450
0222
cafe
-
240a
5556
0450
0314
cafe
281a
5556
0450
0175
cafe
2c02
5556
0450
022c
cafe
3012
5556
0454
0217
cafe
340b
5556
0454
0207
cafe
381b
5556
0454
026d
cafe
3c03
5556
0454
0247
cafe
2013
5556
0458
01fc
cafe
240c
5556
0458
024b
cafe
281c
5556
0458
01ca
cafe
2c04
5556
0458
0205
cafe
3014
5556
045c
02c1
cafe
340d
5556
045c
02f9
cafe
381d
5556
045c
0256
cafe
3c05
5556
045c
0221
cafe
2015
5556
0460
01a7
cafe
240e
5556
0460
0321
cafe
281e
5556
0460
018b
cafe
2c06
5556
0460
0292
cafe
3016
5556
0464
01f0
cafe
340f
5556
0464
01f6
cafe
381f
5556
0464
01f0
cafe
3c07
5556
0464
02de
cafe
2017
5556
0468
0271
cafe
2408
5556
0468
023c
cafe
2818
5556
0468
02b3
cafe
2c00
5556
0468
0227
cafe
3010
5556
046c
0292
cafe
3409
5556
046c
0272
cafe
3819
5556
046c
02f5
cafe
3c01
5556
046c
020c
cafe
2011
5556
0470
0217
cafe
240a
5556
0470
0303
cafe
281a
5556
0470
016e
cafe
2c02
5556
0470
0221
cafe
3012
5556
0474
020a
cafe
340b
5556
0474
01f7
cafe
381b
5556
0474
025e
cafe
3c03
5556
0474
0235
cafe
2013
5556
0478
01e6
cafe
240c
5556
0478
0239
cafe
281c
5556
0478
01bb
cafe
2c04
5556
0478
01f4
cafe
3014
5556
047c
02af
cafe
340d
5556
047c
02e9
cafe
381d
5556
047c
0244
cafe
3c05
5556
047c
0211
cafe
2015
5556
0480
0195
cafe
240e
5556
0480
0308
cafe
281e
5556
0480
017a
cafe
2c06
5556
0480
027c
cafe
3016
-
5556
0484
01dd
cafe
340f
5556
0484
01e9
cafe
381f
5556
0484
01dc
cafe
3c07
5556
0484
02d1
cafe
2017
5556
0488
0261
cafe
2408
5556
0488
022c
cafe
2818
5556
0488
02a7
cafe
2c00
5556
0488
0214
cafe
3010
5556
048c
0287
cafe
3409
5556
048c
0260
cafe
3819
5556
048c
02de
cafe
3c01
5556
048c
0202
cafe
2011
5556
0490
0208
cafe
240a
5556
0490
02f0
cafe
281a
5556
0490
015d
cafe
2c02
5556
0490
020f
cafe
3012
5556
0494
01f9
cafe
340b
5556
0494
01eb
cafe
381b
5556
0494
0251
cafe
3c03
5556
0494
0223
cafe
2013
5556
0498
01d8
cafe
240c
5556
0498
022f
cafe
281c
5556
0498
01ae
cafe
2c04
5556
0498
01ef
cafe
3014
5556
049c
029a
cafe
340d
5556
049c
02d2
cafe
381d
5556
049c
0237
cafe
3c05
5556
049c
01f9
cafe
2015
5556
04a0
0192
cafe
240e
5556
04a0
02f5
cafe
281e
5556
04a0
0175
cafe
2c06
5556
04a0
0264
cafe
3016
5556
04a4
01cf
cafe
340f
5556
04a4
01d6
cafe
381f
5556
04a4
01cd
cafe
3c07
5556
04a4
02c3
cafe
2017
5556
04a8
024f
cafe
2408
5556
04a8
021c
cafe
2818
5556
04a8
0297
cafe
2c00
5556
04a8
0207
cafe
3010
5556
04ac
026e
cafe
3409
5556
04ac
0257
cafe
3819
5556
04ac
02cb
cafe
3c01
5556
04ac
01f6
cafe
2011
5556
04b0
01f5
cafe
240a
5556
04b0
02de
cafe
281a
5556
04b0
0152
cafe
2c02
5556
04b0
01fa
cafe
3012
5556
04b4
01e6
cafe
340b
5556
04b4
01dd
cafe
381b
5556
04b4
0242
cafe
3c03
5556
-
04b4
0214
cafe
2013
5556
04b8
01d1
cafe
240c
5556
04b8
0227
cafe
281c
5556
04b8
019f
cafe
2c04
5556
04b8
01df
cafe
3014
5556
04bc
028b
cafe
340d
5556
04bc
02cf
cafe
381d
5556
04bc
022c
cafe
3c05
5556
04bc
01f1
cafe
2015
5556
04c0
0184
cafe
240e
5556
04c0
02e7
cafe
281e
5556
04c0
0164
cafe
2c06
5556
04c0
0255
cafe
3016
5556
04c4
01c4
cafe
340f
5556
04c4
01c7
cafe
381f
5556
04c4
01c4
cafe
3c07
5556
04c4
02bc
cafe
2017
5556
04c8
0240
cafe
2408
5556
04c8
020d
cafe
2818
5556
04c8
0288
cafe
2c00
5556
04c8
01fd
cafe
3010
5556
04cc
025d
cafe
3409
5556
04cc
024c
cafe
3819
5556
04cc
02bb
cafe
3c01
5556
04cc
01ea
cafe
2011
5556
04d0
01e9
cafe
240a
5556
04d0
02cf
cafe
281a
5556
04d0
0147
cafe
2c02
5556
04d0
01ee
cafe
3012
5556
04d4
01d5
cafe
340b
5556
04d4
01d3
cafe
381b
5556
04d4
0232
cafe
3c03
5556
04d4
020c
cafe
2013
5556
04d8
01cc
cafe
240c
5556
04d8
0217
cafe
281c
5556
04d8
0194
cafe
2c04
5556
04d8
01cb
cafe
3014
5556
04dc
0287
cafe
340d
5556
04dc
02c9
cafe
381d
5556
04dc
021f
cafe
3c05
5556
04dc
01f2
cafe
2015
5556
04e0
0178
cafe
240e
5556
04e0
02dd
cafe
281e
5556
04e0
015d
cafe
2c06
5556
04e0
024a
cafe
3016
5556
04e4
01ba
cafe
340f
5556
04e4
01c1
cafe
381f
5556
04e4
01b6
cafe
3c07
5556
04e4
02b5
cafe
2017
5556
04e8
0233
cafe
2408
5556
04e8
0201
cafe
2818
5556
04e8
-
027b
cafe
2c00
5556
04e8
01f8
cafe
3010
5556
04ec
0251
cafe
3409
5556
04ec
0240
cafe
3819
5556
04ec
02af
cafe
3c01
5556
04ec
01de
cafe
2011
5556
04f0
01e0
cafe
240a
5556
04f0
02be
cafe
281a
5556
04f0
0136
cafe
2c02
5556
04f0
01df
cafe
3012
5556
04f4
01c8
cafe
340b
5556
04f4
01c5
cafe
381b
5556
04f4
0223
cafe
3c03
5556
04f4
01fb
cafe
2013
5556
04f8
01c0
cafe
240c
5556
04f8
020e
cafe
281c
5556
04f8
018a
cafe
2c04
5556
04f8
01bc
cafe
3014
5556
04fc
027d
cafe
340d
5556
04fc
02b8
cafe
381d
5556
04fc
0210
cafe
3c05
5556
04fc
01eb
cafe
2015
5556
0500
016e
cafe
240e
5556
0500
02d1
cafe
281e
5556
0500
0154
cafe
2c06
5556
0500
023d
cafe
3016
5556
0504
01aa
cafe
340f
5556
0504
01b3
cafe
381f
5556
0504
01af
cafe
3c07
5556
0504
02a1
cafe
2017
5556
0508
0227
cafe
2408
5556
0508
01f5
cafe
2818
5556
0508
0270
cafe
2c00
5556
0508
01ef
cafe
3010
5556
050c
024a
cafe
3409
5556
050c
0234
cafe
3819
5556
050c
02a7
cafe
3c01
5556
050c
01cd
cafe
2011
5556
0510
01d0
cafe
240a
5556
0510
02b4
cafe
281a
5556
0510
012f
cafe
2c02
5556
0510
01d3
cafe
3012
5556
0514
01bd
cafe
340b
5556
0514
01b7
cafe
381b
5556
0514
020f
cafe
3c03
5556
0514
01ee
cafe
2013
5556
0518
01ae
cafe
240c
5556
0518
01fa
cafe
281c
5556
0518
0181
cafe
2c04
5556
0518
01b1
cafe
3014
5556
051c
026f
cafe
340d
5556
051c
02ae
-
cafe
381d
5556
051c
0203
cafe
3c05
5556
051c
01e1
cafe
2015
5556
0520
0161
cafe
240e
5556
0520
02c8
cafe
281e
5556
0520
0149
cafe
2c06
5556
0520
0229
cafe
3016
5556
0524
01a2
cafe
340f
5556
0524
01a3
cafe
381f
5556
0524
01a4
cafe
3c07
5556
0524
0295
cafe
2017
5556
0528
0218
cafe
2408
5556
0528
01ee
cafe
2818
5556
0528
0260
cafe
2c00
5556
0528
01e5
cafe
3010
5556
052c
023e
cafe
3409
5556
052c
022e
cafe
3819
5556
052c
02a5
cafe
3c01
5556
052c
01c6
cafe
2011
5556
0530
01ca
cafe
240a
5556
0530
02ac
cafe
281a
5556
0530
0125
cafe
2c02
5556
0530
01c7
cafe
3012
5556
0534
01ba
cafe
340b
5556
0534
01b4
cafe
381b
5556
0534
020c
cafe
3c03
5556
0534
01e5
cafe
2013
5556
0538
01a2
cafe
240c
5556
0538
01ee
cafe
281c
5556
0538
0174
cafe
2c04
5556
0538
01ac
cafe
3014
5556
053c
025b
cafe
340d
5556
053c
02a0
cafe
381d
5556
053c
01f8
cafe
3c05
5556
053c
01d7
cafe
2015
5556
0540
015a
cafe
240e
5556
0540
02bc
cafe
281e
5556
0540
0142
cafe
2c06
5556
0540
0218
cafe
3016
5556
0544
019e
cafe
340f
5556
0544
019a
cafe
381f
5556
0544
019d
cafe
3c07
5556
0544
028f
cafe
2017
5556
0548
0208
cafe
2408
5556
0548
01e4
cafe
2818
5556
0548
025a
cafe
2c00
5556
0548
01d5
cafe
3010
5556
054c
0234
cafe
3409
5556
054c
0225
cafe
3819
5556
054c
0292
cafe
3c01
5556
054c
01c3
cafe
2011
5556
0550
01bc
cafe
-
240a
5556
0550
029c
cafe
281a
5556
0550
011c
cafe
2c02
5556
0550
01c2
cafe
3012
5556
0554
01b4
cafe
340b
5556
0554
01a8
cafe
381b
5556
0554
0200
cafe
3c03
5556
0554
01dd
cafe
2013
5556
0558
019c
cafe
240c
5556
0558
01eb
cafe
281c
5556
0558
0171
cafe
2c04
5556
0558
01a1
cafe
3014
5556
055c
0252
cafe
340d
5556
055c
0298
cafe
381d
5556
055c
01eb
cafe
3c05
5556
055c
01cc
cafe
2015
5556
0560
0151
cafe
240e
5556
0560
02b4
cafe
281e
5556
0560
0139
cafe
2c06
5556
0560
020f
cafe
3016
5556
0564
0197
cafe
340f
5556
0564
018e
cafe
381f
5556
0564
0198
cafe
3c07
5556
0564
0286
cafe
2017
5556
0568
0201
cafe
2408
5556
0568
01dd
cafe
2818
5556
0568
0253
cafe
2c00
5556
0568
01c9
cafe
3010
5556
056c
0228
cafe
3409
5556
056c
0218
cafe
3819
5556
056c
028d
cafe
3c01
5556
056c
01b4
cafe
2011
5556
0570
01b3
cafe
240a
5556
0570
0291
cafe
281a
5556
0570
0120
cafe
2c02
5556
0570
01b6
cafe
3012
5556
0574
01aa
cafe
340b
5556
0574
01a0
cafe
381b
5556
0574
01eb
cafe
3c03
5556
0574
01d7
cafe
2013
5556
0578
018f
cafe
240c
5556
0578
01e4
cafe
281c
5556
0578
016a
cafe
2c04
5556
0578
0199
cafe
3014
5556
057c
0249
cafe
340d
5556
057c
028d
cafe
381d
5556
057c
01e2
cafe
3c05
5556
057c
01c7
cafe
2015
5556
0580
014b
cafe
240e
5556
0580
02ae
cafe
281e
5556
0580
0133
cafe
2c06
5556
0580
020a
cafe
3016
-
5556
0584
0191
cafe
340f
5556
0584
0185
cafe
381f
5556
0584
018d
cafe
3c07
5556
0584
027e
cafe
2017
5556
0588
01f9
cafe
2408
5556
0588
01d5
cafe
2818
5556
0588
0250
cafe
2c00
5556
0588
01c1
cafe
3010
5556
058c
0226
cafe
3409
5556
058c
0214
cafe
3819
5556
058c
027b
cafe
3c01
5556
058c
01ac
cafe
2011
5556
0590
01a9
cafe
240a
5556
0590
0283
cafe
281a
5556
0590
0118
cafe
2c02
5556
0590
01ad
cafe
3012
5556
0594
019a
cafe
340b
5556
0594
0198
cafe
381b
5556
0594
01e2
cafe
3c03
5556
0594
01d1
cafe
2013
5556
0598
018c
cafe
240c
5556
0598
01e4
cafe
281c
5556
0598
015c
cafe
2c04
5556
0598
0191
cafe
3014
5556
059c
0240
cafe
340d
5556
059c
028a
cafe
381d
5556
059c
01d9
cafe
3c05
5556
059c
01bc
cafe
2015
5556
05a0
0146
cafe
240e
5556
05a0
02a7
cafe
281e
5556
05a0
0127
cafe
2c06
5556
05a0
01ff
cafe
3016
5556
05a4
0187
cafe
340f
5556
05a4
017e
cafe
381f
5556
05a4
0187
cafe
3c07
5556
05a4
0279
cafe
2017
5556
05a8
01ee
cafe
2408
5556
05a8
01ce
cafe
2818
5556
05a8
0245
cafe
2c00
5556
05a8
01b9
cafe
3010
5556
05ac
021e
cafe
3409
5556
05ac
0208
cafe
3819
5556
05ac
0273
cafe
3c01
5556
05ac
01a6
cafe
2011
5556
05b0
01a0
cafe
240a
5556
05b0
0284
cafe
281a
5556
05b0
0111
cafe
2c02
5556
05b0
01a4
cafe
3012
5556
05b4
0191
cafe
340b
5556
05b4
018d
cafe
381b
5556
05b4
01e4
cafe
3c03
5556
-
05b4
01cb
cafe
2013
5556
05b8
0187
cafe
240c
5556
05b8
01d6
cafe
281c
5556
05b8
0153
cafe
2c04
5556
05b8
018b
cafe
3014
5556
05bc
0236
cafe
340d
5556
05bc
027f
cafe
381d
5556
05bc
01d2
cafe
3c05
5556
05bc
01b5
cafe
2015
5556
05c0
013c
cafe
240e
5556
05c0
029a
cafe
281e
5556
05c0
0121
cafe
2c06
5556
05c0
01fd
cafe
3016
5556
05c4
017d
cafe
340f
5556
05c4
016d
cafe
381f
5556
05c4
0181
cafe
3c07
5556
05c4
0275
cafe
2017
5556
05c8
01e6
cafe
2408
5556
05c8
01c5
cafe
2818
5556
05c8
023d
cafe
2c00
5556
05c8
01b4
cafe
3010
5556
05cc
0213
cafe
3409
5556
05cc
01fd
cafe
3819
5556
05cc
026a
cafe
3c01
5556
05cc
01a0
cafe
2011
5556
05d0
019f
cafe
240a
5556
05d0
027e
cafe
281a
5556
05d0
0103
cafe
2c02
5556
05d0
019d
cafe
3012
5556
05d4
0186
cafe
340b
5556
05d4
0189
cafe
381b
5556
05d4
01e4
cafe
3c03
5556
05d4
01bf
cafe
2013
5556
05d8
0185
cafe
240c
5556
05d8
01d4
cafe
281c
5556
05d8
014b
cafe
2c04
5556
05d8
0186
cafe
3014
5556
05dc
022e
cafe
340d
5556
05dc
0278
cafe
381d
5556
05dc
01cc
cafe
3c05
5556
05dc
01ad
cafe
2015
5556
05e0
013a
cafe
240e
5556
05e0
028e
cafe
281e
5556
05e0
0117
cafe
2c06
5556
05e0
01f6
cafe
3016
5556
05e4
017c
cafe
340f
5556
05e4
0167
cafe
381f
5556
05e4
017a
cafe
3c07
5556
05e4
026c
cafe
2017
5556
05e8
01e2
cafe
2408
5556
05e8
01bc
cafe
2818
5556
05e8
-
0234
cafe
2c00
5556
05e8
01b1
cafe
3010
5556
05ec
0211
cafe
3409
5556
05ec
01f6
cafe
3819
5556
05ec
025f
cafe
3c01
5556
05ec
019c
cafe
2011
5556
05f0
0199
cafe
240a
5556
05f0
0274
cafe
281a
5556
05f0
00fb
cafe
2c02
5556
05f0
019c
cafe
3012
5556
05f4
0184
cafe
340b
5556
05f4
0186
cafe
381b
5556
05f4
01e1
cafe
3c03
5556
05f4
01b3
cafe
2013
5556
05f8
0183
cafe
240c
5556
05f8
01ca
cafe
281c
5556
05f8
0146
cafe
2c04
5556
05f8
0184
cafe
3014
5556
05fc
0223
cafe
340d
5556
05fc
0271
cafe
381d
5556
05fc
01c8
cafe
3c05
5556
05fc
01a6
cafe
2015
5556
0600
0136
cafe
240e
5556
0600
028a
cafe
281e
5556
0600
0111
cafe
2c06
5556
0600
01f3
cafe
3016
5556
0604
0178
cafe
340f
5556
0604
016a
cafe
381f
5556
0604
0179
cafe
3c07
5556
0604
0265
cafe
2017
5556
0608
01dd
cafe
2408
5556
0608
01b3
cafe
2818
5556
0608
0231
cafe
2c00
5556
0608
01b4
cafe
3010
5556
060c
0207
cafe
3409
5556
060c
01f0
cafe
3819
5556
060c
0254
cafe
3c01
5556
060c
0197
cafe
2011
5556
0610
0193
cafe
240a
5556
0610
026d
cafe
281a
5556
0610
00fc
cafe
2c02
5556
0610
0195
cafe
3012
5556
0614
017f
cafe
340b
5556
0614
017f
cafe
381b
5556
0614
01da
cafe
3c03
5556
0614
01ae
cafe
2013
5556
0618
0179
cafe
240c
5556
0618
01be
cafe
281c
5556
0618
0142
cafe
2c04
5556
0618
017a
cafe
3014
5556
061c
021f
cafe
340d
5556
061c
0265
-
cafe
381d
5556
061c
01c3
cafe
3c05
5556
061c
019d
cafe
2015
5556
0620
0133
cafe
240e
5556
0620
0287
cafe
281e
5556
0620
0109
cafe
2c06
5556
0620
01e8
cafe
3016
5556
0624
0172
cafe
340f
5556
0624
016b
cafe
381f
5556
0624
0172
cafe
3c07
5556
0624
025e
cafe
2017
5556
0628
01d9
cafe
2408
5556
0628
01ab
cafe
2818
5556
0628
022a
cafe
2c00
5556
0628
01ac
cafe
3010
5556
062c
0208
cafe
3409
5556
062c
01f1
cafe
3819
5556
062c
0255
cafe
3c01
5556
062c
0191
cafe
2011
5556
0630
018d
cafe
240a
5556
0630
026e
cafe
281a
5556
0630
00f2
cafe
2c02
5556
0630
0190
cafe
3012
5556
0634
0173
cafe
340b
5556
0634
017c
cafe
381b
5556
0634
01d7
cafe
3c03
5556
0634
01ad
cafe
2013
5556
0638
0170
cafe
240c
5556
0638
01bb
cafe
281c
5556
0638
013b
cafe
2c04
5556
0638
0176
cafe
3014
5556
063c
0217
cafe
340d
5556
063c
025c
cafe
381d
5556
063c
01bb
cafe
3c05
5556
063c
0199
cafe
2015
5556
0640
012d
cafe
240e
5556
0640
027c
cafe
281e
5556
0640
0105
cafe
2c06
5556
0640
01e5
cafe
3016
5556
0644
0164
cafe
340f
5556
0644
0164
cafe
381f
5556
0644
016b
cafe
3c07
5556
0644
025a
cafe
2017
5556
0648
01da
cafe
2408
5556
0648
01a7
cafe
2818
5556
0648
0220
cafe
2c00
5556
0648
01ab
cafe
3010
5556
064c
0206
cafe
3409
5556
064c
01f6
cafe
3819
5556
064c
0256
cafe
3c01
5556
064c
0193
cafe
2011
5556
0650
018e
cafe
-
