3804
0000
0000
0151
cafe
3c04
0000
0000
0157
cafe
2004
0000
0000
0152
cafe
2404
0000
0000
0155
cafe
2804
0000
0000
0153
cafe
2c04
0000
0000
0156
cafe
3004
0000
0000
0157
cafe
3404
0000
0000
0157
cafe
3804
0000
0000
0157
cafe
3c04
0000
0000
0159
cafe
2004
0000
0000
0156
cafe
2404
0000
0000
015a
cafe
2804
0000
0000
0158
cafe
2c04
0000
0000
0159
cafe
3004
0000
0000
0155
cafe
3404
0000
0000
0154
cafe
3804
0000
0000
0153
cafe
3c04
0000
0000
0157
cafe
2004
0000
0000
0152
cafe
2404
0000
0000
0153
cafe
2804
0000
0000
0155
cafe
2c04
0000
0000
0156
cafe
3004
0000
0000
0154
cafe
3404
0000
0000
0153
cafe
3804
0000
0000
0158
cafe
3c04
0000
0000
0151
cafe
2004
0000
0000
0151
cafe
2404
0000
0000
0156
cafe
2804
0000
0000
0157
cafe
2c04
0000
0000
0153
cafe
3004
0000
0000
0154
cafe
3404
0000
0000
0151
cafe
3804
0000
0000
0150
cafe
3c04
0000
0000
0152
cafe
2004
0000
0000
014d
cafe
2404
0000
0000
0159
cafe
2804
0000
0000
014f
cafe
2c04
0000
0000
0155
cafe
3004
0000
0000
0150
cafe
3404
0000
0000
0157
cafe
3804
0000
0000
0158
cafe
3c04
0000
0000
0157
cafe
2004
0000
0000
0156
cafe
2404
0000
0000
0152
cafe
2804
0000
0000
0155
cafe
2c04
0000
0000
0156
cafe
3004
0000
0000
0156
cafe
3404
0000
0000
0157
cafe
3804
0000
0000
0153
cafe
3c04
0000
0000
0157
cafe
2004
0000
0000
0155
cafe
2404
-
0000
0000
0157
cafe
2804
0000
0000
0158
cafe
2c04
0000
0000
0155
cafe
3004
0000
0000
0151
cafe
3404
0000
0000
0157
cafe
3804
0000
0000
0158
cafe
3c04
0000
0000
0158
cafe
2004
0000
0000
015a
cafe
2404
0000
0000
015e
cafe
2804
0000
0000
015a
cafe
2c04
0000
0000
015d
cafe
3004
0000
0000
015a
cafe
3404
0000
0000
015b
cafe
3804
0000
0000
0160
cafe
3c04
0000
0000
015e
cafe
2004
0000
0000
015c
cafe
2404
0000
0000
0159
cafe
2804
0000
0000
0158
cafe
2c04
0000
0000
0155
cafe
3004
0000
0000
0151
cafe
3404
0000
0000
0153
cafe
3804
0000
0000
0153
cafe
3c04
0000
0000
0151
cafe
2004
0000
0000
0156
cafe
2404
0000
0000
0153
cafe
2804
0000
0000
0155
cafe
2c04
0000
0000
0155
cafe
3004
0000
0000
0156
cafe
3404
0000
0000
0159
cafe
3804
0000
0000
0153
cafe
3c04
0000
0000
0157
cafe
2004
0000
0000
0155
cafe
2404
0000
0000
0156
cafe
2804
0000
0000
0156
cafe
2c04
0000
0000
0152
cafe
3004
0000
0000
0151
cafe
3404
0000
0000
014f
cafe
3804
0000
0000
0157
cafe
3c04
0000
0000
0159
cafe
2004
0000
0000
0159
cafe
2404
0000
0000
0159
cafe
2804
0000
0000
0158
cafe
2c04
0000
0000
0156
cafe
3004
0000
0000
0159
cafe
3404
0000
0000
0159
cafe
3804
0000
0000
0158
cafe
3c04
0000
0000
0159
cafe
2004
0000
0000
015a
cafe
2404
0000
0000
0155
cafe
2804
0000
0000
0157
cafe
2c04
0000
0000
015b
cafe
3004
0000
-
0000
0158
cafe
3404
0000
0000
0156
cafe
3804
0000
0000
0152
cafe
3c04
0000
0000
0157
cafe
2004
0000
0000
0153
cafe
2404
0000
0000
015a
cafe
2804
0000
0000
0153
cafe
2c04
0000
0000
0156
cafe
3004
0000
0000
0154
cafe
3404
0000
0000
0157
cafe
3804
0000
0000
0157
cafe
3c04
0000
0000
0154
cafe
2004
0000
0000
0159
cafe
2404
0000
0000
0155
cafe
2804
0000
0000
0158
cafe
2c04
0000
0000
0156
cafe
3004
0000
0000
0159
cafe
3404
0000
0000
0158
cafe
3804
0000
0000
0158
cafe
3c04
0000
0000
0157
cafe
2004
0000
0000
0157
cafe
2404
0000
0000
0154
cafe
2804
0000
0000
0159
cafe
2c04
0000
0000
0156
cafe
3004
0000
0000
0155
cafe
3404
0000
0000
0153
cafe
3804
0000
0000
0153
cafe
3c04
0000
0000
0158
cafe
2004
0000
0000
0158
cafe
2404
0000
0000
0157
cafe
2804
0000
0000
0155
cafe
2c04
0000
0000
0155
cafe
3004
0000
0000
015a
cafe
3404
0000
0000
0155
cafe
3804
0000
0000
0158
cafe
3c04
0000
0000
015a
cafe
2004
0000
0000
0158
cafe
2404
0000
0000
0158
cafe
2804
0000
0000
0155
cafe
2c04
0000
0000
0155
cafe
3004
0000
0000
0152
cafe
3404
0000
0000
0153
cafe
3804
0000
0000
0155
cafe
3c04
0000
0000
0157
cafe
2004
0000
0000
0157
cafe
2404
0000
0000
015b
cafe
2804
0000
0000
0154
cafe
2c04
0000
0000
0158
cafe
3004
0000
0000
0157
cafe
3404
0000
0000
0153
cafe
3804
0000
0000
0155
cafe
3c04
0000
0000
-
0154
cafe
2004
0000
0000
0154
cafe
2404
0000
0000
0154
cafe
2804
0000
0000
0151
cafe
2c04
0000
0000
014e
cafe
3004
0000
0000
0152
cafe
3404
0000
0000
0155
cafe
3804
0000
0000
0158
cafe
3c04
0000
0000
0153
cafe
2004
0000
0000
0153
cafe
2404
0000
0000
0153
cafe
2804
0000
0000
0151
cafe
2c04
0000
0000
014f
cafe
3004
0000
0000
0151
cafe
3404
0000
0000
0153
cafe
3804
0000
0000
0154
cafe
3c04
0000
0000
015b
cafe
2004
0000
0000
0157
cafe
2404
0000
0000
0150
cafe
2804
0000
0000
0154
cafe
2c04
0000
0000
0155
cafe
3004
0000
0000
0157
cafe
3404
0000
0000
0155
cafe
3804
0000
0000
0151
cafe
3c04
0000
0000
0156
cafe
2004
0000
0000
0154
cafe
2404
0000
0000
0152
cafe
2804
0000
0000
0157
cafe
2c04
0000
0000
0158
cafe
3004
0000
0000
014f
cafe
3404
0000
0000
0155
cafe
3804
0000
0000
0150
cafe
3c04
0000
0000
0150
cafe
2004
0000
0000
0150
cafe
2404
0000
0000
0153
cafe
2804
0000
0000
014d
cafe
2c04
0000
0000
014f
cafe
3004
0000
0000
0150
cafe
3404
0000
0000
014e
cafe
3804
0000
0000
0151
cafe
3c04
0000
0000
0155
cafe
2004
0000
0000
0154
cafe
2404
0000
0000
0153
cafe
2804
0000
0000
0151
cafe
2c04
0000
0000
0157
cafe
3004
0000
0000
014f
cafe
3404
0000
0000
0152
cafe
3804
0000
0000
0153
cafe
3c04
0000
0000
0154
cafe
2004
0000
0000
0151
cafe
2404
0000
0000
0150
cafe
2804
0000
0000
0154
-
cafe
2c04
0000
0000
0151
cafe
3004
0000
0000
0158
cafe
3404
0000
0000
0156
cafe
3804
0000
0000
0155
cafe
3c04
0000
0000
0154
cafe
2004
0000
0000
0155
cafe
2404
0000
0000
0154
cafe
2804
0000
0000
0156
cafe
2c04
0000
0000
0154
cafe
3004
0000
0000
0154
cafe
3404
0000
0000
014e
cafe
3804
0000
0000
0151
cafe
3c04
0000
0000
0154
cafe
2004
0000
0000
0155
cafe
2404
0000
0000
0153
cafe
2804
0000
0000
0156
cafe
2c04
0000
0000
0153
cafe
3004
0000
0000
0153
cafe
3404
0000
0000
0151
cafe
3804
0000
0000
0156
cafe
3c04
0000
0000
015a
cafe
2004
0000
0000
0157
cafe
2404
0000
0000
0157
cafe
2804
0000
0000
0156
cafe
2c04
0000
0000
0159
cafe
3004
0000
0000
0157
cafe
3404
0000
0000
0154
cafe
3804
0000
0000
0154
cafe
3c04
0000
0000
0157
cafe
2004
0000
0000
0151
cafe
2404
0000
0000
0153
cafe
2804
0000
0000
0153
cafe
2c04
0000
0000
0156
cafe
3004
0000
0000
0151
cafe
3404
0000
0000
014e
cafe
3804
0000
0000
0151
cafe
3c04
0000
0000
014c
cafe
2004
0000
0000
014f
cafe
2404
0000
0000
0151
cafe
2804
0000
0000
014c
cafe
2c04
0000
0000
014d
cafe
3004
0000
0000
0150
cafe
3404
0000
0000
0156
cafe
3804
0000
0000
0156
cafe
3c04
0000
0000
0153
cafe
2004
0000
0000
0156
cafe
2404
0000
0000
0151
cafe
2804
0000
0000
0154
cafe
2c04
0000
0000
0152
cafe
3004
0000
0000
014f
cafe
3404
0000
0000
014e
cafe
-
3804
0000
0000
0155
cafe
3c04
0000
0000
0153
cafe
2004
0000
0000
0155
cafe
2404
0000
0000
0159
cafe
2804
0000
0000
015e
cafe
2c04
0000
0000
0159
cafe
3004
0000
0000
0159
cafe
3404
0000
0000
0155
cafe
3804
0000
0000
0154
cafe
3c04
0000
0000
014f
cafe
2004
0000
0000
0153
cafe
2404
0000
0000
0152
cafe
2804
0000
0000
0153
cafe
2c04
0000
0000
0157
cafe
3004
0000
0000
0155
cafe
3404
0000
0000
0153
cafe
3804
0000
0000
0154
cafe
3c04
0000
0000
014d
cafe
2004
0000
0000
0150
cafe
2404
0000
0000
0157
cafe
2804
0000
0000
0153
cafe
2c04
0000
0000
0155
cafe
3004
0000
0000
0151
cafe
3404
0000
0000
0150
cafe
3804
0000
0000
0151
cafe
3c04
0000
0000
0152
cafe
2004
0000
0000
0152
cafe
2404
0000
0000
0150
cafe
2804
0000
0000
0151
cafe
2c04
0000
0000
0154
cafe
3004
0000
0000
0157
cafe
3404
0000
0000
0158
cafe
3804
0000
0000
0150
cafe
3c04
0000
0000
0153
cafe
2004
0000
0000
0153
cafe
2404
0000
0000
0150
cafe
2804
0000
0000
0153
cafe
2c04
0000
0000
0154
cafe
3004
0000
0000
0153
cafe
3404
0000
0000
0151
cafe
3804
0000
0000
015a
cafe
3c04
0000
0000
0153
cafe
2004
0000
0000
0156
cafe
2404
0000
0000
0153
cafe
2804
0000
0000
0151
cafe
2c04
0000
0000
0156
cafe
3004
0000
0000
015b
cafe
3404
0000
0000
0158
cafe
3804
0000
0000
0159
cafe
3c04
0000
0000
0157
cafe
2004
0000
0000
0158
cafe
2404
-
0000
0000
0158
cafe
2804
0000
0000
0156
cafe
2c04
0000
0000
0151
cafe
3004
0000
0000
0156
cafe
3404
0000
0000
0154
cafe
3804
0000
0000
0159
cafe
3c04
0000
0000
0156
cafe
2004
0000
0000
0155
cafe
2404
0000
0000
0155
cafe
2804
0000
0000
0156
cafe
2c04
0000
0000
0157
cafe
3004
0000
0000
015a
cafe
3404
0000
0000
0158
cafe
3804
0000
0000
0155
cafe
3c04
0000
0000
0156
cafe
2004
0000
0000
0157
cafe
2404
0000
0000
0152
cafe
2804
0000
0000
0151
cafe
2c04
0000
0000
0152
cafe
3004
0000
0000
0151
cafe
3404
0000
0000
0152
cafe
3804
0000
0000
014d
cafe
3c04
0000
0000
014e
cafe
2004
0000
0000
0154
cafe
2404
0000
0000
014f
cafe
2804
0000
0000
0153
cafe
2c04
0000
0000
0153
cafe
3004
0000
0000
0152
cafe
3404
0000
0000
0153
cafe
3804
0000
0000
0152
cafe
3c04
0000
0000
0155
cafe
2004
0000
0000
0151
cafe
2404
0000
0000
0155
cafe
2804
0000
0000
0153
cafe
2c04
0000
0000
0153
cafe
3004
0000
0000
0155
cafe
3404
0000
0000
0159
cafe
3804
0000
0000
015a
cafe
3c04
0000
0000
0154
cafe
2004
0000
0000
0154
cafe
2404
0000
0000
0158
cafe
2804
0000
0000
0156
cafe
2c04
0000
0000
0154
cafe
3004
0000
0000
0155
cafe
3404
0000
0000
0151
cafe
3804
0000
0000
0154
cafe
3c04
0000
0000
0154
cafe
2004
0000
0000
0157
cafe
2404
0000
0000
0159
cafe
2804
0000
0000
015d
cafe
2c04
0000
0000
015b
cafe
3004
0000
-
0000
015a
cafe
3404
0000
0000
015b
cafe
3804
0000
0000
0155
cafe
3c04
0000
0000
015c
cafe
2004
0000
0000
015a
cafe
2404
0000
0000
0158
cafe
2804
0000
0000
0155
cafe
2c04
0000
0000
0154
cafe
3004
0000
0000
0151
cafe
3404
0000
0000
0155
cafe
3804
0000
0000
0155
cafe
3c04
0000
0000
0154
cafe
2004
0000
0000
0152
cafe
2404
0000
0000
0157
cafe
2804
0000
0000
015a
cafe
2c04
0000
0000
0159
cafe
3004
0000
0000
0154
cafe
3404
0000
0000
0157
cafe
3804
0000
0000
015a
cafe
3c04
0000
0000
0154
cafe
2004
0000
0000
0159
cafe
2404
0000
0000
0157
cafe
2804
0000
0000
0156
cafe
2c04
0000
0000
0156
cafe
3004
0000
0000
0155
cafe
3404
0000
0000
0158
cafe
3804
0000
0000
0152
cafe
3c04
0000
0000
0155
cafe
2004
0000
0000
0153
cafe
2404
0000
0000
0156
cafe
2804
0000
0000
0155
cafe
2c04
0000
0000
0158
cafe
3004
0000
0000
0157
cafe
3404
0000
0000
0154
cafe
3804
0000
0000
0159
cafe
3c04
0000
0000
0154
cafe
2004
0000
0000
0150
cafe
2404
0000
0000
0155
cafe
2804
0000
0000
0159
cafe
2c04
0000
0000
0155
cafe
3004
0000
0000
0158
cafe
3404
0000
0000
0158
cafe
3804
0000
0000
0156
cafe
3c04
0000
0000
0152
cafe
2004
0000
0000
0159
cafe
2404
0000
0000
0158
cafe
2804
0000
0000
015c
cafe
2c04
0000
0000
0159
cafe
3004
0000
0000
0156
cafe
3404
0000
0000
0153
cafe
3804
0000
0000
0153
cafe
3c04
0000
0000
-
0152
cafe
2004
0000
0000
0152
cafe
2404
0000
0000
0157
cafe
2804
0000
0000
0155
cafe
2c04
0000
0000
0157
cafe
3004
0000
0000
0154
cafe
3404
0000
0000
0152
cafe
3804
0000
0000
0152
cafe
3c04
0000
0000
0152
cafe
2004
0000
0000
0154
cafe
2404
0000
0000
0155
cafe
2804
0000
0000
0154
cafe
2c04
0000
0000
0153
cafe
3004
0000
0000
0153
cafe
3404
0000
0000
0152
cafe
3804
0000
0000
0151
cafe
3c04
0000
0000
0154
cafe
2004
0000
0000
0154
cafe
2404
0000
0000
0153
cafe
2804
0000
0000
014d
cafe
2c04
0000
0000
0152
cafe
3004
0000
0000
0157
cafe
3404
0000
0000
0159
cafe
3804
0000
0000
0157
cafe
3c04
0000
0000
0156
cafe
2004
0000
0000
0155
cafe
2404
0000
0000
0151
cafe
2804
0000
0000
014e
cafe
2c04
0000
0000
0150
cafe
3004
0000
0000
014f
cafe
3404
0000
0000
0154
cafe
3804
0000
0000
0151
cafe
3c04
0000
0000
0152
cafe
2004
0000
0000
0155
cafe
2404
0000
0000
014e
cafe
2804
0000
0000
014f
cafe
2c04
0000
0000
014d
cafe
3004
0000
0000
0154
cafe
3404
0000
0000
0152
cafe
3804
0000
0000
0154
cafe
3c04
0000
0000
0151
cafe
2004
0000
0000
0154
cafe
2404
0000
0000
0151
cafe
2804
0000
0000
0151
cafe
2c04
0000
0000
0152
cafe
3004
0000
0000
0153
cafe
3404
0000
0000
0153
cafe
3804
0000
0000
014e
cafe
3c04
0000
0000
0153
cafe
2004
0000
0000
0152
cafe
2404
0000
0000
0154
cafe
2804
0000
0000
0154
-
cafe
2c04
0000
0000
0151
cafe
3004
0000
0000
0159
cafe
3404
0000
0000
0159
cafe
3804
0000
0000
0156
cafe
3c04
0000
0000
0158
cafe
2004
0000
0000
0158
cafe
2404
0000
0000
0155
cafe
2804
0000
0000
0157
cafe
2c04
0000
0000
0159
cafe
3004
0000
0000
0154
cafe
3404
0000
0000
0153
cafe
3804
0000
0000
0152
cafe
3c04
0000
0000
0155
cafe
2004
0000
0000
0154
cafe
2404
0000
0000
0154
cafe
2804
0000
0000
0159
cafe
2c04
0000
0000
0159
cafe
3004
0000
0000
0156
cafe
3404
0000
0000
0154
cafe
3804
0000
0000
015a
cafe
3c04
0000
0000
0155
cafe
2004
0000
0000
0154
cafe
2404
0000
0000
014e
cafe
2804
0000
0000
0152
cafe
2c04
0000
0000
0156
cafe
3004
0000
0000
0156
cafe
3404
0000
0000
015a
cafe
3804
0000
0000
015e
cafe
3c04
0000
0000
0157
cafe
2004
0000
0000
015d
cafe
2404
0000
0000
0156
cafe
2804
0000
0000
0156
cafe
2c04
0000
0000
0157
cafe
3004
0000
0000
015a
cafe
3404
0000
0000
0155
cafe
3804
0000
0000
0152
cafe
3c04
0000
0000
0154
cafe
2004
0000
0000
0158
cafe
2404
0000
0000
0154
cafe
2804
0000
0000
0156
cafe
2c04
0000
0000
0155
cafe
3004
0000
0000
0155
cafe
3404
0000
0000
0152
cafe
3804
0000
0000
0152
cafe
3c04
0000
0000
014f
cafe
2004
0000
0000
0151
cafe
2404
0000
0000
0152
cafe
2804
0000
0000
0155
cafe
2c04
0000
0000
0155
cafe
3004
0000
0000
014f
cafe
3404
0000
0000
014f
cafe
-
3804
0000
0000
014d
cafe
3c04
0000
0000
0155
cafe
2004
0000
0000
0155
cafe
2404
0000
0000
0155
cafe
2804
0000
0000
0153
cafe
2c04
0000
0000
0157
cafe
3004
0000
0000
0157
cafe
3404
0000
0000
0159
cafe
3804
0000
0000
0158
cafe
3c04
0000
0000
0153
cafe
2004
0000
0000
0154
cafe
2404
0000
0000
0157
cafe
2804
0000
0000
0159
cafe
2c04
0000
0000
015a
cafe
3004
0000
0000
015a
cafe
3404
0000
0000
0154
cafe
3804
0000
0000
0153
cafe
3c04
0000
0000
0155
cafe
2004
0000
0000
0159
cafe
2404
0000
0000
0157
cafe
2804
0000
0000
0159
cafe
2c04
0000
0000
0153
cafe
3004
0000
0000
0155
cafe
3404
0000
0000
0154
cafe
3804
0000
0000
015a
cafe
3c04
0000
0000
0153
cafe
2004
0000
0000
0151
cafe
2404
0000
0000
0156
cafe
2804
0000
0000
0156
cafe
2c04
0000
0000
0152
cafe
3004
0000
0000
0156
cafe
3404
0000
0000
0153
cafe
3804
0000
0000
0153
cafe
3c04
0000
0000
0157
cafe
2004
0000
0000
0157
cafe
2404
0000
0000
0153
cafe
2804
0000
0000
0158
cafe
2c04
0000
0000
0158
cafe
3004
0000
0000
0155
cafe
3404
0000
0000
0157
cafe
3804
0000
0000
0155
cafe
3c04
0000
0000
0157
cafe
2004
0000
0000
015a
cafe
2404
0000
0000
0156
cafe
2804
0000
0000
0156
cafe
2c04
0000
0000
0155
cafe
3004
0000
0000
0150
cafe
3404
0000
0000
0153
cafe
3804
0000
0000
0159
cafe
3c04
0000
0000
015d
cafe
2004
0000
0000
0156
cafe
2404
-
0000
0000
0154
cafe
2804
0000
0000
0158
cafe
2c04
0000
0000
0153
cafe
3004
0000
0000
0154
cafe
3404
0000
0000
0151
cafe
3804
0000
0000
0155
cafe
3c04
0000
0000
0158
cafe
2004
0000
0000
015b
cafe
2404
0000
0000
015d
cafe
2804
0000
0000
0154
cafe
2c04
0000
0000
0157
cafe
3004
0000
0000
0158
cafe
3404
0000
0000
0158
cafe
3804
0000
0000
015d
cafe
3c04
0000
0000
015d
cafe
2004
0000
0000
0159
cafe
2404
0000
0000
015d
cafe
2804
0000
0000
0159
cafe
2c04
0000
0000
0156
cafe
3004
0000
0000
015e
cafe
3404
0000
0000
0159
cafe
3804
0000
0000
015b
cafe
3c04
0000
0000
0156
cafe
2004
0000
0000
0158
cafe
2404
0000
0000
0158
cafe
2804
0000
0000
0157
cafe
2c04
0000
0000
0159
cafe
3004
0000
0000
015b
cafe
3404
0000
0000
015d
cafe
3804
0000
0000
015d
cafe
3c04
0000
0000
0159
cafe
2004
0000
0000
0155
cafe
2404
0000
0000
0154
cafe
2804
0000
0000
0153
cafe
2c04
0000
0000
0153
cafe
3004
0000
0000
0157
cafe
3404
0000
0000
0153
cafe
3804
0000
0000
0154
cafe
3c04
0000
0000
0158
cafe
2004
0000
0000
0153
cafe
2404
0000
0000
0155
cafe
2804
0000
0000
0157
cafe
2c04
0000
0000
0155
cafe
3004
0000
0000
0155
cafe
3404
0000
0000
0150
cafe
3804
0000
0000
0152
cafe
3c04
0000
0000
0156
cafe
2004
0000
0000
0158
cafe
2404
0000
0000
0156
cafe
2804
0000
0000
0158
cafe
2c04
0000
0000
0154
cafe
3004
0000
-
0000
0154
cafe
3404
0000
0000
0157
cafe
3804
0000
0000
0154
cafe
3c04
0000
0000
0152
cafe
2004
0000
0000
014c
cafe
2404
0000
0000
0152
cafe
2804
0000
0000
014e
cafe
2c04
0000
0000
014e
cafe
3004
0000
0000
014f
cafe
3404
0000
0000
014e
cafe
3804
0000
0000
0151
cafe
3c04
0000
0000
0151
cafe
2004
0000
0000
0153
cafe
2404
0000
0000
0155
cafe
2804
0000
0000
0154
cafe
2c04
0000
0000
0153
cafe
3004
0000
0000
014f
cafe
3404
0000
0000
0155
cafe
3804
0000
0000
0155
cafe
3c04
0000
0000
0155
cafe
2004
0000
0000
0151
cafe
2404
0000
0000
0152
cafe
2804
0000
0000
0153
cafe
2c04
0000
0000
0157
cafe
3004
0000
0000
0155
cafe
3404
0000
0000
0159
cafe
3804
0000
0000
015b
cafe
3c04
0000
0000
0157
cafe
2004
0000
0000
0159
cafe
2404
0000
0000
015b
cafe
2804
0000
0000
0157
cafe
2c04
0000
0000
0156
cafe
3004
0000
0000
015b
cafe
3404
0000
0000
0153
cafe
3804
0000
0000
0157
cafe
3c04
0000
0000
0159
cafe
2004
0000
0000
0158
cafe
2404
0000
0000
0155
cafe
2804
0000
0000
0151
cafe
2c04
0000
0000
0154
cafe
3004
0000
0000
0152
cafe
3404
0000
0000
0154
cafe
3804
0000
0000
0153
cafe
3c04
0000
0000
0152
cafe
2004
0000
0000
0154
cafe
2404
0000
0000
0153
cafe
2804
0000
0000
0154
cafe
2c04
0000
0000
0153
cafe
3004
0000
0000
014f
cafe
3404
0000
0000
0153
cafe
3804
0000
0000
0156
cafe
3c04
0000
0000
-
0157
cafe
2004
0000
0000
0154
cafe
2404
0000
0000
0153
cafe
2804
0000
0000
0154
cafe
2c04
0000
0000
0153
cafe
3004
0000
0000
0156
cafe
3404
0000
0000
0153
cafe
3804
0000
0000
0156
cafe
3c04
0000
0000
0157
cafe
2004
0000
0000
0155
cafe
2404
0000
0000
015a
cafe
2804
0000
0000
0156
cafe
2c04
0000
0000
0158
cafe
3004
0000
0000
015a
cafe
3404
0000
0000
0159
cafe
3804
0000
0000
0158
cafe
3c04
0000
0000
0157
cafe
2004
0000
0000
0157
cafe
2404
0000
0000
0154
cafe
2804
0000
0000
0157
cafe
2c04
0000
0000
0154
cafe
3004
0000
0000
0153
cafe
3404
0000
0000
0152
cafe
3804
0000
0000
0159
cafe
3c04
0000
0000
0155
cafe
2004
0000
0000
0153
cafe
2404
0000
0000
0154
cafe
2804
0000
0000
0153
cafe
2c04
0000
0000
0158
cafe
3004
0000
0000
0153
cafe
3404
0000
0000
0152
cafe
3804
0000
0000
0157
cafe
3c04
0000
0000
0154
cafe
2004
0000
0000
0155
cafe
2404
0000
0000
0155
cafe
2804
0000
0000
014c
cafe
2c04
0000
0000
0151
cafe
3004
0000
0000
014d
cafe
3404
0000
0000
0151
cafe
3804
0000
0000
014f
cafe
3c04
0000
0000
0152
cafe
2004
0000
0000
0154
cafe
2404
0000
0000
014e
cafe
2804
0000
0000
014f
cafe
2c04
0000
0000
0153
cafe
3004
0000
0000
0150
cafe
3404
0000
0000
0153
cafe
3804
0000
0000
0156
cafe
3c04
0000
0000
0154
cafe
2004
0000
0000
0153
cafe
2404
0000
0000
0151
cafe
2804
0000
0000
0151
-
cafe
2c04
0000
0000
014f
cafe
3004
0000
0000
0151
cafe
3404
0000
0000
0154
cafe
3804
0000
0000
0156
cafe
3c04
0000
0000
0155
cafe
2004
0000
0000
0155
cafe
2404
0000
0000
0153
cafe
2804
0000
0000
0152
cafe
2c04
0000
0000
0157
cafe
3004
0000
0000
0152
cafe
3404
0000
0000
015b
cafe
3804
0000
0000
014f
cafe
3c04
0000
0000
0156
cafe
2004
0000
0000
0155
cafe
2404
0000
0000
0157
cafe
2804
0000
0000
0155
cafe
2c04
0000
0000
0153
cafe
3004
0000
0000
0155
cafe
3404
0000
0000
015b
cafe
3804
0000
0000
0157
cafe
3c04
0000
0000
0152
cafe
2004
0000
0000
0159
cafe
2404
0000
0000
0153
cafe
2804
0000
0000
0151
cafe
2c04
0000
0000
0152
cafe
3004
0000
0000
0152
cafe
3404
0000
0000
014f
cafe
3804
0000
0000
0152
cafe
3c04
0000
0000
0152
cafe
2004
0000
0000
0155
cafe
2404
0000
0000
0152
cafe
2804
0000
0000
0153
cafe
2c04
0000
0000
0155
cafe
3004
0000
0000
0156
cafe
3404
0000
0000
0154
cafe
3804
0000
0000
0157
cafe
3c04
0000
0000
0153
cafe
2004
0000
0000
0153
cafe
2404
0000
0000
0158
cafe
2804
0000
0000
0152
cafe
2c04
0000
0000
0153
cafe
3004
0000
0000
0154
cafe
3404
0000
0000
0151
cafe
3804
0000
0000
0154
cafe
3c04
0000
0000
0157
cafe
2004
0000
0000
0157
cafe
2404
0000
0000
0155
cafe
2804
0000
0000
0158
cafe
2c04
0000
0000
0154
cafe
3004
0000
0000
0155
cafe
3404
0000
0000
014d
cafe
-
3804
0000
0000
014e
cafe
3c04
0000
0000
0150
cafe
2004
0000
0000
0156
cafe
2404
0000
0000
0151
cafe
2804
0000
0000
0156
cafe
2c04
0000
0000
0153
cafe
3004
0000
0000
0152
cafe
3404
0000
0000
0154
cafe
3804
0000
0000
0153
cafe
3c04
0000
0000
0157
cafe
2004
0000
0000
0157
cafe
2404
0000
0000
015b
cafe
2804
0000
0000
0154
cafe
2c04
0000
0000
0156
cafe
3004
0000
0000
0157
cafe
3404
0000
0000
0158
cafe
3804
0000
0000
0159
cafe
3c04
0000
0000
015a
cafe
2004
0000
0000
0156
cafe
2404
0000
0000
0151
cafe
2804
0000
0000
0152
cafe
2c04
0000
0000
0151
cafe
3004
0000
0000
0159
cafe
3404
0000
0000
015a
cafe
3804
0000
0000
0156
cafe
3c04
0000
0000
015a
cafe
2004
0000
0000
0156
cafe
2404
0000
0000
0158
cafe
2804
0000
0000
0152
cafe
2c04
0000
0000
0152
cafe
3004
0000
0000
0154
cafe
3404
0000
0000
0155
cafe
3804
0000
0000
0153
cafe
3c04
0000
0000
0156
cafe
2004
0000
0000
0153
cafe
2404
0000
0000
0157
cafe
2804
0000
0000
0159
cafe
2c04
0000
0000
0156
cafe
3004
0000
0000
0155
cafe
3404
0000
0000
0155
cafe
3804
0000
0000
0153
cafe
3c04
0000
0000
0155
cafe
2004
0000
0000
0157
cafe
2404
0000
0000
0158
cafe
2804
0000
0000
0158
cafe
2c04
0000
0000
015a
cafe
3004
0000
0000
0155
cafe
3404
0000
0000
0158
cafe
3804
0000
0000
0157
cafe
3c04
0000
0000
0156
cafe
2004
0000
0000
015a
cafe
2404
-
0000
0000
0159
cafe
2804
0000
0000
015a
cafe
2c04
0000
0000
0156
cafe
3004
0000
0000
0156
cafe
3404
0000
0000
0157
cafe
3804
0000
0000
0157
cafe
3c04
0000
0000
0158
cafe
2004
0000
0000
0152
cafe
2404
0000
0000
0156
cafe
2804
0000
0000
0157
cafe
2c04
0000
0000
0155
cafe
3004
0000
0000
0157
cafe
3404
0000
0000
0152
cafe
3804
0000
0000
015a
cafe
3c04
0000
0000
0155
cafe
2004
0000
0000
0156
cafe
2404
0000
0000
0156
cafe
2804
0000
0000
0155
cafe
2c04
0000
0000
0158
cafe
3004
0000
0000
0159
cafe
3404
0000
0000
0155
cafe
3804
0000
0000
015a
cafe
3c04
0000
0000
0158
cafe
2004
0000
0000
0154
cafe
2404
0000
0000
0152
cafe
2804
0000
0000
0156
cafe
2c04
0000
0000
0151
cafe
3004
0000
0000
0154
cafe
3404
0000
0000
0157
cafe
3804
0000
0000
0150
cafe
3c04
0000
0000
014f
cafe
2004
0000
0000
0153
cafe
2404
0000
0000
0154
cafe
2804
0000
0000
0154
cafe
2c04
0000
0000
0155
cafe
3004
0000
0000
0155
cafe
3404
0000
0000
0152
cafe
3804
0000
0000
015a
cafe
3c04
0000
0000
0157
cafe
2004
0000
0000
0152
cafe
2404
0000
0000
0154
cafe
2804
0000
0000
0152
cafe
2c04
0000
0000
0151
cafe
3004
0000
0000
0152
cafe
3404
0000
0000
014f
cafe
3804
0000
0000
0151
cafe
3c04
0000
0000
014d
cafe
2004
0000
0000
0153
cafe
2404
0000
0000
0153
cafe
2804
0000
0000
014e
cafe
2c04
0000
0000
014f
cafe
3004
0000
-
0000
014a
cafe
3404
0000
0000
014d
cafe
3804
0000
0000
014f
cafe
3c04
0000
0000
014e
cafe
2004
0000
0000
0153
cafe
2404
0000
0000
0156
cafe
2804
0000
0000
0155
cafe
2c04
0000
0000
0155
cafe
3004
0000
0000
0151
cafe
3404
0000
0000
0152
cafe
3804
0000
0000
0155
cafe
3c04
0000
0000
0156
cafe
2004
0000
0000
0154
cafe
2404
0000
0000
0155
cafe
2804
0000
0000
0153
cafe
2c04
0000
0000
0152
cafe
3004
0000
0000
0151
cafe
3404
0000
0000
0154
cafe
3804
0000
0000
014e
cafe
3c04
0000
0000
0150
cafe
2004
0000
0000
014c
cafe
2404
0000
0000
014b
cafe
2804
0000
0000
014d
cafe
2c04
0000
0000
0152
cafe
3004
0000
0000
014c
cafe
3404
0000
0000
014a
cafe
3804
0000
0000
0155
cafe
3c04
0000
0000
0155
cafe
2004
0000
0000
0150
cafe
2404
0000
0000
0151
cafe
2804
0000
0000
014e
cafe
2c04
0000
0000
014f
cafe
3004
0000
0000
014e
cafe
3404
0000
0000
0150
cafe
3804
0000
0000
0150
cafe
3c04
0000
0000
0153
cafe
2004
0000
0000
014b
cafe
2404
0000
0000
014e
cafe
2804
0000
0000
014d
cafe
2c04
0000
0000
0150
cafe
3004
0000
0000
0151
cafe
3404
0000
0000
0157
cafe
3804
0000
0000
0159
cafe
3c04
0000
0000
0157
cafe
2004
0000
0000
0157
cafe
2404
0000
0000
015c
cafe
2804
0000
0000
015e
cafe
2c04
0000
0000
0157
cafe
3004
0000
0000
015a
cafe
3404
0000
0000
0158
cafe
3804
0000
0000
0157
cafe
3c04
0000
0000
-
015a
cafe
2004
0000
0000
0156
cafe
2404
0000
0000
0151
cafe
2804
0000
0000
0154
cafe
2c04
0000
0000
0152
cafe
3004
0000
0000
0154
cafe
3404
0000
0000
0153
cafe
3804
0000
0000
0156
cafe
3c04
0000
0000
0153
cafe
2004
0000
0000
0157
cafe
2404
0000
0000
0155
cafe
2804
0000
0000
0155
cafe
2c04
0000
0000
0157
cafe
3004
0000
0000
0156
cafe
3404
0000
0000
015a
cafe
3804
0000
0000
0152
cafe
3c04
0000
0000
0151
cafe
2004
0000
0000
0159
cafe
2404
0000
0000
0151
cafe
2804
0000
0000
0153
cafe
2c04
0000
0000
0151
cafe
3004
0000
0000
0155
cafe
3404
0000
0000
014f
cafe
3804
0000
0000
014e
cafe
3c04
0000
0000
014a
cafe
2004
0000
0000
0152
cafe
2404
0000
0000
0155
cafe
2804
0000
0000
0155
cafe
2c04
0000
0000
0151
cafe
3004
0000
0000
015a
cafe
3404
0000
0000
015a
cafe
3804
0000
0000
0155
cafe
3c04
0000
0000
0154
cafe
2004
0000
0000
0155
cafe
2404
0000
0000
0155
cafe
2804
0000
0000
0156
cafe
2c04
0000
0000
0155
cafe
3004
0000
0000
0153
cafe
3404
0000
0000
0153
cafe
3804
0000
0000
014f
cafe
3c04
0000
0000
0151
cafe
2004
0000
0000
0153
cafe
2404
0000
0000
0154
cafe
2804
0000
0000
0159
cafe
2c04
0000
0000
0156
cafe
3004
0000
0000
015b
cafe
3404
0000
0000
0158
cafe
3804
0000
0000
0156
cafe
3c04
0000
0000
015e
cafe
2004
0000
0000
015f
cafe
2404
0000
0000
0159
cafe
2804
0000
0000
0158
-
cafe
2c04
0000
0000
015e
cafe
3004
0000
0000
015a
cafe
3404
0000
0000
0157
cafe
3804
0000
0000
0157
cafe
3c04
0000
0000
0159
cafe
2004
0000
0000
0158
cafe
2404
0000
0000
015b
cafe
2804
0000
0000
0157
cafe
2c04
0000
0000
0159
cafe
3004
0000
0000
015a
cafe
3404
0000
0000
0156
cafe
3804
0000
0000
0158
cafe
3c04
0000
0000
0156
cafe
2004
0000
0000
0155
cafe
2404
0000
0000
0158
cafe
2804
0000
0000
0158
cafe
2c04
0000
0000
0151
cafe
3004
0000
0000
0157
cafe
3404
0000
0000
0151
cafe
3804
0000
0000
0154
cafe
3c04
0000
0000
0154
cafe
2004
0000
0000
0155
cafe
2404
0000
0000
0154
cafe
2804
0000
0000
0157
cafe
2c04
0000
0000
0158
cafe
3004
0000
0000
0152
cafe
3404
0000
0000
0151
cafe
3804
0000
0000
0159
cafe
3c04
0000
0000
0157
cafe
2004
0000
0000
0153
cafe
2404
0000
0000
014e
cafe
2804
0000
0000
0153
cafe
2c04
0000
0000
0155
cafe
3004
0000
0000
0152
cafe
3404
0000
0000
0157
cafe
3804
0000
0000
0159
cafe
3c04
0000
0000
0157
cafe
2004
0000
0000
0154
cafe
2404
0000
0000
0151
cafe
2804
0000
0000
0151
cafe
2c04
0000
0000
015a
cafe
3004
0000
0000
0156
cafe
3404
0000
0000
0155
cafe
3804
0000
0000
0159
cafe
3c04
0000
0000
0158
cafe
2004
0000
0000
0152
cafe
2404
0000
0000
0156
cafe
2804
0000
0000
0154
cafe
2c04
0000
0000
0154
cafe
3004
0000
0000
0158
cafe
3404
0000
0000
0156
cafe
-
3804
0000
0000
0157
cafe
3c04
0000
0000
0154
cafe
2004
0000
0000
0154
cafe
2404
0000
0000
0157
cafe
2804
0000
0000
015a
cafe
2c04
0000
0000
015a
cafe
3004
0000
0000
0158
cafe
3404
0000
0000
0156
cafe
3804
0000
0000
0159
cafe
3c04
0000
0000
0155
cafe
2004
0000
0000
0157
cafe
2404
0000
0000
0153
cafe
2804
0000
0000
0153
cafe
2c04
0000
0000
0152
cafe
3004
0000
0000
0152
cafe
3404
0000
0000
0152
cafe
3804
0000
0000
0153
cafe
3c04
0000
0000
0155
cafe
2004
0000
0000
0152
cafe
2404
0000
0000
0153
cafe
2804
0000
0000
0155
cafe
2c04
0000
0000
014f
cafe
3004
0000
0000
014e
cafe
3404
0000
0000
0151
cafe
3804
0000
0000
014f
cafe
3c04
0000
0000
0150
cafe
2004
0000
0000
014c
cafe
2404
0000
0000
014e
cafe
2804
0000
0000
0154
cafe
2c04
0000
0000
014c
cafe
3004
0000
0000
014f
cafe
3404
0000
0000
014e
cafe
3804
0000
0000
014f
cafe
3c04
0000
0000
0150
cafe
2004
0000
0000
014f
cafe
2404
0000
0000
0158
cafe
2804
0000
0000
0151
cafe
2c04
0000
0000
0152
cafe
3004
0000
0000
0153
cafe
3404
0000
0000
0154
cafe
3804
0000
0000
0151
cafe
3c04
0000
0000
0154
cafe
2004
0000
0000
0155
cafe
2404
0000
0000
0151
cafe
2804
0000
0000
0155
cafe
2c04
0000
0000
0159
cafe
3004
0000
0000
015a
cafe
3404
0000
0000
015f
cafe
3804
0000
0000
015a
cafe
3c04
0000
0000
0157
cafe
2004
0000
0000
0155
cafe
2404
-
0000
0000
0155
cafe
2804
0000
0000
0156
cafe
2c04
0000
0000
0157
cafe
3004
0000
0000
015a
cafe
3404
0000
0000
015a
cafe
3804
0000
0000
015a
cafe
3c04
0000
0000
0158
cafe
2004
0000
0000
0154
cafe
2404
0000
0000
015d
cafe
2804
0000
0000
0157
cafe
2c04
0000
0000
015a
cafe
3004
0000
0000
015c
cafe
3404
0000
0000
0157
cafe
3804
0000
0000
0155
cafe
3c04
0000
0000
0159
cafe
2004
0000
0000
0158
cafe
2404
0000
0000
015b
cafe
2804
0000
0000
0158
cafe
2c04
0000
0000
0155
cafe
3004
0000
0000
015a
cafe
3404
0000
0000
0158
cafe
3804
0000
0000
015d
cafe
3c04
0000
0000
0157
cafe
2004
0000
0000
0151
cafe
2404
0000
0000
0153
cafe
2804
0000
0000
0152
cafe
2c04
0000
0000
0155
cafe
3004
0000
0000
0152
cafe
3404
0000
0000
0153
cafe
3804
0000
0000
0152
cafe
3c04
0000
0000
0153
cafe
2004
0000
0000
0152
cafe
2404
0000
0000
0150
cafe
2804
0000
0000
0154
cafe
2c04
0000
0000
0152
cafe
3004
0000
0000
0153
cafe
3404
0000
0000
0154
cafe
3804
0000
0000
0151
cafe
3c04
0000
0000
014e
cafe
2004
0000
0000
014e
cafe
2404
0000
0000
0152
cafe
2804
0000
0000
0153
cafe
2c04
0000
0000
0153
cafe
3004
0000
0000
0155
cafe
3404
0000
0000
015c
cafe
3804
0000
0000
0159
cafe
3c04
0000
0000
0155
cafe
2004
0000
0000
0159
cafe
2404
0000
0000
0157
cafe
2804
0000
0000
0156
cafe
2c04
0000
0000
0156
cafe
3004
0000
-
0000
0159
cafe
3404
0000
0000
0155
cafe
3804
0000
0000
0157
cafe
3c04
0000
0000
0159
cafe
2004
0000
0000
015a
cafe
2404
0000
0000
0158
cafe
2804
0000
0000
0159
cafe
2c04
0000
0000
015c
cafe
3004
0000
0000
0159
cafe
3404
0000
0000
0157
cafe
3804
0000
0000
0154
cafe
3c04
0000
0000
0159
cafe
2004
0000
0000
015c
cafe
2404
0000
0000
0155
cafe
2804
0000
0000
015a
cafe
2c04
0000
0000
0154
cafe
3004
0000
0000
0150
cafe
3404
0000
0000
014f
cafe
3804
0000
0000
014e
cafe
3c04
0000
0000
014f
cafe
2004
0000
0000
0150
cafe
2404
0000
0000
0155
cafe
2804
0000
0000
0157
cafe
2c04
0000
0000
0155
cafe
3004
0000
0000
0153
cafe
3404
0000
0000
0154
cafe
3804
0000
0000
0159
cafe
3c04
0000
0000
0158
cafe
2004
0000
0000
0153
cafe
2404
0000
0000
0155
cafe
2804
0000
0000
0155
cafe
2c04
0000
0000
0159
cafe
3004
0000
0000
015b
cafe
3404
0000
0000
0159
cafe
3804
0000
0000
0157
cafe
3c04
0000
0000
0158
cafe
2004
0000
0000
0155
cafe
2404
0000
0000
0154
cafe
2804
0000
0000
0157
cafe
2c04
0000
0000
0158
cafe
3004
0000
0000
0154
cafe
3404
0000
0000
0155
cafe
3804
0000
0000
014f
cafe
3c04
0000
0000
0154
cafe
2004
0000
0000
0152
cafe
2404
0000
0000
0153
cafe
2804
0000
0000
0153
cafe
2c04
0000
0000
0156
cafe
3004
0000
0000
0155
cafe
3404
0000
0000
0155
cafe
3804
0000
0000
0152
cafe
3c04
0000
0000
-
0154
cafe
2004
0000
0000
0153
cafe
2404
0000
0000
0157
cafe
2804
0000
0000
0158
cafe
2c04
0000
0000
0158
cafe
3004
0000
0000
0156
cafe
3404
0000
0000
0153
cafe
3804
0000
0000
0155
cafe
3c04
0000
0000
0154
cafe
2004
0000
0000
0152
cafe
2404
0000
0000
0152
cafe
2804
0000
0000
0153
cafe
2c04
0000
0000
0153
cafe
3004
0000
0000
0151
cafe
3404
0000
0000
0155
cafe
3804
0000
0000
0155
cafe
3c04
0000
0000
0155
cafe
2004
0000
0000
0151
cafe
2404
0000
0000
0154
cafe
2804
0000
0000
0157
cafe
2c04
0000
0000
0153
cafe
3004
0000
0000
0155
cafe
3404
0000
0000
0153
cafe
3804
0000
0000
0154
cafe
3c04
0000
0000
0154
cafe
2004
0000
0000
015b
cafe
2404
0000
0000
0158
cafe
2804
0000
0000
0156
cafe
2c04
0000
0000
0153
cafe
3004
0000
0000
0153
cafe
3404
0000
0000
0152
cafe
3804
0000
0000
0151
cafe
3c04
0000
0000
0155
cafe
2004
0000
0000
0152
cafe
2404
0000
0000
0152
cafe
2804
0000
0000
0155
cafe
2c04
0000
0000
0154
cafe
3004
0000
0000
0154
cafe
3404
0000
0000
0156
cafe
3804
0000
0000
0158
cafe
3c04
0000
0000
015a
cafe
2004
0000
0000
0159
cafe
2404
0000
0000
0153
cafe
2804
0000
0000
0152
cafe
2c04
0000
0000
0153
cafe
3004
0000
0000
0151
cafe
3404
0000
0000
0152
cafe
3804
0000
0000
0154
cafe
3c04
0000
0000
0153
cafe
2004
0000
0000
0152
cafe
2404
0000
0000
0152
cafe
2804
0000
0000
0151
-
cafe
2c04
0000
0000
0154
cafe
3004
0000
0000
0152
cafe
3404
0000
0000
0151
cafe
3804
0000
0000
0153
cafe
3c04
0000
0000
0155
cafe
2004
0000
0000
0157
cafe
2404
0000
0000
0158
cafe
2804
0000
0000
0156
cafe
2c04
0000
0000
0154
cafe
3004
0000
0000
0158
cafe
3404
0000
0000
0157
cafe
3804
0000
0000
0158
cafe
3c04
0000
0000
014f
cafe
2004
0000
0000
0152
cafe
2404
0000
0000
0156
cafe
2804
0000
0000
0152
cafe
2c04
0000
0000
0153
cafe
3004
0000
0000
0157
cafe
3404
0000
0000
0157
cafe
3804
0000
0000
0154
cafe
3c04
0000
0000
0151
cafe
2004
0000
0000
0152
cafe
2404
0000
0000
014d
cafe
2804
0000
0000
0151
cafe
2c04
0000
0000
0150
cafe
3004
0000
0000
0153
cafe
3404
0000
0000
014f
cafe
3804
0000
0000
0153
cafe
3c04
0000
0000
0150
cafe
2004
0000
0000
0152
cafe
2404
0000
0000
0157
cafe
2804
0000
0000
014e
cafe
2c04
0000
0000
0151
cafe
3004
0000
0000
014f
cafe
3404
0000
0000
014d
cafe
3804
0000
0000
0148
cafe
3c04
0000
0000
0151
cafe
2004
0000
0000
0153
cafe
2404
0000
0000
0154
cafe
2804
0000
0000
0152
cafe
2c04
0000
0000
0153
cafe
3004
0000
0000
0157
cafe
3404
0000
0000
014f
cafe
3804
0000
0000
0153
cafe
3c04
0000
0000
0159
cafe
2004
0000
0000
0155
cafe
2404
0000
0000
0154
cafe
2804
0000
0000
0157
cafe
2c04
0000
0000
0152
cafe
3004
0000
0000
0153
cafe
3404
0000
0000
0152
cafe
-
3804
0000
0000
0150
cafe
3c04
0000
0000
0150
cafe
2004
0000
0000
014f
cafe
2404
0000
0000
014d
cafe
2804
0000
0000
0152
cafe
2c04
0000
0000
014e
cafe
3004
0000
0000
014f
cafe
3404
0000
0000
0151
cafe
3804
0000
0000
0154
cafe
3c04
0000
0000
0154
cafe
2004
0000
0000
0150
cafe
2404
0000
0000
0154
cafe
2804
0000
0000
0155
cafe
2c04
0000
0000
0150
cafe
3004
0000
0000
014f
cafe
3404
0000
0000
0157
cafe
3804
0000
0000
0156
cafe
3c04
0000
0000
0154
cafe
2004
0000
0000
0158
cafe
2404
0000
0000
0154
cafe
2804
0000
0000
0152
cafe
2c04
0000
0000
0153
cafe
3004
0000
0000
0156
cafe
3404
0000
0000
0156
cafe
3804
0000
0000
0150
cafe
3c04
0000
0000
0159
cafe
2004
0000
0000
0150
cafe
2404
0000
0000
0153
cafe
2804
0000
0000
0150
cafe
2c04
0000
0000
0154
cafe
3004
0000
0000
0157
cafe
3404
0000
0000
0152
cafe
3804
0000
0000
0155
cafe
3c04
0000
0000
0153
cafe
2004
0000
0000
0156
cafe
2404
0000
0000
0152
cafe
2804
0000
0000
0154
cafe
2c04
0000
0000
0156
cafe
3004
0000
0000
015a
cafe
3404
0000
0000
0155
cafe
3804
0000
0000
0156
cafe
3c04
0000
0000
0155
cafe
2004
0000
0000
0156
cafe
2404
0000
0000
0158
cafe
2804
0000
0000
015b
cafe
2c04
0000
0000
015a
cafe
3004
0000
0000
0155
cafe
3404
0000
0000
0157
cafe
3804
0000
0000
015a
cafe
3c04
0000
0000
015a
cafe
2004
0000
0000
0158
cafe
2404
-
0000
0000
0159
cafe
2804
0000
0000
0159
cafe
2c04
0000
0000
0154
cafe
3004
0000
0000
0157
cafe
3404
0000
0000
0159
cafe
3804
0000
0000
0158
cafe
3c04
0000
0000
0155
cafe
2004
0000
0000
0152
cafe
2404
0000
0000
0154
cafe
2804
0000
0000
0154
cafe
2c04
0000
0000
0158
cafe
3004
0000
0000
0151
cafe
3404
0000
0000
0153
cafe
3804
0000
0000
0157
cafe
3c04
0000
0000
0153
cafe
2004
0000
0000
0154
cafe
2404
0000
0000
0155
cafe
2804
0000
0000
0151
cafe
2c04
0000
0000
0153
cafe
3004
0000
0000
0155
cafe
3404
0000
0000
0154
cafe
3804
0000
0000
0154
cafe
3c04
0000
0000
0152
cafe
2004
0000
0000
014f
cafe
2404
0000
0000
014c
cafe
2804
0000
0000
014d
cafe
2c04
0000
0000
0157
cafe
3004
0000
0000
0156
cafe
3404
0000
0000
0157
cafe
3804
0000
0000
0156
cafe
3c04
0000
0000
0158
cafe
2004
0000
0000
0154
cafe
2404
0000
0000
015c
cafe
2804
0000
0000
0153
cafe
2c04
0000
0000
0154
cafe
3004
0000
0000
0158
cafe
3404
0000
0000
0159
cafe
3804
0000
0000
0152
cafe
3c04
0000
0000
0156
cafe
2004
0000
0000
015b
cafe
2404
0000
0000
0158
cafe
2804
0000
0000
0157
cafe
2c04
0000
0000
015c
cafe
3004
0000
0000
0151
cafe
3404
0000
0000
0152
cafe
3804
0000
0000
0155
cafe
3c04
0000
0000
0156
cafe
2004
0000
0000
0154
cafe
2404
0000
0000
0155
cafe
2804
0000
0000
015b
cafe
2c04
0000
0000
0157
cafe
3004
0000
-
0000
0155
cafe
3404
0000
0000
0153
cafe
3804
0000
0000
0152
cafe
3c04
0000
0000
0152
cafe
2004
0000
0000
0153
cafe
2404
0000
0000
0151
cafe
2804
0000
0000
0154
cafe
2c04
0000
0000
0153
cafe
3004
0000
0000
0156
cafe
3404
0000
0000
0157
cafe
3804
0000
0000
0155
cafe
3c04
0000
0000
0150
cafe
2004
0000
0000
0155
cafe
2404
0000
0000
0157
cafe
2804
0000
0000
0152
cafe
2c04
0000
0000
0156
cafe
3004
0000
0000
0158
cafe
3404
0000
0000
015a
cafe
3804
0000
0000
0156
cafe
3c04
0000
0000
0154
cafe
2004
0000
0000
0156
cafe
2404
0000
0000
0156
cafe
2804
0000
0000
0153
cafe
2c04
0000
0000
0153
cafe
3004
0000
0000
0152
cafe
3404
0000
0000
0156
cafe
3804
0000
0000
0153
cafe
3c04
0000
0000
0153
cafe
2004
0000
0000
0154
cafe
2404
0000
0000
0152
cafe
2804
0000
0000
0159
cafe
2c04
0000
0000
0157
cafe
3004
0000
0000
0159
cafe
3404
0000
0000
0155
cafe
3804
0000
0000
0153
cafe
3c04
0000
0000
0154
cafe
2004
0000
0000
0156
cafe
2404
0000
0000
015a
cafe
2804
0000
0000
0155
cafe
2c04
0000
0000
015b
cafe
3004
0000
0000
0155
cafe
3404
0000
0000
0157
cafe
3804
0000
0000
0158
cafe
3c04
0000
0000
0155
cafe
2004
0000
0000
0158
cafe
2404
0000
0000
0154
cafe
2804
0000
0000
0155
cafe
2c04
0000
0000
0159
cafe
3004
0000
0000
0156
cafe
3404
0000
0000
015b
cafe
3804
0000
0000
015f
cafe
3c04
0000
0000
-
015c
cafe
2004
0000
0000
0155
cafe
2404
0000
0000
0155
cafe
2804
0000
0000
0159
cafe
2c04
0000
0000
0156
cafe
3004
0000
0000
0159
cafe
3404
0000
0000
0153
cafe
3804
0000
0000
0157
cafe
3c04
0000
0000
0152
cafe
2004
0000
0000
0157
cafe
2404
0000
0000
0156
cafe
2804
0000
0000
0153
cafe
2c04
0000
0000
0150
cafe
3004
0000
0000
0151
cafe
3404
0000
0000
014b
cafe
3804
0000
0000
014f
cafe
3c04
0000
0000
0155
cafe
2004
0000
0000
0152
cafe
2404
0000
0000
0158
cafe
2804
0000
0000
0155
cafe
2c04
0000
0000
0158
cafe
3004
0000
0000
0159
cafe
3404
0000
0000
0153
cafe
3804
0000
0000
015a
cafe
3c04
0000
0000
015d
cafe
2004
0000
0000
015d
cafe
2404
0000
0000
0159
cafe
2804
0000
0000
0158
cafe
2c04
0000
0000
0155
cafe
3004
0000
0000
0158
cafe
3404
0000
0000
015c
cafe
3804
0000
0000
0158
cafe
3c04
0000
0000
015a
cafe
2004
0000
0000
0159
cafe
2404
0000
0000
015c
cafe
2804
0000
0000
0157
cafe
2c04
0000
0000
015b
cafe
3004
0000
0000
0158
cafe
3404
0000
0000
0158
cafe
3804
0000
0000
0156
cafe
3c04
0000
0000
015b
cafe
2004
0000
0000
015b
cafe
2404
0000
0000
015a
cafe
2804
0000
0000
0153
cafe
2c04
0000
0000
015a
cafe
3004
0000
0000
0157
cafe
3404
0000
0000
0155
cafe
3804
0000
0000
0153
cafe
3c04
0000
0000
0157
cafe
2004
0000
0000
0156
cafe
2404
0000
0000
015b
cafe
2804
0000
0000
0155
-
cafe
2c04
0000
0000
014f
cafe
3004
0000
0000
0154
cafe
3404
0000
0000
0154
cafe
3804
0000
0000
015a
cafe
3c04
0000
0000
0151
cafe
2004
0000
0000
0154
cafe
2404
0000
0000
0158
cafe
2804
0000
0000
0157
cafe
2c04
0000
0000
0151
cafe
3004
0000
0000
014f
cafe
3404
0000
0000
0153
cafe
3804
0000
0000
0154
cafe
3c04
0000
0000
0153
cafe
2004
0000
0000
014f
cafe
2404
0000
0000
014d
cafe
2804
0000
0000
0156
cafe
2c04
0000
0000
0159
cafe
3004
0000
0000
014f
cafe
3404
0000
0000
0151
cafe
3804
0000
0000
014e
cafe
3c04
0000
0000
0156
cafe
2004
0000
0000
0158
cafe
2404
0000
0000
0157
cafe
2804
0000
0000
0155
cafe
2c04
0000
0000
0159
cafe
3004
0000
0000
0156
cafe
3404
0000
0000
014e
cafe
3804
0000
0000
0155
cafe
3c04
0000
0000
0159
cafe
2004
0000
0000
0154
cafe
2404
0000
0000
0154
cafe
2804
0000
0000
0154
cafe
2c04
0000
0000
0154
cafe
3004
0000
0000
0155
cafe
3404
0000
0000
0154
cafe
3804
0000
0000
014d
cafe
3c04
0000
0000
014e
cafe
2004
0000
0000
0152
cafe
2404
0000
0000
014d
cafe
2804
0000
0000
0150
cafe
2c04
0000
0000
0152
cafe
3004
0000
0000
0153
cafe
3404
0000
0000
0151
cafe
3804
0000
0000
0155
cafe
3c04
0000
0000
0155
cafe
2004
0000
0000
0156
cafe
2404
0000
0000
0151
cafe
2804
0000
0000
0155
cafe
2c04
0000
0000
0155
cafe
3004
0000
0000
0156
cafe
3404
0000
0000
0155
cafe
-
3804
0000
0000
0152
cafe
3c04
0000
0000
0155
cafe
2004
0000
0000
0154
cafe
2404
0000
0000
0155
cafe
2804
0000
0000
0155
cafe
2c04
0000
0000
0158
cafe
3004
0000
0000
0154
cafe
3404
0000
0000
0156
cafe
3804
0000
0000
0155
cafe
3c04
0000
0000
0156
cafe
2004
0000
0000
0159
cafe
2404
0000
0000
015c
cafe
2804
0000
0000
0158
cafe
2c04
0000
0000
0157
cafe
3004
0000
0000
0156
cafe
3404
0000
0000
0156
cafe
3804
0000
0000
0155
cafe
3c04
0000
0000
015a
cafe
2004
0000
0000
0158
cafe
2404
0000
0000
015b
cafe
2804
0000
0000
0151
cafe
2c04
0000
0000
0157
cafe
3004
0000
0000
0156
cafe
3404
0000
0000
015b
cafe
3804
0000
0000
0155
cafe
3c04
0000
0000
0156
cafe
2004
0000
0000
0159
cafe
2404
0000
0000
0150
cafe
2804
0000
0000
014c
cafe
2c04
0000
0000
0151
cafe
3004
0000
0000
014f
cafe
3404
0000
0000
0154
cafe
3804
0000
0000
0154
cafe
3c04
0000
0000
0156
cafe
2004
0000
0000
0156
cafe
2404
0000
0000
0159
cafe
2804
0000
0000
0154
cafe
2c04
0000
0000
0157
cafe
3004
0000
0000
0158
cafe
3404
0000
0000
0155
cafe
3804
0000
0000
0156
cafe
3c04
0000
0000
0152
cafe
2004
0000
0000
0154
cafe
2404
0000
0000
0155
cafe
2804
0000
0000
0157
cafe
2c04
0000
0000
0154
cafe
3004
0000
0000
0151
cafe
3404
0000
0000
014f
cafe
3804
0000
0000
0155
cafe
3c04
0000
0000
014e
cafe
2004
0000
0000
014e
cafe
2404
-
0000
0000
0152
cafe
2804
0000
0000
0151
cafe
2c04
0000
0000
0152
cafe
3004
0000
0000
0153
cafe
3404
0000
0000
0154
cafe
3804
0000
0000
0153
cafe
3c04
0000
0000
0155
cafe
2004
0000
0000
014f
cafe
2404
0000
0000
0150
cafe
2804
0000
0000
0155
cafe
2c04
0000
0000
0155
cafe
3004
0000
0000
0151
cafe
3404
0000
0000
0155
cafe
3804
0000
0000
0153
cafe
3c04
0000
0000
0155
cafe
2004
0000
0000
0153
cafe
2404
0000
0000
0151
cafe
2804
0000
0000
0151
cafe
2c04
0000
0000
0151
cafe
3004
0000
0000
0154
cafe
3404
0000
0000
0151
cafe
3804
0000
0000
0158
cafe
3c04
0000
0000
0153
cafe
2004
0000
0000
0156
cafe
2404
0000
0000
0154
cafe
2804
0000
0000
0153
cafe
2c04
0000
0000
0153
cafe
3004
0000
0000
0151
cafe
3404
0000
0000
0154
cafe
3804
0000
0000
0156
cafe
3c04
0000
0000
014d
cafe
2004
0000
0000
0155
cafe
2404
0000
0000
0154
cafe
2804
0000
0000
0155
cafe
2c04
0000
0000
0157
cafe
3004
0000
0000
0152
cafe
3404
0000
0000
014d
cafe
3804
0000
0000
0154
cafe
3c04
0000
0000
0154
cafe
2004
0000
0000
014c
cafe
2404
0000
0000
014f
cafe
2804
0000
0000
0152
cafe
2c04
0000
0000
0159
cafe
3004
0000
0000
0159
cafe
3404
0000
0000
0156
cafe
3804
0000
0000
0158
cafe
3c04
0000
0000
0155
cafe
2004
0000
0000
015c
cafe
2404
0000
0000
015e
cafe
2804
0000
0000
0158
cafe
2c04
0000
0000
015b
cafe
3004
0000
-
0000
0155
cafe
3404
0000
0000
0154
cafe
3804
0000
0000
0156
cafe
3c04
0000
0000
0154
cafe
2004
0000
0000
0157
cafe
2404
0000
0000
0157
cafe
2804
0000
0000
0154
cafe
2c04
0000
0000
0153
cafe
3004
0000
0000
0152
cafe
3404
0000
0000
0152
cafe
3804
0000
0000
0151
cafe
3c04
0000
0000
014f
cafe
2004
0000
0000
0152
cafe
2404
0000
0000
0153
cafe
2804
0000
0000
0156
cafe
2c04
0000
0000
0153
cafe
3004
0000
0000
0156
cafe
3404
0000
0000
0157
cafe
3804
0000
0000
0158
cafe
3c04
0000
0000
0156
cafe
2004
0000
0000
0154
cafe
2404
0000
0000
0156
cafe
2804
0000
0000
0154
cafe
2c04
0000
0000
0159
cafe
3004
0000
0000
015d
cafe
3404
0000
0000
015b
cafe
3804
0000
0000
015a
cafe
3c04
0000
0000
015b
cafe
2004
0000
0000
015c
cafe
2404
0000
0000
0155
cafe
2804
0000
0000
0158
cafe
2c04
0000
0000
0153
cafe
3004
0000
0000
0152
cafe
3404
0000
0000
0152
cafe
3804
0000
0000
0155
cafe
3c04
0000
0000
0157
cafe
2004
0000
0000
0158
cafe
2404
0000
0000
0156
cafe
2804
0000
0000
0156
cafe
2c04
0000
0000
0155
cafe
3004
0000
0000
0150
cafe
3404
0000
0000
014d
cafe
3804
0000
0000
0150
cafe
3c04
0000
0000
0151
cafe
2004
0000
0000
014f
cafe
2404
0000
0000
014e
cafe
2804
0000
0000
0152
cafe
2c04
0000
0000
014f
cafe
3004
0000
0000
0150
cafe
3404
0000
0000
014c
cafe
3804
0000
0000
0153
cafe
3c04
0000
0000
-
0151
cafe
2004
0000
0000
014e
cafe
2404
0000
0000
0151
cafe
2804
0000
0000
0151
cafe
2c04
0000
0000
0152
cafe
3004
0000
0000
014f
cafe
3404
0000
0000
0153
cafe
3804
0000
0000
0156
cafe
3c04
0000
0000
0154
cafe
2004
0000
0000
0157
cafe
2404
0000
0000
015a
cafe
2804
0000
0000
015a
cafe
2c04
0000
0000
0157
cafe
3004
0000
0000
0151
cafe
3404
0000
0000
0153
cafe
3804
0000
0000
0151
cafe
3c04
0000
0000
014c
cafe
2004
0000
0000
014f
cafe
2404
0000
0000
0154
cafe
2804
0000
0000
0154
cafe
2c04
0000
0000
0156
cafe
3004
0000
0000
0158
cafe
3404
0000
0000
015a
cafe
3804
0000
0000
0154
cafe
3c04
0000
0000
0150
cafe
2004
0000
0000
0154
cafe
2404
0000
0000
0155
cafe
2804
0000
0000
0159
cafe
2c04
0000
0000
0158
cafe
3004
0000
0000
0159
cafe
3404
0000
0000
0156
cafe
3804
0000
0000
015c
cafe
3c04
0000
0000
0154
cafe
2004
0000
0000
015a
cafe
2404
0000
0000
015c
cafe
2804
0000
0000
015a
cafe
2c04
0000
0000
0155
cafe
3004
0000
0000
0159
cafe
3404
0000
0000
0152
cafe
3804
0000
0000
014f
cafe
3c04
0000
0000
0150
cafe
2004
0000
0000
0152
cafe
2404
0000
0000
014f
cafe
2804
0000
0000
0155
cafe
2c04
0000
0000
0150
cafe
3004
0000
0000
0153
cafe
3404
0000
0000
0158
cafe
3804
0000
0000
0154
cafe
3c04
0000
0000
0153
cafe
2004
0000
0000
0154
cafe
2404
0000
0000
0154
cafe
2804
0000
0000
0153
-
cafe
2c04
0000
0000
0150
cafe
3004
0000
0000
0156
cafe
3404
0000
0000
014f
cafe
3804
0000
0000
0151
cafe
3c04
0000
0000
014f
cafe
2004
0000
0000
0152
cafe
2404
0000
0000
0150
cafe
2804
0000
0000
0151
cafe
2c04
0000
0000
0154
cafe
3004
0000
0000
0155
cafe
3404
0000
0000
0152
cafe
3804
0000
0000
0158
cafe
3c04
0000
0000
015b
cafe
2004
0000
0000
015b
cafe
2404
0000
0000
0159
cafe
2804
0000
0000
0157
cafe
2c04
0000
0000
0157
cafe
3004
0000
0000
015b
cafe
3404
0000
0000
015d
cafe
3804
0000
0000
015e
cafe
3c04
0000
0000
015d
cafe
2004
0000
0000
0159
cafe
2404
0000
0000
015c
cafe
2804
0000
0000
0156
cafe
2c04
0000
0000
0155
cafe
3004
0000
0000
0156
cafe
3404
0000
0000
0156
cafe
3804
0000
0000
0158
cafe
3c04
0000
0000
0153
cafe
2004
0000
0000
0157
cafe
2404
0000
0000
0153
cafe
2804
0000
0000
0155
cafe
2c04
0000
0000
0152
cafe
3004
0000
0000
0155
cafe
3404
0000
0000
0152
cafe
3804
0000
0000
0155
cafe
3c04
0000
0000
0155
cafe
2004
0000
0000
0155
cafe
2404
0000
0000
0156
cafe
2804
0000
0000
0154
cafe
2c04
0000
0000
0157
cafe
3004
0000
0000
0157
cafe
3404
0000
0000
0157
cafe
3804
0000
0000
0159
cafe
3c04
0000
0000
0154
cafe
2004
0000
0000
0158
cafe
2404
0000
0000
0154
cafe
2804
0000
0000
0153
cafe
2c04
0000
0000
0152
cafe
3004
0000
0000
015a
cafe
3404
0000
0000
0158
cafe
-
3804
0000
0000
0155
cafe
3c04
0000
0000
0158
cafe
2004
0000
0000
0158
cafe
2404
0000
0000
0155
cafe
2804
0000
0000
0159
cafe
2c04
0000
0000
0157
cafe
3004
0000
0000
015a
cafe
3404
0000
0000
0153
cafe
3804
0000
0000
0158
cafe
3c04
0000
0000
015a
cafe
2004
0000
0000
0151
cafe
2404
0000
0000
0150
cafe
2804
0000
0000
0152
cafe
2c04
0000
0000
0150
cafe
3004
0000
0000
0152
cafe
3404
0000
0000
0154
cafe
3804
0000
0000
0157
cafe
3c04
0000
0000
0155
cafe
2004
0000
0000
0159
cafe
2404
0000
0000
015b
cafe
2804
0000
0000
0159
cafe
2c04
0000
0000
0158
cafe
3004
0000
0000
0153
cafe
3404
0000
0000
0157
cafe
3804
0000
0000
0159
cafe
3c04
0000
0000
015b
cafe
2004
0000
0000
015d
cafe
2404
0000
0000
0157
cafe
2804
0000
0000
015c
cafe
2c04
0000
0000
0160
cafe
3004
0000
0000
015b
cafe
3404
0000
0000
015c
cafe
3804
0000
0000
0156
cafe
3c04
0000
0000
015c
cafe
2004
0000
0000
0155
cafe
2404
0000
0000
0150
cafe
2804
0000
0000
0154
cafe
2c04
0000
0000
0156
cafe
3004
0000
0000
0156
cafe
3404
0000
0000
0158
cafe
3804
0000
0000
0155
cafe
3c04
0000
0000
0159
cafe
2004
0000
0000
0152
cafe
2404
0000
0000
0157
cafe
2804
0000
0000
0158
cafe
2c04
0000
0000
0152
cafe
3004
0000
0000
0157
cafe
3404
0000
0000
0157
cafe
3804
0000
0000
0157
cafe
3c04
0000
0000
0151
cafe
2004
0000
0000
0157
cafe
2404
-
0000
0000
0156
cafe
2804
0000
0000
015b
cafe
2c04
0000
0000
015c
cafe
3004
0000
0000
0159
cafe
3404
0000
0000
015a
cafe
3804
0000
0000
0157
cafe
3c04
0000
0000
015b
cafe
2004
0000
0000
0158
cafe
2404
0000
0000
015b
cafe
2804
0000
0000
0151
cafe
2c04
0000
0000
014f
cafe
3004
0000
0000
0153
cafe
3404
0000
0000
0153
cafe
3804
0000
0000
0151
cafe
3c04
0000
0000
0153
cafe
2004
0000
0000
0154
cafe
2404
0000
0000
0155
cafe
2804
0000
0000
0158
cafe
2c04
0000
0000
0158
cafe
3004
0000
0000
0158
cafe
3404
0000
0000
0152
cafe
3804
0000
0000
0153
cafe
3c04
0000
0000
0151
cafe
2004
0000
0000
014d
cafe
2404
0000
0000
0153
cafe
2804
0000
0000
0156
cafe
2c04
0000
0000
0157
cafe
3004
0000
0000
0156
cafe
3404
0000
0000
0154
cafe
3804
0000
0000
0156
cafe
3c04
0000
0000
0151
cafe
2004
0000
0000
014f
cafe
2404
0000
0000
0156
cafe
2804
0000
0000
0159
cafe
2c04
0000
0000
0157
cafe
3004
0000
0000
0154
cafe
3404
0000
0000
015a
cafe
3804
0000
0000
0155
cafe
3c04
0000
0000
0153
cafe
2004
0000
0000
0150
cafe
2404
0000
0000
0156
cafe
2804
0000
0000
0154
cafe
2c04
0000
0000
014f
cafe
3004
0000
0000
014e
cafe
3404
0000
0000
0150
cafe
3804
0000
0000
0154
cafe
3c04
0000
0000
0152
cafe
2004
0000
0000
0153
cafe
2404
0000
0000
0152
cafe
2804
0000
0000
0152
cafe
2c04
0000
0000
014f
cafe
3004
0000
-
0000
0152
cafe
3404
0000
0000
0155
cafe
3804
0000
0000
015a
cafe
3c04
0000
0000
0156
cafe
2004
0000
0000
0154
cafe
2404
0000
0000
0151
cafe
2804
0000
0000
0150
cafe
2c04
0000
0000
014d
cafe
3004
0000
0000
0150
cafe
3404
0000
0000
0151
cafe
3804
0000
0000
0151
cafe
3c04
0000
0000
014f
cafe
2004
0000
0000
0154
cafe
2404
0000
0000
0155
cafe
2804
0000
0000
0151
cafe
2c04
0000
0000
0157
cafe
3004
0000
0000
015c
cafe
3404
0000
0000
015d
cafe
3804
0000
0000
015e
cafe
3c04
0000
0000
0159
cafe
2004
0000
0000
0158
cafe
2404
0000
0000
0152
cafe
2804
0000
0000
0155
cafe
2c04
0000
0000
0159
cafe
3004
0000
0000
0154
cafe
3404
0000
0000
0150
cafe
3804
0000
0000
0156
cafe
3c04
0000
0000
0157
cafe
2004
0000
0000
0157
cafe
2404
0000
0000
0155
cafe
2804
0000
0000
0155
cafe
2c04
0000
0000
0150
cafe
3004
0000
0000
014d
cafe
3404
0000
0000
014f
cafe
3804
0000
0000
0157
cafe
3c04
0000
0000
0155
cafe
2004
0000
0000
0152
cafe
2404
0000
0000
0150
cafe
2804
0000
0000
0158
cafe
2c04
0000
0000
015d
cafe
3004
0000
0000
015a
cafe
3404
0000
0000
015a
cafe
3804
0000
0000
0157
cafe
3c04
0000
0000
0159
cafe
2004
0000
0000
0159
cafe
2404
0000
0000
015c
cafe
2804
0000
0000
0156
cafe
2c04
0000
0000
0157
cafe
3004
0000
0000
0157
cafe
3404
0000
0000
0157
cafe
3804
0000
0000
0155
cafe
3c04
0000
0000
-
0155
cafe
2004
0000
0000
0153
cafe
2404
0000
0000
0152
cafe
2804
0000
0000
0150
cafe
2c04
0000
0000
0155
cafe
3004
0000
0000
0150
cafe
3404
0000
0000
0155
cafe
3804
0000
0000
0155
cafe
3c04
0000
0000
0151
cafe
2004
0000
0000
0151
cafe
2404
0000
0000
0151
cafe
2804
0000
0000
0156
cafe
2c04
0000
0000
0152
cafe
3004
0000
0000
0155
cafe
3404
0000
0000
0156
cafe
3804
0000
0000
0157
cafe
3c04
0000
0000
0157
cafe
2004
0000
0000
015b
cafe
2404
0000
0000
0159
cafe
2804
0000
0000
0159
cafe
2c04
0000
0000
0156
cafe
3004
0000
0000
015b
cafe
3404
0000
0000
015b
cafe
3804
0000
0000
0153
cafe
3c04
0000
0000
015f
cafe
2004
0000
0000
015a
cafe
2404
0000
0000
0155
cafe
2804
0000
0000
015a
cafe
2c04
0000
0000
0158
cafe
3004
0000
0000
0159
cafe
3404
0000
0000
0157
cafe
3804
0000
0000
0159
cafe
3c04
0000
0000
0157
cafe
2004
0000
0000
0154
cafe
2404
0000
0000
014f
cafe
2804
0000
0000
0151
cafe
2c04
0000
0000
0155
cafe
3004
0000
0000
0159
cafe
3404
0000
0000
0156
cafe
3804
0000
0000
0159
cafe
3c04
0000
0000
0155
cafe
2004
0000
0000
0157
cafe
2404
0000
0000
0156
cafe
2804
0000
0000
0152
cafe
2c04
0000
0000
0150
cafe
3004
0000
0000
0158
cafe
3404
0000
0000
0156
cafe
3804
0000
0000
0152
cafe
3c04
0000
0000
0152
cafe
2004
0000
0000
0152
cafe
2404
0000
0000
0156
cafe
2804
0000
0000
0156
-
cafe
2c04
0000
0000
015b
cafe
3004
0000
0000
0152
cafe
3404
0000
0000
0154
cafe
3804
0000
0000
0157
cafe
3c04
0000
0000
0155
cafe
2004
0000
0000
014f
cafe
2404
0000
0000
0153
cafe
2804
0000
0000
0156
cafe
2c04
0000
0000
0154
cafe
3004
0000
0000
0155
cafe
3404
0000
0000
0150
cafe
3804
0000
0000
0154
cafe
3c04
0000
0000
0156
cafe
2004
0000
0000
0156
cafe
2404
0000
0000
0155
cafe
2804
0000
0000
0151
cafe
2c04
0000
0000
0155
cafe
3004
0000
0000
0153
cafe
3404
0000
0000
0156
cafe
3804
0000
0000
0150
cafe
3c04
0000
0000
0156
cafe
2004
0000
0000
0152
cafe
2404
0000
0000
0155
cafe
2804
0000
0000
0157
cafe
2c04
0000
0000
0154
cafe
3004
0000
0000
015a
cafe
3404
0000
0000
015a
cafe
3804
0000
0000
0157
cafe
3c04
0000
0000
015b
cafe
2004
0000
0000
0157
cafe
2404
0000
0000
0155
cafe
2804
0000
0000
015d
cafe
2c04
0000
0000
015c
cafe
3004
0000
0000
015e
cafe
3404
0000
0000
0155
cafe
3804
0000
0000
0155
cafe
3c04
0000
0000
0158
cafe
2004
0000
0000
0155
cafe
2404
0000
0000
0159
cafe
2804
0000
0000
0154
cafe
2c04
0000
0000
0156
cafe
3004
0000
0000
0155
cafe
3404
0000
0000
0157
cafe
3804
0000
0000
0155
cafe
3c04
0000
0000
0154
cafe
2004
0000
0000
0154
cafe
2404
0000
0000
0156
cafe
2804
0000
0000
0156
cafe
2c04
0000
0000
014f
cafe
3004
0000
0000
0152
cafe
3404
0000
0000
0152
cafe
-
3804
0000
0000
0153
cafe
3c04
0000
0000
0154
cafe
2004
0000
0000
0152
cafe
2404
0000
0000
014d
cafe
2804
0000
0000
0150
cafe
2c04
0000
0000
0150
cafe
3004
0000
0000
014f
cafe
3404
0000
0000
0151
cafe
3804
0000
0000
0154
cafe
3c04
0000
0000
0155
cafe
2004
0000
0000
0154
cafe
2404
0000
0000
0154
cafe
2804
0000
0000
014d
cafe
2c04
0000
0000
0154
cafe
3004
0000
0000
0154
cafe
3404
0000
0000
0156
cafe
3804
0000
0000
0154
cafe
3c04
0000
0000
0150
cafe
2004
0000
0000
0153
cafe
2404
0000
0000
0150
cafe
2804
0000
0000
0152
cafe
2c04
0000
0000
0152
cafe
3004
0000
0000
014f
cafe
3404
0000
0000
0158
cafe
3804
0000
0000
0155
cafe
3c04
0000
0000
0155
cafe
2004
0000
0000
0153
cafe
2404
0000
0000
0151
cafe
2804
0000
0000
0155
cafe
2c04
0000
0000
0159
cafe
3004
0000
0000
0155
cafe
3404
0000
0000
0151
cafe
3804
0000
0000
0157
cafe
3c04
0000
0000
0156
cafe
2004
0000
0000
0156
cafe
2404
0000
0000
0158
cafe
2804
0000
0000
0154
cafe
2c04
0000
0000
0157
cafe
3004
0000
0000
0154
cafe
3404
0000
0000
0156
cafe
3804
0000
0000
015a
cafe
3c04
0000
0000
015a
cafe
2004
0000
0000
0153
cafe
2404
0000
0000
0159
cafe
2804
0000
0000
0156
cafe
2c04
0000
0000
0153
cafe
3004
0000
0000
0152
cafe
3404
0000
0000
0155
cafe
3804
0000
0000
0157
cafe
3c04
0000
0000
0153
cafe
2004
0000
0000
0152
cafe
2404
-
0000
0000
0159
cafe
2804
0000
0000
0154
cafe
2c04
0000
0000
0150
cafe
3004
0000
0000
0152
cafe
3404
0000
0000
0154
cafe
3804
0000
0000
0158
cafe
3c04
0000
0000
0159
cafe
2004
0000
0000
0156
cafe
2404
0000
0000
0157
cafe
2804
0000
0000
0151
cafe
2c04
0000
0000
0156
cafe
3004
0000
0000
0155
cafe
3404
0000
0000
0156
cafe
3804
0000
0000
0159
cafe
3c04
0000
0000
0156
cafe
2004
0000
0000
0159
cafe
2404
0000
0000
015a
cafe
2804
0000
0000
0156
cafe
2c04
0000
0000
0155
cafe
3004
0000
0000
0158
cafe
3404
0000
0000
015d
cafe
3804
0000
0000
0157
cafe
3c04
0000
0000
0159
cafe
2004
0000
0000
0158
cafe
2404
0000
0000
0157
cafe
2804
0000
0000
0158
cafe
2c04
0000
0000
0155
cafe
3004
0000
0000
0158
cafe
3404
0000
0000
0153
cafe
3804
0000
0000
0159
cafe
3c04
0000
0000
0156
cafe
2004
0000
0000
0154
cafe
2404
0000
0000
014f
cafe
2804
0000
0000
0152
cafe
2c04
0000
0000
0155
cafe
3004
0000
0000
0156
cafe
3404
0000
0000
0156
cafe
3804
0000
0000
0155
cafe
3c04
0000
0000
0155
cafe
2004
0000
0000
0157
cafe
2404
0000
0000
0154
cafe
2804
0000
0000
0154
cafe
2c04
0000
0000
0157
cafe
3004
0000
0000
0159
cafe
3404
0000
0000
0159
cafe
3804
0000
0000
0157
cafe
3c04
0000
0000
0156
cafe
2004
0000
0000
015a
cafe
2404
0000
0000
0155
cafe
2804
0000
0000
015b
cafe
2c04
0000
0000
015a
cafe
3004
0000
-
0000
0155
cafe
3404
0000
0000
0159
cafe
3804
0000
0000
0159
cafe
3c04
0000
0000
0156
cafe
2004
0000
0000
015d
cafe
2404
0000
0000
0154
cafe
2804
0000
0000
014f
cafe
2c04
0000
0000
014f
cafe
3004
0000
0000
0153
cafe
3404
0000
0000
0151
cafe
3804
0000
0000
0153
cafe
3c04
0000
0000
0152
cafe
2004
0000
0000
0150
cafe
2404
0000
0000
0152
cafe
2804
0000
0000
0152
cafe
2c04
0000
0000
0157
cafe
3004
0000
0000
0156
cafe
3404
0000
0000
015a
cafe
3804
0000
0000
0157
cafe
3c04
0000
0000
015a
cafe
2004
0000
0000
014f
cafe
2404
0000
0000
0153
cafe
2804
0000
0000
0150
cafe
2c04
0000
0000
0151
cafe
3004
0000
0000
0152
cafe
3404
0000
0000
0155
cafe
3804
0000
0000
0156
cafe
3c04
0000
0000
0154
cafe
2004
0000
0000
0156
cafe
2404
0000
0000
0157
cafe
2804
0000
0000
0155
cafe
2c04
0000
0000
0158
cafe
3004
0000
0000
0156
cafe
3404
0000
0000
015b
cafe
3804
0000
0000
015a
cafe
3c04
0000
0000
0157
cafe
2004
0000
0000
0155
cafe
2404
0000
0000
0154
cafe
2804
0000
0000
0155
cafe
2c04
0000
0000
0157
cafe
3004
0000
0000
0156
cafe
3404
0000
0000
0155
cafe
3804
0000
0000
0151
cafe
3c04
0000
0000
0153
cafe
2004
0000
0000
014c
cafe
2404
0000
0000
0150
cafe
2804
0000
0000
0153
cafe
2c04
0000
0000
014e
cafe
3004
0000
0000
0151
cafe
3404
0000
0000
0150
cafe
3804
0000
0000
0150
cafe
3c04
0000
0000
-
0153
cafe
2004
0000
0000
0152
cafe
2404
0000
0000
0156
cafe
2804
0000
0000
0156
cafe
2c04
0000
0000
0156
cafe
3004
0000
0000
0152
cafe
3404
0000
0000
0157
cafe
3804
0000
0000
0155
cafe
3c04
0000
0000
0154
cafe
2004
0000
0000
014f
cafe
2404
0000
0000
0151
cafe
2804
0000
0000
0153
cafe
2c04
0000
0000
0153
cafe
3004
0000
0000
0151
cafe
3404
0000
0000
014d
cafe
3804
0000
0000
014a
cafe
3c04
0000
0000
0151
cafe
2004
0000
0000
0150
cafe
2404
0000
0000
014c
cafe
2804
0000
0000
0154
cafe
2c04
0000
0000
0156
cafe
3004
0000
0000
014f
cafe
3404
0000
0000
0153
cafe
3804
0000
0000
0150
cafe
3c04
0000
0000
0151
cafe
2004
0000
0000
0152
cafe
2404
0000
0000
0152
cafe
2804
0000
0000
0154
cafe
2c04
0000
0000
0158
cafe
3004
0000
0000
0157
cafe
3404
0000
0000
0154
cafe
3804
0000
0000
015a
cafe
3c04
0000
0000
015a
cafe
2004
0000
0000
0157
cafe
2404
0000
0000
0153
cafe
2804
0000
0000
0156
cafe
2c04
0000
0000
0151
cafe
3004
0000
0000
0159
cafe
3404
0000
0000
0158
cafe
3804
0000
0000
0155
cafe
3c04
0000
0000
0157
cafe
2004
0000
0000
0155
cafe
2404
0000
0000
0154
cafe
2804
0000
0000
0154
cafe
2c04
0000
0000
0151
cafe
3004
0000
0000
0153
cafe
3404
0000
0000
0158
cafe
3804
0000
0000
0156
cafe
3c04
0000
0000
0157
cafe
2004
0000
0000
0158
cafe
2404
0000
0000
0154
cafe
2804
0000
0000
0158
-
