2810
0000
0000
0176
cafe
2c09
0000
0000
0149
cafe
3019
0000
0000
00ce
cafe
3401
0000
0000
00e8
cafe
3811
0000
0000
0181
cafe
3c0a
0000
0000
0164
cafe
201a
0000
0000
00e8
cafe
2402
0000
0000
008f
cafe
2812
0000
0000
013d
cafe
2c0b
0000
0000
01b0
cafe
301b
0000
0000
00cf
cafe
3403
0000
0000
00c8
cafe
3813
0000
0000
00b0
cafe
3c0c
0000
0000
0156
cafe
201c
0000
0000
00ae
cafe
2404
0000
0000
013a
cafe
2814
0000
0000
00cf
cafe
2c0d
0000
0000
0107
cafe
301d
0000
0000
010e
cafe
3405
0000
0000
0056
cafe
3815
0000
0000
0176
cafe
3c0e
0000
0000
00f5
cafe
201e
0000
0000
010f
cafe
2406
0000
0000
00f0
cafe
2816
0000
0000
008d
cafe
2c0f
0000
0000
011a
cafe
301f
0000
0000
010e
cafe
3407
0000
0000
00ce
cafe
3817
0000
0000
011c
cafe
3c08
0000
0000
00b1
cafe
2018
0000
0000
00e6
cafe
2400
0000
0000
00bf
cafe
2810
0000
0000
0172
cafe
2c09
0000
0000
014f
cafe
3019
0000
0000
00cc
cafe
3401
0000
0000
00ea
cafe
3811
0000
0000
0186
cafe
3c0a
0000
0000
0163
cafe
201a
0000
0000
00eb
cafe
2402
0000
0000
008a
cafe
2812
0000
0000
0139
cafe
2c0b
0000
0000
01b1
cafe
301b
0000
0000
00d9
cafe
3403
0000
0000
00bf
cafe
3813
0000
0000
00b8
cafe
3c0c
0000
0000
015e
cafe
201c
0000
0000
00ad
cafe
2404
0000
0000
0139
cafe
2814
0000
0000
00d4
cafe
2c0d
0000
0000
0103
cafe
301d
0000
0000
0112
cafe
3405
-
0000
0000
0059
cafe
3815
0000
0000
0173
cafe
3c0e
0000
0000
00f2
cafe
201e
0000
0000
0110
cafe
2406
0000
0000
00ee
cafe
2816
0000
0000
008f
cafe
2c0f
0000
0000
011c
cafe
301f
0000
0000
010b
cafe
3407
0000
0000
00da
cafe
3817
0000
0000
011d
cafe
3c08
0000
0000
00ac
cafe
2018
0000
0000
00e4
cafe
2400
0000
0000
00bf
cafe
2810
0000
0000
0171
cafe
2c09
0000
0000
0149
cafe
3019
0000
0000
00cf
cafe
3401
0000
0000
00e9
cafe
3811
0000
0000
0186
cafe
3c0a
0000
0000
0162
cafe
201a
0000
0000
00eb
cafe
2402
0000
0000
008f
cafe
2812
0000
0000
013c
cafe
2c0b
0000
0000
01ad
cafe
301b
0000
0000
00d8
cafe
3403
0000
0000
00c0
cafe
3813
0000
0000
00b4
cafe
3c0c
0000
0000
015a
cafe
201c
0000
0000
00a6
cafe
2404
0000
0000
0131
cafe
2814
0000
0000
00cf
cafe
2c0d
0000
0000
0103
cafe
301d
0000
0000
0117
cafe
3405
0000
0000
0056
cafe
3815
0000
0000
0172
cafe
3c0e
0000
0000
00f0
cafe
201e
0000
0000
010f
cafe
2406
0000
0000
00ec
cafe
2816
0000
0000
008c
cafe
2c0f
0000
0000
011b
cafe
301f
0000
0000
010d
cafe
3407
0000
0000
00d8
cafe
3817
0000
0000
0119
cafe
3c08
0000
0000
00b0
cafe
2018
0000
0000
00e7
cafe
2400
0000
0000
00c0
cafe
2810
0000
0000
0175
cafe
2c09
0000
0000
0148
cafe
3019
0000
0000
00ca
cafe
3401
0000
0000
00e8
cafe
3811
0000
0000
0184
cafe
3c0a
0000
0000
0162
cafe
201a
0000
-
0000
00eb
cafe
2402
0000
0000
008f
cafe
2812
0000
0000
0143
cafe
2c0b
0000
0000
01b0
cafe
301b
0000
0000
00dd
cafe
3403
0000
0000
00c0
cafe
3813
0000
0000
00b2
cafe
3c0c
0000
0000
015a
cafe
201c
0000
0000
00a6
cafe
2404
0000
0000
012a
cafe
2814
0000
0000
00cc
cafe
2c0d
0000
0000
00fd
cafe
301d
0000
0000
0118
cafe
3405
0000
0000
0057
cafe
3815
0000
0000
0178
cafe
3c0e
0000
0000
00f2
cafe
201e
0000
0000
0109
cafe
2406
0000
0000
00ed
cafe
2816
0000
0000
008f
cafe
2c0f
0000
0000
0116
cafe
301f
0000
0000
010e
cafe
3407
0000
0000
00d9
cafe
3817
0000
0000
0113
cafe
3c08
0000
0000
00b6
cafe
2018
0000
0000
00e2
cafe
2400
0000
0000
00c4
cafe
2810
0000
0000
017c
cafe
2c09
0000
0000
0149
cafe
3019
0000
0000
00cf
cafe
3401
0000
0000
00e3
cafe
3811
0000
0000
0183
cafe
3c0a
0000
0000
0162
cafe
201a
0000
0000
00e1
cafe
2402
0000
0000
0091
cafe
2812
0000
0000
0141
cafe
2c0b
0000
0000
01ae
cafe
301b
0000
0000
00df
cafe
3403
0000
0000
00c5
cafe
3813
0000
0000
00b6
cafe
3c0c
0000
0000
015f
cafe
201c
0000
0000
00ac
cafe
2404
0000
0000
012a
cafe
2814
0000
0000
00ce
cafe
2c0d
0000
0000
0102
cafe
301d
0000
0000
011d
cafe
3405
0000
0000
0056
cafe
3815
0000
0000
017a
cafe
3c0e
0000
0000
00fa
cafe
201e
0000
0000
010b
cafe
2406
0000
0000
00f0
cafe
2816
0000
0000
008f
cafe
2c0f
0000
0000
-
0114
cafe
301f
0000
0000
010a
cafe
3407
0000
0000
00da
cafe
3817
0000
0000
0118
cafe
3c08
0000
0000
00b4
cafe
2018
0000
0000
00e2
cafe
2400
0000
0000
00c7
cafe
2810
0000
0000
0175
cafe
2c09
0000
0000
014a
cafe
3019
0000
0000
00cd
cafe
3401
0000
0000
00e4
cafe
3811
0000
0000
018c
cafe
3c0a
0000
0000
0164
cafe
201a
0000
0000
00df
cafe
2402
0000
0000
0098
cafe
2812
0000
0000
0142
cafe
2c0b
0000
0000
01ac
cafe
301b
0000
0000
00db
cafe
3403
0000
0000
00c6
cafe
3813
0000
0000
00b4
cafe
3c0c
0000
0000
015c
cafe
201c
0000
0000
00aa
cafe
2404
0000
0000
0128
cafe
2814
0000
0000
00cc
cafe
2c0d
0000
0000
0104
cafe
301d
0000
0000
0122
cafe
3405
0000
0000
0059
cafe
3815
0000
0000
017a
cafe
3c0e
0000
0000
00f3
cafe
201e
0000
0000
0106
cafe
2406
0000
0000
00f1
cafe
2816
0000
0000
008e
cafe
2c0f
0000
0000
011c
cafe
301f
0000
0000
0110
cafe
3407
0000
0000
00db
cafe
3817
0000
0000
011c
cafe
3c08
0000
0000
00b1
cafe
2018
0000
0000
00e5
cafe
2400
0000
0000
00c8
cafe
2810
0000
0000
0178
cafe
2c09
0000
0000
0149
cafe
3019
0000
0000
00c7
cafe
3401
0000
0000
00e1
cafe
3811
0000
0000
0189
cafe
3c0a
0000
0000
015f
cafe
201a
0000
0000
00de
cafe
2402
0000
0000
0095
cafe
2812
0000
0000
0141
cafe
2c0b
0000
0000
01a8
cafe
301b
0000
0000
00dc
cafe
3403
0000
0000
00c1
cafe
3813
0000
0000
00ae
-
cafe
3c0c
0000
0000
0158
cafe
201c
0000
0000
00a9
cafe
2404
0000
0000
0124
cafe
2814
0000
0000
00c7
cafe
2c0d
0000
0000
0105
cafe
301d
0000
0000
0123
cafe
3405
0000
0000
0057
cafe
3815
0000
0000
0179
cafe
3c0e
0000
0000
00f3
cafe
201e
0000
0000
010d
cafe
2406
0000
0000
00ed
cafe
2816
0000
0000
0091
cafe
2c0f
0000
0000
0111
cafe
301f
0000
0000
0114
cafe
3407
0000
0000
00da
cafe
3817
0000
0000
0115
cafe
3c08
0000
0000
00b2
cafe
2018
0000
0000
00ea
cafe
2400
0000
0000
00cb
cafe
2810
0000
0000
017f
cafe
2c09
0000
0000
014e
cafe
3019
0000
0000
00c4
cafe
3401
0000
0000
00e0
cafe
3811
0000
0000
0187
cafe
3c0a
0000
0000
0158
cafe
201a
0000
0000
00dc
cafe
2402
0000
0000
0097
cafe
2812
0000
0000
013f
cafe
2c0b
0000
0000
01a8
cafe
301b
0000
0000
00e2
cafe
3403
0000
0000
00c6
cafe
3813
0000
0000
00ac
cafe
3c0c
0000
0000
0158
cafe
201c
0000
0000
00ac
cafe
2404
0000
0000
0128
cafe
2814
0000
0000
00cf
cafe
2c0d
0000
0000
0104
cafe
301d
0000
0000
011e
cafe
3405
0000
0000
0052
cafe
3815
0000
0000
0179
cafe
3c0e
0000
0000
00fd
cafe
201e
0000
0000
010a
cafe
2406
0000
0000
00ec
cafe
2816
0000
0000
008e
cafe
2c0f
0000
0000
0112
cafe
301f
0000
0000
0113
cafe
3407
0000
0000
00d9
cafe
3817
0000
0000
0119
cafe
3c08
0000
0000
00af
cafe
2018
0000
0000
00ed
cafe
2400
0000
0000
00cf
cafe
-
2810
0000
0000
017d
cafe
2c09
0000
0000
0156
cafe
3019
0000
0000
00ce
cafe
3401
0000
0000
00e3
cafe
3811
0000
0000
0187
cafe
3c0a
0000
0000
0167
cafe
201a
0000
0000
00e1
cafe
2402
0000
0000
0097
cafe
2812
0000
0000
013d
cafe
2c0b
0000
0000
01ad
cafe
301b
0000
0000
00e1
cafe
3403
0000
0000
00c4
cafe
3813
0000
0000
00ae
cafe
3c0c
0000
0000
015d
cafe
201c
0000
0000
00ae
cafe
2404
0000
0000
0130
cafe
2814
0000
0000
00d1
cafe
2c0d
0000
0000
0107
cafe
301d
0000
0000
011e
cafe
3405
0000
0000
0053
cafe
3815
0000
0000
017f
cafe
3c0e
0000
0000
0104
cafe
201e
0000
0000
0111
cafe
2406
0000
0000
00ea
cafe
2816
0000
0000
008c
cafe
2c0f
0000
0000
0119
cafe
301f
0000
0000
0111
cafe
3407
0000
0000
00e1
cafe
3817
0000
0000
011d
cafe
3c08
0000
0000
00b6
cafe
2018
0000
0000
00e8
cafe
2400
0000
0000
00cf
cafe
2810
0000
0000
0182
cafe
2c09
0000
0000
0152
cafe
3019
0000
0000
00cf
cafe
3401
0000
0000
00e8
cafe
3811
0000
0000
0187
cafe
3c0a
0000
0000
0167
cafe
201a
0000
0000
00e1
cafe
2402
0000
0000
009a
cafe
2812
0000
0000
013c
cafe
2c0b
0000
0000
01b2
cafe
301b
0000
0000
00e0
cafe
3403
0000
0000
00c8
cafe
3813
0000
0000
00af
cafe
3c0c
0000
0000
0156
cafe
201c
0000
0000
00ad
cafe
2404
0000
0000
012c
cafe
2814
0000
0000
00cf
cafe
2c0d
0000
0000
0102
cafe
301d
0000
0000
011b
cafe
3405
-
0000
0000
0052
cafe
3815
0000
0000
017b
cafe
3c0e
0000
0000
0104
cafe
201e
0000
0000
0110
cafe
2406
0000
0000
00e6
cafe
2816
0000
0000
0091
cafe
2c0f
0000
0000
0114
cafe
301f
0000
0000
010f
cafe
3407
0000
0000
00df
cafe
3817
0000
0000
011b
cafe
3c08
0000
0000
00b7
cafe
2018
0000
0000
00e9
cafe
2400
0000
0000
00cb
cafe
2810
0000
0000
0180
cafe
2c09
0000
0000
0153
cafe
3019
0000
0000
00d0
cafe
3401
0000
0000
00e7
cafe
3811
0000
0000
0188
cafe
3c0a
0000
0000
015d
cafe
201a
0000
0000
00e0
cafe
2402
0000
0000
0097
cafe
2812
0000
0000
013c
cafe
2c0b
0000
0000
01ac
cafe
301b
0000
0000
00dd
cafe
3403
0000
0000
00cb
cafe
3813
0000
0000
00ab
cafe
3c0c
0000
0000
0156
cafe
201c
0000
0000
00ad
cafe
2404
0000
0000
0128
cafe
2814
0000
0000
00ce
cafe
2c0d
0000
0000
00ff
cafe
301d
0000
0000
011a
cafe
3405
0000
0000
004e
cafe
3815
0000
0000
0179
cafe
3c0e
0000
0000
0103
cafe
201e
0000
0000
0114
cafe
2406
0000
0000
00e6
cafe
2816
0000
0000
008c
cafe
2c0f
0000
0000
0116
cafe
301f
0000
0000
010e
cafe
3407
0000
0000
00de
cafe
3817
0000
0000
011c
cafe
3c08
0000
0000
00b4
cafe
2018
0000
0000
00e7
cafe
2400
0000
0000
00cd
cafe
2810
0000
0000
017b
cafe
2c09
0000
0000
0157
cafe
3019
0000
0000
00ce
cafe
3401
0000
0000
00e9
cafe
3811
0000
0000
0186
cafe
3c0a
0000
0000
015a
cafe
201a
0000
-
0000
00e1
cafe
2402
0000
0000
0093
cafe
2812
0000
0000
013d
cafe
2c0b
0000
0000
01ad
cafe
301b
0000
0000
00df
cafe
3403
0000
0000
00cf
cafe
3813
0000
0000
00af
cafe
3c0c
0000
0000
015a
cafe
201c
0000
0000
00ab
cafe
2404
0000
0000
012f
cafe
2814
0000
0000
00cf
cafe
2c0d
0000
0000
00fe
cafe
301d
0000
0000
0117
cafe
3405
0000
0000
004e
cafe
3815
0000
0000
017b
cafe
3c0e
0000
0000
00fb
cafe
201e
0000
0000
0112
cafe
2406
0000
0000
00eb
cafe
2816
0000
0000
008a
cafe
2c0f
0000
0000
0119
cafe
301f
0000
0000
010e
cafe
3407
0000
0000
00d9
cafe
3817
0000
0000
0122
cafe
3c08
0000
0000
00ac
cafe
2018
0000
0000
00e9
cafe
2400
0000
0000
00ca
cafe
2810
0000
0000
017c
cafe
2c09
0000
0000
014f
cafe
3019
0000
0000
00c8
cafe
3401
0000
0000
00e3
cafe
3811
0000
0000
017f
cafe
3c0a
0000
0000
015b
cafe
201a
0000
0000
00e9
cafe
2402
0000
0000
0093
cafe
2812
0000
0000
0136
cafe
2c0b
0000
0000
01aa
cafe
301b
0000
0000
00db
cafe
3403
0000
0000
00ce
cafe
3813
0000
0000
00ac
cafe
3c0c
0000
0000
0158
cafe
201c
0000
0000
00ad
cafe
2404
0000
0000
0131
cafe
2814
0000
0000
00ca
cafe
2c0d
0000
0000
00ff
cafe
301d
0000
0000
0112
cafe
3405
0000
0000
0054
cafe
3815
0000
0000
0180
cafe
3c0e
0000
0000
00fc
cafe
201e
0000
0000
0111
cafe
2406
0000
0000
00ed
cafe
2816
0000
0000
008b
cafe
2c0f
0000
0000
-
011c
cafe
301f
0000
0000
010e
cafe
3407
0000
0000
00da
cafe
3817
0000
0000
0125
cafe
3c08
0000
0000
00ad
cafe
2018
0000
0000
00e8
cafe
2400
0000
0000
00cb
cafe
2810
0000
0000
0182
cafe
2c09
0000
0000
0156
cafe
3019
0000
0000
00d0
cafe
3401
0000
0000
00e7
cafe
3811
0000
0000
0188
cafe
3c0a
0000
0000
015f
cafe
201a
0000
0000
00f0
cafe
2402
0000
0000
0093
cafe
2812
0000
0000
0133
cafe
2c0b
0000
0000
01b1
cafe
301b
0000
0000
00dc
cafe
3403
0000
0000
00cf
cafe
3813
0000
0000
00b5
cafe
3c0c
0000
0000
0165
cafe
201c
0000
0000
00b2
cafe
2404
0000
0000
0137
cafe
2814
0000
0000
00d0
cafe
2c0d
0000
0000
00f9
cafe
301d
0000
0000
0114
cafe
3405
0000
0000
0056
cafe
3815
0000
0000
0186
cafe
3c0e
0000
0000
00fc
cafe
201e
0000
0000
0113
cafe
2406
0000
0000
00ed
cafe
2816
0000
0000
0088
cafe
2c0f
0000
0000
0122
cafe
301f
0000
0000
010e
cafe
3407
0000
0000
00d9
cafe
3817
0000
0000
0129
cafe
3c08
0000
0000
00b0
cafe
2018
0000
0000
00e4
cafe
2400
0000
0000
00c9
cafe
2810
0000
0000
0180
cafe
2c09
0000
0000
0155
cafe
3019
0000
0000
00ce
cafe
3401
0000
0000
00ea
cafe
3811
0000
0000
018c
cafe
3c0a
0000
0000
0164
cafe
201a
0000
0000
00ee
cafe
2402
0000
0000
008f
cafe
2812
0000
0000
013b
cafe
2c0b
0000
0000
01af
cafe
301b
0000
0000
00da
cafe
3403
0000
0000
00cd
cafe
3813
0000
0000
00ad
-
cafe
3c0c
0000
0000
0165
cafe
201c
0000
0000
00ad
cafe
2404
0000
0000
0136
cafe
2814
0000
0000
00ce
cafe
2c0d
0000
0000
00f9
cafe
301d
0000
0000
0115
cafe
3405
0000
0000
0058
cafe
3815
0000
0000
0183
cafe
3c0e
0000
0000
00f8
cafe
201e
0000
0000
0115
cafe
2406
0000
0000
00e7
cafe
2816
0000
0000
0087
cafe
2c0f
0000
0000
011b
cafe
301f
0000
0000
010b
cafe
3407
0000
0000
00d9
cafe
3817
0000
0000
0126
cafe
3c08
0000
0000
00b0
cafe
2018
0000
0000
00e4
cafe
2400
0000
0000
00ca
cafe
2810
0000
0000
0181
cafe
2c09
0000
0000
014c
cafe
3019
0000
0000
00cc
cafe
3401
0000
0000
00e1
cafe
3811
0000
0000
0186
cafe
3c0a
0000
0000
0163
cafe
201a
0000
0000
00ed
cafe
2402
0000
0000
0093
cafe
2812
0000
0000
013c
cafe
2c0b
0000
0000
01af
cafe
301b
0000
0000
00dc
cafe
3403
0000
0000
00cd
cafe
3813
0000
0000
00aa
cafe
3c0c
0000
0000
0159
cafe
201c
0000
0000
00ab
cafe
2404
0000
0000
0136
cafe
2814
0000
0000
00ca
cafe
2c0d
0000
0000
00f5
cafe
301d
0000
0000
0118
cafe
3405
0000
0000
004f
cafe
3815
0000
0000
0184
cafe
3c0e
0000
0000
00f3
cafe
201e
0000
0000
0112
cafe
2406
0000
0000
00f0
cafe
2816
0000
0000
0089
cafe
2c0f
0000
0000
0116
cafe
301f
0000
0000
010d
cafe
3407
0000
0000
00d6
cafe
3817
0000
0000
0123
cafe
3c08
0000
0000
00ad
cafe
2018
0000
0000
00de
cafe
2400
0000
0000
00cb
cafe
-
2810
0000
0000
0182
cafe
2c09
0000
0000
014f
cafe
3019
0000
0000
00ce
cafe
3401
0000
0000
00e1
cafe
3811
0000
0000
0184
cafe
3c0a
0000
0000
015e
cafe
201a
0000
0000
00ed
cafe
2402
0000
0000
008d
cafe
2812
0000
0000
013d
cafe
2c0b
0000
0000
01af
cafe
301b
0000
0000
00d6
cafe
3403
0000
0000
00c6
cafe
3813
0000
0000
00a6
cafe
3c0c
0000
0000
015f
cafe
201c
0000
0000
00af
cafe
2404
0000
0000
013a
cafe
2814
0000
0000
00c9
cafe
2c0d
0000
0000
00f3
cafe
301d
0000
0000
0118
cafe
3405
0000
0000
0053
cafe
3815
0000
0000
0184
cafe
3c0e
0000
0000
00f4
cafe
201e
0000
0000
0112
cafe
2406
0000
0000
00f0
cafe
2816
0000
0000
0090
cafe
2c0f
0000
0000
011c
cafe
301f
0000
0000
010f
cafe
3407
0000
0000
00da
cafe
3817
0000
0000
0124
cafe
3c08
0000
0000
00a7
cafe
2018
0000
0000
00d8
cafe
2400
0000
0000
00c8
cafe
2810
0000
0000
0187
cafe
2c09
0000
0000
014d
cafe
3019
0000
0000
00d3
cafe
3401
0000
0000
00e4
cafe
3811
0000
0000
0179
cafe
3c0a
0000
0000
0165
cafe
201a
0000
0000
00f0
cafe
2402
0000
0000
0090
cafe
2812
0000
0000
0140
cafe
2c0b
0000
0000
01ab
cafe
301b
0000
0000
00d6
cafe
3403
0000
0000
00c7
cafe
3813
0000
0000
00a2
cafe
3c0c
0000
0000
0193
cafe
201c
0000
0000
00df
cafe
2404
0000
0000
0168
cafe
2814
0000
0000
00f3
cafe
2c0d
0000
0000
01b4
cafe
301d
0000
0000
01f2
cafe
3405
-
0000
0000
0112
cafe
3815
0000
0000
024a
cafe
3c0e
0000
0000
0246
cafe
201e
0000
0000
025a
cafe
2406
0000
0000
0238
cafe
2816
0000
0000
01e3
cafe
2c0f
0000
0000
02f6
cafe
301f
0000
0000
02de
cafe
3407
0000
0000
02af
cafe
3817
0000
0000
02f9
cafe
3c08
0000
0000
02f6
cafe
2018
0000
0000
0332
cafe
2400
0000
0000
0313
cafe
2810
0000
0000
03e7
cafe
2c09
0000
0000
040e
cafe
3019
0000
0000
0396
cafe
3401
0000
0000
0385
cafe
3811
0000
0000
0440
cafe
3c0a
0000
0000
0496
cafe
201a
0000
0000
040f
cafe
2402
0000
0000
03ae
cafe
2812
0000
0000
047b
cafe
2c0b
0000
0000
0544
cafe
301b
0000
0000
045b
cafe
3403
0000
0000
0443
cafe
3813
0000
0000
0446
cafe
3c0c
0000
0000
0556
cafe
201c
0000
0000
0480
cafe
2404
0000
0000
0511
cafe
2814
0000
0000
04bb
cafe
2c0d
0000
0000
0543
cafe
301d
0000
0000
053e
cafe
3405
0000
0000
0483
cafe
3815
0000
0000
05d7
cafe
3c0e
0000
0000
0594
cafe
201e
0000
0000
0579
cafe
2406
0000
0000
0572
cafe
2816
0000
0000
0523
cafe
2c0f
0000
0000
0602
cafe
301f
0000
0000
05c8
cafe
3407
0000
0000
05aa
cafe
3817
0000
0000
05f8
cafe
3c08
0000
0000
05bb
cafe
2018
0000
0000
05f0
cafe
2400
0000
0000
05b8
cafe
2810
0000
0000
06c1
cafe
2c09
0000
0000
06a6
cafe
3019
0000
0000
061f
cafe
3401
0000
0000
05f7
cafe
3811
0000
0000
06ea
cafe
3c0a
0000
0000
06fa
cafe
201a
0000
-
0000
065b
cafe
2402
0000
0000
05ef
cafe
2812
0000
0000
06e7
cafe
2c0b
0000
0000
0776
cafe
301b
0000
0000
065b
cafe
3403
0000
0000
065a
cafe
3813
0000
0000
067f
cafe
3c0c
0000
0000
075e
cafe
201c
0000
0000
0669
cafe
2404
0000
0000
0708
cafe
2814
0000
0000
06c6
cafe
2c0d
0000
0000
0730
cafe
301d
0000
0000
06fa
cafe
3405
0000
0000
0651
cafe
3815
0000
0000
07b5
cafe
3c0e
0000
0000
0756
cafe
201e
0000
0000
071a
cafe
2406
0000
0000
0727
cafe
2816
0000
0000
06dd
cafe
2c0f
0000
0000
07a4
cafe
301f
0000
0000
0749
cafe
3407
0000
0000
073f
cafe
3817
0000
0000
0788
cafe
3c08
0000
0000
0725
cafe
2018
0000
0000
075e
cafe
2400
0000
0000
0712
cafe
2810
0000
0000
0836
cafe
2c09
0000
0000
07f9
cafe
3019
0000
0000
0769
cafe
3401
0000
0000
073a
cafe
3811
0000
0000
0851
cafe
3c0a
0000
0000
083b
cafe
201a
0000
0000
078d
cafe
2402
0000
0000
071b
cafe
2812
0000
0000
082d
cafe
2c0b
0000
0000
08a0
cafe
301b
0000
0000
0762
cafe
3403
0000
0000
076b
cafe
3813
0000
0000
07b3
cafe
3c0c
0000
0000
0861
cafe
201c
0000
0000
0765
cafe
2404
0000
0000
0805
cafe
2814
0000
0000
07cc
cafe
2c0d
0000
0000
0824
cafe
301d
0000
0000
07de
cafe
3405
0000
0000
0736
cafe
3815
0000
0000
08ac
cafe
3c0e
0000
0000
083d
cafe
201e
0000
0000
07eb
cafe
2406
0000
0000
0804
cafe
2816
0000
0000
07be
cafe
2c0f
0000
0000
-
0879
cafe
301f
0000
0000
0808
cafe
3407
0000
0000
080d
cafe
3817
0000
0000
0859
cafe
3c08
0000
0000
07e6
cafe
2018
0000
0000
0812
cafe
2400
0000
0000
07bb
cafe
2810
0000
0000
08f4
cafe
2c09
0000
0000
0898
cafe
3019
0000
0000
0811
cafe
3401
0000
0000
07db
cafe
3811
0000
0000
08fe
cafe
3c0a
0000
0000
08d2
cafe
201a
0000
0000
0826
cafe
2402
0000
0000
07a9
cafe
2812
0000
0000
08cf
cafe
2c0b
0000
0000
0932
cafe
301b
0000
0000
07e5
cafe
3403
0000
0000
07f7
cafe
3813
0000
0000
0846
cafe
3c0c
0000
0000
08e9
cafe
201c
0000
0000
07df
cafe
2404
0000
0000
0885
cafe
2814
0000
0000
0852
cafe
2c0d
0000
0000
0894
cafe
301d
0000
0000
084e
cafe
3405
0000
0000
07a5
cafe
3815
0000
0000
0917
cafe
3c0e
0000
0000
08a0
cafe
201e
0000
0000
0854
cafe
2406
0000
0000
0869
cafe
2816
0000
0000
0828
cafe
2c0f
0000
0000
08e6
cafe
301f
0000
0000
085f
cafe
3407
0000
0000
086a
cafe
3817
0000
0000
08bc
cafe
3c08
0000
0000
084d
cafe
2018
0000
0000
0874
cafe
2400
0000
0000
0807
cafe
2810
0000
0000
0962
cafe
2c09
0000
0000
08e8
cafe
3019
0000
0000
085b
cafe
3401
0000
0000
0826
cafe
3811
0000
0000
0952
cafe
3c0a
0000
0000
0915
cafe
201a
0000
0000
0868
cafe
2402
0000
0000
07e3
cafe
2812
0000
0000
090e
cafe
2c0b
0000
0000
096b
cafe
301b
0000
0000
081c
cafe
3403
0000
0000
0833
cafe
3813
0000
0000
0890
-
cafe
3c0c
0000
0000
092d
cafe
201c
0000
0000
0815
cafe
2404
0000
0000
08c5
cafe
2814
0000
0000
0894
cafe
2c0d
0000
0000
08d6
cafe
301d
0000
0000
087a
cafe
3405
0000
0000
07d5
cafe
3815
0000
0000
0959
cafe
3c0e
0000
0000
08d0
cafe
201e
0000
0000
087f
cafe
2406
0000
0000
0897
cafe
2816
0000
0000
085c
cafe
2c0f
0000
0000
0908
cafe
301f
0000
0000
0883
cafe
3407
0000
0000
0887
cafe
3817
0000
0000
08e1
cafe
3c08
0000
0000
0874
cafe
2018
0000
0000
0896
cafe
2400
0000
0000
0829
cafe
2810
0000
0000
0983
cafe
2c09
0000
0000
0910
cafe
3019
0000
0000
0878
cafe
3401
0000
0000
083f
cafe
3811
0000
0000
0980
cafe
3c0a
0000
0000
0934
cafe
201a
0000
0000
0881
cafe
2402
0000
0000
07fc
cafe
2812
0000
0000
0933
cafe
2c0b
0000
0000
0981
cafe
301b
0000
0000
0832
cafe
3403
0000
0000
0840
cafe
3813
0000
0000
08a9
cafe
3c0c
0000
0000
0938
cafe
201c
0000
0000
0820
cafe
2404
0000
0000
08d7
cafe
2814
0000
0000
08a7
cafe
2c0d
0000
0000
08e6
cafe
301d
0000
0000
088a
cafe
3405
0000
0000
07e1
cafe
3815
0000
0000
0960
cafe
3c0e
0000
0000
08e9
cafe
201e
0000
0000
0889
cafe
2406
0000
0000
08a8
cafe
2816
0000
0000
0872
cafe
2c0f
0000
0000
0912
cafe
301f
0000
0000
088b
cafe
3407
0000
0000
0892
cafe
3817
0000
0000
08e8
cafe
3c08
0000
0000
0873
cafe
2018
0000
0000
089c
cafe
2400
0000
0000
082f
cafe
-
2810
0000
0000
0988
cafe
2c09
0000
0000
0917
cafe
3019
0000
0000
0879
cafe
3401
0000
0000
083b
cafe
3811
0000
0000
0985
cafe
3c0a
0000
0000
0941
cafe
201a
0000
0000
088e
cafe
2402
0000
0000
07f7
cafe
2812
0000
0000
093c
cafe
2c0b
0000
0000
098f
cafe
301b
0000
0000
0833
cafe
3403
0000
0000
0842
cafe
3813
0000
0000
08b2
cafe
3c0c
0000
0000
0934
cafe
201c
0000
0000
0820
cafe
2404
0000
0000
08dc
cafe
2814
0000
0000
08a6
cafe
2c0d
0000
0000
08de
cafe
301d
0000
0000
0885
cafe
3405
0000
0000
07d7
cafe
3815
0000
0000
095a
cafe
3c0e
0000
0000
08e6
cafe
201e
0000
0000
0880
cafe
2406
0000
0000
08a2
cafe
2816
0000
0000
0870
cafe
2c0f
0000
0000
090f
cafe
301f
0000
0000
0886
cafe
3407
0000
0000
088d
cafe
3817
0000
0000
08e7
cafe
3c08
0000
0000
0867
cafe
2018
0000
0000
0895
cafe
2400
0000
0000
0829
cafe
2810
0000
0000
0984
cafe
2c09
0000
0000
090a
cafe
3019
0000
0000
086c
cafe
3401
0000
0000
082b
cafe
3811
0000
0000
0978
cafe
3c0a
0000
0000
092f
cafe
201a
0000
0000
0883
cafe
2402
0000
0000
07e7
cafe
2812
0000
0000
092d
cafe
2c0b
0000
0000
0984
cafe
301b
0000
0000
0822
cafe
3403
0000
0000
0833
cafe
3813
0000
0000
089f
cafe
3c0c
0000
0000
092a
cafe
201c
0000
0000
0811
cafe
2404
0000
0000
08d2
cafe
2814
0000
0000
089c
cafe
2c0d
0000
0000
08ca
cafe
301d
0000
0000
087a
cafe
3405
-
0000
0000
07bf
cafe
3815
0000
0000
0945
cafe
3c0e
0000
0000
08d2
cafe
201e
0000
0000
0873
cafe
2406
0000
0000
0888
cafe
2816
0000
0000
0861
cafe
2c0f
0000
0000
08fc
cafe
301f
0000
0000
0876
cafe
3407
0000
0000
087c
cafe
3817
0000
0000
08d2
cafe
3c08
0000
0000
0858
cafe
2018
0000
0000
0890
cafe
2400
0000
0000
0819
cafe
2810
0000
0000
0981
cafe
2c09
0000
0000
0904
cafe
3019
0000
0000
0861
cafe
3401
0000
0000
0817
cafe
3811
0000
0000
096e
cafe
3c0a
0000
0000
091c
cafe
201a
0000
0000
0871
cafe
2402
0000
0000
07d6
cafe
2812
0000
0000
091f
cafe
2c0b
0000
0000
0974
cafe
301b
0000
0000
080d
cafe
3403
0000
0000
081e
cafe
3813
0000
0000
088d
cafe
3c0c
0000
0000
0920
cafe
201c
0000
0000
07fd
cafe
2404
0000
0000
08c7
cafe
2814
0000
0000
0895
cafe
2c0d
0000
0000
08ce
cafe
301d
0000
0000
086a
cafe
3405
0000
0000
07af
cafe
3815
0000
0000
093f
cafe
3c0e
0000
0000
08c9
cafe
201e
0000
0000
085d
cafe
2406
0000
0000
0875
cafe
2816
0000
0000
084a
cafe
2c0f
0000
0000
08df
cafe
301f
0000
0000
085d
cafe
3407
0000
0000
0867
cafe
3817
0000
0000
08bb
cafe
3c08
0000
0000
083e
cafe
2018
0000
0000
087a
cafe
2400
0000
0000
0803
cafe
2810
0000
0000
096f
cafe
2c09
0000
0000
08f2
cafe
3019
0000
0000
084b
cafe
3401
0000
0000
0802
cafe
3811
0000
0000
095e
cafe
3c0a
0000
0000
090c
cafe
201a
0000
-
0000
085e
cafe
2402
0000
0000
07c4
cafe
2812
0000
0000
0911
cafe
2c0b
0000
0000
0963
cafe
301b
0000
0000
07fd
cafe
3403
0000
0000
0805
cafe
3813
0000
0000
0876
cafe
3c0c
0000
0000
0900
cafe
201c
0000
0000
07ee
cafe
2404
0000
0000
08b0
cafe
2814
0000
0000
087a
cafe
2c0d
0000
0000
08bd
cafe
301d
0000
0000
0856
cafe
3405
0000
0000
0799
cafe
3815
0000
0000
0928
cafe
3c0e
0000
0000
08b8
cafe
201e
0000
0000
0847
cafe
2406
0000
0000
0862
cafe
2816
0000
0000
083d
cafe
2c0f
0000
0000
08ca
cafe
301f
0000
0000
0841
cafe
3407
0000
0000
085e
cafe
3817
0000
0000
08a8
cafe
3c08
0000
0000
0820
cafe
2018
0000
0000
085b
cafe
2400
0000
0000
07ea
cafe
2810
0000
0000
0955
cafe
2c09
0000
0000
08d4
cafe
3019
0000
0000
0837
cafe
3401
0000
0000
07f0
cafe
3811
0000
0000
0949
cafe
3c0a
0000
0000
08f9
cafe
201a
0000
0000
0844
cafe
2402
0000
0000
07b3
cafe
2812
0000
0000
08fb
cafe
2c0b
0000
0000
095b
cafe
301b
0000
0000
07e9
cafe
3403
0000
0000
07ee
cafe
3813
0000
0000
086b
cafe
3c0c
0000
0000
08ec
cafe
201c
0000
0000
07d6
cafe
2404
0000
0000
089d
cafe
2814
0000
0000
0861
cafe
2c0d
0000
0000
08a0
cafe
301d
0000
0000
0838
cafe
3405
0000
0000
0774
cafe
3815
0000
0000
0913
cafe
3c0e
0000
0000
089b
cafe
201e
0000
0000
082e
cafe
2406
0000
0000
0848
cafe
2816
0000
0000
0825
cafe
2c0f
0000
0000
-
08bb
cafe
301f
0000
0000
0828
cafe
3407
0000
0000
0848
cafe
3817
0000
0000
0895
cafe
3c08
0000
0000
080d
cafe
2018
0000
0000
084a
cafe
2400
0000
0000
07cc
cafe
2810
0000
0000
094b
cafe
2c09
0000
0000
08be
cafe
3019
0000
0000
081f
cafe
3401
0000
0000
07de
cafe
3811
0000
0000
0935
cafe
3c0a
0000
0000
08e1
cafe
201a
0000
0000
0832
cafe
2402
0000
0000
079e
cafe
2812
0000
0000
08dd
cafe
2c0b
0000
0000
0945
cafe
301b
0000
0000
07d3
cafe
3403
0000
0000
07d3
cafe
3813
0000
0000
0858
cafe
3c0c
0000
0000
08df
cafe
201c
0000
0000
07c2
cafe
2404
0000
0000
088a
cafe
2814
0000
0000
0852
cafe
2c0d
0000
0000
088e
cafe
301d
0000
0000
081d
cafe
3405
0000
0000
0761
cafe
3815
0000
0000
0902
cafe
3c0e
0000
0000
0883
cafe
201e
0000
0000
0815
cafe
2406
0000
0000
0828
cafe
2816
0000
0000
0810
cafe
2c0f
0000
0000
089b
cafe
301f
0000
0000
0810
cafe
3407
0000
0000
082c
cafe
3817
0000
0000
087b
cafe
3c08
0000
0000
07f1
cafe
2018
0000
0000
0836
cafe
2400
0000
0000
07b2
cafe
2810
0000
0000
0935
cafe
2c09
0000
0000
08b5
cafe
3019
0000
0000
080c
cafe
3401
0000
0000
07c9
cafe
3811
0000
0000
0926
cafe
3c0a
0000
0000
08cb
cafe
201a
0000
0000
081f
cafe
2402
0000
0000
0785
cafe
2812
0000
0000
08d0
cafe
2c0b
0000
0000
0928
cafe
301b
0000
0000
07bb
cafe
3403
0000
0000
07b6
cafe
3813
0000
0000
083c
-
cafe
3c0c
0000
0000
08bf
cafe
201c
0000
0000
07ab
cafe
2404
0000
0000
086f
cafe
2814
0000
0000
0831
cafe
2c0d
0000
0000
0877
cafe
301d
0000
0000
080a
cafe
3405
0000
0000
0748
cafe
3815
0000
0000
08eb
cafe
3c0e
0000
0000
0877
cafe
201e
0000
0000
07ff
cafe
2406
0000
0000
0814
cafe
2816
0000
0000
07f9
cafe
2c0f
0000
0000
0883
cafe
301f
0000
0000
07f6
cafe
3407
0000
0000
0813
cafe
3817
0000
0000
0863
cafe
3c08
0000
0000
07cd
cafe
2018
0000
0000
081b
cafe
2400
0000
0000
0798
cafe
2810
0000
0000
0915
cafe
2c09
0000
0000
089e
cafe
3019
0000
0000
07eb
cafe
3401
0000
0000
07a8
cafe
3811
0000
0000
090d
cafe
3c0a
0000
0000
08bb
cafe
201a
0000
0000
0805
cafe
2402
0000
0000
0771
cafe
2812
0000
0000
08be
cafe
2c0b
0000
0000
091b
cafe
301b
0000
0000
07a3
cafe
3403
0000
0000
079f
cafe
3813
0000
0000
0825
cafe
3c0c
0000
0000
08a5
cafe
201c
0000
0000
0791
cafe
2404
0000
0000
0853
cafe
2814
0000
0000
0815
cafe
2c0d
0000
0000
084c
cafe
301d
0000
0000
07f7
cafe
3405
0000
0000
0728
cafe
3815
0000
0000
08cc
cafe
3c0e
0000
0000
0858
cafe
201e
0000
0000
07e9
cafe
2406
0000
0000
07f7
cafe
2816
0000
0000
07e5
cafe
2c0f
0000
0000
0874
cafe
301f
0000
0000
07da
cafe
3407
0000
0000
0804
cafe
3817
0000
0000
084e
cafe
3c08
0000
0000
07b0
cafe
2018
0000
0000
0804
cafe
2400
0000
0000
077f
cafe
-
2810
0000
0000
0904
cafe
2c09
0000
0000
0880
cafe
3019
0000
0000
07d4
cafe
3401
0000
0000
078f
cafe
3811
0000
0000
08f0
cafe
3c0a
0000
0000
08a1
cafe
201a
0000
0000
07f3
cafe
2402
0000
0000
075a
cafe
2812
0000
0000
08a0
cafe
2c0b
0000
0000
08ff
cafe
301b
0000
0000
078b
cafe
3403
0000
0000
0784
cafe
3813
0000
0000
080f
cafe
3c0c
0000
0000
0892
cafe
201c
0000
0000
0776
cafe
2404
0000
0000
083b
cafe
2814
0000
0000
07fb
cafe
2c0d
0000
0000
0828
cafe
301d
0000
0000
07dc
cafe
3405
0000
0000
070c
cafe
3815
0000
0000
08b9
cafe
3c0e
0000
0000
083e
cafe
201e
0000
0000
07cf
cafe
2406
0000
0000
07d8
cafe
2816
0000
0000
07ca
cafe
2c0f
0000
0000
085c
cafe
301f
0000
0000
07c0
cafe
3407
0000
0000
07e9
cafe
3817
0000
0000
0837
cafe
3c08
0000
0000
07a3
cafe
2018
0000
0000
07f0
cafe
2400
0000
0000
0767
cafe
2810
0000
0000
08f5
cafe
2c09
0000
0000
086a
cafe
3019
0000
0000
07c0
cafe
3401
0000
0000
077a
cafe
3811
0000
0000
08db
cafe
3c0a
0000
0000
088c
cafe
201a
0000
0000
07d6
cafe
2402
0000
0000
0743
cafe
2812
0000
0000
087e
cafe
2c0b
0000
0000
08e1
cafe
301b
0000
0000
0774
cafe
3403
0000
0000
076b
cafe
3813
0000
0000
07f4
cafe
3c0c
0000
0000
087d
cafe
201c
0000
0000
075f
cafe
2404
0000
0000
0825
cafe
2814
0000
0000
07e5
cafe
2c0d
0000
0000
0820
cafe
301d
0000
0000
07c8
cafe
3405
-
0000
0000
06f8
cafe
3815
0000
0000
08ad
cafe
3c0e
0000
0000
0828
cafe
201e
0000
0000
07b6
cafe
2406
0000
0000
07c3
cafe
2816
0000
0000
07b2
cafe
2c0f
0000
0000
0841
cafe
301f
0000
0000
07a6
cafe
3407
0000
0000
07cb
cafe
3817
0000
0000
0815
cafe
3c08
0000
0000
078a
cafe
2018
0000
0000
07d2
cafe
2400
0000
0000
0751
cafe
2810
0000
0000
08e3
cafe
2c09
0000
0000
0857
cafe
3019
0000
0000
07a9
cafe
3401
0000
0000
0762
cafe
3811
0000
0000
08cc
cafe
3c0a
0000
0000
087f
cafe
201a
0000
0000
07c5
cafe
2402
0000
0000
072b
cafe
2812
0000
0000
0870
cafe
2c0b
0000
0000
08c6
cafe
301b
0000
0000
075e
cafe
3403
0000
0000
074f
cafe
3813
0000
0000
07d5
cafe
3c0c
0000
0000
085a
cafe
201c
0000
0000
0742
cafe
2404
0000
0000
080f
cafe
2814
0000
0000
07c8
cafe
2c0d
0000
0000
0805
cafe
301d
0000
0000
07b3
cafe
3405
0000
0000
06db
cafe
3815
0000
0000
0892
cafe
3c0e
0000
0000
0818
cafe
201e
0000
0000
079d
cafe
2406
0000
0000
07b7
cafe
2816
0000
0000
07a4
cafe
2c0f
0000
0000
082a
cafe
301f
0000
0000
078b
cafe
3407
0000
0000
07ac
cafe
3817
0000
0000
0806
cafe
3c08
0000
0000
0770
cafe
2018
0000
0000
07b6
cafe
2400
0000
0000
0732
cafe
2810
0000
0000
08c5
cafe
2c09
0000
0000
0834
cafe
3019
0000
0000
0791
cafe
3401
0000
0000
074a
cafe
3811
0000
0000
08b2
cafe
3c0a
0000
0000
086b
cafe
201a
0000
-
0000
07b1
cafe
2402
0000
0000
0713
cafe
2812
0000
0000
085e
cafe
2c0b
0000
0000
08b3
cafe
301b
0000
0000
074c
cafe
3403
0000
0000
0734
cafe
3813
0000
0000
07c6
cafe
3c0c
0000
0000
0843
cafe
201c
0000
0000
072a
cafe
2404
0000
0000
07f4
cafe
2814
0000
0000
07aa
cafe
2c0d
0000
0000
07e2
cafe
301d
0000
0000
079b
cafe
3405
0000
0000
06b7
cafe
3815
0000
0000
0875
cafe
3c0e
0000
0000
07ff
cafe
201e
0000
0000
0786
cafe
2406
0000
0000
079b
cafe
2816
0000
0000
0787
cafe
2c0f
0000
0000
0814
cafe
301f
0000
0000
0773
cafe
3407
0000
0000
079c
cafe
3817
0000
0000
07f7
cafe
3c08
0000
0000
075b
cafe
2018
0000
0000
07a1
cafe
2400
0000
0000
071c
cafe
2810
0000
0000
08b5
cafe
2c09
0000
0000
0818
cafe
3019
0000
0000
0779
cafe
3401
0000
0000
0730
cafe
3811
0000
0000
0891
cafe
3c0a
0000
0000
084d
cafe
201a
0000
0000
0798
cafe
2402
0000
0000
06f7
cafe
2812
0000
0000
0848
cafe
2c0b
0000
0000
089f
cafe
301b
0000
0000
072e
cafe
3403
0000
0000
071b
cafe
3813
0000
0000
07b1
cafe
3c0c
0000
0000
0837
cafe
201c
0000
0000
071a
cafe
2404
0000
0000
07e2
cafe
2814
0000
0000
079b
cafe
2c0d
0000
0000
07cc
cafe
301d
0000
0000
0788
cafe
3405
0000
0000
06a1
cafe
3815
0000
0000
0856
cafe
3c0e
0000
0000
07de
cafe
201e
0000
0000
076d
cafe
2406
0000
0000
0780
cafe
2816
0000
0000
076b
cafe
2c0f
0000
0000
-
07fb
cafe
301f
0000
0000
0758
cafe
3407
0000
0000
0784
cafe
3817
0000
0000
07dd
cafe
3c08
0000
0000
074a
cafe
2018
0000
0000
0791
cafe
2400
0000
0000
0707
cafe
2810
0000
0000
08aa
cafe
2c09
0000
0000
0804
cafe
3019
0000
0000
0767
cafe
3401
0000
0000
0720
cafe
3811
0000
0000
088d
cafe
3c0a
0000
0000
0838
cafe
201a
0000
0000
0781
cafe
2402
0000
0000
06db
cafe
2812
0000
0000
082f
cafe
2c0b
0000
0000
088a
cafe
301b
0000
0000
071a
cafe
3403
0000
0000
0700
cafe
3813
0000
0000
0797
cafe
3c0c
0000
0000
0822
cafe
201c
0000
0000
0706
cafe
2404
0000
0000
07cf
cafe
2814
0000
0000
078c
cafe
2c0d
0000
0000
07c9
cafe
301d
0000
0000
076f
cafe
3405
0000
0000
0693
cafe
3815
0000
0000
0849
cafe
3c0e
0000
0000
07cf
cafe
201e
0000
0000
0757
cafe
2406
0000
0000
0770
cafe
2816
0000
0000
075e
cafe
2c0f
0000
0000
07e3
cafe
301f
0000
0000
0741
cafe
3407
0000
0000
0773
cafe
3817
0000
0000
07c8
cafe
3c08
0000
0000
072a
cafe
2018
0000
0000
0774
cafe
2400
0000
0000
06f0
cafe
2810
0000
0000
0891
cafe
2c09
0000
0000
07f5
cafe
3019
0000
0000
074f
cafe
3401
0000
0000
0709
cafe
3811
0000
0000
087c
cafe
3c0a
0000
0000
0835
cafe
201a
0000
0000
0774
cafe
2402
0000
0000
06c9
cafe
2812
0000
0000
0823
cafe
2c0b
0000
0000
087f
cafe
301b
0000
0000
070b
cafe
3403
0000
0000
06eb
cafe
3813
0000
0000
0785
-
cafe
3c0c
0000
0000
080b
cafe
201c
0000
0000
06ef
cafe
2404
0000
0000
07ba
cafe
2814
0000
0000
0773
cafe
2c0d
0000
0000
07a9
cafe
301d
0000
0000
075d
cafe
3405
0000
0000
0671
cafe
3815
0000
0000
0831
cafe
3c0e
0000
0000
07b0
cafe
201e
0000
0000
0738
cafe
2406
0000
0000
0758
cafe
2816
0000
0000
0745
cafe
2c0f
0000
0000
07d6
cafe
301f
0000
0000
072b
cafe
3407
0000
0000
0762
cafe
3817
0000
0000
07b8
cafe
3c08
0000
0000
070a
cafe
2018
0000
0000
075b
cafe
2400
0000
0000
06d3
cafe
2810
0000
0000
0882
cafe
2c09
0000
0000
07d4
cafe
3019
0000
0000
0731
cafe
3401
0000
0000
06f0
cafe
3811
0000
0000
0855
cafe
3c0a
0000
0000
0818
cafe
201a
0000
0000
0754
cafe
2402
0000
0000
06a9
cafe
2812
0000
0000
0801
cafe
2c0b
0000
0000
0863
cafe
301b
0000
0000
06f8
cafe
3403
0000
0000
06d2
cafe
3813
0000
0000
0769
cafe
3c0c
0000
0000
07f6
cafe
201c
0000
0000
06d8
cafe
2404
0000
0000
07ab
cafe
2814
0000
0000
075c
cafe
2c0d
0000
0000
0792
cafe
301d
0000
0000
074a
cafe
3405
0000
0000
0651
cafe
3815
0000
0000
0817
cafe
3c0e
0000
0000
0792
cafe
201e
0000
0000
071f
cafe
2406
0000
0000
0737
cafe
2816
0000
0000
072a
cafe
2c0f
0000
0000
07bc
cafe
301f
0000
0000
0714
cafe
3407
0000
0000
0748
cafe
3817
0000
0000
079a
cafe
3c08
0000
0000
06f7
cafe
2018
0000
0000
074d
cafe
2400
0000
0000
06bc
cafe
-
2810
0000
0000
0871
cafe
2c09
0000
0000
07c9
cafe
3019
0000
0000
071d
cafe
3401
0000
0000
06d8
cafe
3811
0000
0000
0842
cafe
3c0a
0000
0000
07ff
cafe
201a
0000
0000
0737
cafe
2402
0000
0000
068e
cafe
2812
0000
0000
07e3
cafe
2c0b
0000
0000
0847
cafe
301b
0000
0000
06dd
cafe
3403
0000
0000
06b4
cafe
3813
0000
0000
074d
cafe
3c0c
0000
0000
07df
cafe
201c
0000
0000
06c2
cafe
2404
0000
0000
0798
cafe
2814
0000
0000
0749
cafe
2c0d
0000
0000
0785
cafe
301d
0000
0000
0733
cafe
3405
0000
0000
063e
cafe
3815
0000
0000
0807
cafe
3c0e
0000
0000
077c
cafe
201e
0000
0000
070b
cafe
2406
0000
0000
071e
cafe
2816
0000
0000
0711
cafe
2c0f
0000
0000
0799
cafe
301f
0000
0000
06fc
cafe
3407
0000
0000
072e
cafe
3817
0000
0000
0780
cafe
3c08
0000
0000
06dc
cafe
2018
0000
0000
0735
cafe
2400
0000
0000
06a2
cafe
2810
0000
0000
0856
cafe
2c09
0000
0000
07b7
cafe
3019
0000
0000
070f
cafe
3401
0000
0000
06c4
cafe
3811
0000
0000
082e
cafe
3c0a
0000
0000
07ec
cafe
201a
0000
0000
0729
cafe
2402
0000
0000
0678
cafe
2812
0000
0000
07d6
cafe
2c0b
0000
0000
0832
cafe
301b
0000
0000
06c5
cafe
3403
0000
0000
069c
cafe
3813
0000
0000
0733
cafe
3c0c
0000
0000
07be
cafe
201c
0000
0000
06af
cafe
2404
0000
0000
077f
cafe
2814
0000
0000
0728
cafe
2c0d
0000
0000
0772
cafe
301d
0000
0000
071f
cafe
3405
-
0000
0000
0622
cafe
3815
0000
0000
07ed
cafe
3c0e
0000
0000
0771
cafe
201e
0000
0000
06f6
cafe
2406
0000
0000
0708
cafe
2816
0000
0000
0704
cafe
2c0f
0000
0000
0786
cafe
301f
0000
0000
06e4
cafe
3407
0000
0000
071b
cafe
3817
0000
0000
0770
cafe
3c08
0000
0000
06c3
cafe
2018
0000
0000
071d
cafe
2400
0000
0000
0687
cafe
2810
0000
0000
0841
cafe
2c09
0000
0000
079e
cafe
3019
0000
0000
06f5
cafe
3401
0000
0000
06b7
cafe
3811
0000
0000
0816
cafe
3c0a
0000
0000
07da
cafe
201a
0000
0000
0715
cafe
2402
0000
0000
065c
cafe
2812
0000
0000
07c0
cafe
2c0b
0000
0000
0826
cafe
301b
0000
0000
06ad
cafe
3403
0000
0000
0686
cafe
3813
0000
0000
0727
cafe
3c0c
0000
0000
07ab
cafe
201c
0000
0000
068a
cafe
2404
0000
0000
0766
cafe
2814
0000
0000
0710
cafe
2c0d
0000
0000
0757
cafe
301d
0000
0000
0709
cafe
3405
0000
0000
0610
cafe
3815
0000
0000
07cf
cafe
3c0e
0000
0000
075a
cafe
201e
0000
0000
06d6
cafe
2406
0000
0000
06eb
cafe
2816
0000
0000
06ef
cafe
2c0f
0000
0000
0771
cafe
301f
0000
0000
06d4
cafe
3407
0000
0000
0706
cafe
3817
0000
0000
075b
cafe
3c08
0000
0000
06b2
cafe
2018
0000
0000
070d
cafe
2400
0000
0000
066a
cafe
2810
0000
0000
0839
cafe
2c09
0000
0000
0788
cafe
3019
0000
0000
06dd
cafe
3401
0000
0000
06a2
cafe
3811
0000
0000
0801
cafe
3c0a
0000
0000
07bd
cafe
201a
0000
-
0000
0701
cafe
2402
0000
0000
0644
cafe
2812
0000
0000
07a2
cafe
2c0b
0000
0000
080d
cafe
301b
0000
0000
0699
cafe
3403
0000
0000
066c
cafe
3813
0000
0000
0710
cafe
3c0c
0000
0000
07a2
cafe
201c
0000
0000
0673
cafe
2404
0000
0000
0754
cafe
2814
0000
0000
06fd
cafe
2c0d
0000
0000
0743
cafe
301d
0000
0000
06f5
cafe
3405
0000
0000
05f9
cafe
3815
0000
0000
07bf
cafe
3c0e
0000
0000
0739
cafe
201e
0000
0000
06c3
cafe
2406
0000
0000
06c7
cafe
2816
0000
0000
06d4
cafe
2c0f
0000
0000
074c
cafe
301f
0000
0000
06bb
cafe
3407
0000
0000
06e8
cafe
3817
0000
0000
0741
cafe
3c08
0000
0000
0693
cafe
2018
0000
0000
06f6
cafe
2400
0000
0000
0652
cafe
2810
0000
0000
0827
cafe
2c09
0000
0000
0777
cafe
3019
0000
0000
06cc
cafe
3401
0000
0000
0686
cafe
3811
0000
0000
07ec
cafe
3c0a
0000
0000
07a2
cafe
201a
0000
0000
06e5
cafe
2402
0000
0000
0631
cafe
2812
0000
0000
078c
cafe
2c0b
0000
0000
07ed
cafe
301b
0000
0000
0681
cafe
3403
0000
0000
0653
cafe
3813
0000
0000
06ed
cafe
3c0c
0000
0000
0787
cafe
201c
0000
0000
0658
cafe
2404
0000
0000
073e
cafe
2814
0000
0000
06dd
cafe
2c0d
0000
0000
072e
cafe
301d
0000
0000
06e2
cafe
3405
0000
0000
05db
cafe
3815
0000
0000
07ab
cafe
3c0e
0000
0000
0729
cafe
201e
0000
0000
06ac
cafe
2406
0000
0000
06b4
cafe
2816
0000
0000
06c0
cafe
2c0f
0000
0000
-
0732
cafe
301f
0000
0000
06a8
cafe
3407
0000
0000
06ca
cafe
3817
0000
0000
0728
cafe
3c08
0000
0000
067b
cafe
2018
0000
0000
06e4
cafe
2400
0000
0000
0635
cafe
2810
0000
0000
0815
cafe
2c09
0000
0000
0768
cafe
3019
0000
0000
06b7
cafe
3401
0000
0000
0675
cafe
3811
0000
0000
07d2
cafe
3c0a
0000
0000
0798
cafe
201a
0000
0000
06d1
cafe
2402
0000
0000
061f
cafe
2812
0000
0000
0782
cafe
2c0b
0000
0000
07d2
cafe
301b
0000
0000
0670
cafe
3403
0000
0000
0641
cafe
3813
0000
0000
06df
cafe
3c0c
0000
0000
076d
cafe
201c
0000
0000
063f
cafe
2404
0000
0000
072a
cafe
2814
0000
0000
06c1
cafe
2c0d
0000
0000
070f
cafe
301d
0000
0000
06ce
cafe
3405
0000
0000
05bc
cafe
3815
0000
0000
0790
cafe
3c0e
0000
0000
071b
cafe
201e
0000
0000
0696
cafe
2406
0000
0000
06a3
cafe
2816
0000
0000
06ae
cafe
2c0f
0000
0000
0725
cafe
301f
0000
0000
0690
cafe
3407
0000
0000
06b7
cafe
3817
0000
0000
0719
cafe
3c08
0000
0000
0666
cafe
2018
0000
0000
06cb
cafe
2400
0000
0000
061a
cafe
2810
0000
0000
07fb
cafe
2c09
0000
0000
074a
cafe
3019
0000
0000
069e
cafe
3401
0000
0000
0662
cafe
3811
0000
0000
07b3
cafe
3c0a
0000
0000
0780
cafe
201a
0000
0000
06ba
cafe
2402
0000
0000
0609
cafe
2812
0000
0000
0765
cafe
2c0b
0000
0000
07bf
cafe
301b
0000
0000
065a
cafe
3403
0000
0000
062b
cafe
3813
0000
0000
06cb
-
cafe
3c0c
0000
0000
0758
cafe
201c
0000
0000
062d
cafe
2404
0000
0000
0716
cafe
2814
0000
0000
06ac
cafe
2c0d
0000
0000
06f1
cafe
301d
0000
0000
06bd
cafe
3405
0000
0000
059d
cafe
3815
0000
0000
0773
cafe
3c0e
0000
0000
0700
cafe
201e
0000
0000
067f
cafe
2406
0000
0000
068a
cafe
2816
0000
0000
069e
cafe
2c0f
0000
0000
070f
cafe
301f
0000
0000
0674
cafe
3407
0000
0000
06a5
cafe
3817
0000
0000
0704
cafe
3c08
0000
0000
0658
cafe
2018
0000
0000
06ba
cafe
2400
0000
0000
0605
cafe
2810
0000
0000
07f2
cafe
2c09
0000
0000
0732
cafe
3019
0000
0000
068b
cafe
3401
0000
0000
0646
cafe
3811
0000
0000
079e
cafe
3c0a
0000
0000
076a
cafe
201a
0000
0000
06a9
cafe
2402
0000
0000
05ec
cafe
2812
0000
0000
074a
cafe
2c0b
0000
0000
07a6
cafe
301b
0000
0000
0642
cafe
3403
0000
0000
0618
cafe
3813
0000
0000
06b9
cafe
3c0c
0000
0000
0744
cafe
201c
0000
0000
0617
cafe
2404
0000
0000
0708
cafe
2814
0000
0000
06a6
cafe
2c0d
0000
0000
06e1
cafe
301d
0000
0000
06ac
cafe
3405
0000
0000
0589
cafe
3815
0000
0000
0760
cafe
3c0e
0000
0000
06ea
cafe
201e
0000
0000
0668
cafe
2406
0000
0000
0674
cafe
2816
0000
0000
067f
cafe
2c0f
0000
0000
06f2
cafe
301f
0000
0000
065e
cafe
3407
0000
0000
068f
cafe
3817
0000
0000
06e9
cafe
3c08
0000
0000
063d
cafe
2018
0000
0000
069e
cafe
2400
0000
0000
05ed
cafe
-
2810
0000
0000
07d9
cafe
2c09
0000
0000
0724
cafe
3019
0000
0000
0677
cafe
3401
0000
0000
0633
cafe
3811
0000
0000
078f
cafe
3c0a
0000
0000
0756
cafe
201a
0000
0000
0694
cafe
2402
0000
0000
05d1
cafe
2812
0000
0000
0732
cafe
2c0b
0000
0000
0793
cafe
301b
0000
0000
062d
cafe
3403
0000
0000
0600
cafe
3813
0000
0000
069f
cafe
3c0c
0000
0000
072e
cafe
201c
0000
0000
0600
cafe
2404
0000
0000
06ec
cafe
2814
0000
0000
0686
cafe
2c0d
0000
0000
06cf
cafe
301d
0000
0000
0698
cafe
3405
0000
0000
0571
cafe
3815
0000
0000
074d
cafe
3c0e
0000
0000
06dc
cafe
201e
0000
0000
0651
cafe
2406
0000
0000
0667
cafe
2816
0000
0000
0672
cafe
2c0f
0000
0000
06dd
cafe
301f
0000
0000
0644
cafe
3407
0000
0000
067c
cafe
3817
0000
0000
06d5
cafe
3c08
0000
0000
0621
cafe
2018
0000
0000
068a
cafe
2400
0000
0000
05d2
cafe
2810
0000
0000
07be
cafe
2c09
0000
0000
070b
cafe
3019
0000
0000
0661
cafe
3401
0000
0000
061f
cafe
3811
0000
0000
077b
cafe
3c0a
0000
0000
0749
cafe
201a
0000
0000
0683
cafe
2402
0000
0000
05bd
cafe
2812
0000
0000
0721
cafe
2c0b
0000
0000
0783
cafe
301b
0000
0000
0617
cafe
3403
0000
0000
05ee
cafe
3813
0000
0000
068e
cafe
3c0c
0000
0000
0713
cafe
201c
0000
0000
05f0
cafe
2404
0000
0000
06d6
cafe
2814
0000
0000
066d
cafe
2c0d
0000
0000
06ad
cafe
301d
0000
0000
067b
cafe
3405
-
0000
0000
055b
cafe
3815
0000
0000
073b
cafe
3c0e
0000
0000
06c5
cafe
201e
0000
0000
0639
cafe
2406
0000
0000
0650
cafe
2816
0000
0000
0654
cafe
2c0f
0000
0000
06d0
cafe
301f
0000
0000
0635
cafe
3407
0000
0000
0669
cafe
3817
0000
0000
06c9
cafe
3c08
0000
0000
0609
cafe
2018
0000
0000
0679
cafe
2400
0000
0000
05c1
cafe
2810
0000
0000
07a4
cafe
2c09
0000
0000
06e5
cafe
3019
0000
0000
0646
cafe
3401
0000
0000
0608
cafe
3811
0000
0000
075d
cafe
3c0a
0000
0000
0731
cafe
201a
0000
0000
0672
cafe
2402
0000
0000
05a5
cafe
2812
0000
0000
0707
cafe
2c0b
0000
0000
0770
cafe
301b
0000
0000
0601
cafe
3403
0000
0000
05d3
cafe
3813
0000
0000
067a
cafe
3c0c
0000
0000
06f5
cafe
201c
0000
0000
05d9
cafe
2404
0000
0000
06bd
cafe
2814
0000
0000
0651
cafe
2c0d
0000
0000
0691
cafe
301d
0000
0000
0669
cafe
3405
0000
0000
0542
cafe
3815
0000
0000
071d
cafe
3c0e
0000
0000
06b1
cafe
201e
0000
0000
0628
cafe
2406
0000
0000
0634
cafe
2816
0000
0000
063c
cafe
2c0f
0000
0000
06b6
cafe
301f
0000
0000
061b
cafe
3407
0000
0000
065a
cafe
3817
0000
0000
06bd
cafe
3c08
0000
0000
05f7
cafe
2018
0000
0000
066a
cafe
2400
0000
0000
05ac
cafe
2810
0000
0000
0797
cafe
2c09
0000
0000
06d3
cafe
3019
0000
0000
0630
cafe
3401
0000
0000
05ed
cafe
3811
0000
0000
0751
cafe
3c0a
0000
0000
071a
cafe
201a
0000
-
0000
065b
cafe
2402
0000
0000
0593
cafe
2812
0000
0000
06ea
cafe
2c0b
0000
0000
0762
cafe
301b
0000
0000
05e9
cafe
3403
0000
0000
05be
cafe
3813
0000
0000
066b
cafe
3c0c
0000
0000
06ef
cafe
201c
0000
0000
05c7
cafe
2404
0000
0000
06b2
cafe
2814
0000
0000
0645
cafe
2c0d
0000
0000
0686
cafe
301d
0000
0000
0651
cafe
3405
0000
0000
0533
cafe
3815
0000
0000
0718
cafe
3c0e
0000
0000
0691
cafe
201e
0000
0000
0612
cafe
2406
0000
0000
0621
cafe
2816
0000
0000
0629
cafe
2c0f
0000
0000
069e
cafe
301f
0000
0000
0603
cafe
3407
0000
0000
0642
cafe
3817
0000
0000
06aa
cafe
3c08
0000
0000
05e3
cafe
2018
0000
0000
0656
cafe
2400
0000
0000
059b
cafe
2810
0000
0000
0787
cafe
2c09
0000
0000
06ce
cafe
3019
0000
0000
0628
cafe
3401
0000
0000
05db
cafe
3811
0000
0000
074b
cafe
3c0a
0000
0000
0705
cafe
201a
0000
0000
063d
cafe
2402
0000
0000
0580
cafe
2812
0000
0000
06d9
cafe
2c0b
0000
0000
074d
cafe
301b
0000
0000
05d5
cafe
3403
0000
0000
059e
cafe
3813
0000
0000
0652
cafe
3c0c
0000
0000
06da
cafe
201c
0000
0000
05b5
cafe
2404
0000
0000
0697
cafe
2814
0000
0000
062f
cafe
2c0d
0000
0000
067b
cafe
301d
0000
0000
063f
cafe
3405
0000
0000
051e
cafe
3815
0000
0000
0707
cafe
3c0e
0000
0000
0685
cafe
201e
0000
0000
0604
cafe
2406
0000
0000
0615
cafe
2816
0000
0000
0616
cafe
2c0f
0000
0000
-
0683
cafe
301f
0000
0000
05ea
cafe
3407
0000
0000
062f
cafe
3817
0000
0000
0691
cafe
3c08
0000
0000
05c7
cafe
2018
0000
0000
063b
cafe
2400
0000
0000
0585
cafe
2810
0000
0000
076c
cafe
2c09
0000
0000
06b5
cafe
3019
0000
0000
0616
cafe
3401
0000
0000
05c1
cafe
3811
0000
0000
073e
cafe
3c0a
0000
0000
06fe
cafe
201a
0000
0000
0632
cafe
2402
0000
0000
0570
cafe
2812
0000
0000
06d4
cafe
2c0b
0000
0000
0737
cafe
301b
0000
0000
05c1
cafe
3403
0000
0000
0586
cafe
3813
0000
0000
063f
cafe
3c0c
0000
0000
06be
cafe
201c
0000
0000
05a1
cafe
2404
0000
0000
0679
cafe
2814
0000
0000
0619
cafe
2c0d
0000
0000
0663
cafe
301d
0000
0000
0626
cafe
3405
0000
0000
0507
cafe
3815
0000
0000
06ec
cafe
3c0e
0000
0000
0677
cafe
201e
0000
0000
05ef
cafe
2406
0000
0000
05fd
cafe
2816
0000
0000
05fe
cafe
2c0f
0000
0000
0671
cafe
301f
0000
0000
05d8
cafe
3407
0000
0000
0621
cafe
3817
0000
0000
067e
cafe
3c08
0000
0000
05ae
cafe
2018
0000
0000
0620
cafe
2400
0000
0000
056d
cafe
2810
0000
0000
0755
cafe
2c09
0000
0000
069c
cafe
3019
0000
0000
05ff
cafe
3401
0000
0000
05b0
cafe
3811
0000
0000
071c
cafe
3c0a
0000
0000
06e2
cafe
201a
0000
0000
0621
cafe
2402
0000
0000
0557
cafe
2812
0000
0000
06b7
cafe
2c0b
0000
0000
0726
cafe
301b
0000
0000
05a9
cafe
3403
0000
0000
0573
cafe
3813
0000
0000
0633
-
cafe
3c0c
0000
0000
06ad
cafe
201c
0000
0000
058f
cafe
2404
0000
0000
0666
cafe
2814
0000
0000
0606
cafe
2c0d
0000
0000
064d
cafe
301d
0000
0000
0610
cafe
3405
0000
0000
04f1
cafe
3815
0000
0000
06d6
cafe
3c0e
0000
0000
065b
cafe
201e
0000
0000
05e0
cafe
2406
0000
0000
05e8
cafe
2816
0000
0000
05ea
cafe
2c0f
0000
0000
065e
cafe
301f
0000
0000
05c0
cafe
3407
0000
0000
060b
cafe
3817
0000
0000
0665
cafe
3c08
0000
0000
05a1
cafe
2018
0000
0000
0615
cafe
2400
0000
0000
055e
cafe
2810
0000
0000
0745
cafe
2c09
0000
0000
0687
cafe
3019
0000
0000
05f0
cafe
3401
0000
0000
059d
cafe
3811
0000
0000
070c
cafe
3c0a
0000
0000
06c4
cafe
201a
0000
0000
060b
cafe
2402
0000
0000
053f
cafe
2812
0000
0000
069c
cafe
2c0b
0000
0000
0712
cafe
301b
0000
0000
0590
cafe
3403
0000
0000
055b
cafe
3813
0000
0000
0615
cafe
3c0c
0000
0000
069a
cafe
201c
0000
0000
0577
cafe
2404
0000
0000
0650
cafe
2814
0000
0000
05f0
cafe
2c0d
0000
0000
063c
cafe
301d
0000
0000
05fb
cafe
3405
0000
0000
04e0
cafe
3815
0000
0000
06cc
cafe
3c0e
0000
0000
063f
cafe
201e
0000
0000
05c7
cafe
2406
0000
0000
05cc
cafe
2816
0000
0000
05c9
cafe
2c0f
0000
0000
0641
cafe
301f
0000
0000
05ae
cafe
3407
0000
0000
05f2
cafe
3817
0000
0000
0652
cafe
3c08
0000
0000
0583
cafe
2018
0000
0000
0600
cafe
2400
0000
0000
0544
cafe
-
2810
0000
0000
072a
cafe
2c09
0000
0000
067a
cafe
3019
0000
0000
05d9
cafe
3401
0000
0000
058a
cafe
3811
0000
0000
0704
cafe
3c0a
0000
0000
06b0
cafe
201a
0000
0000
05f8
cafe
2402
0000
0000
0526
cafe
2812
0000
0000
068d
cafe
2c0b
0000
0000
06f5
cafe
301b
0000
0000
0580
cafe
3403
0000
0000
0549
cafe
3813
0000
0000
05f7
cafe
3c0c
0000
0000
067e
cafe
201c
0000
0000
055f
cafe
2404
0000
0000
063b
cafe
2814
0000
0000
05d1
cafe
2c0d
0000
0000
0627
cafe
301d
0000
0000
05ed
cafe
3405
0000
0000
04c2
cafe
3815
0000
0000
06b1
cafe
3c0e
0000
0000
0628
cafe
201e
0000
0000
05b0
cafe
2406
0000
0000
05bd
cafe
2816
0000
0000
05bc
cafe
2c0f
0000
0000
0624
cafe
301f
0000
0000
059b
cafe
3407
0000
0000
05d5
cafe
3817
0000
0000
0636
cafe
3c08
0000
0000
056a
cafe
2018
0000
0000
05eb
cafe
2400
0000
0000
052f
cafe
2810
0000
0000
0714
cafe
2c09
0000
0000
066c
cafe
3019
0000
0000
05c5
cafe
3401
0000
0000
0577
cafe
3811
0000
0000
06ef
cafe
3c0a
0000
0000
06a6
cafe
201a
0000
0000
05e9
cafe
2402
0000
0000
0518
cafe
2812
0000
0000
0681
cafe
2c0b
0000
0000
06e2
cafe
301b
0000
0000
0571
cafe
3403
0000
0000
0535
cafe
3813
0000
0000
05e5
cafe
3c0c
0000
0000
0669
cafe
201c
0000
0000
054c
cafe
2404
0000
0000
0628
cafe
2814
0000
0000
05bb
cafe
2c0d
0000
0000
0615
cafe
301d
0000
0000
05d7
cafe
3405
-
0000
0000
04b1
cafe
3815
0000
0000
069b
cafe
3c0e
0000
0000
0621
cafe
201e
0000
0000
0599
cafe
2406
0000
0000
05b4
cafe
2816
0000
0000
05b1
cafe
2c0f
0000
0000
061a
cafe
301f
0000
0000
0582
cafe
3407
0000
0000
05cc
cafe
3817
0000
0000
062d
cafe
3c08
0000
0000
0553
cafe
2018
0000
0000
05d8
cafe
2400
0000
0000
0519
cafe
2810
0000
0000
070b
cafe
2c09
0000
0000
065a
cafe
3019
0000
0000
05ab
cafe
3401
0000
0000
055e
cafe
3811
0000
0000
06d7
cafe
3c0a
0000
0000
0698
cafe
201a
0000
0000
05d5
cafe
2402
0000
0000
0503
cafe
2812
0000
0000
066e
cafe
2c0b
0000
0000
06da
cafe
301b
0000
0000
0561
cafe
3403
0000
0000
0529
cafe
3813
0000
0000
05d6
cafe
3c0c
0000
0000
0659
cafe
201c
0000
0000
053c
cafe
2404
0000
0000
061b
cafe
2814
0000
0000
05ab
cafe
2c0d
0000
0000
05ff
cafe
301d
0000
0000
05c8
cafe
3405
0000
0000
049d
cafe
3815
0000
0000
068d
cafe
3c0e
0000
0000
060a
cafe
201e
0000
0000
0585
cafe
2406
0000
0000
0597
cafe
2816
0000
0000
059f
cafe
2c0f
0000
0000
0607
cafe
301f
0000
0000
056a
cafe
3407
0000
0000
05ba
cafe
3817
0000
0000
0618
cafe
3c08
0000
0000
053f
cafe
2018
0000
0000
05cb
cafe
2400
0000
0000
04fe
cafe
2810
0000
0000
0700
cafe
2c09
0000
0000
0649
cafe
3019
0000
0000
0594
cafe
3401
0000
0000
054f
cafe
3811
0000
0000
06c1
cafe
3c0a
0000
0000
067d
cafe
201a
0000
-
0000
05bf
cafe
2402
0000
0000
04ed
cafe
2812
0000
0000
0652
cafe
2c0b
0000
0000
06c6
cafe
301b
0000
0000
054d
cafe
3403
0000
0000
0515
cafe
3813
0000
0000
05c3
cafe
3c0c
0000
0000
064e
cafe
201c
0000
0000
0522
cafe
2404
0000
0000
0609
cafe
2814
0000
0000
05a0
cafe
2c0d
0000
0000
05eb
cafe
301d
0000
0000
05bb
cafe
3405
0000
0000
048d
cafe
3815
0000
0000
067d
cafe
3c0e
0000
0000
05f3
cafe
201e
0000
0000
0574
cafe
2406
0000
0000
0581
cafe
2816
0000
0000
0588
cafe
2c0f
0000
0000
05ee
cafe
301f
0000
0000
0550
cafe
3407
0000
0000
05a3
cafe
3817
0000
0000
0605
cafe
3c08
0000
0000
0536
cafe
2018
0000
0000
05b5
cafe
2400
0000
0000
04eb
cafe
2810
0000
0000
06f0
cafe
2c09
0000
0000
063b
cafe
3019
0000
0000
0586
cafe
3401
0000
0000
0542
cafe
3811
0000
0000
06b7
cafe
3c0a
0000
0000
0667
cafe
201a
0000
0000
05a9
cafe
2402
0000
0000
04d9
cafe
2812
0000
0000
0644
cafe
2c0b
0000
0000
06aa
cafe
301b
0000
0000
053b
cafe
3403
0000
0000
04f8
cafe
3813
0000
0000
05a5
cafe
3c0c
0000
0000
0639
cafe
201c
0000
0000
0514
cafe
2404
0000
0000
05f3
cafe
2814
0000
0000
058a
cafe
2c0d
0000
0000
05df
cafe
301d
0000
0000
05a8
cafe
3405
0000
0000
047e
cafe
3815
0000
0000
066c
cafe
3c0e
0000
0000
05ee
cafe
201e
0000
0000
0564
cafe
2406
0000
0000
056f
cafe
2816
0000
0000
057e
cafe
2c0f
0000
0000
-
05da
cafe
301f
0000
0000
0538
cafe
3407
0000
0000
0592
cafe
3817
0000
0000
05f1
cafe
3c08
0000
0000
051c
cafe
2018
0000
0000
05a0
cafe
2400
0000
0000
04d5
cafe
2810
0000
0000
06d8
cafe
2c09
0000
0000
0627
cafe
3019
0000
0000
0571
cafe
3401
0000
0000
0532
cafe
3811
0000
0000
06a2
cafe
3c0a
0000
0000
065f
cafe
201a
0000
0000
0595
cafe
2402
0000
0000
04cb
cafe
2812
0000
0000
0635
cafe
2c0b
0000
0000
069f
cafe
301b
0000
0000
0527
cafe
3403
0000
0000
04e8
cafe
3813
0000
0000
059f
cafe
3c0c
0000
0000
061b
cafe
201c
0000
0000
0500
cafe
2404
0000
0000
05d8
cafe
2814
0000
0000
0578
cafe
2c0d
0000
0000
05c9
cafe
301d
0000
0000
0594
cafe
3405
0000
0000
0465
cafe
3815
0000
0000
0654
cafe
3c0e
0000
0000
05e0
cafe
201e
0000
0000
054c
cafe
2406
0000
0000
0556
cafe
2816
0000
0000
0567
cafe
2c0f
0000
0000
05c9
cafe
301f
0000
0000
0526
cafe
3407
0000
0000
0583
cafe
3817
0000
0000
05d8
cafe
3c08
0000
0000
050a
cafe
2018
0000
0000
058a
cafe
2400
0000
0000
04bf
cafe
2810
0000
0000
06cc
cafe
2c09
0000
0000
0609
cafe
3019
0000
0000
055f
cafe
3401
0000
0000
0519
cafe
3811
0000
0000
0685
cafe
3c0a
0000
0000
0643
cafe
201a
0000
0000
0580
cafe
2402
0000
0000
04bd
cafe
2812
0000
0000
061c
cafe
2c0b
0000
0000
068a
cafe
301b
0000
0000
051a
cafe
3403
0000
0000
04d1
cafe
3813
0000
0000
0587
-
cafe
3c0c
0000
0000
060c
cafe
201c
0000
0000
04ed
cafe
2404
0000
0000
05c9
cafe
2814
0000
0000
0564
cafe
2c0d
0000
0000
05b4
cafe
301d
0000
0000
057e
cafe
3405
0000
0000
044d
cafe
3815
0000
0000
063c
cafe
3c0e
0000
0000
05c1
cafe
201e
0000
0000
0539
cafe
2406
0000
0000
0541
cafe
2816
0000
0000
0552
cafe
2c0f
0000
0000
05ac
cafe
301f
0000
0000
0512
cafe
3407
0000
0000
056b
cafe
3817
0000
0000
05ba
cafe
3c08
0000
0000
04f6
cafe
2018
0000
0000
0574
cafe
2400
0000
0000
04ab
cafe
2810
0000
0000
06bf
cafe
2c09
0000
0000
05f0
cafe
3019
0000
0000
054b
cafe
3401
0000
0000
0505
cafe
3811
0000
0000
0673
cafe
3c0a
0000
0000
062c
cafe
201a
0000
0000
0567
cafe
2402
0000
0000
04a4
cafe
2812
0000
0000
0606
cafe
2c0b
0000
0000
066f
cafe
301b
0000
0000
0508
cafe
3403
0000
0000
04be
cafe
3813
0000
0000
0570
cafe
3c0c
0000
0000
05fd
cafe
201c
0000
0000
04d9
cafe
2404
0000
0000
05bb
cafe
2814
0000
0000
0550
cafe
2c0d
0000
0000
05a9
cafe
301d
0000
0000
056f
cafe
3405
0000
0000
043e
cafe
3815
0000
0000
062f
cafe
3c0e
0000
0000
05ad
cafe
201e
0000
0000
0520
cafe
2406
0000
0000
0534
cafe
2816
0000
0000
0541
cafe
2c0f
0000
0000
059c
cafe
301f
0000
0000
0500
cafe
3407
0000
0000
0553
cafe
3817
0000
0000
05a5
cafe
3c08
0000
0000
04e8
cafe
2018
0000
0000
055d
cafe
2400
0000
0000
0497
cafe
-
