


~~~~~~~~~~~~~~~~~~~~~~~~~~~~~~~~~~~
Module : work.SPI_INTERFACE(BEHAV)
~~~~~~~~~~~~~~~~~~~~~~~~~~~~~~~~~~~
Number of FSMs Extracted : 1

1.
--------------------------------------------------
Number of States                : 5
Primary State Variable          : SPI_INTERFACE_STATE[4:0]
Async set/reset state(s)        : (none)
Re-encoding Scheme              : ONEHOT 
FSM: Info, state encoding table:
FSM:	Index	                         State Name	                            Literal	                      Encoding
FSM:	    0	                              READY	                              00001	                         00001
FSM:	    1	                     DECODE_SPI_RAW	                              00010	                         00010
FSM:	    2	                         SHIFT_BUSY	                              00100	                         00100
FSM:	    3	                           CS_CLEAR	                              01000	                         01000
FSM:	    4	                         UPDATE_REG	                              10000	                         10000



