240e
5555
e280
01f5
cafe
281e
5555
e280
01ac
cafe
2c06
5555
e280
0195
cafe
3016
5555
e284
0171
cafe
340f
5555
e284
0217
cafe
381f
5555
e284
01a9
cafe
3c07
5555
e284
0173
cafe
2017
5555
e288
016e
cafe
2408
5555
e288
0195
cafe
2818
5555
e288
01c4
cafe
2c00
5555
e288
01a7
cafe
3010
5555
e28c
01c5
cafe
3409
5555
e28c
00fe
cafe
3819
5555
e28c
0189
cafe
3c01
5555
e28c
01a6
cafe
2011
5555
e290
0141
cafe
240a
5555
e290
0121
cafe
281a
5555
e290
0121
cafe
2c02
5555
e290
0184
cafe
3012
5555
e294
018b
cafe
340b
5555
e294
01a9
cafe
381b
5555
e294
016d
cafe
3c03
5555
e294
012b
cafe
2013
5555
e298
0140
cafe
240c
5555
e298
0151
cafe
281c
5555
e298
015b
cafe
2c04
5555
e298
01a8
cafe
3014
5555
e29c
012e
cafe
340d
5555
e29c
0157
cafe
381d
5555
e29c
0177
cafe
3c05
5555
e29c
01d7
cafe
2015
5555
e2a0
018b
cafe
240e
5555
e2a0
01fa
cafe
281e
5555
e2a0
01aa
cafe
2c06
5555
e2a0
018d
cafe
3016
5555
e2a4
0179
cafe
340f
5555
e2a4
0221
cafe
381f
5555
e2a4
019e
cafe
3c07
5555
e2a4
016f
cafe
2017
5555
e2a8
015e
cafe
2408
5555
e2a8
018e
cafe
2818
5555
e2a8
01ca
cafe
2c00
5555
e2a8
01ab
cafe
3010
5555
e2ac
01c8
cafe
3409
5555
e2ac
0108
cafe
3819
5555
e2ac
017d
cafe
3c01
5555
e2ac
01a9
cafe
2011
5555
e2b0
0157
cafe
240a
5555
e2b0
0120
cafe
281a
5555
e2b0
0132
cafe
2c02
5555
e2b0
0175
cafe
3012
-
5555
e2b4
01aa
cafe
340b
5555
e2b4
01b8
cafe
381b
5555
e2b4
0165
cafe
3c03
5555
e2b4
012b
cafe
2013
5555
e2b8
0146
cafe
240c
5555
e2b8
014e
cafe
281c
5555
e2b8
0149
cafe
2c04
5555
e2b8
018e
cafe
3014
5555
e2bc
011f
cafe
340d
5555
e2bc
015f
cafe
381d
5555
e2bc
018d
cafe
3c05
5555
e2bc
01e0
cafe
2015
5555
e2c0
01b2
cafe
240e
5555
e2c0
01f5
cafe
281e
5555
e2c0
01aa
cafe
2c06
5555
e2c0
018c
cafe
3016
5555
e2c4
0174
cafe
340f
5555
e2c4
021b
cafe
381f
5555
e2c4
0199
cafe
3c07
5555
e2c4
015e
cafe
2017
5555
e2c8
0161
cafe
2408
5555
e2c8
0199
cafe
2818
5555
e2c8
01b8
cafe
2c00
5555
e2c8
01a9
cafe
3010
5555
e2cc
01ba
cafe
3409
5555
e2cc
00f7
cafe
3819
5555
e2cc
017b
cafe
3c01
5555
e2cc
01a9
cafe
2011
5555
e2d0
0161
cafe
240a
5555
e2d0
0123
cafe
281a
5555
e2d0
0124
cafe
2c02
5555
e2d0
0162
cafe
3012
5555
e2d4
01a8
cafe
340b
5555
e2d4
01c3
cafe
381b
5555
e2d4
016d
cafe
3c03
5555
e2d4
0128
cafe
2013
5555
e2d8
013b
cafe
240c
5555
e2d8
015e
cafe
281c
5555
e2d8
0146
cafe
2c04
5555
e2d8
0195
cafe
3014
5555
e2dc
012a
cafe
340d
5555
e2dc
0163
cafe
381d
5555
e2dc
0184
cafe
3c05
5555
e2dc
01e9
cafe
2015
5555
e2e0
01a1
cafe
240e
5555
e2e0
01f5
cafe
281e
5555
e2e0
01b7
cafe
2c06
5555
e2e0
018d
cafe
3016
5555
e2e4
017c
cafe
340f
5555
e2e4
0211
cafe
381f
5555
e2e4
01a0
cafe
3c07
5555
-
e2e4
0173
cafe
2017
5555
e2e8
0160
cafe
2408
5555
e2e8
0196
cafe
2818
5555
e2e8
01bd
cafe
2c00
5555
e2e8
01a7
cafe
3010
5555
e2ec
01d1
cafe
3409
5555
e2ec
0107
cafe
3819
5555
e2ec
0189
cafe
3c01
5555
e2ec
01a6
cafe
2011
5555
e2f0
015a
cafe
240a
5555
e2f0
0111
cafe
281a
5555
e2f0
0121
cafe
2c02
5555
e2f0
0180
cafe
3012
5555
e2f4
0196
cafe
340b
5555
e2f4
01bc
cafe
381b
5555
e2f4
015e
cafe
3c03
5555
e2f4
0129
cafe
2013
5555
e2f8
014b
cafe
240c
5555
e2f8
0162
cafe
281c
5555
e2f8
0145
cafe
2c04
5555
e2f8
01a5
cafe
3014
5555
e2fc
0127
cafe
340d
5555
e2fc
0166
cafe
381d
5555
e2fc
0181
cafe
3c05
5555
e2fc
01e2
cafe
2015
5555
e300
019a
cafe
240e
5555
e300
01fe
cafe
281e
5555
e300
01a2
cafe
2c06
5555
e300
017f
cafe
3016
5555
e304
0169
cafe
340f
5555
e304
0203
cafe
381f
5555
e304
019a
cafe
3c07
5555
e304
016c
cafe
2017
5555
e308
016a
cafe
2408
5555
e308
017b
cafe
2818
5555
e308
01be
cafe
2c00
5555
e308
01b5
cafe
3010
5555
e30c
01c1
cafe
3409
5555
e30c
0110
cafe
3819
5555
e30c
017a
cafe
3c01
5555
e30c
01ad
cafe
2011
5555
e310
015a
cafe
240a
5555
e310
0126
cafe
281a
5555
e310
0118
cafe
2c02
5555
e310
016c
cafe
3012
5555
e314
0195
cafe
340b
5555
e314
01b9
cafe
381b
5555
e314
016d
cafe
3c03
5555
e314
0117
cafe
2013
5555
e318
013a
cafe
240c
5555
e318
014e
cafe
281c
5555
e318
-
0146
cafe
2c04
5555
e318
0190
cafe
3014
5555
e31c
0112
cafe
340d
5555
e31c
0162
cafe
381d
5555
e31c
0180
cafe
3c05
5555
e31c
01e8
cafe
2015
5555
e320
01b1
cafe
240e
5555
e320
0207
cafe
281e
5555
e320
019c
cafe
2c06
5555
e320
0193
cafe
3016
5555
e324
017c
cafe
340f
5555
e324
0222
cafe
381f
5555
e324
01a6
cafe
3c07
5555
e324
016c
cafe
2017
5555
e328
0173
cafe
2408
5555
e328
0173
cafe
2818
5555
e328
01cc
cafe
2c00
5555
e328
01ad
cafe
3010
5555
e32c
01da
cafe
3409
5555
e32c
011c
cafe
3819
5555
e32c
018c
cafe
3c01
5555
e32c
01a0
cafe
2011
5555
e330
0158
cafe
240a
5555
e330
011a
cafe
281a
5555
e330
0127
cafe
2c02
5555
e330
0171
cafe
3012
5555
e334
0192
cafe
340b
5555
e334
01a9
cafe
381b
5555
e334
0169
cafe
3c03
5555
e334
012b
cafe
2013
5555
e338
0146
cafe
240c
5555
e338
0182
cafe
281c
5555
e338
013d
cafe
2c04
5555
e338
019a
cafe
3014
5555
e33c
0122
cafe
340d
5555
e33c
0151
cafe
381d
5555
e33c
0175
cafe
3c05
5555
e33c
01e5
cafe
2015
5555
e340
01a3
cafe
240e
5555
e340
0203
cafe
281e
5555
e340
01af
cafe
2c06
5555
e340
018b
cafe
3016
5555
e344
016b
cafe
340f
5555
e344
01ff
cafe
381f
5555
e344
019b
cafe
3c07
5555
e344
015d
cafe
2017
5555
e348
0169
cafe
2408
5555
e348
018f
cafe
2818
5555
e348
01c6
cafe
2c00
5555
e348
01bf
cafe
3010
5555
e34c
01dd
cafe
3409
5555
e34c
0107
-
cafe
3819
5555
e34c
018c
cafe
3c01
5555
e34c
01a1
cafe
2011
5555
e350
0154
cafe
240a
5555
e350
0114
cafe
281a
5555
e350
0128
cafe
2c02
5555
e350
017a
cafe
3012
5555
e354
0193
cafe
340b
5555
e354
01aa
cafe
381b
5555
e354
0165
cafe
3c03
5555
e354
011d
cafe
2013
5555
e358
0133
cafe
240c
5555
e358
016f
cafe
281c
5555
e358
0150
cafe
2c04
5555
e358
01a4
cafe
3014
5555
e35c
010d
cafe
340d
5555
e35c
0146
cafe
381d
5555
e35c
017d
cafe
3c05
5555
e35c
01cd
cafe
2015
5555
e360
0195
cafe
240e
5555
e360
0204
cafe
281e
5555
e360
01a9
cafe
2c06
5555
e360
0198
cafe
3016
5555
e364
0173
cafe
340f
5555
e364
01f6
cafe
381f
5555
e364
01a4
cafe
3c07
5555
e364
0175
cafe
2017
5555
e368
0165
cafe
2408
5555
e368
0192
cafe
2818
5555
e368
01ba
cafe
2c00
5555
e368
01c2
cafe
3010
5555
e36c
01cf
cafe
3409
5555
e36c
0108
cafe
3819
5555
e36c
019b
cafe
3c01
5555
e36c
019c
cafe
2011
5555
e370
0172
cafe
240a
5555
e370
0141
cafe
281a
5555
e370
0129
cafe
2c02
5555
e370
0178
cafe
3012
5555
e374
0198
cafe
340b
5555
e374
01ba
cafe
381b
5555
e374
015b
cafe
3c03
5555
e374
0133
cafe
2013
5555
e378
013e
cafe
240c
5555
e378
016e
cafe
281c
5555
e378
014c
cafe
2c04
5555
e378
01a5
cafe
3014
5555
e37c
0113
cafe
340d
5555
e37c
014f
cafe
381d
5555
e37c
0188
cafe
3c05
5555
e37c
01cd
cafe
2015
5555
e380
018d
cafe
-
240e
5555
e380
0202
cafe
281e
5555
e380
01a7
cafe
2c06
5555
e380
0192
cafe
3016
5555
e384
017a
cafe
340f
5555
e384
0210
cafe
381f
5555
e384
01aa
cafe
3c07
5555
e384
015e
cafe
2017
5555
e388
0182
cafe
2408
5555
e388
018a
cafe
2818
5555
e388
01bd
cafe
2c00
5555
e388
01c8
cafe
3010
5555
e38c
01bb
cafe
3409
5555
e38c
010c
cafe
3819
5555
e38c
0190
cafe
3c01
5555
e38c
018d
cafe
2011
5555
e390
0173
cafe
240a
5555
e390
012a
cafe
281a
5555
e390
0122
cafe
2c02
5555
e390
016b
cafe
3012
5555
e394
0196
cafe
340b
5555
e394
01a3
cafe
381b
5555
e394
0161
cafe
3c03
5555
e394
011c
cafe
2013
5555
e398
0154
cafe
240c
5555
e398
0162
cafe
281c
5555
e398
014b
cafe
2c04
5555
e398
01ab
cafe
3014
5555
e39c
0113
cafe
340d
5555
e39c
014d
cafe
381d
5555
e39c
017a
cafe
3c05
5555
e39c
01d2
cafe
2015
5555
e3a0
019d
cafe
240e
5555
e3a0
01f7
cafe
281e
5555
e3a0
01b5
cafe
2c06
5555
e3a0
018e
cafe
3016
5555
e3a4
0177
cafe
340f
5555
e3a4
0206
cafe
381f
5555
e3a4
01b1
cafe
3c07
5555
e3a4
015c
cafe
2017
5555
e3a8
015d
cafe
2408
5555
e3a8
0199
cafe
2818
5555
e3a8
01b7
cafe
2c00
5555
e3a8
01c6
cafe
3010
5555
e3ac
01db
cafe
3409
5555
e3ac
010c
cafe
3819
5555
e3ac
018a
cafe
3c01
5555
e3ac
01a3
cafe
2011
5555
e3b0
0158
cafe
240a
5555
e3b0
012a
cafe
281a
5555
e3b0
0129
cafe
2c02
5555
e3b0
0178
cafe
3012
-
5555
e3b4
0194
cafe
340b
5555
e3b4
01b3
cafe
381b
5555
e3b4
0169
cafe
3c03
5555
e3b4
011b
cafe
2013
5555
e3b8
014c
cafe
240c
5555
e3b8
015f
cafe
281c
5555
e3b8
0151
cafe
2c04
5555
e3b8
019a
cafe
3014
5555
e3bc
0125
cafe
340d
5555
e3bc
0141
cafe
381d
5555
e3bc
0183
cafe
3c05
5555
e3bc
01db
cafe
2015
5555
e3c0
0195
cafe
240e
5555
e3c0
01fe
cafe
281e
5555
e3c0
01a9
cafe
2c06
5555
e3c0
0196
cafe
3016
5555
e3c4
0181
cafe
340f
5555
e3c4
0201
cafe
381f
5555
e3c4
019c
cafe
3c07
5555
e3c4
0158
cafe
2017
5555
e3c8
016e
cafe
2408
5555
e3c8
0189
cafe
2818
5555
e3c8
01c1
cafe
2c00
5555
e3c8
01a9
cafe
3010
5555
e3cc
01e4
cafe
3409
5555
e3cc
0108
cafe
3819
5555
e3cc
0185
cafe
3c01
5555
e3cc
01a1
cafe
2011
5555
e3d0
014b
cafe
240a
5555
e3d0
0125
cafe
281a
5555
e3d0
011c
cafe
2c02
5555
e3d0
016c
cafe
3012
5555
e3d4
0194
cafe
340b
5555
e3d4
01ad
cafe
381b
5555
e3d4
016b
cafe
3c03
5555
e3d4
0125
cafe
2013
5555
e3d8
0133
cafe
240c
5555
e3d8
016e
cafe
281c
5555
e3d8
014b
cafe
2c04
5555
e3d8
0199
cafe
3014
5555
e3dc
0126
cafe
340d
5555
e3dc
0149
cafe
381d
5555
e3dc
017b
cafe
3c05
5555
e3dc
01db
cafe
2015
5555
e3e0
0194
cafe
240e
5555
e3e0
01f2
cafe
281e
5555
e3e0
01b0
cafe
2c06
5555
e3e0
01a7
cafe
3016
5555
e3e4
0198
cafe
340f
5555
e3e4
021a
cafe
381f
5555
e3e4
01a2
cafe
3c07
5555
-
e3e4
0165
cafe
2017
5555
e3e8
0185
cafe
2408
5555
e3e8
0180
cafe
2818
5555
e3e8
01d3
cafe
2c00
5555
e3e8
01b9
cafe
3010
5555
e3ec
01d9
cafe
3409
5555
e3ec
0108
cafe
3819
5555
e3ec
0188
cafe
3c01
5555
e3ec
01b7
cafe
2011
5555
e3f0
0162
cafe
240a
5555
e3f0
0119
cafe
281a
5555
e3f0
0115
cafe
2c02
5555
e3f0
0170
cafe
3012
5555
e3f4
0192
cafe
340b
5555
e3f4
01b4
cafe
381b
5555
e3f4
0170
cafe
3c03
5555
e3f4
011f
cafe
2013
5555
e3f8
013e
cafe
240c
5555
e3f8
0161
cafe
281c
5555
e3f8
0167
cafe
2c04
5555
e3f8
0198
cafe
3014
5555
e3fc
0130
cafe
340d
5555
e3fc
013d
cafe
381d
5555
e3fc
0175
cafe
3c05
5555
e3fc
01eb
cafe
2015
5555
e400
01a5
cafe
240e
5555
e400
0214
cafe
281e
5555
e400
0197
cafe
2c06
5555
e400
01a5
cafe
3016
5555
e404
0186
cafe
340f
5555
e404
0207
cafe
381f
5555
e404
01a1
cafe
3c07
5555
e404
016b
cafe
2017
5555
e408
0169
cafe
2408
5555
e408
017f
cafe
2818
5555
e408
01b8
cafe
2c00
5555
e408
01c6
cafe
3010
5555
e40c
01d9
cafe
3409
5555
e40c
00f6
cafe
3819
5555
e40c
0183
cafe
3c01
5555
e40c
01aa
cafe
2011
5555
e410
014e
cafe
240a
5555
e410
0139
cafe
281a
5555
e410
0124
cafe
2c02
5555
e410
0187
cafe
3012
5555
e414
0190
cafe
340b
5555
e414
01c6
cafe
381b
5555
e414
015d
cafe
3c03
5555
e414
0129
cafe
2013
5555
e418
0153
cafe
240c
5555
e418
0167
cafe
281c
5555
e418
-
0143
cafe
2c04
5555
e418
0196
cafe
3014
5555
e41c
012d
cafe
340d
5555
e41c
0138
cafe
381d
5555
e41c
018f
cafe
3c05
5555
e41c
01e5
cafe
2015
5555
e420
0197
cafe
240e
5555
e420
01fc
cafe
281e
5555
e420
019b
cafe
2c06
5555
e420
01a0
cafe
3016
5555
e424
016b
cafe
340f
5555
e424
01fa
cafe
381f
5555
e424
01a9
cafe
3c07
5555
e424
0163
cafe
2017
5555
e428
0178
cafe
2408
5555
e428
018c
cafe
2818
5555
e428
01b5
cafe
2c00
5555
e428
01bc
cafe
3010
5555
e42c
01ef
cafe
3409
5555
e42c
010a
cafe
3819
5555
e42c
018c
cafe
3c01
5555
e42c
01a7
cafe
2011
5555
e430
0145
cafe
240a
5555
e430
012b
cafe
281a
5555
e430
013b
cafe
2c02
5555
e430
0169
cafe
3012
5555
e434
018b
cafe
340b
5555
e434
01ca
cafe
381b
5555
e434
0173
cafe
3c03
5555
e434
0122
cafe
2013
5555
e438
013c
cafe
240c
5555
e438
016d
cafe
281c
5555
e438
0145
cafe
2c04
5555
e438
0194
cafe
3014
5555
e43c
0141
cafe
340d
5555
e43c
014a
cafe
381d
5555
e43c
0183
cafe
3c05
5555
e43c
01f6
cafe
2015
5555
e440
0192
cafe
240e
5555
e440
020b
cafe
281e
5555
e440
01a3
cafe
2c06
5555
e440
019b
cafe
3016
5555
e444
017f
cafe
340f
5555
e444
0212
cafe
381f
5555
e444
019c
cafe
3c07
5555
e444
0169
cafe
2017
5555
e448
0159
cafe
2408
5555
e448
016e
cafe
2818
5555
e448
01bc
cafe
2c00
5555
e448
01bd
cafe
3010
5555
e44c
01de
cafe
3409
5555
e44c
010b
-
cafe
3819
5555
e44c
0186
cafe
3c01
5555
e44c
01a3
cafe
2011
5555
e450
0153
cafe
240a
5555
e450
012f
cafe
281a
5555
e450
0118
cafe
2c02
5555
e450
0175
cafe
3012
5555
e454
0198
cafe
340b
5555
e454
01b8
cafe
381b
5555
e454
0171
cafe
3c03
5555
e454
0124
cafe
2013
5555
e458
0142
cafe
240c
5555
e458
016c
cafe
281c
5555
e458
0159
cafe
2c04
5555
e458
019c
cafe
3014
5555
e45c
0149
cafe
340d
5555
e45c
0148
cafe
381d
5555
e45c
018b
cafe
3c05
5555
e45c
01e3
cafe
2015
5555
e460
0191
cafe
240e
5555
e460
0212
cafe
281e
5555
e460
01be
cafe
2c06
5555
e460
018b
cafe
3016
5555
e464
017f
cafe
340f
5555
e464
0200
cafe
381f
5555
e464
01a3
cafe
3c07
5555
e464
0175
cafe
2017
5555
e468
015c
cafe
2408
5555
e468
0165
cafe
2818
5555
e468
01c8
cafe
2c00
5555
e468
01af
cafe
3010
5555
e46c
01db
cafe
3409
5555
e46c
00ff
cafe
3819
5555
e46c
018c
cafe
3c01
5555
e46c
01c0
cafe
2011
5555
e470
014a
cafe
240a
5555
e470
012c
cafe
281a
5555
e470
0126
cafe
2c02
5555
e470
015f
cafe
3012
5555
e474
018f
cafe
340b
5555
e474
01c9
cafe
381b
5555
e474
016a
cafe
3c03
5555
e474
0125
cafe
2013
5555
e478
0139
cafe
240c
5555
e478
0171
cafe
281c
5555
e478
014c
cafe
2c04
5555
e478
0189
cafe
3014
5555
e47c
0147
cafe
340d
5555
e47c
0145
cafe
381d
5555
e47c
0189
cafe
3c05
5555
e47c
01f0
cafe
2015
5555
e480
0187
cafe
-
240e
5555
e480
0219
cafe
281e
5555
e480
01a6
cafe
2c06
5555
e480
018c
cafe
3016
5555
e484
0171
cafe
340f
5555
e484
0208
cafe
381f
5555
e484
01a6
cafe
3c07
5555
e484
0170
cafe
2017
5555
e488
0175
cafe
2408
5555
e488
017e
cafe
2818
5555
e488
01c6
cafe
2c00
5555
e488
01c0
cafe
3010
5555
e48c
01c6
cafe
3409
5555
e48c
00fe
cafe
3819
5555
e48c
0185
cafe
3c01
5555
e48c
01b3
cafe
2011
5555
e490
014b
cafe
240a
5555
e490
0124
cafe
281a
5555
e490
011f
cafe
2c02
5555
e490
0167
cafe
3012
5555
e494
01a4
cafe
340b
5555
e494
01d4
cafe
381b
5555
e494
0171
cafe
3c03
5555
e494
0122
cafe
2013
5555
e498
0136
cafe
240c
5555
e498
015b
cafe
281c
5555
e498
0152
cafe
2c04
5555
e498
0190
cafe
3014
5555
e49c
013b
cafe
340d
5555
e49c
0151
cafe
381d
5555
e49c
0178
cafe
3c05
5555
e49c
01f4
cafe
2015
5555
e4a0
0191
cafe
240e
5555
e4a0
020d
cafe
281e
5555
e4a0
01a3
cafe
2c06
5555
e4a0
01a2
cafe
3016
5555
e4a4
0188
cafe
340f
5555
e4a4
020c
cafe
381f
5555
e4a4
019c
cafe
3c07
5555
e4a4
0171
cafe
2017
5555
e4a8
0163
cafe
2408
5555
e4a8
0187
cafe
2818
5555
e4a8
01c0
cafe
2c00
5555
e4a8
01b3
cafe
3010
5555
e4ac
01d6
cafe
3409
5555
e4ac
0406
cafe
3819
5555
e4ac
047d
cafe
3c01
5555
e4ac
04c0
cafe
2011
5555
e4b0
043b
cafe
240a
5555
e4b0
0803
cafe
281a
5555
e4b0
081b
cafe
2c02
5555
e4b0
0837
cafe
3012
-
5555
e4b4
0872
cafe
340b
5555
e4b4
098b
cafe
381b
5555
e4b4
093b
cafe
3c03
5555
e4b4
08cd
cafe
2013
5555
e4b8
0900
cafe
240c
5555
e4b8
09ab
cafe
281c
5555
e4b8
097c
cafe
2c04
5555
e4b8
0994
cafe
3014
5555
e4bc
0956
cafe
340d
5555
e4bc
098c
cafe
381d
5555
e4bc
0974
cafe
3c05
5555
e4bc
09ed
cafe
2015
5555
e4c0
09a3
cafe
240e
5555
e4c0
0a58
cafe
281e
5555
e4c0
09af
cafe
2c06
5555
e4c0
09b1
cafe
3016
5555
e4c4
0983
cafe
340f
5555
e4c4
0a4b
cafe
381f
5555
e4c4
098d
cafe
3c07
5555
e4c4
0962
cafe
2017
5555
e4c8
096f
cafe
2408
5555
e4c8
099c
cafe
2818
5555
e4c8
09cd
cafe
2c00
5555
e4c8
09a1
cafe
3010
5555
e4cc
09f7
cafe
3409
5555
e4cc
0907
cafe
3819
5555
e4cc
097d
cafe
3c01
5555
e4cc
099f
cafe
2011
5555
e4d0
0944
cafe
240a
5555
e4d0
0957
cafe
281a
5555
e4d0
0925
cafe
2c02
5555
e4d0
0959
cafe
3012
5555
e4d4
09b7
cafe
340b
5555
e4d4
09ca
cafe
381b
5555
e4d4
095e
cafe
3c03
5555
e4d4
08f7
cafe
2013
5555
e4d8
092d
cafe
240c
5555
e4d8
098f
cafe
281c
5555
e4d8
096b
cafe
2c04
5555
e4d8
0984
cafe
3014
5555
e4dc
093c
cafe
340d
5555
e4dc
0957
cafe
381d
5555
e4dc
095c
cafe
3c05
5555
e4dc
09c0
cafe
2015
5555
e4e0
0986
cafe
240e
5555
e4e0
0a30
cafe
281e
5555
e4e0
09ad
cafe
2c06
5555
e4e0
0998
cafe
3016
5555
e4e4
0979
cafe
340f
5555
e4e4
0a35
cafe
381f
5555
e4e4
096a
cafe
3c07
5555
-
e4e4
093d
cafe
2017
5555
e4e8
0949
cafe
2408
5555
e4e8
097b
cafe
2818
5555
e4e8
09a3
cafe
2c00
5555
e4e8
098f
cafe
3010
5555
e4ec
09c1
cafe
3409
5555
e4ec
08fb
cafe
3819
5555
e4ec
0972
cafe
3c01
5555
e4ec
0985
cafe
2011
5555
e4f0
0930
cafe
240a
5555
e4f0
092e
cafe
281a
5555
e4f0
08ff
cafe
2c02
5555
e4f0
0945
cafe
3012
5555
e4f4
098f
cafe
340b
5555
e4f4
09b7
cafe
381b
5555
e4f4
093a
cafe
3c03
5555
e4f4
08cd
cafe
2013
5555
e4f8
090f
cafe
240c
5555
e4f8
0982
cafe
281c
5555
e4f8
0944
cafe
2c04
5555
e4f8
0964
cafe
3014
5555
e4fc
091f
cafe
340d
5555
e4fc
0944
cafe
381d
5555
e4fc
0962
cafe
3c05
5555
e4fc
09ab
cafe
2015
5555
e500
097c
cafe
240e
5555
e500
0a25
cafe
281e
5555
e500
098d
cafe
2c06
5555
e500
0986
cafe
3016
5555
e504
0957
cafe
340f
5555
e504
0a14
cafe
381f
5555
e504
095f
cafe
3c07
5555
e504
0933
cafe
2017
5555
e508
0940
cafe
2408
5555
e508
0970
cafe
2818
5555
e508
099f
cafe
2c00
5555
e508
097c
cafe
3010
5555
e50c
09a8
cafe
3409
5555
e50c
08ce
cafe
3819
5555
e50c
0952
cafe
3c01
5555
e50c
0969
cafe
2011
5555
e510
091b
cafe
240a
5555
e510
0921
cafe
281a
5555
e510
08f1
cafe
2c02
5555
e510
091b
cafe
3012
5555
e514
0993
cafe
340b
5555
e514
099b
cafe
381b
5555
e514
092a
cafe
3c03
5555
e514
08c3
cafe
2013
5555
e518
0908
cafe
240c
5555
e518
096e
cafe
281c
5555
e518
-
0935
cafe
2c04
5555
e518
0942
cafe
3014
5555
e51c
0905
cafe
340d
5555
e51c
0929
cafe
381d
5555
e51c
0942
cafe
3c05
5555
e51c
098b
cafe
2015
5555
e520
0961
cafe
240e
5555
e520
0a0d
cafe
281e
5555
e520
0985
cafe
2c06
5555
e520
095a
cafe
3016
5555
e524
094c
cafe
340f
5555
e524
0a07
cafe
381f
5555
e524
093d
cafe
3c07
5555
e524
091a
cafe
2017
5555
e528
090f
cafe
2408
5555
e528
095c
cafe
2818
5555
e528
0974
cafe
2c00
5555
e528
0966
cafe
3010
5555
e52c
099d
cafe
3409
5555
e52c
08c8
cafe
3819
5555
e52c
0944
cafe
3c01
5555
e52c
0955
cafe
2011
5555
e530
0905
cafe
240a
5555
e530
091a
cafe
281a
5555
e530
08da
cafe
2c02
5555
e530
0901
cafe
3012
5555
e534
096c
cafe
340b
5555
e534
0974
cafe
381b
5555
e534
0921
cafe
3c03
5555
e534
08ad
cafe
2013
5555
e538
08f5
cafe
240c
5555
e538
093d
cafe
281c
5555
e538
0922
cafe
2c04
5555
e538
0929
cafe
3014
5555
e53c
08e8
cafe
340d
5555
e53c
091a
cafe
381d
5555
e53c
0916
cafe
3c05
5555
e53c
0979
cafe
2015
5555
e540
0955
cafe
240e
5555
e540
09e9
cafe
281e
5555
e540
096d
cafe
2c06
5555
e540
0957
cafe
3016
5555
e544
0938
cafe
340f
5555
e544
09ef
cafe
381f
5555
e544
0934
cafe
3c07
5555
e544
08f7
cafe
2017
5555
e548
090b
cafe
2408
5555
e548
094d
cafe
2818
5555
e548
0960
cafe
2c00
5555
e548
0950
cafe
3010
5555
e54c
0990
cafe
3409
5555
e54c
0896
-
cafe
3819
5555
e54c
0925
cafe
3c01
5555
e54c
0941
cafe
2011
5555
e550
08f9
cafe
240a
5555
e550
08f5
cafe
281a
5555
e550
08bf
cafe
2c02
5555
e550
08f5
cafe
3012
5555
e554
0952
cafe
340b
5555
e554
0969
cafe
381b
5555
e554
08fa
cafe
3c03
5555
e554
0891
cafe
2013
5555
e558
08e5
cafe
240c
5555
e558
092d
cafe
281c
5555
e558
08e4
cafe
2c04
5555
e558
091e
cafe
3014
5555
e55c
08d4
cafe
340d
5555
e55c
0903
cafe
381d
5555
e55c
08f9
cafe
3c05
5555
e55c
0961
cafe
2015
5555
e560
0935
cafe
240e
5555
e560
09c9
cafe
281e
5555
e560
093c
cafe
2c06
5555
e560
092f
cafe
3016
5555
e564
0919
cafe
340f
5555
e564
09d8
cafe
381f
5555
e564
0917
cafe
3c07
5555
e564
08eb
cafe
2017
5555
e568
08fe
cafe
2408
5555
e568
092d
cafe
2818
5555
e568
094c
cafe
2c00
5555
e568
092c
cafe
3010
5555
e56c
0982
cafe
3409
5555
e56c
0884
cafe
3819
5555
e56c
0905
cafe
3c01
5555
e56c
0935
cafe
2011
5555
e570
08d4
cafe
240a
5555
e570
08df
cafe
281a
5555
e570
088a
cafe
2c02
5555
e570
08e8
cafe
3012
5555
e574
0932
cafe
340b
5555
e574
094d
cafe
381b
5555
e574
08e0
cafe
3c03
5555
e574
0873
cafe
2013
5555
e578
08c7
cafe
240c
5555
e578
0920
cafe
281c
5555
e578
08f2
cafe
2c04
5555
e578
0903
cafe
3014
5555
e57c
08b7
cafe
340d
5555
e57c
08f4
cafe
381d
5555
e57c
08ed
cafe
3c05
5555
e57c
0944
cafe
2015
5555
e580
092e
cafe
-
240e
5555
e580
09bb
cafe
281e
5555
e580
092d
cafe
2c06
5555
e580
0923
cafe
3016
5555
e584
08f4
cafe
340f
5555
e584
09b1
cafe
381f
5555
e584
08fb
cafe
3c07
5555
e584
08c2
cafe
2017
5555
e588
08d9
cafe
2408
5555
e588
091c
cafe
2818
5555
e588
0938
cafe
2c00
5555
e588
090c
cafe
3010
5555
e58c
0961
cafe
3409
5555
e58c
0874
cafe
3819
5555
e58c
08f2
cafe
3c01
5555
e58c
0919
cafe
2011
5555
e590
08b9
cafe
240a
5555
e590
08c1
cafe
281a
5555
e590
0898
cafe
2c02
5555
e590
08d2
cafe
3012
5555
e594
091d
cafe
340b
5555
e594
0933
cafe
381b
5555
e594
08b8
cafe
3c03
5555
e594
085f
cafe
2013
5555
e598
08ad
cafe
240c
5555
e598
08f5
cafe
281c
5555
e598
08d1
cafe
2c04
5555
e598
08e3
cafe
3014
5555
e59c
0889
cafe
340d
5555
e59c
08d4
cafe
381d
5555
e59c
08cb
cafe
3c05
5555
e59c
0930
cafe
2015
5555
e5a0
090d
cafe
240e
5555
e5a0
09b9
cafe
281e
5555
e5a0
0913
cafe
2c06
5555
e5a0
0905
cafe
3016
5555
e5a4
08f6
cafe
340f
5555
e5a4
09af
cafe
381f
5555
e5a4
08ce
cafe
3c07
5555
e5a4
08b2
cafe
2017
5555
e5a8
08bb
cafe
2408
5555
e5a8
08ef
cafe
2818
5555
e5a8
0920
cafe
2c00
5555
e5a8
0905
cafe
3010
5555
e5ac
093e
cafe
3409
5555
e5ac
084b
cafe
3819
5555
e5ac
08c5
cafe
3c01
5555
e5ac
08ff
cafe
2011
5555
e5b0
08b2
cafe
240a
5555
e5b0
08a0
cafe
281a
5555
e5b0
0875
cafe
2c02
5555
e5b0
08a5
cafe
3012
-
5555
e5b4
0908
cafe
340b
5555
e5b4
091a
cafe
381b
5555
e5b4
08b0
cafe
3c03
5555
e5b4
084f
cafe
2013
5555
e5b8
089d
cafe
240c
5555
e5b8
08ef
cafe
281c
5555
e5b8
08b6
cafe
2c04
5555
e5b8
08ce
cafe
3014
5555
e5bc
087d
cafe
340d
5555
e5bc
08c0
cafe
381d
5555
e5bc
08b1
cafe
3c05
5555
e5bc
0923
cafe
2015
5555
e5c0
08fc
cafe
240e
5555
e5c0
0981
cafe
281e
5555
e5c0
090b
cafe
2c06
5555
e5c0
08e5
cafe
3016
5555
e5c4
08b7
cafe
340f
5555
e5c4
0989
cafe
381f
5555
e5c4
08b8
cafe
3c07
5555
e5c4
089d
cafe
2017
5555
e5c8
08b7
cafe
2408
5555
e5c8
08e0
cafe
2818
5555
e5c8
0909
cafe
2c00
5555
e5c8
08e8
cafe
3010
5555
e5cc
0932
cafe
3409
5555
e5cc
082e
cafe
3819
5555
e5cc
08b3
cafe
3c01
5555
e5cc
08e9
cafe
2011
5555
e5d0
088f
cafe
240a
5555
e5d0
0890
cafe
281a
5555
e5d0
0856
cafe
2c02
5555
e5d0
086b
cafe
3012
5555
e5d4
08f9
cafe
340b
5555
e5d4
08ec
cafe
381b
5555
e5d4
08a2
cafe
3c03
5555
e5d4
082b
cafe
2013
5555
e5d8
087b
cafe
240c
5555
e5d8
08da
cafe
281c
5555
e5d8
0890
cafe
2c04
5555
e5d8
08ad
cafe
3014
5555
e5dc
0876
cafe
340d
5555
e5dc
08b0
cafe
381d
5555
e5dc
087b
cafe
3c05
5555
e5dc
091a
cafe
2015
5555
e5e0
08da
cafe
240e
5555
e5e0
098d
cafe
281e
5555
e5e0
08ec
cafe
2c06
5555
e5e0
08d9
cafe
3016
5555
e5e4
08bc
cafe
340f
5555
e5e4
0979
cafe
381f
5555
e5e4
089e
cafe
3c07
5555
-
e5e4
088a
cafe
2017
5555
e5e8
0889
cafe
2408
5555
e5e8
08bb
cafe
2818
5555
e5e8
08ef
cafe
2c00
5555
e5e8
08c9
cafe
3010
5555
e5ec
0915
cafe
3409
5555
e5ec
0818
cafe
3819
5555
e5ec
08a3
cafe
3c01
5555
e5ec
08d8
cafe
2011
5555
e5f0
0875
cafe
240a
5555
e5f0
086b
cafe
281a
5555
e5f0
0832
cafe
2c02
5555
e5f0
0863
cafe
3012
5555
e5f4
08dd
cafe
340b
5555
e5f4
08e2
cafe
381b
5555
e5f4
0895
cafe
3c03
5555
e5f4
0820
cafe
2013
5555
e5f8
0865
cafe
240c
5555
e5f8
08be
cafe
281c
5555
e5f8
0887
cafe
2c04
5555
e5f8
089d
cafe
3014
5555
e5fc
0846
cafe
340d
5555
e5fc
0892
cafe
381d
5555
e5fc
088c
cafe
3c05
5555
e5fc
08ef
cafe
2015
5555
e600
08ce
cafe
240e
5555
e600
0966
cafe
281e
5555
e600
08c7
cafe
2c06
5555
e600
08cd
cafe
3016
5555
e604
089c
cafe
340f
5555
e604
0966
cafe
381f
5555
e604
087c
cafe
3c07
5555
e604
0887
cafe
2017
5555
e608
0882
cafe
2408
5555
e608
08b1
cafe
2818
5555
e608
08c5
cafe
2c00
5555
e608
08c1
cafe
3010
5555
e60c
08f9
cafe
3409
5555
e60c
0802
cafe
3819
5555
e60c
08a0
cafe
3c01
5555
e60c
08b1
cafe
2011
5555
e610
0863
cafe
240a
5555
e610
0859
cafe
281a
5555
e610
0822
cafe
2c02
5555
e610
0858
cafe
3012
5555
e614
08c3
cafe
340b
5555
e614
08b2
cafe
381b
5555
e614
087b
cafe
3c03
5555
e614
07ff
cafe
2013
5555
e618
085c
cafe
240c
5555
e618
08ae
cafe
281c
5555
e618
-
085c
cafe
2c04
5555
e618
088d
cafe
3014
5555
e61c
0824
cafe
340d
5555
e61c
0876
cafe
381d
5555
e61c
0868
cafe
3c05
5555
e61c
08d6
cafe
2015
5555
e620
08b1
cafe
240e
5555
e620
0954
cafe
281e
5555
e620
08a8
cafe
2c06
5555
e620
08c6
cafe
3016
5555
e624
0883
cafe
340f
5555
e624
0957
cafe
381f
5555
e624
086f
cafe
3c07
5555
e624
0863
cafe
2017
5555
e628
0866
cafe
2408
5555
e628
0894
cafe
2818
5555
e628
08b4
cafe
2c00
5555
e628
0886
cafe
3010
5555
e62c
08eb
cafe
3409
5555
e62c
07d4
cafe
3819
5555
e62c
087e
cafe
3c01
5555
e62c
089a
cafe
2011
5555
e630
0850
cafe
240a
5555
e630
0841
cafe
281a
5555
e630
080d
cafe
2c02
5555
e630
0841
cafe
3012
5555
e634
08b2
cafe
340b
5555
e634
08a2
cafe
381b
5555
e634
085c
cafe
3c03
5555
e634
07f0
cafe
2013
5555
e638
0839
cafe
240c
5555
e638
0883
cafe
281c
5555
e638
0853
cafe
2c04
5555
e638
0877
cafe
3014
5555
e63c
0820
cafe
340d
5555
e63c
086f
cafe
381d
5555
e63c
085f
cafe
3c05
5555
e63c
08cb
cafe
2015
5555
e640
08a8
cafe
240e
5555
e640
093d
cafe
281e
5555
e640
0896
cafe
2c06
5555
e640
08a5
cafe
3016
5555
e644
086b
cafe
340f
5555
e644
0934
cafe
381f
5555
e644
0864
cafe
3c07
5555
e644
084f
cafe
2017
5555
e648
0851
cafe
2408
5555
e648
0887
cafe
2818
5555
e648
0891
cafe
2c00
5555
e648
0861
cafe
3010
5555
e64c
08e1
cafe
3409
5555
e64c
07be
-
cafe
3819
5555
e64c
0872
cafe
3c01
5555
e64c
0889
cafe
2011
5555
e650
083a
cafe
240a
5555
e650
081e
cafe
281a
5555
e650
07f9
cafe
2c02
5555
e650
082b
cafe
3012
5555
e654
08a4
cafe
340b
5555
e654
0887
cafe
381b
5555
e654
085c
cafe
3c03
5555
e654
07e2
cafe
2013
5555
e658
0821
cafe
240c
5555
e658
087d
cafe
281c
5555
e658
081f
cafe
2c04
5555
e658
0861
cafe
3014
5555
e65c
07ff
cafe
340d
5555
e65c
0847
cafe
381d
5555
e65c
084a
cafe
3c05
5555
e65c
089b
cafe
2015
5555
e660
0889
cafe
240e
5555
e660
0928
cafe
281e
5555
e660
086c
cafe
2c06
5555
e660
0898
cafe
3016
5555
e664
085a
cafe
340f
5555
e664
0927
cafe
381f
5555
e664
084f
cafe
3c07
5555
e664
0830
cafe
2017
5555
e668
082b
cafe
2408
5555
e668
0869
cafe
2818
5555
e668
0893
cafe
2c00
5555
e668
0869
cafe
3010
5555
e66c
08b5
cafe
3409
5555
e66c
07c1
cafe
3819
5555
e66c
0844
cafe
3c01
5555
e66c
0871
cafe
2011
5555
e670
0808
cafe
240a
5555
e670
080a
cafe
281a
5555
e670
07d5
cafe
2c02
5555
e670
080d
cafe
3012
5555
e674
0878
cafe
340b
5555
e674
086f
cafe
381b
5555
e674
084a
cafe
3c03
5555
e674
07c0
cafe
2013
5555
e678
080d
cafe
240c
5555
e678
0865
cafe
281c
5555
e678
0809
cafe
2c04
5555
e678
084b
cafe
3014
5555
e67c
07d8
cafe
340d
5555
e67c
082a
cafe
381d
5555
e67c
082c
cafe
3c05
5555
e67c
087c
cafe
2015
5555
e680
087b
cafe
-
240e
5555
e680
0918
cafe
281e
5555
e680
0852
cafe
2c06
5555
e680
088a
cafe
3016
5555
e684
0847
cafe
340f
5555
e684
0916
cafe
381f
5555
e684
082e
cafe
3c07
5555
e684
0822
cafe
2017
5555
e688
0811
cafe
2408
5555
e688
0853
cafe
2818
5555
e688
0878
cafe
2c00
5555
e688
0846
cafe
3010
5555
e68c
08b2
cafe
3409
5555
e68c
078a
cafe
3819
5555
e68c
0843
cafe
3c01
5555
e68c
0854
cafe
2011
5555
e690
0805
cafe
240a
5555
e690
07e8
cafe
281a
5555
e690
07cd
cafe
2c02
5555
e690
07f2
cafe
3012
5555
e694
087b
cafe
340b
5555
e694
0854
cafe
381b
5555
e694
081c
cafe
3c03
5555
e694
07c3
cafe
2013
5555
e698
07dd
cafe
240c
5555
e698
083a
cafe
281c
5555
e698
07f4
cafe
2c04
5555
e698
0837
cafe
3014
5555
e69c
07e1
cafe
340d
5555
e69c
0825
cafe
381d
5555
e69c
0807
cafe
3c05
5555
e69c
0854
cafe
2015
5555
e6a0
0861
cafe
240e
5555
e6a0
08f7
cafe
281e
5555
e6a0
083e
cafe
2c06
5555
e6a0
0879
cafe
3016
5555
e6a4
0815
cafe
340f
5555
e6a4
08ee
cafe
381f
5555
e6a4
0812
cafe
3c07
5555
e6a4
07f7
cafe
2017
5555
e6a8
0808
cafe
2408
5555
e6a8
0832
cafe
2818
5555
e6a8
0861
cafe
2c00
5555
e6a8
0824
cafe
3010
5555
e6ac
08a8
cafe
3409
5555
e6ac
0779
cafe
3819
5555
e6ac
0814
cafe
3c01
5555
e6ac
084a
cafe
2011
5555
e6b0
07df
cafe
240a
5555
e6b0
07e4
cafe
281a
5555
e6b0
07bd
cafe
2c02
5555
e6b0
07d5
cafe
3012
-
5555
e6b4
0865
cafe
340b
5555
e6b4
0836
cafe
381b
5555
e6b4
07f3
cafe
3c03
5555
e6b4
078d
cafe
2013
5555
e6b8
07e0
cafe
240c
5555
e6b8
0834
cafe
281c
5555
e6b8
07d1
cafe
2c04
5555
e6b8
0825
cafe
3014
5555
e6bc
07ba
cafe
340d
5555
e6bc
081d
cafe
381d
5555
e6bc
07fc
cafe
3c05
5555
e6bc
0850
cafe
2015
5555
e6c0
0842
cafe
240e
5555
e6c0
08c8
cafe
281e
5555
e6c0
0823
cafe
2c06
5555
e6c0
086b
cafe
3016
5555
e6c4
0805
cafe
340f
5555
e6c4
08e9
cafe
381f
5555
e6c4
07f9
cafe
3c07
5555
e6c4
07fd
cafe
2017
5555
e6c8
07f6
cafe
2408
5555
e6c8
082a
cafe
2818
5555
e6c8
0854
cafe
2c00
5555
e6c8
0800
cafe
3010
5555
e6cc
088d
cafe
3409
5555
e6cc
0754
cafe
3819
5555
e6cc
0803
cafe
3c01
5555
e6cc
082f
cafe
2011
5555
e6d0
07d9
cafe
240a
5555
e6d0
07b3
cafe
281a
5555
e6d0
0794
cafe
2c02
5555
e6d0
07c4
cafe
3012
5555
e6d4
0849
cafe
340b
5555
e6d4
0832
cafe
381b
5555
e6d4
07d7
cafe
3c03
5555
e6d4
077e
cafe
2013
5555
e6d8
07b3
cafe
240c
5555
e6d8
0821
cafe
281c
5555
e6d8
07b7
cafe
2c04
5555
e6d8
0809
cafe
3014
5555
e6dc
07b0
cafe
340d
5555
e6dc
0805
cafe
381d
5555
e6dc
07e4
cafe
3c05
5555
e6dc
0845
cafe
2015
5555
e6e0
0835
cafe
240e
5555
e6e0
08b7
cafe
281e
5555
e6e0
0817
cafe
2c06
5555
e6e0
0852
cafe
3016
5555
e6e4
07e4
cafe
340f
5555
e6e4
08e1
cafe
381f
5555
e6e4
07da
cafe
3c07
5555
-
e6e4
07bd
cafe
2017
5555
e6e8
07dd
cafe
2408
5555
e6e8
080d
cafe
2818
5555
e6e8
0838
cafe
2c00
5555
e6e8
07ff
cafe
3010
5555
e6ec
0874
cafe
3409
5555
e6ec
0752
cafe
3819
5555
e6ec
07e3
cafe
3c01
5555
e6ec
080e
cafe
2011
5555
e6f0
07bd
cafe
240a
5555
e6f0
07ab
cafe
281a
5555
e6f0
077e
cafe
2c02
5555
e6f0
07a9
cafe
3012
5555
e6f4
0826
cafe
340b
5555
e6f4
0807
cafe
381b
5555
e6f4
07c9
cafe
3c03
5555
e6f4
0751
cafe
2013
5555
e6f8
07aa
cafe
240c
5555
e6f8
080f
cafe
281c
5555
e6f8
07b2
cafe
2c04
5555
e6f8
07f4
cafe
3014
5555
e6fc
0795
cafe
340d
5555
e6fc
07e9
cafe
381d
5555
e6fc
07c1
cafe
3c05
5555
e6fc
0835
cafe
2015
5555
e700
081a
cafe
240e
5555
e700
088e
cafe
281e
5555
e700
0809
cafe
2c06
5555
e700
0827
cafe
3016
5555
e704
07de
cafe
340f
5555
e704
08c3
cafe
381f
5555
e704
07c2
cafe
3c07
5555
e704
07cd
cafe
2017
5555
e708
07de
cafe
2408
5555
e708
0801
cafe
2818
5555
e708
081f
cafe
2c00
5555
e708
07d9
cafe
3010
5555
e70c
0872
cafe
3409
5555
e70c
071d
cafe
3819
5555
e70c
07dd
cafe
3c01
5555
e70c
080b
cafe
2011
5555
e710
07b2
cafe
240a
5555
e710
0794
cafe
281a
5555
e710
077f
cafe
2c02
5555
e710
0797
cafe
3012
5555
e714
0814
cafe
340b
5555
e714
07ed
cafe
381b
5555
e714
07af
cafe
3c03
5555
e714
0738
cafe
2013
5555
e718
0799
cafe
240c
5555
e718
07ee
cafe
281c
5555
e718
-
079f
cafe
2c04
5555
e718
07cf
cafe
3014
5555
e71c
0777
cafe
340d
5555
e71c
07d3
cafe
381d
5555
e71c
07ae
cafe
3c05
5555
e71c
081c
cafe
2015
5555
e720
0813
cafe
240e
5555
e720
08a2
cafe
281e
5555
e720
07ec
cafe
2c06
5555
e720
0802
cafe
3016
5555
e724
07c6
cafe
340f
5555
e724
08b3
cafe
381f
5555
e724
07b1
cafe
3c07
5555
e724
07af
cafe
2017
5555
e728
07bb
cafe
2408
5555
e728
07ec
cafe
2818
5555
e728
0811
cafe
2c00
5555
e728
07b5
cafe
3010
5555
e72c
084d
cafe
3409
5555
e72c
071d
cafe
3819
5555
e72c
07b5
cafe
3c01
5555
e72c
07f4
cafe
2011
5555
e730
077a
cafe
240a
5555
e730
0773
cafe
281a
5555
e730
075a
cafe
2c02
5555
e730
078b
cafe
3012
5555
e734
0808
cafe
340b
5555
e734
07e5
cafe
381b
5555
e734
0789
cafe
3c03
5555
e734
0720
cafe
2013
5555
e738
0780
cafe
240c
5555
e738
07c6
cafe
281c
5555
e738
078a
cafe
2c04
5555
e738
07c1
cafe
3014
5555
e73c
0783
cafe
340d
5555
e73c
07bf
cafe
381d
5555
e73c
0791
cafe
3c05
5555
e73c
07f5
cafe
2015
5555
e740
07db
cafe
240e
5555
e740
0880
cafe
281e
5555
e740
07c1
cafe
2c06
5555
e740
07f3
cafe
3016
5555
e744
07a2
cafe
340f
5555
e744
089f
cafe
381f
5555
e744
0798
cafe
3c07
5555
e744
07a0
cafe
2017
5555
e748
0790
cafe
2408
5555
e748
07ba
cafe
2818
5555
e748
07f3
cafe
2c00
5555
e748
07a9
cafe
3010
5555
e74c
0833
cafe
3409
5555
e74c
070b
-
cafe
3819
5555
e74c
0799
cafe
3c01
5555
e74c
07e2
cafe
2011
5555
e750
0763
cafe
240a
5555
e750
075e
cafe
281a
5555
e750
0749
cafe
2c02
5555
e750
0783
cafe
3012
5555
e754
07f0
cafe
340b
5555
e754
07c7
cafe
381b
5555
e754
077f
cafe
3c03
5555
e754
070f
cafe
2013
5555
e758
076a
cafe
240c
5555
e758
07c4
cafe
281c
5555
e758
077d
cafe
2c04
5555
e758
07ab
cafe
3014
5555
e75c
0753
cafe
340d
5555
e75c
07b4
cafe
381d
5555
e75c
0777
cafe
3c05
5555
e75c
07e9
cafe
2015
5555
e760
07e4
cafe
240e
5555
e760
086d
cafe
281e
5555
e760
07b5
cafe
2c06
5555
e760
07e8
cafe
3016
5555
e764
0797
cafe
340f
5555
e764
0885
cafe
381f
5555
e764
0782
cafe
3c07
5555
e764
0777
cafe
2017
5555
e768
0787
cafe
2408
5555
e768
07b3
cafe
2818
5555
e768
07d6
cafe
2c00
5555
e768
0795
cafe
3010
5555
e76c
0827
cafe
3409
5555
e76c
06e9
cafe
3819
5555
e76c
079e
cafe
3c01
5555
e76c
07be
cafe
2011
5555
e770
074d
cafe
240a
5555
e770
0752
cafe
281a
5555
e770
072f
cafe
2c02
5555
e770
0766
cafe
3012
5555
e774
07dd
cafe
340b
5555
e774
07b4
cafe
381b
5555
e774
0769
cafe
3c03
5555
e774
06ec
cafe
2013
5555
e778
0750
cafe
240c
5555
e778
07b1
cafe
281c
5555
e778
0746
cafe
2c04
5555
e778
07a1
cafe
3014
5555
e77c
0722
cafe
340d
5555
e77c
079a
cafe
381d
5555
e77c
076a
cafe
3c05
5555
e77c
07d2
cafe
2015
5555
e780
07ca
cafe
-
240e
5555
e780
0852
cafe
281e
5555
e780
07a0
cafe
2c06
5555
e780
07c8
cafe
3016
5555
e784
0785
cafe
340f
5555
e784
0876
cafe
381f
5555
e784
0778
cafe
3c07
5555
e784
0770
cafe
2017
5555
e788
076b
cafe
2408
5555
e788
0796
cafe
2818
5555
e788
07b6
cafe
2c00
5555
e788
076f
cafe
3010
5555
e78c
0807
cafe
3409
5555
e78c
06d6
cafe
3819
5555
e78c
0787
cafe
3c01
5555
e78c
07bf
cafe
2011
5555
e790
073e
cafe
240a
5555
e790
0739
cafe
281a
5555
e790
0711
cafe
2c02
5555
e790
0750
cafe
3012
5555
e794
07c3
cafe
340b
5555
e794
07ac
cafe
381b
5555
e794
0760
cafe
3c03
5555
e794
06d7
cafe
2013
5555
e798
0740
cafe
240c
5555
e798
078e
cafe
281c
5555
e798
073a
cafe
2c04
5555
e798
078d
cafe
3014
5555
e79c
070e
cafe
340d
5555
e79c
077b
cafe
381d
5555
e79c
074f
cafe
3c05
5555
e79c
07b1
cafe
2015
5555
e7a0
07b8
cafe
240e
5555
e7a0
084e
cafe
281e
5555
e7a0
07a3
cafe
2c06
5555
e7a0
07c2
cafe
3016
5555
e7a4
0779
cafe
340f
5555
e7a4
0869
cafe
381f
5555
e7a4
074f
cafe
3c07
5555
e7a4
074e
cafe
2017
5555
e7a8
0765
cafe
2408
5555
e7a8
0793
cafe
2818
5555
e7a8
07ad
cafe
2c00
5555
e7a8
0767
cafe
3010
5555
e7ac
07ef
cafe
3409
5555
e7ac
06c1
cafe
3819
5555
e7ac
076b
cafe
3c01
5555
e7ac
0794
cafe
2011
5555
e7b0
073a
cafe
240a
5555
e7b0
0711
cafe
281a
5555
e7b0
06f6
cafe
2c02
5555
e7b0
073a
cafe
3012
-
5555
e7b4
07b5
cafe
340b
5555
e7b4
0790
cafe
381b
5555
e7b4
072e
cafe
3c03
5555
e7b4
06c6
cafe
2013
5555
e7b8
0714
cafe
240c
5555
e7b8
0778
cafe
281c
5555
e7b8
071b
cafe
2c04
5555
e7b8
0779
cafe
3014
5555
e7bc
0705
cafe
340d
5555
e7bc
0776
cafe
381d
5555
e7bc
0746
cafe
3c05
5555
e7bc
078d
cafe
2015
5555
e7c0
07b5
cafe
240e
5555
e7c0
082e
cafe
281e
5555
e7c0
0772
cafe
2c06
5555
e7c0
079d
cafe
3016
5555
e7c4
0742
cafe
340f
5555
e7c4
0851
cafe
381f
5555
e7c4
0740
cafe
3c07
5555
e7c4
073a
cafe
2017
5555
e7c8
074e
cafe
2408
5555
e7c8
0779
cafe
2818
5555
e7c8
078e
cafe
2c00
5555
e7c8
0749
cafe
3010
5555
e7cc
07d5
cafe
3409
5555
e7cc
0695
cafe
3819
5555
e7cc
0768
cafe
3c01
5555
e7cc
0793
cafe
2011
5555
e7d0
071e
cafe
240a
5555
e7d0
06f7
cafe
281a
5555
e7d0
06e0
cafe
2c02
5555
e7d0
0721
cafe
3012
5555
e7d4
0790
cafe
340b
5555
e7d4
0773
cafe
381b
5555
e7d4
072d
cafe
3c03
5555
e7d4
06b2
cafe
2013
5555
e7d8
070f
cafe
240c
5555
e7d8
077e
cafe
281c
5555
e7d8
0705
cafe
2c04
5555
e7d8
0758
cafe
3014
5555
e7dc
06e2
cafe
340d
5555
e7dc
075b
cafe
381d
5555
e7dc
072a
cafe
3c05
5555
e7dc
077b
cafe
2015
5555
e7e0
0791
cafe
240e
5555
e7e0
080d
cafe
281e
5555
e7e0
0766
cafe
2c06
5555
e7e0
0796
cafe
3016
5555
e7e4
0752
cafe
340f
5555
e7e4
085a
cafe
381f
5555
e7e4
0728
cafe
3c07
5555
-
e7e4
0722
cafe
2017
5555
e7e8
073c
cafe
2408
5555
e7e8
0756
cafe
2818
5555
e7e8
077b
cafe
2c00
5555
e7e8
0722
cafe
3010
5555
e7ec
07c4
cafe
3409
5555
e7ec
068c
cafe
3819
5555
e7ec
0743
cafe
3c01
5555
e7ec
077a
cafe
2011
5555
e7f0
06f8
cafe
240a
5555
e7f0
06d9
cafe
281a
5555
e7f0
06cb
cafe
2c02
5555
e7f0
06fe
cafe
3012
5555
e7f4
077a
cafe
340b
5555
e7f4
0776
cafe
381b
5555
e7f4
070f
cafe
3c03
5555
e7f4
06aa
cafe
2013
5555
e7f8
06f1
cafe
240c
5555
e7f8
0770
cafe
281c
5555
e7f8
06fe
cafe
2c04
5555
e7f8
075a
cafe
3014
5555
e7fc
06ef
cafe
340d
5555
e7fc
0767
cafe
381d
5555
e7fc
0712
cafe
3c05
5555
e7fc
0777
cafe
2015
5555
e800
07a8
cafe
240e
5555
e800
07ed
cafe
281e
5555
e800
0745
cafe
2c06
5555
e800
0783
cafe
3016
5555
e804
0728
cafe
340f
5555
e804
0812
cafe
381f
5555
e804
070c
cafe
3c07
5555
e804
06f4
cafe
2017
5555
e808
071f
cafe
2408
5555
e808
0751
cafe
2818
5555
e808
0772
cafe
2c00
5555
e808
071e
cafe
3010
5555
e80c
07a8
cafe
3409
5555
e80c
067f
cafe
3819
5555
e80c
0722
cafe
3c01
5555
e80c
0766
cafe
2011
5555
e810
06d6
cafe
240a
5555
e810
06d3
cafe
281a
5555
e810
06b9
cafe
2c02
5555
e810
06e6
cafe
3012
5555
e814
0762
cafe
340b
5555
e814
072e
cafe
381b
5555
e814
0702
cafe
3c03
5555
e814
068f
cafe
2013
5555
e818
06f1
cafe
240c
5555
e818
0747
cafe
281c
5555
e818
-
06db
cafe
2c04
5555
e818
0731
cafe
3014
5555
e81c
06bf
cafe
340d
5555
e81c
0747
cafe
381d
5555
e81c
0702
cafe
3c05
5555
e81c
075c
cafe
2015
5555
e820
0770
cafe
240e
5555
e820
07f2
cafe
281e
5555
e820
0739
cafe
2c06
5555
e820
075d
cafe
3016
5555
e824
070f
cafe
340f
5555
e824
0824
cafe
381f
5555
e824
06e5
cafe
3c07
5555
e824
06fd
cafe
2017
5555
e828
071a
cafe
2408
5555
e828
072d
cafe
2818
5555
e828
0746
cafe
2c00
5555
e828
06fa
cafe
3010
5555
e82c
07a1
cafe
3409
5555
e82c
065c
cafe
3819
5555
e82c
070a
cafe
3c01
5555
e82c
074e
cafe
2011
5555
e830
06bd
cafe
240a
5555
e830
06b7
cafe
281a
5555
e830
06a1
cafe
2c02
5555
e830
06e2
cafe
3012
5555
e834
0753
cafe
340b
5555
e834
0729
cafe
381b
5555
e834
06ec
cafe
3c03
5555
e834
0662
cafe
2013
5555
e838
06d0
cafe
240c
5555
e838
0741
cafe
281c
5555
e838
06b7
cafe
2c04
5555
e838
071d
cafe
3014
5555
e83c
06b3
cafe
340d
5555
e83c
0729
cafe
381d
5555
e83c
06f0
cafe
3c05
5555
e83c
0749
cafe
2015
5555
e840
0763
cafe
240e
5555
e840
07ce
cafe
281e
5555
e840
0728
cafe
2c06
5555
e840
074a
cafe
3016
5555
e844
0709
cafe
340f
5555
e844
0812
cafe
381f
5555
e844
06d1
cafe
3c07
5555
e844
06f5
cafe
2017
5555
e848
06f1
cafe
2408
5555
e848
0701
cafe
2818
5555
e848
073c
cafe
2c00
5555
e848
06eb
cafe
3010
5555
e84c
0779
cafe
3409
5555
e84c
0646
-
cafe
3819
5555
e84c
06f2
cafe
3c01
5555
e84c
0734
cafe
2011
5555
e850
06c2
cafe
240a
5555
e850
06aa
cafe
281a
5555
e850
067c
cafe
2c02
5555
e850
06c3
cafe
3012
5555
e854
0742
cafe
340b
5555
e854
0716
cafe
381b
5555
e854
06dc
cafe
3c03
5555
e854
0659
cafe
2013
5555
e858
06ce
cafe
240c
5555
e858
070a
cafe
281c
5555
e858
06bf
cafe
2c04
5555
e858
0713
cafe
3014
5555
e85c
0690
cafe
340d
5555
e85c
071d
cafe
381d
5555
e85c
06d2
cafe
3c05
5555
e85c
073a
cafe
2015
5555
e860
073b
cafe
240e
5555
e860
07d5
cafe
281e
5555
e860
0710
cafe
2c06
5555
e860
0732
cafe
3016
5555
e864
06f3
cafe
340f
5555
e864
07e7
cafe
381f
5555
e864
06c3
cafe
3c07
5555
e864
06cc
cafe
2017
5555
e868
06f1
cafe
2408
5555
e868
0708
cafe
2818
5555
e868
0733
cafe
2c00
5555
e868
06d2
cafe
3010
5555
e86c
0773
cafe
3409
5555
e86c
0625
cafe
3819
5555
e86c
06e9
cafe
3c01
5555
e86c
0734
cafe
2011
5555
e870
06a5
cafe
240a
5555
e870
0689
cafe
281a
5555
e870
0665
cafe
2c02
5555
e870
06a6
cafe
3012
5555
e874
0732
cafe
340b
5555
e874
070f
cafe
381b
5555
e874
06b6
cafe
3c03
5555
e874
064d
cafe
2013
5555
e878
06ae
cafe
240c
5555
e878
0709
cafe
281c
5555
e878
0697
cafe
2c04
5555
e878
06fc
cafe
3014
5555
e87c
0686
cafe
340d
5555
e87c
06fd
cafe
381d
5555
e87c
06e2
cafe
3c05
5555
e87c
0711
cafe
2015
5555
e880
0733
cafe
-
240e
5555
e880
07b6
cafe
281e
5555
e880
06ff
cafe
2c06
5555
e880
0716
cafe
3016
5555
e884
06c2
cafe
340f
5555
e884
07db
cafe
381f
5555
e884
06b4
cafe
3c07
5555
e884
06d7
cafe
2017
5555
e888
06de
cafe
2408
5555
e888
06f4
cafe
2818
5555
e888
0715
cafe
2c00
5555
e888
06c7
cafe
3010
5555
e88c
0762
cafe
3409
5555
e88c
0627
cafe
3819
5555
e88c
06da
cafe
3c01
5555
e88c
071e
cafe
2011
5555
e890
069d
cafe
240a
5555
e890
0688
cafe
281a
5555
e890
0655
cafe
2c02
5555
e890
0698
cafe
3012
5555
e894
072c
cafe
340b
5555
e894
06eb
cafe
381b
5555
e894
06ac
cafe
3c03
5555
e894
0646
cafe
2013
5555
e898
0680
cafe
240c
5555
e898
06f6
cafe
281c
5555
e898
0680
cafe
2c04
5555
e898
06e1
cafe
3014
5555
e89c
067e
cafe
340d
5555
e89c
06ef
cafe
381d
5555
e89c
06c4
cafe
3c05
5555
e89c
0708
cafe
2015
5555
e8a0
0730
cafe
240e
5555
e8a0
07ae
cafe
281e
5555
e8a0
06e5
cafe
2c06
5555
e8a0
0702
cafe
3016
5555
e8a4
06ab
cafe
340f
5555
e8a4
07cd
cafe
381f
5555
e8a4
0695
cafe
3c07
5555
e8a4
06c6
cafe
2017
5555
e8a8
06c1
cafe
2408
5555
e8a8
06d4
cafe
2818
5555
e8a8
06fc
cafe
2c00
5555
e8a8
06a3
cafe
3010
5555
e8ac
074f
cafe
3409
5555
e8ac
0607
cafe
3819
5555
e8ac
06c8
cafe
3c01
5555
e8ac
06fd
cafe
2011
5555
e8b0
0677
cafe
240a
5555
e8b0
0670
cafe
281a
5555
e8b0
063b
cafe
2c02
5555
e8b0
0696
cafe
3012
-
5555
e8b4
070f
cafe
340b
5555
e8b4
06c7
cafe
381b
5555
e8b4
0695
cafe
3c03
5555
e8b4
061f
cafe
2013
5555
e8b8
0673
cafe
240c
5555
e8b8
06d3
cafe
281c
5555
e8b8
066b
cafe
2c04
5555
e8b8
06d4
cafe
3014
5555
e8bc
066d
cafe
340d
5555
e8bc
06d8
cafe
381d
5555
e8bc
06a1
cafe
3c05
5555
e8bc
06e0
cafe
2015
5555
e8c0
0709
cafe
240e
5555
e8c0
079b
cafe
281e
5555
e8c0
06ec
cafe
2c06
5555
e8c0
0708
cafe
3016
5555
e8c4
06a0
cafe
340f
5555
e8c4
07ad
cafe
381f
5555
e8c4
067d
cafe
3c07
5555
e8c4
06a6
cafe
2017
5555
e8c8
06ae
cafe
2408
5555
e8c8
06da
cafe
2818
5555
e8c8
06f0
cafe
2c00
5555
e8c8
06a8
cafe
3010
5555
e8cc
0733
cafe
3409
5555
e8cc
05e3
cafe
3819
5555
e8cc
06a3
cafe
3c01
5555
e8cc
06f2
cafe
2011
5555
e8d0
0663
cafe
240a
5555
e8d0
064d
cafe
281a
5555
e8d0
0626
cafe
2c02
5555
e8d0
067f
cafe
3012
5555
e8d4
0708
cafe
340b
5555
e8d4
06c2
cafe
381b
5555
e8d4
0678
cafe
3c03
5555
e8d4
0605
cafe
2013
5555
e8d8
0645
cafe
240c
5555
e8d8
06ce
cafe
281c
5555
e8d8
065b
cafe
2c04
5555
e8d8
06c1
cafe
3014
5555
e8dc
0650
cafe
340d
5555
e8dc
06c6
cafe
381d
5555
e8dc
0685
cafe
3c05
5555
e8dc
06e6
cafe
2015
5555
e8e0
06ef
cafe
240e
5555
e8e0
0781
cafe
281e
5555
e8e0
06d0
cafe
2c06
5555
e8e0
06e8
cafe
3016
5555
e8e4
0691
cafe
340f
5555
e8e4
07a9
cafe
381f
5555
e8e4
0669
cafe
3c07
5555
-
e8e4
068a
cafe
2017
5555
e8e8
068b
cafe
2408
5555
e8e8
06ba
cafe
2818
5555
e8e8
06d0
cafe
2c00
5555
e8e8
0690
cafe
3010
5555
e8ec
0734
cafe
3409
5555
e8ec
05c5
cafe
3819
5555
e8ec
068f
cafe
3c01
5555
e8ec
06d4
cafe
2011
5555
e8f0
0643
cafe
240a
5555
e8f0
0645
cafe
281a
5555
e8f0
0617
cafe
2c02
5555
e8f0
0657
cafe
3012
5555
e8f4
06d2
cafe
340b
5555
e8f4
06aa
cafe
381b
5555
e8f4
066b
cafe
3c03
5555
e8f4
05f6
cafe
2013
5555
e8f8
064b
cafe
240c
5555
e8f8
06a4
cafe
281c
5555
e8f8
063b
cafe
2c04
5555
e8f8
06b6
cafe
3014
5555
e8fc
0634
cafe
340d
5555
e8fc
06b2
cafe
381d
5555
e8fc
066a
cafe
3c05
5555
e8fc
06b4
cafe
2015
5555
e900
06f1
cafe
240e
5555
e900
0771
cafe
281e
5555
e900
06ad
cafe
2c06
5555
e900
06e3
cafe
3016
5555
e904
0681
cafe
340f
5555
e904
079b
cafe
381f
5555
e904
0655
cafe
3c07
5555
e904
0674
cafe
2017
5555
e908
0681
cafe
2408
5555
e908
06a6
cafe
2818
5555
e908
06c7
cafe
2c00
5555
e908
0683
cafe
3010
5555
e90c
0719
cafe
3409
5555
e90c
05b3
cafe
3819
5555
e90c
067b
cafe
3c01
5555
e90c
06e7
cafe
2011
5555
e910
062c
cafe
240a
5555
e910
0627
cafe
281a
5555
e910
05f9
cafe
2c02
5555
e910
0652
cafe
3012
5555
e914
06c4
cafe
340b
5555
e914
068b
cafe
381b
5555
e914
0654
cafe
3c03
5555
e914
05db
cafe
2013
5555
e918
0630
cafe
240c
5555
e918
0696
cafe
281c
5555
e918
-
061b
cafe
2c04
5555
e918
069d
cafe
3014
5555
e91c
0611
cafe
340d
5555
e91c
06a9
cafe
381d
5555
e91c
0672
cafe
3c05
5555
e91c
069c
cafe
2015
5555
e920
06e3
cafe
240e
5555
e920
0752
cafe
281e
5555
e920
069d
cafe
2c06
5555
e920
06bc
cafe
3016
5555
e924
066f
cafe
340f
5555
e924
078d
cafe
381f
5555
e924
0632
cafe
3c07
5555
e924
0658
cafe
2017
5555
e928
066b
cafe
2408
5555
e928
0680
cafe
2818
5555
e928
06b7
cafe
2c00
5555
e928
0669
cafe
3010
5555
e92c
0700
cafe
3409
5555
e92c
0592
cafe
3819
5555
e92c
066a
cafe
3c01
5555
e92c
06b6
cafe
2011
5555
e930
062f
cafe
240a
5555
e930
0609
cafe
281a
5555
e930
05e8
cafe
2c02
5555
e930
0639
cafe
3012
5555
e934
06bf
cafe
340b
5555
e934
0694
cafe
381b
5555
e934
063b
cafe
3c03
5555
e934
05be
cafe
2013
5555
e938
0632
cafe
240c
5555
e938
067a
cafe
281c
5555
e938
0620
cafe
2c04
5555
e938
0690
cafe
3014
5555
e93c
05f7
cafe
340d
5555
e93c
067c
cafe
381d
5555
e93c
0637
cafe
3c05
5555
e93c
069f
cafe
2015
5555
e940
06c1
cafe
240e
5555
e940
0736
cafe
281e
5555
e940
0684
cafe
2c06
5555
e940
06a5
cafe
3016
5555
e944
0663
cafe
340f
5555
e944
0771
cafe
381f
5555
e944
0615
cafe
3c07
5555
e944
0651
cafe
2017
5555
e948
0667
cafe
2408
5555
e948
0674
cafe
2818
5555
e948
06a9
cafe
2c00
5555
e948
064d
cafe
3010
5555
e94c
06e9
cafe
3409
5555
e94c
058b
-
cafe
3819
5555
e94c
0656
cafe
3c01
5555
e94c
0691
cafe
2011
5555
e950
0612
cafe
240a
5555
e950
0602
cafe
281a
5555
e950
05d9
cafe
2c02
5555
e950
062b
cafe
3012
5555
e954
06aa
cafe
340b
5555
e954
0668
cafe
381b
5555
e954
0628
cafe
3c03
5555
e954
05b2
cafe
2013
5555
e958
060d
cafe
240c
5555
e958
0672
cafe
281c
5555
e958
0607
cafe
2c04
5555
e958
067d
cafe
3014
5555
e95c
05f3
cafe
340d
5555
e95c
067a
cafe
381d
5555
e95c
0635
cafe
3c05
5555
e95c
0699
cafe
2015
5555
e960
06b9
cafe
240e
5555
e960
072c
cafe
281e
5555
e960
0676
cafe
2c06
5555
e960
069f
cafe
3016
5555
e964
0663
cafe
340f
5555
e964
075c
cafe
381f
5555
e964
0608
cafe
3c07
5555
e964
0647
cafe
2017
5555
e968
0649
cafe
2408
5555
e968
067d
cafe
2818
5555
e968
0699
cafe
2c00
5555
e968
0639
cafe
3010
5555
e96c
06ea
cafe
3409
5555
e96c
0561
cafe
3819
5555
e96c
0643
cafe
3c01
5555
e96c
0693
cafe
2011
5555
e970
05e5
cafe
240a
5555
e970
05ea
cafe
281a
5555
e970
05d0
cafe
2c02
5555
e970
060f
cafe
3012
5555
e974
0695
cafe
340b
5555
e974
065a
cafe
381b
5555
e974
0611
cafe
3c03
5555
e974
05b4
cafe
2013
5555
e978
0602
cafe
240c
5555
e978
066f
cafe
281c
5555
e978
05e8
cafe
2c04
5555
e978
0653
cafe
3014
5555
e97c
05d8
cafe
340d
5555
e97c
064b
cafe
381d
5555
e97c
062d
cafe
3c05
5555
e97c
0673
cafe
2015
5555
e980
069e
cafe
-
240e
5555
e980
0720
cafe
281e
5555
e980
0650
cafe
2c06
5555
e980
0697
cafe
3016
5555
e984
0640
cafe
340f
5555
e984
074f
cafe
381f
5555
e984
0603
cafe
3c07
5555
e984
062e
cafe
2017
5555
e988
0643
cafe
2408
5555
e988
0666
cafe
2818
5555
e988
0670
cafe
2c00
5555
e988
0625
cafe
3010
5555
e98c
06e7
cafe
3409
5555
e98c
0567
cafe
3819
5555
e98c
063c
cafe
3c01
5555
e98c
066a
cafe
2011
5555
e990
05dd
cafe
240a
5555
e990
05d5
cafe
281a
5555
e990
05aa
cafe
2c02
5555
e990
05f7
cafe
3012
5555
e994
0680
cafe
340b
5555
e994
0648
cafe
381b
5555
e994
0609
cafe
3c03
5555
e994
0587
cafe
2013
5555
e998
05e1
cafe
240c
5555
e998
065d
cafe
281c
5555
e998
05d6
cafe
2c04
5555
e998
064b
cafe
3014
5555
e99c
05cb
cafe
340d
5555
e99c
0653
cafe
381d
5555
e99c
0614
cafe
3c05
5555
e99c
0668
cafe
2015
5555
e9a0
0699
cafe
240e
5555
e9a0
0700
cafe
281e
5555
e9a0
0643
cafe
2c06
5555
e9a0
0683
cafe
3016
5555
e9a4
0627
cafe
340f
5555
e9a4
0736
cafe
381f
5555
e9a4
05f3
cafe
3c07
5555
e9a4
0613
cafe
2017
5555
e9a8
0632
cafe
2408
5555
e9a8
0642
cafe
2818
5555
e9a8
0658
cafe
2c00
5555
e9a8
060b
cafe
3010
5555
e9ac
06bd
cafe
3409
5555
e9ac
054e
cafe
3819
5555
e9ac
0607
cafe
3c01
5555
e9ac
0669
cafe
2011
5555
e9b0
05d8
cafe
240a
5555
e9b0
05c2
cafe
281a
5555
e9b0
0597
cafe
2c02
5555
e9b0
05e2
cafe
3012
-
5555
e9b4
0668
cafe
340b
5555
e9b4
062a
cafe
381b
5555
e9b4
05f3
cafe
3c03
5555
e9b4
0585
cafe
2013
5555
e9b8
05cf
cafe
240c
5555
e9b8
0636
cafe
281c
5555
e9b8
05d7
cafe
2c04
5555
e9b8
0630
cafe
3014
5555
e9bc
05ad
cafe
340d
5555
e9bc
0635
cafe
381d
5555
e9bc
05e2
cafe
3c05
5555
e9bc
0649
cafe
2015
5555
e9c0
067a
cafe
240e
5555
e9c0
06f0
cafe
281e
5555
e9c0
062a
cafe
2c06
5555
e9c0
0665
cafe
3016
5555
e9c4
063e
cafe
340f
5555
e9c4
071e
cafe
381f
5555
e9c4
05d4
cafe
3c07
5555
e9c4
0616
cafe
2017
5555
e9c8
0621
cafe
2408
5555
e9c8
062f
cafe
2818
5555
e9c8
0658
cafe
2c00
5555
e9c8
060a
cafe
3010
5555
e9cc
06a3
cafe
3409
5555
e9cc
0551
cafe
3819
5555
e9cc
05fe
cafe
3c01
5555
e9cc
0656
cafe
2011
5555
e9d0
05c7
cafe
240a
5555
e9d0
05af
cafe
281a
5555
e9d0
0592
cafe
2c02
5555
e9d0
05dd
cafe
3012
5555
e9d4
066f
cafe
340b
5555
e9d4
061d
cafe
381b
5555
e9d4
05d7
cafe
3c03
5555
e9d4
0554
cafe
2013
5555
e9d8
05c7
cafe
240c
5555
e9d8
0636
cafe
281c
5555
e9d8
05b6
cafe
2c04
5555
e9d8
062c
cafe
3014
5555
e9dc
058f
cafe
340d
5555
e9dc
0628
cafe
381d
5555
e9dc
05e7
cafe
3c05
5555
e9dc
063b
cafe
2015
5555
e9e0
0673
cafe
240e
5555
e9e0
06ef
cafe
281e
5555
e9e0
061b
cafe
2c06
5555
e9e0
065d
cafe
3016
5555
e9e4
0612
cafe
340f
5555
e9e4
0717
cafe
381f
5555
e9e4
05c6
cafe
3c07
5555
-
e9e4
0608
cafe
2017
5555
e9e8
0604
cafe
2408
5555
e9e8
0622
cafe
2818
5555
e9e8
0648
cafe
2c00
5555
e9e8
05fa
cafe
3010
5555
e9ec
06af
cafe
3409
5555
e9ec
0536
cafe
3819
5555
e9ec
05e8
cafe
3c01
5555
e9ec
063f
cafe
2011
5555
e9f0
05a2
cafe
240a
5555
e9f0
0596
cafe
281a
5555
e9f0
0588
cafe
2c02
5555
e9f0
05c2
cafe
3012
5555
e9f4
063c
cafe
340b
5555
e9f4
060a
cafe
381b
5555
e9f4
05d3
cafe
3c03
5555
e9f4
055c
cafe
2013
5555
e9f8
05b5
cafe
240c
5555
e9f8
061e
cafe
281c
5555
e9f8
05a1
cafe
2c04
5555
e9f8
0601
cafe
3014
5555
e9fc
058b
cafe
340d
5555
e9fc
0622
cafe
381d
5555
e9fc
05d7
cafe
3c05
5555
e9fc
0643
cafe
2015
5555
ea00
0655
cafe
240e
5555
ea00
06ce
cafe
281e
5555
ea00
05f6
cafe
2c06
5555
ea00
0658
cafe
3016
5555
ea04
0607
cafe
340f
5555
ea04
0706
cafe
381f
5555
ea04
05a3
cafe
3c07
5555
ea04
05d6
cafe
2017
5555
ea08
05fa
cafe
2408
5555
ea08
0610
cafe
2818
5555
ea08
061b
cafe
2c00
5555
ea08
05d9
cafe
3010
5555
ea0c
0692
cafe
3409
5555
ea0c
0511
cafe
3819
5555
ea0c
05ce
cafe
3c01
5555
ea0c
063f
cafe
2011
5555
ea10
0586
cafe
240a
5555
ea10
0589
cafe
281a
5555
ea10
056b
cafe
2c02
5555
ea10
05b8
cafe
3012
5555
ea14
062b
cafe
340b
5555
ea14
05f6
cafe
381b
5555
ea14
05ba
cafe
3c03
5555
ea14
0536
cafe
2013
5555
ea18
05a5
cafe
240c
5555
ea18
05f3
cafe
281c
5555
ea18
-
0595
cafe
2c04
5555
ea18
0603
cafe
3014
5555
ea1c
0595
cafe
340d
5555
ea1c
0602
cafe
381d
5555
ea1c
05ad
cafe
3c05
5555
ea1c
0614
cafe
2015
5555
ea20
0635
cafe
240e
5555
ea20
06b6
cafe
281e
5555
ea20
05eb
cafe
2c06
5555
ea20
0636
cafe
3016
5555
ea24
05e9
cafe
340f
5555
ea24
06ff
cafe
381f
5555
ea24
0596
cafe
3c07
5555
ea24
05cb
cafe
2017
5555
ea28
05e1
cafe
2408
5555
ea28
0610
cafe
2818
5555
ea28
0622
cafe
2c00
5555
ea28
05bd
cafe
3010
5555
ea2c
0688
cafe
3409
5555
ea2c
04fa
cafe
3819
5555
ea2c
05cc
cafe
3c01
5555
ea2c
0623
cafe
2011
5555
ea30
057f
cafe
240a
5555
ea30
056d
cafe
281a
5555
ea30
054c
cafe
2c02
5555
ea30
0593
cafe
3012
5555
ea34
063b
cafe
340b
5555
ea34
05d8
cafe
381b
5555
ea34
05a9
cafe
3c03
5555
ea34
0526
cafe
2013
5555
ea38
0577
cafe
240c
5555
ea38
05f2
cafe
281c
5555
ea38
0584
cafe
2c04
5555
ea38
05f8
cafe
3014
5555
ea3c
056a
cafe
340d
5555
ea3c
0604
cafe
381d
5555
ea3c
05ad
cafe
3c05
5555
ea3c
060c
cafe
2015
5555
ea40
062f
cafe
240e
5555
ea40
06b4
cafe
281e
5555
ea40
05de
cafe
2c06
5555
ea40
0628
cafe
3016
5555
ea44
05c7
cafe
340f
5555
ea44
06de
cafe
381f
5555
ea44
058c
cafe
3c07
5555
ea44
05bc
cafe
2017
5555
ea48
05d1
cafe
2408
5555
ea48
05e3
cafe
2818
5555
ea48
061c
cafe
2c00
5555
ea48
05c0
cafe
3010
5555
ea4c
0685
cafe
3409
5555
ea4c
04f2
-
cafe
3819
5555
ea4c
05c0
cafe
3c01
5555
ea4c
0611
cafe
2011
5555
ea50
0560
cafe
240a
5555
ea50
0560
cafe
281a
5555
ea50
055d
cafe
2c02
5555
ea50
058d
cafe
3012
5555
ea54
0616
cafe
340b
5555
ea54
05d0
cafe
381b
5555
ea54
0578
cafe
3c03
5555
ea54
051b
cafe
2013
5555
ea58
056d
cafe
240c
5555
ea58
05d5
cafe
281c
5555
ea58
0573
cafe
2c04
5555
ea58
05eb
cafe
3014
5555
ea5c
0566
cafe
340d
5555
ea5c
05eb
cafe
381d
5555
ea5c
058e
cafe
3c05
5555
ea5c
05f1
cafe
2015
5555
ea60
060f
cafe
240e
5555
ea60
06ac
cafe
281e
5555
ea60
05bb
cafe
2c06
5555
ea60
061d
cafe
3016
5555
ea64
05c7
cafe
340f
5555
ea64
06d9
cafe
381f
5555
ea64
0570
cafe
3c07
5555
ea64
05c2
cafe
2017
5555
ea68
05b5
cafe
2408
5555
ea68
05d0
cafe
2818
5555
ea68
0607
cafe
2c00
5555
ea68
0593
cafe
3010
5555
ea6c
0673
cafe
3409
5555
ea6c
04ea
cafe
3819
5555
ea6c
05a2
cafe
3c01
5555
ea6c
060c
cafe
2011
5555
ea70
0552
cafe
240a
5555
ea70
0549
cafe
281a
5555
ea70
052e
cafe
2c02
5555
ea70
0573
cafe
3012
5555
ea74
0603
cafe
340b
5555
ea74
05ce
cafe
381b
5555
ea74
0579
cafe
3c03
5555
ea74
0500
cafe
2013
5555
ea78
0573
cafe
240c
5555
ea78
05db
cafe
281c
5555
ea78
0560
cafe
2c04
5555
ea78
05cb
cafe
3014
5555
ea7c
0547
cafe
340d
5555
ea7c
05c9
cafe
381d
5555
ea7c
0581
cafe
3c05
5555
ea7c
05ef
cafe
2015
5555
ea80
0621
cafe
-
