2008
5556
0f08
014e
cafe
2418
5556
0f08
0148
cafe
2800
5556
0f08
01a4
cafe
2c10
5556
0f0c
01ab
cafe
3009
5556
0f0c
016b
cafe
3419
5556
0f0c
015a
cafe
3801
5556
0f0c
023e
cafe
3c11
5556
0f10
018d
cafe
200a
5556
0f10
0134
cafe
241a
5556
0f10
0154
cafe
2802
5556
0f10
0186
cafe
2c12
5556
0f14
01fd
cafe
300b
5556
0f14
018b
cafe
341b
5556
0f14
01f0
cafe
3803
5556
0f14
0171
cafe
3c13
5556
0f18
01bc
cafe
200c
5556
0f18
0135
cafe
241c
5556
0f18
0132
cafe
2804
5556
0f18
020e
cafe
2c14
5556
0f1c
01a4
cafe
300d
5556
0f1c
00ee
cafe
341d
5556
0f1c
0184
cafe
3805
5556
0f1c
0271
cafe
3c15
5556
0f20
011d
cafe
200e
5556
0f20
0195
cafe
241e
5556
0f20
01eb
cafe
2806
5556
0f20
01e2
cafe
2c16
5556
0f24
01af
cafe
300f
5556
0f24
0105
cafe
341f
5556
0f24
0244
cafe
3807
5556
0f24
019e
cafe
3c17
5556
0f28
017a
cafe
2008
5556
0f28
0144
cafe
2418
5556
0f28
0152
cafe
2800
5556
0f28
01a0
cafe
2c10
5556
0f2c
019b
cafe
3009
5556
0f2c
016c
cafe
3419
5556
0f2c
0166
cafe
3801
5556
0f2c
0236
cafe
3c11
5556
0f30
017e
cafe
200a
5556
0f30
0149
cafe
241a
5556
0f30
014b
cafe
2802
5556
0f30
0177
cafe
2c12
5556
0f34
01f0
cafe
300b
5556
0f34
0183
cafe
341b
5556
0f34
0205
cafe
3803
5556
0f34
015c
cafe
3c13
5556
0f38
01ac
cafe
200c
5556
0f38
0139
cafe
241c
5556
0f38
0144
cafe
2804
5556
0f38
0215
cafe
2c14
-
5556
0f3c
01b4
cafe
300d
5556
0f3c
0110
cafe
341d
5556
0f3c
0194
cafe
3805
5556
0f3c
0279
cafe
3c15
5556
0f40
012e
cafe
200e
5556
0f40
018d
cafe
241e
5556
0f40
01ea
cafe
2806
5556
0f40
01e4
cafe
2c16
5556
0f44
01c0
cafe
300f
5556
0f44
00fe
cafe
341f
5556
0f44
0234
cafe
3807
5556
0f44
01a0
cafe
3c17
5556
0f48
017e
cafe
2008
5556
0f48
015b
cafe
2418
5556
0f48
015b
cafe
2800
5556
0f48
01a4
cafe
2c10
5556
0f4c
01a4
cafe
3009
5556
0f4c
0172
cafe
3419
5556
0f4c
015d
cafe
3801
5556
0f4c
0234
cafe
3c11
5556
0f50
0189
cafe
200a
5556
0f50
0141
cafe
241a
5556
0f50
0149
cafe
2802
5556
0f50
018a
cafe
2c12
5556
0f54
01f6
cafe
300b
5556
0f54
0183
cafe
341b
5556
0f54
01fd
cafe
3803
5556
0f54
0162
cafe
3c13
5556
0f58
01a6
cafe
200c
5556
0f58
011c
cafe
241c
5556
0f58
0131
cafe
2804
5556
0f58
021b
cafe
2c14
5556
0f5c
01b4
cafe
300d
5556
0f5c
0111
cafe
341d
5556
0f5c
018e
cafe
3805
5556
0f5c
0279
cafe
3c15
5556
0f60
012e
cafe
200e
5556
0f60
018e
cafe
241e
5556
0f60
01f9
cafe
2806
5556
0f60
01df
cafe
2c16
5556
0f64
01b0
cafe
300f
5556
0f64
00fa
cafe
341f
5556
0f64
0244
cafe
3807
5556
0f64
019c
cafe
3c17
5556
0f68
0193
cafe
2008
5556
0f68
0150
cafe
2418
5556
0f68
0149
cafe
2800
5556
0f68
019e
cafe
2c10
5556
0f6c
01af
cafe
3009
5556
0f6c
0170
cafe
3419
5556
0f6c
014f
cafe
3801
5556
-
0f6c
024d
cafe
3c11
5556
0f70
0185
cafe
200a
5556
0f70
013f
cafe
241a
5556
0f70
015d
cafe
2802
5556
0f70
017b
cafe
2c12
5556
0f74
01f8
cafe
300b
5556
0f74
018c
cafe
341b
5556
0f74
01fc
cafe
3803
5556
0f74
0168
cafe
3c13
5556
0f78
01b0
cafe
200c
5556
0f78
0128
cafe
241c
5556
0f78
0136
cafe
2804
5556
0f78
0227
cafe
2c14
5556
0f7c
01a6
cafe
300d
5556
0f7c
0103
cafe
341d
5556
0f7c
017f
cafe
3805
5556
0f7c
0288
cafe
3c15
5556
0f80
0127
cafe
200e
5556
0f80
01a6
cafe
241e
5556
0f80
01fe
cafe
2806
5556
0f80
01d0
cafe
2c16
5556
0f84
01ab
cafe
300f
5556
0f84
00ea
cafe
341f
5556
0f84
0228
cafe
3807
5556
0f84
0199
cafe
3c17
5556
0f88
017f
cafe
2008
5556
0f88
015c
cafe
2418
5556
0f88
0154
cafe
2800
5556
0f88
01ad
cafe
2c10
5556
0f8c
0198
cafe
3009
5556
0f8c
016e
cafe
3419
5556
0f8c
0164
cafe
3801
5556
0f8c
0238
cafe
3c11
5556
0f90
017d
cafe
200a
5556
0f90
0150
cafe
241a
5556
0f90
0148
cafe
2802
5556
0f90
017c
cafe
2c12
5556
0f94
01f5
cafe
300b
5556
0f94
0184
cafe
341b
5556
0f94
01f7
cafe
3803
5556
0f94
016b
cafe
3c13
5556
0f98
01ac
cafe
200c
5556
0f98
012c
cafe
241c
5556
0f98
0132
cafe
2804
5556
0f98
0210
cafe
2c14
5556
0f9c
0196
cafe
300d
5556
0f9c
00fd
cafe
341d
5556
0f9c
017e
cafe
3805
5556
0f9c
0278
cafe
3c15
5556
0fa0
0131
cafe
200e
5556
0fa0
019e
cafe
241e
5556
0fa0
-
01f2
cafe
2806
5556
0fa0
01ed
cafe
2c16
5556
0fa4
01b4
cafe
300f
5556
0fa4
00ef
cafe
341f
5556
0fa4
0232
cafe
3807
5556
0fa4
019a
cafe
3c17
5556
0fa8
0185
cafe
2008
5556
0fa8
0150
cafe
2418
5556
0fa8
0146
cafe
2800
5556
0fa8
019a
cafe
2c10
5556
0fac
019b
cafe
3009
5556
0fac
0178
cafe
3419
5556
0fac
0166
cafe
3801
5556
0fac
0239
cafe
3c11
5556
0fb0
0181
cafe
200a
5556
0fb0
0139
cafe
241a
5556
0fb0
015c
cafe
2802
5556
0fb0
0188
cafe
2c12
5556
0fb4
0209
cafe
300b
5556
0fb4
018a
cafe
341b
5556
0fb4
01ff
cafe
3803
5556
0fb4
0164
cafe
3c13
5556
0fb8
01a3
cafe
200c
5556
0fb8
0137
cafe
241c
5556
0fb8
012d
cafe
2804
5556
0fb8
0213
cafe
2c14
5556
0fbc
01c6
cafe
300d
5556
0fbc
0103
cafe
341d
5556
0fbc
0184
cafe
3805
5556
0fbc
0284
cafe
3c15
5556
0fc0
011b
cafe
200e
5556
0fc0
018e
cafe
241e
5556
0fc0
0201
cafe
2806
5556
0fc0
01dc
cafe
2c16
5556
0fc4
01af
cafe
300f
5556
0fc4
00ec
cafe
341f
5556
0fc4
0242
cafe
3807
5556
0fc4
018b
cafe
3c17
5556
0fc8
0187
cafe
2008
5556
0fc8
0151
cafe
2418
5556
0fc8
0150
cafe
2800
5556
0fc8
018c
cafe
2c10
5556
0fcc
019f
cafe
3009
5556
0fcc
016b
cafe
3419
5556
0fcc
014e
cafe
3801
5556
0fcc
0239
cafe
3c11
5556
0fd0
018c
cafe
200a
5556
0fd0
013e
cafe
241a
5556
0fd0
0154
cafe
2802
5556
0fd0
0184
cafe
2c12
5556
0fd4
01fc
cafe
300b
5556
0fd4
017d
-
cafe
341b
5556
0fd4
0202
cafe
3803
5556
0fd4
0168
cafe
3c13
5556
0fd8
01a7
cafe
200c
5556
0fd8
0140
cafe
241c
5556
0fd8
013c
cafe
2804
5556
0fd8
0218
cafe
2c14
5556
0fdc
01b5
cafe
300d
5556
0fdc
0105
cafe
341d
5556
0fdc
0184
cafe
3805
5556
0fdc
0284
cafe
3c15
5556
0fe0
0121
cafe
200e
5556
0fe0
019e
cafe
241e
5556
0fe0
01f1
cafe
2806
5556
0fe0
01df
cafe
2c16
5556
0fe4
01c2
cafe
300f
5556
0fe4
00f6
cafe
341f
5556
0fe4
0235
cafe
3807
5556
0fe4
0196
cafe
3c17
5556
0fe8
0176
cafe
2008
5556
0fe8
0144
cafe
2418
5556
0fe8
0141
cafe
2800
5556
0fe8
0195
cafe
2c10
5556
0fec
019d
cafe
3009
5556
0fec
017a
cafe
3419
5556
0fec
014f
cafe
3801
5556
0fec
023f
cafe
3c11
5556
0ff0
0187
cafe
200a
5556
0ff0
015e
cafe
241a
5556
0ff0
0153
cafe
2802
5556
0ff0
0184
cafe
2c12
5556
0ff4
01f4
cafe
300b
5556
0ff4
0186
cafe
341b
5556
0ff4
01ff
cafe
3803
5556
0ff4
015c
cafe
3c13
5556
0ff8
01ac
cafe
200c
5556
0ff8
0133
cafe
241c
5556
0ff8
0133
cafe
2804
5556
0ff8
020b
cafe
2c14
5556
0ffc
01ac
cafe
300d
5556
0ffc
010e
cafe
341d
5556
0ffc
0175
cafe
3805
5556
0ffc
0284
cafe
3c15
5556
1000
0132
cafe
200e
5556
1000
01a6
cafe
241e
5556
1000
01e6
cafe
2806
5556
1000
01df
cafe
2c16
5556
1004
01b1
cafe
300f
5556
1004
00e7
cafe
341f
5556
1004
022b
cafe
3807
5556
1004
019f
cafe
3c17
5556
1008
017c
cafe
-
2008
5556
1008
0156
cafe
2418
5556
1008
0140
cafe
2800
5556
1008
01ab
cafe
2c10
5556
100c
0190
cafe
3009
5556
100c
017c
cafe
3419
5556
100c
0163
cafe
3801
5556
100c
0238
cafe
3c11
5556
1010
018c
cafe
200a
5556
1010
0149
cafe
241a
5556
1010
013a
cafe
2802
5556
1010
0181
cafe
2c12
5556
1014
01f1
cafe
300b
5556
1014
0186
cafe
341b
5556
1014
0201
cafe
3803
5556
1014
0176
cafe
3c13
5556
1018
01c4
cafe
200c
5556
1018
0147
cafe
241c
5556
1018
0129
cafe
2804
5556
1018
01ff
cafe
2c14
5556
101c
01b1
cafe
300d
5556
101c
00f9
cafe
341d
5556
101c
0189
cafe
3805
5556
101c
0280
cafe
3c15
5556
1020
012c
cafe
200e
5556
1020
0195
cafe
241e
5556
1020
01dc
cafe
2806
5556
1020
01da
cafe
2c16
5556
1024
01a4
cafe
300f
5556
1024
00fc
cafe
341f
5556
1024
023c
cafe
3807
5556
1024
01b0
cafe
3c17
5556
1028
0188
cafe
2008
5556
1028
0157
cafe
2418
5556
1028
0142
cafe
2800
5556
1028
0194
cafe
2c10
5556
102c
018f
cafe
3009
5556
102c
017b
cafe
3419
5556
102c
017c
cafe
3801
5556
102c
023c
cafe
3c11
5556
1030
0195
cafe
200a
5556
1030
012e
cafe
241a
5556
1030
015e
cafe
2802
5556
1030
017f
cafe
2c12
5556
1034
01ec
cafe
300b
5556
1034
017c
cafe
341b
5556
1034
01fd
cafe
3803
5556
1034
0160
cafe
3c13
5556
1038
019c
cafe
200c
5556
1038
014c
cafe
241c
5556
1038
011f
cafe
2804
5556
1038
01fa
cafe
2c14
-
5556
103c
01a7
cafe
300d
5556
103c
00fb
cafe
341d
5556
103c
0182
cafe
3805
5556
103c
027f
cafe
3c15
5556
1040
013c
cafe
200e
5556
1040
0198
cafe
241e
5556
1040
01e0
cafe
2806
5556
1040
01e7
cafe
2c16
5556
1044
01b0
cafe
300f
5556
1044
00e7
cafe
341f
5556
1044
023f
cafe
3807
5556
1044
01b5
cafe
3c17
5556
1048
018b
cafe
2008
5556
1048
0155
cafe
2418
5556
1048
014e
cafe
2800
5556
1048
0199
cafe
2c10
5556
104c
01a3
cafe
3009
5556
104c
017c
cafe
3419
5556
104c
0164
cafe
3801
5556
104c
0245
cafe
3c11
5556
1050
0187
cafe
200a
5556
1050
013f
cafe
241a
5556
1050
0156
cafe
2802
5556
1050
0189
cafe
2c12
5556
1054
01f9
cafe
300b
5556
1054
018f
cafe
341b
5556
1054
01f3
cafe
3803
5556
1054
0174
cafe
3c13
5556
1058
01be
cafe
200c
5556
1058
012f
cafe
241c
5556
1058
013e
cafe
2804
5556
1058
020c
cafe
2c14
5556
105c
01b0
cafe
300d
5556
105c
010a
cafe
341d
5556
105c
0176
cafe
3805
5556
105c
0274
cafe
3c15
5556
1060
0126
cafe
200e
5556
1060
01ae
cafe
241e
5556
1060
01e7
cafe
2806
5556
1060
01d0
cafe
2c16
5556
1064
01b4
cafe
300f
5556
1064
00e4
cafe
341f
5556
1064
023a
cafe
3807
5556
1064
01a9
cafe
3c17
5556
1068
0182
cafe
2008
5556
1068
0159
cafe
2418
5556
1068
014f
cafe
2800
5556
1068
019a
cafe
2c10
5556
106c
018e
cafe
3009
5556
106c
017d
cafe
3419
5556
106c
0166
cafe
3801
5556
-
106c
0237
cafe
3c11
5556
1070
0184
cafe
200a
5556
1070
0133
cafe
241a
5556
1070
015b
cafe
2802
5556
1070
017d
cafe
2c12
5556
1074
01e7
cafe
300b
5556
1074
0186
cafe
341b
5556
1074
0204
cafe
3803
5556
1074
016b
cafe
3c13
5556
1078
01c1
cafe
200c
5556
1078
013a
cafe
241c
5556
1078
0134
cafe
2804
5556
1078
0206
cafe
2c14
5556
107c
01a3
cafe
300d
5556
107c
00f4
cafe
341d
5556
107c
016f
cafe
3805
5556
107c
027c
cafe
3c15
5556
1080
0128
cafe
200e
5556
1080
01a5
cafe
241e
5556
1080
01ec
cafe
2806
5556
1080
01e2
cafe
2c16
5556
1084
01c8
cafe
300f
5556
1084
00f3
cafe
341f
5556
1084
024a
cafe
3807
5556
1084
01b0
cafe
3c17
5556
1088
0178
cafe
2008
5556
1088
0149
cafe
2418
5556
1088
0145
cafe
2800
5556
1088
01a2
cafe
2c10
5556
108c
0193
cafe
3009
5556
108c
0179
cafe
3419
5556
108c
0163
cafe
3801
5556
108c
0244
cafe
3c11
5556
1090
0181
cafe
200a
5556
1090
014c
cafe
241a
5556
1090
0153
cafe
2802
5556
1090
018f
cafe
2c12
5556
1094
01e0
cafe
300b
5556
1094
017e
cafe
341b
5556
1094
01ea
cafe
3803
5556
1094
015c
cafe
3c13
5556
1098
01bd
cafe
200c
5556
1098
0137
cafe
241c
5556
1098
012d
cafe
2804
5556
1098
0201
cafe
2c14
5556
109c
01b9
cafe
300d
5556
109c
00f4
cafe
341d
5556
109c
0187
cafe
3805
5556
109c
028e
cafe
3c15
5556
10a0
011d
cafe
200e
5556
10a0
019f
cafe
241e
5556
10a0
-
01e7
cafe
2806
5556
10a0
01cc
cafe
2c16
5556
10a4
01d1
cafe
300f
5556
10a4
00ea
cafe
341f
5556
10a4
024b
cafe
3807
5556
10a4
01a0
cafe
3c17
5556
10a8
016f
cafe
2008
5556
10a8
014d
cafe
2418
5556
10a8
014c
cafe
2800
5556
10a8
0196
cafe
2c10
5556
10ac
0196
cafe
3009
5556
10ac
017a
cafe
3419
5556
10ac
0158
cafe
3801
5556
10ac
0255
cafe
3c11
5556
10b0
017e
cafe
200a
5556
10b0
0150
cafe
241a
5556
10b0
0150
cafe
2802
5556
10b0
018a
cafe
2c12
5556
10b4
01e6
cafe
300b
5556
10b4
019a
cafe
341b
5556
10b4
01da
cafe
3803
5556
10b4
0169
cafe
3c13
5556
10b8
01c4
cafe
200c
5556
10b8
0120
cafe
241c
5556
10b8
0127
cafe
2804
5556
10b8
0204
cafe
2c14
5556
10bc
01ac
cafe
300d
5556
10bc
0101
cafe
341d
5556
10bc
0183
cafe
3805
5556
10bc
0275
cafe
3c15
5556
10c0
013f
cafe
200e
5556
10c0
01b2
cafe
241e
5556
10c0
01e7
cafe
2806
5556
10c0
01d8
cafe
2c16
5556
10c4
01b4
cafe
300f
5556
10c4
00ea
cafe
341f
5556
10c4
0248
cafe
3807
5556
10c4
0193
cafe
3c17
5556
10c8
017f
cafe
2008
5556
10c8
0140
cafe
2418
5556
10c8
0152
cafe
2800
5556
10c8
018d
cafe
2c10
5556
10cc
01a0
cafe
3009
5556
10cc
0171
cafe
3419
5556
10cc
015b
cafe
3801
5556
10cc
0247
cafe
3c11
5556
10d0
0185
cafe
200a
5556
10d0
0149
cafe
241a
5556
10d0
0148
cafe
2802
5556
10d0
0185
cafe
2c12
5556
10d4
01db
cafe
300b
5556
10d4
019d
-
cafe
341b
5556
10d4
01f7
cafe
3803
5556
10d4
015c
cafe
3c13
5556
10d8
01b9
cafe
200c
5556
10d8
014d
cafe
241c
5556
10d8
0130
cafe
2804
5556
10d8
0209
cafe
2c14
5556
10dc
01b0
cafe
300d
5556
10dc
00ea
cafe
341d
5556
10dc
0176
cafe
3805
5556
10dc
029c
cafe
3c15
5556
10e0
012d
cafe
200e
5556
10e0
0197
cafe
241e
5556
10e0
01f2
cafe
2806
5556
10e0
01d4
cafe
2c16
5556
10e4
01aa
cafe
300f
5556
10e4
00dd
cafe
341f
5556
10e4
0243
cafe
3807
5556
10e4
01ad
cafe
3c17
5556
10e8
0184
cafe
2008
5556
10e8
0144
cafe
2418
5556
10e8
0161
cafe
2800
5556
10e8
0199
cafe
2c10
5556
10ec
0193
cafe
3009
5556
10ec
016c
cafe
3419
5556
10ec
0165
cafe
3801
5556
10ec
0249
cafe
3c11
5556
10f0
0194
cafe
200a
5556
10f0
0147
cafe
241a
5556
10f0
0160
cafe
2802
5556
10f0
0194
cafe
2c12
5556
10f4
01e9
cafe
300b
5556
10f4
0183
cafe
341b
5556
10f4
01ee
cafe
3803
5556
10f4
016d
cafe
3c13
5556
10f8
01b4
cafe
200c
5556
10f8
013d
cafe
241c
5556
10f8
012c
cafe
2804
5556
10f8
0215
cafe
2c14
5556
10fc
01b0
cafe
300d
5556
10fc
00ea
cafe
341d
5556
10fc
0175
cafe
3805
5556
10fc
028c
cafe
3c15
5556
1100
012f
cafe
200e
5556
1100
01a2
cafe
241e
5556
1100
0203
cafe
2806
5556
1100
01d9
cafe
2c16
5556
1104
01b4
cafe
300f
5556
1104
00f8
cafe
341f
5556
1104
0248
cafe
3807
5556
1104
01a1
cafe
3c17
5556
1108
018b
cafe
-
2008
5556
1108
0149
cafe
2418
5556
1108
014b
cafe
2800
5556
1108
0193
cafe
2c10
5556
110c
018c
cafe
3009
5556
110c
015c
cafe
3419
5556
110c
0171
cafe
3801
5556
110c
0247
cafe
3c11
5556
1110
018a
cafe
200a
5556
1110
0140
cafe
241a
5556
1110
0156
cafe
2802
5556
1110
0198
cafe
2c12
5556
1114
01dd
cafe
300b
5556
1114
017b
cafe
341b
5556
1114
01e5
cafe
3803
5556
1114
0163
cafe
3c13
5556
1118
01b9
cafe
200c
5556
1118
0147
cafe
241c
5556
1118
0137
cafe
2804
5556
1118
020f
cafe
2c14
5556
111c
01aa
cafe
300d
5556
111c
00eb
cafe
341d
5556
111c
017f
cafe
3805
5556
111c
0278
cafe
3c15
5556
1120
0123
cafe
200e
5556
1120
018a
cafe
241e
5556
1120
01ec
cafe
2806
5556
1120
01de
cafe
2c16
5556
1124
01bf
cafe
300f
5556
1124
0101
cafe
341f
5556
1124
0254
cafe
3807
5556
1124
01bc
cafe
3c17
5556
1128
0179
cafe
2008
5556
1128
0148
cafe
2418
5556
1128
013c
cafe
2800
5556
1128
0196
cafe
2c10
5556
112c
018f
cafe
3009
5556
112c
016b
cafe
3419
5556
112c
0168
cafe
3801
5556
112c
0245
cafe
3c11
5556
1130
0198
cafe
200a
5556
1130
013f
cafe
241a
5556
1130
0152
cafe
2802
5556
1130
018a
cafe
2c12
5556
1134
01f7
cafe
300b
5556
1134
048c
cafe
341b
5556
1134
04f7
cafe
3803
5556
1134
0458
cafe
3c13
5556
1138
048e
cafe
200c
5556
1138
07f0
cafe
241c
5556
1138
0824
cafe
2804
5556
1138
08d5
cafe
2c14
-
5556
113c
086e
cafe
300d
5556
113c
08dd
cafe
341d
5556
113c
095d
cafe
3805
5556
113c
0a55
cafe
3c15
5556
1140
091c
cafe
200e
5556
1140
09d5
cafe
241e
5556
1140
0a00
cafe
2806
5556
1140
09e5
cafe
2c16
5556
1144
09d7
cafe
300f
5556
1144
0938
cafe
341f
5556
1144
0a50
cafe
3807
5556
1144
09c5
cafe
3c17
5556
1148
09a3
cafe
2008
5556
1148
0977
cafe
2418
5556
1148
096f
cafe
2800
5556
1148
099b
cafe
2c10
5556
114c
09cc
cafe
3009
5556
114c
097b
cafe
3419
5556
114c
096f
cafe
3801
5556
114c
0a31
cafe
3c11
5556
1150
09b4
cafe
200a
5556
1150
093e
cafe
241a
5556
1150
094a
cafe
2802
5556
1150
097b
cafe
2c12
5556
1154
09fa
cafe
300b
5556
1154
0988
cafe
341b
5556
1154
09d7
cafe
3803
5556
1154
0943
cafe
3c13
5556
1158
09ad
cafe
200c
5556
1158
0940
cafe
241c
5556
1158
0924
cafe
2804
5556
1158
0a04
cafe
2c14
5556
115c
098a
cafe
300d
5556
115c
08e9
cafe
341d
5556
115c
0962
cafe
3805
5556
115c
0a57
cafe
3c15
5556
1160
092d
cafe
200e
5556
1160
09a0
cafe
241e
5556
1160
09fc
cafe
2806
5556
1160
09d5
cafe
2c16
5556
1164
09c1
cafe
300f
5556
1164
08ec
cafe
341f
5556
1164
0a3e
cafe
3807
5556
1164
098f
cafe
3c17
5556
1168
0964
cafe
2008
5556
1168
0937
cafe
2418
5556
1168
094e
cafe
2800
5556
1168
0975
cafe
2c10
5556
116c
0986
cafe
3009
5556
116c
0966
cafe
3419
5556
116c
093a
cafe
3801
5556
-
116c
0a1f
cafe
3c11
5556
1170
099a
cafe
200a
5556
1170
092f
cafe
241a
5556
1170
0954
cafe
2802
5556
1170
0960
cafe
2c12
5556
1174
09f8
cafe
300b
5556
1174
095a
cafe
341b
5556
1174
09c5
cafe
3803
5556
1174
092a
cafe
3c13
5556
1178
09a1
cafe
200c
5556
1178
0927
cafe
241c
5556
1178
0903
cafe
2804
5556
1178
09e0
cafe
2c14
5556
117c
0999
cafe
300d
5556
117c
08d0
cafe
341d
5556
117c
095f
cafe
3805
5556
117c
0a3d
cafe
3c15
5556
1180
0912
cafe
200e
5556
1180
098d
cafe
241e
5556
1180
09d4
cafe
2806
5556
1180
09ab
cafe
2c16
5556
1184
09b5
cafe
300f
5556
1184
08db
cafe
341f
5556
1184
0a3d
cafe
3807
5556
1184
0960
cafe
3c17
5556
1188
093a
cafe
2008
5556
1188
092b
cafe
2418
5556
1188
0917
cafe
2800
5556
1188
0960
cafe
2c10
5556
118c
0985
cafe
3009
5556
118c
094b
cafe
3419
5556
118c
092a
cafe
3801
5556
118c
0a08
cafe
3c11
5556
1190
0987
cafe
200a
5556
1190
0906
cafe
241a
5556
1190
0939
cafe
2802
5556
1190
0948
cafe
2c12
5556
1194
09b9
cafe
300b
5556
1194
0955
cafe
341b
5556
1194
09b7
cafe
3803
5556
1194
0915
cafe
3c13
5556
1198
098f
cafe
200c
5556
1198
091d
cafe
241c
5556
1198
0902
cafe
2804
5556
1198
09ca
cafe
2c14
5556
119c
0970
cafe
300d
5556
119c
08b7
cafe
341d
5556
119c
092a
cafe
3805
5556
119c
0a32
cafe
3c15
5556
11a0
0908
cafe
200e
5556
11a0
097d
cafe
241e
5556
11a0
-
09c4
cafe
2806
5556
11a0
0997
cafe
2c16
5556
11a4
099d
cafe
300f
5556
11a4
08b0
cafe
341f
5556
11a4
0a05
cafe
3807
5556
11a4
0951
cafe
3c17
5556
11a8
0932
cafe
2008
5556
11a8
091e
cafe
2418
5556
11a8
0906
cafe
2800
5556
11a8
0949
cafe
2c10
5556
11ac
0961
cafe
3009
5556
11ac
0934
cafe
3419
5556
11ac
0903
cafe
3801
5556
11ac
09d2
cafe
3c11
5556
11b0
0958
cafe
200a
5556
11b0
08ea
cafe
241a
5556
11b0
091e
cafe
2802
5556
11b0
0929
cafe
2c12
5556
11b4
09ae
cafe
300b
5556
11b4
094b
cafe
341b
5556
11b4
09a2
cafe
3803
5556
11b4
08f1
cafe
3c13
5556
11b8
0989
cafe
200c
5556
11b8
08fc
cafe
241c
5556
11b8
08dc
cafe
2804
5556
11b8
09be
cafe
2c14
5556
11bc
0951
cafe
300d
5556
11bc
088c
cafe
341d
5556
11bc
0919
cafe
3805
5556
11bc
0a23
cafe
3c15
5556
11c0
08dd
cafe
200e
5556
11c0
095f
cafe
241e
5556
11c0
09b3
cafe
2806
5556
11c0
098d
cafe
2c16
5556
11c4
0983
cafe
300f
5556
11c4
087d
cafe
341f
5556
11c4
0a0f
cafe
3807
5556
11c4
0930
cafe
3c17
5556
11c8
0920
cafe
2008
5556
11c8
08fe
cafe
2418
5556
11c8
08e1
cafe
2800
5556
11c8
092e
cafe
2c10
5556
11cc
093f
cafe
3009
5556
11cc
0928
cafe
3419
5556
11cc
08fa
cafe
3801
5556
11cc
09e0
cafe
3c11
5556
11d0
094a
cafe
200a
5556
11d0
08e9
cafe
241a
5556
11d0
090b
cafe
2802
5556
11d0
091b
cafe
2c12
5556
11d4
099b
cafe
300b
5556
11d4
0924
-
cafe
341b
5556
11d4
0977
cafe
3803
5556
11d4
08e8
cafe
3c13
5556
11d8
096f
cafe
200c
5556
11d8
08f4
cafe
241c
5556
11d8
08b2
cafe
2804
5556
11d8
098b
cafe
2c14
5556
11dc
093b
cafe
300d
5556
11dc
0872
cafe
341d
5556
11dc
0915
cafe
3805
5556
11dc
09fa
cafe
3c15
5556
11e0
08c7
cafe
200e
5556
11e0
0939
cafe
241e
5556
11e0
09a1
cafe
2806
5556
11e0
096c
cafe
2c16
5556
11e4
0982
cafe
300f
5556
11e4
0872
cafe
341f
5556
11e4
09e4
cafe
3807
5556
11e4
0916
cafe
3c17
5556
11e8
08fd
cafe
2008
5556
11e8
08d5
cafe
2418
5556
11e8
08dc
cafe
2800
5556
11e8
091b
cafe
2c10
5556
11ec
0931
cafe
3009
5556
11ec
08fa
cafe
3419
5556
11ec
08e4
cafe
3801
5556
11ec
09c1
cafe
3c11
5556
11f0
093e
cafe
200a
5556
11f0
08cd
cafe
241a
5556
11f0
08ef
cafe
2802
5556
11f0
08f9
cafe
2c12
5556
11f4
0987
cafe
300b
5556
11f4
0910
cafe
341b
5556
11f4
096a
cafe
3803
5556
11f4
08c5
cafe
3c13
5556
11f8
093e
cafe
200c
5556
11f8
08eb
cafe
241c
5556
11f8
089e
cafe
2804
5556
11f8
0985
cafe
2c14
5556
11fc
093a
cafe
300d
5556
11fc
0863
cafe
341d
5556
11fc
08f7
cafe
3805
5556
11fc
09ec
cafe
3c15
5556
1200
08b7
cafe
200e
5556
1200
092f
cafe
241e
5556
1200
097f
cafe
2806
5556
1200
095c
cafe
2c16
5556
1204
0968
cafe
300f
5556
1204
0850
cafe
341f
5556
1204
09cc
cafe
3807
5556
1204
090d
cafe
3c17
5556
1208
08e0
cafe
-
2008
5556
1208
08d6
cafe
2418
5556
1208
08b2
cafe
2800
5556
1208
0911
cafe
2c10
5556
120c
0908
cafe
3009
5556
120c
08e3
cafe
3419
5556
120c
08ca
cafe
3801
5556
120c
09b2
cafe
3c11
5556
1210
091c
cafe
200a
5556
1210
08c2
cafe
241a
5556
1210
08f0
cafe
2802
5556
1210
08e5
cafe
2c12
5556
1214
097c
cafe
300b
5556
1214
08fb
cafe
341b
5556
1214
0960
cafe
3803
5556
1214
08a5
cafe
3c13
5556
1218
093f
cafe
200c
5556
1218
08c0
cafe
241c
5556
1218
0884
cafe
2804
5556
1218
0959
cafe
2c14
5556
121c
0920
cafe
300d
5556
121c
0836
cafe
341d
5556
121c
08d1
cafe
3805
5556
121c
09da
cafe
3c15
5556
1220
0878
cafe
200e
5556
1220
0916
cafe
241e
5556
1220
0958
cafe
2806
5556
1220
0945
cafe
2c16
5556
1224
094a
cafe
300f
5556
1224
084e
cafe
341f
5556
1224
09ba
cafe
3807
5556
1224
08ef
cafe
3c17
5556
1228
08dd
cafe
2008
5556
1228
08c6
cafe
2418
5556
1228
08a7
cafe
2800
5556
1228
08e3
cafe
2c10
5556
122c
0911
cafe
3009
5556
122c
08cf
cafe
3419
5556
122c
0898
cafe
3801
5556
122c
09a1
cafe
3c11
5556
1230
0900
cafe
200a
5556
1230
089c
cafe
241a
5556
1230
08cf
cafe
2802
5556
1230
08ce
cafe
2c12
5556
1234
096d
cafe
300b
5556
1234
08c5
cafe
341b
5556
1234
0944
cafe
3803
5556
1234
0874
cafe
3c13
5556
1238
0914
cafe
200c
5556
1238
08c0
cafe
241c
5556
1238
0877
cafe
2804
5556
1238
0951
cafe
2c14
-
5556
123c
090d
cafe
300d
5556
123c
0828
cafe
341d
5556
123c
08b9
cafe
3805
5556
123c
09c8
cafe
3c15
5556
1240
0862
cafe
200e
5556
1240
08fa
cafe
241e
5556
1240
0937
cafe
2806
5556
1240
0922
cafe
2c16
5556
1244
092f
cafe
300f
5556
1244
082b
cafe
341f
5556
1244
0997
cafe
3807
5556
1244
08d8
cafe
3c17
5556
1248
08cb
cafe
2008
5556
1248
08b4
cafe
2418
5556
1248
0884
cafe
2800
5556
1248
08be
cafe
2c10
5556
124c
08ed
cafe
3009
5556
124c
08a7
cafe
3419
5556
124c
0891
cafe
3801
5556
124c
097e
cafe
3c11
5556
1250
08d4
cafe
200a
5556
1250
0879
cafe
241a
5556
1250
08b1
cafe
2802
5556
1250
08ad
cafe
2c12
5556
1254
094a
cafe
300b
5556
1254
08bb
cafe
341b
5556
1254
0913
cafe
3803
5556
1254
087d
cafe
3c13
5556
1258
0912
cafe
200c
5556
1258
088b
cafe
241c
5556
1258
085e
cafe
2804
5556
1258
0940
cafe
2c14
5556
125c
08d7
cafe
300d
5556
125c
0808
cafe
341d
5556
125c
08a9
cafe
3805
5556
125c
099e
cafe
3c15
5556
1260
0860
cafe
200e
5556
1260
08e2
cafe
241e
5556
1260
0934
cafe
2806
5556
1260
090a
cafe
2c16
5556
1264
0921
cafe
300f
5556
1264
0823
cafe
341f
5556
1264
0982
cafe
3807
5556
1264
08cf
cafe
3c17
5556
1268
08a8
cafe
2008
5556
1268
089a
cafe
2418
5556
1268
0864
cafe
2800
5556
1268
0893
cafe
2c10
5556
126c
08eb
cafe
3009
5556
126c
08b0
cafe
3419
5556
126c
0880
cafe
3801
5556
-
126c
0975
cafe
3c11
5556
1270
08cb
cafe
200a
5556
1270
0869
cafe
241a
5556
1270
0893
cafe
2802
5556
1270
088b
cafe
2c12
5556
1274
0934
cafe
300b
5556
1274
0885
cafe
341b
5556
1274
0907
cafe
3803
5556
1274
0862
cafe
3c13
5556
1278
08dc
cafe
200c
5556
1278
0875
cafe
241c
5556
1278
0843
cafe
2804
5556
1278
0914
cafe
2c14
5556
127c
08cb
cafe
300d
5556
127c
07f3
cafe
341d
5556
127c
0893
cafe
3805
5556
127c
099b
cafe
3c15
5556
1280
0849
cafe
200e
5556
1280
08e7
cafe
241e
5556
1280
0918
cafe
2806
5556
1280
08e7
cafe
2c16
5556
1284
0912
cafe
300f
5556
1284
07f7
cafe
341f
5556
1284
0981
cafe
3807
5556
1284
08b8
cafe
3c17
5556
1288
088b
cafe
2008
5556
1288
0875
cafe
2418
5556
1288
0857
cafe
2800
5556
1288
088e
cafe
2c10
5556
128c
08c9
cafe
3009
5556
128c
089e
cafe
3419
5556
128c
0867
cafe
3801
5556
128c
093f
cafe
3c11
5556
1290
08bf
cafe
200a
5556
1290
0852
cafe
241a
5556
1290
0882
cafe
2802
5556
1290
0886
cafe
2c12
5556
1294
0923
cafe
300b
5556
1294
0870
cafe
341b
5556
1294
08db
cafe
3803
5556
1294
083d
cafe
3c13
5556
1298
08c8
cafe
200c
5556
1298
0855
cafe
241c
5556
1298
0811
cafe
2804
5556
1298
08fd
cafe
2c14
5556
129c
089a
cafe
300d
5556
129c
07d0
cafe
341d
5556
129c
0876
cafe
3805
5556
129c
097c
cafe
3c15
5556
12a0
0827
cafe
200e
5556
12a0
08a8
cafe
241e
5556
12a0
-
0906
cafe
2806
5556
12a0
08e1
cafe
2c16
5556
12a4
08f8
cafe
300f
5556
12a4
07f0
cafe
341f
5556
12a4
0949
cafe
3807
5556
12a4
088a
cafe
3c17
5556
12a8
0879
cafe
2008
5556
12a8
0876
cafe
2418
5556
12a8
0834
cafe
2800
5556
12a8
0871
cafe
2c10
5556
12ac
08aa
cafe
3009
5556
12ac
0872
cafe
3419
5556
12ac
0854
cafe
3801
5556
12ac
093d
cafe
3c11
5556
12b0
08a9
cafe
200a
5556
12b0
083a
cafe
241a
5556
12b0
0864
cafe
2802
5556
12b0
0869
cafe
2c12
5556
12b4
090d
cafe
300b
5556
12b4
0878
cafe
341b
5556
12b4
08d1
cafe
3803
5556
12b4
0829
cafe
3c13
5556
12b8
08c1
cafe
200c
5556
12b8
084a
cafe
241c
5556
12b8
07ff
cafe
2804
5556
12b8
08e8
cafe
2c14
5556
12bc
0897
cafe
300d
5556
12bc
07a8
cafe
341d
5556
12bc
084e
cafe
3805
5556
12bc
096d
cafe
3c15
5556
12c0
080b
cafe
200e
5556
12c0
08a4
cafe
241e
5556
12c0
08ed
cafe
2806
5556
12c0
08c5
cafe
2c16
5556
12c4
08e4
cafe
300f
5556
12c4
07d0
cafe
341f
5556
12c4
0939
cafe
3807
5556
12c4
0868
cafe
3c17
5556
12c8
085e
cafe
2008
5556
12c8
0841
cafe
2418
5556
12c8
0821
cafe
2800
5556
12c8
085e
cafe
2c10
5556
12cc
0899
cafe
3009
5556
12cc
0852
cafe
3419
5556
12cc
082c
cafe
3801
5556
12cc
090d
cafe
3c11
5556
12d0
087f
cafe
200a
5556
12d0
081e
cafe
241a
5556
12d0
082f
cafe
2802
5556
12d0
084f
cafe
2c12
5556
12d4
08f8
cafe
300b
5556
12d4
0866
-
cafe
341b
5556
12d4
08be
cafe
3803
5556
12d4
0819
cafe
3c13
5556
12d8
08a7
cafe
200c
5556
12d8
0834
cafe
241c
5556
12d8
07e8
cafe
2804
5556
12d8
08ca
cafe
2c14
5556
12dc
0897
cafe
300d
5556
12dc
0791
cafe
341d
5556
12dc
085b
cafe
3805
5556
12dc
0958
cafe
3c15
5556
12e0
07f4
cafe
200e
5556
12e0
0896
cafe
241e
5556
12e0
08db
cafe
2806
5556
12e0
08aa
cafe
2c16
5556
12e4
08cd
cafe
300f
5556
12e4
07aa
cafe
341f
5556
12e4
0923
cafe
3807
5556
12e4
0851
cafe
3c17
5556
12e8
0839
cafe
2008
5556
12e8
083a
cafe
2418
5556
12e8
0818
cafe
2800
5556
12e8
0855
cafe
2c10
5556
12ec
0892
cafe
3009
5556
12ec
083c
cafe
3419
5556
12ec
0807
cafe
3801
5556
12ec
08f4
cafe
3c11
5556
12f0
0879
cafe
200a
5556
12f0
0802
cafe
241a
5556
12f0
080e
cafe
2802
5556
12f0
0821
cafe
2c12
5556
12f4
08d3
cafe
300b
5556
12f4
0831
cafe
341b
5556
12f4
08aa
cafe
3803
5556
12f4
0806
cafe
3c13
5556
12f8
0878
cafe
200c
5556
12f8
0810
cafe
241c
5556
12f8
07d4
cafe
2804
5556
12f8
08c0
cafe
2c14
5556
12fc
086f
cafe
300d
5556
12fc
0777
cafe
341d
5556
12fc
0847
cafe
3805
5556
12fc
0944
cafe
3c15
5556
1300
07e4
cafe
200e
5556
1300
0863
cafe
241e
5556
1300
08bd
cafe
2806
5556
1300
0894
cafe
2c16
5556
1304
08b7
cafe
300f
5556
1304
0799
cafe
341f
5556
1304
091a
cafe
3807
5556
1304
0844
cafe
3c17
5556
1308
082c
cafe
-
2008
5556
1308
0823
cafe
2418
5556
1308
07fc
cafe
2800
5556
1308
083c
cafe
2c10
5556
130c
087a
cafe
3009
5556
130c
0824
cafe
3419
5556
130c
07fd
cafe
3801
5556
130c
08e2
cafe
3c11
5556
1310
086b
cafe
200a
5556
1310
07e8
cafe
241a
5556
1310
07fe
cafe
2802
5556
1310
0812
cafe
2c12
5556
1314
08d0
cafe
300b
5556
1314
0830
cafe
341b
5556
1314
089b
cafe
3803
5556
1314
07ee
cafe
3c13
5556
1318
0883
cafe
200c
5556
1318
07f8
cafe
241c
5556
1318
07a8
cafe
2804
5556
1318
0893
cafe
2c14
5556
131c
0840
cafe
300d
5556
131c
0768
cafe
341d
5556
131c
0820
cafe
3805
5556
131c
092e
cafe
3c15
5556
1320
07be
cafe
200e
5556
1320
0861
cafe
241e
5556
1320
0897
cafe
2806
5556
1320
0878
cafe
2c16
5556
1324
089e
cafe
300f
5556
1324
0783
cafe
341f
5556
1324
08fb
cafe
3807
5556
1324
0831
cafe
3c17
5556
1328
0818
cafe
2008
5556
1328
0807
cafe
2418
5556
1328
07db
cafe
2800
5556
1328
0826
cafe
2c10
5556
132c
0852
cafe
3009
5556
132c
0810
cafe
3419
5556
132c
07d6
cafe
3801
5556
132c
08d4
cafe
3c11
5556
1330
0848
cafe
200a
5556
1330
07bb
cafe
241a
5556
1330
07d2
cafe
2802
5556
1330
0809
cafe
2c12
5556
1334
08ad
cafe
300b
5556
1334
081a
cafe
341b
5556
1334
0887
cafe
3803
5556
1334
07d1
cafe
3c13
5556
1338
0853
cafe
200c
5556
1338
07dd
cafe
241c
5556
1338
07aa
cafe
2804
5556
1338
0886
cafe
2c14
-
5556
133c
083e
cafe
300d
5556
133c
0741
cafe
341d
5556
133c
0810
cafe
3805
5556
133c
090f
cafe
3c15
5556
1340
07a6
cafe
200e
5556
1340
085c
cafe
241e
5556
1340
089b
cafe
2806
5556
1340
085b
cafe
2c16
5556
1344
0895
cafe
300f
5556
1344
075c
cafe
341f
5556
1344
08db
cafe
3807
5556
1344
0816
cafe
3c17
5556
1348
07f5
cafe
2008
5556
1348
0806
cafe
2418
5556
1348
07c8
cafe
2800
5556
1348
0803
cafe
2c10
5556
134c
0847
cafe
3009
5556
134c
07ff
cafe
3419
5556
134c
07ca
cafe
3801
5556
134c
08c0
cafe
3c11
5556
1350
0833
cafe
200a
5556
1350
07a3
cafe
241a
5556
1350
07d1
cafe
2802
5556
1350
07e3
cafe
2c12
5556
1354
08a4
cafe
300b
5556
1354
07f9
cafe
341b
5556
1354
0867
cafe
3803
5556
1354
07cc
cafe
3c13
5556
1358
084c
cafe
200c
5556
1358
07cc
cafe
241c
5556
1358
0778
cafe
2804
5556
1358
0888
cafe
2c14
5556
135c
0828
cafe
300d
5556
135c
072c
cafe
341d
5556
135c
0803
cafe
3805
5556
135c
08e0
cafe
3c15
5556
1360
0796
cafe
200e
5556
1360
081a
cafe
241e
5556
1360
0875
cafe
2806
5556
1360
0853
cafe
2c16
5556
1364
0879
cafe
300f
5556
1364
0753
cafe
341f
5556
1364
08e4
cafe
3807
5556
1364
07ff
cafe
3c17
5556
1368
07df
cafe
2008
5556
1368
07d3
cafe
2418
5556
1368
07ac
cafe
2800
5556
1368
07ea
cafe
2c10
5556
136c
0824
cafe
3009
5556
136c
07d6
cafe
3419
5556
136c
079f
cafe
3801
5556
-
136c
08a5
cafe
3c11
5556
1370
0814
cafe
200a
5556
1370
0797
cafe
241a
5556
1370
07c4
cafe
2802
5556
1370
07cf
cafe
2c12
5556
1374
0881
cafe
300b
5556
1374
07dd
cafe
341b
5556
1374
0867
cafe
3803
5556
1374
07a5
cafe
3c13
5556
1378
082f
cafe
200c
5556
1378
07b7
cafe
241c
5556
1378
0767
cafe
2804
5556
1378
085e
cafe
2c14
5556
137c
0815
cafe
300d
5556
137c
0725
cafe
341d
5556
137c
07ea
cafe
3805
5556
137c
08e4
cafe
3c15
5556
1380
0788
cafe
200e
5556
1380
081f
cafe
241e
5556
1380
0867
cafe
2806
5556
1380
083f
cafe
2c16
5556
1384
086e
cafe
300f
5556
1384
072d
cafe
341f
5556
1384
08bd
cafe
3807
5556
1384
07f7
cafe
3c17
5556
1388
07b7
cafe
2008
5556
1388
07bb
cafe
2418
5556
1388
077e
cafe
2800
5556
1388
07e1
cafe
2c10
5556
138c
080f
cafe
3009
5556
138c
07bb
cafe
3419
5556
138c
07a0
cafe
3801
5556
138c
0892
cafe
3c11
5556
1390
080e
cafe
200a
5556
1390
076e
cafe
241a
5556
1390
07b2
cafe
2802
5556
1390
07b3
cafe
2c12
5556
1394
086c
cafe
300b
5556
1394
07d0
cafe
341b
5556
1394
0842
cafe
3803
5556
1394
0774
cafe
3c13
5556
1398
080f
cafe
200c
5556
1398
078a
cafe
241c
5556
1398
0744
cafe
2804
5556
1398
084b
cafe
2c14
5556
139c
07de
cafe
300d
5556
139c
0716
cafe
341d
5556
139c
07cb
cafe
3805
5556
139c
08cf
cafe
3c15
5556
13a0
0776
cafe
200e
5556
13a0
07fc
cafe
241e
5556
13a0
-
084c
cafe
2806
5556
13a0
0836
cafe
2c16
5556
13a4
084e
cafe
300f
5556
13a4
0721
cafe
341f
5556
13a4
0896
cafe
3807
5556
13a4
07da
cafe
3c17
5556
13a8
07ab
cafe
2008
5556
13a8
0795
cafe
2418
5556
13a8
0764
cafe
2800
5556
13a8
07c3
cafe
2c10
5556
13ac
07ec
cafe
3009
5556
13ac
07a8
cafe
3419
5556
13ac
078d
cafe
3801
5556
13ac
0880
cafe
3c11
5556
13b0
07e5
cafe
200a
5556
13b0
074b
cafe
241a
5556
13b0
078c
cafe
2802
5556
13b0
079b
cafe
2c12
5556
13b4
0872
cafe
300b
5556
13b4
07c0
cafe
341b
5556
13b4
082b
cafe
3803
5556
13b4
076a
cafe
3c13
5556
13b8
07ec
cafe
200c
5556
13b8
076f
cafe
241c
5556
13b8
072a
cafe
2804
5556
13b8
0827
cafe
2c14
5556
13bc
07c6
cafe
300d
5556
13bc
06e2
cafe
341d
5556
13bc
07b0
cafe
3805
5556
13bc
08b3
cafe
3c15
5556
13c0
0748
cafe
200e
5556
13c0
07e7
cafe
241e
5556
13c0
083f
cafe
2806
5556
13c0
0821
cafe
2c16
5556
13c4
0841
cafe
300f
5556
13c4
070a
cafe
341f
5556
13c4
0891
cafe
3807
5556
13c4
07c0
cafe
3c17
5556
13c8
0790
cafe
2008
5556
13c8
0795
cafe
2418
5556
13c8
0755
cafe
2800
5556
13c8
07b6
cafe
2c10
5556
13cc
07f6
cafe
3009
5556
13cc
079f
cafe
3419
5556
13cc
0781
cafe
3801
5556
13cc
0858
cafe
3c11
5556
13d0
07ce
cafe
200a
5556
13d0
073d
cafe
241a
5556
13d0
0779
cafe
2802
5556
13d0
078d
cafe
2c12
5556
13d4
0860
cafe
300b
5556
13d4
07ac
-
cafe
341b
5556
13d4
0810
cafe
3803
5556
13d4
0763
cafe
3c13
5556
13d8
07eb
cafe
200c
5556
13d8
0756
cafe
241c
5556
13d8
070c
cafe
2804
5556
13d8
0820
cafe
2c14
5556
13dc
07bb
cafe
300d
5556
13dc
06c1
cafe
341d
5556
13dc
07a9
cafe
3805
5556
13dc
08a4
cafe
3c15
5556
13e0
0736
cafe
200e
5556
13e0
07ca
cafe
241e
5556
13e0
082e
cafe
2806
5556
13e0
07fb
cafe
2c16
5556
13e4
0817
cafe
300f
5556
13e4
0704
cafe
341f
5556
13e4
0873
cafe
3807
5556
13e4
07cb
cafe
3c17
5556
13e8
0786
cafe
2008
5556
13e8
0776
cafe
2418
5556
13e8
0741
cafe
2800
5556
13e8
078d
cafe
2c10
5556
13ec
07f4
cafe
3009
5556
13ec
078d
cafe
3419
5556
13ec
076f
cafe
3801
5556
13ec
0853
cafe
3c11
5556
13f0
07b2
cafe
200a
5556
13f0
073a
cafe
241a
5556
13f0
0760
cafe
2802
5556
13f0
0762
cafe
2c12
5556
13f4
0840
cafe
300b
5556
13f4
0788
cafe
341b
5556
13f4
07f9
cafe
3803
5556
13f4
0737
cafe
3c13
5556
13f8
07c3
cafe
200c
5556
13f8
0742
cafe
241c
5556
13f8
06e5
cafe
2804
5556
13f8
0809
cafe
2c14
5556
13fc
07a8
cafe
300d
5556
13fc
06a3
cafe
341d
5556
13fc
0782
cafe
3805
5556
13fc
089c
cafe
3c15
5556
1400
071c
cafe
200e
5556
1400
07ac
cafe
241e
5556
1400
0816
cafe
2806
5556
1400
07d9
cafe
2c16
5556
1404
0810
cafe
300f
5556
1404
06cc
cafe
341f
5556
1404
0868
cafe
3807
5556
1404
079e
cafe
3c17
5556
1408
076f
cafe
-
2008
5556
1408
075e
cafe
2418
5556
1408
0725
cafe
2800
5556
1408
076c
cafe
2c10
5556
140c
07ce
cafe
3009
5556
140c
0780
cafe
3419
5556
140c
0747
cafe
3801
5556
140c
084a
cafe
3c11
5556
1410
07b0
cafe
200a
5556
1410
0724
cafe
241a
5556
1410
0756
cafe
2802
5556
1410
074e
cafe
2c12
5556
1414
0820
cafe
300b
5556
1414
077e
cafe
341b
5556
1414
07e9
cafe
3803
5556
1414
071b
cafe
3c13
5556
1418
07ba
cafe
200c
5556
1418
073d
cafe
241c
5556
1418
06cc
cafe
2804
5556
1418
07ec
cafe
2c14
5556
141c
078f
cafe
300d
5556
141c
0693
cafe
341d
5556
141c
077a
cafe
3805
5556
141c
0876
cafe
3c15
5556
1420
06ff
cafe
200e
5556
1420
07a8
cafe
241e
5556
1420
07f4
cafe
2806
5556
1420
07d2
cafe
2c16
5556
1424
07eb
cafe
300f
5556
1424
06ce
cafe
341f
5556
1424
0859
cafe
3807
5556
1424
0778
cafe
3c17
5556
1428
074f
cafe
2008
5556
1428
074e
cafe
2418
5556
1428
0700
cafe
2800
5556
1428
0757
cafe
2c10
5556
142c
07ae
cafe
3009
5556
142c
0757
cafe
3419
5556
142c
071f
cafe
3801
5556
142c
0822
cafe
3c11
5556
1430
078b
cafe
200a
5556
1430
06fc
cafe
241a
5556
1430
0731
cafe
2802
5556
1430
074d
cafe
2c12
5556
1434
0810
cafe
300b
5556
1434
0753
cafe
341b
5556
1434
07d0
cafe
3803
5556
1434
070c
cafe
3c13
5556
1438
07ae
cafe
200c
5556
1438
0727
cafe
241c
5556
1438
06bb
cafe
2804
5556
1438
07ce
cafe
2c14
-
5556
143c
0793
cafe
300d
5556
143c
0683
cafe
341d
5556
143c
0771
cafe
3805
5556
143c
085f
cafe
3c15
5556
1440
06de
cafe
200e
5556
1440
079b
cafe
241e
5556
1440
07c8
cafe
2806
5556
1440
07d5
cafe
2c16
5556
1444
07f4
cafe
300f
5556
1444
06a6
cafe
341f
5556
1444
0843
cafe
3807
5556
1444
076a
cafe
3c17
5556
1448
0732
cafe
2008
5556
1448
073a
cafe
2418
5556
1448
06f4
cafe
2800
5556
1448
0741
cafe
2c10
5556
144c
0795
cafe
3009
5556
144c
0744
cafe
3419
5556
144c
070c
cafe
3801
5556
144c
0812
cafe
3c11
5556
1450
0780
cafe
200a
5556
1450
06f2
cafe
241a
5556
1450
0723
cafe
2802
5556
1450
0723
cafe
2c12
5556
1454
07f2
cafe
300b
5556
1454
074a
cafe
341b
5556
1454
07c6
cafe
3803
5556
1454
0705
cafe
3c13
5556
1458
07a1
cafe
200c
5556
1458
0710
cafe
241c
5556
1458
06a4
cafe
2804
5556
1458
07b3
cafe
2c14
5556
145c
076f
cafe
300d
5556
145c
0659
cafe
341d
5556
145c
073a
cafe
3805
5556
145c
085b
cafe
3c15
5556
1460
06c6
cafe
200e
5556
1460
0777
cafe
241e
5556
1460
07bd
cafe
2806
5556
1460
07a0
cafe
2c16
5556
1464
07e3
cafe
300f
5556
1464
0698
cafe
341f
5556
1464
0828
cafe
3807
5556
1464
0759
cafe
3c17
5556
1468
071e
cafe
2008
5556
1468
0733
cafe
2418
5556
1468
06d9
cafe
2800
5556
1468
0738
cafe
2c10
5556
146c
0792
cafe
3009
5556
146c
0740
cafe
3419
5556
146c
06fa
cafe
3801
5556
-
146c
07fb
cafe
3c11
5556
1470
0769
cafe
200a
5556
1470
06c3
cafe
241a
5556
1470
0702
cafe
2802
5556
1470
070b
cafe
2c12
5556
1474
07dd
cafe
300b
5556
1474
0725
cafe
341b
5556
1474
07ac
cafe
3803
5556
1474
06e6
cafe
3c13
5556
1478
0782
cafe
200c
5556
1478
0702
cafe
241c
5556
1478
068a
cafe
2804
5556
1478
07a1
cafe
2c14
5556
147c
073d
cafe
300d
5556
147c
064c
cafe
341d
5556
147c
0736
cafe
3805
5556
147c
0836
cafe
3c15
5556
1480
06c5
cafe
200e
5556
1480
0775
cafe
241e
5556
1480
07a0
cafe
2806
5556
1480
078e
cafe
2c16
5556
1484
07d8
cafe
300f
5556
1484
0675
cafe
341f
5556
1484
081a
cafe
3807
5556
1484
073a
cafe
3c17
5556
1488
06f3
cafe
2008
5556
1488
071a
cafe
2418
5556
1488
06c5
cafe
2800
5556
1488
0711
cafe
2c10
5556
148c
0772
cafe
3009
5556
148c
0734
cafe
3419
5556
148c
06ee
cafe
3801
5556
148c
07fd
cafe
3c11
5556
1490
074a
cafe
200a
5556
1490
06bf
cafe
241a
5556
1490
06f7
cafe
2802
5556
1490
06f1
cafe
2c12
5556
1494
07d3
cafe
300b
5556
1494
0730
cafe
341b
5556
1494
078f
cafe
3803
5556
1494
06cb
cafe
3c13
5556
1498
077a
cafe
200c
5556
1498
06fb
cafe
241c
5556
1498
0679
cafe
2804
5556
1498
0778
cafe
2c14
5556
149c
0730
cafe
300d
5556
149c
0638
cafe
341d
5556
149c
0726
cafe
3805
5556
149c
0832
cafe
3c15
5556
14a0
06a5
cafe
200e
5556
14a0
0759
cafe
241e
5556
14a0
-
0785
cafe
2806
5556
14a0
0780
cafe
2c16
5556
14a4
07d1
cafe
300f
5556
14a4
0647
cafe
341f
5556
14a4
080e
cafe
3807
5556
14a4
0722
cafe
3c17
5556
14a8
06f8
cafe
2008
5556
14a8
06e8
cafe
2418
5556
14a8
06a2
cafe
2800
5556
14a8
0702
cafe
2c10
5556
14ac
0759
cafe
3009
5556
14ac
06fd
cafe
3419
5556
14ac
06c9
cafe
3801
5556
14ac
07cd
cafe
3c11
5556
14b0
0734
cafe
200a
5556
14b0
0693
cafe
241a
5556
14b0
06d4
cafe
2802
5556
14b0
06ea
cafe
2c12
5556
14b4
07c4
cafe
300b
5556
14b4
0708
cafe
341b
5556
14b4
0782
cafe
3803
5556
14b4
06b6
cafe
3c13
5556
14b8
0747
cafe
200c
5556
14b8
06ed
cafe
241c
5556
14b8
0659
cafe
2804
5556
14b8
0765
cafe
2c14
5556
14bc
0728
cafe
300d
5556
14bc
0620
cafe
341d
5556
14bc
0710
cafe
3805
5556
14bc
0810
cafe
3c15
5556
14c0
06a0
cafe
200e
5556
14c0
072c
cafe
241e
5556
14c0
076a
cafe
2806
5556
14c0
076d
cafe
2c16
5556
14c4
07a1
cafe
300f
5556
14c4
0640
cafe
341f
5556
14c4
07f9
cafe
3807
5556
14c4
0717
cafe
3c17
5556
14c8
06d2
cafe
2008
5556
14c8
06d0
cafe
2418
5556
14c8
0697
cafe
2800
5556
14c8
06ef
cafe
2c10
5556
14cc
0746
cafe
3009
5556
14cc
06de
cafe
3419
5556
14cc
06ac
cafe
3801
5556
14cc
07b7
cafe
3c11
5556
14d0
0728
cafe
200a
5556
14d0
0690
cafe
241a
5556
14d0
06b0
cafe
2802
5556
14d0
06d7
cafe
2c12
5556
14d4
07a7
cafe
300b
5556
14d4
06fc
-
cafe
341b
5556
14d4
0776
cafe
3803
5556
14d4
0699
cafe
3c13
5556
14d8
0749
cafe
200c
5556
14d8
06c3
cafe
241c
5556
14d8
0642
cafe
2804
5556
14d8
075e
cafe
2c14
5556
14dc
070d
cafe
300d
5556
14dc
0608
cafe
341d
5556
14dc
06f8
cafe
3805
5556
14dc
0804
cafe
3c15
5556
14e0
0682
cafe
200e
5556
14e0
071b
cafe
241e
5556
14e0
0758
cafe
2806
5556
14e0
0748
cafe
2c16
5556
14e4
0781
cafe
300f
5556
14e4
0633
cafe
341f
5556
14e4
07d3
cafe
3807
5556
14e4
06fe
cafe
3c17
5556
14e8
06ce
cafe
2008
5556
14e8
06b5
cafe
2418
5556
14e8
067c
cafe
2800
5556
14e8
06dd
cafe
2c10
5556
14ec
0729
cafe
3009
5556
14ec
06e1
cafe
3419
5556
14ec
0695
cafe
3801
5556
14ec
0796
cafe
3c11
5556
14f0
0708
cafe
200a
5556
14f0
068f
cafe
241a
5556
14f0
069a
cafe
2802
5556
14f0
06ca
cafe
2c12
5556
14f4
078f
cafe
300b
5556
14f4
06eb
cafe
341b
5556
14f4
0766
cafe
3803
5556
14f4
0678
cafe
3c13
5556
14f8
0729
cafe
200c
5556
14f8
06a2
cafe
241c
5556
14f8
0634
cafe
2804
5556
14f8
0736
cafe
2c14
5556
14fc
06f6
cafe
300d
5556
14fc
05f2
cafe
341d
5556
14fc
06d1
cafe
3805
5556
14fc
07f4
cafe
3c15
5556
1500
0664
cafe
200e
5556
1500
0701
cafe
241e
5556
1500
0753
cafe
2806
5556
1500
074d
cafe
2c16
5556
1504
077c
cafe
300f
5556
1504
0624
cafe
341f
5556
1504
07c1
cafe
3807
5556
1504
06d5
cafe
3c17
5556
1508
06b1
cafe
-
2008
5556
1508
06c4
cafe
2418
5556
1508
0679
cafe
2800
5556
1508
06c0
cafe
2c10
5556
150c
072c
cafe
3009
5556
150c
06c4
cafe
3419
5556
150c
0695
cafe
3801
5556
150c
0797
cafe
3c11
5556
1510
06f4
cafe
200a
5556
1510
066b
cafe
241a
5556
1510
0682
cafe
2802
5556
1510
0694
cafe
2c12
5556
1514
077d
cafe
300b
5556
1514
06cb
cafe
341b
5556
1514
074b
cafe
3803
5556
1514
067f
cafe
3c13
5556
1518
0724
cafe
200c
5556
1518
068c
cafe
241c
5556
1518
061f
cafe
2804
5556
1518
0740
cafe
2c14
5556
151c
06e5
cafe
300d
5556
151c
05dc
cafe
341d
5556
151c
06d8
cafe
3805
5556
151c
07d9
cafe
3c15
5556
1520
064b
cafe
200e
5556
1520
06e6
cafe
241e
5556
1520
073a
cafe
2806
5556
1520
072c
cafe
2c16
5556
1524
0761
cafe
300f
5556
1524
0608
cafe
341f
5556
1524
07ad
cafe
3807
5556
1524
06c9
cafe
3c17
5556
1528
06ad
cafe
2008
5556
1528
069f
cafe
2418
5556
1528
064f
cafe
2800
5556
1528
06b6
cafe
2c10
5556
152c
0706
cafe
3009
5556
152c
06b3
cafe
3419
5556
152c
067b
cafe
3801
5556
152c
0776
cafe
3c11
5556
1530
06f4
cafe
200a
5556
1530
0670
cafe
241a
5556
1530
0677
cafe
2802
5556
1530
0692
cafe
2c12
5556
1534
0768
cafe
300b
5556
1534
06ca
cafe
341b
5556
1534
0727
cafe
3803
5556
1534
066e
cafe
3c13
5556
1538
071a
cafe
200c
5556
1538
067c
cafe
241c
5556
1538
0612
cafe
2804
5556
1538
072f
cafe
2c14
-
5556
153c
06e8
cafe
300d
5556
153c
05c9
cafe
341d
5556
153c
06c6
cafe
3805
5556
153c
07be
cafe
3c15
5556
1540
0635
cafe
200e
5556
1540
06e5
cafe
241e
5556
1540
072f
cafe
2806
5556
1540
071a
cafe
2c16
5556
1544
0743
cafe
300f
5556
1544
05de
cafe
341f
5556
1544
0793
cafe
3807
5556
1544
06ab
cafe
3c17
5556
1548
067c
cafe
2008
5556
1548
0689
cafe
2418
5556
1548
0635
cafe
2800
5556
1548
0690
cafe
2c10
5556
154c
06f5
cafe
3009
5556
154c
06a2
cafe
3419
5556
154c
0665
cafe
3801
5556
154c
077f
cafe
3c11
5556
1550
06e1
cafe
200a
5556
1550
063d
cafe
241a
5556
1550
0655
cafe
2802
5556
1550
0674
cafe
2c12
5556
1554
0748
cafe
300b
5556
1554
06a6
cafe
341b
5556
1554
0722
cafe
3803
5556
1554
0643
cafe
3c13
5556
1558
0707
cafe
200c
5556
1558
066e
cafe
241c
5556
1558
05e8
cafe
2804
5556
1558
070d
cafe
2c14
5556
155c
06dc
cafe
300d
5556
155c
05a7
cafe
341d
5556
155c
06ab
cafe
3805
5556
155c
07af
cafe
3c15
5556
1560
061c
cafe
200e
5556
1560
06d0
cafe
241e
5556
1560
070b
cafe
2806
5556
1560
0703
cafe
2c16
5556
1564
0738
cafe
300f
5556
1564
05d6
cafe
341f
5556
1564
0779
cafe
3807
5556
1564
06a6
cafe
3c17
5556
1568
066b
cafe
2008
5556
1568
066f
cafe
2418
5556
1568
061c
cafe
2800
5556
1568
067d
cafe
2c10
5556
156c
06ea
cafe
3009
5556
156c
0689
cafe
3419
5556
156c
064e
cafe
3801
5556
-
156c
0756
cafe
3c11
5556
1570
06cb
cafe
200a
5556
1570
0628
cafe
241a
5556
1570
064b
cafe
2802
5556
1570
0646
cafe
2c12
5556
1574
073c
cafe
300b
5556
1574
068a
cafe
341b
5556
1574
06fd
cafe
3803
5556
1574
0639
cafe
3c13
5556
1578
06dc
cafe
200c
5556
1578
0663
cafe
241c
5556
1578
05e3
cafe
2804
5556
1578
06ff
cafe
2c14
5556
157c
06a7
cafe
300d
5556
157c
059c
cafe
341d
5556
157c
068a
cafe
3805
5556
157c
0794
cafe
3c15
5556
1580
0617
cafe
200e
5556
1580
06c7
cafe
241e
5556
1580
06e5
cafe
2806
5556
1580
06f7
cafe
2c16
5556
1584
0725
cafe
300f
5556
1584
05b3
cafe
341f
5556
1584
075b
cafe
3807
5556
1584
0683
cafe
3c17
5556
1588
065c
cafe
2008
5556
1588
0655
cafe
2418
5556
1588
0612
cafe
2800
5556
1588
065d
cafe
2c10
5556
158c
06d4
cafe
3009
5556
158c
0673
cafe
3419
5556
158c
063d
cafe
3801
5556
158c
0743
cafe
3c11
5556
1590
06aa
cafe
200a
5556
1590
0611
cafe
241a
5556
1590
0645
cafe
2802
5556
1590
064d
cafe
2c12
5556
1594
0728
cafe
300b
5556
1594
0678
cafe
341b
5556
1594
06e7
cafe
3803
5556
1594
061d
cafe
3c13
5556
1598
06d0
cafe
200c
5556
1598
0647
cafe
241c
5556
1598
05c3
cafe
2804
5556
1598
070c
cafe
2c14
5556
159c
0682
cafe
300d
5556
159c
057f
cafe
341d
5556
159c
0690
cafe
3805
5556
159c
0784
cafe
3c15
5556
15a0
060a
cafe
200e
5556
15a0
06aa
cafe
241e
5556
15a0
-
06f3
cafe
2806
5556
15a0
06d1
cafe
2c16
5556
15a4
071a
cafe
300f
5556
15a4
05b6
cafe
341f
5556
15a4
075e
cafe
3807
5556
15a4
066a
cafe
3c17
5556
15a8
0640
cafe
2008
5556
15a8
0652
cafe
2418
5556
15a8
0600
cafe
2800
5556
15a8
0656
cafe
2c10
5556
15ac
06c2
cafe
3009
5556
15ac
0659
cafe
3419
5556
15ac
0628
cafe
3801
5556
15ac
0732
cafe
3c11
5556
15b0
06a0
cafe
200a
5556
15b0
0601
cafe
241a
5556
15b0
061c
cafe
2802
5556
15b0
0630
cafe
2c12
5556
15b4
0715
cafe
300b
5556
15b4
0652
cafe
341b
5556
15b4
06d2
cafe
3803
5556
15b4
05fb
cafe
3c13
5556
15b8
06c3
cafe
200c
5556
15b8
0631
cafe
241c
5556
15b8
05a5
cafe
2804
5556
15b8
06e2
cafe
2c14
5556
15bc
0670
cafe
300d
5556
15bc
0565
cafe
341d
5556
15bc
066b
cafe
3805
5556
15bc
0779
cafe
3c15
5556
15c0
05dd
cafe
200e
5556
15c0
067a
cafe
241e
5556
15c0
06d6
cafe
2806
5556
15c0
06b2
cafe
2c16
5556
15c4
0704
cafe
300f
5556
15c4
059a
cafe
341f
5556
15c4
0735
cafe
3807
5556
15c4
0658
cafe
3c17
5556
15c8
0630
cafe
2008
5556
15c8
0640
cafe
2418
5556
15c8
05e7
cafe
2800
5556
15c8
0639
cafe
2c10
5556
15cc
069f
cafe
3009
5556
15cc
0651
cafe
3419
5556
15cc
0616
cafe
3801
5556
15cc
0728
cafe
3c11
5556
15d0
0687
cafe
200a
5556
15d0
05ea
cafe
241a
5556
15d0
0605
cafe
2802
5556
15d0
0633
cafe
2c12
5556
15d4
0704
cafe
300b
5556
15d4
0658
-
cafe
341b
5556
15d4
06d8
cafe
3803
5556
15d4
05e7
cafe
3c13
5556
15d8
06a4
cafe
200c
5556
15d8
062f
cafe
241c
5556
15d8
0598
cafe
2804
5556
15d8
06cf
cafe
2c14
5556
15dc
0665
cafe
300d
5556
15dc
0551
cafe
341d
5556
15dc
0655
cafe
3805
5556
15dc
0762
cafe
3c15
5556
15e0
05d9
cafe
200e
5556
15e0
0677
cafe
241e
5556
15e0
06c2
cafe
2806
5556
15e0
06a6
cafe
2c16
5556
15e4
06ec
cafe
300f
5556
15e4
0575
cafe
341f
5556
15e4
0726
cafe
3807
5556
15e4
063f
cafe
3c17
5556
15e8
0624
cafe
2008
5556
15e8
061e
cafe
2418
5556
15e8
05d3
cafe
2800
5556
15e8
0624
cafe
2c10
5556
15ec
0684
cafe
3009
5556
15ec
065b
cafe
3419
5556
15ec
05f3
cafe
3801
5556
15ec
070f
cafe
3c11
5556
15f0
069c
cafe
200a
5556
15f0
05da
cafe
241a
5556
15f0
05ef
cafe
2802
5556
15f0
0610
cafe
2c12
5556
15f4
0701
cafe
300b
5556
15f4
0642
cafe
341b
5556
15f4
06ca
cafe
3803
5556
15f4
05d2
cafe
3c13
5556
15f8
06a2
cafe
200c
5556
15f8
0611
cafe
241c
5556
15f8
0570
cafe
2804
5556
15f8
06aa
cafe
2c14
5556
15fc
0651
cafe
300d
5556
15fc
0540
cafe
341d
5556
15fc
064a
cafe
3805
5556
15fc
074c
cafe
3c15
5556
1600
05be
cafe
200e
5556
1600
0658
cafe
241e
5556
1600
06ab
cafe
2806
5556
1600
0696
cafe
2c16
5556
1604
06e6
cafe
300f
5556
1604
056c
cafe
341f
5556
1604
0711
cafe
3807
5556
1604
0630
cafe
3c17
5556
1608
0611
cafe
-
2008
5556
1608
0617
cafe
2418
5556
1608
05d0
cafe
2800
5556
1608
061b
cafe
2c10
5556
160c
0678
cafe
3009
5556
160c
0627
cafe
3419
5556
160c
05dd
cafe
3801
5556
160c
06f4
cafe
3c11
5556
1610
0677
cafe
200a
5556
1610
05ae
cafe
241a
5556
1610
05ea
cafe
2802
5556
1610
05ff
cafe
2c12
5556
1614
06f1
cafe
300b
5556
1614
0634
cafe
341b
5556
1614
069c
cafe
3803
5556
1614
05be
cafe
3c13
5556
1618
0681
cafe
200c
5556
1618
0606
cafe
241c
5556
1618
0561
cafe
2804
5556
1618
0697
cafe
2c14
5556
161c
0630
cafe
300d
5556
161c
0522
cafe
341d
5556
161c
062f
cafe
3805
5556
161c
0747
cafe
3c15
5556
1620
05a6
cafe
200e
5556
1620
0655
cafe
241e
5556
1620
06a4
cafe
2806
5556
1620
0692
cafe
2c16
5556
1624
06c4
cafe
300f
5556
1624
0574
cafe
341f
5556
1624
0706
cafe
3807
5556
1624
0614
cafe
3c17
5556
1628
05fd
cafe
2008
5556
1628
05f4
cafe
2418
5556
1628
05ac
cafe
2800
5556
1628
05f3
cafe
2c10
5556
162c
0667
cafe
3009
5556
162c
061c
cafe
3419
5556
162c
05c7
cafe
3801
5556
162c
06db
cafe
3c11
5556
1630
0661
cafe
200a
5556
1630
05a0
cafe
241a
5556
1630
05c4
cafe
2802
5556
1630
05ea
cafe
2c12
5556
1634
06dc
cafe
300b
5556
1634
061c
cafe
341b
5556
1634
0695
cafe
3803
5556
1634
05a7
cafe
3c13
5556
1638
0675
cafe
200c
5556
1638
05d3
cafe
241c
5556
1638
054c
cafe
2804
5556
1638
0682
cafe
2c14
-
5556
163c
061a
cafe
300d
5556
163c
051c
cafe
341d
5556
163c
0630
cafe
3805
5556
163c
0743
cafe
3c15
5556
1640
058d
cafe
200e
5556
1640
063f
cafe
241e
5556
1640
0686
cafe
2806
5556
1640
067f
cafe
2c16
5556
1644
06ba
cafe
300f
5556
1644
0569
cafe
341f
5556
1644
06e3
cafe
3807
5556
1644
05fe
cafe
3c17
5556
1648
05f5
cafe
2008
5556
1648
05ec
cafe
2418
5556
1648
05a1
cafe
2800
5556
1648
05e3
cafe
2c10
5556
164c
065d
cafe
3009
5556
164c
0610
cafe
3419
5556
164c
05c0
cafe
3801
5556
164c
06c8
cafe
3c11
5556
1650
0661
cafe
200a
5556
1650
0584
cafe
241a
5556
1650
05b5
cafe
2802
5556
1650
05b8
cafe
2c12
5556
1654
06c1
cafe
300b
5556
1654
060f
cafe
341b
5556
1654
0678
cafe
3803
5556
1654
059a
cafe
3c13
5556
1658
0664
cafe
200c
5556
1658
05ca
cafe
241c
5556
1658
0550
cafe
2804
5556
1658
0664
cafe
2c14
5556
165c
0601
cafe
300d
5556
165c
04f1
cafe
341d
5556
165c
0600
cafe
3805
5556
165c
071f
cafe
3c15
5556
1660
0588
cafe
200e
5556
1660
0626
cafe
241e
5556
1660
067c
cafe
2806
5556
1660
065a
cafe
2c16
5556
1664
06b4
cafe
300f
5556
1664
054b
cafe
341f
5556
1664
06d6
cafe
3807
5556
1664
05fb
cafe
3c17
5556
1668
05db
cafe
2008
5556
1668
05d3
cafe
2418
5556
1668
0598
cafe
2800
5556
1668
05d4
cafe
2c10
5556
166c
0641
cafe
3009
5556
166c
05f6
cafe
3419
5556
166c
05a8
cafe
3801
5556
-
166c
06ac
cafe
3c11
5556
1670
0638
cafe
200a
5556
1670
057a
cafe
241a
5556
1670
05ae
cafe
2802
5556
1670
05bc
cafe
2c12
5556
1674
06b9
cafe
300b
5556
1674
05f1
cafe
341b
5556
1674
065e
cafe
3803
5556
1674
0593
cafe
3c13
5556
1678
064f
cafe
200c
5556
1678
05b8
cafe
241c
5556
1678
051d
cafe
2804
5556
1678
0653
cafe
2c14
5556
167c
0603
cafe
300d
5556
167c
04fa
cafe
341d
5556
167c
0605
cafe
3805
5556
167c
0714
cafe
3c15
5556
1680
0567
cafe
200e
5556
1680
0627
cafe
241e
5556
1680
0661
cafe
2806
5556
1680
0652
cafe
2c16
5556
1684
0690
cafe
300f
5556
1684
052c
cafe
341f
5556
1684
06cd
cafe
3807
5556
1684
05e7
cafe
3c17
5556
1688
05c4
cafe
2008
5556
1688
05ae
cafe
2418
5556
1688
0576
cafe
2800
5556
1688
05c2
cafe
2c10
5556
168c
0627
cafe
3009
5556
168c
05eb
cafe
3419
5556
168c
0597
cafe
3801
5556
168c
06a9
cafe
3c11
5556
1690
061f
cafe
200a
5556
1690
056d
cafe
241a
5556
1690
0596
cafe
2802
5556
1690
05a4
cafe
2c12
5556
1694
06a7
cafe
300b
5556
1694
05fa
cafe
341b
5556
1694
065b
cafe
3803
5556
1694
0572
cafe
3c13
5556
1698
0636
cafe
200c
5556
1698
059d
cafe
241c
5556
1698
0510
cafe
2804
5556
1698
0636
cafe
2c14
5556
169c
05f8
cafe
300d
5556
169c
04ee
cafe
341d
5556
169c
05ea
cafe
3805
5556
169c
070b
cafe
3c15
5556
16a0
0559
cafe
200e
5556
16a0
05f7
cafe
241e
5556
16a0
-
0641
cafe
2806
5556
16a0
0624
cafe
2c16
5556
16a4
0668
cafe
300f
5556
16a4
0502
cafe
341f
5556
16a4
06c4
cafe
3807
5556
16a4
05db
cafe
3c17
5556
16a8
05b3
cafe
2008
5556
16a8
05b4
cafe
2418
5556
16a8
056a
cafe
2800
5556
16a8
05a5
cafe
2c10
5556
16ac
060d
cafe
3009
5556
16ac
05d7
cafe
3419
5556
16ac
0588
cafe
3801
5556
16ac
0687
cafe
3c11
5556
16b0
060c
cafe
200a
5556
16b0
0564
cafe
241a
5556
16b0
0592
cafe
2802
5556
16b0
058f
cafe
2c12
5556
16b4
0694
cafe
300b
5556
16b4
05d7
cafe
341b
5556
16b4
0638
cafe
3803
5556
16b4
0571
cafe
3c13
5556
16b8
062a
cafe
200c
5556
16b8
05b0
cafe
241c
5556
16b8
050a
cafe
2804
5556
16b8
0624
cafe
2c14
5556
16bc
05e9
cafe
300d
5556
16bc
04c0
cafe
341d
5556
16bc
05c4
cafe
3805
5556
16bc
06da
cafe
3c15
5556
16c0
0532
cafe
200e
5556
16c0
05b5
cafe
241e
5556
16c0
062e
cafe
2806
5556
16c0
060f
cafe
2c16
5556
16c4
0652
cafe
300f
5556
16c4
04c9
cafe
341f
5556
16c4
06b6
cafe
3807
5556
16c4
05b2
cafe
3c17
5556
16c8
0589
cafe
2008
5556
16c8
05a7
cafe
2418
5556
16c8
0554
cafe
2800
5556
16c8
0596
cafe
2c10
5556
16cc
0611
cafe
3009
5556
16cc
05ca
cafe
3419
5556
16cc
0584
cafe
3801
5556
16cc
0678
cafe
3c11
5556
16d0
061a
cafe
200a
5556
16d0
0546
cafe
241a
5556
16d0
0578
cafe
2802
5556
16d0
0586
cafe
2c12
5556
16d4
0692
cafe
300b
5556
16d4
05c6
-
cafe
341b
5556
16d4
062f
cafe
3803
5556
16d4
0554
cafe
3c13
5556
16d8
060c
cafe
200c
5556
16d8
0576
cafe
241c
5556
16d8
04d5
cafe
2804
5556
16d8
0618
cafe
2c14
5556
16dc
05bc
cafe
300d
5556
16dc
04b0
cafe
341d
5556
16dc
05b4
cafe
3805
5556
16dc
06cd
cafe
3c15
5556
16e0
0524
cafe
200e
5556
16e0
05dc
cafe
241e
5556
16e0
062c
cafe
2806
5556
16e0
0622
cafe
2c16
5556
16e4
065b
cafe
300f
5556
16e4
04f4
cafe
341f
5556
16e4
0692
cafe
3807
5556
16e4
05b7
cafe
3c17
5556
16e8
05ac
cafe
2008
5556
16e8
0596
cafe
2418
5556
16e8
0540
cafe
2800
5556
16e8
057c
cafe
2c10
5556
16ec
05fa
cafe
3009
5556
16ec
05ac
cafe
3419
5556
16ec
0551
cafe
3801
5556
16ec
067f
cafe
3c11
5556
16f0
05df
cafe
200a
5556
16f0
0534
cafe
241a
5556
16f0
0561
cafe
2802
5556
16f0
0582
cafe
2c12
5556
16f4
0678
cafe
300b
5556
16f4
05b6
cafe
341b
5556
16f4
0613
cafe
3803
5556
16f4
053c
cafe
3c13
5556
16f8
05eb
cafe
200c
5556
16f8
0555
cafe
241c
5556
16f8
04e4
cafe
2804
5556
16f8
0613
cafe
2c14
5556
16fc
059e
cafe
300d
5556
16fc
04a3
cafe
341d
5556
16fc
05a8
cafe
3805
5556
16fc
06bf
cafe
3c15
5556
1700
053b
cafe
200e
5556
1700
05cc
cafe
241e
5556
1700
061c
cafe
2806
5556
1700
05f7
cafe
2c16
5556
1704
064c
cafe
300f
5556
1704
04db
cafe
341f
5556
1704
067e
cafe
3807
5556
1704
05a4
cafe
3c17
5556
1708
058c
cafe
-
