3414
0000
0000
012f
cafe
3814
0000
0000
012e
cafe
3c14
0000
0000
0134
cafe
2014
0000
0000
0134
cafe
2414
0000
0000
0137
cafe
2814
0000
0000
0135
cafe
2c14
0000
0000
0131
cafe
3014
0000
0000
0137
cafe
3414
0000
0000
0137
cafe
3814
0000
0000
013a
cafe
3c14
0000
0000
013e
cafe
2014
0000
0000
013a
cafe
2414
0000
0000
013c
cafe
2814
0000
0000
013a
cafe
2c14
0000
0000
013d
cafe
3014
0000
0000
0138
cafe
3414
0000
0000
0138
cafe
3814
0000
0000
014c
cafe
3c14
0000
0000
0172
cafe
2014
0000
0000
0171
cafe
2414
0000
0000
0173
cafe
2814
0000
0000
0176
cafe
2c14
0000
0000
017a
cafe
3014
0000
0000
017a
cafe
3414
0000
0000
017d
cafe
3814
0000
0000
0182
cafe
3c14
0000
0000
0184
cafe
2014
0000
0000
0180
cafe
2414
0000
0000
017b
cafe
2814
0000
0000
017a
cafe
2c14
0000
0000
0173
cafe
3014
0000
0000
016c
cafe
3414
0000
0000
016e
cafe
3814
0000
0000
0167
cafe
3c14
0000
0000
0168
cafe
2014
0000
0000
0167
cafe
2414
0000
0000
0167
cafe
2814
0000
0000
0166
cafe
2c14
0000
0000
016b
cafe
3014
0000
0000
0173
cafe
3414
0000
0000
0170
cafe
3814
0000
0000
016e
cafe
3c14
0000
0000
016e
cafe
2014
0000
0000
0171
cafe
2414
0000
0000
016f
cafe
2814
0000
0000
0168
cafe
2c14
0000
0000
0164
cafe
3014
0000
0000
015c
cafe
3414
0000
0000
015a
cafe
3814
0000
0000
0156
cafe
3c14
0000
0000
0156
cafe
2014
-
0000
0000
0157
cafe
2414
0000
0000
0150
cafe
2814
0000
0000
014f
cafe
2c14
0000
0000
0152
cafe
3014
0000
0000
0150
cafe
3414
0000
0000
014d
cafe
3814
0000
0000
0150
cafe
3c14
0000
0000
014c
cafe
2014
0000
0000
014b
cafe
2414
0000
0000
0148
cafe
2814
0000
0000
014e
cafe
2c14
0000
0000
014e
cafe
3014
0000
0000
0150
cafe
3414
0000
0000
015e
cafe
3814
0000
0000
0156
cafe
3c14
0000
0000
0155
cafe
2014
0000
0000
0152
cafe
2414
0000
0000
0154
cafe
2814
0000
0000
0151
cafe
2c14
0000
0000
0152
cafe
3014
0000
0000
014f
cafe
3414
0000
0000
014f
cafe
3814
0000
0000
014b
cafe
3c14
0000
0000
0144
cafe
2014
0000
0000
0143
cafe
2414
0000
0000
0143
cafe
2814
0000
0000
0141
cafe
2c14
0000
0000
0142
cafe
3014
0000
0000
0143
cafe
3414
0000
0000
0148
cafe
3814
0000
0000
0146
cafe
3c14
0000
0000
0148
cafe
2014
0000
0000
014b
cafe
2414
0000
0000
0152
cafe
2814
0000
0000
0150
cafe
2c14
0000
0000
014d
cafe
3014
0000
0000
014b
cafe
3414
0000
0000
014a
cafe
3814
0000
0000
014a
cafe
3c14
0000
0000
0143
cafe
2014
0000
0000
013c
cafe
2414
0000
0000
0138
cafe
2814
0000
0000
012d
cafe
2c14
0000
0000
0126
cafe
3014
0000
0000
0125
cafe
3414
0000
0000
0127
cafe
3814
0000
0000
011f
cafe
3c14
0000
0000
0123
cafe
2014
0000
0000
0123
cafe
2414
0000
0000
0128
cafe
2814
0000
0000
0129
cafe
2c14
0000
-
0000
012a
cafe
3014
0000
0000
0134
cafe
3414
0000
0000
0133
cafe
3814
0000
0000
0136
cafe
3c14
0000
0000
013d
cafe
2014
0000
0000
0142
cafe
2414
0000
0000
014b
cafe
2814
0000
0000
0149
cafe
2c14
0000
0000
014f
cafe
3014
0000
0000
014e
cafe
3414
0000
0000
014d
cafe
3814
0000
0000
014e
cafe
3c14
0000
0000
0151
cafe
2014
0000
0000
014c
cafe
2414
0000
0000
014d
cafe
2814
0000
0000
0147
cafe
2c14
0000
0000
0145
cafe
3014
0000
0000
0143
cafe
3414
0000
0000
0148
cafe
3814
0000
0000
0140
cafe
3c14
0000
0000
013e
cafe
2014
0000
0000
0143
cafe
2414
0000
0000
013f
cafe
2814
0000
0000
0141
cafe
2c14
0000
0000
013d
cafe
3014
0000
0000
013b
cafe
3414
0000
0000
0135
cafe
3814
0000
0000
0135
cafe
3c14
0000
0000
012f
cafe
2014
0000
0000
0131
cafe
2414
0000
0000
0134
cafe
2814
0000
0000
0138
cafe
2c14
0000
0000
013e
cafe
3014
0000
0000
0142
cafe
3414
0000
0000
0148
cafe
3814
0000
0000
014d
cafe
3c14
0000
0000
0150
cafe
2014
0000
0000
0156
cafe
2414
0000
0000
0153
cafe
2814
0000
0000
0151
cafe
2c14
0000
0000
0150
cafe
3014
0000
0000
014b
cafe
3414
0000
0000
0144
cafe
3814
0000
0000
0140
cafe
3c14
0000
0000
013c
cafe
2014
0000
0000
0136
cafe
2414
0000
0000
0138
cafe
2814
0000
0000
0131
cafe
2c14
0000
0000
012a
cafe
3014
0000
0000
0127
cafe
3414
0000
0000
011f
cafe
3814
0000
0000
-
011f
cafe
3c14
0000
0000
0122
cafe
2014
0000
0000
0121
cafe
2414
0000
0000
0123
cafe
2814
0000
0000
0126
cafe
2c14
0000
0000
0127
cafe
3014
0000
0000
012f
cafe
3414
0000
0000
012f
cafe
3814
0000
0000
0130
cafe
3c14
0000
0000
0134
cafe
2014
0000
0000
0137
cafe
2414
0000
0000
013b
cafe
2814
0000
0000
0139
cafe
2c14
0000
0000
013a
cafe
3014
0000
0000
0132
cafe
3414
0000
0000
0130
cafe
3814
0000
0000
012f
cafe
3c14
0000
0000
012d
cafe
2014
0000
0000
012e
cafe
2414
0000
0000
0130
cafe
2814
0000
0000
012f
cafe
2c14
0000
0000
0130
cafe
3014
0000
0000
0135
cafe
3414
0000
0000
0131
cafe
3814
0000
0000
0133
cafe
3c14
0000
0000
0134
cafe
2014
0000
0000
0139
cafe
2414
0000
0000
0138
cafe
2814
0000
0000
0136
cafe
2c14
0000
0000
0132
cafe
3014
0000
0000
012c
cafe
3414
0000
0000
012b
cafe
3814
0000
0000
0131
cafe
3c14
0000
0000
012b
cafe
2014
0000
0000
012a
cafe
2414
0000
0000
0123
cafe
2814
0000
0000
0126
cafe
2c14
0000
0000
0128
cafe
3014
0000
0000
0129
cafe
3414
0000
0000
012b
cafe
3814
0000
0000
0129
cafe
3c14
0000
0000
0129
cafe
2014
0000
0000
0124
cafe
2414
0000
0000
0128
cafe
2814
0000
0000
0127
cafe
2c14
0000
0000
0123
cafe
3014
0000
0000
0123
cafe
3414
0000
0000
0122
cafe
3814
0000
0000
0124
cafe
3c14
0000
0000
0129
cafe
2014
0000
0000
0127
cafe
2414
0000
0000
0126
-
cafe
2814
0000
0000
0122
cafe
2c14
0000
0000
011f
cafe
3014
0000
0000
0120
cafe
3414
0000
0000
0125
cafe
3814
0000
0000
0121
cafe
3c14
0000
0000
0121
cafe
2014
0000
0000
011f
cafe
2414
0000
0000
0117
cafe
2814
0000
0000
011e
cafe
2c14
0000
0000
0118
cafe
3014
0000
0000
0117
cafe
3414
0000
0000
011b
cafe
3814
0000
0000
011c
cafe
3c14
0000
0000
011e
cafe
2014
0000
0000
011e
cafe
2414
0000
0000
0121
cafe
2814
0000
0000
011d
cafe
2c14
0000
0000
0119
cafe
3014
0000
0000
0117
cafe
3414
0000
0000
0114
cafe
3814
0000
0000
011a
cafe
3c14
0000
0000
0116
cafe
2014
0000
0000
0110
cafe
2414
0000
0000
010d
cafe
2814
0000
0000
010a
cafe
2c14
0000
0000
0107
cafe
3014
0000
0000
010a
cafe
3414
0000
0000
010e
cafe
3814
0000
0000
0113
cafe
3c14
0000
0000
0111
cafe
2014
0000
0000
0114
cafe
2414
0000
0000
0119
cafe
2814
0000
0000
0127
cafe
2c14
0000
0000
012f
cafe
3014
0000
0000
0137
cafe
3414
0000
0000
013c
cafe
3814
0000
0000
0140
cafe
3c14
0000
0000
013f
cafe
2014
0000
0000
0145
cafe
2414
0000
0000
0144
cafe
2814
0000
0000
013f
cafe
2c14
0000
0000
0144
cafe
3014
0000
0000
0141
cafe
3414
0000
0000
013c
cafe
3814
0000
0000
0139
cafe
3c14
0000
0000
0138
cafe
2014
0000
0000
0131
cafe
2414
0000
0000
012d
cafe
2814
0000
0000
0129
cafe
2c14
0000
0000
0128
cafe
3014
0000
0000
0124
cafe
-
3414
0000
0000
0120
cafe
3814
0000
0000
0124
cafe
3c14
0000
0000
0125
cafe
2014
0000
0000
011e
cafe
2414
0000
0000
011c
cafe
2814
0000
0000
011b
cafe
2c14
0000
0000
011f
cafe
3014
0000
0000
0121
cafe
3414
0000
0000
0125
cafe
3814
0000
0000
0125
cafe
3c14
0000
0000
0125
cafe
2014
0000
0000
0123
cafe
2414
0000
0000
012a
cafe
2814
0000
0000
012d
cafe
2c14
0000
0000
0128
cafe
3014
0000
0000
012a
cafe
3414
0000
0000
012e
cafe
3814
0000
0000
012e
cafe
3c14
0000
0000
012d
cafe
2014
0000
0000
0130
cafe
2414
0000
0000
0132
cafe
2814
0000
0000
0132
cafe
2c14
0000
0000
0130
cafe
3014
0000
0000
012a
cafe
3414
0000
0000
012e
cafe
3814
0000
0000
0130
cafe
3c14
0000
0000
0132
cafe
2014
0000
0000
0132
cafe
2414
0000
0000
0133
cafe
2814
0000
0000
012c
cafe
2c14
0000
0000
012d
cafe
3014
0000
0000
0127
cafe
3414
0000
0000
0128
cafe
3814
0000
0000
0123
cafe
3c14
0000
0000
011e
cafe
2014
0000
0000
011e
cafe
2414
0000
0000
0117
cafe
2814
0000
0000
0118
cafe
2c14
0000
0000
011a
cafe
3014
0000
0000
011b
cafe
3414
0000
0000
0123
cafe
3814
0000
0000
0122
cafe
3c14
0000
0000
0121
cafe
2014
0000
0000
0121
cafe
2414
0000
0000
012c
cafe
2814
0000
0000
012e
cafe
2c14
0000
0000
0127
cafe
3014
0000
0000
0120
cafe
3414
0000
0000
011a
cafe
3814
0000
0000
0119
cafe
3c14
0000
0000
0118
cafe
2014
-
0000
0000
0119
cafe
2414
0000
0000
0121
cafe
2814
0000
0000
012b
cafe
2c14
0000
0000
012a
cafe
3014
0000
0000
012f
cafe
3414
0000
0000
0130
cafe
3814
0000
0000
012a
cafe
3c14
0000
0000
012c
cafe
2014
0000
0000
0129
cafe
2414
0000
0000
0127
cafe
2814
0000
0000
0128
cafe
2c14
0000
0000
0126
cafe
3014
0000
0000
0121
cafe
3414
0000
0000
0127
cafe
3814
0000
0000
012b
cafe
3c14
0000
0000
012d
cafe
2014
0000
0000
012c
cafe
2414
0000
0000
012f
cafe
2814
0000
0000
012d
cafe
2c14
0000
0000
012a
cafe
3014
0000
0000
0124
cafe
3414
0000
0000
011d
cafe
3814
0000
0000
011f
cafe
3c14
0000
0000
011e
cafe
2014
0000
0000
0112
cafe
2414
0000
0000
0115
cafe
2814
0000
0000
0112
cafe
2c14
0000
0000
011b
cafe
3014
0000
0000
0113
cafe
3414
0000
0000
0115
cafe
3814
0000
0000
0117
cafe
3c14
0000
0000
011d
cafe
2014
0000
0000
011e
cafe
2414
0000
0000
011a
cafe
2814
0000
0000
0116
cafe
2c14
0000
0000
0121
cafe
3014
0000
0000
011f
cafe
3414
0000
0000
0121
cafe
3814
0000
0000
011c
cafe
3c14
0000
0000
011d
cafe
2014
0000
0000
011f
cafe
2414
0000
0000
011e
cafe
2814
0000
0000
011f
cafe
2c14
0000
0000
0123
cafe
3014
0000
0000
0127
cafe
3414
0000
0000
012f
cafe
3814
0000
0000
0129
cafe
3c14
0000
0000
0128
cafe
2014
0000
0000
0129
cafe
2414
0000
0000
0126
cafe
2814
0000
0000
0125
cafe
2c14
0000
-
0000
0122
cafe
3014
0000
0000
0122
cafe
3414
0000
0000
011f
cafe
3814
0000
0000
011c
cafe
3c14
0000
0000
0119
cafe
2014
0000
0000
0119
cafe
2414
0000
0000
011b
cafe
2814
0000
0000
0117
cafe
2c14
0000
0000
0114
cafe
3014
0000
0000
0112
cafe
3414
0000
0000
011e
cafe
3814
0000
0000
0123
cafe
3c14
0000
0000
0125
cafe
2014
0000
0000
0122
cafe
2414
0000
0000
0124
cafe
2814
0000
0000
0124
cafe
2c14
0000
0000
0126
cafe
3014
0000
0000
0128
cafe
3414
0000
0000
012d
cafe
3814
0000
0000
0132
cafe
3c14
0000
0000
0137
cafe
2014
0000
0000
0137
cafe
2414
0000
0000
0136
cafe
2814
0000
0000
0132
cafe
2c14
0000
0000
0131
cafe
3014
0000
0000
012b
cafe
3414
0000
0000
012c
cafe
3814
0000
0000
0128
cafe
3c14
0000
0000
0123
cafe
2014
0000
0000
0121
cafe
2414
0000
0000
011a
cafe
2814
0000
0000
0113
cafe
2c14
0000
0000
010e
cafe
3014
0000
0000
0111
cafe
3414
0000
0000
0115
cafe
3814
0000
0000
011b
cafe
3c14
0000
0000
011d
cafe
2014
0000
0000
0122
cafe
2414
0000
0000
0124
cafe
2814
0000
0000
012c
cafe
2c14
0000
0000
0136
cafe
3014
0000
0000
0136
cafe
3414
0000
0000
0136
cafe
3814
0000
0000
0138
cafe
3c14
0000
0000
0134
cafe
2014
0000
0000
013a
cafe
2414
0000
0000
013a
cafe
2814
0000
0000
013d
cafe
2c14
0000
0000
0147
cafe
3014
0000
0000
0147
cafe
3414
0000
0000
014b
cafe
3814
0000
0000
-
0150
cafe
3c14
0000
0000
014e
cafe
2014
0000
0000
014c
cafe
2414
0000
0000
0152
cafe
2814
0000
0000
0153
cafe
2c14
0000
0000
0154
cafe
3014
0000
0000
0150
cafe
3414
0000
0000
014c
cafe
3814
0000
0000
013f
cafe
3c14
0000
0000
013e
cafe
2014
0000
0000
0135
cafe
2414
0000
0000
012d
cafe
2814
0000
0000
012d
cafe
2c14
0000
0000
012a
cafe
3014
0000
0000
012e
cafe
3414
0000
0000
012c
cafe
3814
0000
0000
0130
cafe
3c14
0000
0000
0133
cafe
2014
0000
0000
0125
cafe
2414
0000
0000
0123
cafe
2814
0000
0000
011b
cafe
2c14
0000
0000
011f
cafe
3014
0000
0000
0123
cafe
3414
0000
0000
0128
cafe
3814
0000
0000
0133
cafe
3c14
0000
0000
013b
cafe
2014
0000
0000
0143
cafe
2414
0000
0000
014a
cafe
2814
0000
0000
0149
cafe
2c14
0000
0000
0145
cafe
3014
0000
0000
013f
cafe
3414
0000
0000
0138
cafe
3814
0000
0000
013d
cafe
3c14
0000
0000
0137
cafe
2014
0000
0000
0131
cafe
2414
0000
0000
012b
cafe
2814
0000
0000
0125
cafe
2c14
0000
0000
0120
cafe
3014
0000
0000
0125
cafe
3414
0000
0000
012c
cafe
3814
0000
0000
0131
cafe
3c14
0000
0000
0134
cafe
2014
0000
0000
0137
cafe
2414
0000
0000
0134
cafe
2814
0000
0000
0138
cafe
2c14
0000
0000
0137
cafe
3014
0000
0000
0137
cafe
3414
0000
0000
0137
cafe
3814
0000
0000
0135
cafe
3c14
0000
0000
0139
cafe
2014
0000
0000
013f
cafe
2414
0000
0000
0143
-
cafe
2814
0000
0000
013a
cafe
2c14
0000
0000
013c
cafe
3014
0000
0000
013b
cafe
3414
0000
0000
013f
cafe
3814
0000
0000
0142
cafe
3c14
0000
0000
0140
cafe
2014
0000
0000
0142
cafe
2414
0000
0000
0143
cafe
2814
0000
0000
0148
cafe
2c14
0000
0000
014b
cafe
3014
0000
0000
014d
cafe
3414
0000
0000
0149
cafe
3814
0000
0000
014a
cafe
3c14
0000
0000
0143
cafe
2014
0000
0000
0147
cafe
2414
0000
0000
013c
cafe
2814
0000
0000
0132
cafe
2c14
0000
0000
0131
cafe
3014
0000
0000
012f
cafe
3414
0000
0000
0130
cafe
3814
0000
0000
012e
cafe
3c14
0000
0000
012a
cafe
2014
0000
0000
012f
cafe
2414
0000
0000
0133
cafe
2814
0000
0000
0132
cafe
2c14
0000
0000
0133
cafe
3014
0000
0000
012f
cafe
3414
0000
0000
012f
cafe
3814
0000
0000
012d
cafe
3c14
0000
0000
0129
cafe
2014
0000
0000
0130
cafe
2414
0000
0000
0134
cafe
2814
0000
0000
0134
cafe
2c14
0000
0000
0130
cafe
3014
0000
0000
012b
cafe
3414
0000
0000
012a
cafe
3814
0000
0000
0127
cafe
3c14
0000
0000
012a
cafe
2014
0000
0000
0129
cafe
2414
0000
0000
0128
cafe
2814
0000
0000
012b
cafe
2c14
0000
0000
0130
cafe
3014
0000
0000
0131
cafe
3414
0000
0000
0135
cafe
3814
0000
0000
013a
cafe
3c14
0000
0000
013e
cafe
2014
0000
0000
013d
cafe
2414
0000
0000
0145
cafe
2814
0000
0000
0149
cafe
2c14
0000
0000
014b
cafe
3014
0000
0000
0147
cafe
-
3414
0000
0000
0144
cafe
3814
0000
0000
013f
cafe
3c14
0000
0000
013f
cafe
2014
0000
0000
013c
cafe
2414
0000
0000
0139
cafe
2814
0000
0000
0132
cafe
2c14
0000
0000
0132
cafe
3014
0000
0000
0131
cafe
3414
0000
0000
0130
cafe
3814
0000
0000
0132
cafe
3c14
0000
0000
0130
cafe
2014
0000
0000
012e
cafe
2414
0000
0000
012f
cafe
2814
0000
0000
012e
cafe
2c14
0000
0000
012f
cafe
3014
0000
0000
012f
cafe
3414
0000
0000
0136
cafe
3814
0000
0000
0140
cafe
3c14
0000
0000
0145
cafe
2014
0000
0000
0148
cafe
2414
0000
0000
0150
cafe
2814
0000
0000
014a
cafe
2c14
0000
0000
0144
cafe
3014
0000
0000
0145
cafe
3414
0000
0000
0143
cafe
3814
0000
0000
0141
cafe
3c14
0000
0000
0147
cafe
2014
0000
0000
014c
cafe
2414
0000
0000
0148
cafe
2814
0000
0000
0145
cafe
2c14
0000
0000
014c
cafe
3014
0000
0000
014c
cafe
3414
0000
0000
014c
cafe
3814
0000
0000
014b
cafe
3c14
0000
0000
014a
cafe
2014
0000
0000
014a
cafe
2414
0000
0000
013d
cafe
2814
0000
0000
013d
cafe
2c14
0000
0000
0136
cafe
3014
0000
0000
0130
cafe
3414
0000
0000
012b
cafe
3814
0000
0000
012a
cafe
3c14
0000
0000
012b
cafe
2014
0000
0000
012f
cafe
2414
0000
0000
0134
cafe
2814
0000
0000
0136
cafe
2c14
0000
0000
0132
cafe
3014
0000
0000
0138
cafe
3414
0000
0000
0137
cafe
3814
0000
0000
0133
cafe
3c14
0000
0000
0134
cafe
2014
-
0000
0000
0138
cafe
2414
0000
0000
0136
cafe
2814
0000
0000
013b
cafe
2c14
0000
0000
013c
cafe
3014
0000
0000
0139
cafe
3414
0000
0000
0137
cafe
3814
0000
0000
0138
cafe
3c14
0000
0000
0139
cafe
2014
0000
0000
0139
cafe
2414
0000
0000
013b
cafe
2814
0000
0000
013f
cafe
2c14
0000
0000
013d
cafe
3014
0000
0000
013d
cafe
3414
0000
0000
0135
cafe
3814
0000
0000
0134
cafe
3c14
0000
0000
012c
cafe
2014
0000
0000
012b
cafe
2414
0000
0000
012c
cafe
2814
0000
0000
012c
cafe
2c14
0000
0000
0123
cafe
3014
0000
0000
0120
cafe
3414
0000
0000
0122
cafe
3814
0000
0000
0127
cafe
3c14
0000
0000
0125
cafe
2014
0000
0000
0125
cafe
2414
0000
0000
0127
cafe
2814
0000
0000
0126
cafe
2c14
0000
0000
0122
cafe
3014
0000
0000
0122
cafe
3414
0000
0000
0127
cafe
3814
0000
0000
0126
cafe
3c14
0000
0000
012b
cafe
2014
0000
0000
0133
cafe
2414
0000
0000
0131
cafe
2814
0000
0000
0135
cafe
2c14
0000
0000
0135
cafe
3014
0000
0000
0131
cafe
3414
0000
0000
0135
cafe
3814
0000
0000
012d
cafe
3c14
0000
0000
012d
cafe
2014
0000
0000
0130
cafe
2414
0000
0000
0134
cafe
2814
0000
0000
0136
cafe
2c14
0000
0000
0130
cafe
3014
0000
0000
0130
cafe
3414
0000
0000
012e
cafe
3814
0000
0000
0131
cafe
3c14
0000
0000
012b
cafe
2014
0000
0000
0127
cafe
2414
0000
0000
0124
cafe
2814
0000
0000
0124
cafe
2c14
0000
-
0000
012a
cafe
3014
0000
0000
012a
cafe
3414
0000
0000
0126
cafe
3814
0000
0000
0129
cafe
3c14
0000
0000
0128
cafe
2014
0000
0000
0121
cafe
2414
0000
0000
0122
cafe
2814
0000
0000
0122
cafe
2c14
0000
0000
011f
cafe
3014
0000
0000
011d
cafe
3414
0000
0000
011f
cafe
3814
0000
0000
011e
cafe
3c14
0000
0000
0121
cafe
2014
0000
0000
012b
cafe
2414
0000
0000
0129
cafe
2814
0000
0000
0127
cafe
2c14
0000
0000
012e
cafe
3014
0000
0000
012c
cafe
3414
0000
0000
0130
cafe
3814
0000
0000
0132
cafe
3c14
0000
0000
0138
cafe
2014
0000
0000
013c
cafe
2414
0000
0000
0141
cafe
2814
0000
0000
013b
cafe
2c14
0000
0000
013b
cafe
3014
0000
0000
013d
cafe
3414
0000
0000
0141
cafe
3814
0000
0000
013e
cafe
3c14
0000
0000
013b
cafe
2014
0000
0000
0134
cafe
2414
0000
0000
012b
cafe
2814
0000
0000
0127
cafe
2c14
0000
0000
0121
cafe
3014
0000
0000
011d
cafe
3414
0000
0000
011f
cafe
3814
0000
0000
011f
cafe
3c14
0000
0000
0123
cafe
2014
0000
0000
0127
cafe
2414
0000
0000
012b
cafe
2814
0000
0000
0130
cafe
2c14
0000
0000
0131
cafe
3014
0000
0000
0135
cafe
3414
0000
0000
012f
cafe
3814
0000
0000
0132
cafe
3c14
0000
0000
013a
cafe
2014
0000
0000
013a
cafe
2414
0000
0000
0137
cafe
2814
0000
0000
013d
cafe
2c14
0000
0000
013c
cafe
3014
0000
0000
0136
cafe
3414
0000
0000
0134
cafe
3814
0000
0000
-
0136
cafe
3c14
0000
0000
0134
cafe
2014
0000
0000
0139
cafe
2414
0000
0000
0143
cafe
2814
0000
0000
0149
cafe
2c14
0000
0000
0147
cafe
3014
0000
0000
0146
cafe
3414
0000
0000
0146
cafe
3814
0000
0000
0145
cafe
3c14
0000
0000
0149
cafe
2014
0000
0000
014b
cafe
2414
0000
0000
0144
cafe
2814
0000
0000
013c
cafe
2c14
0000
0000
013a
cafe
3014
0000
0000
0135
cafe
3414
0000
0000
0131
cafe
3814
0000
0000
012c
cafe
3c14
0000
0000
012c
cafe
2014
0000
0000
0131
cafe
2414
0000
0000
012e
cafe
2814
0000
0000
012d
cafe
2c14
0000
0000
0133
cafe
3014
0000
0000
0142
cafe
3414
0000
0000
0147
cafe
3814
0000
0000
0148
cafe
3c14
0000
0000
01e2
cafe
2014
0000
0000
0358
cafe
2414
0000
0000
03c7
cafe
2814
0000
0000
03e7
cafe
2c14
0000
0000
03e5
cafe
3014
0000
0000
03db
cafe
3414
0000
0000
03ce
cafe
3814
0000
0000
03c8
cafe
3c14
0000
0000
03be
cafe
2014
0000
0000
03b5
cafe
2414
0000
0000
03aa
cafe
2814
0000
0000
039e
cafe
2c14
0000
0000
038d
cafe
3014
0000
0000
0373
cafe
3414
0000
0000
036e
cafe
3814
0000
0000
035c
cafe
3c14
0000
0000
0358
cafe
2014
0000
0000
034f
cafe
2414
0000
0000
0346
cafe
2814
0000
0000
0339
cafe
2c14
0000
0000
032d
cafe
3014
0000
0000
032a
cafe
3414
0000
0000
0322
cafe
3814
0000
0000
0316
cafe
3c14
0000
0000
0308
cafe
2014
0000
0000
02fe
cafe
2414
0000
0000
02f0
-
cafe
2814
0000
0000
02e9
cafe
2c14
0000
0000
02de
cafe
3014
0000
0000
02dc
cafe
3414
0000
0000
02d7
cafe
3814
0000
0000
02ce
cafe
3c14
0000
0000
02cd
cafe
2014
0000
0000
02c2
cafe
2414
0000
0000
02c1
cafe
2814
0000
0000
02b6
cafe
2c14
0000
0000
02b3
cafe
3014
0000
0000
02a7
cafe
3414
0000
0000
029f
cafe
3814
0000
0000
0292
cafe
3c14
0000
0000
0291
cafe
2014
0000
0000
0292
cafe
2414
0000
0000
028d
cafe
2814
0000
0000
0284
cafe
2c14
0000
0000
0282
cafe
3014
0000
0000
0275
cafe
3414
0000
0000
026b
cafe
3814
0000
0000
026c
cafe
3c14
0000
0000
0267
cafe
2014
0000
0000
0259
cafe
2414
0000
0000
0254
cafe
2814
0000
0000
024b
cafe
2c14
0000
0000
0247
cafe
3014
0000
0000
0240
cafe
3414
0000
0000
0232
cafe
3814
0000
0000
022a
cafe
3c14
0000
0000
0222
cafe
2014
0000
0000
021c
cafe
2414
0000
0000
021a
cafe
2814
0000
0000
0211
cafe
2c14
0000
0000
0203
cafe
3014
0000
0000
0202
cafe
3414
0000
0000
01ff
cafe
3814
0000
0000
01f6
cafe
3c14
0000
0000
01ec
cafe
2014
0000
0000
01e4
cafe
2414
0000
0000
01d0
cafe
2814
0000
0000
01cc
cafe
2c14
0000
0000
01cc
cafe
3014
0000
0000
01cc
cafe
3414
0000
0000
01cd
cafe
3814
0000
0000
01c5
cafe
3c14
0000
0000
01c5
cafe
2014
0000
0000
01c6
cafe
2414
0000
0000
01c3
cafe
2814
0000
0000
01c1
cafe
2c14
0000
0000
01bc
cafe
3014
0000
0000
01b0
cafe
-
3414
0000
0000
01a7
cafe
3814
0000
0000
0199
cafe
3c14
0000
0000
018e
cafe
2014
0000
0000
0182
cafe
2414
0000
0000
017b
cafe
2814
0000
0000
0173
cafe
2c14
0000
0000
016f
cafe
3014
0000
0000
0168
cafe
3414
0000
0000
016b
cafe
3814
0000
0000
0170
cafe
3c14
0000
0000
0171
cafe
2014
0000
0000
016f
cafe
2414
0000
0000
016c
cafe
2814
0000
0000
016c
cafe
2c14
0000
0000
016d
cafe
3014
0000
0000
016e
cafe
3414
0000
0000
0163
cafe
3814
0000
0000
0166
cafe
3c14
0000
0000
0162
cafe
2014
0000
0000
0160
cafe
2414
0000
0000
015e
cafe
2814
0000
0000
0159
cafe
2c14
0000
0000
0155
cafe
3014
0000
0000
0156
cafe
3414
0000
0000
0159
cafe
3814
0000
0000
0151
cafe
3c14
0000
0000
014b
cafe
2014
0000
0000
014a
cafe
2414
0000
0000
0142
cafe
2814
0000
0000
013f
cafe
2c14
0000
0000
013b
cafe
3014
0000
0000
013d
cafe
3414
0000
0000
013f
cafe
3814
0000
0000
013c
cafe
3c14
0000
0000
0137
cafe
2014
0000
0000
0130
cafe
2414
0000
0000
0129
cafe
2814
0000
0000
0121
cafe
2c14
0000
0000
0125
cafe
3014
0000
0000
0122
cafe
3414
0000
0000
0124
cafe
3814
0000
0000
0124
cafe
3c14
0000
0000
0121
cafe
2014
0000
0000
011d
cafe
2414
0000
0000
011d
cafe
2814
0000
0000
011a
cafe
2c14
0000
0000
0117
cafe
3014
0000
0000
0117
cafe
3414
0000
0000
011d
cafe
3814
0000
0000
0115
cafe
3c14
0000
0000
011a
cafe
2014
-
0000
0000
011a
cafe
2414
0000
0000
0117
cafe
2814
0000
0000
011d
cafe
2c14
0000
0000
0117
cafe
3014
0000
0000
0112
cafe
3414
0000
0000
010c
cafe
3814
0000
0000
0111
cafe
3c14
0000
0000
0112
cafe
2014
0000
0000
010f
cafe
2414
0000
0000
0103
cafe
2814
0000
0000
0100
cafe
2c14
0000
0000
0104
cafe
3014
0000
0000
0102
cafe
3414
0000
0000
00fe
cafe
3814
0000
0000
00f8
cafe
3c14
0000
0000
00f0
cafe
2014
0000
0000
00f0
cafe
2414
0000
0000
00f4
cafe
2814
0000
0000
00f3
cafe
2c14
0000
0000
00f8
cafe
3014
0000
0000
00fd
cafe
3414
0000
0000
00fe
cafe
3814
0000
0000
00fa
cafe
3c14
0000
0000
00fa
cafe
2014
0000
0000
00f9
cafe
2414
0000
0000
00fb
cafe
2814
0000
0000
00fc
cafe
2c14
0000
0000
0101
cafe
3014
0000
0000
00fd
cafe
3414
0000
0000
00fa
cafe
3814
0000
0000
00ff
cafe
3c14
0000
0000
00ff
cafe
2014
0000
0000
0102
cafe
2414
0000
0000
0105
cafe
2814
0000
0000
0103
cafe
2c14
0000
0000
0101
cafe
3014
0000
0000
00fd
cafe
3414
0000
0000
00fb
cafe
3814
0000
0000
00f0
cafe
3c14
0000
0000
00ed
cafe
2014
0000
0000
00f1
cafe
2414
0000
0000
00ec
cafe
2814
0000
0000
00e5
cafe
2c14
0000
0000
00de
cafe
3014
0000
0000
00df
cafe
3414
0000
0000
00df
cafe
3814
0000
0000
00de
cafe
3c14
0000
0000
00e6
cafe
2014
0000
0000
00e3
cafe
2414
0000
0000
00db
cafe
2814
0000
0000
00da
cafe
2c14
0000
-
0000
00de
cafe
3014
0000
0000
00de
cafe
3414
0000
0000
00e0
cafe
3814
0000
0000
00e1
cafe
3c14
0000
0000
00e1
cafe
2014
0000
0000
00e0
cafe
2414
0000
0000
00e0
cafe
2814
0000
0000
00e5
cafe
2c14
0000
0000
00e1
cafe
3014
0000
0000
00e2
cafe
3414
0000
0000
00dd
cafe
3814
0000
0000
00da
cafe
3c14
0000
0000
00dc
cafe
2014
0000
0000
00db
cafe
2414
0000
0000
00d4
cafe
2814
0000
0000
00d3
cafe
2c14
0000
0000
00cc
cafe
3014
0000
0000
00cb
cafe
3414
0000
0000
00cb
cafe
3814
0000
0000
00c6
cafe
3c14
0000
0000
00c1
cafe
2014
0000
0000
00c5
cafe
2414
0000
0000
00c1
cafe
2814
0000
0000
00c1
cafe
2c14
0000
0000
00c0
cafe
3014
0000
0000
00bc
cafe
3414
0000
0000
00bb
cafe
3814
0000
0000
00bb
cafe
3c14
0000
0000
00bd
cafe
2014
0000
0000
00c5
cafe
2414
0000
0000
00c6
cafe
2814
0000
0000
00c9
cafe
2c14
0000
0000
00cd
cafe
3014
0000
0000
00d5
cafe
3414
0000
0000
00da
cafe
3814
0000
0000
00e3
cafe
3c14
0000
0000
00e0
cafe
2014
0000
0000
00e4
cafe
2414
0000
0000
00e9
cafe
2814
0000
0000
00ed
cafe
2c14
0000
0000
00e7
cafe
3014
0000
0000
00e2
cafe
3414
0000
0000
00da
cafe
3814
0000
0000
00d3
cafe
3c14
0000
0000
00ca
cafe
2014
0000
0000
00c8
cafe
2414
0000
0000
00c0
cafe
2814
0000
0000
00b8
cafe
2c14
0000
0000
00b0
cafe
3014
0000
0000
00b2
cafe
3414
0000
0000
00b4
cafe
3814
0000
0000
-
00b9
cafe
3c14
0000
0000
00bd
cafe
2014
0000
0000
00c1
cafe
2414
0000
0000
00c7
cafe
2814
0000
0000
00ca
cafe
2c14
0000
0000
00d6
cafe
3014
0000
0000
00df
cafe
3414
0000
0000
00df
cafe
3814
0000
0000
00e3
cafe
3c14
0000
0000
00e2
cafe
2014
0000
0000
00e4
cafe
2414
0000
0000
00eb
cafe
2814
0000
0000
00ec
cafe
2c14
0000
0000
00ed
cafe
3014
0000
0000
00eb
cafe
3414
0000
0000
00ec
cafe
3814
0000
0000
00e7
cafe
3c14
0000
0000
00e3
cafe
2014
0000
0000
00e6
cafe
2414
0000
0000
00e5
cafe
2814
0000
0000
00e5
cafe
2c14
0000
0000
00e6
cafe
3014
0000
0000
00ea
cafe
3414
0000
0000
00e9
cafe
3814
0000
0000
00e8
cafe
3c14
0000
0000
00e7
cafe
2014
0000
0000
00eb
cafe
2414
0000
0000
00e4
cafe
2814
0000
0000
00e0
cafe
2c14
0000
0000
00e1
cafe
3014
0000
0000
00d9
cafe
3414
0000
0000
00d7
cafe
3814
0000
0000
00dd
cafe
3c14
0000
0000
00dc
cafe
2014
0000
0000
00d9
cafe
2414
0000
0000
00d4
cafe
2814
0000
0000
00cf
cafe
2c14
0000
0000
00cc
cafe
3014
0000
0000
00d2
cafe
3414
0000
0000
00d5
cafe
3814
0000
0000
00da
cafe
3c14
0000
0000
00e2
cafe
2014
0000
0000
00e3
cafe
2414
0000
0000
00e3
cafe
2814
0000
0000
00ea
cafe
2c14
0000
0000
00f0
cafe
3014
0000
0000
00ef
cafe
3414
0000
0000
00f0
cafe
3814
0000
0000
00ee
cafe
3c14
0000
0000
00ed
cafe
2014
0000
0000
00ea
cafe
2414
0000
0000
00e4
-
cafe
2814
0000
0000
00ea
cafe
2c14
0000
0000
00e5
cafe
3014
0000
0000
00e9
cafe
3414
0000
0000
00e7
cafe
3814
0000
0000
00e3
cafe
3c14
0000
0000
00e7
cafe
2014
0000
0000
00e4
cafe
2414
0000
0000
00e7
cafe
2814
0000
0000
00e5
cafe
2c14
0000
0000
00e8
cafe
3014
0000
0000
00eb
cafe
3414
0000
0000
00e7
cafe
3814
0000
0000
00e6
cafe
3c14
0000
0000
00e7
cafe
2014
0000
0000
00e1
cafe
2414
0000
0000
00e7
cafe
2814
0000
0000
00e7
cafe
2c14
0000
0000
00e5
cafe
3014
0000
0000
00e7
cafe
3414
0000
0000
00ea
cafe
3814
0000
0000
00ee
cafe
3c14
0000
0000
00ec
cafe
2014
0000
0000
00e7
cafe
2414
0000
0000
00eb
cafe
2814
0000
0000
00ec
cafe
2c14
0000
0000
00e6
cafe
3014
0000
0000
00e5
cafe
3414
0000
0000
00e4
cafe
3814
0000
0000
00e7
cafe
3c14
0000
0000
00e9
cafe
2014
0000
0000
00ec
cafe
2414
0000
0000
00ee
cafe
2814
0000
0000
00f2
cafe
2c14
0000
0000
00f8
cafe
3014
0000
0000
0101
cafe
3414
0000
0000
0104
cafe
3814
0000
0000
010c
cafe
3c14
0000
0000
010a
cafe
2014
0000
0000
0105
cafe
2414
0000
0000
0105
cafe
2814
0000
0000
0104
cafe
2c14
0000
0000
0103
cafe
3014
0000
0000
0104
cafe
3414
0000
0000
0103
cafe
3814
0000
0000
0102
cafe
3c14
0000
0000
0103
cafe
2014
0000
0000
00fd
cafe
2414
0000
0000
00f8
cafe
2814
0000
0000
00fa
cafe
2c14
0000
0000
00f3
cafe
3014
0000
0000
00f4
cafe
-
3414
0000
0000
00fc
cafe
3814
0000
0000
00fd
cafe
3c14
0000
0000
00fc
cafe
2014
0000
0000
0101
cafe
2414
0000
0000
0102
cafe
2814
0000
0000
00ff
cafe
2c14
0000
0000
0100
cafe
3014
0000
0000
00fd
cafe
3414
0000
0000
00f8
cafe
3814
0000
0000
0101
cafe
3c14
0000
0000
00fe
cafe
2014
0000
0000
00fc
cafe
2414
0000
0000
0100
cafe
2814
0000
0000
0101
cafe
2c14
0000
0000
0103
cafe
3014
0000
0000
010b
cafe
3414
0000
0000
010b
cafe
3814
0000
0000
00fd
cafe
3c14
0000
0000
00d5
cafe
2014
0000
0000
00c7
cafe
2414
0000
0000
00bf
cafe
2814
0000
0000
00bd
cafe
2c14
0000
0000
00bf
cafe
3014
0000
0000
00bf
cafe
3414
0000
0000
00b9
cafe
3814
0000
0000
00b9
cafe
3c14
0000
0000
00ba
cafe
2014
0000
0000
00ba
cafe
2414
0000
0000
00ba
cafe
2814
0000
0000
00b9
cafe
2c14
0000
0000
00bb
cafe
3014
0000
0000
00be
cafe
3414
0000
0000
00bb
cafe
3814
0000
0000
00b7
cafe
3c14
0000
0000
00b9
cafe
2014
0000
0000
00be
cafe
2414
0000
0000
00c2
cafe
2814
0000
0000
00c0
cafe
2c14
0000
0000
00c1
cafe
3014
0000
0000
00ca
cafe
3414
0000
0000
00cd
cafe
3814
0000
0000
00ce
cafe
3c14
0000
0000
00cf
cafe
2014
0000
0000
00cd
cafe
2414
0000
0000
00d3
cafe
2814
0000
0000
00d0
cafe
2c14
0000
0000
00cf
cafe
3014
0000
0000
00d6
cafe
3414
0000
0000
00d8
cafe
3814
0000
0000
00d5
cafe
3c14
0000
0000
00d7
cafe
2014
-
0000
0000
00d8
cafe
2414
0000
0000
00da
cafe
2814
0000
0000
00e1
cafe
2c14
0000
0000
00e5
cafe
3014
0000
0000
00ea
cafe
3414
0000
0000
00ef
cafe
3814
0000
0000
00eb
cafe
3c14
0000
0000
00ef
cafe
2014
0000
0000
00ee
cafe
2414
0000
0000
00f3
cafe
2814
0000
0000
00f0
cafe
2c14
0000
0000
00ea
cafe
3014
0000
0000
00eb
cafe
3414
0000
0000
00ec
cafe
3814
0000
0000
00ec
cafe
3c14
0000
0000
00eb
cafe
2014
0000
0000
00ea
cafe
2414
0000
0000
00e2
cafe
2814
0000
0000
00e3
cafe
2c14
0000
0000
00dd
cafe
3014
0000
0000
00dc
cafe
3414
0000
0000
00db
cafe
3814
0000
0000
00db
cafe
3c14
0000
0000
00e3
cafe
2014
0000
0000
00e5
cafe
2414
0000
0000
00e6
cafe
2814
0000
0000
00eb
cafe
2c14
0000
0000
00ee
cafe
3014
0000
0000
00e8
cafe
3414
0000
0000
00ed
cafe
3814
0000
0000
00ee
cafe
3c14
0000
0000
00f9
cafe
2014
0000
0000
00f3
cafe
2414
0000
0000
00fa
cafe
2814
0000
0000
00ff
cafe
2c14
0000
0000
010c
cafe
3014
0000
0000
010e
cafe
3414
0000
0000
0110
cafe
3814
0000
0000
010f
cafe
3c14
0000
0000
010b
cafe
2014
0000
0000
010a
cafe
2414
0000
0000
0109
cafe
2814
0000
0000
0103
cafe
2c14
0000
0000
0106
cafe
3014
0000
0000
0101
cafe
3414
0000
0000
0109
cafe
3814
0000
0000
0102
cafe
3c14
0000
0000
00f9
cafe
2014
0000
0000
00f6
cafe
2414
0000
0000
00f5
cafe
2814
0000
0000
00f1
cafe
2c14
0000
-
0000
00f5
cafe
3014
0000
0000
00f4
cafe
3414
0000
0000
00f2
cafe
3814
0000
0000
00f3
cafe
3c14
0000
0000
00f8
cafe
2014
0000
0000
00f9
cafe
2414
0000
0000
00f5
cafe
2814
0000
0000
00f9
cafe
2c14
0000
0000
00f0
cafe
3014
0000
0000
00f1
cafe
3414
0000
0000
00f1
cafe
3814
0000
0000
00eb
cafe
3c14
0000
0000
00eb
cafe
2014
0000
0000
00f2
cafe
2414
0000
0000
00f6
cafe
2814
0000
0000
00f8
cafe
2c14
0000
0000
00fc
cafe
3014
0000
0000
0105
cafe
3414
0000
0000
010c
cafe
3814
0000
0000
010c
cafe
3c14
0000
0000
010e
cafe
2014
0000
0000
0111
cafe
2414
0000
0000
0110
cafe
2814
0000
0000
010b
cafe
2c14
0000
0000
010c
cafe
3014
0000
0000
010b
cafe
3414
0000
0000
010b
cafe
3814
0000
0000
010c
cafe
3c14
0000
0000
010c
cafe
2014
0000
0000
010a
cafe
2414
0000
0000
0109
cafe
2814
0000
0000
010b
cafe
2c14
0000
0000
0111
cafe
3014
0000
0000
0116
cafe
3414
0000
0000
0117
cafe
3814
0000
0000
011d
cafe
3c14
0000
0000
011c
cafe
2014
0000
0000
011d
cafe
2414
0000
0000
011b
cafe
2814
0000
0000
0113
cafe
2c14
0000
0000
0114
cafe
3014
0000
0000
0114
cafe
3414
0000
0000
010f
cafe
3814
0000
0000
0111
cafe
3c14
0000
0000
0104
cafe
2014
0000
0000
0100
cafe
2414
0000
0000
0106
cafe
2814
0000
0000
0103
cafe
2c14
0000
0000
0105
cafe
3014
0000
0000
00fe
cafe
3414
0000
0000
0104
cafe
3814
0000
0000
-
0107
cafe
3c14
0000
0000
010d
cafe
2014
0000
0000
010f
cafe
2414
0000
0000
0117
cafe
2814
0000
0000
011c
cafe
2c14
0000
0000
0120
cafe
3014
0000
0000
0124
cafe
3414
0000
0000
0125
cafe
3814
0000
0000
0124
cafe
3c14
0000
0000
012a
cafe
2014
0000
0000
0125
cafe
2414
0000
0000
0123
cafe
2814
0000
0000
0128
cafe
2c14
0000
0000
0123
cafe
3014
0000
0000
0121
cafe
3414
0000
0000
0125
cafe
3814
0000
0000
0127
cafe
3c14
0000
0000
0126
cafe
2014
0000
0000
0123
cafe
2414
0000
0000
0124
cafe
2814
0000
0000
0127
cafe
2c14
0000
0000
0129
cafe
3014
0000
0000
012d
cafe
3414
0000
0000
0127
cafe
3814
0000
0000
0128
cafe
3c14
0000
0000
0129
cafe
2014
0000
0000
0120
cafe
2414
0000
0000
0125
cafe
2814
0000
0000
0129
cafe
2c14
0000
0000
0129
cafe
3014
0000
0000
012a
cafe
3414
0000
0000
012c
cafe
3814
0000
0000
0127
cafe
3c14
0000
0000
0123
cafe
2014
0000
0000
0121
cafe
2414
0000
0000
011b
cafe
2814
0000
0000
011f
cafe
2c14
0000
0000
011d
cafe
3014
0000
0000
011e
cafe
3414
0000
0000
0123
cafe
3814
0000
0000
0127
cafe
3c14
0000
0000
012b
cafe
2014
0000
0000
0131
cafe
2414
0000
0000
012f
cafe
2814
0000
0000
0135
cafe
2c14
0000
0000
0138
cafe
3014
0000
0000
013b
cafe
3414
0000
0000
013b
cafe
3814
0000
0000
013c
cafe
3c14
0000
0000
0139
cafe
2014
0000
0000
013e
cafe
2414
0000
0000
0140
-
cafe
2814
0000
0000
013e
cafe
2c14
0000
0000
0140
cafe
3014
0000
0000
013f
cafe
3414
0000
0000
0139
cafe
3814
0000
0000
0139
cafe
3c14
0000
0000
0137
cafe
2014
0000
0000
0133
cafe
2414
0000
0000
0129
cafe
2814
0000
0000
0120
cafe
2c14
0000
0000
011c
cafe
3014
0000
0000
0119
cafe
3414
0000
0000
0113
cafe
3814
0000
0000
0115
cafe
3c14
0000
0000
0117
cafe
2014
0000
0000
0119
cafe
2414
0000
0000
011f
cafe
2814
0000
0000
0120
cafe
2c14
0000
0000
0123
cafe
3014
0000
0000
0128
cafe
3414
0000
0000
0123
cafe
3814
0000
0000
0126
cafe
3c14
0000
0000
0128
cafe
2014
0000
0000
012d
cafe
2414
0000
0000
012b
cafe
2814
0000
0000
0130
cafe
2c14
0000
0000
012f
cafe
3014
0000
0000
0136
cafe
3414
0000
0000
0135
cafe
3814
0000
0000
0134
cafe
3c14
0000
0000
0137
cafe
2014
0000
0000
0139
cafe
2414
0000
0000
013f
cafe
2814
0000
0000
0145
cafe
2c14
0000
0000
0145
cafe
3014
0000
0000
0146
cafe
3414
0000
0000
0144
cafe
3814
0000
0000
0143
cafe
3c14
0000
0000
013d
cafe
2014
0000
0000
013a
cafe
2414
0000
0000
0136
cafe
2814
0000
0000
0137
cafe
2c14
0000
0000
0136
cafe
3014
0000
0000
0137
cafe
3414
0000
0000
012d
cafe
3814
0000
0000
0130
cafe
3c14
0000
0000
0130
cafe
2014
0000
0000
0133
cafe
2414
0000
0000
0134
cafe
2814
0000
0000
0133
cafe
2c14
0000
0000
0136
cafe
3014
0000
0000
0139
cafe
-
3414
0000
0000
0134
cafe
3814
0000
0000
0131
cafe
3c14
0000
0000
012f
cafe
2014
0000
0000
0128
cafe
2414
0000
0000
011f
cafe
2814
0000
0000
0118
cafe
2c14
0000
0000
0115
cafe
3014
0000
0000
010a
cafe
3414
0000
0000
010e
cafe
3814
0000
0000
0114
cafe
3c14
0000
0000
007e
cafe
2014
0000
0000
0000
cafe
2414
0000
0000
0000
cafe
2814
0000
0000
0000
cafe
2c14
0000
0000
0000
cafe
3014
0000
0000
0000
cafe
3414
0000
0000
0000
cafe
3814
0000
0000
0000
cafe
3c14
0000
0000
0000
cafe
2014
0000
0000
0000
cafe
2414
0000
0000
0000
cafe
2814
0000
0000
0000
cafe
2c14
0000
0000
0000
cafe
3014
0000
0000
0000
cafe
3414
0000
0000
0000
cafe
3814
0000
0000
0000
cafe
3c14
0000
0000
0000
cafe
2014
0000
0000
0000
cafe
2414
0000
0000
0000
cafe
2814
0000
0000
0000
cafe
2c14
0000
0000
0000
cafe
3014
0000
0000
0000
cafe
3414
0000
0000
0000
cafe
3814
0000
0000
0000
cafe
3c14
0000
0000
0001
cafe
2014
0000
0000
000d
cafe
2414
0000
0000
001d
cafe
2814
0000
0000
0032
cafe
2c14
0000
0000
0042
cafe
3014
0000
0000
004c
cafe
3414
0000
0000
005a
cafe
3814
0000
0000
0061
cafe
3c14
0000
0000
0061
cafe
2014
0000
0000
0063
cafe
2414
0000
0000
0068
cafe
2814
0000
0000
006e
cafe
2c14
0000
0000
0071
cafe
3014
0000
0000
007a
cafe
3414
0000
0000
007b
cafe
3814
0000
0000
0087
cafe
3c14
0000
0000
008a
cafe
2014
-
0000
0000
0091
cafe
2414
0000
0000
0098
cafe
2814
0000
0000
00a3
cafe
2c14
0000
0000
00ab
cafe
3014
0000
0000
00b7
cafe
3414
0000
0000
00c1
cafe
3814
0000
0000
00ca
cafe
3c14
0000
0000
00cd
cafe
2014
0000
0000
00d6
cafe
2414
0000
0000
00e1
cafe
2814
0000
0000
00e1
cafe
2c14
0000
0000
00e7
cafe
3014
0000
0000
00ef
cafe
3414
0000
0000
00f3
cafe
3814
0000
0000
00f7
cafe
3c14
0000
0000
00fb
cafe
2014
0000
0000
0103
cafe
2414
0000
0000
0109
cafe
2814
0000
0000
010f
cafe
2c14
0000
0000
0117
cafe
3014
0000
0000
011e
cafe
3414
0000
0000
0124
cafe
3814
0000
0000
012f
cafe
3c14
0000
0000
0135
cafe
2014
0000
0000
013a
cafe
2414
0000
0000
013e
cafe
2814
0000
0000
0140
cafe
2c14
0000
0000
0142
cafe
3014
0000
0000
0144
cafe
3414
0000
0000
0145
cafe
3814
0000
0000
0148
cafe
3c14
0000
0000
014a
cafe
2014
0000
0000
0148
cafe
2414
0000
0000
0147
cafe
2814
0000
0000
013e
cafe
2c14
0000
0000
013c
cafe
3014
0000
0000
013d
cafe
3414
0000
0000
013e
cafe
3814
0000
0000
0141
cafe
3c14
0000
0000
0149
cafe
2014
0000
0000
0151
cafe
2414
0000
0000
0157
cafe
2814
0000
0000
0161
cafe
2c14
0000
0000
0169
cafe
3014
0000
0000
016c
cafe
3414
0000
0000
016d
cafe
3814
0000
0000
0174
cafe
3c14
0000
0000
0170
cafe
2014
0000
0000
016d
cafe
2414
0000
0000
0173
cafe
2814
0000
0000
0173
cafe
2c14
0000
-
0000
0173
cafe
3014
0000
0000
0174
cafe
3414
0000
0000
0174
cafe
3814
0000
0000
0171
cafe
3c14
0000
0000
016e
cafe
2014
0000
0000
0167
cafe
2414
0000
0000
0164
cafe
2814
0000
0000
0163
cafe
2c14
0000
0000
0165
cafe
3014
0000
0000
0167
cafe
3414
0000
0000
0165
cafe
3814
0000
0000
0168
cafe
3c14
0000
0000
016f
cafe
2014
0000
0000
0174
cafe
2414
0000
0000
0178
cafe
2814
0000
0000
017b
cafe
2c14
0000
0000
0178
cafe
3014
0000
0000
0176
cafe
3414
0000
0000
0176
cafe
3814
0000
0000
017b
cafe
3c14
0000
0000
017a
cafe
2014
0000
0000
017f
cafe
2414
0000
0000
017f
cafe
2814
0000
0000
0180
cafe
2c14
0000
0000
017e
cafe
3014
0000
0000
017c
cafe
3414
0000
0000
017f
cafe
3814
0000
0000
0183
cafe
3c14
0000
0000
0183
cafe
2014
0000
0000
017d
cafe
2414
0000
0000
017d
cafe
2814
0000
0000
0177
cafe
2c14
0000
0000
0177
cafe
3014
0000
0000
0174
cafe
3414
0000
0000
0177
cafe
3814
0000
0000
0174
cafe
3c14
0000
0000
0170
cafe
2014
0000
0000
0171
cafe
2414
0000
0000
0173
cafe
2814
0000
0000
0178
cafe
2c14
0000
0000
0179
cafe
3014
0000
0000
017d
cafe
3414
0000
0000
017e
cafe
3814
0000
0000
0181
cafe
3c14
0000
0000
0184
cafe
2014
0000
0000
018c
cafe
2414
0000
0000
0190
cafe
2814
0000
0000
0190
cafe
2c14
0000
0000
018a
cafe
3014
0000
0000
018c
cafe
3414
0000
0000
018c
cafe
3814
0000
0000
-
018b
cafe
3c14
0000
0000
018f
cafe
2014
0000
0000
0196
cafe
2414
0000
0000
0197
cafe
2814
0000
0000
01a0
cafe
2c14
0000
0000
01a1
cafe
3014
0000
0000
019f
cafe
3414
0000
0000
019c
cafe
3814
0000
0000
0198
cafe
3c14
0000
0000
0197
cafe
2014
0000
0000
019a
cafe
2414
0000
0000
0193
cafe
2814
0000
0000
0189
cafe
2c14
0000
0000
0184
cafe
3014
0000
0000
0186
cafe
3414
0000
0000
017e
cafe
3814
0000
0000
0178
cafe
3c14
0000
0000
0177
cafe
2014
0000
0000
0176
cafe
2414
0000
0000
0177
cafe
2814
0000
0000
017d
cafe
2c14
0000
0000
0184
cafe
3014
0000
0000
017f
cafe
3414
0000
0000
0188
cafe
3814
0000
0000
0186
cafe
3c14
0000
0000
017f
cafe
2014
0000
0000
017b
cafe
2414
0000
0000
0178
cafe
2814
0000
0000
017f
cafe
2c14
0000
0000
0180
cafe
3014
0000
0000
018b
cafe
3414
0000
0000
018f
cafe
3814
0000
0000
0191
cafe
3c14
0000
0000
0194
cafe
2014
0000
0000
018f
cafe
2414
0000
0000
0194
cafe
2814
0000
0000
019b
cafe
2c14
0000
0000
0194
cafe
3014
0000
0000
0191
cafe
3414
0000
0000
0188
cafe
3814
0000
0000
017f
cafe
3c14
0000
0000
0180
cafe
2014
0000
0000
0184
cafe
2414
0000
0000
0184
cafe
2814
0000
0000
017d
cafe
2c14
0000
0000
017b
cafe
3014
0000
0000
0179
cafe
3414
0000
0000
0173
cafe
3814
0000
0000
0176
cafe
3c14
0000
0000
0174
cafe
2014
0000
0000
0174
cafe
2414
0000
0000
0175
-
cafe
2814
0000
0000
0176
cafe
2c14
0000
0000
0175
cafe
3014
0000
0000
0173
cafe
3414
0000
0000
0174
cafe
3814
0000
0000
0175
cafe
3c14
0000
0000
017c
cafe
2014
0000
0000
017a
cafe
2414
0000
0000
017e
cafe
2814
0000
0000
017b
cafe
2c14
0000
0000
017e
cafe
3014
0000
0000
0181
cafe
3414
0000
0000
0180
cafe
3814
0000
0000
0183
cafe
3c14
0000
0000
017f
cafe
2014
0000
0000
0180
cafe
2414
0000
0000
0181
cafe
2814
0000
0000
0177
cafe
2c14
0000
0000
0177
cafe
3014
0000
0000
016c
cafe
3414
0000
0000
016b
cafe
3814
0000
0000
0163
cafe
3c14
0000
0000
015f
cafe
2014
0000
0000
015f
cafe
2414
0000
0000
0164
cafe
2814
0000
0000
0167
cafe
2c14
0000
0000
016b
cafe
3014
0000
0000
016f
cafe
3414
0000
0000
0170
cafe
3814
0000
0000
016f
cafe
3c14
0000
0000
016d
cafe
2014
0000
0000
016f
cafe
2414
0000
0000
016c
cafe
2814
0000
0000
016f
cafe
2c14
0000
0000
016d
cafe
3014
0000
0000
0169
cafe
3414
0000
0000
0171
cafe
3814
0000
0000
0172
cafe
3c14
0000
0000
0171
cafe
2014
0000
0000
0170
cafe
2414
0000
0000
0176
cafe
2814
0000
0000
0173
cafe
2c14
0000
0000
0172
cafe
3014
0000
0000
016e
cafe
3414
0000
0000
0162
cafe
3814
0000
0000
0157
cafe
3c14
0000
0000
0150
cafe
2014
0000
0000
0149
cafe
2414
0000
0000
014d
cafe
2814
0000
0000
0148
cafe
2c14
0000
0000
0148
cafe
3014
0000
0000
0144
cafe
-
3414
0000
0000
013d
cafe
3814
0000
0000
013b
cafe
3c14
0000
0000
0143
cafe
2014
0000
0000
014a
cafe
2414
0000
0000
0151
cafe
2814
0000
0000
0153
cafe
2c14
0000
0000
015c
cafe
3014
0000
0000
0164
cafe
3414
0000
0000
0176
cafe
3814
0000
0000
0174
cafe
3c14
0000
0000
0173
cafe
2014
0000
0000
016b
cafe
2414
0000
0000
0167
cafe
2814
0000
0000
0160
cafe
2c14
0000
0000
015f
cafe
3014
0000
0000
0155
cafe
3414
0000
0000
0153
cafe
3814
0000
0000
014c
cafe
3c14
0000
0000
0141
cafe
2014
0000
0000
0143
cafe
2414
0000
0000
0145
cafe
2814
0000
0000
0149
cafe
2c14
0000
0000
0147
cafe
3014
0000
0000
0149
cafe
3414
0000
0000
0149
cafe
3814
0000
0000
0150
cafe
3c14
0000
0000
014c
cafe
2014
0000
0000
0145
cafe
2414
0000
0000
0147
cafe
2814
0000
0000
0147
cafe
2c14
0000
0000
014d
cafe
3014
0000
0000
0149
cafe
3414
0000
0000
014b
cafe
3814
0000
0000
014f
cafe
3c14
0000
0000
0152
cafe
2014
0000
0000
0153
cafe
2414
0000
0000
014c
cafe
2814
0000
0000
0149
cafe
2c14
0000
0000
0149
cafe
3014
0000
0000
0144
cafe
3414
0000
0000
0143
cafe
3814
0000
0000
013f
cafe
3c14
0000
0000
013e
cafe
2014
0000
0000
0140
cafe
2414
0000
0000
0141
cafe
2814
0000
0000
0140
cafe
2c14
0000
0000
013e
cafe
3014
0000
0000
013b
cafe
3414
0000
0000
013a
cafe
3814
0000
0000
0139
cafe
3c14
0000
0000
0135
cafe
2014
-
0000
0000
012b
cafe
2414
0000
0000
012d
cafe
2814
0000
0000
0129
cafe
2c14
0000
0000
012c
cafe
3014
0000
0000
012a
cafe
3414
0000
0000
012d
cafe
3814
0000
0000
0132
cafe
3c14
0000
0000
0138
cafe
2014
0000
0000
013b
cafe
2414
0000
0000
013a
cafe
2814
0000
0000
013e
cafe
2c14
0000
0000
0139
cafe
3014
0000
0000
0139
cafe
3414
0000
0000
013b
cafe
3814
0000
0000
013f
cafe
3c14
0000
0000
014c
cafe
2014
0000
0000
0152
cafe
2414
0000
0000
0156
cafe
2814
0000
0000
015a
cafe
2c14
0000
0000
015c
cafe
3014
0000
0000
015a
cafe
3414
0000
0000
0161
cafe
3814
0000
0000
015d
cafe
3c14
0000
0000
015b
cafe
2014
0000
0000
015f
cafe
2414
0000
0000
0158
cafe
2814
0000
0000
0159
cafe
2c14
0000
0000
015d
cafe
3014
0000
0000
015f
cafe
3414
0000
0000
0162
cafe
3814
0000
0000
0163
cafe
3c14
0000
0000
015f
cafe
2014
0000
0000
0156
cafe
2414
0000
0000
0157
cafe
2814
0000
0000
0157
cafe
2c14
0000
0000
0153
cafe
3014
0000
0000
0151
cafe
3414
0000
0000
0152
cafe
3814
0000
0000
014d
cafe
3c14
0000
0000
014e
cafe
2014
0000
0000
0146
cafe
2414
0000
0000
0148
cafe
2814
0000
0000
0149
cafe
2c14
0000
0000
0146
cafe
3014
0000
0000
0146
cafe
3414
0000
0000
014b
cafe
3814
0000
0000
0147
cafe
3c14
0000
0000
0143
cafe
2014
0000
0000
014a
cafe
2414
0000
0000
014a
cafe
2814
0000
0000
0152
cafe
2c14
0000
-
0000
0151
cafe
3014
0000
0000
0157
cafe
3414
0000
0000
0153
cafe
3814
0000
0000
0150
cafe
3c14
0000
0000
0156
cafe
2014
0000
0000
0151
cafe
2414
0000
0000
0150
cafe
2814
0000
0000
0149
cafe
2c14
0000
0000
0146
cafe
3014
0000
0000
013e
cafe
3414
0000
0000
013d
cafe
3814
0000
0000
0139
cafe
3c14
0000
0000
0133
cafe
2014
0000
0000
012e
cafe
2414
0000
0000
012b
cafe
2814
0000
0000
012b
cafe
2c14
0000
0000
0129
cafe
3014
0000
0000
012c
cafe
3414
0000
0000
012e
cafe
3814
0000
0000
0131
cafe
3c14
0000
0000
0136
cafe
2014
0000
0000
0141
cafe
2414
0000
0000
0146
cafe
2814
0000
0000
014c
cafe
2c14
0000
0000
0155
cafe
3014
0000
0000
015d
cafe
3414
0000
0000
0158
cafe
3814
0000
0000
0157
cafe
3c14
0000
0000
0155
cafe
2014
0000
0000
014f
cafe
2414
0000
0000
014d
cafe
2814
0000
0000
014c
cafe
2c14
0000
0000
014e
cafe
3014
0000
0000
014c
cafe
3414
0000
0000
014d
cafe
3814
0000
0000
0149
cafe
3c14
0000
0000
0149
cafe
2014
0000
0000
0140
cafe
2414
0000
0000
0146
cafe
2814
0000
0000
0142
cafe
2c14
0000
0000
0147
cafe
3014
0000
0000
0148
cafe
3414
0000
0000
0141
cafe
3814
0000
0000
013e
cafe
3c14
0000
0000
013f
cafe
2014
0000
0000
013c
cafe
2414
0000
0000
0139
cafe
2814
0000
0000
0136
cafe
2c14
0000
0000
013b
cafe
3014
0000
0000
0145
cafe
3414
0000
0000
014a
cafe
3814
0000
0000
-
0146
cafe
3c14
0000
0000
0149
cafe
2014
0000
0000
0149
cafe
2414
0000
0000
014f
cafe
2814
0000
0000
014b
cafe
2c14
0000
0000
0147
cafe
3014
0000
0000
0146
cafe
3414
0000
0000
0140
cafe
3814
0000
0000
013c
cafe
3c14
0000
0000
0142
cafe
2014
0000
0000
013f
cafe
2414
0000
0000
0144
cafe
2814
0000
0000
0143
cafe
2c14
0000
0000
0149
cafe
3014
0000
0000
014b
cafe
3414
0000
0000
0152
cafe
3814
0000
0000
0156
cafe
3c14
0000
0000
0157
cafe
2014
0000
0000
0152
cafe
2414
0000
0000
0152
cafe
2814
0000
0000
014f
cafe
2c14
0000
0000
0148
cafe
3014
0000
0000
0145
cafe
3414
0000
0000
0143
cafe
3814
0000
0000
0141
cafe
3c14
0000
0000
013f
cafe
2014
0000
0000
013a
cafe
2414
0000
0000
013c
cafe
2814
0000
0000
013f
cafe
2c14
0000
0000
0141
cafe
3014
0000
0000
013f
cafe
3414
0000
0000
0142
cafe
3814
0000
0000
013d
cafe
3c14
0000
0000
013f
cafe
2014
0000
0000
013f
cafe
2414
0000
0000
013d
cafe
2814
0000
0000
013d
cafe
2c14
0000
0000
0137
cafe
3014
0000
0000
0133
cafe
3414
0000
0000
0135
cafe
3814
0000
0000
0135
cafe
3c14
0000
0000
0133
cafe
2014
0000
0000
012c
cafe
2414
0000
0000
0130
cafe
2814
0000
0000
0135
cafe
2c14
0000
0000
0133
cafe
3014
0000
0000
0131
cafe
3414
0000
0000
0131
cafe
3814
0000
0000
0130
cafe
3c14
0000
0000
0135
cafe
2014
0000
0000
0138
cafe
2414
0000
0000
0138
-
cafe
2814
0000
0000
013f
cafe
2c14
0000
0000
0145
cafe
3014
0000
0000
0147
cafe
3414
0000
0000
014a
cafe
3814
0000
0000
014b
cafe
3c14
0000
0000
0148
cafe
2014
0000
0000
014a
cafe
2414
0000
0000
014c
cafe
2814
0000
0000
0155
cafe
2c14
0000
0000
0150
cafe
3014
0000
0000
0154
cafe
3414
0000
0000
0153
cafe
3814
0000
0000
0154
cafe
3c14
0000
0000
0159
cafe
2014
0000
0000
0155
cafe
2414
0000
0000
0157
cafe
2814
0000
0000
0154
cafe
2c14
0000
0000
014f
cafe
3014
0000
0000
0145
cafe
3414
0000
0000
013c
cafe
3814
0000
0000
0137
cafe
3c14
0000
0000
0138
cafe
2014
0000
0000
013b
cafe
2414
0000
0000
0142
cafe
2814
0000
0000
0144
cafe
2c14
0000
0000
0145
cafe
3014
0000
0000
0143
cafe
3414
0000
0000
0141
cafe
3814
0000
0000
0142
cafe
3c14
0000
0000
0142
cafe
2014
0000
0000
0142
cafe
2414
0000
0000
0139
cafe
2814
0000
0000
0138
cafe
2c14
0000
0000
0136
cafe
3014
0000
0000
012f
cafe
3414
0000
0000
012b
cafe
3814
0000
0000
0126
cafe
3c14
0000
0000
0125
cafe
2014
0000
0000
0120
cafe
2414
0000
0000
0121
cafe
2814
0000
0000
0122
cafe
2c14
0000
0000
0124
cafe
3014
0000
0000
0124
cafe
3414
0000
0000
0125
cafe
3814
0000
0000
012b
cafe
3c14
0000
0000
0134
cafe
2014
0000
0000
0133
cafe
2414
0000
0000
0141
cafe
2814
0000
0000
0143
cafe
2c14
0000
0000
0142
cafe
3014
0000
0000
0146
cafe
-
3414
0000
0000
0149
cafe
3814
0000
0000
0147
cafe
3c14
0000
0000
0146
cafe
2014
0000
0000
013f
cafe
2414
0000
0000
013f
cafe
2814
0000
0000
0144
cafe
2c14
0000
0000
0145
cafe
3014
0000
0000
0144
cafe
3414
0000
0000
0144
cafe
3814
0000
0000
0147
cafe
3c14
0000
0000
014a
cafe
2014
0000
0000
0143
cafe
2414
0000
0000
013c
cafe
2814
0000
0000
012f
cafe
2c14
0000
0000
012a
cafe
3014
0000
0000
011a
cafe
3414
0000
0000
011a
cafe
3814
0000
0000
011d
cafe
3c14
0000
0000
011f
cafe
2014
0000
0000
0123
cafe
2414
0000
0000
0125
cafe
2814
0000
0000
0128
cafe
2c14
0000
0000
0126
cafe
3014
0000
0000
0128
cafe
3414
0000
0000
012c
cafe
3814
0000
0000
012f
cafe
3c14
0000
0000
012f
cafe
2014
0000
0000
0132
cafe
2414
0000
0000
0136
cafe
2814
0000
0000
013a
cafe
2c14
0000
0000
013d
cafe
3014
0000
0000
013d
cafe
3414
0000
0000
013a
cafe
3814
0000
0000
013a
cafe
3c14
0000
0000
0141
cafe
2014
0000
0000
0144
cafe
2414
0000
0000
014c
cafe
2814
0000
0000
0152
cafe
2c14
0000
0000
0155
cafe
3014
0000
0000
015c
cafe
3414
0000
0000
015d
cafe
3814
0000
0000
0153
cafe
3c14
0000
0000
014e
cafe
2014
0000
0000
0147
cafe
2414
0000
0000
0140
cafe
2814
0000
0000
013c
cafe
2c14
0000
0000
013d
cafe
3014
0000
0000
013a
cafe
3414
0000
0000
013b
cafe
3814
0000
0000
0141
cafe
3c14
0000
0000
013f
cafe
2014
-
0000
0000
013d
cafe
2414
0000
0000
013f
cafe
2814
0000
0000
013f
cafe
2c14
0000
0000
0142
cafe
3014
0000
0000
0141
cafe
3414
0000
0000
013a
cafe
3814
0000
0000
013a
cafe
3c14
0000
0000
013a
cafe
2014
0000
0000
013a
cafe
2414
0000
0000
0136
cafe
2814
0000
0000
0136
cafe
2c14
0000
0000
012d
cafe
3014
0000
0000
012c
cafe
3414
0000
0000
0126
cafe
3814
0000
0000
0120
cafe
3c14
0000
0000
011f
cafe
2014
0000
0000
0120
cafe
2414
0000
0000
0121
cafe
2814
0000
0000
0123
cafe
2c14
0000
0000
012a
cafe
3014
0000
0000
0132
cafe
3414
0000
0000
0139
cafe
3814
0000
0000
0144
cafe
3c14
0000
0000
0149
cafe
2014
0000
0000
014d
cafe
2414
0000
0000
0156
cafe
2814
0000
0000
015a
cafe
2c14
0000
0000
0159
cafe
3014
0000
0000
0151
cafe
3414
0000
0000
014b
cafe
3814
0000
0000
014a
cafe
3c14
0000
0000
0146
cafe
2014
0000
0000
013f
cafe
2414
0000
0000
0139
cafe
2814
0000
0000
012e
cafe
2c14
0000
0000
0124
cafe
3014
0000
0000
012a
cafe
3414
0000
0000
0130
cafe
3814
0000
0000
012d
cafe
3c14
0000
0000
012c
cafe
2014
0000
0000
012b
cafe
2414
0000
0000
012f
cafe
2814
0000
0000
0131
cafe
2c14
0000
0000
0132
cafe
3014
0000
0000
0139
cafe
3414
0000
0000
013d
cafe
3814
0000
0000
013a
cafe
3c14
0000
0000
0140
cafe
2014
0000
0000
0143
cafe
2414
0000
0000
014b
cafe
2814
0000
0000
014b
cafe
2c14
0000
-
0000
0151
cafe
3014
0000
0000
0159
cafe
3414
0000
0000
0159
cafe
3814
0000
0000
0153
cafe
3c14
0000
0000
0155
cafe
2014
0000
0000
014f
cafe
2414
0000
0000
0149
cafe
2814
0000
0000
0144
cafe
2c14
0000
0000
0140
cafe
3014
0000
0000
0141
cafe
3414
0000
0000
0141
cafe
3814
0000
0000
013a
cafe
3c14
0000
0000
013b
cafe
2014
0000
0000
013d
cafe
2414
0000
0000
013e
cafe
2814
0000
0000
0143
cafe
2c14
0000
0000
013a
cafe
3014
0000
0000
0141
cafe
3414
0000
0000
0141
cafe
3814
0000
0000
0145
cafe
3c14
0000
0000
0146
cafe
2014
0000
0000
013f
cafe
2414
0000
0000
0146
cafe
2814
0000
0000
0144
cafe
2c14
0000
0000
0146
cafe
3014
0000
0000
0147
cafe
3414
0000
0000
0143
cafe
3814
0000
0000
0147
cafe
3c14
0000
0000
0146
cafe
2014
0000
0000
014f
cafe
2414
0000
0000
014f
cafe
2814
0000
0000
0151
cafe
2c14
0000
0000
014f
cafe
3014
0000
0000
0151
cafe
3414
0000
0000
014e
cafe
3814
0000
0000
0148
cafe
3c14
0000
0000
014a
cafe
2014
0000
0000
0148
cafe
2414
0000
0000
0141
cafe
2814
0000
0000
013f
cafe
2c14
0000
0000
0137
cafe
3014
0000
0000
0130
cafe
3414
0000
0000
0133
cafe
3814
0000
0000
0134
cafe
3c14
0000
0000
013a
cafe
2014
0000
0000
013c
cafe
2414
0000
0000
013a
cafe
2814
0000
0000
013c
cafe
2c14
0000
0000
0146
cafe
3014
0000
0000
014a
cafe
3414
0000
0000
0148
cafe
3814
0000
0000
-
014b
cafe
3c14
0000
0000
0149
cafe
2014
0000
0000
0148
cafe
2414
0000
0000
014e
cafe
2814
0000
0000
014e
cafe
2c14
0000
0000
0143
cafe
3014
0000
0000
013f
cafe
3414
0000
0000
013c
cafe
3814
0000
0000
013e
cafe
3c14
0000
0000
013c
cafe
2014
0000
0000
013a
cafe
2414
0000
0000
0132
cafe
2814
0000
0000
0131
cafe
2c14
0000
0000
012e
cafe
3014
0000
0000
012e
cafe
3414
0000
0000
012e
cafe
3814
0000
0000
0132
cafe
3c14
0000
0000
0139
cafe
2014
0000
0000
0140
cafe
2414
0000
0000
014c
cafe
2814
0000
0000
0148
cafe
2c14
0000
0000
014b
cafe
3014
0000
0000
014b
cafe
3414
0000
0000
0150
cafe
3814
0000
0000
014f
cafe
3c14
0000
0000
0149
cafe
2014
0000
0000
0147
cafe
2414
0000
0000
0149
cafe
2814
0000
0000
0143
cafe
2c14
0000
0000
0145
cafe
3014
0000
0000
0143
cafe
3414
0000
0000
013f
cafe
3814
0000
0000
013e
cafe
3c14
0000
0000
013d
cafe
2014
0000
0000
013e
cafe
2414
0000
0000
013c
cafe
2814
0000
0000
0137
cafe
2c14
0000
0000
013c
cafe
3014
0000
0000
0136
cafe
3414
0000
0000
0139
cafe
3814
0000
0000
0138
cafe
3c14
0000
0000
0137
cafe
2014
0000
0000
0135
cafe
2414
0000
0000
012b
cafe
2814
0000
0000
011c
cafe
2c14
0000
0000
011e
cafe
3014
0000
0000
0114
cafe
3414
0000
0000
0115
cafe
3814
0000
0000
0119
cafe
3c14
0000
0000
0116
cafe
2014
0000
0000
0115
cafe
2414
0000
0000
0113
-
cafe
2814
0000
0000
011b
cafe
2c14
0000
0000
011e
cafe
3014
0000
0000
0120
cafe
3414
0000
0000
0122
cafe
3814
0000
0000
011f
cafe
3c14
0000
0000
0123
cafe
2014
0000
0000
011e
cafe
2414
0000
0000
0120
cafe
2814
0000
0000
0123
cafe
2c14
0000
0000
012d
cafe
3014
0000
0000
0131
cafe
3414
0000
0000
0134
cafe
3814
0000
0000
0136
cafe
3c14
0000
0000
0141
cafe
2014
0000
0000
0146
cafe
2414
0000
0000
0148
cafe
2814
0000
0000
014c
cafe
2c14
0000
0000
014d
cafe
3014
0000
0000
0144
cafe
3414
0000
0000
013e
cafe
3814
0000
0000
0141
cafe
3c14
0000
0000
0140
cafe
2014
0000
0000
013f
cafe
2414
0000
0000
013d
cafe
2814
0000
0000
0140
cafe
2c14
0000
0000
0136
cafe
3014
0000
0000
0131
cafe
3414
0000
0000
012d
cafe
3814
0000
0000
0127
cafe
3c14
0000
0000
0128
cafe
2014
0000
0000
0123
cafe
2414
0000
0000
0123
cafe
2814
0000
0000
011f
cafe
2c14
0000
0000
0124
cafe
3014
0000
0000
012a
cafe
3414
0000
0000
012d
cafe
3814
0000
0000
012e
cafe
3c14
0000
0000
012e
cafe
2014
0000
0000
0131
cafe
2414
0000
0000
0133
cafe
2814
0000
0000
0133
cafe
2c14
0000
0000
013a
cafe
3014
0000
0000
013e
cafe
3414
0000
0000
013c
cafe
3814
0000
0000
0140
cafe
3c14
0000
0000
013c
cafe
2014
0000
0000
0139
cafe
2414
0000
0000
0132
cafe
2814
0000
0000
0132
cafe
2c14
0000
0000
0130
cafe
3014
0000
0000
012e
cafe
-
3414
0000
0000
0130
cafe
3814
0000
0000
0132
cafe
3c14
0000
0000
0133
cafe
2014
0000
0000
0133
cafe
2414
0000
0000
0136
cafe
2814
0000
0000
013f
cafe
2c14
0000
0000
0144
cafe
3014
0000
0000
014b
cafe
3414
0000
0000
014d
cafe
3814
0000
0000
014c
cafe
3c14
0000
0000
014f
cafe
2014
0000
0000
0152
cafe
2414
0000
0000
014a
cafe
2814
0000
0000
0148
cafe
2c14
0000
0000
013f
cafe
3014
0000
0000
013d
cafe
3414
0000
0000
013a
cafe
3814
0000
0000
013b
cafe
3c14
0000
0000
013b
cafe
2014
0000
0000
013e
cafe
2414
0000
0000
0145
cafe
2814
0000
0000
0140
cafe
2c14
0000
0000
0143
cafe
3014
0000
0000
0143
cafe
3414
0000
0000
0149
cafe
3814
0000
0000
014d
cafe
3c14
0000
0000
0150
cafe
2014
0000
0000
0150
cafe
2414
0000
0000
014f
cafe
2814
0000
0000
014c
cafe
2c14
0000
0000
014c
cafe
3014
0000
0000
014e
cafe
3414
0000
0000
0146
cafe
3814
0000
0000
0148
cafe
3c14
0000
0000
0148
cafe
2014
0000
0000
014d
cafe
2414
0000
0000
014c
cafe
2814
0000
0000
014a
cafe
2c14
0000
0000
0143
cafe
3014
0000
0000
0142
cafe
3414
0000
0000
013b
cafe
3814
0000
0000
0139
cafe
3c14
0000
0000
013f
cafe
2014
0000
0000
0139
cafe
2414
0000
0000
0137
cafe
2814
0000
0000
012e
cafe
2c14
0000
0000
012d
cafe
3014
0000
0000
012a
cafe
3414
0000
0000
0123
cafe
3814
0000
0000
011b
cafe
3c14
0000
0000
011a
cafe
2014
-
0000
0000
011d
cafe
2414
0000
0000
011c
cafe
2814
0000
0000
011f
cafe
2c14
0000
0000
0122
cafe
3014
0000
0000
0123
cafe
3414
0000
0000
0125
cafe
3814
0000
0000
0125
cafe
3c14
0000
0000
012a
cafe
2014
0000
0000
012c
cafe
2414
0000
0000
012e
cafe
2814
0000
0000
012e
cafe
2c14
0000
0000
0137
cafe
3014
0000
0000
0139
cafe
3414
0000
0000
013b
cafe
3814
0000
0000
013c
cafe
3c14
0000
0000
0141
cafe
2014
0000
0000
0142
cafe
2414
0000
0000
0140
cafe
2814
0000
0000
0138
cafe
2c14
0000
0000
013b
cafe
3014
0000
0000
013c
cafe
3414
0000
0000
0133
cafe
3814
0000
0000
0133
cafe
3c14
0000
0000
0131
cafe
2014
0000
0000
012e
cafe
2414
0000
0000
0134
cafe
2814
0000
0000
0139
cafe
2c14
0000
0000
0139
cafe
3014
0000
0000
0135
cafe
3414
0000
0000
0136
cafe
3814
0000
0000
0131
cafe
3c14
0000
0000
0128
cafe
2014
0000
0000
011a
cafe
2414
0000
0000
0116
cafe
2814
0000
0000
0113
cafe
2c14
0000
0000
010e
cafe
3014
0000
0000
0112
cafe
3414
0000
0000
0113
cafe
3814
0000
0000
0118
cafe
3c14
0000
0000
0120
cafe
2014
0000
0000
0122
cafe
2414
0000
0000
012c
cafe
2814
0000
0000
0133
cafe
2c14
0000
0000
0135
cafe
3014
0000
0000
0140
cafe
3414
0000
0000
013b
cafe
3814
0000
0000
013b
cafe
3c14
0000
0000
0138
cafe
2014
0000
0000
0140
cafe
2414
0000
0000
013f
cafe
2814
0000
0000
0141
cafe
2c14
0000
-
0000
013e
cafe
3014
0000
0000
013d
cafe
3414
0000
0000
013e
cafe
3814
0000
0000
013b
cafe
3c14
0000
0000
013c
cafe
2014
0000
0000
0139
cafe
2414
0000
0000
0133
cafe
2814
0000
0000
012b
cafe
2c14
0000
0000
012a
cafe
3014
0000
0000
0127
cafe
3414
0000
0000
0124
cafe
3814
0000
0000
012a
cafe
3c14
0000
0000
0127
cafe
2014
0000
0000
0122
cafe
2414
0000
0000
0127
cafe
2814
0000
0000
0129
cafe
2c14
0000
0000
012f
cafe
3014
0000
0000
0133
cafe
3414
0000
0000
0138
cafe
3814
0000
0000
0142
cafe
3c14
0000
0000
0141
cafe
2014
0000
0000
013e
cafe
2414
0000
0000
013f
cafe
2814
0000
0000
013e
cafe
2c14
0000
0000
0138
cafe
3014
0000
0000
013a
cafe
3414
0000
0000
0135
cafe
3814
0000
0000
0135
cafe
3c14
0000
0000
0135
cafe
2014
0000
0000
0134
cafe
2414
0000
0000
0130
cafe
2814
0000
0000
0130
cafe
2c14
0000
0000
0130
cafe
3014
0000
0000
0133
cafe
3414
0000
0000
0132
cafe
3814
0000
0000
0134
cafe
3c14
0000
0000
0132
cafe
2014
0000
0000
0138
cafe
2414
0000
0000
013f
cafe
2814
0000
0000
0142
cafe
2c14
0000
0000
0144
cafe
3014
0000
0000
0143
cafe
3414
0000
0000
0141
cafe
3814
0000
0000
013b
cafe
3c14
0000
0000
0138
cafe
2014
0000
0000
0134
cafe
2414
0000
0000
012f
cafe
2814
0000
0000
0129
cafe
2c14
0000
0000
011e
cafe
3014
0000
0000
011c
cafe
3414
0000
0000
0119
cafe
3814
0000
0000
-
0114
cafe
3c14
0000
0000
0113
cafe
2014
0000
0000
0116
cafe
2414
0000
0000
0117
cafe
2814
0000
0000
0117
cafe
2c14
0000
0000
0118
cafe
3014
0000
0000
0121
cafe
3414
0000
0000
0126
cafe
3814
0000
0000
012a
cafe
3c14
0000
0000
012d
cafe
2014
0000
0000
012d
cafe
2414
0000
0000
0130
cafe
2814
0000
0000
0136
cafe
2c14
0000
0000
013c
cafe
3014
0000
0000
013f
cafe
3414
0000
0000
013f
cafe
3814
0000
0000
013d
cafe
3c14
0000
0000
013c
cafe
2014
0000
0000
013e
cafe
2414
0000
0000
013e
cafe
2814
0000
0000
0137
cafe
2c14
0000
0000
012c
cafe
3014
0000
0000
0129
cafe
3414
0000
0000
0126
cafe
3814
0000
0000
0128
cafe
3c14
0000
0000
0131
cafe
2014
0000
0000
012c
cafe
2414
0000
0000
012a
cafe
2814
0000
0000
0126
cafe
2c14
0000
0000
0127
cafe
3014
0000
0000
0127
cafe
3414
0000
0000
0124
cafe
3814
0000
0000
0121
cafe
3c14
0000
0000
0123
cafe
2014
0000
0000
0124
cafe
2414
0000
0000
0120
cafe
2814
0000
0000
011d
cafe
2c14
0000
0000
011c
cafe
3014
0000
0000
0116
cafe
3414
0000
0000
011d
cafe
3814
0000
0000
011c
cafe
3c14
0000
0000
0123
cafe
2014
0000
0000
0126
cafe
2414
0000
0000
0126
cafe
2814
0000
0000
012d
cafe
2c14
0000
0000
012b
cafe
3014
0000
0000
0127
cafe
3414
0000
0000
0129
cafe
3814
0000
0000
0125
cafe
3c14
0000
0000
0125
cafe
2014
0000
0000
0120
cafe
2414
0000
0000
0124
-
