341f
0000
0000
0184
cafe
381f
0000
0000
0182
cafe
3c1f
0000
0000
017e
cafe
201f
0000
0000
017e
cafe
241f
0000
0000
017b
cafe
281f
0000
0000
0170
cafe
2c1f
0000
0000
016a
cafe
301f
0000
0000
0168
cafe
341f
0000
0000
015d
cafe
381f
0000
0000
0153
cafe
3c1f
0000
0000
0156
cafe
201f
0000
0000
0159
cafe
241f
0000
0000
0154
cafe
281f
0000
0000
0159
cafe
2c1f
0000
0000
0159
cafe
301f
0000
0000
0165
cafe
341f
0000
0000
0165
cafe
381f
0000
0000
0168
cafe
3c1f
0000
0000
0178
cafe
201f
0000
0000
017a
cafe
241f
0000
0000
017e
cafe
281f
0000
0000
0182
cafe
2c1f
0000
0000
018b
cafe
301f
0000
0000
018c
cafe
341f
0000
0000
0196
cafe
381f
0000
0000
0197
cafe
3c1f
0000
0000
019a
cafe
201f
0000
0000
019d
cafe
241f
0000
0000
0195
cafe
281f
0000
0000
018d
cafe
2c1f
0000
0000
018c
cafe
301f
0000
0000
0181
cafe
341f
0000
0000
017c
cafe
381f
0000
0000
0182
cafe
3c1f
0000
0000
017a
cafe
201f
0000
0000
0177
cafe
241f
0000
0000
0184
cafe
281f
0000
0000
017d
cafe
2c1f
0000
0000
0176
cafe
301f
0000
0000
017a
cafe
341f
0000
0000
0177
cafe
381f
0000
0000
0176
cafe
3c1f
0000
0000
017d
cafe
201f
0000
0000
017b
cafe
241f
0000
0000
017f
cafe
281f
0000
0000
0179
cafe
2c1f
0000
0000
0177
cafe
301f
0000
0000
0179
cafe
341f
0000
0000
0177
cafe
381f
0000
0000
0174
cafe
3c1f
0000
0000
0174
cafe
201f
-
0000
0000
016c
cafe
241f
0000
0000
0166
cafe
281f
0000
0000
0179
cafe
2c1f
0000
0000
017d
cafe
301f
0000
0000
0176
cafe
341f
0000
0000
0173
cafe
381f
0000
0000
0173
cafe
3c1f
0000
0000
0178
cafe
201f
0000
0000
0185
cafe
241f
0000
0000
0180
cafe
281f
0000
0000
0181
cafe
2c1f
0000
0000
0182
cafe
301f
0000
0000
0186
cafe
341f
0000
0000
0181
cafe
381f
0000
0000
0185
cafe
3c1f
0000
0000
0181
cafe
201f
0000
0000
0171
cafe
241f
0000
0000
016e
cafe
281f
0000
0000
0163
cafe
2c1f
0000
0000
015d
cafe
301f
0000
0000
0157
cafe
341f
0000
0000
014f
cafe
381f
0000
0000
0143
cafe
3c1f
0000
0000
0148
cafe
201f
0000
0000
014c
cafe
241f
0000
0000
0157
cafe
281f
0000
0000
014f
cafe
2c1f
0000
0000
0156
cafe
301f
0000
0000
015f
cafe
341f
0000
0000
016c
cafe
381f
0000
0000
016f
cafe
3c1f
0000
0000
0189
cafe
201f
0000
0000
018b
cafe
241f
0000
0000
0197
cafe
281f
0000
0000
01a1
cafe
2c1f
0000
0000
018e
cafe
301f
0000
0000
018a
cafe
341f
0000
0000
0187
cafe
381f
0000
0000
0184
cafe
3c1f
0000
0000
0187
cafe
201f
0000
0000
0187
cafe
241f
0000
0000
0186
cafe
281f
0000
0000
0173
cafe
2c1f
0000
0000
0164
cafe
301f
0000
0000
015c
cafe
341f
0000
0000
0161
cafe
381f
0000
0000
0158
cafe
3c1f
0000
0000
0154
cafe
201f
0000
0000
0158
cafe
241f
0000
0000
015f
cafe
281f
0000
0000
015f
cafe
2c1f
0000
-
0000
0164
cafe
301f
0000
0000
016b
cafe
341f
0000
0000
016c
cafe
381f
0000
0000
016e
cafe
3c1f
0000
0000
0171
cafe
201f
0000
0000
0175
cafe
241f
0000
0000
0181
cafe
281f
0000
0000
018a
cafe
2c1f
0000
0000
018a
cafe
301f
0000
0000
0197
cafe
341f
0000
0000
0198
cafe
381f
0000
0000
0199
cafe
3c1f
0000
0000
0190
cafe
201f
0000
0000
018a
cafe
241f
0000
0000
0193
cafe
281f
0000
0000
018c
cafe
2c1f
0000
0000
018c
cafe
301f
0000
0000
017e
cafe
341f
0000
0000
017f
cafe
381f
0000
0000
0181
cafe
3c1f
0000
0000
0178
cafe
201f
0000
0000
0171
cafe
241f
0000
0000
0172
cafe
281f
0000
0000
0164
cafe
2c1f
0000
0000
015d
cafe
301f
0000
0000
0153
cafe
341f
0000
0000
015a
cafe
381f
0000
0000
015e
cafe
3c1f
0000
0000
0162
cafe
201f
0000
0000
015d
cafe
241f
0000
0000
015e
cafe
281f
0000
0000
016b
cafe
2c1f
0000
0000
016f
cafe
301f
0000
0000
016d
cafe
341f
0000
0000
0162
cafe
381f
0000
0000
0175
cafe
3c1f
0000
0000
017d
cafe
201f
0000
0000
0182
cafe
241f
0000
0000
018a
cafe
281f
0000
0000
0181
cafe
2c1f
0000
0000
017e
cafe
301f
0000
0000
017d
cafe
341f
0000
0000
017c
cafe
381f
0000
0000
0185
cafe
3c1f
0000
0000
0186
cafe
201f
0000
0000
0184
cafe
241f
0000
0000
017d
cafe
281f
0000
0000
0175
cafe
2c1f
0000
0000
0172
cafe
301f
0000
0000
0163
cafe
341f
0000
0000
016c
cafe
381f
0000
0000
-
0173
cafe
3c1f
0000
0000
0171
cafe
201f
0000
0000
016d
cafe
241f
0000
0000
0176
cafe
281f
0000
0000
0173
cafe
2c1f
0000
0000
016f
cafe
301f
0000
0000
0169
cafe
341f
0000
0000
0178
cafe
381f
0000
0000
0177
cafe
3c1f
0000
0000
017c
cafe
201f
0000
0000
017f
cafe
241f
0000
0000
017e
cafe
281f
0000
0000
0182
cafe
2c1f
0000
0000
0189
cafe
301f
0000
0000
0185
cafe
341f
0000
0000
0177
cafe
381f
0000
0000
0174
cafe
3c1f
0000
0000
0175
cafe
201f
0000
0000
0170
cafe
241f
0000
0000
017a
cafe
281f
0000
0000
0178
cafe
2c1f
0000
0000
017e
cafe
301f
0000
0000
017d
cafe
341f
0000
0000
0182
cafe
381f
0000
0000
0173
cafe
3c1f
0000
0000
0171
cafe
201f
0000
0000
0170
cafe
241f
0000
0000
0169
cafe
281f
0000
0000
0168
cafe
2c1f
0000
0000
0167
cafe
301f
0000
0000
0167
cafe
341f
0000
0000
016a
cafe
381f
0000
0000
016e
cafe
3c1f
0000
0000
0173
cafe
201f
0000
0000
0177
cafe
241f
0000
0000
016c
cafe
281f
0000
0000
016a
cafe
2c1f
0000
0000
0169
cafe
301f
0000
0000
0165
cafe
341f
0000
0000
016d
cafe
381f
0000
0000
0165
cafe
3c1f
0000
0000
0161
cafe
201f
0000
0000
0168
cafe
241f
0000
0000
016e
cafe
281f
0000
0000
016d
cafe
2c1f
0000
0000
016f
cafe
301f
0000
0000
016a
cafe
341f
0000
0000
016b
cafe
381f
0000
0000
0166
cafe
3c1f
0000
0000
0166
cafe
201f
0000
0000
016a
cafe
241f
0000
0000
0168
-
cafe
281f
0000
0000
015b
cafe
2c1f
0000
0000
015e
cafe
301f
0000
0000
0154
cafe
341f
0000
0000
014e
cafe
381f
0000
0000
015f
cafe
3c1f
0000
0000
0159
cafe
201f
0000
0000
015e
cafe
241f
0000
0000
0165
cafe
281f
0000
0000
016d
cafe
2c1f
0000
0000
0167
cafe
301f
0000
0000
0179
cafe
341f
0000
0000
0179
cafe
381f
0000
0000
0187
cafe
3c1f
0000
0000
018f
cafe
201f
0000
0000
0190
cafe
241f
0000
0000
018e
cafe
281f
0000
0000
0197
cafe
2c1f
0000
0000
018a
cafe
301f
0000
0000
018d
cafe
341f
0000
0000
0182
cafe
381f
0000
0000
0183
cafe
3c1f
0000
0000
0187
cafe
201f
0000
0000
0184
cafe
241f
0000
0000
0183
cafe
281f
0000
0000
0179
cafe
2c1f
0000
0000
016a
cafe
301f
0000
0000
0165
cafe
341f
0000
0000
0164
cafe
381f
0000
0000
0166
cafe
3c1f
0000
0000
0167
cafe
201f
0000
0000
016d
cafe
241f
0000
0000
0170
cafe
281f
0000
0000
017d
cafe
2c1f
0000
0000
0180
cafe
301f
0000
0000
0183
cafe
341f
0000
0000
0174
cafe
381f
0000
0000
017c
cafe
3c1f
0000
0000
0173
cafe
201f
0000
0000
0174
cafe
241f
0000
0000
0174
cafe
281f
0000
0000
0179
cafe
2c1f
0000
0000
0174
cafe
301f
0000
0000
017c
cafe
341f
0000
0000
0181
cafe
381f
0000
0000
0188
cafe
3c1f
0000
0000
0181
cafe
201f
0000
0000
0183
cafe
241f
0000
0000
017d
cafe
281f
0000
0000
0175
cafe
2c1f
0000
0000
016f
cafe
301f
0000
0000
0164
cafe
-
341f
0000
0000
0164
cafe
381f
0000
0000
0159
cafe
3c1f
0000
0000
015a
cafe
201f
0000
0000
015f
cafe
241f
0000
0000
0159
cafe
281f
0000
0000
0156
cafe
2c1f
0000
0000
0154
cafe
301f
0000
0000
015e
cafe
341f
0000
0000
0156
cafe
381f
0000
0000
0159
cafe
3c1f
0000
0000
015f
cafe
201f
0000
0000
0165
cafe
241f
0000
0000
0171
cafe
281f
0000
0000
0180
cafe
2c1f
0000
0000
0180
cafe
301f
0000
0000
0188
cafe
341f
0000
0000
0180
cafe
381f
0000
0000
0184
cafe
3c1f
0000
0000
0184
cafe
201f
0000
0000
0176
cafe
241f
0000
0000
0168
cafe
281f
0000
0000
015f
cafe
2c1f
0000
0000
015c
cafe
301f
0000
0000
0161
cafe
341f
0000
0000
0165
cafe
381f
0000
0000
015a
cafe
3c1f
0000
0000
015d
cafe
201f
0000
0000
015b
cafe
241f
0000
0000
015e
cafe
281f
0000
0000
015d
cafe
2c1f
0000
0000
0163
cafe
301f
0000
0000
016f
cafe
341f
0000
0000
016a
cafe
381f
0000
0000
0178
cafe
3c1f
0000
0000
0181
cafe
201f
0000
0000
0191
cafe
241f
0000
0000
0191
cafe
281f
0000
0000
0199
cafe
2c1f
0000
0000
0198
cafe
301f
0000
0000
019f
cafe
341f
0000
0000
019c
cafe
381f
0000
0000
0198
cafe
3c1f
0000
0000
0195
cafe
201f
0000
0000
018f
cafe
241f
0000
0000
0198
cafe
281f
0000
0000
018f
cafe
2c1f
0000
0000
0190
cafe
301f
0000
0000
0189
cafe
341f
0000
0000
018b
cafe
381f
0000
0000
018e
cafe
3c1f
0000
0000
0187
cafe
201f
-
0000
0000
017e
cafe
241f
0000
0000
017f
cafe
281f
0000
0000
0182
cafe
2c1f
0000
0000
0179
cafe
301f
0000
0000
0176
cafe
341f
0000
0000
0175
cafe
381f
0000
0000
0173
cafe
3c1f
0000
0000
017e
cafe
201f
0000
0000
017c
cafe
241f
0000
0000
0176
cafe
281f
0000
0000
0175
cafe
2c1f
0000
0000
016b
cafe
301f
0000
0000
0167
cafe
341f
0000
0000
016b
cafe
381f
0000
0000
016c
cafe
3c1f
0000
0000
0163
cafe
201f
0000
0000
016f
cafe
241f
0000
0000
0172
cafe
281f
0000
0000
0170
cafe
2c1f
0000
0000
0165
cafe
301f
0000
0000
016d
cafe
341f
0000
0000
016f
cafe
381f
0000
0000
016a
cafe
3c1f
0000
0000
016f
cafe
201f
0000
0000
017b
cafe
241f
0000
0000
018f
cafe
281f
0000
0000
0195
cafe
2c1f
0000
0000
018e
cafe
301f
0000
0000
0192
cafe
341f
0000
0000
0195
cafe
381f
0000
0000
0188
cafe
3c1f
0000
0000
0187
cafe
201f
0000
0000
0181
cafe
241f
0000
0000
0185
cafe
281f
0000
0000
0185
cafe
2c1f
0000
0000
017f
cafe
301f
0000
0000
0175
cafe
341f
0000
0000
0175
cafe
381f
0000
0000
016f
cafe
3c1f
0000
0000
0175
cafe
201f
0000
0000
016e
cafe
241f
0000
0000
0172
cafe
281f
0000
0000
0169
cafe
2c1f
0000
0000
0167
cafe
301f
0000
0000
0165
cafe
341f
0000
0000
016a
cafe
381f
0000
0000
0173
cafe
3c1f
0000
0000
016b
cafe
201f
0000
0000
0171
cafe
241f
0000
0000
0176
cafe
281f
0000
0000
016f
cafe
2c1f
0000
-
0000
016c
cafe
301f
0000
0000
0175
cafe
341f
0000
0000
0179
cafe
381f
0000
0000
0174
cafe
3c1f
0000
0000
017f
cafe
201f
0000
0000
0173
cafe
241f
0000
0000
016e
cafe
281f
0000
0000
0169
cafe
2c1f
0000
0000
016f
cafe
301f
0000
0000
016a
cafe
341f
0000
0000
016f
cafe
381f
0000
0000
016b
cafe
3c1f
0000
0000
0169
cafe
201f
0000
0000
016d
cafe
241f
0000
0000
0171
cafe
281f
0000
0000
016d
cafe
2c1f
0000
0000
016d
cafe
301f
0000
0000
0170
cafe
341f
0000
0000
0176
cafe
381f
0000
0000
0172
cafe
3c1f
0000
0000
0177
cafe
201f
0000
0000
016b
cafe
241f
0000
0000
0167
cafe
281f
0000
0000
0166
cafe
2c1f
0000
0000
0165
cafe
301f
0000
0000
015d
cafe
341f
0000
0000
016b
cafe
381f
0000
0000
016d
cafe
3c1f
0000
0000
0171
cafe
201f
0000
0000
0176
cafe
241f
0000
0000
0177
cafe
281f
0000
0000
0172
cafe
2c1f
0000
0000
0175
cafe
301f
0000
0000
0175
cafe
341f
0000
0000
0173
cafe
381f
0000
0000
016d
cafe
3c1f
0000
0000
0171
cafe
201f
0000
0000
017a
cafe
241f
0000
0000
017b
cafe
281f
0000
0000
0172
cafe
2c1f
0000
0000
017a
cafe
301f
0000
0000
017c
cafe
341f
0000
0000
0174
cafe
381f
0000
0000
0180
cafe
3c1f
0000
0000
0184
cafe
201f
0000
0000
0188
cafe
241f
0000
0000
018c
cafe
281f
0000
0000
018a
cafe
2c1f
0000
0000
018f
cafe
301f
0000
0000
0189
cafe
341f
0000
0000
0189
cafe
381f
0000
0000
-
0187
cafe
3c1f
0000
0000
0177
cafe
201f
0000
0000
0170
cafe
241f
0000
0000
0166
cafe
281f
0000
0000
016f
cafe
2c1f
0000
0000
0167
cafe
301f
0000
0000
0162
cafe
341f
0000
0000
0162
cafe
381f
0000
0000
0166
cafe
3c1f
0000
0000
016c
cafe
201f
0000
0000
016e
cafe
241f
0000
0000
0176
cafe
281f
0000
0000
017e
cafe
2c1f
0000
0000
0182
cafe
301f
0000
0000
018f
cafe
341f
0000
0000
018d
cafe
381f
0000
0000
0188
cafe
3c1f
0000
0000
0189
cafe
201f
0000
0000
017e
cafe
241f
0000
0000
0186
cafe
281f
0000
0000
0189
cafe
2c1f
0000
0000
018e
cafe
301f
0000
0000
0181
cafe
341f
0000
0000
018c
cafe
381f
0000
0000
0188
cafe
3c1f
0000
0000
018a
cafe
201f
0000
0000
018a
cafe
241f
0000
0000
017d
cafe
281f
0000
0000
0178
cafe
2c1f
0000
0000
0174
cafe
301f
0000
0000
016f
cafe
341f
0000
0000
0171
cafe
381f
0000
0000
0172
cafe
3c1f
0000
0000
0171
cafe
201f
0000
0000
0165
cafe
241f
0000
0000
0165
cafe
281f
0000
0000
0167
cafe
2c1f
0000
0000
016b
cafe
301f
0000
0000
0165
cafe
341f
0000
0000
016d
cafe
381f
0000
0000
0174
cafe
3c1f
0000
0000
0175
cafe
201f
0000
0000
017b
cafe
241f
0000
0000
0190
cafe
281f
0000
0000
0191
cafe
2c1f
0000
0000
0191
cafe
301f
0000
0000
0192
cafe
341f
0000
0000
0196
cafe
381f
0000
0000
0184
cafe
3c1f
0000
0000
017d
cafe
201f
0000
0000
017b
cafe
241f
0000
0000
0177
-
cafe
281f
0000
0000
0169
cafe
2c1f
0000
0000
016a
cafe
301f
0000
0000
016a
cafe
341f
0000
0000
016e
cafe
381f
0000
0000
016b
cafe
3c1f
0000
0000
0172
cafe
201f
0000
0000
016a
cafe
241f
0000
0000
0174
cafe
281f
0000
0000
0180
cafe
2c1f
0000
0000
0179
cafe
301f
0000
0000
0177
cafe
341f
0000
0000
0176
cafe
381f
0000
0000
0178
cafe
3c1f
0000
0000
0174
cafe
201f
0000
0000
0172
cafe
241f
0000
0000
0172
cafe
281f
0000
0000
0160
cafe
2c1f
0000
0000
0169
cafe
301f
0000
0000
0166
cafe
341f
0000
0000
015a
cafe
381f
0000
0000
015a
cafe
3c1f
0000
0000
0169
cafe
201f
0000
0000
0162
cafe
241f
0000
0000
0168
cafe
281f
0000
0000
0166
cafe
2c1f
0000
0000
015b
cafe
301f
0000
0000
014d
cafe
341f
0000
0000
0151
cafe
381f
0000
0000
0151
cafe
3c1f
0000
0000
0157
cafe
201f
0000
0000
0155
cafe
241f
0000
0000
015b
cafe
281f
0000
0000
0164
cafe
2c1f
0000
0000
0169
cafe
301f
0000
0000
0163
cafe
341f
0000
0000
0161
cafe
381f
0000
0000
0162
cafe
3c1f
0000
0000
0171
cafe
201f
0000
0000
0180
cafe
241f
0000
0000
0182
cafe
281f
0000
0000
017f
cafe
2c1f
0000
0000
0182
cafe
301f
0000
0000
0185
cafe
341f
0000
0000
0186
cafe
381f
0000
0000
0188
cafe
3c1f
0000
0000
017e
cafe
201f
0000
0000
017a
cafe
241f
0000
0000
017f
cafe
281f
0000
0000
0175
cafe
2c1f
0000
0000
0172
cafe
301f
0000
0000
0166
cafe
-
341f
0000
0000
015d
cafe
381f
0000
0000
0158
cafe
3c1f
0000
0000
015d
cafe
201f
0000
0000
0159
cafe
241f
0000
0000
0152
cafe
281f
0000
0000
0158
cafe
2c1f
0000
0000
0157
cafe
301f
0000
0000
0166
cafe
341f
0000
0000
0157
cafe
381f
0000
0000
015f
cafe
3c1f
0000
0000
015f
cafe
201f
0000
0000
016a
cafe
241f
0000
0000
016f
cafe
281f
0000
0000
0176
cafe
2c1f
0000
0000
0182
cafe
301f
0000
0000
0181
cafe
341f
0000
0000
0183
cafe
381f
0000
0000
017a
cafe
3c1f
0000
0000
0176
cafe
201f
0000
0000
0174
cafe
241f
0000
0000
0163
cafe
281f
0000
0000
015a
cafe
2c1f
0000
0000
015a
cafe
301f
0000
0000
015b
cafe
341f
0000
0000
0151
cafe
381f
0000
0000
0155
cafe
3c1f
0000
0000
0158
cafe
201f
0000
0000
015f
cafe
241f
0000
0000
0164
cafe
281f
0000
0000
0176
cafe
2c1f
0000
0000
0174
cafe
301f
0000
0000
0172
cafe
341f
0000
0000
0170
cafe
381f
0000
0000
0167
cafe
3c1f
0000
0000
0160
cafe
201f
0000
0000
0162
cafe
241f
0000
0000
016b
cafe
281f
0000
0000
015d
cafe
2c1f
0000
0000
015e
cafe
301f
0000
0000
015a
cafe
341f
0000
0000
015f
cafe
381f
0000
0000
0168
cafe
3c1f
0000
0000
0168
cafe
201f
0000
0000
0171
cafe
241f
0000
0000
0173
cafe
281f
0000
0000
0170
cafe
2c1f
0000
0000
0177
cafe
301f
0000
0000
0176
cafe
341f
0000
0000
017f
cafe
381f
0000
0000
0187
cafe
3c1f
0000
0000
018d
cafe
201f
-
0000
0000
0183
cafe
241f
0000
0000
0187
cafe
281f
0000
0000
018b
cafe
2c1f
0000
0000
0186
cafe
301f
0000
0000
017f
cafe
341f
0000
0000
0178
cafe
381f
0000
0000
0166
cafe
3c1f
0000
0000
016e
cafe
201f
0000
0000
0165
cafe
241f
0000
0000
0168
cafe
281f
0000
0000
016f
cafe
2c1f
0000
0000
0166
cafe
301f
0000
0000
0160
cafe
341f
0000
0000
0169
cafe
381f
0000
0000
0164
cafe
3c1f
0000
0000
0166
cafe
201f
0000
0000
0163
cafe
241f
0000
0000
015f
cafe
281f
0000
0000
016b
cafe
2c1f
0000
0000
015e
cafe
301f
0000
0000
0160
cafe
341f
0000
0000
015f
cafe
381f
0000
0000
0158
cafe
3c1f
0000
0000
015e
cafe
201f
0000
0000
015e
cafe
241f
0000
0000
015d
cafe
281f
0000
0000
016b
cafe
2c1f
0000
0000
017a
cafe
301f
0000
0000
0176
cafe
341f
0000
0000
017b
cafe
381f
0000
0000
0180
cafe
3c1f
0000
0000
017b
cafe
201f
0000
0000
0183
cafe
241f
0000
0000
0194
cafe
281f
0000
0000
018c
cafe
2c1f
0000
0000
018a
cafe
301f
0000
0000
018c
cafe
341f
0000
0000
0186
cafe
381f
0000
0000
017d
cafe
3c1f
0000
0000
0182
cafe
201f
0000
0000
017b
cafe
241f
0000
0000
0184
cafe
281f
0000
0000
017c
cafe
2c1f
0000
0000
0175
cafe
301f
0000
0000
016d
cafe
341f
0000
0000
0168
cafe
381f
0000
0000
0161
cafe
3c1f
0000
0000
0171
cafe
201f
0000
0000
0179
cafe
241f
0000
0000
017f
cafe
281f
0000
0000
0184
cafe
2c1f
0000
-
0000
0179
cafe
301f
0000
0000
0188
cafe
341f
0000
0000
0185
cafe
381f
0000
0000
0179
cafe
3c1f
0000
0000
0176
cafe
201f
0000
0000
0172
cafe
241f
0000
0000
0162
cafe
281f
0000
0000
0175
cafe
2c1f
0000
0000
0175
cafe
301f
0000
0000
0170
cafe
341f
0000
0000
016b
cafe
381f
0000
0000
0170
cafe
3c1f
0000
0000
0171
cafe
201f
0000
0000
0176
cafe
241f
0000
0000
016e
cafe
281f
0000
0000
0169
cafe
2c1f
0000
0000
016e
cafe
301f
0000
0000
0169
cafe
341f
0000
0000
0168
cafe
381f
0000
0000
016d
cafe
3c1f
0000
0000
0162
cafe
201f
0000
0000
0161
cafe
241f
0000
0000
0162
cafe
281f
0000
0000
0164
cafe
2c1f
0000
0000
016c
cafe
301f
0000
0000
0171
cafe
341f
0000
0000
0173
cafe
381f
0000
0000
016f
cafe
3c1f
0000
0000
016d
cafe
201f
0000
0000
0171
cafe
241f
0000
0000
0173
cafe
281f
0000
0000
0174
cafe
2c1f
0000
0000
0169
cafe
301f
0000
0000
0166
cafe
341f
0000
0000
0175
cafe
381f
0000
0000
016a
cafe
3c1f
0000
0000
0167
cafe
201f
0000
0000
015d
cafe
241f
0000
0000
015e
cafe
281f
0000
0000
0151
cafe
2c1f
0000
0000
0154
cafe
301f
0000
0000
0156
cafe
341f
0000
0000
015d
cafe
381f
0000
0000
016d
cafe
3c1f
0000
0000
0171
cafe
201f
0000
0000
0172
cafe
241f
0000
0000
017f
cafe
281f
0000
0000
0185
cafe
2c1f
0000
0000
0183
cafe
301f
0000
0000
0181
cafe
341f
0000
0000
0183
cafe
381f
0000
0000
-
0180
cafe
3c1f
0000
0000
0175
cafe
201f
0000
0000
016e
cafe
241f
0000
0000
0170
cafe
281f
0000
0000
0162
cafe
2c1f
0000
0000
0166
cafe
301f
0000
0000
016b
cafe
341f
0000
0000
016f
cafe
381f
0000
0000
016a
cafe
3c1f
0000
0000
0176
cafe
201f
0000
0000
0178
cafe
241f
0000
0000
0176
cafe
281f
0000
0000
0184
cafe
2c1f
0000
0000
0182
cafe
301f
0000
0000
0182
cafe
341f
0000
0000
017d
cafe
381f
0000
0000
0172
cafe
3c1f
0000
0000
016d
cafe
201f
0000
0000
016d
cafe
241f
0000
0000
0171
cafe
281f
0000
0000
0172
cafe
2c1f
0000
0000
0171
cafe
301f
0000
0000
0170
cafe
341f
0000
0000
017d
cafe
381f
0000
0000
0185
cafe
3c1f
0000
0000
0189
cafe
201f
0000
0000
0181
cafe
241f
0000
0000
017c
cafe
281f
0000
0000
017a
cafe
2c1f
0000
0000
0176
cafe
301f
0000
0000
0177
cafe
341f
0000
0000
0179
cafe
381f
0000
0000
0177
cafe
3c1f
0000
0000
0179
cafe
201f
0000
0000
017e
cafe
241f
0000
0000
017e
cafe
281f
0000
0000
0186
cafe
2c1f
0000
0000
016b
cafe
301f
0000
0000
016a
cafe
341f
0000
0000
0164
cafe
381f
0000
0000
015e
cafe
3c1f
0000
0000
0161
cafe
201f
0000
0000
015d
cafe
241f
0000
0000
0168
cafe
281f
0000
0000
015a
cafe
2c1f
0000
0000
0164
cafe
301f
0000
0000
0167
cafe
341f
0000
0000
0160
cafe
381f
0000
0000
0169
cafe
3c1f
0000
0000
016b
cafe
201f
0000
0000
016d
cafe
241f
0000
0000
016d
-
cafe
281f
0000
0000
016a
cafe
2c1f
0000
0000
0166
cafe
301f
0000
0000
0170
cafe
341f
0000
0000
016d
cafe
381f
0000
0000
0171
cafe
3c1f
0000
0000
016d
cafe
201f
0000
0000
0175
cafe
241f
0000
0000
0170
cafe
281f
0000
0000
0170
cafe
2c1f
0000
0000
0166
cafe
301f
0000
0000
0162
cafe
341f
0000
0000
016c
cafe
381f
0000
0000
0169
cafe
3c1f
0000
0000
0170
cafe
201f
0000
0000
0177
cafe
241f
0000
0000
0172
cafe
281f
0000
0000
0173
cafe
2c1f
0000
0000
016f
cafe
301f
0000
0000
0169
cafe
341f
0000
0000
016d
cafe
381f
0000
0000
016b
cafe
3c1f
0000
0000
0176
cafe
201f
0000
0000
0183
cafe
241f
0000
0000
0180
cafe
281f
0000
0000
0186
cafe
2c1f
0000
0000
0181
cafe
301f
0000
0000
0184
cafe
341f
0000
0000
017a
cafe
381f
0000
0000
0171
cafe
3c1f
0000
0000
0169
cafe
201f
0000
0000
0689
cafe
241f
0000
0000
0b0d
cafe
281f
0000
0000
0aee
cafe
2c1f
0000
0000
0a7c
cafe
301f
0000
0000
0a0c
cafe
341f
0000
0000
09a4
cafe
381f
0000
0000
094e
cafe
3c1f
0000
0000
08f2
cafe
201f
0000
0000
0899
cafe
241f
0000
0000
0841
cafe
281f
0000
0000
07e0
cafe
2c1f
0000
0000
0795
cafe
301f
0000
0000
074a
cafe
341f
0000
0000
06ff
cafe
381f
0000
0000
06b7
cafe
3c1f
0000
0000
0669
cafe
201f
0000
0000
061b
cafe
241f
0000
0000
05da
cafe
281f
0000
0000
059e
cafe
2c1f
0000
0000
0564
cafe
301f
0000
0000
0523
cafe
-
341f
0000
0000
04e3
cafe
381f
0000
0000
049d
cafe
3c1f
0000
0000
046b
cafe
201f
0000
0000
0430
cafe
241f
0000
0000
0405
cafe
281f
0000
0000
03df
cafe
2c1f
0000
0000
03b9
cafe
301f
0000
0000
039d
cafe
341f
0000
0000
0372
cafe
381f
0000
0000
0352
cafe
3c1f
0000
0000
0332
cafe
201f
0000
0000
0317
cafe
241f
0000
0000
02fc
cafe
281f
0000
0000
02e4
cafe
2c1f
0000
0000
02c7
cafe
301f
0000
0000
02b4
cafe
341f
0000
0000
02a2
cafe
381f
0000
0000
028a
cafe
3c1f
0000
0000
027c
cafe
201f
0000
0000
025d
cafe
241f
0000
0000
0249
cafe
281f
0000
0000
022f
cafe
2c1f
0000
0000
0223
cafe
301f
0000
0000
0214
cafe
341f
0000
0000
0207
cafe
381f
0000
0000
01ed
cafe
3c1f
0000
0000
01e9
cafe
201f
0000
0000
01ec
cafe
241f
0000
0000
01d7
cafe
281f
0000
0000
01d4
cafe
2c1f
0000
0000
01ce
cafe
301f
0000
0000
01bd
cafe
341f
0000
0000
01b4
cafe
381f
0000
0000
01a9
cafe
3c1f
0000
0000
01a8
cafe
201f
0000
0000
019d
cafe
241f
0000
0000
0196
cafe
281f
0000
0000
0189
cafe
2c1f
0000
0000
0180
cafe
301f
0000
0000
017f
cafe
341f
0000
0000
0176
cafe
381f
0000
0000
0169
cafe
3c1f
0000
0000
0165
cafe
201f
0000
0000
0162
cafe
241f
0000
0000
0162
cafe
281f
0000
0000
0163
cafe
2c1f
0000
0000
016b
cafe
301f
0000
0000
016e
cafe
341f
0000
0000
0160
cafe
381f
0000
0000
015f
cafe
3c1f
0000
0000
0161
cafe
201f
-
0000
0000
0153
cafe
241f
0000
0000
014b
cafe
281f
0000
0000
0149
cafe
2c1f
0000
0000
014f
cafe
301f
0000
0000
014a
cafe
341f
0000
0000
0148
cafe
381f
0000
0000
013f
cafe
3c1f
0000
0000
0144
cafe
201f
0000
0000
0141
cafe
241f
0000
0000
013b
cafe
281f
0000
0000
0133
cafe
2c1f
0000
0000
0128
cafe
301f
0000
0000
012c
cafe
341f
0000
0000
0128
cafe
381f
0000
0000
012c
cafe
3c1f
0000
0000
012f
cafe
201f
0000
0000
0123
cafe
241f
0000
0000
0124
cafe
281f
0000
0000
0122
cafe
2c1f
0000
0000
011e
cafe
301f
0000
0000
011e
cafe
341f
0000
0000
012a
cafe
381f
0000
0000
0122
cafe
3c1f
0000
0000
0123
cafe
201f
0000
0000
011c
cafe
241f
0000
0000
0120
cafe
281f
0000
0000
011c
cafe
2c1f
0000
0000
0113
cafe
301f
0000
0000
011c
cafe
341f
0000
0000
011b
cafe
381f
0000
0000
0117
cafe
3c1f
0000
0000
0112
cafe
201f
0000
0000
011b
cafe
241f
0000
0000
011e
cafe
281f
0000
0000
0128
cafe
2c1f
0000
0000
0121
cafe
301f
0000
0000
012a
cafe
341f
0000
0000
0128
cafe
381f
0000
0000
012f
cafe
3c1f
0000
0000
012e
cafe
201f
0000
0000
012b
cafe
241f
0000
0000
0126
cafe
281f
0000
0000
0125
cafe
2c1f
0000
0000
012d
cafe
301f
0000
0000
012f
cafe
341f
0000
0000
012d
cafe
381f
0000
0000
012f
cafe
3c1f
0000
0000
0126
cafe
201f
0000
0000
0127
cafe
241f
0000
0000
0123
cafe
281f
0000
0000
0131
cafe
2c1f
0000
-
0000
012a
cafe
301f
0000
0000
012a
cafe
341f
0000
0000
0120
cafe
381f
0000
0000
011d
cafe
3c1f
0000
0000
0125
cafe
201f
0000
0000
0123
cafe
241f
0000
0000
011a
cafe
281f
0000
0000
010c
cafe
2c1f
0000
0000
010a
cafe
301f
0000
0000
0109
cafe
341f
0000
0000
010d
cafe
381f
0000
0000
010e
cafe
3c1f
0000
0000
0106
cafe
201f
0000
0000
00fd
cafe
241f
0000
0000
0108
cafe
281f
0000
0000
0105
cafe
2c1f
0000
0000
010c
cafe
301f
0000
0000
0111
cafe
341f
0000
0000
0117
cafe
381f
0000
0000
0111
cafe
3c1f
0000
0000
0111
cafe
201f
0000
0000
0117
cafe
241f
0000
0000
0116
cafe
281f
0000
0000
011b
cafe
2c1f
0000
0000
0121
cafe
301f
0000
0000
011b
cafe
341f
0000
0000
0119
cafe
381f
0000
0000
0119
cafe
3c1f
0000
0000
0112
cafe
201f
0000
0000
0119
cafe
241f
0000
0000
0115
cafe
281f
0000
0000
0118
cafe
2c1f
0000
0000
0117
cafe
301f
0000
0000
0113
cafe
341f
0000
0000
0114
cafe
381f
0000
0000
011c
cafe
3c1f
0000
0000
010d
cafe
201f
0000
0000
0106
cafe
241f
0000
0000
0104
cafe
281f
0000
0000
0102
cafe
2c1f
0000
0000
010a
cafe
301f
0000
0000
0106
cafe
341f
0000
0000
0107
cafe
381f
0000
0000
0107
cafe
3c1f
0000
0000
010c
cafe
201f
0000
0000
0102
cafe
241f
0000
0000
00fc
cafe
281f
0000
0000
010a
cafe
2c1f
0000
0000
0105
cafe
301f
0000
0000
010d
cafe
341f
0000
0000
0107
cafe
381f
0000
0000
-
0113
cafe
3c1f
0000
0000
0112
cafe
201f
0000
0000
0122
cafe
241f
0000
0000
0125
cafe
281f
0000
0000
0126
cafe
2c1f
0000
0000
0131
cafe
301f
0000
0000
012d
cafe
341f
0000
0000
012e
cafe
381f
0000
0000
0120
cafe
3c1f
0000
0000
012a
cafe
201f
0000
0000
0121
cafe
241f
0000
0000
0127
cafe
281f
0000
0000
011b
cafe
2c1f
0000
0000
0137
cafe
301f
0000
0000
012c
cafe
341f
0000
0000
012e
cafe
381f
0000
0000
0135
cafe
3c1f
0000
0000
012c
cafe
201f
0000
0000
012c
cafe
241f
0000
0000
011c
cafe
281f
0000
0000
0113
cafe
2c1f
0000
0000
010d
cafe
301f
0000
0000
0104
cafe
341f
0000
0000
0105
cafe
381f
0000
0000
00fc
cafe
3c1f
0000
0000
0102
cafe
201f
0000
0000
010a
cafe
241f
0000
0000
010a
cafe
281f
0000
0000
010d
cafe
2c1f
0000
0000
0115
cafe
301f
0000
0000
0111
cafe
341f
0000
0000
0113
cafe
381f
0000
0000
0113
cafe
3c1f
0000
0000
0115
cafe
201f
0000
0000
0116
cafe
241f
0000
0000
011d
cafe
281f
0000
0000
0127
cafe
2c1f
0000
0000
0125
cafe
301f
0000
0000
0128
cafe
341f
0000
0000
0134
cafe
381f
0000
0000
012d
cafe
3c1f
0000
0000
0132
cafe
201f
0000
0000
0130
cafe
241f
0000
0000
0129
cafe
281f
0000
0000
0132
cafe
2c1f
0000
0000
0135
cafe
301f
0000
0000
0129
cafe
341f
0000
0000
0137
cafe
381f
0000
0000
0129
cafe
3c1f
0000
0000
0135
cafe
201f
0000
0000
012f
cafe
241f
0000
0000
0130
-
cafe
281f
0000
0000
012a
cafe
2c1f
0000
0000
0132
cafe
301f
0000
0000
012a
cafe
341f
0000
0000
0127
cafe
381f
0000
0000
0121
cafe
3c1f
0000
0000
0125
cafe
201f
0000
0000
0128
cafe
241f
0000
0000
0129
cafe
281f
0000
0000
0122
cafe
2c1f
0000
0000
0127
cafe
301f
0000
0000
0121
cafe
341f
0000
0000
0129
cafe
381f
0000
0000
012b
cafe
3c1f
0000
0000
0120
cafe
201f
0000
0000
0120
cafe
241f
0000
0000
0126
cafe
281f
0000
0000
0139
cafe
2c1f
0000
0000
0137
cafe
301f
0000
0000
0136
cafe
341f
0000
0000
0141
cafe
381f
0000
0000
0140
cafe
3c1f
0000
0000
0139
cafe
201f
0000
0000
013c
cafe
241f
0000
0000
013b
cafe
281f
0000
0000
0134
cafe
2c1f
0000
0000
0135
cafe
301f
0000
0000
012d
cafe
341f
0000
0000
0132
cafe
381f
0000
0000
0133
cafe
3c1f
0000
0000
012e
cafe
201f
0000
0000
0134
cafe
241f
0000
0000
0134
cafe
281f
0000
0000
0130
cafe
2c1f
0000
0000
0131
cafe
301f
0000
0000
0136
cafe
341f
0000
0000
013a
cafe
381f
0000
0000
0139
cafe
3c1f
0000
0000
0134
cafe
201f
0000
0000
012e
cafe
241f
0000
0000
0128
cafe
281f
0000
0000
0125
cafe
2c1f
0000
0000
011b
cafe
301f
0000
0000
0116
cafe
341f
0000
0000
011b
cafe
381f
0000
0000
0116
cafe
3c1f
0000
0000
0116
cafe
201f
0000
0000
011f
cafe
241f
0000
0000
011d
cafe
281f
0000
0000
0116
cafe
2c1f
0000
0000
0114
cafe
301f
0000
0000
0115
cafe
-
341f
0000
0000
0114
cafe
381f
0000
0000
010d
cafe
3c1f
0000
0000
010e
cafe
201f
0000
0000
0109
cafe
241f
0000
0000
0107
cafe
281f
0000
0000
011f
cafe
2c1f
0000
0000
0116
cafe
301f
0000
0000
0117
cafe
341f
0000
0000
011e
cafe
381f
0000
0000
011e
cafe
3c1f
0000
0000
011d
cafe
201f
0000
0000
011c
cafe
241f
0000
0000
011a
cafe
281f
0000
0000
0111
cafe
2c1f
0000
0000
0118
cafe
301f
0000
0000
011d
cafe
341f
0000
0000
011e
cafe
381f
0000
0000
0118
cafe
3c1f
0000
0000
0107
cafe
201f
0000
0000
0114
cafe
241f
0000
0000
0116
cafe
281f
0000
0000
0119
cafe
2c1f
0000
0000
0121
cafe
301f
0000
0000
012b
cafe
341f
0000
0000
0135
cafe
381f
0000
0000
011e
cafe
3c1f
0000
0000
0126
cafe
201f
0000
0000
0127
cafe
241f
0000
0000
0121
cafe
281f
0000
0000
0132
cafe
2c1f
0000
0000
012c
cafe
301f
0000
0000
011e
cafe
341f
0000
0000
0117
cafe
381f
0000
0000
0119
cafe
3c1f
0000
0000
011a
cafe
201f
0000
0000
0114
cafe
241f
0000
0000
010b
cafe
281f
0000
0000
0109
cafe
2c1f
0000
0000
0108
cafe
301f
0000
0000
0115
cafe
341f
0000
0000
0115
cafe
381f
0000
0000
0121
cafe
3c1f
0000
0000
0117
cafe
201f
0000
0000
0122
cafe
241f
0000
0000
0121
cafe
281f
0000
0000
0129
cafe
2c1f
0000
0000
0122
cafe
301f
0000
0000
0123
cafe
341f
0000
0000
012f
cafe
381f
0000
0000
0133
cafe
3c1f
0000
0000
0136
cafe
201f
-
0000
0000
012b
cafe
241f
0000
0000
0133
cafe
281f
0000
0000
0136
cafe
2c1f
0000
0000
0136
cafe
301f
0000
0000
013e
cafe
341f
0000
0000
013f
cafe
381f
0000
0000
0141
cafe
3c1f
0000
0000
0140
cafe
201f
0000
0000
0142
cafe
241f
0000
0000
0148
cafe
281f
0000
0000
012f
cafe
2c1f
0000
0000
012e
cafe
301f
0000
0000
0132
cafe
341f
0000
0000
0131
cafe
381f
0000
0000
012b
cafe
3c1f
0000
0000
011d
cafe
201f
0000
0000
011e
cafe
241f
0000
0000
011e
cafe
281f
0000
0000
011d
cafe
2c1f
0000
0000
0123
cafe
301f
0000
0000
011d
cafe
341f
0000
0000
011a
cafe
381f
0000
0000
0117
cafe
3c1f
0000
0000
0114
cafe
201f
0000
0000
010e
cafe
241f
0000
0000
010f
cafe
281f
0000
0000
0114
cafe
2c1f
0000
0000
011c
cafe
301f
0000
0000
0121
cafe
341f
0000
0000
0126
cafe
381f
0000
0000
0129
cafe
3c1f
0000
0000
0133
cafe
201f
0000
0000
013b
cafe
241f
0000
0000
0145
cafe
281f
0000
0000
0140
cafe
2c1f
0000
0000
0141
cafe
301f
0000
0000
0141
cafe
341f
0000
0000
0143
cafe
381f
0000
0000
0133
cafe
3c1f
0000
0000
012c
cafe
201f
0000
0000
012f
cafe
241f
0000
0000
0128
cafe
281f
0000
0000
0125
cafe
2c1f
0000
0000
011e
cafe
301f
0000
0000
0122
cafe
341f
0000
0000
011b
cafe
381f
0000
0000
010c
cafe
3c1f
0000
0000
0101
cafe
201f
0000
0000
0106
cafe
241f
0000
0000
00fb
cafe
281f
0000
0000
0109
cafe
2c1f
0000
-
0000
0100
cafe
301f
0000
0000
0103
cafe
341f
0000
0000
0103
cafe
381f
0000
0000
0108
cafe
3c1f
0000
0000
0107
cafe
201f
0000
0000
0103
cafe
241f
0000
0000
010e
cafe
281f
0000
0000
0115
cafe
2c1f
0000
0000
0118
cafe
301f
0000
0000
0128
cafe
341f
0000
0000
012a
cafe
381f
0000
0000
0137
cafe
3c1f
0000
0000
013d
cafe
201f
0000
0000
0143
cafe
241f
0000
0000
014e
cafe
281f
0000
0000
014b
cafe
2c1f
0000
0000
0155
cafe
301f
0000
0000
0159
cafe
341f
0000
0000
0155
cafe
381f
0000
0000
015a
cafe
3c1f
0000
0000
0151
cafe
201f
0000
0000
015b
cafe
241f
0000
0000
015c
cafe
281f
0000
0000
0148
cafe
2c1f
0000
0000
014d
cafe
301f
0000
0000
0146
cafe
341f
0000
0000
0141
cafe
381f
0000
0000
013f
cafe
3c1f
0000
0000
0137
cafe
201f
0000
0000
013f
cafe
241f
0000
0000
013f
cafe
281f
0000
0000
0143
cafe
2c1f
0000
0000
014b
cafe
301f
0000
0000
013d
cafe
341f
0000
0000
013e
cafe
381f
0000
0000
0136
cafe
3c1f
0000
0000
0143
cafe
201f
0000
0000
013d
cafe
241f
0000
0000
013a
cafe
281f
0000
0000
0135
cafe
2c1f
0000
0000
012b
cafe
301f
0000
0000
0132
cafe
341f
0000
0000
012e
cafe
381f
0000
0000
013c
cafe
3c1f
0000
0000
0141
cafe
201f
0000
0000
0146
cafe
241f
0000
0000
013d
cafe
281f
0000
0000
0142
cafe
2c1f
0000
0000
0145
cafe
301f
0000
0000
014c
cafe
341f
0000
0000
0147
cafe
381f
0000
0000
-
013e
cafe
3c1f
0000
0000
0138
cafe
201f
0000
0000
0139
cafe
241f
0000
0000
0130
cafe
281f
0000
0000
012c
cafe
2c1f
0000
0000
012c
cafe
301f
0000
0000
012b
cafe
341f
0000
0000
0130
cafe
381f
0000
0000
0129
cafe
3c1f
0000
0000
0131
cafe
201f
0000
0000
012f
cafe
241f
0000
0000
0136
cafe
281f
0000
0000
0135
cafe
2c1f
0000
0000
013e
cafe
301f
0000
0000
013e
cafe
341f
0000
0000
0144
cafe
381f
0000
0000
0156
cafe
3c1f
0000
0000
0156
cafe
201f
0000
0000
015f
cafe
241f
0000
0000
0156
cafe
281f
0000
0000
0158
cafe
2c1f
0000
0000
014a
cafe
301f
0000
0000
0142
cafe
341f
0000
0000
013e
cafe
381f
0000
0000
0143
cafe
3c1f
0000
0000
0143
cafe
201f
0000
0000
0149
cafe
241f
0000
0000
0145
cafe
281f
0000
0000
0148
cafe
2c1f
0000
0000
014d
cafe
301f
0000
0000
0156
cafe
341f
0000
0000
0155
cafe
381f
0000
0000
014d
cafe
3c1f
0000
0000
015e
cafe
201f
0000
0000
014f
cafe
241f
0000
0000
0142
cafe
281f
0000
0000
013d
cafe
2c1f
0000
0000
013a
cafe
301f
0000
0000
0139
cafe
341f
0000
0000
0142
cafe
381f
0000
0000
013e
cafe
3c1f
0000
0000
0137
cafe
201f
0000
0000
013a
cafe
241f
0000
0000
0134
cafe
281f
0000
0000
0145
cafe
2c1f
0000
0000
0144
cafe
301f
0000
0000
014e
cafe
341f
0000
0000
0158
cafe
381f
0000
0000
015a
cafe
3c1f
0000
0000
015d
cafe
201f
0000
0000
015a
cafe
241f
0000
0000
015a
-
cafe
281f
0000
0000
015a
cafe
2c1f
0000
0000
0151
cafe
301f
0000
0000
0145
cafe
341f
0000
0000
014f
cafe
381f
0000
0000
0146
cafe
3c1f
0000
0000
0140
cafe
201f
0000
0000
0140
cafe
241f
0000
0000
013c
cafe
281f
0000
0000
0140
cafe
2c1f
0000
0000
013c
cafe
301f
0000
0000
0140
cafe
341f
0000
0000
013f
cafe
381f
0000
0000
013c
cafe
3c1f
0000
0000
0146
cafe
201f
0000
0000
0146
cafe
241f
0000
0000
0151
cafe
281f
0000
0000
015a
cafe
2c1f
0000
0000
0159
cafe
301f
0000
0000
0155
cafe
341f
0000
0000
0157
cafe
381f
0000
0000
0151
cafe
3c1f
0000
0000
0149
cafe
201f
0000
0000
0151
cafe
241f
0000
0000
014e
cafe
281f
0000
0000
014d
cafe
2c1f
0000
0000
0145
cafe
301f
0000
0000
0142
cafe
341f
0000
0000
0142
cafe
381f
0000
0000
013e
cafe
3c1f
0000
0000
0139
cafe
201f
0000
0000
0136
cafe
241f
0000
0000
012b
cafe
281f
0000
0000
012e
cafe
2c1f
0000
0000
0134
cafe
301f
0000
0000
0134
cafe
341f
0000
0000
0141
cafe
381f
0000
0000
0143
cafe
3c1f
0000
0000
0149
cafe
201f
0000
0000
014f
cafe
241f
0000
0000
0151
cafe
281f
0000
0000
0157
cafe
2c1f
0000
0000
0161
cafe
301f
0000
0000
0155
cafe
341f
0000
0000
0161
cafe
381f
0000
0000
0167
cafe
3c1f
0000
0000
0163
cafe
201f
0000
0000
0168
cafe
241f
0000
0000
0161
cafe
281f
0000
0000
0159
cafe
2c1f
0000
0000
014d
cafe
301f
0000
0000
014f
cafe
-
341f
0000
0000
0151
cafe
381f
0000
0000
0152
cafe
3c1f
0000
0000
0156
cafe
201f
0000
0000
0153
cafe
241f
0000
0000
0154
cafe
281f
0000
0000
015d
cafe
2c1f
0000
0000
015c
cafe
301f
0000
0000
014e
cafe
341f
0000
0000
014e
cafe
381f
0000
0000
0149
cafe
3c1f
0000
0000
014a
cafe
201f
0000
0000
014d
cafe
241f
0000
0000
0151
cafe
281f
0000
0000
014f
cafe
2c1f
0000
0000
0156
cafe
301f
0000
0000
0155
cafe
341f
0000
0000
0159
cafe
381f
0000
0000
015c
cafe
3c1f
0000
0000
015b
cafe
201f
0000
0000
015b
cafe
241f
0000
0000
0151
cafe
281f
0000
0000
015c
cafe
2c1f
0000
0000
0156
cafe
301f
0000
0000
0156
cafe
341f
0000
0000
014d
cafe
381f
0000
0000
014d
cafe
3c1f
0000
0000
014e
cafe
201f
0000
0000
014f
cafe
241f
0000
0000
015b
cafe
281f
0000
0000
0153
cafe
2c1f
0000
0000
0153
cafe
301f
0000
0000
0157
cafe
341f
0000
0000
015b
cafe
381f
0000
0000
015a
cafe
3c1f
0000
0000
0165
cafe
201f
0000
0000
0167
cafe
241f
0000
0000
0165
cafe
281f
0000
0000
015f
cafe
2c1f
0000
0000
0162
cafe
301f
0000
0000
0162
cafe
341f
0000
0000
0161
cafe
381f
0000
0000
0164
cafe
3c1f
0000
0000
015a
cafe
201f
0000
0000
0155
cafe
241f
0000
0000
0153
cafe
281f
0000
0000
0151
cafe
2c1f
0000
0000
014b
cafe
301f
0000
0000
0145
cafe
341f
0000
0000
0145
cafe
381f
0000
0000
0145
cafe
3c1f
0000
0000
0148
cafe
201f
-
0000
0000
013f
cafe
241f
0000
0000
013e
cafe
281f
0000
0000
0145
cafe
2c1f
0000
0000
0145
cafe
301f
0000
0000
014d
cafe
341f
0000
0000
0155
cafe
381f
0000
0000
0168
cafe
3c1f
0000
0000
015f
cafe
201f
0000
0000
0163
cafe
241f
0000
0000
0165
cafe
281f
0000
0000
0170
cafe
2c1f
0000
0000
0166
cafe
301f
0000
0000
0171
cafe
341f
0000
0000
0176
cafe
381f
0000
0000
017f
cafe
3c1f
0000
0000
0175
cafe
201f
0000
0000
0000
cafe
241f
0000
0000
0000
cafe
281f
0000
0000
0000
cafe
2c1f
0000
0000
0000
cafe
301f
0000
0000
0000
cafe
341f
0000
0000
0000
cafe
381f
0000
0000
0000
cafe
3c1f
0000
0000
0000
cafe
201f
0000
0000
0000
cafe
241f
0000
0000
0000
cafe
281f
0000
0000
0000
cafe
2c1f
0000
0000
0000
cafe
301f
0000
0000
003a
cafe
341f
0000
0000
0088
cafe
381f
0000
0000
00c2
cafe
3c1f
0000
0000
00fa
cafe
201f
0000
0000
0126
cafe
241f
0000
0000
0155
cafe
281f
0000
0000
016f
cafe
2c1f
0000
0000
0189
cafe
301f
0000
0000
019e
cafe
341f
0000
0000
01b3
cafe
381f
0000
0000
01ca
cafe
3c1f
0000
0000
01d1
cafe
201f
0000
0000
01db
cafe
241f
0000
0000
01e0
cafe
281f
0000
0000
01e9
cafe
2c1f
0000
0000
01f1
cafe
301f
0000
0000
01fb
cafe
341f
0000
0000
0204
cafe
381f
0000
0000
020d
cafe
3c1f
0000
0000
0217
cafe
201f
0000
0000
0228
cafe
241f
0000
0000
0224
cafe
281f
0000
0000
0229
cafe
2c1f
0000
-
0000
0229
cafe
301f
0000
0000
0235
cafe
341f
0000
0000
0231
cafe
381f
0000
0000
022c
cafe
3c1f
0000
0000
0228
cafe
201f
0000
0000
021d
cafe
241f
0000
0000
0222
cafe
281f
0000
0000
0220
cafe
2c1f
0000
0000
0222
cafe
301f
0000
0000
0217
cafe
341f
0000
0000
0216
cafe
381f
0000
0000
0213
cafe
3c1f
0000
0000
0212
cafe
201f
0000
0000
0214
cafe
241f
0000
0000
020e
cafe
281f
0000
0000
0209
cafe
2c1f
0000
0000
020e
cafe
301f
0000
0000
020d
cafe
341f
0000
0000
0214
cafe
381f
0000
0000
021c
cafe
3c1f
0000
0000
0210
cafe
201f
0000
0000
0211
cafe
241f
0000
0000
020d
cafe
281f
0000
0000
0218
cafe
2c1f
0000
0000
0213
cafe
301f
0000
0000
0216
cafe
341f
0000
0000
0215
cafe
381f
0000
0000
020d
cafe
3c1f
0000
0000
0211
cafe
201f
0000
0000
0210
cafe
241f
0000
0000
0214
cafe
281f
0000
0000
0210
cafe
2c1f
0000
0000
0213
cafe
301f
0000
0000
0216
cafe
341f
0000
0000
020f
cafe
381f
0000
0000
0205
cafe
3c1f
0000
0000
01ff
cafe
201f
0000
0000
0200
cafe
241f
0000
0000
01f9
cafe
281f
0000
0000
01e4
cafe
2c1f
0000
0000
01df
cafe
301f
0000
0000
01d4
cafe
341f
0000
0000
01ce
cafe
381f
0000
0000
01ca
cafe
3c1f
0000
0000
01cd
cafe
201f
0000
0000
01ce
cafe
241f
0000
0000
01c7
cafe
281f
0000
0000
01ba
cafe
2c1f
0000
0000
01b3
cafe
301f
0000
0000
01bc
cafe
341f
0000
0000
01b9
cafe
381f
0000
0000
-
01bd
cafe
3c1f
0000
0000
01c6
cafe
201f
0000
0000
01c2
cafe
241f
0000
0000
01b3
cafe
281f
0000
0000
01b9
cafe
2c1f
0000
0000
01c0
cafe
301f
0000
0000
01c4
cafe
341f
0000
0000
01bd
cafe
381f
0000
0000
01c9
cafe
3c1f
0000
0000
01c8
cafe
201f
0000
0000
01c4
cafe
241f
0000
0000
01c0
cafe
281f
0000
0000
01bb
cafe
2c1f
0000
0000
01c3
cafe
301f
0000
0000
01b9
cafe
341f
0000
0000
01b2
cafe
381f
0000
0000
01bd
cafe
3c1f
0000
0000
01af
cafe
201f
0000
0000
01b1
cafe
241f
0000
0000
01b5
cafe
281f
0000
0000
01ad
cafe
2c1f
0000
0000
01b7
cafe
301f
0000
0000
01b6
cafe
341f
0000
0000
01b2
cafe
381f
0000
0000
01a7
cafe
3c1f
0000
0000
01a3
cafe
201f
0000
0000
01a5
cafe
241f
0000
0000
01a9
cafe
281f
0000
0000
01a9
cafe
2c1f
0000
0000
01a0
cafe
301f
0000
0000
01a1
cafe
341f
0000
0000
01a3
cafe
381f
0000
0000
01a4
cafe
3c1f
0000
0000
01a3
cafe
201f
0000
0000
01ae
cafe
241f
0000
0000
01aa
cafe
281f
0000
0000
01a5
cafe
2c1f
0000
0000
01ae
cafe
301f
0000
0000
01a9
cafe
341f
0000
0000
01a9
cafe
381f
0000
0000
01a7
cafe
3c1f
0000
0000
01a4
cafe
201f
0000
0000
01a1
cafe
241f
0000
0000
0196
cafe
281f
0000
0000
019a
cafe
2c1f
0000
0000
0193
cafe
301f
0000
0000
0199
cafe
341f
0000
0000
0199
cafe
381f
0000
0000
01a2
cafe
3c1f
0000
0000
01a4
cafe
201f
0000
0000
0197
cafe
241f
0000
0000
0194
-
cafe
281f
0000
0000
019a
cafe
2c1f
0000
0000
0196
cafe
301f
0000
0000
019c
cafe
341f
0000
0000
018c
cafe
381f
0000
0000
0194
cafe
3c1f
0000
0000
018a
cafe
201f
0000
0000
0192
cafe
241f
0000
0000
0194
cafe
281f
0000
0000
019c
cafe
2c1f
0000
0000
018f
cafe
301f
0000
0000
0198
cafe
341f
0000
0000
0196
cafe
381f
0000
0000
0193
cafe
3c1f
0000
0000
0195
cafe
201f
0000
0000
0198
cafe
241f
0000
0000
01a3
cafe
281f
0000
0000
019f
cafe
2c1f
0000
0000
0193
cafe
301f
0000
0000
0197
cafe
341f
0000
0000
0196
cafe
381f
0000
0000
0190
cafe
3c1f
0000
0000
017e
cafe
201f
0000
0000
0173
cafe
241f
0000
0000
016f
cafe
281f
0000
0000
016e
cafe
2c1f
0000
0000
0178
cafe
301f
0000
0000
016b
cafe
341f
0000
0000
0169
cafe
381f
0000
0000
0174
cafe
3c1f
0000
0000
017b
cafe
201f
0000
0000
0173
cafe
241f
0000
0000
0176
cafe
281f
0000
0000
0177
cafe
2c1f
0000
0000
0183
cafe
301f
0000
0000
0186
cafe
341f
0000
0000
0196
cafe
381f
0000
0000
0190
cafe
3c1f
0000
0000
018e
cafe
201f
0000
0000
0190
cafe
241f
0000
0000
018b
cafe
281f
0000
0000
0188
cafe
2c1f
0000
0000
0192
cafe
301f
0000
0000
0195
cafe
341f
0000
0000
019c
cafe
381f
0000
0000
01a8
cafe
3c1f
0000
0000
019d
cafe
201f
0000
0000
019a
cafe
241f
0000
0000
018d
cafe
281f
0000
0000
0188
cafe
2c1f
0000
0000
0180
cafe
301f
0000
0000
0176
cafe
-
341f
0000
0000
0171
cafe
381f
0000
0000
016b
cafe
3c1f
0000
0000
016c
cafe
201f
0000
0000
016a
cafe
241f
0000
0000
0169
cafe
281f
0000
0000
016f
cafe
2c1f
0000
0000
016c
cafe
301f
0000
0000
016a
cafe
341f
0000
0000
0171
cafe
381f
0000
0000
0171
cafe
3c1f
0000
0000
0178
cafe
201f
0000
0000
016f
cafe
241f
0000
0000
0170
cafe
281f
0000
0000
016a
cafe
2c1f
0000
0000
0165
cafe
301f
0000
0000
016a
cafe
341f
0000
0000
0169
cafe
381f
0000
0000
0172
cafe
3c1f
0000
0000
0171
cafe
201f
0000
0000
0175
cafe
241f
0000
0000
017d
cafe
281f
0000
0000
016d
cafe
2c1f
0000
0000
017b
cafe
301f
0000
0000
0185
cafe
341f
0000
0000
0191
cafe
381f
0000
0000
0191
cafe
3c1f
0000
0000
019a
cafe
201f
0000
0000
018d
cafe
241f
0000
0000
0193
cafe
281f
0000
0000
019a
cafe
2c1f
0000
0000
019c
cafe
301f
0000
0000
0193
cafe
341f
0000
0000
0196
cafe
381f
0000
0000
018d
cafe
3c1f
0000
0000
0182
cafe
201f
0000
0000
017c
cafe
241f
0000
0000
017a
cafe
281f
0000
0000
016e
cafe
2c1f
0000
0000
0168
cafe
301f
0000
0000
016a
cafe
341f
0000
0000
0166
cafe
381f
0000
0000
0169
cafe
3c1f
0000
0000
0169
cafe
201f
0000
0000
016a
cafe
241f
0000
0000
016b
cafe
281f
0000
0000
016e
cafe
2c1f
0000
0000
0169
cafe
301f
0000
0000
016f
cafe
341f
0000
0000
0173
cafe
381f
0000
0000
0177
cafe
3c1f
0000
0000
017c
cafe
201f
-
0000
0000
0183
cafe
241f
0000
0000
0188
cafe
281f
0000
0000
0188
cafe
2c1f
0000
0000
0194
cafe
301f
0000
0000
0194
cafe
341f
0000
0000
018a
cafe
381f
0000
0000
018c
cafe
3c1f
0000
0000
0196
cafe
201f
0000
0000
018b
cafe
241f
0000
0000
0194
cafe
281f
0000
0000
0190
cafe
2c1f
0000
0000
0185
cafe
301f
0000
0000
0185
cafe
341f
0000
0000
017e
cafe
381f
0000
0000
017a
cafe
3c1f
0000
0000
0176
cafe
201f
0000
0000
016d
cafe
241f
0000
0000
015f
cafe
281f
0000
0000
0163
cafe
2c1f
0000
0000
015f
cafe
301f
0000
0000
015c
cafe
341f
0000
0000
0164
cafe
381f
0000
0000
016f
cafe
3c1f
0000
0000
016d
cafe
201f
0000
0000
0179
cafe
241f
0000
0000
0174
cafe
281f
0000
0000
017f
cafe
2c1f
0000
0000
0184
cafe
301f
0000
0000
0183
cafe
341f
0000
0000
017d
cafe
381f
0000
0000
0182
cafe
3c1f
0000
0000
0181
cafe
201f
0000
0000
017e
cafe
241f
0000
0000
0179
cafe
281f
0000
0000
0179
cafe
2c1f
0000
0000
0170
cafe
301f
0000
0000
0175
cafe
341f
0000
0000
0175
cafe
381f
0000
0000
016e
cafe
3c1f
0000
0000
0178
cafe
201f
0000
0000
017d
cafe
241f
0000
0000
0178
cafe
281f
0000
0000
017a
cafe
2c1f
0000
0000
0175
cafe
301f
0000
0000
0178
cafe
341f
0000
0000
0178
cafe
381f
0000
0000
0179
cafe
3c1f
0000
0000
0188
cafe
201f
0000
0000
0184
cafe
241f
0000
0000
0187
cafe
281f
0000
0000
0187
cafe
2c1f
0000
-
0000
0173
cafe
301f
0000
0000
0175
cafe
341f
0000
0000
0171
cafe
381f
0000
0000
0176
cafe
3c1f
0000
0000
0172
cafe
201f
0000
0000
0178
cafe
241f
0000
0000
0179
cafe
281f
0000
0000
017c
cafe
2c1f
0000
0000
0188
cafe
301f
0000
0000
0189
cafe
341f
0000
0000
018e
cafe
381f
0000
0000
018c
cafe
3c1f
0000
0000
018e
cafe
201f
0000
0000
0190
cafe
241f
0000
0000
018b
cafe
281f
0000
0000
018b
cafe
2c1f
0000
0000
018b
cafe
301f
0000
0000
018f
cafe
341f
0000
0000
017d
cafe
381f
0000
0000
0172
cafe
3c1f
0000
0000
016a
cafe
201f
0000
0000
0163
cafe
241f
0000
0000
0167
cafe
281f
0000
0000
016f
cafe
2c1f
0000
0000
0185
cafe
301f
0000
0000
0185
cafe
341f
0000
0000
0187
cafe
381f
0000
0000
0192
cafe
3c1f
0000
0000
018a
cafe
201f
0000
0000
0184
cafe
241f
0000
0000
018f
cafe
281f
0000
0000
018f
cafe
2c1f
0000
0000
0192
cafe
301f
0000
0000
0192
cafe
341f
0000
0000
0195
cafe
381f
0000
0000
0180
cafe
3c1f
0000
0000
017a
cafe
201f
0000
0000
0171
cafe
241f
0000
0000
016a
cafe
281f
0000
0000
016c
cafe
2c1f
0000
0000
0166
cafe
301f
0000
0000
015f
cafe
341f
0000
0000
015c
cafe
381f
0000
0000
0159
cafe
3c1f
0000
0000
015c
cafe
201f
0000
0000
0155
cafe
241f
0000
0000
015c
cafe
281f
0000
0000
014f
cafe
2c1f
0000
0000
0152
cafe
301f
0000
0000
015a
cafe
341f
0000
0000
0157
cafe
381f
0000
0000
-
0162
cafe
3c1f
0000
0000
0166
cafe
201f
0000
0000
016e
cafe
241f
0000
0000
0173
cafe
281f
0000
0000
0183
cafe
2c1f
0000
0000
0183
cafe
301f
0000
0000
017e
cafe
341f
0000
0000
017d
cafe
381f
0000
0000
0183
cafe
3c1f
0000
0000
0190
cafe
201f
0000
0000
0186
cafe
241f
0000
0000
0183
cafe
281f
0000
0000
0187
cafe
2c1f
0000
0000
0190
cafe
301f
0000
0000
018e
cafe
341f
0000
0000
017d
cafe
381f
0000
0000
017c
cafe
3c1f
0000
0000
0174
cafe
201f
0000
0000
0172
cafe
241f
0000
0000
017a
cafe
281f
0000
0000
0179
cafe
2c1f
0000
0000
0176
cafe
301f
0000
0000
0179
cafe
341f
0000
0000
0181
cafe
381f
0000
0000
017d
cafe
3c1f
0000
0000
017d
cafe
201f
0000
0000
0170
cafe
241f
0000
0000
0173
cafe
281f
0000
0000
0175
cafe
2c1f
0000
0000
017d
cafe
301f
0000
0000
017a
cafe
341f
0000
0000
0175
cafe
381f
0000
0000
0170
cafe
3c1f
0000
0000
017a
cafe
201f
0000
0000
017c
cafe
241f
0000
0000
0182
cafe
281f
0000
0000
018c
cafe
2c1f
0000
0000
0194
cafe
301f
0000
0000
0195
cafe
341f
0000
0000
0194
cafe
381f
0000
0000
018f
cafe
3c1f
0000
0000
017e
cafe
201f
0000
0000
0180
cafe
241f
0000
0000
0173
cafe
281f
0000
0000
016f
cafe
2c1f
0000
0000
016b
cafe
301f
0000
0000
0166
cafe
341f
0000
0000
015e
cafe
381f
0000
0000
015e
cafe
3c1f
0000
0000
0167
cafe
201f
0000
0000
0170
cafe
241f
0000
0000
016d
-
cafe
281f
0000
0000
016b
cafe
2c1f
0000
0000
0175
cafe
301f
0000
0000
017c
cafe
341f
0000
0000
017d
cafe
381f
0000
0000
0191
cafe
3c1f
0000
0000
019a
cafe
201f
0000
0000
0196
cafe
241f
0000
0000
019a
cafe
281f
0000
0000
018e
cafe
2c1f
0000
0000
018e
cafe
301f
0000
0000
018f
cafe
341f
0000
0000
0185
cafe
381f
0000
0000
017e
cafe
3c1f
0000
0000
016d
cafe
201f
0000
0000
015d
cafe
241f
0000
0000
0152
cafe
281f
0000
0000
0141
cafe
2c1f
0000
0000
0143
cafe
301f
0000
0000
013d
cafe
341f
0000
0000
013a
cafe
381f
0000
0000
013e
cafe
3c1f
0000
0000
013a
cafe
201f
0000
0000
0137
cafe
241f
0000
0000
0145
cafe
281f
0000
0000
0144
cafe
2c1f
0000
0000
0151
cafe
301f
0000
0000
0149
cafe
341f
0000
0000
0155
cafe
381f
0000
0000
0157
cafe
3c1f
0000
0000
0167
cafe
201f
0000
0000
016d
cafe
241f
0000
0000
0162
cafe
281f
0000
0000
0167
cafe
2c1f
0000
0000
016d
cafe
301f
0000
0000
0170
cafe
341f
0000
0000
0175
cafe
381f
0000
0000
0179
cafe
3c1f
0000
0000
017c
cafe
201f
0000
0000
0184
cafe
241f
0000
0000
0187
cafe
281f
0000
0000
0187
cafe
2c1f
0000
0000
017e
cafe
301f
0000
0000
017c
cafe
341f
0000
0000
0183
cafe
381f
0000
0000
017d
cafe
3c1f
0000
0000
017d
cafe
201f
0000
0000
0175
cafe
241f
0000
0000
0172
cafe
281f
0000
0000
0170
cafe
2c1f
0000
0000
016c
cafe
301f
0000
0000
0165
cafe
-
341f
0000
0000
0166
cafe
381f
0000
0000
0168
cafe
3c1f
0000
0000
0162
cafe
201f
0000
0000
0162
cafe
241f
0000
0000
0161
cafe
281f
0000
0000
0165
cafe
2c1f
0000
0000
0162
cafe
301f
0000
0000
016b
cafe
341f
0000
0000
0170
cafe
381f
0000
0000
0169
cafe
3c1f
0000
0000
0167
cafe
201f
0000
0000
0164
cafe
241f
0000
0000
0160
cafe
281f
0000
0000
015f
cafe
2c1f
0000
0000
0166
cafe
301f
0000
0000
0157
cafe
341f
0000
0000
015d
cafe
381f
0000
0000
0176
cafe
3c1f
0000
0000
0172
cafe
201f
0000
0000
017f
cafe
241f
0000
0000
018b
cafe
281f
0000
0000
018c
cafe
2c1f
0000
0000
018e
cafe
301f
0000
0000
0195
cafe
341f
0000
0000
018b
cafe
381f
0000
0000
0190
cafe
3c1f
0000
0000
0187
cafe
201f
0000
0000
0191
cafe
241f
0000
0000
018a
cafe
281f
0000
0000
0185
cafe
2c1f
0000
0000
018e
cafe
301f
0000
0000
0183
cafe
341f
0000
0000
017d
cafe
381f
0000
0000
0186
cafe
3c1f
0000
0000
0185
cafe
201f
0000
0000
0176
cafe
241f
0000
0000
0175
cafe
281f
0000
0000
0173
cafe
2c1f
0000
0000
0179
cafe
301f
0000
0000
0177
cafe
341f
0000
0000
0163
cafe
381f
0000
0000
016a
cafe
3c1f
0000
0000
016e
cafe
201f
0000
0000
017b
cafe
241f
0000
0000
017e
cafe
281f
0000
0000
0181
cafe
2c1f
0000
0000
0184
cafe
301f
0000
0000
0182
cafe
341f
0000
0000
0180
cafe
381f
0000
0000
0195
cafe
3c1f
0000
0000
0199
cafe
201f
-
0000
0000
0196
cafe
241f
0000
0000
018e
cafe
281f
0000
0000
018e
cafe
2c1f
0000
0000
018f
cafe
301f
0000
0000
018c
cafe
341f
0000
0000
018a
cafe
381f
0000
0000
0180
cafe
3c1f
0000
0000
017e
cafe
201f
0000
0000
0183
cafe
241f
0000
0000
0188
cafe
281f
0000
0000
0184
cafe
2c1f
0000
0000
0180
cafe
301f
0000
0000
0175
cafe
341f
0000
0000
0186
cafe
381f
0000
0000
0189
cafe
3c1f
0000
0000
0184
cafe
201f
0000
0000
017c
cafe
241f
0000
0000
0173
cafe
281f
0000
0000
0169
cafe
2c1f
0000
0000
0165
cafe
301f
0000
0000
016a
cafe
341f
0000
0000
016b
cafe
381f
0000
0000
0163
cafe
3c1f
0000
0000
0161
cafe
201f
0000
0000
0163
cafe
241f
0000
0000
0163
cafe
281f
0000
0000
015e
cafe
2c1f
0000
0000
0164
cafe
301f
0000
0000
0167
cafe
341f
0000
0000
016e
cafe
381f
0000
0000
016f
cafe
3c1f
0000
0000
017f
cafe
201f
0000
0000
0179
cafe
241f
0000
0000
0178
cafe
281f
0000
0000
0179
cafe
2c1f
0000
0000
0186
cafe
301f
0000
0000
0175
cafe
341f
0000
0000
0177
cafe
381f
0000
0000
017a
cafe
3c1f
0000
0000
0179
cafe
201f
0000
0000
016e
cafe
241f
0000
0000
016e
cafe
281f
0000
0000
0168
cafe
2c1f
0000
0000
016f
cafe
301f
0000
0000
0174
cafe
341f
0000
0000
0171
cafe
381f
0000
0000
0173
cafe
3c1f
0000
0000
017b
cafe
201f
0000
0000
0184
cafe
241f
0000
0000
0175
cafe
281f
0000
0000
0170
cafe
2c1f
0000
-
0000
016f
cafe
301f
0000
0000
0169
cafe
341f
0000
0000
0164
cafe
381f
0000
0000
0168
cafe
3c1f
0000
0000
0168
cafe
201f
0000
0000
015f
cafe
241f
0000
0000
0163
cafe
281f
0000
0000
0165
cafe
2c1f
0000
0000
0166
cafe
301f
0000
0000
0163
cafe
341f
0000
0000
015d
cafe
381f
0000
0000
0152
cafe
3c1f
0000
0000
015c
cafe
201f
0000
0000
0165
cafe
241f
0000
0000
0165
cafe
281f
0000
0000
016c
cafe
2c1f
0000
0000
0177
cafe
301f
0000
0000
0179
cafe
341f
0000
0000
017f
cafe
381f
0000
0000
017e
cafe
3c1f
0000
0000
017f
cafe
201f
0000
0000
0189
cafe
241f
0000
0000
019a
cafe
281f
0000
0000
019b
cafe
2c1f
0000
0000
01a1
cafe
301f
0000
0000
0196
cafe
341f
0000
0000
01a2
cafe
381f
0000
0000
0198
cafe
3c1f
0000
0000
018e
cafe
201f
0000
0000
018a
cafe
241f
0000
0000
0187
cafe
281f
0000
0000
0187
cafe
2c1f
0000
0000
0184
cafe
301f
0000
0000
0180
cafe
341f
0000
0000
0186
cafe
381f
0000
0000
0175
cafe
3c1f
0000
0000
0177
cafe
201f
0000
0000
0173
cafe
241f
0000
0000
0171
cafe
281f
0000
0000
017c
cafe
2c1f
0000
0000
0175
cafe
301f
0000
0000
016d
cafe
341f
0000
0000
016f
cafe
381f
0000
0000
0175
cafe
3c1f
0000
0000
017d
cafe
201f
0000
0000
017c
cafe
241f
0000
0000
0188
cafe
281f
0000
0000
0178
cafe
2c1f
0000
0000
0184
cafe
301f
0000
0000
0193
cafe
341f
0000
0000
018c
cafe
381f
0000
0000
-
0192
cafe
3c1f
0000
0000
018d
cafe
201f
0000
0000
018b
cafe
241f
0000
0000
017f
cafe
281f
0000
0000
0184
cafe
2c1f
0000
0000
0188
cafe
301f
0000
0000
017e
cafe
341f
0000
0000
0188
cafe
381f
0000
0000
0182
cafe
3c1f
0000
0000
017a
cafe
201f
0000
0000
017d
cafe
241f
0000
0000
0173
cafe
281f
0000
0000
016a
cafe
2c1f
0000
0000
016a
cafe
301f
0000
0000
016d
cafe
341f
0000
0000
015e
cafe
381f
0000
0000
0153
cafe
3c1f
0000
0000
0153
cafe
201f
0000
0000
0156
cafe
241f
0000
0000
0152
cafe
281f
0000
0000
0147
cafe
2c1f
0000
0000
0150
cafe
301f
0000
0000
0157
cafe
341f
0000
0000
015a
cafe
381f
0000
0000
0160
cafe
3c1f
0000
0000
0168
cafe
201f
0000
0000
016d
cafe
241f
0000
0000
017a
cafe
281f
0000
0000
0185
cafe
2c1f
0000
0000
018e
cafe
301f
0000
0000
0192
cafe
341f
0000
0000
0188
cafe
381f
0000
0000
018a
cafe
3c1f
0000
0000
018b
cafe
201f
0000
0000
0195
cafe
241f
0000
0000
0193
cafe
281f
0000
0000
018e
cafe
2c1f
0000
0000
0186
cafe
301f
0000
0000
018d
cafe
341f
0000
0000
017a
cafe
381f
0000
0000
0178
cafe
3c1f
0000
0000
017a
cafe
201f
0000
0000
016b
cafe
241f
0000
0000
0176
cafe
281f
0000
0000
0177
cafe
2c1f
0000
0000
016e
cafe
301f
0000
0000
0170
cafe
341f
0000
0000
016d
cafe
381f
0000
0000
016f
cafe
3c1f
0000
0000
016f
cafe
201f
0000
0000
0172
cafe
241f
0000
0000
0170
-
cafe
281f
0000
0000
0180
cafe
2c1f
0000
0000
0185
cafe
301f
0000
0000
0186
cafe
341f
0000
0000
0184
cafe
381f
0000
0000
0183
cafe
3c1f
0000
0000
0184
cafe
201f
0000
0000
0181
cafe
241f
0000
0000
0186
cafe
281f
0000
0000
017d
cafe
2c1f
0000
0000
0180
cafe
301f
0000
0000
0187
cafe
341f
0000
0000
0178
cafe
381f
0000
0000
0173
cafe
3c1f
0000
0000
017a
cafe
201f
0000
0000
0171
cafe
241f
0000
0000
016e
cafe
281f
0000
0000
016b
cafe
2c1f
0000
0000
0166
cafe
301f
0000
0000
016c
cafe
341f
0000
0000
016f
cafe
381f
0000
0000
016a
cafe
3c1f
0000
0000
016f
cafe
201f
0000
0000
0172
cafe
241f
0000
0000
016e
cafe
281f
0000
0000
0174
cafe
2c1f
0000
0000
016a
cafe
301f
0000
0000
0178
cafe
341f
0000
0000
0177
cafe
381f
0000
0000
017e
cafe
3c1f
0000
0000
0172
cafe
201f
0000
0000
0176
cafe
241f
0000
0000
0172
cafe
281f
0000
0000
017d
cafe
2c1f
0000
0000
017b
cafe
301f
0000
0000
0179
cafe
341f
0000
0000
0174
cafe
381f
0000
0000
0175
cafe
3c1f
0000
0000
016a
cafe
201f
0000
0000
0171
cafe
241f
0000
0000
0173
cafe
281f
0000
0000
0158
cafe
2c1f
0000
0000
014d
cafe
301f
0000
0000
0158
cafe
341f
0000
0000
0152
cafe
381f
0000
0000
0158
cafe
3c1f
0000
0000
0148
cafe
201f
0000
0000
014f
cafe
241f
0000
0000
014f
cafe
281f
0000
0000
014a
cafe
2c1f
0000
0000
015a
cafe
301f
0000
0000
0155
cafe
-
341f
0000
0000
015e
cafe
381f
0000
0000
016c
cafe
3c1f
0000
0000
0176
cafe
201f
0000
0000
0178
cafe
241f
0000
0000
017c
cafe
281f
0000
0000
017c
cafe
2c1f
0000
0000
0172
cafe
301f
0000
0000
017f
cafe
341f
0000
0000
0175
cafe
381f
0000
0000
0176
cafe
3c1f
0000
0000
0170
cafe
201f
0000
0000
0174
cafe
241f
0000
0000
016f
cafe
281f
0000
0000
0164
cafe
2c1f
0000
0000
016a
cafe
301f
0000
0000
0167
cafe
341f
0000
0000
0157
cafe
381f
0000
0000
0145
cafe
3c1f
0000
0000
014e
cafe
201f
0000
0000
014f
cafe
241f
0000
0000
0147
cafe
281f
0000
0000
0146
cafe
2c1f
0000
0000
0145
cafe
301f
0000
0000
0144
cafe
341f
0000
0000
0145
cafe
381f
0000
0000
0156
cafe
3c1f
0000
0000
014e
cafe
201f
0000
0000
015a
cafe
241f
0000
0000
0160
cafe
281f
0000
0000
0170
cafe
2c1f
0000
0000
0174
cafe
301f
0000
0000
0173
cafe
341f
0000
0000
017a
cafe
381f
0000
0000
017a
cafe
3c1f
0000
0000
017a
cafe
201f
0000
0000
016d
cafe
241f
0000
0000
0170
cafe
281f
0000
0000
016a
cafe
2c1f
0000
0000
016b
cafe
301f
0000
0000
0166
cafe
341f
0000
0000
016a
cafe
381f
0000
0000
0173
cafe
3c1f
0000
0000
016f
cafe
201f
0000
0000
0173
cafe
241f
0000
0000
0180
cafe
281f
0000
0000
016f
cafe
2c1f
0000
0000
0172
cafe
301f
0000
0000
0171
cafe
341f
0000
0000
016f
cafe
381f
0000
0000
0167
cafe
3c1f
0000
0000
016a
cafe
201f
-
0000
0000
0165
cafe
241f
0000
0000
0165
cafe
281f
0000
0000
0167
cafe
2c1f
0000
0000
016a
cafe
301f
0000
0000
0167
cafe
341f
0000
0000
0168
cafe
381f
0000
0000
0169
cafe
3c1f
0000
0000
0179
cafe
201f
0000
0000
0178
cafe
241f
0000
0000
017f
cafe
281f
0000
0000
0186
cafe
2c1f
0000
0000
0185
cafe
301f
0000
0000
0189
cafe
341f
0000
0000
0184
cafe
381f
0000
0000
017d
cafe
3c1f
0000
0000
0181
cafe
201f
0000
0000
017c
cafe
241f
0000
0000
017b
cafe
281f
0000
0000
0179
cafe
2c1f
0000
0000
017b
cafe
301f
0000
0000
0171
cafe
341f
0000
0000
0168
cafe
381f
0000
0000
0163
cafe
3c1f
0000
0000
0172
cafe
201f
0000
0000
0166
cafe
241f
0000
0000
0172
cafe
281f
0000
0000
017b
cafe
2c1f
0000
0000
0174
cafe
301f
0000
0000
0178
cafe
341f
0000
0000
0171
cafe
381f
0000
0000
0171
cafe
3c1f
0000
0000
0179
cafe
201f
0000
0000
0181
cafe
241f
0000
0000
0181
cafe
281f
0000
0000
0185
cafe
2c1f
0000
0000
0188
cafe
301f
0000
0000
0183
cafe
341f
0000
0000
017b
cafe
381f
0000
0000
0181
cafe
3c1f
0000
0000
017d
cafe
201f
0000
0000
0182
cafe
241f
0000
0000
017a
cafe
281f
0000
0000
0175
cafe
2c1f
0000
0000
016e
cafe
301f
0000
0000
0174
cafe
341f
0000
0000
017f
cafe
381f
0000
0000
017a
cafe
3c1f
0000
0000
0173
cafe
201f
0000
0000
0171
cafe
241f
0000
0000
0167
cafe
281f
0000
0000
0155
cafe
2c1f
0000
-
0000
0158
cafe
301f
0000
0000
0157
cafe
341f
0000
0000
0150
cafe
381f
0000
0000
0151
cafe
3c1f
0000
0000
0146
cafe
201f
0000
0000
0144
cafe
241f
0000
0000
014c
cafe
281f
0000
0000
0159
cafe
2c1f
0000
0000
015a
cafe
301f
0000
0000
015b
cafe
341f
0000
0000
0161
cafe
381f
0000
0000
016a
cafe
3c1f
0000
0000
016f
cafe
201f
0000
0000
0170
cafe
241f
0000
0000
017d
cafe
281f
0000
0000
0174
cafe
2c1f
0000
0000
016e
cafe
301f
0000
0000
0173
cafe
341f
0000
0000
016c
cafe
381f
0000
0000
0165
cafe
3c1f
0000
0000
016c
cafe
201f
0000
0000
0172
cafe
241f
0000
0000
0178
cafe
281f
0000
0000
0182
cafe
2c1f
0000
0000
018d
cafe
301f
0000
0000
018b
cafe
341f
0000
0000
0193
cafe
381f
0000
0000
018f
cafe
3c1f
0000
0000
0192
cafe
201f
0000
0000
018e
cafe
241f
0000
0000
0189
cafe
281f
0000
0000
0186
cafe
2c1f
0000
0000
0188
cafe
301f
0000
0000
0182
cafe
341f
0000
0000
017a
cafe
381f
0000
0000
0182
cafe
3c1f
0000
0000
0171
cafe
201f
0000
0000
016b
cafe
241f
0000
0000
0171
cafe
281f
0000
0000
0173
cafe
2c1f
0000
0000
0179
cafe
301f
0000
0000
016e
cafe
341f
0000
0000
016a
cafe
381f
0000
0000
0162
cafe
3c1f
0000
0000
016c
cafe
201f
0000
0000
015d
cafe
241f
0000
0000
0156
cafe
281f
0000
0000
0154
cafe
2c1f
0000
0000
0155
cafe
301f
0000
0000
0154
cafe
341f
0000
0000
015e
cafe
381f
0000
0000
-
0162
cafe
3c1f
0000
0000
0172
cafe
201f
0000
0000
016f
cafe
241f
0000
0000
0172
cafe
281f
0000
0000
017d
cafe
2c1f
0000
0000
017d
cafe
301f
0000
0000
0187
cafe
341f
0000
0000
0181
cafe
381f
0000
0000
0182
cafe
3c1f
0000
0000
0183
cafe
201f
0000
0000
017e
cafe
241f
0000
0000
017a
cafe
281f
0000
0000
0176
cafe
2c1f
0000
0000
0175
cafe
301f
0000
0000
0175
cafe
341f
0000
0000
0171
cafe
381f
0000
0000
0160
cafe
3c1f
0000
0000
0158
cafe
201f
0000
0000
0158
cafe
241f
0000
0000
0150
cafe
281f
0000
0000
0151
cafe
2c1f
0000
0000
0159
cafe
301f
0000
0000
0155
cafe
341f
0000
0000
015b
cafe
381f
0000
0000
0165
cafe
3c1f
0000
0000
0168
cafe
201f
0000
0000
016d
cafe
241f
0000
0000
0179
cafe
281f
0000
0000
0181
cafe
2c1f
0000
0000
0187
cafe
301f
0000
0000
0188
cafe
341f
0000
0000
0190
cafe
381f
0000
0000
0185
cafe
3c1f
0000
0000
018c
cafe
201f
0000
0000
0189
cafe
241f
0000
0000
019a
cafe
281f
0000
0000
0189
cafe
2c1f
0000
0000
018d
cafe
301f
0000
0000
0184
cafe
341f
0000
0000
0176
cafe
381f
0000
0000
0173
cafe
3c1f
0000
0000
016f
cafe
201f
0000
0000
016c
cafe
241f
0000
0000
016f
cafe
281f
0000
0000
0174
cafe
2c1f
0000
0000
016b
cafe
301f
0000
0000
016d
cafe
341f
0000
0000
0172
cafe
381f
0000
0000
016f
cafe
3c1f
0000
0000
016a
cafe
201f
0000
0000
0174
cafe
241f
0000
0000
017f
-
