340e
5555
f0e0
01dd
cafe
381e
5555
f0e0
0165
cafe
3c06
5555
f0e0
013f
cafe
2016
5555
f0e4
0139
cafe
240f
5555
f0e4
018c
cafe
281f
5555
f0e4
01ce
cafe
2c07
5555
f0e4
0148
cafe
3017
5555
f0e8
014c
cafe
3408
5555
f0e8
017e
cafe
3818
5555
f0e8
01bd
cafe
3c00
5555
f0e8
00a8
cafe
2010
5555
f0ec
00c4
cafe
2409
5555
f0ec
01b5
cafe
2819
5555
f0ec
0166
cafe
2c01
5555
f0ec
00ff
cafe
3011
5555
f0f0
00d3
cafe
340a
5555
f0f0
0143
cafe
381a
5555
f0f0
00e1
cafe
3c02
5555
f0f0
010e
cafe
2012
5555
f0f4
00a6
cafe
240b
5555
f0f4
017c
cafe
281b
5555
f0f4
019d
cafe
2c03
5555
f0f4
0137
cafe
3013
5555
f0f8
00de
cafe
340c
5555
f0f8
01ce
cafe
381c
5555
f0f8
00ec
cafe
3c04
5555
f0f8
00e0
cafe
2014
5555
f0fc
014e
cafe
240d
5555
f0fc
0159
cafe
281d
5555
f0fc
0152
cafe
2c05
5555
f0fc
0112
cafe
3015
5555
f100
00cd
cafe
340e
5555
f100
01cf
cafe
381e
5555
f100
0165
cafe
3c06
5555
f100
013c
cafe
2016
5555
f104
0139
cafe
240f
5555
f104
018d
cafe
281f
5555
f104
01d1
cafe
2c07
5555
f104
0140
cafe
3017
5555
f108
0147
cafe
3408
5555
f108
017f
cafe
3818
5555
f108
01b9
cafe
3c00
5555
f108
00a4
cafe
2010
5555
f10c
00c4
cafe
2409
5555
f10c
01ae
cafe
2819
5555
f10c
0165
cafe
2c01
5555
f10c
00fa
cafe
3011
5555
f110
00d5
cafe
340a
5555
f110
013c
cafe
381a
5555
f110
00df
cafe
3c02
5555
f110
0115
cafe
2012
-
5555
f114
00a3
cafe
240b
5555
f114
018a
cafe
281b
5555
f114
0199
cafe
2c03
5555
f114
0133
cafe
3013
5555
f118
00dd
cafe
340c
5555
f118
01d6
cafe
381c
5555
f118
00f4
cafe
3c04
5555
f118
00d1
cafe
2014
5555
f11c
0148
cafe
240d
5555
f11c
0151
cafe
281d
5555
f11c
0153
cafe
2c05
5555
f11c
011a
cafe
3015
5555
f120
00c8
cafe
340e
5555
f120
01d7
cafe
381e
5555
f120
015e
cafe
3c06
5555
f120
013d
cafe
2016
5555
f124
013a
cafe
240f
5555
f124
0181
cafe
281f
5555
f124
01dc
cafe
2c07
5555
f124
0138
cafe
3017
5555
f128
0151
cafe
3408
5555
f128
0176
cafe
3818
5555
f128
01c1
cafe
3c00
5555
f128
0099
cafe
2010
5555
f12c
00ba
cafe
2409
5555
f12c
01b4
cafe
2819
5555
f12c
0162
cafe
2c01
5555
f12c
00f5
cafe
3011
5555
f130
00d3
cafe
340a
5555
f130
013e
cafe
381a
5555
f130
00e0
cafe
3c02
5555
f130
0112
cafe
2012
5555
f134
00a9
cafe
240b
5555
f134
018a
cafe
281b
5555
f134
019a
cafe
2c03
5555
f134
0134
cafe
3013
5555
f138
00d5
cafe
340c
5555
f138
01d5
cafe
381c
5555
f138
00f6
cafe
3c04
5555
f138
00cf
cafe
2014
5555
f13c
0153
cafe
240d
5555
f13c
0151
cafe
281d
5555
f13c
0157
cafe
2c05
5555
f13c
0122
cafe
3015
5555
f140
00c0
cafe
340e
5555
f140
01d6
cafe
381e
5555
f140
0169
cafe
3c06
5555
f140
0137
cafe
2016
5555
f144
0131
cafe
240f
5555
f144
017e
cafe
281f
5555
f144
01da
cafe
2c07
5555
-
f144
013d
cafe
3017
5555
f148
014f
cafe
3408
5555
f148
0176
cafe
3818
5555
f148
01be
cafe
3c00
5555
f148
0097
cafe
2010
5555
f14c
00bf
cafe
2409
5555
f14c
01ba
cafe
2819
5555
f14c
0166
cafe
2c01
5555
f14c
00f5
cafe
3011
5555
f150
00db
cafe
340a
5555
f150
0137
cafe
381a
5555
f150
00dd
cafe
3c02
5555
f150
0114
cafe
2012
5555
f154
00aa
cafe
240b
5555
f154
017b
cafe
281b
5555
f154
0195
cafe
2c03
5555
f154
013f
cafe
3013
5555
f158
00d9
cafe
340c
5555
f158
01d7
cafe
381c
5555
f158
00f4
cafe
3c04
5555
f158
00cf
cafe
2014
5555
f15c
0155
cafe
240d
5555
f15c
015a
cafe
281d
5555
f15c
0156
cafe
2c05
5555
f15c
011d
cafe
3015
5555
f160
00c7
cafe
340e
5555
f160
01d2
cafe
381e
5555
f160
016a
cafe
3c06
5555
f160
0131
cafe
2016
5555
f164
0131
cafe
240f
5555
f164
017b
cafe
281f
5555
f164
01dc
cafe
2c07
5555
f164
0136
cafe
3017
5555
f168
0148
cafe
3408
5555
f168
0182
cafe
3818
5555
f168
01c1
cafe
3c00
5555
f168
0099
cafe
2010
5555
f16c
00c4
cafe
2409
5555
f16c
01af
cafe
2819
5555
f16c
0168
cafe
2c01
5555
f16c
00fc
cafe
3011
5555
f170
00d3
cafe
340a
5555
f170
013c
cafe
381a
5555
f170
00dd
cafe
3c02
5555
f170
0109
cafe
2012
5555
f174
00a5
cafe
240b
5555
f174
017a
cafe
281b
5555
f174
0190
cafe
2c03
5555
f174
013b
cafe
3013
5555
f178
00d2
cafe
340c
5555
f178
01d8
cafe
381c
5555
f178
-
00f1
cafe
3c04
5555
f178
00d9
cafe
2014
5555
f17c
014a
cafe
240d
5555
f17c
0150
cafe
281d
5555
f17c
0156
cafe
2c05
5555
f17c
0117
cafe
3015
5555
f180
00cb
cafe
340e
5555
f180
01d5
cafe
381e
5555
f180
016b
cafe
3c06
5555
f180
013c
cafe
2016
5555
f184
0135
cafe
240f
5555
f184
0175
cafe
281f
5555
f184
01d6
cafe
2c07
5555
f184
012d
cafe
3017
5555
f188
0151
cafe
3408
5555
f188
017c
cafe
3818
5555
f188
01c1
cafe
3c00
5555
f188
00a2
cafe
2010
5555
f18c
00c8
cafe
2409
5555
f18c
01b2
cafe
2819
5555
f18c
0165
cafe
2c01
5555
f18c
0100
cafe
3011
5555
f190
00d3
cafe
340a
5555
f190
0141
cafe
381a
5555
f190
00e8
cafe
3c02
5555
f190
0104
cafe
2012
5555
f194
00a4
cafe
240b
5555
f194
0187
cafe
281b
5555
f194
0191
cafe
2c03
5555
f194
013e
cafe
3013
5555
f198
00d5
cafe
340c
5555
f198
01df
cafe
381c
5555
f198
00f2
cafe
3c04
5555
f198
00df
cafe
2014
5555
f19c
014f
cafe
240d
5555
f19c
014c
cafe
281d
5555
f19c
015b
cafe
2c05
5555
f19c
010f
cafe
3015
5555
f1a0
00d0
cafe
340e
5555
f1a0
01d5
cafe
381e
5555
f1a0
0169
cafe
3c06
5555
f1a0
0143
cafe
2016
5555
f1a4
013b
cafe
240f
5555
f1a4
0174
cafe
281f
5555
f1a4
01d5
cafe
2c07
5555
f1a4
012c
cafe
3017
5555
f1a8
014b
cafe
3408
5555
f1a8
0178
cafe
3818
5555
f1a8
01bf
cafe
3c00
5555
f1a8
009f
cafe
2010
5555
f1ac
00c3
cafe
2409
5555
f1ac
01b6
-
cafe
2819
5555
f1ac
0169
cafe
2c01
5555
f1ac
0102
cafe
3011
5555
f1b0
00db
cafe
340a
5555
f1b0
013f
cafe
381a
5555
f1b0
00e3
cafe
3c02
5555
f1b0
0106
cafe
2012
5555
f1b4
00a1
cafe
240b
5555
f1b4
0185
cafe
281b
5555
f1b4
019a
cafe
2c03
5555
f1b4
0138
cafe
3013
5555
f1b8
00e2
cafe
340c
5555
f1b8
01de
cafe
381c
5555
f1b8
00eb
cafe
3c04
5555
f1b8
00da
cafe
2014
5555
f1bc
0149
cafe
240d
5555
f1bc
0146
cafe
281d
5555
f1bc
0160
cafe
2c05
5555
f1bc
0115
cafe
3015
5555
f1c0
00d0
cafe
340e
5555
f1c0
01d6
cafe
381e
5555
f1c0
0160
cafe
3c06
5555
f1c0
0143
cafe
2016
5555
f1c4
0136
cafe
240f
5555
f1c4
0184
cafe
281f
5555
f1c4
01d6
cafe
2c07
5555
f1c4
0136
cafe
3017
5555
f1c8
014e
cafe
3408
5555
f1c8
016d
cafe
3818
5555
f1c8
01c1
cafe
3c00
5555
f1c8
009f
cafe
2010
5555
f1cc
00c3
cafe
2409
5555
f1cc
01b2
cafe
2819
5555
f1cc
0171
cafe
2c01
5555
f1cc
00fd
cafe
3011
5555
f1d0
00e1
cafe
340a
5555
f1d0
0137
cafe
381a
5555
f1d0
00d7
cafe
3c02
5555
f1d0
0102
cafe
2012
5555
f1d4
0095
cafe
240b
5555
f1d4
0187
cafe
281b
5555
f1d4
0197
cafe
2c03
5555
f1d4
013e
cafe
3013
5555
f1d8
00e4
cafe
340c
5555
f1d8
01df
cafe
381c
5555
f1d8
00e9
cafe
3c04
5555
f1d8
00da
cafe
2014
5555
f1dc
0159
cafe
240d
5555
f1dc
0150
cafe
281d
5555
f1dc
0169
cafe
2c05
5555
f1dc
011a
cafe
3015
5555
f1e0
00c9
cafe
-
340e
5555
f1e0
01d1
cafe
381e
5555
f1e0
016c
cafe
3c06
5555
f1e0
013f
cafe
2016
5555
f1e4
0138
cafe
240f
5555
f1e4
0189
cafe
281f
5555
f1e4
01d9
cafe
2c07
5555
f1e4
013b
cafe
3017
5555
f1e8
0147
cafe
3408
5555
f1e8
0172
cafe
3818
5555
f1e8
01bc
cafe
3c00
5555
f1e8
009c
cafe
2010
5555
f1ec
00c6
cafe
2409
5555
f1ec
01ac
cafe
2819
5555
f1ec
0170
cafe
2c01
5555
f1ec
00fe
cafe
3011
5555
f1f0
00dd
cafe
340a
5555
f1f0
013c
cafe
381a
5555
f1f0
00da
cafe
3c02
5555
f1f0
0103
cafe
2012
5555
f1f4
0099
cafe
240b
5555
f1f4
0183
cafe
281b
5555
f1f4
0197
cafe
2c03
5555
f1f4
0137
cafe
3013
5555
f1f8
00df
cafe
340c
5555
f1f8
01d6
cafe
381c
5555
f1f8
00e6
cafe
3c04
5555
f1f8
00e4
cafe
2014
5555
f1fc
0155
cafe
240d
5555
f1fc
014a
cafe
281d
5555
f1fc
0166
cafe
2c05
5555
f1fc
011e
cafe
3015
5555
f200
00ce
cafe
340e
5555
f200
01cd
cafe
381e
5555
f200
0173
cafe
3c06
5555
f200
0140
cafe
2016
5555
f204
0138
cafe
240f
5555
f204
0183
cafe
281f
5555
f204
01d6
cafe
2c07
5555
f204
0134
cafe
3017
5555
f208
0144
cafe
3408
5555
f208
017b
cafe
3818
5555
f208
01b9
cafe
3c00
5555
f208
009b
cafe
2010
5555
f20c
00d4
cafe
2409
5555
f20c
01b5
cafe
2819
5555
f20c
0166
cafe
2c01
5555
f20c
0103
cafe
3011
5555
f210
00d8
cafe
340a
5555
f210
013c
cafe
381a
5555
f210
00d4
cafe
3c02
5555
f210
0103
cafe
2012
-
5555
f214
0098
cafe
240b
5555
f214
0183
cafe
281b
5555
f214
0194
cafe
2c03
5555
f214
013e
cafe
3013
5555
f218
00d5
cafe
340c
5555
f218
01dd
cafe
381c
5555
f218
00e8
cafe
3c04
5555
f218
00e0
cafe
2014
5555
f21c
0157
cafe
240d
5555
f21c
014a
cafe
281d
5555
f21c
0168
cafe
2c05
5555
f21c
0125
cafe
3015
5555
f220
00c9
cafe
340e
5555
f220
01cb
cafe
381e
5555
f220
016b
cafe
3c06
5555
f220
013b
cafe
2016
5555
f224
0139
cafe
240f
5555
f224
0185
cafe
281f
5555
f224
01cb
cafe
2c07
5555
f224
013b
cafe
3017
5555
f228
013f
cafe
3408
5555
f228
016d
cafe
3818
5555
f228
01bc
cafe
3c00
5555
f228
009b
cafe
2010
5555
f22c
00cd
cafe
2409
5555
f22c
01b4
cafe
2819
5555
f22c
016a
cafe
2c01
5555
f22c
0102
cafe
3011
5555
f230
00e1
cafe
340a
5555
f230
0140
cafe
381a
5555
f230
00ce
cafe
3c02
5555
f230
00fc
cafe
2012
5555
f234
00a0
cafe
240b
5555
f234
018e
cafe
281b
5555
f234
0194
cafe
2c03
5555
f234
013c
cafe
3013
5555
f238
00d6
cafe
340c
5555
f238
01de
cafe
381c
5555
f238
00e9
cafe
3c04
5555
f238
00ea
cafe
2014
5555
f23c
015d
cafe
240d
5555
f23c
0142
cafe
281d
5555
f23c
0166
cafe
2c05
5555
f23c
012a
cafe
3015
5555
f240
00c5
cafe
340e
5555
f240
01ce
cafe
381e
5555
f240
0166
cafe
3c06
5555
f240
013c
cafe
2016
5555
f244
013c
cafe
240f
5555
f244
017f
cafe
281f
5555
f244
01ce
cafe
2c07
5555
-
f244
0132
cafe
3017
5555
f248
0146
cafe
3408
5555
f248
0175
cafe
3818
5555
f248
01bd
cafe
3c00
5555
f248
0097
cafe
2010
5555
f24c
00c9
cafe
2409
5555
f24c
01b6
cafe
2819
5555
f24c
0166
cafe
2c01
5555
f24c
0109
cafe
3011
5555
f250
00e0
cafe
340a
5555
f250
013b
cafe
381a
5555
f250
00c5
cafe
3c02
5555
f250
0102
cafe
2012
5555
f254
00a5
cafe
240b
5555
f254
018c
cafe
281b
5555
f254
019f
cafe
2c03
5555
f254
0145
cafe
3013
5555
f258
00d1
cafe
340c
5555
f258
01dd
cafe
381c
5555
f258
00ed
cafe
3c04
5555
f258
00e1
cafe
2014
5555
f25c
0154
cafe
240d
5555
f25c
013d
cafe
281d
5555
f25c
016d
cafe
2c05
5555
f25c
0124
cafe
3015
5555
f260
00c2
cafe
340e
5555
f260
01d0
cafe
381e
5555
f260
016a
cafe
3c06
5555
f260
0134
cafe
2016
5555
f264
013a
cafe
240f
5555
f264
0184
cafe
281f
5555
f264
01d2
cafe
2c07
5555
f264
0132
cafe
3017
5555
f268
0143
cafe
3408
5555
f268
0175
cafe
3818
5555
f268
01be
cafe
3c00
5555
f268
0092
cafe
2010
5555
f26c
00cd
cafe
2409
5555
f26c
01b4
cafe
2819
5555
f26c
0164
cafe
2c01
5555
f26c
0107
cafe
3011
5555
f270
00d6
cafe
340a
5555
f270
0141
cafe
381a
5555
f270
00cb
cafe
3c02
5555
f270
0107
cafe
2012
5555
f274
00a2
cafe
240b
5555
f274
018d
cafe
281b
5555
f274
01a2
cafe
2c03
5555
f274
013d
cafe
3013
5555
f278
00d4
cafe
340c
5555
f278
01e5
cafe
381c
5555
f278
-
00ef
cafe
3c04
5555
f278
00e5
cafe
2014
5555
f27c
0152
cafe
240d
5555
f27c
0142
cafe
281d
5555
f27c
0169
cafe
2c05
5555
f27c
0123
cafe
3015
5555
f280
00ca
cafe
340e
5555
f280
01d3
cafe
381e
5555
f280
0161
cafe
3c06
5555
f280
0135
cafe
2016
5555
f284
013e
cafe
240f
5555
f284
017c
cafe
281f
5555
f284
01d1
cafe
2c07
5555
f284
0135
cafe
3017
5555
f288
0140
cafe
3408
5555
f288
0174
cafe
3818
5555
f288
01bd
cafe
3c00
5555
f288
009b
cafe
2010
5555
f28c
00d2
cafe
2409
5555
f28c
01b7
cafe
2819
5555
f28c
0169
cafe
2c01
5555
f28c
00ff
cafe
3011
5555
f290
00d6
cafe
340a
5555
f290
0141
cafe
381a
5555
f290
00ce
cafe
3c02
5555
f290
010a
cafe
2012
5555
f294
00ab
cafe
240b
5555
f294
0191
cafe
281b
5555
f294
019b
cafe
2c03
5555
f294
012b
cafe
3013
5555
f298
00d6
cafe
340c
5555
f298
01ec
cafe
381c
5555
f298
00ec
cafe
3c04
5555
f298
00e9
cafe
2014
5555
f29c
014f
cafe
240d
5555
f29c
014a
cafe
281d
5555
f29c
016c
cafe
2c05
5555
f29c
0124
cafe
3015
5555
f2a0
00d0
cafe
340e
5555
f2a0
01c1
cafe
381e
5555
f2a0
0164
cafe
3c06
5555
f2a0
0136
cafe
2016
5555
f2a4
013c
cafe
240f
5555
f2a4
017c
cafe
281f
5555
f2a4
01cb
cafe
2c07
5555
f2a4
0130
cafe
3017
5555
f2a8
0143
cafe
3408
5555
f2a8
0179
cafe
3818
5555
f2a8
01c5
cafe
3c00
5555
f2a8
009f
cafe
2010
5555
f2ac
00cd
cafe
2409
5555
f2ac
01b9
-
cafe
2819
5555
f2ac
0168
cafe
2c01
5555
f2ac
00ff
cafe
3011
5555
f2b0
00de
cafe
340a
5555
f2b0
0149
cafe
381a
5555
f2b0
00cd
cafe
3c02
5555
f2b0
0104
cafe
2012
5555
f2b4
00ab
cafe
240b
5555
f2b4
017e
cafe
281b
5555
f2b4
019f
cafe
2c03
5555
f2b4
0132
cafe
3013
5555
f2b8
00df
cafe
340c
5555
f2b8
01e9
cafe
381c
5555
f2b8
00f1
cafe
3c04
5555
f2b8
00ea
cafe
2014
5555
f2bc
014d
cafe
240d
5555
f2bc
0146
cafe
281d
5555
f2bc
0160
cafe
2c05
5555
f2bc
0125
cafe
3015
5555
f2c0
00c8
cafe
340e
5555
f2c0
01c3
cafe
381e
5555
f2c0
0168
cafe
3c06
5555
f2c0
0135
cafe
2016
5555
f2c4
0131
cafe
240f
5555
f2c4
0181
cafe
281f
5555
f2c4
01cc
cafe
2c07
5555
f2c4
0130
cafe
3017
5555
f2c8
0143
cafe
3408
5555
f2c8
017d
cafe
3818
5555
f2c8
01bf
cafe
3c00
5555
f2c8
00a0
cafe
2010
5555
f2cc
00c6
cafe
2409
5555
f2cc
01ae
cafe
2819
5555
f2cc
016a
cafe
2c01
5555
f2cc
00fe
cafe
3011
5555
f2d0
00dc
cafe
340a
5555
f2d0
014d
cafe
381a
5555
f2d0
00cf
cafe
3c02
5555
f2d0
010a
cafe
2012
5555
f2d4
00b6
cafe
240b
5555
f2d4
0176
cafe
281b
5555
f2d4
01a2
cafe
2c03
5555
f2d4
0136
cafe
3013
5555
f2d8
00d1
cafe
340c
5555
f2d8
01e5
cafe
381c
5555
f2d8
00f8
cafe
3c04
5555
f2d8
00e7
cafe
2014
5555
f2dc
0152
cafe
240d
5555
f2dc
0149
cafe
281d
5555
f2dc
0157
cafe
2c05
5555
f2dc
011d
cafe
3015
5555
f2e0
00c7
cafe
-
340e
5555
f2e0
01c0
cafe
381e
5555
f2e0
0165
cafe
3c06
5555
f2e0
0135
cafe
2016
5555
f2e4
012a
cafe
240f
5555
f2e4
0181
cafe
281f
5555
f2e4
01cf
cafe
2c07
5555
f2e4
0139
cafe
3017
5555
f2e8
0146
cafe
3408
5555
f2e8
0184
cafe
3818
5555
f2e8
01b0
cafe
3c00
5555
f2e8
00a4
cafe
2010
5555
f2ec
00cc
cafe
2409
5555
f2ec
01ae
cafe
2819
5555
f2ec
0172
cafe
2c01
5555
f2ec
00fa
cafe
3011
5555
f2f0
00d7
cafe
340a
5555
f2f0
0150
cafe
381a
5555
f2f0
00ce
cafe
3c02
5555
f2f0
0106
cafe
2012
5555
f2f4
00ac
cafe
240b
5555
f2f4
017a
cafe
281b
5555
f2f4
01a2
cafe
2c03
5555
f2f4
0139
cafe
3013
5555
f2f8
00d1
cafe
340c
5555
f2f8
01e2
cafe
381c
5555
f2f8
00f7
cafe
3c04
5555
f2f8
00e8
cafe
2014
5555
f2fc
014d
cafe
240d
5555
f2fc
0140
cafe
281d
5555
f2fc
015a
cafe
2c05
5555
f2fc
011f
cafe
3015
5555
f300
00ca
cafe
340e
5555
f300
01be
cafe
381e
5555
f300
0164
cafe
3c06
5555
f300
0130
cafe
2016
5555
f304
0125
cafe
240f
5555
f304
0181
cafe
281f
5555
f304
01d0
cafe
2c07
5555
f304
0135
cafe
3017
5555
f308
014d
cafe
3408
5555
f308
0182
cafe
3818
5555
f308
01af
cafe
3c00
5555
f308
0099
cafe
2010
5555
f30c
00cf
cafe
2409
5555
f30c
01aa
cafe
2819
5555
f30c
0172
cafe
2c01
5555
f30c
00fb
cafe
3011
5555
f310
00d5
cafe
340a
5555
f310
014d
cafe
381a
5555
f310
00cb
cafe
3c02
5555
f310
0108
cafe
2012
-
5555
f314
00a4
cafe
240b
5555
f314
017d
cafe
281b
5555
f314
01a4
cafe
2c03
5555
f314
0138
cafe
3013
5555
f318
00d2
cafe
340c
5555
f318
01e3
cafe
381c
5555
f318
00f7
cafe
3c04
5555
f318
00ec
cafe
2014
5555
f31c
0149
cafe
240d
5555
f31c
0147
cafe
281d
5555
f31c
015b
cafe
2c05
5555
f31c
011c
cafe
3015
5555
f320
00ca
cafe
340e
5555
f320
01ca
cafe
381e
5555
f320
0162
cafe
3c06
5555
f320
0137
cafe
2016
5555
f324
0124
cafe
240f
5555
f324
0181
cafe
281f
5555
f324
01d0
cafe
2c07
5555
f324
0132
cafe
3017
5555
f328
0152
cafe
3408
5555
f328
017d
cafe
3818
5555
f328
01af
cafe
3c00
5555
f328
00a7
cafe
2010
5555
f32c
00cb
cafe
2409
5555
f32c
01b2
cafe
2819
5555
f32c
0171
cafe
2c01
5555
f32c
00fa
cafe
3011
5555
f330
00d7
cafe
340a
5555
f330
0144
cafe
381a
5555
f330
00da
cafe
3c02
5555
f330
0108
cafe
2012
5555
f334
00a7
cafe
240b
5555
f334
0183
cafe
281b
5555
f334
01a8
cafe
2c03
5555
f334
0130
cafe
3013
5555
f338
00d2
cafe
340c
5555
f338
01e2
cafe
381c
5555
f338
00fa
cafe
3c04
5555
f338
00f1
cafe
2014
5555
f33c
014c
cafe
240d
5555
f33c
014c
cafe
281d
5555
f33c
0159
cafe
2c05
5555
f33c
0119
cafe
3015
5555
f340
00ca
cafe
340e
5555
f340
01cc
cafe
381e
5555
f340
0169
cafe
3c06
5555
f340
0136
cafe
2016
5555
f344
0129
cafe
240f
5555
f344
017b
cafe
281f
5555
f344
01c9
cafe
2c07
5555
-
f344
0135
cafe
3017
5555
f348
0145
cafe
3408
5555
f348
0179
cafe
3818
5555
f348
01af
cafe
3c00
5555
f348
00ac
cafe
2010
5555
f34c
00cb
cafe
2409
5555
f34c
01b0
cafe
2819
5555
f34c
016f
cafe
2c01
5555
f34c
0100
cafe
3011
5555
f350
00dd
cafe
340a
5555
f350
0140
cafe
381a
5555
f350
00dd
cafe
3c02
5555
f350
010d
cafe
2012
5555
f354
009f
cafe
240b
5555
f354
018e
cafe
281b
5555
f354
01a0
cafe
2c03
5555
f354
0130
cafe
3013
5555
f358
00cf
cafe
340c
5555
f358
01e6
cafe
381c
5555
f358
00f4
cafe
3c04
5555
f358
00f2
cafe
2014
5555
f35c
0151
cafe
240d
5555
f35c
014f
cafe
281d
5555
f35c
015b
cafe
2c05
5555
f35c
0116
cafe
3015
5555
f360
00cf
cafe
340e
5555
f360
01c0
cafe
381e
5555
f360
0167
cafe
3c06
5555
f360
0132
cafe
2016
5555
f364
0127
cafe
240f
5555
f364
017e
cafe
281f
5555
f364
01c9
cafe
2c07
5555
f364
013a
cafe
3017
5555
f368
0145
cafe
3408
5555
f368
0176
cafe
3818
5555
f368
01a7
cafe
3c00
5555
f368
00a9
cafe
2010
5555
f36c
00c4
cafe
2409
5555
f36c
01ac
cafe
2819
5555
f36c
0172
cafe
2c01
5555
f36c
00f7
cafe
3011
5555
f370
00e2
cafe
340a
5555
f370
0147
cafe
381a
5555
f370
00dc
cafe
3c02
5555
f370
0113
cafe
2012
5555
f374
00a0
cafe
240b
5555
f374
018a
cafe
281b
5555
f374
01ab
cafe
2c03
5555
f374
0131
cafe
3013
5555
f378
00d5
cafe
340c
5555
f378
01ea
cafe
381c
5555
f378
-
00ed
cafe
3c04
5555
f378
00f1
cafe
2014
5555
f37c
0154
cafe
240d
5555
f37c
014b
cafe
281d
5555
f37c
015d
cafe
2c05
5555
f37c
0115
cafe
3015
5555
f380
00c7
cafe
340e
5555
f380
01bf
cafe
381e
5555
f380
015f
cafe
3c06
5555
f380
013a
cafe
2016
5555
f384
0131
cafe
240f
5555
f384
017a
cafe
281f
5555
f384
01ce
cafe
2c07
5555
f384
0137
cafe
3017
5555
f388
013a
cafe
3408
5555
f388
017a
cafe
3818
5555
f388
01a8
cafe
3c00
5555
f388
00a5
cafe
2010
5555
f38c
00c3
cafe
2409
5555
f38c
01aa
cafe
2819
5555
f38c
0170
cafe
2c01
5555
f38c
00f8
cafe
3011
5555
f390
00dd
cafe
340a
5555
f390
0147
cafe
381a
5555
f390
00dd
cafe
3c02
5555
f390
011a
cafe
2012
5555
f394
00a2
cafe
240b
5555
f394
018f
cafe
281b
5555
f394
01ad
cafe
2c03
5555
f394
0136
cafe
3013
5555
f398
00e0
cafe
340c
5555
f398
01eb
cafe
381c
5555
f398
00f3
cafe
3c04
5555
f398
00ed
cafe
2014
5555
f39c
0151
cafe
240d
5555
f39c
0149
cafe
281d
5555
f39c
0157
cafe
2c05
5555
f39c
0114
cafe
3015
5555
f3a0
00cd
cafe
340e
5555
f3a0
01b8
cafe
381e
5555
f3a0
016a
cafe
3c06
5555
f3a0
0134
cafe
2016
5555
f3a4
0133
cafe
240f
5555
f3a4
0189
cafe
281f
5555
f3a4
01cd
cafe
2c07
5555
f3a4
013b
cafe
3017
5555
f3a8
0144
cafe
3408
5555
f3a8
0178
cafe
3818
5555
f3a8
01aa
cafe
3c00
5555
f3a8
009d
cafe
2010
5555
f3ac
00c9
cafe
2409
5555
f3ac
01a8
-
cafe
2819
5555
f3ac
0173
cafe
2c01
5555
f3ac
00fd
cafe
3011
5555
f3b0
00d8
cafe
340a
5555
f3b0
0146
cafe
381a
5555
f3b0
00e0
cafe
3c02
5555
f3b0
010e
cafe
2012
5555
f3b4
00a3
cafe
240b
5555
f3b4
018b
cafe
281b
5555
f3b4
01ad
cafe
2c03
5555
f3b4
013d
cafe
3013
5555
f3b8
00d7
cafe
340c
5555
f3b8
01e6
cafe
381c
5555
f3b8
00f0
cafe
3c04
5555
f3b8
00e7
cafe
2014
5555
f3bc
0154
cafe
240d
5555
f3bc
0153
cafe
281d
5555
f3bc
015f
cafe
2c05
5555
f3bc
010d
cafe
3015
5555
f3c0
00cb
cafe
340e
5555
f3c0
01b9
cafe
381e
5555
f3c0
016f
cafe
3c06
5555
f3c0
013f
cafe
2016
5555
f3c4
0126
cafe
240f
5555
f3c4
0181
cafe
281f
5555
f3c4
01cd
cafe
2c07
5555
f3c4
0134
cafe
3017
5555
f3c8
0144
cafe
3408
5555
f3c8
0178
cafe
3818
5555
f3c8
01b6
cafe
3c00
5555
f3c8
00a0
cafe
2010
5555
f3cc
00c7
cafe
2409
5555
f3cc
01a8
cafe
2819
5555
f3cc
0171
cafe
2c01
5555
f3cc
00fc
cafe
3011
5555
f3d0
00de
cafe
340a
5555
f3d0
0140
cafe
381a
5555
f3d0
00dd
cafe
3c02
5555
f3d0
010c
cafe
2012
5555
f3d4
00a7
cafe
240b
5555
f3d4
0187
cafe
281b
5555
f3d4
01a4
cafe
2c03
5555
f3d4
0141
cafe
3013
5555
f3d8
00db
cafe
340c
5555
f3d8
01e5
cafe
381c
5555
f3d8
00ed
cafe
3c04
5555
f3d8
00de
cafe
2014
5555
f3dc
0152
cafe
240d
5555
f3dc
0157
cafe
281d
5555
f3dc
0164
cafe
2c05
5555
f3dc
010f
cafe
3015
5555
f3e0
00c6
cafe
-
340e
5555
f3e0
01bc
cafe
381e
5555
f3e0
0160
cafe
3c06
5555
f3e0
013b
cafe
2016
5555
f3e4
0130
cafe
240f
5555
f3e4
0182
cafe
281f
5555
f3e4
01d1
cafe
2c07
5555
f3e4
013e
cafe
3017
5555
f3e8
0146
cafe
3408
5555
f3e8
0176
cafe
3818
5555
f3e8
01af
cafe
3c00
5555
f3e8
009a
cafe
2010
5555
f3ec
00c6
cafe
2409
5555
f3ec
01a7
cafe
2819
5555
f3ec
016d
cafe
2c01
5555
f3ec
0101
cafe
3011
5555
f3f0
00e0
cafe
340a
5555
f3f0
013e
cafe
381a
5555
f3f0
00d9
cafe
3c02
5555
f3f0
0116
cafe
2012
5555
f3f4
00aa
cafe
240b
5555
f3f4
0185
cafe
281b
5555
f3f4
01a3
cafe
2c03
5555
f3f4
013d
cafe
3013
5555
f3f8
00dd
cafe
340c
5555
f3f8
01dd
cafe
381c
5555
f3f8
00e6
cafe
3c04
5555
f3f8
00d6
cafe
2014
5555
f3fc
0154
cafe
240d
5555
f3fc
0155
cafe
281d
5555
f3fc
0167
cafe
2c05
5555
f3fc
0110
cafe
3015
5555
f400
00c9
cafe
340e
5555
f400
01bf
cafe
381e
5555
f400
0164
cafe
3c06
5555
f400
0137
cafe
2016
5555
f404
0139
cafe
240f
5555
f404
017e
cafe
281f
5555
f404
01d2
cafe
2c07
5555
f404
013f
cafe
3017
5555
f408
0145
cafe
3408
5555
f408
0177
cafe
3818
5555
f408
01ae
cafe
3c00
5555
f408
0098
cafe
2010
5555
f40c
00c9
cafe
2409
5555
f40c
01ae
cafe
2819
5555
f40c
0167
cafe
2c01
5555
f40c
00fb
cafe
3011
5555
f410
00e2
cafe
340a
5555
f410
013a
cafe
381a
5555
f410
00dd
cafe
3c02
5555
f410
0119
cafe
2012
-
5555
f414
00ab
cafe
240b
5555
f414
018d
cafe
281b
5555
f414
01a5
cafe
2c03
5555
f414
013a
cafe
3013
5555
f418
00d1
cafe
340c
5555
f418
01e1
cafe
381c
5555
f418
00e8
cafe
3c04
5555
f418
00d7
cafe
2014
5555
f41c
0153
cafe
240d
5555
f41c
0155
cafe
281d
5555
f41c
0170
cafe
2c05
5555
f41c
010f
cafe
3015
5555
f420
00c7
cafe
340e
5555
f420
01bb
cafe
381e
5555
f420
015c
cafe
3c06
5555
f420
0134
cafe
2016
5555
f424
0134
cafe
240f
5555
f424
0182
cafe
281f
5555
f424
01d6
cafe
2c07
5555
f424
0142
cafe
3017
5555
f428
0141
cafe
3408
5555
f428
0179
cafe
3818
5555
f428
01ad
cafe
3c00
5555
f428
00a2
cafe
2010
5555
f42c
00cd
cafe
2409
5555
f42c
01ad
cafe
2819
5555
f42c
0169
cafe
2c01
5555
f42c
00fe
cafe
3011
5555
f430
00e5
cafe
340a
5555
f430
0136
cafe
381a
5555
f430
00d1
cafe
3c02
5555
f430
011e
cafe
2012
5555
f434
00a0
cafe
240b
5555
f434
018a
cafe
281b
5555
f434
01a5
cafe
2c03
5555
f434
0139
cafe
3013
5555
f438
00d6
cafe
340c
5555
f438
01de
cafe
381c
5555
f438
00e8
cafe
3c04
5555
f438
00da
cafe
2014
5555
f43c
0155
cafe
240d
5555
f43c
0159
cafe
281d
5555
f43c
016b
cafe
2c05
5555
f43c
010f
cafe
3015
5555
f440
00cd
cafe
340e
5555
f440
01b9
cafe
381e
5555
f440
0163
cafe
3c06
5555
f440
0137
cafe
2016
5555
f444
013d
cafe
240f
5555
f444
017b
cafe
281f
5555
f444
01d8
cafe
2c07
5555
-
f444
013f
cafe
3017
5555
f448
0141
cafe
3408
5555
f448
0178
cafe
3818
5555
f448
01b3
cafe
3c00
5555
f448
0096
cafe
2010
5555
f44c
00c7
cafe
2409
5555
f44c
01ab
cafe
2819
5555
f44c
0167
cafe
2c01
5555
f44c
00fe
cafe
3011
5555
f450
00e9
cafe
340a
5555
f450
0131
cafe
381a
5555
f450
00d1
cafe
3c02
5555
f450
011b
cafe
2012
5555
f454
009d
cafe
240b
5555
f454
0185
cafe
281b
5555
f454
01a0
cafe
2c03
5555
f454
0137
cafe
3013
5555
f458
00da
cafe
340c
5555
f458
01d9
cafe
381c
5555
f458
00e3
cafe
3c04
5555
f458
00d3
cafe
2014
5555
f45c
0152
cafe
240d
5555
f45c
015c
cafe
281d
5555
f45c
016e
cafe
2c05
5555
f45c
011c
cafe
3015
5555
f460
00cc
cafe
340e
5555
f460
01c2
cafe
381e
5555
f460
0161
cafe
3c06
5555
f460
013b
cafe
2016
5555
f464
013c
cafe
240f
5555
f464
0187
cafe
281f
5555
f464
01db
cafe
2c07
5555
f464
0147
cafe
3017
5555
f468
0143
cafe
3408
5555
f468
0181
cafe
3818
5555
f468
01b7
cafe
3c00
5555
f468
009c
cafe
2010
5555
f46c
00c9
cafe
2409
5555
f46c
01aa
cafe
2819
5555
f46c
0165
cafe
2c01
5555
f46c
0101
cafe
3011
5555
f470
00e6
cafe
340a
5555
f470
0137
cafe
381a
5555
f470
00cf
cafe
3c02
5555
f470
0115
cafe
2012
5555
f474
00a5
cafe
240b
5555
f474
0189
cafe
281b
5555
f474
01a8
cafe
2c03
5555
f474
0138
cafe
3013
5555
f478
00d8
cafe
340c
5555
f478
01e0
cafe
381c
5555
f478
-
00ec
cafe
3c04
5555
f478
00d4
cafe
2014
5555
f47c
0151
cafe
240d
5555
f47c
0150
cafe
281d
5555
f47c
0162
cafe
2c05
5555
f47c
0115
cafe
3015
5555
f480
00c5
cafe
340e
5555
f480
01b7
cafe
381e
5555
f480
0168
cafe
3c06
5555
f480
013c
cafe
2016
5555
f484
013b
cafe
240f
5555
f484
0181
cafe
281f
5555
f484
01cf
cafe
2c07
5555
f484
013c
cafe
3017
5555
f488
013a
cafe
3408
5555
f488
017b
cafe
3818
5555
f488
01b6
cafe
3c00
5555
f488
0093
cafe
2010
5555
f48c
00c1
cafe
2409
5555
f48c
01b0
cafe
2819
5555
f48c
0160
cafe
2c01
5555
f48c
0104
cafe
3011
5555
f490
00dc
cafe
340a
5555
f490
0131
cafe
381a
5555
f490
00d5
cafe
3c02
5555
f490
0116
cafe
2012
5555
f494
00a7
cafe
240b
5555
f494
018e
cafe
281b
5555
f494
01a3
cafe
2c03
5555
f494
0138
cafe
3013
5555
f498
00e7
cafe
340c
5555
f498
01de
cafe
381c
5555
f498
00f2
cafe
3c04
5555
f498
00d9
cafe
2014
5555
f49c
014b
cafe
240d
5555
f49c
014e
cafe
281d
5555
f49c
016a
cafe
2c05
5555
f49c
0115
cafe
3015
5555
f4a0
00cb
cafe
340e
5555
f4a0
01bb
cafe
381e
5555
f4a0
0167
cafe
3c06
5555
f4a0
0139
cafe
2016
5555
f4a4
013f
cafe
240f
5555
f4a4
0188
cafe
281f
5555
f4a4
01c8
cafe
2c07
5555
f4a4
0140
cafe
3017
5555
f4a8
0137
cafe
3408
5555
f4a8
0179
cafe
3818
5555
f4a8
01b8
cafe
3c00
5555
f4a8
0097
cafe
2010
5555
f4ac
00c5
cafe
2409
5555
f4ac
01b1
-
cafe
2819
5555
f4ac
0160
cafe
2c01
5555
f4ac
0106
cafe
3011
5555
f4b0
00df
cafe
340a
5555
f4b0
013a
cafe
381a
5555
f4b0
00df
cafe
3c02
5555
f4b0
010f
cafe
2012
5555
f4b4
00a0
cafe
240b
5555
f4b4
018c
cafe
281b
5555
f4b4
01a3
cafe
2c03
5555
f4b4
0139
cafe
3013
5555
f4b8
00eb
cafe
340c
5555
f4b8
01db
cafe
381c
5555
f4b8
00eb
cafe
3c04
5555
f4b8
00e5
cafe
2014
5555
f4bc
0152
cafe
240d
5555
f4bc
0157
cafe
281d
5555
f4bc
0169
cafe
2c05
5555
f4bc
0113
cafe
3015
5555
f4c0
00d3
cafe
340e
5555
f4c0
01c0
cafe
381e
5555
f4c0
016e
cafe
3c06
5555
f4c0
0131
cafe
2016
5555
f4c4
013c
cafe
240f
5555
f4c4
0187
cafe
281f
5555
f4c4
01c8
cafe
2c07
5555
f4c4
0139
cafe
3017
5555
f4c8
0133
cafe
3408
5555
f4c8
017b
cafe
3818
5555
f4c8
01b1
cafe
3c00
5555
f4c8
00ae
cafe
2010
5555
f4cc
00c4
cafe
2409
5555
f4cc
01b0
cafe
2819
5555
f4cc
0161
cafe
2c01
5555
f4cc
0109
cafe
3011
5555
f4d0
00e0
cafe
340a
5555
f4d0
0136
cafe
381a
5555
f4d0
00e0
cafe
3c02
5555
f4d0
0114
cafe
2012
5555
f4d4
00a4
cafe
240b
5555
f4d4
018a
cafe
281b
5555
f4d4
01a6
cafe
2c03
5555
f4d4
0130
cafe
3013
5555
f4d8
00e1
cafe
340c
5555
f4d8
01da
cafe
381c
5555
f4d8
00e3
cafe
3c04
5555
f4d8
00e2
cafe
2014
5555
f4dc
0154
cafe
240d
5555
f4dc
015e
cafe
281d
5555
f4dc
016d
cafe
2c05
5555
f4dc
0113
cafe
3015
5555
f4e0
00d0
cafe
-
340e
5555
f4e0
01c7
cafe
381e
5555
f4e0
0172
cafe
3c06
5555
f4e0
0133
cafe
2016
5555
f4e4
0138
cafe
240f
5555
f4e4
0180
cafe
281f
5555
f4e4
01be
cafe
2c07
5555
f4e4
0139
cafe
3017
5555
f4e8
013b
cafe
3408
5555
f4e8
0180
cafe
3818
5555
f4e8
01b5
cafe
3c00
5555
f4e8
00a9
cafe
2010
5555
f4ec
00ba
cafe
2409
5555
f4ec
01b0
cafe
2819
5555
f4ec
0161
cafe
2c01
5555
f4ec
0102
cafe
3011
5555
f4f0
00e1
cafe
340a
5555
f4f0
0139
cafe
381a
5555
f4f0
00db
cafe
3c02
5555
f4f0
0115
cafe
2012
5555
f4f4
00a7
cafe
240b
5555
f4f4
017c
cafe
281b
5555
f4f4
01a2
cafe
2c03
5555
f4f4
012a
cafe
3013
5555
f4f8
00e8
cafe
340c
5555
f4f8
01db
cafe
381c
5555
f4f8
00e9
cafe
3c04
5555
f4f8
00dc
cafe
2014
5555
f4fc
014c
cafe
240d
5555
f4fc
0159
cafe
281d
5555
f4fc
0163
cafe
2c05
5555
f4fc
011a
cafe
3015
5555
f500
00ce
cafe
340e
5555
f500
01c8
cafe
381e
5555
f500
016d
cafe
3c06
5555
f500
0131
cafe
2016
5555
f504
0136
cafe
240f
5555
f504
017b
cafe
281f
5555
f504
01c4
cafe
2c07
5555
f504
013d
cafe
3017
5555
f508
0142
cafe
3408
5555
f508
0185
cafe
3818
5555
f508
01ae
cafe
3c00
5555
f508
00a3
cafe
2010
5555
f50c
00c3
cafe
2409
5555
f50c
01af
cafe
2819
5555
f50c
016a
cafe
2c01
5555
f50c
0103
cafe
3011
5555
f510
00df
cafe
340a
5555
f510
0135
cafe
381a
5555
f510
00df
cafe
3c02
5555
f510
0110
cafe
2012
-
5555
f514
00af
cafe
240b
5555
f514
0182
cafe
281b
5555
f514
019b
cafe
2c03
5555
f514
0131
cafe
3013
5555
f518
00d9
cafe
340c
5555
f518
01df
cafe
381c
5555
f518
00f1
cafe
3c04
5555
f518
00e3
cafe
2014
5555
f51c
014d
cafe
240d
5555
f51c
015d
cafe
281d
5555
f51c
0161
cafe
2c05
5555
f51c
010f
cafe
3015
5555
f520
00c9
cafe
340e
5555
f520
01bb
cafe
381e
5555
f520
0165
cafe
3c06
5555
f520
0129
cafe
2016
5555
f524
0131
cafe
240f
5555
f524
017e
cafe
281f
5555
f524
01c9
cafe
2c07
5555
f524
0140
cafe
3017
5555
f528
014d
cafe
3408
5555
f528
0187
cafe
3818
5555
f528
01b2
cafe
3c00
5555
f528
00a3
cafe
2010
5555
f52c
00c5
cafe
2409
5555
f52c
01ab
cafe
2819
5555
f52c
0169
cafe
2c01
5555
f52c
010d
cafe
3011
5555
f530
00e7
cafe
340a
5555
f530
0136
cafe
381a
5555
f530
00de
cafe
3c02
5555
f530
0109
cafe
2012
5555
f534
00ad
cafe
240b
5555
f534
017d
cafe
281b
5555
f534
01a2
cafe
2c03
5555
f534
0138
cafe
3013
5555
f538
00db
cafe
340c
5555
f538
01e4
cafe
381c
5555
f538
00f1
cafe
3c04
5555
f538
00e9
cafe
2014
5555
f53c
0147
cafe
240d
5555
f53c
015d
cafe
281d
5555
f53c
0162
cafe
2c05
5555
f53c
011a
cafe
3015
5555
f540
00cd
cafe
340e
5555
f540
01b7
cafe
381e
5555
f540
0165
cafe
3c06
5555
f540
012f
cafe
2016
5555
f544
0136
cafe
240f
5555
f544
0185
cafe
281f
5555
f544
01c7
cafe
2c07
5555
-
f544
0137
cafe
3017
5555
f548
0147
cafe
3408
5555
f548
018d
cafe
3818
5555
f548
01b4
cafe
3c00
5555
f548
009e
cafe
2010
5555
f54c
00cd
cafe
2409
5555
f54c
01b0
cafe
2819
5555
f54c
0163
cafe
2c01
5555
f54c
0103
cafe
3011
5555
f550
00ee
cafe
340a
5555
f550
0136
cafe
381a
5555
f550
00dd
cafe
3c02
5555
f550
0104
cafe
2012
5555
f554
00a4
cafe
240b
5555
f554
017b
cafe
281b
5555
f554
01a0
cafe
2c03
5555
f554
0134
cafe
3013
5555
f558
00da
cafe
340c
5555
f558
01e5
cafe
381c
5555
f558
00ec
cafe
3c04
5555
f558
00eb
cafe
2014
5555
f55c
0143
cafe
240d
5555
f55c
0155
cafe
281d
5555
f55c
0169
cafe
2c05
5555
f55c
011a
cafe
3015
5555
f560
00d7
cafe
340e
5555
f560
01b4
cafe
381e
5555
f560
0168
cafe
3c06
5555
f560
012f
cafe
2016
5555
f564
0134
cafe
240f
5555
f564
0183
cafe
281f
5555
f564
01c8
cafe
2c07
5555
f564
0136
cafe
3017
5555
f568
013f
cafe
3408
5555
f568
018f
cafe
3818
5555
f568
01b2
cafe
3c00
5555
f568
00a4
cafe
2010
5555
f56c
00c6
cafe
2409
5555
f56c
01a4
cafe
2819
5555
f56c
0165
cafe
2c01
5555
f56c
0105
cafe
3011
5555
f570
00e9
cafe
340a
5555
f570
0131
cafe
381a
5555
f570
00dc
cafe
3c02
5555
f570
010e
cafe
2012
5555
f574
009c
cafe
240b
5555
f574
017a
cafe
281b
5555
f574
01a5
cafe
2c03
5555
f574
0131
cafe
3013
5555
f578
00dd
cafe
340c
5555
f578
01e4
cafe
381c
5555
f578
-
00e8
cafe
3c04
5555
f578
00e9
cafe
2014
5555
f57c
014a
cafe
240d
5555
f57c
0160
cafe
281d
5555
f57c
016a
cafe
2c05
5555
f57c
0115
cafe
3015
5555
f580
00dc
cafe
340e
5555
f580
01b4
cafe
381e
5555
f580
0169
cafe
3c06
5555
f580
013e
cafe
2016
5555
f584
0136
cafe
240f
5555
f584
0187
cafe
281f
5555
f584
01c3
cafe
2c07
5555
f584
0139
cafe
3017
5555
f588
0141
cafe
3408
5555
f588
017f
cafe
3818
5555
f588
01ac
cafe
3c00
5555
f588
00a7
cafe
2010
5555
f58c
00ce
cafe
2409
5555
f58c
01ab
cafe
2819
5555
f58c
016a
cafe
2c01
5555
f58c
0106
cafe
3011
5555
f590
00e0
cafe
340a
5555
f590
0139
cafe
381a
5555
f590
00da
cafe
3c02
5555
f590
0108
cafe
2012
5555
f594
00a7
cafe
240b
5555
f594
0182
cafe
281b
5555
f594
01a0
cafe
2c03
5555
f594
0133
cafe
3013
5555
f598
00d4
cafe
340c
5555
f598
01db
cafe
381c
5555
f598
00eb
cafe
3c04
5555
f598
00e4
cafe
2014
5555
f59c
014a
cafe
240d
5555
f59c
015b
cafe
281d
5555
f59c
016e
cafe
2c05
5555
f59c
0111
cafe
3015
5555
f5a0
00d5
cafe
340e
5555
f5a0
01bc
cafe
381e
5555
f5a0
0169
cafe
3c06
5555
f5a0
013f
cafe
2016
5555
f5a4
0139
cafe
240f
5555
f5a4
0186
cafe
281f
5555
f5a4
01c3
cafe
2c07
5555
f5a4
0138
cafe
3017
5555
f5a8
0140
cafe
3408
5555
f5a8
017f
cafe
3818
5555
f5a8
01b2
cafe
3c00
5555
f5a8
00a8
cafe
2010
5555
f5ac
00d8
cafe
2409
5555
f5ac
01a9
-
cafe
2819
5555
f5ac
0168
cafe
2c01
5555
f5ac
0111
cafe
3011
5555
f5b0
00d7
cafe
340a
5555
f5b0
013a
cafe
381a
5555
f5b0
00d9
cafe
3c02
5555
f5b0
00fb
cafe
2012
5555
f5b4
00a8
cafe
240b
5555
f5b4
0181
cafe
281b
5555
f5b4
019f
cafe
2c03
5555
f5b4
0134
cafe
3013
5555
f5b8
00cc
cafe
340c
5555
f5b8
01d1
cafe
381c
5555
f5b8
00ec
cafe
3c04
5555
f5b8
00e5
cafe
2014
5555
f5bc
0147
cafe
240d
5555
f5bc
014f
cafe
281d
5555
f5bc
016b
cafe
2c05
5555
f5bc
0111
cafe
3015
5555
f5c0
00c6
cafe
340e
5555
f5c0
01b3
cafe
381e
5555
f5c0
0168
cafe
3c06
5555
f5c0
0142
cafe
2016
5555
f5c4
012d
cafe
240f
5555
f5c4
0172
cafe
281f
5555
f5c4
01c2
cafe
2c07
5555
f5c4
012a
cafe
3017
5555
f5c8
013a
cafe
3408
5555
f5c8
0179
cafe
3818
5555
f5c8
01a7
cafe
3c00
5555
f5c8
00a4
cafe
2010
5555
f5cc
00ce
cafe
2409
5555
f5cc
01a4
cafe
2819
5555
f5cc
0161
cafe
2c01
5555
f5cc
010d
cafe
3011
5555
f5d0
00cd
cafe
340a
5555
f5d0
013d
cafe
381a
5555
f5d0
00de
cafe
3c02
5555
f5d0
0105
cafe
2012
5555
f5d4
00b1
cafe
240b
5555
f5d4
018f
cafe
281b
5555
f5d4
01a3
cafe
2c03
5555
f5d4
0137
cafe
3013
5555
f5d8
00cc
cafe
340c
5555
f5d8
01d5
cafe
381c
5555
f5d8
00ed
cafe
3c04
5555
f5d8
00ed
cafe
2014
5555
f5dc
0150
cafe
240d
5555
f5dc
015e
cafe
281d
5555
f5dc
0173
cafe
2c05
5555
f5dc
0110
cafe
3015
5555
f5e0
00c9
cafe
-
340e
5555
f5e0
01b5
cafe
381e
5555
f5e0
016a
cafe
3c06
5555
f5e0
013b
cafe
2016
5555
f5e4
0136
cafe
240f
5555
f5e4
017d
cafe
281f
5555
f5e4
01c5
cafe
2c07
5555
f5e4
0130
cafe
3017
5555
f5e8
0145
cafe
3408
5555
f5e8
0184
cafe
3818
5555
f5e8
01af
cafe
3c00
5555
f5e8
00a4
cafe
2010
5555
f5ec
00da
cafe
2409
5555
f5ec
01a4
cafe
2819
5555
f5ec
0160
cafe
2c01
5555
f5ec
0102
cafe
3011
5555
f5f0
00d4
cafe
340a
5555
f5f0
0137
cafe
381a
5555
f5f0
00d8
cafe
3c02
5555
f5f0
010e
cafe
2012
5555
f5f4
00b5
cafe
240b
5555
f5f4
0189
cafe
281b
5555
f5f4
01ad
cafe
2c03
5555
f5f4
0132
cafe
3013
5555
f5f8
00d8
cafe
340c
5555
f5f8
01db
cafe
381c
5555
f5f8
00e7
cafe
3c04
5555
f5f8
00ed
cafe
2014
5555
f5fc
014d
cafe
240d
5555
f5fc
0163
cafe
281d
5555
f5fc
016c
cafe
2c05
5555
f5fc
0118
cafe
3015
5555
f600
00c7
cafe
340e
5555
f600
01b9
cafe
381e
5555
f600
0171
cafe
3c06
5555
f600
0140
cafe
2016
5555
f604
0135
cafe
240f
5555
f604
0179
cafe
281f
5555
f604
01c4
cafe
2c07
5555
f604
0128
cafe
3017
5555
f608
0142
cafe
3408
5555
f608
017e
cafe
3818
5555
f608
01ac
cafe
3c00
5555
f608
00a1
cafe
2010
5555
f60c
00d5
cafe
2409
5555
f60c
01ac
cafe
2819
5555
f60c
016a
cafe
2c01
5555
f60c
010d
cafe
3011
5555
f610
00d9
cafe
340a
5555
f610
0135
cafe
381a
5555
f610
00d5
cafe
3c02
5555
f610
0103
cafe
2012
-
5555
f614
00ad
cafe
240b
5555
f614
0181
cafe
281b
5555
f614
01ab
cafe
2c03
5555
f614
0133
cafe
3013
5555
f618
00d1
cafe
340c
5555
f618
01d6
cafe
381c
5555
f618
00e9
cafe
3c04
5555
f618
00ef
cafe
2014
5555
f61c
014a
cafe
240d
5555
f61c
015e
cafe
281d
5555
f61c
0163
cafe
2c05
5555
f61c
0113
cafe
3015
5555
f620
00c7
cafe
340e
5555
f620
01c7
cafe
381e
5555
f620
0178
cafe
3c06
5555
f620
0147
cafe
2016
5555
f624
0136
cafe
240f
5555
f624
0182
cafe
281f
5555
f624
01bc
cafe
2c07
5555
f624
0133
cafe
3017
5555
f628
0148
cafe
3408
5555
f628
017e
cafe
3818
5555
f628
01b1
cafe
3c00
5555
f628
00ab
cafe
2010
5555
f62c
00d6
cafe
2409
5555
f62c
01a8
cafe
2819
5555
f62c
0168
cafe
2c01
5555
f62c
0103
cafe
3011
5555
f630
00d9
cafe
340a
5555
f630
0139
cafe
381a
5555
f630
00d3
cafe
3c02
5555
f630
00fd
cafe
2012
5555
f634
00ad
cafe
240b
5555
f634
0182
cafe
281b
5555
f634
01a8
cafe
2c03
5555
f634
0134
cafe
3013
5555
f638
00cf
cafe
340c
5555
f638
01dc
cafe
381c
5555
f638
00eb
cafe
3c04
5555
f638
00e9
cafe
2014
5555
f63c
014d
cafe
240d
5555
f63c
015f
cafe
281d
5555
f63c
0162
cafe
2c05
5555
f63c
0120
cafe
3015
5555
f640
00cc
cafe
340e
5555
f640
01ca
cafe
381e
5555
f640
0177
cafe
3c06
5555
f640
0144
cafe
2016
5555
f644
0136
cafe
240f
5555
f644
017e
cafe
281f
5555
f644
01c1
cafe
2c07
5555
-
f644
012d
cafe
3017
5555
f648
0152
cafe
3408
5555
f648
0179
cafe
3818
5555
f648
01b7
cafe
3c00
5555
f648
00a9
cafe
2010
5555
f64c
00dc
cafe
2409
5555
f64c
01af
cafe
2819
5555
f64c
0164
cafe
2c01
5555
f64c
00fd
cafe
3011
5555
f650
00d3
cafe
340a
5555
f650
013a
cafe
381a
5555
f650
00dd
cafe
3c02
5555
f650
0106
cafe
2012
5555
f654
00ad
cafe
240b
5555
f654
0177
cafe
281b
5555
f654
019e
cafe
2c03
5555
f654
0135
cafe
3013
5555
f658
00c9
cafe
340c
5555
f658
01d6
cafe
381c
5555
f658
00ed
cafe
3c04
5555
f658
00e7
cafe
2014
5555
f65c
014f
cafe
240d
5555
f65c
0164
cafe
281d
5555
f65c
0163
cafe
2c05
5555
f65c
011c
cafe
3015
5555
f660
00cc
cafe
340e
5555
f660
01c7
cafe
381e
5555
f660
016f
cafe
3c06
5555
f660
0144
cafe
2016
5555
f664
0139
cafe
240f
5555
f664
0181
cafe
281f
5555
f664
01c6
cafe
2c07
5555
f664
012f
cafe
3017
5555
f668
0143
cafe
3408
5555
f668
017d
cafe
3818
5555
f668
01ba
cafe
3c00
5555
f668
00a2
cafe
2010
5555
f66c
00d6
cafe
2409
5555
f66c
01b0
cafe
2819
5555
f66c
015f
cafe
2c01
5555
f66c
0101
cafe
3011
5555
f670
00d9
cafe
340a
5555
f670
013f
cafe
381a
5555
f670
00de
cafe
3c02
5555
f670
010d
cafe
2012
5555
f674
00af
cafe
240b
5555
f674
0182
cafe
281b
5555
f674
01a0
cafe
2c03
5555
f674
0138
cafe
3013
5555
f678
00d1
cafe
340c
5555
f678
01d5
cafe
381c
5555
f678
-
00e6
cafe
3c04
5555
f678
00e3
cafe
2014
5555
f67c
014e
cafe
240d
5555
f67c
015c
cafe
281d
5555
f67c
015e
cafe
2c05
5555
f67c
0115
cafe
3015
5555
f680
00ca
cafe
340e
5555
f680
01c4
cafe
381e
5555
f680
0178
cafe
3c06
5555
f680
0144
cafe
2016
5555
f684
013c
cafe
240f
5555
f684
0185
cafe
281f
5555
f684
01cd
cafe
2c07
5555
f684
013f
cafe
3017
5555
f688
0145
cafe
3408
5555
f688
0173
cafe
3818
5555
f688
01bb
cafe
3c00
5555
f688
0099
cafe
2010
5555
f68c
00d9
cafe
2409
5555
f68c
01a9
cafe
2819
5555
f68c
0163
cafe
2c01
5555
f68c
010b
cafe
3011
5555
f690
00d5
cafe
340a
5555
f690
0146
cafe
381a
5555
f690
00e6
cafe
3c02
5555
f690
010b
cafe
2012
5555
f694
00ad
cafe
240b
5555
f694
0182
cafe
281b
5555
f694
0198
cafe
2c03
5555
f694
0136
cafe
3013
5555
f698
00cb
cafe
340c
5555
f698
01d7
cafe
381c
5555
f698
00dd
cafe
3c04
5555
f698
00e4
cafe
2014
5555
f69c
014a
cafe
240d
5555
f69c
0156
cafe
281d
5555
f69c
015f
cafe
2c05
5555
f69c
0115
cafe
3015
5555
f6a0
00d0
cafe
340e
5555
f6a0
01c3
cafe
381e
5555
f6a0
0174
cafe
3c06
5555
f6a0
0143
cafe
2016
5555
f6a4
0136
cafe
240f
5555
f6a4
0182
cafe
281f
5555
f6a4
01cc
cafe
2c07
5555
f6a4
0135
cafe
3017
5555
f6a8
0142
cafe
3408
5555
f6a8
017c
cafe
3818
5555
f6a8
01bd
cafe
3c00
5555
f6a8
00a0
cafe
2010
5555
f6ac
00d5
cafe
2409
5555
f6ac
01a6
-
cafe
2819
5555
f6ac
015c
cafe
2c01
5555
f6ac
0102
cafe
3011
5555
f6b0
00d0
cafe
340a
5555
f6b0
0141
cafe
381a
5555
f6b0
00e8
cafe
3c02
5555
f6b0
0105
cafe
2012
5555
f6b4
00a2
cafe
240b
5555
f6b4
018b
cafe
281b
5555
f6b4
019a
cafe
2c03
5555
f6b4
0138
cafe
3013
5555
f6b8
00d4
cafe
340c
5555
f6b8
01db
cafe
381c
5555
f6b8
00e2
cafe
3c04
5555
f6b8
00e7
cafe
2014
5555
f6bc
0157
cafe
240d
5555
f6bc
014f
cafe
281d
5555
f6bc
015c
cafe
2c05
5555
f6bc
011a
cafe
3015
5555
f6c0
00d5
cafe
340e
5555
f6c0
01c7
cafe
381e
5555
f6c0
0171
cafe
3c06
5555
f6c0
0138
cafe
2016
5555
f6c4
0131
cafe
240f
5555
f6c4
0183
cafe
281f
5555
f6c4
01cb
cafe
2c07
5555
f6c4
0132
cafe
3017
5555
f6c8
0142
cafe
3408
5555
f6c8
017a
cafe
3818
5555
f6c8
01bf
cafe
3c00
5555
f6c8
00aa
cafe
2010
5555
f6cc
00d6
cafe
2409
5555
f6cc
01ae
cafe
2819
5555
f6cc
0159
cafe
2c01
5555
f6cc
0101
cafe
3011
5555
f6d0
00cf
cafe
340a
5555
f6d0
013f
cafe
381a
5555
f6d0
00e4
cafe
3c02
5555
f6d0
0103
cafe
2012
5555
f6d4
00a1
cafe
240b
5555
f6d4
018d
cafe
281b
5555
f6d4
019e
cafe
2c03
5555
f6d4
013b
cafe
3013
5555
f6d8
00d9
cafe
340c
5555
f6d8
01dc
cafe
381c
5555
f6d8
00e0
cafe
3c04
5555
f6d8
00d7
cafe
2014
5555
f6dc
0150
cafe
240d
5555
f6dc
0153
cafe
281d
5555
f6dc
015b
cafe
2c05
5555
f6dc
011e
cafe
3015
5555
f6e0
00d6
cafe
-
340e
5555
f6e0
01c4
cafe
381e
5555
f6e0
0174
cafe
3c06
5555
f6e0
0132
cafe
2016
5555
f6e4
0133
cafe
240f
5555
f6e4
0186
cafe
281f
5555
f6e4
01c7
cafe
2c07
5555
f6e4
013b
cafe
3017
5555
f6e8
0149
cafe
3408
5555
f6e8
017d
cafe
3818
5555
f6e8
01bd
cafe
3c00
5555
f6e8
00a6
cafe
2010
5555
f6ec
00d4
cafe
2409
5555
f6ec
01b0
cafe
2819
5555
f6ec
0158
cafe
2c01
5555
f6ec
00fe
cafe
3011
5555
f6f0
00cb
cafe
340a
5555
f6f0
0143
cafe
381a
5555
f6f0
00e1
cafe
3c02
5555
f6f0
0102
cafe
2012
5555
f6f4
00a1
cafe
240b
5555
f6f4
0185
cafe
281b
5555
f6f4
01a6
cafe
2c03
5555
f6f4
0140
cafe
3013
5555
f6f8
00dc
cafe
340c
5555
f6f8
01e1
cafe
381c
5555
f6f8
00e7
cafe
3c04
5555
f6f8
00d7
cafe
2014
5555
f6fc
014f
cafe
240d
5555
f6fc
0151
cafe
281d
5555
f6fc
0161
cafe
2c05
5555
f6fc
011d
cafe
3015
5555
f700
00d6
cafe
340e
5555
f700
01cc
cafe
381e
5555
f700
0174
cafe
3c06
5555
f700
013a
cafe
2016
5555
f704
0130
cafe
240f
5555
f704
0180
cafe
281f
5555
f704
01c6
cafe
2c07
5555
f704
0130
cafe
3017
5555
f708
013d
cafe
3408
5555
f708
017c
cafe
3818
5555
f708
01c2
cafe
3c00
5555
f708
00a5
cafe
2010
5555
f70c
00d7
cafe
2409
5555
f70c
01b4
cafe
2819
5555
f70c
015f
cafe
2c01
5555
f70c
00ff
cafe
3011
5555
f710
00d7
cafe
340a
5555
f710
0144
cafe
381a
5555
f710
00dd
cafe
3c02
5555
f710
00fb
cafe
2012
-
5555
f714
00a1
cafe
240b
5555
f714
017f
cafe
281b
5555
f714
019b
cafe
2c03
5555
f714
013c
cafe
3013
5555
f718
00d7
cafe
340c
5555
f718
01e2
cafe
381c
5555
f718
00ee
cafe
3c04
5555
f718
00dc
cafe
2014
5555
f71c
0151
cafe
240d
5555
f71c
014f
cafe
281d
5555
f71c
0161
cafe
2c05
5555
f71c
0121
cafe
3015
5555
f720
00ca
cafe
340e
5555
f720
01bf
cafe
381e
5555
f720
0176
cafe
3c06
5555
f720
0139
cafe
2016
5555
f724
0138
cafe
240f
5555
f724
0185
cafe
281f
5555
f724
01c5
cafe
2c07
5555
f724
0138
cafe
3017
5555
f728
0144
cafe
3408
5555
f728
0176
cafe
3818
5555
f728
01c5
cafe
3c00
5555
f728
00a2
cafe
2010
5555
f72c
00ca
cafe
2409
5555
f72c
01b1
cafe
2819
5555
f72c
0161
cafe
2c01
5555
f72c
0100
cafe
3011
5555
f730
00d8
cafe
340a
5555
f730
013f
cafe
381a
5555
f730
00d7
cafe
3c02
5555
f730
00fc
cafe
2012
5555
f734
00a8
cafe
240b
5555
f734
0182
cafe
281b
5555
f734
019a
cafe
2c03
5555
f734
0139
cafe
3013
5555
f738
00d8
cafe
340c
5555
f738
01e5
cafe
381c
5555
f738
00f2
cafe
3c04
5555
f738
00da
cafe
2014
5555
f73c
014d
cafe
240d
5555
f73c
014e
cafe
281d
5555
f73c
0165
cafe
2c05
5555
f73c
0127
cafe
3015
5555
f740
00c7
cafe
340e
5555
f740
01b7
cafe
381e
5555
f740
0175
cafe
3c06
5555
f740
0135
cafe
2016
5555
f744
0133
cafe
240f
5555
f744
0182
cafe
281f
5555
f744
01c3
cafe
2c07
5555
-
f744
0134
cafe
3017
5555
f748
0141
cafe
3408
5555
f748
0181
cafe
3818
5555
f748
01c1
cafe
3c00
5555
f748
009e
cafe
2010
5555
f74c
00cd
cafe
2409
5555
f74c
01b3
cafe
2819
5555
f74c
0156
cafe
2c01
5555
f74c
00fc
cafe
3011
5555
f750
00d4
cafe
340a
5555
f750
013c
cafe
381a
5555
f750
00da
cafe
3c02
5555
f750
0106
cafe
2012
5555
f754
00a2
cafe
240b
5555
f754
0182
cafe
281b
5555
f754
0198
cafe
2c03
5555
f754
0136
cafe
3013
5555
f758
00e0
cafe
340c
5555
f758
01ea
cafe
381c
5555
f758
00e9
cafe
3c04
5555
f758
00da
cafe
2014
5555
f75c
0152
cafe
240d
5555
f75c
0153
cafe
281d
5555
f75c
016d
cafe
2c05
5555
f75c
011c
cafe
3015
5555
f760
00cc
cafe
340e
5555
f760
01b7
cafe
381e
5555
f760
016e
cafe
3c06
5555
f760
0134
cafe
2016
5555
f764
0140
cafe
240f
5555
f764
0174
cafe
281f
5555
f764
01cb
cafe
2c07
5555
f764
0136
cafe
3017
5555
f768
0141
cafe
3408
5555
f768
0178
cafe
3818
5555
f768
01c5
cafe
3c00
5555
f768
00a7
cafe
2010
5555
f76c
00c4
cafe
2409
5555
f76c
01b5
cafe
2819
5555
f76c
0158
cafe
2c01
5555
f76c
00fd
cafe
3011
5555
f770
00dc
cafe
340a
5555
f770
0133
cafe
381a
5555
f770
00da
cafe
3c02
5555
f770
0107
cafe
2012
5555
f774
009a
cafe
240b
5555
f774
0181
cafe
281b
5555
f774
0190
cafe
2c03
5555
f774
0135
cafe
3013
5555
f778
00e0
cafe
340c
5555
f778
01ed
cafe
381c
5555
f778
-
00f0
cafe
3c04
5555
f778
00de
cafe
2014
5555
f77c
0155
cafe
240d
5555
f77c
0153
cafe
281d
5555
f77c
0166
cafe
2c05
5555
f77c
0117
cafe
3015
5555
f780
00c5
cafe
340e
5555
f780
01bb
cafe
381e
5555
f780
0158
cafe
3c06
5555
f780
0135
cafe
2016
5555
f784
0142
cafe
240f
5555
f784
017d
cafe
281f
5555
f784
01d2
cafe
2c07
5555
f784
0139
cafe
3017
5555
f788
0143
cafe
3408
5555
f788
0174
cafe
3818
5555
f788
01c3
cafe
3c00
5555
f788
00a4
cafe
2010
5555
f78c
00cb
cafe
2409
5555
f78c
01b5
cafe
2819
5555
f78c
015a
cafe
2c01
5555
f78c
00fe
cafe
3011
5555
f790
00e0
cafe
340a
5555
f790
0136
cafe
381a
5555
f790
00d5
cafe
3c02
5555
f790
0107
cafe
2012
5555
f794
0096
cafe
240b
5555
f794
0183
cafe
281b
5555
f794
0196
cafe
2c03
5555
f794
0133
cafe
3013
5555
f798
00dd
cafe
340c
5555
f798
01e7
cafe
381c
5555
f798
00f1
cafe
3c04
5555
f798
00eb
cafe
2014
5555
f79c
0155
cafe
240d
5555
f79c
0157
cafe
281d
5555
f79c
0169
cafe
2c05
5555
f79c
0115
cafe
3015
5555
f7a0
00d3
cafe
340e
5555
f7a0
01c3
cafe
381e
5555
f7a0
015b
cafe
3c06
5555
f7a0
0131
cafe
2016
5555
f7a4
0141
cafe
240f
5555
f7a4
017e
cafe
281f
5555
f7a4
01cd
cafe
2c07
5555
f7a4
013a
cafe
3017
5555
f7a8
013e
cafe
3408
5555
f7a8
0176
cafe
3818
5555
f7a8
01be
cafe
3c00
5555
f7a8
009b
cafe
2010
5555
f7ac
00cc
cafe
2409
5555
f7ac
01b3
-
cafe
2819
5555
f7ac
0163
cafe
2c01
5555
f7ac
00fe
cafe
3011
5555
f7b0
00e6
cafe
340a
5555
f7b0
013e
cafe
381a
5555
f7b0
00ce
cafe
3c02
5555
f7b0
0101
cafe
2012
5555
f7b4
0095
cafe
240b
5555
f7b4
0180
cafe
281b
5555
f7b4
019b
cafe
2c03
5555
f7b4
0139
cafe
3013
5555
f7b8
00d5
cafe
340c
5555
f7b8
01dc
cafe
381c
5555
f7b8
00f0
cafe
3c04
5555
f7b8
00e9
cafe
2014
5555
f7bc
0158
cafe
240d
5555
f7bc
014f
cafe
281d
5555
f7bc
0160
cafe
2c05
5555
f7bc
0113
cafe
3015
5555
f7c0
00d7
cafe
340e
5555
f7c0
01c8
cafe
381e
5555
f7c0
0166
cafe
3c06
5555
f7c0
012d
cafe
2016
5555
f7c4
013c
cafe
240f
5555
f7c4
0179
cafe
281f
5555
f7c4
01cd
cafe
2c07
5555
f7c4
0130
cafe
3017
5555
f7c8
013c
cafe
3408
5555
f7c8
017a
cafe
3818
5555
f7c8
01be
cafe
3c00
5555
f7c8
0092
cafe
2010
5555
f7cc
00cd
cafe
2409
5555
f7cc
01b1
cafe
2819
5555
f7cc
016b
cafe
2c01
5555
f7cc
0100
cafe
3011
5555
f7d0
00df
cafe
340a
5555
f7d0
0141
cafe
381a
5555
f7d0
00cd
cafe
3c02
5555
f7d0
0100
cafe
2012
5555
f7d4
0097
cafe
240b
5555
f7d4
018a
cafe
281b
5555
f7d4
019b
cafe
2c03
5555
f7d4
0140
cafe
3013
5555
f7d8
00d1
cafe
340c
5555
f7d8
01d5
cafe
381c
5555
f7d8
00f8
cafe
3c04
5555
f7d8
00ec
cafe
2014
5555
f7dc
0152
cafe
240d
5555
f7dc
0152
cafe
281d
5555
f7dc
0161
cafe
2c05
5555
f7dc
0116
cafe
3015
5555
f7e0
00d2
cafe
-
340e
5555
f7e0
01c1
cafe
381e
5555
f7e0
0164
cafe
3c06
5555
f7e0
0139
cafe
2016
5555
f7e4
0139
cafe
240f
5555
f7e4
017f
cafe
281f
5555
f7e4
01c4
cafe
2c07
5555
f7e4
012d
cafe
3017
5555
f7e8
0141
cafe
3408
5555
f7e8
0177
cafe
3818
5555
f7e8
01b2
cafe
3c00
5555
f7e8
0097
cafe
2010
5555
f7ec
00d7
cafe
2409
5555
f7ec
01b5
cafe
2819
5555
f7ec
016b
cafe
2c01
5555
f7ec
00f8
cafe
3011
5555
f7f0
00d7
cafe
340a
5555
f7f0
0139
cafe
381a
5555
f7f0
00d6
cafe
3c02
5555
f7f0
0104
cafe
2012
5555
f7f4
0097
cafe
240b
5555
f7f4
0187
cafe
281b
5555
f7f4
019f
cafe
2c03
5555
f7f4
0142
cafe
3013
5555
f7f8
00d0
cafe
340c
5555
f7f8
01db
cafe
381c
5555
f7f8
00f9
cafe
3c04
5555
f7f8
00ed
cafe
2014
5555
f7fc
014e
cafe
240d
5555
f7fc
0155
cafe
281d
5555
f7fc
0159
cafe
2c05
5555
f7fc
0115
cafe
3015
5555
f800
00d1
cafe
340e
5555
f800
01cc
cafe
381e
5555
f800
0163
cafe
3c06
5555
f800
0134
cafe
2016
5555
f804
013f
cafe
240f
5555
f804
0180
cafe
281f
5555
f804
01c7
cafe
2c07
5555
f804
0138
cafe
3017
5555
f808
0149
cafe
3408
5555
f808
017e
cafe
3818
5555
f808
01b7
cafe
3c00
5555
f808
009a
cafe
2010
5555
f80c
00d3
cafe
2409
5555
f80c
01b7
cafe
2819
5555
f80c
0165
cafe
2c01
5555
f80c
00ef
cafe
3011
5555
f810
00dd
cafe
340a
5555
f810
013a
cafe
381a
5555
f810
00da
cafe
3c02
5555
f810
0100
cafe
2012
-
5555
f814
009c
cafe
240b
5555
f814
018c
cafe
281b
5555
f814
019e
cafe
2c03
5555
f814
0141
cafe
3013
5555
f818
00d2
cafe
340c
5555
f818
01e1
cafe
381c
5555
f818
00ff
cafe
3c04
5555
f818
00e1
cafe
2014
5555
f81c
014b
cafe
240d
5555
f81c
014d
cafe
281d
5555
f81c
0157
cafe
2c05
5555
f81c
0118
cafe
3015
5555
f820
00cb
cafe
340e
5555
f820
01c5
cafe
381e
5555
f820
0161
cafe
3c06
5555
f820
0131
cafe
2016
5555
f824
013e
cafe
240f
5555
f824
0176
cafe
281f
5555
f824
01c2
cafe
2c07
5555
f824
0137
cafe
3017
5555
f828
0140
cafe
3408
5555
f828
0176
cafe
3818
5555
f828
01ad
cafe
3c00
5555
f828
009f
cafe
2010
5555
f82c
00cb
cafe
2409
5555
f82c
01b9
cafe
2819
5555
f82c
0166
cafe
2c01
5555
f82c
00f5
cafe
3011
5555
f830
00e0
cafe
340a
5555
f830
0134
cafe
381a
5555
f830
00db
cafe
3c02
5555
f830
0105
cafe
2012
5555
f834
00a5
cafe
240b
5555
f834
0187
cafe
281b
5555
f834
019c
cafe
2c03
5555
f834
013c
cafe
3013
5555
f838
00cf
cafe
340c
5555
f838
01e0
cafe
381c
5555
f838
00fa
cafe
3c04
5555
f838
00e6
cafe
2014
5555
f83c
0152
cafe
240d
5555
f83c
0150
cafe
281d
5555
f83c
015a
cafe
2c05
5555
f83c
0113
cafe
3015
5555
f840
00d0
cafe
340e
5555
f840
01bd
cafe
381e
5555
f840
016a
cafe
3c06
5555
f840
0133
cafe
2016
5555
f844
0136
cafe
240f
5555
f844
0178
cafe
281f
5555
f844
01cb
cafe
2c07
5555
-
f844
013d
cafe
3017
5555
f848
0145
cafe
3408
5555
f848
0177
cafe
3818
5555
f848
01b6
cafe
3c00
5555
f848
009a
cafe
2010
5555
f84c
00d7
cafe
2409
5555
f84c
01b3
cafe
2819
5555
f84c
0165
cafe
2c01
5555
f84c
00f8
cafe
3011
5555
f850
00e6
cafe
340a
5555
f850
0138
cafe
381a
5555
f850
00dd
cafe
3c02
5555
f850
010d
cafe
2012
5555
f854
00a4
cafe
240b
5555
f854
018c
cafe
281b
5555
f854
019b
cafe
2c03
5555
f854
013a
cafe
3013
5555
f858
00cb
cafe
340c
5555
f858
01dc
cafe
381c
5555
f858
00f6
cafe
3c04
5555
f858
00e2
cafe
2014
5555
f85c
0151
cafe
240d
5555
f85c
0150
cafe
281d
5555
f85c
0156
cafe
2c05
5555
f85c
0116
cafe
3015
5555
f860
00cb
cafe
340e
5555
f860
01c1
cafe
381e
5555
f860
0163
cafe
3c06
5555
f860
012f
cafe
2016
5555
f864
0139
cafe
240f
5555
f864
017d
cafe
281f
5555
f864
01cb
cafe
2c07
5555
f864
0144
cafe
3017
5555
f868
0147
cafe
3408
5555
f868
0176
cafe
3818
5555
f868
01b9
cafe
3c00
5555
f868
008f
cafe
2010
5555
f86c
00d1
cafe
2409
5555
f86c
01b0
cafe
2819
5555
f86c
0164
cafe
2c01
5555
f86c
00f8
cafe
3011
5555
f870
00e3
cafe
340a
5555
f870
0136
cafe
381a
5555
f870
00e0
cafe
3c02
5555
f870
010f
cafe
2012
5555
f874
00a5
cafe
240b
5555
f874
0185
cafe
281b
5555
f874
019d
cafe
2c03
5555
f874
012c
cafe
3013
5555
f878
00c9
cafe
340c
5555
f878
01de
cafe
381c
5555
f878
-
00f1
cafe
3c04
5555
f878
00d6
cafe
2014
5555
f87c
014f
cafe
240d
5555
f87c
0158
cafe
281d
5555
f87c
015b
cafe
2c05
5555
f87c
0116
cafe
3015
5555
f880
00cb
cafe
340e
5555
f880
01bd
cafe
381e
5555
f880
015f
cafe
3c06
5555
f880
0135
cafe
2016
5555
f884
0135
cafe
240f
5555
f884
0181
cafe
281f
5555
f884
01cc
cafe
2c07
5555
f884
0142
cafe
3017
5555
f888
0145
cafe
3408
5555
f888
0176
cafe
3818
5555
f888
01b8
cafe
3c00
5555
f888
009c
cafe
2010
5555
f88c
00d3
cafe
2409
5555
f88c
01b5
cafe
2819
5555
f88c
0166
cafe
2c01
5555
f88c
0103
cafe
3011
5555
f890
00e2
cafe
340a
5555
f890
0136
cafe
381a
5555
f890
00e1
cafe
3c02
5555
f890
010e
cafe
2012
5555
f894
00a4
cafe
240b
5555
f894
0183
cafe
281b
5555
f894
019d
cafe
2c03
5555
f894
0134
cafe
3013
5555
f898
00cf
cafe
340c
5555
f898
01db
cafe
381c
5555
f898
00ed
cafe
3c04
5555
f898
00db
cafe
2014
5555
f89c
0152
cafe
240d
5555
f89c
0152
cafe
281d
5555
f89c
015b
cafe
2c05
5555
f89c
0116
cafe
3015
5555
f8a0
00c6
cafe
340e
5555
f8a0
01c4
cafe
381e
5555
f8a0
0164
cafe
3c06
5555
f8a0
0138
cafe
2016
5555
f8a4
0140
cafe
240f
5555
f8a4
017e
cafe
281f
5555
f8a4
01d6
cafe
2c07
5555
f8a4
0141
cafe
3017
5555
f8a8
0145
cafe
3408
5555
f8a8
0176
cafe
3818
5555
f8a8
01b5
cafe
3c00
5555
f8a8
0098
cafe
2010
5555
f8ac
00d0
cafe
2409
5555
f8ac
01b0
-
cafe
2819
5555
f8ac
015d
cafe
2c01
5555
f8ac
00fb
cafe
3011
5555
f8b0
00e0
cafe
340a
5555
f8b0
0146
cafe
381a
5555
f8b0
00de
cafe
3c02
5555
f8b0
010d
cafe
2012
5555
f8b4
0097
cafe
240b
5555
f8b4
0182
cafe
281b
5555
f8b4
019c
cafe
2c03
5555
f8b4
0138
cafe
3013
5555
f8b8
00d9
cafe
340c
5555
f8b8
01d7
cafe
381c
5555
f8b8
00f7
cafe
3c04
5555
f8b8
00e3
cafe
2014
5555
f8bc
015c
cafe
240d
5555
f8bc
014f
cafe
281d
5555
f8bc
0157
cafe
2c05
5555
f8bc
0112
cafe
3015
5555
f8c0
00ce
cafe
340e
5555
f8c0
01c6
cafe
381e
5555
f8c0
0168
cafe
3c06
5555
f8c0
013c
cafe
2016
5555
f8c4
013b
cafe
240f
5555
f8c4
0184
cafe
281f
5555
f8c4
01cd
cafe
2c07
5555
f8c4
0140
cafe
3017
5555
f8c8
0145
cafe
3408
5555
f8c8
0173
cafe
3818
5555
f8c8
01bd
cafe
3c00
5555
f8c8
009a
cafe
2010
5555
f8cc
00cb
cafe
2409
5555
f8cc
01af
cafe
2819
5555
f8cc
0162
cafe
2c01
5555
f8cc
00f4
cafe
3011
5555
f8d0
00e0
cafe
340a
5555
f8d0
0142
cafe
381a
5555
f8d0
00e4
cafe
3c02
5555
f8d0
0113
cafe
2012
5555
f8d4
00a2
cafe
240b
5555
f8d4
0189
cafe
281b
5555
f8d4
019d
cafe
2c03
5555
f8d4
013e
cafe
3013
5555
f8d8
00d7
cafe
340c
5555
f8d8
01db
cafe
381c
5555
f8d8
00f4
cafe
3c04
5555
f8d8
00de
cafe
2014
5555
f8dc
014e
cafe
240d
5555
f8dc
0152
cafe
281d
5555
f8dc
0156
cafe
2c05
5555
f8dc
0115
cafe
3015
5555
f8e0
00ce
cafe
-
