3405
0000
0000
01b5
cafe
3805
0000
0000
01b6
cafe
3c05
0000
0000
01ba
cafe
2005
0000
0000
01b7
cafe
2405
0000
0000
01bb
cafe
2805
0000
0000
01bc
cafe
2c05
0000
0000
01bd
cafe
3005
0000
0000
01b8
cafe
3405
0000
0000
01b7
cafe
3805
0000
0000
01b8
cafe
3c05
0000
0000
01ba
cafe
2005
0000
0000
01b6
cafe
2405
0000
0000
01b6
cafe
2805
0000
0000
01ba
cafe
2c05
0000
0000
01b4
cafe
3005
0000
0000
01bc
cafe
3405
0000
0000
01b7
cafe
3805
0000
0000
01b7
cafe
3c05
0000
0000
01b8
cafe
2005
0000
0000
01b6
cafe
2405
0000
0000
01b5
cafe
2805
0000
0000
01b7
cafe
2c05
0000
0000
01b9
cafe
3005
0000
0000
01b5
cafe
3405
0000
0000
01b9
cafe
3805
0000
0000
01b8
cafe
3c05
0000
0000
01b4
cafe
2005
0000
0000
01b5
cafe
2405
0000
0000
01b4
cafe
2805
0000
0000
01b4
cafe
2c05
0000
0000
01b2
cafe
3005
0000
0000
01b2
cafe
3405
0000
0000
01b3
cafe
3805
0000
0000
01b8
cafe
3c05
0000
0000
01b7
cafe
2005
0000
0000
01b7
cafe
2405
0000
0000
01bb
cafe
2805
0000
0000
01b7
cafe
2c05
0000
0000
01b4
cafe
3005
0000
0000
01b4
cafe
3405
0000
0000
01b4
cafe
3805
0000
0000
01b5
cafe
3c05
0000
0000
01b2
cafe
2005
0000
0000
01b5
cafe
2405
0000
0000
01b8
cafe
2805
0000
0000
01ba
cafe
2c05
0000
0000
01ba
cafe
3005
0000
0000
01bb
cafe
3405
0000
0000
01bb
cafe
3805
0000
0000
01bc
cafe
3c05
0000
0000
01bc
cafe
2005
-
0000
0000
01bb
cafe
2405
0000
0000
01bd
cafe
2805
0000
0000
01be
cafe
2c05
0000
0000
01bb
cafe
3005
0000
0000
01b4
cafe
3405
0000
0000
01b4
cafe
3805
0000
0000
01b4
cafe
3c05
0000
0000
01af
cafe
2005
0000
0000
01b2
cafe
2405
0000
0000
01b1
cafe
2805
0000
0000
01b2
cafe
2c05
0000
0000
01b1
cafe
3005
0000
0000
01af
cafe
3405
0000
0000
01b1
cafe
3805
0000
0000
01b4
cafe
3c05
0000
0000
01af
cafe
2005
0000
0000
01b0
cafe
2405
0000
0000
01b3
cafe
2805
0000
0000
01b5
cafe
2c05
0000
0000
01b5
cafe
3005
0000
0000
01b7
cafe
3405
0000
0000
01b6
cafe
3805
0000
0000
01b4
cafe
3c05
0000
0000
01b3
cafe
2005
0000
0000
01b4
cafe
2405
0000
0000
01b2
cafe
2805
0000
0000
01b4
cafe
2c05
0000
0000
01b2
cafe
3005
0000
0000
01b4
cafe
3405
0000
0000
01b1
cafe
3805
0000
0000
01b2
cafe
3c05
0000
0000
01b3
cafe
2005
0000
0000
01b7
cafe
2405
0000
0000
01b8
cafe
2805
0000
0000
01b8
cafe
2c05
0000
0000
01b7
cafe
3005
0000
0000
01b6
cafe
3405
0000
0000
01b4
cafe
3805
0000
0000
01b2
cafe
3c05
0000
0000
01b3
cafe
2005
0000
0000
01b5
cafe
2405
0000
0000
01b5
cafe
2805
0000
0000
01b6
cafe
2c05
0000
0000
01bb
cafe
3005
0000
0000
01b9
cafe
3405
0000
0000
01bb
cafe
3805
0000
0000
01bd
cafe
3c05
0000
0000
01bc
cafe
2005
0000
0000
01ba
cafe
2405
0000
0000
01ba
cafe
2805
0000
0000
01b9
cafe
2c05
0000
-
0000
01bd
cafe
3005
0000
0000
01be
cafe
3405
0000
0000
01ba
cafe
3805
0000
0000
01b7
cafe
3c05
0000
0000
01b5
cafe
2005
0000
0000
01b8
cafe
2405
0000
0000
01bc
cafe
2805
0000
0000
01bb
cafe
2c05
0000
0000
01bc
cafe
3005
0000
0000
01ba
cafe
3405
0000
0000
01b5
cafe
3805
0000
0000
01b6
cafe
3c05
0000
0000
01b3
cafe
2005
0000
0000
01b3
cafe
2405
0000
0000
01ae
cafe
2805
0000
0000
01af
cafe
2c05
0000
0000
01b7
cafe
3005
0000
0000
01b4
cafe
3405
0000
0000
01b4
cafe
3805
0000
0000
01b2
cafe
3c05
0000
0000
01b6
cafe
2005
0000
0000
01bc
cafe
2405
0000
0000
01be
cafe
2805
0000
0000
01bf
cafe
2c05
0000
0000
01bd
cafe
3005
0000
0000
01c2
cafe
3405
0000
0000
01c1
cafe
3805
0000
0000
01be
cafe
3c05
0000
0000
01bc
cafe
2005
0000
0000
01bf
cafe
2405
0000
0000
01bf
cafe
2805
0000
0000
01b9
cafe
2c05
0000
0000
01b9
cafe
3005
0000
0000
01bb
cafe
3405
0000
0000
01bc
cafe
3805
0000
0000
01b9
cafe
3c05
0000
0000
01b9
cafe
2005
0000
0000
01bb
cafe
2405
0000
0000
01b9
cafe
2805
0000
0000
01bd
cafe
2c05
0000
0000
01ba
cafe
3005
0000
0000
01bc
cafe
3405
0000
0000
01b8
cafe
3805
0000
0000
01bb
cafe
3c05
0000
0000
01b7
cafe
2005
0000
0000
01b8
cafe
2405
0000
0000
01b5
cafe
2805
0000
0000
01b6
cafe
2c05
0000
0000
01b6
cafe
3005
0000
0000
01b8
cafe
3405
0000
0000
01ba
cafe
3805
0000
0000
-
01ba
cafe
3c05
0000
0000
01bb
cafe
2005
0000
0000
01bb
cafe
2405
0000
0000
01bb
cafe
2805
0000
0000
01b8
cafe
2c05
0000
0000
01b5
cafe
3005
0000
0000
01b6
cafe
3405
0000
0000
01b5
cafe
3805
0000
0000
01b8
cafe
3c05
0000
0000
01b9
cafe
2005
0000
0000
01b8
cafe
2405
0000
0000
01b7
cafe
2805
0000
0000
01b6
cafe
2c05
0000
0000
01b3
cafe
3005
0000
0000
01b2
cafe
3405
0000
0000
01b5
cafe
3805
0000
0000
01b1
cafe
3c05
0000
0000
01af
cafe
2005
0000
0000
01af
cafe
2405
0000
0000
01af
cafe
2805
0000
0000
01b2
cafe
2c05
0000
0000
01b5
cafe
3005
0000
0000
01b4
cafe
3405
0000
0000
01b2
cafe
3805
0000
0000
01af
cafe
3c05
0000
0000
01ae
cafe
2005
0000
0000
01ae
cafe
2405
0000
0000
01aa
cafe
2805
0000
0000
01a9
cafe
2c05
0000
0000
01ae
cafe
3005
0000
0000
01af
cafe
3405
0000
0000
01af
cafe
3805
0000
0000
01ab
cafe
3c05
0000
0000
01af
cafe
2005
0000
0000
01b0
cafe
2405
0000
0000
01b4
cafe
2805
0000
0000
01b5
cafe
2c05
0000
0000
01b2
cafe
3005
0000
0000
01b1
cafe
3405
0000
0000
01b4
cafe
3805
0000
0000
01b0
cafe
3c05
0000
0000
01ac
cafe
2005
0000
0000
01b0
cafe
2405
0000
0000
01b0
cafe
2805
0000
0000
01ae
cafe
2c05
0000
0000
01ae
cafe
3005
0000
0000
01ab
cafe
3405
0000
0000
01ae
cafe
3805
0000
0000
01b1
cafe
3c05
0000
0000
01b2
cafe
2005
0000
0000
01ae
cafe
2405
0000
0000
01b0
-
cafe
2805
0000
0000
01b2
cafe
2c05
0000
0000
01b4
cafe
3005
0000
0000
01b2
cafe
3405
0000
0000
01ad
cafe
3805
0000
0000
01b5
cafe
3c05
0000
0000
01b4
cafe
2005
0000
0000
01b7
cafe
2405
0000
0000
01b7
cafe
2805
0000
0000
01b5
cafe
2c05
0000
0000
01b7
cafe
3005
0000
0000
01bb
cafe
3405
0000
0000
01b8
cafe
3805
0000
0000
01b7
cafe
3c05
0000
0000
01b9
cafe
2005
0000
0000
01b9
cafe
2405
0000
0000
01b9
cafe
2805
0000
0000
01b6
cafe
2c05
0000
0000
01ba
cafe
3005
0000
0000
01b7
cafe
3405
0000
0000
01b2
cafe
3805
0000
0000
01b7
cafe
3c05
0000
0000
01b8
cafe
2005
0000
0000
01b8
cafe
2405
0000
0000
01b6
cafe
2805
0000
0000
01b9
cafe
2c05
0000
0000
01bc
cafe
3005
0000
0000
01bc
cafe
3405
0000
0000
01b9
cafe
3805
0000
0000
01b7
cafe
3c05
0000
0000
01b3
cafe
2005
0000
0000
01b7
cafe
2405
0000
0000
01b1
cafe
2805
0000
0000
01b3
cafe
2c05
0000
0000
01b5
cafe
3005
0000
0000
01b7
cafe
3405
0000
0000
01b8
cafe
3805
0000
0000
01b8
cafe
3c05
0000
0000
01b4
cafe
2005
0000
0000
01b4
cafe
2405
0000
0000
01b1
cafe
2805
0000
0000
01b9
cafe
2c05
0000
0000
01b6
cafe
3005
0000
0000
01b4
cafe
3405
0000
0000
01b7
cafe
3805
0000
0000
01bc
cafe
3c05
0000
0000
01ba
cafe
2005
0000
0000
01bc
cafe
2405
0000
0000
01b6
cafe
2805
0000
0000
01b7
cafe
2c05
0000
0000
01b6
cafe
3005
0000
0000
01ba
cafe
-
3405
0000
0000
01b9
cafe
3805
0000
0000
01b8
cafe
3c05
0000
0000
01b6
cafe
2005
0000
0000
01b7
cafe
2405
0000
0000
01b6
cafe
2805
0000
0000
01b2
cafe
2c05
0000
0000
01b2
cafe
3005
0000
0000
01b0
cafe
3405
0000
0000
01ad
cafe
3805
0000
0000
01b3
cafe
3c05
0000
0000
01b6
cafe
2005
0000
0000
01b1
cafe
2405
0000
0000
01b1
cafe
2805
0000
0000
01ba
cafe
2c05
0000
0000
01bb
cafe
3005
0000
0000
01b5
cafe
3405
0000
0000
01b6
cafe
3805
0000
0000
01b8
cafe
3c05
0000
0000
01b9
cafe
2005
0000
0000
01b3
cafe
2405
0000
0000
01bb
cafe
2805
0000
0000
01b7
cafe
2c05
0000
0000
01b7
cafe
3005
0000
0000
01b5
cafe
3405
0000
0000
01b3
cafe
3805
0000
0000
01b3
cafe
3c05
0000
0000
01b6
cafe
2005
0000
0000
01b5
cafe
2405
0000
0000
01b5
cafe
2805
0000
0000
01bb
cafe
2c05
0000
0000
01b5
cafe
3005
0000
0000
01b3
cafe
3405
0000
0000
01b4
cafe
3805
0000
0000
01b1
cafe
3c05
0000
0000
01b6
cafe
2005
0000
0000
01b4
cafe
2405
0000
0000
01b8
cafe
2805
0000
0000
01b6
cafe
2c05
0000
0000
01b7
cafe
3005
0000
0000
01b3
cafe
3405
0000
0000
01b3
cafe
3805
0000
0000
01b1
cafe
3c05
0000
0000
01ad
cafe
2005
0000
0000
01ac
cafe
2405
0000
0000
01b1
cafe
2805
0000
0000
01af
cafe
2c05
0000
0000
01b0
cafe
3005
0000
0000
01b2
cafe
3405
0000
0000
01ad
cafe
3805
0000
0000
01ad
cafe
3c05
0000
0000
01b2
cafe
2005
-
0000
0000
01b7
cafe
2405
0000
0000
01b2
cafe
2805
0000
0000
01b1
cafe
2c05
0000
0000
01b0
cafe
3005
0000
0000
01b0
cafe
3405
0000
0000
01b0
cafe
3805
0000
0000
01b1
cafe
3c05
0000
0000
01b2
cafe
2005
0000
0000
01b2
cafe
2405
0000
0000
01b1
cafe
2805
0000
0000
01b3
cafe
2c05
0000
0000
01b4
cafe
3005
0000
0000
01b2
cafe
3405
0000
0000
01b1
cafe
3805
0000
0000
01b2
cafe
3c05
0000
0000
01b2
cafe
2005
0000
0000
01af
cafe
2405
0000
0000
01b2
cafe
2805
0000
0000
01b7
cafe
2c05
0000
0000
01b4
cafe
3005
0000
0000
01b4
cafe
3405
0000
0000
01b3
cafe
3805
0000
0000
01b3
cafe
3c05
0000
0000
01b0
cafe
2005
0000
0000
01b0
cafe
2405
0000
0000
01b1
cafe
2805
0000
0000
01b1
cafe
2c05
0000
0000
01b1
cafe
3005
0000
0000
01b1
cafe
3405
0000
0000
01b0
cafe
3805
0000
0000
01b4
cafe
3c05
0000
0000
01b6
cafe
2005
0000
0000
01b3
cafe
2405
0000
0000
01b5
cafe
2805
0000
0000
01b5
cafe
2c05
0000
0000
01b6
cafe
3005
0000
0000
01b2
cafe
3405
0000
0000
01b3
cafe
3805
0000
0000
01b4
cafe
3c05
0000
0000
01b1
cafe
2005
0000
0000
01ab
cafe
2405
0000
0000
01b3
cafe
2805
0000
0000
01b2
cafe
2c05
0000
0000
01b4
cafe
3005
0000
0000
01b4
cafe
3405
0000
0000
01b7
cafe
3805
0000
0000
01b8
cafe
3c05
0000
0000
01b7
cafe
2005
0000
0000
01b6
cafe
2405
0000
0000
01b4
cafe
2805
0000
0000
01b8
cafe
2c05
0000
-
0000
01b6
cafe
3005
0000
0000
01bb
cafe
3405
0000
0000
01c2
cafe
3805
0000
0000
01bb
cafe
3c05
0000
0000
01bb
cafe
2005
0000
0000
01bd
cafe
2405
0000
0000
01ba
cafe
2805
0000
0000
01b7
cafe
2c05
0000
0000
01bb
cafe
3005
0000
0000
01b9
cafe
3405
0000
0000
01b9
cafe
3805
0000
0000
01b6
cafe
3c05
0000
0000
01be
cafe
2005
0000
0000
01bc
cafe
2405
0000
0000
01ba
cafe
2805
0000
0000
01ba
cafe
2c05
0000
0000
01be
cafe
3005
0000
0000
01be
cafe
3405
0000
0000
01b9
cafe
3805
0000
0000
01bd
cafe
3c05
0000
0000
01ba
cafe
2005
0000
0000
01ba
cafe
2405
0000
0000
01b8
cafe
2805
0000
0000
01b6
cafe
2c05
0000
0000
01b6
cafe
3005
0000
0000
01b2
cafe
3405
0000
0000
01b3
cafe
3805
0000
0000
01b7
cafe
3c05
0000
0000
01b8
cafe
2005
0000
0000
01b5
cafe
2405
0000
0000
01b7
cafe
2805
0000
0000
01b6
cafe
2c05
0000
0000
01b9
cafe
3005
0000
0000
01bb
cafe
3405
0000
0000
01b9
cafe
3805
0000
0000
01bb
cafe
3c05
0000
0000
01bc
cafe
2005
0000
0000
01bc
cafe
2405
0000
0000
01be
cafe
2805
0000
0000
01bc
cafe
2c05
0000
0000
01be
cafe
3005
0000
0000
01c1
cafe
3405
0000
0000
01bf
cafe
3805
0000
0000
01c0
cafe
3c05
0000
0000
01c2
cafe
2005
0000
0000
01be
cafe
2405
0000
0000
01bd
cafe
2805
0000
0000
01ba
cafe
2c05
0000
0000
01b6
cafe
3005
0000
0000
01ba
cafe
3405
0000
0000
01b9
cafe
3805
0000
0000
-
01b6
cafe
3c05
0000
0000
01ba
cafe
2005
0000
0000
01b5
cafe
2405
0000
0000
01b3
cafe
2805
0000
0000
01b2
cafe
2c05
0000
0000
01b2
cafe
3005
0000
0000
01ae
cafe
3405
0000
0000
01ab
cafe
3805
0000
0000
01aa
cafe
3c05
0000
0000
01ae
cafe
2005
0000
0000
01b0
cafe
2405
0000
0000
01af
cafe
2805
0000
0000
01af
cafe
2c05
0000
0000
01b5
cafe
3005
0000
0000
01b4
cafe
3405
0000
0000
01bb
cafe
3805
0000
0000
01ba
cafe
3c05
0000
0000
01b8
cafe
2005
0000
0000
01b6
cafe
2405
0000
0000
01b7
cafe
2805
0000
0000
01b4
cafe
2c05
0000
0000
01b4
cafe
3005
0000
0000
01b1
cafe
3405
0000
0000
01b3
cafe
3805
0000
0000
01b5
cafe
3c05
0000
0000
01b6
cafe
2005
0000
0000
01b3
cafe
2405
0000
0000
01b1
cafe
2805
0000
0000
01b3
cafe
2c05
0000
0000
01b7
cafe
3005
0000
0000
01b5
cafe
3405
0000
0000
01b4
cafe
3805
0000
0000
01b1
cafe
3c05
0000
0000
01b0
cafe
2005
0000
0000
01b1
cafe
2405
0000
0000
01af
cafe
2805
0000
0000
01b2
cafe
2c05
0000
0000
01b0
cafe
3005
0000
0000
01b3
cafe
3405
0000
0000
01b2
cafe
3805
0000
0000
01b2
cafe
3c05
0000
0000
01b1
cafe
2005
0000
0000
01b3
cafe
2405
0000
0000
01b5
cafe
2805
0000
0000
01b1
cafe
2c05
0000
0000
01b1
cafe
3005
0000
0000
01af
cafe
3405
0000
0000
01b3
cafe
3805
0000
0000
01b8
cafe
3c05
0000
0000
01b9
cafe
2005
0000
0000
01be
cafe
2405
0000
0000
01bd
-
cafe
2805
0000
0000
01b7
cafe
2c05
0000
0000
01bd
cafe
3005
0000
0000
01b8
cafe
3405
0000
0000
01b5
cafe
3805
0000
0000
01bb
cafe
3c05
0000
0000
01bc
cafe
2005
0000
0000
01b9
cafe
2405
0000
0000
01ba
cafe
2805
0000
0000
01b5
cafe
2c05
0000
0000
01b6
cafe
3005
0000
0000
01b4
cafe
3405
0000
0000
01b6
cafe
3805
0000
0000
01b1
cafe
3c05
0000
0000
01b0
cafe
2005
0000
0000
01ae
cafe
2405
0000
0000
01b1
cafe
2805
0000
0000
01b4
cafe
2c05
0000
0000
01b7
cafe
3005
0000
0000
01b9
cafe
3405
0000
0000
01b8
cafe
3805
0000
0000
01b4
cafe
3c05
0000
0000
01b2
cafe
2005
0000
0000
01ac
cafe
2405
0000
0000
01ac
cafe
2805
0000
0000
01ab
cafe
2c05
0000
0000
01b2
cafe
3005
0000
0000
01b2
cafe
3405
0000
0000
01b6
cafe
3805
0000
0000
01b3
cafe
3c05
0000
0000
01b4
cafe
2005
0000
0000
01b1
cafe
2405
0000
0000
01b4
cafe
2805
0000
0000
01b8
cafe
2c05
0000
0000
01b7
cafe
3005
0000
0000
01b6
cafe
3405
0000
0000
01b6
cafe
3805
0000
0000
01b5
cafe
3c05
0000
0000
01b5
cafe
2005
0000
0000
01b8
cafe
2405
0000
0000
01b8
cafe
2805
0000
0000
01b3
cafe
2c05
0000
0000
01b2
cafe
3005
0000
0000
01b5
cafe
3405
0000
0000
01af
cafe
3805
0000
0000
01b1
cafe
3c05
0000
0000
01b3
cafe
2005
0000
0000
01b2
cafe
2405
0000
0000
01b3
cafe
2805
0000
0000
01b4
cafe
2c05
0000
0000
01b2
cafe
3005
0000
0000
01b2
cafe
-
3405
0000
0000
01b0
cafe
3805
0000
0000
01b0
cafe
3c05
0000
0000
01b4
cafe
2005
0000
0000
01b5
cafe
2405
0000
0000
01b8
cafe
2805
0000
0000
01bb
cafe
2c05
0000
0000
01b8
cafe
3005
0000
0000
01bb
cafe
3405
0000
0000
01bb
cafe
3805
0000
0000
01bb
cafe
3c05
0000
0000
01bd
cafe
2005
0000
0000
01bc
cafe
2405
0000
0000
01bc
cafe
2805
0000
0000
01bd
cafe
2c05
0000
0000
01bc
cafe
3005
0000
0000
01bc
cafe
3405
0000
0000
01ba
cafe
3805
0000
0000
01b9
cafe
3c05
0000
0000
01b7
cafe
2005
0000
0000
01b4
cafe
2405
0000
0000
01b5
cafe
2805
0000
0000
01bb
cafe
2c05
0000
0000
01b6
cafe
3005
0000
0000
01b4
cafe
3405
0000
0000
01b9
cafe
3805
0000
0000
01ba
cafe
3c05
0000
0000
01bd
cafe
2005
0000
0000
01ba
cafe
2405
0000
0000
01b9
cafe
2805
0000
0000
01b8
cafe
2c05
0000
0000
01b8
cafe
3005
0000
0000
01bc
cafe
3405
0000
0000
01b8
cafe
3805
0000
0000
01b6
cafe
3c05
0000
0000
01b3
cafe
2005
0000
0000
01b6
cafe
2405
0000
0000
01b7
cafe
2805
0000
0000
01b3
cafe
2c05
0000
0000
01b6
cafe
3005
0000
0000
01b6
cafe
3405
0000
0000
01ba
cafe
3805
0000
0000
01b8
cafe
3c05
0000
0000
01b4
cafe
2005
0000
0000
01b2
cafe
2405
0000
0000
01b5
cafe
2805
0000
0000
01b7
cafe
2c05
0000
0000
01b6
cafe
3005
0000
0000
01b5
cafe
3405
0000
0000
01b7
cafe
3805
0000
0000
01b9
cafe
3c05
0000
0000
01b7
cafe
2005
-
0000
0000
01b9
cafe
2405
0000
0000
01b8
cafe
2805
0000
0000
01b9
cafe
2c05
0000
0000
01ba
cafe
3005
0000
0000
01b6
cafe
3405
0000
0000
01b6
cafe
3805
0000
0000
01b8
cafe
3c05
0000
0000
01b6
cafe
2005
0000
0000
01bc
cafe
2405
0000
0000
01b8
cafe
2805
0000
0000
01ba
cafe
2c05
0000
0000
01b8
cafe
3005
0000
0000
01b9
cafe
3405
0000
0000
01b6
cafe
3805
0000
0000
01b9
cafe
3c05
0000
0000
01b7
cafe
2005
0000
0000
01bb
cafe
2405
0000
0000
01b9
cafe
2805
0000
0000
01bd
cafe
2c05
0000
0000
01b8
cafe
3005
0000
0000
01ba
cafe
3405
0000
0000
01b8
cafe
3805
0000
0000
01b8
cafe
3c05
0000
0000
01b6
cafe
2005
0000
0000
01b7
cafe
2405
0000
0000
01b5
cafe
2805
0000
0000
01b5
cafe
2c05
0000
0000
01b8
cafe
3005
0000
0000
01b8
cafe
3405
0000
0000
01b7
cafe
3805
0000
0000
01b7
cafe
3c05
0000
0000
01bd
cafe
2005
0000
0000
01b9
cafe
2405
0000
0000
01b7
cafe
2805
0000
0000
01b8
cafe
2c05
0000
0000
01b4
cafe
3005
0000
0000
01b7
cafe
3405
0000
0000
01b6
cafe
3805
0000
0000
01b2
cafe
3c05
0000
0000
01b4
cafe
2005
0000
0000
01b3
cafe
2405
0000
0000
01af
cafe
2805
0000
0000
01b1
cafe
2c05
0000
0000
01aa
cafe
3005
0000
0000
01ab
cafe
3405
0000
0000
01b1
cafe
3805
0000
0000
01b4
cafe
3c05
0000
0000
01b6
cafe
2005
0000
0000
01b4
cafe
2405
0000
0000
01b2
cafe
2805
0000
0000
01b0
cafe
2c05
0000
-
0000
01b4
cafe
3005
0000
0000
01b5
cafe
3405
0000
0000
01b5
cafe
3805
0000
0000
01b4
cafe
3c05
0000
0000
01b4
cafe
2005
0000
0000
01b6
cafe
2405
0000
0000
01ba
cafe
2805
0000
0000
01b7
cafe
2c05
0000
0000
01b3
cafe
3005
0000
0000
01af
cafe
3405
0000
0000
01b0
cafe
3805
0000
0000
01b2
cafe
3c05
0000
0000
01b2
cafe
2005
0000
0000
01b6
cafe
2405
0000
0000
01b4
cafe
2805
0000
0000
01b5
cafe
2c05
0000
0000
01b3
cafe
3005
0000
0000
01b1
cafe
3405
0000
0000
01b0
cafe
3805
0000
0000
01ae
cafe
3c05
0000
0000
01ae
cafe
2005
0000
0000
01b0
cafe
2405
0000
0000
01b4
cafe
2805
0000
0000
01b8
cafe
2c05
0000
0000
01b7
cafe
3005
0000
0000
01b4
cafe
3405
0000
0000
01b1
cafe
3805
0000
0000
01b4
cafe
3c05
0000
0000
01b4
cafe
2005
0000
0000
01b7
cafe
2405
0000
0000
01b8
cafe
2805
0000
0000
01b3
cafe
2c05
0000
0000
01af
cafe
3005
0000
0000
01b6
cafe
3405
0000
0000
01b6
cafe
3805
0000
0000
01b2
cafe
3c05
0000
0000
01b4
cafe
2005
0000
0000
01b5
cafe
2405
0000
0000
01b3
cafe
2805
0000
0000
01ac
cafe
2c05
0000
0000
01a8
cafe
3005
0000
0000
01ac
cafe
3405
0000
0000
01ae
cafe
3805
0000
0000
01ae
cafe
3c05
0000
0000
01b1
cafe
2005
0000
0000
01b1
cafe
2405
0000
0000
01b6
cafe
2805
0000
0000
01b6
cafe
2c05
0000
0000
01b1
cafe
3005
0000
0000
01af
cafe
3405
0000
0000
01b3
cafe
3805
0000
0000
-
01b1
cafe
3c05
0000
0000
01b4
cafe
2005
0000
0000
01b3
cafe
2405
0000
0000
01b6
cafe
2805
0000
0000
01b9
cafe
2c05
0000
0000
01b9
cafe
3005
0000
0000
01b8
cafe
3405
0000
0000
01b8
cafe
3805
0000
0000
01bb
cafe
3c05
0000
0000
01b6
cafe
2005
0000
0000
01b6
cafe
2405
0000
0000
01b8
cafe
2805
0000
0000
01b9
cafe
2c05
0000
0000
01bd
cafe
3005
0000
0000
01b3
cafe
3405
0000
0000
01b8
cafe
3805
0000
0000
01bb
cafe
3c05
0000
0000
01b5
cafe
2005
0000
0000
01ba
cafe
2405
0000
0000
01b9
cafe
2805
0000
0000
01b9
cafe
2c05
0000
0000
01b3
cafe
3005
0000
0000
01b6
cafe
3405
0000
0000
01b7
cafe
3805
0000
0000
01b6
cafe
3c05
0000
0000
01b6
cafe
2005
0000
0000
01ba
cafe
2405
0000
0000
01b8
cafe
2805
0000
0000
01b6
cafe
2c05
0000
0000
01b2
cafe
3005
0000
0000
01b6
cafe
3405
0000
0000
01b3
cafe
3805
0000
0000
01b5
cafe
3c05
0000
0000
01b4
cafe
2005
0000
0000
01b2
cafe
2405
0000
0000
01b5
cafe
2805
0000
0000
01af
cafe
2c05
0000
0000
01b2
cafe
3005
0000
0000
01ad
cafe
3405
0000
0000
01af
cafe
3805
0000
0000
01b1
cafe
3c05
0000
0000
01ad
cafe
2005
0000
0000
01b6
cafe
2405
0000
0000
01b4
cafe
2805
0000
0000
01b7
cafe
2c05
0000
0000
01ba
cafe
3005
0000
0000
01b7
cafe
3405
0000
0000
01ba
cafe
3805
0000
0000
01bc
cafe
3c05
0000
0000
01b7
cafe
2005
0000
0000
01b6
cafe
2405
0000
0000
01b1
-
cafe
2805
0000
0000
01b3
cafe
2c05
0000
0000
01b5
cafe
3005
0000
0000
01b3
cafe
3405
0000
0000
01af
cafe
3805
0000
0000
01b3
cafe
3c05
0000
0000
01b3
cafe
2005
0000
0000
01b6
cafe
2405
0000
0000
01b5
cafe
2805
0000
0000
01b5
cafe
2c05
0000
0000
01b6
cafe
3005
0000
0000
01b6
cafe
3405
0000
0000
01b6
cafe
3805
0000
0000
01b5
cafe
3c05
0000
0000
01b3
cafe
2005
0000
0000
01b5
cafe
2405
0000
0000
01b3
cafe
2805
0000
0000
01b4
cafe
2c05
0000
0000
01b4
cafe
3005
0000
0000
01b5
cafe
3405
0000
0000
01b8
cafe
3805
0000
0000
01b8
cafe
3c05
0000
0000
01b8
cafe
2005
0000
0000
01b4
cafe
2405
0000
0000
01b7
cafe
2805
0000
0000
01b9
cafe
2c05
0000
0000
01b6
cafe
3005
0000
0000
01b5
cafe
3405
0000
0000
01b6
cafe
3805
0000
0000
01b6
cafe
3c05
0000
0000
01b7
cafe
2005
0000
0000
01b6
cafe
2405
0000
0000
01b2
cafe
2805
0000
0000
01b4
cafe
2c05
0000
0000
01b1
cafe
3005
0000
0000
01b3
cafe
3405
0000
0000
01b4
cafe
3805
0000
0000
01b3
cafe
3c05
0000
0000
01b5
cafe
2005
0000
0000
01ad
cafe
2405
0000
0000
01ad
cafe
2805
0000
0000
01af
cafe
2c05
0000
0000
01ac
cafe
3005
0000
0000
01ac
cafe
3405
0000
0000
01ad
cafe
3805
0000
0000
01ab
cafe
3c05
0000
0000
01ac
cafe
2005
0000
0000
01ae
cafe
2405
0000
0000
01b1
cafe
2805
0000
0000
01af
cafe
2c05
0000
0000
01af
cafe
3005
0000
0000
01b1
cafe
-
3405
0000
0000
01ad
cafe
3805
0000
0000
01b3
cafe
3c05
0000
0000
01b2
cafe
2005
0000
0000
01b2
cafe
2405
0000
0000
01af
cafe
2805
0000
0000
01b6
cafe
2c05
0000
0000
01b5
cafe
3005
0000
0000
01ba
cafe
3405
0000
0000
01bb
cafe
3805
0000
0000
01b7
cafe
3c05
0000
0000
01b8
cafe
2005
0000
0000
01b6
cafe
2405
0000
0000
01b4
cafe
2805
0000
0000
01b2
cafe
2c05
0000
0000
01b5
cafe
3005
0000
0000
01b4
cafe
3405
0000
0000
01b8
cafe
3805
0000
0000
01bd
cafe
3c05
0000
0000
01c0
cafe
2005
0000
0000
01bb
cafe
2405
0000
0000
01b7
cafe
2805
0000
0000
01b7
cafe
2c05
0000
0000
01ba
cafe
3005
0000
0000
01b9
cafe
3405
0000
0000
01bc
cafe
3805
0000
0000
01bc
cafe
3c05
0000
0000
01c0
cafe
2005
0000
0000
01bc
cafe
2405
0000
0000
01b7
cafe
2805
0000
0000
01b5
cafe
2c05
0000
0000
01b2
cafe
3005
0000
0000
01b5
cafe
3405
0000
0000
01ba
cafe
3805
0000
0000
01bb
cafe
3c05
0000
0000
01bb
cafe
2005
0000
0000
01b4
cafe
2405
0000
0000
01b8
cafe
2805
0000
0000
01b7
cafe
2c05
0000
0000
01b3
cafe
3005
0000
0000
01b2
cafe
3405
0000
0000
01b3
cafe
3805
0000
0000
01b5
cafe
3c05
0000
0000
01b9
cafe
2005
0000
0000
01b9
cafe
2405
0000
0000
01b8
cafe
2805
0000
0000
01b5
cafe
2c05
0000
0000
01b7
cafe
3005
0000
0000
01b7
cafe
3405
0000
0000
01b1
cafe
3805
0000
0000
01b3
cafe
3c05
0000
0000
01b7
cafe
2005
-
0000
0000
01b5
cafe
2405
0000
0000
01b0
cafe
2805
0000
0000
01b5
cafe
2c05
0000
0000
01b5
cafe
3005
0000
0000
01b2
cafe
3405
0000
0000
01b4
cafe
3805
0000
0000
01b7
cafe
3c05
0000
0000
01b1
cafe
2005
0000
0000
01b2
cafe
2405
0000
0000
01b4
cafe
2805
0000
0000
01b5
cafe
2c05
0000
0000
01b3
cafe
3005
0000
0000
01b9
cafe
3405
0000
0000
01b0
cafe
3805
0000
0000
01b2
cafe
3c05
0000
0000
01b3
cafe
2005
0000
0000
01b3
cafe
2405
0000
0000
01b3
cafe
2805
0000
0000
01b4
cafe
2c05
0000
0000
01b3
cafe
3005
0000
0000
01b5
cafe
3405
0000
0000
01b7
cafe
3805
0000
0000
01b5
cafe
3c05
0000
0000
01b4
cafe
2005
0000
0000
01b5
cafe
2405
0000
0000
01ba
cafe
2805
0000
0000
01b9
cafe
2c05
0000
0000
01bd
cafe
3005
0000
0000
01bb
cafe
3405
0000
0000
01bb
cafe
3805
0000
0000
01b6
cafe
3c05
0000
0000
01b3
cafe
2005
0000
0000
01ba
cafe
2405
0000
0000
01b6
cafe
2805
0000
0000
01bc
cafe
2c05
0000
0000
01b8
cafe
3005
0000
0000
01b9
cafe
3405
0000
0000
01b5
cafe
3805
0000
0000
01b7
cafe
3c05
0000
0000
01b6
cafe
2005
0000
0000
01b3
cafe
2405
0000
0000
01b3
cafe
2805
0000
0000
01b0
cafe
2c05
0000
0000
01b3
cafe
3005
0000
0000
01b1
cafe
3405
0000
0000
01b5
cafe
3805
0000
0000
01b5
cafe
3c05
0000
0000
01b6
cafe
2005
0000
0000
01b3
cafe
2405
0000
0000
01b2
cafe
2805
0000
0000
01b2
cafe
2c05
0000
-
0000
01b4
cafe
3005
0000
0000
01b8
cafe
3405
0000
0000
01b7
cafe
3805
0000
0000
01b5
cafe
3c05
0000
0000
01b9
cafe
2005
0000
0000
01b6
cafe
2405
0000
0000
01bb
cafe
2805
0000
0000
01bb
cafe
2c05
0000
0000
01ba
cafe
3005
0000
0000
01be
cafe
3405
0000
0000
01bd
cafe
3805
0000
0000
01bf
cafe
3c05
0000
0000
01bf
cafe
2005
0000
0000
01bf
cafe
2405
0000
0000
01c2
cafe
2805
0000
0000
01bf
cafe
2c05
0000
0000
01bd
cafe
3005
0000
0000
01bc
cafe
3405
0000
0000
01b9
cafe
3805
0000
0000
01b5
cafe
3c05
0000
0000
01b6
cafe
2005
0000
0000
01b8
cafe
2405
0000
0000
01b2
cafe
2805
0000
0000
01bb
cafe
2c05
0000
0000
01bb
cafe
3005
0000
0000
01b7
cafe
3405
0000
0000
01b9
cafe
3805
0000
0000
01b7
cafe
3c05
0000
0000
01b4
cafe
2005
0000
0000
01b6
cafe
2405
0000
0000
01b3
cafe
2805
0000
0000
01b1
cafe
2c05
0000
0000
01b2
cafe
3005
0000
0000
01b1
cafe
3405
0000
0000
01b3
cafe
3805
0000
0000
01b4
cafe
3c05
0000
0000
01b9
cafe
2005
0000
0000
01b5
cafe
2405
0000
0000
01b2
cafe
2805
0000
0000
01b3
cafe
2c05
0000
0000
01b8
cafe
3005
0000
0000
01b6
cafe
3405
0000
0000
01ba
cafe
3805
0000
0000
01b7
cafe
3c05
0000
0000
01b8
cafe
2005
0000
0000
01b6
cafe
2405
0000
0000
01b5
cafe
2805
0000
0000
01b3
cafe
2c05
0000
0000
01ba
cafe
3005
0000
0000
01b6
cafe
3405
0000
0000
01b5
cafe
3805
0000
0000
-
01b2
cafe
3c05
0000
0000
01af
cafe
2005
0000
0000
01b3
cafe
2405
0000
0000
01b4
cafe
2805
0000
0000
01b5
cafe
2c05
0000
0000
01b3
cafe
3005
0000
0000
01b5
cafe
3405
0000
0000
01b6
cafe
3805
0000
0000
01b3
cafe
3c05
0000
0000
01b3
cafe
2005
0000
0000
01af
cafe
2405
0000
0000
01af
cafe
2805
0000
0000
01b1
cafe
2c05
0000
0000
01b1
cafe
3005
0000
0000
01b4
cafe
3405
0000
0000
01b4
cafe
3805
0000
0000
01ae
cafe
3c05
0000
0000
01b3
cafe
2005
0000
0000
01af
cafe
2405
0000
0000
01b2
cafe
2805
0000
0000
01b4
cafe
2c05
0000
0000
01b8
cafe
3005
0000
0000
01b4
cafe
3405
0000
0000
01b6
cafe
3805
0000
0000
01b4
cafe
3c05
0000
0000
01b2
cafe
2005
0000
0000
01ae
cafe
2405
0000
0000
01b0
cafe
2805
0000
0000
01b2
cafe
2c05
0000
0000
01ae
cafe
3005
0000
0000
01b1
cafe
3405
0000
0000
01b5
cafe
3805
0000
0000
01b5
cafe
3c05
0000
0000
01b7
cafe
2005
0000
0000
01b4
cafe
2405
0000
0000
01ad
cafe
2805
0000
0000
01af
cafe
2c05
0000
0000
01ac
cafe
3005
0000
0000
01af
cafe
3405
0000
0000
01ac
cafe
3805
0000
0000
01ad
cafe
3c05
0000
0000
01b3
cafe
2005
0000
0000
01b0
cafe
2405
0000
0000
01b5
cafe
2805
0000
0000
01b8
cafe
2c05
0000
0000
01b0
cafe
3005
0000
0000
01b2
cafe
3405
0000
0000
01ae
cafe
3805
0000
0000
01af
cafe
3c05
0000
0000
01b2
cafe
2005
0000
0000
01b0
cafe
2405
0000
0000
01b3
-
cafe
2805
0000
0000
01b1
cafe
2c05
0000
0000
01ae
cafe
3005
0000
0000
01b1
cafe
3405
0000
0000
01b1
cafe
3805
0000
0000
01b3
cafe
3c05
0000
0000
01b0
cafe
2005
0000
0000
01b2
cafe
2405
0000
0000
01b2
cafe
2805
0000
0000
01b5
cafe
2c05
0000
0000
01b0
cafe
3005
0000
0000
01b3
cafe
3405
0000
0000
01b5
cafe
3805
0000
0000
01b2
cafe
3c05
0000
0000
01b6
cafe
2005
0000
0000
01b8
cafe
2405
0000
0000
01b5
cafe
2805
0000
0000
01b3
cafe
2c05
0000
0000
01b3
cafe
3005
0000
0000
01ae
cafe
3405
0000
0000
01b0
cafe
3805
0000
0000
01b2
cafe
3c05
0000
0000
01b3
cafe
2005
0000
0000
01b0
cafe
2405
0000
0000
01b2
cafe
2805
0000
0000
01b3
cafe
2c05
0000
0000
01b3
cafe
3005
0000
0000
01b1
cafe
3405
0000
0000
01b5
cafe
3805
0000
0000
01b4
cafe
3c05
0000
0000
01af
cafe
2005
0000
0000
01b2
cafe
2405
0000
0000
01b1
cafe
2805
0000
0000
01af
cafe
2c05
0000
0000
01ae
cafe
3005
0000
0000
01af
cafe
3405
0000
0000
01b5
cafe
3805
0000
0000
01b4
cafe
3c05
0000
0000
01b3
cafe
2005
0000
0000
01af
cafe
2405
0000
0000
01b1
cafe
2805
0000
0000
01b5
cafe
2c05
0000
0000
01b9
cafe
3005
0000
0000
01ba
cafe
3405
0000
0000
01b6
cafe
3805
0000
0000
01b8
cafe
3c05
0000
0000
01b5
cafe
2005
0000
0000
01b9
cafe
2405
0000
0000
01b6
cafe
2805
0000
0000
01b6
cafe
2c05
0000
0000
01b4
cafe
3005
0000
0000
01b4
cafe
-
3405
0000
0000
01b4
cafe
3805
0000
0000
01b0
cafe
3c05
0000
0000
01b3
cafe
2005
0000
0000
01b5
cafe
2405
0000
0000
01b8
cafe
2805
0000
0000
01b7
cafe
2c05
0000
0000
01b5
cafe
3005
0000
0000
01b7
cafe
3405
0000
0000
01b9
cafe
3805
0000
0000
01b8
cafe
3c05
0000
0000
01bb
cafe
2005
0000
0000
01b8
cafe
2405
0000
0000
01b5
cafe
2805
0000
0000
01b4
cafe
2c05
0000
0000
01b7
cafe
3005
0000
0000
01b7
cafe
3405
0000
0000
01b5
cafe
3805
0000
0000
01b3
cafe
3c05
0000
0000
01b5
cafe
2005
0000
0000
01b4
cafe
2405
0000
0000
01b3
cafe
2805
0000
0000
01b0
cafe
2c05
0000
0000
01af
cafe
3005
0000
0000
01ad
cafe
3405
0000
0000
01a9
cafe
3805
0000
0000
01ab
cafe
3c05
0000
0000
01ab
cafe
2005
0000
0000
01ae
cafe
2405
0000
0000
01ae
cafe
2805
0000
0000
01b2
cafe
2c05
0000
0000
01af
cafe
3005
0000
0000
01b1
cafe
3405
0000
0000
01b1
cafe
3805
0000
0000
01b8
cafe
3c05
0000
0000
01b8
cafe
2005
0000
0000
01b6
cafe
2405
0000
0000
01b7
cafe
2805
0000
0000
01bb
cafe
2c05
0000
0000
01b8
cafe
3005
0000
0000
01b9
cafe
3405
0000
0000
01bc
cafe
3805
0000
0000
01c0
cafe
3c05
0000
0000
01bc
cafe
2005
0000
0000
01bd
cafe
2405
0000
0000
01bc
cafe
2805
0000
0000
01bb
cafe
2c05
0000
0000
01bb
cafe
3005
0000
0000
01ba
cafe
3405
0000
0000
01bc
cafe
3805
0000
0000
01bd
cafe
3c05
0000
0000
01b6
cafe
2005
-
0000
0000
01b8
cafe
2405
0000
0000
01b6
cafe
2805
0000
0000
01b4
cafe
2c05
0000
0000
01b8
cafe
3005
0000
0000
01b8
cafe
3405
0000
0000
01b6
cafe
3805
0000
0000
01b5
cafe
3c05
0000
0000
01bb
cafe
2005
0000
0000
01bb
cafe
2405
0000
0000
01ba
cafe
2805
0000
0000
01bb
cafe
2c05
0000
0000
01be
cafe
3005
0000
0000
01bd
cafe
3405
0000
0000
01bd
cafe
3805
0000
0000
01bc
cafe
3c05
0000
0000
01bf
cafe
2005
0000
0000
01c0
cafe
2405
0000
0000
01bb
cafe
2805
0000
0000
01bd
cafe
2c05
0000
0000
01c0
cafe
3005
0000
0000
01c0
cafe
3405
0000
0000
01bc
cafe
3805
0000
0000
01b9
cafe
3c05
0000
0000
01ba
cafe
2005
0000
0000
01bb
cafe
2405
0000
0000
01b7
cafe
2805
0000
0000
01b6
cafe
2c05
0000
0000
01b4
cafe
3005
0000
0000
01b6
cafe
3405
0000
0000
01b2
cafe
3805
0000
0000
01b6
cafe
3c05
0000
0000
01b2
cafe
2005
0000
0000
01b6
cafe
2405
0000
0000
01b3
cafe
2805
0000
0000
01b6
cafe
2c05
0000
0000
01b6
cafe
3005
0000
0000
01b3
cafe
3405
0000
0000
01b4
cafe
3805
0000
0000
01b4
cafe
3c05
0000
0000
01af
cafe
2005
0000
0000
01ad
cafe
2405
0000
0000
01b0
cafe
2805
0000
0000
01b2
cafe
2c05
0000
0000
01ad
cafe
3005
0000
0000
01ae
cafe
3405
0000
0000
01b0
cafe
3805
0000
0000
01ad
cafe
3c05
0000
0000
01ad
cafe
2005
0000
0000
01b1
cafe
2405
0000
0000
01ae
cafe
2805
0000
0000
01b0
cafe
2c05
0000
-
0000
01ae
cafe
3005
0000
0000
01ab
cafe
3405
0000
0000
01b0
cafe
3805
0000
0000
01b5
cafe
3c05
0000
0000
01b4
cafe
2005
0000
0000
01b5
cafe
2405
0000
0000
01b2
cafe
2805
0000
0000
01af
cafe
2c05
0000
0000
01b0
cafe
3005
0000
0000
01b1
cafe
3405
0000
0000
01b5
cafe
3805
0000
0000
01b8
cafe
3c05
0000
0000
01b5
cafe
2005
0000
0000
01b4
cafe
2405
0000
0000
01b9
cafe
2805
0000
0000
01b9
cafe
2c05
0000
0000
01b9
cafe
3005
0000
0000
01b8
cafe
3405
0000
0000
01b9
cafe
3805
0000
0000
01b8
cafe
3c05
0000
0000
01b9
cafe
2005
0000
0000
01ba
cafe
2405
0000
0000
01b8
cafe
2805
0000
0000
01b7
cafe
2c05
0000
0000
01b4
cafe
3005
0000
0000
01b3
cafe
3405
0000
0000
01b3
cafe
3805
0000
0000
01b7
cafe
3c05
0000
0000
01b3
cafe
2005
0000
0000
01b2
cafe
2405
0000
0000
01b3
cafe
2805
0000
0000
01b5
cafe
2c05
0000
0000
01b4
cafe
3005
0000
0000
01b7
cafe
3405
0000
0000
01b8
cafe
3805
0000
0000
01b4
cafe
3c05
0000
0000
01b6
cafe
2005
0000
0000
01b8
cafe
2405
0000
0000
01ba
cafe
2805
0000
0000
01bd
cafe
2c05
0000
0000
01be
cafe
3005
0000
0000
01be
cafe
3405
0000
0000
01c0
cafe
3805
0000
0000
01bc
cafe
3c05
0000
0000
01be
cafe
2005
0000
0000
01bb
cafe
2405
0000
0000
01bc
cafe
2805
0000
0000
01bd
cafe
2c05
0000
0000
01bd
cafe
3005
0000
0000
01b9
cafe
3405
0000
0000
01be
cafe
3805
0000
0000
-
01be
cafe
3c05
0000
0000
01be
cafe
2005
0000
0000
01bb
cafe
2405
0000
0000
01bc
cafe
2805
0000
0000
01b9
cafe
2c05
0000
0000
01bc
cafe
3005
0000
0000
01b9
cafe
3405
0000
0000
01bc
cafe
3805
0000
0000
01b9
cafe
3c05
0000
0000
01b6
cafe
2005
0000
0000
01b9
cafe
2405
0000
0000
01b5
cafe
2805
0000
0000
01b7
cafe
2c05
0000
0000
01b8
cafe
3005
0000
0000
01b5
cafe
3405
0000
0000
01b2
cafe
3805
0000
0000
01b0
cafe
3c05
0000
0000
01b4
cafe
2005
0000
0000
01b6
cafe
2405
0000
0000
01b6
cafe
2805
0000
0000
01b6
cafe
2c05
0000
0000
01b3
cafe
3005
0000
0000
01b8
cafe
3405
0000
0000
01b9
cafe
3805
0000
0000
01b7
cafe
3c05
0000
0000
01ba
cafe
2005
0000
0000
01b8
cafe
2405
0000
0000
01b7
cafe
2805
0000
0000
01b4
cafe
2c05
0000
0000
01b3
cafe
3005
0000
0000
01b5
cafe
3405
0000
0000
01b5
cafe
3805
0000
0000
01b3
cafe
3c05
0000
0000
01b5
cafe
2005
0000
0000
01b4
cafe
2405
0000
0000
01b5
cafe
2805
0000
0000
01b7
cafe
2c05
0000
0000
01b6
cafe
3005
0000
0000
01b6
cafe
3405
0000
0000
01b2
cafe
3805
0000
0000
01b4
cafe
3c05
0000
0000
01b3
cafe
2005
0000
0000
01b3
cafe
2405
0000
0000
01b5
cafe
2805
0000
0000
01b2
cafe
2c05
0000
0000
01b1
cafe
3005
0000
0000
01b1
cafe
3405
0000
0000
01b3
cafe
3805
0000
0000
01b2
cafe
3c05
0000
0000
01b3
cafe
2005
0000
0000
01b3
cafe
2405
0000
0000
01b5
-
cafe
2805
0000
0000
01b3
cafe
2c05
0000
0000
01b6
cafe
3005
0000
0000
01b1
cafe
3405
0000
0000
01b1
cafe
3805
0000
0000
01b2
cafe
3c05
0000
0000
01b6
cafe
2005
0000
0000
01b2
cafe
2405
0000
0000
01b6
cafe
2805
0000
0000
01b5
cafe
2c05
0000
0000
01b7
cafe
3005
0000
0000
01b8
cafe
3405
0000
0000
01b7
cafe
3805
0000
0000
01b9
cafe
3c05
0000
0000
01bb
cafe
2005
0000
0000
01b7
cafe
2405
0000
0000
01b8
cafe
2805
0000
0000
01b7
cafe
2c05
0000
0000
01b8
cafe
3005
0000
0000
01b8
cafe
3405
0000
0000
01b6
cafe
3805
0000
0000
01b5
cafe
3c05
0000
0000
01b3
cafe
2005
0000
0000
01b1
cafe
2405
0000
0000
01b3
cafe
2805
0000
0000
01b2
cafe
2c05
0000
0000
01af
cafe
3005
0000
0000
01af
cafe
3405
0000
0000
01af
cafe
3805
0000
0000
01af
cafe
3c05
0000
0000
01ac
cafe
2005
0000
0000
01af
cafe
2405
0000
0000
01af
cafe
2805
0000
0000
01b2
cafe
2c05
0000
0000
01af
cafe
3005
0000
0000
01ac
cafe
3405
0000
0000
01ae
cafe
3805
0000
0000
01b2
cafe
3c05
0000
0000
01b7
cafe
2005
0000
0000
01b3
cafe
2405
0000
0000
01b2
cafe
2805
0000
0000
01af
cafe
2c05
0000
0000
01b0
cafe
3005
0000
0000
01af
cafe
3405
0000
0000
01b1
cafe
3805
0000
0000
01b5
cafe
3c05
0000
0000
01b2
cafe
2005
0000
0000
01b4
cafe
2405
0000
0000
01b2
cafe
2805
0000
0000
01b6
cafe
2c05
0000
0000
01b5
cafe
3005
0000
0000
01b5
cafe
-
3405
0000
0000
01b7
cafe
3805
0000
0000
01b6
cafe
3c05
0000
0000
01ba
cafe
2005
0000
0000
01bc
cafe
2405
0000
0000
01bb
cafe
2805
0000
0000
01bb
cafe
2c05
0000
0000
01b9
cafe
3005
0000
0000
01b4
cafe
3405
0000
0000
01b2
cafe
3805
0000
0000
01b6
cafe
3c05
0000
0000
01b5
cafe
2005
0000
0000
01b4
cafe
2405
0000
0000
01b2
cafe
2805
0000
0000
01b8
cafe
2c05
0000
0000
01b6
cafe
3005
0000
0000
01b4
cafe
3405
0000
0000
01b6
cafe
3805
0000
0000
01b8
cafe
3c05
0000
0000
01b5
cafe
2005
0000
0000
01b5
cafe
2405
0000
0000
01b0
cafe
2805
0000
0000
01b0
cafe
2c05
0000
0000
01b8
cafe
3005
0000
0000
01b6
cafe
3405
0000
0000
01b7
cafe
3805
0000
0000
01b8
cafe
3c05
0000
0000
01bc
cafe
2005
0000
0000
01b8
cafe
2405
0000
0000
01b6
cafe
2805
0000
0000
01b6
cafe
2c05
0000
0000
01b7
cafe
3005
0000
0000
01b3
cafe
3405
0000
0000
01b2
cafe
3805
0000
0000
01b8
cafe
3c05
0000
0000
01b2
cafe
2005
0000
0000
01b1
cafe
2405
0000
0000
01b2
cafe
2805
0000
0000
01b3
cafe
2c05
0000
0000
01b4
cafe
3005
0000
0000
01b6
cafe
3405
0000
0000
01b6
cafe
3805
0000
0000
01b9
cafe
3c05
0000
0000
01bd
cafe
2005
0000
0000
01c1
cafe
2405
0000
0000
01bb
cafe
2805
0000
0000
01bb
cafe
2c05
0000
0000
01bd
cafe
3005
0000
0000
01b6
cafe
3405
0000
0000
01b4
cafe
3805
0000
0000
01b1
cafe
3c05
0000
0000
01b8
cafe
2005
-
0000
0000
01b5
cafe
2405
0000
0000
01b4
cafe
2805
0000
0000
01b3
cafe
2c05
0000
0000
01b0
cafe
3005
0000
0000
01b4
cafe
3405
0000
0000
01b5
cafe
3805
0000
0000
01b8
cafe
3c05
0000
0000
01b5
cafe
2005
0000
0000
01b3
cafe
2405
0000
0000
01b1
cafe
2805
0000
0000
01ad
cafe
2c05
0000
0000
01b1
cafe
3005
0000
0000
01b0
cafe
3405
0000
0000
01b1
cafe
3805
0000
0000
01b4
cafe
3c05
0000
0000
01b7
cafe
2005
0000
0000
01b6
cafe
2405
0000
0000
01b9
cafe
2805
0000
0000
01b9
cafe
2c05
0000
0000
01b7
cafe
3005
0000
0000
01ba
cafe
3405
0000
0000
01b6
cafe
3805
0000
0000
01b7
cafe
3c05
0000
0000
01b4
cafe
2005
0000
0000
01b4
cafe
2405
0000
0000
01b1
cafe
2805
0000
0000
01ad
cafe
2c05
0000
0000
01ad
cafe
3005
0000
0000
01b1
cafe
3405
0000
0000
01b0
cafe
3805
0000
0000
01b0
cafe
3c05
0000
0000
01af
cafe
2005
0000
0000
01af
cafe
2405
0000
0000
01b1
cafe
2805
0000
0000
01b1
cafe
2c05
0000
0000
01b3
cafe
3005
0000
0000
01b5
cafe
3405
0000
0000
01b5
cafe
3805
0000
0000
01b9
cafe
3c05
0000
0000
01bd
cafe
2005
0000
0000
01bd
cafe
2405
0000
0000
01bd
cafe
2805
0000
0000
01bf
cafe
2c05
0000
0000
01c0
cafe
3005
0000
0000
01bc
cafe
3405
0000
0000
01bc
cafe
3805
0000
0000
01bc
cafe
3c05
0000
0000
01b9
cafe
2005
0000
0000
01bb
cafe
2405
0000
0000
01b2
cafe
2805
0000
0000
01b5
cafe
2c05
0000
-
0000
01b7
cafe
3005
0000
0000
01b6
cafe
3405
0000
0000
01b6
cafe
3805
0000
0000
01b3
cafe
3c05
0000
0000
01b2
cafe
2005
0000
0000
01b6
cafe
2405
0000
0000
01b9
cafe
2805
0000
0000
01b8
cafe
2c05
0000
0000
01b4
cafe
3005
0000
0000
01b4
cafe
3405
0000
0000
01b6
cafe
3805
0000
0000
01b5
cafe
3c05
0000
0000
01b6
cafe
2005
0000
0000
01b4
cafe
2405
0000
0000
01b7
cafe
2805
0000
0000
01bb
cafe
2c05
0000
0000
01ba
cafe
3005
0000
0000
01bb
cafe
3405
0000
0000
01b5
cafe
3805
0000
0000
01b9
cafe
3c05
0000
0000
01b9
cafe
2005
0000
0000
01b8
cafe
2405
0000
0000
01bb
cafe
2805
0000
0000
01b9
cafe
2c05
0000
0000
01b9
cafe
3005
0000
0000
01b6
cafe
3405
0000
0000
01b4
cafe
3805
0000
0000
01b3
cafe
3c05
0000
0000
01b4
cafe
2005
0000
0000
01ba
cafe
2405
0000
0000
01b6
cafe
2805
0000
0000
01bd
cafe
2c05
0000
0000
01ba
cafe
3005
0000
0000
01bc
cafe
3405
0000
0000
01bc
cafe
3805
0000
0000
01b8
cafe
3c05
0000
0000
01b6
cafe
2005
0000
0000
01b1
cafe
2405
0000
0000
01b2
cafe
2805
0000
0000
01b5
cafe
2c05
0000
0000
01b3
cafe
3005
0000
0000
01ae
cafe
3405
0000
0000
01ad
cafe
3805
0000
0000
01ad
cafe
3c05
0000
0000
01ae
cafe
2005
0000
0000
01af
cafe
2405
0000
0000
01ae
cafe
2805
0000
0000
01af
cafe
2c05
0000
0000
01b4
cafe
3005
0000
0000
01b3
cafe
3405
0000
0000
01b3
cafe
3805
0000
0000
-
01b6
cafe
3c05
0000
0000
01b8
cafe
2005
0000
0000
01b5
cafe
2405
0000
0000
01b7
cafe
2805
0000
0000
01bb
cafe
2c05
0000
0000
01be
cafe
3005
0000
0000
01b8
cafe
3405
0000
0000
01bd
cafe
3805
0000
0000
01bc
cafe
3c05
0000
0000
01ba
cafe
2005
0000
0000
01ba
cafe
2405
0000
0000
01b7
cafe
2805
0000
0000
01b5
cafe
2c05
0000
0000
01b8
cafe
3005
0000
0000
01b8
cafe
3405
0000
0000
01b8
cafe
3805
0000
0000
01bb
cafe
3c05
0000
0000
01b7
cafe
2005
0000
0000
01b5
cafe
2405
0000
0000
01b7
cafe
2805
0000
0000
01bb
cafe
2c05
0000
0000
01ba
cafe
3005
0000
0000
01b4
cafe
3405
0000
0000
01b6
cafe
3805
0000
0000
01b3
cafe
3c05
0000
0000
01b5
cafe
2005
0000
0000
01b8
cafe
2405
0000
0000
01bc
cafe
2805
0000
0000
01bc
cafe
2c05
0000
0000
01bd
cafe
3005
0000
0000
01ba
cafe
3405
0000
0000
01b9
cafe
3805
0000
0000
01b9
cafe
3c05
0000
0000
01bf
cafe
2005
0000
0000
01b3
cafe
2405
0000
0000
01b5
cafe
2805
0000
0000
01b3
cafe
2c05
0000
0000
01b2
cafe
3005
0000
0000
01b2
cafe
3405
0000
0000
01af
cafe
3805
0000
0000
01af
cafe
3c05
0000
0000
01ae
cafe
2005
0000
0000
01b2
cafe
2405
0000
0000
01b0
cafe
2805
0000
0000
01b6
cafe
2c05
0000
0000
01b4
cafe
3005
0000
0000
01b7
cafe
3405
0000
0000
01bb
cafe
3805
0000
0000
01bd
cafe
3c05
0000
0000
01ba
cafe
2005
0000
0000
01b8
cafe
2405
0000
0000
01b8
-
cafe
2805
0000
0000
01ba
cafe
2c05
0000
0000
01b5
cafe
3005
0000
0000
01bd
cafe
3405
0000
0000
01b8
cafe
3805
0000
0000
01bd
cafe
3c05
0000
0000
01ba
cafe
2005
0000
0000
01ba
cafe
2405
0000
0000
01ba
cafe
2805
0000
0000
01ba
cafe
2c05
0000
0000
01bd
cafe
3005
0000
0000
01ba
cafe
3405
0000
0000
01bc
cafe
3805
0000
0000
01b8
cafe
3c05
0000
0000
01b7
cafe
2005
0000
0000
01bb
cafe
2405
0000
0000
01ba
cafe
2805
0000
0000
01bc
cafe
2c05
0000
0000
01c1
cafe
3005
0000
0000
01c1
cafe
3405
0000
0000
01be
cafe
3805
0000
0000
01c0
cafe
3c05
0000
0000
01c3
cafe
2005
0000
0000
01c0
cafe
2405
0000
0000
01bc
cafe
2805
0000
0000
01bb
cafe
2c05
0000
0000
01bd
cafe
3005
0000
0000
01be
cafe
3405
0000
0000
01ba
cafe
3805
0000
0000
01bb
cafe
3c05
0000
0000
01b8
cafe
2005
0000
0000
01ba
cafe
2405
0000
0000
01b4
cafe
2805
0000
0000
01b0
cafe
2c05
0000
0000
01ae
cafe
3005
0000
0000
01a8
cafe
3405
0000
0000
01ab
cafe
3805
0000
0000
01ae
cafe
3c05
0000
0000
01b1
cafe
2005
0000
0000
01b4
cafe
2405
0000
0000
01ae
cafe
2805
0000
0000
01ae
cafe
2c05
0000
0000
01ac
cafe
3005
0000
0000
01aa
cafe
3405
0000
0000
01af
cafe
3805
0000
0000
01ad
cafe
3c05
0000
0000
01ac
cafe
2005
0000
0000
01af
cafe
2405
0000
0000
01b4
cafe
2805
0000
0000
01b5
cafe
2c05
0000
0000
01ba
cafe
3005
0000
0000
01b6
cafe
-
3405
0000
0000
01b4
cafe
3805
0000
0000
01af
cafe
3c05
0000
0000
01ad
cafe
2005
0000
0000
01b4
cafe
2405
0000
0000
01b2
cafe
2805
0000
0000
01b2
cafe
2c05
0000
0000
01b3
cafe
3005
0000
0000
01b1
cafe
3405
0000
0000
01b0
cafe
3805
0000
0000
01ae
cafe
3c05
0000
0000
01af
cafe
2005
0000
0000
01b1
cafe
2405
0000
0000
01b2
cafe
2805
0000
0000
01af
cafe
2c05
0000
0000
01b5
cafe
3005
0000
0000
01b2
cafe
3405
0000
0000
01b4
cafe
3805
0000
0000
01b2
cafe
3c05
0000
0000
01ad
cafe
2005
0000
0000
01b2
cafe
2405
0000
0000
01ae
cafe
2805
0000
0000
01af
cafe
2c05
0000
0000
01b0
cafe
3005
0000
0000
01ae
cafe
3405
0000
0000
01ae
cafe
3805
0000
0000
01b1
cafe
3c05
0000
0000
01b0
cafe
2005
0000
0000
01b2
cafe
2405
0000
0000
01b3
cafe
2805
0000
0000
01ae
cafe
2c05
0000
0000
01b4
cafe
3005
0000
0000
01b4
cafe
3405
0000
0000
01b0
cafe
3805
0000
0000
01af
cafe
3c05
0000
0000
01b6
cafe
2005
0000
0000
01b3
cafe
2405
0000
0000
01b5
cafe
2805
0000
0000
01b9
cafe
2c05
0000
0000
01b5
cafe
3005
0000
0000
01b9
cafe
3405
0000
0000
01b6
cafe
3805
0000
0000
01b7
cafe
3c05
0000
0000
01b3
cafe
2005
0000
0000
01b5
cafe
2405
0000
0000
01b6
cafe
2805
0000
0000
01b3
cafe
2c05
0000
0000
01b3
cafe
3005
0000
0000
01ba
cafe
3405
0000
0000
01b8
cafe
3805
0000
0000
01b8
cafe
3c05
0000
0000
01b4
cafe
2005
-
0000
0000
01b5
cafe
2405
0000
0000
01b0
cafe
2805
0000
0000
01b3
cafe
2c05
0000
0000
01b2
cafe
3005
0000
0000
01ba
cafe
3405
0000
0000
01b7
cafe
3805
0000
0000
01b1
cafe
3c05
0000
0000
01b3
cafe
2005
0000
0000
01b1
cafe
2405
0000
0000
01b1
cafe
2805
0000
0000
01ae
cafe
2c05
0000
0000
01b0
cafe
3005
0000
0000
01b1
cafe
3405
0000
0000
01b2
cafe
3805
0000
0000
01b4
cafe
3c05
0000
0000
01ae
cafe
2005
0000
0000
01b3
cafe
2405
0000
0000
01b2
cafe
2805
0000
0000
01b4
cafe
2c05
0000
0000
01b8
cafe
3005
0000
0000
01b3
cafe
3405
0000
0000
01b4
cafe
3805
0000
0000
01b5
cafe
3c05
0000
0000
01b1
cafe
2005
0000
0000
01b6
cafe
2405
0000
0000
01b3
cafe
2805
0000
0000
01b1
cafe
2c05
0000
0000
01b2
cafe
3005
0000
0000
01b0
cafe
3405
0000
0000
01b1
cafe
3805
0000
0000
01b0
cafe
3c05
0000
0000
01b2
cafe
2005
0000
0000
01b2
cafe
2405
0000
0000
01b2
cafe
2805
0000
0000
01b4
cafe
2c05
0000
0000
01b5
cafe
3005
0000
0000
01b5
cafe
3405
0000
0000
01b0
cafe
3805
0000
0000
01af
cafe
3c05
0000
0000
01b1
cafe
2005
0000
0000
01ae
cafe
2405
0000
0000
01b1
cafe
2805
0000
0000
01b4
cafe
2c05
0000
0000
01b8
cafe
3005
0000
0000
01b3
cafe
3405
0000
0000
01b4
cafe
3805
0000
0000
01b4
cafe
3c05
0000
0000
01b3
cafe
2005
0000
0000
01b5
cafe
2405
0000
0000
01b2
cafe
2805
0000
0000
01b4
cafe
2c05
0000
-
0000
01b5
cafe
3005
0000
0000
01b5
cafe
3405
0000
0000
01b2
cafe
3805
0000
0000
01ad
cafe
3c05
0000
0000
01b0
cafe
2005
0000
0000
01b1
cafe
2405
0000
0000
01ae
cafe
2805
0000
0000
01ae
cafe
2c05
0000
0000
01b3
cafe
3005
0000
0000
01b3
cafe
3405
0000
0000
01b1
cafe
3805
0000
0000
01ae
cafe
3c05
0000
0000
01af
cafe
2005
0000
0000
01b2
cafe
2405
0000
0000
01b2
cafe
2805
0000
0000
01b0
cafe
2c05
0000
0000
01b2
cafe
3005
0000
0000
01b4
cafe
3405
0000
0000
01b7
cafe
3805
0000
0000
01b9
cafe
3c05
0000
0000
01b0
cafe
2005
0000
0000
01b3
cafe
2405
0000
0000
01b1
cafe
2805
0000
0000
01af
cafe
2c05
0000
0000
01b2
cafe
3005
0000
0000
01b0
cafe
3405
0000
0000
01b0
cafe
3805
0000
0000
01b5
cafe
3c05
0000
0000
01b7
cafe
2005
0000
0000
01ba
cafe
2405
0000
0000
01b6
cafe
2805
0000
0000
01b4
cafe
2c05
0000
0000
01b4
cafe
3005
0000
0000
01b8
cafe
3405
0000
0000
01b6
cafe
3805
0000
0000
01b6
cafe
3c05
0000
0000
01b8
cafe
2005
0000
0000
01b6
cafe
2405
0000
0000
01b6
cafe
2805
0000
0000
01b9
cafe
2c05
0000
0000
01bc
cafe
3005
0000
0000
01be
cafe
3405
0000
0000
01bb
cafe
3805
0000
0000
01bd
cafe
3c05
0000
0000
01bc
cafe
2005
0000
0000
01bb
cafe
2405
0000
0000
01ba
cafe
2805
0000
0000
01c2
cafe
2c05
0000
0000
01bd
cafe
3005
0000
0000
01bd
cafe
3405
0000
0000
01c1
cafe
3805
0000
0000
-
01bf
cafe
3c05
0000
0000
01bd
cafe
2005
0000
0000
01be
cafe
2405
0000
0000
01ba
cafe
2805
0000
0000
01b7
cafe
2c05
0000
0000
01b5
cafe
3005
0000
0000
01b8
cafe
3405
0000
0000
01b4
cafe
3805
0000
0000
01b1
cafe
3c05
0000
0000
01ac
cafe
2005
0000
0000
01b0
cafe
2405
0000
0000
01b3
cafe
2805
0000
0000
01b3
cafe
2c05
0000
0000
01b3
cafe
3005
0000
0000
01b6
cafe
3405
0000
0000
01b5
cafe
3805
0000
0000
01b0
cafe
3c05
0000
0000
01b6
cafe
2005
0000
0000
01b5
cafe
2405
0000
0000
01b2
cafe
2805
0000
0000
01b4
cafe
2c05
0000
0000
01b3
cafe
3005
0000
0000
01b2
cafe
3405
0000
0000
01b5
cafe
3805
0000
0000
01b7
cafe
3c05
0000
0000
01b5
cafe
2005
0000
0000
01b5
cafe
2405
0000
0000
01b6
cafe
2805
0000
0000
01b0
cafe
2c05
0000
0000
01b2
cafe
3005
0000
0000
01b5
cafe
3405
0000
0000
01b5
cafe
3805
0000
0000
01b5
cafe
3c05
0000
0000
01b4
cafe
2005
0000
0000
01b5
cafe
2405
0000
0000
01b0
cafe
2805
0000
0000
01b3
cafe
2c05
0000
0000
01b1
cafe
3005
0000
0000
01b5
cafe
3405
0000
0000
01b5
cafe
3805
0000
0000
01b6
cafe
3c05
0000
0000
01b5
cafe
2005
0000
0000
01b4
cafe
2405
0000
0000
01b4
cafe
2805
0000
0000
01b6
cafe
2c05
0000
0000
01b5
cafe
3005
0000
0000
01b2
cafe
3405
0000
0000
01b2
cafe
3805
0000
0000
01b1
cafe
3c05
0000
0000
01af
cafe
2005
0000
0000
01ad
cafe
2405
0000
0000
01ac
-
cafe
2805
0000
0000
01ac
cafe
2c05
0000
0000
01b0
cafe
3005
0000
0000
01af
cafe
3405
0000
0000
01b1
cafe
3805
0000
0000
01af
cafe
3c05
0000
0000
01b2
cafe
2005
0000
0000
01b4
cafe
2405
0000
0000
01b4
cafe
2805
0000
0000
01b8
cafe
2c05
0000
0000
01b7
cafe
3005
0000
0000
01b3
cafe
3405
0000
0000
01b9
cafe
3805
0000
0000
01b9
cafe
3c05
0000
0000
01b9
cafe
2005
0000
0000
01b6
cafe
2405
0000
0000
01b9
cafe
2805
0000
0000
01b6
cafe
2c05
0000
0000
01b5
cafe
3005
0000
0000
01b3
cafe
3405
0000
0000
01b1
cafe
3805
0000
0000
01b0
cafe
3c05
0000
0000
01b3
cafe
2005
0000
0000
01b3
cafe
2405
0000
0000
01b4
cafe
2805
0000
0000
01b5
cafe
2c05
0000
0000
01b7
cafe
3005
0000
0000
01b6
cafe
3405
0000
0000
01b7
cafe
3805
0000
0000
01b7
cafe
3c05
0000
0000
01b6
cafe
2005
0000
0000
01b5
cafe
2405
0000
0000
01b4
cafe
2805
0000
0000
01b2
cafe
2c05
0000
0000
01b2
cafe
3005
0000
0000
01b3
cafe
3405
0000
0000
01b2
cafe
3805
0000
0000
01b1
cafe
3c05
0000
0000
01b4
cafe
2005
0000
0000
01b5
cafe
2405
0000
0000
01b5
cafe
2805
0000
0000
01ae
cafe
2c05
0000
0000
01b2
cafe
3005
0000
0000
01af
cafe
3405
0000
0000
01b3
cafe
3805
0000
0000
01b1
cafe
3c05
0000
0000
01b0
cafe
2005
0000
0000
01b0
cafe
2405
0000
0000
01b6
cafe
2805
0000
0000
01b1
cafe
2c05
0000
0000
01b0
cafe
3005
0000
0000
01b3
cafe
-
3405
0000
0000
01af
cafe
3805
0000
0000
01b2
cafe
3c05
0000
0000
01af
cafe
2005
0000
0000
01af
cafe
2405
0000
0000
01af
cafe
2805
0000
0000
01ae
cafe
2c05
0000
0000
01af
cafe
3005
0000
0000
01b2
cafe
3405
0000
0000
01b1
cafe
3805
0000
0000
01b3
cafe
3c05
0000
0000
01b1
cafe
2005
0000
0000
01b2
cafe
2405
0000
0000
01b2
cafe
2805
0000
0000
01b4
cafe
2c05
0000
0000
01b2
cafe
3005
0000
0000
01b9
cafe
3405
0000
0000
01b5
cafe
3805
0000
0000
01b3
cafe
3c05
0000
0000
01b4
cafe
2005
0000
0000
01b2
cafe
2405
0000
0000
01b2
cafe
2805
0000
0000
01b3
cafe
2c05
0000
0000
01b2
cafe
3005
0000
0000
01b2
cafe
3405
0000
0000
01b3
cafe
3805
0000
0000
01b0
cafe
3c05
0000
0000
01b2
cafe
2005
0000
0000
01b1
cafe
2405
0000
0000
01b4
cafe
2805
0000
0000
01b6
cafe
2c05
0000
0000
01b6
cafe
3005
0000
0000
01ba
cafe
3405
0000
0000
01b6
cafe
3805
0000
0000
01b3
cafe
3c05
0000
0000
01b6
cafe
2005
0000
0000
01b6
cafe
2405
0000
0000
01b2
cafe
2805
0000
0000
01b3
cafe
2c05
0000
0000
01b2
cafe
3005
0000
0000
01b1
cafe
3405
0000
0000
01b5
cafe
3805
0000
0000
01b4
cafe
3c05
0000
0000
01b6
cafe
2005
0000
0000
01b8
cafe
2405
0000
0000
01ba
cafe
2805
0000
0000
01b6
cafe
2c05
0000
0000
01bb
cafe
3005
0000
0000
01c0
cafe
3405
0000
0000
01be
cafe
3805
0000
0000
01ba
cafe
3c05
0000
0000
01b8
cafe
2005
-
0000
0000
01bb
cafe
2405
0000
0000
01b8
cafe
2805
0000
0000
01b8
cafe
2c05
0000
0000
01b5
cafe
3005
0000
0000
01b6
cafe
3405
0000
0000
01b7
cafe
3805
0000
0000
01b7
cafe
3c05
0000
0000
01b5
cafe
2005
0000
0000
01b6
cafe
2405
0000
0000
01b3
cafe
2805
0000
0000
01b6
cafe
2c05
0000
0000
01b6
cafe
3005
0000
0000
01b7
cafe
3405
0000
0000
01b7
cafe
3805
0000
0000
01b4
cafe
3c05
0000
0000
01b0
cafe
2005
0000
0000
01b3
cafe
2405
0000
0000
01b4
cafe
2805
0000
0000
01b3
cafe
2c05
0000
0000
01b2
cafe
3005
0000
0000
01b2
cafe
3405
0000
0000
01af
cafe
3805
0000
0000
01b6
cafe
3c05
0000
0000
01b5
cafe
2005
0000
0000
01b7
cafe
2405
0000
0000
01b7
cafe
2805
0000
0000
01b4
cafe
2c05
0000
0000
01b8
cafe
3005
0000
0000
01b8
cafe
3405
0000
0000
01ba
cafe
3805
0000
0000
01ba
cafe
3c05
0000
0000
01bb
cafe
2005
0000
0000
01bd
cafe
2405
0000
0000
01b9
cafe
2805
0000
0000
01bb
cafe
2c05
0000
0000
01bc
cafe
3005
0000
0000
01bb
cafe
3405
0000
0000
01b6
cafe
3805
0000
0000
01b7
cafe
3c05
0000
0000
01ba
cafe
2005
0000
0000
01b7
cafe
2405
0000
0000
01b3
cafe
2805
0000
0000
01b3
cafe
2c05
0000
0000
01b2
cafe
3005
0000
0000
01b4
cafe
3405
0000
0000
01b7
cafe
3805
0000
0000
01b9
cafe
3c05
0000
0000
01b6
cafe
2005
0000
0000
01b6
cafe
2405
0000
0000
01b5
cafe
2805
0000
0000
01b3
cafe
2c05
0000
-
0000
01b0
cafe
3005
0000
0000
01b5
cafe
3405
0000
0000
01b1
cafe
3805
0000
0000
01b0
cafe
3c05
0000
0000
01b3
cafe
2005
0000
0000
01b5
cafe
2405
0000
0000
01b8
cafe
2805
0000
0000
01b4
cafe
2c05
0000
0000
01b7
cafe
3005
0000
0000
01bb
cafe
3405
0000
0000
01b9
cafe
3805
0000
0000
01ba
cafe
3c05
0000
0000
01b6
cafe
2005
0000
0000
01b5
cafe
2405
0000
0000
01b8
cafe
2805
0000
0000
01b8
cafe
2c05
0000
0000
01ba
cafe
3005
0000
0000
01ba
cafe
3405
0000
0000
01b7
cafe
3805
0000
0000
01b2
cafe
3c05
0000
0000
01b6
cafe
2005
0000
0000
01b9
cafe
2405
0000
0000
01bd
cafe
2805
0000
0000
01bc
cafe
2c05
0000
0000
01b9
cafe
3005
0000
0000
01b7
cafe
3405
0000
0000
01b5
cafe
3805
0000
0000
01b3
cafe
3c05
0000
0000
01b3
cafe
2005
0000
0000
01b5
cafe
2405
0000
0000
01b6
cafe
2805
0000
0000
01be
cafe
2c05
0000
0000
01b6
cafe
3005
0000
0000
01b6
cafe
3405
0000
0000
01b1
cafe
3805
0000
0000
01b6
cafe
3c05
0000
0000
01b5
cafe
2005
0000
0000
01b5
cafe
2405
0000
0000
01b6
cafe
2805
0000
0000
01b6
cafe
2c05
0000
0000
01b7
cafe
3005
0000
0000
01ba
cafe
3405
0000
0000
01b9
cafe
3805
0000
0000
01b7
cafe
3c05
0000
0000
01b7
cafe
2005
0000
0000
01b9
cafe
2405
0000
0000
01b8
cafe
2805
0000
0000
01bb
cafe
2c05
0000
0000
01b9
cafe
3005
0000
0000
01b9
cafe
3405
0000
0000
01b8
cafe
3805
0000
0000
-
01b7
cafe
3c05
0000
0000
01bb
cafe
2005
0000
0000
01b8
cafe
2405
0000
0000
01b6
cafe
2805
0000
0000
01b3
cafe
2c05
0000
0000
01b6
cafe
3005
0000
0000
01ba
cafe
3405
0000
0000
01b9
cafe
3805
0000
0000
01b3
cafe
3c05
0000
0000
01b1
cafe
2005
0000
0000
01b2
cafe
2405
0000
0000
01b6
cafe
2805
0000
0000
01b2
cafe
2c05
0000
0000
01b9
cafe
3005
0000
0000
01b9
cafe
3405
0000
0000
01be
cafe
3805
0000
0000
01ba
cafe
3c05
0000
0000
01ba
cafe
2005
0000
0000
01bc
cafe
2405
0000
0000
01b8
cafe
2805
0000
0000
01bc
cafe
2c05
0000
0000
01ba
cafe
3005
0000
0000
01bb
cafe
3405
0000
0000
01bc
cafe
3805
0000
0000
01b9
cafe
3c05
0000
0000
01ba
cafe
2005
0000
0000
01b8
cafe
2405
0000
0000
01bd
cafe
2805
0000
0000
01bd
cafe
2c05
0000
0000
01be
cafe
3005
0000
0000
01be
cafe
3405
0000
0000
01c0
cafe
3805
0000
0000
01bc
cafe
3c05
0000
0000
01b9
cafe
2005
0000
0000
01b8
cafe
2405
0000
0000
01ba
cafe
2805
0000
0000
01ba
cafe
2c05
0000
0000
01bc
cafe
3005
0000
0000
01bb
cafe
3405
0000
0000
01b7
cafe
3805
0000
0000
01ba
cafe
3c05
0000
0000
01b7
cafe
2005
0000
0000
01b9
cafe
2405
0000
0000
01b9
cafe
2805
0000
0000
01b8
cafe
2c05
0000
0000
01b4
cafe
3005
0000
0000
01b9
cafe
3405
0000
0000
01b6
cafe
3805
0000
0000
01b8
cafe
3c05
0000
0000
01b8
cafe
2005
0000
0000
01ba
cafe
2405
0000
0000
01b9
-
cafe
2805
0000
0000
01b7
cafe
2c05
0000
0000
01b5
cafe
3005
0000
0000
01b6
cafe
3405
0000
0000
01b4
cafe
3805
0000
0000
01b2
cafe
3c05
0000
0000
01b4
cafe
2005
0000
0000
01b6
cafe
2405
0000
0000
01b4
cafe
2805
0000
0000
01b6
cafe
2c05
0000
0000
01b5
cafe
3005
0000
0000
01b5
cafe
3405
0000
0000
01ae
cafe
3805
0000
0000
01b0
cafe
3c05
0000
0000
01b3
cafe
2005
0000
0000
01b2
cafe
2405
0000
0000
01b1
cafe
2805
0000
0000
01b6
cafe
2c05
0000
0000
01b5
cafe
3005
0000
0000
01b6
cafe
3405
0000
0000
01bb
cafe
3805
0000
0000
01b8
cafe
3c05
0000
0000
01bb
cafe
2005
0000
0000
01b7
cafe
2405
0000
0000
01b5
cafe
2805
0000
0000
01b9
cafe
2c05
0000
0000
01b7
cafe
3005
0000
0000
01b9
cafe
3405
0000
0000
01b6
cafe
3805
0000
0000
01b5
cafe
3c05
0000
0000
01b0
cafe
2005
0000
0000
01b1
cafe
2405
0000
0000
01b4
cafe
2805
0000
0000
01b5
cafe
2c05
0000
0000
01b5
cafe
3005
0000
0000
01b6
cafe
3405
0000
0000
01b8
cafe
3805
0000
0000
01b8
cafe
3c05
0000
0000
01b6
cafe
2005
0000
0000
01b3
cafe
2405
0000
0000
01b4
cafe
2805
0000
0000
01b0
cafe
2c05
0000
0000
01b1
cafe
3005
0000
0000
01b3
cafe
3405
0000
0000
01b5
cafe
3805
0000
0000
01b2
cafe
3c05
0000
0000
01b4
cafe
2005
0000
0000
01b2
cafe
2405
0000
0000
01b6
cafe
2805
0000
0000
01b4
cafe
2c05
0000
0000
01b5
cafe
3005
0000
0000
01b4
cafe
-
3405
0000
0000
01b5
cafe
3805
0000
0000
01b6
cafe
3c05
0000
0000
01b6
cafe
2005
0000
0000
01b9
cafe
2405
0000
0000
01bb
cafe
2805
0000
0000
01c0
cafe
2c05
0000
0000
01bc
cafe
3005
0000
0000
01bd
cafe
3405
0000
0000
01b9
cafe
3805
0000
0000
01bb
cafe
3c05
0000
0000
01b7
cafe
2005
0000
0000
01b6
cafe
2405
0000
0000
01b5
cafe
2805
0000
0000
01b1
cafe
2c05
0000
0000
01b2
cafe
3005
0000
0000
01b2
cafe
3405
0000
0000
01b0
cafe
3805
0000
0000
01b0
cafe
3c05
0000
0000
01b1
cafe
2005
0000
0000
01b2
cafe
2405
0000
0000
01b5
cafe
2805
0000
0000
01b1
cafe
2c05
0000
0000
01b3
cafe
3005
0000
0000
01b2
cafe
3405
0000
0000
01b3
cafe
3805
0000
0000
01b6
cafe
3c05
0000
0000
01b8
cafe
2005
0000
0000
01b7
cafe
2405
0000
0000
01b9
cafe
2805
0000
0000
01bc
cafe
2c05
0000
0000
01c0
cafe
3005
0000
0000
01be
cafe
3405
0000
0000
01ba
cafe
3805
0000
0000
01b6
cafe
3c05
0000
0000
01b4
cafe
2005
0000
0000
01b8
cafe
2405
0000
0000
01b5
cafe
2805
0000
0000
01b6
cafe
2c05
0000
0000
01bb
cafe
3005
0000
0000
01b9
cafe
3405
0000
0000
01bb
cafe
3805
0000
0000
01b6
cafe
3c05
0000
0000
01b2
cafe
2005
0000
0000
01b3
cafe
2405
0000
0000
01b7
cafe
2805
0000
0000
01b6
cafe
2c05
0000
0000
01b6
cafe
3005
0000
0000
01b4
cafe
3405
0000
0000
01b1
cafe
3805
0000
0000
01b2
cafe
3c05
0000
0000
01ad
cafe
2005
-
0000
0000
01b0
cafe
2405
0000
0000
01b2
cafe
2805
0000
0000
01b2
cafe
2c05
0000
0000
01b6
cafe
3005
0000
0000
01b6
cafe
3405
0000
0000
01b6
cafe
3805
0000
0000
01b3
cafe
3c05
0000
0000
01b8
cafe
2005
0000
0000
01b6
cafe
2405
0000
0000
01b4
cafe
2805
0000
0000
01b8
cafe
2c05
0000
0000
01b7
cafe
3005
0000
0000
01b9
cafe
3405
0000
0000
01b7
cafe
3805
0000
0000
01b5
cafe
3c05
0000
0000
01b9
cafe
2005
0000
0000
01ba
cafe
2405
0000
0000
01b5
cafe
2805
0000
0000
01b9
cafe
2c05
0000
0000
01ba
cafe
3005
0000
0000
01b7
cafe
3405
0000
0000
01b9
cafe
3805
0000
0000
01b8
cafe
3c05
0000
0000
01b7
cafe
2005
0000
0000
01bc
cafe
2405
0000
0000
01b7
cafe
2805
0000
0000
01b7
cafe
2c05
0000
0000
01b1
cafe
3005
0000
0000
01b2
cafe
3405
0000
0000
01b1
cafe
3805
0000
0000
01b5
cafe
3c05
0000
0000
01ba
cafe
2005
0000
0000
01b6
cafe
2405
0000
0000
01b5
cafe
2805
0000
0000
01b6
cafe
2c05
0000
0000
01b6
cafe
3005
0000
0000
01b1
cafe
3405
0000
0000
01b0
cafe
3805
0000
0000
01b7
cafe
3c05
0000
0000
01b8
cafe
2005
0000
0000
01b6
cafe
2405
0000
0000
01b5
cafe
2805
0000
0000
01b3
cafe
2c05
0000
0000
01b1
cafe
3005
0000
0000
01b5
cafe
3405
0000
0000
01b3
cafe
3805
0000
0000
01b3
cafe
3c05
0000
0000
01b2
cafe
2005
0000
0000
01b6
cafe
2405
0000
0000
01b9
cafe
2805
0000
0000
01b8
cafe
2c05
0000
-
0000
01b9
cafe
3005
0000
0000
01bd
cafe
3405
0000
0000
01bb
cafe
3805
0000
0000
01be
cafe
3c05
0000
0000
01be
cafe
2005
0000
0000
01b8
cafe
2405
0000
0000
01b9
cafe
2805
0000
0000
01b5
cafe
2c05
0000
0000
01b4
cafe
3005
0000
0000
01ba
cafe
3405
0000
0000
01b5
cafe
3805
0000
0000
01b2
cafe
3c05
0000
0000
01b8
cafe
2005
0000
0000
01bb
cafe
2405
0000
0000
01b8
cafe
2805
0000
0000
01b7
cafe
2c05
0000
0000
01b5
cafe
3005
0000
0000
01b9
cafe
3405
0000
0000
01b8
cafe
3805
0000
0000
01b8
cafe
3c05
0000
0000
01bc
cafe
2005
0000
0000
01b7
cafe
2405
0000
0000
01ba
cafe
2805
0000
0000
01b8
cafe
2c05
0000
0000
01b6
cafe
3005
0000
0000
01b3
cafe
3405
0000
0000
01b5
cafe
3805
0000
0000
01b6
cafe
3c05
0000
0000
01b6
cafe
2005
0000
0000
01b6
cafe
2405
0000
0000
01b8
cafe
2805
0000
0000
01b4
cafe
2c05
0000
0000
01b4
cafe
3005
0000
0000
01b3
cafe
3405
0000
0000
01b3
cafe
3805
0000
0000
01b4
cafe
3c05
0000
0000
01b8
cafe
2005
0000
0000
01b8
cafe
2405
0000
0000
01b3
cafe
2805
0000
0000
01b7
cafe
2c05
0000
0000
01b8
cafe
3005
0000
0000
01b9
cafe
3405
0000
0000
01b9
cafe
3805
0000
0000
01b3
cafe
3c05
0000
0000
01b7
cafe
2005
0000
0000
01b8
cafe
2405
0000
0000
01b4
cafe
2805
0000
0000
01af
cafe
2c05
0000
0000
01b1
cafe
3005
0000
0000
01af
cafe
3405
0000
0000
01b1
cafe
3805
0000
0000
-
01b2
cafe
3c05
0000
0000
01b0
cafe
2005
0000
0000
01b3
cafe
2405
0000
0000
01b0
cafe
2805
0000
0000
01b0
cafe
2c05
0000
0000
01b0
cafe
3005
0000
0000
01af
cafe
3405
0000
0000
01ad
cafe
3805
0000
0000
01ac
cafe
3c05
0000
0000
01ac
cafe
2005
0000
0000
01ae
cafe
2405
0000
0000
01b0
cafe
2805
0000
0000
01b2
cafe
2c05
0000
0000
01b0
cafe
3005
0000
0000
01b2
cafe
3405
0000
0000
01b4
cafe
3805
0000
0000
01b6
cafe
3c05
0000
0000
01b4
cafe
2005
0000
0000
01b8
cafe
2405
0000
0000
01b8
cafe
2805
0000
0000
01b4
cafe
2c05
0000
0000
01b0
cafe
3005
0000
0000
01ad
cafe
3405
0000
0000
01b3
cafe
3805
0000
0000
01b3
cafe
3c05
0000
0000
01b6
cafe
2005
0000
0000
01b2
cafe
2405
0000
0000
01b3
cafe
2805
0000
0000
01b6
cafe
2c05
0000
0000
01b6
cafe
3005
0000
0000
01b5
cafe
3405
0000
0000
01b3
cafe
3805
0000
0000
01b7
cafe
3c05
0000
0000
01b8
cafe
2005
0000
0000
01ba
cafe
2405
0000
0000
01b9
cafe
2805
0000
0000
01b2
cafe
2c05
0000
0000
01b2
cafe
3005
0000
0000
01b4
cafe
3405
0000
0000
01b3
cafe
3805
0000
0000
01b5
cafe
3c05
0000
0000
01b2
cafe
2005
0000
0000
01b4
cafe
2405
0000
0000
01b2
cafe
2805
0000
0000
01b4
cafe
2c05
0000
0000
01b1
cafe
3005
0000
0000
01b7
cafe
3405
0000
0000
01b6
cafe
3805
0000
0000
01b3
cafe
3c05
0000
0000
01b6
cafe
2005
0000
0000
01b3
cafe
2405
0000
0000
01b7
-
