300d
5556
19bc
0115
cafe
341d
5556
19bc
0123
cafe
3805
5556
19bc
01c4
cafe
3c15
5556
19c0
014d
cafe
200e
5556
19c0
013d
cafe
241e
5556
19c0
0117
cafe
2806
5556
19c0
017e
cafe
2c16
5556
19c4
0156
cafe
300f
5556
19c4
009a
cafe
341f
5556
19c4
0227
cafe
3807
5556
19c4
00f5
cafe
3c17
5556
19c8
014d
cafe
2008
5556
19c8
018a
cafe
2418
5556
19c8
010a
cafe
2800
5556
19c8
0172
cafe
2c10
5556
19cc
01ab
cafe
3009
5556
19cc
018e
cafe
3419
5556
19cc
014b
cafe
3801
5556
19cc
0171
cafe
3c11
5556
19d0
0167
cafe
200a
5556
19d0
012e
cafe
241a
5556
19d0
017d
cafe
2802
5556
19d0
00b2
cafe
2c12
5556
19d4
01a8
cafe
300b
5556
19d4
01cc
cafe
341b
5556
19d4
0177
cafe
3803
5556
19d4
01c0
cafe
3c13
5556
19d8
00e1
cafe
200c
5556
19d8
0123
cafe
241c
5556
19d8
0186
cafe
2804
5556
19d8
015e
cafe
2c14
5556
19dc
0129
cafe
300d
5556
19dc
0127
cafe
341d
5556
19dc
011f
cafe
3805
5556
19dc
01bf
cafe
3c15
5556
19e0
0153
cafe
200e
5556
19e0
0159
cafe
241e
5556
19e0
0119
cafe
2806
5556
19e0
016e
cafe
2c16
5556
19e4
016d
cafe
300f
5556
19e4
00ad
cafe
341f
5556
19e4
0223
cafe
3807
5556
19e4
00ec
cafe
3c17
5556
19e8
0156
cafe
2008
5556
19e8
019c
cafe
2418
5556
19e8
00f6
cafe
2800
5556
19e8
0161
cafe
2c10
5556
19ec
01b6
cafe
3009
5556
19ec
0183
cafe
3419
5556
19ec
014d
cafe
3801
5556
19ec
016e
cafe
3c11
-
5556
19f0
0169
cafe
200a
5556
19f0
011e
cafe
241a
5556
19f0
0171
cafe
2802
5556
19f0
00a3
cafe
2c12
5556
19f4
019e
cafe
300b
5556
19f4
01c8
cafe
341b
5556
19f4
0190
cafe
3803
5556
19f4
01bf
cafe
3c13
5556
19f8
00e5
cafe
200c
5556
19f8
0123
cafe
241c
5556
19f8
016e
cafe
2804
5556
19f8
0178
cafe
2c14
5556
19fc
0133
cafe
300d
5556
19fc
012b
cafe
341d
5556
19fc
0128
cafe
3805
5556
19fc
01c0
cafe
3c15
5556
1a00
0159
cafe
200e
5556
1a00
0146
cafe
241e
5556
1a00
011c
cafe
2806
5556
1a00
0176
cafe
2c16
5556
1a04
015b
cafe
300f
5556
1a04
0097
cafe
341f
5556
1a04
0216
cafe
3807
5556
1a04
00fb
cafe
3c17
5556
1a08
014b
cafe
2008
5556
1a08
01ad
cafe
2418
5556
1a08
00f0
cafe
2800
5556
1a08
0172
cafe
2c10
5556
1a0c
01c2
cafe
3009
5556
1a0c
0180
cafe
3419
5556
1a0c
0148
cafe
3801
5556
1a0c
015f
cafe
3c11
5556
1a10
0172
cafe
200a
5556
1a10
011c
cafe
241a
5556
1a10
017b
cafe
2802
5556
1a10
00a1
cafe
2c12
5556
1a14
01ad
cafe
300b
5556
1a14
01cd
cafe
341b
5556
1a14
0183
cafe
3803
5556
1a14
01b8
cafe
3c13
5556
1a18
00e3
cafe
200c
5556
1a18
0114
cafe
241c
5556
1a18
0180
cafe
2804
5556
1a18
0176
cafe
2c14
5556
1a1c
0138
cafe
300d
5556
1a1c
0128
cafe
341d
5556
1a1c
011c
cafe
3805
5556
1a1c
01bf
cafe
3c15
5556
1a20
0148
cafe
200e
5556
1a20
0146
cafe
241e
5556
1a20
0111
cafe
2806
5556
-
1a20
0178
cafe
2c16
5556
1a24
016c
cafe
300f
5556
1a24
009b
cafe
341f
5556
1a24
0220
cafe
3807
5556
1a24
00e8
cafe
3c17
5556
1a28
0151
cafe
2008
5556
1a28
019c
cafe
2418
5556
1a28
00fa
cafe
2800
5556
1a28
016c
cafe
2c10
5556
1a2c
01bb
cafe
3009
5556
1a2c
0187
cafe
3419
5556
1a2c
0147
cafe
3801
5556
1a2c
0178
cafe
3c11
5556
1a30
015c
cafe
200a
5556
1a30
011d
cafe
241a
5556
1a30
017e
cafe
2802
5556
1a30
009b
cafe
2c12
5556
1a34
01a9
cafe
300b
5556
1a34
01d8
cafe
341b
5556
1a34
0176
cafe
3803
5556
1a34
01bb
cafe
3c13
5556
1a38
00dd
cafe
200c
5556
1a38
010f
cafe
241c
5556
1a38
017a
cafe
2804
5556
1a38
017e
cafe
2c14
5556
1a3c
012e
cafe
300d
5556
1a3c
011f
cafe
341d
5556
1a3c
0119
cafe
3805
5556
1a3c
01be
cafe
3c15
5556
1a40
015c
cafe
200e
5556
1a40
0140
cafe
241e
5556
1a40
0108
cafe
2806
5556
1a40
0186
cafe
2c16
5556
1a44
0166
cafe
300f
5556
1a44
009b
cafe
341f
5556
1a44
0215
cafe
3807
5556
1a44
00f0
cafe
3c17
5556
1a48
014e
cafe
2008
5556
1a48
019b
cafe
2418
5556
1a48
00f5
cafe
2800
5556
1a48
016a
cafe
2c10
5556
1a4c
01cd
cafe
3009
5556
1a4c
018a
cafe
3419
5556
1a4c
0155
cafe
3801
5556
1a4c
016b
cafe
3c11
5556
1a50
0164
cafe
200a
5556
1a50
0118
cafe
241a
5556
1a50
0177
cafe
2802
5556
1a50
0097
cafe
2c12
5556
1a54
01a7
cafe
300b
5556
1a54
01cc
cafe
341b
5556
1a54
-
0178
cafe
3803
5556
1a54
01be
cafe
3c13
5556
1a58
00dc
cafe
200c
5556
1a58
010f
cafe
241c
5556
1a58
0189
cafe
2804
5556
1a58
0178
cafe
2c14
5556
1a5c
0130
cafe
300d
5556
1a5c
0120
cafe
341d
5556
1a5c
011c
cafe
3805
5556
1a5c
01cd
cafe
3c15
5556
1a60
014b
cafe
200e
5556
1a60
013f
cafe
241e
5556
1a60
010e
cafe
2806
5556
1a60
0182
cafe
2c16
5556
1a64
014a
cafe
300f
5556
1a64
0096
cafe
341f
5556
1a64
0215
cafe
3807
5556
1a64
0101
cafe
3c17
5556
1a68
0154
cafe
2008
5556
1a68
0194
cafe
2418
5556
1a68
0108
cafe
2800
5556
1a68
015e
cafe
2c10
5556
1a6c
01be
cafe
3009
5556
1a6c
0181
cafe
3419
5556
1a6c
0162
cafe
3801
5556
1a6c
0175
cafe
3c11
5556
1a70
015f
cafe
200a
5556
1a70
0121
cafe
241a
5556
1a70
017a
cafe
2802
5556
1a70
009f
cafe
2c12
5556
1a74
01a1
cafe
300b
5556
1a74
01db
cafe
341b
5556
1a74
0176
cafe
3803
5556
1a74
01a2
cafe
3c13
5556
1a78
00e7
cafe
200c
5556
1a78
0106
cafe
241c
5556
1a78
0171
cafe
2804
5556
1a78
0189
cafe
2c14
5556
1a7c
011e
cafe
300d
5556
1a7c
0114
cafe
341d
5556
1a7c
0123
cafe
3805
5556
1a7c
01b7
cafe
3c15
5556
1a80
0157
cafe
200e
5556
1a80
014e
cafe
241e
5556
1a80
010e
cafe
2806
5556
1a80
018e
cafe
2c16
5556
1a84
0160
cafe
300f
5556
1a84
0094
cafe
341f
5556
1a84
0210
cafe
3807
5556
1a84
00fa
cafe
3c17
5556
1a88
013a
cafe
2008
5556
1a88
019b
-
cafe
2418
5556
1a88
010f
cafe
2800
5556
1a88
0171
cafe
2c10
5556
1a8c
01dd
cafe
3009
5556
1a8c
0188
cafe
3419
5556
1a8c
0157
cafe
3801
5556
1a8c
016f
cafe
3c11
5556
1a90
015a
cafe
200a
5556
1a90
0122
cafe
241a
5556
1a90
017f
cafe
2802
5556
1a90
00aa
cafe
2c12
5556
1a94
01af
cafe
300b
5556
1a94
01cf
cafe
341b
5556
1a94
0186
cafe
3803
5556
1a94
01b7
cafe
3c13
5556
1a98
00e9
cafe
200c
5556
1a98
0102
cafe
241c
5556
1a98
0188
cafe
2804
5556
1a98
017e
cafe
2c14
5556
1a9c
0144
cafe
300d
5556
1a9c
012b
cafe
341d
5556
1a9c
0112
cafe
3805
5556
1a9c
01b0
cafe
3c15
5556
1aa0
015b
cafe
200e
5556
1aa0
0144
cafe
241e
5556
1aa0
010e
cafe
2806
5556
1aa0
0187
cafe
2c16
5556
1aa4
0159
cafe
300f
5556
1aa4
008e
cafe
341f
5556
1aa4
021d
cafe
3807
5556
1aa4
00e9
cafe
3c17
5556
1aa8
013b
cafe
2008
5556
1aa8
019d
cafe
2418
5556
1aa8
010c
cafe
2800
5556
1aa8
016d
cafe
2c10
5556
1aac
01d6
cafe
3009
5556
1aac
018b
cafe
3419
5556
1aac
0145
cafe
3801
5556
1aac
0169
cafe
3c11
5556
1ab0
014b
cafe
200a
5556
1ab0
012b
cafe
241a
5556
1ab0
0190
cafe
2802
5556
1ab0
00b3
cafe
2c12
5556
1ab4
01af
cafe
300b
5556
1ab4
01c9
cafe
341b
5556
1ab4
0177
cafe
3803
5556
1ab4
01bd
cafe
3c13
5556
1ab8
00e9
cafe
200c
5556
1ab8
010f
cafe
241c
5556
1ab8
0177
cafe
2804
5556
1ab8
0172
cafe
2c14
5556
1abc
013a
cafe
-
300d
5556
1abc
0131
cafe
341d
5556
1abc
0119
cafe
3805
5556
1abc
01b6
cafe
3c15
5556
1ac0
015c
cafe
200e
5556
1ac0
014a
cafe
241e
5556
1ac0
011a
cafe
2806
5556
1ac0
0178
cafe
2c16
5556
1ac4
0152
cafe
300f
5556
1ac4
00a9
cafe
341f
5556
1ac4
021e
cafe
3807
5556
1ac4
00ee
cafe
3c17
5556
1ac8
0140
cafe
2008
5556
1ac8
01a1
cafe
2418
5556
1ac8
0108
cafe
2800
5556
1ac8
015e
cafe
2c10
5556
1acc
01ca
cafe
3009
5556
1acc
018a
cafe
3419
5556
1acc
0143
cafe
3801
5556
1acc
0156
cafe
3c11
5556
1ad0
015c
cafe
200a
5556
1ad0
0130
cafe
241a
5556
1ad0
017a
cafe
2802
5556
1ad0
00ae
cafe
2c12
5556
1ad4
01af
cafe
300b
5556
1ad4
01cd
cafe
341b
5556
1ad4
016c
cafe
3803
5556
1ad4
01b8
cafe
3c13
5556
1ad8
00ea
cafe
200c
5556
1ad8
0110
cafe
241c
5556
1ad8
0179
cafe
2804
5556
1ad8
0185
cafe
2c14
5556
1adc
012e
cafe
300d
5556
1adc
011f
cafe
341d
5556
1adc
0118
cafe
3805
5556
1adc
01b4
cafe
3c15
5556
1ae0
015c
cafe
200e
5556
1ae0
0146
cafe
241e
5556
1ae0
011f
cafe
2806
5556
1ae0
0187
cafe
2c16
5556
1ae4
015e
cafe
300f
5556
1ae4
0095
cafe
341f
5556
1ae4
020b
cafe
3807
5556
1ae4
00ef
cafe
3c17
5556
1ae8
013e
cafe
2008
5556
1ae8
01b2
cafe
2418
5556
1ae8
00fa
cafe
2800
5556
1ae8
0171
cafe
2c10
5556
1aec
01ba
cafe
3009
5556
1aec
0177
cafe
3419
5556
1aec
015a
cafe
3801
5556
1aec
0166
cafe
3c11
-
5556
1af0
0162
cafe
200a
5556
1af0
0132
cafe
241a
5556
1af0
0185
cafe
2802
5556
1af0
00b0
cafe
2c12
5556
1af4
01a7
cafe
300b
5556
1af4
01c5
cafe
341b
5556
1af4
016c
cafe
3803
5556
1af4
01af
cafe
3c13
5556
1af8
00f0
cafe
200c
5556
1af8
0107
cafe
241c
5556
1af8
0184
cafe
2804
5556
1af8
016a
cafe
2c14
5556
1afc
013e
cafe
300d
5556
1afc
0121
cafe
341d
5556
1afc
0110
cafe
3805
5556
1afc
01c2
cafe
3c15
5556
1b00
014b
cafe
200e
5556
1b00
0151
cafe
241e
5556
1b00
011b
cafe
2806
5556
1b00
0191
cafe
2c16
5556
1b04
0163
cafe
300f
5556
1b04
009e
cafe
341f
5556
1b04
020d
cafe
3807
5556
1b04
00f2
cafe
3c17
5556
1b08
0144
cafe
2008
5556
1b08
01bc
cafe
2418
5556
1b08
00f5
cafe
2800
5556
1b08
0163
cafe
2c10
5556
1b0c
01b5
cafe
3009
5556
1b0c
0178
cafe
3419
5556
1b0c
0162
cafe
3801
5556
1b0c
017b
cafe
3c11
5556
1b10
0162
cafe
200a
5556
1b10
0134
cafe
241a
5556
1b10
0179
cafe
2802
5556
1b10
00b4
cafe
2c12
5556
1b14
019c
cafe
300b
5556
1b14
01d5
cafe
341b
5556
1b14
0176
cafe
3803
5556
1b14
01ae
cafe
3c13
5556
1b18
00f8
cafe
200c
5556
1b18
010b
cafe
241c
5556
1b18
0173
cafe
2804
5556
1b18
0176
cafe
2c14
5556
1b1c
0131
cafe
300d
5556
1b1c
012c
cafe
341d
5556
1b1c
0113
cafe
3805
5556
1b1c
01c7
cafe
3c15
5556
1b20
015f
cafe
200e
5556
1b20
014e
cafe
241e
5556
1b20
0118
cafe
2806
5556
-
1b20
0180
cafe
2c16
5556
1b24
0157
cafe
300f
5556
1b24
008c
cafe
341f
5556
1b24
0213
cafe
3807
5556
1b24
00f2
cafe
3c17
5556
1b28
013c
cafe
2008
5556
1b28
01c1
cafe
2418
5556
1b28
00f4
cafe
2800
5556
1b28
016b
cafe
2c10
5556
1b2c
01c4
cafe
3009
5556
1b2c
0176
cafe
3419
5556
1b2c
0155
cafe
3801
5556
1b2c
0161
cafe
3c11
5556
1b30
0168
cafe
200a
5556
1b30
012f
cafe
241a
5556
1b30
0170
cafe
2802
5556
1b30
00a8
cafe
2c12
5556
1b34
01a0
cafe
300b
5556
1b34
01c0
cafe
341b
5556
1b34
0180
cafe
3803
5556
1b34
01ad
cafe
3c13
5556
1b38
00eb
cafe
200c
5556
1b38
010a
cafe
241c
5556
1b38
0179
cafe
2804
5556
1b38
0174
cafe
2c14
5556
1b3c
0133
cafe
300d
5556
1b3c
0120
cafe
341d
5556
1b3c
0119
cafe
3805
5556
1b3c
01bc
cafe
3c15
5556
1b40
015e
cafe
200e
5556
1b40
0154
cafe
241e
5556
1b40
0113
cafe
2806
5556
1b40
0187
cafe
2c16
5556
1b44
0153
cafe
300f
5556
1b44
00a4
cafe
341f
5556
1b44
0230
cafe
3807
5556
1b44
00f4
cafe
3c17
5556
1b48
0148
cafe
2008
5556
1b48
01ae
cafe
2418
5556
1b48
00f7
cafe
2800
5556
1b48
0168
cafe
2c10
5556
1b4c
01b9
cafe
3009
5556
1b4c
0172
cafe
3419
5556
1b4c
0151
cafe
3801
5556
1b4c
0170
cafe
3c11
5556
1b50
015d
cafe
200a
5556
1b50
011a
cafe
241a
5556
1b50
0170
cafe
2802
5556
1b50
00b0
cafe
2c12
5556
1b54
019d
cafe
300b
5556
1b54
01c1
cafe
341b
5556
1b54
-
017b
cafe
3803
5556
1b54
01a3
cafe
3c13
5556
1b58
00e8
cafe
200c
5556
1b58
0108
cafe
241c
5556
1b58
0178
cafe
2804
5556
1b58
0178
cafe
2c14
5556
1b5c
0127
cafe
300d
5556
1b5c
011f
cafe
341d
5556
1b5c
0118
cafe
3805
5556
1b5c
01ca
cafe
3c15
5556
1b60
0154
cafe
200e
5556
1b60
0159
cafe
241e
5556
1b60
010b
cafe
2806
5556
1b60
0188
cafe
2c16
5556
1b64
015a
cafe
300f
5556
1b64
008e
cafe
341f
5556
1b64
0213
cafe
3807
5556
1b64
00e1
cafe
3c17
5556
1b68
0160
cafe
2008
5556
1b68
01bc
cafe
2418
5556
1b68
00fb
cafe
2800
5556
1b68
0156
cafe
2c10
5556
1b6c
01c9
cafe
3009
5556
1b6c
0180
cafe
3419
5556
1b6c
015f
cafe
3801
5556
1b6c
0175
cafe
3c11
5556
1b70
016d
cafe
200a
5556
1b70
012c
cafe
241a
5556
1b70
0175
cafe
2802
5556
1b70
00aa
cafe
2c12
5556
1b74
01a3
cafe
300b
5556
1b74
01c8
cafe
341b
5556
1b74
016e
cafe
3803
5556
1b74
01b5
cafe
3c13
5556
1b78
00e6
cafe
200c
5556
1b78
0105
cafe
241c
5556
1b78
0177
cafe
2804
5556
1b78
017f
cafe
2c14
5556
1b7c
012f
cafe
300d
5556
1b7c
0109
cafe
341d
5556
1b7c
011c
cafe
3805
5556
1b7c
01ac
cafe
3c15
5556
1b80
0153
cafe
200e
5556
1b80
0143
cafe
241e
5556
1b80
0116
cafe
2806
5556
1b80
017b
cafe
2c16
5556
1b84
0156
cafe
300f
5556
1b84
00a1
cafe
341f
5556
1b84
0220
cafe
3807
5556
1b84
00df
cafe
3c17
5556
1b88
0141
cafe
2008
5556
1b88
01ac
-
cafe
2418
5556
1b88
0108
cafe
2800
5556
1b88
0178
cafe
2c10
5556
1b8c
01cc
cafe
3009
5556
1b8c
0180
cafe
3419
5556
1b8c
0161
cafe
3801
5556
1b8c
0163
cafe
3c11
5556
1b90
0158
cafe
200a
5556
1b90
0128
cafe
241a
5556
1b90
0186
cafe
2802
5556
1b90
00ba
cafe
2c12
5556
1b94
0197
cafe
300b
5556
1b94
01cb
cafe
341b
5556
1b94
0162
cafe
3803
5556
1b94
01a4
cafe
3c13
5556
1b98
00dd
cafe
200c
5556
1b98
010f
cafe
241c
5556
1b98
018a
cafe
2804
5556
1b98
0184
cafe
2c14
5556
1b9c
013c
cafe
300d
5556
1b9c
011a
cafe
341d
5556
1b9c
011b
cafe
3805
5556
1b9c
01d6
cafe
3c15
5556
1ba0
0149
cafe
200e
5556
1ba0
0148
cafe
241e
5556
1ba0
0110
cafe
2806
5556
1ba0
016f
cafe
2c16
5556
1ba4
0154
cafe
300f
5556
1ba4
009c
cafe
341f
5556
1ba4
0219
cafe
3807
5556
1ba4
00df
cafe
3c17
5556
1ba8
014c
cafe
2008
5556
1ba8
01aa
cafe
2418
5556
1ba8
0104
cafe
2800
5556
1ba8
0178
cafe
2c10
5556
1bac
01ba
cafe
3009
5556
1bac
0182
cafe
3419
5556
1bac
015e
cafe
3801
5556
1bac
0164
cafe
3c11
5556
1bb0
0168
cafe
200a
5556
1bb0
012c
cafe
241a
5556
1bb0
017d
cafe
2802
5556
1bb0
00b2
cafe
2c12
5556
1bb4
0199
cafe
300b
5556
1bb4
01d5
cafe
341b
5556
1bb4
0170
cafe
3803
5556
1bb4
01a9
cafe
3c13
5556
1bb8
00e6
cafe
200c
5556
1bb8
010d
cafe
241c
5556
1bb8
017e
cafe
2804
5556
1bb8
0184
cafe
2c14
5556
1bbc
0132
cafe
-
300d
5556
1bbc
011a
cafe
341d
5556
1bbc
011c
cafe
3805
5556
1bbc
01cf
cafe
3c15
5556
1bc0
014e
cafe
200e
5556
1bc0
015b
cafe
241e
5556
1bc0
0116
cafe
2806
5556
1bc0
0182
cafe
2c16
5556
1bc4
0158
cafe
300f
5556
1bc4
009b
cafe
341f
5556
1bc4
0207
cafe
3807
5556
1bc4
00e1
cafe
3c17
5556
1bc8
0140
cafe
2008
5556
1bc8
01a3
cafe
2418
5556
1bc8
010a
cafe
2800
5556
1bc8
0159
cafe
2c10
5556
1bcc
01b8
cafe
3009
5556
1bcc
017b
cafe
3419
5556
1bcc
0147
cafe
3801
5556
1bcc
015b
cafe
3c11
5556
1bd0
0164
cafe
200a
5556
1bd0
0130
cafe
241a
5556
1bd0
0176
cafe
2802
5556
1bd0
00b7
cafe
2c12
5556
1bd4
01a8
cafe
300b
5556
1bd4
01da
cafe
341b
5556
1bd4
016c
cafe
3803
5556
1bd4
01b3
cafe
3c13
5556
1bd8
00df
cafe
200c
5556
1bd8
010c
cafe
241c
5556
1bd8
0186
cafe
2804
5556
1bd8
0189
cafe
2c14
5556
1bdc
0142
cafe
300d
5556
1bdc
011a
cafe
341d
5556
1bdc
0117
cafe
3805
5556
1bdc
01d2
cafe
3c15
5556
1be0
0147
cafe
200e
5556
1be0
015c
cafe
241e
5556
1be0
010d
cafe
2806
5556
1be0
0180
cafe
2c16
5556
1be4
0164
cafe
300f
5556
1be4
0099
cafe
341f
5556
1be4
0227
cafe
3807
5556
1be4
00e7
cafe
3c17
5556
1be8
014c
cafe
2008
5556
1be8
04b7
cafe
2418
5556
1be8
042d
cafe
2800
5556
1be8
046f
cafe
2c10
5556
1bec
04be
cafe
3009
5556
1bec
084d
cafe
3419
5556
1bec
0827
cafe
3801
5556
1bec
081d
cafe
3c11
-
5556
1bf0
0818
cafe
200a
5556
1bf0
092e
cafe
241a
5556
1bf0
0953
cafe
2802
5556
1bf0
085e
cafe
2c12
5556
1bf4
097c
cafe
300b
5556
1bf4
0a1d
cafe
341b
5556
1bf4
0966
cafe
3803
5556
1bf4
09a7
cafe
3c13
5556
1bf8
0903
cafe
200c
5556
1bf8
094e
cafe
241c
5556
1bf8
0965
cafe
2804
5556
1bf8
097b
cafe
2c14
5556
1bfc
094d
cafe
300d
5556
1bfc
0957
cafe
341d
5556
1bfc
0903
cafe
3805
5556
1bfc
099b
cafe
3c15
5556
1c00
0948
cafe
200e
5556
1c00
097b
cafe
241e
5556
1c00
08cf
cafe
2806
5556
1c00
0969
cafe
2c16
5556
1c04
0942
cafe
300f
5556
1c04
088e
cafe
341f
5556
1c04
09df
cafe
3807
5556
1c04
089e
cafe
3c17
5556
1c08
090b
cafe
2008
5556
1c08
0982
cafe
2418
5556
1c08
08b5
cafe
2800
5556
1c08
091c
cafe
2c10
5556
1c0c
0978
cafe
3009
5556
1c0c
092d
cafe
3419
5556
1c0c
08e3
cafe
3801
5556
1c0c
08e7
cafe
3c11
5556
1c10
090e
cafe
200a
5556
1c10
08f4
cafe
241a
5556
1c10
090e
cafe
2802
5556
1c10
0819
cafe
2c12
5556
1c14
094e
cafe
300b
5556
1c14
098d
cafe
341b
5556
1c14
08e3
cafe
3803
5556
1c14
0912
cafe
3c13
5556
1c18
085c
cafe
200c
5556
1c18
08bb
cafe
241c
5556
1c18
08f4
cafe
2804
5556
1c18
08d5
cafe
2c14
5556
1c1c
08aa
cafe
300d
5556
1c1c
08ad
cafe
341d
5556
1c1c
0866
cafe
3805
5556
1c1c
0910
cafe
3c15
5556
1c20
08a9
cafe
200e
5556
1c20
08d3
cafe
241e
5556
1c20
0869
cafe
2806
5556
-
1c20
08d7
cafe
2c16
5556
1c24
08b4
cafe
300f
5556
1c24
080e
cafe
341f
5556
1c24
0960
cafe
3807
5556
1c24
080f
cafe
3c17
5556
1c28
0899
cafe
2008
5556
1c28
0908
cafe
2418
5556
1c28
082c
cafe
2800
5556
1c28
088c
cafe
2c10
5556
1c2c
0927
cafe
3009
5556
1c2c
08c5
cafe
3419
5556
1c2c
086a
cafe
3801
5556
1c2c
0878
cafe
3c11
5556
1c30
089e
cafe
200a
5556
1c30
0880
cafe
241a
5556
1c30
08a2
cafe
2802
5556
1c30
079b
cafe
2c12
5556
1c34
08cd
cafe
300b
5556
1c34
0921
cafe
341b
5556
1c34
0863
cafe
3803
5556
1c34
08a4
cafe
3c13
5556
1c38
07e7
cafe
200c
5556
1c38
0839
cafe
241c
5556
1c38
087e
cafe
2804
5556
1c38
0858
cafe
2c14
5556
1c3c
083c
cafe
300d
5556
1c3c
082f
cafe
341d
5556
1c3c
07eb
cafe
3805
5556
1c3c
08a3
cafe
3c15
5556
1c40
0826
cafe
200e
5556
1c40
0864
cafe
241e
5556
1c40
07e7
cafe
2806
5556
1c40
0859
cafe
2c16
5556
1c44
0839
cafe
300f
5556
1c44
0785
cafe
341f
5556
1c44
08db
cafe
3807
5556
1c44
07a0
cafe
3c17
5556
1c48
081c
cafe
2008
5556
1c48
08a0
cafe
2418
5556
1c48
07c1
cafe
2800
5556
1c48
0808
cafe
2c10
5556
1c4c
08ab
cafe
3009
5556
1c4c
0859
cafe
3419
5556
1c4c
07f9
cafe
3801
5556
1c4c
080c
cafe
3c11
5556
1c50
0832
cafe
200a
5556
1c50
0805
cafe
241a
5556
1c50
082a
cafe
2802
5556
1c50
0720
cafe
2c12
5556
1c54
0871
cafe
300b
5556
1c54
08a5
cafe
341b
5556
1c54
-
07ee
cafe
3803
5556
1c54
0826
cafe
3c13
5556
1c58
077e
cafe
200c
5556
1c58
07c2
cafe
241c
5556
1c58
0807
cafe
2804
5556
1c58
07fd
cafe
2c14
5556
1c5c
07b5
cafe
300d
5556
1c5c
07b3
cafe
341d
5556
1c5c
0770
cafe
3805
5556
1c5c
0828
cafe
3c15
5556
1c60
07bf
cafe
200e
5556
1c60
07ec
cafe
241e
5556
1c60
0779
cafe
2806
5556
1c60
07f2
cafe
2c16
5556
1c64
07d7
cafe
300f
5556
1c64
0721
cafe
341f
5556
1c64
0882
cafe
3807
5556
1c64
072f
cafe
3c17
5556
1c68
07a6
cafe
2008
5556
1c68
0835
cafe
2418
5556
1c68
072f
cafe
2800
5556
1c68
0792
cafe
2c10
5556
1c6c
082d
cafe
3009
5556
1c6c
07e3
cafe
3419
5556
1c6c
078e
cafe
3801
5556
1c6c
0798
cafe
3c11
5556
1c70
07c3
cafe
200a
5556
1c70
079c
cafe
241a
5556
1c70
07c3
cafe
2802
5556
1c70
069e
cafe
2c12
5556
1c74
0809
cafe
300b
5556
1c74
0835
cafe
341b
5556
1c74
0784
cafe
3803
5556
1c74
07b3
cafe
3c13
5556
1c78
06fb
cafe
200c
5556
1c78
075f
cafe
241c
5556
1c78
07af
cafe
2804
5556
1c78
0781
cafe
2c14
5556
1c7c
074f
cafe
300d
5556
1c7c
0746
cafe
341d
5556
1c7c
0711
cafe
3805
5556
1c7c
07b3
cafe
3c15
5556
1c80
0749
cafe
200e
5556
1c80
0793
cafe
241e
5556
1c80
070b
cafe
2806
5556
1c80
077d
cafe
2c16
5556
1c84
0766
cafe
300f
5556
1c84
069b
cafe
341f
5556
1c84
07ff
cafe
3807
5556
1c84
06b6
cafe
3c17
5556
1c88
0745
cafe
2008
5556
1c88
07c1
-
cafe
2418
5556
1c88
06cd
cafe
2800
5556
1c88
0721
cafe
2c10
5556
1c8c
07be
cafe
3009
5556
1c8c
0774
cafe
3419
5556
1c8c
0727
cafe
3801
5556
1c8c
072c
cafe
3c11
5556
1c90
0756
cafe
200a
5556
1c90
0720
cafe
241a
5556
1c90
073f
cafe
2802
5556
1c90
0640
cafe
2c12
5556
1c94
0799
cafe
300b
5556
1c94
07d2
cafe
341b
5556
1c94
0724
cafe
3803
5556
1c94
0755
cafe
3c13
5556
1c98
06aa
cafe
200c
5556
1c98
06ed
cafe
241c
5556
1c98
0739
cafe
2804
5556
1c98
071d
cafe
2c14
5556
1c9c
06ec
cafe
300d
5556
1c9c
06d4
cafe
341d
5556
1c9c
06a1
cafe
3805
5556
1c9c
0753
cafe
3c15
5556
1ca0
06e4
cafe
200e
5556
1ca0
0726
cafe
241e
5556
1ca0
06b3
cafe
2806
5556
1ca0
0726
cafe
2c16
5556
1ca4
06f5
cafe
300f
5556
1ca4
062e
cafe
341f
5556
1ca4
079e
cafe
3807
5556
1ca4
0648
cafe
3c17
5556
1ca8
06e5
cafe
2008
5556
1ca8
076b
cafe
2418
5556
1ca8
0663
cafe
2800
5556
1ca8
06c3
cafe
2c10
5556
1cac
076b
cafe
3009
5556
1cac
071f
cafe
3419
5556
1cac
06b7
cafe
3801
5556
1cac
06cb
cafe
3c11
5556
1cb0
06ef
cafe
200a
5556
1cb0
06ad
cafe
241a
5556
1cb0
06da
cafe
2802
5556
1cb0
05e0
cafe
2c12
5556
1cb4
0733
cafe
300b
5556
1cb4
0774
cafe
341b
5556
1cb4
06b4
cafe
3803
5556
1cb4
06f2
cafe
3c13
5556
1cb8
0638
cafe
200c
5556
1cb8
0698
cafe
241c
5556
1cb8
06e7
cafe
2804
5556
1cb8
06a1
cafe
2c14
5556
1cbc
0691
cafe
-
300d
5556
1cbc
0684
cafe
341d
5556
1cbc
062e
cafe
3805
5556
1cbc
06f2
cafe
3c15
5556
1cc0
0675
cafe
200e
5556
1cc0
06c7
cafe
241e
5556
1cc0
0648
cafe
2806
5556
1cc0
06bd
cafe
2c16
5556
1cc4
0689
cafe
300f
5556
1cc4
05c8
cafe
341f
5556
1cc4
0756
cafe
3807
5556
1cc4
05e5
cafe
3c17
5556
1cc8
0696
cafe
2008
5556
1cc8
0706
cafe
2418
5556
1cc8
05fa
cafe
2800
5556
1cc8
0662
cafe
2c10
5556
1ccc
0708
cafe
3009
5556
1ccc
06ca
cafe
3419
5556
1ccc
065b
cafe
3801
5556
1ccc
066a
cafe
3c11
5556
1cd0
0696
cafe
200a
5556
1cd0
0654
cafe
241a
5556
1cd0
0683
cafe
2802
5556
1cd0
0576
cafe
2c12
5556
1cd4
06e7
cafe
300b
5556
1cd4
0710
cafe
341b
5556
1cd4
0664
cafe
3803
5556
1cd4
0699
cafe
3c13
5556
1cd8
05ce
cafe
200c
5556
1cd8
0636
cafe
241c
5556
1cd8
0680
cafe
2804
5556
1cd8
064d
cafe
2c14
5556
1cdc
062d
cafe
300d
5556
1cdc
060b
cafe
341d
5556
1cdc
05dc
cafe
3805
5556
1cdc
06a3
cafe
3c15
5556
1ce0
0629
cafe
200e
5556
1ce0
0671
cafe
241e
5556
1ce0
05e9
cafe
2806
5556
1ce0
0671
cafe
2c16
5556
1ce4
0633
cafe
300f
5556
1ce4
0558
cafe
341f
5556
1ce4
06fd
cafe
3807
5556
1ce4
058f
cafe
3c17
5556
1ce8
0628
cafe
2008
5556
1ce8
06b8
cafe
2418
5556
1ce8
059e
cafe
2800
5556
1ce8
060d
cafe
2c10
5556
1cec
06ac
cafe
3009
5556
1cec
0660
cafe
3419
5556
1cec
05f7
cafe
3801
5556
1cec
0615
cafe
3c11
-
5556
1cf0
062e
cafe
200a
5556
1cf0
05f7
cafe
241a
5556
1cf0
0623
cafe
2802
5556
1cf0
0522
cafe
2c12
5556
1cf4
0690
cafe
300b
5556
1cf4
06b7
cafe
341b
5556
1cf4
060b
cafe
3803
5556
1cf4
0627
cafe
3c13
5556
1cf8
0583
cafe
200c
5556
1cf8
05dc
cafe
241c
5556
1cf8
0634
cafe
2804
5556
1cf8
0600
cafe
2c14
5556
1cfc
05e8
cafe
300d
5556
1cfc
05c9
cafe
341d
5556
1cfc
057f
cafe
3805
5556
1cfc
063e
cafe
3c15
5556
1d00
05cc
cafe
200e
5556
1d00
061b
cafe
241e
5556
1d00
05a5
cafe
2806
5556
1d00
0600
cafe
2c16
5556
1d04
05f2
cafe
300f
5556
1d04
050c
cafe
341f
5556
1d04
069d
cafe
3807
5556
1d04
0541
cafe
3c17
5556
1d08
05df
cafe
2008
5556
1d08
0655
cafe
2418
5556
1d08
0555
cafe
2800
5556
1d08
05ac
cafe
2c10
5556
1d0c
065a
cafe
3009
5556
1d0c
0616
cafe
3419
5556
1d0c
05a4
cafe
3801
5556
1d0c
05b3
cafe
3c11
5556
1d10
05df
cafe
200a
5556
1d10
05a0
cafe
241a
5556
1d10
05cc
cafe
2802
5556
1d10
04b2
cafe
2c12
5556
1d14
063f
cafe
300b
5556
1d14
066b
cafe
341b
5556
1d14
05b7
cafe
3803
5556
1d14
05e6
cafe
3c13
5556
1d18
051a
cafe
200c
5556
1d18
0574
cafe
241c
5556
1d18
05e0
cafe
2804
5556
1d18
05a2
cafe
2c14
5556
1d1c
0595
cafe
300d
5556
1d1c
056d
cafe
341d
5556
1d1c
052e
cafe
3805
5556
1d1c
05eb
cafe
3c15
5556
1d20
0581
cafe
200e
5556
1d20
05c4
cafe
241e
5556
1d20
0543
cafe
2806
5556
-
1d20
05bd
cafe
2c16
5556
1d24
059a
cafe
300f
5556
1d24
04bd
cafe
341f
5556
1d24
0659
cafe
3807
5556
1d24
04dc
cafe
3c17
5556
1d28
058e
cafe
2008
5556
1d28
0600
cafe
2418
5556
1d28
04ec
cafe
2800
5556
1d28
0553
cafe
2c10
5556
1d2c
0607
cafe
3009
5556
1d2c
05bc
cafe
3419
5556
1d2c
054e
cafe
3801
5556
1d2c
0562
cafe
3c11
5556
1d30
0595
cafe
200a
5556
1d30
054f
cafe
241a
5556
1d30
057e
cafe
2802
5556
1d30
0457
cafe
2c12
5556
1d34
05ed
cafe
300b
5556
1d34
0622
cafe
341b
5556
1d34
0576
cafe
3803
5556
1d34
05a1
cafe
3c13
5556
1d38
04d6
cafe
200c
5556
1d38
0522
cafe
241c
5556
1d38
0588
cafe
2804
5556
1d38
055d
cafe
2c14
5556
1d3c
0534
cafe
300d
5556
1d3c
0518
cafe
341d
5556
1d3c
04e5
cafe
3805
5556
1d3c
059f
cafe
3c15
5556
1d40
0522
cafe
200e
5556
1d40
0577
cafe
241e
5556
1d40
04f3
cafe
2806
5556
1d40
0565
cafe
2c16
5556
1d44
0540
cafe
300f
5556
1d44
047b
cafe
341f
5556
1d44
0605
cafe
3807
5556
1d44
0496
cafe
3c17
5556
1d48
053e
cafe
2008
5556
1d48
05cc
cafe
2418
5556
1d48
04ae
cafe
2800
5556
1d48
04fd
cafe
2c10
5556
1d4c
05a4
cafe
3009
5556
1d4c
057e
cafe
3419
5556
1d4c
0504
cafe
3801
5556
1d4c
0514
cafe
3c11
5556
1d50
0546
cafe
200a
5556
1d50
050b
cafe
241a
5556
1d50
0541
cafe
2802
5556
1d50
041a
cafe
2c12
5556
1d54
05a2
cafe
300b
5556
1d54
05c8
cafe
341b
5556
1d54
-
051e
cafe
3803
5556
1d54
054e
cafe
3c13
5556
1d58
0480
cafe
200c
5556
1d58
04e0
cafe
241c
5556
1d58
053e
cafe
2804
5556
1d58
0512
cafe
2c14
5556
1d5c
04ed
cafe
300d
5556
1d5c
04d6
cafe
341d
5556
1d5c
04a9
cafe
3805
5556
1d5c
055a
cafe
3c15
5556
1d60
04eb
cafe
200e
5556
1d60
051c
cafe
241e
5556
1d60
04bc
cafe
2806
5556
1d60
0514
cafe
2c16
5556
1d64
04ff
cafe
300f
5556
1d64
042f
cafe
341f
5556
1d64
05c1
cafe
3807
5556
1d64
043a
cafe
3c17
5556
1d68
04f0
cafe
2008
5556
1d68
0576
cafe
2418
5556
1d68
0461
cafe
2800
5556
1d68
04bc
cafe
2c10
5556
1d6c
055f
cafe
3009
5556
1d6c
0520
cafe
3419
5556
1d6c
04c1
cafe
3801
5556
1d6c
04da
cafe
3c11
5556
1d70
050c
cafe
200a
5556
1d70
04b3
cafe
241a
5556
1d70
04ef
cafe
2802
5556
1d70
03ce
cafe
2c12
5556
1d74
0553
cafe
300b
5556
1d74
0581
cafe
341b
5556
1d74
04de
cafe
3803
5556
1d74
0516
cafe
3c13
5556
1d78
044d
cafe
200c
5556
1d78
0496
cafe
241c
5556
1d78
0502
cafe
2804
5556
1d78
04e4
cafe
2c14
5556
1d7c
04a7
cafe
300d
5556
1d7c
0486
cafe
341d
5556
1d7c
0456
cafe
3805
5556
1d7c
051c
cafe
3c15
5556
1d80
0495
cafe
200e
5556
1d80
04dc
cafe
241e
5556
1d80
0462
cafe
2806
5556
1d80
04e5
cafe
2c16
5556
1d84
04be
cafe
300f
5556
1d84
03e7
cafe
341f
5556
1d84
0588
cafe
3807
5556
1d84
040e
cafe
3c17
5556
1d88
04c6
cafe
2008
5556
1d88
0535
-
cafe
2418
5556
1d88
041b
cafe
2800
5556
1d88
047b
cafe
2c10
5556
1d8c
0518
cafe
3009
5556
1d8c
04ee
cafe
3419
5556
1d8c
046c
cafe
3801
5556
1d8c
0495
cafe
3c11
5556
1d90
04bf
cafe
200a
5556
1d90
0488
cafe
241a
5556
1d90
04a9
cafe
2802
5556
1d90
0399
cafe
2c12
5556
1d94
051e
cafe
300b
5556
1d94
055e
cafe
341b
5556
1d94
04a5
cafe
3803
5556
1d94
04d6
cafe
3c13
5556
1d98
0416
cafe
200c
5556
1d98
0453
cafe
241c
5556
1d98
04c1
cafe
2804
5556
1d98
048f
cafe
2c14
5556
1d9c
0459
cafe
300d
5556
1d9c
044c
cafe
341d
5556
1d9c
040f
cafe
3805
5556
1d9c
04e0
cafe
3c15
5556
1da0
0465
cafe
200e
5556
1da0
04a7
cafe
241e
5556
1da0
041d
cafe
2806
5556
1da0
0498
cafe
2c16
5556
1da4
0487
cafe
300f
5556
1da4
03ba
cafe
341f
5556
1da4
054a
cafe
3807
5556
1da4
03c4
cafe
3c17
5556
1da8
047e
cafe
2008
5556
1da8
04fa
cafe
2418
5556
1da8
03e7
cafe
2800
5556
1da8
0434
cafe
2c10
5556
1dac
04e1
cafe
3009
5556
1dac
04a4
cafe
3419
5556
1dac
0431
cafe
3801
5556
1dac
045c
cafe
3c11
5556
1db0
048c
cafe
200a
5556
1db0
0430
cafe
241a
5556
1db0
0478
cafe
2802
5556
1db0
0349
cafe
2c12
5556
1db4
04e1
cafe
300b
5556
1db4
0511
cafe
341b
5556
1db4
0457
cafe
3803
5556
1db4
0491
cafe
3c13
5556
1db8
03b8
cafe
200c
5556
1db8
041c
cafe
241c
5556
1db8
0470
cafe
2804
5556
1db8
0459
cafe
2c14
5556
1dbc
0429
cafe
-
300d
5556
1dbc
0416
cafe
341d
5556
1dbc
03db
cafe
3805
5556
1dbc
0496
cafe
3c15
5556
1dc0
0425
cafe
200e
5556
1dc0
0460
cafe
241e
5556
1dc0
03f6
cafe
2806
5556
1dc0
0456
cafe
2c16
5556
1dc4
0446
cafe
300f
5556
1dc4
037c
cafe
341f
5556
1dc4
050d
cafe
3807
5556
1dc4
039c
cafe
3c17
5556
1dc8
043f
cafe
2008
5556
1dc8
04c5
cafe
2418
5556
1dc8
03b5
cafe
2800
5556
1dc8
03fb
cafe
2c10
5556
1dcc
04b8
cafe
3009
5556
1dcc
0479
cafe
3419
5556
1dcc
03f3
cafe
3801
5556
1dcc
0424
cafe
3c11
5556
1dd0
0451
cafe
200a
5556
1dd0
0404
cafe
241a
5556
1dd0
043d
cafe
2802
5556
1dd0
0314
cafe
2c12
5556
1dd4
048c
cafe
300b
5556
1dd4
04df
cafe
341b
5556
1dd4
0417
cafe
3803
5556
1dd4
0459
cafe
3c13
5556
1dd8
0395
cafe
200c
5556
1dd8
03c8
cafe
241c
5556
1dd8
042b
cafe
2804
5556
1dd8
0416
cafe
2c14
5556
1ddc
03e0
cafe
300d
5556
1ddc
03e1
cafe
341d
5556
1ddc
03af
cafe
3805
5556
1ddc
0456
cafe
3c15
5556
1de0
0408
cafe
200e
5556
1de0
0422
cafe
241e
5556
1de0
03bf
cafe
2806
5556
1de0
0431
cafe
2c16
5556
1de4
03f7
cafe
300f
5556
1de4
0342
cafe
341f
5556
1de4
04d5
cafe
3807
5556
1de4
0363
cafe
3c17
5556
1de8
040c
cafe
2008
5556
1de8
0484
cafe
2418
5556
1de8
036a
cafe
2800
5556
1de8
03c9
cafe
2c10
5556
1dec
047e
cafe
3009
5556
1dec
0439
cafe
3419
5556
1dec
03d4
cafe
3801
5556
1dec
03e6
cafe
3c11
-
5556
1df0
0423
cafe
200a
5556
1df0
03d5
cafe
241a
5556
1df0
0408
cafe
2802
5556
1df0
02e2
cafe
2c12
5556
1df4
046c
cafe
300b
5556
1df4
04ac
cafe
341b
5556
1df4
03e6
cafe
3803
5556
1df4
0423
cafe
3c13
5556
1df8
034e
cafe
200c
5556
1df8
03a0
cafe
241c
5556
1df8
0408
cafe
2804
5556
1df8
03e0
cafe
2c14
5556
1dfc
03ac
cafe
300d
5556
1dfc
03a9
cafe
341d
5556
1dfc
0379
cafe
3805
5556
1dfc
043f
cafe
3c15
5556
1e00
03c7
cafe
200e
5556
1e00
03e6
cafe
241e
5556
1e00
0387
cafe
2806
5556
1e00
03f0
cafe
2c16
5556
1e04
03dc
cafe
300f
5556
1e04
02f9
cafe
341f
5556
1e04
0498
cafe
3807
5556
1e04
0325
cafe
3c17
5556
1e08
03d8
cafe
2008
5556
1e08
044a
cafe
2418
5556
1e08
0346
cafe
2800
5556
1e08
038e
cafe
2c10
5556
1e0c
0446
cafe
3009
5556
1e0c
040c
cafe
3419
5556
1e0c
03a4
cafe
3801
5556
1e0c
03c1
cafe
3c11
5556
1e10
03e2
cafe
200a
5556
1e10
0389
cafe
241a
5556
1e10
03d5
cafe
2802
5556
1e10
02ba
cafe
2c12
5556
1e14
0432
cafe
300b
5556
1e14
047c
cafe
341b
5556
1e14
03c8
cafe
3803
5556
1e14
03e9
cafe
3c13
5556
1e18
0322
cafe
200c
5556
1e18
037c
cafe
241c
5556
1e18
03d4
cafe
2804
5556
1e18
03b1
cafe
2c14
5556
1e1c
037b
cafe
300d
5556
1e1c
0382
cafe
341d
5556
1e1c
0339
cafe
3805
5556
1e1c
0402
cafe
3c15
5556
1e20
039d
cafe
200e
5556
1e20
03bb
cafe
241e
5556
1e20
036d
cafe
2806
5556
-
1e20
03cc
cafe
2c16
5556
1e24
03a0
cafe
300f
5556
1e24
02c7
cafe
341f
5556
1e24
046f
cafe
3807
5556
1e24
02f5
cafe
3c17
5556
1e28
03aa
cafe
2008
5556
1e28
041f
cafe
2418
5556
1e28
0313
cafe
2800
5556
1e28
0368
cafe
2c10
5556
1e2c
0410
cafe
3009
5556
1e2c
03d4
cafe
3419
5556
1e2c
036f
cafe
3801
5556
1e2c
0391
cafe
3c11
5556
1e30
03b7
cafe
200a
5556
1e30
0367
cafe
241a
5556
1e30
03a5
cafe
2802
5556
1e30
029d
cafe
2c12
5556
1e34
0401
cafe
300b
5556
1e34
0452
cafe
341b
5556
1e34
0391
cafe
3803
5556
1e34
03ce
cafe
3c13
5556
1e38
02f7
cafe
200c
5556
1e38
033c
cafe
241c
5556
1e38
0397
cafe
2804
5556
1e38
0371
cafe
2c14
5556
1e3c
0348
cafe
300d
5556
1e3c
0338
cafe
341d
5556
1e3c
030b
cafe
3805
5556
1e3c
03cf
cafe
3c15
5556
1e40
0361
cafe
200e
5556
1e40
038d
cafe
241e
5556
1e40
0342
cafe
2806
5556
1e40
039f
cafe
2c16
5556
1e44
0367
cafe
300f
5556
1e44
029c
cafe
341f
5556
1e44
0444
cafe
3807
5556
1e44
02c8
cafe
3c17
5556
1e48
0388
cafe
2008
5556
1e48
03ee
cafe
2418
5556
1e48
02dc
cafe
2800
5556
1e48
0344
cafe
2c10
5556
1e4c
03e3
cafe
3009
5556
1e4c
03a5
cafe
3419
5556
1e4c
0338
cafe
3801
5556
1e4c
0361
cafe
3c11
5556
1e50
0387
cafe
200a
5556
1e50
0323
cafe
241a
5556
1e50
0375
cafe
2802
5556
1e50
0263
cafe
2c12
5556
1e54
03e9
cafe
300b
5556
1e54
0419
cafe
341b
5556
1e54
-
0366
cafe
3803
5556
1e54
03a2
cafe
3c13
5556
1e58
02ca
cafe
200c
5556
1e58
0325
cafe
241c
5556
1e58
0376
cafe
2804
5556
1e58
034b
cafe
2c14
5556
1e5c
0320
cafe
300d
5556
1e5c
030f
cafe
341d
5556
1e5c
02e8
cafe
3805
5556
1e5c
03a7
cafe
3c15
5556
1e60
0339
cafe
200e
5556
1e60
0364
cafe
241e
5556
1e60
0312
cafe
2806
5556
1e60
0364
cafe
2c16
5556
1e64
0344
cafe
300f
5556
1e64
027f
cafe
341f
5556
1e64
042b
cafe
3807
5556
1e64
02a3
cafe
3c17
5556
1e68
034a
cafe
2008
5556
1e68
03e0
cafe
2418
5556
1e68
02bc
cafe
2800
5556
1e68
0305
cafe
2c10
5556
1e6c
03b1
cafe
3009
5556
1e6c
0368
cafe
3419
5556
1e6c
031c
cafe
3801
5556
1e6c
0332
cafe
3c11
5556
1e70
036b
cafe
200a
5556
1e70
0311
cafe
241a
5556
1e70
034b
cafe
2802
5556
1e70
0242
cafe
2c12
5556
1e74
03aa
cafe
300b
5556
1e74
03eb
cafe
341b
5556
1e74
0345
cafe
3803
5556
1e74
0376
cafe
3c13
5556
1e78
02ac
cafe
200c
5556
1e78
02fa
cafe
241c
5556
1e78
034d
cafe
2804
5556
1e78
032f
cafe
2c14
5556
1e7c
02f6
cafe
300d
5556
1e7c
02ec
cafe
341d
5556
1e7c
02c2
cafe
3805
5556
1e7c
037c
cafe
3c15
5556
1e80
0320
cafe
200e
5556
1e80
032d
cafe
241e
5556
1e80
02d2
cafe
2806
5556
1e80
0349
cafe
2c16
5556
1e84
0320
cafe
300f
5556
1e84
0246
cafe
341f
5556
1e84
03fb
cafe
3807
5556
1e84
0280
cafe
3c17
5556
1e88
0331
cafe
2008
5556
1e88
03bb
-
cafe
2418
5556
1e88
029f
cafe
2800
5556
1e88
02ec
cafe
2c10
5556
1e8c
038f
cafe
3009
5556
1e8c
034d
cafe
3419
5556
1e8c
02e5
cafe
3801
5556
1e8c
030a
cafe
3c11
5556
1e90
0342
cafe
200a
5556
1e90
0300
cafe
241a
5556
1e90
0315
cafe
2802
5556
1e90
021e
cafe
2c12
5556
1e94
037c
cafe
300b
5556
1e94
03ba
cafe
341b
5556
1e94
0317
cafe
3803
5556
1e94
034b
cafe
3c13
5556
1e98
027e
cafe
200c
5556
1e98
02ca
cafe
241c
5556
1e98
0339
cafe
2804
5556
1e98
030b
cafe
2c14
5556
1e9c
02df
cafe
300d
5556
1e9c
02c0
cafe
341d
5556
1e9c
02a3
cafe
3805
5556
1e9c
0368
cafe
3c15
5556
1ea0
02e5
cafe
200e
5556
1ea0
0302
cafe
241e
5556
1ea0
02bc
cafe
2806
5556
1ea0
0319
cafe
2c16
5556
1ea4
02f5
cafe
300f
5556
1ea4
0209
cafe
341f
5556
1ea4
03c8
cafe
3807
5556
1ea4
0257
cafe
3c17
5556
1ea8
0312
cafe
2008
5556
1ea8
037c
cafe
2418
5556
1ea8
0277
cafe
2800
5556
1ea8
02d4
cafe
2c10
5556
1eac
0376
cafe
3009
5556
1eac
0326
cafe
3419
5556
1eac
02c7
cafe
3801
5556
1eac
02e7
cafe
3c11
5556
1eb0
0323
cafe
200a
5556
1eb0
02c9
cafe
241a
5556
1eb0
02fb
cafe
2802
5556
1eb0
01fd
cafe
2c12
5556
1eb4
0369
cafe
300b
5556
1eb4
03b4
cafe
341b
5556
1eb4
02f0
cafe
3803
5556
1eb4
0332
cafe
3c13
5556
1eb8
0261
cafe
200c
5556
1eb8
02b2
cafe
241c
5556
1eb8
0309
cafe
2804
5556
1eb8
02df
cafe
2c14
5556
1ebc
02b2
cafe
-
300d
5556
1ebc
029f
cafe
341d
5556
1ebc
0294
cafe
3805
5556
1ebc
033b
cafe
3c15
5556
1ec0
02cd
cafe
200e
5556
1ec0
02f4
cafe
241e
5556
1ec0
028e
cafe
2806
5556
1ec0
02f0
cafe
2c16
5556
1ec4
02d2
cafe
300f
5556
1ec4
01f7
cafe
341f
5556
1ec4
03b0
cafe
3807
5556
1ec4
0244
cafe
3c17
5556
1ec8
02ec
cafe
2008
5556
1ec8
0345
cafe
2418
5556
1ec8
0268
cafe
2800
5556
1ec8
02a9
cafe
2c10
5556
1ecc
0358
cafe
3009
5556
1ecc
0316
cafe
3419
5556
1ecc
02a7
cafe
3801
5556
1ecc
02d5
cafe
3c11
5556
1ed0
02ec
cafe
200a
5556
1ed0
02ae
cafe
241a
5556
1ed0
02e0
cafe
2802
5556
1ed0
01cf
cafe
2c12
5556
1ed4
0348
cafe
300b
5556
1ed4
0379
cafe
341b
5556
1ed4
02cb
cafe
3803
5556
1ed4
0316
cafe
3c13
5556
1ed8
023d
cafe
200c
5556
1ed8
028a
cafe
241c
5556
1ed8
02e1
cafe
2804
5556
1ed8
02c2
cafe
2c14
5556
1edc
0292
cafe
300d
5556
1edc
027a
cafe
341d
5556
1edc
025d
cafe
3805
5556
1edc
0316
cafe
3c15
5556
1ee0
02b2
cafe
200e
5556
1ee0
02d9
cafe
241e
5556
1ee0
0268
cafe
2806
5556
1ee0
02e7
cafe
2c16
5556
1ee4
02b2
cafe
300f
5556
1ee4
01e6
cafe
341f
5556
1ee4
0387
cafe
3807
5556
1ee4
0212
cafe
3c17
5556
1ee8
02d2
cafe
2008
5556
1ee8
0333
cafe
2418
5556
1ee8
0239
cafe
2800
5556
1ee8
028d
cafe
2c10
5556
1eec
031b
cafe
3009
5556
1eec
02e7
cafe
3419
5556
1eec
028c
cafe
3801
5556
1eec
02af
cafe
3c11
-
5556
1ef0
02d5
cafe
200a
5556
1ef0
028a
cafe
241a
5556
1ef0
02d1
cafe
2802
5556
1ef0
01a8
cafe
2c12
5556
1ef4
0319
cafe
300b
5556
1ef4
035d
cafe
341b
5556
1ef4
02b1
cafe
3803
5556
1ef4
02e4
cafe
3c13
5556
1ef8
0219
cafe
200c
5556
1ef8
0279
cafe
241c
5556
1ef8
02ca
cafe
2804
5556
1ef8
029e
cafe
2c14
5556
1efc
027e
cafe
300d
5556
1efc
0262
cafe
341d
5556
1efc
0248
cafe
3805
5556
1efc
02ee
cafe
3c15
5556
1f00
0295
cafe
200e
5556
1f00
02b3
cafe
241e
5556
1f00
025b
cafe
2806
5556
1f00
02b9
cafe
2c16
5556
1f04
0295
cafe
300f
5556
1f04
01b0
cafe
341f
5556
1f04
036d
cafe
3807
5556
1f04
01fe
cafe
3c17
5556
1f08
02ad
cafe
2008
5556
1f08
0314
cafe
2418
5556
1f08
0221
cafe
2800
5556
1f08
026a
cafe
2c10
5556
1f0c
0313
cafe
3009
5556
1f0c
02bc
cafe
3419
5556
1f0c
0278
cafe
3801
5556
1f0c
0291
cafe
3c11
5556
1f10
02d2
cafe
200a
5556
1f10
025f
cafe
241a
5556
1f10
0293
cafe
2802
5556
1f10
01a1
cafe
2c12
5556
1f14
0301
cafe
300b
5556
1f14
0348
cafe
341b
5556
1f14
029f
cafe
3803
5556
1f14
02c9
cafe
3c13
5556
1f18
020b
cafe
200c
5556
1f18
0257
cafe
241c
5556
1f18
02ac
cafe
2804
5556
1f18
0298
cafe
2c14
5556
1f1c
024c
cafe
300d
5556
1f1c
023f
cafe
341d
5556
1f1c
0239
cafe
3805
5556
1f1c
02e1
cafe
3c15
5556
1f20
026a
cafe
200e
5556
1f20
0299
cafe
241e
5556
1f20
0234
cafe
2806
5556
-
1f20
02b0
cafe
2c16
5556
1f24
027c
cafe
300f
5556
1f24
01ae
cafe
341f
5556
1f24
034d
cafe
3807
5556
1f24
01d9
cafe
3c17
5556
1f28
0295
cafe
2008
5556
1f28
02e8
cafe
2418
5556
1f28
01f1
cafe
2800
5556
1f28
025f
cafe
2c10
5556
1f2c
02f4
cafe
3009
5556
1f2c
02b3
cafe
3419
5556
1f2c
0266
cafe
3801
5556
1f2c
0261
cafe
3c11
5556
1f30
0282
cafe
200a
5556
1f30
025e
cafe
241a
5556
1f30
0290
cafe
2802
5556
1f30
0186
cafe
2c12
5556
1f34
02e5
cafe
300b
5556
1f34
0323
cafe
341b
5556
1f34
027c
cafe
3803
5556
1f34
02c1
cafe
3c13
5556
1f38
01f8
cafe
200c
5556
1f38
0235
cafe
241c
5556
1f38
029f
cafe
2804
5556
1f38
0275
cafe
2c14
5556
1f3c
0234
cafe
300d
5556
1f3c
0221
cafe
341d
5556
1f3c
020d
cafe
3805
5556
1f3c
02be
cafe
3c15
5556
1f40
025b
cafe
200e
5556
1f40
0284
cafe
241e
5556
1f40
020e
cafe
2806
5556
1f40
029d
cafe
2c16
5556
1f44
0267
cafe
300f
5556
1f44
0189
cafe
341f
5556
1f44
033a
cafe
3807
5556
1f44
01c2
cafe
3c17
5556
1f48
0269
cafe
2008
5556
1f48
02cb
cafe
2418
5556
1f48
01dd
cafe
2800
5556
1f48
023a
cafe
2c10
5556
1f4c
02d9
cafe
3009
5556
1f4c
029c
cafe
3419
5556
1f4c
0246
cafe
3801
5556
1f4c
025d
cafe
3c11
5556
1f50
027d
cafe
200a
5556
1f50
023c
cafe
241a
5556
1f50
0270
cafe
2802
5556
1f50
016c
cafe
2c12
5556
1f54
02d1
cafe
300b
5556
1f54
0310
cafe
341b
5556
1f54
-
026d
cafe
3803
5556
1f54
029c
cafe
3c13
5556
1f58
01cf
cafe
200c
5556
1f58
0220
cafe
241c
5556
1f58
0288
cafe
2804
5556
1f58
0269
cafe
2c14
5556
1f5c
0221
cafe
300d
5556
1f5c
020e
cafe
341d
5556
1f5c
01ed
cafe
3805
5556
1f5c
02b2
cafe
3c15
5556
1f60
0248
cafe
200e
5556
1f60
025b
cafe
241e
5556
1f60
01f7
cafe
2806
5556
1f60
026d
cafe
2c16
5556
1f64
0249
cafe
300f
5556
1f64
017e
cafe
341f
5556
1f64
0336
cafe
3807
5556
1f64
01b9
cafe
3c17
5556
1f68
0251
cafe
2008
5556
1f68
02b3
cafe
2418
5556
1f68
01da
cafe
2800
5556
1f68
022c
cafe
2c10
5556
1f6c
02ad
cafe
3009
5556
1f6c
0289
cafe
3419
5556
1f6c
021e
cafe
3801
5556
1f6c
0247
cafe
3c11
5556
1f70
0281
cafe
200a
5556
1f70
0230
cafe
241a
5556
1f70
0257
cafe
2802
5556
1f70
015a
cafe
2c12
5556
1f74
02be
cafe
300b
5556
1f74
02ef
cafe
341b
5556
1f74
0262
cafe
3803
5556
1f74
027a
cafe
3c13
5556
1f78
01b3
cafe
200c
5556
1f78
01f8
cafe
241c
5556
1f78
026b
cafe
2804
5556
1f78
024d
cafe
2c14
5556
1f7c
020f
cafe
300d
5556
1f7c
01ef
cafe
341d
5556
1f7c
01ef
cafe
3805
5556
1f7c
02bb
cafe
3c15
5556
1f80
022b
cafe
200e
5556
1f80
024d
cafe
241e
5556
1f80
01ea
cafe
2806
5556
1f80
0265
cafe
2c16
5556
1f84
0239
cafe
300f
5556
1f84
0172
cafe
341f
5556
1f84
02f9
cafe
3807
5556
1f84
01a5
cafe
3c17
5556
1f88
0252
cafe
2008
5556
1f88
0296
-
cafe
2418
5556
1f88
01b8
cafe
2800
5556
1f88
0225
cafe
2c10
5556
1f8c
0297
cafe
3009
5556
1f8c
0279
cafe
3419
5556
1f8c
01ff
cafe
3801
5556
1f8c
0238
cafe
3c11
5556
1f90
024a
cafe
200a
5556
1f90
0214
cafe
241a
5556
1f90
0244
cafe
2802
5556
1f90
012c
cafe
2c12
5556
1f94
02b5
cafe
300b
5556
1f94
02dc
cafe
341b
5556
1f94
0246
cafe
3803
5556
1f94
0273
cafe
3c13
5556
1f98
01b2
cafe
200c
5556
1f98
01ed
cafe
241c
5556
1f98
025d
cafe
2804
5556
1f98
0233
cafe
2c14
5556
1f9c
01fe
cafe
300d
5556
1f9c
01f0
cafe
341d
5556
1f9c
01d8
cafe
3805
5556
1f9c
028a
cafe
3c15
5556
1fa0
020c
cafe
200e
5556
1fa0
023e
cafe
241e
5556
1fa0
01d6
cafe
2806
5556
1fa0
0249
cafe
2c16
5556
1fa4
0222
cafe
300f
5556
1fa4
0150
cafe
341f
5556
1fa4
02fa
cafe
3807
5556
1fa4
0188
cafe
3c17
5556
1fa8
022d
cafe
2008
5556
1fa8
027b
cafe
2418
5556
1fa8
01bb
cafe
2800
5556
1fa8
01fd
cafe
2c10
5556
1fac
0279
cafe
3009
5556
1fac
0250
cafe
3419
5556
1fac
0203
cafe
3801
5556
1fac
0205
cafe
3c11
5556
1fb0
0235
cafe
200a
5556
1fb0
01f9
cafe
241a
5556
1fb0
0236
cafe
2802
5556
1fb0
0133
cafe
2c12
5556
1fb4
028d
cafe
300b
5556
1fb4
02bb
cafe
341b
5556
1fb4
0226
cafe
3803
5556
1fb4
025d
cafe
3c13
5556
1fb8
01a4
cafe
200c
5556
1fb8
01dd
cafe
241c
5556
1fb8
0243
cafe
2804
5556
1fb8
0215
cafe
2c14
5556
1fbc
01e3
cafe
-
300d
5556
1fbc
01c9
cafe
341d
5556
1fbc
01b6
cafe
3805
5556
1fbc
0276
cafe
3c15
5556
1fc0
01fb
cafe
200e
5556
1fc0
0216
cafe
241e
5556
1fc0
01b6
cafe
2806
5556
1fc0
0241
cafe
2c16
5556
1fc4
0219
cafe
300f
5556
1fc4
013d
cafe
341f
5556
1fc4
02de
cafe
3807
5556
1fc4
0174
cafe
3c17
5556
1fc8
021f
cafe
2008
5556
1fc8
026f
cafe
2418
5556
1fc8
01a2
cafe
2800
5556
1fc8
01f2
cafe
2c10
5556
1fcc
0277
cafe
3009
5556
1fcc
0243
cafe
3419
5556
1fcc
01e7
cafe
3801
5556
1fcc
0207
cafe
3c11
5556
1fd0
022e
cafe
200a
5556
1fd0
01dc
cafe
241a
5556
1fd0
0226
cafe
2802
5556
1fd0
011e
cafe
2c12
5556
1fd4
0277
cafe
300b
5556
1fd4
0295
cafe
341b
5556
1fd4
021c
cafe
3803
5556
1fd4
0240
cafe
3c13
5556
1fd8
019d
cafe
200c
5556
1fd8
01e1
cafe
241c
5556
1fd8
022b
cafe
2804
5556
1fd8
0207
cafe
2c14
5556
1fdc
01e1
cafe
300d
5556
1fdc
01c5
cafe
341d
5556
1fdc
01b3
cafe
3805
5556
1fdc
0273
cafe
3c15
5556
1fe0
01fb
cafe
200e
5556
1fe0
0202
cafe
241e
5556
1fe0
01ad
cafe
2806
5556
1fe0
0231
cafe
2c16
5556
1fe4
01f9
cafe
300f
5556
1fe4
0123
cafe
341f
5556
1fe4
02c6
cafe
3807
5556
1fe4
0167
cafe
3c17
5556
1fe8
01fe
cafe
2008
5556
1fe8
026e
cafe
2418
5556
1fe8
019f
cafe
2800
5556
1fe8
01d9
cafe
2c10
5556
1fec
0262
cafe
3009
5556
1fec
0223
cafe
3419
5556
1fec
01dc
cafe
3801
5556
1fec
01ff
cafe
3c11
-
5556
1ff0
021e
cafe
200a
5556
1ff0
01ba
cafe
241a
5556
1ff0
021f
cafe
2802
5556
1ff0
0114
cafe
2c12
5556
1ff4
0254
cafe
300b
5556
1ff4
0296
cafe
341b
5556
1ff4
01ff
cafe
3803
5556
1ff4
022c
cafe
3c13
5556
1ff8
018a
cafe
200c
5556
1ff8
01be
cafe
241c
5556
1ff8
0217
cafe
2804
5556
1ff8
0208
cafe
2c14
5556
1ffc
01c4
cafe
300d
5556
1ffc
01be
cafe
341d
5556
1ffc
019d
cafe
3805
5556
1ffc
024f
cafe
3c15
5556
2000
01e6
cafe
200e
5556
2000
0202
cafe
241e
5556
2000
01a0
cafe
2806
5556
2000
022b
cafe
2c16
5556
2004
01f3
cafe
300f
5556
2004
0113
cafe
341f
5556
2004
02bd
cafe
3807
5556
2004
0163
cafe
3c17
5556
2008
01ed
cafe
2008
5556
2008
0258
cafe
2418
5556
2008
0191
cafe
2800
5556
2008
01c2
cafe
2c10
5556
200c
0252
cafe
3009
5556
200c
0224
cafe
3419
5556
200c
01cc
cafe
3801
5556
200c
01ed
cafe
3c11
5556
2010
0202
cafe
200a
5556
2010
01b4
cafe
241a
5556
2010
0206
cafe
2802
5556
2010
0109
cafe
2c12
5556
2014
0257
cafe
300b
5556
2014
028f
cafe
341b
5556
2014
01fc
cafe
3803
5556
2014
0225
cafe
3c13
5556
2018
017c
cafe
200c
5556
2018
019f
cafe
241c
5556
2018
01ff
cafe
2804
5556
2018
01ea
cafe
2c14
5556
201c
01b7
cafe
300d
5556
201c
01aa
cafe
341d
5556
201c
018e
cafe
3805
5556
201c
0240
cafe
3c15
5556
2020
01d7
cafe
200e
5556
2020
01e0
cafe
241e
5556
2020
0183
cafe
2806
5556
-
2020
0221
cafe
2c16
5556
2024
01df
cafe
300f
5556
2024
0115
cafe
341f
5556
2024
02ab
cafe
3807
5556
2024
014a
cafe
3c17
5556
2028
01e0
cafe
2008
5556
2028
023c
cafe
2418
5556
2028
0179
cafe
2800
5556
2028
01c2
cafe
2c10
5556
202c
023c
cafe
3009
5556
202c
0207
cafe
3419
5556
202c
01a1
cafe
3801
5556
202c
01dc
cafe
3c11
5556
2030
01e3
cafe
200a
5556
2030
01b3
cafe
241a
5556
2030
01f6
cafe
2802
5556
2030
00f8
cafe
2c12
5556
2034
023b
cafe
300b
5556
2034
027d
cafe
341b
5556
2034
01f5
cafe
3803
5556
2034
0220
cafe
3c13
5556
2038
0169
cafe
200c
5556
2038
01a3
cafe
241c
5556
2038
01fd
cafe
2804
5556
2038
01e3
cafe
2c14
5556
203c
01ac
cafe
300d
5556
203c
01a3
cafe
341d
5556
203c
018e
cafe
3805
5556
203c
0238
cafe
3c15
5556
2040
01c9
cafe
200e
5556
2040
01dc
cafe
241e
5556
2040
0175
cafe
2806
5556
2040
01ff
cafe
2c16
5556
2044
01dd
cafe
300f
5556
2044
00f7
cafe
341f
5556
2044
0293
cafe
3807
5556
2044
0134
cafe
3c17
5556
2048
01c0
cafe
2008
5556
2048
022b
cafe
2418
5556
2048
0172
cafe
2800
5556
2048
01aa
cafe
2c10
5556
204c
022f
cafe
3009
5556
204c
01f2
cafe
3419
5556
204c
0194
cafe
3801
5556
204c
01d0
cafe
3c11
5556
2050
01e5
cafe
200a
5556
2050
0196
cafe
241a
5556
2050
01e4
cafe
2802
5556
2050
00f5
cafe
2c12
5556
2054
022a
cafe
300b
5556
2054
026f
cafe
341b
5556
2054
-
01dd
cafe
3803
5556
2054
0210
cafe
3c13
5556
2058
015b
cafe
200c
5556
2058
019a
cafe
241c
5556
2058
0202
cafe
2804
5556
2058
01c8
cafe
2c14
5556
205c
01ab
cafe
300d
5556
205c
017b
cafe
341d
5556
205c
0176
cafe
3805
5556
205c
0245
cafe
3c15
5556
2060
01ac
cafe
200e
5556
2060
01c7
cafe
241e
5556
2060
0166
cafe
2806
5556
2060
01ed
cafe
2c16
5556
2064
01c8
cafe
300f
5556
2064
0100
cafe
341f
5556
2064
0285
cafe
3807
5556
2064
012d
cafe
3c17
5556
2068
01bf
cafe
2008
5556
2068
0231
cafe
2418
5556
2068
0156
cafe
2800
5556
2068
01ab
cafe
2c10
5556
206c
022f
cafe
3009
5556
206c
01f6
cafe
3419
5556
206c
01aa
cafe
3801
5556
206c
01b5
cafe
3c11
5556
2070
01e1
cafe
200a
5556
2070
019f
cafe
241a
5556
2070
01c0
cafe
2802
5556
2070
00d4
cafe
2c12
5556
2074
0218
cafe
300b
5556
2074
0254
cafe
341b
5556
2074
01d2
cafe
3803
5556
2074
0209
cafe
3c13
5556
2078
0150
cafe
200c
5556
2078
0175
cafe
241c
5556
2078
01d7
cafe
2804
5556
2078
01da
cafe
2c14
5556
207c
018b
cafe
300d
5556
207c
017f
cafe
341d
5556
207c
0172
cafe
3805
5556
207c
0226
cafe
3c15
5556
2080
01b7
cafe
200e
5556
2080
01bf
cafe
241e
5556
2080
0160
cafe
2806
5556
2080
01d8
cafe
2c16
5556
2084
01ba
cafe
300f
5556
2084
00eb
cafe
341f
5556
2084
0280
cafe
3807
5556
2084
0122
cafe
3c17
5556
2088
01b9
cafe
2008
5556
2088
020f
-
cafe
2418
5556
2088
0152
cafe
2800
5556
2088
019b
cafe
2c10
5556
208c
0225
cafe
3009
5556
208c
01ee
cafe
3419
5556
208c
019e
cafe
3801
5556
208c
01c5
cafe
3c11
5556
2090
01be
cafe
200a
5556
2090
0184
cafe
241a
5556
2090
01cf
cafe
2802
5556
2090
00d5
cafe
2c12
5556
2094
020e
cafe
300b
5556
2094
0256
cafe
341b
5556
2094
01cf
cafe
3803
5556
2094
01f6
cafe
3c13
5556
2098
0149
cafe
200c
5556
2098
0176
cafe
241c
5556
2098
01d6
cafe
2804
5556
2098
01cb
cafe
2c14
5556
209c
018e
cafe
300d
5556
209c
016a
cafe
341d
5556
209c
015c
cafe
3805
5556
209c
0211
cafe
3c15
5556
20a0
01b0
cafe
200e
5556
20a0
01aa
cafe
241e
5556
20a0
0151
cafe
2806
5556
20a0
01cb
cafe
2c16
5556
20a4
01b8
cafe
300f
5556
20a4
00e7
cafe
341f
5556
20a4
0271
cafe
3807
5556
20a4
011c
cafe
3c17
5556
20a8
01a0
cafe
2008
5556
20a8
0207
cafe
2418
5556
20a8
0147
cafe
2800
5556
20a8
0196
cafe
2c10
5556
20ac
0212
cafe
3009
5556
20ac
01d4
cafe
3419
5556
20ac
018e
cafe
3801
5556
20ac
01ab
cafe
3c11
5556
20b0
01cf
cafe
200a
5556
20b0
0178
cafe
241a
5556
20b0
01c3
cafe
2802
5556
20b0
00d7
cafe
2c12
5556
20b4
0202
cafe
300b
5556
20b4
0241
cafe
341b
5556
20b4
01b6
cafe
3803
5556
20b4
01f3
cafe
3c13
5556
20b8
0140
cafe
200c
5556
20b8
0166
cafe
241c
5556
20b8
01da
cafe
2804
5556
20b8
01c1
cafe
2c14
5556
20bc
0178
cafe
-
300d
5556
20bc
0161
cafe
341d
5556
20bc
0141
cafe
3805
5556
20bc
0208
cafe
3c15
5556
20c0
019b
cafe
200e
5556
20c0
0195
cafe
241e
5556
20c0
015e
cafe
2806
5556
20c0
01cf
cafe
2c16
5556
20c4
01ab
cafe
300f
5556
20c4
00e0
cafe
341f
5556
20c4
0269
cafe
3807
5556
20c4
0117
cafe
3c17
5556
20c8
0191
cafe
2008
5556
20c8
01f7
cafe
2418
5556
20c8
0137
cafe
2800
5556
20c8
0192
cafe
2c10
5556
20cc
0210
cafe
3009
5556
20cc
01cd
cafe
3419
5556
20cc
0181
cafe
3801
5556
20cc
019c
cafe
3c11
5556
20d0
01af
cafe
200a
5556
20d0
0173
cafe
241a
5556
20d0
01c5
cafe
2802
5556
20d0
00d9
cafe
2c12
5556
20d4
01f8
cafe
300b
5556
20d4
0230
cafe
341b
5556
20d4
01a4
cafe
3803
5556
20d4
01ea
cafe
3c13
5556
20d8
0137
cafe
200c
5556
20d8
015c
cafe
241c
5556
20d8
01c3
cafe
2804
5556
20d8
01b8
cafe
2c14
5556
20dc
0184
cafe
300d
5556
20dc
0162
cafe
341d
5556
20dc
0143
cafe
3805
5556
20dc
0201
cafe
3c15
5556
20e0
0186
cafe
200e
5556
20e0
01a1
cafe
241e
5556
20e0
014f
cafe
2806
5556
20e0
01bf
cafe
2c16
5556
20e4
0192
cafe
300f
5556
20e4
00d2
cafe
341f
5556
20e4
025b
cafe
3807
5556
20e4
010f
cafe
3c17
5556
20e8
0194
cafe
2008
5556
20e8
01fd
cafe
2418
5556
20e8
0136
cafe
2800
5556
20e8
0177
cafe
2c10
5556
20ec
0208
cafe
3009
5556
20ec
01c1
cafe
3419
5556
20ec
017c
cafe
3801
5556
20ec
0198
cafe
3c11
-
5556
20f0
01ab
cafe
200a
5556
20f0
016f
cafe
241a
5556
20f0
01bf
cafe
2802
5556
20f0
00c9
cafe
2c12
5556
20f4
01f9
cafe
300b
5556
20f4
0245
cafe
341b
5556
20f4
01a9
cafe
3803
5556
20f4
01df
cafe
3c13
5556
20f8
011f
cafe
200c
5556
20f8
0141
cafe
241c
5556
20f8
01b7
cafe
2804
5556
20f8
01a8
cafe
2c14
5556
20fc
0166
cafe
300d
5556
20fc
0155
cafe
341d
5556
20fc
0144
cafe
3805
5556
20fc
01f8
cafe
3c15
5556
2100
0188
cafe
200e
5556
2100
018c
cafe
241e
5556
2100
013c
cafe
2806
5556
2100
01ad
cafe
2c16
5556
2104
01a7
cafe
300f
5556
2104
00be
cafe
341f
5556
2104
0263
cafe
3807
5556
2104
0115
cafe
3c17
5556
2108
0181
cafe
2008
5556
2108
01f9
cafe
2418
5556
2108
0138
cafe
2800
5556
2108
0180
cafe
2c10
5556
210c
01f3
cafe
3009
5556
210c
01c3
cafe
3419
5556
210c
016f
cafe
3801
5556
210c
0174
cafe
3c11
5556
2110
01b6
cafe
200a
5556
2110
0153
cafe
241a
5556
2110
01a8
cafe
2802
5556
2110
00bc
cafe
2c12
5556
2114
01e9
cafe
300b
5556
2114
0226
cafe
341b
5556
2114
018d
cafe
3803
5556
2114
01dc
cafe
3c13
5556
2118
0118
cafe
200c
5556
2118
0139
cafe
241c
5556
2118
01b5
cafe
2804
5556
2118
01a7
cafe
2c14
5556
211c
015c
cafe
300d
5556
211c
0154
cafe
341d
5556
211c
013a
cafe
3805
5556
211c
01f2
cafe
3c15
5556
2120
017c
cafe
200e
5556
2120
0184
cafe
241e
5556
2120
0129
cafe
2806
5556
-
2120
019c
cafe
2c16
5556
2124
0182
cafe
300f
5556
2124
00c7
cafe
341f
5556
2124
024b
cafe
3807
5556
2124
0110
cafe
3c17
5556
2128
018c
cafe
2008
5556
2128
01d5
cafe
2418
5556
2128
0129
cafe
2800
5556
2128
0172
cafe
2c10
5556
212c
01ed
cafe
3009
5556
212c
01c1
cafe
3419
5556
212c
0164
cafe
3801
5556
212c
0189
cafe
3c11
5556
2130
0191
cafe
200a
5556
2130
0163
cafe
241a
5556
2130
01bb
cafe
2802
5556
2130
00b0
cafe
2c12
5556
2134
01ee
cafe
300b
5556
2134
0215
cafe
341b
5556
2134
019c
cafe
3803
5556
2134
01d3
cafe
3c13
5556
2138
010e
cafe
200c
5556
2138
013a
cafe
241c
5556
2138
01a8
cafe
2804
5556
2138
0191
cafe
2c14
5556
213c
0155
cafe
300d
5556
213c
0134
cafe
341d
5556
213c
0133
cafe
3805
5556
213c
01e9
cafe
3c15
5556
2140
0172
cafe
200e
5556
2140
0185
cafe
241e
5556
2140
0141
cafe
2806
5556
2140
01b3
cafe
2c16
5556
2144
019e
cafe
300f
5556
2144
00c6
cafe
341f
5556
2144
0243
cafe
3807
5556
2144
0102
cafe
3c17
5556
2148
017e
cafe
2008
5556
2148
01db
cafe
2418
5556
2148
0129
cafe
2800
5556
2148
0177
cafe
2c10
5556
214c
01da
cafe
3009
5556
214c
01a6
cafe
3419
5556
214c
0161
cafe
3801
5556
214c
0172
cafe
3c11
5556
2150
018b
cafe
200a
5556
2150
015b
cafe
241a
5556
2150
019c
cafe
2802
5556
2150
00b4
cafe
2c12
5556
2154
01dc
cafe
300b
5556
2154
020b
cafe
341b
5556
2154
-
017b
cafe
3803
5556
2154
01d0
cafe
3c13
5556
2158
0116
cafe
200c
5556
2158
0134
cafe
241c
5556
2158
019e
cafe
2804
5556
2158
017c
cafe
2c14
5556
215c
0158
cafe
300d
5556
215c
012e
cafe
341d
5556
215c
0135
cafe
3805
5556
215c
01e5
cafe
3c15
5556
2160
016f
cafe
200e
5556
2160
0178
cafe
241e
5556
2160
0133
cafe
2806
5556
2160
019c
cafe
2c16
5556
2164
018b
cafe
300f
5556
2164
00b9
cafe
341f
5556
2164
0241
cafe
3807
5556
2164
00f8
cafe
3c17
5556
2168
0176
cafe
2008
5556
2168
01d0
cafe
2418
5556
2168
0122
cafe
2800
5556
2168
017c
cafe
2c10
5556
216c
01cc
cafe
3009
5556
216c
01a1
cafe
3419
5556
216c
0157
cafe
3801
5556
216c
017d
cafe
3c11
5556
2170
019a
cafe
200a
5556
2170
0150
cafe
241a
5556
2170
0193
cafe
2802
5556
2170
00a2
cafe
2c12
5556
2174
01d3
cafe
300b
5556
2174
0210
cafe
341b
5556
2174
0180
cafe
3803
5556
2174
01d2
cafe
3c13
5556
2178
0106
cafe
200c
5556
2178
0127
cafe
241c
5556
2178
0196
cafe
2804
5556
2178
0184
cafe
2c14
5556
217c
0153
cafe
300d
5556
217c
0131
cafe
341d
5556
217c
0127
cafe
3805
5556
217c
01c6
cafe
3c15
5556
2180
0169
cafe
200e
5556
2180
0173
cafe
241e
5556
2180
0128
cafe
2806
5556
2180
019a
cafe
2c16
5556
2184
0182
cafe
300f
5556
2184
00b6
cafe
341f
5556
2184
023f
cafe
3807
5556
2184
00e8
cafe
3c17
5556
2188
0166
cafe
2008
5556
2188
01cf
-
cafe
2418
5556
2188
0127
cafe
2800
5556
2188
014b
cafe
2c10
5556
218c
01ce
cafe
3009
5556
218c
0198
cafe
3419
5556
218c
0154
cafe
3801
5556
218c
0167
cafe
3c11
5556
2190
018d
cafe
200a
5556
2190
0152
cafe
241a
5556
2190
0185
cafe
2802
5556
2190
00b1
cafe
2c12
5556
2194
01c5
cafe
300b
5556
2194
0203
cafe
341b
5556
2194
0187
cafe
3803
5556
2194
01c3
cafe
3c13
5556
2198
00f5
cafe
200c
5556
2198
0130
cafe
241c
5556
2198
0174
cafe
2804
5556
2198
016b
cafe
2c14
5556
219c
0156
cafe
300d
5556
219c
0124
cafe
341d
5556
219c
012e
cafe
3805
5556
219c
01de
cafe
3c15
5556
21a0
0167
cafe
200e
5556
21a0
016c
cafe
241e
5556
21a0
0124
cafe
2806
5556
21a0
0196
cafe
2c16
5556
21a4
017d
cafe
300f
5556
21a4
00c2
cafe
341f
5556
21a4
023b
cafe
3807
5556
21a4
00ed
cafe
3c17
5556
21a8
015a
cafe
2008
5556
21a8
01c9
cafe
2418
5556
21a8
0108
cafe
2800
5556
21a8
015e
cafe
2c10
5556
21ac
01c0
cafe
3009
5556
21ac
018f
cafe
3419
5556
21ac
014a
cafe
3801
5556
21ac
0186
cafe
3c11
5556
21b0
0187
cafe
200a
5556
21b0
013d
cafe
241a
5556
21b0
017e
cafe
2802
5556
21b0
009f
cafe
2c12
5556
21b4
01d2
cafe
300b
5556
21b4
01fc
cafe
341b
5556
21b4
017d
cafe
3803
5556
21b4
01b6
cafe
3c13
5556
21b8
00fd
cafe
200c
5556
21b8
011b
cafe
241c
5556
21b8
0175
cafe
2804
5556
21b8
0178
cafe
2c14
5556
21bc
015b
cafe
-
