2c09
5556
04cc
0159
cafe
3019
5556
04cc
01e6
cafe
3401
5556
04cc
0176
cafe
3811
5556
04d0
016d
cafe
3c0a
5556
04d0
01ed
cafe
201a
5556
04d0
01e9
cafe
2402
5556
04d0
014d
cafe
2812
5556
04d4
01c2
cafe
2c0b
5556
04d4
021a
cafe
301b
5556
04d4
01a4
cafe
3403
5556
04d4
014e
cafe
3813
5556
04d8
016d
cafe
3c0c
5556
04d8
010f
cafe
201c
5556
04d8
023e
cafe
2404
5556
04d8
0214
cafe
2814
5556
04dc
0215
cafe
2c0d
5556
04dc
01c5
cafe
301d
5556
04dc
01cc
cafe
3405
5556
04dc
0160
cafe
3815
5556
04e0
0246
cafe
3c0e
5556
04e0
01f5
cafe
201e
5556
04e0
0195
cafe
2406
5556
04e0
01a8
cafe
2816
5556
04e4
0246
cafe
2c0f
5556
04e4
01b5
cafe
301f
5556
04e4
0217
cafe
3407
5556
04e4
0163
cafe
3817
5556
04e8
0191
cafe
3c08
5556
04e8
01e6
cafe
2018
5556
04e8
022b
cafe
2400
5556
04e8
0156
cafe
2810
5556
04ec
0152
cafe
2c09
5556
04ec
015a
cafe
3019
5556
04ec
01dd
cafe
3401
5556
04ec
0177
cafe
3811
5556
04f0
016f
cafe
3c0a
5556
04f0
01ed
cafe
201a
5556
04f0
01ea
cafe
2402
5556
04f0
014c
cafe
2812
5556
04f4
01c6
cafe
2c0b
5556
04f4
021a
cafe
301b
5556
04f4
01a3
cafe
3403
5556
04f4
014b
cafe
3813
5556
04f8
016d
cafe
3c0c
5556
04f8
0110
cafe
201c
5556
04f8
023c
cafe
2404
5556
04f8
0216
cafe
2814
5556
04fc
0216
cafe
2c0d
5556
04fc
01c7
cafe
301d
5556
04fc
01cc
cafe
3405
5556
04fc
015c
cafe
3815
-
5556
0500
0247
cafe
3c0e
5556
0500
01f6
cafe
201e
5556
0500
0199
cafe
2406
5556
0500
01a5
cafe
2816
5556
0504
0246
cafe
2c0f
5556
0504
01b2
cafe
301f
5556
0504
0215
cafe
3407
5556
0504
015f
cafe
3817
5556
0508
0191
cafe
3c08
5556
0508
01e6
cafe
2018
5556
0508
0227
cafe
2400
5556
0508
0156
cafe
2810
5556
050c
0150
cafe
2c09
5556
050c
0156
cafe
3019
5556
050c
01dc
cafe
3401
5556
050c
017a
cafe
3811
5556
0510
0170
cafe
3c0a
5556
0510
01ec
cafe
201a
5556
0510
01e8
cafe
2402
5556
0510
014a
cafe
2812
5556
0514
01c1
cafe
2c0b
5556
0514
0217
cafe
301b
5556
0514
01a6
cafe
3403
5556
0514
014b
cafe
3813
5556
0518
016c
cafe
3c0c
5556
0518
0115
cafe
201c
5556
0518
0236
cafe
2404
5556
0518
0213
cafe
2814
5556
051c
0215
cafe
2c0d
5556
051c
01ca
cafe
301d
5556
051c
01ce
cafe
3405
5556
051c
015c
cafe
3815
5556
0520
0247
cafe
3c0e
5556
0520
01f4
cafe
201e
5556
0520
019a
cafe
2406
5556
0520
01a3
cafe
2816
5556
0524
0243
cafe
2c0f
5556
0524
01b2
cafe
301f
5556
0524
0211
cafe
3407
5556
0524
0163
cafe
3817
5556
0528
0195
cafe
3c08
5556
0528
01ed
cafe
2018
5556
0528
0220
cafe
2400
5556
0528
0158
cafe
2810
5556
052c
0150
cafe
2c09
5556
052c
0152
cafe
3019
5556
052c
01da
cafe
3401
5556
052c
0178
cafe
3811
5556
0530
0173
cafe
3c0a
5556
0530
01ec
cafe
201a
5556
0530
01e6
cafe
2402
5556
-
0530
0146
cafe
2812
5556
0534
01bc
cafe
2c0b
5556
0534
0216
cafe
301b
5556
0534
01a9
cafe
3403
5556
0534
014e
cafe
3813
5556
0538
016d
cafe
3c0c
5556
0538
0111
cafe
201c
5556
0538
0239
cafe
2404
5556
0538
0214
cafe
2814
5556
053c
0216
cafe
2c0d
5556
053c
01ca
cafe
301d
5556
053c
01d3
cafe
3405
5556
053c
015d
cafe
3815
5556
0540
0248
cafe
3c0e
5556
0540
01f2
cafe
201e
5556
0540
0198
cafe
2406
5556
0540
01a5
cafe
2816
5556
0544
0243
cafe
2c0f
5556
0544
01b3
cafe
301f
5556
0544
0213
cafe
3407
5556
0544
0160
cafe
3817
5556
0548
0190
cafe
3c08
5556
0548
01ec
cafe
2018
5556
0548
0221
cafe
2400
5556
0548
0158
cafe
2810
5556
054c
014d
cafe
2c09
5556
054c
0156
cafe
3019
5556
054c
01da
cafe
3401
5556
054c
0175
cafe
3811
5556
0550
0174
cafe
3c0a
5556
0550
01eb
cafe
201a
5556
0550
01e7
cafe
2402
5556
0550
0147
cafe
2812
5556
0554
01bb
cafe
2c0b
5556
0554
0213
cafe
301b
5556
0554
01aa
cafe
3403
5556
0554
014d
cafe
3813
5556
0558
0171
cafe
3c0c
5556
0558
0113
cafe
201c
5556
0558
023a
cafe
2404
5556
0558
0213
cafe
2814
5556
055c
0218
cafe
2c0d
5556
055c
01cc
cafe
301d
5556
055c
01d0
cafe
3405
5556
055c
0161
cafe
3815
5556
0560
0247
cafe
3c0e
5556
0560
01ec
cafe
201e
5556
0560
0196
cafe
2406
5556
0560
01a0
cafe
2816
5556
0564
0245
cafe
2c0f
5556
0564
01b0
cafe
301f
5556
0564
-
020f
cafe
3407
5556
0564
015e
cafe
3817
5556
0568
018e
cafe
3c08
5556
0568
01ec
cafe
2018
5556
0568
0224
cafe
2400
5556
0568
015b
cafe
2810
5556
056c
014a
cafe
2c09
5556
056c
015f
cafe
3019
5556
056c
01d5
cafe
3401
5556
056c
0171
cafe
3811
5556
0570
017b
cafe
3c0a
5556
0570
01e7
cafe
201a
5556
0570
01e9
cafe
2402
5556
0570
0146
cafe
2812
5556
0574
01bc
cafe
2c0b
5556
0574
0216
cafe
301b
5556
0574
01ac
cafe
3403
5556
0574
0152
cafe
3813
5556
0578
0170
cafe
3c0c
5556
0578
0112
cafe
201c
5556
0578
023c
cafe
2404
5556
0578
020c
cafe
2814
5556
057c
0214
cafe
2c0d
5556
057c
01cb
cafe
301d
5556
057c
01d0
cafe
3405
5556
057c
0160
cafe
3815
5556
0580
024a
cafe
3c0e
5556
0580
01e9
cafe
201e
5556
0580
0194
cafe
2406
5556
0580
01a3
cafe
2816
5556
0584
0241
cafe
2c0f
5556
0584
01af
cafe
301f
5556
0584
020f
cafe
3407
5556
0584
015c
cafe
3817
5556
0588
0190
cafe
3c08
5556
0588
01ea
cafe
2018
5556
0588
0226
cafe
2400
5556
0588
0157
cafe
2810
5556
058c
0149
cafe
2c09
5556
058c
015c
cafe
3019
5556
058c
01d9
cafe
3401
5556
058c
016e
cafe
3811
5556
0590
0177
cafe
3c0a
5556
0590
01e9
cafe
201a
5556
0590
01e5
cafe
2402
5556
0590
014a
cafe
2812
5556
0594
01b8
cafe
2c0b
5556
0594
0216
cafe
301b
5556
0594
01a6
cafe
3403
5556
0594
014f
cafe
3813
5556
0598
016e
cafe
3c0c
5556
0598
0113
-
cafe
201c
5556
0598
023e
cafe
2404
5556
0598
020a
cafe
2814
5556
059c
0215
cafe
2c0d
5556
059c
01c7
cafe
301d
5556
059c
01d1
cafe
3405
5556
059c
0162
cafe
3815
5556
05a0
0248
cafe
3c0e
5556
05a0
01ec
cafe
201e
5556
05a0
0192
cafe
2406
5556
05a0
01a6
cafe
2816
5556
05a4
023f
cafe
2c0f
5556
05a4
01ad
cafe
301f
5556
05a4
020a
cafe
3407
5556
05a4
0159
cafe
3817
5556
05a8
0197
cafe
3c08
5556
05a8
01e5
cafe
2018
5556
05a8
0227
cafe
2400
5556
05a8
0151
cafe
2810
5556
05ac
014f
cafe
2c09
5556
05ac
015c
cafe
3019
5556
05ac
01d7
cafe
3401
5556
05ac
016d
cafe
3811
5556
05b0
0175
cafe
3c0a
5556
05b0
01e9
cafe
201a
5556
05b0
01e2
cafe
2402
5556
05b0
014d
cafe
2812
5556
05b4
01b7
cafe
2c0b
5556
05b4
021a
cafe
301b
5556
05b4
01ae
cafe
3403
5556
05b4
014b
cafe
3813
5556
05b8
016c
cafe
3c0c
5556
05b8
0114
cafe
201c
5556
05b8
023e
cafe
2404
5556
05b8
0200
cafe
2814
5556
05bc
0214
cafe
2c0d
5556
05bc
01c7
cafe
301d
5556
05bc
01d8
cafe
3405
5556
05bc
0161
cafe
3815
5556
05c0
0247
cafe
3c0e
5556
05c0
01f4
cafe
201e
5556
05c0
018f
cafe
2406
5556
05c0
01a4
cafe
2816
5556
05c4
023f
cafe
2c0f
5556
05c4
01b2
cafe
301f
5556
05c4
020e
cafe
3407
5556
05c4
015c
cafe
3817
5556
05c8
0197
cafe
3c08
5556
05c8
01eb
cafe
2018
5556
05c8
0226
cafe
2400
5556
05c8
0155
cafe
2810
5556
05cc
014d
cafe
-
2c09
5556
05cc
0157
cafe
3019
5556
05cc
01d3
cafe
3401
5556
05cc
016a
cafe
3811
5556
05d0
0171
cafe
3c0a
5556
05d0
01e8
cafe
201a
5556
05d0
01e0
cafe
2402
5556
05d0
0148
cafe
2812
5556
05d4
01bd
cafe
2c0b
5556
05d4
0218
cafe
301b
5556
05d4
01b4
cafe
3403
5556
05d4
014a
cafe
3813
5556
05d8
0164
cafe
3c0c
5556
05d8
0111
cafe
201c
5556
05d8
023b
cafe
2404
5556
05d8
01ff
cafe
2814
5556
05dc
0210
cafe
2c0d
5556
05dc
01ca
cafe
301d
5556
05dc
01de
cafe
3405
5556
05dc
0164
cafe
3815
5556
05e0
0247
cafe
3c0e
5556
05e0
01f7
cafe
201e
5556
05e0
0191
cafe
2406
5556
05e0
019f
cafe
2816
5556
05e4
0241
cafe
2c0f
5556
05e4
01b0
cafe
301f
5556
05e4
020a
cafe
3407
5556
05e4
0163
cafe
3817
5556
05e8
0194
cafe
3c08
5556
05e8
01e6
cafe
2018
5556
05e8
0227
cafe
2400
5556
05e8
0157
cafe
2810
5556
05ec
014f
cafe
2c09
5556
05ec
015f
cafe
3019
5556
05ec
01d3
cafe
3401
5556
05ec
0165
cafe
3811
5556
05f0
016d
cafe
3c0a
5556
05f0
01e9
cafe
201a
5556
05f0
01db
cafe
2402
5556
05f0
0145
cafe
2812
5556
05f4
01b9
cafe
2c0b
5556
05f4
0212
cafe
301b
5556
05f4
01ad
cafe
3403
5556
05f4
014c
cafe
3813
5556
05f8
016a
cafe
3c0c
5556
05f8
010d
cafe
201c
5556
05f8
023f
cafe
2404
5556
05f8
01fe
cafe
2814
5556
05fc
0213
cafe
2c0d
5556
05fc
01c6
cafe
301d
5556
05fc
01db
cafe
3405
5556
05fc
0163
cafe
3815
-
5556
0600
0245
cafe
3c0e
5556
0600
01f6
cafe
201e
5556
0600
018c
cafe
2406
5556
0600
01a2
cafe
2816
5556
0604
023f
cafe
2c0f
5556
0604
01b4
cafe
301f
5556
0604
020d
cafe
3407
5556
0604
0162
cafe
3817
5556
0608
0191
cafe
3c08
5556
0608
01e6
cafe
2018
5556
0608
0224
cafe
2400
5556
0608
0150
cafe
2810
5556
060c
014a
cafe
2c09
5556
060c
0165
cafe
3019
5556
060c
01d6
cafe
3401
5556
060c
0166
cafe
3811
5556
0610
0170
cafe
3c0a
5556
0610
01eb
cafe
201a
5556
0610
01d7
cafe
2402
5556
0610
0147
cafe
2812
5556
0614
01b7
cafe
2c0b
5556
0614
0211
cafe
301b
5556
0614
01b0
cafe
3403
5556
0614
014b
cafe
3813
5556
0618
016c
cafe
3c0c
5556
0618
0108
cafe
201c
5556
0618
023b
cafe
2404
5556
0618
01fa
cafe
2814
5556
061c
0217
cafe
2c0d
5556
061c
01c9
cafe
301d
5556
061c
01da
cafe
3405
5556
061c
0162
cafe
3815
5556
0620
0243
cafe
3c0e
5556
0620
01f7
cafe
201e
5556
0620
018d
cafe
2406
5556
0620
01a7
cafe
2816
5556
0624
023d
cafe
2c0f
5556
0624
01af
cafe
301f
5556
0624
0210
cafe
3407
5556
0624
0163
cafe
3817
5556
0628
0191
cafe
3c08
5556
0628
01e6
cafe
2018
5556
0628
0223
cafe
2400
5556
0628
014f
cafe
2810
5556
062c
014c
cafe
2c09
5556
062c
015e
cafe
3019
5556
062c
01d0
cafe
3401
5556
062c
016c
cafe
3811
5556
0630
0172
cafe
3c0a
5556
0630
01ed
cafe
201a
5556
0630
01dc
cafe
2402
5556
-
0630
0148
cafe
2812
5556
0634
01bb
cafe
2c0b
5556
0634
020f
cafe
301b
5556
0634
01ac
cafe
3403
5556
0634
014c
cafe
3813
5556
0638
016a
cafe
3c0c
5556
0638
010f
cafe
201c
5556
0638
023b
cafe
2404
5556
0638
01f6
cafe
2814
5556
063c
0218
cafe
2c0d
5556
063c
01c9
cafe
301d
5556
063c
01db
cafe
3405
5556
063c
0167
cafe
3815
5556
0640
0244
cafe
3c0e
5556
0640
01fb
cafe
201e
5556
0640
0194
cafe
2406
5556
0640
01ab
cafe
2816
5556
0644
0242
cafe
2c0f
5556
0644
01ac
cafe
301f
5556
0644
020c
cafe
3407
5556
0644
0164
cafe
3817
5556
0648
018e
cafe
3c08
5556
0648
01e1
cafe
2018
5556
0648
022a
cafe
2400
5556
0648
014b
cafe
2810
5556
064c
014d
cafe
2c09
5556
064c
015d
cafe
3019
5556
064c
01cf
cafe
3401
5556
064c
0167
cafe
3811
5556
0650
0170
cafe
3c0a
5556
0650
01ec
cafe
201a
5556
0650
01db
cafe
2402
5556
0650
0144
cafe
2812
5556
0654
01be
cafe
2c0b
5556
0654
0211
cafe
301b
5556
0654
01b0
cafe
3403
5556
0654
0150
cafe
3813
5556
0658
016b
cafe
3c0c
5556
0658
0111
cafe
201c
5556
0658
0246
cafe
2404
5556
0658
01f5
cafe
2814
5556
065c
0215
cafe
2c0d
5556
065c
01c5
cafe
301d
5556
065c
01d3
cafe
3405
5556
065c
0168
cafe
3815
5556
0660
0244
cafe
3c0e
5556
0660
01f5
cafe
201e
5556
0660
0192
cafe
2406
5556
0660
01b2
cafe
2816
5556
0664
024a
cafe
2c0f
5556
0664
01b0
cafe
301f
5556
0664
-
020a
cafe
3407
5556
0664
0166
cafe
3817
5556
0668
0192
cafe
3c08
5556
0668
01de
cafe
2018
5556
0668
0226
cafe
2400
5556
0668
0150
cafe
2810
5556
066c
0153
cafe
2c09
5556
066c
0161
cafe
3019
5556
066c
01ce
cafe
3401
5556
066c
016d
cafe
3811
5556
0670
016e
cafe
3c0a
5556
0670
01e8
cafe
201a
5556
0670
01d8
cafe
2402
5556
0670
0145
cafe
2812
5556
0674
01c0
cafe
2c0b
5556
0674
0215
cafe
301b
5556
0674
01b3
cafe
3403
5556
0674
0155
cafe
3813
5556
0678
0163
cafe
3c0c
5556
0678
0112
cafe
201c
5556
0678
0248
cafe
2404
5556
0678
01f6
cafe
2814
5556
067c
0217
cafe
2c0d
5556
067c
01c5
cafe
301d
5556
067c
01cc
cafe
3405
5556
067c
0167
cafe
3815
5556
0680
0241
cafe
3c0e
5556
0680
01f5
cafe
201e
5556
0680
0194
cafe
2406
5556
0680
01ae
cafe
2816
5556
0684
0248
cafe
2c0f
5556
0684
01b3
cafe
301f
5556
0684
0207
cafe
3407
5556
0684
0162
cafe
3817
5556
0688
019a
cafe
3c08
5556
0688
01dd
cafe
2018
5556
0688
0224
cafe
2400
5556
0688
014e
cafe
2810
5556
068c
015e
cafe
2c09
5556
068c
0164
cafe
3019
5556
068c
01cf
cafe
3401
5556
068c
016e
cafe
3811
5556
0690
0169
cafe
3c0a
5556
0690
01ec
cafe
201a
5556
0690
01d7
cafe
2402
5556
0690
0148
cafe
2812
5556
0694
01c1
cafe
2c0b
5556
0694
0212
cafe
301b
5556
0694
01ba
cafe
3403
5556
0694
0155
cafe
3813
5556
0698
0162
cafe
3c0c
5556
0698
010d
-
cafe
201c
5556
0698
0248
cafe
2404
5556
0698
01f7
cafe
2814
5556
069c
0219
cafe
2c0d
5556
069c
01c4
cafe
301d
5556
069c
01cf
cafe
3405
5556
069c
0163
cafe
3815
5556
06a0
0240
cafe
3c0e
5556
06a0
01f3
cafe
201e
5556
06a0
0196
cafe
2406
5556
06a0
01b1
cafe
2816
5556
06a4
0246
cafe
2c0f
5556
06a4
01b3
cafe
301f
5556
06a4
0208
cafe
3407
5556
06a4
015a
cafe
3817
5556
06a8
0192
cafe
3c08
5556
06a8
01dd
cafe
2018
5556
06a8
0225
cafe
2400
5556
06a8
0154
cafe
2810
5556
06ac
015d
cafe
2c09
5556
06ac
0163
cafe
3019
5556
06ac
01ce
cafe
3401
5556
06ac
016d
cafe
3811
5556
06b0
016b
cafe
3c0a
5556
06b0
01f1
cafe
201a
5556
06b0
01d8
cafe
2402
5556
06b0
0147
cafe
2812
5556
06b4
01c1
cafe
2c0b
5556
06b4
020d
cafe
301b
5556
06b4
01b9
cafe
3403
5556
06b4
0154
cafe
3813
5556
06b8
0168
cafe
3c0c
5556
06b8
010d
cafe
201c
5556
06b8
0242
cafe
2404
5556
06b8
0200
cafe
2814
5556
06bc
021c
cafe
2c0d
5556
06bc
01c3
cafe
301d
5556
06bc
01cf
cafe
3405
5556
06bc
0164
cafe
3815
5556
06c0
023f
cafe
3c0e
5556
06c0
01f6
cafe
201e
5556
06c0
019b
cafe
2406
5556
06c0
01b6
cafe
2816
5556
06c4
0244
cafe
2c0f
5556
06c4
01ba
cafe
301f
5556
06c4
020b
cafe
3407
5556
06c4
0159
cafe
3817
5556
06c8
0196
cafe
3c08
5556
06c8
01de
cafe
2018
5556
06c8
022a
cafe
2400
5556
06c8
015b
cafe
2810
5556
06cc
015f
cafe
-
2c09
5556
06cc
0163
cafe
3019
5556
06cc
01d2
cafe
3401
5556
06cc
016e
cafe
3811
5556
06d0
0168
cafe
3c0a
5556
06d0
01f5
cafe
201a
5556
06d0
01d9
cafe
2402
5556
06d0
0142
cafe
2812
5556
06d4
01c1
cafe
2c0b
5556
06d4
0210
cafe
301b
5556
06d4
01ba
cafe
3403
5556
06d4
0155
cafe
3813
5556
06d8
0169
cafe
3c0c
5556
06d8
0108
cafe
201c
5556
06d8
023d
cafe
2404
5556
06d8
0205
cafe
2814
5556
06dc
021b
cafe
2c0d
5556
06dc
01c6
cafe
301d
5556
06dc
01d2
cafe
3405
5556
06dc
0165
cafe
3815
5556
06e0
0247
cafe
3c0e
5556
06e0
01f5
cafe
201e
5556
06e0
0194
cafe
2406
5556
06e0
01b5
cafe
2816
5556
06e4
0242
cafe
2c0f
5556
06e4
01b6
cafe
301f
5556
06e4
020d
cafe
3407
5556
06e4
0152
cafe
3817
5556
06e8
0197
cafe
3c08
5556
06e8
01dc
cafe
2018
5556
06e8
0227
cafe
2400
5556
06e8
015e
cafe
2810
5556
06ec
015d
cafe
2c09
5556
06ec
0165
cafe
3019
5556
06ec
01d1
cafe
3401
5556
06ec
0167
cafe
3811
5556
06f0
0164
cafe
3c0a
5556
06f0
01ee
cafe
201a
5556
06f0
01dc
cafe
2402
5556
06f0
0141
cafe
2812
5556
06f4
01bb
cafe
2c0b
5556
06f4
0210
cafe
301b
5556
06f4
01b9
cafe
3403
5556
06f4
0151
cafe
3813
5556
06f8
0166
cafe
3c0c
5556
06f8
0142
cafe
201c
5556
06f8
0275
cafe
2404
5556
06f8
0240
cafe
2814
5556
06fc
0254
cafe
2c0d
5556
06fc
028c
cafe
301d
5556
06fc
0293
cafe
3405
5556
06fc
022b
cafe
3815
-
5556
0700
0307
cafe
3c0e
5556
0700
034d
cafe
201e
5556
0700
02dd
cafe
2406
5556
0700
0306
cafe
2816
5556
0704
0390
cafe
2c0f
5556
0704
0389
cafe
301f
5556
0704
03d7
cafe
3407
5556
0704
0326
cafe
3817
5556
0708
0367
cafe
3c08
5556
0708
0426
cafe
2018
5556
0708
046b
cafe
2400
5556
0708
03ab
cafe
2810
5556
070c
03ae
cafe
2c09
5556
070c
0421
cafe
3019
5556
070c
0482
cafe
3401
5556
070c
0420
cafe
3811
5556
0710
041f
cafe
3c0a
5556
0710
0512
cafe
201a
5556
0710
04f4
cafe
2402
5556
0710
045f
cafe
2812
5556
0714
04e0
cafe
2c0b
5556
0714
0599
cafe
301b
5556
0714
0522
cafe
3403
5556
0714
04d0
cafe
3813
5556
0718
04e2
cafe
3c0c
5556
0718
04e3
cafe
201c
5556
0718
05fa
cafe
2404
5556
0718
05dd
cafe
2814
5556
071c
05f0
cafe
2c0d
5556
071c
05f5
cafe
301d
5556
071c
05e3
cafe
3405
5556
071c
058e
cafe
3815
5556
0720
0663
cafe
3c0e
5556
0720
0672
cafe
201e
5556
0720
05ed
cafe
2406
5556
0720
0622
cafe
2816
5556
0724
06ad
cafe
2c0f
5556
0724
0668
cafe
301f
5556
0724
06aa
cafe
3407
5556
0724
0607
cafe
3817
5556
0728
0637
cafe
3c08
5556
0728
06cc
cafe
2018
5556
0728
070c
cafe
2400
5556
0728
0655
cafe
2810
5556
072c
0653
cafe
2c09
5556
072c
0693
cafe
3019
5556
072c
06ed
cafe
3401
5556
072c
0693
cafe
3811
5556
0730
068f
cafe
3c0a
5556
0730
0753
cafe
201a
5556
0730
0730
cafe
2402
5556
-
0730
0696
cafe
2812
5556
0734
0720
cafe
2c0b
5556
0734
07ac
cafe
301b
5556
0734
072d
cafe
3403
5556
0734
06da
cafe
3813
5556
0738
06fc
cafe
3c0c
5556
0738
06ca
cafe
201c
5556
0738
07de
cafe
2404
5556
0738
07c8
cafe
2814
5556
073c
07d6
cafe
2c0d
5556
073c
07b1
cafe
301d
5556
073c
079d
cafe
3405
5556
073c
074b
cafe
3815
5556
0740
0828
cafe
3c0e
5556
0740
080e
cafe
201e
5556
0740
0791
cafe
2406
5556
0740
07bd
cafe
2816
5556
0744
0856
cafe
2c0f
5556
0744
07e3
cafe
301f
5556
0744
0828
cafe
3407
5556
0744
0789
cafe
3817
5556
0748
07af
cafe
3c08
5556
0748
0829
cafe
2018
5556
0748
0868
cafe
2400
5556
0748
07b5
cafe
2810
5556
074c
07b3
cafe
2c09
5556
074c
07d2
cafe
3019
5556
074c
0836
cafe
3401
5556
074c
07d5
cafe
3811
5556
0750
07d4
cafe
3c0a
5556
0750
0881
cafe
201a
5556
0750
0861
cafe
2402
5556
0750
07ba
cafe
2812
5556
0754
0849
cafe
2c0b
5556
0754
08be
cafe
301b
5556
0754
0840
cafe
3403
5556
0754
07df
cafe
3813
5556
0758
0811
cafe
3c0c
5556
0758
07c5
cafe
201c
5556
0758
08da
cafe
2404
5556
0758
08c0
cafe
2814
5556
075c
08d7
cafe
2c0d
5556
075c
0896
cafe
301d
5556
075c
0883
cafe
3405
5556
075c
082f
cafe
3815
5556
0760
090f
cafe
3c0e
5556
0760
08e0
cafe
201e
5556
0760
0869
cafe
2406
5556
0760
088c
cafe
2816
5556
0764
092c
cafe
2c0f
5556
0764
08a7
cafe
301f
5556
0764
-
08ef
cafe
3407
5556
0764
084b
cafe
3817
5556
0768
086a
cafe
3c08
5556
0768
08d7
cafe
2018
5556
0768
091f
cafe
2400
5556
0768
0864
cafe
2810
5556
076c
085b
cafe
2c09
5556
076c
0871
cafe
3019
5556
076c
08de
cafe
3401
5556
076c
0878
cafe
3811
5556
0770
0877
cafe
3c0a
5556
0770
0918
cafe
201a
5556
0770
08f5
cafe
2402
5556
0770
0850
cafe
2812
5556
0774
08e1
cafe
2c0b
5556
0774
0946
cafe
301b
5556
0774
08cb
cafe
3403
5556
0774
0864
cafe
3813
5556
0778
08a0
cafe
3c0c
5556
0778
083f
cafe
201c
5556
0778
095c
cafe
2404
5556
0778
0940
cafe
2814
5556
077c
095b
cafe
2c0d
5556
077c
0906
cafe
301d
5556
077c
08f8
cafe
3405
5556
077c
0897
cafe
3815
5556
0780
0982
cafe
3c0e
5556
0780
094c
cafe
201e
5556
0780
08d3
cafe
2406
5556
0780
08f4
cafe
2816
5556
0784
0998
cafe
2c0f
5556
0784
0908
cafe
301f
5556
0784
0953
cafe
3407
5556
0784
08a4
cafe
3817
5556
0788
08cd
cafe
3c08
5556
0788
092e
cafe
2018
5556
0788
0976
cafe
2400
5556
0788
08b5
cafe
2810
5556
078c
08ae
cafe
2c09
5556
078c
08b7
cafe
3019
5556
078c
092e
cafe
3401
5556
078c
08c2
cafe
3811
5556
0790
08c3
cafe
3c0a
5556
0790
095e
cafe
201a
5556
0790
093e
cafe
2402
5556
0790
088f
cafe
2812
5556
0794
092c
cafe
2c0b
5556
0794
0986
cafe
301b
5556
0794
0909
cafe
3403
5556
0794
08a5
cafe
3813
5556
0798
08d9
cafe
3c0c
5556
0798
0874
-
cafe
201c
5556
0798
0994
cafe
2404
5556
0798
0975
cafe
2814
5556
079c
0994
cafe
2c0d
5556
079c
093a
cafe
301d
5556
079c
092d
cafe
3405
5556
079c
08c8
cafe
3815
5556
07a0
09b3
cafe
3c0e
5556
07a0
0978
cafe
201e
5556
07a0
0901
cafe
2406
5556
07a0
0920
cafe
2816
5556
07a4
09c0
cafe
2c0f
5556
07a4
0930
cafe
301f
5556
07a4
0980
cafe
3407
5556
07a4
08cc
cafe
3817
5556
07a8
08fb
cafe
3c08
5556
07a8
0951
cafe
2018
5556
07a8
0997
cafe
2400
5556
07a8
08d8
cafe
2810
5556
07ac
08d7
cafe
2c09
5556
07ac
08d4
cafe
3019
5556
07ac
0951
cafe
3401
5556
07ac
08e1
cafe
3811
5556
07b0
08e3
cafe
3c0a
5556
07b0
0977
cafe
201a
5556
07b0
095e
cafe
2402
5556
07b0
08a2
cafe
2812
5556
07b4
0949
cafe
2c0b
5556
07b4
099c
cafe
301b
5556
07b4
0925
cafe
3403
5556
07b4
08b6
cafe
3813
5556
07b8
08f1
cafe
3c0c
5556
07b8
0882
cafe
201c
5556
07b8
09aa
cafe
2404
5556
07b8
0987
cafe
2814
5556
07bc
09a6
cafe
2c0d
5556
07bc
094a
cafe
301d
5556
07bc
093d
cafe
3405
5556
07bc
08d7
cafe
3815
5556
07c0
09ca
cafe
3c0e
5556
07c0
0988
cafe
201e
5556
07c0
0910
cafe
2406
5556
07c0
092a
cafe
2816
5556
07c4
09d5
cafe
2c0f
5556
07c4
0939
cafe
301f
5556
07c4
098c
cafe
3407
5556
07c4
08d7
cafe
3817
5556
07c8
0904
cafe
3c08
5556
07c8
0959
cafe
2018
5556
07c8
09a0
cafe
2400
5556
07c8
08de
cafe
2810
5556
07cc
08de
cafe
-
2c09
5556
07cc
08db
cafe
3019
5556
07cc
0958
cafe
3401
5556
07cc
08e1
cafe
3811
5556
07d0
08e7
cafe
3c0a
5556
07d0
097e
cafe
201a
5556
07d0
0966
cafe
2402
5556
07d0
08a6
cafe
2812
5556
07d4
0949
cafe
2c0b
5556
07d4
099c
cafe
301b
5556
07d4
0926
cafe
3403
5556
07d4
08b2
cafe
3813
5556
07d8
08f5
cafe
3c0c
5556
07d8
087d
cafe
201c
5556
07d8
09a8
cafe
2404
5556
07d8
0987
cafe
2814
5556
07dc
09a8
cafe
2c0d
5556
07dc
094f
cafe
301d
5556
07dc
0934
cafe
3405
5556
07dc
08d1
cafe
3815
5556
07e0
09ce
cafe
3c0e
5556
07e0
0985
cafe
201e
5556
07e0
090e
cafe
2406
5556
07e0
0925
cafe
2816
5556
07e4
09d6
cafe
2c0f
5556
07e4
0933
cafe
301f
5556
07e4
0987
cafe
3407
5556
07e4
08d1
cafe
3817
5556
07e8
08fd
cafe
3c08
5556
07e8
0956
cafe
2018
5556
07e8
099b
cafe
2400
5556
07e8
08d1
cafe
2810
5556
07ec
08d9
cafe
2c09
5556
07ec
08cf
cafe
3019
5556
07ec
094f
cafe
3401
5556
07ec
08d8
cafe
3811
5556
07f0
08df
cafe
3c0a
5556
07f0
0977
cafe
201a
5556
07f0
095c
cafe
2402
5556
07f0
0899
cafe
2812
5556
07f4
0941
cafe
2c0b
5556
07f4
0994
cafe
301b
5556
07f4
091e
cafe
3403
5556
07f4
08a8
cafe
3813
5556
07f8
08e9
cafe
3c0c
5556
07f8
0871
cafe
201c
5556
07f8
099f
cafe
2404
5556
07f8
097e
cafe
2814
5556
07fc
099f
cafe
2c0d
5556
07fc
0942
cafe
301d
5556
07fc
0924
cafe
3405
5556
07fc
08c3
cafe
3815
-
5556
0800
09c5
cafe
3c0e
5556
0800
0976
cafe
201e
5556
0800
0901
cafe
2406
5556
0800
0911
cafe
2816
5556
0804
09d1
cafe
2c0f
5556
0804
0923
cafe
301f
5556
0804
0977
cafe
3407
5556
0804
08bb
cafe
3817
5556
0808
08eb
cafe
3c08
5556
0808
0940
cafe
2018
5556
0808
0992
cafe
2400
5556
0808
08c2
cafe
2810
5556
080c
08d0
cafe
2c09
5556
080c
08c1
cafe
3019
5556
080c
0946
cafe
3401
5556
080c
08c3
cafe
3811
5556
0810
08cf
cafe
3c0a
5556
0810
096b
cafe
201a
5556
0810
0949
cafe
2402
5556
0810
0885
cafe
2812
5556
0814
092f
cafe
2c0b
5556
0814
0984
cafe
301b
5556
0814
090f
cafe
3403
5556
0814
089b
cafe
3813
5556
0818
08d9
cafe
3c0c
5556
0818
085e
cafe
201c
5556
0818
0994
cafe
2404
5556
0818
096d
cafe
2814
5556
081c
0997
cafe
2c0d
5556
081c
0935
cafe
301d
5556
081c
0914
cafe
3405
5556
081c
08b0
cafe
3815
5556
0820
09b5
cafe
3c0e
5556
0820
0962
cafe
201e
5556
0820
08ed
cafe
2406
5556
0820
0902
cafe
2816
5556
0824
09c3
cafe
2c0f
5556
0824
0914
cafe
301f
5556
0824
0965
cafe
3407
5556
0824
08ab
cafe
3817
5556
0828
08dc
cafe
3c08
5556
0828
0931
cafe
2018
5556
0828
0984
cafe
2400
5556
0828
08a2
cafe
2810
5556
082c
08bd
cafe
2c09
5556
082c
08ac
cafe
3019
5556
082c
0936
cafe
3401
5556
082c
08b1
cafe
3811
5556
0830
08be
cafe
3c0a
5556
0830
095b
cafe
201a
5556
0830
0931
cafe
2402
5556
-
0830
086f
cafe
2812
5556
0834
0919
cafe
2c0b
5556
0834
096a
cafe
301b
5556
0834
08fb
cafe
3403
5556
0834
0882
cafe
3813
5556
0838
08c2
cafe
3c0c
5556
0838
0846
cafe
201c
5556
0838
0983
cafe
2404
5556
0838
0958
cafe
2814
5556
083c
0988
cafe
2c0d
5556
083c
091d
cafe
301d
5556
083c
0904
cafe
3405
5556
083c
089a
cafe
3815
5556
0840
09a4
cafe
3c0e
5556
0840
094e
cafe
201e
5556
0840
08d4
cafe
2406
5556
0840
08eb
cafe
2816
5556
0844
09b1
cafe
2c0f
5556
0844
08fe
cafe
301f
5556
0844
0948
cafe
3407
5556
0844
089d
cafe
3817
5556
0848
08c6
cafe
3c08
5556
0848
091e
cafe
2018
5556
0848
096e
cafe
2400
5556
0848
088c
cafe
2810
5556
084c
089f
cafe
2c09
5556
084c
0896
cafe
3019
5556
084c
0923
cafe
3401
5556
084c
0899
cafe
3811
5556
0850
08a9
cafe
3c0a
5556
0850
0943
cafe
201a
5556
0850
0914
cafe
2402
5556
0850
0855
cafe
2812
5556
0854
090d
cafe
2c0b
5556
0854
095d
cafe
301b
5556
0854
08e9
cafe
3403
5556
0854
086c
cafe
3813
5556
0858
08af
cafe
3c0c
5556
0858
0835
cafe
201c
5556
0858
096e
cafe
2404
5556
0858
0947
cafe
2814
5556
085c
0975
cafe
2c0d
5556
085c
0905
cafe
301d
5556
085c
08ee
cafe
3405
5556
085c
0882
cafe
3815
5556
0860
098b
cafe
3c0e
5556
0860
0935
cafe
201e
5556
0860
08b8
cafe
2406
5556
0860
08da
cafe
2816
5556
0864
099e
cafe
2c0f
5556
0864
08e7
cafe
301f
5556
0864
-
0933
cafe
3407
5556
0864
088a
cafe
3817
5556
0868
08b9
cafe
3c08
5556
0868
0910
cafe
2018
5556
0868
095a
cafe
2400
5556
0868
0870
cafe
2810
5556
086c
0887
cafe
2c09
5556
086c
087d
cafe
3019
5556
086c
090f
cafe
3401
5556
086c
0881
cafe
3811
5556
0870
0892
cafe
3c0a
5556
0870
092d
cafe
201a
5556
0870
0900
cafe
2402
5556
0870
083a
cafe
2812
5556
0874
08fa
cafe
2c0b
5556
0874
0945
cafe
301b
5556
0874
08d5
cafe
3403
5556
0874
0852
cafe
3813
5556
0878
0899
cafe
3c0c
5556
0878
081b
cafe
201c
5556
0878
0958
cafe
2404
5556
0878
0932
cafe
2814
5556
087c
0963
cafe
2c0d
5556
087c
08f0
cafe
301d
5556
087c
08da
cafe
3405
5556
087c
0869
cafe
3815
5556
0880
0975
cafe
3c0e
5556
0880
0928
cafe
201e
5556
0880
08a4
cafe
2406
5556
0880
08be
cafe
2816
5556
0884
0987
cafe
2c0f
5556
0884
08d4
cafe
301f
5556
0884
091d
cafe
3407
5556
0884
086e
cafe
3817
5556
0888
08a3
cafe
3c08
5556
0888
08f2
cafe
2018
5556
0888
094a
cafe
2400
5556
0888
0856
cafe
2810
5556
088c
0872
cafe
2c09
5556
088c
0865
cafe
3019
5556
088c
08f9
cafe
3401
5556
088c
0869
cafe
3811
5556
0890
0878
cafe
3c0a
5556
0890
0916
cafe
201a
5556
0890
08ec
cafe
2402
5556
0890
0827
cafe
2812
5556
0894
08e5
cafe
2c0b
5556
0894
092f
cafe
301b
5556
0894
08bb
cafe
3403
5556
0894
0838
cafe
3813
5556
0898
0885
cafe
3c0c
5556
0898
0809
-
cafe
201c
5556
0898
0944
cafe
2404
5556
0898
091e
cafe
2814
5556
089c
094e
cafe
2c0d
5556
089c
08d9
cafe
301d
5556
089c
08bf
cafe
3405
5556
089c
084f
cafe
3815
5556
08a0
095f
cafe
3c0e
5556
08a0
090c
cafe
201e
5556
08a0
088b
cafe
2406
5556
08a0
08a4
cafe
2816
5556
08a4
096a
cafe
2c0f
5556
08a4
08bd
cafe
301f
5556
08a4
0903
cafe
3407
5556
08a4
0856
cafe
3817
5556
08a8
088e
cafe
3c08
5556
08a8
08e0
cafe
2018
5556
08a8
0938
cafe
2400
5556
08a8
0840
cafe
2810
5556
08ac
0860
cafe
2c09
5556
08ac
084b
cafe
3019
5556
08ac
08e1
cafe
3401
5556
08ac
084a
cafe
3811
5556
08b0
085d
cafe
3c0a
5556
08b0
08ff
cafe
201a
5556
08b0
08d5
cafe
2402
5556
08b0
080d
cafe
2812
5556
08b4
08ca
cafe
2c0b
5556
08b4
091a
cafe
301b
5556
08b4
089d
cafe
3403
5556
08b4
081b
cafe
3813
5556
08b8
086b
cafe
3c0c
5556
08b8
07f2
cafe
201c
5556
08b8
092e
cafe
2404
5556
08b8
0906
cafe
2814
5556
08bc
093f
cafe
2c0d
5556
08bc
08c5
cafe
301d
5556
08bc
08a7
cafe
3405
5556
08bc
0839
cafe
3815
5556
08c0
094c
cafe
3c0e
5556
08c0
08fb
cafe
201e
5556
08c0
0872
cafe
2406
5556
08c0
088e
cafe
2816
5556
08c4
0958
cafe
2c0f
5556
08c4
08a4
cafe
301f
5556
08c4
08ee
cafe
3407
5556
08c4
083b
cafe
3817
5556
08c8
0877
cafe
3c08
5556
08c8
08cd
cafe
2018
5556
08c8
0924
cafe
2400
5556
08c8
082b
cafe
2810
5556
08cc
084b
cafe
-
2c09
5556
08cc
082f
cafe
3019
5556
08cc
08cb
cafe
3401
5556
08cc
0828
cafe
3811
5556
08d0
083a
cafe
3c0a
5556
08d0
08e9
cafe
201a
5556
08d0
08b9
cafe
2402
5556
08d0
07f2
cafe
2812
5556
08d4
08b2
cafe
2c0b
5556
08d4
08fe
cafe
301b
5556
08d4
0884
cafe
3403
5556
08d4
07fd
cafe
3813
5556
08d8
0855
cafe
3c0c
5556
08d8
07d6
cafe
201c
5556
08d8
091d
cafe
2404
5556
08d8
08f1
cafe
2814
5556
08dc
092b
cafe
2c0d
5556
08dc
08b3
cafe
301d
5556
08dc
0896
cafe
3405
5556
08dc
0826
cafe
3815
5556
08e0
0938
cafe
3c0e
5556
08e0
08e8
cafe
201e
5556
08e0
0855
cafe
2406
5556
08e0
0875
cafe
2816
5556
08e4
093f
cafe
2c0f
5556
08e4
088e
cafe
301f
5556
08e4
08d5
cafe
3407
5556
08e4
0828
cafe
3817
5556
08e8
0865
cafe
3c08
5556
08e8
08b8
cafe
2018
5556
08e8
090f
cafe
2400
5556
08e8
0817
cafe
2810
5556
08ec
082c
cafe
2c09
5556
08ec
0818
cafe
3019
5556
08ec
08b6
cafe
3401
5556
08ec
0813
cafe
3811
5556
08f0
0825
cafe
3c0a
5556
08f0
08da
cafe
201a
5556
08f0
089e
cafe
2402
5556
08f0
07dd
cafe
2812
5556
08f4
0898
cafe
2c0b
5556
08f4
08e4
cafe
301b
5556
08f4
0870
cafe
3403
5556
08f4
07e2
cafe
3813
5556
08f8
0844
cafe
3c0c
5556
08f8
07ba
cafe
201c
5556
08f8
0906
cafe
2404
5556
08f8
08d7
cafe
2814
5556
08fc
0911
cafe
2c0d
5556
08fc
08a2
cafe
301d
5556
08fc
0884
cafe
3405
5556
08fc
0812
cafe
3815
-
5556
0900
0921
cafe
3c0e
5556
0900
08d5
cafe
201e
5556
0900
083d
cafe
2406
5556
0900
0861
cafe
2816
5556
0904
092a
cafe
2c0f
5556
0904
0877
cafe
301f
5556
0904
08bf
cafe
3407
5556
0904
0816
cafe
3817
5556
0908
084f
cafe
3c08
5556
0908
08a3
cafe
2018
5556
0908
08fc
cafe
2400
5556
0908
0800
cafe
2810
5556
090c
0815
cafe
2c09
5556
090c
0802
cafe
3019
5556
090c
089f
cafe
3401
5556
090c
0800
cafe
3811
5556
0910
0810
cafe
3c0a
5556
0910
08c7
cafe
201a
5556
0910
0888
cafe
2402
5556
0910
07c1
cafe
2812
5556
0914
087f
cafe
2c0b
5556
0914
08d0
cafe
301b
5556
0914
0859
cafe
3403
5556
0914
07cc
cafe
3813
5556
0918
082e
cafe
3c0c
5556
0918
07a1
cafe
201c
5556
0918
08ee
cafe
2404
5556
0918
08bd
cafe
2814
5556
091c
08f7
cafe
2c0d
5556
091c
088c
cafe
301d
5556
091c
086e
cafe
3405
5556
091c
07fd
cafe
3815
5556
0920
090e
cafe
3c0e
5556
0920
08bb
cafe
201e
5556
0920
0826
cafe
2406
5556
0920
084b
cafe
2816
5556
0924
0912
cafe
2c0f
5556
0924
0863
cafe
301f
5556
0924
08ad
cafe
3407
5556
0924
0800
cafe
3817
5556
0928
0835
cafe
3c08
5556
0928
088b
cafe
2018
5556
0928
08ec
cafe
2400
5556
0928
07e4
cafe
2810
5556
092c
0801
cafe
2c09
5556
092c
07f0
cafe
3019
5556
092c
088b
cafe
3401
5556
092c
07e3
cafe
3811
5556
0930
07f8
cafe
3c0a
5556
0930
08af
cafe
201a
5556
0930
086d
cafe
2402
5556
-
0930
07a7
cafe
2812
5556
0934
086e
cafe
2c0b
5556
0934
08b9
cafe
301b
5556
0934
0841
cafe
3403
5556
0934
07b8
cafe
3813
5556
0938
0812
cafe
3c0c
5556
0938
0788
cafe
201c
5556
0938
08d9
cafe
2404
5556
0938
08a9
cafe
2814
5556
093c
08df
cafe
2c0d
5556
093c
0878
cafe
301d
5556
093c
0855
cafe
3405
5556
093c
07e4
cafe
3815
5556
0940
08fd
cafe
3c0e
5556
0940
08a8
cafe
201e
5556
0940
080d
cafe
2406
5556
0940
0833
cafe
2816
5556
0944
0903
cafe
2c0f
5556
0944
084d
cafe
301f
5556
0944
089a
cafe
3407
5556
0944
07ea
cafe
3817
5556
0948
0823
cafe
3c08
5556
0948
0873
cafe
2018
5556
0948
08d5
cafe
2400
5556
0948
07c7
cafe
2810
5556
094c
07e5
cafe
2c09
5556
094c
07da
cafe
3019
5556
094c
0875
cafe
3401
5556
094c
07c5
cafe
3811
5556
0950
07de
cafe
3c0a
5556
0950
0897
cafe
201a
5556
0950
0854
cafe
2402
5556
0950
078b
cafe
2812
5556
0954
0856
cafe
2c0b
5556
0954
089e
cafe
301b
5556
0954
082a
cafe
3403
5556
0954
07a1
cafe
3813
5556
0958
07fe
cafe
3c0c
5556
0958
0771
cafe
201c
5556
0958
08c2
cafe
2404
5556
0958
0892
cafe
2814
5556
095c
08d0
cafe
2c0d
5556
095c
0868
cafe
301d
5556
095c
083c
cafe
3405
5556
095c
07d3
cafe
3815
5556
0960
08eb
cafe
3c0e
5556
0960
088f
cafe
201e
5556
0960
07f6
cafe
2406
5556
0960
081b
cafe
2816
5556
0964
08ee
cafe
2c0f
5556
0964
0839
cafe
301f
5556
0964
-
0884
cafe
3407
5556
0964
07d4
cafe
3817
5556
0968
080f
cafe
3c08
5556
0968
0862
cafe
2018
5556
0968
08be
cafe
2400
5556
0968
07ac
cafe
2810
5556
096c
07cd
cafe
2c09
5556
096c
07c2
cafe
3019
5556
096c
0860
cafe
3401
5556
096c
07ab
cafe
3811
5556
0970
07c7
cafe
3c0a
5556
0970
0881
cafe
201a
5556
0970
083a
cafe
2402
5556
0970
076e
cafe
2812
5556
0974
0844
cafe
2c0b
5556
0974
0886
cafe
301b
5556
0974
081b
cafe
3403
5556
0974
078e
cafe
3813
5556
0978
07ea
cafe
3c0c
5556
0978
0754
cafe
201c
5556
0978
08b8
cafe
2404
5556
0978
087b
cafe
2814
5556
097c
08b7
cafe
2c0d
5556
097c
0853
cafe
301d
5556
097c
0822
cafe
3405
5556
097c
07b2
cafe
3815
5556
0980
08d3
cafe
3c0e
5556
0980
0876
cafe
201e
5556
0980
07da
cafe
2406
5556
0980
0809
cafe
2816
5556
0984
08da
cafe
2c0f
5556
0984
0824
cafe
301f
5556
0984
086d
cafe
3407
5556
0984
07bf
cafe
3817
5556
0988
07f8
cafe
3c08
5556
0988
084c
cafe
2018
5556
0988
08a6
cafe
2400
5556
0988
0795
cafe
2810
5556
098c
07b6
cafe
2c09
5556
098c
07a9
cafe
3019
5556
098c
0847
cafe
3401
5556
098c
0794
cafe
3811
5556
0990
07aa
cafe
3c0a
5556
0990
086a
cafe
201a
5556
0990
0823
cafe
2402
5556
0990
075d
cafe
2812
5556
0994
082b
cafe
2c0b
5556
0994
0877
cafe
301b
5556
0994
080a
cafe
3403
5556
0994
0776
cafe
3813
5556
0998
07d9
cafe
3c0c
5556
0998
0739
-
cafe
201c
5556
0998
08a4
cafe
2404
5556
0998
0864
cafe
2814
5556
099c
08a4
cafe
2c0d
5556
099c
083b
cafe
301d
5556
099c
0809
cafe
3405
5556
099c
0799
cafe
3815
5556
09a0
08bf
cafe
3c0e
5556
09a0
085c
cafe
201e
5556
09a0
07c5
cafe
2406
5556
09a0
07f4
cafe
2816
5556
09a4
08c8
cafe
2c0f
5556
09a4
080f
cafe
301f
5556
09a4
085a
cafe
3407
5556
09a4
07a7
cafe
3817
5556
09a8
07dd
cafe
3c08
5556
09a8
083a
cafe
2018
5556
09a8
088c
cafe
2400
5556
09a8
0781
cafe
2810
5556
09ac
07a2
cafe
2c09
5556
09ac
078d
cafe
3019
5556
09ac
0838
cafe
3401
5556
09ac
077d
cafe
3811
5556
09b0
079a
cafe
3c0a
5556
09b0
085b
cafe
201a
5556
09b0
0810
cafe
2402
5556
09b0
0742
cafe
2812
5556
09b4
0813
cafe
2c0b
5556
09b4
0867
cafe
301b
5556
09b4
07f8
cafe
3403
5556
09b4
0757
cafe
3813
5556
09b8
07c4
cafe
3c0c
5556
09b8
0725
cafe
201c
5556
09b8
088d
cafe
2404
5556
09b8
0854
cafe
2814
5556
09bc
0893
cafe
2c0d
5556
09bc
0828
cafe
301d
5556
09bc
07ec
cafe
3405
5556
09bc
0783
cafe
3815
5556
09c0
08a8
cafe
3c0e
5556
09c0
0845
cafe
201e
5556
09c0
07ac
cafe
2406
5556
09c0
07df
cafe
2816
5556
09c4
08b3
cafe
2c0f
5556
09c4
07f9
cafe
301f
5556
09c4
084a
cafe
3407
5556
09c4
078e
cafe
3817
5556
09c8
07cd
cafe
3c08
5556
09c8
0821
cafe
2018
5556
09c8
0873
cafe
2400
5556
09c8
0771
cafe
2810
5556
09cc
0787
cafe
-
2c09
5556
09cc
077c
cafe
3019
5556
09cc
0821
cafe
3401
5556
09cc
075f
cafe
3811
5556
09d0
0784
cafe
3c0a
5556
09d0
084a
cafe
201a
5556
09d0
07f9
cafe
2402
5556
09d0
0728
cafe
2812
5556
09d4
07fc
cafe
2c0b
5556
09d4
084e
cafe
301b
5556
09d4
07e5
cafe
3403
5556
09d4
073a
cafe
3813
5556
09d8
07b0
cafe
3c0c
5556
09d8
070a
cafe
201c
5556
09d8
087a
cafe
2404
5556
09d8
0843
cafe
2814
5556
09dc
087e
cafe
2c0d
5556
09dc
0811
cafe
301d
5556
09dc
07d3
cafe
3405
5556
09dc
0768
cafe
3815
5556
09e0
088e
cafe
3c0e
5556
09e0
0827
cafe
201e
5556
09e0
0791
cafe
2406
5556
09e0
07c7
cafe
2816
5556
09e4
08a6
cafe
2c0f
5556
09e4
07df
cafe
301f
5556
09e4
0838
cafe
3407
5556
09e4
0774
cafe
3817
5556
09e8
07b6
cafe
3c08
5556
09e8
080a
cafe
2018
5556
09e8
0863
cafe
2400
5556
09e8
075d
cafe
2810
5556
09ec
0774
cafe
2c09
5556
09ec
076e
cafe
3019
5556
09ec
0804
cafe
3401
5556
09ec
0744
cafe
3811
5556
09f0
0771
cafe
3c0a
5556
09f0
0835
cafe
201a
5556
09f0
07e3
cafe
2402
5556
09f0
070d
cafe
2812
5556
09f4
07e7
cafe
2c0b
5556
09f4
0838
cafe
301b
5556
09f4
07d0
cafe
3403
5556
09f4
0727
cafe
3813
5556
09f8
079d
cafe
3c0c
5556
09f8
06f8
cafe
201c
5556
09f8
0862
cafe
2404
5556
09f8
082f
cafe
2814
5556
09fc
0866
cafe
2c0d
5556
09fc
07ff
cafe
301d
5556
09fc
07b9
cafe
3405
5556
09fc
074f
cafe
3815
-
5556
0a00
087b
cafe
3c0e
5556
0a00
0814
cafe
201e
5556
0a00
0779
cafe
2406
5556
0a00
07ae
cafe
2816
5556
0a04
0892
cafe
2c0f
5556
0a04
07c5
cafe
301f
5556
0a04
0826
cafe
3407
5556
0a04
0761
cafe
3817
5556
0a08
07a0
cafe
3c08
5556
0a08
07ef
cafe
2018
5556
0a08
084a
cafe
2400
5556
0a08
073f
cafe
2810
5556
0a0c
0760
cafe
2c09
5556
0a0c
0756
cafe
3019
5556
0a0c
07f0
cafe
3401
5556
0a0c
0731
cafe
3811
5556
0a10
075c
cafe
3c0a
5556
0a10
0825
cafe
201a
5556
0a10
07d5
cafe
2402
5556
0a10
06fd
cafe
2812
5556
0a14
07cf
cafe
2c0b
5556
0a14
0823
cafe
301b
5556
0a14
07bc
cafe
3403
5556
0a14
0715
cafe
3813
5556
0a18
0789
cafe
3c0c
5556
0a18
06e4
cafe
201c
5556
0a18
0848
cafe
2404
5556
0a18
0819
cafe
2814
5556
0a1c
0855
cafe
2c0d
5556
0a1c
07e5
cafe
301d
5556
0a1c
07a6
cafe
3405
5556
0a1c
0738
cafe
3815
5556
0a20
0868
cafe
3c0e
5556
0a20
07fc
cafe
201e
5556
0a20
0762
cafe
2406
5556
0a20
0791
cafe
2816
5556
0a24
0879
cafe
2c0f
5556
0a24
07b4
cafe
301f
5556
0a24
0813
cafe
3407
5556
0a24
0751
cafe
3817
5556
0a28
078f
cafe
3c08
5556
0a28
07d9
cafe
2018
5556
0a28
0837
cafe
2400
5556
0a28
0721
cafe
2810
5556
0a2c
0745
cafe
2c09
5556
0a2c
073f
cafe
3019
5556
0a2c
07d8
cafe
3401
5556
0a2c
071b
cafe
3811
5556
0a30
0744
cafe
3c0a
5556
0a30
0815
cafe
201a
5556
0a30
07bc
cafe
2402
5556
-
0a30
06e9
cafe
2812
5556
0a34
07b9
cafe
2c0b
5556
0a34
0807
cafe
301b
5556
0a34
07a6
cafe
3403
5556
0a34
06fe
cafe
3813
5556
0a38
0777
cafe
3c0c
5556
0a38
06d0
cafe
201c
5556
0a38
0836
cafe
2404
5556
0a38
080a
cafe
2814
5556
0a3c
083f
cafe
2c0d
5556
0a3c
07cc
cafe
301d
5556
0a3c
078c
cafe
3405
5556
0a3c
0721
cafe
3815
5556
0a40
0853
cafe
3c0e
5556
0a40
07e5
cafe
201e
5556
0a40
0748
cafe
2406
5556
0a40
0779
cafe
2816
5556
0a44
0866
cafe
2c0f
5556
0a44
07a2
cafe
301f
5556
0a44
07fc
cafe
3407
5556
0a44
0737
cafe
3817
5556
0a48
0779
cafe
3c08
5556
0a48
07c5
cafe
2018
5556
0a48
0823
cafe
2400
5556
0a48
0706
cafe
2810
5556
0a4c
072f
cafe
2c09
5556
0a4c
0728
cafe
3019
5556
0a4c
07c3
cafe
3401
5556
0a4c
0703
cafe
3811
5556
0a50
0732
cafe
3c0a
5556
0a50
0804
cafe
201a
5556
0a50
07a6
cafe
2402
5556
0a50
06d2
cafe
2812
5556
0a54
07a4
cafe
2c0b
5556
0a54
07f6
cafe
301b
5556
0a54
0792
cafe
3403
5556
0a54
06e8
cafe
3813
5556
0a58
0764
cafe
3c0c
5556
0a58
06b6
cafe
201c
5556
0a58
081b
cafe
2404
5556
0a58
07f5
cafe
2814
5556
0a5c
082c
cafe
2c0d
5556
0a5c
07b8
cafe
301d
5556
0a5c
0774
cafe
3405
5556
0a5c
070a
cafe
3815
5556
0a60
083b
cafe
3c0e
5556
0a60
07d2
cafe
201e
5556
0a60
0732
cafe
2406
5556
0a60
0765
cafe
2816
5556
0a64
0855
cafe
2c0f
5556
0a64
078f
cafe
301f
5556
0a64
-
07e7
cafe
3407
5556
0a64
071f
cafe
3817
5556
0a68
0761
cafe
3c08
5556
0a68
07ae
cafe
2018
5556
0a68
0812
cafe
2400
5556
0a68
06ed
cafe
2810
5556
0a6c
071b
cafe
2c09
5556
0a6c
070f
cafe
3019
5556
0a6c
07b1
cafe
3401
5556
0a6c
06eb
cafe
3811
5556
0a70
071e
cafe
3c0a
5556
0a70
07eb
cafe
201a
5556
0a70
078d
cafe
2402
5556
0a70
06b9
cafe
2812
5556
0a74
078f
cafe
2c0b
5556
0a74
07e2
cafe
301b
5556
0a74
077a
cafe
3403
5556
0a74
06cb
cafe
3813
5556
0a78
074d
cafe
3c0c
5556
0a78
069f
cafe
201c
5556
0a78
0800
cafe
2404
5556
0a78
07e3
cafe
2814
5556
0a7c
0816
cafe
2c0d
5556
0a7c
07a3
cafe
301d
5556
0a7c
075e
cafe
3405
5556
0a7c
06f6
cafe
3815
5556
0a80
0826
cafe
3c0e
5556
0a80
07c3
cafe
201e
5556
0a80
071c
cafe
2406
5556
0a80
0748
cafe
2816
5556
0a84
0843
cafe
2c0f
5556
0a84
0776
cafe
301f
5556
0a84
07d0
cafe
3407
5556
0a84
0710
cafe
3817
5556
0a88
074b
cafe
3c08
5556
0a88
0797
cafe
2018
5556
0a88
07fe
cafe
2400
5556
0a88
06dd
cafe
2810
5556
0a8c
0709
cafe
2c09
5556
0a8c
0701
cafe
3019
5556
0a8c
0799
cafe
3401
5556
0a8c
06cc
cafe
3811
5556
0a90
0708
cafe
3c0a
5556
0a90
07d5
cafe
201a
5556
0a90
077c
cafe
2402
5556
0a90
06a6
cafe
2812
5556
0a94
0779
cafe
2c0b
5556
0a94
07cc
cafe
301b
5556
0a94
0767
cafe
3403
5556
0a94
06b0
cafe
3813
5556
0a98
0734
cafe
3c0c
5556
0a98
068c
-
cafe
201c
5556
0a98
07eb
cafe
2404
5556
0a98
07cf
cafe
2814
5556
0a9c
07fa
cafe
2c0d
5556
0a9c
0791
cafe
301d
5556
0a9c
074a
cafe
3405
5556
0a9c
06e1
cafe
3815
5556
0aa0
0815
cafe
3c0e
5556
0aa0
07b5
cafe
201e
5556
0aa0
0707
cafe
2406
5556
0aa0
0734
cafe
2816
5556
0aa4
0831
cafe
2c0f
5556
0aa4
075e
cafe
301f
5556
0aa4
07b7
cafe
3407
5556
0aa4
06f8
cafe
3817
5556
0aa8
0738
cafe
3c08
5556
0aa8
0787
cafe
2018
5556
0aa8
07ec
cafe
2400
5556
0aa8
06cb
cafe
2810
5556
0aac
06f7
cafe
2c09
5556
0aac
06ef
cafe
3019
5556
0aac
0785
cafe
3401
5556
0aac
06b6
cafe
3811
5556
0ab0
06ef
cafe
3c0a
5556
0ab0
07c5
cafe
201a
5556
0ab0
0768
cafe
2402
5556
0ab0
0692
cafe
2812
5556
0ab4
0768
cafe
2c0b
5556
0ab4
07b6
cafe
301b
5556
0ab4
0754
cafe
3403
5556
0ab4
069a
cafe
3813
5556
0ab8
0723
cafe
3c0c
5556
0ab8
0678
cafe
201c
5556
0ab8
07d7
cafe
2404
5556
0ab8
07ba
cafe
2814
5556
0abc
07ec
cafe
2c0d
5556
0abc
0782
cafe
301d
5556
0abc
0734
cafe
3405
5556
0abc
06c8
cafe
3815
5556
0ac0
0800
cafe
3c0e
5556
0ac0
07a3
cafe
201e
5556
0ac0
06f3
cafe
2406
5556
0ac0
0723
cafe
2816
5556
0ac4
0823
cafe
2c0f
5556
0ac4
074c
cafe
301f
5556
0ac4
07a0
cafe
3407
5556
0ac4
06e2
cafe
3817
5556
0ac8
0726
cafe
3c08
5556
0ac8
0774
cafe
2018
5556
0ac8
07de
cafe
2400
5556
0ac8
06b4
cafe
2810
5556
0acc
06de
cafe
-
2c09
5556
0acc
06d9
cafe
3019
5556
0acc
076a
cafe
3401
5556
0acc
06a0
cafe
3811
5556
0ad0
06d9
cafe
3c0a
5556
0ad0
07b6
cafe
201a
5556
0ad0
0753
cafe
2402
5556
0ad0
0684
cafe
2812
5556
0ad4
0752
cafe
2c0b
5556
0ad4
07a2
cafe
301b
5556
0ad4
073e
cafe
3403
5556
0ad4
067f
cafe
3813
5556
0ad8
070b
cafe
3c0c
5556
0ad8
0667
cafe
201c
5556
0ad8
07c4
cafe
2404
5556
0ad8
07a6
cafe
2814
5556
0adc
07d6
cafe
2c0d
5556
0adc
0770
cafe
301d
5556
0adc
0720
cafe
3405
5556
0adc
06b0
cafe
3815
5556
0ae0
07f1
cafe
3c0e
5556
0ae0
078e
cafe
201e
5556
0ae0
06dc
cafe
2406
5556
0ae0
070c
cafe
2816
5556
0ae4
0812
cafe
2c0f
5556
0ae4
0737
cafe
301f
5556
0ae4
078b
cafe
3407
5556
0ae4
06d4
cafe
3817
5556
0ae8
0712
cafe
3c08
5556
0ae8
0761
cafe
2018
5556
0ae8
07c5
cafe
2400
5556
0ae8
069e
cafe
2810
5556
0aec
06c8
cafe
2c09
5556
0aec
06c8
cafe
3019
5556
0aec
0754
cafe
3401
5556
0aec
0688
cafe
3811
5556
0af0
06c5
cafe
3c0a
5556
0af0
07a0
cafe
201a
5556
0af0
0740
cafe
2402
5556
0af0
0672
cafe
2812
5556
0af4
073c
cafe
2c0b
5556
0af4
078e
cafe
301b
5556
0af4
072b
cafe
3403
5556
0af4
066b
cafe
3813
5556
0af8
06f4
cafe
3c0c
5556
0af8
064f
cafe
201c
5556
0af8
07b1
cafe
2404
5556
0af8
078a
cafe
2814
5556
0afc
07c3
cafe
2c0d
5556
0afc
075e
cafe
301d
5556
0afc
0708
cafe
3405
5556
0afc
069a
cafe
3815
-
5556
0b00
07e2
cafe
3c0e
5556
0b00
077f
cafe
201e
5556
0b00
06c8
cafe
2406
5556
0b00
06f9
cafe
2816
5556
0b04
0805
cafe
2c0f
5556
0b04
0724
cafe
301f
5556
0b04
0776
cafe
3407
5556
0b04
06c1
cafe
3817
5556
0b08
06f9
cafe
3c08
5556
0b08
074d
cafe
2018
5556
0b08
07ae
cafe
2400
5556
0b08
0689
cafe
2810
5556
0b0c
06b5
cafe
2c09
5556
0b0c
06b2
cafe
3019
5556
0b0c
0741
cafe
3401
5556
0b0c
0675
cafe
3811
5556
0b10
06ae
cafe
3c0a
5556
0b10
078d
cafe
201a
5556
0b10
072d
cafe
2402
5556
0b10
0660
cafe
2812
5556
0b14
0727
cafe
2c0b
5556
0b14
0774
cafe
301b
5556
0b14
0718
cafe
3403
5556
0b14
0656
cafe
3813
5556
0b18
06dd
cafe
3c0c
5556
0b18
0637
cafe
201c
5556
0b18
07a1
cafe
2404
5556
0b18
0777
cafe
2814
5556
0b1c
07b1
cafe
2c0d
5556
0b1c
074c
cafe
301d
5556
0b1c
06f2
cafe
3405
5556
0b1c
0680
cafe
3815
5556
0b20
07cd
cafe
3c0e
5556
0b20
076c
cafe
201e
5556
0b20
06af
cafe
2406
5556
0b20
06e2
cafe
2816
5556
0b24
07f1
cafe
2c0f
5556
0b24
070d
cafe
301f
5556
0b24
075d
cafe
3407
5556
0b24
06ad
cafe
3817
5556
0b28
06e1
cafe
3c08
5556
0b28
073d
cafe
2018
5556
0b28
079c
cafe
2400
5556
0b28
066e
cafe
2810
5556
0b2c
06a0
cafe
2c09
5556
0b2c
0695
cafe
3019
5556
0b2c
072d
cafe
3401
5556
0b2c
065f
cafe
3811
5556
0b30
0692
cafe
3c0a
5556
0b30
0777
cafe
201a
5556
0b30
0710
cafe
2402
5556
-
0b30
064a
cafe
2812
5556
0b34
0711
cafe
2c0b
5556
0b34
0766
cafe
301b
5556
0b34
0702
cafe
3403
5556
0b34
063e
cafe
3813
5556
0b38
06cb
cafe
3c0c
5556
0b38
0624
cafe
201c
5556
0b38
0793
cafe
2404
5556
0b38
0761
cafe
2814
5556
0b3c
0797
cafe
2c0d
5556
0b3c
0737
cafe
301d
5556
0b3c
06dc
cafe
3405
5556
0b3c
066e
cafe
3815
5556
0b40
07bf
cafe
3c0e
5556
0b40
0758
cafe
201e
5556
0b40
069a
cafe
2406
5556
0b40
06ca
cafe
2816
5556
0b44
07de
cafe
2c0f
5556
0b44
06fb
cafe
301f
5556
0b44
0746
cafe
3407
5556
0b44
0697
cafe
3817
5556
0b48
06cc
cafe
3c08
5556
0b48
072a
cafe
2018
5556
0b48
078c
cafe
2400
5556
0b48
0659
cafe
2810
5556
0b4c
068f
cafe
2c09
5556
0b4c
0680
cafe
3019
5556
0b4c
071e
cafe
3401
5556
0b4c
0649
cafe
3811
5556
0b50
067c
cafe
3c0a
5556
0b50
0764
cafe
201a
5556
0b50
06f6
cafe
2402
5556
0b50
0633
cafe
2812
5556
0b54
06fc
cafe
2c0b
5556
0b54
074e
cafe
301b
5556
0b54
06f1
cafe
3403
5556
0b54
062c
cafe
3813
5556
0b58
06b7
cafe
3c0c
5556
0b58
060f
cafe
201c
5556
0b58
0782
cafe
2404
5556
0b58
074d
cafe
2814
5556
0b5c
0784
cafe
2c0d
5556
0b5c
0727
cafe
301d
5556
0b5c
06c9
cafe
3405
5556
0b5c
0661
cafe
3815
5556
0b60
07b0
cafe
3c0e
5556
0b60
0743
cafe
201e
5556
0b60
0684
cafe
2406
5556
0b60
06b3
cafe
2816
5556
0b64
07cd
cafe
2c0f
5556
0b64
06e7
cafe
301f
5556
0b64
-
0730
cafe
3407
5556
0b64
067e
cafe
3817
5556
0b68
06b5
cafe
3c08
5556
0b68
0714
cafe
2018
5556
0b68
0774
cafe
2400
5556
0b68
063f
cafe
2810
5556
0b6c
067b
cafe
2c09
5556
0b6c
0670
cafe
3019
5556
0b6c
070c
cafe
3401
5556
0b6c
062e
cafe
3811
5556
0b70
0664
cafe
3c0a
5556
0b70
0752
cafe
201a
5556
0b70
06e3
cafe
2402
5556
0b70
061a
cafe
2812
5556
0b74
06eb
cafe
2c0b
5556
0b74
073d
cafe
301b
5556
0b74
06de
cafe
3403
5556
0b74
061b
cafe
3813
5556
0b78
06a3
cafe
3c0c
5556
0b78
05fc
cafe
201c
5556
0b78
076f
cafe
2404
5556
0b78
0738
cafe
2814
5556
0b7c
0779
cafe
2c0d
5556
0b7c
070c
cafe
301d
5556
0b7c
06b2
cafe
3405
5556
0b7c
064d
cafe
3815
5556
0b80
079c
cafe
3c0e
5556
0b80
0734
cafe
201e
5556
0b80
066b
cafe
2406
5556
0b80
06a1
cafe
2816
5556
0b84
07b8
cafe
2c0f
5556
0b84
06d2
cafe
301f
5556
0b84
071e
cafe
3407
5556
0b84
066b
cafe
3817
5556
0b88
06a6
cafe
3c08
5556
0b88
0702
cafe
2018
5556
0b88
0767
cafe
2400
5556
0b88
062b
cafe
2810
5556
0b8c
0665
cafe
2c09
5556
0b8c
065a
cafe
3019
5556
0b8c
06fa
cafe
3401
5556
0b8c
0617
cafe
3811
5556
0b90
0651
cafe
3c0a
5556
0b90
0741
cafe
201a
5556
0b90
06d5
cafe
2402
5556
0b90
0604
cafe
2812
5556
0b94
06d7
cafe
2c0b
5556
0b94
0728
cafe
301b
5556
0b94
06ca
cafe
3403
5556
0b94
060d
cafe
3813
5556
0b98
0692
cafe
3c0c
5556
0b98
05e7
-
cafe
201c
5556
0b98
0759
cafe
2404
5556
0b98
072a
cafe
2814
5556
0b9c
0762
cafe
2c0d
5556
0b9c
06fd
cafe
301d
5556
0b9c
069b
cafe
3405
5556
0b9c
0636
cafe
3815
5556
0ba0
078a
cafe
3c0e
5556
0ba0
071e
cafe
201e
5556
0ba0
0659
cafe
2406
5556
0ba0
068a
cafe
2816
5556
0ba4
07a3
cafe
2c0f
5556
0ba4
06b8
cafe
301f
5556
0ba4
070c
cafe
3407
5556
0ba4
0658
cafe
3817
5556
0ba8
068d
cafe
3c08
5556
0ba8
06f1
cafe
2018
5556
0ba8
074f
cafe
2400
5556
0ba8
0615
cafe
2810
5556
0bac
0652
cafe
2c09
5556
0bac
0647
cafe
3019
5556
0bac
06e6
cafe
3401
5556
0bac
0604
cafe
3811
5556
0bb0
063c
cafe
3c0a
5556
0bb0
0730
cafe
201a
5556
0bb0
06c1
cafe
2402
5556
0bb0
05f1
cafe
2812
5556
0bb4
06c2
cafe
2c0b
5556
0bb4
0717
cafe
301b
5556
0bb4
06b4
cafe
3403
5556
0bb4
05f4
cafe
3813
5556
0bb8
0683
cafe
3c0c
5556
0bb8
05d3
cafe
201c
5556
0bb8
0744
cafe
2404
5556
0bb8
071b
cafe
2814
5556
0bbc
0753
cafe
2c0d
5556
0bbc
06eb
cafe
301d
5556
0bbc
0686
cafe
3405
5556
0bbc
061f
cafe
3815
5556
0bc0
077c
cafe
3c0e
5556
0bc0
0710
cafe
201e
5556
0bc0
0645
cafe
2406
5556
0bc0
0672
cafe
2816
5556
0bc4
0792
cafe
2c0f
5556
0bc4
06a4
cafe
301f
5556
0bc4
06f9
cafe
3407
5556
0bc4
063f
cafe
3817
5556
0bc8
067c
cafe
3c08
5556
0bc8
06d9
cafe
2018
5556
0bc8
073d
cafe
2400
5556
0bc8
05fe
cafe
2810
5556
0bcc
0642
cafe
-
2c09
5556
0bcc
063a
cafe
3019
5556
0bcc
06d9
cafe
3401
5556
0bcc
05ee
cafe
3811
5556
0bd0
062a
cafe
3c0a
5556
0bd0
071d
cafe
201a
5556
0bd0
06a8
cafe
2402
5556
0bd0
05d5
cafe
2812
5556
0bd4
06a8
cafe
2c0b
5556
0bd4
0702
cafe
301b
5556
0bd4
06a5
cafe
3403
5556
0bd4
05e3
cafe
3813
5556
0bd8
0674
cafe
3c0c
5556
0bd8
05be
cafe
201c
5556
0bd8
0734
cafe
2404
5556
0bd8
070c
cafe
2814
5556
0bdc
0740
cafe
2c0d
5556
0bdc
06d5
cafe
301d
5556
0bdc
0672
cafe
3405
5556
0bdc
0605
cafe
3815
5556
0be0
076d
cafe
3c0e
5556
0be0
0701
cafe
201e
5556
0be0
062f
cafe
2406
5556
0be0
0661
cafe
2816
5556
0be4
077d
cafe
2c0f
5556
0be4
0691
cafe
301f
5556
0be4
06e6
cafe
3407
5556
0be4
0630
cafe
3817
5556
0be8
066d
cafe
3c08
5556
0be8
06c8
cafe
2018
5556
0be8
0722
cafe
2400
5556
0be8
05e7
cafe
2810
5556
0bec
062f
cafe
2c09
5556
0bec
0620
cafe
3019
5556
0bec
06c8
cafe
3401
5556
0bec
05d6
cafe
3811
5556
0bf0
0615
cafe
3c0a
5556
0bf0
070d
cafe
201a
5556
0bf0
0697
cafe
2402
5556
0bf0
05c1
cafe
2812
5556
0bf4
0695
cafe
2c0b
5556
0bf4
06f0
cafe
301b
5556
0bf4
068b
cafe
3403
5556
0bf4
05d0
cafe
3813
5556
0bf8
0663
cafe
3c0c
5556
0bf8
05a7
cafe
201c
5556
0bf8
0722
cafe
2404
5556
0bf8
06f5
cafe
2814
5556
0bfc
0728
cafe
2c0d
5556
0bfc
06c6
cafe
301d
5556
0bfc
065e
cafe
3405
5556
0bfc
05ee
cafe
3815
-
5556
0c00
0761
cafe
3c0e
5556
0c00
06ed
cafe
201e
5556
0c00
061e
cafe
2406
5556
0c00
0653
cafe
2816
5556
0c04
0769
cafe
2c0f
5556
0c04
0682
cafe
301f
5556
0c04
06cf
cafe
3407
5556
0c04
061c
cafe
3817
5556
0c08
0658
cafe
3c08
5556
0c08
06b7
cafe
2018
5556
0c08
0712
cafe
2400
5556
0c08
05cd
cafe
2810
5556
0c0c
061a
cafe
2c09
5556
0c0c
0608
cafe
3019
5556
0c0c
06ba
cafe
3401
5556
0c0c
05c4
cafe
3811
5556
0c10
05fe
cafe
3c0a
5556
0c10
06f6
cafe
201a
5556
0c10
0688
cafe
2402
5556
0c10
05aa
cafe
2812
5556
0c14
0682
cafe
2c0b
5556
0c14
06e3
cafe
301b
5556
0c14
0673
cafe
3403
5556
0c14
05bd
cafe
3813
5556
0c18
0650
cafe
3c0c
5556
0c18
0593
cafe
201c
5556
0c18
070e
cafe
2404
5556
0c18
06e5
cafe
2814
5556
0c1c
0715
cafe
2c0d
5556
0c1c
06b5
cafe
301d
5556
0c1c
0646
cafe
3405
5556
0c1c
05d9
cafe
3815
5556
0c20
074d
cafe
3c0e
5556
0c20
06dc
cafe
201e
5556
0c20
0606
cafe
2406
5556
0c20
064a
cafe
2816
5556
0c24
0757
cafe
2c0f
5556
0c24
066f
cafe
301f
5556
0c24
06bf
cafe
3407
5556
0c24
0602
cafe
3817
5556
0c28
0644
cafe
3c08
5556
0c28
06a1
cafe
2018
5556
0c28
06fd
cafe
2400
5556
0c28
05b7
cafe
2810
5556
0c2c
0606
cafe
2c09
5556
0c2c
05f4
cafe
3019
5556
0c2c
06ac
cafe
3401
5556
0c2c
05af
cafe
3811
5556
0c30
05ec
cafe
3c0a
5556
0c30
06e1
cafe
201a
5556
0c30
0672
cafe
2402
5556
-
0c30
0592
cafe
2812
5556
0c34
0671
cafe
2c0b
5556
0c34
06d6
cafe
301b
5556
0c34
0664
cafe
3403
5556
0c34
05ab
cafe
3813
5556
0c38
063a
cafe
3c0c
5556
0c38
0582
cafe
201c
5556
0c38
06f6
cafe
2404
5556
0c38
06d2
cafe
2814
5556
0c3c
0707
cafe
2c0d
5556
0c3c
06a3
cafe
301d
5556
0c3c
0639
cafe
3405
5556
0c3c
05c4
cafe
3815
5556
0c40
0738
cafe
3c0e
5556
0c40
06ce
cafe
201e
5556
0c40
05f4
cafe
2406
5556
0c40
063d
cafe
2816
5556
0c44
0746
cafe
2c0f
5556
0c44
065f
cafe
301f
5556
0c44
06aa
cafe
3407
5556
0c44
05f1
cafe
3817
5556
0c48
0635
cafe
3c08
5556
0c48
068d
cafe
2018
5556
0c48
06ee
cafe
2400
5556
0c48
059f
cafe
2810
5556
0c4c
05f4
cafe
2c09
5556
0c4c
05de
cafe
3019
5556
0c4c
0696
cafe
3401
5556
0c4c
059c
cafe
3811
5556
0c50
05de
cafe
3c0a
5556
0c50
06cf
cafe
201a
5556
0c50
065d
cafe
2402
5556
0c50
057d
cafe
2812
5556
0c54
0657
cafe
2c0b
5556
0c54
06cd
cafe
301b
5556
0c54
0652
cafe
3403
5556
0c54
0595
cafe
3813
5556
0c58
062b
cafe
3c0c
5556
0c58
056c
cafe
201c
5556
0c58
06e4
cafe
2404
5556
0c58
06be
cafe
2814
5556
0c5c
06f8
cafe
2c0d
5556
0c5c
0691
cafe
301d
5556
0c5c
0626
cafe
3405
5556
0c5c
05b6
cafe
3815
5556
0c60
0724
cafe
3c0e
5556
0c60
06b7
cafe
201e
5556
0c60
05e5
cafe
2406
5556
0c60
0626
cafe
2816
5556
0c64
072d
cafe
2c0f
5556
0c64
064e
cafe
301f
5556
0c64
-
069a
cafe
3407
5556
0c64
05e2
cafe
3817
5556
0c68
0625
cafe
3c08
5556
0c68
0674
cafe
2018
5556
0c68
06e0
cafe
2400
5556
0c68
058d
cafe
2810
5556
0c6c
05df
cafe
2c09
5556
0c6c
05d1
cafe
3019
5556
0c6c
0681
cafe
3401
5556
0c6c
0587
cafe
3811
5556
0c70
05ca
cafe
3c0a
5556
0c70
06c1
cafe
201a
5556
0c70
0648
cafe
2402
5556
0c70
0566
cafe
2812
5556
0c74
064a
cafe
2c0b
5556
0c74
06bd
cafe
301b
5556
0c74
063e
cafe
3403
5556
0c74
0580
cafe
3813
5556
0c78
0616
cafe
3c0c
5556
0c78
0554
cafe
201c
5556
0c78
06d6
cafe
2404
5556
0c78
06ad
cafe
2814
5556
0c7c
06eb
cafe
2c0d
5556
0c7c
0684
cafe
301d
5556
0c7c
0612
cafe
3405
5556
0c7c
05a6
cafe
3815
5556
0c80
0711
cafe
3c0e
5556
0c80
06a3
cafe
201e
5556
0c80
05cd
cafe
2406
5556
0c80
0610
cafe
2816
5556
0c84
071f
cafe
2c0f
5556
0c84
0639
cafe
301f
5556
0c84
0684
cafe
3407
5556
0c84
05d2
cafe
3817
5556
0c88
0616
cafe
3c08
5556
0c88
0667
cafe
2018
5556
0c88
06c9
cafe
2400
5556
0c88
057a
cafe
2810
5556
0c8c
05cb
cafe
2c09
5556
0c8c
05c0
cafe
3019
5556
0c8c
0673
cafe
3401
5556
0c8c
0571
cafe
3811
5556
0c90
05ba
cafe
3c0a
5556
0c90
06aa
cafe
201a
5556
0c90
0635
cafe
2402
5556
0c90
0554
cafe
2812
5556
0c94
063c
cafe
2c0b
5556
0c94
06aa
cafe
301b
5556
0c94
0628
cafe
3403
5556
0c94
056b
cafe
3813
5556
0c98
05fd
cafe
3c0c
5556
0c98
0545
-
cafe
201c
5556
0c98
06c4
cafe
2404
5556
0c98
069c
cafe
2814
5556
0c9c
06d6
cafe
2c0d
5556
0c9c
0673
cafe
301d
5556
0c9c
05fe
cafe
3405
5556
0c9c
058e
cafe
3815
5556
0ca0
0703
cafe
3c0e
5556
0ca0
068e
cafe
201e
5556
0ca0
05b6
cafe
2406
5556
0ca0
05fb
cafe
2816
5556
0ca4
070c
cafe
2c0f
5556
0ca4
0625
cafe
301f
5556
0ca4
0675
cafe
3407
5556
0ca4
05ba
cafe
3817
5556
0ca8
0608
cafe
3c08
5556
0ca8
0651
cafe
2018
5556
0ca8
06b7
cafe
2400
5556
0ca8
0568
cafe
2810
5556
0cac
05ba
cafe
2c09
5556
0cac
05a8
cafe
3019
5556
0cac
065b
cafe
3401
5556
0cac
0557
cafe
3811
5556
0cb0
05a8
cafe
3c0a
5556
0cb0
0698
cafe
201a
5556
0cb0
0626
cafe
2402
5556
0cb0
0541
cafe
2812
5556
0cb4
062a
cafe
2c0b
5556
0cb4
0697
cafe
301b
5556
0cb4
061b
cafe
3403
5556
0cb4
055a
cafe
3813
5556
0cb8
05e9
cafe
3c0c
5556
0cb8
0534
cafe
201c
5556
0cb8
06b1
cafe
2404
5556
0cb8
0689
cafe
2814
5556
0cbc
06c6
cafe
2c0d
5556
0cbc
065e
cafe
301d
5556
0cbc
05e6
cafe
3405
5556
0cbc
057f
cafe
3815
5556
0cc0
06ec
cafe
3c0e
5556
0cc0
067c
cafe
201e
5556
0cc0
059e
cafe
2406
5556
0cc0
05e9
cafe
2816
5556
0cc4
06fc
cafe
2c0f
5556
0cc4
060e
cafe
301f
5556
0cc4
0664
cafe
3407
5556
0cc4
05aa
cafe
3817
5556
0cc8
05f6
cafe
3c08
5556
0cc8
0640
cafe
2018
5556
0cc8
06a0
cafe
2400
5556
0cc8
0551
cafe
2810
5556
0ccc
05aa
cafe
-
