3416
0000
0000
0130
cafe
3816
0000
0000
0138
cafe
3c16
0000
0000
0135
cafe
2016
0000
0000
0135
cafe
2416
0000
0000
0133
cafe
2816
0000
0000
012e
cafe
2c16
0000
0000
012e
cafe
3016
0000
0000
012b
cafe
3416
0000
0000
0125
cafe
3816
0000
0000
012a
cafe
3c16
0000
0000
0124
cafe
2016
0000
0000
0123
cafe
2416
0000
0000
0127
cafe
2816
0000
0000
012f
cafe
2c16
0000
0000
0130
cafe
3016
0000
0000
012f
cafe
3416
0000
0000
012e
cafe
3816
0000
0000
012b
cafe
3c16
0000
0000
0130
cafe
2016
0000
0000
0128
cafe
2416
0000
0000
0126
cafe
2816
0000
0000
0126
cafe
2c16
0000
0000
0126
cafe
3016
0000
0000
012b
cafe
3416
0000
0000
0124
cafe
3816
0000
0000
0127
cafe
3c16
0000
0000
012d
cafe
2016
0000
0000
0130
cafe
2416
0000
0000
0131
cafe
2816
0000
0000
012e
cafe
2c16
0000
0000
012b
cafe
3016
0000
0000
0125
cafe
3416
0000
0000
0121
cafe
3816
0000
0000
011d
cafe
3c16
0000
0000
0126
cafe
2016
0000
0000
012c
cafe
2416
0000
0000
0132
cafe
2816
0000
0000
0126
cafe
2c16
0000
0000
0120
cafe
3016
0000
0000
0123
cafe
3416
0000
0000
0125
cafe
3816
0000
0000
0124
cafe
3c16
0000
0000
0127
cafe
2016
0000
0000
012e
cafe
2416
0000
0000
0136
cafe
2816
0000
0000
0131
cafe
2c16
0000
0000
012c
cafe
3016
0000
0000
0130
cafe
3416
0000
0000
012d
cafe
3816
0000
0000
0128
cafe
3c16
0000
0000
012d
cafe
2016
-
0000
0000
0130
cafe
2416
0000
0000
0128
cafe
2816
0000
0000
0128
cafe
2c16
0000
0000
012a
cafe
3016
0000
0000
0123
cafe
3416
0000
0000
0125
cafe
3816
0000
0000
012b
cafe
3c16
0000
0000
0128
cafe
2016
0000
0000
0124
cafe
2416
0000
0000
0131
cafe
2816
0000
0000
012f
cafe
2c16
0000
0000
0137
cafe
3016
0000
0000
012e
cafe
3416
0000
0000
0125
cafe
3816
0000
0000
0125
cafe
3c16
0000
0000
012d
cafe
2016
0000
0000
0131
cafe
2416
0000
0000
0135
cafe
2816
0000
0000
012a
cafe
2c16
0000
0000
0126
cafe
3016
0000
0000
012b
cafe
3416
0000
0000
012a
cafe
3816
0000
0000
012b
cafe
3c16
0000
0000
012c
cafe
2016
0000
0000
0135
cafe
2416
0000
0000
0131
cafe
2816
0000
0000
0138
cafe
2c16
0000
0000
0136
cafe
3016
0000
0000
0134
cafe
3416
0000
0000
0137
cafe
3816
0000
0000
0139
cafe
3c16
0000
0000
012e
cafe
2016
0000
0000
0131
cafe
2416
0000
0000
012d
cafe
2816
0000
0000
012b
cafe
2c16
0000
0000
012d
cafe
3016
0000
0000
012f
cafe
3416
0000
0000
0128
cafe
3816
0000
0000
012c
cafe
3c16
0000
0000
0133
cafe
2016
0000
0000
012e
cafe
2416
0000
0000
0131
cafe
2816
0000
0000
0129
cafe
2c16
0000
0000
0127
cafe
3016
0000
0000
0127
cafe
3416
0000
0000
0130
cafe
3816
0000
0000
0139
cafe
3c16
0000
0000
0134
cafe
2016
0000
0000
0132
cafe
2416
0000
0000
012a
cafe
2816
0000
0000
0126
cafe
2c16
0000
-
0000
0130
cafe
3016
0000
0000
0133
cafe
3416
0000
0000
0137
cafe
3816
0000
0000
0134
cafe
3c16
0000
0000
0135
cafe
2016
0000
0000
0140
cafe
2416
0000
0000
0143
cafe
2816
0000
0000
0135
cafe
2c16
0000
0000
012f
cafe
3016
0000
0000
012b
cafe
3416
0000
0000
0131
cafe
3816
0000
0000
0136
cafe
3c16
0000
0000
012a
cafe
2016
0000
0000
0122
cafe
2416
0000
0000
0125
cafe
2816
0000
0000
0124
cafe
2c16
0000
0000
0127
cafe
3016
0000
0000
0129
cafe
3416
0000
0000
0127
cafe
3816
0000
0000
0127
cafe
3c16
0000
0000
011d
cafe
2016
0000
0000
011e
cafe
2416
0000
0000
011f
cafe
2816
0000
0000
0124
cafe
2c16
0000
0000
0126
cafe
3016
0000
0000
0132
cafe
3416
0000
0000
0138
cafe
3816
0000
0000
0139
cafe
3c16
0000
0000
013a
cafe
2016
0000
0000
0142
cafe
2416
0000
0000
013f
cafe
2816
0000
0000
013d
cafe
2c16
0000
0000
0131
cafe
3016
0000
0000
0130
cafe
3416
0000
0000
0135
cafe
3816
0000
0000
0129
cafe
3c16
0000
0000
012d
cafe
2016
0000
0000
012a
cafe
2416
0000
0000
012d
cafe
2816
0000
0000
0129
cafe
2c16
0000
0000
012b
cafe
3016
0000
0000
012c
cafe
3416
0000
0000
0129
cafe
3816
0000
0000
012b
cafe
3c16
0000
0000
0132
cafe
2016
0000
0000
0129
cafe
2416
0000
0000
0135
cafe
2816
0000
0000
012b
cafe
2c16
0000
0000
012b
cafe
3016
0000
0000
012a
cafe
3416
0000
0000
0127
cafe
3816
0000
0000
-
0123
cafe
3c16
0000
0000
0129
cafe
2016
0000
0000
012c
cafe
2416
0000
0000
0123
cafe
2816
0000
0000
012a
cafe
2c16
0000
0000
012f
cafe
3016
0000
0000
0129
cafe
3416
0000
0000
0129
cafe
3816
0000
0000
0129
cafe
3c16
0000
0000
0128
cafe
2016
0000
0000
0126
cafe
2416
0000
0000
0129
cafe
2816
0000
0000
0132
cafe
2c16
0000
0000
012f
cafe
3016
0000
0000
0129
cafe
3416
0000
0000
0129
cafe
3816
0000
0000
0131
cafe
3c16
0000
0000
013a
cafe
2016
0000
0000
0136
cafe
2416
0000
0000
0136
cafe
2816
0000
0000
012b
cafe
2c16
0000
0000
012c
cafe
3016
0000
0000
012f
cafe
3416
0000
0000
012d
cafe
3816
0000
0000
012a
cafe
3c16
0000
0000
012d
cafe
2016
0000
0000
012f
cafe
2416
0000
0000
0131
cafe
2816
0000
0000
0127
cafe
2c16
0000
0000
0121
cafe
3016
0000
0000
011e
cafe
3416
0000
0000
011e
cafe
3816
0000
0000
0128
cafe
3c16
0000
0000
0126
cafe
2016
0000
0000
0128
cafe
2416
0000
0000
0130
cafe
2816
0000
0000
0131
cafe
2c16
0000
0000
0132
cafe
3016
0000
0000
012a
cafe
3416
0000
0000
012e
cafe
3816
0000
0000
012c
cafe
3c16
0000
0000
0134
cafe
2016
0000
0000
0130
cafe
2416
0000
0000
0131
cafe
2816
0000
0000
0138
cafe
2c16
0000
0000
0135
cafe
3016
0000
0000
0138
cafe
3416
0000
0000
0139
cafe
3816
0000
0000
013a
cafe
3c16
0000
0000
0131
cafe
2016
0000
0000
012e
cafe
2416
0000
0000
0130
-
cafe
2816
0000
0000
013d
cafe
2c16
0000
0000
0130
cafe
3016
0000
0000
0131
cafe
3416
0000
0000
0132
cafe
3816
0000
0000
012d
cafe
3c16
0000
0000
012e
cafe
2016
0000
0000
012c
cafe
2416
0000
0000
0130
cafe
2816
0000
0000
013a
cafe
2c16
0000
0000
0133
cafe
3016
0000
0000
013c
cafe
3416
0000
0000
0134
cafe
3816
0000
0000
012f
cafe
3c16
0000
0000
0126
cafe
2016
0000
0000
012a
cafe
2416
0000
0000
012d
cafe
2816
0000
0000
012a
cafe
2c16
0000
0000
0126
cafe
3016
0000
0000
0134
cafe
3416
0000
0000
0134
cafe
3816
0000
0000
0136
cafe
3c16
0000
0000
0135
cafe
2016
0000
0000
0129
cafe
2416
0000
0000
0126
cafe
2816
0000
0000
0135
cafe
2c16
0000
0000
0134
cafe
3016
0000
0000
0135
cafe
3416
0000
0000
0125
cafe
3816
0000
0000
0128
cafe
3c16
0000
0000
0128
cafe
2016
0000
0000
0123
cafe
2416
0000
0000
0127
cafe
2816
0000
0000
0123
cafe
2c16
0000
0000
011e
cafe
3016
0000
0000
011e
cafe
3416
0000
0000
0129
cafe
3816
0000
0000
0123
cafe
3c16
0000
0000
011f
cafe
2016
0000
0000
0122
cafe
2416
0000
0000
0122
cafe
2816
0000
0000
0127
cafe
2c16
0000
0000
012f
cafe
3016
0000
0000
0128
cafe
3416
0000
0000
011c
cafe
3816
0000
0000
0126
cafe
3c16
0000
0000
0122
cafe
2016
0000
0000
0126
cafe
2416
0000
0000
012a
cafe
2816
0000
0000
012f
cafe
2c16
0000
0000
012b
cafe
3016
0000
0000
0127
cafe
-
3416
0000
0000
0125
cafe
3816
0000
0000
012e
cafe
3c16
0000
0000
012f
cafe
2016
0000
0000
012b
cafe
2416
0000
0000
0126
cafe
2816
0000
0000
0124
cafe
2c16
0000
0000
0125
cafe
3016
0000
0000
0123
cafe
3416
0000
0000
012b
cafe
3816
0000
0000
0129
cafe
3c16
0000
0000
0130
cafe
2016
0000
0000
0123
cafe
2416
0000
0000
0124
cafe
2816
0000
0000
0128
cafe
2c16
0000
0000
0131
cafe
3016
0000
0000
0135
cafe
3416
0000
0000
0137
cafe
3816
0000
0000
012c
cafe
3c16
0000
0000
012a
cafe
2016
0000
0000
0128
cafe
2416
0000
0000
012d
cafe
2816
0000
0000
0131
cafe
2c16
0000
0000
0131
cafe
3016
0000
0000
012f
cafe
3416
0000
0000
012c
cafe
3816
0000
0000
012e
cafe
3c16
0000
0000
0136
cafe
2016
0000
0000
012f
cafe
2416
0000
0000
012d
cafe
2816
0000
0000
012b
cafe
2c16
0000
0000
0124
cafe
3016
0000
0000
012c
cafe
3416
0000
0000
012f
cafe
3816
0000
0000
012d
cafe
3c16
0000
0000
012c
cafe
2016
0000
0000
0125
cafe
2416
0000
0000
0130
cafe
2816
0000
0000
012a
cafe
2c16
0000
0000
0123
cafe
3016
0000
0000
0128
cafe
3416
0000
0000
012f
cafe
3816
0000
0000
012a
cafe
3c16
0000
0000
0124
cafe
2016
0000
0000
012d
cafe
2416
0000
0000
0134
cafe
2816
0000
0000
0133
cafe
2c16
0000
0000
0129
cafe
3016
0000
0000
0127
cafe
3416
0000
0000
0127
cafe
3816
0000
0000
0135
cafe
3c16
0000
0000
0135
cafe
2016
-
0000
0000
0134
cafe
2416
0000
0000
0132
cafe
2816
0000
0000
012e
cafe
2c16
0000
0000
0124
cafe
3016
0000
0000
011a
cafe
3416
0000
0000
011c
cafe
3816
0000
0000
011a
cafe
3c16
0000
0000
011c
cafe
2016
0000
0000
011b
cafe
2416
0000
0000
0124
cafe
2816
0000
0000
0120
cafe
2c16
0000
0000
0123
cafe
3016
0000
0000
011f
cafe
3416
0000
0000
0121
cafe
3816
0000
0000
0122
cafe
3c16
0000
0000
011b
cafe
2016
0000
0000
012b
cafe
2416
0000
0000
0125
cafe
2816
0000
0000
0131
cafe
2c16
0000
0000
0134
cafe
3016
0000
0000
0134
cafe
3416
0000
0000
0133
cafe
3816
0000
0000
012b
cafe
3c16
0000
0000
012f
cafe
2016
0000
0000
012c
cafe
2416
0000
0000
0132
cafe
2816
0000
0000
0131
cafe
2c16
0000
0000
012a
cafe
3016
0000
0000
012b
cafe
3416
0000
0000
012c
cafe
3816
0000
0000
0123
cafe
3c16
0000
0000
0121
cafe
2016
0000
0000
0125
cafe
2416
0000
0000
011f
cafe
2816
0000
0000
0121
cafe
2c16
0000
0000
0120
cafe
3016
0000
0000
011c
cafe
3416
0000
0000
0120
cafe
3816
0000
0000
0123
cafe
3c16
0000
0000
011b
cafe
2016
0000
0000
0125
cafe
2416
0000
0000
0129
cafe
2816
0000
0000
0128
cafe
2c16
0000
0000
0128
cafe
3016
0000
0000
0127
cafe
3416
0000
0000
012d
cafe
3816
0000
0000
012c
cafe
3c16
0000
0000
0128
cafe
2016
0000
0000
012c
cafe
2416
0000
0000
012f
cafe
2816
0000
0000
0126
cafe
2c16
0000
-
0000
012b
cafe
3016
0000
0000
012b
cafe
3416
0000
0000
0130
cafe
3816
0000
0000
0132
cafe
3c16
0000
0000
012a
cafe
2016
0000
0000
0129
cafe
2416
0000
0000
012f
cafe
2816
0000
0000
012b
cafe
2c16
0000
0000
0127
cafe
3016
0000
0000
0127
cafe
3416
0000
0000
0129
cafe
3816
0000
0000
012b
cafe
3c16
0000
0000
0133
cafe
2016
0000
0000
0135
cafe
2416
0000
0000
013b
cafe
2816
0000
0000
0137
cafe
2c16
0000
0000
0132
cafe
3016
0000
0000
012b
cafe
3416
0000
0000
0130
cafe
3816
0000
0000
0131
cafe
3c16
0000
0000
0128
cafe
2016
0000
0000
012b
cafe
2416
0000
0000
012b
cafe
2816
0000
0000
012d
cafe
2c16
0000
0000
012a
cafe
3016
0000
0000
0129
cafe
3416
0000
0000
0130
cafe
3816
0000
0000
0136
cafe
3c16
0000
0000
0135
cafe
2016
0000
0000
0137
cafe
2416
0000
0000
012e
cafe
2816
0000
0000
0129
cafe
2c16
0000
0000
012f
cafe
3016
0000
0000
012c
cafe
3416
0000
0000
0128
cafe
3816
0000
0000
0128
cafe
3c16
0000
0000
012e
cafe
2016
0000
0000
0131
cafe
2416
0000
0000
0135
cafe
2816
0000
0000
0133
cafe
2c16
0000
0000
012c
cafe
3016
0000
0000
012b
cafe
3416
0000
0000
0120
cafe
3816
0000
0000
0124
cafe
3c16
0000
0000
012b
cafe
2016
0000
0000
0128
cafe
2416
0000
0000
0122
cafe
2816
0000
0000
0122
cafe
2c16
0000
0000
011f
cafe
3016
0000
0000
0118
cafe
3416
0000
0000
0119
cafe
3816
0000
0000
-
011d
cafe
3c16
0000
0000
0128
cafe
2016
0000
0000
0133
cafe
2416
0000
0000
011d
cafe
2816
0000
0000
0123
cafe
2c16
0000
0000
011d
cafe
3016
0000
0000
010d
cafe
3416
0000
0000
011f
cafe
3816
0000
0000
011d
cafe
3c16
0000
0000
011e
cafe
2016
0000
0000
0123
cafe
2416
0000
0000
0124
cafe
2816
0000
0000
0120
cafe
2c16
0000
0000
012a
cafe
3016
0000
0000
012c
cafe
3416
0000
0000
012b
cafe
3816
0000
0000
0132
cafe
3c16
0000
0000
0128
cafe
2016
0000
0000
0127
cafe
2416
0000
0000
011a
cafe
2816
0000
0000
011a
cafe
2c16
0000
0000
011d
cafe
3016
0000
0000
0128
cafe
3416
0000
0000
0123
cafe
3816
0000
0000
012c
cafe
3c16
0000
0000
0132
cafe
2016
0000
0000
013a
cafe
2416
0000
0000
0134
cafe
2816
0000
0000
0135
cafe
2c16
0000
0000
012e
cafe
3016
0000
0000
012b
cafe
3416
0000
0000
0131
cafe
3816
0000
0000
012b
cafe
3c16
0000
0000
012d
cafe
2016
0000
0000
0129
cafe
2416
0000
0000
0127
cafe
2816
0000
0000
012c
cafe
2c16
0000
0000
0135
cafe
3016
0000
0000
012d
cafe
3416
0000
0000
0134
cafe
3816
0000
0000
0135
cafe
3c16
0000
0000
0136
cafe
2016
0000
0000
012d
cafe
2416
0000
0000
0126
cafe
2816
0000
0000
012c
cafe
2c16
0000
0000
012b
cafe
3016
0000
0000
0127
cafe
3416
0000
0000
0120
cafe
3816
0000
0000
0121
cafe
3c16
0000
0000
0127
cafe
2016
0000
0000
0123
cafe
2416
0000
0000
0125
-
cafe
2816
0000
0000
0129
cafe
2c16
0000
0000
012e
cafe
3016
0000
0000
012c
cafe
3416
0000
0000
0133
cafe
3816
0000
0000
0128
cafe
3c16
0000
0000
0127
cafe
2016
0000
0000
0122
cafe
2416
0000
0000
0126
cafe
2816
0000
0000
012d
cafe
2c16
0000
0000
0132
cafe
3016
0000
0000
012a
cafe
3416
0000
0000
012d
cafe
3816
0000
0000
0126
cafe
3c16
0000
0000
0120
cafe
2016
0000
0000
012b
cafe
2416
0000
0000
012a
cafe
2816
0000
0000
0130
cafe
2c16
0000
0000
012e
cafe
3016
0000
0000
0128
cafe
3416
0000
0000
012d
cafe
3816
0000
0000
0132
cafe
3c16
0000
0000
0130
cafe
2016
0000
0000
012c
cafe
2416
0000
0000
012a
cafe
2816
0000
0000
0133
cafe
2c16
0000
0000
0132
cafe
3016
0000
0000
0132
cafe
3416
0000
0000
0135
cafe
3816
0000
0000
0128
cafe
3c16
0000
0000
0121
cafe
2016
0000
0000
0121
cafe
2416
0000
0000
012b
cafe
2816
0000
0000
0130
cafe
2c16
0000
0000
0133
cafe
3016
0000
0000
0136
cafe
3416
0000
0000
0137
cafe
3816
0000
0000
0130
cafe
3c16
0000
0000
012a
cafe
2016
0000
0000
012a
cafe
2416
0000
0000
012a
cafe
2816
0000
0000
012c
cafe
2c16
0000
0000
0130
cafe
3016
0000
0000
0129
cafe
3416
0000
0000
0124
cafe
3816
0000
0000
012d
cafe
3c16
0000
0000
012a
cafe
2016
0000
0000
012a
cafe
2416
0000
0000
011e
cafe
2816
0000
0000
011a
cafe
2c16
0000
0000
011f
cafe
3016
0000
0000
0120
cafe
-
3416
0000
0000
011f
cafe
3816
0000
0000
0125
cafe
3c16
0000
0000
0127
cafe
2016
0000
0000
0120
cafe
2416
0000
0000
0128
cafe
2816
0000
0000
012c
cafe
2c16
0000
0000
0123
cafe
3016
0000
0000
0126
cafe
3416
0000
0000
0128
cafe
3816
0000
0000
012b
cafe
3c16
0000
0000
012a
cafe
2016
0000
0000
012c
cafe
2416
0000
0000
0124
cafe
2816
0000
0000
0127
cafe
2c16
0000
0000
012c
cafe
3016
0000
0000
0122
cafe
3416
0000
0000
0119
cafe
3816
0000
0000
0126
cafe
3c16
0000
0000
0127
cafe
2016
0000
0000
012b
cafe
2416
0000
0000
0125
cafe
2816
0000
0000
0124
cafe
2c16
0000
0000
0120
cafe
3016
0000
0000
0122
cafe
3416
0000
0000
0124
cafe
3816
0000
0000
012b
cafe
3c16
0000
0000
012d
cafe
2016
0000
0000
0130
cafe
2416
0000
0000
012a
cafe
2816
0000
0000
0127
cafe
2c16
0000
0000
0134
cafe
3016
0000
0000
0134
cafe
3416
0000
0000
0134
cafe
3816
0000
0000
0128
cafe
3c16
0000
0000
0133
cafe
2016
0000
0000
0133
cafe
2416
0000
0000
0139
cafe
2816
0000
0000
0144
cafe
2c16
0000
0000
013c
cafe
3016
0000
0000
012e
cafe
3416
0000
0000
0137
cafe
3816
0000
0000
0137
cafe
3c16
0000
0000
0134
cafe
2016
0000
0000
012e
cafe
2416
0000
0000
0128
cafe
2816
0000
0000
012a
cafe
2c16
0000
0000
012c
cafe
3016
0000
0000
0132
cafe
3416
0000
0000
0130
cafe
3816
0000
0000
0134
cafe
3c16
0000
0000
0134
cafe
2016
-
0000
0000
013a
cafe
2416
0000
0000
0137
cafe
2816
0000
0000
013c
cafe
2c16
0000
0000
0131
cafe
3016
0000
0000
012e
cafe
3416
0000
0000
0128
cafe
3816
0000
0000
012f
cafe
3c16
0000
0000
0130
cafe
2016
0000
0000
0132
cafe
2416
0000
0000
012f
cafe
2816
0000
0000
0130
cafe
2c16
0000
0000
0137
cafe
3016
0000
0000
012f
cafe
3416
0000
0000
0124
cafe
3816
0000
0000
012d
cafe
3c16
0000
0000
012b
cafe
2016
0000
0000
012f
cafe
2416
0000
0000
012f
cafe
2816
0000
0000
0131
cafe
2c16
0000
0000
0123
cafe
3016
0000
0000
0126
cafe
3416
0000
0000
0127
cafe
3816
0000
0000
0131
cafe
3c16
0000
0000
012b
cafe
2016
0000
0000
012b
cafe
2416
0000
0000
012b
cafe
2816
0000
0000
012d
cafe
2c16
0000
0000
0125
cafe
3016
0000
0000
012b
cafe
3416
0000
0000
011e
cafe
3816
0000
0000
0127
cafe
3c16
0000
0000
012b
cafe
2016
0000
0000
012e
cafe
2416
0000
0000
012d
cafe
2816
0000
0000
0123
cafe
2c16
0000
0000
0128
cafe
3016
0000
0000
0127
cafe
3416
0000
0000
0122
cafe
3816
0000
0000
0121
cafe
3c16
0000
0000
0121
cafe
2016
0000
0000
0124
cafe
2416
0000
0000
0124
cafe
2816
0000
0000
0128
cafe
2c16
0000
0000
011d
cafe
3016
0000
0000
0112
cafe
3416
0000
0000
0118
cafe
3816
0000
0000
0120
cafe
3c16
0000
0000
011b
cafe
2016
0000
0000
011a
cafe
2416
0000
0000
0122
cafe
2816
0000
0000
012c
cafe
2c16
0000
-
0000
012f
cafe
3016
0000
0000
0123
cafe
3416
0000
0000
0122
cafe
3816
0000
0000
0126
cafe
3c16
0000
0000
012a
cafe
2016
0000
0000
0127
cafe
2416
0000
0000
0122
cafe
2816
0000
0000
0123
cafe
2c16
0000
0000
0125
cafe
3016
0000
0000
0128
cafe
3416
0000
0000
0129
cafe
3816
0000
0000
0129
cafe
3c16
0000
0000
0120
cafe
2016
0000
0000
011f
cafe
2416
0000
0000
0119
cafe
2816
0000
0000
0117
cafe
2c16
0000
0000
011c
cafe
3016
0000
0000
0118
cafe
3416
0000
0000
0118
cafe
3816
0000
0000
0116
cafe
3c16
0000
0000
011c
cafe
2016
0000
0000
011b
cafe
2416
0000
0000
011f
cafe
2816
0000
0000
0126
cafe
2c16
0000
0000
0125
cafe
3016
0000
0000
0121
cafe
3416
0000
0000
011d
cafe
3816
0000
0000
0128
cafe
3c16
0000
0000
0129
cafe
2016
0000
0000
0130
cafe
2416
0000
0000
0135
cafe
2816
0000
0000
012d
cafe
2c16
0000
0000
0129
cafe
3016
0000
0000
0125
cafe
3416
0000
0000
0125
cafe
3816
0000
0000
0122
cafe
3c16
0000
0000
011f
cafe
2016
0000
0000
0119
cafe
2416
0000
0000
0118
cafe
2816
0000
0000
0116
cafe
2c16
0000
0000
011d
cafe
3016
0000
0000
0127
cafe
3416
0000
0000
012b
cafe
3816
0000
0000
0134
cafe
3c16
0000
0000
0130
cafe
2016
0000
0000
012b
cafe
2416
0000
0000
0131
cafe
2816
0000
0000
0133
cafe
2c16
0000
0000
012e
cafe
3016
0000
0000
0137
cafe
3416
0000
0000
0132
cafe
3816
0000
0000
-
012b
cafe
3c16
0000
0000
012f
cafe
2016
0000
0000
0132
cafe
2416
0000
0000
012d
cafe
2816
0000
0000
0136
cafe
2c16
0000
0000
0135
cafe
3016
0000
0000
012f
cafe
3416
0000
0000
0137
cafe
3816
0000
0000
0136
cafe
3c16
0000
0000
0136
cafe
2016
0000
0000
0130
cafe
2416
0000
0000
0130
cafe
2816
0000
0000
0133
cafe
2c16
0000
0000
013a
cafe
3016
0000
0000
013a
cafe
3416
0000
0000
0137
cafe
3816
0000
0000
013e
cafe
3c16
0000
0000
013a
cafe
2016
0000
0000
012d
cafe
2416
0000
0000
0129
cafe
2816
0000
0000
0127
cafe
2c16
0000
0000
0128
cafe
3016
0000
0000
012f
cafe
3416
0000
0000
0128
cafe
3816
0000
0000
0130
cafe
3c16
0000
0000
012d
cafe
2016
0000
0000
0130
cafe
2416
0000
0000
0132
cafe
2816
0000
0000
0127
cafe
2c16
0000
0000
0122
cafe
3016
0000
0000
0120
cafe
3416
0000
0000
012a
cafe
3816
0000
0000
012a
cafe
3c16
0000
0000
0124
cafe
2016
0000
0000
011f
cafe
2416
0000
0000
0120
cafe
2816
0000
0000
0124
cafe
2c16
0000
0000
0126
cafe
3016
0000
0000
0128
cafe
3416
0000
0000
0127
cafe
3816
0000
0000
0129
cafe
3c16
0000
0000
0125
cafe
2016
0000
0000
0127
cafe
2416
0000
0000
012c
cafe
2816
0000
0000
012e
cafe
2c16
0000
0000
012e
cafe
3016
0000
0000
0127
cafe
3416
0000
0000
0125
cafe
3816
0000
0000
0123
cafe
3c16
0000
0000
0121
cafe
2016
0000
0000
0127
cafe
2416
0000
0000
0122
-
cafe
2816
0000
0000
0122
cafe
2c16
0000
0000
0125
cafe
3016
0000
0000
0127
cafe
3416
0000
0000
012f
cafe
3816
0000
0000
0129
cafe
3c16
0000
0000
0126
cafe
2016
0000
0000
012e
cafe
2416
0000
0000
0137
cafe
2816
0000
0000
0133
cafe
2c16
0000
0000
011e
cafe
3016
0000
0000
0124
cafe
3416
0000
0000
011c
cafe
3816
0000
0000
011d
cafe
3c16
0000
0000
0127
cafe
2016
0000
0000
0129
cafe
2416
0000
0000
0120
cafe
2816
0000
0000
0124
cafe
2c16
0000
0000
0129
cafe
3016
0000
0000
0129
cafe
3416
0000
0000
012d
cafe
3816
0000
0000
0124
cafe
3c16
0000
0000
011f
cafe
2016
0000
0000
0128
cafe
2416
0000
0000
0132
cafe
2816
0000
0000
013a
cafe
2c16
0000
0000
0130
cafe
3016
0000
0000
013b
cafe
3416
0000
0000
013e
cafe
3816
0000
0000
013c
cafe
3c16
0000
0000
013d
cafe
2016
0000
0000
0137
cafe
2416
0000
0000
0139
cafe
2816
0000
0000
0132
cafe
2c16
0000
0000
0130
cafe
3016
0000
0000
013c
cafe
3416
0000
0000
0138
cafe
3816
0000
0000
0133
cafe
3c16
0000
0000
0131
cafe
2016
0000
0000
012b
cafe
2416
0000
0000
0129
cafe
2816
0000
0000
012e
cafe
2c16
0000
0000
0132
cafe
3016
0000
0000
0130
cafe
3416
0000
0000
012f
cafe
3816
0000
0000
012e
cafe
3c16
0000
0000
0131
cafe
2016
0000
0000
012e
cafe
2416
0000
0000
0130
cafe
2816
0000
0000
0131
cafe
2c16
0000
0000
0127
cafe
3016
0000
0000
0125
cafe
-
3416
0000
0000
012a
cafe
3816
0000
0000
0124
cafe
3c16
0000
0000
0122
cafe
2016
0000
0000
0122
cafe
2416
0000
0000
0126
cafe
2816
0000
0000
0125
cafe
2c16
0000
0000
0128
cafe
3016
0000
0000
0124
cafe
3416
0000
0000
0126
cafe
3816
0000
0000
0127
cafe
3c16
0000
0000
012b
cafe
2016
0000
0000
012e
cafe
2416
0000
0000
0129
cafe
2816
0000
0000
0126
cafe
2c16
0000
0000
012c
cafe
3016
0000
0000
012d
cafe
3416
0000
0000
012b
cafe
3816
0000
0000
0133
cafe
3c16
0000
0000
0132
cafe
2016
0000
0000
012f
cafe
2416
0000
0000
012f
cafe
2816
0000
0000
012f
cafe
2c16
0000
0000
0135
cafe
3016
0000
0000
012f
cafe
3416
0000
0000
012f
cafe
3816
0000
0000
0128
cafe
3c16
0000
0000
0130
cafe
2016
0000
0000
012a
cafe
2416
0000
0000
0127
cafe
2816
0000
0000
0128
cafe
2c16
0000
0000
012c
cafe
3016
0000
0000
012f
cafe
3416
0000
0000
0133
cafe
3816
0000
0000
012a
cafe
3c16
0000
0000
0126
cafe
2016
0000
0000
0123
cafe
2416
0000
0000
012a
cafe
2816
0000
0000
0129
cafe
2c16
0000
0000
012e
cafe
3016
0000
0000
012f
cafe
3416
0000
0000
0129
cafe
3816
0000
0000
0131
cafe
3c16
0000
0000
0131
cafe
2016
0000
0000
012b
cafe
2416
0000
0000
013a
cafe
2816
0000
0000
0132
cafe
2c16
0000
0000
012c
cafe
3016
0000
0000
0128
cafe
3416
0000
0000
0133
cafe
3816
0000
0000
0129
cafe
3c16
0000
0000
0131
cafe
2016
-
0000
0000
0127
cafe
2416
0000
0000
0122
cafe
2816
0000
0000
0128
cafe
2c16
0000
0000
0127
cafe
3016
0000
0000
0123
cafe
3416
0000
0000
011e
cafe
3816
0000
0000
011a
cafe
3c16
0000
0000
0121
cafe
2016
0000
0000
0123
cafe
2416
0000
0000
0124
cafe
2816
0000
0000
0122
cafe
2c16
0000
0000
0125
cafe
3016
0000
0000
011b
cafe
3416
0000
0000
011b
cafe
3816
0000
0000
011e
cafe
3c16
0000
0000
0126
cafe
2016
0000
0000
0127
cafe
2416
0000
0000
0129
cafe
2816
0000
0000
012a
cafe
2c16
0000
0000
0129
cafe
3016
0000
0000
012c
cafe
3416
0000
0000
0130
cafe
3816
0000
0000
0135
cafe
3c16
0000
0000
0130
cafe
2016
0000
0000
012b
cafe
2416
0000
0000
0124
cafe
2816
0000
0000
012a
cafe
2c16
0000
0000
0128
cafe
3016
0000
0000
0121
cafe
3416
0000
0000
0127
cafe
3816
0000
0000
0134
cafe
3c16
0000
0000
013f
cafe
2016
0000
0000
0136
cafe
2416
0000
0000
0135
cafe
2816
0000
0000
0130
cafe
2c16
0000
0000
0138
cafe
3016
0000
0000
0135
cafe
3416
0000
0000
012f
cafe
3816
0000
0000
0130
cafe
3c16
0000
0000
0131
cafe
2016
0000
0000
013d
cafe
2416
0000
0000
013b
cafe
2816
0000
0000
0145
cafe
2c16
0000
0000
0138
cafe
3016
0000
0000
0132
cafe
3416
0000
0000
0134
cafe
3816
0000
0000
0122
cafe
3c16
0000
0000
0116
cafe
2016
0000
0000
011b
cafe
2416
0000
0000
011b
cafe
2816
0000
0000
0128
cafe
2c16
0000
-
0000
0130
cafe
3016
0000
0000
0130
cafe
3416
0000
0000
0131
cafe
3816
0000
0000
0130
cafe
3c16
0000
0000
0137
cafe
2016
0000
0000
012f
cafe
2416
0000
0000
013f
cafe
2816
0000
0000
012e
cafe
2c16
0000
0000
012d
cafe
3016
0000
0000
0132
cafe
3416
0000
0000
0134
cafe
3816
0000
0000
0138
cafe
3c16
0000
0000
0133
cafe
2016
0000
0000
0133
cafe
2416
0000
0000
012b
cafe
2816
0000
0000
0135
cafe
2c16
0000
0000
0131
cafe
3016
0000
0000
0131
cafe
3416
0000
0000
0131
cafe
3816
0000
0000
012f
cafe
3c16
0000
0000
012e
cafe
2016
0000
0000
0130
cafe
2416
0000
0000
0132
cafe
2816
0000
0000
012c
cafe
2c16
0000
0000
0130
cafe
3016
0000
0000
0135
cafe
3416
0000
0000
0138
cafe
3816
0000
0000
013d
cafe
3c16
0000
0000
0131
cafe
2016
0000
0000
0128
cafe
2416
0000
0000
0131
cafe
2816
0000
0000
012f
cafe
2c16
0000
0000
0131
cafe
3016
0000
0000
0125
cafe
3416
0000
0000
012b
cafe
3816
0000
0000
0127
cafe
3c16
0000
0000
012a
cafe
2016
0000
0000
0123
cafe
2416
0000
0000
0122
cafe
2816
0000
0000
011d
cafe
2c16
0000
0000
011f
cafe
3016
0000
0000
0127
cafe
3416
0000
0000
0121
cafe
3816
0000
0000
0126
cafe
3c16
0000
0000
0129
cafe
2016
0000
0000
0119
cafe
2416
0000
0000
011d
cafe
2816
0000
0000
0124
cafe
2c16
0000
0000
0126
cafe
3016
0000
0000
0122
cafe
3416
0000
0000
0129
cafe
3816
0000
0000
-
0129
cafe
3c16
0000
0000
0129
cafe
2016
0000
0000
0130
cafe
2416
0000
0000
012c
cafe
2816
0000
0000
0128
cafe
2c16
0000
0000
0129
cafe
3016
0000
0000
012c
cafe
3416
0000
0000
012e
cafe
3816
0000
0000
012e
cafe
3c16
0000
0000
012a
cafe
2016
0000
0000
012b
cafe
2416
0000
0000
0127
cafe
2816
0000
0000
0125
cafe
2c16
0000
0000
012a
cafe
3016
0000
0000
0129
cafe
3416
0000
0000
0128
cafe
3816
0000
0000
0129
cafe
3c16
0000
0000
012d
cafe
2016
0000
0000
0132
cafe
2416
0000
0000
0129
cafe
2816
0000
0000
0128
cafe
2c16
0000
0000
0129
cafe
3016
0000
0000
0129
cafe
3416
0000
0000
0127
cafe
3816
0000
0000
012b
cafe
3c16
0000
0000
0127
cafe
2016
0000
0000
012c
cafe
2416
0000
0000
0128
cafe
2816
0000
0000
0128
cafe
2c16
0000
0000
012c
cafe
3016
0000
0000
012e
cafe
3416
0000
0000
0127
cafe
3816
0000
0000
0126
cafe
3c16
0000
0000
011f
cafe
2016
0000
0000
0122
cafe
2416
0000
0000
012b
cafe
2816
0000
0000
012f
cafe
2c16
0000
0000
0131
cafe
3016
0000
0000
012e
cafe
3416
0000
0000
012e
cafe
3816
0000
0000
012a
cafe
3c16
0000
0000
0131
cafe
2016
0000
0000
0124
cafe
2416
0000
0000
012f
cafe
2816
0000
0000
012e
cafe
2c16
0000
0000
012c
cafe
3016
0000
0000
0127
cafe
3416
0000
0000
0125
cafe
3816
0000
0000
0123
cafe
3c16
0000
0000
011e
cafe
2016
0000
0000
0128
cafe
2416
0000
0000
0128
-
cafe
2816
0000
0000
012b
cafe
2c16
0000
0000
0127
cafe
3016
0000
0000
0122
cafe
3416
0000
0000
0125
cafe
3816
0000
0000
011f
cafe
3c16
0000
0000
011c
cafe
2016
0000
0000
0127
cafe
2416
0000
0000
0122
cafe
2816
0000
0000
012a
cafe
2c16
0000
0000
0127
cafe
3016
0000
0000
012e
cafe
3416
0000
0000
012a
cafe
3816
0000
0000
012e
cafe
3c16
0000
0000
012a
cafe
2016
0000
0000
0127
cafe
2416
0000
0000
0127
cafe
2816
0000
0000
012d
cafe
2c16
0000
0000
012c
cafe
3016
0000
0000
0129
cafe
3416
0000
0000
0128
cafe
3816
0000
0000
0122
cafe
3c16
0000
0000
0126
cafe
2016
0000
0000
012f
cafe
2416
0000
0000
0135
cafe
2816
0000
0000
0131
cafe
2c16
0000
0000
012c
cafe
3016
0000
0000
012b
cafe
3416
0000
0000
012b
cafe
3816
0000
0000
0131
cafe
3c16
0000
0000
0130
cafe
2016
0000
0000
0122
cafe
2416
0000
0000
0129
cafe
2816
0000
0000
012f
cafe
2c16
0000
0000
0130
cafe
3016
0000
0000
0135
cafe
3416
0000
0000
012b
cafe
3816
0000
0000
0131
cafe
3c16
0000
0000
0132
cafe
2016
0000
0000
0130
cafe
2416
0000
0000
0120
cafe
2816
0000
0000
011f
cafe
2c16
0000
0000
0118
cafe
3016
0000
0000
0119
cafe
3416
0000
0000
011a
cafe
3816
0000
0000
0124
cafe
3c16
0000
0000
012e
cafe
2016
0000
0000
0129
cafe
2416
0000
0000
0127
cafe
2816
0000
0000
012b
cafe
2c16
0000
0000
0126
cafe
3016
0000
0000
0127
cafe
-
3416
0000
0000
0120
cafe
3816
0000
0000
0129
cafe
3c16
0000
0000
012f
cafe
2016
0000
0000
0126
cafe
2416
0000
0000
0131
cafe
2816
0000
0000
0134
cafe
2c16
0000
0000
0134
cafe
3016
0000
0000
0131
cafe
3416
0000
0000
0132
cafe
3816
0000
0000
0130
cafe
3c16
0000
0000
0129
cafe
2016
0000
0000
012f
cafe
2416
0000
0000
012f
cafe
2816
0000
0000
0129
cafe
2c16
0000
0000
012b
cafe
3016
0000
0000
012f
cafe
3416
0000
0000
0135
cafe
3816
0000
0000
012d
cafe
3c16
0000
0000
0128
cafe
2016
0000
0000
012a
cafe
2416
0000
0000
0126
cafe
2816
0000
0000
0124
cafe
2c16
0000
0000
012a
cafe
3016
0000
0000
012f
cafe
3416
0000
0000
012a
cafe
3816
0000
0000
012c
cafe
3c16
0000
0000
0128
cafe
2016
0000
0000
0125
cafe
2416
0000
0000
0128
cafe
2816
0000
0000
0126
cafe
2c16
0000
0000
0127
cafe
3016
0000
0000
0129
cafe
3416
0000
0000
012f
cafe
3816
0000
0000
0129
cafe
3c16
0000
0000
0129
cafe
2016
0000
0000
0127
cafe
2416
0000
0000
0127
cafe
2816
0000
0000
012d
cafe
2c16
0000
0000
0132
cafe
3016
0000
0000
012f
cafe
3416
0000
0000
0134
cafe
3816
0000
0000
0134
cafe
3c16
0000
0000
012e
cafe
2016
0000
0000
012b
cafe
2416
0000
0000
0128
cafe
2816
0000
0000
0129
cafe
2c16
0000
0000
0127
cafe
3016
0000
0000
0128
cafe
3416
0000
0000
012c
cafe
3816
0000
0000
0126
cafe
3c16
0000
0000
0129
cafe
2016
-
0000
0000
0129
cafe
2416
0000
0000
0128
cafe
2816
0000
0000
0129
cafe
2c16
0000
0000
0125
cafe
3016
0000
0000
011d
cafe
3416
0000
0000
0124
cafe
3816
0000
0000
0128
cafe
3c16
0000
0000
012b
cafe
2016
0000
0000
012b
cafe
2416
0000
0000
0127
cafe
2816
0000
0000
012c
cafe
2c16
0000
0000
0128
cafe
3016
0000
0000
0122
cafe
3416
0000
0000
0121
cafe
3816
0000
0000
0127
cafe
3c16
0000
0000
012a
cafe
2016
0000
0000
0124
cafe
2416
0000
0000
012b
cafe
2816
0000
0000
0129
cafe
2c16
0000
0000
0127
cafe
3016
0000
0000
012a
cafe
3416
0000
0000
012d
cafe
3816
0000
0000
012f
cafe
3c16
0000
0000
0128
cafe
2016
0000
0000
012b
cafe
2416
0000
0000
0133
cafe
2816
0000
0000
0135
cafe
2c16
0000
0000
0124
cafe
3016
0000
0000
0125
cafe
3416
0000
0000
012a
cafe
3816
0000
0000
012c
cafe
3c16
0000
0000
0130
cafe
2016
0000
0000
012e
cafe
2416
0000
0000
012f
cafe
2816
0000
0000
0127
cafe
2c16
0000
0000
0128
cafe
3016
0000
0000
0121
cafe
3416
0000
0000
0120
cafe
3816
0000
0000
012a
cafe
3c16
0000
0000
0128
cafe
2016
0000
0000
0129
cafe
2416
0000
0000
0129
cafe
2816
0000
0000
012f
cafe
2c16
0000
0000
012f
cafe
3016
0000
0000
012a
cafe
3416
0000
0000
0132
cafe
3816
0000
0000
0139
cafe
3c16
0000
0000
0139
cafe
2016
0000
0000
0129
cafe
2416
0000
0000
0124
cafe
2816
0000
0000
012a
cafe
2c16
0000
-
0000
012e
cafe
3016
0000
0000
0129
cafe
3416
0000
0000
012e
cafe
3816
0000
0000
0135
cafe
3c16
0000
0000
0124
cafe
2016
0000
0000
0121
cafe
2416
0000
0000
011c
cafe
2816
0000
0000
011e
cafe
2c16
0000
0000
0118
cafe
3016
0000
0000
0119
cafe
3416
0000
0000
011b
cafe
3816
0000
0000
012c
cafe
3c16
0000
0000
012a
cafe
2016
0000
0000
012c
cafe
2416
0000
0000
012e
cafe
2816
0000
0000
0123
cafe
2c16
0000
0000
011c
cafe
3016
0000
0000
0127
cafe
3416
0000
0000
0124
cafe
3816
0000
0000
0126
cafe
3c16
0000
0000
0127
cafe
2016
0000
0000
012d
cafe
2416
0000
0000
0122
cafe
2816
0000
0000
0123
cafe
2c16
0000
0000
011e
cafe
3016
0000
0000
011e
cafe
3416
0000
0000
0127
cafe
3816
0000
0000
0124
cafe
3c16
0000
0000
0121
cafe
2016
0000
0000
012c
cafe
2416
0000
0000
012a
cafe
2816
0000
0000
0135
cafe
2c16
0000
0000
012f
cafe
3016
0000
0000
012d
cafe
3416
0000
0000
012b
cafe
3816
0000
0000
0129
cafe
3c16
0000
0000
012d
cafe
2016
0000
0000
0129
cafe
2416
0000
0000
0132
cafe
2816
0000
0000
0130
cafe
2c16
0000
0000
0126
cafe
3016
0000
0000
0127
cafe
3416
0000
0000
012f
cafe
3816
0000
0000
012f
cafe
3c16
0000
0000
0134
cafe
2016
0000
0000
0129
cafe
2416
0000
0000
0129
cafe
2816
0000
0000
0127
cafe
2c16
0000
0000
0127
cafe
3016
0000
0000
012e
cafe
3416
0000
0000
0127
cafe
3816
0000
0000
-
012c
cafe
3c16
0000
0000
012a
cafe
2016
0000
0000
012b
cafe
2416
0000
0000
0132
cafe
2816
0000
0000
012b
cafe
2c16
0000
0000
012c
cafe
3016
0000
0000
012c
cafe
3416
0000
0000
0128
cafe
3816
0000
0000
0132
cafe
3c16
0000
0000
0130
cafe
2016
0000
0000
012b
cafe
2416
0000
0000
0132
cafe
2816
0000
0000
0131
cafe
2c16
0000
0000
012f
cafe
3016
0000
0000
012c
cafe
3416
0000
0000
012c
cafe
3816
0000
0000
012c
cafe
3c16
0000
0000
0135
cafe
2016
0000
0000
0134
cafe
2416
0000
0000
0133
cafe
2816
0000
0000
0132
cafe
2c16
0000
0000
012b
cafe
3016
0000
0000
0124
cafe
3416
0000
0000
012d
cafe
3816
0000
0000
0123
cafe
3c16
0000
0000
0128
cafe
2016
0000
0000
012a
cafe
2416
0000
0000
0126
cafe
2816
0000
0000
011c
cafe
2c16
0000
0000
0125
cafe
3016
0000
0000
0125
cafe
3416
0000
0000
0123
cafe
3816
0000
0000
0124
cafe
3c16
0000
0000
0127
cafe
2016
0000
0000
0120
cafe
2416
0000
0000
0119
cafe
2816
0000
0000
0127
cafe
2c16
0000
0000
0128
cafe
3016
0000
0000
012b
cafe
3416
0000
0000
012d
cafe
3816
0000
0000
012a
cafe
3c16
0000
0000
0123
cafe
2016
0000
0000
012a
cafe
2416
0000
0000
0128
cafe
2816
0000
0000
0132
cafe
2c16
0000
0000
0128
cafe
3016
0000
0000
012f
cafe
3416
0000
0000
012f
cafe
3816
0000
0000
0129
cafe
3c16
0000
0000
012e
cafe
2016
0000
0000
0128
cafe
2416
0000
0000
012e
-
cafe
2816
0000
0000
0131
cafe
2c16
0000
0000
012b
cafe
3016
0000
0000
0133
cafe
3416
0000
0000
0131
cafe
3816
0000
0000
012b
cafe
3c16
0000
0000
0125
cafe
2016
0000
0000
012b
cafe
2416
0000
0000
012f
cafe
2816
0000
0000
0132
cafe
2c16
0000
0000
0133
cafe
3016
0000
0000
0124
cafe
3416
0000
0000
0127
cafe
3816
0000
0000
0124
cafe
3c16
0000
0000
0129
cafe
2016
0000
0000
012c
cafe
2416
0000
0000
012d
cafe
2816
0000
0000
0136
cafe
2c16
0000
0000
012b
cafe
3016
0000
0000
0130
cafe
3416
0000
0000
0132
cafe
3816
0000
0000
0125
cafe
3c16
0000
0000
0127
cafe
2016
0000
0000
0127
cafe
2416
0000
0000
012a
cafe
2816
0000
0000
0129
cafe
2c16
0000
0000
0125
cafe
3016
0000
0000
0125
cafe
3416
0000
0000
0128
cafe
3816
0000
0000
0128
cafe
3c16
0000
0000
012b
cafe
2016
0000
0000
0137
cafe
2416
0000
0000
0135
cafe
2816
0000
0000
012e
cafe
2c16
0000
0000
012a
cafe
3016
0000
0000
012a
cafe
3416
0000
0000
0133
cafe
3816
0000
0000
0128
cafe
3c16
0000
0000
0130
cafe
2016
0000
0000
0129
cafe
2416
0000
0000
0129
cafe
2816
0000
0000
012e
cafe
2c16
0000
0000
0139
cafe
3016
0000
0000
0134
cafe
3416
0000
0000
0137
cafe
3816
0000
0000
0137
cafe
3c16
0000
0000
0131
cafe
2016
0000
0000
0126
cafe
2416
0000
0000
012c
cafe
2816
0000
0000
012c
cafe
2c16
0000
0000
012d
cafe
3016
0000
0000
0132
cafe
-
3416
0000
0000
0129
cafe
3816
0000
0000
012a
cafe
3c16
0000
0000
012e
cafe
2016
0000
0000
0137
cafe
2416
0000
0000
0134
cafe
2816
0000
0000
013c
cafe
2c16
0000
0000
013a
cafe
3016
0000
0000
0134
cafe
3416
0000
0000
0128
cafe
3816
0000
0000
0127
cafe
3c16
0000
0000
0122
cafe
2016
0000
0000
0128
cafe
2416
0000
0000
012e
cafe
2816
0000
0000
012c
cafe
2c16
0000
0000
012b
cafe
3016
0000
0000
0130
cafe
3416
0000
0000
0130
cafe
3816
0000
0000
0132
cafe
3c16
0000
0000
013f
cafe
2016
0000
0000
013a
cafe
2416
0000
0000
0131
cafe
2816
0000
0000
0131
cafe
2c16
0000
0000
013f
cafe
3016
0000
0000
0138
cafe
3416
0000
0000
012b
cafe
3816
0000
0000
0129
cafe
3c16
0000
0000
0123
cafe
2016
0000
0000
0123
cafe
2416
0000
0000
0129
cafe
2816
0000
0000
0128
cafe
2c16
0000
0000
0136
cafe
3016
0000
0000
012c
cafe
3416
0000
0000
012b
cafe
3816
0000
0000
0127
cafe
3c16
0000
0000
012e
cafe
2016
0000
0000
012d
cafe
2416
0000
0000
012a
cafe
2816
0000
0000
011f
cafe
2c16
0000
0000
0127
cafe
3016
0000
0000
0129
cafe
3416
0000
0000
0126
cafe
3816
0000
0000
0122
cafe
3c16
0000
0000
0120
cafe
2016
0000
0000
011f
cafe
2416
0000
0000
0118
cafe
2816
0000
0000
0124
cafe
2c16
0000
0000
011a
cafe
3016
0000
0000
0121
cafe
3416
0000
0000
0120
cafe
3816
0000
0000
011e
cafe
3c16
0000
0000
011f
cafe
2016
-
0000
0000
011e
cafe
2416
0000
0000
0117
cafe
2816
0000
0000
0115
cafe
2c16
0000
0000
011e
cafe
3016
0000
0000
011e
cafe
3416
0000
0000
011d
cafe
3816
0000
0000
0126
cafe
3c16
0000
0000
0127
cafe
2016
0000
0000
012a
cafe
2416
0000
0000
0132
cafe
2816
0000
0000
012b
cafe
2c16
0000
0000
0121
cafe
3016
0000
0000
0123
cafe
3416
0000
0000
0124
cafe
3816
0000
0000
0119
cafe
3c16
0000
0000
011d
cafe
2016
0000
0000
0126
cafe
2416
0000
0000
0130
cafe
2816
0000
0000
0132
cafe
2c16
0000
0000
012c
cafe
3016
0000
0000
013c
cafe
3416
0000
0000
0139
cafe
3816
0000
0000
0137
cafe
3c16
0000
0000
012d
cafe
2016
0000
0000
012e
cafe
2416
0000
0000
0133
cafe
2816
0000
0000
0130
cafe
2c16
0000
0000
0133
cafe
3016
0000
0000
012b
cafe
3416
0000
0000
012a
cafe
3816
0000
0000
012d
cafe
3c16
0000
0000
0123
cafe
2016
0000
0000
012c
cafe
2416
0000
0000
012f
cafe
2816
0000
0000
012e
cafe
2c16
0000
0000
0124
cafe
3016
0000
0000
0128
cafe
3416
0000
0000
0120
cafe
3816
0000
0000
0125
cafe
3c16
0000
0000
0128
cafe
2016
0000
0000
0130
cafe
2416
0000
0000
0136
cafe
2816
0000
0000
0135
cafe
2c16
0000
0000
012d
cafe
3016
0000
0000
012c
cafe
3416
0000
0000
012d
cafe
3816
0000
0000
0132
cafe
3c16
0000
0000
0128
cafe
2016
0000
0000
0132
cafe
2416
0000
0000
0130
cafe
2816
0000
0000
0135
cafe
2c16
0000
-
0000
0137
cafe
3016
0000
0000
0135
cafe
3416
0000
0000
0135
cafe
3816
0000
0000
0133
cafe
3c16
0000
0000
012e
cafe
2016
0000
0000
012d
cafe
2416
0000
0000
0132
cafe
2816
0000
0000
0135
cafe
2c16
0000
0000
0131
cafe
3016
0000
0000
0127
cafe
3416
0000
0000
0129
cafe
3816
0000
0000
0128
cafe
3c16
0000
0000
0127
cafe
2016
0000
0000
0125
cafe
2416
0000
0000
0126
cafe
2816
0000
0000
012b
cafe
2c16
0000
0000
012b
cafe
3016
0000
0000
012f
cafe
3416
0000
0000
012f
cafe
3816
0000
0000
0122
cafe
3c16
0000
0000
0123
cafe
2016
0000
0000
012d
cafe
2416
0000
0000
0130
cafe
2816
0000
0000
012d
cafe
2c16
0000
0000
012a
cafe
3016
0000
0000
012b
cafe
3416
0000
0000
012e
cafe
3816
0000
0000
0126
cafe
3c16
0000
0000
0130
cafe
2016
0000
0000
0130
cafe
2416
0000
0000
012d
cafe
2816
0000
0000
0128
cafe
2c16
0000
0000
0127
cafe
3016
0000
0000
0128
cafe
3416
0000
0000
0126
cafe
3816
0000
0000
0128
cafe
3c16
0000
0000
012a
cafe
2016
0000
0000
0130
cafe
2416
0000
0000
0128
cafe
2816
0000
0000
012b
cafe
2c16
0000
0000
0123
cafe
3016
0000
0000
0123
cafe
3416
0000
0000
012b
cafe
3816
0000
0000
012e
cafe
3c16
0000
0000
0131
cafe
2016
0000
0000
0134
cafe
2416
0000
0000
012e
cafe
2816
0000
0000
0136
cafe
2c16
0000
0000
0132
cafe
3016
0000
0000
0138
cafe
3416
0000
0000
0132
cafe
3816
0000
0000
-
0138
cafe
3c16
0000
0000
0133
cafe
2016
0000
0000
0130
cafe
2416
0000
0000
0130
cafe
2816
0000
0000
012a
cafe
2c16
0000
0000
012d
cafe
3016
0000
0000
0130
cafe
3416
0000
0000
0131
cafe
3816
0000
0000
0130
cafe
3c16
0000
0000
0131
cafe
2016
0000
0000
0124
cafe
2416
0000
0000
0129
cafe
2816
0000
0000
0137
cafe
2c16
0000
0000
012b
cafe
3016
0000
0000
012a
cafe
3416
0000
0000
0123
cafe
3816
0000
0000
0126
cafe
3c16
0000
0000
012c
cafe
2016
0000
0000
0125
cafe
2416
0000
0000
0122
cafe
2816
0000
0000
0124
cafe
2c16
0000
0000
0126
cafe
3016
0000
0000
0128
cafe
3416
0000
0000
0132
cafe
3816
0000
0000
0131
cafe
3c16
0000
0000
012b
cafe
2016
0000
0000
0127
cafe
2416
0000
0000
012c
cafe
2816
0000
0000
012a
cafe
2c16
0000
0000
0124
cafe
3016
0000
0000
0120
cafe
3416
0000
0000
0122
cafe
3816
0000
0000
0129
cafe
3c16
0000
0000
0124
cafe
2016
0000
0000
0126
cafe
2416
0000
0000
0123
cafe
2816
0000
0000
0121
cafe
2c16
0000
0000
011f
cafe
3016
0000
0000
011f
cafe
3416
0000
0000
0126
cafe
3816
0000
0000
0127
cafe
3c16
0000
0000
012e
cafe
2016
0000
0000
012b
cafe
2416
0000
0000
0125
cafe
2816
0000
0000
0121
cafe
2c16
0000
0000
012e
cafe
3016
0000
0000
0136
cafe
3416
0000
0000
0130
cafe
3816
0000
0000
013b
cafe
3c16
0000
0000
012e
cafe
2016
0000
0000
0128
cafe
2416
0000
0000
0130
-
cafe
2816
0000
0000
0131
cafe
2c16
0000
0000
0138
cafe
3016
0000
0000
013a
cafe
3416
0000
0000
0133
cafe
3816
0000
0000
0135
cafe
3c16
0000
0000
0136
cafe
2016
0000
0000
0129
cafe
2416
0000
0000
0123
cafe
2816
0000
0000
011f
cafe
2c16
0000
0000
012b
cafe
3016
0000
0000
0130
cafe
3416
0000
0000
0131
cafe
3816
0000
0000
0137
cafe
3c16
0000
0000
0130
cafe
2016
0000
0000
0127
cafe
2416
0000
0000
012e
cafe
2816
0000
0000
0133
cafe
2c16
0000
0000
0136
cafe
3016
0000
0000
0133
cafe
3416
0000
0000
0131
cafe
3816
0000
0000
0130
cafe
3c16
0000
0000
0129
cafe
2016
0000
0000
012a
cafe
2416
0000
0000
0127
cafe
2816
0000
0000
0129
cafe
2c16
0000
0000
0129
cafe
3016
0000
0000
0139
cafe
3416
0000
0000
013c
cafe
3816
0000
0000
0136
cafe
3c16
0000
0000
012b
cafe
2016
0000
0000
012e
cafe
2416
0000
0000
0128
cafe
2816
0000
0000
0129
cafe
2c16
0000
0000
0129
cafe
3016
0000
0000
0123
cafe
3416
0000
0000
011d
cafe
3816
0000
0000
0125
cafe
3c16
0000
0000
0126
cafe
2016
0000
0000
012d
cafe
2416
0000
0000
0126
cafe
2816
0000
0000
0126
cafe
2c16
0000
0000
012b
cafe
3016
0000
0000
012b
cafe
3416
0000
0000
0127
cafe
3816
0000
0000
011e
cafe
3c16
0000
0000
0118
cafe
2016
0000
0000
0120
cafe
2416
0000
0000
0127
cafe
2816
0000
0000
0128
cafe
2c16
0000
0000
012f
cafe
3016
0000
0000
012c
cafe
-
3416
0000
0000
0131
cafe
3816
0000
0000
012f
cafe
3c16
0000
0000
012c
cafe
2016
0000
0000
012c
cafe
2416
0000
0000
0131
cafe
2816
0000
0000
012d
cafe
2c16
0000
0000
012b
cafe
3016
0000
0000
012a
cafe
3416
0000
0000
0135
cafe
3816
0000
0000
012b
cafe
3c16
0000
0000
012a
cafe
2016
0000
0000
012a
cafe
2416
0000
0000
0133
cafe
2816
0000
0000
012e
cafe
2c16
0000
0000
0127
cafe
3016
0000
0000
0127
cafe
3416
0000
0000
0126
cafe
3816
0000
0000
0126
cafe
3c16
0000
0000
0127
cafe
2016
0000
0000
0124
cafe
2416
0000
0000
0120
cafe
2816
0000
0000
0122
cafe
2c16
0000
0000
0118
cafe
3016
0000
0000
011b
cafe
3416
0000
0000
011a
cafe
3816
0000
0000
0121
cafe
3c16
0000
0000
012d
cafe
2016
0000
0000
012e
cafe
2416
0000
0000
0138
cafe
2816
0000
0000
0136
cafe
2c16
0000
0000
0137
cafe
3016
0000
0000
0133
cafe
3416
0000
0000
0135
cafe
3816
0000
0000
0137
cafe
3c16
0000
0000
0134
cafe
2016
0000
0000
013c
cafe
2416
0000
0000
013c
cafe
2816
0000
0000
0137
cafe
2c16
0000
0000
0138
cafe
3016
0000
0000
0131
cafe
3416
0000
0000
0131
cafe
3816
0000
0000
012d
cafe
3c16
0000
0000
0129
cafe
2016
0000
0000
0126
cafe
2416
0000
0000
012c
cafe
2816
0000
0000
0134
cafe
2c16
0000
0000
012b
cafe
3016
0000
0000
012a
cafe
3416
0000
0000
0134
cafe
3816
0000
0000
0135
cafe
3c16
0000
0000
012f
cafe
2016
-
0000
0000
012a
cafe
2416
0000
0000
012d
cafe
2816
0000
0000
0130
cafe
2c16
0000
0000
0126
cafe
3016
0000
0000
011e
cafe
3416
0000
0000
011e
cafe
3816
0000
0000
0127
cafe
3c16
0000
0000
011b
cafe
2016
0000
0000
011c
cafe
2416
0000
0000
0116
cafe
2816
0000
0000
0119
cafe
2c16
0000
0000
011a
cafe
3016
0000
0000
0125
cafe
3416
0000
0000
0125
cafe
3816
0000
0000
0120
cafe
3c16
0000
0000
0127
cafe
2016
0000
0000
0125
cafe
2416
0000
0000
012d
cafe
2816
0000
0000
012e
cafe
2c16
0000
0000
012a
cafe
3016
0000
0000
012a
cafe
3416
0000
0000
012b
cafe
3816
0000
0000
0127
cafe
3c16
0000
0000
0128
cafe
2016
0000
0000
012a
cafe
2416
0000
0000
012d
cafe
2816
0000
0000
0137
cafe
2c16
0000
0000
0137
cafe
3016
0000
0000
0134
cafe
3416
0000
0000
012b
cafe
3816
0000
0000
0126
cafe
3c16
0000
0000
0128
cafe
2016
0000
0000
012a
cafe
2416
0000
0000
012f
cafe
2816
0000
0000
0133
cafe
2c16
0000
0000
0135
cafe
3016
0000
0000
0132
cafe
3416
0000
0000
0138
cafe
3816
0000
0000
0139
cafe
3c16
0000
0000
012c
cafe
2016
0000
0000
0126
cafe
2416
0000
0000
0129
cafe
2816
0000
0000
0128
cafe
2c16
0000
0000
0128
cafe
3016
0000
0000
0128
cafe
3416
0000
0000
0128
cafe
3816
0000
0000
0127
cafe
3c16
0000
0000
012a
cafe
2016
0000
0000
012f
cafe
2416
0000
0000
0130
cafe
2816
0000
0000
012f
cafe
2c16
0000
-
0000
012a
cafe
3016
0000
0000
012e
cafe
3416
0000
0000
012a
cafe
3816
0000
0000
0125
cafe
3c16
0000
0000
0124
cafe
2016
0000
0000
0121
cafe
2416
0000
0000
0122
cafe
2816
0000
0000
0123
cafe
2c16
0000
0000
0128
cafe
3016
0000
0000
012a
cafe
3416
0000
0000
0127
cafe
3816
0000
0000
0122
cafe
3c16
0000
0000
0122
cafe
2016
0000
0000
0122
cafe
2416
0000
0000
011c
cafe
2816
0000
0000
011e
cafe
2c16
0000
0000
011f
cafe
3016
0000
0000
012b
cafe
3416
0000
0000
012c
cafe
3816
0000
0000
0125
cafe
3c16
0000
0000
012a
cafe
2016
0000
0000
0127
cafe
2416
0000
0000
011c
cafe
2816
0000
0000
011e
cafe
2c16
0000
0000
0128
cafe
3016
0000
0000
012a
cafe
3416
0000
0000
012c
cafe
3816
0000
0000
011e
cafe
3c16
0000
0000
0124
cafe
2016
0000
0000
012f
cafe
2416
0000
0000
0138
cafe
2816
0000
0000
0135
cafe
2c16
0000
0000
012f
cafe
3016
0000
0000
0136
cafe
3416
0000
0000
0132
cafe
3816
0000
0000
013f
cafe
3c16
0000
0000
013e
cafe
2016
0000
0000
0135
cafe
2416
0000
0000
012b
cafe
2816
0000
0000
0131
cafe
2c16
0000
0000
0136
cafe
3016
0000
0000
0134
cafe
3416
0000
0000
0130
cafe
3816
0000
0000
0136
cafe
3c16
0000
0000
012b
cafe
2016
0000
0000
0126
cafe
2416
0000
0000
012c
cafe
2816
0000
0000
012b
cafe
2c16
0000
0000
012b
cafe
3016
0000
0000
0131
cafe
3416
0000
0000
0132
cafe
3816
0000
0000
-
0130
cafe
3c16
0000
0000
0133
cafe
2016
0000
0000
0136
cafe
2416
0000
0000
0139
cafe
2816
0000
0000
0138
cafe
2c16
0000
0000
0131
cafe
3016
0000
0000
012d
cafe
3416
0000
0000
012a
cafe
3816
0000
0000
012b
cafe
3c16
0000
0000
0132
cafe
2016
0000
0000
0134
cafe
2416
0000
0000
012e
cafe
2816
0000
0000
0125
cafe
2c16
0000
0000
0126
cafe
3016
0000
0000
012d
cafe
3416
0000
0000
0128
cafe
3816
0000
0000
012f
cafe
3c16
0000
0000
0129
cafe
2016
0000
0000
0124
cafe
2416
0000
0000
0129
cafe
2816
0000
0000
011b
cafe
2c16
0000
0000
011d
cafe
3016
0000
0000
012a
cafe
3416
0000
0000
0122
cafe
3816
0000
0000
0121
cafe
3c16
0000
0000
0127
cafe
2016
0000
0000
0121
cafe
2416
0000
0000
0124
cafe
2816
0000
0000
0122
cafe
2c16
0000
0000
0117
cafe
3016
0000
0000
0124
cafe
3416
0000
0000
012b
cafe
3816
0000
0000
012d
cafe
3c16
0000
0000
012b
cafe
2016
0000
0000
0127
cafe
2416
0000
0000
0124
cafe
2816
0000
0000
012f
cafe
2c16
0000
0000
0128
cafe
3016
0000
0000
0130
cafe
3416
0000
0000
012d
cafe
3816
0000
0000
012c
cafe
3c16
0000
0000
0127
cafe
2016
0000
0000
012b
cafe
2416
0000
0000
0130
cafe
2816
0000
0000
012a
cafe
2c16
0000
0000
0130
cafe
3016
0000
0000
012a
cafe
3416
0000
0000
0127
cafe
3816
0000
0000
0126
cafe
3c16
0000
0000
0123
cafe
2016
0000
0000
0127
cafe
2416
0000
0000
012e
-
cafe
2816
0000
0000
0126
cafe
2c16
0000
0000
0123
cafe
3016
0000
0000
011d
cafe
3416
0000
0000
011f
cafe
3816
0000
0000
0128
cafe
3c16
0000
0000
0125
cafe
2016
0000
0000
0125
cafe
2416
0000
0000
0127
cafe
2816
0000
0000
012b
cafe
2c16
0000
0000
012f
cafe
3016
0000
0000
012d
cafe
3416
0000
0000
0132
cafe
3816
0000
0000
0129
cafe
3c16
0000
0000
0123
cafe
2016
0000
0000
0127
cafe
2416
0000
0000
0126
cafe
2816
0000
0000
011c
cafe
2c16
0000
0000
012c
cafe
3016
0000
0000
0131
cafe
3416
0000
0000
012a
cafe
3816
0000
0000
0129
cafe
3c16
0000
0000
012f
cafe
2016
0000
0000
0124
cafe
2416
0000
0000
012b
cafe
2816
0000
0000
012e
cafe
2c16
0000
0000
012c
cafe
3016
0000
0000
0126
cafe
3416
0000
0000
0123
cafe
3816
0000
0000
0125
cafe
3c16
0000
0000
0129
cafe
2016
0000
0000
0133
cafe
2416
0000
0000
0133
cafe
2816
0000
0000
012b
cafe
2c16
0000
0000
012c
cafe
3016
0000
0000
012f
cafe
3416
0000
0000
012e
cafe
3816
0000
0000
012d
cafe
3c16
0000
0000
0130
cafe
2016
0000
0000
0130
cafe
2416
0000
0000
0136
cafe
2816
0000
0000
0135
cafe
2c16
0000
0000
012a
cafe
3016
0000
0000
012a
cafe
3416
0000
0000
012f
cafe
3816
0000
0000
0130
cafe
3c16
0000
0000
012f
cafe
2016
0000
0000
0131
cafe
2416
0000
0000
012f
cafe
2816
0000
0000
012f
cafe
2c16
0000
0000
013a
cafe
3016
0000
0000
0136
cafe
-
3416
0000
0000
012c
cafe
3816
0000
0000
0131
cafe
3c16
0000
0000
012f
cafe
2016
0000
0000
0130
cafe
2416
0000
0000
0125
cafe
2816
0000
0000
0126
cafe
2c16
0000
0000
012d
cafe
3016
0000
0000
0128
cafe
3416
0000
0000
0128
cafe
3816
0000
0000
0129
cafe
3c16
0000
0000
0128
cafe
2016
0000
0000
0125
cafe
2416
0000
0000
0128
cafe
2816
0000
0000
0124
cafe
2c16
0000
0000
0129
cafe
3016
0000
0000
012a
cafe
3416
0000
0000
0129
cafe
3816
0000
0000
0129
cafe
3c16
0000
0000
0120
cafe
2016
0000
0000
011e
cafe
2416
0000
0000
0122
cafe
2816
0000
0000
0124
cafe
2c16
0000
0000
0124
cafe
3016
0000
0000
0128
cafe
3416
0000
0000
0127
cafe
3816
0000
0000
012a
cafe
3c16
0000
0000
012b
cafe
2016
0000
0000
012f
cafe
2416
0000
0000
0124
cafe
2816
0000
0000
012c
cafe
2c16
0000
0000
012b
cafe
3016
0000
0000
0132
cafe
3416
0000
0000
012d
cafe
3816
0000
0000
0132
cafe
3c16
0000
0000
0138
cafe
2016
0000
0000
0134
cafe
2416
0000
0000
0133
cafe
2816
0000
0000
0130
cafe
2c16
0000
0000
0130
cafe
3016
0000
0000
0134
cafe
3416
0000
0000
012b
cafe
3816
0000
0000
0124
cafe
3c16
0000
0000
012c
cafe
2016
0000
0000
0127
cafe
2416
0000
0000
012a
cafe
2816
0000
0000
012b
cafe
2c16
0000
0000
0122
cafe
3016
0000
0000
0126
cafe
3416
0000
0000
0127
cafe
3816
0000
0000
0128
cafe
3c16
0000
0000
0129
cafe
2016
-
0000
0000
012b
cafe
2416
0000
0000
0127
cafe
2816
0000
0000
012f
cafe
2c16
0000
0000
0137
cafe
3016
0000
0000
0130
cafe
3416
0000
0000
0130
cafe
3816
0000
0000
012d
cafe
3c16
0000
0000
012f
cafe
2016
0000
0000
012f
cafe
2416
0000
0000
012f
cafe
2816
0000
0000
012e
cafe
2c16
0000
0000
0132
cafe
3016
0000
0000
0134
cafe
3416
0000
0000
0125
cafe
3816
0000
0000
0120
cafe
3c16
0000
0000
0129
cafe
2016
0000
0000
0128
cafe
2416
0000
0000
012c
cafe
2816
0000
0000
012a
cafe
2c16
0000
0000
012d
cafe
3016
0000
0000
012b
cafe
3416
0000
0000
0131
cafe
3816
0000
0000
012f
cafe
3c16
0000
0000
012b
cafe
2016
0000
0000
012d
cafe
2416
0000
0000
0132
cafe
2816
0000
0000
0123
cafe
2c16
0000
0000
012f
cafe
3016
0000
0000
0128
cafe
3416
0000
0000
0128
cafe
3816
0000
0000
0130
cafe
3c16
0000
0000
0128
cafe
2016
0000
0000
0122
cafe
2416
0000
0000
0118
cafe
2816
0000
0000
011f
cafe
2c16
0000
0000
0129
cafe
3016
0000
0000
011f
cafe
3416
0000
0000
0122
cafe
3816
0000
0000
0124
cafe
3c16
0000
0000
0129
cafe
2016
0000
0000
012b
cafe
2416
0000
0000
0127
cafe
2816
0000
0000
0123
cafe
2c16
0000
0000
0120
cafe
3016
0000
0000
011f
cafe
3416
0000
0000
011d
cafe
3816
0000
0000
0122
cafe
3c16
0000
0000
0125
cafe
2016
0000
0000
012d
cafe
2416
0000
0000
012d
cafe
2816
0000
0000
0135
cafe
2c16
0000
-
0000
0130
cafe
3016
0000
0000
0130
cafe
3416
0000
0000
0135
cafe
3816
0000
0000
0131
cafe
3c16
0000
0000
0134
cafe
2016
0000
0000
012b
cafe
2416
0000
0000
0128
cafe
2816
0000
0000
0122
cafe
2c16
0000
0000
0129
cafe
3016
0000
0000
0129
cafe
3416
0000
0000
0129
cafe
3816
0000
0000
0127
cafe
3c16
0000
0000
0136
cafe
2016
0000
0000
012b
cafe
2416
0000
0000
0129
cafe
2816
0000
0000
012f
cafe
2c16
0000
0000
0135
cafe
3016
0000
0000
012c
cafe
3416
0000
0000
012f
cafe
3816
0000
0000
0134
cafe
3c16
0000
0000
0136
cafe
2016
0000
0000
013b
cafe
2416
0000
0000
013f
cafe
2816
0000
0000
0135
cafe
2c16
0000
0000
0138
cafe
3016
0000
0000
0137
cafe
3416
0000
0000
013f
cafe
3816
0000
0000
013c
cafe
3c16
0000
0000
0138
cafe
2016
0000
0000
0133
cafe
2416
0000
0000
012f
cafe
2816
0000
0000
0133
cafe
2c16
0000
0000
012b
cafe
3016
0000
0000
012b
cafe
3416
0000
0000
012e
cafe
3816
0000
0000
012e
cafe
3c16
0000
0000
012c
cafe
2016
0000
0000
012f
cafe
2416
0000
0000
0127
cafe
2816
0000
0000
012d
cafe
2c16
0000
0000
012b
cafe
3016
0000
0000
0128
cafe
3416
0000
0000
0128
cafe
3816
0000
0000
0125
cafe
3c16
0000
0000
012a
cafe
2016
0000
0000
012e
cafe
2416
0000
0000
012f
cafe
2816
0000
0000
0121
cafe
2c16
0000
0000
0121
cafe
3016
0000
0000
0124
cafe
3416
0000
0000
0117
cafe
3816
0000
0000
-
0122
cafe
3c16
0000
0000
0132
cafe
2016
0000
0000
012c
cafe
2416
0000
0000
0129
cafe
2816
0000
0000
012a
cafe
2c16
0000
0000
0127
cafe
3016
0000
0000
0124
cafe
3416
0000
0000
0127
cafe
3816
0000
0000
0129
cafe
3c16
0000
0000
012d
cafe
2016
0000
0000
012a
cafe
2416
0000
0000
0125
cafe
2816
0000
0000
0128
cafe
2c16
0000
0000
0126
cafe
3016
0000
0000
0127
cafe
3416
0000
0000
0127
cafe
3816
0000
0000
0132
cafe
3c16
0000
0000
0130
cafe
2016
0000
0000
0129
cafe
2416
0000
0000
012b
cafe
2816
0000
0000
0129
cafe
2c16
0000
0000
0124
cafe
3016
0000
0000
0123
cafe
3416
0000
0000
0123
cafe
3816
0000
0000
0120
cafe
3c16
0000
0000
011d
cafe
2016
0000
0000
0122
cafe
2416
0000
0000
0126
cafe
2816
0000
0000
012a
cafe
2c16
0000
0000
012d
cafe
3016
0000
0000
0130
cafe
3416
0000
0000
0135
cafe
3816
0000
0000
0139
cafe
3c16
0000
0000
012b
cafe
2016
0000
0000
0134
cafe
2416
0000
0000
012e
cafe
2816
0000
0000
012a
cafe
2c16
0000
0000
0127
cafe
3016
0000
0000
0120
cafe
3416
0000
0000
012c
cafe
3816
0000
0000
012f
cafe
3c16
0000
0000
012e
cafe
2016
0000
0000
012e
cafe
2416
0000
0000
012a
cafe
2816
0000
0000
0123
cafe
2c16
0000
0000
012d
cafe
3016
0000
0000
012e
cafe
3416
0000
0000
012e
cafe
3816
0000
0000
0126
cafe
3c16
0000
0000
0128
cafe
2016
0000
0000
0133
cafe
2416
0000
0000
0131
-
cafe
2816
0000
0000
0134
cafe
2c16
0000
0000
011f
cafe
3016
0000
0000
011b
cafe
3416
0000
0000
0125
cafe
3816
0000
0000
0123
cafe
3c16
0000
0000
0127
cafe
2016
0000
0000
012d
cafe
2416
0000
0000
0128
cafe
2816
0000
0000
0128
cafe
2c16
0000
0000
011e
cafe
3016
0000
0000
0120
cafe
3416
0000
0000
011f
cafe
3816
0000
0000
0122
cafe
3c16
0000
0000
0128
cafe
2016
0000
0000
0129
cafe
2416
0000
0000
012d
cafe
2816
0000
0000
012d
cafe
2c16
0000
0000
0131
cafe
3016
0000
0000
0131
cafe
3416
0000
0000
012b
cafe
3816
0000
0000
0131
cafe
3c16
0000
0000
0132
cafe
2016
0000
0000
013b
cafe
2416
0000
0000
013c
cafe
2816
0000
0000
0135
cafe
2c16
0000
0000
012c
cafe
3016
0000
0000
011e
cafe
3416
0000
0000
0123
cafe
3816
0000
0000
0128
cafe
3c16
0000
0000
0126
cafe
2016
0000
0000
012d
cafe
2416
0000
0000
0124
cafe
2816
0000
0000
012b
cafe
2c16
0000
0000
012b
cafe
3016
0000
0000
0127
cafe
3416
0000
0000
012a
cafe
3816
0000
0000
0129
cafe
3c16
0000
0000
0129
cafe
2016
0000
0000
012e
cafe
2416
0000
0000
0126
cafe
2816
0000
0000
0123
cafe
2c16
0000
0000
0126
cafe
3016
0000
0000
012a
cafe
3416
0000
0000
0129
cafe
3816
0000
0000
0128
cafe
3c16
0000
0000
0128
cafe
2016
0000
0000
012c
cafe
2416
0000
0000
0135
cafe
2816
0000
0000
0130
cafe
2c16
0000
0000
012b
cafe
3016
0000
0000
012c
cafe
-
3416
0000
0000
0127
cafe
3816
0000
0000
0128
cafe
3c16
0000
0000
0121
cafe
2016
0000
0000
0125
cafe
2416
0000
0000
0125
cafe
2816
0000
0000
0120
cafe
2c16
0000
0000
0120
cafe
3016
0000
0000
012d
cafe
3416
0000
0000
0129
cafe
3816
0000
0000
0126
cafe
3c16
0000
0000
0122
cafe
2016
0000
0000
012b
cafe
2416
0000
0000
012a
cafe
2816
0000
0000
0131
cafe
2c16
0000
0000
012e
cafe
3016
0000
0000
012b
cafe
3416
0000
0000
012c
cafe
3816
0000
0000
0127
cafe
3c16
0000
0000
012e
cafe
2016
0000
0000
012a
cafe
2416
0000
0000
0127
cafe
2816
0000
0000
0131
cafe
2c16
0000
0000
0130
cafe
3016
0000
0000
012c
cafe
3416
0000
0000
0130
cafe
3816
0000
0000
012c
cafe
3c16
0000
0000
0132
cafe
2016
0000
0000
012a
cafe
2416
0000
0000
0121
cafe
2816
0000
0000
011b
cafe
2c16
0000
0000
011f
cafe
3016
0000
0000
0127
cafe
3416
0000
0000
012b
cafe
3816
0000
0000
0120
cafe
3c16
0000
0000
0129
cafe
2016
0000
0000
0129
cafe
2416
0000
0000
0122
cafe
2816
0000
0000
012c
cafe
2c16
0000
0000
0125
cafe
3016
0000
0000
0129
cafe
3416
0000
0000
0128
cafe
3816
0000
0000
012e
cafe
3c16
0000
0000
0135
cafe
2016
0000
0000
0140
cafe
2416
0000
0000
0144
cafe
2816
0000
0000
0148
cafe
2c16
0000
0000
0141
cafe
3016
0000
0000
0138
cafe
3416
0000
0000
0132
cafe
3816
0000
0000
012a
cafe
3c16
0000
0000
012b
cafe
2016
-
0000
0000
0130
cafe
2416
0000
0000
0130
cafe
2816
0000
0000
012f
cafe
2c16
0000
0000
0131
cafe
3016
0000
0000
012d
cafe
3416
0000
0000
0129
cafe
3816
0000
0000
0129
cafe
3c16
0000
0000
0130
cafe
2016
0000
0000
012f
cafe
2416
0000
0000
012c
cafe
2816
0000
0000
012b
cafe
2c16
0000
0000
0126
cafe
3016
0000
0000
0123
cafe
3416
0000
0000
011f
cafe
3816
0000
0000
0125
cafe
3c16
0000
0000
012e
cafe
2016
0000
0000
012f
cafe
2416
0000
0000
012a
cafe
2816
0000
0000
012b
cafe
2c16
0000
0000
012a
cafe
3016
0000
0000
0132
cafe
3416
0000
0000
0126
cafe
3816
0000
0000
0128
cafe
3c16
0000
0000
012a
cafe
2016
0000
0000
0128
cafe
2416
0000
0000
0127
cafe
2816
0000
0000
012f
cafe
2c16
0000
0000
012b
cafe
3016
0000
0000
012e
cafe
3416
0000
0000
012a
cafe
3816
0000
0000
012f
cafe
3c16
0000
0000
012b
cafe
2016
0000
0000
0131
cafe
2416
0000
0000
0134
cafe
2816
0000
0000
0131
cafe
2c16
0000
0000
012a
cafe
3016
0000
0000
0131
cafe
3416
0000
0000
0133
cafe
3816
0000
0000
0136
cafe
3c16
0000
0000
013b
cafe
2016
0000
0000
0132
cafe
2416
0000
0000
0127
cafe
2816
0000
0000
0129
cafe
2c16
0000
0000
012c
cafe
3016
0000
0000
0128
cafe
3416
0000
0000
012d
cafe
3816
0000
0000
012f
cafe
3c16
0000
0000
0132
cafe
2016
0000
0000
0128
cafe
2416
0000
0000
0130
cafe
2816
0000
0000
0130
cafe
2c16
0000
-
0000
012b
cafe
3016
0000
0000
012e
cafe
3416
0000
0000
0133
cafe
3816
0000
0000
0121
cafe
3c16
0000
0000
0122
cafe
2016
0000
0000
011a
cafe
2416
0000
0000
011c
cafe
2816
0000
0000
0123
cafe
2c16
0000
0000
011f
cafe
3016
0000
0000
0129
cafe
3416
0000
0000
0122
cafe
3816
0000
0000
0120
cafe
3c16
0000
0000
012b
cafe
2016
0000
0000
0131
cafe
2416
0000
0000
0128
cafe
2816
0000
0000
012a
cafe
2c16
0000
0000
012d
cafe
3016
0000
0000
012f
cafe
3416
0000
0000
0125
cafe
3816
0000
0000
011f
cafe
3c16
0000
0000
012d
cafe
2016
0000
0000
0130
cafe
2416
0000
0000
012c
cafe
2816
0000
0000
0129
cafe
2c16
0000
0000
0130
cafe
3016
0000
0000
012b
cafe
3416
0000
0000
0132
cafe
3816
0000
0000
012d
cafe
3c16
0000
0000
012e
cafe
2016
0000
0000
012e
cafe
2416
0000
0000
0138
cafe
2816
0000
0000
0133
cafe
2c16
0000
0000
012a
cafe
3016
0000
0000
0125
cafe
3416
0000
0000
012d
cafe
3816
0000
0000
0131
cafe
3c16
0000
0000
012f
cafe
2016
0000
0000
0132
cafe
2416
0000
0000
0134
cafe
2816
0000
0000
0130
cafe
2c16
0000
0000
0130
cafe
3016
0000
0000
0135
cafe
3416
0000
0000
012b
cafe
3816
0000
0000
012b
cafe
3c16
0000
0000
012b
cafe
2016
0000
0000
012e
cafe
2416
0000
0000
0139
cafe
2816
0000
0000
013b
cafe
2c16
0000
0000
0132
cafe
3016
0000
0000
0130
cafe
3416
0000
0000
0139
cafe
3816
0000
0000
-
0134
cafe
3c16
0000
0000
0131
cafe
2016
0000
0000
0131
cafe
2416
0000
0000
012d
cafe
2816
0000
0000
012e
cafe
2c16
0000
0000
012e
cafe
3016
0000
0000
0127
cafe
3416
0000
0000
011e
cafe
3816
0000
0000
0124
cafe
3c16
0000
0000
0126
cafe
2016
0000
0000
012e
cafe
2416
0000
0000
012f
cafe
2816
0000
0000
012c
cafe
2c16
0000
0000
012a
cafe
3016
0000
0000
0128
cafe
3416
0000
0000
012d
cafe
3816
0000
0000
0132
cafe
3c16
0000
0000
012d
cafe
2016
0000
0000
0126
cafe
2416
0000
0000
012f
cafe
2816
0000
0000
012a
cafe
2c16
0000
0000
011b
cafe
3016
0000
0000
011c
cafe
3416
0000
0000
0129
cafe
3816
0000
0000
0128
cafe
3c16
0000
0000
0122
cafe
2016
0000
0000
0123
cafe
2416
0000
0000
012a
cafe
2816
0000
0000
011f
cafe
2c16
0000
0000
012d
cafe
3016
0000
0000
0126
cafe
3416
0000
0000
0123
cafe
3816
0000
0000
0119
cafe
3c16
0000
0000
0120
cafe
2016
0000
0000
0121
cafe
2416
0000
0000
0123
cafe
2816
0000
0000
011b
cafe
2c16
0000
0000
011c
cafe
3016
0000
0000
0126
cafe
3416
0000
0000
0127
cafe
3816
0000
0000
0124
cafe
3c16
0000
0000
011f
cafe
2016
0000
0000
0121
cafe
2416
0000
0000
012f
cafe
2816
0000
0000
0137
cafe
2c16
0000
0000
0132
cafe
3016
0000
0000
012b
cafe
3416
0000
0000
0129
cafe
3816
0000
0000
012b
cafe
3c16
0000
0000
012e
cafe
2016
0000
0000
0127
cafe
2416
0000
0000
0129
-
