3c16
0000
0000
0119
cafe
200f
0000
0000
00f1
cafe
241f
0000
0000
00e5
cafe
2807
0000
0000
00be
cafe
2c17
0000
0000
00e9
cafe
3008
0000
0000
0171
cafe
3418
0000
0000
00fd
cafe
3800
0000
0000
0148
cafe
3c10
0000
0000
0140
cafe
2009
0000
0000
0105
cafe
2419
0000
0000
00ff
cafe
2801
0000
0000
00e1
cafe
2c11
0000
0000
00b6
cafe
300a
0000
0000
0129
cafe
341a
0000
0000
0120
cafe
3802
0000
0000
00ca
cafe
3c12
0000
0000
01a7
cafe
200b
0000
0000
00e5
cafe
241b
0000
0000
0101
cafe
2803
0000
0000
011d
cafe
2c13
0000
0000
00fd
cafe
300c
0000
0000
006e
cafe
341c
0000
0000
010f
cafe
3804
0000
0000
01cb
cafe
3c14
0000
0000
00ac
cafe
200d
0000
0000
0145
cafe
241d
0000
0000
01d9
cafe
2805
0000
0000
0127
cafe
2c15
0000
0000
0157
cafe
300e
0000
0000
0157
cafe
341e
0000
0000
0155
cafe
3806
0000
0000
00f7
cafe
3c16
0000
0000
011e
cafe
200f
0000
0000
00e3
cafe
241f
0000
0000
00eb
cafe
2807
0000
0000
00ba
cafe
2c17
0000
0000
00de
cafe
3008
0000
0000
0172
cafe
3418
0000
0000
00f3
cafe
3800
0000
0000
0141
cafe
3c10
0000
0000
0140
cafe
2009
0000
0000
0111
cafe
2419
0000
0000
00fc
cafe
2801
0000
0000
00d8
cafe
2c11
0000
0000
00b5
cafe
300a
0000
0000
0123
cafe
341a
0000
0000
011e
cafe
3802
0000
0000
00cb
cafe
3c12
0000
0000
019d
cafe
200b
0000
0000
00d8
cafe
241b
0000
0000
0100
cafe
2803
-
0000
0000
011e
cafe
2c13
0000
0000
00ff
cafe
300c
0000
0000
0079
cafe
341c
0000
0000
010f
cafe
3804
0000
0000
01d4
cafe
3c14
0000
0000
00b1
cafe
200d
0000
0000
0142
cafe
241d
0000
0000
01e0
cafe
2805
0000
0000
011e
cafe
2c15
0000
0000
0151
cafe
300e
0000
0000
015c
cafe
341e
0000
0000
014f
cafe
3806
0000
0000
00f2
cafe
3c16
0000
0000
0125
cafe
200f
0000
0000
00e7
cafe
241f
0000
0000
00eb
cafe
2807
0000
0000
00bf
cafe
2c17
0000
0000
00dc
cafe
3008
0000
0000
016d
cafe
3418
0000
0000
00f8
cafe
3800
0000
0000
013f
cafe
3c10
0000
0000
0140
cafe
2009
0000
0000
0115
cafe
2419
0000
0000
0102
cafe
2801
0000
0000
00e1
cafe
2c11
0000
0000
00c0
cafe
300a
0000
0000
012d
cafe
341a
0000
0000
0126
cafe
3802
0000
0000
00c5
cafe
3c12
0000
0000
01a6
cafe
200b
0000
0000
00dd
cafe
241b
0000
0000
00fa
cafe
2803
0000
0000
011e
cafe
2c13
0000
0000
00f9
cafe
300c
0000
0000
0076
cafe
341c
0000
0000
010b
cafe
3804
0000
0000
01d1
cafe
3c14
0000
0000
00ae
cafe
200d
0000
0000
0141
cafe
241d
0000
0000
01e1
cafe
2805
0000
0000
0125
cafe
2c15
0000
0000
0157
cafe
300e
0000
0000
0165
cafe
341e
0000
0000
014e
cafe
3806
0000
0000
00f3
cafe
3c16
0000
0000
0128
cafe
200f
0000
0000
00e4
cafe
241f
0000
0000
00f0
cafe
2807
0000
0000
00bb
cafe
2c17
0000
0000
00d0
cafe
3008
0000
0000
016e
cafe
3418
0000
-
0000
00f7
cafe
3800
0000
0000
0145
cafe
3c10
0000
0000
0149
cafe
2009
0000
0000
0116
cafe
2419
0000
0000
0102
cafe
2801
0000
0000
00df
cafe
2c11
0000
0000
00bd
cafe
300a
0000
0000
0123
cafe
341a
0000
0000
0122
cafe
3802
0000
0000
00c4
cafe
3c12
0000
0000
019e
cafe
200b
0000
0000
00e4
cafe
241b
0000
0000
00fc
cafe
2803
0000
0000
0120
cafe
2c13
0000
0000
010f
cafe
300c
0000
0000
0077
cafe
341c
0000
0000
0116
cafe
3804
0000
0000
01c9
cafe
3c14
0000
0000
00ab
cafe
200d
0000
0000
013d
cafe
241d
0000
0000
01d9
cafe
2805
0000
0000
0128
cafe
2c15
0000
0000
014e
cafe
300e
0000
0000
0169
cafe
341e
0000
0000
014f
cafe
3806
0000
0000
00fb
cafe
3c16
0000
0000
0124
cafe
200f
0000
0000
00f3
cafe
241f
0000
0000
00f3
cafe
2807
0000
0000
00c3
cafe
2c17
0000
0000
00dd
cafe
3008
0000
0000
0163
cafe
3418
0000
0000
00f5
cafe
3800
0000
0000
013c
cafe
3c10
0000
0000
013a
cafe
2009
0000
0000
0115
cafe
2419
0000
0000
0109
cafe
2801
0000
0000
00e4
cafe
2c11
0000
0000
00c1
cafe
300a
0000
0000
0125
cafe
341a
0000
0000
011c
cafe
3802
0000
0000
00c1
cafe
3c12
0000
0000
019f
cafe
200b
0000
0000
00dd
cafe
241b
0000
0000
00fe
cafe
2803
0000
0000
011f
cafe
2c13
0000
0000
0105
cafe
300c
0000
0000
007a
cafe
341c
0000
0000
011b
cafe
3804
0000
0000
01c3
cafe
3c14
0000
0000
00a6
cafe
200d
0000
0000
-
0143
cafe
241d
0000
0000
01dc
cafe
2805
0000
0000
0129
cafe
2c15
0000
0000
015a
cafe
300e
0000
0000
015f
cafe
341e
0000
0000
014e
cafe
3806
0000
0000
00f2
cafe
3c16
0000
0000
0118
cafe
200f
0000
0000
00f0
cafe
241f
0000
0000
00ef
cafe
2807
0000
0000
00c7
cafe
2c17
0000
0000
00cf
cafe
3008
0000
0000
0167
cafe
3418
0000
0000
00fa
cafe
3800
0000
0000
0142
cafe
3c10
0000
0000
0138
cafe
2009
0000
0000
0112
cafe
2419
0000
0000
010f
cafe
2801
0000
0000
00e4
cafe
2c11
0000
0000
00b6
cafe
300a
0000
0000
011c
cafe
341a
0000
0000
0111
cafe
3802
0000
0000
00bb
cafe
3c12
0000
0000
0197
cafe
200b
0000
0000
00e1
cafe
241b
0000
0000
0102
cafe
2803
0000
0000
011e
cafe
2c13
0000
0000
010b
cafe
300c
0000
0000
006d
cafe
341c
0000
0000
0121
cafe
3804
0000
0000
01c3
cafe
3c14
0000
0000
00ac
cafe
200d
0000
0000
013a
cafe
241d
0000
0000
01d5
cafe
2805
0000
0000
0124
cafe
2c15
0000
0000
0157
cafe
300e
0000
0000
0169
cafe
341e
0000
0000
0151
cafe
3806
0000
0000
00fd
cafe
3c16
0000
0000
0119
cafe
200f
0000
0000
00ec
cafe
241f
0000
0000
00f1
cafe
2807
0000
0000
00ca
cafe
2c17
0000
0000
00d2
cafe
3008
0000
0000
016c
cafe
3418
0000
0000
0103
cafe
3800
0000
0000
013b
cafe
3c10
0000
0000
0137
cafe
2009
0000
0000
010b
cafe
2419
0000
0000
0109
cafe
2801
0000
0000
00e1
cafe
2c11
0000
0000
00c1
-
cafe
300a
0000
0000
011e
cafe
341a
0000
0000
0117
cafe
3802
0000
0000
00c1
cafe
3c12
0000
0000
019e
cafe
200b
0000
0000
00ec
cafe
241b
0000
0000
00fa
cafe
2803
0000
0000
0122
cafe
2c13
0000
0000
010b
cafe
300c
0000
0000
0074
cafe
341c
0000
0000
011d
cafe
3804
0000
0000
01ca
cafe
3c14
0000
0000
00ba
cafe
200d
0000
0000
0143
cafe
241d
0000
0000
01d6
cafe
2805
0000
0000
0127
cafe
2c15
0000
0000
0155
cafe
300e
0000
0000
016c
cafe
341e
0000
0000
0157
cafe
3806
0000
0000
00fb
cafe
3c16
0000
0000
0117
cafe
200f
0000
0000
00ee
cafe
241f
0000
0000
00ee
cafe
2807
0000
0000
00d1
cafe
2c17
0000
0000
00da
cafe
3008
0000
0000
016b
cafe
3418
0000
0000
00ff
cafe
3800
0000
0000
0144
cafe
3c10
0000
0000
0137
cafe
2009
0000
0000
0107
cafe
2419
0000
0000
0106
cafe
2801
0000
0000
00d9
cafe
2c11
0000
0000
00b7
cafe
300a
0000
0000
0121
cafe
341a
0000
0000
0121
cafe
3802
0000
0000
00bd
cafe
3c12
0000
0000
01a0
cafe
200b
0000
0000
00e4
cafe
241b
0000
0000
0100
cafe
2803
0000
0000
011e
cafe
2c13
0000
0000
010d
cafe
300c
0000
0000
0073
cafe
341c
0000
0000
011b
cafe
3804
0000
0000
01cb
cafe
3c14
0000
0000
00b7
cafe
200d
0000
0000
0149
cafe
241d
0000
0000
01ce
cafe
2805
0000
0000
012b
cafe
2c15
0000
0000
0153
cafe
300e
0000
0000
0162
cafe
341e
0000
0000
0153
cafe
3806
0000
0000
00fe
cafe
-
3c16
0000
0000
0113
cafe
200f
0000
0000
00eb
cafe
241f
0000
0000
00ef
cafe
2807
0000
0000
00cc
cafe
2c17
0000
0000
00d9
cafe
3008
0000
0000
0176
cafe
3418
0000
0000
00f0
cafe
3800
0000
0000
013c
cafe
3c10
0000
0000
013b
cafe
2009
0000
0000
0106
cafe
2419
0000
0000
010d
cafe
2801
0000
0000
00d5
cafe
2c11
0000
0000
00c3
cafe
300a
0000
0000
011d
cafe
341a
0000
0000
0120
cafe
3802
0000
0000
00b6
cafe
3c12
0000
0000
019c
cafe
200b
0000
0000
00e2
cafe
241b
0000
0000
0101
cafe
2803
0000
0000
0126
cafe
2c13
0000
0000
00fe
cafe
300c
0000
0000
0071
cafe
341c
0000
0000
0119
cafe
3804
0000
0000
01cd
cafe
3c14
0000
0000
00b2
cafe
200d
0000
0000
013a
cafe
241d
0000
0000
01d1
cafe
2805
0000
0000
0124
cafe
2c15
0000
0000
0153
cafe
300e
0000
0000
015d
cafe
341e
0000
0000
0159
cafe
3806
0000
0000
00fd
cafe
3c16
0000
0000
010c
cafe
200f
0000
0000
00f7
cafe
241f
0000
0000
00ed
cafe
2807
0000
0000
00c8
cafe
2c17
0000
0000
00e5
cafe
3008
0000
0000
0176
cafe
3418
0000
0000
00f1
cafe
3800
0000
0000
0139
cafe
3c10
0000
0000
0131
cafe
2009
0000
0000
0113
cafe
2419
0000
0000
010d
cafe
2801
0000
0000
00df
cafe
2c11
0000
0000
00c5
cafe
300a
0000
0000
0124
cafe
341a
0000
0000
011e
cafe
3802
0000
0000
00bc
cafe
3c12
0000
0000
01a6
cafe
200b
0000
0000
00e2
cafe
241b
0000
0000
00fb
cafe
2803
-
0000
0000
0123
cafe
2c13
0000
0000
0100
cafe
300c
0000
0000
006b
cafe
341c
0000
0000
011d
cafe
3804
0000
0000
01c9
cafe
3c14
0000
0000
00b3
cafe
200d
0000
0000
0149
cafe
241d
0000
0000
01ce
cafe
2805
0000
0000
0125
cafe
2c15
0000
0000
0159
cafe
300e
0000
0000
0161
cafe
341e
0000
0000
0153
cafe
3806
0000
0000
00f2
cafe
3c16
0000
0000
010a
cafe
200f
0000
0000
00f6
cafe
241f
0000
0000
00ed
cafe
2807
0000
0000
00d0
cafe
2c17
0000
0000
00de
cafe
3008
0000
0000
0175
cafe
3418
0000
0000
00f2
cafe
3800
0000
0000
0135
cafe
3c10
0000
0000
013f
cafe
2009
0000
0000
0123
cafe
2419
0000
0000
010a
cafe
2801
0000
0000
00dd
cafe
2c11
0000
0000
00ca
cafe
300a
0000
0000
0123
cafe
341a
0000
0000
0119
cafe
3802
0000
0000
00c0
cafe
3c12
0000
0000
019a
cafe
200b
0000
0000
00e7
cafe
241b
0000
0000
00fc
cafe
2803
0000
0000
0121
cafe
2c13
0000
0000
0107
cafe
300c
0000
0000
006d
cafe
341c
0000
0000
011b
cafe
3804
0000
0000
01c7
cafe
3c14
0000
0000
00b4
cafe
200d
0000
0000
0139
cafe
241d
0000
0000
01d5
cafe
2805
0000
0000
0123
cafe
2c15
0000
0000
0150
cafe
300e
0000
0000
0165
cafe
341e
0000
0000
0153
cafe
3806
0000
0000
00f5
cafe
3c16
0000
0000
010f
cafe
200f
0000
0000
00fd
cafe
241f
0000
0000
00e5
cafe
2807
0000
0000
00cc
cafe
2c17
0000
0000
00e7
cafe
3008
0000
0000
016a
cafe
3418
0000
-
0000
00f4
cafe
3800
0000
0000
0139
cafe
3c10
0000
0000
0137
cafe
2009
0000
0000
0117
cafe
2419
0000
0000
010c
cafe
2801
0000
0000
00d8
cafe
2c11
0000
0000
00bf
cafe
300a
0000
0000
0129
cafe
341a
0000
0000
0120
cafe
3802
0000
0000
00ba
cafe
3c12
0000
0000
01a6
cafe
200b
0000
0000
00da
cafe
241b
0000
0000
00fc
cafe
2803
0000
0000
0126
cafe
2c13
0000
0000
00fe
cafe
300c
0000
0000
006d
cafe
341c
0000
0000
0117
cafe
3804
0000
0000
01cf
cafe
3c14
0000
0000
00b4
cafe
200d
0000
0000
0140
cafe
241d
0000
0000
01d0
cafe
2805
0000
0000
0124
cafe
2c15
0000
0000
0154
cafe
300e
0000
0000
015c
cafe
341e
0000
0000
015a
cafe
3806
0000
0000
00f6
cafe
3c16
0000
0000
0106
cafe
200f
0000
0000
00f8
cafe
241f
0000
0000
00e5
cafe
2807
0000
0000
00cb
cafe
2c17
0000
0000
00e0
cafe
3008
0000
0000
0176
cafe
3418
0000
0000
00f6
cafe
3800
0000
0000
013f
cafe
3c10
0000
0000
013e
cafe
2009
0000
0000
0109
cafe
2419
0000
0000
010f
cafe
2801
0000
0000
00d1
cafe
2c11
0000
0000
00b4
cafe
300a
0000
0000
012b
cafe
341a
0000
0000
011a
cafe
3802
0000
0000
00bc
cafe
3c12
0000
0000
01a3
cafe
200b
0000
0000
00ec
cafe
241b
0000
0000
00fe
cafe
2803
0000
0000
0128
cafe
2c13
0000
0000
010d
cafe
300c
0000
0000
007d
cafe
341c
0000
0000
011b
cafe
3804
0000
0000
01da
cafe
3c14
0000
0000
00b7
cafe
200d
0000
0000
-
0141
cafe
241d
0000
0000
01d4
cafe
2805
0000
0000
011c
cafe
2c15
0000
0000
0158
cafe
300e
0000
0000
016d
cafe
341e
0000
0000
015c
cafe
3806
0000
0000
00f7
cafe
3c16
0000
0000
0116
cafe
200f
0000
0000
0101
cafe
241f
0000
0000
00e3
cafe
2807
0000
0000
00d2
cafe
2c17
0000
0000
00e9
cafe
3008
0000
0000
0173
cafe
3418
0000
0000
00f9
cafe
3800
0000
0000
0141
cafe
3c10
0000
0000
0137
cafe
2009
0000
0000
0113
cafe
2419
0000
0000
0110
cafe
2801
0000
0000
00d4
cafe
2c11
0000
0000
00c5
cafe
300a
0000
0000
0131
cafe
341a
0000
0000
011f
cafe
3802
0000
0000
00bf
cafe
3c12
0000
0000
019d
cafe
200b
0000
0000
00de
cafe
241b
0000
0000
00f8
cafe
2803
0000
0000
0120
cafe
2c13
0000
0000
00f9
cafe
300c
0000
0000
006f
cafe
341c
0000
0000
011b
cafe
3804
0000
0000
01de
cafe
3c14
0000
0000
00ad
cafe
200d
0000
0000
0140
cafe
241d
0000
0000
01d8
cafe
2805
0000
0000
011c
cafe
2c15
0000
0000
0154
cafe
300e
0000
0000
015e
cafe
341e
0000
0000
0163
cafe
3806
0000
0000
00fa
cafe
3c16
0000
0000
010e
cafe
200f
0000
0000
00f7
cafe
241f
0000
0000
00d8
cafe
2807
0000
0000
00c6
cafe
2c17
0000
0000
00eb
cafe
3008
0000
0000
0181
cafe
3418
0000
0000
00f6
cafe
3800
0000
0000
0142
cafe
3c10
0000
0000
013f
cafe
2009
0000
0000
0108
cafe
2419
0000
0000
010b
cafe
2801
0000
0000
00d0
cafe
2c11
0000
0000
00bd
-
cafe
300a
0000
0000
0133
cafe
341a
0000
0000
0119
cafe
3802
0000
0000
00b4
cafe
3c12
0000
0000
01a2
cafe
200b
0000
0000
00e7
cafe
241b
0000
0000
00fd
cafe
2803
0000
0000
0125
cafe
2c13
0000
0000
00fe
cafe
300c
0000
0000
0071
cafe
341c
0000
0000
011e
cafe
3804
0000
0000
01d8
cafe
3c14
0000
0000
00a9
cafe
200d
0000
0000
0133
cafe
241d
0000
0000
01d1
cafe
2805
0000
0000
011e
cafe
2c15
0000
0000
0155
cafe
300e
0000
0000
0169
cafe
341e
0000
0000
0168
cafe
3806
0000
0000
00ff
cafe
3c16
0000
0000
010e
cafe
200f
0000
0000
00fa
cafe
241f
0000
0000
00e3
cafe
2807
0000
0000
00d2
cafe
2c17
0000
0000
00e9
cafe
3008
0000
0000
0173
cafe
3418
0000
0000
00f6
cafe
3800
0000
0000
014a
cafe
3c10
0000
0000
013b
cafe
2009
0000
0000
010a
cafe
2419
0000
0000
010f
cafe
2801
0000
0000
00cb
cafe
2c11
0000
0000
00c4
cafe
300a
0000
0000
012e
cafe
341a
0000
0000
011c
cafe
3802
0000
0000
00b2
cafe
3c12
0000
0000
01a4
cafe
200b
0000
0000
00dc
cafe
241b
0000
0000
00f4
cafe
2803
0000
0000
0124
cafe
2c13
0000
0000
00fb
cafe
300c
0000
0000
0075
cafe
341c
0000
0000
011b
cafe
3804
0000
0000
01d1
cafe
3c14
0000
0000
00a8
cafe
200d
0000
0000
012e
cafe
241d
0000
0000
01d1
cafe
2805
0000
0000
0122
cafe
2c15
0000
0000
015b
cafe
300e
0000
0000
015e
cafe
341e
0000
0000
0165
cafe
3806
0000
0000
00fb
cafe
-
3c16
0000
0000
010c
cafe
200f
0000
0000
00f9
cafe
241f
0000
0000
00e4
cafe
2807
0000
0000
00d0
cafe
2c17
0000
0000
00eb
cafe
3008
0000
0000
0178
cafe
3418
0000
0000
00f5
cafe
3800
0000
0000
0145
cafe
3c10
0000
0000
013d
cafe
2009
0000
0000
00ff
cafe
2419
0000
0000
010b
cafe
2801
0000
0000
00cf
cafe
2c11
0000
0000
00be
cafe
300a
0000
0000
0131
cafe
341a
0000
0000
011f
cafe
3802
0000
0000
00b4
cafe
3c12
0000
0000
019e
cafe
200b
0000
0000
00e7
cafe
241b
0000
0000
00f6
cafe
2803
0000
0000
0121
cafe
2c13
0000
0000
0104
cafe
300c
0000
0000
0074
cafe
341c
0000
0000
0119
cafe
3804
0000
0000
01cd
cafe
3c14
0000
0000
00a7
cafe
200d
0000
0000
012d
cafe
241d
0000
0000
01d1
cafe
2805
0000
0000
011f
cafe
2c15
0000
0000
0157
cafe
300e
0000
0000
0159
cafe
341e
0000
0000
015e
cafe
3806
0000
0000
0101
cafe
3c16
0000
0000
010a
cafe
200f
0000
0000
00f9
cafe
241f
0000
0000
00dd
cafe
2807
0000
0000
00ce
cafe
2c17
0000
0000
00e8
cafe
3008
0000
0000
016e
cafe
3418
0000
0000
00fc
cafe
3800
0000
0000
0141
cafe
3c10
0000
0000
0135
cafe
2009
0000
0000
0114
cafe
2419
0000
0000
0109
cafe
2801
0000
0000
00d2
cafe
2c11
0000
0000
00bf
cafe
300a
0000
0000
019e
cafe
341a
0000
0000
0194
cafe
3802
0000
0000
0123
cafe
3c12
0000
0000
020b
cafe
200b
0000
0000
0256
cafe
241b
0000
0000
02a4
cafe
2803
-
0000
0000
02a3
cafe
2c13
0000
0000
0285
cafe
300c
0000
0000
02fc
cafe
341c
0000
0000
038c
cafe
3804
0000
0000
0450
cafe
3c14
0000
0000
0334
cafe
200d
0000
0000
048d
cafe
241d
0000
0000
0540
cafe
2805
0000
0000
0477
cafe
2c15
0000
0000
04ba
cafe
300e
0000
0000
0561
cafe
341e
0000
0000
054b
cafe
3806
0000
0000
04fd
cafe
3c16
0000
0000
052a
cafe
200f
0000
0000
05b9
cafe
241f
0000
0000
0577
cafe
2807
0000
0000
0585
cafe
2c17
0000
0000
05a3
cafe
3008
0000
0000
06a7
cafe
3418
0000
0000
0626
cafe
3800
0000
0000
065a
cafe
3c10
0000
0000
06a0
cafe
2009
0000
0000
06b9
cafe
2419
0000
0000
06a2
cafe
2801
0000
0000
0650
cafe
2c11
0000
0000
0687
cafe
300a
0000
0000
0737
cafe
341a
0000
0000
06fb
cafe
3802
0000
0000
068e
cafe
3c12
0000
0000
07b5
cafe
200b
0000
0000
0726
cafe
241b
0000
0000
0705
cafe
2803
0000
0000
0744
cafe
2c13
0000
0000
076e
cafe
300c
0000
0000
071b
cafe
341c
0000
0000
0769
cafe
3804
0000
0000
0851
cafe
3c14
0000
0000
0755
cafe
200d
0000
0000
0818
cafe
241d
0000
0000
0859
cafe
2805
0000
0000
07dc
cafe
2c15
0000
0000
0840
cafe
300e
0000
0000
086c
cafe
341e
0000
0000
0809
cafe
3806
0000
0000
07eb
cafe
3c16
0000
0000
0822
cafe
200f
0000
0000
082d
cafe
241f
0000
0000
07b2
cafe
2807
0000
0000
07d2
cafe
2c17
0000
0000
07f6
cafe
3008
0000
0000
089e
cafe
3418
0000
-
0000
080c
cafe
3800
0000
0000
0837
cafe
3c10
0000
0000
08a4
cafe
2009
0000
0000
0860
cafe
2419
0000
0000
083b
cafe
2801
0000
0000
07d8
cafe
2c11
0000
0000
0837
cafe
300a
0000
0000
08a5
cafe
341a
0000
0000
083e
cafe
3802
0000
0000
07d6
cafe
3c12
0000
0000
0923
cafe
200b
0000
0000
0849
cafe
241b
0000
0000
07fe
cafe
2803
0000
0000
085b
cafe
2c13
0000
0000
0897
cafe
300c
0000
0000
07f6
cafe
341c
0000
0000
083f
cafe
3804
0000
0000
0928
cafe
3c14
0000
0000
0823
cafe
200d
0000
0000
08bf
cafe
241d
0000
0000
08fe
cafe
2805
0000
0000
087b
cafe
2c15
0000
0000
08f6
cafe
300e
0000
0000
0904
cafe
341e
0000
0000
0893
cafe
3806
0000
0000
0882
cafe
3c16
0000
0000
08ac
cafe
200f
0000
0000
08ab
cafe
241f
0000
0000
0805
cafe
2807
0000
0000
0844
cafe
2c17
0000
0000
086a
cafe
3008
0000
0000
08ea
cafe
3418
0000
0000
0858
cafe
3800
0000
0000
0884
cafe
3c10
0000
0000
08f8
cafe
2009
0000
0000
087f
cafe
2419
0000
0000
0869
cafe
2801
0000
0000
07f6
cafe
2c11
0000
0000
086a
cafe
300a
0000
0000
08c0
cafe
341a
0000
0000
085a
cafe
3802
0000
0000
07f2
cafe
3c12
0000
0000
0944
cafe
200b
0000
0000
0853
cafe
241b
0000
0000
080b
cafe
2803
0000
0000
0863
cafe
2c13
0000
0000
08a5
cafe
300c
0000
0000
0800
cafe
341c
0000
0000
0847
cafe
3804
0000
0000
092f
cafe
3c14
0000
0000
0830
cafe
200d
0000
0000
-
08b8
cafe
241d
0000
0000
08f6
cafe
2805
0000
0000
0868
cafe
2c15
0000
0000
08e9
cafe
300e
0000
0000
08dd
cafe
341e
0000
0000
087b
cafe
3806
0000
0000
0869
cafe
3c16
0000
0000
088d
cafe
200f
0000
0000
088b
cafe
241f
0000
0000
07ea
cafe
2807
0000
0000
082b
cafe
2c17
0000
0000
0838
cafe
3008
0000
0000
08d6
cafe
3418
0000
0000
083f
cafe
3800
0000
0000
0863
cafe
3c10
0000
0000
08e0
cafe
2009
0000
0000
0863
cafe
2419
0000
0000
084d
cafe
2801
0000
0000
07cf
cafe
2c11
0000
0000
084e
cafe
300a
0000
0000
088a
cafe
341a
0000
0000
082d
cafe
3802
0000
0000
07c2
cafe
3c12
0000
0000
0918
cafe
200b
0000
0000
0819
cafe
241b
0000
0000
07d8
cafe
2803
0000
0000
082a
cafe
2c13
0000
0000
0863
cafe
300c
0000
0000
07d1
cafe
341c
0000
0000
081b
cafe
3804
0000
0000
08fe
cafe
3c14
0000
0000
0807
cafe
200d
0000
0000
0896
cafe
241d
0000
0000
08b9
cafe
2805
0000
0000
0839
cafe
2c15
0000
0000
08c1
cafe
300e
0000
0000
08b6
cafe
341e
0000
0000
083b
cafe
3806
0000
0000
0836
cafe
3c16
0000
0000
085f
cafe
200f
0000
0000
0845
cafe
241f
0000
0000
07ab
cafe
2807
0000
0000
07e1
cafe
2c17
0000
0000
07eb
cafe
3008
0000
0000
088f
cafe
3418
0000
0000
07f6
cafe
3800
0000
0000
0823
cafe
3c10
0000
0000
0899
cafe
2009
0000
0000
082b
cafe
2419
0000
0000
080d
cafe
2801
0000
0000
078c
cafe
2c11
0000
0000
080e
-
cafe
300a
0000
0000
085e
cafe
341a
0000
0000
07f7
cafe
3802
0000
0000
0788
cafe
3c12
0000
0000
08e9
cafe
200b
0000
0000
07db
cafe
241b
0000
0000
079d
cafe
2803
0000
0000
07f2
cafe
2c13
0000
0000
082d
cafe
300c
0000
0000
077d
cafe
341c
0000
0000
07d8
cafe
3804
0000
0000
08b6
cafe
3c14
0000
0000
07ba
cafe
200d
0000
0000
0849
cafe
241d
0000
0000
0881
cafe
2805
0000
0000
07f7
cafe
2c15
0000
0000
0871
cafe
300e
0000
0000
087f
cafe
341e
0000
0000
07f7
cafe
3806
0000
0000
07f2
cafe
3c16
0000
0000
0823
cafe
200f
0000
0000
080d
cafe
241f
0000
0000
076a
cafe
2807
0000
0000
07a5
cafe
2c17
0000
0000
07b7
cafe
3008
0000
0000
0842
cafe
3418
0000
0000
07b2
cafe
3800
0000
0000
07e1
cafe
3c10
0000
0000
0851
cafe
2009
0000
0000
07e1
cafe
2419
0000
0000
07bf
cafe
2801
0000
0000
0744
cafe
2c11
0000
0000
07a9
cafe
300a
0000
0000
0816
cafe
341a
0000
0000
07b3
cafe
3802
0000
0000
0741
cafe
3c12
0000
0000
0896
cafe
200b
0000
0000
0791
cafe
241b
0000
0000
075d
cafe
2803
0000
0000
07b1
cafe
2c13
0000
0000
07ec
cafe
300c
0000
0000
0748
cafe
341c
0000
0000
0790
cafe
3804
0000
0000
086f
cafe
3c14
0000
0000
077c
cafe
200d
0000
0000
07fb
cafe
241d
0000
0000
0843
cafe
2805
0000
0000
07ab
cafe
2c15
0000
0000
081e
cafe
300e
0000
0000
0829
cafe
341e
0000
0000
07b7
cafe
3806
0000
0000
07a5
cafe
-
3c16
0000
0000
07d2
cafe
200f
0000
0000
07c8
cafe
241f
0000
0000
0720
cafe
2807
0000
0000
0756
cafe
2c17
0000
0000
0775
cafe
3008
0000
0000
0807
cafe
3418
0000
0000
0771
cafe
3800
0000
0000
07a4
cafe
3c10
0000
0000
081a
cafe
2009
0000
0000
07a6
cafe
2419
0000
0000
078c
cafe
2801
0000
0000
0706
cafe
2c11
0000
0000
076d
cafe
300a
0000
0000
07c1
cafe
341a
0000
0000
0771
cafe
3802
0000
0000
06f0
cafe
3c12
0000
0000
0847
cafe
200b
0000
0000
0748
cafe
241b
0000
0000
071b
cafe
2803
0000
0000
0763
cafe
2c13
0000
0000
0794
cafe
300c
0000
0000
0707
cafe
341c
0000
0000
0746
cafe
3804
0000
0000
0834
cafe
3c14
0000
0000
0731
cafe
200d
0000
0000
07c7
cafe
241d
0000
0000
0804
cafe
2805
0000
0000
0771
cafe
2c15
0000
0000
07e7
cafe
300e
0000
0000
07e5
cafe
341e
0000
0000
0776
cafe
3806
0000
0000
075f
cafe
3c16
0000
0000
0791
cafe
200f
0000
0000
076a
cafe
241f
0000
0000
06e3
cafe
2807
0000
0000
0704
cafe
2c17
0000
0000
0715
cafe
3008
0000
0000
07bb
cafe
3418
0000
0000
072a
cafe
3800
0000
0000
0754
cafe
3c10
0000
0000
07c7
cafe
2009
0000
0000
0767
cafe
2419
0000
0000
0751
cafe
2801
0000
0000
06bf
cafe
2c11
0000
0000
0732
cafe
300a
0000
0000
078a
cafe
341a
0000
0000
0733
cafe
3802
0000
0000
06ad
cafe
3c12
0000
0000
0817
cafe
200b
0000
0000
0702
cafe
241b
0000
0000
06d4
cafe
2803
-
0000
0000
071e
cafe
2c13
0000
0000
073f
cafe
300c
0000
0000
06b6
cafe
341c
0000
0000
06fe
cafe
3804
0000
0000
07ee
cafe
3c14
0000
0000
06e4
cafe
200d
0000
0000
0785
cafe
241d
0000
0000
07ce
cafe
2805
0000
0000
0726
cafe
2c15
0000
0000
07a4
cafe
300e
0000
0000
07ae
cafe
341e
0000
0000
072e
cafe
3806
0000
0000
0721
cafe
3c16
0000
0000
0756
cafe
200f
0000
0000
0741
cafe
241f
0000
0000
0698
cafe
2807
0000
0000
06cb
cafe
2c17
0000
0000
06d6
cafe
3008
0000
0000
077e
cafe
3418
0000
0000
06eb
cafe
3800
0000
0000
0719
cafe
3c10
0000
0000
0787
cafe
2009
0000
0000
071d
cafe
2419
0000
0000
070c
cafe
2801
0000
0000
0677
cafe
2c11
0000
0000
06e3
cafe
300a
0000
0000
0749
cafe
341a
0000
0000
06f7
cafe
3802
0000
0000
0669
cafe
3c12
0000
0000
07d7
cafe
200b
0000
0000
06cb
cafe
241b
0000
0000
0696
cafe
2803
0000
0000
06f1
cafe
2c13
0000
0000
0711
cafe
300c
0000
0000
067f
cafe
341c
0000
0000
06cb
cafe
3804
0000
0000
07b5
cafe
3c14
0000
0000
06a5
cafe
200d
0000
0000
0735
cafe
241d
0000
0000
0786
cafe
2805
0000
0000
06ea
cafe
2c15
0000
0000
075c
cafe
300e
0000
0000
075a
cafe
341e
0000
0000
06f3
cafe
3806
0000
0000
06d7
cafe
3c16
0000
0000
070f
cafe
200f
0000
0000
0707
cafe
241f
0000
0000
0659
cafe
2807
0000
0000
0682
cafe
2c17
0000
0000
0695
cafe
3008
0000
0000
074d
cafe
3418
0000
-
0000
06bd
cafe
3800
0000
0000
06e1
cafe
3c10
0000
0000
0757
cafe
2009
0000
0000
06dd
cafe
2419
0000
0000
06cf
cafe
2801
0000
0000
0633
cafe
2c11
0000
0000
06aa
cafe
300a
0000
0000
06fd
cafe
341a
0000
0000
06b9
cafe
3802
0000
0000
0621
cafe
3c12
0000
0000
0788
cafe
200b
0000
0000
0673
cafe
241b
0000
0000
0657
cafe
2803
0000
0000
06ab
cafe
2c13
0000
0000
06c4
cafe
300c
0000
0000
0639
cafe
341c
0000
0000
0685
cafe
3804
0000
0000
0771
cafe
3c14
0000
0000
0667
cafe
200d
0000
0000
0704
cafe
241d
0000
0000
074a
cafe
2805
0000
0000
06b3
cafe
2c15
0000
0000
0731
cafe
300e
0000
0000
071e
cafe
341e
0000
0000
06ae
cafe
3806
0000
0000
06a1
cafe
3c16
0000
0000
06d8
cafe
200f
0000
0000
06a6
cafe
241f
0000
0000
0618
cafe
2807
0000
0000
063d
cafe
2c17
0000
0000
0641
cafe
3008
0000
0000
0707
cafe
3418
0000
0000
0674
cafe
3800
0000
0000
06a1
cafe
3c10
0000
0000
070f
cafe
2009
0000
0000
069d
cafe
2419
0000
0000
0694
cafe
2801
0000
0000
05f2
cafe
2c11
0000
0000
066b
cafe
300a
0000
0000
06cc
cafe
341a
0000
0000
0689
cafe
3802
0000
0000
05dd
cafe
3c12
0000
0000
075b
cafe
200b
0000
0000
063c
cafe
241b
0000
0000
061d
cafe
2803
0000
0000
066e
cafe
2c13
0000
0000
0681
cafe
300c
0000
0000
05ec
cafe
341c
0000
0000
0649
cafe
3804
0000
0000
0734
cafe
3c14
0000
0000
061b
cafe
200d
0000
0000
-
06bc
cafe
241d
0000
0000
070e
cafe
2805
0000
0000
0677
cafe
2c15
0000
0000
06ef
cafe
300e
0000
0000
06ec
cafe
341e
0000
0000
0678
cafe
3806
0000
0000
0665
cafe
3c16
0000
0000
069a
cafe
200f
0000
0000
0687
cafe
241f
0000
0000
05dd
cafe
2807
0000
0000
0606
cafe
2c17
0000
0000
060a
cafe
3008
0000
0000
06ca
cafe
3418
0000
0000
0628
cafe
3800
0000
0000
0663
cafe
3c10
0000
0000
06c7
cafe
2009
0000
0000
065b
cafe
2419
0000
0000
0658
cafe
2801
0000
0000
05af
cafe
2c11
0000
0000
061c
cafe
300a
0000
0000
068f
cafe
341a
0000
0000
0650
cafe
3802
0000
0000
059b
cafe
3c12
0000
0000
0722
cafe
200b
0000
0000
0607
cafe
241b
0000
0000
05ea
cafe
2803
0000
0000
063b
cafe
2c13
0000
0000
064f
cafe
300c
0000
0000
05c9
cafe
341c
0000
0000
060e
cafe
3804
0000
0000
0708
cafe
3c14
0000
0000
05ed
cafe
200d
0000
0000
0685
cafe
241d
0000
0000
06d1
cafe
2805
0000
0000
0637
cafe
2c15
0000
0000
06ab
cafe
300e
0000
0000
069f
cafe
341e
0000
0000
063b
cafe
3806
0000
0000
0623
cafe
3c16
0000
0000
065d
cafe
200f
0000
0000
0643
cafe
241f
0000
0000
0598
cafe
2807
0000
0000
05c2
cafe
2c17
0000
0000
05ca
cafe
3008
0000
0000
06a2
cafe
3418
0000
0000
05fb
cafe
3800
0000
0000
062a
cafe
3c10
0000
0000
06a1
cafe
2009
0000
0000
0629
cafe
2419
0000
0000
0625
cafe
2801
0000
0000
057d
cafe
2c11
0000
0000
05f0
-
cafe
300a
0000
0000
0647
cafe
341a
0000
0000
0611
cafe
3802
0000
0000
0560
cafe
3c12
0000
0000
06e1
cafe
200b
0000
0000
05bc
cafe
241b
0000
0000
05b4
cafe
2803
0000
0000
0601
cafe
2c13
0000
0000
0607
cafe
300c
0000
0000
0589
cafe
341c
0000
0000
05d6
cafe
3804
0000
0000
06d1
cafe
3c14
0000
0000
05b9
cafe
200d
0000
0000
065e
cafe
241d
0000
0000
069a
cafe
2805
0000
0000
060e
cafe
2c15
0000
0000
0682
cafe
300e
0000
0000
067c
cafe
341e
0000
0000
0609
cafe
3806
0000
0000
05f1
cafe
3c16
0000
0000
062e
cafe
200f
0000
0000
05fc
cafe
241f
0000
0000
0568
cafe
2807
0000
0000
0577
cafe
2c17
0000
0000
0580
cafe
3008
0000
0000
0656
cafe
3418
0000
0000
05bc
cafe
3800
0000
0000
05ed
cafe
3c10
0000
0000
0659
cafe
2009
0000
0000
05f7
cafe
2419
0000
0000
05ed
cafe
2801
0000
0000
0547
cafe
2c11
0000
0000
05b7
cafe
300a
0000
0000
0625
cafe
341a
0000
0000
05dc
cafe
3802
0000
0000
0530
cafe
3c12
0000
0000
06b6
cafe
200b
0000
0000
058c
cafe
241b
0000
0000
0589
cafe
2803
0000
0000
05c7
cafe
2c13
0000
0000
05d2
cafe
300c
0000
0000
0540
cafe
341c
0000
0000
0596
cafe
3804
0000
0000
0691
cafe
3c14
0000
0000
0569
cafe
200d
0000
0000
060e
cafe
241d
0000
0000
066d
cafe
2805
0000
0000
05ce
cafe
2c15
0000
0000
0643
cafe
300e
0000
0000
0657
cafe
341e
0000
0000
05d5
cafe
3806
0000
0000
05c0
cafe
-
3c16
0000
0000
05f5
cafe
200f
0000
0000
05d9
cafe
241f
0000
0000
052e
cafe
2807
0000
0000
054f
cafe
2c17
0000
0000
055c
cafe
3008
0000
0000
062f
cafe
3418
0000
0000
058d
cafe
3800
0000
0000
05bf
cafe
3c10
0000
0000
062a
cafe
2009
0000
0000
05a9
cafe
2419
0000
0000
05a9
cafe
2801
0000
0000
0508
cafe
2c11
0000
0000
0568
cafe
300a
0000
0000
05e9
cafe
341a
0000
0000
05a4
cafe
3802
0000
0000
04f6
cafe
3c12
0000
0000
067e
cafe
200b
0000
0000
055a
cafe
241b
0000
0000
0551
cafe
2803
0000
0000
059f
cafe
2c13
0000
0000
059d
cafe
300c
0000
0000
051f
cafe
341c
0000
0000
055f
cafe
3804
0000
0000
0665
cafe
3c14
0000
0000
053b
cafe
200d
0000
0000
05d0
cafe
241d
0000
0000
063f
cafe
2805
0000
0000
0591
cafe
2c15
0000
0000
0606
cafe
300e
0000
0000
060e
cafe
341e
0000
0000
05a0
cafe
3806
0000
0000
0586
cafe
3c16
0000
0000
05bd
cafe
200f
0000
0000
0593
cafe
241f
0000
0000
04ff
cafe
2807
0000
0000
0518
cafe
2c17
0000
0000
0517
cafe
3008
0000
0000
05ff
cafe
3418
0000
0000
055b
cafe
3800
0000
0000
0589
cafe
3c10
0000
0000
0602
cafe
2009
0000
0000
0579
cafe
2419
0000
0000
057f
cafe
2801
0000
0000
04d3
cafe
2c11
0000
0000
0541
cafe
300a
0000
0000
05aa
cafe
341a
0000
0000
0573
cafe
3802
0000
0000
04c3
cafe
3c12
0000
0000
063c
cafe
200b
0000
0000
051b
cafe
241b
0000
0000
051c
cafe
2803
-
0000
0000
0563
cafe
2c13
0000
0000
0554
cafe
300c
0000
0000
04e5
cafe
341c
0000
0000
0527
cafe
3804
0000
0000
0631
cafe
3c14
0000
0000
050f
cafe
200d
0000
0000
05ae
cafe
241d
0000
0000
060a
cafe
2805
0000
0000
055d
cafe
2c15
0000
0000
05da
cafe
300e
0000
0000
05e1
cafe
341e
0000
0000
0573
cafe
3806
0000
0000
0559
cafe
3c16
0000
0000
0588
cafe
200f
0000
0000
0551
cafe
241f
0000
0000
04d2
cafe
2807
0000
0000
04de
cafe
2c17
0000
0000
04df
cafe
3008
0000
0000
05c5
cafe
3418
0000
0000
051e
cafe
3800
0000
0000
0547
cafe
3c10
0000
0000
05b9
cafe
2009
0000
0000
0547
cafe
2419
0000
0000
054a
cafe
2801
0000
0000
049f
cafe
2c11
0000
0000
0511
cafe
300a
0000
0000
0581
cafe
341a
0000
0000
054c
cafe
3802
0000
0000
0496
cafe
3c12
0000
0000
0614
cafe
200b
0000
0000
04ed
cafe
241b
0000
0000
04eb
cafe
2803
0000
0000
0532
cafe
2c13
0000
0000
0532
cafe
300c
0000
0000
04a8
cafe
341c
0000
0000
04f8
cafe
3804
0000
0000
0600
cafe
3c14
0000
0000
04c9
cafe
200d
0000
0000
0575
cafe
241d
0000
0000
05de
cafe
2805
0000
0000
052b
cafe
2c15
0000
0000
059c
cafe
300e
0000
0000
05b1
cafe
341e
0000
0000
0543
cafe
3806
0000
0000
052d
cafe
3c16
0000
0000
055a
cafe
200f
0000
0000
0537
cafe
241f
0000
0000
0493
cafe
2807
0000
0000
04ae
cafe
2c17
0000
0000
04b4
cafe
3008
0000
0000
0597
cafe
3418
0000
-
0000
04f2
cafe
3800
0000
0000
0520
cafe
3c10
0000
0000
0593
cafe
2009
0000
0000
0510
cafe
2419
0000
0000
0514
cafe
2801
0000
0000
0475
cafe
2c11
0000
0000
04d2
cafe
300a
0000
0000
0544
cafe
341a
0000
0000
0518
cafe
3802
0000
0000
045c
cafe
3c12
0000
0000
05d9
cafe
200b
0000
0000
04ae
cafe
241b
0000
0000
04c2
cafe
2803
0000
0000
0505
cafe
2c13
0000
0000
0504
cafe
300c
0000
0000
048d
cafe
341c
0000
0000
04ce
cafe
3804
0000
0000
05d9
cafe
3c14
0000
0000
04a1
cafe
200d
0000
0000
0544
cafe
241d
0000
0000
05af
cafe
2805
0000
0000
04f8
cafe
2c15
0000
0000
0569
cafe
300e
0000
0000
0568
cafe
341e
0000
0000
0513
cafe
3806
0000
0000
04e9
cafe
3c16
0000
0000
051f
cafe
200f
0000
0000
0503
cafe
241f
0000
0000
0460
cafe
2807
0000
0000
0477
cafe
2c17
0000
0000
0489
cafe
3008
0000
0000
056e
cafe
3418
0000
0000
04ba
cafe
3800
0000
0000
04f7
cafe
3c10
0000
0000
0569
cafe
2009
0000
0000
04f2
cafe
2419
0000
0000
04f3
cafe
2801
0000
0000
0441
cafe
2c11
0000
0000
04a6
cafe
300a
0000
0000
051b
cafe
341a
0000
0000
04e8
cafe
3802
0000
0000
0437
cafe
3c12
0000
0000
05a2
cafe
200b
0000
0000
046b
cafe
241b
0000
0000
048e
cafe
2803
0000
0000
04cd
cafe
2c13
0000
0000
04bd
cafe
300c
0000
0000
0452
cafe
341c
0000
0000
04a5
cafe
3804
0000
0000
05a6
cafe
3c14
0000
0000
046f
cafe
200d
0000
0000
-
0527
cafe
241d
0000
0000
057f
cafe
2805
0000
0000
04c9
cafe
2c15
0000
0000
0548
cafe
300e
0000
0000
0547
cafe
341e
0000
0000
04ee
cafe
3806
0000
0000
04c3
cafe
3c16
0000
0000
04f9
cafe
200f
0000
0000
04ce
cafe
241f
0000
0000
0433
cafe
2807
0000
0000
0447
cafe
2c17
0000
0000
0453
cafe
3008
0000
0000
052d
cafe
3418
0000
0000
0483
cafe
3800
0000
0000
04c7
cafe
3c10
0000
0000
0521
cafe
2009
0000
0000
04c3
cafe
2419
0000
0000
04c5
cafe
2801
0000
0000
0412
cafe
2c11
0000
0000
0470
cafe
300a
0000
0000
04f7
cafe
341a
0000
0000
04b9
cafe
3802
0000
0000
040d
cafe
3c12
0000
0000
0580
cafe
200b
0000
0000
0454
cafe
241b
0000
0000
0463
cafe
2803
0000
0000
04a3
cafe
2c13
0000
0000
04a3
cafe
300c
0000
0000
0411
cafe
341c
0000
0000
0469
cafe
3804
0000
0000
0582
cafe
3c14
0000
0000
0430
cafe
200d
0000
0000
04f2
cafe
241d
0000
0000
055d
cafe
2805
0000
0000
0497
cafe
2c15
0000
0000
051d
cafe
300e
0000
0000
051b
cafe
341e
0000
0000
04c1
cafe
3806
0000
0000
0496
cafe
3c16
0000
0000
04d6
cafe
200f
0000
0000
04bf
cafe
241f
0000
0000
0415
cafe
2807
0000
0000
0427
cafe
2c17
0000
0000
042f
cafe
3008
0000
0000
050e
cafe
3418
0000
0000
046a
cafe
3800
0000
0000
049f
cafe
3c10
0000
0000
04fc
cafe
2009
0000
0000
0497
cafe
2419
0000
0000
0493
cafe
2801
0000
0000
03ed
cafe
2c11
0000
0000
042c
-
cafe
300a
0000
0000
04b6
cafe
341a
0000
0000
0495
cafe
3802
0000
0000
03e3
cafe
3c12
0000
0000
054e
cafe
200b
0000
0000
0434
cafe
241b
0000
0000
0435
cafe
2803
0000
0000
0476
cafe
2c13
0000
0000
0474
cafe
300c
0000
0000
03fb
cafe
341c
0000
0000
044e
cafe
3804
0000
0000
0556
cafe
3c14
0000
0000
0418
cafe
200d
0000
0000
04c2
cafe
241d
0000
0000
0532
cafe
2805
0000
0000
046c
cafe
2c15
0000
0000
04f1
cafe
300e
0000
0000
04dd
cafe
341e
0000
0000
0495
cafe
3806
0000
0000
0457
cafe
3c16
0000
0000
04a2
cafe
200f
0000
0000
047f
cafe
241f
0000
0000
03e1
cafe
2807
0000
0000
03fb
cafe
2c17
0000
0000
03fa
cafe
3008
0000
0000
04e3
cafe
3418
0000
0000
043e
cafe
3800
0000
0000
0479
cafe
3c10
0000
0000
04df
cafe
2009
0000
0000
0475
cafe
2419
0000
0000
0478
cafe
2801
0000
0000
03c8
cafe
2c11
0000
0000
0416
cafe
300a
0000
0000
048d
cafe
341a
0000
0000
0468
cafe
3802
0000
0000
03b4
cafe
3c12
0000
0000
051d
cafe
200b
0000
0000
03fb
cafe
241b
0000
0000
040e
cafe
2803
0000
0000
044f
cafe
2c13
0000
0000
0438
cafe
300c
0000
0000
03c8
cafe
341c
0000
0000
0425
cafe
3804
0000
0000
0526
cafe
3c14
0000
0000
03e4
cafe
200d
0000
0000
04a3
cafe
241d
0000
0000
050e
cafe
2805
0000
0000
044b
cafe
2c15
0000
0000
04d4
cafe
300e
0000
0000
04c3
cafe
341e
0000
0000
046a
cafe
3806
0000
0000
043b
cafe
-
3c16
0000
0000
0484
cafe
200f
0000
0000
044a
cafe
241f
0000
0000
03b6
cafe
2807
0000
0000
03ce
cafe
2c17
0000
0000
03bf
cafe
3008
0000
0000
04ad
cafe
3418
0000
0000
0411
cafe
3800
0000
0000
0453
cafe
3c10
0000
0000
04a7
cafe
2009
0000
0000
0450
cafe
2419
0000
0000
043f
cafe
2801
0000
0000
03a1
cafe
2c11
0000
0000
03e9
cafe
300a
0000
0000
0469
cafe
341a
0000
0000
0448
cafe
3802
0000
0000
0391
cafe
3c12
0000
0000
0502
cafe
200b
0000
0000
03da
cafe
241b
0000
0000
03e4
cafe
2803
0000
0000
042d
cafe
2c13
0000
0000
0419
cafe
300c
0000
0000
039d
cafe
341c
0000
0000
03f5
cafe
3804
0000
0000
04fa
cafe
3c14
0000
0000
03b4
cafe
200d
0000
0000
046f
cafe
241d
0000
0000
04ed
cafe
2805
0000
0000
0422
cafe
2c15
0000
0000
04a9
cafe
300e
0000
0000
049b
cafe
341e
0000
0000
044d
cafe
3806
0000
0000
0412
cafe
3c16
0000
0000
0454
cafe
200f
0000
0000
043e
cafe
241f
0000
0000
0392
cafe
2807
0000
0000
03ab
cafe
2c17
0000
0000
03ad
cafe
3008
0000
0000
048d
cafe
3418
0000
0000
03f4
cafe
3800
0000
0000
0430
cafe
3c10
0000
0000
0486
cafe
2009
0000
0000
041e
cafe
2419
0000
0000
0412
cafe
2801
0000
0000
0370
cafe
2c11
0000
0000
03b3
cafe
300a
0000
0000
043d
cafe
341a
0000
0000
0425
cafe
3802
0000
0000
036c
cafe
3c12
0000
0000
04d8
cafe
200b
0000
0000
03bd
cafe
241b
0000
0000
03ba
cafe
2803
-
0000
0000
0401
cafe
2c13
0000
0000
03f2
cafe
300c
0000
0000
0383
cafe
341c
0000
0000
03d5
cafe
3804
0000
0000
04db
cafe
3c14
0000
0000
039e
cafe
200d
0000
0000
0447
cafe
241d
0000
0000
04c5
cafe
2805
0000
0000
03f9
cafe
2c15
0000
0000
0479
cafe
300e
0000
0000
046a
cafe
341e
0000
0000
0426
cafe
3806
0000
0000
03e7
cafe
3c16
0000
0000
0420
cafe
200f
0000
0000
0411
cafe
241f
0000
0000
0367
cafe
2807
0000
0000
037c
cafe
2c17
0000
0000
0388
cafe
3008
0000
0000
046e
cafe
3418
0000
0000
03d7
cafe
3800
0000
0000
0405
cafe
3c10
0000
0000
046d
cafe
2009
0000
0000
0400
cafe
2419
0000
0000
0400
cafe
2801
0000
0000
0351
cafe
2c11
0000
0000
039e
cafe
300a
0000
0000
0413
cafe
341a
0000
0000
0401
cafe
3802
0000
0000
033f
cafe
3c12
0000
0000
04b1
cafe
200b
0000
0000
0390
cafe
241b
0000
0000
0391
cafe
2803
0000
0000
03e7
cafe
2c13
0000
0000
03c1
cafe
300c
0000
0000
0354
cafe
341c
0000
0000
03ba
cafe
3804
0000
0000
04b7
cafe
3c14
0000
0000
0377
cafe
200d
0000
0000
0428
cafe
241d
0000
0000
049d
cafe
2805
0000
0000
03d6
cafe
2c15
0000
0000
045a
cafe
300e
0000
0000
0455
cafe
341e
0000
0000
03fb
cafe
3806
0000
0000
03ca
cafe
3c16
0000
0000
0402
cafe
200f
0000
0000
03e2
cafe
241f
0000
0000
0341
cafe
2807
0000
0000
0353
cafe
2c17
0000
0000
034b
cafe
3008
0000
0000
043e
cafe
3418
0000
-
0000
03ab
cafe
3800
0000
0000
03d9
cafe
3c10
0000
0000
042b
cafe
2009
0000
0000
03d2
cafe
2419
0000
0000
03e0
cafe
2801
0000
0000
0330
cafe
2c11
0000
0000
037a
cafe
300a
0000
0000
0401
cafe
341a
0000
0000
03e3
cafe
3802
0000
0000
0323
cafe
3c12
0000
0000
049a
cafe
200b
0000
0000
036b
cafe
241b
0000
0000
036f
cafe
2803
0000
0000
03c1
cafe
2c13
0000
0000
039f
cafe
300c
0000
0000
031a
cafe
341c
0000
0000
0397
cafe
3804
0000
0000
0486
cafe
3c14
0000
0000
034b
cafe
200d
0000
0000
03fb
cafe
241d
0000
0000
0473
cafe
2805
0000
0000
03af
cafe
2c15
0000
0000
0424
cafe
300e
0000
0000
042f
cafe
341e
0000
0000
03da
cafe
3806
0000
0000
03ae
cafe
3c16
0000
0000
03df
cafe
200f
0000
0000
03cd
cafe
241f
0000
0000
031e
cafe
2807
0000
0000
033e
cafe
2c17
0000
0000
033b
cafe
3008
0000
0000
0419
cafe
3418
0000
0000
0381
cafe
3800
0000
0000
03b8
cafe
3c10
0000
0000
03ff
cafe
2009
0000
0000
03a5
cafe
2419
0000
0000
03ba
cafe
2801
0000
0000
0305
cafe
2c11
0000
0000
034e
cafe
300a
0000
0000
03da
cafe
341a
0000
0000
03c0
cafe
3802
0000
0000
030a
cafe
3c12
0000
0000
0479
cafe
200b
0000
0000
034e
cafe
241b
0000
0000
0350
cafe
2803
0000
0000
039f
cafe
2c13
0000
0000
0383
cafe
300c
0000
0000
030b
cafe
341c
0000
0000
0379
cafe
3804
0000
0000
0473
cafe
3c14
0000
0000
033a
cafe
200d
0000
0000
-
03d9
cafe
241d
0000
0000
0454
cafe
2805
0000
0000
0393
cafe
2c15
0000
0000
03f8
cafe
300e
0000
0000
040b
cafe
341e
0000
0000
03ba
cafe
3806
0000
0000
037c
cafe
3c16
0000
0000
03b8
cafe
200f
0000
0000
03ab
cafe
241f
0000
0000
02fe
cafe
2807
0000
0000
031d
cafe
2c17
0000
0000
0317
cafe
3008
0000
0000
040d
cafe
3418
0000
0000
036b
cafe
3800
0000
0000
039d
cafe
3c10
0000
0000
03f6
cafe
2009
0000
0000
0397
cafe
2419
0000
0000
03a1
cafe
2801
0000
0000
02e5
cafe
2c11
0000
0000
0335
cafe
300a
0000
0000
03ad
cafe
341a
0000
0000
039b
cafe
3802
0000
0000
02e9
cafe
3c12
0000
0000
0445
cafe
200b
0000
0000
0321
cafe
241b
0000
0000
0332
cafe
2803
0000
0000
037b
cafe
2c13
0000
0000
034e
cafe
300c
0000
0000
02f3
cafe
341c
0000
0000
0357
cafe
3804
0000
0000
0450
cafe
3c14
0000
0000
031d
cafe
200d
0000
0000
03d5
cafe
241d
0000
0000
043d
cafe
2805
0000
0000
037e
cafe
2c15
0000
0000
03f0
cafe
300e
0000
0000
03f7
cafe
341e
0000
0000
039c
cafe
3806
0000
0000
0366
cafe
3c16
0000
0000
03a3
cafe
200f
0000
0000
0377
cafe
241f
0000
0000
02de
cafe
2807
0000
0000
02f3
cafe
2c17
0000
0000
02ef
cafe
3008
0000
0000
03ea
cafe
3418
0000
0000
0348
cafe
3800
0000
0000
0380
cafe
3c10
0000
0000
03d0
cafe
2009
0000
0000
0376
cafe
2419
0000
0000
037f
cafe
2801
0000
0000
02cd
cafe
2c11
0000
0000
031d
-
cafe
300a
0000
0000
039a
cafe
341a
0000
0000
0386
cafe
3802
0000
0000
02d4
cafe
3c12
0000
0000
043b
cafe
200b
0000
0000
0305
cafe
241b
0000
0000
0317
cafe
2803
0000
0000
0356
cafe
2c13
0000
0000
0336
cafe
300c
0000
0000
02bd
cafe
341c
0000
0000
033c
cafe
3804
0000
0000
0425
cafe
3c14
0000
0000
02f4
cafe
200d
0000
0000
03ab
cafe
241d
0000
0000
041e
cafe
2805
0000
0000
0359
cafe
2c15
0000
0000
03bf
cafe
300e
0000
0000
03d6
cafe
341e
0000
0000
037b
cafe
3806
0000
0000
0352
cafe
3c16
0000
0000
037d
cafe
200f
0000
0000
0369
cafe
241f
0000
0000
02bf
cafe
2807
0000
0000
02e3
cafe
2c17
0000
0000
02df
cafe
3008
0000
0000
03c0
cafe
3418
0000
0000
0329
cafe
3800
0000
0000
0363
cafe
3c10
0000
0000
03a6
cafe
2009
0000
0000
0341
cafe
2419
0000
0000
035f
cafe
2801
0000
0000
02b7
cafe
2c11
0000
0000
02f3
cafe
300a
0000
0000
0377
cafe
341a
0000
0000
035b
cafe
3802
0000
0000
02b8
cafe
3c12
0000
0000
0413
cafe
200b
0000
0000
02fd
cafe
241b
0000
0000
02fd
cafe
2803
0000
0000
0343
cafe
2c13
0000
0000
0325
cafe
300c
0000
0000
02ac
cafe
341c
0000
0000
031d
cafe
3804
0000
0000
040e
cafe
3c14
0000
0000
02e1
cafe
200d
0000
0000
0382
cafe
241d
0000
0000
0400
cafe
2805
0000
0000
0334
cafe
2c15
0000
0000
039c
cafe
300e
0000
0000
03a9
cafe
341e
0000
0000
0360
cafe
3806
0000
0000
0329
cafe
-
3c16
0000
0000
034d
cafe
200f
0000
0000
0347
cafe
241f
0000
0000
02ac
cafe
2807
0000
0000
02c5
cafe
2c17
0000
0000
02c5
cafe
3008
0000
0000
03ab
cafe
3418
0000
0000
0311
cafe
3800
0000
0000
0349
cafe
3c10
0000
0000
0395
cafe
2009
0000
0000
0332
cafe
2419
0000
0000
034a
cafe
2801
0000
0000
02a1
cafe
2c11
0000
0000
02e6
cafe
300a
0000
0000
034f
cafe
341a
0000
0000
0344
cafe
3802
0000
0000
0295
cafe
3c12
0000
0000
03e6
cafe
200b
0000
0000
02d7
cafe
241b
0000
0000
02e4
cafe
2803
0000
0000
031c
cafe
2c13
0000
0000
02f3
cafe
300c
0000
0000
028b
cafe
341c
0000
0000
02f1
cafe
3804
0000
0000
03f2
cafe
3c14
0000
0000
02c2
cafe
200d
0000
0000
0372
cafe
241d
0000
0000
03eb
cafe
2805
0000
0000
031b
cafe
2c15
0000
0000
0393
cafe
300e
0000
0000
0397
cafe
341e
0000
0000
0342
cafe
3806
0000
0000
0311
cafe
3c16
0000
0000
0341
cafe
200f
0000
0000
0320
cafe
241f
0000
0000
029a
cafe
2807
0000
0000
029d
cafe
2c17
0000
0000
02a6
cafe
3008
0000
0000
0384
cafe
3418
0000
0000
02f6
cafe
3800
0000
0000
0329
cafe
3c10
0000
0000
0366
cafe
2009
0000
0000
031c
cafe
2419
0000
0000
0321
cafe
2801
0000
0000
028a
cafe
2c11
0000
0000
02d1
cafe
300a
0000
0000
0345
cafe
341a
0000
0000
0327
cafe
3802
0000
0000
0284
cafe
3c12
0000
0000
03d9
cafe
200b
0000
0000
02b3
cafe
241b
0000
0000
02c1
cafe
2803
-
0000
0000
02fd
cafe
2c13
0000
0000
02d6
cafe
300c
0000
0000
025c
cafe
341c
0000
0000
02d7
cafe
3804
0000
0000
03c9
cafe
3c14
0000
0000
0296
cafe
200d
0000
0000
034c
cafe
241d
0000
0000
03d4
cafe
2805
0000
0000
0301
cafe
2c15
0000
0000
036f
cafe
300e
0000
0000
0384
cafe
341e
0000
0000
0321
cafe
3806
0000
0000
0300
cafe
3c16
0000
0000
032b
cafe
200f
0000
0000
0310
cafe
241f
0000
0000
0281
cafe
2807
0000
0000
0291
cafe
2c17
0000
0000
0291
cafe
3008
0000
0000
036a
cafe
3418
0000
0000
02dc
cafe
3800
0000
0000
0314
cafe
3c10
0000
0000
0345
cafe
2009
0000
0000
02f3
cafe
2419
0000
0000
0307
cafe
2801
0000
0000
026b
cafe
2c11
0000
0000
02ab
cafe
300a
0000
0000
0331
cafe
341a
0000
0000
030e
cafe
3802
0000
0000
026a
cafe
3c12
0000
0000
03bd
cafe
200b
0000
0000
02a9
cafe
241b
0000
0000
02a8
cafe
2803
0000
0000
02ed
cafe
2c13
0000
0000
02dd
cafe
300c
0000
0000
025a
cafe
341c
0000
0000
02c9
cafe
3804
0000
0000
03b3
cafe
3c14
0000
0000
0285
cafe
200d
0000
0000
0321
cafe
241d
0000
0000
03b8
cafe
2805
0000
0000
02dd
cafe
2c15
0000
0000
0350
cafe
300e
0000
0000
0357
cafe
341e
0000
0000
0308
cafe
3806
0000
0000
02df
cafe
3c16
0000
0000
030e
cafe
200f
0000
0000
0305
cafe
241f
0000
0000
0266
cafe
2807
0000
0000
0279
cafe
2c17
0000
0000
0272
cafe
3008
0000
0000
0359
cafe
3418
0000
-
0000
02ca
cafe
3800
0000
0000
02fd
cafe
3c10
0000
0000
033d
cafe
2009
0000
0000
02e0
cafe
2419
0000
0000
02ef
cafe
2801
0000
0000
025c
cafe
2c11
0000
0000
028c
cafe
300a
0000
0000
0304
cafe
341a
0000
0000
02e9
cafe
3802
0000
0000
024b
cafe
3c12
0000
0000
0396
cafe
200b
0000
0000
0287
cafe
241b
0000
0000
0292
cafe
2803
0000
0000
02ca
cafe
2c13
0000
0000
02ae
cafe
300c
0000
0000
023a
cafe
341c
0000
0000
02b4
cafe
3804
0000
0000
039c
cafe
3c14
0000
0000
0270
cafe
200d
0000
0000
031e
cafe
241d
0000
0000
039f
cafe
2805
0000
0000
02d6
cafe
2c15
0000
0000
0352
cafe
300e
0000
0000
0340
cafe
341e
0000
0000
02ed
cafe
3806
0000
0000
02c5
cafe
3c16
0000
0000
02f2
cafe
200f
0000
0000
02d9
cafe
241f
0000
0000
0247
cafe
2807
0000
0000
0254
cafe
2c17
0000
0000
0255
cafe
3008
0000
0000
0339
cafe
3418
0000
0000
02ab
cafe
3800
0000
0000
02de
cafe
3c10
0000
0000
0326
cafe
2009
0000
0000
02d1
cafe
2419
0000
0000
02e1
cafe
2801
0000
0000
024a
cafe
2c11
0000
0000
0275
cafe
300a
0000
0000
02f6
cafe
341a
0000
0000
02d7
cafe
3802
0000
0000
022d
cafe
3c12
0000
0000
0380
cafe
200b
0000
0000
0267
cafe
241b
0000
0000
027b
cafe
2803
0000
0000
02b6
cafe
2c13
0000
0000
0289
cafe
300c
0000
0000
021b
cafe
341c
0000
0000
029b
cafe
3804
0000
0000
0386
cafe
3c14
0000
0000
024b
cafe
200d
0000
0000
-
030a
cafe
241d
0000
0000
0383
cafe
2805
0000
0000
02be
cafe
2c15
0000
0000
032b
cafe
300e
0000
0000
0336
cafe
341e
0000
0000
02dd
cafe
3806
0000
0000
02b0
cafe
3c16
0000
0000
02dc
cafe
200f
0000
0000
02c5
cafe
241f
0000
0000
022f
cafe
2807
0000
0000
0241
cafe
2c17
0000
0000
0249
cafe
3008
0000
0000
031a
cafe
3418
0000
0000
0289
cafe
3800
0000
0000
02c6
cafe
3c10
0000
0000
0307
cafe
2009
0000
0000
02b1
cafe
2419
0000
0000
02c8
cafe
2801
0000
0000
022b
cafe
2c11
0000
0000
0251
cafe
300a
0000
0000
02e1
cafe
341a
0000
0000
02c2
cafe
3802
0000
0000
021a
cafe
3c12
0000
0000
036b
cafe
200b
0000
0000
025d
cafe
241b
0000
0000
0264
cafe
2803
0000
0000
02a4
cafe
2c13
0000
0000
0288
cafe
300c
0000
0000
0209
cafe
341c
0000
0000
0286
cafe
3804
0000
0000
037d
cafe
3c14
0000
0000
023f
cafe
200d
0000
0000
02e0
cafe
241d
0000
0000
036a
cafe
2805
0000
0000
02a1
cafe
2c15
0000
0000
02ff
cafe
300e
0000
0000
030a
cafe
341e
0000
0000
02bc
cafe
3806
0000
0000
028b
cafe
3c16
0000
0000
02b6
cafe
200f
0000
0000
02b9
cafe
241f
0000
0000
021e
cafe
2807
0000
0000
022d
cafe
2c17
0000
0000
0239
cafe
3008
0000
0000
0311
cafe
3418
0000
0000
027f
cafe
3800
0000
0000
02b0
cafe
3c10
0000
0000
0308
cafe
2009
0000
0000
029b
cafe
2419
0000
0000
02a9
cafe
2801
0000
0000
0213
cafe
2c11
0000
0000
0238
-
cafe
300a
0000
0000
02ba
cafe
341a
0000
0000
02ac
cafe
3802
0000
0000
01fa
cafe
3c12
0000
0000
033e
cafe
200b
0000
0000
0245
cafe
241b
0000
0000
024f
cafe
2803
0000
0000
028c
cafe
2c13
0000
0000
026d
cafe
300c
0000
0000
0201
cafe
341c
0000
0000
0273
cafe
3804
0000
0000
036e
cafe
3c14
0000
0000
0230
cafe
200d
0000
0000
02d5
cafe
241d
0000
0000
0350
cafe
2805
0000
0000
0297
cafe
2c15
0000
0000
02ff
cafe
300e
0000
0000
02f0
cafe
341e
0000
0000
02aa
cafe
3806
0000
0000
0275
cafe
3c16
0000
0000
02ac
cafe
200f
0000
0000
028f
cafe
241f
0000
0000
0206
cafe
2807
0000
0000
020d
cafe
2c17
0000
0000
020f
cafe
3008
0000
0000
02f3
cafe
3418
0000
0000
0277
cafe
3800
0000
0000
0299
cafe
3c10
0000
0000
02db
cafe
2009
0000
0000
028a
cafe
2419
0000
0000
028f
cafe
2801
0000
0000
01fe
cafe
2c11
0000
0000
0236
cafe
300a
0000
0000
02af
cafe
341a
0000
0000
029a
cafe
3802
0000
0000
01f0
cafe
3c12
0000
0000
0333
cafe
200b
0000
0000
0221
cafe
241b
0000
0000
023d
cafe
2803
0000
0000
0278
cafe
2c13
0000
0000
0254
cafe
300c
0000
0000
01d9
cafe
341c
0000
0000
025a
cafe
3804
0000
0000
0355
cafe
3c14
0000
0000
0209
cafe
200d
0000
0000
02c3
cafe
241d
0000
0000
033a
cafe
2805
0000
0000
027e
cafe
2c15
0000
0000
02e2
cafe
300e
0000
0000
02e2
cafe
341e
0000
0000
0299
cafe
3806
0000
0000
026a
cafe
-
3c16
0000
0000
02a8
cafe
200f
0000
0000
027f
cafe
241f
0000
0000
01f1
cafe
2807
0000
0000
01ef
cafe
2c17
0000
0000
0200
cafe
3008
0000
0000
02d0
cafe
3418
0000
0000
024f
cafe
3800
0000
0000
0285
cafe
3c10
0000
0000
02b5
cafe
2009
0000
0000
026c
cafe
2419
0000
0000
0270
cafe
2801
0000
0000
01e6
cafe
2c11
0000
0000
0218
cafe
300a
0000
0000
0297
cafe
341a
0000
0000
0283
cafe
3802
0000
0000
01e2
cafe
3c12
0000
0000
031f
cafe
200b
0000
0000
0217
cafe
241b
0000
0000
0231
cafe
2803
0000
0000
026d
cafe
2c13
0000
0000
0247
cafe
300c
0000
0000
01ba
cafe
341c
0000
0000
0243
cafe
3804
0000
0000
032d
cafe
3c14
0000
0000
01f6
cafe
200d
0000
0000
029d
cafe
241d
0000
0000
0323
cafe
2805
0000
0000
0262
cafe
2c15
0000
0000
02b7
cafe
300e
0000
0000
02cf
cafe
341e
0000
0000
028b
cafe
3806
0000
0000
0256
cafe
3c16
0000
0000
0297
cafe
200f
0000
0000
027b
cafe
241f
0000
0000
01e0
cafe
2807
0000
0000
01f5
cafe
2c17
0000
0000
01f8
cafe
3008
0000
0000
02d3
cafe
3418
0000
0000
0247
cafe
3800
0000
0000
0278
cafe
3c10
0000
0000
02ae
cafe
2009
0000
0000
025c
cafe
2419
0000
0000
0252
cafe
2801
0000
0000
01d9
cafe
2c11
0000
0000
0207
cafe
300a
0000
0000
0283
cafe
341a
0000
0000
0275
cafe
3802
0000
0000
01d0
cafe
3c12
0000
0000
0304
cafe
200b
0000
0000
020b
cafe
241b
0000
0000
021b
cafe
2803
-
0000
0000
025b
cafe
2c13
0000
0000
0244
cafe
300c
0000
0000
01c1
cafe
341c
0000
0000
0235
cafe
3804
0000
0000
0327
cafe
3c14
0000
0000
01fe
cafe
200d
0000
0000
0297
cafe
241d
0000
0000
0312
cafe
2805
0000
0000
0252
cafe
2c15
0000
0000
02a7
cafe
300e
0000
0000
02ad
cafe
341e
0000
0000
027d
cafe
3806
0000
0000
023b
cafe
3c16
0000
0000
027e
cafe
200f
0000
0000
0257
cafe
241f
0000
0000
01d2
cafe
2807
0000
0000
01e0
cafe
2c17
0000
0000
01e3
cafe
3008
0000
0000
02cb
cafe
3418
0000
0000
0230
cafe
3800
0000
0000
0265
cafe
3c10
0000
0000
02a5
cafe
2009
0000
0000
0258
cafe
2419
0000
0000
0259
cafe
2801
0000
0000
01d1
cafe
2c11
0000
0000
01fd
cafe
300a
0000
0000
026e
cafe
341a
0000
0000
0266
cafe
3802
0000
0000
01ba
cafe
3c12
0000
0000
02fa
cafe
200b
0000
0000
01ea
cafe
241b
0000
0000
0202
cafe
2803
0000
0000
0247
cafe
2c13
0000
0000
021f
cafe
300c
0000
0000
01b0
cafe
341c
0000
0000
0221
cafe
3804
0000
0000
0306
cafe
3c14
0000
0000
01e2
cafe
200d
0000
0000
0282
cafe
241d
0000
0000
0302
cafe
2805
0000
0000
0248
cafe
2c15
0000
0000
02a7
cafe
300e
0000
0000
02ae
cafe
341e
0000
0000
026d
cafe
3806
0000
0000
0239
cafe
3c16
0000
0000
0271
cafe
200f
0000
0000
023f
cafe
241f
0000
0000
01bd
cafe
2807
0000
0000
01cc
cafe
2c17
0000
0000
01c9
cafe
3008
0000
0000
02a1
cafe
3418
0000
-
0000
021b
cafe
3800
0000
0000
024f
cafe
3c10
0000
0000
027e
cafe
2009
0000
0000
023d
cafe
2419
0000
0000
0243
cafe
2801
0000
0000
01b6
cafe
2c11
0000
0000
01e1
cafe
300a
0000
0000
0268
cafe
341a
0000
0000
0257
cafe
3802
0000
0000
01af
cafe
3c12
0000
0000
02f0
cafe
200b
0000
0000
01e7
cafe
241b
0000
0000
01ef
cafe
2803
0000
0000
0238
cafe
2c13
0000
0000
0216
cafe
300c
0000
0000
019b
cafe
341c
0000
0000
0210
cafe
3804
0000
0000
02f2
cafe
3c14
0000
0000
01ca
cafe
200d
0000
0000
025f
cafe
241d
0000
0000
02ec
cafe
2805
0000
0000
0230
cafe
2c15
0000
0000
028b
cafe
300e
0000
0000
029e
cafe
341e
0000
0000
0268
cafe
3806
0000
0000
0229
cafe
3c16
0000
0000
0262
cafe
200f
0000
0000
0235
cafe
241f
0000
0000
01b1
cafe
2807
0000
0000
01cb
cafe
2c17
0000
0000
01c5
cafe
3008
0000
0000
0296
cafe
3418
0000
0000
0214
cafe
3800
0000
0000
0242
cafe
3c10
0000
0000
027b
cafe
2009
0000
0000
0224
cafe
2419
0000
0000
022b
cafe
2801
0000
0000
01a4
cafe
2c11
0000
0000
01c5
cafe
300a
0000
0000
024a
cafe
341a
0000
0000
0243
cafe
3802
0000
0000
019c
cafe
3c12
0000
0000
02c7
cafe
200b
0000
0000
01cd
cafe
241b
0000
0000
01e2
cafe
2803
0000
0000
022a
cafe
2c13
0000
0000
020a
cafe
300c
0000
0000
019e
cafe
341c
0000
0000
01ff
cafe
3804
0000
0000
02de
cafe
3c14
0000
0000
01c2
cafe
200d
0000
0000
-
0253
cafe
241d
0000
0000
02dd
cafe
2805
0000
0000
021d
cafe
2c15
0000
0000
0276
cafe
300e
0000
0000
0277
cafe
341e
0000
0000
0253
cafe
3806
0000
0000
020a
cafe
3c16
0000
0000
0241
cafe
200f
0000
0000
021f
cafe
241f
0000
0000
01a7
cafe
2807
0000
0000
01b4
cafe
2c17
0000
0000
01af
cafe
3008
0000
0000
028b
cafe
3418
0000
0000
020c
cafe
3800
0000
0000
0236
cafe
3c10
0000
0000
026d
cafe
2009
0000
0000
0224
cafe
2419
0000
0000
0226
cafe
2801
0000
0000
0195
cafe
2c11
0000
0000
01cb
cafe
300a
0000
0000
0239
cafe
341a
0000
0000
0225
cafe
3802
0000
0000
0190
cafe
3c12
0000
0000
02c2
cafe
200b
0000
0000
01b2
cafe
241b
0000
0000
01d6
cafe
2803
0000
0000
0216
cafe
2c13
0000
0000
01e2
cafe
300c
0000
0000
0181
cafe
341c
0000
0000
01ef
cafe
3804
0000
0000
02de
cafe
3c14
0000
0000
01b0
cafe
200d
0000
0000
0251
cafe
241d
0000
0000
02d5
cafe
2805
0000
0000
020c
cafe
2c15
0000
0000
026d
cafe
300e
0000
0000
0270
cafe
341e
0000
0000
0244
cafe
3806
0000
0000
0204
cafe
3c16
0000
0000
0234
cafe
200f
0000
0000
020d
cafe
241f
0000
0000
019c
cafe
2807
0000
0000
0191
cafe
2c17
0000
0000
01a0
cafe
3008
0000
0000
0271
cafe
3418
0000
0000
01f1
cafe
3800
0000
0000
0225
cafe
3c10
0000
0000
024f
cafe
2009
0000
0000
0213
cafe
2419
0000
0000
0219
cafe
2801
0000
0000
0189
cafe
2c11
0000
0000
01b5
-
cafe
300a
0000
0000
0233
cafe
341a
0000
0000
0219
cafe
3802
0000
0000
0185
cafe
3c12
0000
0000
02b9
cafe
200b
0000
0000
01af
cafe
241b
0000
0000
01c4
cafe
2803
0000
0000
0207
cafe
2c13
0000
0000
01e3
cafe
300c
0000
0000
015b
cafe
341c
0000
0000
01e1
cafe
3804
0000
0000
02ca
cafe
3c14
0000
0000
0193
cafe
200d
0000
0000
0237
cafe
241d
0000
0000
02cb
cafe
2805
0000
0000
01f8
cafe
2c15
0000
0000
025a
cafe
300e
0000
0000
026a
cafe
341e
0000
0000
023a
cafe
3806
0000
0000
01f4
cafe
3c16
0000
0000
0228
cafe
200f
0000
0000
0211
cafe
241f
0000
0000
0195
cafe
2807
0000
0000
0193
cafe
2c17
0000
0000
01a0
cafe
3008
0000
0000
025f
cafe
3418
0000
0000
01dd
cafe
3800
0000
0000
0217
cafe
3c10
0000
0000
023a
cafe
2009
0000
0000
01f8
cafe
2419
0000
0000
0204
cafe
2801
0000
0000
017a
cafe
2c11
0000
0000
0198
cafe
300a
0000
0000
0215
cafe
341a
0000
0000
0204
cafe
3802
0000
0000
016e
cafe
3c12
0000
0000
02a0
cafe
200b
0000
0000
01a8
cafe
241b
0000
0000
01bd
cafe
2803
0000
0000
01f5
cafe
2c13
0000
0000
01d9
cafe
300c
0000
0000
015e
cafe
341c
0000
0000
01d9
cafe
3804
0000
0000
02bd
cafe
3c14
0000
0000
0190
cafe
200d
0000
0000
021b
cafe
241d
0000
0000
02b8
cafe
2805
0000
0000
01eb
cafe
2c15
0000
0000
0247
cafe
300e
0000
0000
024d
cafe
341e
0000
0000
0229
cafe
3806
0000
0000
01de
cafe
-
