3c19
0000
0000
0192
cafe
2019
0000
0000
0198
cafe
2419
0000
0000
0198
cafe
2819
0000
0000
019a
cafe
2c19
0000
0000
0199
cafe
3019
0000
0000
0195
cafe
3419
0000
0000
0193
cafe
3819
0000
0000
0196
cafe
3c19
0000
0000
0196
cafe
2019
0000
0000
0195
cafe
2419
0000
0000
0193
cafe
2819
0000
0000
0197
cafe
2c19
0000
0000
0196
cafe
3019
0000
0000
019b
cafe
3419
0000
0000
019b
cafe
3819
0000
0000
019c
cafe
3c19
0000
0000
0196
cafe
2019
0000
0000
019a
cafe
2419
0000
0000
019a
cafe
2819
0000
0000
019a
cafe
2c19
0000
0000
0197
cafe
3019
0000
0000
019f
cafe
3419
0000
0000
0199
cafe
3819
0000
0000
019a
cafe
3c19
0000
0000
0197
cafe
2019
0000
0000
0194
cafe
2419
0000
0000
0192
cafe
2819
0000
0000
0195
cafe
2c19
0000
0000
0195
cafe
3019
0000
0000
0193
cafe
3419
0000
0000
0193
cafe
3819
0000
0000
0194
cafe
3c19
0000
0000
0194
cafe
2019
0000
0000
019a
cafe
2419
0000
0000
019d
cafe
2819
0000
0000
019b
cafe
2c19
0000
0000
01a1
cafe
3019
0000
0000
019f
cafe
3419
0000
0000
019f
cafe
3819
0000
0000
019b
cafe
3c19
0000
0000
019b
cafe
2019
0000
0000
0199
cafe
2419
0000
0000
0198
cafe
2819
0000
0000
0198
cafe
2c19
0000
0000
019a
cafe
3019
0000
0000
019a
cafe
3419
0000
0000
019a
cafe
3819
0000
0000
019a
cafe
3c19
0000
0000
0199
cafe
2019
0000
0000
0199
cafe
2419
0000
0000
0195
cafe
2819
-
0000
0000
0195
cafe
2c19
0000
0000
0193
cafe
3019
0000
0000
0199
cafe
3419
0000
0000
019a
cafe
3819
0000
0000
0199
cafe
3c19
0000
0000
0196
cafe
2019
0000
0000
019c
cafe
2419
0000
0000
0199
cafe
2819
0000
0000
019c
cafe
2c19
0000
0000
019a
cafe
3019
0000
0000
0199
cafe
3419
0000
0000
0197
cafe
3819
0000
0000
019a
cafe
3c19
0000
0000
019d
cafe
2019
0000
0000
0199
cafe
2419
0000
0000
0198
cafe
2819
0000
0000
0197
cafe
2c19
0000
0000
019c
cafe
3019
0000
0000
0197
cafe
3419
0000
0000
0193
cafe
3819
0000
0000
0194
cafe
3c19
0000
0000
0198
cafe
2019
0000
0000
0195
cafe
2419
0000
0000
019b
cafe
2819
0000
0000
019c
cafe
2c19
0000
0000
019a
cafe
3019
0000
0000
0198
cafe
3419
0000
0000
019a
cafe
3819
0000
0000
019e
cafe
3c19
0000
0000
019e
cafe
2019
0000
0000
019a
cafe
2419
0000
0000
01a0
cafe
2819
0000
0000
019d
cafe
2c19
0000
0000
019c
cafe
3019
0000
0000
019a
cafe
3419
0000
0000
019d
cafe
3819
0000
0000
019d
cafe
3c19
0000
0000
0198
cafe
2019
0000
0000
019b
cafe
2419
0000
0000
0196
cafe
2819
0000
0000
0199
cafe
2c19
0000
0000
0199
cafe
3019
0000
0000
019b
cafe
3419
0000
0000
019b
cafe
3819
0000
0000
019a
cafe
3c19
0000
0000
0199
cafe
2019
0000
0000
0198
cafe
2419
0000
0000
019c
cafe
2819
0000
0000
0192
cafe
2c19
0000
0000
018f
cafe
3019
0000
0000
0196
cafe
3419
0000
-
0000
019a
cafe
3819
0000
0000
0199
cafe
3c19
0000
0000
0194
cafe
2019
0000
0000
0197
cafe
2419
0000
0000
0199
cafe
2819
0000
0000
019b
cafe
2c19
0000
0000
019a
cafe
3019
0000
0000
019a
cafe
3419
0000
0000
019c
cafe
3819
0000
0000
0194
cafe
3c19
0000
0000
0197
cafe
2019
0000
0000
0198
cafe
2419
0000
0000
019b
cafe
2819
0000
0000
019b
cafe
2c19
0000
0000
019b
cafe
3019
0000
0000
019f
cafe
3419
0000
0000
019c
cafe
3819
0000
0000
019c
cafe
3c19
0000
0000
0195
cafe
2019
0000
0000
0196
cafe
2419
0000
0000
0199
cafe
2819
0000
0000
0195
cafe
2c19
0000
0000
0192
cafe
3019
0000
0000
0197
cafe
3419
0000
0000
019f
cafe
3819
0000
0000
019d
cafe
3c19
0000
0000
019b
cafe
2019
0000
0000
019f
cafe
2419
0000
0000
019d
cafe
2819
0000
0000
01a2
cafe
2c19
0000
0000
0199
cafe
3019
0000
0000
019c
cafe
3419
0000
0000
019c
cafe
3819
0000
0000
019c
cafe
3c19
0000
0000
019a
cafe
2019
0000
0000
0196
cafe
2419
0000
0000
0197
cafe
2819
0000
0000
0194
cafe
2c19
0000
0000
0195
cafe
3019
0000
0000
0195
cafe
3419
0000
0000
0197
cafe
3819
0000
0000
0195
cafe
3c19
0000
0000
0197
cafe
2019
0000
0000
0193
cafe
2419
0000
0000
0196
cafe
2819
0000
0000
0197
cafe
2c19
0000
0000
0196
cafe
3019
0000
0000
0198
cafe
3419
0000
0000
0190
cafe
3819
0000
0000
0192
cafe
3c19
0000
0000
0192
cafe
2019
0000
0000
-
0195
cafe
2419
0000
0000
0196
cafe
2819
0000
0000
0198
cafe
2c19
0000
0000
0194
cafe
3019
0000
0000
0198
cafe
3419
0000
0000
0198
cafe
3819
0000
0000
0198
cafe
3c19
0000
0000
019b
cafe
2019
0000
0000
0199
cafe
2419
0000
0000
019a
cafe
2819
0000
0000
019c
cafe
2c19
0000
0000
0199
cafe
3019
0000
0000
0195
cafe
3419
0000
0000
0198
cafe
3819
0000
0000
019b
cafe
3c19
0000
0000
0198
cafe
2019
0000
0000
019a
cafe
2419
0000
0000
019b
cafe
2819
0000
0000
01a3
cafe
2c19
0000
0000
019f
cafe
3019
0000
0000
019b
cafe
3419
0000
0000
01a0
cafe
3819
0000
0000
019c
cafe
3c19
0000
0000
019f
cafe
2019
0000
0000
0199
cafe
2419
0000
0000
01a1
cafe
2819
0000
0000
019c
cafe
2c19
0000
0000
01a4
cafe
3019
0000
0000
01a3
cafe
3419
0000
0000
019d
cafe
3819
0000
0000
019c
cafe
3c19
0000
0000
019d
cafe
2019
0000
0000
01a2
cafe
2419
0000
0000
019f
cafe
2819
0000
0000
019a
cafe
2c19
0000
0000
019d
cafe
3019
0000
0000
0195
cafe
3419
0000
0000
0197
cafe
3819
0000
0000
0195
cafe
3c19
0000
0000
0199
cafe
2019
0000
0000
0198
cafe
2419
0000
0000
0194
cafe
2819
0000
0000
0193
cafe
2c19
0000
0000
0193
cafe
3019
0000
0000
0198
cafe
3419
0000
0000
0196
cafe
3819
0000
0000
0196
cafe
3c19
0000
0000
0197
cafe
2019
0000
0000
019a
cafe
2419
0000
0000
0198
cafe
2819
0000
0000
0197
cafe
2c19
0000
0000
0194
-
cafe
3019
0000
0000
0196
cafe
3419
0000
0000
0196
cafe
3819
0000
0000
0199
cafe
3c19
0000
0000
019b
cafe
2019
0000
0000
019a
cafe
2419
0000
0000
019b
cafe
2819
0000
0000
019a
cafe
2c19
0000
0000
0193
cafe
3019
0000
0000
0190
cafe
3419
0000
0000
0191
cafe
3819
0000
0000
0194
cafe
3c19
0000
0000
0194
cafe
2019
0000
0000
018d
cafe
2419
0000
0000
0192
cafe
2819
0000
0000
0192
cafe
2c19
0000
0000
0193
cafe
3019
0000
0000
0198
cafe
3419
0000
0000
0196
cafe
3819
0000
0000
0199
cafe
3c19
0000
0000
0197
cafe
2019
0000
0000
0193
cafe
2419
0000
0000
0193
cafe
2819
0000
0000
0198
cafe
2c19
0000
0000
0198
cafe
3019
0000
0000
019b
cafe
3419
0000
0000
0196
cafe
3819
0000
0000
0191
cafe
3c19
0000
0000
0195
cafe
2019
0000
0000
0197
cafe
2419
0000
0000
0194
cafe
2819
0000
0000
0197
cafe
2c19
0000
0000
0194
cafe
3019
0000
0000
0199
cafe
3419
0000
0000
0197
cafe
3819
0000
0000
0198
cafe
3c19
0000
0000
019e
cafe
2019
0000
0000
019a
cafe
2419
0000
0000
0196
cafe
2819
0000
0000
019a
cafe
2c19
0000
0000
0199
cafe
3019
0000
0000
0197
cafe
3419
0000
0000
0195
cafe
3819
0000
0000
0192
cafe
3c19
0000
0000
0199
cafe
2019
0000
0000
0195
cafe
2419
0000
0000
0194
cafe
2819
0000
0000
018f
cafe
2c19
0000
0000
018f
cafe
3019
0000
0000
0194
cafe
3419
0000
0000
0190
cafe
3819
0000
0000
0190
cafe
-
3c19
0000
0000
0192
cafe
2019
0000
0000
0196
cafe
2419
0000
0000
0195
cafe
2819
0000
0000
0194
cafe
2c19
0000
0000
0196
cafe
3019
0000
0000
019b
cafe
3419
0000
0000
019c
cafe
3819
0000
0000
019f
cafe
3c19
0000
0000
01a1
cafe
2019
0000
0000
01a6
cafe
2419
0000
0000
01a2
cafe
2819
0000
0000
01a0
cafe
2c19
0000
0000
01a5
cafe
3019
0000
0000
019e
cafe
3419
0000
0000
01a1
cafe
3819
0000
0000
019e
cafe
3c19
0000
0000
0196
cafe
2019
0000
0000
0199
cafe
2419
0000
0000
01a0
cafe
2819
0000
0000
0199
cafe
2c19
0000
0000
0198
cafe
3019
0000
0000
0196
cafe
3419
0000
0000
0193
cafe
3819
0000
0000
0191
cafe
3c19
0000
0000
0195
cafe
2019
0000
0000
0193
cafe
2419
0000
0000
0191
cafe
2819
0000
0000
0193
cafe
2c19
0000
0000
0199
cafe
3019
0000
0000
018f
cafe
3419
0000
0000
0197
cafe
3819
0000
0000
0196
cafe
3c19
0000
0000
019c
cafe
2019
0000
0000
019f
cafe
2419
0000
0000
019f
cafe
2819
0000
0000
0199
cafe
2c19
0000
0000
0197
cafe
3019
0000
0000
0196
cafe
3419
0000
0000
0195
cafe
3819
0000
0000
0195
cafe
3c19
0000
0000
0195
cafe
2019
0000
0000
0194
cafe
2419
0000
0000
0193
cafe
2819
0000
0000
0193
cafe
2c19
0000
0000
0193
cafe
3019
0000
0000
0195
cafe
3419
0000
0000
0194
cafe
3819
0000
0000
019c
cafe
3c19
0000
0000
0199
cafe
2019
0000
0000
0194
cafe
2419
0000
0000
0191
cafe
2819
-
0000
0000
019c
cafe
2c19
0000
0000
0199
cafe
3019
0000
0000
019b
cafe
3419
0000
0000
019c
cafe
3819
0000
0000
019b
cafe
3c19
0000
0000
0194
cafe
2019
0000
0000
0194
cafe
2419
0000
0000
0197
cafe
2819
0000
0000
0194
cafe
2c19
0000
0000
0198
cafe
3019
0000
0000
0196
cafe
3419
0000
0000
0193
cafe
3819
0000
0000
0195
cafe
3c19
0000
0000
0193
cafe
2019
0000
0000
0197
cafe
2419
0000
0000
0196
cafe
2819
0000
0000
019e
cafe
2c19
0000
0000
0197
cafe
3019
0000
0000
019b
cafe
3419
0000
0000
0199
cafe
3819
0000
0000
019a
cafe
3c19
0000
0000
0199
cafe
2019
0000
0000
01a1
cafe
2419
0000
0000
019e
cafe
2819
0000
0000
019a
cafe
2c19
0000
0000
019b
cafe
3019
0000
0000
019a
cafe
3419
0000
0000
019c
cafe
3819
0000
0000
0196
cafe
3c19
0000
0000
0196
cafe
2019
0000
0000
0194
cafe
2419
0000
0000
0193
cafe
2819
0000
0000
0199
cafe
2c19
0000
0000
0199
cafe
3019
0000
0000
0196
cafe
3419
0000
0000
019b
cafe
3819
0000
0000
019f
cafe
3c19
0000
0000
019f
cafe
2019
0000
0000
0199
cafe
2419
0000
0000
019a
cafe
2819
0000
0000
019d
cafe
2c19
0000
0000
019a
cafe
3019
0000
0000
019f
cafe
3419
0000
0000
019a
cafe
3819
0000
0000
019c
cafe
3c19
0000
0000
0198
cafe
2019
0000
0000
019d
cafe
2419
0000
0000
0196
cafe
2819
0000
0000
0192
cafe
2c19
0000
0000
0193
cafe
3019
0000
0000
0198
cafe
3419
0000
-
0000
0192
cafe
3819
0000
0000
0191
cafe
3c19
0000
0000
018f
cafe
2019
0000
0000
018f
cafe
2419
0000
0000
0193
cafe
2819
0000
0000
018f
cafe
2c19
0000
0000
0191
cafe
3019
0000
0000
018e
cafe
3419
0000
0000
018d
cafe
3819
0000
0000
018b
cafe
3c19
0000
0000
0190
cafe
2019
0000
0000
0192
cafe
2419
0000
0000
019c
cafe
2819
0000
0000
0197
cafe
2c19
0000
0000
0199
cafe
3019
0000
0000
019c
cafe
3419
0000
0000
0193
cafe
3819
0000
0000
019d
cafe
3c19
0000
0000
0199
cafe
2019
0000
0000
0195
cafe
2419
0000
0000
0191
cafe
2819
0000
0000
0190
cafe
2c19
0000
0000
018f
cafe
3019
0000
0000
0194
cafe
3419
0000
0000
0193
cafe
3819
0000
0000
0191
cafe
3c19
0000
0000
0197
cafe
2019
0000
0000
0192
cafe
2419
0000
0000
019b
cafe
2819
0000
0000
019d
cafe
2c19
0000
0000
019d
cafe
3019
0000
0000
019b
cafe
3419
0000
0000
019b
cafe
3819
0000
0000
0199
cafe
3c19
0000
0000
019b
cafe
2019
0000
0000
019b
cafe
2419
0000
0000
0198
cafe
2819
0000
0000
0197
cafe
2c19
0000
0000
0198
cafe
3019
0000
0000
0197
cafe
3419
0000
0000
0198
cafe
3819
0000
0000
019d
cafe
3c19
0000
0000
0198
cafe
2019
0000
0000
0190
cafe
2419
0000
0000
0199
cafe
2819
0000
0000
0199
cafe
2c19
0000
0000
019a
cafe
3019
0000
0000
0198
cafe
3419
0000
0000
019b
cafe
3819
0000
0000
0191
cafe
3c19
0000
0000
0194
cafe
2019
0000
0000
-
0191
cafe
2419
0000
0000
0193
cafe
2819
0000
0000
0197
cafe
2c19
0000
0000
019b
cafe
3019
0000
0000
0198
cafe
3419
0000
0000
019b
cafe
3819
0000
0000
0199
cafe
3c19
0000
0000
0194
cafe
2019
0000
0000
019a
cafe
2419
0000
0000
019e
cafe
2819
0000
0000
019a
cafe
2c19
0000
0000
019c
cafe
3019
0000
0000
0199
cafe
3419
0000
0000
0197
cafe
3819
0000
0000
0196
cafe
3c19
0000
0000
0193
cafe
2019
0000
0000
018d
cafe
2419
0000
0000
0191
cafe
2819
0000
0000
018d
cafe
2c19
0000
0000
018e
cafe
3019
0000
0000
0194
cafe
3419
0000
0000
0194
cafe
3819
0000
0000
0193
cafe
3c19
0000
0000
0191
cafe
2019
0000
0000
0193
cafe
2419
0000
0000
0191
cafe
2819
0000
0000
0193
cafe
2c19
0000
0000
018e
cafe
3019
0000
0000
0190
cafe
3419
0000
0000
0196
cafe
3819
0000
0000
0195
cafe
3c19
0000
0000
018f
cafe
2019
0000
0000
0194
cafe
2419
0000
0000
0191
cafe
2819
0000
0000
018f
cafe
2c19
0000
0000
0194
cafe
3019
0000
0000
0195
cafe
3419
0000
0000
0194
cafe
3819
0000
0000
0195
cafe
3c19
0000
0000
0196
cafe
2019
0000
0000
0197
cafe
2419
0000
0000
0195
cafe
2819
0000
0000
0195
cafe
2c19
0000
0000
0198
cafe
3019
0000
0000
0192
cafe
3419
0000
0000
0192
cafe
3819
0000
0000
0194
cafe
3c19
0000
0000
0195
cafe
2019
0000
0000
0191
cafe
2419
0000
0000
018c
cafe
2819
0000
0000
018d
cafe
2c19
0000
0000
0191
-
cafe
3019
0000
0000
018f
cafe
3419
0000
0000
0191
cafe
3819
0000
0000
018f
cafe
3c19
0000
0000
018e
cafe
2019
0000
0000
0191
cafe
2419
0000
0000
0191
cafe
2819
0000
0000
0190
cafe
2c19
0000
0000
0191
cafe
3019
0000
0000
0197
cafe
3419
0000
0000
0194
cafe
3819
0000
0000
0190
cafe
3c19
0000
0000
0196
cafe
2019
0000
0000
019b
cafe
2419
0000
0000
0198
cafe
2819
0000
0000
0197
cafe
2c19
0000
0000
0199
cafe
3019
0000
0000
0193
cafe
3419
0000
0000
0193
cafe
3819
0000
0000
019b
cafe
3c19
0000
0000
0199
cafe
2019
0000
0000
0194
cafe
2419
0000
0000
0196
cafe
2819
0000
0000
0198
cafe
2c19
0000
0000
0197
cafe
3019
0000
0000
0197
cafe
3419
0000
0000
0198
cafe
3819
0000
0000
0197
cafe
3c19
0000
0000
0194
cafe
2019
0000
0000
0193
cafe
2419
0000
0000
0196
cafe
2819
0000
0000
0198
cafe
2c19
0000
0000
019a
cafe
3019
0000
0000
019a
cafe
3419
0000
0000
01a0
cafe
3819
0000
0000
01a0
cafe
3c19
0000
0000
019d
cafe
2019
0000
0000
019a
cafe
2419
0000
0000
019e
cafe
2819
0000
0000
019d
cafe
2c19
0000
0000
019d
cafe
3019
0000
0000
019d
cafe
3419
0000
0000
019a
cafe
3819
0000
0000
0194
cafe
3c19
0000
0000
0192
cafe
2019
0000
0000
0194
cafe
2419
0000
0000
0194
cafe
2819
0000
0000
018f
cafe
2c19
0000
0000
0192
cafe
3019
0000
0000
0192
cafe
3419
0000
0000
0195
cafe
3819
0000
0000
0190
cafe
-
3c19
0000
0000
0195
cafe
2019
0000
0000
0192
cafe
2419
0000
0000
0197
cafe
2819
0000
0000
0195
cafe
2c19
0000
0000
019e
cafe
3019
0000
0000
019e
cafe
3419
0000
0000
0196
cafe
3819
0000
0000
019a
cafe
3c19
0000
0000
0196
cafe
2019
0000
0000
0196
cafe
2419
0000
0000
019a
cafe
2819
0000
0000
0193
cafe
2c19
0000
0000
0192
cafe
3019
0000
0000
018f
cafe
3419
0000
0000
018e
cafe
3819
0000
0000
0191
cafe
3c19
0000
0000
0195
cafe
2019
0000
0000
0193
cafe
2419
0000
0000
0198
cafe
2819
0000
0000
0194
cafe
2c19
0000
0000
0194
cafe
3019
0000
0000
0198
cafe
3419
0000
0000
019b
cafe
3819
0000
0000
0198
cafe
3c19
0000
0000
0198
cafe
2019
0000
0000
0199
cafe
2419
0000
0000
0198
cafe
2819
0000
0000
0198
cafe
2c19
0000
0000
0194
cafe
3019
0000
0000
0194
cafe
3419
0000
0000
0194
cafe
3819
0000
0000
0197
cafe
3c19
0000
0000
0199
cafe
2019
0000
0000
0192
cafe
2419
0000
0000
0192
cafe
2819
0000
0000
018d
cafe
2c19
0000
0000
0193
cafe
3019
0000
0000
0191
cafe
3419
0000
0000
0191
cafe
3819
0000
0000
0199
cafe
3c19
0000
0000
019b
cafe
2019
0000
0000
019a
cafe
2419
0000
0000
0196
cafe
2819
0000
0000
0198
cafe
2c19
0000
0000
0199
cafe
3019
0000
0000
0190
cafe
3419
0000
0000
0199
cafe
3819
0000
0000
0193
cafe
3c19
0000
0000
019c
cafe
2019
0000
0000
0199
cafe
2419
0000
0000
019f
cafe
2819
-
0000
0000
019e
cafe
2c19
0000
0000
019d
cafe
3019
0000
0000
019a
cafe
3419
0000
0000
019b
cafe
3819
0000
0000
019d
cafe
3c19
0000
0000
01a1
cafe
2019
0000
0000
019f
cafe
2419
0000
0000
0199
cafe
2819
0000
0000
019d
cafe
2c19
0000
0000
01a1
cafe
3019
0000
0000
019e
cafe
3419
0000
0000
019d
cafe
3819
0000
0000
019f
cafe
3c19
0000
0000
01a6
cafe
2019
0000
0000
01a2
cafe
2419
0000
0000
01a5
cafe
2819
0000
0000
019b
cafe
2c19
0000
0000
019d
cafe
3019
0000
0000
019e
cafe
3419
0000
0000
01a1
cafe
3819
0000
0000
01a3
cafe
3c19
0000
0000
01a1
cafe
2019
0000
0000
01a2
cafe
2419
0000
0000
019c
cafe
2819
0000
0000
019d
cafe
2c19
0000
0000
019d
cafe
3019
0000
0000
019a
cafe
3419
0000
0000
019c
cafe
3819
0000
0000
0199
cafe
3c19
0000
0000
019c
cafe
2019
0000
0000
0199
cafe
2419
0000
0000
0198
cafe
2819
0000
0000
019a
cafe
2c19
0000
0000
0197
cafe
3019
0000
0000
019b
cafe
3419
0000
0000
019d
cafe
3819
0000
0000
0199
cafe
3c19
0000
0000
0198
cafe
2019
0000
0000
0198
cafe
2419
0000
0000
0198
cafe
2819
0000
0000
0197
cafe
2c19
0000
0000
0190
cafe
3019
0000
0000
0197
cafe
3419
0000
0000
0194
cafe
3819
0000
0000
019b
cafe
3c19
0000
0000
0194
cafe
2019
0000
0000
0193
cafe
2419
0000
0000
0193
cafe
2819
0000
0000
019d
cafe
2c19
0000
0000
019a
cafe
3019
0000
0000
019a
cafe
3419
0000
-
0000
0197
cafe
3819
0000
0000
0194
cafe
3c19
0000
0000
0199
cafe
2019
0000
0000
0194
cafe
2419
0000
0000
019a
cafe
2819
0000
0000
0193
cafe
2c19
0000
0000
0198
cafe
3019
0000
0000
0195
cafe
3419
0000
0000
0198
cafe
3819
0000
0000
0199
cafe
3c19
0000
0000
019a
cafe
2019
0000
0000
0192
cafe
2419
0000
0000
0193
cafe
2819
0000
0000
0193
cafe
2c19
0000
0000
0194
cafe
3019
0000
0000
0197
cafe
3419
0000
0000
0192
cafe
3819
0000
0000
0192
cafe
3c19
0000
0000
018e
cafe
2019
0000
0000
018f
cafe
2419
0000
0000
0192
cafe
2819
0000
0000
0190
cafe
2c19
0000
0000
018d
cafe
3019
0000
0000
0191
cafe
3419
0000
0000
0195
cafe
3819
0000
0000
0197
cafe
3c19
0000
0000
0194
cafe
2019
0000
0000
0199
cafe
2419
0000
0000
019d
cafe
2819
0000
0000
01a4
cafe
2c19
0000
0000
01a0
cafe
3019
0000
0000
019f
cafe
3419
0000
0000
019d
cafe
3819
0000
0000
01a3
cafe
3c19
0000
0000
01a5
cafe
2019
0000
0000
01a4
cafe
2419
0000
0000
019b
cafe
2819
0000
0000
01a1
cafe
2c19
0000
0000
019d
cafe
3019
0000
0000
0196
cafe
3419
0000
0000
0196
cafe
3819
0000
0000
0196
cafe
3c19
0000
0000
0198
cafe
2019
0000
0000
0192
cafe
2419
0000
0000
0195
cafe
2819
0000
0000
0192
cafe
2c19
0000
0000
0196
cafe
3019
0000
0000
0196
cafe
3419
0000
0000
0192
cafe
3819
0000
0000
0198
cafe
3c19
0000
0000
0191
cafe
2019
0000
0000
-
0196
cafe
2419
0000
0000
0196
cafe
2819
0000
0000
0194
cafe
2c19
0000
0000
0193
cafe
3019
0000
0000
0191
cafe
3419
0000
0000
0195
cafe
3819
0000
0000
019b
cafe
3c19
0000
0000
0199
cafe
2019
0000
0000
0199
cafe
2419
0000
0000
019a
cafe
2819
0000
0000
019c
cafe
2c19
0000
0000
01a3
cafe
3019
0000
0000
019d
cafe
3419
0000
0000
019e
cafe
3819
0000
0000
0199
cafe
3c19
0000
0000
019a
cafe
2019
0000
0000
019a
cafe
2419
0000
0000
019c
cafe
2819
0000
0000
01a0
cafe
2c19
0000
0000
019a
cafe
3019
0000
0000
0199
cafe
3419
0000
0000
019c
cafe
3819
0000
0000
0198
cafe
3c19
0000
0000
0199
cafe
2019
0000
0000
019a
cafe
2419
0000
0000
019b
cafe
2819
0000
0000
019d
cafe
2c19
0000
0000
019e
cafe
3019
0000
0000
0198
cafe
3419
0000
0000
0199
cafe
3819
0000
0000
019d
cafe
3c19
0000
0000
0198
cafe
2019
0000
0000
0195
cafe
2419
0000
0000
0198
cafe
2819
0000
0000
0198
cafe
2c19
0000
0000
0193
cafe
3019
0000
0000
0196
cafe
3419
0000
0000
0198
cafe
3819
0000
0000
0198
cafe
3c19
0000
0000
019d
cafe
2019
0000
0000
019b
cafe
2419
0000
0000
019a
cafe
2819
0000
0000
019c
cafe
2c19
0000
0000
019d
cafe
3019
0000
0000
01a4
cafe
3419
0000
0000
019a
cafe
3819
0000
0000
019e
cafe
3c19
0000
0000
019e
cafe
2019
0000
0000
019d
cafe
2419
0000
0000
0195
cafe
2819
0000
0000
019c
cafe
2c19
0000
0000
0198
-
cafe
3019
0000
0000
019a
cafe
3419
0000
0000
0195
cafe
3819
0000
0000
0198
cafe
3c19
0000
0000
019a
cafe
2019
0000
0000
019a
cafe
2419
0000
0000
0193
cafe
2819
0000
0000
0192
cafe
2c19
0000
0000
0192
cafe
3019
0000
0000
0196
cafe
3419
0000
0000
0193
cafe
3819
0000
0000
0195
cafe
3c19
0000
0000
019a
cafe
2019
0000
0000
0193
cafe
2419
0000
0000
018f
cafe
2819
0000
0000
0196
cafe
2c19
0000
0000
0199
cafe
3019
0000
0000
019b
cafe
3419
0000
0000
0195
cafe
3819
0000
0000
019b
cafe
3c19
0000
0000
0195
cafe
2019
0000
0000
019e
cafe
2419
0000
0000
019c
cafe
2819
0000
0000
019e
cafe
2c19
0000
0000
01a0
cafe
3019
0000
0000
01a2
cafe
3419
0000
0000
019f
cafe
3819
0000
0000
01a1
cafe
3c19
0000
0000
01a3
cafe
2019
0000
0000
019f
cafe
2419
0000
0000
019d
cafe
2819
0000
0000
019a
cafe
2c19
0000
0000
019c
cafe
3019
0000
0000
0199
cafe
3419
0000
0000
019f
cafe
3819
0000
0000
019b
cafe
3c19
0000
0000
019a
cafe
2019
0000
0000
0194
cafe
2419
0000
0000
0194
cafe
2819
0000
0000
0197
cafe
2c19
0000
0000
0195
cafe
3019
0000
0000
0193
cafe
3419
0000
0000
0191
cafe
3819
0000
0000
0195
cafe
3c19
0000
0000
0198
cafe
2019
0000
0000
0192
cafe
2419
0000
0000
0190
cafe
2819
0000
0000
0194
cafe
2c19
0000
0000
0194
cafe
3019
0000
0000
0195
cafe
3419
0000
0000
019a
cafe
3819
0000
0000
019b
cafe
-
3c19
0000
0000
019c
cafe
2019
0000
0000
01a2
cafe
2419
0000
0000
019f
cafe
2819
0000
0000
019f
cafe
2c19
0000
0000
019b
cafe
3019
0000
0000
019a
cafe
3419
0000
0000
019e
cafe
3819
0000
0000
0199
cafe
3c19
0000
0000
019a
cafe
2019
0000
0000
019b
cafe
2419
0000
0000
019b
cafe
2819
0000
0000
0191
cafe
2c19
0000
0000
0196
cafe
3019
0000
0000
0197
cafe
3419
0000
0000
0196
cafe
3819
0000
0000
0199
cafe
3c19
0000
0000
0194
cafe
2019
0000
0000
0199
cafe
2419
0000
0000
0194
cafe
2819
0000
0000
0197
cafe
2c19
0000
0000
019a
cafe
3019
0000
0000
0199
cafe
3419
0000
0000
019b
cafe
3819
0000
0000
019c
cafe
3c19
0000
0000
0199
cafe
2019
0000
0000
019a
cafe
2419
0000
0000
0194
cafe
2819
0000
0000
0199
cafe
2c19
0000
0000
0197
cafe
3019
0000
0000
019f
cafe
3419
0000
0000
019f
cafe
3819
0000
0000
01a7
cafe
3c19
0000
0000
01a2
cafe
2019
0000
0000
01a2
cafe
2419
0000
0000
01a0
cafe
2819
0000
0000
019c
cafe
2c19
0000
0000
01a5
cafe
3019
0000
0000
01a2
cafe
3419
0000
0000
019d
cafe
3819
0000
0000
019f
cafe
3c19
0000
0000
019d
cafe
2019
0000
0000
019a
cafe
2419
0000
0000
0198
cafe
2819
0000
0000
019b
cafe
2c19
0000
0000
0197
cafe
3019
0000
0000
0198
cafe
3419
0000
0000
019f
cafe
3819
0000
0000
01a1
cafe
3c19
0000
0000
019d
cafe
2019
0000
0000
019c
cafe
2419
0000
0000
019c
cafe
2819
-
0000
0000
019b
cafe
2c19
0000
0000
0195
cafe
3019
0000
0000
0195
cafe
3419
0000
0000
0199
cafe
3819
0000
0000
0191
cafe
3c19
0000
0000
0195
cafe
2019
0000
0000
0198
cafe
2419
0000
0000
0195
cafe
2819
0000
0000
0198
cafe
2c19
0000
0000
019c
cafe
3019
0000
0000
0196
cafe
3419
0000
0000
019d
cafe
3819
0000
0000
019b
cafe
3c19
0000
0000
019a
cafe
2019
0000
0000
019b
cafe
2419
0000
0000
0198
cafe
2819
0000
0000
0197
cafe
2c19
0000
0000
0199
cafe
3019
0000
0000
0197
cafe
3419
0000
0000
0199
cafe
3819
0000
0000
0192
cafe
3c19
0000
0000
0197
cafe
2019
0000
0000
0196
cafe
2419
0000
0000
0191
cafe
2819
0000
0000
0192
cafe
2c19
0000
0000
0192
cafe
3019
0000
0000
0193
cafe
3419
0000
0000
0197
cafe
3819
0000
0000
0197
cafe
3c19
0000
0000
0192
cafe
2019
0000
0000
0195
cafe
2419
0000
0000
0197
cafe
2819
0000
0000
019b
cafe
2c19
0000
0000
019a
cafe
3019
0000
0000
019a
cafe
3419
0000
0000
0193
cafe
3819
0000
0000
0198
cafe
3c19
0000
0000
0198
cafe
2019
0000
0000
0194
cafe
2419
0000
0000
019d
cafe
2819
0000
0000
019b
cafe
2c19
0000
0000
0194
cafe
3019
0000
0000
019c
cafe
3419
0000
0000
0196
cafe
3819
0000
0000
0198
cafe
3c19
0000
0000
0193
cafe
2019
0000
0000
0199
cafe
2419
0000
0000
0198
cafe
2819
0000
0000
0195
cafe
2c19
0000
0000
0192
cafe
3019
0000
0000
0192
cafe
3419
0000
-
0000
0196
cafe
3819
0000
0000
019c
cafe
3c19
0000
0000
019b
cafe
2019
0000
0000
019b
cafe
2419
0000
0000
0197
cafe
2819
0000
0000
019b
cafe
2c19
0000
0000
019d
cafe
3019
0000
0000
019d
cafe
3419
0000
0000
019e
cafe
3819
0000
0000
019f
cafe
3c19
0000
0000
019b
cafe
2019
0000
0000
0198
cafe
2419
0000
0000
0199
cafe
2819
0000
0000
0198
cafe
2c19
0000
0000
019a
cafe
3019
0000
0000
019b
cafe
3419
0000
0000
0195
cafe
3819
0000
0000
0197
cafe
3c19
0000
0000
0195
cafe
2019
0000
0000
0196
cafe
2419
0000
0000
0199
cafe
2819
0000
0000
019d
cafe
2c19
0000
0000
019b
cafe
3019
0000
0000
019c
cafe
3419
0000
0000
019a
cafe
3819
0000
0000
0198
cafe
3c19
0000
0000
0198
cafe
2019
0000
0000
019a
cafe
2419
0000
0000
0198
cafe
2819
0000
0000
0197
cafe
2c19
0000
0000
0191
cafe
3019
0000
0000
0199
cafe
3419
0000
0000
0196
cafe
3819
0000
0000
0198
cafe
3c19
0000
0000
019c
cafe
2019
0000
0000
0198
cafe
2419
0000
0000
0196
cafe
2819
0000
0000
0199
cafe
2c19
0000
0000
0197
cafe
3019
0000
0000
0198
cafe
3419
0000
0000
019a
cafe
3819
0000
0000
0192
cafe
3c19
0000
0000
0195
cafe
2019
0000
0000
0192
cafe
2419
0000
0000
0197
cafe
2819
0000
0000
0196
cafe
2c19
0000
0000
0197
cafe
3019
0000
0000
0197
cafe
3419
0000
0000
0196
cafe
3819
0000
0000
0193
cafe
3c19
0000
0000
0192
cafe
2019
0000
0000
-
0195
cafe
2419
0000
0000
0194
cafe
2819
0000
0000
0198
cafe
2c19
0000
0000
018f
cafe
3019
0000
0000
0194
cafe
3419
0000
0000
0195
cafe
3819
0000
0000
0194
cafe
3c19
0000
0000
0190
cafe
2019
0000
0000
0199
cafe
2419
0000
0000
0195
cafe
2819
0000
0000
0195
cafe
2c19
0000
0000
0196
cafe
3019
0000
0000
0192
cafe
3419
0000
0000
0197
cafe
3819
0000
0000
0194
cafe
3c19
0000
0000
0194
cafe
2019
0000
0000
0190
cafe
2419
0000
0000
0191
cafe
2819
0000
0000
0196
cafe
2c19
0000
0000
0194
cafe
3019
0000
0000
0191
cafe
3419
0000
0000
0195
cafe
3819
0000
0000
0195
cafe
3c19
0000
0000
0199
cafe
2019
0000
0000
0193
cafe
2419
0000
0000
0196
cafe
2819
0000
0000
0193
cafe
2c19
0000
0000
0193
cafe
3019
0000
0000
0191
cafe
3419
0000
0000
0193
cafe
3819
0000
0000
0194
cafe
3c19
0000
0000
0196
cafe
2019
0000
0000
019b
cafe
2419
0000
0000
019a
cafe
2819
0000
0000
019b
cafe
2c19
0000
0000
019d
cafe
3019
0000
0000
01a0
cafe
3419
0000
0000
019b
cafe
3819
0000
0000
019d
cafe
3c19
0000
0000
019d
cafe
2019
0000
0000
01a2
cafe
2419
0000
0000
019e
cafe
2819
0000
0000
0196
cafe
2c19
0000
0000
0196
cafe
3019
0000
0000
0195
cafe
3419
0000
0000
0193
cafe
3819
0000
0000
0196
cafe
3c19
0000
0000
018f
cafe
2019
0000
0000
018f
cafe
2419
0000
0000
0194
cafe
2819
0000
0000
0195
cafe
2c19
0000
0000
019a
-
cafe
3019
0000
0000
019b
cafe
3419
0000
0000
0197
cafe
3819
0000
0000
0196
cafe
3c19
0000
0000
0199
cafe
2019
0000
0000
0196
cafe
2419
0000
0000
0199
cafe
2819
0000
0000
0197
cafe
2c19
0000
0000
0199
cafe
3019
0000
0000
0196
cafe
3419
0000
0000
0193
cafe
3819
0000
0000
0194
cafe
3c19
0000
0000
0193
cafe
2019
0000
0000
0192
cafe
2419
0000
0000
0194
cafe
2819
0000
0000
0192
cafe
2c19
0000
0000
0199
cafe
3019
0000
0000
0194
cafe
3419
0000
0000
0195
cafe
3819
0000
0000
0193
cafe
3c19
0000
0000
0198
cafe
2019
0000
0000
019a
cafe
2419
0000
0000
0196
cafe
2819
0000
0000
0197
cafe
2c19
0000
0000
0198
cafe
3019
0000
0000
0198
cafe
3419
0000
0000
0198
cafe
3819
0000
0000
0198
cafe
3c19
0000
0000
0197
cafe
2019
0000
0000
019a
cafe
2419
0000
0000
019b
cafe
2819
0000
0000
0192
cafe
2c19
0000
0000
0194
cafe
3019
0000
0000
0192
cafe
3419
0000
0000
0192
cafe
3819
0000
0000
0192
cafe
3c19
0000
0000
0192
cafe
2019
0000
0000
0193
cafe
2419
0000
0000
0192
cafe
2819
0000
0000
0195
cafe
2c19
0000
0000
0196
cafe
3019
0000
0000
0196
cafe
3419
0000
0000
0196
cafe
3819
0000
0000
0199
cafe
3c19
0000
0000
0195
cafe
2019
0000
0000
0192
cafe
2419
0000
0000
0192
cafe
2819
0000
0000
0192
cafe
2c19
0000
0000
0197
cafe
3019
0000
0000
0195
cafe
3419
0000
0000
0198
cafe
3819
0000
0000
019d
cafe
-
3c19
0000
0000
0199
cafe
2019
0000
0000
0198
cafe
2419
0000
0000
01a0
cafe
2819
0000
0000
0197
cafe
2c19
0000
0000
0197
cafe
3019
0000
0000
0198
cafe
3419
0000
0000
019a
cafe
3819
0000
0000
0199
cafe
3c19
0000
0000
0196
cafe
2019
0000
0000
0196
cafe
2419
0000
0000
0198
cafe
2819
0000
0000
0195
cafe
2c19
0000
0000
019d
cafe
3019
0000
0000
0198
cafe
3419
0000
0000
0197
cafe
3819
0000
0000
0193
cafe
3c19
0000
0000
0196
cafe
2019
0000
0000
0197
cafe
2419
0000
0000
0194
cafe
2819
0000
0000
0191
cafe
2c19
0000
0000
0192
cafe
3019
0000
0000
0193
cafe
3419
0000
0000
0193
cafe
3819
0000
0000
0197
cafe
3c19
0000
0000
0196
cafe
2019
0000
0000
0197
cafe
2419
0000
0000
0197
cafe
2819
0000
0000
019c
cafe
2c19
0000
0000
0192
cafe
3019
0000
0000
019a
cafe
3419
0000
0000
0196
cafe
3819
0000
0000
0197
cafe
3c19
0000
0000
019b
cafe
2019
0000
0000
019a
cafe
2419
0000
0000
019d
cafe
2819
0000
0000
01a6
cafe
2c19
0000
0000
019f
cafe
3019
0000
0000
01a1
cafe
3419
0000
0000
0199
cafe
3819
0000
0000
019a
cafe
3c19
0000
0000
019d
cafe
2019
0000
0000
019b
cafe
2419
0000
0000
0198
cafe
2819
0000
0000
0195
cafe
2c19
0000
0000
0195
cafe
3019
0000
0000
0195
cafe
3419
0000
0000
0197
cafe
3819
0000
0000
019b
cafe
3c19
0000
0000
019d
cafe
2019
0000
0000
0199
cafe
2419
0000
0000
0198
cafe
2819
-
0000
0000
0198
cafe
2c19
0000
0000
019e
cafe
3019
0000
0000
0199
cafe
3419
0000
0000
019d
cafe
3819
0000
0000
01a1
cafe
3c19
0000
0000
01a3
cafe
2019
0000
0000
01a2
cafe
2419
0000
0000
019f
cafe
2819
0000
0000
019d
cafe
2c19
0000
0000
019e
cafe
3019
0000
0000
01a3
cafe
3419
0000
0000
019f
cafe
3819
0000
0000
019d
cafe
3c19
0000
0000
019d
cafe
2019
0000
0000
019d
cafe
2419
0000
0000
019a
cafe
2819
0000
0000
0197
cafe
2c19
0000
0000
0196
cafe
3019
0000
0000
0196
cafe
3419
0000
0000
019b
cafe
3819
0000
0000
0197
cafe
3c19
0000
0000
019d
cafe
2019
0000
0000
019c
cafe
2419
0000
0000
0198
cafe
2819
0000
0000
0196
cafe
2c19
0000
0000
0197
cafe
3019
0000
0000
0199
cafe
3419
0000
0000
0196
cafe
3819
0000
0000
0198
cafe
3c19
0000
0000
0194
cafe
2019
0000
0000
019a
cafe
2419
0000
0000
0197
cafe
2819
0000
0000
0199
cafe
2c19
0000
0000
0198
cafe
3019
0000
0000
0196
cafe
3419
0000
0000
0198
cafe
3819
0000
0000
0196
cafe
3c19
0000
0000
019a
cafe
2019
0000
0000
019b
cafe
2419
0000
0000
019b
cafe
2819
0000
0000
019d
cafe
2c19
0000
0000
019c
cafe
3019
0000
0000
019e
cafe
3419
0000
0000
019a
cafe
3819
0000
0000
0199
cafe
3c19
0000
0000
019a
cafe
2019
0000
0000
0197
cafe
2419
0000
0000
0195
cafe
2819
0000
0000
0199
cafe
2c19
0000
0000
0198
cafe
3019
0000
0000
0190
cafe
3419
0000
-
0000
0190
cafe
3819
0000
0000
0190
cafe
3c19
0000
0000
0191
cafe
2019
0000
0000
0190
cafe
2419
0000
0000
0191
cafe
2819
0000
0000
0195
cafe
2c19
0000
0000
019d
cafe
3019
0000
0000
0196
cafe
3419
0000
0000
0197
cafe
3819
0000
0000
0195
cafe
3c19
0000
0000
0199
cafe
2019
0000
0000
019b
cafe
2419
0000
0000
019a
cafe
2819
0000
0000
0195
cafe
2c19
0000
0000
0198
cafe
3019
0000
0000
01a0
cafe
3419
0000
0000
0199
cafe
3819
0000
0000
019b
cafe
3c19
0000
0000
0195
cafe
2019
0000
0000
0198
cafe
2419
0000
0000
019c
cafe
2819
0000
0000
019e
cafe
2c19
0000
0000
019b
cafe
3019
0000
0000
0198
cafe
3419
0000
0000
0198
cafe
3819
0000
0000
019a
cafe
3c19
0000
0000
0194
cafe
2019
0000
0000
019b
cafe
2419
0000
0000
01a0
cafe
2819
0000
0000
01a0
cafe
2c19
0000
0000
01a1
cafe
3019
0000
0000
019f
cafe
3419
0000
0000
01a0
cafe
3819
0000
0000
01a0
cafe
3c19
0000
0000
019f
cafe
2019
0000
0000
019d
cafe
2419
0000
0000
01a0
cafe
2819
0000
0000
01a3
cafe
2c19
0000
0000
019e
cafe
3019
0000
0000
019a
cafe
3419
0000
0000
0199
cafe
3819
0000
0000
0199
cafe
3c19
0000
0000
019c
cafe
2019
0000
0000
0197
cafe
2419
0000
0000
0196
cafe
2819
0000
0000
0196
cafe
2c19
0000
0000
019b
cafe
3019
0000
0000
0198
cafe
3419
0000
0000
019c
cafe
3819
0000
0000
0199
cafe
3c19
0000
0000
01a0
cafe
2019
0000
0000
-
019c
cafe
2419
0000
0000
019a
cafe
2819
0000
0000
019b
cafe
2c19
0000
0000
019b
cafe
3019
0000
0000
019f
cafe
3419
0000
0000
0199
cafe
3819
0000
0000
0196
cafe
3c19
0000
0000
019c
cafe
2019
0000
0000
0198
cafe
2419
0000
0000
0198
cafe
2819
0000
0000
0198
cafe
2c19
0000
0000
0199
cafe
3019
0000
0000
0195
cafe
3419
0000
0000
019b
cafe
3819
0000
0000
019b
cafe
3c19
0000
0000
019a
cafe
2019
0000
0000
0198
cafe
2419
0000
0000
0196
cafe
2819
0000
0000
0198
cafe
2c19
0000
0000
0196
cafe
3019
0000
0000
0194
cafe
3419
0000
0000
0194
cafe
3819
0000
0000
0191
cafe
3c19
0000
0000
0194
cafe
2019
0000
0000
0197
cafe
2419
0000
0000
019e
cafe
2819
0000
0000
019e
cafe
2c19
0000
0000
019a
cafe
3019
0000
0000
019d
cafe
3419
0000
0000
0198
cafe
3819
0000
0000
019a
cafe
3c19
0000
0000
0195
cafe
2019
0000
0000
0194
cafe
2419
0000
0000
0194
cafe
2819
0000
0000
0190
cafe
2c19
0000
0000
0190
cafe
3019
0000
0000
0194
cafe
3419
0000
0000
0194
cafe
3819
0000
0000
0196
cafe
3c19
0000
0000
0199
cafe
2019
0000
0000
0196
cafe
2419
0000
0000
0193
cafe
2819
0000
0000
0194
cafe
2c19
0000
0000
0194
cafe
3019
0000
0000
0195
cafe
3419
0000
0000
0191
cafe
3819
0000
0000
018f
cafe
3c19
0000
0000
0196
cafe
2019
0000
0000
0196
cafe
2419
0000
0000
0198
cafe
2819
0000
0000
0199
cafe
2c19
0000
0000
0197
-
cafe
3019
0000
0000
019a
cafe
3419
0000
0000
0196
cafe
3819
0000
0000
0196
cafe
3c19
0000
0000
0192
cafe
2019
0000
0000
0196
cafe
2419
0000
0000
0193
cafe
2819
0000
0000
0195
cafe
2c19
0000
0000
0195
cafe
3019
0000
0000
0196
cafe
3419
0000
0000
0197
cafe
3819
0000
0000
0198
cafe
3c19
0000
0000
0197
cafe
2019
0000
0000
0194
cafe
2419
0000
0000
0197
cafe
2819
0000
0000
0197
cafe
2c19
0000
0000
0197
cafe
3019
0000
0000
0197
cafe
3419
0000
0000
019e
cafe
3819
0000
0000
019d
cafe
3c19
0000
0000
019e
cafe
2019
0000
0000
0197
cafe
2419
0000
0000
019a
cafe
2819
0000
0000
0199
cafe
2c19
0000
0000
019a
cafe
3019
0000
0000
019a
cafe
3419
0000
0000
019b
cafe
3819
0000
0000
019f
cafe
3c19
0000
0000
01a3
cafe
2019
0000
0000
019f
cafe
2419
0000
0000
019a
cafe
2819
0000
0000
019d
cafe
2c19
0000
0000
019c
cafe
3019
0000
0000
01a1
cafe
3419
0000
0000
01a1
cafe
3819
0000
0000
019b
cafe
3c19
0000
0000
01a1
cafe
2019
0000
0000
019e
cafe
2419
0000
0000
0198
cafe
2819
0000
0000
0190
cafe
2c19
0000
0000
0194
cafe
3019
0000
0000
0196
cafe
3419
0000
0000
019b
cafe
3819
0000
0000
0198
cafe
3c19
0000
0000
0195
cafe
2019
0000
0000
018f
cafe
2419
0000
0000
018f
cafe
2819
0000
0000
018f
cafe
2c19
0000
0000
0190
cafe
3019
0000
0000
0192
cafe
3419
0000
0000
0191
cafe
3819
0000
0000
018c
cafe
-
3c19
0000
0000
0198
cafe
2019
0000
0000
0196
cafe
2419
0000
0000
0197
cafe
2819
0000
0000
0198
cafe
2c19
0000
0000
0199
cafe
3019
0000
0000
0196
cafe
3419
0000
0000
0197
cafe
3819
0000
0000
0199
cafe
3c19
0000
0000
019b
cafe
2019
0000
0000
0195
cafe
2419
0000
0000
0198
cafe
2819
0000
0000
019b
cafe
2c19
0000
0000
0197
cafe
3019
0000
0000
0195
cafe
3419
0000
0000
0197
cafe
3819
0000
0000
0190
cafe
3c19
0000
0000
0195
cafe
2019
0000
0000
0196
cafe
2419
0000
0000
0196
cafe
2819
0000
0000
019a
cafe
2c19
0000
0000
0198
cafe
3019
0000
0000
0191
cafe
3419
0000
0000
0195
cafe
3819
0000
0000
0190
cafe
3c19
0000
0000
0191
cafe
2019
0000
0000
0190
cafe
2419
0000
0000
0190
cafe
2819
0000
0000
0193
cafe
2c19
0000
0000
018e
cafe
3019
0000
0000
0192
cafe
3419
0000
0000
0191
cafe
3819
0000
0000
0194
cafe
3c19
0000
0000
0194
cafe
2019
0000
0000
0199
cafe
2419
0000
0000
0194
cafe
2819
0000
0000
019a
cafe
2c19
0000
0000
019b
cafe
3019
0000
0000
019a
cafe
3419
0000
0000
0198
cafe
3819
0000
0000
0195
cafe
3c19
0000
0000
0194
cafe
2019
0000
0000
0195
cafe
2419
0000
0000
0199
cafe
2819
0000
0000
0196
cafe
2c19
0000
0000
0198
cafe
3019
0000
0000
0199
cafe
3419
0000
0000
0197
cafe
3819
0000
0000
0196
cafe
3c19
0000
0000
0192
cafe
2019
0000
0000
0194
cafe
2419
0000
0000
0196
cafe
2819
-
0000
0000
0195
cafe
2c19
0000
0000
0194
cafe
3019
0000
0000
0195
cafe
3419
0000
0000
0195
cafe
3819
0000
0000
019c
cafe
3c19
0000
0000
0199
cafe
2019
0000
0000
0198
cafe
2419
0000
0000
019a
cafe
2819
0000
0000
0195
cafe
2c19
0000
0000
019a
cafe
3019
0000
0000
019a
cafe
3419
0000
0000
019b
cafe
3819
0000
0000
0196
cafe
3c19
0000
0000
0195
cafe
2019
0000
0000
0196
cafe
2419
0000
0000
019a
cafe
2819
0000
0000
0199
cafe
2c19
0000
0000
0198
cafe
3019
0000
0000
019d
cafe
3419
0000
0000
019e
cafe
3819
0000
0000
019b
cafe
3c19
0000
0000
019b
cafe
2019
0000
0000
019e
cafe
2419
0000
0000
019b
cafe
2819
0000
0000
01a1
cafe
2c19
0000
0000
01a1
cafe
3019
0000
0000
019b
cafe
3419
0000
0000
019d
cafe
3819
0000
0000
019c
cafe
3c19
0000
0000
0198
cafe
2019
0000
0000
0197
cafe
2419
0000
0000
0195
cafe
2819
0000
0000
019e
cafe
2c19
0000
0000
0197
cafe
3019
0000
0000
0198
cafe
3419
0000
0000
019a
cafe
3819
0000
0000
0197
cafe
3c19
0000
0000
019b
cafe
2019
0000
0000
019c
cafe
2419
0000
0000
01a0
cafe
2819
0000
0000
019e
cafe
2c19
0000
0000
0195
cafe
3019
0000
0000
019d
cafe
3419
0000
0000
0196
cafe
3819
0000
0000
019a
cafe
3c19
0000
0000
019b
cafe
2019
0000
0000
019a
cafe
2419
0000
0000
019a
cafe
2819
0000
0000
019f
cafe
2c19
0000
0000
019f
cafe
3019
0000
0000
0199
cafe
3419
0000
-
0000
0195
cafe
3819
0000
0000
0196
cafe
3c19
0000
0000
0193
cafe
2019
0000
0000
0197
cafe
2419
0000
0000
0197
cafe
2819
0000
0000
0196
cafe
2c19
0000
0000
019a
cafe
3019
0000
0000
0195
cafe
3419
0000
0000
0196
cafe
3819
0000
0000
0193
cafe
3c19
0000
0000
0192
cafe
2019
0000
0000
0190
cafe
2419
0000
0000
0191
cafe
2819
0000
0000
018e
cafe
2c19
0000
0000
0195
cafe
3019
0000
0000
0194
cafe
3419
0000
0000
018d
cafe
3819
0000
0000
0198
cafe
3c19
0000
0000
0197
cafe
2019
0000
0000
0195
cafe
2419
0000
0000
0193
cafe
2819
0000
0000
0195
cafe
2c19
0000
0000
0192
cafe
3019
0000
0000
019c
cafe
3419
0000
0000
019b
cafe
3819
0000
0000
019d
cafe
3c19
0000
0000
019c
cafe
2019
0000
0000
019a
cafe
2419
0000
0000
0199
cafe
2819
0000
0000
0194
cafe
2c19
0000
0000
0195
cafe
3019
0000
0000
0196
cafe
3419
0000
0000
0192
cafe
3819
0000
0000
0191
cafe
3c19
0000
0000
0196
cafe
2019
0000
0000
0198
cafe
2419
0000
0000
0195
cafe
2819
0000
0000
0191
cafe
2c19
0000
0000
0195
cafe
3019
0000
0000
0197
cafe
3419
0000
0000
0197
cafe
3819
0000
0000
019c
cafe
3c19
0000
0000
0198
cafe
2019
0000
0000
019c
cafe
2419
0000
0000
0193
cafe
2819
0000
0000
0194
cafe
2c19
0000
0000
0192
cafe
3019
0000
0000
0199
cafe
3419
0000
0000
0193
cafe
3819
0000
0000
0193
cafe
3c19
0000
0000
0198
cafe
2019
0000
0000
-
019b
cafe
2419
0000
0000
0193
cafe
2819
0000
0000
0194
cafe
2c19
0000
0000
0198
cafe
3019
0000
0000
0199
cafe
3419
0000
0000
019a
cafe
3819
0000
0000
0199
cafe
3c19
0000
0000
019c
cafe
2019
0000
0000
019b
cafe
2419
0000
0000
0197
cafe
2819
0000
0000
0194
cafe
2c19
0000
0000
0194
cafe
3019
0000
0000
0192
cafe
3419
0000
0000
0199
cafe
3819
0000
0000
019e
cafe
3c19
0000
0000
019a
cafe
2019
0000
0000
0199
cafe
2419
0000
0000
0198
cafe
2819
0000
0000
019d
cafe
2c19
0000
0000
0194
cafe
3019
0000
0000
0192
cafe
3419
0000
0000
0199
cafe
3819
0000
0000
019a
cafe
3c19
0000
0000
0199
cafe
2019
0000
0000
0194
cafe
2419
0000
0000
0195
cafe
2819
0000
0000
0191
cafe
2c19
0000
0000
0193
cafe
3019
0000
0000
0192
cafe
3419
0000
0000
0198
cafe
3819
0000
0000
0198
cafe
3c19
0000
0000
019d
cafe
2019
0000
0000
0195
cafe
2419
0000
0000
0196
cafe
2819
0000
0000
0198
cafe
2c19
0000
0000
0193
cafe
3019
0000
0000
0196
cafe
3419
0000
0000
0196
cafe
3819
0000
0000
0195
cafe
3c19
0000
0000
018e
cafe
2019
0000
0000
0196
cafe
2419
0000
0000
0195
cafe
2819
0000
0000
0198
cafe
2c19
0000
0000
018e
cafe
3019
0000
0000
0195
cafe
3419
0000
0000
0196
cafe
3819
0000
0000
0194
cafe
3c19
0000
0000
0192
cafe
2019
0000
0000
0195
cafe
2419
0000
0000
0192
cafe
2819
0000
0000
0194
cafe
2c19
0000
0000
0194
-
cafe
3019
0000
0000
0198
cafe
3419
0000
0000
019a
cafe
3819
0000
0000
0193
cafe
3c19
0000
0000
0191
cafe
2019
0000
0000
0195
cafe
2419
0000
0000
0194
cafe
2819
0000
0000
0197
cafe
2c19
0000
0000
019c
cafe
3019
0000
0000
019b
cafe
3419
0000
0000
019a
cafe
3819
0000
0000
0198
cafe
3c19
0000
0000
0199
cafe
2019
0000
0000
019a
cafe
2419
0000
0000
019b
cafe
2819
0000
0000
0198
cafe
2c19
0000
0000
0196
cafe
3019
0000
0000
0199
cafe
3419
0000
0000
0196
cafe
3819
0000
0000
0196
cafe
3c19
0000
0000
0196
cafe
2019
0000
0000
019c
cafe
2419
0000
0000
0199
cafe
2819
0000
0000
0199
cafe
2c19
0000
0000
0196
cafe
3019
0000
0000
0196
cafe
3419
0000
0000
0194
cafe
3819
0000
0000
0197
cafe
3c19
0000
0000
0195
cafe
2019
0000
0000
0197
cafe
2419
0000
0000
0195
cafe
2819
0000
0000
0197
cafe
2c19
0000
0000
019c
cafe
3019
0000
0000
0196
cafe
3419
0000
0000
0198
cafe
3819
0000
0000
019a
cafe
3c19
0000
0000
0197
cafe
2019
0000
0000
019c
cafe
2419
0000
0000
0197
cafe
2819
0000
0000
019a
cafe
2c19
0000
0000
019d
cafe
3019
0000
0000
019d
cafe
3419
0000
0000
0196
cafe
3819
0000
0000
01a3
cafe
3c19
0000
0000
01a1
cafe
2019
0000
0000
019d
cafe
2419
0000
0000
019e
cafe
2819
0000
0000
019f
cafe
2c19
0000
0000
019d
cafe
3019
0000
0000
0199
cafe
3419
0000
0000
0197
cafe
3819
0000
0000
019a
cafe
-
3c19
0000
0000
0196
cafe
2019
0000
0000
0194
cafe
2419
0000
0000
0197
cafe
2819
0000
0000
0198
cafe
2c19
0000
0000
019a
cafe
3019
0000
0000
0199
cafe
3419
0000
0000
0199
cafe
3819
0000
0000
0199
cafe
3c19
0000
0000
019a
cafe
2019
0000
0000
0199
cafe
2419
0000
0000
019f
cafe
2819
0000
0000
019a
cafe
2c19
0000
0000
0198
cafe
3019
0000
0000
0196
cafe
3419
0000
0000
019a
cafe
3819
0000
0000
0194
cafe
3c19
0000
0000
018f
cafe
2019
0000
0000
0199
cafe
2419
0000
0000
0199
cafe
2819
0000
0000
0194
cafe
2c19
0000
0000
0192
cafe
3019
0000
0000
0194
cafe
3419
0000
0000
0194
cafe
3819
0000
0000
0197
cafe
3c19
0000
0000
0199
cafe
2019
0000
0000
0197
cafe
2419
0000
0000
019a
cafe
2819
0000
0000
019b
cafe
2c19
0000
0000
019e
cafe
3019
0000
0000
01a0
cafe
3419
0000
0000
019b
cafe
3819
0000
0000
0198
cafe
3c19
0000
0000
0197
cafe
2019
0000
0000
019f
cafe
2419
0000
0000
01a0
cafe
2819
0000
0000
019c
cafe
2c19
0000
0000
019c
cafe
3019
0000
0000
019a
cafe
3419
0000
0000
019a
cafe
3819
0000
0000
01a0
cafe
3c19
0000
0000
019b
cafe
2019
0000
0000
0199
cafe
2419
0000
0000
0198
cafe
2819
0000
0000
0198
cafe
2c19
0000
0000
0198
cafe
3019
0000
0000
019d
cafe
3419
0000
0000
019e
cafe
3819
0000
0000
0199
cafe
3c19
0000
0000
019b
cafe
2019
0000
0000
0197
cafe
2419
0000
0000
0198
cafe
2819
-
0000
0000
0198
cafe
2c19
0000
0000
0195
cafe
3019
0000
0000
0199
cafe
3419
0000
0000
0197
cafe
3819
0000
0000
019d
cafe
3c19
0000
0000
019e
cafe
2019
0000
0000
019c
cafe
2419
0000
0000
019f
cafe
2819
0000
0000
019e
cafe
2c19
0000
0000
019b
cafe
3019
0000
0000
0199
cafe
3419
0000
0000
0197
cafe
3819
0000
0000
019b
cafe
3c19
0000
0000
0199
cafe
2019
0000
0000
0198
cafe
2419
0000
0000
019a
cafe
2819
0000
0000
0197
cafe
2c19
0000
0000
0198
cafe
3019
0000
0000
0198
cafe
3419
0000
0000
019c
cafe
3819
0000
0000
019b
cafe
3c19
0000
0000
0198
cafe
2019
0000
0000
0195
cafe
2419
0000
0000
0198
cafe
2819
0000
0000
0198
cafe
2c19
0000
0000
0199
cafe
3019
0000
0000
0198
cafe
3419
0000
0000
019b
cafe
3819
0000
0000
0196
cafe
3c19
0000
0000
0197
cafe
2019
0000
0000
0194
cafe
2419
0000
0000
0197
cafe
2819
0000
0000
019c
cafe
2c19
0000
0000
01a0
cafe
3019
0000
0000
019b
cafe
3419
0000
0000
019f
cafe
3819
0000
0000
01a0
cafe
3c19
0000
0000
019d
cafe
2019
0000
0000
019c
cafe
2419
0000
0000
01a0
cafe
2819
0000
0000
01a2
cafe
2c19
0000
0000
01a1
cafe
3019
0000
0000
01a0
cafe
3419
0000
0000
019f
cafe
3819
0000
0000
01a0
cafe
3c19
0000
0000
019d
cafe
2019
0000
0000
01a1
cafe
2419
0000
0000
01a0
cafe
2819
0000
0000
019e
cafe
2c19
0000
0000
019d
cafe
3019
0000
0000
01a0
cafe
3419
0000
-
0000
01a0
cafe
3819
0000
0000
019e
cafe
3c19
0000
0000
019f
cafe
2019
0000
0000
019c
cafe
2419
0000
0000
019a
cafe
2819
0000
0000
019c
cafe
2c19
0000
0000
019b
cafe
3019
0000
0000
0197
cafe
3419
0000
0000
019c
cafe
3819
0000
0000
019b
cafe
3c19
0000
0000
0198
cafe
2019
0000
0000
019d
cafe
2419
0000
0000
019e
cafe
2819
0000
0000
019f
cafe
2c19
0000
0000
01a1
cafe
3019
0000
0000
019e
cafe
3419
0000
0000
019c
cafe
3819
0000
0000
019f
cafe
3c19
0000
0000
019c
cafe
2019
0000
0000
019d
cafe
2419
0000
0000
0199
cafe
2819
0000
0000
0198
cafe
2c19
0000
0000
0194
cafe
3019
0000
0000
0193
cafe
3419
0000
0000
0196
cafe
3819
0000
0000
0197
cafe
3c19
0000
0000
0197
cafe
2019
0000
0000
019b
cafe
2419
0000
0000
0198
cafe
2819
0000
0000
0194
cafe
2c19
0000
0000
0198
cafe
3019
0000
0000
019a
cafe
3419
0000
0000
019a
cafe
3819
0000
0000
019b
cafe
3c19
0000
0000
0197
cafe
2019
0000
0000
0193
cafe
2419
0000
0000
0193
cafe
2819
0000
0000
0195
cafe
2c19
0000
0000
0197
cafe
3019
0000
0000
0195
cafe
3419
0000
0000
0193
cafe
3819
0000
0000
0195
cafe
3c19
0000
0000
0195
cafe
2019
0000
0000
0197
cafe
2419
0000
0000
0195
cafe
2819
0000
0000
0192
cafe
2c19
0000
0000
0198
cafe
3019
0000
0000
0194
cafe
3419
0000
0000
0198
cafe
3819
0000
0000
0197
cafe
3c19
0000
0000
019a
cafe
2019
0000
0000
-
0198
cafe
2419
0000
0000
0197
cafe
2819
0000
0000
0197
cafe
2c19
0000
0000
0199
cafe
3019
0000
0000
0197
cafe
3419
0000
0000
0199
cafe
3819
0000
0000
0195
cafe
3c19
0000
0000
0199
cafe
2019
0000
0000
0195
cafe
2419
0000
0000
0194
cafe
2819
0000
0000
0191
cafe
2c19
0000
0000
0190
cafe
3019
0000
0000
0192
cafe
3419
0000
0000
0192
cafe
3819
0000
0000
0190
cafe
3c19
0000
0000
0190
cafe
2019
0000
0000
0194
cafe
2419
0000
0000
0191
cafe
2819
0000
0000
0196
cafe
2c19
0000
0000
0192
cafe
3019
0000
0000
019a
cafe
3419
0000
0000
019b
cafe
3819
0000
0000
0198
cafe
3c19
0000
0000
019c
cafe
2019
0000
0000
019f
cafe
2419
0000
0000
01a1
cafe
2819
0000
0000
019a
cafe
2c19
0000
0000
0197
cafe
3019
0000
0000
019f
cafe
3419
0000
0000
0193
cafe
3819
0000
0000
0199
cafe
3c19
0000
0000
019b
cafe
2019
0000
0000
019d
cafe
2419
0000
0000
0195
cafe
2819
0000
0000
0195
cafe
2c19
0000
0000
0194
cafe
3019
0000
0000
0193
cafe
3419
0000
0000
0191
cafe
3819
0000
0000
0190
cafe
3c19
0000
0000
018e
cafe
2019
0000
0000
0196
cafe
2419
0000
0000
0196
cafe
2819
0000
0000
0198
cafe
2c19
0000
0000
019d
cafe
3019
0000
0000
01a3
cafe
3419
0000
0000
01a1
cafe
3819
0000
0000
019f
cafe
3c19
0000
0000
019e
cafe
2019
0000
0000
019c
cafe
2419
0000
0000
0198
cafe
2819
0000
0000
0195
cafe
2c19
0000
0000
019a
-
cafe
3019
0000
0000
0194
cafe
3419
0000
0000
019a
cafe
3819
0000
0000
019e
cafe
3c19
0000
0000
019d
cafe
2019
0000
0000
019c
cafe
2419
0000
0000
0197
cafe
2819
0000
0000
0196
cafe
2c19
0000
0000
0192
cafe
3019
0000
0000
0193
cafe
3419
0000
0000
0192
cafe
3819
0000
0000
0195
cafe
3c19
0000
0000
0197
cafe
2019
0000
0000
0198
cafe
2419
0000
0000
018f
cafe
2819
0000
0000
0197
cafe
2c19
0000
0000
019c
cafe
3019
0000
0000
0197
cafe
3419
0000
0000
0192
cafe
3819
0000
0000
0196
cafe
3c19
0000
0000
0195
cafe
2019
0000
0000
019b
cafe
2419
0000
0000
0199
cafe
2819
0000
0000
019e
cafe
2c19
0000
0000
0198
cafe
3019
0000
0000
0199
cafe
3419
0000
0000
019e
cafe
3819
0000
0000
019a
cafe
3c19
0000
0000
0196
cafe
2019
0000
0000
0198
cafe
2419
0000
0000
0198
cafe
2819
0000
0000
0196
cafe
2c19
0000
0000
0193
cafe
3019
0000
0000
0193
cafe
3419
0000
0000
0196
cafe
3819
0000
0000
0195
cafe
3c19
0000
0000
0194
cafe
2019
0000
0000
0196
cafe
2419
0000
0000
0195
cafe
2819
0000
0000
0195
cafe
2c19
0000
0000
0190
cafe
3019
0000
0000
0195
cafe
3419
0000
0000
0192
cafe
3819
0000
0000
0193
cafe
3c19
0000
0000
018f
cafe
2019
0000
0000
0197
cafe
2419
0000
0000
0191
cafe
2819
0000
0000
0190
cafe
2c19
0000
0000
018d
cafe
3019
0000
0000
0192
cafe
3419
0000
0000
0196
cafe
3819
0000
0000
0193
cafe
-
3c19
0000
0000
0192
cafe
2019
0000
0000
0195
cafe
2419
0000
0000
0193
cafe
2819
0000
0000
0195
cafe
2c19
0000
0000
0195
cafe
3019
0000
0000
0197
cafe
3419
0000
0000
0196
cafe
3819
0000
0000
0196
cafe
3c19
0000
0000
019a
cafe
2019
0000
0000
0199
cafe
2419
0000
0000
0198
cafe
2819
0000
0000
0196
cafe
2c19
0000
0000
0197
cafe
3019
0000
0000
0196
cafe
3419
0000
0000
0197
cafe
3819
0000
0000
0197
cafe
3c19
0000
0000
0199
cafe
2019
0000
0000
0195
cafe
2419
0000
0000
0195
cafe
2819
0000
0000
0198
cafe
2c19
0000
0000
019d
cafe
3019
0000
0000
0194
cafe
3419
0000
0000
018f
cafe
3819
0000
0000
0191
cafe
3c19
0000
0000
018e
cafe
2019
0000
0000
018f
cafe
2419
0000
0000
018f
cafe
2819
0000
0000
0192
cafe
2c19
0000
0000
0193
cafe
3019
0000
0000
0190
cafe
3419
0000
0000
0191
cafe
3819
0000
0000
0192
cafe
3c19
0000
0000
0195
cafe
2019
0000
0000
0199
cafe
2419
0000
0000
0191
cafe
2819
0000
0000
0192
cafe
2c19
0000
0000
0190
cafe
3019
0000
0000
0191
cafe
3419
0000
0000
0191
cafe
3819
0000
0000
0195
cafe
3c19
0000
0000
0196
cafe
2019
0000
0000
0195
cafe
2419
0000
0000
0196
cafe
2819
0000
0000
0192
cafe
2c19
0000
0000
019a
cafe
3019
0000
0000
019b
cafe
3419
0000
0000
0198
cafe
3819
0000
0000
019f
cafe
3c19
0000
0000
019f
cafe
2019
0000
0000
0199
cafe
2419
0000
0000
019d
cafe
2819
-
0000
0000
019a
cafe
2c19
0000
0000
0198
cafe
3019
0000
0000
0195
cafe
3419
0000
0000
0194
cafe
3819
0000
0000
0194
cafe
3c19
0000
0000
0197
cafe
2019
0000
0000
0198
cafe
2419
0000
0000
0196
cafe
2819
0000
0000
0193
cafe
2c19
0000
0000
0198
cafe
3019
0000
0000
0195
cafe
3419
0000
0000
0194
cafe
3819
0000
0000
0193
cafe
3c19
0000
0000
0191
cafe
2019
0000
0000
0192
cafe
2419
0000
0000
0193
cafe
2819
0000
0000
0196
cafe
2c19
0000
0000
0199
cafe
3019
0000
0000
0196
cafe
3419
0000
0000
0198
cafe
3819
0000
0000
0194
cafe
3c19
0000
0000
0195
cafe
2019
0000
0000
0199
cafe
2419
0000
0000
0198
cafe
2819
0000
0000
0195
cafe
2c19
0000
0000
0195
cafe
3019
0000
0000
0194
cafe
3419
0000
0000
0193
cafe
3819
0000
0000
0193
cafe
3c19
0000
0000
0193
cafe
2019
0000
0000
0193
cafe
2419
0000
0000
0194
cafe
2819
0000
0000
0192
cafe
2c19
0000
0000
018f
cafe
3019
0000
0000
018e
cafe
3419
0000
0000
018d
cafe
3819
0000
0000
018d
cafe
3c19
0000
0000
0190
cafe
2019
0000
0000
0193
cafe
2419
0000
0000
0191
cafe
2819
0000
0000
0197
cafe
2c19
0000
0000
0198
cafe
3019
0000
0000
019b
cafe
3419
0000
0000
0195
cafe
3819
0000
0000
019a
cafe
3c19
0000
0000
019b
cafe
2019
0000
0000
0197
cafe
2419
0000
0000
0195
cafe
2819
0000
0000
019d
cafe
2c19
0000
0000
019d
cafe
3019
0000
0000
019e
cafe
3419
0000
-
0000
019f
cafe
3819
0000
0000
019a
cafe
3c19
0000
0000
019b
cafe
2019
0000
0000
019e
cafe
2419
0000
0000
019b
cafe
2819
0000
0000
019c
cafe
2c19
0000
0000
0195
cafe
3019
0000
0000
0197
cafe
3419
0000
0000
0197
cafe
3819
0000
0000
0195
cafe
3c19
0000
0000
0190
cafe
2019
0000
0000
0196
cafe
2419
0000
0000
019a
cafe
2819
0000
0000
0197
cafe
2c19
0000
0000
0198
cafe
3019
0000
0000
019b
cafe
3419
0000
0000
019b
cafe
3819
0000
0000
019c
cafe
3c19
0000
0000
0197
cafe
2019
0000
0000
0194
cafe
2419
0000
0000
0194
cafe
2819
0000
0000
0190
cafe
2c19
0000
0000
0197
cafe
3019
0000
0000
0198
cafe
3419
0000
0000
0197
cafe
3819
0000
0000
0199
cafe
3c19
0000
0000
0198
cafe
2019
0000
0000
019d
cafe
2419
0000
0000
0198
cafe
2819
0000
0000
0199
cafe
2c19
0000
0000
0197
cafe
3019
0000
0000
019a
cafe
3419
0000
0000
019b
cafe
3819
0000
0000
019a
cafe
3c19
0000
0000
0199
cafe
2019
0000
0000
0197
cafe
2419
0000
0000
0193
cafe
2819
0000
0000
0196
cafe
2c19
0000
0000
019b
cafe
3019
0000
0000
019b
cafe
3419
0000
0000
0198
cafe
3819
0000
0000
0196
cafe
3c19
0000
0000
019b
cafe
2019
0000
0000
019d
cafe
2419
0000
0000
0199
cafe
2819
0000
0000
0198
cafe
2c19
0000
0000
019b
cafe
3019
0000
0000
019d
cafe
3419
0000
0000
0197
cafe
3819
0000
0000
019b
cafe
3c19
0000
0000
0195
cafe
2019
0000
0000
-
0194
cafe
2419
0000
0000
0195
cafe
2819
0000
0000
0192
cafe
2c19
0000
0000
0196
cafe
3019
0000
0000
0191
cafe
3419
0000
0000
0191
cafe
3819
0000
0000
0195
cafe
3c19
0000
0000
0196
cafe
2019
0000
0000
0196
cafe
2419
0000
0000
0194
cafe
2819
0000
0000
0192
cafe
2c19
0000
0000
018e
cafe
3019
0000
0000
0190
cafe
3419
0000
0000
0193
cafe
3819
0000
0000
0196
cafe
3c19
0000
0000
0197
cafe
2019
0000
0000
018f
cafe
2419
0000
0000
0193
cafe
2819
0000
0000
0194
cafe
2c19
0000
0000
0193
cafe
3019
0000
0000
0196
cafe
3419
0000
0000
0196
cafe
3819
0000
0000
0196
cafe
3c19
0000
0000
0197
cafe
2019
0000
0000
019b
cafe
2419
0000
0000
019c
cafe
2819
0000
0000
019c
cafe
2c19
0000
0000
019f
cafe
3019
0000
0000
019b
cafe
3419
0000
0000
019c
cafe
3819
0000
0000
0197
cafe
3c19
0000
0000
0196
cafe
2019
0000
0000
0197
cafe
2419
0000
0000
0195
cafe
2819
0000
0000
0194
cafe
2c19
0000
0000
0193
cafe
3019
0000
0000
0193
cafe
3419
0000
0000
0191
cafe
3819
0000
0000
0197
cafe
3c19
0000
0000
0198
cafe
2019
0000
0000
0196
cafe
2419
0000
0000
019e
cafe
2819
0000
0000
019a
cafe
2c19
0000
0000
019b
cafe
3019
0000
0000
0197
cafe
3419
0000
0000
0197
cafe
3819
0000
0000
0198
cafe
3c19
0000
0000
019d
cafe
2019
0000
0000
0198
cafe
2419
0000
0000
0198
cafe
2819
0000
0000
0197
cafe
2c19
0000
0000
0199
-
cafe
3019
0000
0000
019c
cafe
3419
0000
0000
0198
cafe
3819
0000
0000
0197
cafe
3c19
0000
0000
019c
cafe
2019
0000
0000
019c
cafe
2419
0000
0000
01a0
cafe
2819
0000
0000
019c
cafe
2c19
0000
0000
019f
cafe
3019
0000
0000
019d
cafe
3419
0000
0000
0198
cafe
3819
0000
0000
019a
cafe
3c19
0000
0000
0191
cafe
2019
0000
0000
0194
cafe
2419
0000
0000
0199
cafe
2819
0000
0000
019b
cafe
2c19
0000
0000
0193
cafe
3019
0000
0000
0191
cafe
3419
0000
0000
0195
cafe
3819
0000
0000
0197
cafe
3c19
0000
0000
0196
cafe
2019
0000
0000
0195
cafe
2419
0000
0000
0198
cafe
2819
0000
0000
0196
cafe
2c19
0000
0000
0197
cafe
3019
0000
0000
0193
cafe
3419
0000
0000
0196
cafe
3819
0000
0000
0191
cafe
3c19
0000
0000
0195
cafe
2019
0000
0000
0192
cafe
2419
0000
0000
0193
cafe
2819
0000
0000
0196
cafe
2c19
0000
0000
0198
cafe
3019
0000
0000
019d
cafe
3419
0000
0000
019c
cafe
3819
0000
0000
0193
cafe
3c19
0000
0000
0196
cafe
2019
0000
0000
0196
cafe
2419
0000
0000
019d
cafe
2819
0000
0000
019c
cafe
2c19
0000
0000
0196
cafe
3019
0000
0000
0197
cafe
3419
0000
0000
0197
cafe
3819
0000
0000
019b
cafe
3c19
0000
0000
0199
cafe
2019
0000
0000
019e
cafe
2419
0000
0000
0198
cafe
2819
0000
0000
0199
cafe
2c19
0000
0000
019a
cafe
3019
0000
0000
019b
cafe
3419
0000
0000
019c
cafe
3819
0000
0000
0198
cafe
-
3c19
0000
0000
0198
cafe
2019
0000
0000
0197
cafe
2419
0000
0000
0195
cafe
2819
0000
0000
0199
cafe
2c19
0000
0000
0196
cafe
3019
0000
0000
0199
cafe
3419
0000
0000
0195
cafe
3819
0000
0000
019a
cafe
3c19
0000
0000
0198
cafe
2019
0000
0000
0199
cafe
2419
0000
0000
0199
cafe
2819
0000
0000
0195
cafe
2c19
0000
0000
0196
cafe
3019
0000
0000
019c
cafe
3419
0000
0000
019b
cafe
3819
0000
0000
0193
cafe
3c19
0000
0000
0199
cafe
2019
0000
0000
0199
cafe
2419
0000
0000
0199
cafe
2819
0000
0000
0196
cafe
2c19
0000
0000
0199
cafe
3019
0000
0000
019d
cafe
3419
0000
0000
019b
cafe
3819
0000
0000
019e
cafe
3c19
0000
0000
019b
cafe
2019
0000
0000
0198
cafe
2419
0000
0000
019c
cafe
2819
0000
0000
019c
cafe
2c19
0000
0000
0196
cafe
3019
0000
0000
0192
cafe
3419
0000
0000
0196
cafe
3819
0000
0000
0198
cafe
3c19
0000
0000
0194
cafe
2019
0000
0000
0199
cafe
2419
0000
0000
0194
cafe
2819
0000
0000
0193
cafe
2c19
0000
0000
0198
cafe
3019
0000
0000
019b
cafe
3419
0000
0000
019a
cafe
3819
0000
0000
0198
cafe
3c19
0000
0000
0199
cafe
2019
0000
0000
019b
cafe
2419
0000
0000
019b
cafe
2819
0000
0000
0198
cafe
2c19
0000
0000
0197
cafe
3019
0000
0000
019a
cafe
3419
0000
0000
0199
cafe
3819
0000
0000
0197
cafe
3c19
0000
0000
019a
cafe
2019
0000
0000
019c
cafe
2419
0000
0000
0199
cafe
2819
-
0000
0000
0199
cafe
2c19
0000
0000
0197
cafe
3019
0000
0000
0199
cafe
3419
0000
0000
0199
cafe
3819
0000
0000
0198
cafe
3c19
0000
0000
019a
cafe
2019
0000
0000
019c
cafe
2419
0000
0000
019c
cafe
2819
0000
0000
019b
cafe
2c19
0000
0000
019d
cafe
3019
0000
0000
019b
cafe
3419
0000
0000
019c
cafe
3819
0000
0000
0197
cafe
3c19
0000
0000
019b
cafe
2019
0000
0000
0199
cafe
2419
0000
0000
0199
cafe
2819
0000
0000
019b
cafe
2c19
0000
0000
019a
cafe
3019
0000
0000
0194
cafe
3419
0000
0000
019d
cafe
3819
0000
0000
019e
cafe
3c19
0000
0000
01a0
cafe
2019
0000
0000
019d
cafe
2419
0000
0000
0199
cafe
2819
0000
0000
019a
cafe
2c19
0000
0000
0195
cafe
3019
0000
0000
0198
cafe
3419
0000
0000
019b
cafe
3819
0000
0000
019e
cafe
3c19
0000
0000
0195
cafe
2019
0000
0000
0198
cafe
2419
0000
0000
019c
cafe
2819
0000
0000
019a
cafe
2c19
0000
0000
0196
cafe
3019
0000
0000
0192
cafe
3419
0000
0000
0196
cafe
3819
0000
0000
0196
cafe
3c19
0000
0000
019e
cafe
2019
0000
0000
019e
cafe
2419
0000
0000
019c
cafe
2819
0000
0000
019c
cafe
2c19
0000
0000
0196
cafe
3019
0000
0000
0190
cafe
3419
0000
0000
0191
cafe
3819
0000
0000
0196
cafe
3c19
0000
0000
0196
cafe
2019
0000
0000
019a
cafe
2419
0000
0000
0197
cafe
2819
0000
0000
0192
cafe
2c19
0000
0000
019b
cafe
3019
0000
0000
019f
cafe
3419
0000
-
0000
019e
cafe
3819
0000
0000
0193
cafe
3c19
0000
0000
018f
cafe
2019
0000
0000
0194
cafe
2419
0000
0000
019a
cafe
2819
0000
0000
0198
cafe
2c19
0000
0000
019b
cafe
3019
0000
0000
0199
cafe
3419
0000
0000
0194
cafe
3819
0000
0000
019b
cafe
3c19
0000
0000
019c
cafe
2019
0000
0000
019b
cafe
2419
0000
0000
019b
cafe
2819
0000
0000
019a
cafe
2c19
0000
0000
019a
cafe
3019
0000
0000
019d
cafe
3419
0000
0000
0197
cafe
3819
0000
0000
01a0
cafe
3c19
0000
0000
019c
cafe
2019
0000
0000
01a0
cafe
2419
0000
0000
019e
cafe
2819
0000
0000
01a2
cafe
2c19
0000
0000
0198
cafe
3019
0000
0000
019d
cafe
3419
0000
0000
0199
cafe
3819
0000
0000
0197
cafe
3c19
0000
0000
0197
cafe
2019
0000
0000
019a
cafe
2419
0000
0000
0197
cafe
2819
0000
0000
019e
cafe
2c19
0000
0000
019d
cafe
3019
0000
0000
0199
cafe
3419
0000
0000
0192
cafe
3819
0000
0000
0191
cafe
3c19
0000
0000
0194
cafe
2019
0000
0000
0195
cafe
2419
0000
0000
0197
cafe
2819
0000
0000
0198
cafe
2c19
0000
0000
0195
cafe
3019
0000
0000
0197
cafe
3419
0000
0000
019f
cafe
3819
0000
0000
019b
cafe
3c19
0000
0000
01a0
cafe
2019
0000
0000
019b
cafe
2419
0000
0000
0191
cafe
2819
0000
0000
018f
cafe
2c19
0000
0000
019a
cafe
3019
0000
0000
0192
cafe
3419
0000
0000
0196
cafe
3819
0000
0000
0196
cafe
3c19
0000
0000
0194
cafe
2019
0000
0000
-
0194
cafe
2419
0000
0000
0198
cafe
2819
0000
0000
019f
cafe
2c19
0000
0000
019b
cafe
3019
0000
0000
019a
cafe
3419
0000
0000
0198
cafe
3819
0000
0000
019b
cafe
3c19
0000
0000
019c
cafe
2019
0000
0000
019a
cafe
2419
0000
0000
019b
cafe
2819
0000
0000
019c
cafe
2c19
0000
0000
019d
cafe
3019
0000
0000
019d
cafe
3419
0000
0000
0198
cafe
3819
0000
0000
0192
cafe
3c19
0000
0000
0195
cafe
2019
0000
0000
0196
cafe
2419
0000
0000
0192
cafe
2819
0000
0000
019c
cafe
2c19
0000
0000
0197
cafe
3019
0000
0000
0195
cafe
3419
0000
0000
0194
cafe
3819
0000
0000
0196
cafe
3c19
0000
0000
0199
cafe
2019
0000
0000
019b
cafe
2419
0000
0000
019b
cafe
2819
0000
0000
019c
cafe
2c19
0000
0000
0199
cafe
3019
0000
0000
019c
cafe
3419
0000
0000
019f
cafe
3819
0000
0000
019b
cafe
3c19
0000
0000
019a
cafe
2019
0000
0000
0195
cafe
2419
0000
0000
0197
cafe
2819
0000
0000
0198
cafe
2c19
0000
0000
0198
cafe
3019
0000
0000
0197
cafe
3419
0000
0000
0197
cafe
3819
0000
0000
019a
cafe
3c19
0000
0000
0199
cafe
2019
0000
0000
0195
cafe
2419
0000
0000
0195
cafe
2819
0000
0000
018f
cafe
2c19
0000
0000
0194
cafe
3019
0000
0000
0197
cafe
3419
0000
0000
0199
cafe
3819
0000
0000
0199
cafe
3c19
0000
0000
019a
cafe
2019
0000
0000
019d
cafe
2419
0000
0000
019b
cafe
2819
0000
0000
019b
cafe
2c19
0000
0000
019b
-
