3809
5564
e76c
0237
cafe
3c19
5564
e76c
013f
cafe
2001
5564
e76c
0266
cafe
2411
5564
e770
0102
cafe
280a
5564
e770
024d
cafe
2c1a
5564
e770
0194
cafe
3002
5564
e770
021b
cafe
3412
5564
e774
0144
cafe
380b
5564
e774
0235
cafe
3c1b
5564
e774
0171
cafe
2003
5564
e774
020b
cafe
2413
5564
e778
01f3
cafe
280c
5564
e778
023a
cafe
2c1c
5564
e778
01a6
cafe
3004
5564
e778
0251
cafe
3414
5564
e77c
01ad
cafe
380d
5564
e77c
0231
cafe
3c1d
5564
e77c
020a
cafe
2005
5564
e77c
0279
cafe
2415
5564
e780
0093
cafe
280e
5564
e780
0227
cafe
2c1e
5564
e780
0173
cafe
3006
5564
e780
0228
cafe
3416
5564
e784
0158
cafe
380f
5564
e784
0246
cafe
3c1f
5564
e784
016c
cafe
2007
5564
e784
0231
cafe
2417
5564
e788
00ce
cafe
2808
5564
e788
0244
cafe
2c18
5564
e788
0103
cafe
3000
5564
e788
022a
cafe
3410
5564
e78c
012a
cafe
3809
5564
e78c
0235
cafe
3c19
5564
e78c
0132
cafe
2001
5564
e78c
025d
cafe
2411
5564
e790
0114
cafe
280a
5564
e790
0250
cafe
2c1a
5564
e790
0198
cafe
3002
5564
e790
0212
cafe
3412
5564
e794
0149
cafe
380b
5564
e794
0238
cafe
3c1b
5564
e794
0170
cafe
2003
5564
e794
021c
cafe
2413
5564
e798
01ee
cafe
280c
5564
e798
024e
cafe
2c1c
5564
e798
01a3
cafe
3004
5564
e798
0257
cafe
3414
5564
e79c
01a7
cafe
380d
5564
e79c
0230
cafe
3c1d
5564
e79c
021e
cafe
2005
5564
e79c
0276
cafe
2415
-
5564
e7a0
008e
cafe
280e
5564
e7a0
0222
cafe
2c1e
5564
e7a0
016e
cafe
3006
5564
e7a0
0220
cafe
3416
5564
e7a4
016c
cafe
380f
5564
e7a4
0247
cafe
3c1f
5564
e7a4
0173
cafe
2007
5564
e7a4
023d
cafe
2417
5564
e7a8
00e4
cafe
2808
5564
e7a8
023d
cafe
2c18
5564
e7a8
010b
cafe
3000
5564
e7a8
0226
cafe
3410
5564
e7ac
0122
cafe
3809
5564
e7ac
023a
cafe
3c19
5564
e7ac
013a
cafe
2001
5564
e7ac
0258
cafe
2411
5564
e7b0
0117
cafe
280a
5564
e7b0
0250
cafe
2c1a
5564
e7b0
018e
cafe
3002
5564
e7b0
021a
cafe
3412
5564
e7b4
0151
cafe
380b
5564
e7b4
0232
cafe
3c1b
5564
e7b4
0164
cafe
2003
5564
e7b4
0211
cafe
2413
5564
e7b8
01df
cafe
280c
5564
e7b8
024e
cafe
2c1c
5564
e7b8
01b1
cafe
3004
5564
e7b8
0250
cafe
3414
5564
e7bc
01a0
cafe
380d
5564
e7bc
0230
cafe
3c1d
5564
e7bc
0216
cafe
2005
5564
e7bc
0275
cafe
2415
5564
e7c0
008b
cafe
280e
5564
e7c0
021e
cafe
2c1e
5564
e7c0
0174
cafe
3006
5564
e7c0
0220
cafe
3416
5564
e7c4
016a
cafe
380f
5564
e7c4
024c
cafe
3c1f
5564
e7c4
0171
cafe
2007
5564
e7c4
023f
cafe
2417
5564
e7c8
00d1
cafe
2808
5564
e7c8
023f
cafe
2c18
5564
e7c8
0102
cafe
3000
5564
e7c8
021e
cafe
3410
5564
e7cc
0123
cafe
3809
5564
e7cc
0230
cafe
3c19
5564
e7cc
0131
cafe
2001
5564
e7cc
0254
cafe
2411
5564
e7d0
0113
cafe
280a
5564
e7d0
0255
cafe
2c1a
5564
e7d0
0189
cafe
3002
5564
-
e7d0
021b
cafe
3412
5564
e7d4
0139
cafe
380b
5564
e7d4
0238
cafe
3c1b
5564
e7d4
016a
cafe
2003
5564
e7d4
0210
cafe
2413
5564
e7d8
01e9
cafe
280c
5564
e7d8
0243
cafe
2c1c
5564
e7d8
0195
cafe
3004
5564
e7d8
0257
cafe
3414
5564
e7dc
01a1
cafe
380d
5564
e7dc
0234
cafe
3c1d
5564
e7dc
0218
cafe
2005
5564
e7dc
0278
cafe
2415
5564
e7e0
00a9
cafe
280e
5564
e7e0
021d
cafe
2c1e
5564
e7e0
0171
cafe
3006
5564
e7e0
0227
cafe
3416
5564
e7e4
016e
cafe
380f
5564
e7e4
024c
cafe
3c1f
5564
e7e4
0173
cafe
2007
5564
e7e4
023b
cafe
2417
5564
e7e8
00c8
cafe
2808
5564
e7e8
0246
cafe
2c18
5564
e7e8
0111
cafe
3000
5564
e7e8
022f
cafe
3410
5564
e7ec
0130
cafe
3809
5564
e7ec
023a
cafe
3c19
5564
e7ec
0126
cafe
2001
5564
e7ec
0254
cafe
2411
5564
e7f0
0109
cafe
280a
5564
e7f0
025a
cafe
2c1a
5564
e7f0
0194
cafe
3002
5564
e7f0
0218
cafe
3412
5564
e7f4
0135
cafe
380b
5564
e7f4
0232
cafe
3c1b
5564
e7f4
0157
cafe
2003
5564
e7f4
0208
cafe
2413
5564
e7f8
01e6
cafe
280c
5564
e7f8
0245
cafe
2c1c
5564
e7f8
019f
cafe
3004
5564
e7f8
0256
cafe
3414
5564
e7fc
01a1
cafe
380d
5564
e7fc
0235
cafe
3c1d
5564
e7fc
01f7
cafe
2005
5564
e7fc
0275
cafe
2415
5564
e800
00a6
cafe
280e
5564
e800
021e
cafe
2c1e
5564
e800
0175
cafe
3006
5564
e800
0221
cafe
3416
5564
e804
0160
cafe
380f
5564
e804
0247
cafe
3c1f
5564
e804
-
0165
cafe
2007
5564
e804
0238
cafe
2417
5564
e808
00ca
cafe
2808
5564
e808
023b
cafe
2c18
5564
e808
010f
cafe
3000
5564
e808
0225
cafe
3410
5564
e80c
0127
cafe
3809
5564
e80c
0239
cafe
3c19
5564
e80c
012d
cafe
2001
5564
e80c
025b
cafe
2411
5564
e810
0112
cafe
280a
5564
e810
0251
cafe
2c1a
5564
e810
0199
cafe
3002
5564
e810
0214
cafe
3412
5564
e814
014b
cafe
380b
5564
e814
022c
cafe
3c1b
5564
e814
015a
cafe
2003
5564
e814
0210
cafe
2413
5564
e818
01f4
cafe
280c
5564
e818
0248
cafe
2c1c
5564
e818
01a3
cafe
3004
5564
e818
0259
cafe
3414
5564
e81c
01a1
cafe
380d
5564
e81c
0233
cafe
3c1d
5564
e81c
0200
cafe
2005
5564
e81c
0271
cafe
2415
5564
e820
00a4
cafe
280e
5564
e820
021d
cafe
2c1e
5564
e820
0169
cafe
3006
5564
e820
021c
cafe
3416
5564
e824
0159
cafe
380f
5564
e824
023f
cafe
3c1f
5564
e824
016f
cafe
2007
5564
e824
0242
cafe
2417
5564
e828
00ce
cafe
2808
5564
e828
0240
cafe
2c18
5564
e828
0114
cafe
3000
5564
e828
0222
cafe
3410
5564
e82c
012a
cafe
3809
5564
e82c
0232
cafe
3c19
5564
e82c
0125
cafe
2001
5564
e82c
024f
cafe
2411
5564
e830
0111
cafe
280a
5564
e830
024f
cafe
2c1a
5564
e830
0197
cafe
3002
5564
e830
0217
cafe
3412
5564
e834
0131
cafe
380b
5564
e834
023b
cafe
3c1b
5564
e834
016a
cafe
2003
5564
e834
0210
cafe
2413
5564
e838
01f8
cafe
280c
5564
e838
024f
-
cafe
2c1c
5564
e838
01b0
cafe
3004
5564
e838
0250
cafe
3414
5564
e83c
01b2
cafe
380d
5564
e83c
0240
cafe
3c1d
5564
e83c
0208
cafe
2005
5564
e83c
0278
cafe
2415
5564
e840
00a8
cafe
280e
5564
e840
021b
cafe
2c1e
5564
e840
0175
cafe
3006
5564
e840
0221
cafe
3416
5564
e844
016d
cafe
380f
5564
e844
023e
cafe
3c1f
5564
e844
0181
cafe
2007
5564
e844
0233
cafe
2417
5564
e848
00bc
cafe
2808
5564
e848
023a
cafe
2c18
5564
e848
0106
cafe
3000
5564
e848
0227
cafe
3410
5564
e84c
012d
cafe
3809
5564
e84c
023b
cafe
3c19
5564
e84c
0131
cafe
2001
5564
e84c
0261
cafe
2411
5564
e850
010b
cafe
280a
5564
e850
0249
cafe
2c1a
5564
e850
01a4
cafe
3002
5564
e850
021a
cafe
3412
5564
e854
013c
cafe
380b
5564
e854
023a
cafe
3c1b
5564
e854
0160
cafe
2003
5564
e854
0219
cafe
2413
5564
e858
01f6
cafe
280c
5564
e858
0244
cafe
2c1c
5564
e858
0190
cafe
3004
5564
e858
024f
cafe
3414
5564
e85c
019f
cafe
380d
5564
e85c
023b
cafe
3c1d
5564
e85c
0216
cafe
2005
5564
e85c
027e
cafe
2415
5564
e860
0098
cafe
280e
5564
e860
021b
cafe
2c1e
5564
e860
017f
cafe
3006
5564
e860
0218
cafe
3416
5564
e864
0174
cafe
380f
5564
e864
0243
cafe
3c1f
5564
e864
0166
cafe
2007
5564
e864
023c
cafe
2417
5564
e868
00c0
cafe
2808
5564
e868
0242
cafe
2c18
5564
e868
0109
cafe
3000
5564
e868
022b
cafe
3410
5564
e86c
012b
cafe
-
3809
5564
e86c
023b
cafe
3c19
5564
e86c
011e
cafe
2001
5564
e86c
0257
cafe
2411
5564
e870
0116
cafe
280a
5564
e870
0254
cafe
2c1a
5564
e870
01b1
cafe
3002
5564
e870
0219
cafe
3412
5564
e874
0141
cafe
380b
5564
e874
0232
cafe
3c1b
5564
e874
0172
cafe
2003
5564
e874
0218
cafe
2413
5564
e878
0201
cafe
280c
5564
e878
0247
cafe
2c1c
5564
e878
0195
cafe
3004
5564
e878
024e
cafe
3414
5564
e87c
019d
cafe
380d
5564
e87c
0236
cafe
3c1d
5564
e87c
020e
cafe
2005
5564
e87c
027c
cafe
2415
5564
e880
00a1
cafe
280e
5564
e880
0216
cafe
2c1e
5564
e880
0177
cafe
3006
5564
e880
021e
cafe
3416
5564
e884
017b
cafe
380f
5564
e884
0243
cafe
3c1f
5564
e884
0169
cafe
2007
5564
e884
023b
cafe
2417
5564
e888
00ba
cafe
2808
5564
e888
0241
cafe
2c18
5564
e888
00f3
cafe
3000
5564
e888
0225
cafe
3410
5564
e88c
011b
cafe
3809
5564
e88c
0239
cafe
3c19
5564
e88c
011a
cafe
2001
5564
e88c
0252
cafe
2411
5564
e890
0107
cafe
280a
5564
e890
024c
cafe
2c1a
5564
e890
0194
cafe
3002
5564
e890
0219
cafe
3412
5564
e894
0133
cafe
380b
5564
e894
0240
cafe
3c1b
5564
e894
015d
cafe
2003
5564
e894
020c
cafe
2413
5564
e898
01eb
cafe
280c
5564
e898
0244
cafe
2c1c
5564
e898
0198
cafe
3004
5564
e898
0251
cafe
3414
5564
e89c
01ab
cafe
380d
5564
e89c
023a
cafe
3c1d
5564
e89c
021d
cafe
2005
5564
e89c
027a
cafe
2415
-
5564
e8a0
00a2
cafe
280e
5564
e8a0
0221
cafe
2c1e
5564
e8a0
016e
cafe
3006
5564
e8a0
0227
cafe
3416
5564
e8a4
0174
cafe
380f
5564
e8a4
024c
cafe
3c1f
5564
e8a4
0177
cafe
2007
5564
e8a4
0236
cafe
2417
5564
e8a8
00d2
cafe
2808
5564
e8a8
0241
cafe
2c18
5564
e8a8
00f9
cafe
3000
5564
e8a8
022d
cafe
3410
5564
e8ac
0128
cafe
3809
5564
e8ac
0238
cafe
3c19
5564
e8ac
0127
cafe
2001
5564
e8ac
025e
cafe
2411
5564
e8b0
0113
cafe
280a
5564
e8b0
0254
cafe
2c1a
5564
e8b0
01a8
cafe
3002
5564
e8b0
0215
cafe
3412
5564
e8b4
0133
cafe
380b
5564
e8b4
023e
cafe
3c1b
5564
e8b4
0176
cafe
2003
5564
e8b4
0211
cafe
2413
5564
e8b8
01f6
cafe
280c
5564
e8b8
0241
cafe
2c1c
5564
e8b8
019e
cafe
3004
5564
e8b8
0251
cafe
3414
5564
e8bc
01a4
cafe
380d
5564
e8bc
0235
cafe
3c1d
5564
e8bc
0209
cafe
2005
5564
e8bc
027d
cafe
2415
5564
e8c0
0092
cafe
280e
5564
e8c0
021d
cafe
2c1e
5564
e8c0
0175
cafe
3006
5564
e8c0
022c
cafe
3416
5564
e8c4
016f
cafe
380f
5564
e8c4
024a
cafe
3c1f
5564
e8c4
0172
cafe
2007
5564
e8c4
0234
cafe
2417
5564
e8c8
00d3
cafe
2808
5564
e8c8
0244
cafe
2c18
5564
e8c8
0104
cafe
3000
5564
e8c8
022d
cafe
3410
5564
e8cc
012d
cafe
3809
5564
e8cc
0233
cafe
3c19
5564
e8cc
012a
cafe
2001
5564
e8cc
025b
cafe
2411
5564
e8d0
010f
cafe
280a
5564
e8d0
0253
cafe
2c1a
5564
e8d0
0192
cafe
3002
5564
-
e8d0
0213
cafe
3412
5564
e8d4
0157
cafe
380b
5564
e8d4
0238
cafe
3c1b
5564
e8d4
0160
cafe
2003
5564
e8d4
020e
cafe
2413
5564
e8d8
01e9
cafe
280c
5564
e8d8
023f
cafe
2c1c
5564
e8d8
01a2
cafe
3004
5564
e8d8
0253
cafe
3414
5564
e8dc
01a4
cafe
380d
5564
e8dc
023a
cafe
3c1d
5564
e8dc
0211
cafe
2005
5564
e8dc
027d
cafe
2415
5564
e8e0
0096
cafe
280e
5564
e8e0
022c
cafe
2c1e
5564
e8e0
016d
cafe
3006
5564
e8e0
0236
cafe
3416
5564
e8e4
016a
cafe
380f
5564
e8e4
0250
cafe
3c1f
5564
e8e4
017c
cafe
2007
5564
e8e4
0245
cafe
2417
5564
e8e8
00e2
cafe
2808
5564
e8e8
023f
cafe
2c18
5564
e8e8
0104
cafe
3000
5564
e8e8
022c
cafe
3410
5564
e8ec
0128
cafe
3809
5564
e8ec
023f
cafe
3c19
5564
e8ec
0128
cafe
2001
5564
e8ec
0261
cafe
2411
5564
e8f0
0108
cafe
280a
5564
e8f0
0258
cafe
2c1a
5564
e8f0
018e
cafe
3002
5564
e8f0
0218
cafe
3412
5564
e8f4
0146
cafe
380b
5564
e8f4
023c
cafe
3c1b
5564
e8f4
0198
cafe
2003
5564
e8f4
0213
cafe
2413
5564
e8f8
020d
cafe
280c
5564
e8f8
0252
cafe
2c1c
5564
e8f8
019b
cafe
3004
5564
e8f8
0267
cafe
3414
5564
e8fc
01ae
cafe
380d
5564
e8fc
0243
cafe
3c1d
5564
e8fc
0210
cafe
2005
5564
e8fc
0295
cafe
2415
5564
e900
00b5
cafe
280e
5564
e900
022a
cafe
2c1e
5564
e900
0166
cafe
3006
5564
e900
022b
cafe
3416
5564
e904
0181
cafe
380f
5564
e904
0252
cafe
3c1f
5564
e904
-
018a
cafe
2007
5564
e904
0251
cafe
2417
5564
e908
00e2
cafe
2808
5564
e908
0249
cafe
2c18
5564
e908
00f1
cafe
3000
5564
e908
0230
cafe
3410
5564
e90c
011f
cafe
3809
5564
e90c
0231
cafe
3c19
5564
e90c
012f
cafe
2001
5564
e90c
025d
cafe
2411
5564
e910
0116
cafe
280a
5564
e910
0258
cafe
2c1a
5564
e910
019c
cafe
3002
5564
e910
0218
cafe
3412
5564
e914
0139
cafe
380b
5564
e914
0234
cafe
3c1b
5564
e914
017a
cafe
2003
5564
e914
0213
cafe
2413
5564
e918
01fe
cafe
280c
5564
e918
0249
cafe
2c1c
5564
e918
01aa
cafe
3004
5564
e918
025f
cafe
3414
5564
e91c
01b8
cafe
380d
5564
e91c
0238
cafe
3c1d
5564
e91c
0209
cafe
2005
5564
e91c
027d
cafe
2415
5564
e920
008f
cafe
280e
5564
e920
021a
cafe
2c1e
5564
e920
016e
cafe
3006
5564
e920
0222
cafe
3416
5564
e924
0156
cafe
380f
5564
e924
0246
cafe
3c1f
5564
e924
0176
cafe
2007
5564
e924
0236
cafe
2417
5564
e928
00e9
cafe
2808
5564
e928
0240
cafe
2c18
5564
e928
010a
cafe
3000
5564
e928
021f
cafe
3410
5564
e92c
0126
cafe
3809
5564
e92c
022b
cafe
3c19
5564
e92c
0138
cafe
2001
5564
e92c
0260
cafe
2411
5564
e930
011b
cafe
280a
5564
e930
0256
cafe
2c1a
5564
e930
019a
cafe
3002
5564
e930
021d
cafe
3412
5564
e934
0144
cafe
380b
5564
e934
0235
cafe
3c1b
5564
e934
0168
cafe
2003
5564
e934
020b
cafe
2413
5564
e938
01fd
cafe
280c
5564
e938
0246
-
cafe
2c1c
5564
e938
01b1
cafe
3004
5564
e938
0256
cafe
3414
5564
e93c
01a7
cafe
380d
5564
e93c
0230
cafe
3c1d
5564
e93c
0223
cafe
2005
5564
e93c
0272
cafe
2415
5564
e940
0089
cafe
280e
5564
e940
021c
cafe
2c1e
5564
e940
016f
cafe
3006
5564
e940
022d
cafe
3416
5564
e944
0160
cafe
380f
5564
e944
024d
cafe
3c1f
5564
e944
0190
cafe
2007
5564
e944
023b
cafe
2417
5564
e948
00e7
cafe
2808
5564
e948
0242
cafe
2c18
5564
e948
010a
cafe
3000
5564
e948
022d
cafe
3410
5564
e94c
010f
cafe
3809
5564
e94c
0233
cafe
3c19
5564
e94c
0126
cafe
2001
5564
e94c
025d
cafe
2411
5564
e950
011e
cafe
280a
5564
e950
0256
cafe
2c1a
5564
e950
01a7
cafe
3002
5564
e950
0220
cafe
3412
5564
e954
013b
cafe
380b
5564
e954
0233
cafe
3c1b
5564
e954
017d
cafe
2003
5564
e954
0214
cafe
2413
5564
e958
01f6
cafe
280c
5564
e958
0245
cafe
2c1c
5564
e958
01ae
cafe
3004
5564
e958
025a
cafe
3414
5564
e95c
0199
cafe
380d
5564
e95c
0234
cafe
3c1d
5564
e95c
020b
cafe
2005
5564
e95c
027c
cafe
2415
5564
e960
00af
cafe
280e
5564
e960
0220
cafe
2c1e
5564
e960
0163
cafe
3006
5564
e960
0232
cafe
3416
5564
e964
015f
cafe
380f
5564
e964
024d
cafe
3c1f
5564
e964
0188
cafe
2007
5564
e964
0243
cafe
2417
5564
e968
00cf
cafe
2808
5564
e968
023d
cafe
2c18
5564
e968
00fd
cafe
3000
5564
e968
0227
cafe
3410
5564
e96c
0118
cafe
-
3809
5564
e96c
023a
cafe
3c19
5564
e96c
0133
cafe
2001
5564
e96c
0262
cafe
2411
5564
e970
012e
cafe
280a
5564
e970
0257
cafe
2c1a
5564
e970
017f
cafe
3002
5564
e970
0213
cafe
3412
5564
e974
013b
cafe
380b
5564
e974
023b
cafe
3c1b
5564
e974
0169
cafe
2003
5564
e974
0215
cafe
2413
5564
e978
01eb
cafe
280c
5564
e978
0245
cafe
2c1c
5564
e978
019c
cafe
3004
5564
e978
0255
cafe
3414
5564
e97c
019a
cafe
380d
5564
e97c
023c
cafe
3c1d
5564
e97c
020f
cafe
2005
5564
e97c
0283
cafe
2415
5564
e980
0091
cafe
280e
5564
e980
0226
cafe
2c1e
5564
e980
015c
cafe
3006
5564
e980
022a
cafe
3416
5564
e984
0151
cafe
380f
5564
e984
0250
cafe
3c1f
5564
e984
018a
cafe
2007
5564
e984
023d
cafe
2417
5564
e988
00e8
cafe
2808
5564
e988
023d
cafe
2c18
5564
e988
00f4
cafe
3000
5564
e988
0229
cafe
3410
5564
e98c
0111
cafe
3809
5564
e98c
0236
cafe
3c19
5564
e98c
0149
cafe
2001
5564
e98c
0265
cafe
2411
5564
e990
0104
cafe
280a
5564
e990
0250
cafe
2c1a
5564
e990
0193
cafe
3002
5564
e990
020f
cafe
3412
5564
e994
014b
cafe
380b
5564
e994
0242
cafe
3c1b
5564
e994
016e
cafe
2003
5564
e994
0214
cafe
2413
5564
e998
01f5
cafe
280c
5564
e998
0395
cafe
2c1c
5564
e998
0483
cafe
3004
5564
e998
039e
cafe
3414
5564
e99c
047e
cafe
380d
5564
e99c
05a3
cafe
3c1d
5564
e99c
08eb
cafe
2005
5564
e99c
05db
cafe
2415
-
5564
e9a0
076b
cafe
280e
5564
e9a0
066b
cafe
2c1e
5564
e9a0
0946
cafe
3006
5564
e9a0
066c
cafe
3416
5564
e9a4
093b
cafe
380f
5564
e9a4
06e7
cafe
3c1f
5564
e9a4
0998
cafe
2007
5564
e9a4
06e0
cafe
2417
5564
e9a8
08da
cafe
2808
5564
e9a8
0700
cafe
2c18
5564
e9a8
08f7
cafe
3000
5564
e9a8
06fa
cafe
3410
5564
e9ac
092b
cafe
3809
5564
e9ac
0752
cafe
3c19
5564
e9ac
091f
cafe
2001
5564
e9ac
0788
cafe
2411
5564
e9b0
090e
cafe
280a
5564
e9b0
079f
cafe
2c1a
5564
e9b0
0997
cafe
3002
5564
e9b0
0759
cafe
3412
5564
e9b4
093b
cafe
380b
5564
e9b4
079f
cafe
3c1b
5564
e9b4
0955
cafe
2003
5564
e9b4
0788
cafe
2413
5564
e9b8
09d7
cafe
280c
5564
e9b8
07cd
cafe
2c1c
5564
e9b8
0989
cafe
3004
5564
e9b8
07e6
cafe
3414
5564
e9bc
0995
cafe
380d
5564
e9bc
07ce
cafe
3c1d
5564
e9bc
0a17
cafe
2005
5564
e9bc
0813
cafe
2415
5564
e9c0
0881
cafe
280e
5564
e9c0
07c9
cafe
2c1e
5564
e9c0
096a
cafe
3006
5564
e9c0
07d0
cafe
3416
5564
e9c4
0963
cafe
380f
5564
e9c4
07f6
cafe
3c1f
5564
e9c4
0985
cafe
2007
5564
e9c4
07f2
cafe
2417
5564
e9c8
08c6
cafe
2808
5564
e9c8
07eb
cafe
2c18
5564
e9c8
08e1
cafe
3000
5564
e9c8
07e0
cafe
3410
5564
e9cc
08fe
cafe
3809
5564
e9cc
07ed
cafe
3c19
5564
e9cc
0919
cafe
2001
5564
e9cc
0813
cafe
2411
5564
e9d0
08f3
cafe
280a
5564
e9d0
080f
cafe
2c1a
5564
e9d0
096f
cafe
3002
5564
-
e9d0
07c6
cafe
3412
5564
e9d4
092e
cafe
380b
5564
e9d4
07e4
cafe
3c1b
5564
e9d4
0945
cafe
2003
5564
e9d4
07c0
cafe
2413
5564
e9d8
09d2
cafe
280c
5564
e9d8
0802
cafe
2c1c
5564
e9d8
0979
cafe
3004
5564
e9d8
0819
cafe
3414
5564
e9dc
0982
cafe
380d
5564
e9dc
07e3
cafe
3c1d
5564
e9dc
09fa
cafe
2005
5564
e9dc
0834
cafe
2415
5564
e9e0
0860
cafe
280e
5564
e9e0
07d3
cafe
2c1e
5564
e9e0
095c
cafe
3006
5564
e9e0
07e5
cafe
3416
5564
e9e4
093e
cafe
380f
5564
e9e4
07f2
cafe
3c1f
5564
e9e4
0964
cafe
2007
5564
e9e4
07fb
cafe
2417
5564
e9e8
08b7
cafe
2808
5564
e9e8
07ef
cafe
2c18
5564
e9e8
08c4
cafe
3000
5564
e9e8
07e6
cafe
3410
5564
e9ec
08f4
cafe
3809
5564
e9ec
07e5
cafe
3c19
5564
e9ec
08f5
cafe
2001
5564
e9ec
0818
cafe
2411
5564
e9f0
08cb
cafe
280a
5564
e9f0
0805
cafe
2c1a
5564
e9f0
0960
cafe
3002
5564
e9f0
07bd
cafe
3412
5564
e9f4
08f2
cafe
380b
5564
e9f4
07e3
cafe
3c1b
5564
e9f4
0934
cafe
2003
5564
e9f4
07b6
cafe
2413
5564
e9f8
09b9
cafe
280c
5564
e9f8
07ff
cafe
2c1c
5564
e9f8
0938
cafe
3004
5564
e9f8
080c
cafe
3414
5564
e9fc
0969
cafe
380d
5564
e9fc
07d9
cafe
3c1d
5564
e9fc
09e2
cafe
2005
5564
e9fc
0830
cafe
2415
5564
ea00
0839
cafe
280e
5564
ea00
07cb
cafe
2c1e
5564
ea00
0946
cafe
3006
5564
ea00
07d7
cafe
3416
5564
ea04
0930
cafe
380f
5564
ea04
07e6
cafe
3c1f
5564
ea04
-
0946
cafe
2007
5564
ea04
07e7
cafe
2417
5564
ea08
087c
cafe
2808
5564
ea08
07e1
cafe
2c18
5564
ea08
089e
cafe
3000
5564
ea08
07d6
cafe
3410
5564
ea0c
08e0
cafe
3809
5564
ea0c
07dd
cafe
3c19
5564
ea0c
08e0
cafe
2001
5564
ea0c
0810
cafe
2411
5564
ea10
08b7
cafe
280a
5564
ea10
0804
cafe
2c1a
5564
ea10
094e
cafe
3002
5564
ea10
07b8
cafe
3412
5564
ea14
08f6
cafe
380b
5564
ea14
07d8
cafe
3c1b
5564
ea14
0919
cafe
2003
5564
ea14
07ac
cafe
2413
5564
ea18
0987
cafe
280c
5564
ea18
07f7
cafe
2c1c
5564
ea18
094c
cafe
3004
5564
ea18
0802
cafe
3414
5564
ea1c
095c
cafe
380d
5564
ea1c
07d1
cafe
3c1d
5564
ea1c
09cb
cafe
2005
5564
ea1c
0822
cafe
2415
5564
ea20
0842
cafe
280e
5564
ea20
07c3
cafe
2c1e
5564
ea20
0933
cafe
3006
5564
ea20
07ca
cafe
3416
5564
ea24
0919
cafe
380f
5564
ea24
07e7
cafe
3c1f
5564
ea24
0932
cafe
2007
5564
ea24
07e4
cafe
2417
5564
ea28
0883
cafe
2808
5564
ea28
07e2
cafe
2c18
5564
ea28
089b
cafe
3000
5564
ea28
07d0
cafe
3410
5564
ea2c
08ce
cafe
3809
5564
ea2c
07cb
cafe
3c19
5564
ea2c
08ce
cafe
2001
5564
ea2c
07fe
cafe
2411
5564
ea30
0891
cafe
280a
5564
ea30
07f7
cafe
2c1a
5564
ea30
093a
cafe
3002
5564
ea30
07b0
cafe
3412
5564
ea34
08db
cafe
380b
5564
ea34
07c5
cafe
3c1b
5564
ea34
08ff
cafe
2003
5564
ea34
07aa
cafe
2413
5564
ea38
0998
cafe
280c
5564
ea38
07e2
-
cafe
2c1c
5564
ea38
0916
cafe
3004
5564
ea38
07fe
cafe
3414
5564
ea3c
0939
cafe
380d
5564
ea3c
07c5
cafe
3c1d
5564
ea3c
09bb
cafe
2005
5564
ea3c
0806
cafe
2415
5564
ea40
0819
cafe
280e
5564
ea40
07b5
cafe
2c1e
5564
ea40
0918
cafe
3006
5564
ea40
07ba
cafe
3416
5564
ea44
08f9
cafe
380f
5564
ea44
07dc
cafe
3c1f
5564
ea44
0917
cafe
2007
5564
ea44
07d1
cafe
2417
5564
ea48
0864
cafe
2808
5564
ea48
07cd
cafe
2c18
5564
ea48
0873
cafe
3000
5564
ea48
07bb
cafe
3410
5564
ea4c
0898
cafe
3809
5564
ea4c
07b9
cafe
3c19
5564
ea4c
08af
cafe
2001
5564
ea4c
07f4
cafe
2411
5564
ea50
0885
cafe
280a
5564
ea50
07e7
cafe
2c1a
5564
ea50
0921
cafe
3002
5564
ea50
0795
cafe
3412
5564
ea54
08bf
cafe
380b
5564
ea54
07b7
cafe
3c1b
5564
ea54
08f3
cafe
2003
5564
ea54
0799
cafe
2413
5564
ea58
0972
cafe
280c
5564
ea58
07d5
cafe
2c1c
5564
ea58
0919
cafe
3004
5564
ea58
07eb
cafe
3414
5564
ea5c
0933
cafe
380d
5564
ea5c
07b9
cafe
3c1d
5564
ea5c
09b3
cafe
2005
5564
ea5c
0808
cafe
2415
5564
ea60
080c
cafe
280e
5564
ea60
07aa
cafe
2c1e
5564
ea60
090d
cafe
3006
5564
ea60
07b5
cafe
3416
5564
ea64
08de
cafe
380f
5564
ea64
07cf
cafe
3c1f
5564
ea64
08fb
cafe
2007
5564
ea64
07c1
cafe
2417
5564
ea68
0842
cafe
2808
5564
ea68
07c6
cafe
2c18
5564
ea68
0857
cafe
3000
5564
ea68
07a8
cafe
3410
5564
ea6c
0893
cafe
-
3809
5564
ea6c
07b0
cafe
3c19
5564
ea6c
0891
cafe
2001
5564
ea6c
07e3
cafe
2411
5564
ea70
0864
cafe
280a
5564
ea70
07e2
cafe
2c1a
5564
ea70
0917
cafe
3002
5564
ea70
078f
cafe
3412
5564
ea74
08af
cafe
380b
5564
ea74
07af
cafe
3c1b
5564
ea74
08bb
cafe
2003
5564
ea74
0778
cafe
2413
5564
ea78
0944
cafe
280c
5564
ea78
07c7
cafe
2c1c
5564
ea78
08fd
cafe
3004
5564
ea78
07da
cafe
3414
5564
ea7c
090f
cafe
380d
5564
ea7c
07a1
cafe
3c1d
5564
ea7c
097e
cafe
2005
5564
ea7c
07f6
cafe
2415
5564
ea80
07eb
cafe
280e
5564
ea80
0798
cafe
2c1e
5564
ea80
08e9
cafe
3006
5564
ea80
07a3
cafe
3416
5564
ea84
08cf
cafe
380f
5564
ea84
07c2
cafe
3c1f
5564
ea84
08db
cafe
2007
5564
ea84
07c0
cafe
2417
5564
ea88
081a
cafe
2808
5564
ea88
07bb
cafe
2c18
5564
ea88
084a
cafe
3000
5564
ea88
07a4
cafe
3410
5564
ea8c
088a
cafe
3809
5564
ea8c
07a6
cafe
3c19
5564
ea8c
0888
cafe
2001
5564
ea8c
07e6
cafe
2411
5564
ea90
0851
cafe
280a
5564
ea90
07d4
cafe
2c1a
5564
ea90
08fa
cafe
3002
5564
ea90
078a
cafe
3412
5564
ea94
0885
cafe
380b
5564
ea94
0799
cafe
3c1b
5564
ea94
08b3
cafe
2003
5564
ea94
077a
cafe
2413
5564
ea98
0941
cafe
280c
5564
ea98
07b8
cafe
2c1c
5564
ea98
08d5
cafe
3004
5564
ea98
07d4
cafe
3414
5564
ea9c
08f8
cafe
380d
5564
ea9c
079a
cafe
3c1d
5564
ea9c
096a
cafe
2005
5564
ea9c
07ec
cafe
2415
-
5564
eaa0
07db
cafe
280e
5564
eaa0
078a
cafe
2c1e
5564
eaa0
08d4
cafe
3006
5564
eaa0
078b
cafe
3416
5564
eaa4
08b0
cafe
380f
5564
eaa4
07b6
cafe
3c1f
5564
eaa4
08cf
cafe
2007
5564
eaa4
07a5
cafe
2417
5564
eaa8
0803
cafe
2808
5564
eaa8
07ac
cafe
2c18
5564
eaa8
081a
cafe
3000
5564
eaa8
078e
cafe
3410
5564
eaac
0864
cafe
3809
5564
eaac
079d
cafe
3c19
5564
eaac
0875
cafe
2001
5564
eaac
07d0
cafe
2411
5564
eab0
0830
cafe
280a
5564
eab0
07c8
cafe
2c1a
5564
eab0
08c6
cafe
3002
5564
eab0
077f
cafe
3412
5564
eab4
086c
cafe
380b
5564
eab4
0798
cafe
3c1b
5564
eab4
08a3
cafe
2003
5564
eab4
0769
cafe
2413
5564
eab8
0936
cafe
280c
5564
eab8
07ad
cafe
2c1c
5564
eab8
08b0
cafe
3004
5564
eab8
07bb
cafe
3414
5564
eabc
08e7
cafe
380d
5564
eabc
0788
cafe
3c1d
5564
eabc
0951
cafe
2005
5564
eabc
07de
cafe
2415
5564
eac0
07be
cafe
280e
5564
eac0
077e
cafe
2c1e
5564
eac0
08c7
cafe
3006
5564
eac0
077e
cafe
3416
5564
eac4
0894
cafe
380f
5564
eac4
07a8
cafe
3c1f
5564
eac4
08aa
cafe
2007
5564
eac4
079f
cafe
2417
5564
eac8
0809
cafe
2808
5564
eac8
07a2
cafe
2c18
5564
eac8
080b
cafe
3000
5564
eac8
0788
cafe
3410
5564
eacc
085b
cafe
3809
5564
eacc
078b
cafe
3c19
5564
eacc
0858
cafe
2001
5564
eacc
07cd
cafe
2411
5564
ead0
081a
cafe
280a
5564
ead0
07b4
cafe
2c1a
5564
ead0
08c8
cafe
3002
5564
-
ead0
076f
cafe
3412
5564
ead4
085c
cafe
380b
5564
ead4
0784
cafe
3c1b
5564
ead4
087b
cafe
2003
5564
ead4
075e
cafe
2413
5564
ead8
0910
cafe
280c
5564
ead8
079e
cafe
2c1c
5564
ead8
0891
cafe
3004
5564
ead8
07c2
cafe
3414
5564
eadc
08e4
cafe
380d
5564
eadc
077a
cafe
3c1d
5564
eadc
0932
cafe
2005
5564
eadc
07ce
cafe
2415
5564
eae0
07b0
cafe
280e
5564
eae0
0773
cafe
2c1e
5564
eae0
0897
cafe
3006
5564
eae0
0779
cafe
3416
5564
eae4
0895
cafe
380f
5564
eae4
079f
cafe
3c1f
5564
eae4
088f
cafe
2007
5564
eae4
0790
cafe
2417
5564
eae8
07e3
cafe
2808
5564
eae8
0792
cafe
2c18
5564
eae8
07e0
cafe
3000
5564
eae8
0776
cafe
3410
5564
eaec
083a
cafe
3809
5564
eaec
0782
cafe
3c19
5564
eaec
0841
cafe
2001
5564
eaec
07ba
cafe
2411
5564
eaf0
07ec
cafe
280a
5564
eaf0
07ac
cafe
2c1a
5564
eaf0
089c
cafe
3002
5564
eaf0
0761
cafe
3412
5564
eaf4
083d
cafe
380b
5564
eaf4
0781
cafe
3c1b
5564
eaf4
0867
cafe
2003
5564
eaf4
073e
cafe
2413
5564
eaf8
090b
cafe
280c
5564
eaf8
078d
cafe
2c1c
5564
eaf8
0886
cafe
3004
5564
eaf8
07ac
cafe
3414
5564
eafc
08c2
cafe
380d
5564
eafc
0778
cafe
3c1d
5564
eafc
0936
cafe
2005
5564
eafc
07c5
cafe
2415
5564
eb00
0799
cafe
280e
5564
eb00
076e
cafe
2c1e
5564
eb00
087e
cafe
3006
5564
eb00
0772
cafe
3416
5564
eb04
0884
cafe
380f
5564
eb04
0796
cafe
3c1f
5564
eb04
-
0861
cafe
2007
5564
eb04
078c
cafe
2417
5564
eb08
07cd
cafe
2808
5564
eb08
078a
cafe
2c18
5564
eb08
07e3
cafe
3000
5564
eb08
076f
cafe
3410
5564
eb0c
081d
cafe
3809
5564
eb0c
0774
cafe
3c19
5564
eb0c
0825
cafe
2001
5564
eb0c
07ad
cafe
2411
5564
eb10
07e2
cafe
280a
5564
eb10
07a0
cafe
2c1a
5564
eb10
088d
cafe
3002
5564
eb10
0753
cafe
3412
5564
eb14
080f
cafe
380b
5564
eb14
0774
cafe
3c1b
5564
eb14
0853
cafe
2003
5564
eb14
0732
cafe
2413
5564
eb18
08fd
cafe
280c
5564
eb18
078f
cafe
2c1c
5564
eb18
0868
cafe
3004
5564
eb18
079c
cafe
3414
5564
eb1c
08a4
cafe
380d
5564
eb1c
076f
cafe
3c1d
5564
eb1c
08f1
cafe
2005
5564
eb1c
07b2
cafe
2415
5564
eb20
076e
cafe
280e
5564
eb20
075c
cafe
2c1e
5564
eb20
0874
cafe
3006
5564
eb20
0758
cafe
3416
5564
eb24
0863
cafe
380f
5564
eb24
0784
cafe
3c1f
5564
eb24
0845
cafe
2007
5564
eb24
0773
cafe
2417
5564
eb28
07af
cafe
2808
5564
eb28
077c
cafe
2c18
5564
eb28
07b8
cafe
3000
5564
eb28
0755
cafe
3410
5564
eb2c
07fb
cafe
3809
5564
eb2c
075e
cafe
3c19
5564
eb2c
080b
cafe
2001
5564
eb2c
079c
cafe
2411
5564
eb30
07c5
cafe
280a
5564
eb30
0791
cafe
2c1a
5564
eb30
0878
cafe
3002
5564
eb30
074a
cafe
3412
5564
eb34
0805
cafe
380b
5564
eb34
0766
cafe
3c1b
5564
eb34
0847
cafe
2003
5564
eb34
0733
cafe
2413
5564
eb38
08db
cafe
280c
5564
eb38
077b
-
cafe
2c1c
5564
eb38
0854
cafe
3004
5564
eb38
0790
cafe
3414
5564
eb3c
08a2
cafe
380d
5564
eb3c
0763
cafe
3c1d
5564
eb3c
08ec
cafe
2005
5564
eb3c
07aa
cafe
2415
5564
eb40
0750
cafe
280e
5564
eb40
0759
cafe
2c1e
5564
eb40
0851
cafe
3006
5564
eb40
0756
cafe
3416
5564
eb44
0841
cafe
380f
5564
eb44
077b
cafe
3c1f
5564
eb44
081c
cafe
2007
5564
eb44
0763
cafe
2417
5564
eb48
0796
cafe
2808
5564
eb48
0776
cafe
2c18
5564
eb48
0794
cafe
3000
5564
eb48
0743
cafe
3410
5564
eb4c
07f0
cafe
3809
5564
eb4c
0757
cafe
3c19
5564
eb4c
07df
cafe
2001
5564
eb4c
0790
cafe
2411
5564
eb50
07a7
cafe
280a
5564
eb50
078e
cafe
2c1a
5564
eb50
084e
cafe
3002
5564
eb50
0742
cafe
3412
5564
eb54
07dc
cafe
380b
5564
eb54
075a
cafe
3c1b
5564
eb54
0819
cafe
2003
5564
eb54
0729
cafe
2413
5564
eb58
08cb
cafe
280c
5564
eb58
0772
cafe
2c1c
5564
eb58
0831
cafe
3004
5564
eb58
077b
cafe
3414
5564
eb5c
0863
cafe
380d
5564
eb5c
075d
cafe
3c1d
5564
eb5c
08e8
cafe
2005
5564
eb5c
0797
cafe
2415
5564
eb60
0747
cafe
280e
5564
eb60
074b
cafe
2c1e
5564
eb60
0850
cafe
3006
5564
eb60
0746
cafe
3416
5564
eb64
082b
cafe
380f
5564
eb64
0770
cafe
3c1f
5564
eb64
0817
cafe
2007
5564
eb64
076a
cafe
2417
5564
eb68
0783
cafe
2808
5564
eb68
076c
cafe
2c18
5564
eb68
078f
cafe
3000
5564
eb68
0741
cafe
3410
5564
eb6c
07e2
cafe
-
3809
5564
eb6c
074d
cafe
3c19
5564
eb6c
07d3
cafe
2001
5564
eb6c
0785
cafe
2411
5564
eb70
079f
cafe
280a
5564
eb70
0781
cafe
2c1a
5564
eb70
083c
cafe
3002
5564
eb70
0735
cafe
3412
5564
eb74
07d8
cafe
380b
5564
eb74
0748
cafe
3c1b
5564
eb74
0816
cafe
2003
5564
eb74
0722
cafe
2413
5564
eb78
08c0
cafe
280c
5564
eb78
075f
cafe
2c1c
5564
eb78
0820
cafe
3004
5564
eb78
077d
cafe
3414
5564
eb7c
0861
cafe
380d
5564
eb7c
0751
cafe
3c1d
5564
eb7c
08c1
cafe
2005
5564
eb7c
0791
cafe
2415
5564
eb80
0737
cafe
280e
5564
eb80
0748
cafe
2c1e
5564
eb80
0828
cafe
3006
5564
eb80
0733
cafe
3416
5564
eb84
0822
cafe
380f
5564
eb84
0762
cafe
3c1f
5564
eb84
080a
cafe
2007
5564
eb84
075d
cafe
2417
5564
eb88
076c
cafe
2808
5564
eb88
0762
cafe
2c18
5564
eb88
076a
cafe
3000
5564
eb88
0730
cafe
3410
5564
eb8c
07c5
cafe
3809
5564
eb8c
0744
cafe
3c19
5564
eb8c
07b7
cafe
2001
5564
eb8c
077c
cafe
2411
5564
eb90
076d
cafe
280a
5564
eb90
077a
cafe
2c1a
5564
eb90
081a
cafe
3002
5564
eb90
072c
cafe
3412
5564
eb94
07c8
cafe
380b
5564
eb94
074a
cafe
3c1b
5564
eb94
080a
cafe
2003
5564
eb94
070f
cafe
2413
5564
eb98
08a0
cafe
280c
5564
eb98
0758
cafe
2c1c
5564
eb98
0803
cafe
3004
5564
eb98
0769
cafe
3414
5564
eb9c
084d
cafe
380d
5564
eb9c
073b
cafe
3c1d
5564
eb9c
08aa
cafe
2005
5564
eb9c
0789
cafe
2415
-
5564
eba0
0721
cafe
280e
5564
eba0
073b
cafe
2c1e
5564
eba0
0811
cafe
3006
5564
eba0
0722
cafe
3416
5564
eba4
0801
cafe
380f
5564
eba4
075d
cafe
3c1f
5564
eba4
07d6
cafe
2007
5564
eba4
074c
cafe
2417
5564
eba8
0746
cafe
2808
5564
eba8
0754
cafe
2c18
5564
eba8
0754
cafe
3000
5564
eba8
0726
cafe
3410
5564
ebac
07b0
cafe
3809
5564
ebac
073a
cafe
3c19
5564
ebac
07ad
cafe
2001
5564
ebac
076a
cafe
2411
5564
ebb0
075a
cafe
280a
5564
ebb0
0769
cafe
2c1a
5564
ebb0
07fe
cafe
3002
5564
ebb0
071b
cafe
3412
5564
ebb4
07b4
cafe
380b
5564
ebb4
073e
cafe
3c1b
5564
ebb4
07d5
cafe
2003
5564
ebb4
06fb
cafe
2413
5564
ebb8
087e
cafe
280c
5564
ebb8
0749
cafe
2c1c
5564
ebb8
07d8
cafe
3004
5564
ebb8
075f
cafe
3414
5564
ebbc
083a
cafe
380d
5564
ebbc
0732
cafe
3c1d
5564
ebbc
089d
cafe
2005
5564
ebbc
0777
cafe
2415
5564
ebc0
06ff
cafe
280e
5564
ebc0
0725
cafe
2c1e
5564
ebc0
07e9
cafe
3006
5564
ebc0
0712
cafe
3416
5564
ebc4
07eb
cafe
380f
5564
ebc4
0752
cafe
3c1f
5564
ebc4
07bc
cafe
2007
5564
ebc4
073c
cafe
2417
5564
ebc8
071f
cafe
2808
5564
ebc8
0749
cafe
2c18
5564
ebc8
0732
cafe
3000
5564
ebc8
070b
cafe
3410
5564
ebcc
0799
cafe
3809
5564
ebcc
0727
cafe
3c19
5564
ebcc
077f
cafe
2001
5564
ebcc
0761
cafe
2411
5564
ebd0
0747
cafe
280a
5564
ebd0
075d
cafe
2c1a
5564
ebd0
07ec
cafe
3002
5564
-
ebd0
0701
cafe
3412
5564
ebd4
077f
cafe
380b
5564
ebd4
0727
cafe
3c1b
5564
ebd4
07d0
cafe
2003
5564
ebd4
06f2
cafe
2413
5564
ebd8
087f
cafe
280c
5564
ebd8
0742
cafe
2c1c
5564
ebd8
07be
cafe
3004
5564
ebd8
075c
cafe
3414
5564
ebdc
081c
cafe
380d
5564
ebdc
0725
cafe
3c1d
5564
ebdc
0874
cafe
2005
5564
ebdc
0772
cafe
2415
5564
ebe0
06e0
cafe
280e
5564
ebe0
0716
cafe
2c1e
5564
ebe0
07d2
cafe
3006
5564
ebe0
070e
cafe
3416
5564
ebe4
07d3
cafe
380f
5564
ebe4
0749
cafe
3c1f
5564
ebe4
07b1
cafe
2007
5564
ebe4
072a
cafe
2417
5564
ebe8
0724
cafe
2808
5564
ebe8
073a
cafe
2c18
5564
ebe8
070c
cafe
3000
5564
ebe8
0708
cafe
3410
5564
ebec
078a
cafe
3809
5564
ebec
0727
cafe
3c19
5564
ebec
0788
cafe
2001
5564
ebec
0764
cafe
2411
5564
ebf0
0720
cafe
280a
5564
ebf0
0752
cafe
2c1a
5564
ebf0
07ca
cafe
3002
5564
ebf0
06fb
cafe
3412
5564
ebf4
0781
cafe
380b
5564
ebf4
0723
cafe
3c1b
5564
ebf4
07b7
cafe
2003
5564
ebf4
06ed
cafe
2413
5564
ebf8
084a
cafe
280c
5564
ebf8
073b
cafe
2c1c
5564
ebf8
07aa
cafe
3004
5564
ebf8
074f
cafe
3414
5564
ebfc
080d
cafe
380d
5564
ebfc
0714
cafe
3c1d
5564
ebfc
0872
cafe
2005
5564
ebfc
0764
cafe
2415
5564
ec00
06dc
cafe
280e
5564
ec00
0706
cafe
2c1e
5564
ec00
07bd
cafe
3006
5564
ec00
0706
cafe
3416
5564
ec04
07bf
cafe
380f
5564
ec04
073e
cafe
3c1f
5564
ec04
-
079b
cafe
2007
5564
ec04
0725
cafe
2417
5564
ec08
0712
cafe
2808
5564
ec08
0733
cafe
2c18
5564
ec08
0713
cafe
3000
5564
ec08
06fb
cafe
3410
5564
ec0c
0779
cafe
3809
5564
ec0c
0714
cafe
3c19
5564
ec0c
0767
cafe
2001
5564
ec0c
0749
cafe
2411
5564
ec10
070e
cafe
280a
5564
ec10
0740
cafe
2c1a
5564
ec10
07aa
cafe
3002
5564
ec10
06ec
cafe
3412
5564
ec14
0768
cafe
380b
5564
ec14
071d
cafe
3c1b
5564
ec14
07ab
cafe
2003
5564
ec14
06d8
cafe
2413
5564
ec18
084e
cafe
280c
5564
ec18
072c
cafe
2c1c
5564
ec18
077f
cafe
3004
5564
ec18
070b
cafe
3414
5564
ec1c
07fb
cafe
380d
5564
ec1c
0709
cafe
3c1d
5564
ec1c
085b
cafe
2005
5564
ec1c
0737
cafe
2415
5564
ec20
06c6
cafe
280e
5564
ec20
070c
cafe
2c1e
5564
ec20
079d
cafe
3006
5564
ec20
06e0
cafe
3416
5564
ec24
07c0
cafe
380f
5564
ec24
0728
cafe
3c1f
5564
ec24
0783
cafe
2007
5564
ec24
06d7
cafe
2417
5564
ec28
06ed
cafe
2808
5564
ec28
0724
cafe
2c18
5564
ec28
06eb
cafe
3000
5564
ec28
0682
cafe
3410
5564
ec2c
0747
cafe
3809
5564
ec2c
06ff
cafe
3c19
5564
ec2c
0736
cafe
2001
5564
ec2c
06d3
cafe
2411
5564
ec30
06ee
cafe
280a
5564
ec30
0736
cafe
2c1a
5564
ec30
079a
cafe
3002
5564
ec30
0665
cafe
3412
5564
ec34
073b
cafe
380b
5564
ec34
0716
cafe
3c1b
5564
ec34
0789
cafe
2003
5564
ec34
0646
cafe
2413
5564
ec38
0835
cafe
280c
5564
ec38
071f
-
cafe
2c1c
5564
ec38
0769
cafe
3004
5564
ec38
06a5
cafe
3414
5564
ec3c
07e1
cafe
380d
5564
ec3c
070a
cafe
3c1d
5564
ec3c
0842
cafe
2005
5564
ec3c
06bb
cafe
2415
5564
ec40
06b5
cafe
280e
5564
ec40
06fa
cafe
2c1e
5564
ec40
0790
cafe
3006
5564
ec40
0651
cafe
3416
5564
ec44
07b2
cafe
380f
5564
ec44
0721
cafe
3c1f
5564
ec44
076d
cafe
2007
5564
ec44
0675
cafe
2417
5564
ec48
06d8
cafe
2808
5564
ec48
071a
cafe
2c18
5564
ec48
06de
cafe
3000
5564
ec48
0636
cafe
3410
5564
ec4c
075c
cafe
3809
5564
ec4c
06fb
cafe
3c19
5564
ec4c
0726
cafe
2001
5564
ec4c
06a3
cafe
2411
5564
ec50
06cd
cafe
280a
5564
ec50
0724
cafe
2c1a
5564
ec50
0798
cafe
3002
5564
ec50
063f
cafe
3412
5564
ec54
0728
cafe
380b
5564
ec54
0709
cafe
3c1b
5564
ec54
0755
cafe
2003
5564
ec54
0626
cafe
2413
5564
ec58
0816
cafe
280c
5564
ec58
0713
cafe
2c1c
5564
ec58
0760
cafe
3004
5564
ec58
0688
cafe
3414
5564
ec5c
07c5
cafe
380d
5564
ec5c
0704
cafe
3c1d
5564
ec5c
0824
cafe
2005
5564
ec5c
069e
cafe
2415
5564
ec60
0687
cafe
280e
5564
ec60
06e7
cafe
2c1e
5564
ec60
0773
cafe
3006
5564
ec60
0639
cafe
3416
5564
ec64
0784
cafe
380f
5564
ec64
06e3
cafe
3c1f
5564
ec64
074e
cafe
2007
5564
ec64
0661
cafe
2417
5564
ec68
06cf
cafe
2808
5564
ec68
06b6
cafe
2c18
5564
ec68
06c6
cafe
3000
5564
ec68
0621
cafe
3410
5564
ec6c
0727
cafe
-
3809
5564
ec6c
0683
cafe
3c19
5564
ec6c
0713
cafe
2001
5564
ec6c
068b
cafe
2411
5564
ec70
06c8
cafe
280a
5564
ec70
06a1
cafe
2c1a
5564
ec70
0780
cafe
3002
5564
ec70
063c
cafe
3412
5564
ec74
0722
cafe
380b
5564
ec74
0676
cafe
3c1b
5564
ec74
0755
cafe
2003
5564
ec74
061a
cafe
2413
5564
ec78
07ff
cafe
280c
5564
ec78
067a
cafe
2c1c
5564
ec78
0749
cafe
3004
5564
ec78
0672
cafe
3414
5564
ec7c
07a3
cafe
380d
5564
ec7c
0658
cafe
3c1d
5564
ec7c
0802
cafe
2005
5564
ec7c
0697
cafe
2415
5564
ec80
0671
cafe
280e
5564
ec80
064b
cafe
2c1e
5564
ec80
0756
cafe
3006
5564
ec80
063d
cafe
3416
5564
ec84
0776
cafe
380f
5564
ec84
066d
cafe
3c1f
5564
ec84
0736
cafe
2007
5564
ec84
064b
cafe
2417
5564
ec88
06ab
cafe
2808
5564
ec88
0669
cafe
2c18
5564
ec88
069b
cafe
3000
5564
ec88
0611
cafe
3410
5564
ec8c
0712
cafe
3809
5564
ec8c
0649
cafe
3c19
5564
ec8c
0702
cafe
2001
5564
ec8c
0685
cafe
2411
5564
ec90
06af
cafe
280a
5564
ec90
0670
cafe
2c1a
5564
ec90
0769
cafe
3002
5564
ec90
0623
cafe
3412
5564
ec94
0711
cafe
380b
5564
ec94
0649
cafe
3c1b
5564
ec94
0737
cafe
2003
5564
ec94
060e
cafe
2413
5564
ec98
07f5
cafe
280c
5564
ec98
0660
cafe
2c1c
5564
ec98
0736
cafe
3004
5564
ec98
0670
cafe
3414
5564
ec9c
0797
cafe
380d
5564
ec9c
0645
cafe
3c1d
5564
ec9c
0801
cafe
2005
5564
ec9c
068b
cafe
2415
-
5564
eca0
0667
cafe
280e
5564
eca0
0631
cafe
2c1e
5564
eca0
074b
cafe
3006
5564
eca0
062d
cafe
3416
5564
eca4
074b
cafe
380f
5564
eca4
065c
cafe
3c1f
5564
eca4
071d
cafe
2007
5564
eca4
0647
cafe
2417
5564
eca8
0698
cafe
2808
5564
eca8
065f
cafe
2c18
5564
eca8
0694
cafe
3000
5564
eca8
0619
cafe
3410
5564
ecac
06ff
cafe
3809
5564
ecac
0644
cafe
3c19
5564
ecac
06ee
cafe
2001
5564
ecac
0674
cafe
2411
5564
ecb0
06a0
cafe
280a
5564
ecb0
066e
cafe
2c1a
5564
ecb0
0752
cafe
3002
5564
ecb0
0615
cafe
3412
5564
ecb4
06fc
cafe
380b
5564
ecb4
0646
cafe
3c1b
5564
ecb4
072a
cafe
2003
5564
ecb4
0604
cafe
2413
5564
ecb8
07e4
cafe
280c
5564
ecb8
065b
cafe
2c1c
5564
ecb8
071b
cafe
3004
5564
ecb8
0662
cafe
3414
5564
ecbc
0786
cafe
380d
5564
ecbc
0644
cafe
3c1d
5564
ecbc
07df
cafe
2005
5564
ecbc
0686
cafe
2415
5564
ecc0
064e
cafe
280e
5564
ecc0
062f
cafe
2c1e
5564
ecc0
0742
cafe
3006
5564
ecc0
0620
cafe
3416
5564
ecc4
0749
cafe
380f
5564
ecc4
0655
cafe
3c1f
5564
ecc4
0708
cafe
2007
5564
ecc4
0647
cafe
2417
5564
ecc8
0684
cafe
2808
5564
ecc8
0656
cafe
2c18
5564
ecc8
0671
cafe
3000
5564
ecc8
0606
cafe
3410
5564
eccc
06f8
cafe
3809
5564
eccc
062f
cafe
3c19
5564
eccc
06d3
cafe
2001
5564
eccc
066e
cafe
2411
5564
ecd0
0682
cafe
280a
5564
ecd0
065b
cafe
2c1a
5564
ecd0
0739
cafe
3002
5564
-
ecd0
0613
cafe
3412
5564
ecd4
06f8
cafe
380b
5564
ecd4
0635
cafe
3c1b
5564
ecd4
0703
cafe
2003
5564
ecd4
05e8
cafe
2413
5564
ecd8
07d1
cafe
280c
5564
ecd8
0650
cafe
2c1c
5564
ecd8
070a
cafe
3004
5564
ecd8
065c
cafe
3414
5564
ecdc
076d
cafe
380d
5564
ecdc
063b
cafe
3c1d
5564
ecdc
07ce
cafe
2005
5564
ecdc
067d
cafe
2415
5564
ece0
063e
cafe
280e
5564
ece0
061f
cafe
2c1e
5564
ece0
0733
cafe
3006
5564
ece0
060b
cafe
3416
5564
ece4
0730
cafe
380f
5564
ece4
0648
cafe
3c1f
5564
ece4
06f1
cafe
2007
5564
ece4
0638
cafe
2417
5564
ece8
0673
cafe
2808
5564
ece8
0648
cafe
2c18
5564
ece8
0677
cafe
3000
5564
ece8
0607
cafe
3410
5564
ecec
06cd
cafe
3809
5564
ecec
0622
cafe
3c19
5564
ecec
06cb
cafe
2001
5564
ecec
0666
cafe
2411
5564
ecf0
0680
cafe
280a
5564
ecf0
064b
cafe
2c1a
5564
ecf0
073f
cafe
3002
5564
ecf0
0601
cafe
3412
5564
ecf4
06c7
cafe
380b
5564
ecf4
062e
cafe
3c1b
5564
ecf4
06f9
cafe
2003
5564
ecf4
05df
cafe
2413
5564
ecf8
07ba
cafe
280c
5564
ecf8
0648
cafe
2c1c
5564
ecf8
06f9
cafe
3004
5564
ecf8
065a
cafe
3414
5564
ecfc
0757
cafe
380d
5564
ecfc
0628
cafe
3c1d
5564
ecfc
07b3
cafe
2005
5564
ecfc
0667
cafe
2415
5564
ed00
0644
cafe
280e
5564
ed00
0618
cafe
2c1e
5564
ed00
0710
cafe
3006
5564
ed00
060c
cafe
3416
5564
ed04
070c
cafe
380f
5564
ed04
063a
cafe
3c1f
5564
ed04
-
06c3
cafe
2007
5564
ed04
0623
cafe
2417
5564
ed08
0653
cafe
2808
5564
ed08
0641
cafe
2c18
5564
ed08
0641
cafe
3000
5564
ed08
05f1
cafe
3410
5564
ed0c
06be
cafe
3809
5564
ed0c
060c
cafe
3c19
5564
ed0c
06a8
cafe
2001
5564
ed0c
064e
cafe
2411
5564
ed10
0667
cafe
280a
5564
ed10
0646
cafe
2c1a
5564
ed10
0719
cafe
3002
5564
ed10
05f2
cafe
3412
5564
ed14
06a8
cafe
380b
5564
ed14
0629
cafe
3c1b
5564
ed14
06d8
cafe
2003
5564
ed14
05da
cafe
2413
5564
ed18
07bc
cafe
280c
5564
ed18
0636
cafe
2c1c
5564
ed18
06de
cafe
3004
5564
ed18
0644
cafe
3414
5564
ed1c
073a
cafe
380d
5564
ed1c
0619
cafe
3c1d
5564
ed1c
0787
cafe
2005
5564
ed1c
0668
cafe
2415
5564
ed20
0624
cafe
280e
5564
ed20
0605
cafe
2c1e
5564
ed20
06f8
cafe
3006
5564
ed20
0608
cafe
3416
5564
ed24
0705
cafe
380f
5564
ed24
0638
cafe
3c1f
5564
ed24
06ce
cafe
2007
5564
ed24
0615
cafe
2417
5564
ed28
0639
cafe
2808
5564
ed28
0631
cafe
2c18
5564
ed28
0641
cafe
3000
5564
ed28
05ef
cafe
3410
5564
ed2c
06bc
cafe
3809
5564
ed2c
0617
cafe
3c19
5564
ed2c
06ab
cafe
2001
5564
ed2c
063e
cafe
2411
5564
ed30
0647
cafe
280a
5564
ed30
063b
cafe
2c1a
5564
ed30
0711
cafe
3002
5564
ed30
05e6
cafe
3412
5564
ed34
069e
cafe
380b
5564
ed34
061e
cafe
3c1b
5564
ed34
06c8
cafe
2003
5564
ed34
05c6
cafe
2413
5564
ed38
0797
cafe
280c
5564
ed38
0620
-
cafe
2c1c
5564
ed38
06c4
cafe
3004
5564
ed38
0633
cafe
3414
5564
ed3c
0728
cafe
380d
5564
ed3c
0611
cafe
3c1d
5564
ed3c
077b
cafe
2005
5564
ed3c
0656
cafe
2415
5564
ed40
05f0
cafe
280e
5564
ed40
0606
cafe
2c1e
5564
ed40
06e7
cafe
3006
5564
ed40
05f6
cafe
3416
5564
ed44
06f9
cafe
380f
5564
ed44
061d
cafe
3c1f
5564
ed44
069f
cafe
2007
5564
ed44
0603
cafe
2417
5564
ed48
061b
cafe
2808
5564
ed48
061e
cafe
2c18
5564
ed48
061c
cafe
3000
5564
ed48
05d8
cafe
3410
5564
ed4c
068c
cafe
3809
5564
ed4c
0606
cafe
3c19
5564
ed4c
06a0
cafe
2001
5564
ed4c
0644
cafe
2411
5564
ed50
0638
cafe
280a
5564
ed50
0620
cafe
2c1a
5564
ed50
06cd
cafe
3002
5564
ed50
05c3
cafe
3412
5564
ed54
066d
cafe
380b
5564
ed54
0605
cafe
3c1b
5564
ed54
06b2
cafe
2003
5564
ed54
05af
cafe
2413
5564
ed58
0773
cafe
280c
5564
ed58
061e
cafe
2c1c
5564
ed58
06be
cafe
3004
5564
ed58
0624
cafe
3414
5564
ed5c
0727
cafe
380d
5564
ed5c
0606
cafe
3c1d
5564
ed5c
0774
cafe
2005
5564
ed5c
0653
cafe
2415
5564
ed60
05fb
cafe
280e
5564
ed60
05fe
cafe
2c1e
5564
ed60
06ce
cafe
3006
5564
ed60
05ee
cafe
3416
5564
ed64
0703
cafe
380f
5564
ed64
061d
cafe
3c1f
5564
ed64
0698
cafe
2007
5564
ed64
0607
cafe
2417
5564
ed68
060b
cafe
2808
5564
ed68
061f
cafe
2c18
5564
ed68
05ff
cafe
3000
5564
ed68
05d9
cafe
3410
5564
ed6c
06a6
cafe
-
3809
5564
ed6c
05f4
cafe
3c19
5564
ed6c
0688
cafe
2001
5564
ed6c
0633
cafe
2411
5564
ed70
060e
cafe
280a
5564
ed70
0627
cafe
2c1a
5564
ed70
06d2
cafe
3002
5564
ed70
05dd
cafe
3412
5564
ed74
065f
cafe
380b
5564
ed74
0603
cafe
3c1b
5564
ed74
06d7
cafe
2003
5564
ed74
05b7
cafe
2413
5564
ed78
078d
cafe
280c
5564
ed78
060e
cafe
2c1c
5564
ed78
068c
cafe
3004
5564
ed78
0623
cafe
3414
5564
ed7c
0705
cafe
380d
5564
ed7c
05ff
cafe
3c1d
5564
ed7c
075d
cafe
2005
5564
ed7c
0643
cafe
2415
5564
ed80
05e7
cafe
280e
5564
ed80
05f3
cafe
2c1e
5564
ed80
06b6
cafe
3006
5564
ed80
05e0
cafe
3416
5564
ed84
06d9
cafe
380f
5564
ed84
061a
cafe
3c1f
5564
ed84
0696
cafe
2007
5564
ed84
05fa
cafe
2417
5564
ed88
05f6
cafe
2808
5564
ed88
0618
cafe
2c18
5564
ed88
05e6
cafe
3000
5564
ed88
05d3
cafe
3410
5564
ed8c
0685
cafe
3809
5564
ed8c
05e6
cafe
3c19
5564
ed8c
0674
cafe
2001
5564
ed8c
062e
cafe
2411
5564
ed90
05fd
cafe
280a
5564
ed90
0615
cafe
2c1a
5564
ed90
06b2
cafe
3002
5564
ed90
05d4
cafe
3412
5564
ed94
0662
cafe
380b
5564
ed94
05f6
cafe
3c1b
5564
ed94
06a1
cafe
2003
5564
ed94
05ad
cafe
2413
5564
ed98
075d
cafe
280c
5564
ed98
060a
cafe
2c1c
5564
ed98
0688
cafe
3004
5564
ed98
0618
cafe
3414
5564
ed9c
06fd
cafe
380d
5564
ed9c
05fa
cafe
3c1d
5564
ed9c
074a
cafe
2005
5564
ed9c
0640
cafe
2415
-
5564
eda0
05c6
cafe
280e
5564
eda0
05e5
cafe
2c1e
5564
eda0
06b6
cafe
3006
5564
eda0
05de
cafe
3416
5564
eda4
06c9
cafe
380f
5564
eda4
0605
cafe
3c1f
5564
eda4
065c
cafe
2007
5564
eda4
05f4
cafe
2417
5564
eda8
05ed
cafe
2808
5564
eda8
0611
cafe
2c18
5564
eda8
05de
cafe
3000
5564
eda8
05b8
cafe
3410
5564
edac
066b
cafe
3809
5564
edac
05e5
cafe
3c19
5564
edac
0662
cafe
2001
5564
edac
061b
cafe
2411
5564
edb0
05ce
cafe
280a
5564
edb0
061a
cafe
2c1a
5564
edb0
06a9
cafe
3002
5564
edb0
05c9
cafe
3412
5564
edb4
063d
cafe
380b
5564
edb4
05f6
cafe
3c1b
5564
edb4
067b
cafe
2003
5564
edb4
05a3
cafe
2413
5564
edb8
0762
cafe
280c
5564
edb8
05fe
cafe
2c1c
5564
edb8
0672
cafe
3004
5564
edb8
0603
cafe
3414
5564
edbc
06d0
cafe
380d
5564
edbc
05e2
cafe
3c1d
5564
edbc
074f
cafe
2005
5564
edbc
0622
cafe
2415
5564
edc0
05b6
cafe
280e
5564
edc0
05d8
cafe
2c1e
5564
edc0
0680
cafe
3006
5564
edc0
05c9
cafe
3416
5564
edc4
06b4
cafe
380f
5564
edc4
05fa
cafe
3c1f
5564
edc4
064b
cafe
2007
5564
edc4
05e4
cafe
2417
5564
edc8
05bf
cafe
2808
5564
edc8
05f5
cafe
2c18
5564
edc8
05d0
cafe
3000
5564
edc8
05b8
cafe
3410
5564
edcc
064e
cafe
3809
5564
edcc
05da
cafe
3c19
5564
edcc
0645
cafe
2001
5564
edcc
0617
cafe
2411
5564
edd0
05d8
cafe
280a
5564
edd0
060a
cafe
2c1a
5564
edd0
0696
cafe
3002
5564
-
edd0
05ba
cafe
3412
5564
edd4
063e
cafe
380b
5564
edd4
05e7
cafe
3c1b
5564
edd4
066d
cafe
2003
5564
edd4
0597
cafe
2413
5564
edd8
074f
cafe
280c
5564
edd8
05f5
cafe
2c1c
5564
edd8
0662
cafe
3004
5564
edd8
05fb
cafe
3414
5564
eddc
06b6
cafe
380d
5564
eddc
05e0
cafe
3c1d
5564
eddc
0723
cafe
2005
5564
eddc
061e
cafe
2415
5564
ede0
059f
cafe
280e
5564
ede0
05c7
cafe
2c1e
5564
ede0
0686
cafe
3006
5564
ede0
05bc
cafe
3416
5564
ede4
0690
cafe
380f
5564
ede4
05f0
cafe
3c1f
5564
ede4
0642
cafe
2007
5564
ede4
05d6
cafe
2417
5564
ede8
05c4
cafe
2808
5564
ede8
05f6
cafe
2c18
5564
ede8
05ac
cafe
3000
5564
ede8
05a7
cafe
3410
5564
edec
0624
cafe
3809
5564
edec
05cd
cafe
3c19
5564
edec
062d
cafe
2001
5564
edec
0603
cafe
2411
5564
edf0
05c3
cafe
280a
5564
edf0
05fb
cafe
2c1a
5564
edf0
067b
cafe
3002
5564
edf0
05b0
cafe
3412
5564
edf4
0610
cafe
380b
5564
edf4
05e5
cafe
3c1b
5564
edf4
065c
cafe
2003
5564
edf4
0589
cafe
2413
5564
edf8
0742
cafe
280c
5564
edf8
05e6
cafe
2c1c
5564
edf8
0657
cafe
3004
5564
edf8
05f0
cafe
3414
5564
edfc
06b6
cafe
380d
5564
edfc
05d9
cafe
3c1d
5564
edfc
071a
cafe
2005
5564
edfc
0618
cafe
2415
5564
ee00
0589
cafe
280e
5564
ee00
05c1
cafe
2c1e
5564
ee00
067a
cafe
3006
5564
ee00
05b3
cafe
3416
5564
ee04
067a
cafe
380f
5564
ee04
05e9
cafe
3c1f
5564
ee04
-
062c
cafe
2007
5564
ee04
05cb
cafe
2417
5564
ee08
05b1
cafe
2808
5564
ee08
05db
cafe
2c18
5564
ee08
059b
cafe
3000
5564
ee08
0596
cafe
3410
5564
ee0c
0620
cafe
3809
5564
ee0c
05c9
cafe
3c19
5564
ee0c
061f
cafe
2001
5564
ee0c
0603
cafe
2411
5564
ee10
05ad
cafe
280a
5564
ee10
05ef
cafe
2c1a
5564
ee10
0665
cafe
3002
5564
ee10
059c
cafe
3412
5564
ee14
05fe
cafe
380b
5564
ee14
05d0
cafe
3c1b
5564
ee14
063c
cafe
2003
5564
ee14
057e
cafe
2413
5564
ee18
071c
cafe
280c
5564
ee18
05e2
cafe
2c1c
5564
ee18
062d
cafe
3004
5564
ee18
05e3
cafe
3414
5564
ee1c
06ac
cafe
380d
5564
ee1c
05c3
cafe
3c1d
5564
ee1c
06ed
cafe
2005
5564
ee1c
0611
cafe
2415
5564
ee20
0561
cafe
280e
5564
ee20
05b3
cafe
2c1e
5564
ee20
065b
cafe
3006
5564
ee20
059e
cafe
3416
5564
ee24
066d
cafe
380f
5564
ee24
05e1
cafe
3c1f
5564
ee24
0615
cafe
2007
5564
ee24
05c5
cafe
2417
5564
ee28
0599
cafe
2808
5564
ee28
05d6
cafe
2c18
5564
ee28
0588
cafe
3000
5564
ee28
0596
cafe
3410
5564
ee2c
0620
cafe
3809
5564
ee2c
05bd
cafe
3c19
5564
ee2c
0602
cafe
2001
5564
ee2c
05fd
cafe
2411
5564
ee30
05a0
cafe
280a
5564
ee30
05ec
cafe
2c1a
5564
ee30
0667
cafe
3002
5564
ee30
058c
cafe
3412
5564
ee34
05d6
cafe
380b
5564
ee34
05c6
cafe
3c1b
5564
ee34
0630
cafe
2003
5564
ee34
0573
cafe
2413
5564
ee38
0712
cafe
280c
5564
ee38
05d1
-
cafe
2c1c
5564
ee38
0622
cafe
3004
5564
ee38
05d5
cafe
3414
5564
ee3c
069e
cafe
380d
5564
ee3c
05b8
cafe
3c1d
5564
ee3c
06e0
cafe
2005
5564
ee3c
060b
cafe
2415
5564
ee40
0561
cafe
280e
5564
ee40
05a8
cafe
2c1e
5564
ee40
064c
cafe
3006
5564
ee40
059c
cafe
3416
5564
ee44
065f
cafe
380f
5564
ee44
05d7
cafe
3c1f
5564
ee44
05fa
cafe
2007
5564
ee44
05b3
cafe
2417
5564
ee48
058c
cafe
2808
5564
ee48
05cf
cafe
2c18
5564
ee48
0589
cafe
3000
5564
ee48
057c
cafe
3410
5564
ee4c
05f3
cafe
3809
5564
ee4c
05ab
cafe
3c19
5564
ee4c
05d8
cafe
2001
5564
ee4c
05e2
cafe
2411
5564
ee50
0578
cafe
280a
5564
ee50
05e8
cafe
2c1a
5564
ee50
064d
cafe
3002
5564
ee50
0589
cafe
3412
5564
ee54
05dd
cafe
380b
5564
ee54
05ad
cafe
3c1b
5564
ee54
0608
cafe
2003
5564
ee54
0560
cafe
2413
5564
ee58
0701
cafe
280c
5564
ee58
05c9
cafe
2c1c
5564
ee58
0608
cafe
3004
5564
ee58
05c8
cafe
3414
5564
ee5c
0669
cafe
380d
5564
ee5c
05a8
cafe
3c1d
5564
ee5c
06d7
cafe
2005
5564
ee5c
05fa
cafe
2415
5564
ee60
0569
cafe
280e
5564
ee60
059f
cafe
2c1e
5564
ee60
0628
cafe
3006
5564
ee60
0594
cafe
3416
5564
ee64
064e
cafe
380f
5564
ee64
05c9
cafe
3c1f
5564
ee64
05db
cafe
2007
5564
ee64
05b7
cafe
2417
5564
ee68
056f
cafe
2808
5564
ee68
05c9
cafe
2c18
5564
ee68
056f
cafe
3000
5564
ee68
057a
cafe
3410
5564
ee6c
05eb
cafe
-
3809
5564
ee6c
059e
cafe
3c19
5564
ee6c
05ca
cafe
2001
5564
ee6c
05db
cafe
2411
5564
ee70
0564
cafe
280a
5564
ee70
05d5
cafe
2c1a
5564
ee70
0624
cafe
3002
5564
ee70
057f
cafe
3412
5564
ee74
05c2
cafe
380b
5564
ee74
05ae
cafe
3c1b
5564
ee74
05fa
cafe
2003
5564
ee74
055c
cafe
2413
5564
ee78
0710
cafe
280c
5564
ee78
05cd
cafe
2c1c
5564
ee78
060f
cafe
3004
5564
ee78
05bc
cafe
3414
5564
ee7c
0672
cafe
380d
5564
ee7c
05a1
cafe
3c1d
5564
ee7c
06cd
cafe
2005
5564
ee7c
05f7
cafe
2415
5564
ee80
053b
cafe
280e
5564
ee80
0590
cafe
2c1e
5564
ee80
061b
cafe
3006
5564
ee80
058f
cafe
3416
5564
ee84
063e
cafe
380f
5564
ee84
05ca
cafe
3c1f
5564
ee84
05d2
cafe
2007
5564
ee84
05a2
cafe
2417
5564
ee88
0560
cafe
2808
5564
ee88
05c2
cafe
2c18
5564
ee88
0541
cafe
3000
5564
ee88
0579
cafe
3410
5564
ee8c
05cc
cafe
3809
5564
ee8c
058b
cafe
3c19
5564
ee8c
05cd
cafe
2001
5564
ee8c
05cf
cafe
2411
5564
ee90
0547
cafe
280a
5564
ee90
05c6
cafe
2c1a
5564
ee90
062d
cafe
3002
5564
ee90
056f
cafe
3412
5564
ee94
05bb
cafe
380b
5564
ee94
05a2
cafe
3c1b
5564
ee94
05ef
cafe
2003
5564
ee94
0552
cafe
2413
5564
ee98
06f1
cafe
280c
5564
ee98
05c8
cafe
2c1c
5564
ee98
05e6
cafe
3004
5564
ee98
05c3
cafe
3414
5564
ee9c
065a
cafe
380d
5564
ee9c
0599
cafe
3c1d
5564
ee9c
06bf
cafe
2005
5564
ee9c
05e2
cafe
2415
-
5564
eea0
052d
cafe
280e
5564
eea0
0589
cafe
2c1e
5564
eea0
060e
cafe
3006
5564
eea0
0584
cafe
3416
5564
eea4
062f
cafe
380f
5564
eea4
05be
cafe
3c1f
5564
eea4
059b
cafe
2007
5564
eea4
0593
cafe
2417
5564
eea8
0544
cafe
2808
5564
eea8
05bf
cafe
2c18
5564
eea8
0543
cafe
3000
5564
eea8
0560
cafe
3410
5564
eeac
05b8
cafe
3809
5564
eeac
0591
cafe
3c19
5564
eeac
05a3
cafe
2001
5564
eeac
05c2
cafe
2411
5564
eeb0
0540
cafe
280a
5564
eeb0
05c0
cafe
2c1a
5564
eeb0
0612
cafe
3002
5564
eeb0
0570
cafe
3412
5564
eeb4
05a9
cafe
380b
5564
eeb4
0598
cafe
3c1b
5564
eeb4
05dc
cafe
2003
5564
eeb4
054c
cafe
2413
5564
eeb8
06d7
cafe
280c
5564
eeb8
05b7
cafe
2c1c
5564
eeb8
05da
cafe
3004
5564
eeb8
05b9
cafe
3414
5564
eebc
064b
cafe
380d
5564
eebc
0590
cafe
3c1d
5564
eebc
0690
cafe
2005
5564
eebc
05da
cafe
2415
5564
eec0
0514
cafe
280e
5564
eec0
057f
cafe
2c1e
5564
eec0
05e8
cafe
3006
5564
eec0
057a
cafe
3416
5564
eec4
0621
cafe
380f
5564
eec4
05b0
cafe
3c1f
5564
eec4
0597
cafe
2007
5564
eec4
0582
cafe
2417
5564
eec8
0532
cafe
2808
5564
eec8
05a8
cafe
2c18
5564
eec8
052a
cafe
3000
5564
eec8
0569
cafe
3410
5564
eecc
05b9
cafe
3809
5564
eecc
0580
cafe
3c19
5564
eecc
0592
cafe
2001
5564
eecc
05c2
cafe
2411
5564
eed0
053c
cafe
280a
5564
eed0
05b8
cafe
2c1a
5564
eed0
05f8
cafe
3002
5564
-
eed0
055d
cafe
3412
5564
eed4
058b
cafe
380b
5564
eed4
0596
cafe
3c1b
5564
eed4
05c7
cafe
2003
5564
eed4
0548
cafe
2413
5564
eed8
06c6
cafe
280c
5564
eed8
05a9
cafe
2c1c
5564
eed8
05cd
cafe
3004
5564
eed8
05ae
cafe
3414
5564
eedc
063a
cafe
380d
5564
eedc
0582
cafe
3c1d
5564
eedc
068a
cafe
2005
5564
eedc
05c9
cafe
2415
5564
eee0
04fd
cafe
280e
5564
eee0
0569
cafe
2c1e
5564
eee0
05d4
cafe
3006
5564
eee0
0572
cafe
3416
5564
eee4
0614
cafe
380f
5564
eee4
05b0
cafe
3c1f
5564
eee4
057f
cafe
2007
5564
eee4
057a
cafe
2417
5564
eee8
051c
cafe
2808
5564
eee8
05a7
cafe
2c18
5564
eee8
0517
cafe
3000
5564
eee8
0552
cafe
3410
5564
eeec
05af
cafe
3809
5564
eeec
0579
cafe
3c19
5564
eeec
057d
cafe
2001
5564
eeec
05aa
cafe
2411
5564
eef0
0518
cafe
280a
5564
eef0
05b4
cafe
2c1a
5564
eef0
05e0
cafe
3002
5564
eef0
0551
cafe
3412
5564
eef4
0588
cafe
380b
5564
eef4
057f
cafe
3c1b
5564
eef4
059d
cafe
2003
5564
eef4
0535
cafe
2413
5564
eef8
06ac
cafe
280c
5564
eef8
059c
cafe
2c1c
5564
eef8
05ac
cafe
3004
5564
eef8
0593
cafe
3414
5564
eefc
0617
cafe
380d
5564
eefc
0579
cafe
3c1d
5564
eefc
0674
cafe
2005
5564
eefc
05c1
cafe
2415
5564
ef00
04f8
cafe
280e
5564
ef00
056b
cafe
2c1e
5564
ef00
05b4
cafe
3006
5564
ef00
0560
cafe
3416
5564
ef04
05f8
cafe
380f
5564
ef04
059f
cafe
3c1f
5564
ef04
-
0572
cafe
2007
5564
ef04
0578
cafe
2417
5564
ef08
050f
cafe
2808
5564
ef08
0594
cafe
2c18
5564
ef08
050e
cafe
3000
5564
ef08
054d
cafe
3410
5564
ef0c
0595
cafe
3809
5564
ef0c
0575
cafe
3c19
5564
ef0c
0584
cafe
2001
5564
ef0c
05ab
cafe
2411
5564
ef10
050f
cafe
280a
5564
ef10
05a1
cafe
2c1a
5564
ef10
05e6
cafe
3002
5564
ef10
0550
cafe
3412
5564
ef14
0563
cafe
380b
5564
ef14
057d
cafe
3c1b
5564
ef14
0591
cafe
2003
5564
ef14
0531
cafe
2413
5564
ef18
06ab
cafe
280c
5564
ef18
0599
cafe
2c1c
5564
ef18
0582
cafe
3004
5564
ef18
0596
cafe
3414
5564
ef1c
0612
cafe
380d
5564
ef1c
056f
cafe
3c1d
5564
ef1c
065d
cafe
2005
5564
ef1c
05af
cafe
2415
5564
ef20
04d0
cafe
280e
5564
ef20
0561
cafe
2c1e
5564
ef20
05a3
cafe
3006
5564
ef20
0558
cafe
3416
5564
ef24
05da
cafe
380f
5564
ef24
0591
cafe
3c1f
5564
ef24
0558
cafe
2007
5564
ef24
0564
cafe
2417
5564
ef28
0502
cafe
2808
5564
ef28
058e
cafe
2c18
5564
ef28
04e3
cafe
3000
5564
ef28
0540
cafe
3410
5564
ef2c
057b
cafe
3809
5564
ef2c
0562
cafe
3c19
5564
ef2c
056a
cafe
2001
5564
ef2c
0599
cafe
2411
5564
ef30
04e3
cafe
280a
5564
ef30
059d
cafe
2c1a
5564
ef30
05cf
cafe
3002
5564
ef30
0541
cafe
3412
5564
ef34
0554
cafe
380b
5564
ef34
0571
cafe
3c1b
5564
ef34
0591
cafe
2003
5564
ef34
051d
cafe
2413
5564
ef38
068f
cafe
280c
5564
ef38
058d
-
cafe
2c1c
5564
ef38
056e
cafe
3004
5564
ef38
058b
cafe
3414
5564
ef3c
0602
cafe
380d
5564
ef3c
0570
cafe
3c1d
5564
ef3c
062b
cafe
2005
5564
ef3c
05af
cafe
2415
5564
ef40
04cb
cafe
280e
5564
ef40
0565
cafe
2c1e
5564
ef40
05a6
cafe
3006
5564
ef40
054e
cafe
3416
5564
ef44
05d3
cafe
380f
5564
ef44
0580
cafe
3c1f
5564
ef44
0559
cafe
2007
5564
ef44
0567
cafe
2417
5564
ef48
04f0
cafe
2808
5564
ef48
058f
cafe
2c18
5564
ef48
04dc
cafe
3000
5564
ef48
0536
cafe
3410
5564
ef4c
0571
cafe
3809
5564
ef4c
055a
cafe
3c19
5564
ef4c
0567
cafe
2001
5564
ef4c
058f
cafe
2411
5564
ef50
04ea
cafe
280a
5564
ef50
0589
cafe
2c1a
5564
ef50
05b7
cafe
3002
5564
ef50
0537
cafe
3412
5564
ef54
052f
cafe
380b
5564
ef54
056f
cafe
3c1b
5564
ef54
057b
cafe
2003
5564
ef54
0516
cafe
2413
5564
ef58
067b
cafe
280c
5564
ef58
0583
cafe
2c1c
5564
ef58
056e
cafe
3004
5564
ef58
0583
cafe
3414
5564
ef5c
05f2
cafe
380d
5564
ef5c
0558
cafe
3c1d
5564
ef5c
0625
cafe
2005
5564
ef5c
05aa
cafe
2415
5564
ef60
04b1
cafe
280e
5564
ef60
0551
cafe
2c1e
5564
ef60
0594
cafe
3006
5564
ef60
0549
cafe
3416
5564
ef64
05b0
cafe
380f
5564
ef64
0580
cafe
3c1f
5564
ef64
0536
cafe
2007
5564
ef64
0554
cafe
2417
5564
ef68
04db
cafe
2808
5564
ef68
0578
cafe
2c18
5564
ef68
04c6
cafe
3000
5564
ef68
052e
cafe
3410
5564
ef6c
0570
cafe
-
