(DEVICE FILE: AD5322_0)

PACKAGE 'MSOP10A-MM'
CLASS IC
PINCOUNT 10

PINORDER AD5322_0 'TP-1' 'TP-2' 'TP-3' 'TP-4' 'TP-5' 'TP-6' 'TP-7' 'TP-8' 'TP-9' 'TP-10'
FUNCTION 'TS-1' AD5322_0 1 2 3 4 5 6 7 8 9 10

PACKAGEPROP PACKAGE_HEIGHT_MAX '1 MM'
PACKAGEPROP HEIGHT '1.0000000'

END
