2818
0000
0000
0206
cafe
2c18
0000
0000
020e
cafe
3018
0000
0000
020f
cafe
3418
0000
0000
0203
cafe
3818
0000
0000
01f8
cafe
3c18
0000
0000
020d
cafe
2018
0000
0000
0203
cafe
2418
0000
0000
0209
cafe
2818
0000
0000
01fb
cafe
2c18
0000
0000
01ee
cafe
3018
0000
0000
01f5
cafe
3418
0000
0000
01f7
cafe
3818
0000
0000
0209
cafe
3c18
0000
0000
01ff
cafe
2018
0000
0000
01ff
cafe
2418
0000
0000
0202
cafe
2818
0000
0000
020b
cafe
2c18
0000
0000
0206
cafe
3018
0000
0000
01f5
cafe
3418
0000
0000
0207
cafe
3818
0000
0000
0202
cafe
3c18
0000
0000
01fd
cafe
2018
0000
0000
0207
cafe
2418
0000
0000
0205
cafe
2818
0000
0000
0216
cafe
2c18
0000
0000
020b
cafe
3018
0000
0000
020e
cafe
3418
0000
0000
0203
cafe
3818
0000
0000
0202
cafe
3c18
0000
0000
0202
cafe
2018
0000
0000
0204
cafe
2418
0000
0000
01fa
cafe
2818
0000
0000
01fa
cafe
2c18
0000
0000
0201
cafe
3018
0000
0000
0203
cafe
3418
0000
0000
0203
cafe
3818
0000
0000
01f4
cafe
3c18
0000
0000
01ef
cafe
2018
0000
0000
01fd
cafe
2418
0000
0000
01f9
cafe
2818
0000
0000
01f2
cafe
2c18
0000
0000
01f5
cafe
3018
0000
0000
01f4
cafe
3418
0000
0000
01f8
cafe
3818
0000
0000
01f8
cafe
3c18
0000
0000
01fb
cafe
2018
0000
0000
0200
cafe
2418
0000
0000
0206
cafe
2818
0000
0000
0206
cafe
2c18
0000
0000
0204
cafe
3018
0000
0000
020a
cafe
3418
-
0000
0000
01ff
cafe
3818
0000
0000
0203
cafe
3c18
0000
0000
0202
cafe
2018
0000
0000
01f8
cafe
2418
0000
0000
0201
cafe
2818
0000
0000
0202
cafe
2c18
0000
0000
01f6
cafe
3018
0000
0000
01fb
cafe
3418
0000
0000
0208
cafe
3818
0000
0000
0205
cafe
3c18
0000
0000
0201
cafe
2018
0000
0000
0209
cafe
2418
0000
0000
020d
cafe
2818
0000
0000
020d
cafe
2c18
0000
0000
0207
cafe
3018
0000
0000
01f2
cafe
3418
0000
0000
01f6
cafe
3818
0000
0000
0208
cafe
3c18
0000
0000
0206
cafe
2018
0000
0000
01fd
cafe
2418
0000
0000
0207
cafe
2818
0000
0000
0203
cafe
2c18
0000
0000
01f9
cafe
3018
0000
0000
01fd
cafe
3418
0000
0000
01fa
cafe
3818
0000
0000
01fc
cafe
3c18
0000
0000
0204
cafe
2018
0000
0000
020a
cafe
2418
0000
0000
0213
cafe
2818
0000
0000
0201
cafe
2c18
0000
0000
0208
cafe
3018
0000
0000
020f
cafe
3418
0000
0000
0204
cafe
3818
0000
0000
01fe
cafe
3c18
0000
0000
0209
cafe
2018
0000
0000
020c
cafe
2418
0000
0000
0205
cafe
2818
0000
0000
01fe
cafe
2c18
0000
0000
01f7
cafe
3018
0000
0000
01fe
cafe
3418
0000
0000
01f8
cafe
3818
0000
0000
01fb
cafe
3c18
0000
0000
01ef
cafe
2018
0000
0000
01f9
cafe
2418
0000
0000
01f7
cafe
2818
0000
0000
01fa
cafe
2c18
0000
0000
01f3
cafe
3018
0000
0000
01ed
cafe
3418
0000
0000
01fa
cafe
3818
0000
0000
01f6
cafe
3c18
0000
0000
01ee
cafe
2018
0000
-
0000
01f7
cafe
2418
0000
0000
0203
cafe
2818
0000
0000
0200
cafe
2c18
0000
0000
01f3
cafe
3018
0000
0000
0200
cafe
3418
0000
0000
01fd
cafe
3818
0000
0000
01f8
cafe
3c18
0000
0000
0203
cafe
2018
0000
0000
01fd
cafe
2418
0000
0000
01f9
cafe
2818
0000
0000
0202
cafe
2c18
0000
0000
0205
cafe
3018
0000
0000
01f9
cafe
3418
0000
0000
01fb
cafe
3818
0000
0000
01f5
cafe
3c18
0000
0000
01f9
cafe
2018
0000
0000
01f7
cafe
2418
0000
0000
01ee
cafe
2818
0000
0000
01fc
cafe
2c18
0000
0000
01fc
cafe
3018
0000
0000
01f8
cafe
3418
0000
0000
01ee
cafe
3818
0000
0000
01f9
cafe
3c18
0000
0000
01ef
cafe
2018
0000
0000
01fc
cafe
2418
0000
0000
020b
cafe
2818
0000
0000
0206
cafe
2c18
0000
0000
0201
cafe
3018
0000
0000
0216
cafe
3418
0000
0000
0208
cafe
3818
0000
0000
0210
cafe
3c18
0000
0000
0211
cafe
2018
0000
0000
020e
cafe
2418
0000
0000
0210
cafe
2818
0000
0000
0210
cafe
2c18
0000
0000
0212
cafe
3018
0000
0000
0211
cafe
3418
0000
0000
0206
cafe
3818
0000
0000
020b
cafe
3c18
0000
0000
0216
cafe
2018
0000
0000
0208
cafe
2418
0000
0000
01fd
cafe
2818
0000
0000
01f9
cafe
2c18
0000
0000
01f8
cafe
3018
0000
0000
01f1
cafe
3418
0000
0000
01fe
cafe
3818
0000
0000
0206
cafe
3c18
0000
0000
0202
cafe
2018
0000
0000
0201
cafe
2418
0000
0000
01f6
cafe
2818
0000
0000
01f5
cafe
2c18
0000
0000
-
0205
cafe
3018
0000
0000
020d
cafe
3418
0000
0000
0205
cafe
3818
0000
0000
01f7
cafe
3c18
0000
0000
01fa
cafe
2018
0000
0000
01f0
cafe
2418
0000
0000
01f8
cafe
2818
0000
0000
01f5
cafe
2c18
0000
0000
01f0
cafe
3018
0000
0000
01fb
cafe
3418
0000
0000
0202
cafe
3818
0000
0000
01fc
cafe
3c18
0000
0000
0200
cafe
2018
0000
0000
0201
cafe
2418
0000
0000
0200
cafe
2818
0000
0000
0200
cafe
2c18
0000
0000
01ff
cafe
3018
0000
0000
0203
cafe
3418
0000
0000
0205
cafe
3818
0000
0000
01f9
cafe
3c18
0000
0000
0200
cafe
2018
0000
0000
01fe
cafe
2418
0000
0000
0200
cafe
2818
0000
0000
01ff
cafe
2c18
0000
0000
020a
cafe
3018
0000
0000
01fd
cafe
3418
0000
0000
01f3
cafe
3818
0000
0000
0203
cafe
3c18
0000
0000
0203
cafe
2018
0000
0000
0209
cafe
2418
0000
0000
0210
cafe
2818
0000
0000
020c
cafe
2c18
0000
0000
0216
cafe
3018
0000
0000
01f7
cafe
3418
0000
0000
0207
cafe
3818
0000
0000
0204
cafe
3c18
0000
0000
0204
cafe
2018
0000
0000
01ff
cafe
2418
0000
0000
0202
cafe
2818
0000
0000
0201
cafe
2c18
0000
0000
01fb
cafe
3018
0000
0000
01f4
cafe
3418
0000
0000
0201
cafe
3818
0000
0000
0206
cafe
3c18
0000
0000
0207
cafe
2018
0000
0000
0206
cafe
2418
0000
0000
0205
cafe
2818
0000
0000
01fc
cafe
2c18
0000
0000
01f8
cafe
3018
0000
0000
0201
cafe
3418
0000
0000
0204
cafe
3818
0000
0000
0200
-
cafe
3c18
0000
0000
01fc
cafe
2018
0000
0000
01fb
cafe
2418
0000
0000
0203
cafe
2818
0000
0000
0202
cafe
2c18
0000
0000
01f5
cafe
3018
0000
0000
01f6
cafe
3418
0000
0000
01f5
cafe
3818
0000
0000
01f6
cafe
3c18
0000
0000
01f9
cafe
2018
0000
0000
0203
cafe
2418
0000
0000
0202
cafe
2818
0000
0000
01f9
cafe
2c18
0000
0000
0207
cafe
3018
0000
0000
0201
cafe
3418
0000
0000
0200
cafe
3818
0000
0000
01fb
cafe
3c18
0000
0000
01fd
cafe
2018
0000
0000
0205
cafe
2418
0000
0000
0201
cafe
2818
0000
0000
0207
cafe
2c18
0000
0000
0200
cafe
3018
0000
0000
0212
cafe
3418
0000
0000
0207
cafe
3818
0000
0000
01fd
cafe
3c18
0000
0000
01f8
cafe
2018
0000
0000
01f7
cafe
2418
0000
0000
01ec
cafe
2818
0000
0000
01fa
cafe
2c18
0000
0000
01f7
cafe
3018
0000
0000
01fb
cafe
3418
0000
0000
01fd
cafe
3818
0000
0000
01fb
cafe
3c18
0000
0000
0209
cafe
2018
0000
0000
020f
cafe
2418
0000
0000
020c
cafe
2818
0000
0000
01fe
cafe
2c18
0000
0000
0202
cafe
3018
0000
0000
0208
cafe
3418
0000
0000
020e
cafe
3818
0000
0000
0205
cafe
3c18
0000
0000
020b
cafe
2018
0000
0000
0206
cafe
2418
0000
0000
0202
cafe
2818
0000
0000
01fe
cafe
2c18
0000
0000
020b
cafe
3018
0000
0000
01fd
cafe
3418
0000
0000
0206
cafe
3818
0000
0000
01fe
cafe
3c18
0000
0000
01fa
cafe
2018
0000
0000
01fc
cafe
2418
0000
0000
01ff
cafe
-
2818
0000
0000
01ff
cafe
2c18
0000
0000
01ff
cafe
3018
0000
0000
01f3
cafe
3418
0000
0000
01f5
cafe
3818
0000
0000
0200
cafe
3c18
0000
0000
01fd
cafe
2018
0000
0000
01fe
cafe
2418
0000
0000
01fe
cafe
2818
0000
0000
0201
cafe
2c18
0000
0000
0203
cafe
3018
0000
0000
01f9
cafe
3418
0000
0000
01fe
cafe
3818
0000
0000
0205
cafe
3c18
0000
0000
0201
cafe
2018
0000
0000
0202
cafe
2418
0000
0000
01fd
cafe
2818
0000
0000
01ff
cafe
2c18
0000
0000
01f1
cafe
3018
0000
0000
01f9
cafe
3418
0000
0000
01ff
cafe
3818
0000
0000
01fc
cafe
3c18
0000
0000
01f9
cafe
2018
0000
0000
0205
cafe
2418
0000
0000
0201
cafe
2818
0000
0000
01f5
cafe
2c18
0000
0000
01f4
cafe
3018
0000
0000
020a
cafe
3418
0000
0000
0200
cafe
3818
0000
0000
0209
cafe
3c18
0000
0000
0201
cafe
2018
0000
0000
01fd
cafe
2418
0000
0000
01f4
cafe
2818
0000
0000
0202
cafe
2c18
0000
0000
01fc
cafe
3018
0000
0000
01fc
cafe
3418
0000
0000
01f4
cafe
3818
0000
0000
01f5
cafe
3c18
0000
0000
0200
cafe
2018
0000
0000
01f9
cafe
2418
0000
0000
0207
cafe
2818
0000
0000
01f7
cafe
2c18
0000
0000
0203
cafe
3018
0000
0000
0201
cafe
3418
0000
0000
01f2
cafe
3818
0000
0000
01f7
cafe
3c18
0000
0000
0209
cafe
2018
0000
0000
0205
cafe
2418
0000
0000
01f2
cafe
2818
0000
0000
0200
cafe
2c18
0000
0000
020e
cafe
3018
0000
0000
01fb
cafe
3418
-
0000
0000
0208
cafe
3818
0000
0000
0202
cafe
3c18
0000
0000
01fd
cafe
2018
0000
0000
020b
cafe
2418
0000
0000
020a
cafe
2818
0000
0000
0206
cafe
2c18
0000
0000
0202
cafe
3018
0000
0000
01f9
cafe
3418
0000
0000
0204
cafe
3818
0000
0000
0200
cafe
3c18
0000
0000
020f
cafe
2018
0000
0000
0207
cafe
2418
0000
0000
0204
cafe
2818
0000
0000
0204
cafe
2c18
0000
0000
0202
cafe
3018
0000
0000
020a
cafe
3418
0000
0000
0201
cafe
3818
0000
0000
020a
cafe
3c18
0000
0000
0205
cafe
2018
0000
0000
0210
cafe
2418
0000
0000
0203
cafe
2818
0000
0000
0204
cafe
2c18
0000
0000
01fc
cafe
3018
0000
0000
0206
cafe
3418
0000
0000
020f
cafe
3818
0000
0000
0203
cafe
3c18
0000
0000
0209
cafe
2018
0000
0000
01fc
cafe
2418
0000
0000
01ff
cafe
2818
0000
0000
01f6
cafe
2c18
0000
0000
01fe
cafe
3018
0000
0000
0200
cafe
3418
0000
0000
01fc
cafe
3818
0000
0000
01ff
cafe
3c18
0000
0000
0207
cafe
2018
0000
0000
020c
cafe
2418
0000
0000
0210
cafe
2818
0000
0000
0207
cafe
2c18
0000
0000
0204
cafe
3018
0000
0000
020b
cafe
3418
0000
0000
020d
cafe
3818
0000
0000
0214
cafe
3c18
0000
0000
0209
cafe
2018
0000
0000
020f
cafe
2418
0000
0000
0209
cafe
2818
0000
0000
01f6
cafe
2c18
0000
0000
01f8
cafe
3018
0000
0000
01fd
cafe
3418
0000
0000
01fe
cafe
3818
0000
0000
01fe
cafe
3c18
0000
0000
0208
cafe
2018
0000
-
0000
01f0
cafe
2418
0000
0000
01f5
cafe
2818
0000
0000
01fd
cafe
2c18
0000
0000
020b
cafe
3018
0000
0000
01f8
cafe
3418
0000
0000
01f5
cafe
3818
0000
0000
01f6
cafe
3c18
0000
0000
01fa
cafe
2018
0000
0000
01f2
cafe
2418
0000
0000
01fb
cafe
2818
0000
0000
01fb
cafe
2c18
0000
0000
0204
cafe
3018
0000
0000
01f6
cafe
3418
0000
0000
0207
cafe
3818
0000
0000
020d
cafe
3c18
0000
0000
01ff
cafe
2018
0000
0000
020d
cafe
2418
0000
0000
01fe
cafe
2818
0000
0000
0202
cafe
2c18
0000
0000
0203
cafe
3018
0000
0000
0208
cafe
3418
0000
0000
01f7
cafe
3818
0000
0000
0204
cafe
3c18
0000
0000
01fe
cafe
2018
0000
0000
01ff
cafe
2418
0000
0000
0203
cafe
2818
0000
0000
0206
cafe
2c18
0000
0000
0200
cafe
3018
0000
0000
01ff
cafe
3418
0000
0000
0202
cafe
3818
0000
0000
0202
cafe
3c18
0000
0000
01ff
cafe
2018
0000
0000
01fe
cafe
2418
0000
0000
01fe
cafe
2818
0000
0000
0201
cafe
2c18
0000
0000
0208
cafe
3018
0000
0000
0204
cafe
3418
0000
0000
01ff
cafe
3818
0000
0000
0205
cafe
3c18
0000
0000
0204
cafe
2018
0000
0000
0201
cafe
2418
0000
0000
0206
cafe
2818
0000
0000
0209
cafe
2c18
0000
0000
01fd
cafe
3018
0000
0000
01fa
cafe
3418
0000
0000
020b
cafe
3818
0000
0000
0216
cafe
3c18
0000
0000
020f
cafe
2018
0000
0000
020e
cafe
2418
0000
0000
020a
cafe
2818
0000
0000
0203
cafe
2c18
0000
0000
-
0208
cafe
3018
0000
0000
0200
cafe
3418
0000
0000
0206
cafe
3818
0000
0000
0215
cafe
3c18
0000
0000
01f6
cafe
2018
0000
0000
01f1
cafe
2418
0000
0000
01f5
cafe
2818
0000
0000
0206
cafe
2c18
0000
0000
01ff
cafe
3018
0000
0000
01fe
cafe
3418
0000
0000
01f8
cafe
3818
0000
0000
0201
cafe
3c18
0000
0000
0203
cafe
2018
0000
0000
0207
cafe
2418
0000
0000
020a
cafe
2818
0000
0000
0204
cafe
2c18
0000
0000
01f7
cafe
3018
0000
0000
01fb
cafe
3418
0000
0000
020b
cafe
3818
0000
0000
020c
cafe
3c18
0000
0000
01ff
cafe
2018
0000
0000
01fe
cafe
2418
0000
0000
0201
cafe
2818
0000
0000
0201
cafe
2c18
0000
0000
01f9
cafe
3018
0000
0000
01f2
cafe
3418
0000
0000
0202
cafe
3818
0000
0000
01fc
cafe
3c18
0000
0000
01f8
cafe
2018
0000
0000
01ed
cafe
2418
0000
0000
0205
cafe
2818
0000
0000
0202
cafe
2c18
0000
0000
01ff
cafe
3018
0000
0000
020b
cafe
3418
0000
0000
020f
cafe
3818
0000
0000
0203
cafe
3c18
0000
0000
0203
cafe
2018
0000
0000
0204
cafe
2418
0000
0000
01fe
cafe
2818
0000
0000
0203
cafe
2c18
0000
0000
0208
cafe
3018
0000
0000
01fb
cafe
3418
0000
0000
01ff
cafe
3818
0000
0000
0201
cafe
3c18
0000
0000
0208
cafe
2018
0000
0000
01fe
cafe
2418
0000
0000
01f9
cafe
2818
0000
0000
0201
cafe
2c18
0000
0000
0205
cafe
3018
0000
0000
0200
cafe
3418
0000
0000
0202
cafe
3818
0000
0000
01fe
-
cafe
3c18
0000
0000
01fd
cafe
2018
0000
0000
01f5
cafe
2418
0000
0000
01f7
cafe
2818
0000
0000
0201
cafe
2c18
0000
0000
020d
cafe
3018
0000
0000
0202
cafe
3418
0000
0000
020f
cafe
3818
0000
0000
020d
cafe
3c18
0000
0000
020c
cafe
2018
0000
0000
01fd
cafe
2418
0000
0000
020c
cafe
2818
0000
0000
0210
cafe
2c18
0000
0000
0207
cafe
3018
0000
0000
0205
cafe
3418
0000
0000
0206
cafe
3818
0000
0000
0202
cafe
3c18
0000
0000
01fc
cafe
2018
0000
0000
01f6
cafe
2418
0000
0000
01f0
cafe
2818
0000
0000
01f9
cafe
2c18
0000
0000
0201
cafe
3018
0000
0000
0205
cafe
3418
0000
0000
01fe
cafe
3818
0000
0000
01f7
cafe
3c18
0000
0000
0201
cafe
2018
0000
0000
01ff
cafe
2418
0000
0000
01fd
cafe
2818
0000
0000
0206
cafe
2c18
0000
0000
0203
cafe
3018
0000
0000
020b
cafe
3418
0000
0000
020b
cafe
3818
0000
0000
020c
cafe
3c18
0000
0000
020a
cafe
2018
0000
0000
020c
cafe
2418
0000
0000
0208
cafe
2818
0000
0000
0210
cafe
2c18
0000
0000
0209
cafe
3018
0000
0000
01ff
cafe
3418
0000
0000
020d
cafe
3818
0000
0000
01ff
cafe
3c18
0000
0000
01fd
cafe
2018
0000
0000
0204
cafe
2418
0000
0000
01f9
cafe
2818
0000
0000
01fa
cafe
2c18
0000
0000
01fe
cafe
3018
0000
0000
01f9
cafe
3418
0000
0000
01fa
cafe
3818
0000
0000
020b
cafe
3c18
0000
0000
0205
cafe
2018
0000
0000
01fb
cafe
2418
0000
0000
01f8
cafe
-
2818
0000
0000
01ff
cafe
2c18
0000
0000
020b
cafe
3018
0000
0000
0204
cafe
3418
0000
0000
0210
cafe
3818
0000
0000
0205
cafe
3c18
0000
0000
01f9
cafe
2018
0000
0000
01f7
cafe
2418
0000
0000
01fd
cafe
2818
0000
0000
0207
cafe
2c18
0000
0000
020c
cafe
3018
0000
0000
020a
cafe
3418
0000
0000
0202
cafe
3818
0000
0000
0209
cafe
3c18
0000
0000
020d
cafe
2018
0000
0000
0202
cafe
2418
0000
0000
0201
cafe
2818
0000
0000
020c
cafe
2c18
0000
0000
01fc
cafe
3018
0000
0000
01fd
cafe
3418
0000
0000
01fa
cafe
3818
0000
0000
0203
cafe
3c18
0000
0000
020c
cafe
2018
0000
0000
01f8
cafe
2418
0000
0000
01f6
cafe
2818
0000
0000
01f9
cafe
2c18
0000
0000
01f7
cafe
3018
0000
0000
01ff
cafe
3418
0000
0000
0206
cafe
3818
0000
0000
020a
cafe
3c18
0000
0000
0208
cafe
2018
0000
0000
0204
cafe
2418
0000
0000
01f4
cafe
2818
0000
0000
01f8
cafe
2c18
0000
0000
01f4
cafe
3018
0000
0000
01fd
cafe
3418
0000
0000
0200
cafe
3818
0000
0000
01fd
cafe
3c18
0000
0000
01f8
cafe
2018
0000
0000
0202
cafe
2418
0000
0000
0204
cafe
2818
0000
0000
0204
cafe
2c18
0000
0000
0208
cafe
3018
0000
0000
0206
cafe
3418
0000
0000
020c
cafe
3818
0000
0000
0202
cafe
3c18
0000
0000
0200
cafe
2018
0000
0000
0201
cafe
2418
0000
0000
01f8
cafe
2818
0000
0000
01fa
cafe
2c18
0000
0000
01f2
cafe
3018
0000
0000
01f8
cafe
3418
-
0000
0000
01fa
cafe
3818
0000
0000
01f5
cafe
3c18
0000
0000
01f4
cafe
2018
0000
0000
01f3
cafe
2418
0000
0000
01fb
cafe
2818
0000
0000
0200
cafe
2c18
0000
0000
0209
cafe
3018
0000
0000
01f7
cafe
3418
0000
0000
01f3
cafe
3818
0000
0000
01fb
cafe
3c18
0000
0000
01fb
cafe
2018
0000
0000
01f4
cafe
2418
0000
0000
01f6
cafe
2818
0000
0000
01fa
cafe
2c18
0000
0000
0202
cafe
3018
0000
0000
01ff
cafe
3418
0000
0000
01fb
cafe
3818
0000
0000
0207
cafe
3c18
0000
0000
020b
cafe
2018
0000
0000
0206
cafe
2418
0000
0000
020d
cafe
2818
0000
0000
01f9
cafe
2c18
0000
0000
0207
cafe
3018
0000
0000
01fe
cafe
3418
0000
0000
01fb
cafe
3818
0000
0000
0205
cafe
3c18
0000
0000
01fe
cafe
2018
0000
0000
01f9
cafe
2418
0000
0000
01fa
cafe
2818
0000
0000
01fa
cafe
2c18
0000
0000
01f7
cafe
3018
0000
0000
0203
cafe
3418
0000
0000
0202
cafe
3818
0000
0000
020b
cafe
3c18
0000
0000
0207
cafe
2018
0000
0000
01fe
cafe
2418
0000
0000
0203
cafe
2818
0000
0000
020d
cafe
2c18
0000
0000
020c
cafe
3018
0000
0000
0200
cafe
3418
0000
0000
020e
cafe
3818
0000
0000
0205
cafe
3c18
0000
0000
0202
cafe
2018
0000
0000
0206
cafe
2418
0000
0000
0205
cafe
2818
0000
0000
01fe
cafe
2c18
0000
0000
01ed
cafe
3018
0000
0000
01fd
cafe
3418
0000
0000
0201
cafe
3818
0000
0000
0201
cafe
3c18
0000
0000
01fe
cafe
2018
0000
-
0000
01fc
cafe
2418
0000
0000
01fc
cafe
2818
0000
0000
01f8
cafe
2c18
0000
0000
01fa
cafe
3018
0000
0000
0205
cafe
3418
0000
0000
01f5
cafe
3818
0000
0000
01fa
cafe
3c18
0000
0000
01f7
cafe
2018
0000
0000
01fa
cafe
2418
0000
0000
01ff
cafe
2818
0000
0000
01fb
cafe
2c18
0000
0000
01fe
cafe
3018
0000
0000
01fc
cafe
3418
0000
0000
01f8
cafe
3818
0000
0000
01fa
cafe
3c18
0000
0000
0207
cafe
2018
0000
0000
01f3
cafe
2418
0000
0000
0201
cafe
2818
0000
0000
0207
cafe
2c18
0000
0000
01fa
cafe
3018
0000
0000
0201
cafe
3418
0000
0000
0204
cafe
3818
0000
0000
0209
cafe
3c18
0000
0000
021a
cafe
2018
0000
0000
0210
cafe
2418
0000
0000
0206
cafe
2818
0000
0000
0207
cafe
2c18
0000
0000
0207
cafe
3018
0000
0000
0208
cafe
3418
0000
0000
0200
cafe
3818
0000
0000
0206
cafe
3c18
0000
0000
01f9
cafe
2018
0000
0000
01fb
cafe
2418
0000
0000
0206
cafe
2818
0000
0000
0209
cafe
2c18
0000
0000
01ff
cafe
3018
0000
0000
020a
cafe
3418
0000
0000
01fe
cafe
3818
0000
0000
01fa
cafe
3c18
0000
0000
0202
cafe
2018
0000
0000
0202
cafe
2418
0000
0000
0201
cafe
2818
0000
0000
0206
cafe
2c18
0000
0000
01ed
cafe
3018
0000
0000
01fc
cafe
3418
0000
0000
01fa
cafe
3818
0000
0000
01f7
cafe
3c18
0000
0000
01f5
cafe
2018
0000
0000
01f6
cafe
2418
0000
0000
01f6
cafe
2818
0000
0000
01f8
cafe
2c18
0000
0000
-
01fb
cafe
3018
0000
0000
01fd
cafe
3418
0000
0000
01fe
cafe
3818
0000
0000
01f3
cafe
3c18
0000
0000
01f5
cafe
2018
0000
0000
01f6
cafe
2418
0000
0000
0200
cafe
2818
0000
0000
0200
cafe
2c18
0000
0000
01fb
cafe
3018
0000
0000
01ef
cafe
3418
0000
0000
01f2
cafe
3818
0000
0000
0208
cafe
3c18
0000
0000
01fc
cafe
2018
0000
0000
01ee
cafe
2418
0000
0000
01fd
cafe
2818
0000
0000
0206
cafe
2c18
0000
0000
01fa
cafe
3018
0000
0000
01f8
cafe
3418
0000
0000
020a
cafe
3818
0000
0000
0203
cafe
3c18
0000
0000
0202
cafe
2018
0000
0000
0204
cafe
2418
0000
0000
0202
cafe
2818
0000
0000
0205
cafe
2c18
0000
0000
01fe
cafe
3018
0000
0000
01ff
cafe
3418
0000
0000
01ee
cafe
3818
0000
0000
01f1
cafe
3c18
0000
0000
01fa
cafe
2018
0000
0000
0201
cafe
2418
0000
0000
0202
cafe
2818
0000
0000
01fd
cafe
2c18
0000
0000
01ff
cafe
3018
0000
0000
0208
cafe
3418
0000
0000
01ff
cafe
3818
0000
0000
0208
cafe
3c18
0000
0000
0204
cafe
2018
0000
0000
020b
cafe
2418
0000
0000
020a
cafe
2818
0000
0000
0215
cafe
2c18
0000
0000
0202
cafe
3018
0000
0000
0202
cafe
3418
0000
0000
0203
cafe
3818
0000
0000
01fd
cafe
3c18
0000
0000
01f7
cafe
2018
0000
0000
01fd
cafe
2418
0000
0000
01f9
cafe
2818
0000
0000
01f3
cafe
2c18
0000
0000
01ff
cafe
3018
0000
0000
0202
cafe
3418
0000
0000
020b
cafe
3818
0000
0000
020a
-
cafe
3c18
0000
0000
0206
cafe
2018
0000
0000
0205
cafe
2418
0000
0000
020a
cafe
2818
0000
0000
0205
cafe
2c18
0000
0000
0205
cafe
3018
0000
0000
0209
cafe
3418
0000
0000
0201
cafe
3818
0000
0000
0205
cafe
3c18
0000
0000
0204
cafe
2018
0000
0000
01fe
cafe
2418
0000
0000
01f9
cafe
2818
0000
0000
0207
cafe
2c18
0000
0000
020a
cafe
3018
0000
0000
0204
cafe
3418
0000
0000
0200
cafe
3818
0000
0000
020a
cafe
3c18
0000
0000
01fd
cafe
2018
0000
0000
01fb
cafe
2418
0000
0000
01fe
cafe
2818
0000
0000
0208
cafe
2c18
0000
0000
0208
cafe
3018
0000
0000
0203
cafe
3418
0000
0000
0201
cafe
3818
0000
0000
0204
cafe
3c18
0000
0000
0202
cafe
2018
0000
0000
01fe
cafe
2418
0000
0000
020c
cafe
2818
0000
0000
0200
cafe
2c18
0000
0000
0204
cafe
3018
0000
0000
020b
cafe
3418
0000
0000
020f
cafe
3818
0000
0000
0218
cafe
3c18
0000
0000
0209
cafe
2018
0000
0000
0204
cafe
2418
0000
0000
0200
cafe
2818
0000
0000
0206
cafe
2c18
0000
0000
0203
cafe
3018
0000
0000
0204
cafe
3418
0000
0000
01f4
cafe
3818
0000
0000
01f3
cafe
3c18
0000
0000
01fd
cafe
2018
0000
0000
01fe
cafe
2418
0000
0000
0200
cafe
2818
0000
0000
0208
cafe
2c18
0000
0000
0214
cafe
3018
0000
0000
0212
cafe
3418
0000
0000
020e
cafe
3818
0000
0000
0208
cafe
3c18
0000
0000
01f9
cafe
2018
0000
0000
01ff
cafe
2418
0000
0000
01fd
cafe
-
2818
0000
0000
0206
cafe
2c18
0000
0000
0206
cafe
3018
0000
0000
0218
cafe
3418
0000
0000
020f
cafe
3818
0000
0000
0212
cafe
3c18
0000
0000
0207
cafe
2018
0000
0000
0205
cafe
2418
0000
0000
01fe
cafe
2818
0000
0000
0201
cafe
2c18
0000
0000
0206
cafe
3018
0000
0000
020d
cafe
3418
0000
0000
0208
cafe
3818
0000
0000
0213
cafe
3c18
0000
0000
0201
cafe
2018
0000
0000
01fe
cafe
2418
0000
0000
0203
cafe
2818
0000
0000
0202
cafe
2c18
0000
0000
0204
cafe
3018
0000
0000
01fd
cafe
3418
0000
0000
0206
cafe
3818
0000
0000
020b
cafe
3c18
0000
0000
0204
cafe
2018
0000
0000
01fc
cafe
2418
0000
0000
01fb
cafe
2818
0000
0000
01f9
cafe
2c18
0000
0000
01f9
cafe
3018
0000
0000
01f0
cafe
3418
0000
0000
01fb
cafe
3818
0000
0000
0201
cafe
3c18
0000
0000
01fd
cafe
2018
0000
0000
0205
cafe
2418
0000
0000
020d
cafe
2818
0000
0000
0207
cafe
2c18
0000
0000
01fd
cafe
3018
0000
0000
01f4
cafe
3418
0000
0000
0206
cafe
3818
0000
0000
01f6
cafe
3c18
0000
0000
0206
cafe
2018
0000
0000
0205
cafe
2418
0000
0000
0200
cafe
2818
0000
0000
01ff
cafe
2c18
0000
0000
0209
cafe
3018
0000
0000
01f8
cafe
3418
0000
0000
01f3
cafe
3818
0000
0000
01f2
cafe
3c18
0000
0000
01ec
cafe
2018
0000
0000
01f0
cafe
2418
0000
0000
01eb
cafe
2818
0000
0000
01e9
cafe
2c18
0000
0000
01fc
cafe
3018
0000
0000
01fe
cafe
3418
-
0000
0000
0200
cafe
3818
0000
0000
0218
cafe
3c18
0000
0000
020b
cafe
2018
0000
0000
020c
cafe
2418
0000
0000
020b
cafe
2818
0000
0000
0201
cafe
2c18
0000
0000
0201
cafe
3018
0000
0000
0200
cafe
3418
0000
0000
020b
cafe
3818
0000
0000
020d
cafe
3c18
0000
0000
0206
cafe
2018
0000
0000
01f7
cafe
2418
0000
0000
01fe
cafe
2818
0000
0000
0202
cafe
2c18
0000
0000
0202
cafe
3018
0000
0000
020c
cafe
3418
0000
0000
0205
cafe
3818
0000
0000
0207
cafe
3c18
0000
0000
0208
cafe
2018
0000
0000
0208
cafe
2418
0000
0000
0204
cafe
2818
0000
0000
01fc
cafe
2c18
0000
0000
0201
cafe
3018
0000
0000
0203
cafe
3418
0000
0000
01fa
cafe
3818
0000
0000
01f1
cafe
3c18
0000
0000
01fe
cafe
2018
0000
0000
01f3
cafe
2418
0000
0000
0207
cafe
2818
0000
0000
0205
cafe
2c18
0000
0000
020e
cafe
3018
0000
0000
0208
cafe
3418
0000
0000
020f
cafe
3818
0000
0000
0200
cafe
3c18
0000
0000
01ff
cafe
2018
0000
0000
0206
cafe
2418
0000
0000
0213
cafe
2818
0000
0000
0205
cafe
2c18
0000
0000
01fd
cafe
3018
0000
0000
0205
cafe
3418
0000
0000
0209
cafe
3818
0000
0000
0205
cafe
3c18
0000
0000
0208
cafe
2018
0000
0000
0202
cafe
2418
0000
0000
0206
cafe
2818
0000
0000
0205
cafe
2c18
0000
0000
0208
cafe
3018
0000
0000
0215
cafe
3418
0000
0000
0207
cafe
3818
0000
0000
0207
cafe
3c18
0000
0000
020b
cafe
2018
0000
-
0000
0212
cafe
2418
0000
0000
0203
cafe
2818
0000
0000
0202
cafe
2c18
0000
0000
020c
cafe
3018
0000
0000
0208
cafe
3418
0000
0000
01fc
cafe
3818
0000
0000
01fe
cafe
3c18
0000
0000
01f8
cafe
2018
0000
0000
01ff
cafe
2418
0000
0000
01f8
cafe
2818
0000
0000
01fc
cafe
2c18
0000
0000
01f9
cafe
3018
0000
0000
01fd
cafe
3418
0000
0000
01fc
cafe
3818
0000
0000
0202
cafe
3c18
0000
0000
0202
cafe
2018
0000
0000
0204
cafe
2418
0000
0000
0202
cafe
2818
0000
0000
01f8
cafe
2c18
0000
0000
01fb
cafe
3018
0000
0000
01f1
cafe
3418
0000
0000
0202
cafe
3818
0000
0000
0208
cafe
3c18
0000
0000
0212
cafe
2018
0000
0000
021a
cafe
2418
0000
0000
0213
cafe
2818
0000
0000
0203
cafe
2c18
0000
0000
0210
cafe
3018
0000
0000
0208
cafe
3418
0000
0000
0204
cafe
3818
0000
0000
01fb
cafe
3c18
0000
0000
01fd
cafe
2018
0000
0000
01fc
cafe
2418
0000
0000
01f6
cafe
2818
0000
0000
01fa
cafe
2c18
0000
0000
01f2
cafe
3018
0000
0000
01fd
cafe
3418
0000
0000
020b
cafe
3818
0000
0000
0210
cafe
3c18
0000
0000
0204
cafe
2018
0000
0000
020a
cafe
2418
0000
0000
020b
cafe
2818
0000
0000
0203
cafe
2c18
0000
0000
0204
cafe
3018
0000
0000
01f8
cafe
3418
0000
0000
0212
cafe
3818
0000
0000
020f
cafe
3c18
0000
0000
0204
cafe
2018
0000
0000
01fe
cafe
2418
0000
0000
0209
cafe
2818
0000
0000
0200
cafe
2c18
0000
0000
-
0200
cafe
3018
0000
0000
01fc
cafe
3418
0000
0000
01f4
cafe
3818
0000
0000
01ff
cafe
3c18
0000
0000
01f8
cafe
2018
0000
0000
01f4
cafe
2418
0000
0000
01f8
cafe
2818
0000
0000
01f8
cafe
2c18
0000
0000
0201
cafe
3018
0000
0000
0204
cafe
3418
0000
0000
0202
cafe
3818
0000
0000
0208
cafe
3c18
0000
0000
0200
cafe
2018
0000
0000
01f3
cafe
2418
0000
0000
0207
cafe
2818
0000
0000
0202
cafe
2c18
0000
0000
0205
cafe
3018
0000
0000
0201
cafe
3418
0000
0000
01fc
cafe
3818
0000
0000
0205
cafe
3c18
0000
0000
01fb
cafe
2018
0000
0000
0206
cafe
2418
0000
0000
0202
cafe
2818
0000
0000
0204
cafe
2c18
0000
0000
01fb
cafe
3018
0000
0000
01fe
cafe
3418
0000
0000
01fd
cafe
3818
0000
0000
01f0
cafe
3c18
0000
0000
01ef
cafe
2018
0000
0000
01ee
cafe
2418
0000
0000
0201
cafe
2818
0000
0000
01f7
cafe
2c18
0000
0000
0203
cafe
3018
0000
0000
0208
cafe
3418
0000
0000
01fd
cafe
3818
0000
0000
0212
cafe
3c18
0000
0000
021d
cafe
2018
0000
0000
020a
cafe
2418
0000
0000
0218
cafe
2818
0000
0000
020d
cafe
2c18
0000
0000
0210
cafe
3018
0000
0000
0214
cafe
3418
0000
0000
0205
cafe
3818
0000
0000
01f6
cafe
3c18
0000
0000
01f5
cafe
2018
0000
0000
0201
cafe
2418
0000
0000
0208
cafe
2818
0000
0000
020e
cafe
2c18
0000
0000
020e
cafe
3018
0000
0000
0207
cafe
3418
0000
0000
0208
cafe
3818
0000
0000
0204
-
cafe
3c18
0000
0000
0208
cafe
2018
0000
0000
0201
cafe
2418
0000
0000
01fc
cafe
2818
0000
0000
0206
cafe
2c18
0000
0000
0203
cafe
3018
0000
0000
0209
cafe
3418
0000
0000
0201
cafe
3818
0000
0000
0203
cafe
3c18
0000
0000
0207
cafe
2018
0000
0000
0211
cafe
2418
0000
0000
0207
cafe
2818
0000
0000
0207
cafe
2c18
0000
0000
0209
cafe
3018
0000
0000
0205
cafe
3418
0000
0000
0209
cafe
3818
0000
0000
01fe
cafe
3c18
0000
0000
01fd
cafe
2018
0000
0000
0201
cafe
2418
0000
0000
020a
cafe
2818
0000
0000
020a
cafe
2c18
0000
0000
020d
cafe
3018
0000
0000
020b
cafe
3418
0000
0000
01fb
cafe
3818
0000
0000
01fe
cafe
3c18
0000
0000
0202
cafe
2018
0000
0000
020d
cafe
2418
0000
0000
01fc
cafe
2818
0000
0000
0202
cafe
2c18
0000
0000
0209
cafe
3018
0000
0000
0205
cafe
3418
0000
0000
0204
cafe
3818
0000
0000
01ff
cafe
3c18
0000
0000
01f5
cafe
2018
0000
0000
01ef
cafe
2418
0000
0000
01ef
cafe
2818
0000
0000
01f8
cafe
2c18
0000
0000
01fd
cafe
3018
0000
0000
01f3
cafe
3418
0000
0000
01f5
cafe
3818
0000
0000
01fc
cafe
3c18
0000
0000
0200
cafe
2018
0000
0000
0205
cafe
2418
0000
0000
01f2
cafe
2818
0000
0000
01fc
cafe
2c18
0000
0000
01f1
cafe
3018
0000
0000
0206
cafe
3418
0000
0000
0200
cafe
3818
0000
0000
01ff
cafe
3c18
0000
0000
01fc
cafe
2018
0000
0000
0204
cafe
2418
0000
0000
0207
cafe
-
2818
0000
0000
0208
cafe
2c18
0000
0000
01fe
cafe
3018
0000
0000
01fb
cafe
3418
0000
0000
01f4
cafe
3818
0000
0000
01f6
cafe
3c18
0000
0000
01f6
cafe
2018
0000
0000
0202
cafe
2418
0000
0000
01fd
cafe
2818
0000
0000
01fd
cafe
2c18
0000
0000
0206
cafe
3018
0000
0000
020a
cafe
3418
0000
0000
020a
cafe
3818
0000
0000
01fd
cafe
3c18
0000
0000
0205
cafe
2018
0000
0000
01ff
cafe
2418
0000
0000
0208
cafe
2818
0000
0000
0209
cafe
2c18
0000
0000
01fb
cafe
3018
0000
0000
0203
cafe
3418
0000
0000
0201
cafe
3818
0000
0000
0202
cafe
3c18
0000
0000
01fc
cafe
2018
0000
0000
01fa
cafe
2418
0000
0000
01f3
cafe
2818
0000
0000
01fe
cafe
2c18
0000
0000
01ff
cafe
3018
0000
0000
020a
cafe
3418
0000
0000
020b
cafe
3818
0000
0000
0205
cafe
3c18
0000
0000
0208
cafe
2018
0000
0000
020b
cafe
2418
0000
0000
01f3
cafe
2818
0000
0000
01ff
cafe
2c18
0000
0000
01fd
cafe
3018
0000
0000
0200
cafe
3418
0000
0000
01fb
cafe
3818
0000
0000
01ff
cafe
3c18
0000
0000
01f2
cafe
2018
0000
0000
0202
cafe
2418
0000
0000
01fd
cafe
2818
0000
0000
01f9
cafe
2c18
0000
0000
01fe
cafe
3018
0000
0000
0200
cafe
3418
0000
0000
01fe
cafe
3818
0000
0000
0206
cafe
3c18
0000
0000
01f9
cafe
2018
0000
0000
01e9
cafe
2418
0000
0000
01e8
cafe
2818
0000
0000
01f2
cafe
2c18
0000
0000
01f9
cafe
3018
0000
0000
01fc
cafe
3418
-
0000
0000
0203
cafe
3818
0000
0000
0205
cafe
3c18
0000
0000
020a
cafe
2018
0000
0000
01f6
cafe
2418
0000
0000
01f9
cafe
2818
0000
0000
01f2
cafe
2c18
0000
0000
01f1
cafe
3018
0000
0000
01fd
cafe
3418
0000
0000
0201
cafe
3818
0000
0000
0202
cafe
3c18
0000
0000
01fe
cafe
2018
0000
0000
020c
cafe
2418
0000
0000
01f7
cafe
2818
0000
0000
01fe
cafe
2c18
0000
0000
01f7
cafe
3018
0000
0000
0203
cafe
3418
0000
0000
01ff
cafe
3818
0000
0000
01fe
cafe
3c18
0000
0000
01fa
cafe
2018
0000
0000
01ff
cafe
2418
0000
0000
0201
cafe
2818
0000
0000
020c
cafe
2c18
0000
0000
020a
cafe
3018
0000
0000
0208
cafe
3418
0000
0000
01fe
cafe
3818
0000
0000
0201
cafe
3c18
0000
0000
01fc
cafe
2018
0000
0000
01f4
cafe
2418
0000
0000
01fc
cafe
2818
0000
0000
01fd
cafe
2c18
0000
0000
0205
cafe
3018
0000
0000
0201
cafe
3418
0000
0000
0205
cafe
3818
0000
0000
01ff
cafe
3c18
0000
0000
020a
cafe
2018
0000
0000
0204
cafe
2418
0000
0000
0208
cafe
2818
0000
0000
020a
cafe
2c18
0000
0000
0208
cafe
3018
0000
0000
0209
cafe
3418
0000
0000
0201
cafe
3818
0000
0000
01f6
cafe
3c18
0000
0000
01fe
cafe
2018
0000
0000
0205
cafe
2418
0000
0000
01fc
cafe
2818
0000
0000
01fe
cafe
2c18
0000
0000
0203
cafe
3018
0000
0000
01fe
cafe
3418
0000
0000
01fc
cafe
3818
0000
0000
01f7
cafe
3c18
0000
0000
0209
cafe
2018
0000
-
0000
01f6
cafe
2418
0000
0000
0202
cafe
2818
0000
0000
0201
cafe
2c18
0000
0000
0204
cafe
3018
0000
0000
0204
cafe
3418
0000
0000
01ff
cafe
3818
0000
0000
0203
cafe
3c18
0000
0000
0202
cafe
2018
0000
0000
01fd
cafe
2418
0000
0000
0201
cafe
2818
0000
0000
01fe
cafe
2c18
0000
0000
020b
cafe
3018
0000
0000
0208
cafe
3418
0000
0000
0212
cafe
3818
0000
0000
0203
cafe
3c18
0000
0000
0203
cafe
2018
0000
0000
01fd
cafe
2418
0000
0000
0210
cafe
2818
0000
0000
0201
cafe
2c18
0000
0000
01fe
cafe
3018
0000
0000
0205
cafe
3418
0000
0000
0208
cafe
3818
0000
0000
0204
cafe
3c18
0000
0000
0206
cafe
2018
0000
0000
020b
cafe
2418
0000
0000
020d
cafe
2818
0000
0000
020e
cafe
2c18
0000
0000
0219
cafe
3018
0000
0000
0212
cafe
3418
0000
0000
0206
cafe
3818
0000
0000
01fd
cafe
3c18
0000
0000
0203
cafe
2018
0000
0000
01ff
cafe
2418
0000
0000
01fb
cafe
2818
0000
0000
0203
cafe
2c18
0000
0000
0206
cafe
3018
0000
0000
01fd
cafe
3418
0000
0000
0200
cafe
3818
0000
0000
0206
cafe
3c18
0000
0000
01ff
cafe
2018
0000
0000
0200
cafe
2418
0000
0000
01fc
cafe
2818
0000
0000
0202
cafe
2c18
0000
0000
0204
cafe
3018
0000
0000
020b
cafe
3418
0000
0000
0211
cafe
3818
0000
0000
020d
cafe
3c18
0000
0000
0209
cafe
2018
0000
0000
01f7
cafe
2418
0000
0000
0201
cafe
2818
0000
0000
01fd
cafe
2c18
0000
0000
-
01f0
cafe
3018
0000
0000
0201
cafe
3418
0000
0000
01fb
cafe
3818
0000
0000
0204
cafe
3c18
0000
0000
0207
cafe
2018
0000
0000
01f9
cafe
2418
0000
0000
01f7
cafe
2818
0000
0000
0216
cafe
2c18
0000
0000
020a
cafe
3018
0000
0000
020e
cafe
3418
0000
0000
0205
cafe
3818
0000
0000
0209
cafe
3c18
0000
0000
0200
cafe
2018
0000
0000
01fc
cafe
2418
0000
0000
01f8
cafe
2818
0000
0000
01f8
cafe
2c18
0000
0000
01f8
cafe
3018
0000
0000
01ff
cafe
3418
0000
0000
01fa
cafe
3818
0000
0000
01fe
cafe
3c18
0000
0000
0209
cafe
2018
0000
0000
01fe
cafe
2418
0000
0000
01ff
cafe
2818
0000
0000
01ff
cafe
2c18
0000
0000
0203
cafe
3018
0000
0000
01ff
cafe
3418
0000
0000
01fb
cafe
3818
0000
0000
01ff
cafe
3c18
0000
0000
0206
cafe
2018
0000
0000
0209
cafe
2418
0000
0000
0201
cafe
2818
0000
0000
0213
cafe
2c18
0000
0000
0210
cafe
3018
0000
0000
01f5
cafe
3418
0000
0000
01f0
cafe
3818
0000
0000
0205
cafe
3c18
0000
0000
0205
cafe
2018
0000
0000
01ff
cafe
2418
0000
0000
0200
cafe
2818
0000
0000
01f7
cafe
2c18
0000
0000
01ec
cafe
3018
0000
0000
0203
cafe
3418
0000
0000
020a
cafe
3818
0000
0000
01fb
cafe
3c18
0000
0000
01ff
cafe
2018
0000
0000
0202
cafe
2418
0000
0000
01fc
cafe
2818
0000
0000
01fb
cafe
2c18
0000
0000
01fa
cafe
3018
0000
0000
01eb
cafe
3418
0000
0000
01ea
cafe
3818
0000
0000
01f3
-
cafe
3c18
0000
0000
01f0
cafe
2018
0000
0000
01f0
cafe
2418
0000
0000
01f8
cafe
2818
0000
0000
01f5
cafe
2c18
0000
0000
01f9
cafe
3018
0000
0000
01f9
cafe
3418
0000
0000
01ff
cafe
3818
0000
0000
0202
cafe
3c18
0000
0000
0203
cafe
2018
0000
0000
01fd
cafe
2418
0000
0000
0201
cafe
2818
0000
0000
0203
cafe
2c18
0000
0000
01fb
cafe
3018
0000
0000
0201
cafe
3418
0000
0000
01fd
cafe
3818
0000
0000
0207
cafe
3c18
0000
0000
01fc
cafe
2018
0000
0000
01fe
cafe
2418
0000
0000
0202
cafe
2818
0000
0000
01f8
cafe
2c18
0000
0000
01fa
cafe
3018
0000
0000
0203
cafe
3418
0000
0000
01fe
cafe
3818
0000
0000
020b
cafe
3c18
0000
0000
020c
cafe
2018
0000
0000
0209
cafe
2418
0000
0000
020b
cafe
2818
0000
0000
0203
cafe
2c18
0000
0000
0204
cafe
3018
0000
0000
0201
cafe
3418
0000
0000
020a
cafe
3818
0000
0000
01fc
cafe
3c18
0000
0000
0201
cafe
2018
0000
0000
01fe
cafe
2418
0000
0000
01fd
cafe
2818
0000
0000
01f4
cafe
2c18
0000
0000
01f8
cafe
3018
0000
0000
01ea
cafe
3418
0000
0000
01fc
cafe
3818
0000
0000
01fc
cafe
3c18
0000
0000
01ee
cafe
2018
0000
0000
01f1
cafe
2418
0000
0000
01f9
cafe
2818
0000
0000
020b
cafe
2c18
0000
0000
01fd
cafe
3018
0000
0000
01f0
cafe
3418
0000
0000
01fc
cafe
3818
0000
0000
01fe
cafe
3c18
0000
0000
01ff
cafe
2018
0000
0000
0208
cafe
2418
0000
0000
01fb
cafe
-
2818
0000
0000
01fa
cafe
2c18
0000
0000
0207
cafe
3018
0000
0000
0207
cafe
3418
0000
0000
01fd
cafe
3818
0000
0000
0201
cafe
3c18
0000
0000
01f7
cafe
2018
0000
0000
0200
cafe
2418
0000
0000
01fd
cafe
2818
0000
0000
01fb
cafe
2c18
0000
0000
01fa
cafe
3018
0000
0000
01ef
cafe
3418
0000
0000
01ff
cafe
3818
0000
0000
01f9
cafe
3c18
0000
0000
01ef
cafe
2018
0000
0000
01fa
cafe
2418
0000
0000
01f9
cafe
2818
0000
0000
01f8
cafe
2c18
0000
0000
01fc
cafe
3018
0000
0000
0204
cafe
3418
0000
0000
0203
cafe
3818
0000
0000
01f4
cafe
3c18
0000
0000
01ff
cafe
2018
0000
0000
0202
cafe
2418
0000
0000
01fd
cafe
2818
0000
0000
01ff
cafe
2c18
0000
0000
01f8
cafe
3018
0000
0000
01ff
cafe
3418
0000
0000
01f8
cafe
3818
0000
0000
0209
cafe
3c18
0000
0000
0205
cafe
2018
0000
0000
0203
cafe
2418
0000
0000
020b
cafe
2818
0000
0000
0202
cafe
2c18
0000
0000
020a
cafe
3018
0000
0000
01f9
cafe
3418
0000
0000
0202
cafe
3818
0000
0000
020e
cafe
3c18
0000
0000
0206
cafe
2018
0000
0000
0213
cafe
2418
0000
0000
0209
cafe
2818
0000
0000
0203
cafe
2c18
0000
0000
01fb
cafe
3018
0000
0000
0201
cafe
3418
0000
0000
01ff
cafe
3818
0000
0000
01f8
cafe
3c18
0000
0000
020d
cafe
2018
0000
0000
020c
cafe
2418
0000
0000
020b
cafe
2818
0000
0000
0205
cafe
2c18
0000
0000
0201
cafe
3018
0000
0000
0201
cafe
3418
-
0000
0000
020e
cafe
3818
0000
0000
0201
cafe
3c18
0000
0000
0208
cafe
2018
0000
0000
0205
cafe
2418
0000
0000
0201
cafe
2818
0000
0000
0201
cafe
2c18
0000
0000
0214
cafe
3018
0000
0000
0204
cafe
3418
0000
0000
01fc
cafe
3818
0000
0000
0203
cafe
3c18
0000
0000
01f6
cafe
2018
0000
0000
01f7
cafe
2418
0000
0000
0208
cafe
2818
0000
0000
01f3
cafe
2c18
0000
0000
0205
cafe
3018
0000
0000
0202
cafe
3418
0000
0000
0208
cafe
3818
0000
0000
0205
cafe
3c18
0000
0000
0202
cafe
2018
0000
0000
0208
cafe
2418
0000
0000
0205
cafe
2818
0000
0000
0207
cafe
2c18
0000
0000
01ff
cafe
3018
0000
0000
020d
cafe
3418
0000
0000
0207
cafe
3818
0000
0000
0206
cafe
3c18
0000
0000
01ff
cafe
2018
0000
0000
01fb
cafe
2418
0000
0000
0201
cafe
2818
0000
0000
01f7
cafe
2c18
0000
0000
01f8
cafe
3018
0000
0000
01fe
cafe
3418
0000
0000
01fb
cafe
3818
0000
0000
01f7
cafe
3c18
0000
0000
0200
cafe
2018
0000
0000
01fb
cafe
2418
0000
0000
020a
cafe
2818
0000
0000
0203
cafe
2c18
0000
0000
0213
cafe
3018
0000
0000
0208
cafe
3418
0000
0000
0200
cafe
3818
0000
0000
0207
cafe
3c18
0000
0000
01fc
cafe
2018
0000
0000
020d
cafe
2418
0000
0000
020e
cafe
2818
0000
0000
0201
cafe
2c18
0000
0000
0204
cafe
3018
0000
0000
01f8
cafe
3418
0000
0000
0203
cafe
3818
0000
0000
020b
cafe
3c18
0000
0000
01ff
cafe
2018
0000
-
0000
0203
cafe
2418
0000
0000
020b
cafe
2818
0000
0000
020a
cafe
2c18
0000
0000
020e
cafe
3018
0000
0000
0206
cafe
3418
0000
0000
0202
cafe
3818
0000
0000
0200
cafe
3c18
0000
0000
020c
cafe
2018
0000
0000
0207
cafe
2418
0000
0000
01fd
cafe
2818
0000
0000
01ff
cafe
2c18
0000
0000
0204
cafe
3018
0000
0000
0200
cafe
3418
0000
0000
0204
cafe
3818
0000
0000
01fd
cafe
3c18
0000
0000
01f6
cafe
2018
0000
0000
01ff
cafe
2418
0000
0000
01ff
cafe
2818
0000
0000
01fb
cafe
2c18
0000
0000
01fe
cafe
3018
0000
0000
0202
cafe
3418
0000
0000
01f8
cafe
3818
0000
0000
01f8
cafe
3c18
0000
0000
01fe
cafe
2018
0000
0000
0208
cafe
2418
0000
0000
01fd
cafe
2818
0000
0000
01fa
cafe
2c18
0000
0000
01f7
cafe
3018
0000
0000
01fb
cafe
3418
0000
0000
01fe
cafe
3818
0000
0000
01f9
cafe
3c18
0000
0000
0200
cafe
2018
0000
0000
0205
cafe
2418
0000
0000
0206
cafe
2818
0000
0000
0208
cafe
2c18
0000
0000
0204
cafe
3018
0000
0000
01f8
cafe
3418
0000
0000
01fd
cafe
3818
0000
0000
01f5
cafe
3c18
0000
0000
0207
cafe
2018
0000
0000
01ff
cafe
2418
0000
0000
01f8
cafe
2818
0000
0000
0209
cafe
2c18
0000
0000
01fd
cafe
3018
0000
0000
020e
cafe
3418
0000
0000
0206
cafe
3818
0000
0000
0209
cafe
3c18
0000
0000
020e
cafe
2018
0000
0000
0202
cafe
2418
0000
0000
0202
cafe
2818
0000
0000
0207
cafe
2c18
0000
0000
-
0202
cafe
3018
0000
0000
020a
cafe
3418
0000
0000
01fc
cafe
3818
0000
0000
020b
cafe
3c18
0000
0000
020c
cafe
2018
0000
0000
020f
cafe
2418
0000
0000
0203
cafe
2818
0000
0000
0212
cafe
2c18
0000
0000
020b
cafe
3018
0000
0000
0207
cafe
3418
0000
0000
0202
cafe
3818
0000
0000
0209
cafe
3c18
0000
0000
0203
cafe
2018
0000
0000
0207
cafe
2418
0000
0000
0207
cafe
2818
0000
0000
01fe
cafe
2c18
0000
0000
0205
cafe
3018
0000
0000
0204
cafe
3418
0000
0000
01fd
cafe
3818
0000
0000
01f4
cafe
3c18
0000
0000
01fe
cafe
2018
0000
0000
020a
cafe
2418
0000
0000
0201
cafe
2818
0000
0000
01fb
cafe
2c18
0000
0000
0206
cafe
3018
0000
0000
01fa
cafe
3418
0000
0000
0205
cafe
3818
0000
0000
01fb
cafe
3c18
0000
0000
0203
cafe
2018
0000
0000
01f6
cafe
2418
0000
0000
01fc
cafe
2818
0000
0000
0203
cafe
2c18
0000
0000
0207
cafe
3018
0000
0000
020a
cafe
3418
0000
0000
0209
cafe
3818
0000
0000
0205
cafe
3c18
0000
0000
020a
cafe
2018
0000
0000
020b
cafe
2418
0000
0000
01fa
cafe
2818
0000
0000
01f9
cafe
2c18
0000
0000
0201
cafe
3018
0000
0000
01fd
cafe
3418
0000
0000
0202
cafe
3818
0000
0000
01fc
cafe
3c18
0000
0000
01f9
cafe
2018
0000
0000
01f8
cafe
2418
0000
0000
01ff
cafe
2818
0000
0000
01f2
cafe
2c18
0000
0000
01f3
cafe
3018
0000
0000
01f8
cafe
3418
0000
0000
01f5
cafe
3818
0000
0000
01f6
-
cafe
3c18
0000
0000
01fa
cafe
2018
0000
0000
01fa
cafe
2418
0000
0000
0200
cafe
2818
0000
0000
0203
cafe
2c18
0000
0000
020c
cafe
3018
0000
0000
020d
cafe
3418
0000
0000
0203
cafe
3818
0000
0000
020b
cafe
3c18
0000
0000
01fd
cafe
2018
0000
0000
0204
cafe
2418
0000
0000
0204
cafe
2818
0000
0000
0203
cafe
2c18
0000
0000
0203
cafe
3018
0000
0000
0208
cafe
3418
0000
0000
020c
cafe
3818
0000
0000
0207
cafe
3c18
0000
0000
0210
cafe
2018
0000
0000
0203
cafe
2418
0000
0000
0202
cafe
2818
0000
0000
0200
cafe
2c18
0000
0000
01ff
cafe
3018
0000
0000
0206
cafe
3418
0000
0000
01ee
cafe
3818
0000
0000
01ee
cafe
3c18
0000
0000
01f9
cafe
2018
0000
0000
01f6
cafe
2418
0000
0000
01fc
cafe
2818
0000
0000
0209
cafe
2c18
0000
0000
01fe
cafe
3018
0000
0000
0206
cafe
3418
0000
0000
01fd
cafe
3818
0000
0000
01f7
cafe
3c18
0000
0000
01fe
cafe
2018
0000
0000
01fb
cafe
2418
0000
0000
0200
cafe
2818
0000
0000
0205
cafe
2c18
0000
0000
01fd
cafe
3018
0000
0000
01fc
cafe
3418
0000
0000
020b
cafe
3818
0000
0000
0208
cafe
3c18
0000
0000
0210
cafe
2018
0000
0000
020c
cafe
2418
0000
0000
0216
cafe
2818
0000
0000
0213
cafe
2c18
0000
0000
0203
cafe
3018
0000
0000
01fb
cafe
3418
0000
0000
01fa
cafe
3818
0000
0000
01f9
cafe
3c18
0000
0000
01fe
cafe
2018
0000
0000
0203
cafe
2418
0000
0000
0202
cafe
-
2818
0000
0000
01fc
cafe
2c18
0000
0000
01eb
cafe
3018
0000
0000
0200
cafe
3418
0000
0000
0203
cafe
3818
0000
0000
01fb
cafe
3c18
0000
0000
020b
cafe
2018
0000
0000
01fd
cafe
2418
0000
0000
0208
cafe
2818
0000
0000
0202
cafe
2c18
0000
0000
01fc
cafe
3018
0000
0000
01fd
cafe
3418
0000
0000
0204
cafe
3818
0000
0000
01fc
cafe
3c18
0000
0000
0201
cafe
2018
0000
0000
01f4
cafe
2418
0000
0000
01f6
cafe
2818
0000
0000
01fd
cafe
2c18
0000
0000
0208
cafe
3018
0000
0000
0209
cafe
3418
0000
0000
0204
cafe
3818
0000
0000
020f
cafe
3c18
0000
0000
01fe
cafe
2018
0000
0000
01fb
cafe
2418
0000
0000
01fa
cafe
2818
0000
0000
01fe
cafe
2c18
0000
0000
0202
cafe
3018
0000
0000
01f3
cafe
3418
0000
0000
0206
cafe
3818
0000
0000
0200
cafe
3c18
0000
0000
0201
cafe
2018
0000
0000
01fb
cafe
2418
0000
0000
01ff
cafe
2818
0000
0000
01f7
cafe
2c18
0000
0000
01f9
cafe
3018
0000
0000
01f8
cafe
3418
0000
0000
01f8
cafe
3818
0000
0000
0201
cafe
3c18
0000
0000
0205
cafe
2018
0000
0000
01f9
cafe
2418
0000
0000
0205
cafe
2818
0000
0000
01fe
cafe
2c18
0000
0000
01f6
cafe
3018
0000
0000
0206
cafe
3418
0000
0000
020d
cafe
3818
0000
0000
01fd
cafe
3c18
0000
0000
01f0
cafe
2018
0000
0000
01ff
cafe
2418
0000
0000
01fc
cafe
2818
0000
0000
0206
cafe
2c18
0000
0000
0206
cafe
3018
0000
0000
01f5
cafe
3418
-
0000
0000
01fb
cafe
3818
0000
0000
020c
cafe
3c18
0000
0000
0206
cafe
2018
0000
0000
01f9
cafe
2418
0000
0000
01fe
cafe
2818
0000
0000
0200
cafe
2c18
0000
0000
0209
cafe
3018
0000
0000
020e
cafe
3418
0000
0000
0202
cafe
3818
0000
0000
0200
cafe
3c18
0000
0000
0205
cafe
2018
0000
0000
0200
cafe
2418
0000
0000
0211
cafe
2818
0000
0000
020b
cafe
2c18
0000
0000
0201
cafe
3018
0000
0000
0209
cafe
3418
0000
0000
01fc
cafe
3818
0000
0000
0204
cafe
3c18
0000
0000
0200
cafe
2018
0000
0000
0205
cafe
2418
0000
0000
01fd
cafe
2818
0000
0000
0205
cafe
2c18
0000
0000
0203
cafe
3018
0000
0000
01f9
cafe
3418
0000
0000
01fd
cafe
3818
0000
0000
0202
cafe
3c18
0000
0000
0206
cafe
2018
0000
0000
01f3
cafe
2418
0000
0000
01f4
cafe
2818
0000
0000
01f7
cafe
2c18
0000
0000
01fa
cafe
3018
0000
0000
01f0
cafe
3418
0000
0000
01fc
cafe
3818
0000
0000
020a
cafe
3c18
0000
0000
0206
cafe
2018
0000
0000
0207
cafe
2418
0000
0000
01fe
cafe
2818
0000
0000
01fc
cafe
2c18
0000
0000
0200
cafe
3018
0000
0000
01fb
cafe
3418
0000
0000
01f5
cafe
3818
0000
0000
0201
cafe
3c18
0000
0000
0205
cafe
2018
0000
0000
0204
cafe
2418
0000
0000
01f4
cafe
2818
0000
0000
0202
cafe
2c18
0000
0000
0200
cafe
3018
0000
0000
0209
cafe
3418
0000
0000
0210
cafe
3818
0000
0000
020b
cafe
3c18
0000
0000
0200
cafe
2018
0000
-
0000
020d
cafe
2418
0000
0000
01fb
cafe
2818
0000
0000
01fb
cafe
2c18
0000
0000
01fd
cafe
3018
0000
0000
0208
cafe
3418
0000
0000
0211
cafe
3818
0000
0000
0214
cafe
3c18
0000
0000
0214
cafe
2018
0000
0000
0215
cafe
2418
0000
0000
0211
cafe
2818
0000
0000
020d
cafe
2c18
0000
0000
0213
cafe
3018
0000
0000
0209
cafe
3418
0000
0000
0213
cafe
3818
0000
0000
0201
cafe
3c18
0000
0000
01fc
cafe
2018
0000
0000
0200
cafe
2418
0000
0000
01fe
cafe
2818
0000
0000
01fd
cafe
2c18
0000
0000
0201
cafe
3018
0000
0000
0206
cafe
3418
0000
0000
0205
cafe
3818
0000
0000
01fa
cafe
3c18
0000
0000
01f5
cafe
2018
0000
0000
0202
cafe
2418
0000
0000
01fc
cafe
2818
0000
0000
01f5
cafe
2c18
0000
0000
01fa
cafe
3018
0000
0000
01fe
cafe
3418
0000
0000
0204
cafe
3818
0000
0000
0201
cafe
3c18
0000
0000
0200
cafe
2018
0000
0000
01fe
cafe
2418
0000
0000
01f6
cafe
2818
0000
0000
0208
cafe
2c18
0000
0000
020d
cafe
3018
0000
0000
01fd
cafe
3418
0000
0000
020b
cafe
3818
0000
0000
020c
cafe
3c18
0000
0000
01ff
cafe
2018
0000
0000
0207
cafe
2418
0000
0000
0207
cafe
2818
0000
0000
01fb
cafe
2c18
0000
0000
020a
cafe
3018
0000
0000
01f9
cafe
3418
0000
0000
0203
cafe
3818
0000
0000
01ec
cafe
3c18
0000
0000
01f7
cafe
2018
0000
0000
01ff
cafe
2418
0000
0000
01f5
cafe
2818
0000
0000
0207
cafe
2c18
0000
0000
-
020f
cafe
3018
0000
0000
0200
cafe
3418
0000
0000
0201
cafe
3818
0000
0000
0200
cafe
3c18
0000
0000
0204
cafe
2018
0000
0000
01f9
cafe
2418
0000
0000
01f1
cafe
2818
0000
0000
01fd
cafe
2c18
0000
0000
01f4
cafe
3018
0000
0000
01ff
cafe
3418
0000
0000
01f8
cafe
3818
0000
0000
0200
cafe
3c18
0000
0000
01fa
cafe
2018
0000
0000
0203
cafe
2418
0000
0000
01ff
cafe
2818
0000
0000
01fa
cafe
2c18
0000
0000
020b
cafe
3018
0000
0000
01fa
cafe
3418
0000
0000
01f5
cafe
3818
0000
0000
01f9
cafe
3c18
0000
0000
01f8
cafe
2018
0000
0000
01f5
cafe
2418
0000
0000
01fb
cafe
2818
0000
0000
0203
cafe
2c18
0000
0000
01f7
cafe
3018
0000
0000
01f9
cafe
3418
0000
0000
0204
cafe
3818
0000
0000
0209
cafe
3c18
0000
0000
01ff
cafe
2018
0000
0000
0201
cafe
2418
0000
0000
01fe
cafe
2818
0000
0000
0202
cafe
2c18
0000
0000
01fe
cafe
3018
0000
0000
020a
cafe
3418
0000
0000
0208
cafe
3818
0000
0000
0206
cafe
3c18
0000
0000
0203
cafe
2018
0000
0000
0207
cafe
2418
0000
0000
01f9
cafe
2818
0000
0000
0202
cafe
2c18
0000
0000
0208
cafe
3018
0000
0000
0206
cafe
3418
0000
0000
01fb
cafe
3818
0000
0000
01fc
cafe
3c18
0000
0000
0203
cafe
2018
0000
0000
01f3
cafe
2418
0000
0000
0205
cafe
2818
0000
0000
01fb
cafe
2c18
0000
0000
01fd
cafe
3018
0000
0000
0202
cafe
3418
0000
0000
0201
cafe
3818
0000
0000
0201
-
cafe
3c18
0000
0000
01fc
cafe
2018
0000
0000
01fa
cafe
2418
0000
0000
0205
cafe
2818
0000
0000
01fc
cafe
2c18
0000
0000
01fe
cafe
3018
0000
0000
0203
cafe
3418
0000
0000
01f6
cafe
3818
0000
0000
01fd
cafe
3c18
0000
0000
020a
cafe
2018
0000
0000
0203
cafe
2418
0000
0000
0205
cafe
2818
0000
0000
0203
cafe
2c18
0000
0000
01fa
cafe
3018
0000
0000
0206
cafe
3418
0000
0000
021a
cafe
3818
0000
0000
020b
cafe
3c18
0000
0000
0205
cafe
2018
0000
0000
0203
cafe
2418
0000
0000
0214
cafe
2818
0000
0000
020e
cafe
2c18
0000
0000
0209
cafe
3018
0000
0000
020e
cafe
3418
0000
0000
020b
cafe
3818
0000
0000
0204
cafe
3c18
0000
0000
0213
cafe
2018
0000
0000
0217
cafe
2418
0000
0000
0211
cafe
2818
0000
0000
020e
cafe
2c18
0000
0000
0210
cafe
3018
0000
0000
0204
cafe
3418
0000
0000
020c
cafe
3818
0000
0000
0210
cafe
3c18
0000
0000
020d
cafe
2018
0000
0000
0200
cafe
2418
0000
0000
0200
cafe
2818
0000
0000
0200
cafe
2c18
0000
0000
01f9
cafe
3018
0000
0000
01ff
cafe
3418
0000
0000
01ee
cafe
3818
0000
0000
0202
cafe
3c18
0000
0000
0200
cafe
2018
0000
0000
01fc
cafe
2418
0000
0000
0203
cafe
2818
0000
0000
0205
cafe
2c18
0000
0000
020c
cafe
3018
0000
0000
020e
cafe
3418
0000
0000
01f9
cafe
3818
0000
0000
0203
cafe
3c18
0000
0000
020a
cafe
2018
0000
0000
0204
cafe
2418
0000
0000
01f7
cafe
-
2818
0000
0000
01f4
cafe
2c18
0000
0000
0201
cafe
3018
0000
0000
01fb
cafe
3418
0000
0000
0202
cafe
3818
0000
0000
01f3
cafe
3c18
0000
0000
0202
cafe
2018
0000
0000
01fd
cafe
2418
0000
0000
0201
cafe
2818
0000
0000
01f4
cafe
2c18
0000
0000
01ee
cafe
3018
0000
0000
01f0
cafe
3418
0000
0000
01ff
cafe
3818
0000
0000
0202
cafe
3c18
0000
0000
0207
cafe
2018
0000
0000
0204
cafe
2418
0000
0000
0207
cafe
2818
0000
0000
0202
cafe
2c18
0000
0000
01fd
cafe
3018
0000
0000
0201
cafe
3418
0000
0000
01f9
cafe
3818
0000
0000
01fa
cafe
3c18
0000
0000
0202
cafe
2018
0000
0000
020f
cafe
2418
0000
0000
0201
cafe
2818
0000
0000
0203
cafe
2c18
0000
0000
01f8
cafe
3018
0000
0000
020b
cafe
3418
0000
0000
01ed
cafe
3818
0000
0000
01ed
cafe
3c18
0000
0000
01f4
cafe
2018
0000
0000
01f9
cafe
2418
0000
0000
01f4
cafe
2818
0000
0000
0205
cafe
2c18
0000
0000
01fe
cafe
3018
0000
0000
01f6
cafe
3418
0000
0000
01fc
cafe
3818
0000
0000
0205
cafe
3c18
0000
0000
0201
cafe
2018
0000
0000
0205
cafe
2418
0000
0000
0203
cafe
2818
0000
0000
01fb
cafe
2c18
0000
0000
0202
cafe
3018
0000
0000
01fe
cafe
3418
0000
0000
020d
cafe
3818
0000
0000
0207
cafe
3c18
0000
0000
0200
cafe
2018
0000
0000
0200
cafe
2418
0000
0000
01fa
cafe
2818
0000
0000
0203
cafe
2c18
0000
0000
020d
cafe
3018
0000
0000
0202
cafe
3418
-
0000
0000
01ee
cafe
3818
0000
0000
01ec
cafe
3c18
0000
0000
01fc
cafe
2018
0000
0000
01f7
cafe
2418
0000
0000
01f6
cafe
2818
0000
0000
01f6
cafe
2c18
0000
0000
01f5
cafe
3018
0000
0000
01fc
cafe
3418
0000
0000
0200
cafe
3818
0000
0000
01ea
cafe
3c18
0000
0000
01f2
cafe
2018
0000
0000
01fb
cafe
2418
0000
0000
0203
cafe
2818
0000
0000
01fe
cafe
2c18
0000
0000
01f4
cafe
3018
0000
0000
01f6
cafe
3418
0000
0000
01fe
cafe
3818
0000
0000
01f2
cafe
3c18
0000
0000
0203
cafe
2018
0000
0000
0200
cafe
2418
0000
0000
01f4
cafe
2818
0000
0000
01f0
cafe
2c18
0000
0000
01f2
cafe
3018
0000
0000
01fe
cafe
3418
0000
0000
0200
cafe
3818
0000
0000
020e
cafe
3c18
0000
0000
0213
cafe
2018
0000
0000
020a
cafe
2418
0000
0000
020f
cafe
2818
0000
0000
0210
cafe
2c18
0000
0000
0209
cafe
3018
0000
0000
0206
cafe
3418
0000
0000
0207
cafe
3818
0000
0000
01fd
cafe
3c18
0000
0000
01f6
cafe
2018
0000
0000
01fb
cafe
2418
0000
0000
0205
cafe
2818
0000
0000
0204
cafe
2c18
0000
0000
0201
cafe
3018
0000
0000
01fb
cafe
3418
0000
0000
0207
cafe
3818
0000
0000
01f9
cafe
3c18
0000
0000
01fe
cafe
2018
0000
0000
01ee
cafe
2418
0000
0000
0209
cafe
2818
0000
0000
020b
cafe
2c18
0000
0000
01f7
cafe
3018
0000
0000
0202
cafe
3418
0000
0000
01fc
cafe
3818
0000
0000
0204
cafe
3c18
0000
0000
01fc
cafe
2018
0000
-
0000
01ff
cafe
2418
0000
0000
01f6
cafe
2818
0000
0000
0204
cafe
2c18
0000
0000
0201
cafe
3018
0000
0000
0202
cafe
3418
0000
0000
0201
cafe
3818
0000
0000
01fd
cafe
3c18
0000
0000
01f4
cafe
2018
0000
0000
01fe
cafe
2418
0000
0000
0201
cafe
2818
0000
0000
01fd
cafe
2c18
0000
0000
01f1
cafe
3018
0000
0000
01f1
cafe
3418
0000
0000
01e9
cafe
3818
0000
0000
01e6
cafe
3c18
0000
0000
01f1
cafe
2018
0000
0000
01f4
cafe
2418
0000
0000
01f3
cafe
2818
0000
0000
01f3
cafe
2c18
0000
0000
01f5
cafe
3018
0000
0000
01f4
cafe
3418
0000
0000
01f6
cafe
3818
0000
0000
01f2
cafe
3c18
0000
0000
01f5
cafe
2018
0000
0000
01f9
cafe
2418
0000
0000
01f7
cafe
2818
0000
0000
0206
cafe
2c18
0000
0000
0204
cafe
3018
0000
0000
0201
cafe
3418
0000
0000
0201
cafe
3818
0000
0000
020c
cafe
3c18
0000
0000
0208
cafe
2018
0000
0000
020d
cafe
2418
0000
0000
020e
cafe
2818
0000
0000
01ff
cafe
2c18
0000
0000
01ff
cafe
3018
0000
0000
01f8
cafe
3418
0000
0000
01fd
cafe
3818
0000
0000
0206
cafe
3c18
0000
0000
020e
cafe
2018
0000
0000
0205
cafe
2418
0000
0000
0200
cafe
2818
0000
0000
01f9
cafe
2c18
0000
0000
01f9
cafe
3018
0000
0000
01ff
cafe
3418
0000
0000
020c
cafe
3818
0000
0000
0205
cafe
3c18
0000
0000
020f
cafe
2018
0000
0000
020c
cafe
2418
0000
0000
0203
cafe
2818
0000
0000
0209
cafe
2c18
0000
0000
-
0209
cafe
3018
0000
0000
0200
cafe
3418
0000
0000
0209
cafe
3818
0000
0000
01fc
cafe
3c18
0000
0000
01ff
cafe
2018
0000
0000
0207
cafe
2418
0000
0000
01fd
cafe
2818
0000
0000
01ee
cafe
2c18
0000
0000
01ef
cafe
3018
0000
0000
01fb
cafe
3418
0000
0000
01ff
cafe
3818
0000
0000
0204
cafe
3c18
0000
0000
0200
cafe
2018
0000
0000
01ff
cafe
2418
0000
0000
01fc
cafe
2818
0000
0000
01fc
cafe
2c18
0000
0000
0202
cafe
3018
0000
0000
0207
cafe
3418
0000
0000
020d
cafe
3818
0000
0000
0210
cafe
3c18
0000
0000
01fb
cafe
2018
0000
0000
0205
cafe
2418
0000
0000
0205
cafe
2818
0000
0000
01f8
cafe
2c18
0000
0000
01fa
cafe
3018
0000
0000
01f7
cafe
3418
0000
0000
01fe
cafe
3818
0000
0000
01f7
cafe
3c18
0000
0000
0205
cafe
2018
0000
0000
01f8
cafe
2418
0000
0000
0205
cafe
2818
0000
0000
01ff
cafe
2c18
0000
0000
01fd
cafe
3018
0000
0000
01f8
cafe
3418
0000
0000
01fe
cafe
3818
0000
0000
0202
cafe
3c18
0000
0000
0203
cafe
2018
0000
0000
01f8
cafe
2418
0000
0000
0205
cafe
2818
0000
0000
0203
cafe
2c18
0000
0000
01fd
cafe
3018
0000
0000
0205
cafe
3418
0000
0000
020e
cafe
3818
0000
0000
0210
cafe
3c18
0000
0000
021a
cafe
2018
0000
0000
0216
cafe
2418
0000
0000
020c
cafe
2818
0000
0000
0206
cafe
2c18
0000
0000
0204
cafe
3018
0000
0000
0205
cafe
3418
0000
0000
01fb
cafe
3818
0000
0000
01fe
-
cafe
3c18
0000
0000
01f5
cafe
2018
0000
0000
01f9
cafe
2418
0000
0000
0201
cafe
2818
0000
0000
01ee
cafe
2c18
0000
0000
01f4
cafe
3018
0000
0000
0201
cafe
3418
0000
0000
01f2
cafe
3818
0000
0000
01fb
cafe
3c18
0000
0000
01f2
cafe
2018
0000
0000
0202
cafe
2418
0000
0000
0203
cafe
2818
0000
0000
020d
cafe
2c18
0000
0000
0207
cafe
3018
0000
0000
0210
cafe
3418
0000
0000
0204
cafe
3818
0000
0000
020b
cafe
3c18
0000
0000
01ff
cafe
2018
0000
0000
01fb
cafe
2418
0000
0000
01fc
cafe
2818
0000
0000
0203
cafe
2c18
0000
0000
0208
cafe
3018
0000
0000
0208
cafe
3418
0000
0000
01fe
cafe
3818
0000
0000
01f8
cafe
3c18
0000
0000
01f2
cafe
2018
0000
0000
01fe
cafe
2418
0000
0000
0202
cafe
2818
0000
0000
0201
cafe
2c18
0000
0000
01fb
cafe
3018
0000
0000
0203
cafe
3418
0000
0000
020d
cafe
3818
0000
0000
0208
cafe
3c18
0000
0000
0204
cafe
2018
0000
0000
0207
cafe
2418
0000
0000
0203
cafe
2818
0000
0000
01fe
cafe
2c18
0000
0000
01f9
cafe
3018
0000
0000
020c
cafe
3418
0000
0000
0208
cafe
3818
0000
0000
0202
cafe
3c18
0000
0000
020a
cafe
2018
0000
0000
0216
cafe
2418
0000
0000
0212
cafe
2818
0000
0000
020f
cafe
2c18
0000
0000
020f
cafe
3018
0000
0000
0203
cafe
3418
0000
0000
01fc
cafe
3818
0000
0000
0203
cafe
3c18
0000
0000
0203
cafe
2018
0000
0000
020d
cafe
2418
0000
0000
0203
cafe
-
2818
0000
0000
0208
cafe
2c18
0000
0000
0203
cafe
3018
0000
0000
01fe
cafe
3418
0000
0000
0201
cafe
3818
0000
0000
0200
cafe
3c18
0000
0000
01fe
cafe
2018
0000
0000
0205
cafe
2418
0000
0000
0202
cafe
2818
0000
0000
0202
cafe
2c18
0000
0000
01f9
cafe
3018
0000
0000
01f1
cafe
3418
0000
0000
01fb
cafe
3818
0000
0000
01fd
cafe
3c18
0000
0000
0200
cafe
2018
0000
0000
0208
cafe
2418
0000
0000
0213
cafe
2818
0000
0000
0212
cafe
2c18
0000
0000
0207
cafe
3018
0000
0000
0201
cafe
3418
0000
0000
0209
cafe
3818
0000
0000
0207
cafe
3c18
0000
0000
0210
cafe
2018
0000
0000
021c
cafe
2418
0000
0000
01fc
cafe
2818
0000
0000
020a
cafe
2c18
0000
0000
0201
cafe
3018
0000
0000
0208
cafe
3418
0000
0000
0206
cafe
3818
0000
0000
01fa
cafe
3c18
0000
0000
0203
cafe
2018
0000
0000
01ff
cafe
2418
0000
0000
01f8
cafe
2818
0000
0000
020c
cafe
2c18
0000
0000
0209
cafe
3018
0000
0000
0205
cafe
3418
0000
0000
0209
cafe
3818
0000
0000
0211
cafe
3c18
0000
0000
0202
cafe
2018
0000
0000
01fb
cafe
2418
0000
0000
0200
cafe
2818
0000
0000
01fc
cafe
2c18
0000
0000
01fd
cafe
3018
0000
0000
0203
cafe
3418
0000
0000
0206
cafe
3818
0000
0000
0206
cafe
3c18
0000
0000
01fe
cafe
2018
0000
0000
0206
cafe
2418
0000
0000
0208
cafe
2818
0000
0000
01ff
cafe
2c18
0000
0000
01fa
cafe
3018
0000
0000
01f6
cafe
3418
-
0000
0000
01fe
cafe
3818
0000
0000
01fc
cafe
3c18
0000
0000
01fd
cafe
2018
0000
0000
0209
cafe
2418
0000
0000
01f7
cafe
2818
0000
0000
0203
cafe
2c18
0000
0000
0201
cafe
3018
0000
0000
0201
cafe
3418
0000
0000
01fa
cafe
3818
0000
0000
01f7
cafe
3c18
0000
0000
01fe
cafe
2018
0000
0000
01f7
cafe
2418
0000
0000
0204
cafe
2818
0000
0000
020a
cafe
2c18
0000
0000
01f8
cafe
3018
0000
0000
0202
cafe
3418
0000
0000
01f9
cafe
3818
0000
0000
01f1
cafe
3c18
0000
0000
01ff
cafe
2018
0000
0000
01ed
cafe
2418
0000
0000
01fe
cafe
2818
0000
0000
0207
cafe
2c18
0000
0000
0200
cafe
3018
0000
0000
0201
cafe
3418
0000
0000
0203
cafe
3818
0000
0000
020d
cafe
3c18
0000
0000
01fc
cafe
2018
0000
0000
0204
cafe
2418
0000
0000
0205
cafe
2818
0000
0000
0204
cafe
2c18
0000
0000
020a
cafe
3018
0000
0000
01fd
cafe
3418
0000
0000
01f5
cafe
3818
0000
0000
01f3
cafe
3c18
0000
0000
01ed
cafe
2018
0000
0000
01f2
cafe
2418
0000
0000
01f4
cafe
2818
0000
0000
01ea
cafe
2c18
0000
0000
01f9
cafe
3018
0000
0000
01ed
cafe
3418
0000
0000
01f2
cafe
3818
0000
0000
01f4
cafe
3c18
0000
0000
01fa
cafe
2018
0000
0000
0200
cafe
2418
0000
0000
01f9
cafe
2818
0000
0000
01f3
cafe
2c18
0000
0000
01fd
cafe
3018
0000
0000
01ff
cafe
3418
0000
0000
0201
cafe
3818
0000
0000
01f9
cafe
3c18
0000
0000
01ef
cafe
2018
0000
-
0000
01ef
cafe
2418
0000
0000
01eb
cafe
2818
0000
0000
01f3
cafe
2c18
0000
0000
01fa
cafe
3018
0000
0000
01ff
cafe
3418
0000
0000
0207
cafe
3818
0000
0000
020e
cafe
3c18
0000
0000
01fa
cafe
2018
0000
0000
01ff
cafe
2418
0000
0000
01f0
cafe
2818
0000
0000
01fc
cafe
2c18
0000
0000
01fd
cafe
3018
0000
0000
01fc
cafe
3418
0000
0000
01f8
cafe
3818
0000
0000
01f9
cafe
3c18
0000
0000
01f1
cafe
2018
0000
0000
01f1
cafe
2418
0000
0000
01fa
cafe
2818
0000
0000
01f4
cafe
2c18
0000
0000
0205
cafe
3018
0000
0000
0207
cafe
3418
0000
0000
01f2
cafe
3818
0000
0000
01fd
cafe
3c18
0000
0000
0212
cafe
2018
0000
0000
0214
cafe
2418
0000
0000
0209
cafe
2818
0000
0000
0207
cafe
2c18
0000
0000
01fc
cafe
3018
0000
0000
01f2
cafe
3418
0000
0000
01f4
cafe
3818
0000
0000
01f9
cafe
3c18
0000
0000
01f9
cafe
2018
0000
0000
01f5
cafe
2418
0000
0000
01f3
cafe
2818
0000
0000
01f9
cafe
2c18
0000
0000
01f8
cafe
3018
0000
0000
01f4
cafe
3418
0000
0000
01f7
cafe
3818
0000
0000
01fa
cafe
3c18
0000
0000
01fb
cafe
2018
0000
0000
01f9
cafe
2418
0000
0000
01fb
cafe
2818
0000
0000
01fd
cafe
2c18
0000
0000
01fc
cafe
3018
0000
0000
01fb
cafe
3418
0000
0000
01fc
cafe
3818
0000
0000
01fb
cafe
3c18
0000
0000
01f9
cafe
2018
0000
0000
0206
cafe
2418
0000
0000
01f4
cafe
2818
0000
0000
01f5
cafe
2c18
0000
0000
-
01fb
cafe
3018
0000
0000
01fd
cafe
3418
0000
0000
0201
cafe
3818
0000
0000
01fb
cafe
3c18
0000
0000
01fb
cafe
2018
0000
0000
01ff
cafe
2418
0000
0000
01fb
cafe
2818
0000
0000
01fc
cafe
2c18
0000
0000
01f1
cafe
3018
0000
0000
01f4
cafe
3418
0000
0000
01f6
cafe
3818
0000
0000
01f9
cafe
3c18
0000
0000
01f0
cafe
2018
0000
0000
01eb
cafe
2418
0000
0000
01e9
cafe
2818
0000
0000
01f1
cafe
2c18
0000
0000
01f8
cafe
3018
0000
0000
01fd
cafe
3418
0000
0000
01f6
cafe
3818
0000
0000
01fd
cafe
3c18
0000
0000
01fd
cafe
2018
0000
0000
0200
cafe
2418
0000
0000
0203
cafe
2818
0000
0000
0202
cafe
2c18
0000
0000
0209
cafe
3018
0000
0000
0204
cafe
3418
0000
0000
0210
cafe
3818
0000
0000
0216
cafe
3c18
0000
0000
0214
cafe
2018
0000
0000
021c
cafe
2418
0000
0000
0217
cafe
2818
0000
0000
0216
cafe
2c18
0000
0000
0210
cafe
3018
0000
0000
020e
cafe
3418
0000
0000
0201
cafe
3818
0000
0000
01fc
cafe
3c18
0000
0000
0209
cafe
2018
0000
0000
01fe
cafe
2418
0000
0000
0202
cafe
2818
0000
0000
0215
cafe
2c18
0000
0000
0216
cafe
3018
0000
0000
0203
cafe
3418
0000
0000
020b
cafe
3818
0000
0000
020d
cafe
3c18
0000
0000
020b
cafe
2018
0000
0000
020b
cafe
2418
0000
0000
020f
cafe
2818
0000
0000
020d
cafe
2c18
0000
0000
01fe
cafe
3018
0000
0000
0200
cafe
3418
0000
0000
01f8
cafe
3818
0000
0000
01fe
-
