3816
0000
0000
012f
cafe
3c0f
0000
0000
0137
cafe
201f
0000
0000
018f
cafe
2407
0000
0000
014e
cafe
2817
0000
0000
01c2
cafe
2c08
0000
0000
01d9
cafe
3018
0000
0000
009e
cafe
3400
0000
0000
00eb
cafe
3810
0000
0000
0157
cafe
3c09
0000
0000
012a
cafe
2019
0000
0000
0178
cafe
2401
0000
0000
0153
cafe
2811
0000
0000
0219
cafe
2c0a
0000
0000
015c
cafe
301a
0000
0000
01e5
cafe
3402
0000
0000
0110
cafe
3812
0000
0000
012f
cafe
3c0b
0000
0000
010f
cafe
201b
0000
0000
0108
cafe
2403
0000
0000
0203
cafe
2813
0000
0000
01b3
cafe
2c0c
0000
0000
00cd
cafe
301c
0000
0000
01a5
cafe
3404
0000
0000
0160
cafe
3814
0000
0000
016b
cafe
3c0d
0000
0000
0152
cafe
201d
0000
0000
0164
cafe
2405
0000
0000
0188
cafe
2815
0000
0000
0178
cafe
2c0e
0000
0000
01a6
cafe
301e
0000
0000
0174
cafe
3406
0000
0000
0152
cafe
3816
0000
0000
012f
cafe
3c0f
0000
0000
013d
cafe
201f
0000
0000
0191
cafe
2407
0000
0000
0151
cafe
2817
0000
0000
01c0
cafe
2c08
0000
0000
01e8
cafe
3018
0000
0000
00a0
cafe
3400
0000
0000
00e9
cafe
3810
0000
0000
015a
cafe
3c09
0000
0000
012b
cafe
2019
0000
0000
017c
cafe
2401
0000
0000
015d
cafe
2811
0000
0000
0217
cafe
2c0a
0000
0000
015c
cafe
301a
0000
0000
01e5
cafe
3402
0000
0000
0112
cafe
3812
0000
0000
012f
cafe
3c0b
0000
0000
010f
cafe
201b
0000
0000
0106
cafe
2403
-
0000
0000
020a
cafe
2813
0000
0000
01b2
cafe
2c0c
0000
0000
00d7
cafe
301c
0000
0000
01a5
cafe
3404
0000
0000
0167
cafe
3814
0000
0000
0178
cafe
3c0d
0000
0000
014e
cafe
201d
0000
0000
0167
cafe
2405
0000
0000
0187
cafe
2815
0000
0000
0172
cafe
2c0e
0000
0000
01ab
cafe
301e
0000
0000
0174
cafe
3406
0000
0000
0155
cafe
3816
0000
0000
012e
cafe
3c0f
0000
0000
0134
cafe
201f
0000
0000
018d
cafe
2407
0000
0000
0153
cafe
2817
0000
0000
01cb
cafe
2c08
0000
0000
01e5
cafe
3018
0000
0000
00a2
cafe
3400
0000
0000
00e9
cafe
3810
0000
0000
015a
cafe
3c09
0000
0000
0126
cafe
2019
0000
0000
016d
cafe
2401
0000
0000
0151
cafe
2811
0000
0000
0212
cafe
2c0a
0000
0000
015f
cafe
301a
0000
0000
01e4
cafe
3402
0000
0000
010d
cafe
3812
0000
0000
0133
cafe
3c0b
0000
0000
0119
cafe
201b
0000
0000
0109
cafe
2403
0000
0000
020d
cafe
2813
0000
0000
01ab
cafe
2c0c
0000
0000
00cf
cafe
301c
0000
0000
01a4
cafe
3404
0000
0000
0163
cafe
3814
0000
0000
017b
cafe
3c0d
0000
0000
0147
cafe
201d
0000
0000
0163
cafe
2405
0000
0000
0188
cafe
2815
0000
0000
0163
cafe
2c0e
0000
0000
01b0
cafe
301e
0000
0000
0172
cafe
3406
0000
0000
014f
cafe
3816
0000
0000
0132
cafe
3c0f
0000
0000
0133
cafe
201f
0000
0000
018e
cafe
2407
0000
0000
0153
cafe
2817
0000
0000
01cc
cafe
2c08
0000
0000
01da
cafe
3018
0000
-
0000
0099
cafe
3400
0000
0000
00ea
cafe
3810
0000
0000
0155
cafe
3c09
0000
0000
0121
cafe
2019
0000
0000
016d
cafe
2401
0000
0000
014f
cafe
2811
0000
0000
021a
cafe
2c0a
0000
0000
015c
cafe
301a
0000
0000
01e6
cafe
3402
0000
0000
010b
cafe
3812
0000
0000
0139
cafe
3c0b
0000
0000
0113
cafe
201b
0000
0000
010a
cafe
2403
0000
0000
0205
cafe
2813
0000
0000
01a3
cafe
2c0c
0000
0000
00c0
cafe
301c
0000
0000
01a2
cafe
3404
0000
0000
015b
cafe
3814
0000
0000
016f
cafe
3c0d
0000
0000
0147
cafe
201d
0000
0000
0165
cafe
2405
0000
0000
018d
cafe
2815
0000
0000
0168
cafe
2c0e
0000
0000
01ae
cafe
301e
0000
0000
017b
cafe
3406
0000
0000
0150
cafe
3816
0000
0000
0135
cafe
3c0f
0000
0000
012f
cafe
201f
0000
0000
0186
cafe
2407
0000
0000
014c
cafe
2817
0000
0000
01c5
cafe
2c08
0000
0000
01d0
cafe
3018
0000
0000
009b
cafe
3400
0000
0000
00e6
cafe
3810
0000
0000
014a
cafe
3c09
0000
0000
012b
cafe
2019
0000
0000
016d
cafe
2401
0000
0000
014b
cafe
2811
0000
0000
021f
cafe
2c0a
0000
0000
0160
cafe
301a
0000
0000
01e7
cafe
3402
0000
0000
010d
cafe
3812
0000
0000
0136
cafe
3c0b
0000
0000
0111
cafe
201b
0000
0000
010b
cafe
2403
0000
0000
0205
cafe
2813
0000
0000
01aa
cafe
2c0c
0000
0000
00bd
cafe
301c
0000
0000
01a3
cafe
3404
0000
0000
0157
cafe
3814
0000
0000
016e
cafe
3c0d
0000
0000
-
0151
cafe
201d
0000
0000
0163
cafe
2405
0000
0000
018b
cafe
2815
0000
0000
0170
cafe
2c0e
0000
0000
01b0
cafe
301e
0000
0000
0177
cafe
3406
0000
0000
0150
cafe
3816
0000
0000
0134
cafe
3c0f
0000
0000
0121
cafe
201f
0000
0000
0189
cafe
2407
0000
0000
014c
cafe
2817
0000
0000
01c1
cafe
2c08
0000
0000
01d9
cafe
3018
0000
0000
009e
cafe
3400
0000
0000
00e6
cafe
3810
0000
0000
0150
cafe
3c09
0000
0000
012e
cafe
2019
0000
0000
016c
cafe
2401
0000
0000
014c
cafe
2811
0000
0000
0224
cafe
2c0a
0000
0000
0158
cafe
301a
0000
0000
01e2
cafe
3402
0000
0000
010e
cafe
3812
0000
0000
012a
cafe
3c0b
0000
0000
0111
cafe
201b
0000
0000
0112
cafe
2403
0000
0000
0203
cafe
2813
0000
0000
01a4
cafe
2c0c
0000
0000
00c4
cafe
301c
0000
0000
019f
cafe
3404
0000
0000
0159
cafe
3814
0000
0000
016a
cafe
3c0d
0000
0000
0158
cafe
201d
0000
0000
0163
cafe
2405
0000
0000
018f
cafe
2815
0000
0000
0175
cafe
2c0e
0000
0000
01af
cafe
301e
0000
0000
0177
cafe
3406
0000
0000
014b
cafe
3816
0000
0000
012d
cafe
3c0f
0000
0000
012d
cafe
201f
0000
0000
0192
cafe
2407
0000
0000
0152
cafe
2817
0000
0000
01c8
cafe
2c08
0000
0000
01d9
cafe
3018
0000
0000
00a4
cafe
3400
0000
0000
00ec
cafe
3810
0000
0000
0154
cafe
3c09
0000
0000
012e
cafe
2019
0000
0000
0172
cafe
2401
0000
0000
014a
cafe
2811
0000
0000
021e
-
cafe
2c0a
0000
0000
014b
cafe
301a
0000
0000
01dc
cafe
3402
0000
0000
0109
cafe
3812
0000
0000
0125
cafe
3c0b
0000
0000
011b
cafe
201b
0000
0000
010e
cafe
2403
0000
0000
0204
cafe
2813
0000
0000
01ab
cafe
2c0c
0000
0000
00ca
cafe
301c
0000
0000
019c
cafe
3404
0000
0000
015b
cafe
3814
0000
0000
016d
cafe
3c0d
0000
0000
0150
cafe
201d
0000
0000
0165
cafe
2405
0000
0000
0195
cafe
2815
0000
0000
0170
cafe
2c0e
0000
0000
01ac
cafe
301e
0000
0000
0172
cafe
3406
0000
0000
014a
cafe
3816
0000
0000
0129
cafe
3c0f
0000
0000
013a
cafe
201f
0000
0000
0194
cafe
2407
0000
0000
015a
cafe
2817
0000
0000
01c9
cafe
2c08
0000
0000
01da
cafe
3018
0000
0000
00ab
cafe
3400
0000
0000
00f1
cafe
3810
0000
0000
0157
cafe
3c09
0000
0000
012c
cafe
2019
0000
0000
016d
cafe
2401
0000
0000
0149
cafe
2811
0000
0000
0219
cafe
2c0a
0000
0000
0155
cafe
301a
0000
0000
01d7
cafe
3402
0000
0000
0102
cafe
3812
0000
0000
012f
cafe
3c0b
0000
0000
0121
cafe
201b
0000
0000
0111
cafe
2403
0000
0000
020b
cafe
2813
0000
0000
01b6
cafe
2c0c
0000
0000
00c7
cafe
301c
0000
0000
01a0
cafe
3404
0000
0000
0157
cafe
3814
0000
0000
0170
cafe
3c0d
0000
0000
014d
cafe
201d
0000
0000
0167
cafe
2405
0000
0000
018a
cafe
2815
0000
0000
016d
cafe
2c0e
0000
0000
01ae
cafe
301e
0000
0000
0173
cafe
3406
0000
0000
0151
cafe
-
3816
0000
0000
012b
cafe
3c0f
0000
0000
012f
cafe
201f
0000
0000
0190
cafe
2407
0000
0000
0155
cafe
2817
0000
0000
01c7
cafe
2c08
0000
0000
01d7
cafe
3018
0000
0000
00a4
cafe
3400
0000
0000
00ef
cafe
3810
0000
0000
014c
cafe
3c09
0000
0000
011d
cafe
2019
0000
0000
016f
cafe
2401
0000
0000
0149
cafe
2811
0000
0000
020f
cafe
2c0a
0000
0000
0150
cafe
301a
0000
0000
01d1
cafe
3402
0000
0000
0106
cafe
3812
0000
0000
0126
cafe
3c0b
0000
0000
011a
cafe
201b
0000
0000
0115
cafe
2403
0000
0000
020b
cafe
2813
0000
0000
01ac
cafe
2c0c
0000
0000
00b9
cafe
301c
0000
0000
01a7
cafe
3404
0000
0000
015e
cafe
3814
0000
0000
016c
cafe
3c0d
0000
0000
0143
cafe
201d
0000
0000
0166
cafe
2405
0000
0000
017c
cafe
2815
0000
0000
016f
cafe
2c0e
0000
0000
01b8
cafe
301e
0000
0000
0171
cafe
3406
0000
0000
014c
cafe
3816
0000
0000
012a
cafe
3c0f
0000
0000
0129
cafe
201f
0000
0000
0190
cafe
2407
0000
0000
014e
cafe
2817
0000
0000
01bd
cafe
2c08
0000
0000
01cf
cafe
3018
0000
0000
00a0
cafe
3400
0000
0000
00ee
cafe
3810
0000
0000
0151
cafe
3c09
0000
0000
0124
cafe
2019
0000
0000
0173
cafe
2401
0000
0000
014f
cafe
2811
0000
0000
0219
cafe
2c0a
0000
0000
0159
cafe
301a
0000
0000
01d5
cafe
3402
0000
0000
010d
cafe
3812
0000
0000
0124
cafe
3c0b
0000
0000
0115
cafe
201b
0000
0000
010b
cafe
2403
-
0000
0000
0201
cafe
2813
0000
0000
01ad
cafe
2c0c
0000
0000
00b7
cafe
301c
0000
0000
01ab
cafe
3404
0000
0000
015d
cafe
3814
0000
0000
0171
cafe
3c0d
0000
0000
014a
cafe
201d
0000
0000
0164
cafe
2405
0000
0000
0187
cafe
2815
0000
0000
0172
cafe
2c0e
0000
0000
01b8
cafe
301e
0000
0000
016c
cafe
3406
0000
0000
0151
cafe
3816
0000
0000
012f
cafe
3c0f
0000
0000
0131
cafe
201f
0000
0000
0195
cafe
2407
0000
0000
0150
cafe
2817
0000
0000
01b9
cafe
2c08
0000
0000
01d2
cafe
3018
0000
0000
00a4
cafe
3400
0000
0000
00f3
cafe
3810
0000
0000
014d
cafe
3c09
0000
0000
0129
cafe
2019
0000
0000
0175
cafe
2401
0000
0000
0151
cafe
2811
0000
0000
022a
cafe
2c0a
0000
0000
015c
cafe
301a
0000
0000
01d9
cafe
3402
0000
0000
010c
cafe
3812
0000
0000
0115
cafe
3c0b
0000
0000
011f
cafe
201b
0000
0000
0109
cafe
2403
0000
0000
0205
cafe
2813
0000
0000
01a9
cafe
2c0c
0000
0000
00ba
cafe
301c
0000
0000
01ad
cafe
3404
0000
0000
0159
cafe
3814
0000
0000
0175
cafe
3c0d
0000
0000
0150
cafe
201d
0000
0000
0161
cafe
2405
0000
0000
018c
cafe
2815
0000
0000
0177
cafe
2c0e
0000
0000
01b0
cafe
301e
0000
0000
0161
cafe
3406
0000
0000
0144
cafe
3816
0000
0000
012d
cafe
3c0f
0000
0000
0136
cafe
201f
0000
0000
0193
cafe
2407
0000
0000
0159
cafe
2817
0000
0000
01b7
cafe
2c08
0000
0000
01d5
cafe
3018
0000
-
0000
00ab
cafe
3400
0000
0000
00eb
cafe
3810
0000
0000
014f
cafe
3c09
0000
0000
012a
cafe
2019
0000
0000
0173
cafe
2401
0000
0000
015c
cafe
2811
0000
0000
0229
cafe
2c0a
0000
0000
015e
cafe
301a
0000
0000
01da
cafe
3402
0000
0000
010b
cafe
3812
0000
0000
0127
cafe
3c0b
0000
0000
0125
cafe
201b
0000
0000
0111
cafe
2403
0000
0000
01ff
cafe
2813
0000
0000
01a2
cafe
2c0c
0000
0000
00bf
cafe
301c
0000
0000
01ac
cafe
3404
0000
0000
015a
cafe
3814
0000
0000
017f
cafe
3c0d
0000
0000
0154
cafe
201d
0000
0000
0162
cafe
2405
0000
0000
018e
cafe
2815
0000
0000
0179
cafe
2c0e
0000
0000
01b5
cafe
301e
0000
0000
0166
cafe
3406
0000
0000
014a
cafe
3816
0000
0000
0128
cafe
3c0f
0000
0000
0137
cafe
201f
0000
0000
0191
cafe
2407
0000
0000
015c
cafe
2817
0000
0000
01c1
cafe
2c08
0000
0000
01e0
cafe
3018
0000
0000
00ae
cafe
3400
0000
0000
00e7
cafe
3810
0000
0000
0158
cafe
3c09
0000
0000
0125
cafe
2019
0000
0000
016d
cafe
2401
0000
0000
0161
cafe
2811
0000
0000
0220
cafe
2c0a
0000
0000
015c
cafe
301a
0000
0000
01df
cafe
3402
0000
0000
0109
cafe
3812
0000
0000
012b
cafe
3c0b
0000
0000
0125
cafe
201b
0000
0000
0111
cafe
2403
0000
0000
0206
cafe
2813
0000
0000
01aa
cafe
2c0c
0000
0000
00bb
cafe
301c
0000
0000
01ab
cafe
3404
0000
0000
015e
cafe
3814
0000
0000
0184
cafe
3c0d
0000
0000
-
015a
cafe
201d
0000
0000
015f
cafe
2405
0000
0000
018e
cafe
2815
0000
0000
0171
cafe
2c0e
0000
0000
01bb
cafe
301e
0000
0000
0161
cafe
3406
0000
0000
0150
cafe
3816
0000
0000
012d
cafe
3c0f
0000
0000
013b
cafe
201f
0000
0000
0195
cafe
2407
0000
0000
0150
cafe
2817
0000
0000
01ca
cafe
2c08
0000
0000
01dd
cafe
3018
0000
0000
00aa
cafe
3400
0000
0000
00e4
cafe
3810
0000
0000
0159
cafe
3c09
0000
0000
0126
cafe
2019
0000
0000
016b
cafe
2401
0000
0000
015a
cafe
2811
0000
0000
0217
cafe
2c0a
0000
0000
0153
cafe
301a
0000
0000
01de
cafe
3402
0000
0000
00ff
cafe
3812
0000
0000
0128
cafe
3c0b
0000
0000
011b
cafe
201b
0000
0000
011b
cafe
2403
0000
0000
0207
cafe
2813
0000
0000
01a5
cafe
2c0c
0000
0000
00b1
cafe
301c
0000
0000
01a5
cafe
3404
0000
0000
0158
cafe
3814
0000
0000
016f
cafe
3c0d
0000
0000
0148
cafe
201d
0000
0000
0161
cafe
2405
0000
0000
018d
cafe
2815
0000
0000
016b
cafe
2c0e
0000
0000
01b0
cafe
301e
0000
0000
016c
cafe
3406
0000
0000
014b
cafe
3816
0000
0000
012a
cafe
3c0f
0000
0000
0137
cafe
201f
0000
0000
018e
cafe
2407
0000
0000
014a
cafe
2817
0000
0000
01bc
cafe
2c08
0000
0000
01e3
cafe
3018
0000
0000
0099
cafe
3400
0000
0000
00eb
cafe
3810
0000
0000
0150
cafe
3c09
0000
0000
0125
cafe
2019
0000
0000
016e
cafe
2401
0000
0000
014d
cafe
2811
0000
0000
0210
-
cafe
2c0a
0000
0000
014b
cafe
301a
0000
0000
01cd
cafe
3402
0000
0000
0100
cafe
3812
0000
0000
012c
cafe
3c0b
0000
0000
011d
cafe
201b
0000
0000
011d
cafe
2403
0000
0000
0201
cafe
2813
0000
0000
01b0
cafe
2c0c
0000
0000
00ba
cafe
301c
0000
0000
01aa
cafe
3404
0000
0000
0159
cafe
3814
0000
0000
016b
cafe
3c0d
0000
0000
014e
cafe
201d
0000
0000
0164
cafe
2405
0000
0000
0195
cafe
2815
0000
0000
016a
cafe
2c0e
0000
0000
01ab
cafe
301e
0000
0000
016f
cafe
3406
0000
0000
014c
cafe
3816
0000
0000
012d
cafe
3c0f
0000
0000
0133
cafe
201f
0000
0000
018d
cafe
2407
0000
0000
014b
cafe
2817
0000
0000
01bc
cafe
2c08
0000
0000
01dd
cafe
3018
0000
0000
0098
cafe
3400
0000
0000
00f4
cafe
3810
0000
0000
014c
cafe
3c09
0000
0000
0129
cafe
2019
0000
0000
016d
cafe
2401
0000
0000
014a
cafe
2811
0000
0000
0215
cafe
2c0a
0000
0000
0151
cafe
301a
0000
0000
01cb
cafe
3402
0000
0000
00fc
cafe
3812
0000
0000
012b
cafe
3c0b
0000
0000
0113
cafe
201b
0000
0000
011d
cafe
2403
0000
0000
0203
cafe
2813
0000
0000
01b4
cafe
2c0c
0000
0000
00bd
cafe
301c
0000
0000
01aa
cafe
3404
0000
0000
0159
cafe
3814
0000
0000
016f
cafe
3c0d
0000
0000
014f
cafe
201d
0000
0000
0167
cafe
2405
0000
0000
0195
cafe
2815
0000
0000
0164
cafe
2c0e
0000
0000
01ab
cafe
301e
0000
0000
016f
cafe
3406
0000
0000
0150
cafe
-
3816
0000
0000
0135
cafe
3c0f
0000
0000
012f
cafe
201f
0000
0000
0193
cafe
2407
0000
0000
014c
cafe
2817
0000
0000
01bb
cafe
2c08
0000
0000
01e3
cafe
3018
0000
0000
009f
cafe
3400
0000
0000
00ee
cafe
3810
0000
0000
014f
cafe
3c09
0000
0000
0129
cafe
2019
0000
0000
0167
cafe
2401
0000
0000
014b
cafe
2811
0000
0000
0214
cafe
2c0a
0000
0000
014d
cafe
301a
0000
0000
01c9
cafe
3402
0000
0000
00f8
cafe
3812
0000
0000
0129
cafe
3c0b
0000
0000
010d
cafe
201b
0000
0000
0124
cafe
2403
0000
0000
0207
cafe
2813
0000
0000
01ac
cafe
2c0c
0000
0000
00c5
cafe
301c
0000
0000
01a2
cafe
3404
0000
0000
0156
cafe
3814
0000
0000
016c
cafe
3c0d
0000
0000
014d
cafe
201d
0000
0000
0162
cafe
2405
0000
0000
01a0
cafe
2815
0000
0000
016e
cafe
2c0e
0000
0000
01ae
cafe
301e
0000
0000
0171
cafe
3406
0000
0000
0147
cafe
3816
0000
0000
012d
cafe
3c0f
0000
0000
012e
cafe
201f
0000
0000
0199
cafe
2407
0000
0000
014a
cafe
2817
0000
0000
01bb
cafe
2c08
0000
0000
01e3
cafe
3018
0000
0000
00a2
cafe
3400
0000
0000
00ec
cafe
3810
0000
0000
0150
cafe
3c09
0000
0000
011f
cafe
2019
0000
0000
0164
cafe
2401
0000
0000
014e
cafe
2811
0000
0000
021b
cafe
2c0a
0000
0000
014d
cafe
301a
0000
0000
01cf
cafe
3402
0000
0000
00fc
cafe
3812
0000
0000
0133
cafe
3c0b
0000
0000
0115
cafe
201b
0000
0000
0124
cafe
2403
-
0000
0000
020d
cafe
2813
0000
0000
01a9
cafe
2c0c
0000
0000
00c7
cafe
301c
0000
0000
01a2
cafe
3404
0000
0000
0155
cafe
3814
0000
0000
0172
cafe
3c0d
0000
0000
0150
cafe
201d
0000
0000
015b
cafe
2405
0000
0000
019f
cafe
2815
0000
0000
016d
cafe
2c0e
0000
0000
01b4
cafe
301e
0000
0000
017f
cafe
3406
0000
0000
0156
cafe
3816
0000
0000
0130
cafe
3c0f
0000
0000
012f
cafe
201f
0000
0000
0195
cafe
2407
0000
0000
0151
cafe
2817
0000
0000
01b9
cafe
2c08
0000
0000
01e6
cafe
3018
0000
0000
00a7
cafe
3400
0000
0000
00ee
cafe
3810
0000
0000
0158
cafe
3c09
0000
0000
011b
cafe
2019
0000
0000
015e
cafe
2401
0000
0000
0151
cafe
2811
0000
0000
020a
cafe
2c0a
0000
0000
0151
cafe
301a
0000
0000
01d0
cafe
3402
0000
0000
0101
cafe
3812
0000
0000
012d
cafe
3c0b
0000
0000
0113
cafe
201b
0000
0000
0129
cafe
2403
0000
0000
020c
cafe
2813
0000
0000
01af
cafe
2c0c
0000
0000
00c6
cafe
301c
0000
0000
01ad
cafe
3404
0000
0000
0153
cafe
3814
0000
0000
0171
cafe
3c0d
0000
0000
0144
cafe
201d
0000
0000
015a
cafe
2405
0000
0000
019a
cafe
2815
0000
0000
016b
cafe
2c0e
0000
0000
01b6
cafe
301e
0000
0000
0179
cafe
3406
0000
0000
014c
cafe
3816
0000
0000
0129
cafe
3c0f
0000
0000
0126
cafe
201f
0000
0000
0195
cafe
2407
0000
0000
014d
cafe
2817
0000
0000
01bf
cafe
2c08
0000
0000
01e1
cafe
3018
0000
-
0000
00a1
cafe
3400
0000
0000
00f4
cafe
3810
0000
0000
0155
cafe
3c09
0000
0000
011a
cafe
2019
0000
0000
015f
cafe
2401
0000
0000
014a
cafe
2811
0000
0000
020a
cafe
2c0a
0000
0000
0158
cafe
301a
0000
0000
01d1
cafe
3402
0000
0000
00fd
cafe
3812
0000
0000
0126
cafe
3c0b
0000
0000
010d
cafe
201b
0000
0000
012e
cafe
2403
0000
0000
0204
cafe
2813
0000
0000
01b1
cafe
2c0c
0000
0000
00c3
cafe
301c
0000
0000
01a8
cafe
3404
0000
0000
0157
cafe
3814
0000
0000
0169
cafe
3c0d
0000
0000
0145
cafe
201d
0000
0000
0156
cafe
2405
0000
0000
0196
cafe
2815
0000
0000
016d
cafe
2c0e
0000
0000
01bc
cafe
301e
0000
0000
017d
cafe
3406
0000
0000
014c
cafe
3816
0000
0000
012c
cafe
3c0f
0000
0000
0123
cafe
201f
0000
0000
018e
cafe
2407
0000
0000
0148
cafe
2817
0000
0000
01c3
cafe
2c08
0000
0000
01da
cafe
3018
0000
0000
009a
cafe
3400
0000
0000
00f1
cafe
3810
0000
0000
0153
cafe
3c09
0000
0000
0126
cafe
2019
0000
0000
0166
cafe
2401
0000
0000
014c
cafe
2811
0000
0000
0208
cafe
2c0a
0000
0000
0154
cafe
301a
0000
0000
01d6
cafe
3402
0000
0000
00f8
cafe
3812
0000
0000
012b
cafe
3c0b
0000
0000
010a
cafe
201b
0000
0000
0128
cafe
2403
0000
0000
0209
cafe
2813
0000
0000
01af
cafe
2c0c
0000
0000
00c8
cafe
301c
0000
0000
01aa
cafe
3404
0000
0000
0157
cafe
3814
0000
0000
0167
cafe
3c0d
0000
0000
-
014c
cafe
201d
0000
0000
015d
cafe
2405
0000
0000
0191
cafe
2815
0000
0000
0172
cafe
2c0e
0000
0000
01b5
cafe
301e
0000
0000
016a
cafe
3406
0000
0000
0158
cafe
3816
0000
0000
012a
cafe
3c0f
0000
0000
011b
cafe
201f
0000
0000
0193
cafe
2407
0000
0000
0142
cafe
2817
0000
0000
01c5
cafe
2c08
0000
0000
01e1
cafe
3018
0000
0000
0099
cafe
3400
0000
0000
00f7
cafe
3810
0000
0000
0156
cafe
3c09
0000
0000
0125
cafe
2019
0000
0000
0168
cafe
2401
0000
0000
014b
cafe
2811
0000
0000
0216
cafe
2c0a
0000
0000
0154
cafe
301a
0000
0000
01d2
cafe
3402
0000
0000
0102
cafe
3812
0000
0000
012d
cafe
3c0b
0000
0000
010d
cafe
201b
0000
0000
012d
cafe
2403
0000
0000
0203
cafe
2813
0000
0000
01ad
cafe
2c0c
0000
0000
00c2
cafe
301c
0000
0000
01ad
cafe
3404
0000
0000
0154
cafe
3814
0000
0000
0161
cafe
3c0d
0000
0000
0149
cafe
201d
0000
0000
015c
cafe
2405
0000
0000
0193
cafe
2815
0000
0000
0170
cafe
2c0e
0000
0000
01b1
cafe
301e
0000
0000
0165
cafe
3406
0000
0000
0153
cafe
3816
0000
0000
0125
cafe
3c0f
0000
0000
0121
cafe
201f
0000
0000
0193
cafe
2407
0000
0000
0142
cafe
2817
0000
0000
01d0
cafe
2c08
0000
0000
01e1
cafe
3018
0000
0000
009f
cafe
3400
0000
0000
00ed
cafe
3810
0000
0000
0157
cafe
3c09
0000
0000
011c
cafe
2019
0000
0000
0162
cafe
2401
0000
0000
014a
cafe
2811
0000
0000
0217
-
cafe
2c0a
0000
0000
0159
cafe
301a
0000
0000
01d2
cafe
3402
0000
0000
0108
cafe
3812
0000
0000
0124
cafe
3c0b
0000
0000
010f
cafe
201b
0000
0000
012d
cafe
2403
0000
0000
020a
cafe
2813
0000
0000
01b7
cafe
2c0c
0000
0000
00c7
cafe
301c
0000
0000
01ab
cafe
3404
0000
0000
0156
cafe
3814
0000
0000
016b
cafe
3c0d
0000
0000
0146
cafe
201d
0000
0000
0162
cafe
2405
0000
0000
019a
cafe
2815
0000
0000
016d
cafe
2c0e
0000
0000
01af
cafe
301e
0000
0000
016d
cafe
3406
0000
0000
014e
cafe
3816
0000
0000
0122
cafe
3c0f
0000
0000
012a
cafe
201f
0000
0000
018b
cafe
2407
0000
0000
014a
cafe
2817
0000
0000
01d1
cafe
2c08
0000
0000
01e7
cafe
3018
0000
0000
0093
cafe
3400
0000
0000
00e8
cafe
3810
0000
0000
015d
cafe
3c09
0000
0000
0116
cafe
2019
0000
0000
0167
cafe
2401
0000
0000
014d
cafe
2811
0000
0000
0213
cafe
2c0a
0000
0000
0155
cafe
301a
0000
0000
01d5
cafe
3402
0000
0000
00ff
cafe
3812
0000
0000
011c
cafe
3c0b
0000
0000
0117
cafe
201b
0000
0000
012c
cafe
2403
0000
0000
020d
cafe
2813
0000
0000
01b7
cafe
2c0c
0000
0000
00be
cafe
301c
0000
0000
01a6
cafe
3404
0000
0000
0159
cafe
3814
0000
0000
0160
cafe
3c0d
0000
0000
0140
cafe
201d
0000
0000
0164
cafe
2405
0000
0000
018d
cafe
2815
0000
0000
016b
cafe
2c0e
0000
0000
01ae
cafe
301e
0000
0000
0178
cafe
3406
0000
0000
014f
cafe
-
3816
0000
0000
0126
cafe
3c0f
0000
0000
012e
cafe
201f
0000
0000
018a
cafe
2407
0000
0000
014a
cafe
2817
0000
0000
01cc
cafe
2c08
0000
0000
01d6
cafe
3018
0000
0000
008e
cafe
3400
0000
0000
00e6
cafe
3810
0000
0000
0150
cafe
3c09
0000
0000
0117
cafe
2019
0000
0000
0166
cafe
2401
0000
0000
014b
cafe
2811
0000
0000
020e
cafe
2c0a
0000
0000
015b
cafe
301a
0000
0000
01d1
cafe
3402
0000
0000
0102
cafe
3812
0000
0000
0121
cafe
3c0b
0000
0000
0119
cafe
201b
0000
0000
012e
cafe
2403
0000
0000
0213
cafe
2813
0000
0000
01bc
cafe
2c0c
0000
0000
00c2
cafe
301c
0000
0000
01a5
cafe
3404
0000
0000
0159
cafe
3814
0000
0000
015f
cafe
3c0d
0000
0000
0146
cafe
201d
0000
0000
0163
cafe
2405
0000
0000
0191
cafe
2815
0000
0000
0163
cafe
2c0e
0000
0000
01bf
cafe
301e
0000
0000
0174
cafe
3406
0000
0000
0152
cafe
3816
0000
0000
012b
cafe
3c0f
0000
0000
0135
cafe
201f
0000
0000
0189
cafe
2407
0000
0000
0152
cafe
2817
0000
0000
01dd
cafe
2c08
0000
0000
01da
cafe
3018
0000
0000
0089
cafe
3400
0000
0000
00e2
cafe
3810
0000
0000
0153
cafe
3c09
0000
0000
0131
cafe
2019
0000
0000
0172
cafe
2401
0000
0000
0151
cafe
2811
0000
0000
021f
cafe
2c0a
0000
0000
0163
cafe
301a
0000
0000
01d8
cafe
3402
0000
0000
010b
cafe
3812
0000
0000
0130
cafe
3c0b
0000
0000
0123
cafe
201b
0000
0000
012e
cafe
2403
-
0000
0000
0217
cafe
2813
0000
0000
01bf
cafe
2c0c
0000
0000
00c7
cafe
301c
0000
0000
01a9
cafe
3404
0000
0000
015b
cafe
3814
0000
0000
0169
cafe
3c0d
0000
0000
014d
cafe
201d
0000
0000
0161
cafe
2405
0000
0000
0191
cafe
2815
0000
0000
0169
cafe
2c0e
0000
0000
01c1
cafe
301e
0000
0000
016f
cafe
3406
0000
0000
014f
cafe
3816
0000
0000
0130
cafe
3c0f
0000
0000
012a
cafe
201f
0000
0000
018f
cafe
2407
0000
0000
014d
cafe
2817
0000
0000
01d1
cafe
2c08
0000
0000
01d8
cafe
3018
0000
0000
0090
cafe
3400
0000
0000
00df
cafe
3810
0000
0000
014e
cafe
3c09
0000
0000
0129
cafe
2019
0000
0000
0168
cafe
2401
0000
0000
0156
cafe
2811
0000
0000
0217
cafe
2c0a
0000
0000
015d
cafe
301a
0000
0000
01cf
cafe
3402
0000
0000
010b
cafe
3812
0000
0000
012c
cafe
3c0b
0000
0000
0116
cafe
201b
0000
0000
0128
cafe
2403
0000
0000
020a
cafe
2813
0000
0000
01af
cafe
2c0c
0000
0000
00c3
cafe
301c
0000
0000
01a8
cafe
3404
0000
0000
015a
cafe
3814
0000
0000
0163
cafe
3c0d
0000
0000
014b
cafe
201d
0000
0000
0163
cafe
2405
0000
0000
0190
cafe
2815
0000
0000
016d
cafe
2c0e
0000
0000
01c0
cafe
301e
0000
0000
0169
cafe
3406
0000
0000
014d
cafe
3816
0000
0000
0134
cafe
3c0f
0000
0000
0127
cafe
201f
0000
0000
018b
cafe
2407
0000
0000
0153
cafe
2817
0000
0000
01cd
cafe
2c08
0000
0000
01dd
cafe
3018
0000
-
0000
0099
cafe
3400
0000
0000
00e7
cafe
3810
0000
0000
014f
cafe
3c09
0000
0000
0129
cafe
2019
0000
0000
016b
cafe
2401
0000
0000
0150
cafe
2811
0000
0000
0215
cafe
2c0a
0000
0000
015c
cafe
301a
0000
0000
01cd
cafe
3402
0000
0000
0105
cafe
3812
0000
0000
0132
cafe
3c0b
0000
0000
0119
cafe
201b
0000
0000
0123
cafe
2403
0000
0000
0209
cafe
2813
0000
0000
01b0
cafe
2c0c
0000
0000
00ca
cafe
301c
0000
0000
01a7
cafe
3404
0000
0000
0157
cafe
3814
0000
0000
0165
cafe
3c0d
0000
0000
0149
cafe
201d
0000
0000
0162
cafe
2405
0000
0000
0191
cafe
2815
0000
0000
0171
cafe
2c0e
0000
0000
01b5
cafe
301e
0000
0000
0169
cafe
3406
0000
0000
0150
cafe
3816
0000
0000
012c
cafe
3c0f
0000
0000
0126
cafe
201f
0000
0000
018a
cafe
2407
0000
0000
014e
cafe
2817
0000
0000
01d4
cafe
2c08
0000
0000
01de
cafe
3018
0000
0000
009b
cafe
3400
0000
0000
00ee
cafe
3810
0000
0000
0156
cafe
3c09
0000
0000
0126
cafe
2019
0000
0000
0161
cafe
2401
0000
0000
014d
cafe
2811
0000
0000
020f
cafe
2c0a
0000
0000
015b
cafe
301a
0000
0000
01cf
cafe
3402
0000
0000
0101
cafe
3812
0000
0000
0130
cafe
3c0b
0000
0000
011c
cafe
201b
0000
0000
0121
cafe
2403
0000
0000
0205
cafe
2813
0000
0000
01b0
cafe
2c0c
0000
0000
00d0
cafe
301c
0000
0000
01b1
cafe
3404
0000
0000
015d
cafe
3814
0000
0000
0160
cafe
3c0d
0000
0000
-
013e
cafe
201d
0000
0000
0162
cafe
2405
0000
0000
018f
cafe
2815
0000
0000
016b
cafe
2c0e
0000
0000
01b7
cafe
301e
0000
0000
016f
cafe
3406
0000
0000
014f
cafe
3816
0000
0000
0130
cafe
3c0f
0000
0000
0128
cafe
201f
0000
0000
018b
cafe
2407
0000
0000
0151
cafe
2817
0000
0000
01cc
cafe
2c08
0000
0000
01e1
cafe
3018
0000
0000
0098
cafe
3400
0000
0000
00eb
cafe
3810
0000
0000
015f
cafe
3c09
0000
0000
011c
cafe
2019
0000
0000
0159
cafe
2401
0000
0000
0149
cafe
2811
0000
0000
0207
cafe
2c0a
0000
0000
0157
cafe
301a
0000
0000
01d4
cafe
3402
0000
0000
010a
cafe
3812
0000
0000
0125
cafe
3c0b
0000
0000
0128
cafe
201b
0000
0000
0121
cafe
2403
0000
0000
0202
cafe
2813
0000
0000
01ac
cafe
2c0c
0000
0000
00c5
cafe
301c
0000
0000
01a8
cafe
3404
0000
0000
0160
cafe
3814
0000
0000
016a
cafe
3c0d
0000
0000
013a
cafe
201d
0000
0000
0162
cafe
2405
0000
0000
018c
cafe
2815
0000
0000
0171
cafe
2c0e
0000
0000
01b3
cafe
301e
0000
0000
016b
cafe
3406
0000
0000
0149
cafe
3816
0000
0000
0132
cafe
3c0f
0000
0000
012f
cafe
201f
0000
0000
018f
cafe
2407
0000
0000
014c
cafe
2817
0000
0000
01c7
cafe
2c08
0000
0000
01db
cafe
3018
0000
0000
009b
cafe
3400
0000
0000
00e1
cafe
3810
0000
0000
015e
cafe
3c09
0000
0000
011d
cafe
2019
0000
0000
015f
cafe
2401
0000
0000
014f
cafe
2811
0000
0000
0207
-
cafe
2c0a
0000
0000
0154
cafe
301a
0000
0000
01d2
cafe
3402
0000
0000
0110
cafe
3812
0000
0000
012b
cafe
3c0b
0000
0000
0123
cafe
201b
0000
0000
011e
cafe
2403
0000
0000
020a
cafe
2813
0000
0000
01a8
cafe
2c0c
0000
0000
00c2
cafe
301c
0000
0000
01a6
cafe
3404
0000
0000
0159
cafe
3814
0000
0000
0169
cafe
3c0d
0000
0000
013e
cafe
201d
0000
0000
0161
cafe
2405
0000
0000
0192
cafe
2815
0000
0000
0172
cafe
2c0e
0000
0000
01b8
cafe
301e
0000
0000
016b
cafe
3406
0000
0000
0152
cafe
3816
0000
0000
0137
cafe
3c0f
0000
0000
0121
cafe
201f
0000
0000
0194
cafe
2407
0000
0000
014a
cafe
2817
0000
0000
01c5
cafe
2c08
0000
0000
01cc
cafe
3018
0000
0000
009e
cafe
3400
0000
0000
00dc
cafe
3810
0000
0000
0151
cafe
3c09
0000
0000
0122
cafe
2019
0000
0000
015f
cafe
2401
0000
0000
014e
cafe
2811
0000
0000
0209
cafe
2c0a
0000
0000
0149
cafe
301a
0000
0000
01cc
cafe
3402
0000
0000
010d
cafe
3812
0000
0000
011f
cafe
3c0b
0000
0000
0113
cafe
201b
0000
0000
0116
cafe
2403
0000
0000
01fd
cafe
2813
0000
0000
019e
cafe
2c0c
0000
0000
00b7
cafe
301c
0000
0000
01a8
cafe
3404
0000
0000
0158
cafe
3814
0000
0000
015f
cafe
3c0d
0000
0000
0140
cafe
201d
0000
0000
0168
cafe
2405
0000
0000
0188
cafe
2815
0000
0000
0162
cafe
2c0e
0000
0000
01ab
cafe
301e
0000
0000
016c
cafe
3406
0000
0000
014a
cafe
-
3816
0000
0000
0123
cafe
3c0f
0000
0000
011b
cafe
201f
0000
0000
018b
cafe
2407
0000
0000
0142
cafe
2817
0000
0000
01c4
cafe
2c08
0000
0000
01cc
cafe
3018
0000
0000
0098
cafe
3400
0000
0000
00dc
cafe
3810
0000
0000
0150
cafe
3c09
0000
0000
0120
cafe
2019
0000
0000
015e
cafe
2401
0000
0000
014b
cafe
2811
0000
0000
0205
cafe
2c0a
0000
0000
0141
cafe
301a
0000
0000
01c7
cafe
3402
0000
0000
0106
cafe
3812
0000
0000
011f
cafe
3c0b
0000
0000
010b
cafe
201b
0000
0000
011d
cafe
2403
0000
0000
01fd
cafe
2813
0000
0000
019d
cafe
2c0c
0000
0000
00c2
cafe
301c
0000
0000
01b1
cafe
3404
0000
0000
015b
cafe
3814
0000
0000
0169
cafe
3c0d
0000
0000
0141
cafe
201d
0000
0000
0165
cafe
2405
0000
0000
018b
cafe
2815
0000
0000
0163
cafe
2c0e
0000
0000
01b0
cafe
301e
0000
0000
0167
cafe
3406
0000
0000
014a
cafe
3816
0000
0000
0125
cafe
3c0f
0000
0000
0125
cafe
201f
0000
0000
0181
cafe
2407
0000
0000
0143
cafe
2817
0000
0000
01c6
cafe
2c08
0000
0000
01d6
cafe
3018
0000
0000
009f
cafe
3400
0000
0000
00e2
cafe
3810
0000
0000
015a
cafe
3c09
0000
0000
0121
cafe
2019
0000
0000
0163
cafe
2401
0000
0000
0145
cafe
2811
0000
0000
01f4
cafe
2c0a
0000
0000
014b
cafe
301a
0000
0000
01d3
cafe
3402
0000
0000
0104
cafe
3812
0000
0000
012b
cafe
3c0b
0000
0000
010b
cafe
201b
0000
0000
011b
cafe
2403
-
0000
0000
0208
cafe
2813
0000
0000
01a0
cafe
2c0c
0000
0000
00bf
cafe
301c
0000
0000
019f
cafe
3404
0000
0000
0156
cafe
3814
0000
0000
0165
cafe
3c0d
0000
0000
013b
cafe
201d
0000
0000
016b
cafe
2405
0000
0000
018d
cafe
2815
0000
0000
015c
cafe
2c0e
0000
0000
01b2
cafe
301e
0000
0000
0161
cafe
3406
0000
0000
014c
cafe
3816
0000
0000
0122
cafe
3c0f
0000
0000
0129
cafe
201f
0000
0000
018f
cafe
2407
0000
0000
0149
cafe
2817
0000
0000
01c3
cafe
2c08
0000
0000
01d5
cafe
3018
0000
0000
009b
cafe
3400
0000
0000
00dd
cafe
3810
0000
0000
0156
cafe
3c09
0000
0000
0123
cafe
2019
0000
0000
0166
cafe
2401
0000
0000
0146
cafe
2811
0000
0000
01f8
cafe
2c0a
0000
0000
0153
cafe
301a
0000
0000
01d8
cafe
3402
0000
0000
00fe
cafe
3812
0000
0000
0133
cafe
3c0b
0000
0000
010b
cafe
201b
0000
0000
0117
cafe
2403
0000
0000
0209
cafe
2813
0000
0000
01a5
cafe
2c0c
0000
0000
00c3
cafe
301c
0000
0000
019d
cafe
3404
0000
0000
0152
cafe
3814
0000
0000
0168
cafe
3c0d
0000
0000
013b
cafe
201d
0000
0000
0166
cafe
2405
0000
0000
0192
cafe
2815
0000
0000
0164
cafe
2c0e
0000
0000
01b7
cafe
301e
0000
0000
0164
cafe
3406
0000
0000
0150
cafe
3816
0000
0000
012e
cafe
3c0f
0000
0000
0135
cafe
201f
0000
0000
0197
cafe
2407
0000
0000
0147
cafe
2817
0000
0000
01bd
cafe
2c08
0000
0000
01d5
cafe
3018
0000
-
0000
0098
cafe
3400
0000
0000
00e2
cafe
3810
0000
0000
014e
cafe
3c09
0000
0000
0127
cafe
2019
0000
0000
0163
cafe
2401
0000
0000
014d
cafe
2811
0000
0000
0201
cafe
2c0a
0000
0000
0153
cafe
301a
0000
0000
01d8
cafe
3402
0000
0000
0105
cafe
3812
0000
0000
0127
cafe
3c0b
0000
0000
010c
cafe
201b
0000
0000
0117
cafe
2403
0000
0000
0205
cafe
2813
0000
0000
01b4
cafe
2c0c
0000
0000
00bb
cafe
301c
0000
0000
01a5
cafe
3404
0000
0000
0160
cafe
3814
0000
0000
016f
cafe
3c0d
0000
0000
0149
cafe
201d
0000
0000
0165
cafe
2405
0000
0000
018f
cafe
2815
0000
0000
016e
cafe
2c0e
0000
0000
01b7
cafe
301e
0000
0000
016d
cafe
3406
0000
0000
014f
cafe
3816
0000
0000
012a
cafe
3c0f
0000
0000
0135
cafe
201f
0000
0000
0195
cafe
2407
0000
0000
0140
cafe
2817
0000
0000
01c6
cafe
2c08
0000
0000
01df
cafe
3018
0000
0000
009c
cafe
3400
0000
0000
00e0
cafe
3810
0000
0000
014d
cafe
3c09
0000
0000
0132
cafe
2019
0000
0000
0169
cafe
2401
0000
0000
0155
cafe
2811
0000
0000
020e
cafe
2c0a
0000
0000
015b
cafe
301a
0000
0000
01d0
cafe
3402
0000
0000
0109
cafe
3812
0000
0000
012a
cafe
3c0b
0000
0000
0110
cafe
201b
0000
0000
0112
cafe
2403
0000
0000
0202
cafe
2813
0000
0000
01b3
cafe
2c0c
0000
0000
00bd
cafe
301c
0000
0000
01a9
cafe
3404
0000
0000
0163
cafe
3814
0000
0000
0170
cafe
3c0d
0000
0000
-
0150
cafe
201d
0000
0000
0166
cafe
2405
0000
0000
018e
cafe
2815
0000
0000
016f
cafe
2c0e
0000
0000
01b0
cafe
301e
0000
0000
016c
cafe
3406
0000
0000
0152
cafe
3816
0000
0000
0126
cafe
3c0f
0000
0000
0133
cafe
201f
0000
0000
0196
cafe
2407
0000
0000
0141
cafe
2817
0000
0000
01c4
cafe
2c08
0000
0000
01e8
cafe
3018
0000
0000
00a2
cafe
3400
0000
0000
00e6
cafe
3810
0000
0000
014e
cafe
3c09
0000
0000
012a
cafe
2019
0000
0000
016b
cafe
2401
0000
0000
0154
cafe
2811
0000
0000
020a
cafe
2c0a
0000
0000
0154
cafe
301a
0000
0000
01d5
cafe
3402
0000
0000
0100
cafe
3812
0000
0000
0129
cafe
3c0b
0000
0000
0109
cafe
201b
0000
0000
0115
cafe
2403
0000
0000
0202
cafe
2813
0000
0000
01af
cafe
2c0c
0000
0000
00c2
cafe
301c
0000
0000
01a2
cafe
3404
0000
0000
0161
cafe
3814
0000
0000
0162
cafe
3c0d
0000
0000
0141
cafe
201d
0000
0000
0160
cafe
2405
0000
0000
0185
cafe
2815
0000
0000
016c
cafe
2c0e
0000
0000
01a4
cafe
301e
0000
0000
016d
cafe
3406
0000
0000
0151
cafe
3816
0000
0000
0120
cafe
3c0f
0000
0000
0136
cafe
201f
0000
0000
01a1
cafe
2407
0000
0000
0146
cafe
2817
0000
0000
01bc
cafe
2c08
0000
0000
01e4
cafe
3018
0000
0000
00a8
cafe
3400
0000
0000
00e7
cafe
3810
0000
0000
0152
cafe
3c09
0000
0000
0125
cafe
2019
0000
0000
016b
cafe
2401
0000
0000
014a
cafe
2811
0000
0000
020a
-
cafe
2c0a
0000
0000
0152
cafe
301a
0000
0000
01d8
cafe
3402
0000
0000
0105
cafe
3812
0000
0000
012c
cafe
3c0b
0000
0000
010f
cafe
201b
0000
0000
0110
cafe
2403
0000
0000
0207
cafe
2813
0000
0000
01b5
cafe
2c0c
0000
0000
00c3
cafe
301c
0000
0000
01a4
cafe
3404
0000
0000
015b
cafe
3814
0000
0000
0163
cafe
3c0d
0000
0000
0140
cafe
201d
0000
0000
0159
cafe
2405
0000
0000
0183
cafe
2815
0000
0000
016b
cafe
2c0e
0000
0000
01a4
cafe
301e
0000
0000
0168
cafe
3406
0000
0000
014d
cafe
3816
0000
0000
0127
cafe
3c0f
0000
0000
0139
cafe
201f
0000
0000
01a0
cafe
2407
0000
0000
0155
cafe
2817
0000
0000
01bb
cafe
2c08
0000
0000
01da
cafe
3018
0000
0000
009f
cafe
3400
0000
0000
00e5
cafe
3810
0000
0000
0145
cafe
3c09
0000
0000
012e
cafe
2019
0000
0000
0172
cafe
2401
0000
0000
0149
cafe
2811
0000
0000
0216
cafe
2c0a
0000
0000
015c
cafe
301a
0000
0000
01e1
cafe
3402
0000
0000
0109
cafe
3812
0000
0000
0130
cafe
3c0b
0000
0000
0115
cafe
201b
0000
0000
0117
cafe
2403
0000
0000
0203
cafe
2813
0000
0000
01ad
cafe
2c0c
0000
0000
00c4
cafe
301c
0000
0000
01a5
cafe
3404
0000
0000
0157
cafe
3814
0000
0000
0161
cafe
3c0d
0000
0000
0147
cafe
201d
0000
0000
0159
cafe
2405
0000
0000
018a
cafe
2815
0000
0000
0170
cafe
2c0e
0000
0000
01ac
cafe
301e
0000
0000
0164
cafe
3406
0000
0000
0147
cafe
-
3816
0000
0000
0128
cafe
3c0f
0000
0000
0133
cafe
201f
0000
0000
019b
cafe
2407
0000
0000
014b
cafe
2817
0000
0000
01bd
cafe
2c08
0000
0000
01df
cafe
3018
0000
0000
009d
cafe
3400
0000
0000
00e0
cafe
3810
0000
0000
0145
cafe
3c09
0000
0000
0131
cafe
2019
0000
0000
0172
cafe
2401
0000
0000
014b
cafe
2811
0000
0000
0214
cafe
2c0a
0000
0000
0155
cafe
301a
0000
0000
01de
cafe
3402
0000
0000
0103
cafe
3812
0000
0000
0133
cafe
3c0b
0000
0000
010b
cafe
201b
0000
0000
0117
cafe
2403
0000
0000
0206
cafe
2813
0000
0000
01a7
cafe
2c0c
0000
0000
00cb
cafe
301c
0000
0000
01ab
cafe
3404
0000
0000
015e
cafe
3814
0000
0000
0163
cafe
3c0d
0000
0000
014b
cafe
201d
0000
0000
015f
cafe
2405
0000
0000
018e
cafe
2815
0000
0000
0170
cafe
2c0e
0000
0000
01ae
cafe
301e
0000
0000
016b
cafe
3406
0000
0000
0157
cafe
3816
0000
0000
0120
cafe
3c0f
0000
0000
0132
cafe
201f
0000
0000
0193
cafe
2407
0000
0000
0141
cafe
2817
0000
0000
01b5
cafe
2c08
0000
0000
01e2
cafe
3018
0000
0000
00a0
cafe
3400
0000
0000
00ea
cafe
3810
0000
0000
0148
cafe
3c09
0000
0000
012c
cafe
2019
0000
0000
0175
cafe
2401
0000
0000
0145
cafe
2811
0000
0000
0215
cafe
2c0a
0000
0000
0151
cafe
301a
0000
0000
01d9
cafe
3402
0000
0000
0105
cafe
3812
0000
0000
0133
cafe
3c0b
0000
0000
0109
cafe
201b
0000
0000
011a
cafe
2403
-
0000
0000
01fa
cafe
2813
0000
0000
01ac
cafe
2c0c
0000
0000
00d1
cafe
301c
0000
0000
01ab
cafe
3404
0000
0000
0162
cafe
3814
0000
0000
0169
cafe
3c0d
0000
0000
013d
cafe
201d
0000
0000
0163
cafe
2405
0000
0000
0192
cafe
2815
0000
0000
016f
cafe
2c0e
0000
0000
01a7
cafe
301e
0000
0000
016b
cafe
3406
0000
0000
0147
cafe
3816
0000
0000
0129
cafe
3c0f
0000
0000
0136
cafe
201f
0000
0000
0193
cafe
2407
0000
0000
0142
cafe
2817
0000
0000
01af
cafe
2c08
0000
0000
01e0
cafe
3018
0000
0000
009b
cafe
3400
0000
0000
00ea
cafe
3810
0000
0000
0150
cafe
3c09
0000
0000
011f
cafe
2019
0000
0000
0175
cafe
2401
0000
0000
014a
cafe
2811
0000
0000
0215
cafe
2c0a
0000
0000
014a
cafe
301a
0000
0000
01d6
cafe
3402
0000
0000
0103
cafe
3812
0000
0000
0128
cafe
3c0b
0000
0000
0107
cafe
201b
0000
0000
011f
cafe
2403
0000
0000
01f6
cafe
2813
0000
0000
01a4
cafe
2c0c
0000
0000
00ce
cafe
301c
0000
0000
01a0
cafe
3404
0000
0000
0162
cafe
3814
0000
0000
016b
cafe
3c0d
0000
0000
013f
cafe
201d
0000
0000
0164
cafe
2405
0000
0000
0192
cafe
2815
0000
0000
016d
cafe
2c0e
0000
0000
019f
cafe
301e
0000
0000
0163
cafe
3406
0000
0000
0143
cafe
3816
0000
0000
0127
cafe
3c0f
0000
0000
013c
cafe
201f
0000
0000
019b
cafe
2407
0000
0000
014b
cafe
2817
0000
0000
01b6
cafe
2c08
0000
0000
01e0
cafe
3018
0000
-
0000
009a
cafe
3400
0000
0000
00e9
cafe
3810
0000
0000
014c
cafe
3c09
0000
0000
011f
cafe
2019
0000
0000
016f
cafe
2401
0000
0000
0146
cafe
2811
0000
0000
0219
cafe
2c0a
0000
0000
014e
cafe
301a
0000
0000
01d6
cafe
3402
0000
0000
0101
cafe
3812
0000
0000
0129
cafe
3c0b
0000
0000
010b
cafe
201b
0000
0000
011e
cafe
2403
0000
0000
01fc
cafe
2813
0000
0000
01a8
cafe
2c0c
0000
0000
00bb
cafe
301c
0000
0000
01a2
cafe
3404
0000
0000
015c
cafe
3814
0000
0000
0163
cafe
3c0d
0000
0000
0140
cafe
201d
0000
0000
0164
cafe
2405
0000
0000
0195
cafe
2815
0000
0000
0161
cafe
2c0e
0000
0000
01a1
cafe
301e
0000
0000
0168
cafe
3406
0000
0000
0143
cafe
3816
0000
0000
0126
cafe
3c0f
0000
0000
013e
cafe
201f
0000
0000
0199
cafe
2407
0000
0000
0158
cafe
2817
0000
0000
01ba
cafe
2c08
0000
0000
01da
cafe
3018
0000
0000
009a
cafe
3400
0000
0000
00ed
cafe
3810
0000
0000
013f
cafe
3c09
0000
0000
011b
cafe
2019
0000
0000
0174
cafe
2401
0000
0000
0144
cafe
2811
0000
0000
021b
cafe
2c0a
0000
0000
014f
cafe
301a
0000
0000
01d1
cafe
3402
0000
0000
00fd
cafe
3812
0000
0000
012f
cafe
3c0b
0000
0000
010d
cafe
201b
0000
0000
0123
cafe
2403
0000
0000
01fe
cafe
2813
0000
0000
01b1
cafe
2c0c
0000
0000
00bb
cafe
301c
0000
0000
019c
cafe
3404
0000
0000
0154
cafe
3814
0000
0000
0164
cafe
3c0d
0000
0000
-
014a
cafe
201d
0000
0000
0166
cafe
2405
0000
0000
0191
cafe
2815
0000
0000
015b
cafe
2c0e
0000
0000
01a5
cafe
301e
0000
0000
016d
cafe
3406
0000
0000
0145
cafe
3816
0000
0000
0126
cafe
3c0f
0000
0000
0135
cafe
201f
0000
0000
0193
cafe
2407
0000
0000
015e
cafe
2817
0000
0000
01bc
cafe
2c08
0000
0000
01db
cafe
3018
0000
0000
00a1
cafe
3400
0000
0000
00f6
cafe
3810
0000
0000
014d
cafe
3c09
0000
0000
0122
cafe
2019
0000
0000
016f
cafe
2401
0000
0000
0149
cafe
2811
0000
0000
021a
cafe
2c0a
0000
0000
0157
cafe
301a
0000
0000
01cd
cafe
3402
0000
0000
00fd
cafe
3812
0000
0000
0136
cafe
3c0b
0000
0000
0108
cafe
201b
0000
0000
011f
cafe
2403
0000
0000
01f9
cafe
2813
0000
0000
01a8
cafe
2c0c
0000
0000
00bc
cafe
301c
0000
0000
019c
cafe
3404
0000
0000
015a
cafe
3814
0000
0000
0169
cafe
3c0d
0000
0000
0150
cafe
201d
0000
0000
016a
cafe
2405
0000
0000
0192
cafe
2815
0000
0000
016b
cafe
2c0e
0000
0000
019f
cafe
301e
0000
0000
0176
cafe
3406
0000
0000
014b
cafe
3816
0000
0000
0123
cafe
3c0f
0000
0000
013a
cafe
201f
0000
0000
018f
cafe
2407
0000
0000
0150
cafe
2817
0000
0000
01bd
cafe
2c08
0000
0000
01df
cafe
3018
0000
0000
00a4
cafe
3400
0000
0000
00f5
cafe
3810
0000
0000
014f
cafe
3c09
0000
0000
012a
cafe
2019
0000
0000
0179
cafe
2401
0000
0000
0144
cafe
2811
0000
0000
0222
-
cafe
2c0a
0000
0000
0151
cafe
301a
0000
0000
01c7
cafe
3402
0000
0000
00f6
cafe
3812
0000
0000
0130
cafe
3c0b
0000
0000
0109
cafe
201b
0000
0000
0122
cafe
2403
0000
0000
0200
cafe
2813
0000
0000
01a8
cafe
2c0c
0000
0000
00c0
cafe
301c
0000
0000
019e
cafe
3404
0000
0000
0161
cafe
3814
0000
0000
016b
cafe
3c0d
0000
0000
014d
cafe
201d
0000
0000
016b
cafe
2405
0000
0000
0192
cafe
2815
0000
0000
016c
cafe
2c0e
0000
0000
0194
cafe
301e
0000
0000
0172
cafe
3406
0000
0000
013f
cafe
3816
0000
0000
0118
cafe
3c0f
0000
0000
0139
cafe
201f
0000
0000
0192
cafe
2407
0000
0000
0153
cafe
2817
0000
0000
01c3
cafe
2c08
0000
0000
01db
cafe
3018
0000
0000
009e
cafe
3400
0000
0000
00ee
cafe
3810
0000
0000
0151
cafe
3c09
0000
0000
0128
cafe
2019
0000
0000
0173
cafe
2401
0000
0000
0149
cafe
2811
0000
0000
0215
cafe
2c0a
0000
0000
0148
cafe
301a
0000
0000
01cf
cafe
3402
0000
0000
00f5
cafe
3812
0000
0000
0125
cafe
3c0b
0000
0000
0112
cafe
201b
0000
0000
0120
cafe
2403
0000
0000
0200
cafe
2813
0000
0000
01ad
cafe
2c0c
0000
0000
00ca
cafe
301c
0000
0000
019f
cafe
3404
0000
0000
0161
cafe
3814
0000
0000
016b
cafe
3c0d
0000
0000
014a
cafe
201d
0000
0000
0171
cafe
2405
0000
0000
0195
cafe
2815
0000
0000
0171
cafe
2c0e
0000
0000
01a1
cafe
301e
0000
0000
0169
cafe
3406
0000
0000
013d
cafe
-
3816
0000
0000
0121
cafe
3c0f
0000
0000
0138
cafe
201f
0000
0000
0193
cafe
2407
0000
0000
0151
cafe
2817
0000
0000
01c4
cafe
2c08
0000
0000
01dd
cafe
3018
0000
0000
009a
cafe
3400
0000
0000
00eb
cafe
3810
0000
0000
015b
cafe
3c09
0000
0000
0121
cafe
2019
0000
0000
0170
cafe
2401
0000
0000
014f
cafe
2811
0000
0000
0217
cafe
2c0a
0000
0000
014a
cafe
301a
0000
0000
01ce
cafe
3402
0000
0000
00fc
cafe
3812
0000
0000
0129
cafe
3c0b
0000
0000
011a
cafe
201b
0000
0000
0124
cafe
2403
0000
0000
0201
cafe
2813
0000
0000
01ab
cafe
2c0c
0000
0000
00c4
cafe
301c
0000
0000
019b
cafe
3404
0000
0000
0155
cafe
3814
0000
0000
0169
cafe
3c0d
0000
0000
0148
cafe
201d
0000
0000
016b
cafe
2405
0000
0000
0195
cafe
2815
0000
0000
0173
cafe
2c0e
0000
0000
01b3
cafe
301e
0000
0000
0165
cafe
3406
0000
0000
014f
cafe
3816
0000
0000
0125
cafe
3c0f
0000
0000
013e
cafe
201f
0000
0000
019b
cafe
2407
0000
0000
014b
cafe
2817
0000
0000
01c7
cafe
2c08
0000
0000
01da
cafe
3018
0000
0000
009e
cafe
3400
0000
0000
00e6
cafe
3810
0000
0000
015a
cafe
3c09
0000
0000
012a
cafe
2019
0000
0000
0173
cafe
2401
0000
0000
0148
cafe
2811
0000
0000
0219
cafe
2c0a
0000
0000
0153
cafe
301a
0000
0000
01d0
cafe
3402
0000
0000
00fd
cafe
3812
0000
0000
0137
cafe
3c0b
0000
0000
011d
cafe
201b
0000
0000
0121
cafe
2403
-
0000
0000
0207
cafe
2813
0000
0000
01a0
cafe
2c0c
0000
0000
00c3
cafe
301c
0000
0000
0197
cafe
3404
0000
0000
0157
cafe
3814
0000
0000
016a
cafe
3c0d
0000
0000
0148
cafe
201d
0000
0000
016d
cafe
2405
0000
0000
0190
cafe
2815
0000
0000
0177
cafe
2c0e
0000
0000
01b5
cafe
301e
0000
0000
0164
cafe
3406
0000
0000
0151
cafe
3816
0000
0000
012a
cafe
3c0f
0000
0000
0142
cafe
201f
0000
0000
019d
cafe
2407
0000
0000
0144
cafe
2817
0000
0000
01ca
cafe
2c08
0000
0000
01df
cafe
3018
0000
0000
00a0
cafe
3400
0000
0000
00ee
cafe
3810
0000
0000
015f
cafe
3c09
0000
0000
012e
cafe
2019
0000
0000
0173
cafe
2401
0000
0000
014c
cafe
2811
0000
0000
021e
cafe
2c0a
0000
0000
015e
cafe
301a
0000
0000
01cd
cafe
3402
0000
0000
0108
cafe
3812
0000
0000
0136
cafe
3c0b
0000
0000
0119
cafe
201b
0000
0000
0120
cafe
2403
0000
0000
0208
cafe
2813
0000
0000
01ad
cafe
2c0c
0000
0000
00c5
cafe
301c
0000
0000
019f
cafe
3404
0000
0000
0167
cafe
3814
0000
0000
0168
cafe
3c0d
0000
0000
014b
cafe
201d
0000
0000
016a
cafe
2405
0000
0000
0190
cafe
2815
0000
0000
0181
cafe
2c0e
0000
0000
01b3
cafe
301e
0000
0000
016b
cafe
3406
0000
0000
0157
cafe
3816
0000
0000
0126
cafe
3c0f
0000
0000
0145
cafe
201f
0000
0000
0195
cafe
2407
0000
0000
014e
cafe
2817
0000
0000
01ce
cafe
2c08
0000
0000
01e4
cafe
3018
0000
-
0000
00a3
cafe
3400
0000
0000
00ec
cafe
3810
0000
0000
0164
cafe
3c09
0000
0000
0131
cafe
2019
0000
0000
0177
cafe
2401
0000
0000
0149
cafe
2811
0000
0000
0226
cafe
2c0a
0000
0000
0168
cafe
301a
0000
0000
01c5
cafe
3402
0000
0000
0113
cafe
3812
0000
0000
0130
cafe
3c0b
0000
0000
010d
cafe
201b
0000
0000
0123
cafe
2403
0000
0000
0205
cafe
2813
0000
0000
01b1
cafe
2c0c
0000
0000
00c1
cafe
301c
0000
0000
019e
cafe
3404
0000
0000
0160
cafe
3814
0000
0000
0168
cafe
3c0d
0000
0000
0147
cafe
201d
0000
0000
016c
cafe
2405
0000
0000
0189
cafe
2815
0000
0000
0171
cafe
2c0e
0000
0000
01a5
cafe
301e
0000
0000
0167
cafe
3406
0000
0000
0152
cafe
3816
0000
0000
0127
cafe
3c0f
0000
0000
0141
cafe
201f
0000
0000
0191
cafe
2407
0000
0000
0145
cafe
2817
0000
0000
01ce
cafe
2c08
0000
0000
01e8
cafe
3018
0000
0000
00a5
cafe
3400
0000
0000
00e9
cafe
3810
0000
0000
015a
cafe
3c09
0000
0000
0131
cafe
2019
0000
0000
0171
cafe
2401
0000
0000
0146
cafe
2811
0000
0000
0220
cafe
2c0a
0000
0000
0168
cafe
301a
0000
0000
01be
cafe
3402
0000
0000
010e
cafe
3812
0000
0000
012c
cafe
3c0b
0000
0000
0105
cafe
201b
0000
0000
0125
cafe
2403
0000
0000
0206
cafe
2813
0000
0000
01ac
cafe
2c0c
0000
0000
00b8
cafe
301c
0000
0000
019f
cafe
3404
0000
0000
0161
cafe
3814
0000
0000
016e
cafe
3c0d
0000
0000
-
0140
cafe
201d
0000
0000
016b
cafe
2405
0000
0000
018a
cafe
2815
0000
0000
016b
cafe
2c0e
0000
0000
01a4
cafe
301e
0000
0000
0169
cafe
3406
0000
0000
0149
cafe
3816
0000
0000
0128
cafe
3c0f
0000
0000
0141
cafe
201f
0000
0000
0196
cafe
2407
0000
0000
0143
cafe
2817
0000
0000
01cc
cafe
2c08
0000
0000
01ed
cafe
3018
0000
0000
00a3
cafe
3400
0000
0000
00f0
cafe
3810
0000
0000
0161
cafe
3c09
0000
0000
0131
cafe
2019
0000
0000
016d
cafe
2401
0000
0000
0149
cafe
2811
0000
0000
021f
cafe
2c0a
0000
0000
0161
cafe
301a
0000
0000
01c1
cafe
3402
0000
0000
010b
cafe
3812
0000
0000
012a
cafe
3c0b
0000
0000
010c
cafe
201b
0000
0000
0125
cafe
2403
0000
0000
0201
cafe
2813
0000
0000
01b5
cafe
2c0c
0000
0000
00bb
cafe
301c
0000
0000
019e
cafe
3404
0000
0000
0169
cafe
3814
0000
0000
0165
cafe
3c0d
0000
0000
013d
cafe
201d
0000
0000
016c
cafe
2405
0000
0000
018f
cafe
2815
0000
0000
0176
cafe
2c0e
0000
0000
01ac
cafe
301e
0000
0000
0167
cafe
3406
0000
0000
0148
cafe
3816
0000
0000
0133
cafe
3c0f
0000
0000
0149
cafe
201f
0000
0000
018e
cafe
2407
0000
0000
0141
cafe
2817
0000
0000
01c6
cafe
2c08
0000
0000
01ef
cafe
3018
0000
0000
00a1
cafe
3400
0000
0000
00f5
cafe
3810
0000
0000
0164
cafe
3c09
0000
0000
012e
cafe
2019
0000
0000
0169
cafe
2401
0000
0000
014a
cafe
2811
0000
0000
0215
-
cafe
2c0a
0000
0000
016d
cafe
301a
0000
0000
01c6
cafe
3402
0000
0000
010f
cafe
3812
0000
0000
012a
cafe
3c0b
0000
0000
010c
cafe
201b
0000
0000
011d
cafe
2403
0000
0000
0202
cafe
2813
0000
0000
01b6
cafe
2c0c
0000
0000
00b9
cafe
301c
0000
0000
01a6
cafe
3404
0000
0000
0164
cafe
3814
0000
0000
0170
cafe
3c0d
0000
0000
013c
cafe
201d
0000
0000
0163
cafe
2405
0000
0000
018c
cafe
2815
0000
0000
016a
cafe
2c0e
0000
0000
01ad
cafe
301e
0000
0000
0161
cafe
3406
0000
0000
0148
cafe
3816
0000
0000
0137
cafe
3c0f
0000
0000
013b
cafe
201f
0000
0000
0194
cafe
2407
0000
0000
0146
cafe
2817
0000
0000
01c6
cafe
2c08
0000
0000
01df
cafe
3018
0000
0000
009c
cafe
3400
0000
0000
00f1
cafe
3810
0000
0000
015e
cafe
3c09
0000
0000
012c
cafe
2019
0000
0000
0165
cafe
2401
0000
0000
014a
cafe
2811
0000
0000
020d
cafe
2c0a
0000
0000
0168
cafe
301a
0000
0000
01ca
cafe
3402
0000
0000
0110
cafe
3812
0000
0000
0127
cafe
3c0b
0000
0000
0107
cafe
201b
0000
0000
0119
cafe
2403
0000
0000
01fc
cafe
2813
0000
0000
01a6
cafe
2c0c
0000
0000
00b5
cafe
301c
0000
0000
01a6
cafe
3404
0000
0000
015b
cafe
3814
0000
0000
0165
cafe
3c0d
0000
0000
013b
cafe
201d
0000
0000
0163
cafe
2405
0000
0000
0188
cafe
2815
0000
0000
0167
cafe
2c0e
0000
0000
01b4
cafe
301e
0000
0000
0160
cafe
3406
0000
0000
0147
cafe
-
3816
0000
0000
0137
cafe
3c0f
0000
0000
0135
cafe
201f
0000
0000
019d
cafe
2407
0000
0000
0146
cafe
2817
0000
0000
01c4
cafe
2c08
0000
0000
01d9
cafe
3018
0000
0000
0094
cafe
3400
0000
0000
00eb
cafe
3810
0000
0000
0151
cafe
3c09
0000
0000
0129
cafe
2019
0000
0000
0165
cafe
2401
0000
0000
0150
cafe
2811
0000
0000
0214
cafe
2c0a
0000
0000
0159
cafe
301a
0000
0000
01cb
cafe
3402
0000
0000
0111
cafe
3812
0000
0000
0121
cafe
3c0b
0000
0000
0101
cafe
201b
0000
0000
011b
cafe
2403
0000
0000
01f7
cafe
2813
0000
0000
019d
cafe
2c0c
0000
0000
00b1
cafe
301c
0000
0000
01a8
cafe
3404
0000
0000
0153
cafe
3814
0000
0000
015e
cafe
3c0d
0000
0000
0140
cafe
201d
0000
0000
0162
cafe
2405
0000
0000
0189
cafe
2815
0000
0000
016a
cafe
2c0e
0000
0000
019f
cafe
301e
0000
0000
0161
cafe
3406
0000
0000
0139
cafe
3816
0000
0000
012d
cafe
3c0f
0000
0000
0136
cafe
201f
0000
0000
019c
cafe
2407
0000
0000
013f
cafe
2817
0000
0000
01c3
cafe
2c08
0000
0000
01dd
cafe
3018
0000
0000
009a
cafe
3400
0000
0000
00e6
cafe
3810
0000
0000
0153
cafe
3c09
0000
0000
012b
cafe
2019
0000
0000
0164
cafe
2401
0000
0000
014a
cafe
2811
0000
0000
020d
cafe
2c0a
0000
0000
0154
cafe
301a
0000
0000
01cb
cafe
3402
0000
0000
0112
cafe
3812
0000
0000
0121
cafe
3c0b
0000
0000
010a
cafe
201b
0000
0000
011b
cafe
2403
-
0000
0000
01fc
cafe
2813
0000
0000
01a4
cafe
2c0c
0000
0000
00bf
cafe
301c
0000
0000
01a5
cafe
3404
0000
0000
015b
cafe
3814
0000
0000
0167
cafe
3c0d
0000
0000
013f
cafe
201d
0000
0000
0166
cafe
2405
0000
0000
0183
cafe
2815
0000
0000
016f
cafe
2c0e
0000
0000
01a9
cafe
301e
0000
0000
0161
cafe
3406
0000
0000
0140
cafe
3816
0000
0000
012c
cafe
3c0f
0000
0000
013c
cafe
201f
0000
0000
019c
cafe
2407
0000
0000
0148
cafe
2817
0000
0000
01c7
cafe
2c08
0000
0000
01e1
cafe
3018
0000
0000
00a3
cafe
3400
0000
0000
00e9
cafe
3810
0000
0000
015e
cafe
3c09
0000
0000
0124
cafe
2019
0000
0000
0167
cafe
2401
0000
0000
0147
cafe
2811
0000
0000
0209
cafe
2c0a
0000
0000
0156
cafe
301a
0000
0000
01c9
cafe
3402
0000
0000
0111
cafe
3812
0000
0000
0129
cafe
3c0b
0000
0000
0119
cafe
201b
0000
0000
011c
cafe
2403
0000
0000
0200
cafe
2813
0000
0000
01ac
cafe
2c0c
0000
0000
00be
cafe
301c
0000
0000
01a5
cafe
3404
0000
0000
0154
cafe
3814
0000
0000
0167
cafe
3c0d
0000
0000
0145
cafe
201d
0000
0000
0166
cafe
2405
0000
0000
0189
cafe
2815
0000
0000
016d
cafe
2c0e
0000
0000
01a8
cafe
301e
0000
0000
0160
cafe
3406
0000
0000
014a
cafe
3816
0000
0000
0133
cafe
3c0f
0000
0000
013d
cafe
201f
0000
0000
0198
cafe
2407
0000
0000
0149
cafe
2817
0000
0000
01c6
cafe
2c08
0000
0000
01e1
cafe
3018
0000
-
0000
00a7
cafe
3400
0000
0000
00f3
cafe
3810
0000
0000
0160
cafe
3c09
0000
0000
012d
cafe
2019
0000
0000
016b
cafe
2401
0000
0000
0145
cafe
2811
0000
0000
0218
cafe
2c0a
0000
0000
0156
cafe
301a
0000
0000
01ca
cafe
3402
0000
0000
0118
cafe
3812
0000
0000
0130
cafe
3c0b
0000
0000
0117
cafe
201b
0000
0000
011b
cafe
2403
0000
0000
01fe
cafe
2813
0000
0000
01b4
cafe
2c0c
0000
0000
00c1
cafe
301c
0000
0000
01a8
cafe
3404
0000
0000
0159
cafe
3814
0000
0000
0168
cafe
3c0d
0000
0000
014f
cafe
201d
0000
0000
0167
cafe
2405
0000
0000
0181
cafe
2815
0000
0000
0171
cafe
2c0e
0000
0000
01a7
cafe
301e
0000
0000
0165
cafe
3406
0000
0000
0150
cafe
3816
0000
0000
0132
cafe
3c0f
0000
0000
0137
cafe
201f
0000
0000
0199
cafe
2407
0000
0000
0149
cafe
2817
0000
0000
01c1
cafe
2c08
0000
0000
01db
cafe
3018
0000
0000
00a3
cafe
3400
0000
0000
00f7
cafe
3810
0000
0000
0153
cafe
3c09
0000
0000
012a
cafe
2019
0000
0000
016b
cafe
2401
0000
0000
013d
cafe
2811
0000
0000
0213
cafe
2c0a
0000
0000
0155
cafe
301a
0000
0000
01cd
cafe
3402
0000
0000
0114
cafe
3812
0000
0000
0130
cafe
3c0b
0000
0000
0111
cafe
201b
0000
0000
0118
cafe
2403
0000
0000
01f3
cafe
2813
0000
0000
01ab
cafe
2c0c
0000
0000
00bc
cafe
301c
0000
0000
01a6
cafe
3404
0000
0000
0159
cafe
3814
0000
0000
016d
cafe
3c0d
0000
0000
-
0159
cafe
201d
0000
0000
0166
cafe
2405
0000
0000
018e
cafe
2815
0000
0000
0172
cafe
2c0e
0000
0000
01a8
cafe
301e
0000
0000
015f
cafe
3406
0000
0000
0149
cafe
3816
0000
0000
012c
cafe
3c0f
0000
0000
0135
cafe
201f
0000
0000
019b
cafe
2407
0000
0000
0147
cafe
2817
0000
0000
01bd
cafe
2c08
0000
0000
01dd
cafe
3018
0000
0000
00a0
cafe
3400
0000
0000
00f0
cafe
3810
0000
0000
0159
cafe
3c09
0000
0000
012f
cafe
2019
0000
0000
016f
cafe
2401
0000
0000
0147
cafe
2811
0000
0000
021c
cafe
2c0a
0000
0000
014c
cafe
301a
0000
0000
01d1
cafe
3402
0000
0000
0117
cafe
3812
0000
0000
0128
cafe
3c0b
0000
0000
0113
cafe
201b
0000
0000
0118
cafe
2403
0000
0000
01f9
cafe
2813
0000
0000
01a7
cafe
2c0c
0000
0000
00bd
cafe
301c
0000
0000
019f
cafe
3404
0000
0000
0155
cafe
3814
0000
0000
017a
cafe
3c0d
0000
0000
015a
cafe
201d
0000
0000
016a
cafe
2405
0000
0000
018f
cafe
2815
0000
0000
0169
cafe
2c0e
0000
0000
01a6
cafe
301e
0000
0000
0166
cafe
3406
0000
0000
0149
cafe
3816
0000
0000
012a
cafe
3c0f
0000
0000
0139
cafe
201f
0000
0000
019f
cafe
2407
0000
0000
0149
cafe
2817
0000
0000
01c4
cafe
2c08
0000
0000
01df
cafe
3018
0000
0000
00a7
cafe
3400
0000
0000
00f0
cafe
3810
0000
0000
0157
cafe
3c09
0000
0000
0131
cafe
2019
0000
0000
016c
cafe
2401
0000
0000
014b
cafe
2811
0000
0000
021f
-
cafe
2c0a
0000
0000
0148
cafe
301a
0000
0000
01d1
cafe
3402
0000
0000
0112
cafe
3812
0000
0000
0125
cafe
3c0b
0000
0000
0117
cafe
201b
0000
0000
0117
cafe
2403
0000
0000
01ff
cafe
2813
0000
0000
01a2
cafe
2c0c
0000
0000
00c3
cafe
301c
0000
0000
019f
cafe
3404
0000
0000
015b
cafe
3814
0000
0000
0174
cafe
3c0d
0000
0000
014c
cafe
201d
0000
0000
016b
cafe
2405
0000
0000
0189
cafe
2815
0000
0000
0160
cafe
2c0e
0000
0000
01a3
cafe
301e
0000
0000
0165
cafe
3406
0000
0000
0148
cafe
3816
0000
0000
0126
cafe
3c0f
0000
0000
012a
cafe
201f
0000
0000
01a2
cafe
2407
0000
0000
0141
cafe
2817
0000
0000
01bf
cafe
2c08
0000
0000
01d1
cafe
3018
0000
0000
009f
cafe
3400
0000
0000
00f3
cafe
3810
0000
0000
0145
cafe
3c09
0000
0000
011a
cafe
2019
0000
0000
0161
cafe
2401
0000
0000
0141
cafe
2811
0000
0000
020d
cafe
2c0a
0000
0000
0140
cafe
301a
0000
0000
01cd
cafe
3402
0000
0000
010a
cafe
3812
0000
0000
011c
cafe
3c0b
0000
0000
010c
cafe
201b
0000
0000
0114
cafe
2403
0000
0000
01ff
cafe
2813
0000
0000
01a2
cafe
2c0c
0000
0000
00ba
cafe
301c
0000
0000
01a0
cafe
3404
0000
0000
015c
cafe
3814
0000
0000
0161
cafe
3c0d
0000
0000
014e
cafe
201d
0000
0000
0168
cafe
2405
0000
0000
018b
cafe
2815
0000
0000
0160
cafe
2c0e
0000
0000
01a3
cafe
301e
0000
0000
0161
cafe
3406
0000
0000
0145
cafe
-
