380f
5556
0864
00e2
cafe
3c1f
5556
0864
0201
cafe
2007
5556
0864
0215
cafe
2417
5556
0868
0192
cafe
2808
5556
0868
01bf
cafe
2c18
5556
0868
0204
cafe
3000
5556
0868
0140
cafe
3410
5556
086c
017d
cafe
3809
5556
086c
018f
cafe
3c19
5556
086c
0166
cafe
2001
5556
086c
01dc
cafe
2411
5556
0870
01a2
cafe
280a
5556
0870
0139
cafe
2c1a
5556
0870
014f
cafe
3002
5556
0870
0281
cafe
3412
5556
0874
0107
cafe
380b
5556
0874
0193
cafe
3c1b
5556
0874
0190
cafe
2003
5556
0874
0182
cafe
2413
5556
0878
01b3
cafe
280c
5556
0878
0112
cafe
2c1c
5556
0878
0189
cafe
3004
5556
0878
0265
cafe
3414
5556
087c
01c3
cafe
380d
5556
087c
01cb
cafe
3c1d
5556
087c
01c3
cafe
2005
5556
087c
0195
cafe
2415
5556
0880
0223
cafe
280e
5556
0880
014c
cafe
2c1e
5556
0880
01ce
cafe
3006
5556
0880
01f1
cafe
3416
5556
0884
010c
cafe
380f
5556
0884
00e1
cafe
3c1f
5556
0884
020b
cafe
2007
5556
0884
022e
cafe
2417
5556
0888
0198
cafe
2808
5556
0888
01c0
cafe
2c18
5556
0888
01fb
cafe
3000
5556
0888
013c
cafe
3410
5556
088c
017e
cafe
3809
5556
088c
018a
cafe
3c19
5556
088c
018a
cafe
2001
5556
088c
01dd
cafe
2411
5556
0890
019c
cafe
280a
5556
0890
0135
cafe
2c1a
5556
0890
0153
cafe
3002
5556
0890
0291
cafe
3412
5556
0894
010f
cafe
380b
5556
0894
0197
cafe
3c1b
5556
0894
019c
cafe
2003
5556
0894
0182
cafe
2413
-
5556
0898
01bc
cafe
280c
5556
0898
0126
cafe
2c1c
5556
0898
017f
cafe
3004
5556
0898
0282
cafe
3414
5556
089c
01cf
cafe
380d
5556
089c
01be
cafe
3c1d
5556
089c
01cb
cafe
2005
5556
089c
017d
cafe
2415
5556
08a0
0213
cafe
280e
5556
08a0
0127
cafe
2c1e
5556
08a0
01e5
cafe
3006
5556
08a0
01f7
cafe
3416
5556
08a4
010c
cafe
380f
5556
08a4
00db
cafe
3c1f
5556
08a4
020c
cafe
2007
5556
08a4
020c
cafe
2417
5556
08a8
0187
cafe
2808
5556
08a8
01d8
cafe
2c18
5556
08a8
0206
cafe
3000
5556
08a8
0146
cafe
3410
5556
08ac
0185
cafe
3809
5556
08ac
0178
cafe
3c19
5556
08ac
0179
cafe
2001
5556
08ac
01f5
cafe
2411
5556
08b0
018f
cafe
280a
5556
08b0
013b
cafe
2c1a
5556
08b0
0144
cafe
3002
5556
08b0
0283
cafe
3412
5556
08b4
0114
cafe
380b
5556
08b4
018d
cafe
3c1b
5556
08b4
01a4
cafe
2003
5556
08b4
0183
cafe
2413
5556
08b8
01c9
cafe
280c
5556
08b8
0131
cafe
2c1c
5556
08b8
017a
cafe
3004
5556
08b8
025e
cafe
3414
5556
08bc
01d8
cafe
380d
5556
08bc
01bf
cafe
3c1d
5556
08bc
01c3
cafe
2005
5556
08bc
019a
cafe
2415
5556
08c0
0227
cafe
280e
5556
08c0
0151
cafe
2c1e
5556
08c0
01c9
cafe
3006
5556
08c0
0203
cafe
3416
5556
08c4
012c
cafe
380f
5556
08c4
00da
cafe
3c1f
5556
08c4
0209
cafe
2007
5556
08c4
021d
cafe
2417
5556
08c8
0199
cafe
2808
5556
08c8
01d3
cafe
2c18
5556
08c8
01f1
cafe
3000
5556
-
08c8
013f
cafe
3410
5556
08cc
017c
cafe
3809
5556
08cc
0181
cafe
3c19
5556
08cc
0179
cafe
2001
5556
08cc
01e3
cafe
2411
5556
08d0
01a1
cafe
280a
5556
08d0
0141
cafe
2c1a
5556
08d0
0162
cafe
3002
5556
08d0
0295
cafe
3412
5556
08d4
010e
cafe
380b
5556
08d4
018b
cafe
3c1b
5556
08d4
01a6
cafe
2003
5556
08d4
0180
cafe
2413
5556
08d8
01bf
cafe
280c
5556
08d8
011d
cafe
2c1c
5556
08d8
0174
cafe
3004
5556
08d8
025f
cafe
3414
5556
08dc
01d5
cafe
380d
5556
08dc
01c1
cafe
3c1d
5556
08dc
01d3
cafe
2005
5556
08dc
0194
cafe
2415
5556
08e0
021f
cafe
280e
5556
08e0
0138
cafe
2c1e
5556
08e0
01df
cafe
3006
5556
08e0
0211
cafe
3416
5556
08e4
011d
cafe
380f
5556
08e4
00d5
cafe
3c1f
5556
08e4
020a
cafe
2007
5556
08e4
021d
cafe
2417
5556
08e8
0186
cafe
2808
5556
08e8
01c5
cafe
2c18
5556
08e8
01fb
cafe
3000
5556
08e8
0137
cafe
3410
5556
08ec
0194
cafe
3809
5556
08ec
0184
cafe
3c19
5556
08ec
016e
cafe
2001
5556
08ec
01ef
cafe
2411
5556
08f0
01a6
cafe
280a
5556
08f0
014d
cafe
2c1a
5556
08f0
0153
cafe
3002
5556
08f0
0283
cafe
3412
5556
08f4
0109
cafe
380b
5556
08f4
019e
cafe
3c1b
5556
08f4
0177
cafe
2003
5556
08f4
0183
cafe
2413
5556
08f8
01c8
cafe
280c
5556
08f8
0120
cafe
2c1c
5556
08f8
016e
cafe
3004
5556
08f8
0271
cafe
3414
5556
08fc
01d8
cafe
380d
5556
08fc
01c9
cafe
3c1d
5556
08fc
-
01ce
cafe
2005
5556
08fc
0195
cafe
2415
5556
0900
0215
cafe
280e
5556
0900
0137
cafe
2c1e
5556
0900
01c4
cafe
3006
5556
0900
0205
cafe
3416
5556
0904
011a
cafe
380f
5556
0904
00c9
cafe
3c1f
5556
0904
020f
cafe
2007
5556
0904
021d
cafe
2417
5556
0908
0196
cafe
2808
5556
0908
01ce
cafe
2c18
5556
0908
0209
cafe
3000
5556
0908
0150
cafe
3410
5556
090c
0181
cafe
3809
5556
090c
0193
cafe
3c19
5556
090c
017c
cafe
2001
5556
090c
01f5
cafe
2411
5556
0910
01a8
cafe
280a
5556
0910
013d
cafe
2c1a
5556
0910
0155
cafe
3002
5556
0910
0297
cafe
3412
5556
0914
010c
cafe
380b
5556
0914
018c
cafe
3c1b
5556
0914
019e
cafe
2003
5556
0914
0175
cafe
2413
5556
0918
01c6
cafe
280c
5556
0918
0111
cafe
2c1c
5556
0918
0161
cafe
3004
5556
0918
0275
cafe
3414
5556
091c
01cf
cafe
380d
5556
091c
01c1
cafe
3c1d
5556
091c
01d8
cafe
2005
5556
091c
0191
cafe
2415
5556
0920
0225
cafe
280e
5556
0920
012d
cafe
2c1e
5556
0920
01d6
cafe
3006
5556
0920
01f5
cafe
3416
5556
0924
011d
cafe
380f
5556
0924
00b7
cafe
3c1f
5556
0924
020a
cafe
2007
5556
0924
0220
cafe
2417
5556
0928
018f
cafe
2808
5556
0928
01de
cafe
2c18
5556
0928
0213
cafe
3000
5556
0928
0134
cafe
3410
5556
092c
0187
cafe
3809
5556
092c
0185
cafe
3c19
5556
092c
0187
cafe
2001
5556
092c
01d2
cafe
2411
5556
0930
01a5
cafe
280a
5556
0930
0139
-
cafe
2c1a
5556
0930
0143
cafe
3002
5556
0930
029f
cafe
3412
5556
0934
010e
cafe
380b
5556
0934
01a2
cafe
3c1b
5556
0934
0196
cafe
2003
5556
0934
017f
cafe
2413
5556
0938
01b1
cafe
280c
5556
0938
011c
cafe
2c1c
5556
0938
0171
cafe
3004
5556
0938
0272
cafe
3414
5556
093c
01ca
cafe
380d
5556
093c
01c4
cafe
3c1d
5556
093c
01bf
cafe
2005
5556
093c
018b
cafe
2415
5556
0940
023c
cafe
280e
5556
0940
0132
cafe
2c1e
5556
0940
01cb
cafe
3006
5556
0940
0219
cafe
3416
5556
0944
0106
cafe
380f
5556
0944
00bf
cafe
3c1f
5556
0944
0214
cafe
2007
5556
0944
0212
cafe
2417
5556
0948
018e
cafe
2808
5556
0948
01c7
cafe
2c18
5556
0948
0212
cafe
3000
5556
0948
014e
cafe
3410
5556
094c
0184
cafe
3809
5556
094c
018f
cafe
3c19
5556
094c
0176
cafe
2001
5556
094c
01df
cafe
2411
5556
0950
01ba
cafe
280a
5556
0950
0143
cafe
2c1a
5556
0950
014b
cafe
3002
5556
0950
027d
cafe
3412
5556
0954
0111
cafe
380b
5556
0954
0191
cafe
3c1b
5556
0954
018d
cafe
2003
5556
0954
017f
cafe
2413
5556
0958
01aa
cafe
280c
5556
0958
0112
cafe
2c1c
5556
0958
016b
cafe
3004
5556
0958
026a
cafe
3414
5556
095c
01c0
cafe
380d
5556
095c
01bf
cafe
3c1d
5556
095c
01cb
cafe
2005
5556
095c
0191
cafe
2415
5556
0960
0232
cafe
280e
5556
0960
0132
cafe
2c1e
5556
0960
01e2
cafe
3006
5556
0960
0213
cafe
3416
5556
0964
011e
cafe
-
380f
5556
0964
00cc
cafe
3c1f
5556
0964
0219
cafe
2007
5556
0964
0222
cafe
2417
5556
0968
018d
cafe
2808
5556
0968
01d4
cafe
2c18
5556
0968
01fa
cafe
3000
5556
0968
0152
cafe
3410
5556
096c
0192
cafe
3809
5556
096c
017a
cafe
3c19
5556
096c
0177
cafe
2001
5556
096c
01d0
cafe
2411
5556
0970
01ae
cafe
280a
5556
0970
0139
cafe
2c1a
5556
0970
015d
cafe
3002
5556
0970
027f
cafe
3412
5556
0974
0105
cafe
380b
5556
0974
0186
cafe
3c1b
5556
0974
0199
cafe
2003
5556
0974
0177
cafe
2413
5556
0978
01b6
cafe
280c
5556
0978
011e
cafe
2c1c
5556
0978
0167
cafe
3004
5556
0978
0269
cafe
3414
5556
097c
01c9
cafe
380d
5556
097c
01b2
cafe
3c1d
5556
097c
01d0
cafe
2005
5556
097c
018f
cafe
2415
5556
0980
021f
cafe
280e
5556
0980
012a
cafe
2c1e
5556
0980
01ca
cafe
3006
5556
0980
01f7
cafe
3416
5556
0984
0113
cafe
380f
5556
0984
00ca
cafe
3c1f
5556
0984
0222
cafe
2007
5556
0984
0214
cafe
2417
5556
0988
0180
cafe
2808
5556
0988
01e3
cafe
2c18
5556
0988
0216
cafe
3000
5556
0988
014f
cafe
3410
5556
098c
0192
cafe
3809
5556
098c
018a
cafe
3c19
5556
098c
017e
cafe
2001
5556
098c
01d8
cafe
2411
5556
0990
01a7
cafe
280a
5556
0990
0149
cafe
2c1a
5556
0990
0161
cafe
3002
5556
0990
0289
cafe
3412
5556
0994
0114
cafe
380b
5556
0994
0197
cafe
3c1b
5556
0994
0186
cafe
2003
5556
0994
017f
cafe
2413
-
5556
0998
01bd
cafe
280c
5556
0998
0128
cafe
2c1c
5556
0998
0175
cafe
3004
5556
0998
0271
cafe
3414
5556
099c
01d3
cafe
380d
5556
099c
01c7
cafe
3c1d
5556
099c
01e3
cafe
2005
5556
099c
018e
cafe
2415
5556
09a0
0239
cafe
280e
5556
09a0
0145
cafe
2c1e
5556
09a0
01d7
cafe
3006
5556
09a0
0211
cafe
3416
5556
09a4
012c
cafe
380f
5556
09a4
00cc
cafe
3c1f
5556
09a4
0207
cafe
2007
5556
09a4
0216
cafe
2417
5556
09a8
018d
cafe
2808
5556
09a8
01d8
cafe
2c18
5556
09a8
01f6
cafe
3000
5556
09a8
012c
cafe
3410
5556
09ac
01a1
cafe
3809
5556
09ac
017d
cafe
3c19
5556
09ac
0171
cafe
2001
5556
09ac
01d7
cafe
2411
5556
09b0
01aa
cafe
280a
5556
09b0
013e
cafe
2c1a
5556
09b0
0155
cafe
3002
5556
09b0
0283
cafe
3412
5556
09b4
0108
cafe
380b
5556
09b4
018f
cafe
3c1b
5556
09b4
0191
cafe
2003
5556
09b4
0184
cafe
2413
5556
09b8
01b7
cafe
280c
5556
09b8
011c
cafe
2c1c
5556
09b8
017a
cafe
3004
5556
09b8
0271
cafe
3414
5556
09bc
01c3
cafe
380d
5556
09bc
01c6
cafe
3c1d
5556
09bc
01d3
cafe
2005
5556
09bc
0192
cafe
2415
5556
09c0
0225
cafe
280e
5556
09c0
0136
cafe
2c1e
5556
09c0
01dc
cafe
3006
5556
09c0
01ff
cafe
3416
5556
09c4
0123
cafe
380f
5556
09c4
00c0
cafe
3c1f
5556
09c4
0214
cafe
2007
5556
09c4
0214
cafe
2417
5556
09c8
018e
cafe
2808
5556
09c8
01ce
cafe
2c18
5556
09c8
01eb
cafe
3000
5556
-
09c8
0147
cafe
3410
5556
09cc
018a
cafe
3809
5556
09cc
018c
cafe
3c19
5556
09cc
0178
cafe
2001
5556
09cc
01e0
cafe
2411
5556
09d0
01a8
cafe
280a
5556
09d0
0145
cafe
2c1a
5556
09d0
014c
cafe
3002
5556
09d0
028a
cafe
3412
5556
09d4
011a
cafe
380b
5556
09d4
0190
cafe
3c1b
5556
09d4
019a
cafe
2003
5556
09d4
0181
cafe
2413
5556
09d8
01b1
cafe
280c
5556
09d8
0113
cafe
2c1c
5556
09d8
017a
cafe
3004
5556
09d8
0272
cafe
3414
5556
09dc
01c1
cafe
380d
5556
09dc
01c1
cafe
3c1d
5556
09dc
01d5
cafe
2005
5556
09dc
0183
cafe
2415
5556
09e0
0234
cafe
280e
5556
09e0
0135
cafe
2c1e
5556
09e0
01d5
cafe
3006
5556
09e0
0213
cafe
3416
5556
09e4
012e
cafe
380f
5556
09e4
00cb
cafe
3c1f
5556
09e4
021d
cafe
2007
5556
09e4
020c
cafe
2417
5556
09e8
0187
cafe
2808
5556
09e8
01d0
cafe
2c18
5556
09e8
01f1
cafe
3000
5556
09e8
014a
cafe
3410
5556
09ec
017e
cafe
3809
5556
09ec
017f
cafe
3c19
5556
09ec
0170
cafe
2001
5556
09ec
01e5
cafe
2411
5556
09f0
01ac
cafe
280a
5556
09f0
0139
cafe
2c1a
5556
09f0
015b
cafe
3002
5556
09f0
027d
cafe
3412
5556
09f4
0127
cafe
380b
5556
09f4
019e
cafe
3c1b
5556
09f4
0199
cafe
2003
5556
09f4
0183
cafe
2413
5556
09f8
01b9
cafe
280c
5556
09f8
0117
cafe
2c1c
5556
09f8
0175
cafe
3004
5556
09f8
0277
cafe
3414
5556
09fc
01c8
cafe
380d
5556
09fc
01c1
cafe
3c1d
5556
09fc
-
01e4
cafe
2005
5556
09fc
0188
cafe
2415
5556
0a00
0225
cafe
280e
5556
0a00
012f
cafe
2c1e
5556
0a00
01ca
cafe
3006
5556
0a00
020d
cafe
3416
5556
0a04
0101
cafe
380f
5556
0a04
00ce
cafe
3c1f
5556
0a04
0215
cafe
2007
5556
0a04
0207
cafe
2417
5556
0a08
0192
cafe
2808
5556
0a08
01d6
cafe
2c18
5556
0a08
01fc
cafe
3000
5556
0a08
0153
cafe
3410
5556
0a0c
0191
cafe
3809
5556
0a0c
0182
cafe
3c19
5556
0a0c
016d
cafe
2001
5556
0a0c
01da
cafe
2411
5556
0a10
01a1
cafe
280a
5556
0a10
0140
cafe
2c1a
5556
0a10
015c
cafe
3002
5556
0a10
028b
cafe
3412
5556
0a14
0119
cafe
380b
5556
0a14
0196
cafe
3c1b
5556
0a14
01a8
cafe
2003
5556
0a14
018b
cafe
2413
5556
0a18
01b1
cafe
280c
5556
0a18
010b
cafe
2c1c
5556
0a18
0177
cafe
3004
5556
0a18
0274
cafe
3414
5556
0a1c
01c5
cafe
380d
5556
0a1c
01cb
cafe
3c1d
5556
0a1c
01d4
cafe
2005
5556
0a1c
0185
cafe
2415
5556
0a20
0227
cafe
280e
5556
0a20
014a
cafe
2c1e
5556
0a20
01d0
cafe
3006
5556
0a20
0214
cafe
3416
5556
0a24
011b
cafe
380f
5556
0a24
00e6
cafe
3c1f
5556
0a24
0211
cafe
2007
5556
0a24
0215
cafe
2417
5556
0a28
01a1
cafe
2808
5556
0a28
01d7
cafe
2c18
5556
0a28
01f9
cafe
3000
5556
0a28
013c
cafe
3410
5556
0a2c
0191
cafe
3809
5556
0a2c
016e
cafe
3c19
5556
0a2c
0176
cafe
2001
5556
0a2c
01e1
cafe
2411
5556
0a30
01b4
cafe
280a
5556
0a30
0144
-
cafe
2c1a
5556
0a30
014b
cafe
3002
5556
0a30
028c
cafe
3412
5556
0a34
0123
cafe
380b
5556
0a34
01a2
cafe
3c1b
5556
0a34
01a4
cafe
2003
5556
0a34
0173
cafe
2413
5556
0a38
01ae
cafe
280c
5556
0a38
0107
cafe
2c1c
5556
0a38
016e
cafe
3004
5556
0a38
027a
cafe
3414
5556
0a3c
01d2
cafe
380d
5556
0a3c
01c9
cafe
3c1d
5556
0a3c
01c6
cafe
2005
5556
0a3c
0181
cafe
2415
5556
0a40
022c
cafe
280e
5556
0a40
0140
cafe
2c1e
5556
0a40
01db
cafe
3006
5556
0a40
0201
cafe
3416
5556
0a44
0120
cafe
380f
5556
0a44
00e8
cafe
3c1f
5556
0a44
020e
cafe
2007
5556
0a44
0211
cafe
2417
5556
0a48
0191
cafe
2808
5556
0a48
01d5
cafe
2c18
5556
0a48
01f0
cafe
3000
5556
0a48
014c
cafe
3410
5556
0a4c
0174
cafe
3809
5556
0a4c
0182
cafe
3c19
5556
0a4c
017e
cafe
2001
5556
0a4c
01cf
cafe
2411
5556
0a50
01b0
cafe
280a
5556
0a50
013d
cafe
2c1a
5556
0a50
0151
cafe
3002
5556
0a50
0294
cafe
3412
5556
0a54
0119
cafe
380b
5556
0a54
0195
cafe
3c1b
5556
0a54
019b
cafe
2003
5556
0a54
0187
cafe
2413
5556
0a58
01c2
cafe
280c
5556
0a58
0120
cafe
2c1c
5556
0a58
0180
cafe
3004
5556
0a58
027d
cafe
3414
5556
0a5c
01d6
cafe
380d
5556
0a5c
01c3
cafe
3c1d
5556
0a5c
01bc
cafe
2005
5556
0a5c
0189
cafe
2415
5556
0a60
020d
cafe
280e
5556
0a60
0140
cafe
2c1e
5556
0a60
01d4
cafe
3006
5556
0a60
0214
cafe
3416
5556
0a64
010a
cafe
-
380f
5556
0a64
00cc
cafe
3c1f
5556
0a64
0224
cafe
2007
5556
0a64
021a
cafe
2417
5556
0a68
019a
cafe
2808
5556
0a68
01dc
cafe
2c18
5556
0a68
01f7
cafe
3000
5556
0a68
0140
cafe
3410
5556
0a6c
0184
cafe
3809
5556
0a6c
0181
cafe
3c19
5556
0a6c
0173
cafe
2001
5556
0a6c
01dd
cafe
2411
5556
0a70
01af
cafe
280a
5556
0a70
0136
cafe
2c1a
5556
0a70
0154
cafe
3002
5556
0a70
0285
cafe
3412
5556
0a74
0119
cafe
380b
5556
0a74
0196
cafe
3c1b
5556
0a74
0195
cafe
2003
5556
0a74
0174
cafe
2413
5556
0a78
01bc
cafe
280c
5556
0a78
0113
cafe
2c1c
5556
0a78
0176
cafe
3004
5556
0a78
0279
cafe
3414
5556
0a7c
01ce
cafe
380d
5556
0a7c
01d5
cafe
3c1d
5556
0a7c
01c5
cafe
2005
5556
0a7c
0190
cafe
2415
5556
0a80
0224
cafe
280e
5556
0a80
0140
cafe
2c1e
5556
0a80
01ca
cafe
3006
5556
0a80
0212
cafe
3416
5556
0a84
0113
cafe
380f
5556
0a84
00d0
cafe
3c1f
5556
0a84
0213
cafe
2007
5556
0a84
020d
cafe
2417
5556
0a88
01a6
cafe
2808
5556
0a88
01c5
cafe
2c18
5556
0a88
01ee
cafe
3000
5556
0a88
0152
cafe
3410
5556
0a8c
0167
cafe
3809
5556
0a8c
0182
cafe
3c19
5556
0a8c
017b
cafe
2001
5556
0a8c
01d5
cafe
2411
5556
0a90
019d
cafe
280a
5556
0a90
042c
cafe
2c1a
5556
0a90
046e
cafe
3002
5556
0a90
05a0
cafe
3412
5556
0a94
040f
cafe
380b
5556
0a94
085f
cafe
3c1b
5556
0a94
087d
cafe
2003
5556
0a94
083d
cafe
2413
-
5556
0a98
086b
cafe
280c
5556
0a98
08fb
cafe
2c1c
5556
0a98
0943
cafe
3004
5556
0a98
0a36
cafe
3414
5556
0a9c
0988
cafe
380d
5556
0a9c
09ef
cafe
3c1d
5556
0a9c
09a9
cafe
2005
5556
0a9c
0960
cafe
2415
5556
0aa0
0a2e
cafe
280e
5556
0aa0
0970
cafe
2c1e
5556
0aa0
09aa
cafe
3006
5556
0aa0
0a01
cafe
3416
5556
0aa4
091f
cafe
380f
5556
0aa4
08bb
cafe
3c1f
5556
0aa4
09e0
cafe
2007
5556
0aa4
09d3
cafe
2417
5556
0aa8
0980
cafe
2808
5556
0aa8
09b8
cafe
2c18
5556
0aa8
09b9
cafe
3000
5556
0aa8
0914
cafe
3410
5556
0aac
095d
cafe
3809
5556
0aac
0926
cafe
3c19
5556
0aac
0919
cafe
2001
5556
0aac
0965
cafe
2411
5556
0ab0
0963
cafe
280a
5556
0ab0
08d2
cafe
2c1a
5556
0ab0
08e6
cafe
3002
5556
0ab0
09ff
cafe
3412
5556
0ab4
08c1
cafe
380b
5556
0ab4
091d
cafe
3c1b
5556
0ab4
090d
cafe
2003
5556
0ab4
08d1
cafe
2413
5556
0ab8
0944
cafe
280c
5556
0ab8
08b5
cafe
2c1c
5556
0ab8
08d6
cafe
3004
5556
0ab8
09d0
cafe
3414
5556
0abc
093c
cafe
380d
5556
0abc
093c
cafe
3c1d
5556
0abc
0916
cafe
2005
5556
0abc
08dd
cafe
2415
5556
0ac0
098e
cafe
280e
5556
0ac0
08aa
cafe
2c1e
5556
0ac0
0930
cafe
3006
5556
0ac0
094b
cafe
3416
5556
0ac4
0860
cafe
380f
5556
0ac4
0812
cafe
3c1f
5556
0ac4
0949
cafe
2007
5556
0ac4
095b
cafe
2417
5556
0ac8
08e6
cafe
2808
5556
0ac8
0930
cafe
2c18
5556
0ac8
092c
cafe
3000
5556
-
0ac8
0887
cafe
3410
5556
0acc
08de
cafe
3809
5556
0acc
089b
cafe
3c19
5556
0acc
089d
cafe
2001
5556
0acc
08d1
cafe
2411
5556
0ad0
08cc
cafe
280a
5556
0ad0
0849
cafe
2c1a
5556
0ad0
086a
cafe
3002
5556
0ad0
0992
cafe
3412
5556
0ad4
083f
cafe
380b
5556
0ad4
08a5
cafe
3c1b
5556
0ad4
0886
cafe
2003
5556
0ad4
0858
cafe
2413
5556
0ad8
08b4
cafe
280c
5556
0ad8
0815
cafe
2c1c
5556
0ad8
0870
cafe
3004
5556
0ad8
095b
cafe
3414
5556
0adc
08c9
cafe
380d
5556
0adc
08cd
cafe
3c1d
5556
0adc
0895
cafe
2005
5556
0adc
083e
cafe
2415
5556
0ae0
091c
cafe
280e
5556
0ae0
081c
cafe
2c1e
5556
0ae0
08a9
cafe
3006
5556
0ae0
08d2
cafe
3416
5556
0ae4
07e6
cafe
380f
5556
0ae4
077f
cafe
3c1f
5556
0ae4
08cb
cafe
2007
5556
0ae4
08d4
cafe
2417
5556
0ae8
0847
cafe
2808
5556
0ae8
08a0
cafe
2c18
5556
0ae8
08b0
cafe
3000
5556
0ae8
07eb
cafe
3410
5556
0aec
084c
cafe
3809
5556
0aec
082b
cafe
3c19
5556
0aec
0823
cafe
2001
5556
0aec
0855
cafe
2411
5556
0af0
0853
cafe
280a
5556
0af0
07c1
cafe
2c1a
5556
0af0
07d4
cafe
3002
5556
0af0
0920
cafe
3412
5556
0af4
07bd
cafe
380b
5556
0af4
0832
cafe
3c1b
5556
0af4
0808
cafe
2003
5556
0af4
07de
cafe
2413
5556
0af8
0844
cafe
280c
5556
0af8
07a9
cafe
2c1c
5556
0af8
07d7
cafe
3004
5556
0af8
08cf
cafe
3414
5556
0afc
0855
cafe
380d
5556
0afc
0845
cafe
3c1d
5556
0afc
-
080f
cafe
2005
5556
0afc
07d5
cafe
2415
5556
0b00
08a2
cafe
280e
5556
0b00
078b
cafe
2c1e
5556
0b00
083b
cafe
3006
5556
0b00
0846
cafe
3416
5556
0b04
0767
cafe
380f
5556
0b04
071c
cafe
3c1f
5556
0b04
0853
cafe
2007
5556
0b04
085d
cafe
2417
5556
0b08
07d6
cafe
2808
5556
0b08
082e
cafe
2c18
5556
0b08
0838
cafe
3000
5556
0b08
0779
cafe
3410
5556
0b0c
07d5
cafe
3809
5556
0b0c
07a3
cafe
3c19
5556
0b0c
07a4
cafe
2001
5556
0b0c
07ec
cafe
2411
5556
0b10
07ce
cafe
280a
5556
0b10
074c
cafe
2c1a
5556
0b10
076f
cafe
3002
5556
0b10
08bb
cafe
3412
5556
0b14
0734
cafe
380b
5556
0b14
07c7
cafe
3c1b
5556
0b14
07a2
cafe
2003
5556
0b14
0760
cafe
2413
5556
0b18
07d8
cafe
280c
5556
0b18
0729
cafe
2c1c
5556
0b18
0772
cafe
3004
5556
0b18
0863
cafe
3414
5556
0b1c
07d5
cafe
380d
5556
0b1c
07d9
cafe
3c1d
5556
0b1c
07ad
cafe
2005
5556
0b1c
074e
cafe
2415
5556
0b20
0835
cafe
280e
5556
0b20
071d
cafe
2c1e
5556
0b20
07ba
cafe
3006
5556
0b20
07e8
cafe
3416
5556
0b24
06de
cafe
380f
5556
0b24
0697
cafe
3c1f
5556
0b24
07ea
cafe
2007
5556
0b24
07f3
cafe
2417
5556
0b28
0763
cafe
2808
5556
0b28
07b7
cafe
2c18
5556
0b28
07be
cafe
3000
5556
0b28
0702
cafe
3410
5556
0b2c
075f
cafe
3809
5556
0b2c
0721
cafe
3c19
5556
0b2c
0725
cafe
2001
5556
0b2c
0783
cafe
2411
5556
0b30
075a
cafe
280a
5556
0b30
06d2
-
cafe
2c1a
5556
0b30
06e7
cafe
3002
5556
0b30
083f
cafe
3412
5556
0b34
06c9
cafe
380b
5556
0b34
074c
cafe
3c1b
5556
0b34
071f
cafe
2003
5556
0b34
06ea
cafe
2413
5556
0b38
0755
cafe
280c
5556
0b38
06ad
cafe
2c1c
5556
0b38
06fa
cafe
3004
5556
0b38
07f8
cafe
3414
5556
0b3c
075f
cafe
380d
5556
0b3c
0771
cafe
3c1d
5556
0b3c
0743
cafe
2005
5556
0b3c
06e8
cafe
2415
5556
0b40
07c8
cafe
280e
5556
0b40
06be
cafe
2c1e
5556
0b40
075b
cafe
3006
5556
0b40
076f
cafe
3416
5556
0b44
0673
cafe
380f
5556
0b44
0622
cafe
3c1f
5556
0b44
076d
cafe
2007
5556
0b44
0789
cafe
2417
5556
0b48
06fb
cafe
2808
5556
0b48
0751
cafe
2c18
5556
0b48
0752
cafe
3000
5556
0b48
068a
cafe
3410
5556
0b4c
06ed
cafe
3809
5556
0b4c
06c6
cafe
3c19
5556
0b4c
06ae
cafe
2001
5556
0b4c
06fc
cafe
2411
5556
0b50
06f2
cafe
280a
5556
0b50
066a
cafe
2c1a
5556
0b50
0673
cafe
3002
5556
0b50
07f2
cafe
3412
5556
0b54
0651
cafe
380b
5556
0b54
06ea
cafe
3c1b
5556
0b54
06af
cafe
2003
5556
0b54
068e
cafe
2413
5556
0b58
0707
cafe
280c
5556
0b58
063d
cafe
2c1c
5556
0b58
0697
cafe
3004
5556
0b58
0791
cafe
3414
5556
0b5c
06f1
cafe
380d
5556
0b5c
06ff
cafe
3c1d
5556
0b5c
06de
cafe
2005
5556
0b5c
068c
cafe
2415
5556
0b60
0766
cafe
280e
5556
0b60
0651
cafe
2c1e
5556
0b60
06ec
cafe
3006
5556
0b60
070c
cafe
3416
5556
0b64
060f
cafe
-
380f
5556
0b64
05cb
cafe
3c1f
5556
0b64
071b
cafe
2007
5556
0b64
073c
cafe
2417
5556
0b68
0686
cafe
2808
5556
0b68
06fe
cafe
2c18
5556
0b68
0700
cafe
3000
5556
0b68
0635
cafe
3410
5556
0b6c
068b
cafe
3809
5556
0b6c
0665
cafe
3c19
5556
0b6c
065e
cafe
2001
5556
0b6c
06b3
cafe
2411
5556
0b70
06a7
cafe
280a
5556
0b70
05fd
cafe
2c1a
5556
0b70
0624
cafe
3002
5556
0b70
0779
cafe
3412
5556
0b74
05e7
cafe
380b
5556
0b74
0688
cafe
3c1b
5556
0b74
0651
cafe
2003
5556
0b74
0621
cafe
2413
5556
0b78
06ae
cafe
280c
5556
0b78
05da
cafe
2c1c
5556
0b78
061b
cafe
3004
5556
0b78
0737
cafe
3414
5556
0b7c
0683
cafe
380d
5556
0b7c
06a3
cafe
3c1d
5556
0b7c
0669
cafe
2005
5556
0b7c
0629
cafe
2415
5556
0b80
070c
cafe
280e
5556
0b80
05f9
cafe
2c1e
5556
0b80
0690
cafe
3006
5556
0b80
06b5
cafe
3416
5556
0b84
05ac
cafe
380f
5556
0b84
055c
cafe
3c1f
5556
0b84
06a5
cafe
2007
5556
0b84
06b7
cafe
2417
5556
0b88
0637
cafe
2808
5556
0b88
0685
cafe
2c18
5556
0b88
068b
cafe
3000
5556
0b88
05c7
cafe
3410
5556
0b8c
061e
cafe
3809
5556
0b8c
060c
cafe
3c19
5556
0b8c
060f
cafe
2001
5556
0b8c
0652
cafe
2411
5556
0b90
062a
cafe
280a
5556
0b90
0599
cafe
2c1a
5556
0b90
05bf
cafe
3002
5556
0b90
0726
cafe
3412
5556
0b94
0586
cafe
380b
5556
0b94
0632
cafe
3c1b
5556
0b94
05eb
cafe
2003
5556
0b94
05d1
cafe
2413
-
5556
0b98
063d
cafe
280c
5556
0b98
0578
cafe
2c1c
5556
0b98
05de
cafe
3004
5556
0b98
06df
cafe
3414
5556
0b9c
0634
cafe
380d
5556
0b9c
0656
cafe
3c1d
5556
0b9c
0619
cafe
2005
5556
0b9c
05b8
cafe
2415
5556
0ba0
06b1
cafe
280e
5556
0ba0
0584
cafe
2c1e
5556
0ba0
063e
cafe
3006
5556
0ba0
064a
cafe
3416
5556
0ba4
0548
cafe
380f
5556
0ba4
04f7
cafe
3c1f
5556
0ba4
064f
cafe
2007
5556
0ba4
0673
cafe
2417
5556
0ba8
05da
cafe
2808
5556
0ba8
062e
cafe
2c18
5556
0ba8
0639
cafe
3000
5556
0ba8
0567
cafe
3410
5556
0bac
05af
cafe
3809
5556
0bac
05b1
cafe
3c19
5556
0bac
05aa
cafe
2001
5556
0bac
05ef
cafe
2411
5556
0bb0
05e7
cafe
280a
5556
0bb0
0554
cafe
2c1a
5556
0bb0
0556
cafe
3002
5556
0bb0
06ce
cafe
3412
5556
0bb4
0519
cafe
380b
5556
0bb4
05d7
cafe
3c1b
5556
0bb4
0596
cafe
2003
5556
0bb4
0567
cafe
2413
5556
0bb8
05ef
cafe
280c
5556
0bb8
0522
cafe
2c1c
5556
0bb8
0580
cafe
3004
5556
0bb8
0694
cafe
3414
5556
0bbc
05e5
cafe
380d
5556
0bbc
05d9
cafe
3c1d
5556
0bbc
05c5
cafe
2005
5556
0bbc
0574
cafe
2415
5556
0bc0
0650
cafe
280e
5556
0bc0
0527
cafe
2c1e
5556
0bc0
05de
cafe
3006
5556
0bc0
060c
cafe
3416
5556
0bc4
04fc
cafe
380f
5556
0bc4
04a8
cafe
3c1f
5556
0bc4
05f5
cafe
2007
5556
0bc4
0610
cafe
2417
5556
0bc8
0585
cafe
2808
5556
0bc8
05e2
cafe
2c18
5556
0bc8
05e6
cafe
3000
5556
-
0bc8
0517
cafe
3410
5556
0bcc
0565
cafe
3809
5556
0bcc
0557
cafe
3c19
5556
0bcc
0550
cafe
2001
5556
0bcc
05af
cafe
2411
5556
0bd0
058e
cafe
280a
5556
0bd0
04f8
cafe
2c1a
5556
0bd0
0514
cafe
3002
5556
0bd0
0684
cafe
3412
5556
0bd4
04db
cafe
380b
5556
0bd4
0589
cafe
3c1b
5556
0bd4
054d
cafe
2003
5556
0bd4
0531
cafe
2413
5556
0bd8
059e
cafe
280c
5556
0bd8
04d0
cafe
2c1c
5556
0bd8
0525
cafe
3004
5556
0bd8
064b
cafe
3414
5556
0bdc
0582
cafe
380d
5556
0bdc
057d
cafe
3c1d
5556
0bdc
056c
cafe
2005
5556
0bdc
0517
cafe
2415
5556
0be0
0603
cafe
280e
5556
0be0
04c8
cafe
2c1e
5556
0be0
0584
cafe
3006
5556
0be0
05a8
cafe
3416
5556
0be4
0499
cafe
380f
5556
0be4
0453
cafe
3c1f
5556
0be4
05a3
cafe
2007
5556
0be4
05c9
cafe
2417
5556
0be8
052e
cafe
2808
5556
0be8
0598
cafe
2c18
5556
0be8
0589
cafe
3000
5556
0be8
04c5
cafe
3410
5556
0bec
050f
cafe
3809
5556
0bec
04f3
cafe
3c19
5556
0bec
04f1
cafe
2001
5556
0bec
0544
cafe
2411
5556
0bf0
0539
cafe
280a
5556
0bf0
04a1
cafe
2c1a
5556
0bf0
04be
cafe
3002
5556
0bf0
0627
cafe
3412
5556
0bf4
047b
cafe
380b
5556
0bf4
0532
cafe
3c1b
5556
0bf4
04fd
cafe
2003
5556
0bf4
04d2
cafe
2413
5556
0bf8
0541
cafe
280c
5556
0bf8
0498
cafe
2c1c
5556
0bf8
04d2
cafe
3004
5556
0bf8
05f7
cafe
3414
5556
0bfc
0543
cafe
380d
5556
0bfc
0544
cafe
3c1d
5556
0bfc
-
052e
cafe
2005
5556
0bfc
04d0
cafe
2415
5556
0c00
05b9
cafe
280e
5556
0c00
0483
cafe
2c1e
5556
0c00
0546
cafe
3006
5556
0c00
056e
cafe
3416
5556
0c04
0453
cafe
380f
5556
0c04
03f3
cafe
3c1f
5556
0c04
0564
cafe
2007
5556
0c04
057d
cafe
2417
5556
0c08
04e7
cafe
2808
5556
0c08
053f
cafe
2c18
5556
0c08
0546
cafe
3000
5556
0c08
0482
cafe
3410
5556
0c0c
04c3
cafe
3809
5556
0c0c
04d1
cafe
3c19
5556
0c0c
04c2
cafe
2001
5556
0c0c
050c
cafe
2411
5556
0c10
0513
cafe
280a
5556
0c10
0454
cafe
2c1a
5556
0c10
0480
cafe
3002
5556
0c10
05f3
cafe
3412
5556
0c14
0441
cafe
380b
5556
0c14
04ec
cafe
3c1b
5556
0c14
04bd
cafe
2003
5556
0c14
048f
cafe
2413
5556
0c18
0512
cafe
280c
5556
0c18
0443
cafe
2c1c
5556
0c18
048f
cafe
3004
5556
0c18
05b9
cafe
3414
5556
0c1c
04df
cafe
380d
5556
0c1c
0503
cafe
3c1d
5556
0c1c
04dc
cafe
2005
5556
0c1c
048b
cafe
2415
5556
0c20
057e
cafe
280e
5556
0c20
0442
cafe
2c1e
5556
0c20
04f9
cafe
3006
5556
0c20
051e
cafe
3416
5556
0c24
0416
cafe
380f
5556
0c24
03b2
cafe
3c1f
5556
0c24
051d
cafe
2007
5556
0c24
0550
cafe
2417
5556
0c28
04a8
cafe
2808
5556
0c28
0502
cafe
2c18
5556
0c28
0504
cafe
3000
5556
0c28
043d
cafe
3410
5556
0c2c
047c
cafe
3809
5556
0c2c
0471
cafe
3c19
5556
0c2c
0478
cafe
2001
5556
0c2c
04b3
cafe
2411
5556
0c30
04bd
cafe
280a
5556
0c30
0421
-
cafe
2c1a
5556
0c30
043d
cafe
3002
5556
0c30
05a2
cafe
3412
5556
0c34
03e7
cafe
380b
5556
0c34
04b5
cafe
3c1b
5556
0c34
046f
cafe
2003
5556
0c34
044d
cafe
2413
5556
0c38
04db
cafe
280c
5556
0c38
0410
cafe
2c1c
5556
0c38
044d
cafe
3004
5556
0c38
056a
cafe
3414
5556
0c3c
04bb
cafe
380d
5556
0c3c
04c1
cafe
3c1d
5556
0c3c
04a3
cafe
2005
5556
0c3c
0443
cafe
2415
5556
0c40
0529
cafe
280e
5556
0c40
040e
cafe
2c1e
5556
0c40
04c5
cafe
3006
5556
0c40
04eb
cafe
3416
5556
0c44
03de
cafe
380f
5556
0c44
0381
cafe
3c1f
5556
0c44
04dd
cafe
2007
5556
0c44
0501
cafe
2417
5556
0c48
0463
cafe
2808
5556
0c48
04be
cafe
2c18
5556
0c48
04c9
cafe
3000
5556
0c48
03f8
cafe
3410
5556
0c4c
044d
cafe
3809
5556
0c4c
0426
cafe
3c19
5556
0c4c
041d
cafe
2001
5556
0c4c
046d
cafe
2411
5556
0c50
048b
cafe
280a
5556
0c50
03ce
cafe
2c1a
5556
0c50
03f4
cafe
3002
5556
0c50
0577
cafe
3412
5556
0c54
03c8
cafe
380b
5556
0c54
046b
cafe
3c1b
5556
0c54
0439
cafe
2003
5556
0c54
041d
cafe
2413
5556
0c58
0477
cafe
280c
5556
0c58
03d1
cafe
2c1c
5556
0c58
0419
cafe
3004
5556
0c58
0534
cafe
3414
5556
0c5c
0470
cafe
380d
5556
0c5c
048f
cafe
3c1d
5556
0c5c
0452
cafe
2005
5556
0c5c
0421
cafe
2415
5556
0c60
050a
cafe
280e
5556
0c60
03ce
cafe
2c1e
5556
0c60
0474
cafe
3006
5556
0c60
04b5
cafe
3416
5556
0c64
039d
cafe
-
380f
5556
0c64
0338
cafe
3c1f
5556
0c64
04b2
cafe
2007
5556
0c64
04ce
cafe
2417
5556
0c68
0424
cafe
2808
5556
0c68
0466
cafe
2c18
5556
0c68
048d
cafe
3000
5556
0c68
03c2
cafe
3410
5556
0c6c
041a
cafe
3809
5556
0c6c
0413
cafe
3c19
5556
0c6c
0408
cafe
2001
5556
0c6c
044b
cafe
2411
5556
0c70
0432
cafe
280a
5556
0c70
03a8
cafe
2c1a
5556
0c70
03cd
cafe
3002
5556
0c70
052a
cafe
3412
5556
0c74
0382
cafe
380b
5556
0c74
0433
cafe
3c1b
5556
0c74
03f4
cafe
2003
5556
0c74
03d9
cafe
2413
5556
0c78
0452
cafe
280c
5556
0c78
039f
cafe
2c1c
5556
0c78
03d9
cafe
3004
5556
0c78
04f7
cafe
3414
5556
0c7c
044a
cafe
380d
5556
0c7c
0453
cafe
3c1d
5556
0c7c
042e
cafe
2005
5556
0c7c
03d9
cafe
2415
5556
0c80
04bb
cafe
280e
5556
0c80
0386
cafe
2c1e
5556
0c80
0445
cafe
3006
5556
0c80
0474
cafe
3416
5556
0c84
0358
cafe
380f
5556
0c84
0307
cafe
3c1f
5556
0c84
0463
cafe
2007
5556
0c84
0495
cafe
2417
5556
0c88
03f0
cafe
2808
5556
0c88
0454
cafe
2c18
5556
0c88
0461
cafe
3000
5556
0c88
0388
cafe
3410
5556
0c8c
03df
cafe
3809
5556
0c8c
03be
cafe
3c19
5556
0c8c
03dc
cafe
2001
5556
0c8c
041d
cafe
2411
5556
0c90
0417
cafe
280a
5556
0c90
034c
cafe
2c1a
5556
0c90
038f
cafe
3002
5556
0c90
04ef
cafe
3412
5556
0c94
0340
cafe
380b
5556
0c94
03ef
cafe
3c1b
5556
0c94
03d0
cafe
2003
5556
0c94
039f
cafe
2413
-
5556
0c98
041b
cafe
280c
5556
0c98
0358
cafe
2c1c
5556
0c98
03b6
cafe
3004
5556
0c98
04b6
cafe
3414
5556
0c9c
03f7
cafe
380d
5556
0c9c
0408
cafe
3c1d
5556
0c9c
03f6
cafe
2005
5556
0c9c
03a2
cafe
2415
5556
0ca0
0495
cafe
280e
5556
0ca0
0356
cafe
2c1e
5556
0ca0
041e
cafe
3006
5556
0ca0
043a
cafe
3416
5556
0ca4
0335
cafe
380f
5556
0ca4
02da
cafe
3c1f
5556
0ca4
0425
cafe
2007
5556
0ca4
0463
cafe
2417
5556
0ca8
03b4
cafe
2808
5556
0ca8
0419
cafe
2c18
5556
0ca8
041c
cafe
3000
5556
0ca8
0351
cafe
3410
5556
0cac
03a2
cafe
3809
5556
0cac
0396
cafe
3c19
5556
0cac
03a9
cafe
2001
5556
0cac
03df
cafe
2411
5556
0cb0
03d9
cafe
280a
5556
0cb0
0333
cafe
2c1a
5556
0cb0
0365
cafe
3002
5556
0cb0
04c7
cafe
3412
5556
0cb4
0320
cafe
380b
5556
0cb4
03c9
cafe
3c1b
5556
0cb4
0390
cafe
2003
5556
0cb4
0374
cafe
2413
5556
0cb8
03f9
cafe
280c
5556
0cb8
0322
cafe
2c1c
5556
0cb8
036f
cafe
3004
5556
0cb8
0482
cafe
3414
5556
0cbc
03d5
cafe
380d
5556
0cbc
03e9
cafe
3c1d
5556
0cbc
03cf
cafe
2005
5556
0cbc
036f
cafe
2415
5556
0cc0
045b
cafe
280e
5556
0cc0
0312
cafe
2c1e
5556
0cc0
03cd
cafe
3006
5556
0cc0
041a
cafe
3416
5556
0cc4
0311
cafe
380f
5556
0cc4
02a0
cafe
3c1f
5556
0cc4
03f5
cafe
2007
5556
0cc4
042b
cafe
2417
5556
0cc8
0379
cafe
2808
5556
0cc8
03e9
cafe
2c18
5556
0cc8
03f6
cafe
3000
5556
-
0cc8
0320
cafe
3410
5556
0ccc
036f
cafe
3809
5556
0ccc
0366
cafe
3c19
5556
0ccc
0366
cafe
2001
5556
0ccc
03b8
cafe
2411
5556
0cd0
03ac
cafe
280a
5556
0cd0
030b
cafe
2c1a
5556
0cd0
0335
cafe
3002
5556
0cd0
0497
cafe
3412
5556
0cd4
02f8
cafe
380b
5556
0cd4
0393
cafe
3c1b
5556
0cd4
036a
cafe
2003
5556
0cd4
0357
cafe
2413
5556
0cd8
03b5
cafe
280c
5556
0cd8
0301
cafe
2c1c
5556
0cd8
033d
cafe
3004
5556
0cd8
0472
cafe
3414
5556
0cdc
03c0
cafe
380d
5556
0cdc
03bb
cafe
3c1d
5556
0cdc
03a1
cafe
2005
5556
0cdc
0355
cafe
2415
5556
0ce0
041d
cafe
280e
5556
0ce0
0300
cafe
2c1e
5556
0ce0
03ab
cafe
3006
5556
0ce0
03de
cafe
3416
5556
0ce4
02de
cafe
380f
5556
0ce4
027f
cafe
3c1f
5556
0ce4
03d5
cafe
2007
5556
0ce4
040e
cafe
2417
5556
0ce8
0353
cafe
2808
5556
0ce8
03b3
cafe
2c18
5556
0ce8
03cd
cafe
3000
5556
0ce8
02f4
cafe
3410
5556
0cec
034a
cafe
3809
5556
0cec
0335
cafe
3c19
5556
0cec
0342
cafe
2001
5556
0cec
0395
cafe
2411
5556
0cf0
035f
cafe
280a
5556
0cf0
02db
cafe
2c1a
5556
0cf0
0302
cafe
3002
5556
0cf0
046b
cafe
3412
5556
0cf4
02b9
cafe
380b
5556
0cf4
0383
cafe
3c1b
5556
0cf4
0343
cafe
2003
5556
0cf4
031b
cafe
2413
5556
0cf8
0398
cafe
280c
5556
0cf8
02d5
cafe
2c1c
5556
0cf8
0330
cafe
3004
5556
0cf8
0443
cafe
3414
5556
0cfc
039c
cafe
380d
5556
0cfc
038c
cafe
3c1d
5556
0cfc
-
0375
cafe
2005
5556
0cfc
0317
cafe
2415
5556
0d00
0400
cafe
280e
5556
0d00
02d3
cafe
2c1e
5556
0d00
0389
cafe
3006
5556
0d00
03b5
cafe
3416
5556
0d04
02b8
cafe
380f
5556
0d04
0244
cafe
3c1f
5556
0d04
03af
cafe
2007
5556
0d04
03d4
cafe
2417
5556
0d08
0323
cafe
2808
5556
0d08
03a2
cafe
2c18
5556
0d08
03b4
cafe
3000
5556
0d08
02cf
cafe
3410
5556
0d0c
0321
cafe
3809
5556
0d0c
0325
cafe
3c19
5556
0d0c
0329
cafe
2001
5556
0d0c
036e
cafe
2411
5556
0d10
0352
cafe
280a
5556
0d10
02c5
cafe
2c1a
5556
0d10
02d9
cafe
3002
5556
0d10
0440
cafe
3412
5556
0d14
02a0
cafe
380b
5556
0d14
0340
cafe
3c1b
5556
0d14
0309
cafe
2003
5556
0d14
02f3
cafe
2413
5556
0d18
0367
cafe
280c
5556
0d18
02b4
cafe
2c1c
5556
0d18
02ec
cafe
3004
5556
0d18
0415
cafe
3414
5556
0d1c
035f
cafe
380d
5556
0d1c
0353
cafe
3c1d
5556
0d1c
0351
cafe
2005
5556
0d1c
0304
cafe
2415
5556
0d20
03d2
cafe
280e
5556
0d20
029c
cafe
2c1e
5556
0d20
036b
cafe
3006
5556
0d20
0390
cafe
3416
5556
0d24
0295
cafe
380f
5556
0d24
0235
cafe
3c1f
5556
0d24
038c
cafe
2007
5556
0d24
03b0
cafe
2417
5556
0d28
0319
cafe
2808
5556
0d28
037b
cafe
2c18
5556
0d28
038b
cafe
3000
5556
0d28
02b5
cafe
3410
5556
0d2c
030a
cafe
3809
5556
0d2c
030d
cafe
3c19
5556
0d2c
02f1
cafe
2001
5556
0d2c
033d
cafe
2411
5556
0d30
0334
cafe
280a
5556
0d30
02a8
-
cafe
2c1a
5556
0d30
02ba
cafe
3002
5556
0d30
041e
cafe
3412
5556
0d34
0289
cafe
380b
5556
0d34
0323
cafe
3c1b
5556
0d34
02ef
cafe
2003
5556
0d34
02d1
cafe
2413
5556
0d38
0349
cafe
280c
5556
0d38
028b
cafe
2c1c
5556
0d38
02e3
cafe
3004
5556
0d38
03d8
cafe
3414
5556
0d3c
0341
cafe
380d
5556
0d3c
0331
cafe
3c1d
5556
0d3c
0326
cafe
2005
5556
0d3c
02ec
cafe
2415
5556
0d40
03a6
cafe
280e
5556
0d40
0273
cafe
2c1e
5556
0d40
033b
cafe
3006
5556
0d40
034d
cafe
3416
5556
0d44
0261
cafe
380f
5556
0d44
0211
cafe
3c1f
5556
0d44
036a
cafe
2007
5556
0d44
039c
cafe
2417
5556
0d48
02e3
cafe
2808
5556
0d48
034c
cafe
2c18
5556
0d48
035c
cafe
3000
5556
0d48
0283
cafe
3410
5556
0d4c
02e5
cafe
3809
5556
0d4c
02d5
cafe
3c19
5556
0d4c
02d0
cafe
2001
5556
0d4c
0326
cafe
2411
5556
0d50
0306
cafe
280a
5556
0d50
026b
cafe
2c1a
5556
0d50
02a7
cafe
3002
5556
0d50
03f7
cafe
3412
5556
0d54
0265
cafe
380b
5556
0d54
02ff
cafe
3c1b
5556
0d54
02d2
cafe
2003
5556
0d54
02b7
cafe
2413
5556
0d58
0329
cafe
280c
5556
0d58
0258
cafe
2c1c
5556
0d58
02cd
cafe
3004
5556
0d58
03b5
cafe
3414
5556
0d5c
031f
cafe
380d
5556
0d5c
030c
cafe
3c1d
5556
0d5c
0311
cafe
2005
5556
0d5c
02d1
cafe
2415
5556
0d60
038e
cafe
280e
5556
0d60
0274
cafe
2c1e
5556
0d60
0319
cafe
3006
5556
0d60
034a
cafe
3416
5556
0d64
0255
cafe
-
380f
5556
0d64
01df
cafe
3c1f
5556
0d64
0337
cafe
2007
5556
0d64
036b
cafe
2417
5556
0d68
02c5
cafe
2808
5556
0d68
031b
cafe
2c18
5556
0d68
0338
cafe
3000
5556
0d68
0259
cafe
3410
5556
0d6c
02bd
cafe
3809
5556
0d6c
02c7
cafe
3c19
5556
0d6c
02ae
cafe
2001
5556
0d6c
02fa
cafe
2411
5556
0d70
02ef
cafe
280a
5556
0d70
0240
cafe
2c1a
5556
0d70
0281
cafe
3002
5556
0d70
03e0
cafe
3412
5556
0d74
0233
cafe
380b
5556
0d74
02d6
cafe
3c1b
5556
0d74
02b3
cafe
2003
5556
0d74
02a6
cafe
2413
5556
0d78
02ef
cafe
280c
5556
0d78
023e
cafe
2c1c
5556
0d78
029f
cafe
3004
5556
0d78
039c
cafe
3414
5556
0d7c
0303
cafe
380d
5556
0d7c
030d
cafe
3c1d
5556
0d7c
02eb
cafe
2005
5556
0d7c
029e
cafe
2415
5556
0d80
0371
cafe
280e
5556
0d80
0261
cafe
2c1e
5556
0d80
02f7
cafe
3006
5556
0d80
0338
cafe
3416
5556
0d84
0234
cafe
380f
5556
0d84
01d4
cafe
3c1f
5556
0d84
0325
cafe
2007
5556
0d84
0359
cafe
2417
5556
0d88
02a9
cafe
2808
5556
0d88
0300
cafe
2c18
5556
0d88
031f
cafe
3000
5556
0d88
0257
cafe
3410
5556
0d8c
0299
cafe
3809
5556
0d8c
0289
cafe
3c19
5556
0d8c
028d
cafe
2001
5556
0d8c
02c9
cafe
2411
5556
0d90
02be
cafe
280a
5556
0d90
0226
cafe
2c1a
5556
0d90
0262
cafe
3002
5556
0d90
03c5
cafe
3412
5556
0d94
0228
cafe
380b
5556
0d94
02ce
cafe
3c1b
5556
0d94
0293
cafe
2003
5556
0d94
027e
cafe
2413
-
5556
0d98
02ed
cafe
280c
5556
0d98
0226
cafe
2c1c
5556
0d98
0286
cafe
3004
5556
0d98
0393
cafe
3414
5556
0d9c
02ec
cafe
380d
5556
0d9c
02e3
cafe
3c1d
5556
0d9c
02e2
cafe
2005
5556
0d9c
0289
cafe
2415
5556
0da0
0350
cafe
280e
5556
0da0
021e
cafe
2c1e
5556
0da0
02db
cafe
3006
5556
0da0
030a
cafe
3416
5556
0da4
020c
cafe
380f
5556
0da4
01b1
cafe
3c1f
5556
0da4
030e
cafe
2007
5556
0da4
032f
cafe
2417
5556
0da8
0283
cafe
2808
5556
0da8
02eb
cafe
2c18
5556
0da8
02fe
cafe
3000
5556
0da8
022d
cafe
3410
5556
0dac
027b
cafe
3809
5556
0dac
027f
cafe
3c19
5556
0dac
0279
cafe
2001
5556
0dac
02bc
cafe
2411
5556
0db0
02aa
cafe
280a
5556
0db0
022b
cafe
2c1a
5556
0db0
023c
cafe
3002
5556
0db0
03a2
cafe
3412
5556
0db4
0201
cafe
380b
5556
0db4
02c6
cafe
3c1b
5556
0db4
027d
cafe
2003
5556
0db4
0261
cafe
2413
5556
0db8
02e1
cafe
280c
5556
0db8
0232
cafe
2c1c
5556
0db8
0269
cafe
3004
5556
0db8
0364
cafe
3414
5556
0dbc
02ea
cafe
380d
5556
0dbc
02b5
cafe
3c1d
5556
0dbc
02c1
cafe
2005
5556
0dbc
027e
cafe
2415
5556
0dc0
0337
cafe
280e
5556
0dc0
0227
cafe
2c1e
5556
0dc0
02c4
cafe
3006
5556
0dc0
0313
cafe
3416
5556
0dc4
0201
cafe
380f
5556
0dc4
01a3
cafe
3c1f
5556
0dc4
02f3
cafe
2007
5556
0dc4
0325
cafe
2417
5556
0dc8
0289
cafe
2808
5556
0dc8
02d5
cafe
2c18
5556
0dc8
02e9
cafe
3000
5556
-
0dc8
0228
cafe
3410
5556
0dcc
025b
cafe
3809
5556
0dcc
0263
cafe
3c19
5556
0dcc
0244
cafe
2001
5556
0dcc
02ab
cafe
2411
5556
0dd0
0297
cafe
280a
5556
0dd0
01f8
cafe
2c1a
5556
0dd0
021e
cafe
3002
5556
0dd0
0388
cafe
3412
5556
0dd4
01e8
cafe
380b
5556
0dd4
0296
cafe
3c1b
5556
0dd4
0269
cafe
2003
5556
0dd4
0245
cafe
2413
5556
0dd8
02aa
cafe
280c
5556
0dd8
0207
cafe
2c1c
5556
0dd8
025e
cafe
3004
5556
0dd8
034a
cafe
3414
5556
0ddc
02b5
cafe
380d
5556
0ddc
02ba
cafe
3c1d
5556
0ddc
02ac
cafe
2005
5556
0ddc
0260
cafe
2415
5556
0de0
031f
cafe
280e
5556
0de0
01ff
cafe
2c1e
5556
0de0
02b0
cafe
3006
5556
0de0
02e7
cafe
3416
5556
0de4
01d7
cafe
380f
5556
0de4
0187
cafe
3c1f
5556
0de4
02de
cafe
2007
5556
0de4
030d
cafe
2417
5556
0de8
0271
cafe
2808
5556
0de8
02c1
cafe
2c18
5556
0de8
02d4
cafe
3000
5556
0de8
0203
cafe
3410
5556
0dec
0250
cafe
3809
5556
0dec
025c
cafe
3c19
5556
0dec
0249
cafe
2001
5556
0dec
02a5
cafe
2411
5556
0df0
0299
cafe
280a
5556
0df0
01e1
cafe
2c1a
5556
0df0
0221
cafe
3002
5556
0df0
036b
cafe
3412
5556
0df4
01cb
cafe
380b
5556
0df4
0285
cafe
3c1b
5556
0df4
0248
cafe
2003
5556
0df4
0226
cafe
2413
5556
0df8
02a1
cafe
280c
5556
0df8
01f0
cafe
2c1c
5556
0df8
0234
cafe
3004
5556
0df8
0337
cafe
3414
5556
0dfc
02a7
cafe
380d
5556
0dfc
0299
cafe
3c1d
5556
0dfc
-
028d
cafe
2005
5556
0dfc
0251
cafe
2415
5556
0e00
02fd
cafe
280e
5556
0e00
01e7
cafe
2c1e
5556
0e00
02a1
cafe
3006
5556
0e00
02cc
cafe
3416
5556
0e04
01d1
cafe
380f
5556
0e04
016e
cafe
3c1f
5556
0e04
02c9
cafe
2007
5556
0e04
02e9
cafe
2417
5556
0e08
0253
cafe
2808
5556
0e08
02b5
cafe
2c18
5556
0e08
02c2
cafe
3000
5556
0e08
01f6
cafe
3410
5556
0e0c
0239
cafe
3809
5556
0e0c
0233
cafe
3c19
5556
0e0c
0233
cafe
2001
5556
0e0c
028f
cafe
2411
5556
0e10
0275
cafe
280a
5556
0e10
01e3
cafe
2c1a
5556
0e10
01fe
cafe
3002
5556
0e10
0354
cafe
3412
5556
0e14
01c3
cafe
380b
5556
0e14
025c
cafe
3c1b
5556
0e14
0243
cafe
2003
5556
0e14
0225
cafe
2413
5556
0e18
0287
cafe
280c
5556
0e18
01cb
cafe
2c1c
5556
0e18
021f
cafe
3004
5556
0e18
031a
cafe
3414
5556
0e1c
0284
cafe
380d
5556
0e1c
0289
cafe
3c1d
5556
0e1c
0281
cafe
2005
5556
0e1c
0243
cafe
2415
5556
0e20
02ee
cafe
280e
5556
0e20
01db
cafe
2c1e
5556
0e20
0285
cafe
3006
5556
0e20
02b8
cafe
3416
5556
0e24
01a6
cafe
380f
5556
0e24
0166
cafe
3c1f
5556
0e24
02aa
cafe
2007
5556
0e24
02da
cafe
2417
5556
0e28
024e
cafe
2808
5556
0e28
028b
cafe
2c18
5556
0e28
029b
cafe
3000
5556
0e28
01e9
cafe
3410
5556
0e2c
0230
cafe
3809
5556
0e2c
0227
cafe
3c19
5556
0e2c
021a
cafe
2001
5556
0e2c
0279
cafe
2411
5556
0e30
024e
cafe
280a
5556
0e30
01df
-
cafe
2c1a
5556
0e30
01ed
cafe
3002
5556
0e30
034d
cafe
3412
5556
0e34
01a5
cafe
380b
5556
0e34
0262
cafe
3c1b
5556
0e34
0236
cafe
2003
5556
0e34
021c
cafe
2413
5556
0e38
0266
cafe
280c
5556
0e38
01bc
cafe
2c1c
5556
0e38
020d
cafe
3004
5556
0e38
031c
cafe
3414
5556
0e3c
027a
cafe
380d
5556
0e3c
026c
cafe
3c1d
5556
0e3c
0260
cafe
2005
5556
0e3c
022b
cafe
2415
5556
0e40
02d3
cafe
280e
5556
0e40
01ca
cafe
2c1e
5556
0e40
026d
cafe
3006
5556
0e40
02b1
cafe
3416
5556
0e44
01a7
cafe
380f
5556
0e44
0152
cafe
3c1f
5556
0e44
02a8
cafe
2007
5556
0e44
02c0
cafe
2417
5556
0e48
022c
cafe
2808
5556
0e48
027e
cafe
2c18
5556
0e48
028a
cafe
3000
5556
0e48
01c9
cafe
3410
5556
0e4c
021d
cafe
3809
5556
0e4c
020f
cafe
3c19
5556
0e4c
0215
cafe
2001
5556
0e4c
0270
cafe
2411
5556
0e50
0245
cafe
280a
5556
0e50
01bd
cafe
2c1a
5556
0e50
01d9
cafe
3002
5556
0e50
0331
cafe
3412
5556
0e54
0192
cafe
380b
5556
0e54
0249
cafe
3c1b
5556
0e54
0220
cafe
2003
5556
0e54
0208
cafe
2413
5556
0e58
0258
cafe
280c
5556
0e58
01a9
cafe
2c1c
5556
0e58
020d
cafe
3004
5556
0e58
0301
cafe
3414
5556
0e5c
0268
cafe
380d
5556
0e5c
0258
cafe
3c1d
5556
0e5c
0257
cafe
2005
5556
0e5c
0219
cafe
2415
5556
0e60
02cb
cafe
280e
5556
0e60
01b3
cafe
2c1e
5556
0e60
0247
cafe
3006
5556
0e60
029d
cafe
3416
5556
0e64
019b
cafe
-
380f
5556
0e64
014f
cafe
3c1f
5556
0e64
028f
cafe
2007
5556
0e64
02b5
cafe
2417
5556
0e68
0217
cafe
2808
5556
0e68
0253
cafe
2c18
5556
0e68
028d
cafe
3000
5556
0e68
01b3
cafe
3410
5556
0e6c
020f
cafe
3809
5556
0e6c
0204
cafe
3c19
5556
0e6c
01fb
cafe
2001
5556
0e6c
025f
cafe
2411
5556
0e70
0233
cafe
280a
5556
0e70
01ad
cafe
2c1a
5556
0e70
01d4
cafe
3002
5556
0e70
0318
cafe
3412
5556
0e74
018f
cafe
380b
5556
0e74
0239
cafe
3c1b
5556
0e74
0211
cafe
2003
5556
0e74
01f9
cafe
2413
5556
0e78
0239
cafe
280c
5556
0e78
018f
cafe
2c1c
5556
0e78
01e6
cafe
3004
5556
0e78
02f0
cafe
3414
5556
0e7c
0243
cafe
380d
5556
0e7c
0241
cafe
3c1d
5556
0e7c
0244
cafe
2005
5556
0e7c
0204
cafe
2415
5556
0e80
02c9
cafe
280e
5556
0e80
0194
cafe
2c1e
5556
0e80
0245
cafe
3006
5556
0e80
0284
cafe
3416
5556
0e84
017c
cafe
380f
5556
0e84
011d
cafe
3c1f
5556
0e84
027b
cafe
2007
5556
0e84
0299
cafe
2417
5556
0e88
0214
cafe
2808
5556
0e88
0254
cafe
2c18
5556
0e88
0278
cafe
3000
5556
0e88
01ad
cafe
3410
5556
0e8c
0201
cafe
3809
5556
0e8c
0215
cafe
3c19
5556
0e8c
01f0
cafe
2001
5556
0e8c
0250
cafe
2411
5556
0e90
0238
cafe
280a
5556
0e90
019c
cafe
2c1a
5556
0e90
01b1
cafe
3002
5556
0e90
031b
cafe
3412
5556
0e94
0173
cafe
380b
5556
0e94
021f
cafe
3c1b
5556
0e94
01f6
cafe
2003
5556
0e94
01db
cafe
2413
-
5556
0e98
0235
cafe
280c
5556
0e98
0182
cafe
2c1c
5556
0e98
01e5
cafe
3004
5556
0e98
02e0
cafe
3414
5556
0e9c
0239
cafe
380d
5556
0e9c
023d
cafe
3c1d
5556
0e9c
0234
cafe
2005
5556
0e9c
01e4
cafe
2415
5556
0ea0
02b2
cafe
280e
5556
0ea0
018c
cafe
2c1e
5556
0ea0
023b
cafe
3006
5556
0ea0
027b
cafe
3416
5556
0ea4
0178
cafe
380f
5556
0ea4
0126
cafe
3c1f
5556
0ea4
0271
cafe
2007
5556
0ea4
0291
cafe
2417
5556
0ea8
01fe
cafe
2808
5556
0ea8
0241
cafe
2c18
5556
0ea8
026d
cafe
3000
5556
0ea8
019b
cafe
3410
5556
0eac
01e9
cafe
3809
5556
0eac
01ea
cafe
3c19
5556
0eac
01d6
cafe
2001
5556
0eac
0240
cafe
2411
5556
0eb0
0222
cafe
280a
5556
0eb0
018a
cafe
2c1a
5556
0eb0
01b6
cafe
3002
5556
0eb0
0307
cafe
3412
5556
0eb4
017f
cafe
380b
5556
0eb4
0224
cafe
3c1b
5556
0eb4
01f2
cafe
2003
5556
0eb4
01cf
cafe
2413
5556
0eb8
0238
cafe
280c
5556
0eb8
0179
cafe
2c1c
5556
0eb8
01dc
cafe
3004
5556
0eb8
02e0
cafe
3414
5556
0ebc
022e
cafe
380d
5556
0ebc
0231
cafe
3c1d
5556
0ebc
0230
cafe
2005
5556
0ebc
01ea
cafe
2415
5556
0ec0
02a6
cafe
280e
5556
0ec0
0190
cafe
2c1e
5556
0ec0
0226
cafe
3006
5556
0ec0
0266
cafe
3416
5556
0ec4
0165
cafe
380f
5556
0ec4
0114
cafe
3c1f
5556
0ec4
026b
cafe
2007
5556
0ec4
029b
cafe
2417
5556
0ec8
0205
cafe
2808
5556
0ec8
0240
cafe
2c18
5556
0ec8
025d
cafe
3000
5556
-
0ec8
0194
cafe
3410
5556
0ecc
01da
cafe
3809
5556
0ecc
01cf
cafe
3c19
5556
0ecc
01cb
cafe
2001
5556
0ecc
0233
cafe
2411
5556
0ed0
0210
cafe
280a
5556
0ed0
0197
cafe
2c1a
5556
0ed0
01a6
cafe
3002
5556
0ed0
02f9
cafe
3412
5556
0ed4
0167
cafe
380b
5556
0ed4
0216
cafe
3c1b
5556
0ed4
01ed
cafe
2003
5556
0ed4
01c2
cafe
2413
5556
0ed8
022d
cafe
280c
5556
0ed8
0180
cafe
2c1c
5556
0ed8
01c0
cafe
3004
5556
0ed8
02cf
cafe
3414
5556
0edc
0229
cafe
380d
5556
0edc
0225
cafe
3c1d
5556
0edc
0228
cafe
2005
5556
0edc
01da
cafe
2415
5556
0ee0
02b0
cafe
280e
5556
0ee0
0182
cafe
2c1e
5556
0ee0
022f
cafe
3006
5556
0ee0
0269
cafe
3416
5556
0ee4
015d
cafe
380f
5556
0ee4
0129
cafe
3c1f
5556
0ee4
0251
cafe
2007
5556
0ee4
027c
cafe
2417
5556
0ee8
01e9
cafe
2808
5556
0ee8
0231
cafe
2c18
5556
0ee8
0246
cafe
3000
5556
0ee8
017b
cafe
3410
5556
0eec
01c4
cafe
3809
5556
0eec
01c9
cafe
3c19
5556
0eec
01bd
cafe
2001
5556
0eec
0221
cafe
2411
5556
0ef0
01ed
cafe
280a
5556
0ef0
017a
cafe
2c1a
5556
0ef0
0197
cafe
3002
5556
0ef0
02d8
cafe
3412
5556
0ef4
0163
cafe
380b
5556
0ef4
01f3
cafe
3c1b
5556
0ef4
01e1
cafe
2003
5556
0ef4
01c4
cafe
2413
5556
0ef8
01ff
cafe
280c
5556
0ef8
015f
cafe
2c1c
5556
0ef8
01be
cafe
3004
5556
0ef8
02b3
cafe
3414
5556
0efc
0219
cafe
380d
5556
0efc
0203
cafe
3c1d
5556
0efc
-
0203
cafe
2005
5556
0efc
01dd
cafe
2415
5556
0f00
0285
cafe
280e
5556
0f00
017d
cafe
2c1e
5556
0f00
020d
cafe
3006
5556
0f00
0258
cafe
3416
5556
0f04
015a
cafe
380f
5556
0f04
0113
cafe
3c1f
5556
0f04
0247
cafe
2007
5556
0f04
026e
cafe
2417
5556
0f08
01df
cafe
2808
5556
0f08
0219
cafe
2c18
5556
0f08
0236
cafe
3000
5556
0f08
017c
cafe
3410
5556
0f0c
01c1
cafe
3809
5556
0f0c
01bc
cafe
3c19
5556
0f0c
01c8
cafe
2001
5556
0f0c
0218
cafe
2411
5556
0f10
01ff
cafe
280a
5556
0f10
0188
cafe
2c1a
5556
0f10
01a1
cafe
3002
5556
0f10
02dc
cafe
3412
5556
0f14
0152
cafe
380b
5556
0f14
01f1
cafe
3c1b
5556
0f14
01ed
cafe
2003
5556
0f14
01ba
cafe
2413
5556
0f18
020f
cafe
280c
5556
0f18
014c
cafe
2c1c
5556
0f18
01bb
cafe
3004
5556
0f18
02aa
cafe
3414
5556
0f1c
0209
cafe
380d
5556
0f1c
0205
cafe
3c1d
5556
0f1c
020d
cafe
2005
5556
0f1c
01ce
cafe
2415
5556
0f20
027d
cafe
280e
5556
0f20
0176
cafe
2c1e
5556
0f20
0216
cafe
3006
5556
0f20
0240
cafe
3416
5556
0f24
014a
cafe
380f
5556
0f24
0117
cafe
3c1f
5556
0f24
024f
cafe
2007
5556
0f24
0261
cafe
2417
5556
0f28
01df
cafe
2808
5556
0f28
0214
cafe
2c18
5556
0f28
0232
cafe
3000
5556
0f28
0170
cafe
3410
5556
0f2c
01bb
cafe
3809
5556
0f2c
01de
cafe
3c19
5556
0f2c
01ab
cafe
2001
5556
0f2c
020c
cafe
2411
5556
0f30
01f4
cafe
280a
5556
0f30
0179
-
cafe
2c1a
5556
0f30
01a2
cafe
3002
5556
0f30
02e1
cafe
3412
5556
0f34
0156
cafe
380b
5556
0f34
01d9
cafe
3c1b
5556
0f34
01d3
cafe
2003
5556
0f34
01b9
cafe
2413
5556
0f38
0202
cafe
280c
5556
0f38
013d
cafe
2c1c
5556
0f38
01aa
cafe
3004
5556
0f38
02b0
cafe
3414
5556
0f3c
01f7
cafe
380d
5556
0f3c
0200
cafe
3c1d
5556
0f3c
01fc
cafe
2005
5556
0f3c
01c6
cafe
2415
5556
0f40
0263
cafe
280e
5556
0f40
016c
cafe
2c1e
5556
0f40
0216
cafe
3006
5556
0f40
0255
cafe
3416
5556
0f44
014c
cafe
380f
5556
0f44
0108
cafe
3c1f
5556
0f44
023b
cafe
2007
5556
0f44
024e
cafe
2417
5556
0f48
01dd
cafe
2808
5556
0f48
0212
cafe
2c18
5556
0f48
0231
cafe
3000
5556
0f48
0158
cafe
3410
5556
0f4c
01c4
cafe
3809
5556
0f4c
01b1
cafe
3c19
5556
0f4c
01a6
cafe
2001
5556
0f4c
0201
cafe
2411
5556
0f50
01cb
cafe
280a
5556
0f50
016d
cafe
2c1a
5556
0f50
017f
cafe
3002
5556
0f50
02b7
cafe
3412
5556
0f54
0128
cafe
380b
5556
0f54
01e4
cafe
3c1b
5556
0f54
01cf
cafe
2003
5556
0f54
01b7
cafe
2413
5556
0f58
01fd
cafe
280c
5556
0f58
0152
cafe
2c1c
5556
0f58
0199
cafe
3004
5556
0f58
02a5
cafe
3414
5556
0f5c
0210
cafe
380d
5556
0f5c
0205
cafe
3c1d
5556
0f5c
01f4
cafe
2005
5556
0f5c
01bf
cafe
2415
5556
0f60
026f
cafe
280e
5556
0f60
0157
cafe
2c1e
5556
0f60
0219
cafe
3006
5556
0f60
022e
cafe
3416
5556
0f64
013d
cafe
-
380f
5556
0f64
00ea
cafe
3c1f
5556
0f64
0223
cafe
2007
5556
0f64
0247
cafe
2417
5556
0f68
01b7
cafe
2808
5556
0f68
020c
cafe
2c18
5556
0f68
021c
cafe
3000
5556
0f68
015f
cafe
3410
5556
0f6c
01b0
cafe
3809
5556
0f6c
01a9
cafe
3c19
5556
0f6c
01a9
cafe
2001
5556
0f6c
020e
cafe
2411
5556
0f70
01d0
cafe
280a
5556
0f70
0155
cafe
2c1a
5556
0f70
016b
cafe
3002
5556
0f70
02b0
cafe
3412
5556
0f74
011b
cafe
380b
5556
0f74
01d6
cafe
3c1b
5556
0f74
01b7
cafe
2003
5556
0f74
01a4
cafe
2413
5556
0f78
01f3
cafe
280c
5556
0f78
012e
cafe
2c1c
5556
0f78
0191
cafe
3004
5556
0f78
029b
cafe
3414
5556
0f7c
0205
cafe
380d
5556
0f7c
01f3
cafe
3c1d
5556
0f7c
01fa
cafe
2005
5556
0f7c
01b8
cafe
2415
5556
0f80
024f
cafe
280e
5556
0f80
0159
cafe
2c1e
5556
0f80
0201
cafe
3006
5556
0f80
0231
cafe
3416
5556
0f84
013a
cafe
380f
5556
0f84
00f9
cafe
3c1f
5556
0f84
0227
cafe
2007
5556
0f84
0255
cafe
2417
5556
0f88
01b8
cafe
2808
5556
0f88
020b
cafe
2c18
5556
0f88
021f
cafe
3000
5556
0f88
0151
cafe
3410
5556
0f8c
01a5
cafe
3809
5556
0f8c
01a0
cafe
3c19
5556
0f8c
0194
cafe
2001
5556
0f8c
01fc
cafe
2411
5556
0f90
01d6
cafe
280a
5556
0f90
015a
cafe
2c1a
5556
0f90
016b
cafe
3002
5556
0f90
02c1
cafe
3412
5556
0f94
0129
cafe
380b
5556
0f94
01c5
cafe
3c1b
5556
0f94
01b4
cafe
2003
5556
0f94
018e
cafe
2413
-
5556
0f98
01d9
cafe
280c
5556
0f98
0138
cafe
2c1c
5556
0f98
0199
cafe
3004
5556
0f98
029b
cafe
3414
5556
0f9c
01f2
cafe
380d
5556
0f9c
01ec
cafe
3c1d
5556
0f9c
01e3
cafe
2005
5556
0f9c
01a6
cafe
2415
5556
0fa0
025c
cafe
280e
5556
0fa0
0147
cafe
2c1e
5556
0fa0
01fa
cafe
3006
5556
0fa0
0211
cafe
3416
5556
0fa4
0135
cafe
380f
5556
0fa4
00ee
cafe
3c1f
5556
0fa4
021f
cafe
2007
5556
0fa4
023a
cafe
2417
5556
0fa8
01ba
cafe
2808
5556
0fa8
0201
cafe
2c18
5556
0fa8
0222
cafe
3000
5556
0fa8
0152
cafe
3410
5556
0fac
01b1
cafe
3809
5556
0fac
0199
cafe
3c19
5556
0fac
0186
cafe
2001
5556
0fac
01e7
cafe
2411
5556
0fb0
01de
cafe
280a
5556
0fb0
0164
cafe
2c1a
5556
0fb0
0172
cafe
3002
5556
0fb0
02bd
cafe
3412
5556
0fb4
012e
cafe
380b
5556
0fb4
01c6
cafe
3c1b
5556
0fb4
01a1
cafe
2003
5556
0fb4
018f
cafe
2413
5556
0fb8
01e1
cafe
280c
5556
0fb8
0132
cafe
2c1c
5556
0fb8
0186
cafe
3004
5556
0fb8
0299
cafe
3414
5556
0fbc
01e2
cafe
380d
5556
0fbc
01d9
cafe
3c1d
5556
0fbc
01e6
cafe
2005
5556
0fbc
0197
cafe
2415
5556
0fc0
0240
cafe
280e
5556
0fc0
0132
cafe
2c1e
5556
0fc0
01df
cafe
3006
5556
0fc0
0220
cafe
3416
5556
0fc4
0135
cafe
380f
5556
0fc4
00e7
cafe
3c1f
5556
0fc4
0226
cafe
2007
5556
0fc4
0236
cafe
2417
5556
0fc8
01b8
cafe
2808
5556
0fc8
0203
cafe
2c18
5556
0fc8
021f
cafe
3000
5556
-
0fc8
015b
cafe
3410
5556
0fcc
01ab
cafe
3809
5556
0fcc
018d
cafe
3c19
5556
0fcc
0189
cafe
2001
5556
0fcc
01ef
cafe
2411
5556
0fd0
01dd
cafe
280a
5556
0fd0
0152
cafe
2c1a
5556
0fd0
015d
cafe
3002
5556
0fd0
02b4
cafe
3412
5556
0fd4
0131
cafe
380b
5556
0fd4
01bd
cafe
3c1b
5556
0fd4
01ba
cafe
2003
5556
0fd4
017a
cafe
2413
5556
0fd8
01ed
cafe
280c
5556
0fd8
012e
cafe
2c1c
5556
0fd8
0170
cafe
3004
5556
0fd8
0290
cafe
3414
5556
0fdc
01df
cafe
380d
5556
0fdc
01dd
cafe
3c1d
5556
0fdc
01cf
cafe
2005
5556
0fdc
019b
cafe
2415
5556
0fe0
024b
cafe
280e
5556
0fe0
0136
cafe
2c1e
5556
0fe0
01e3
cafe
3006
5556
0fe0
0208
cafe
3416
5556
0fe4
0123
cafe
380f
5556
0fe4
00d2
cafe
3c1f
5556
0fe4
021f
cafe
2007
5556
0fe4
0231
cafe
2417
5556
0fe8
01b3
cafe
2808
5556
0fe8
01fa
cafe
2c18
5556
0fe8
020f
cafe
3000
5556
0fe8
0152
cafe
3410
5556
0fec
018d
cafe
3809
5556
0fec
018c
cafe
3c19
5556
0fec
0186
cafe
2001
5556
0fec
01ec
cafe
2411
5556
0ff0
01c8
cafe
280a
5556
0ff0
0147
cafe
2c1a
5556
0ff0
014d
cafe
3002
5556
0ff0
02a9
cafe
3412
5556
0ff4
011b
cafe
380b
5556
0ff4
01bf
cafe
3c1b
5556
0ff4
01b8
cafe
2003
5556
0ff4
0183
cafe
2413
5556
0ff8
01d4
cafe
280c
5556
0ff8
013c
cafe
2c1c
5556
0ff8
018f
cafe
3004
5556
0ff8
0293
cafe
3414
5556
0ffc
01cf
cafe
380d
5556
0ffc
01d8
cafe
3c1d
5556
0ffc
-
01d5
cafe
2005
5556
0ffc
019d
cafe
2415
5556
1000
024a
cafe
280e
5556
1000
0147
cafe
2c1e
5556
1000
01e9
cafe
3006
5556
1000
0225
cafe
3416
5556
1004
0121
cafe
380f
5556
1004
00e1
cafe
3c1f
5556
1004
0215
cafe
2007
5556
1004
023b
cafe
2417
5556
1008
01a7
cafe
2808
5556
1008
01ef
cafe
2c18
5556
1008
0203
cafe
3000
5556
1008
0149
cafe
3410
5556
100c
0193
cafe
3809
5556
100c
018e
cafe
3c19
5556
100c
018e
cafe
2001
5556
100c
01ee
cafe
2411
5556
1010
01bf
cafe
280a
5556
1010
0137
cafe
2c1a
5556
1010
0166
cafe
3002
5556
1010
0293
cafe
3412
5556
1014
0123
cafe
380b
5556
1014
01b9
cafe
3c1b
5556
1014
019e
cafe
2003
5556
1014
0186
cafe
2413
5556
1018
01cd
cafe
280c
5556
1018
0129
cafe
2c1c
5556
1018
0183
cafe
3004
5556
1018
0285
cafe
3414
5556
101c
01ec
cafe
380d
5556
101c
01de
cafe
3c1d
5556
101c
01d1
cafe
2005
5556
101c
018d
cafe
2415
5556
1020
0247
cafe
280e
5556
1020
0135
cafe
2c1e
5556
1020
01da
cafe
3006
5556
1020
0217
cafe
3416
5556
1024
0117
cafe
380f
5556
1024
00d5
cafe
3c1f
5556
1024
020f
cafe
2007
5556
1024
0233
cafe
2417
5556
1028
01a4
cafe
2808
5556
1028
01eb
cafe
2c18
5556
1028
0214
cafe
3000
5556
1028
0152
cafe
3410
5556
102c
0185
cafe
3809
5556
102c
018d
cafe
3c19
5556
102c
0178
cafe
2001
5556
102c
01d7
cafe
2411
5556
1030
01b9
cafe
280a
5556
1030
0131
-
cafe
2c1a
5556
1030
014e
cafe
3002
5556
1030
0283
cafe
3412
5556
1034
011c
cafe
380b
5556
1034
01ab
cafe
3c1b
5556
1034
019f
cafe
2003
5556
1034
018e
cafe
2413
5556
1038
01c6
cafe
280c
5556
1038
0111
cafe
2c1c
5556
1038
0188
cafe
3004
5556
1038
0271
cafe
3414
5556
103c
01d1
cafe
380d
5556
103c
01d2
cafe
3c1d
5556
103c
01cd
cafe
2005
5556
103c
0190
cafe
2415
5556
1040
0238
cafe
280e
5556
1040
012e
cafe
2c1e
5556
1040
01ce
cafe
3006
5556
1040
020d
cafe
3416
5556
1044
0132
cafe
380f
5556
1044
00d2
cafe
3c1f
5556
1044
0207
cafe
2007
5556
1044
021b
cafe
2417
5556
1048
018c
cafe
2808
5556
1048
01e9
cafe
2c18
5556
1048
0202
cafe
3000
5556
1048
0143
cafe
3410
5556
104c
0199
cafe
3809
5556
104c
0188
cafe
3c19
5556
104c
0173
cafe
2001
5556
104c
01d5
cafe
2411
5556
1050
01af
cafe
280a
5556
1050
013a
cafe
2c1a
5556
1050
0148
cafe
3002
5556
1050
0297
cafe
3412
5556
1054
0119
cafe
380b
5556
1054
01a3
cafe
3c1b
5556
1054
01a9
cafe
2003
5556
1054
017f
cafe
2413
5556
1058
01c5
cafe
280c
5556
1058
011f
cafe
2c1c
5556
1058
017b
cafe
3004
5556
1058
026b
cafe
3414
5556
105c
01d5
cafe
380d
5556
105c
01c1
cafe
3c1d
5556
105c
01d7
cafe
2005
5556
105c
0181
cafe
2415
5556
1060
0239
cafe
280e
5556
1060
0138
cafe
2c1e
5556
1060
01df
cafe
3006
5556
1060
0204
cafe
3416
5556
1064
0129
cafe
-
