280e
5556
1340
01b5
cafe
2c1e
5556
1340
0186
cafe
3006
5556
1340
01de
cafe
3416
5556
1344
0193
cafe
380f
5556
1344
01a7
cafe
3c1f
5556
1344
0101
cafe
2007
5556
1344
01eb
cafe
2417
5556
1348
00f0
cafe
2808
5556
1348
01a6
cafe
2c18
5556
1348
0217
cafe
3000
5556
1348
01bd
cafe
3410
5556
134c
0181
cafe
3809
5556
134c
015b
cafe
3c19
5556
134c
01ae
cafe
2001
5556
134c
01b9
cafe
2411
5556
1350
0164
cafe
280a
5556
1350
01f5
cafe
2c1a
5556
1350
019e
cafe
3002
5556
1350
0217
cafe
3412
5556
1354
0142
cafe
380b
5556
1354
018f
cafe
3c1b
5556
1354
010a
cafe
2003
5556
1354
0229
cafe
2413
5556
1358
022d
cafe
280c
5556
1358
019e
cafe
2c1c
5556
1358
01ed
cafe
3004
5556
1358
0173
cafe
3414
5556
135c
0171
cafe
380d
5556
135c
017f
cafe
3c1d
5556
135c
017e
cafe
2005
5556
135c
0216
cafe
2415
5556
1360
0155
cafe
280e
5556
1360
01a2
cafe
2c1e
5556
1360
0161
cafe
3006
5556
1360
01db
cafe
3416
5556
1364
01a1
cafe
380f
5556
1364
01a2
cafe
3c1f
5556
1364
010f
cafe
2007
5556
1364
01d3
cafe
2417
5556
1368
00e8
cafe
2808
5556
1368
01b3
cafe
2c18
5556
1368
021e
cafe
3000
5556
1368
01bb
cafe
3410
5556
136c
0185
cafe
3809
5556
136c
015d
cafe
3c19
5556
136c
01b5
cafe
2001
5556
136c
01b5
cafe
2411
5556
1370
017c
cafe
280a
5556
1370
020f
cafe
2c1a
5556
1370
01ae
cafe
3002
5556
1370
021b
cafe
3412
-
5556
1374
0156
cafe
380b
5556
1374
0196
cafe
3c1b
5556
1374
0113
cafe
2003
5556
1374
0232
cafe
2413
5556
1378
0239
cafe
280c
5556
1378
019b
cafe
2c1c
5556
1378
01ed
cafe
3004
5556
1378
017f
cafe
3414
5556
137c
016e
cafe
380d
5556
137c
0191
cafe
3c1d
5556
137c
0170
cafe
2005
5556
137c
0211
cafe
2415
5556
1380
0156
cafe
280e
5556
1380
0198
cafe
2c1e
5556
1380
017f
cafe
3006
5556
1380
01d3
cafe
3416
5556
1384
0189
cafe
380f
5556
1384
01a1
cafe
3c1f
5556
1384
0116
cafe
2007
5556
1384
01e6
cafe
2417
5556
1388
00fd
cafe
2808
5556
1388
01ab
cafe
2c18
5556
1388
0220
cafe
3000
5556
1388
01d6
cafe
3410
5556
138c
0181
cafe
3809
5556
138c
0171
cafe
3c19
5556
138c
01bc
cafe
2001
5556
138c
01c2
cafe
2411
5556
1390
016f
cafe
280a
5556
1390
0202
cafe
2c1a
5556
1390
01a1
cafe
3002
5556
1390
020c
cafe
3412
5556
1394
0148
cafe
380b
5556
1394
0198
cafe
3c1b
5556
1394
0123
cafe
2003
5556
1394
0229
cafe
2413
5556
1398
0227
cafe
280c
5556
1398
01a7
cafe
2c1c
5556
1398
01f9
cafe
3004
5556
1398
017c
cafe
3414
5556
139c
0176
cafe
380d
5556
139c
0196
cafe
3c1d
5556
139c
0171
cafe
2005
5556
139c
020a
cafe
2415
5556
13a0
0170
cafe
280e
5556
13a0
01a3
cafe
2c1e
5556
13a0
016d
cafe
3006
5556
13a0
01d3
cafe
3416
5556
13a4
01a2
cafe
380f
5556
13a4
01a2
cafe
3c1f
5556
13a4
0104
cafe
2007
5556
-
13a4
01e6
cafe
2417
5556
13a8
00f7
cafe
2808
5556
13a8
01b2
cafe
2c18
5556
13a8
0223
cafe
3000
5556
13a8
01c2
cafe
3410
5556
13ac
0182
cafe
3809
5556
13ac
015f
cafe
3c19
5556
13ac
01a3
cafe
2001
5556
13ac
01bd
cafe
2411
5556
13b0
0165
cafe
280a
5556
13b0
01f7
cafe
2c1a
5556
13b0
01a1
cafe
3002
5556
13b0
0202
cafe
3412
5556
13b4
0130
cafe
380b
5556
13b4
018e
cafe
3c1b
5556
13b4
0117
cafe
2003
5556
13b4
0244
cafe
2413
5556
13b8
0235
cafe
280c
5556
13b8
01b6
cafe
2c1c
5556
13b8
01f9
cafe
3004
5556
13b8
0178
cafe
3414
5556
13bc
0165
cafe
380d
5556
13bc
0189
cafe
3c1d
5556
13bc
0170
cafe
2005
5556
13bc
020e
cafe
2415
5556
13c0
015b
cafe
280e
5556
13c0
0191
cafe
2c1e
5556
13c0
0175
cafe
3006
5556
13c0
01d3
cafe
3416
5556
13c4
0186
cafe
380f
5556
13c4
01a5
cafe
3c1f
5556
13c4
010e
cafe
2007
5556
13c4
01ee
cafe
2417
5556
13c8
0104
cafe
2808
5556
13c8
01b7
cafe
2c18
5556
13c8
0225
cafe
3000
5556
13c8
01af
cafe
3410
5556
13cc
0176
cafe
3809
5556
13cc
0154
cafe
3c19
5556
13cc
01c0
cafe
2001
5556
13cc
01c0
cafe
2411
5556
13d0
0173
cafe
280a
5556
13d0
0203
cafe
2c1a
5556
13d0
0188
cafe
3002
5556
13d0
020a
cafe
3412
5556
13d4
0146
cafe
380b
5556
13d4
0187
cafe
3c1b
5556
13d4
0112
cafe
2003
5556
13d4
0217
cafe
2413
5556
13d8
0233
cafe
280c
5556
13d8
01a7
cafe
2c1c
5556
13d8
-
0202
cafe
3004
5556
13d8
0165
cafe
3414
5556
13dc
0169
cafe
380d
5556
13dc
019d
cafe
3c1d
5556
13dc
016d
cafe
2005
5556
13dc
021d
cafe
2415
5556
13e0
0171
cafe
280e
5556
13e0
0199
cafe
2c1e
5556
13e0
017e
cafe
3006
5556
13e0
01de
cafe
3416
5556
13e4
0198
cafe
380f
5556
13e4
018f
cafe
3c1f
5556
13e4
00f9
cafe
2007
5556
13e4
01e7
cafe
2417
5556
13e8
00fc
cafe
2808
5556
13e8
01a2
cafe
2c18
5556
13e8
0222
cafe
3000
5556
13e8
01d5
cafe
3410
5556
13ec
0188
cafe
3809
5556
13ec
014b
cafe
3c19
5556
13ec
01b3
cafe
2001
5556
13ec
01ba
cafe
2411
5556
13f0
015f
cafe
280a
5556
13f0
01fb
cafe
2c1a
5556
13f0
0195
cafe
3002
5556
13f0
020b
cafe
3412
5556
13f4
0129
cafe
380b
5556
13f4
018c
cafe
3c1b
5556
13f4
0111
cafe
2003
5556
13f4
021a
cafe
2413
5556
13f8
023b
cafe
280c
5556
13f8
01a7
cafe
2c1c
5556
13f8
0201
cafe
3004
5556
13f8
017a
cafe
3414
5556
13fc
016b
cafe
380d
5556
13fc
019a
cafe
3c1d
5556
13fc
0176
cafe
2005
5556
13fc
0214
cafe
2415
5556
1400
0166
cafe
280e
5556
1400
01b1
cafe
2c1e
5556
1400
017a
cafe
3006
5556
1400
01e2
cafe
3416
5556
1404
018c
cafe
380f
5556
1404
01a7
cafe
3c1f
5556
1404
0116
cafe
2007
5556
1404
01fa
cafe
2417
5556
1408
0111
cafe
2808
5556
1408
019d
cafe
2c18
5556
1408
021b
cafe
3000
5556
1408
01bb
cafe
3410
5556
140c
0188
cafe
3809
5556
140c
014e
-
cafe
3c19
5556
140c
01bb
cafe
2001
5556
140c
01ba
cafe
2411
5556
1410
015a
cafe
280a
5556
1410
0209
cafe
2c1a
5556
1410
0198
cafe
3002
5556
1410
01f9
cafe
3412
5556
1414
0129
cafe
380b
5556
1414
016f
cafe
3c1b
5556
1414
0103
cafe
2003
5556
1414
021c
cafe
2413
5556
1418
0227
cafe
280c
5556
1418
0197
cafe
2c1c
5556
1418
01ef
cafe
3004
5556
1418
0179
cafe
3414
5556
141c
0166
cafe
380d
5556
141c
0191
cafe
3c1d
5556
141c
017a
cafe
2005
5556
141c
0213
cafe
2415
5556
1420
0165
cafe
280e
5556
1420
019a
cafe
2c1e
5556
1420
0178
cafe
3006
5556
1420
01b7
cafe
3416
5556
1424
018f
cafe
380f
5556
1424
019c
cafe
3c1f
5556
1424
010e
cafe
2007
5556
1424
01f5
cafe
2417
5556
1428
00f9
cafe
2808
5556
1428
019e
cafe
2c18
5556
1428
021f
cafe
3000
5556
1428
01c3
cafe
3410
5556
142c
018f
cafe
3809
5556
142c
016b
cafe
3c19
5556
142c
01ab
cafe
2001
5556
142c
01c6
cafe
2411
5556
1430
017c
cafe
280a
5556
1430
0206
cafe
2c1a
5556
1430
0199
cafe
3002
5556
1430
01f9
cafe
3412
5556
1434
0134
cafe
380b
5556
1434
0184
cafe
3c1b
5556
1434
0118
cafe
2003
5556
1434
022c
cafe
2413
5556
1438
0232
cafe
280c
5556
1438
01b5
cafe
2c1c
5556
1438
01e3
cafe
3004
5556
1438
0172
cafe
3414
5556
143c
0164
cafe
380d
5556
143c
019e
cafe
3c1d
5556
143c
016e
cafe
2005
5556
143c
020d
cafe
2415
5556
1440
0161
cafe
-
280e
5556
1440
01ad
cafe
2c1e
5556
1440
017d
cafe
3006
5556
1440
01e3
cafe
3416
5556
1444
0190
cafe
380f
5556
1444
01ac
cafe
3c1f
5556
1444
010c
cafe
2007
5556
1444
01d7
cafe
2417
5556
1448
00f9
cafe
2808
5556
1448
0196
cafe
2c18
5556
1448
020c
cafe
3000
5556
1448
01b2
cafe
3410
5556
144c
0180
cafe
3809
5556
144c
016e
cafe
3c19
5556
144c
01bb
cafe
2001
5556
144c
01d2
cafe
2411
5556
1450
0172
cafe
280a
5556
1450
01ff
cafe
2c1a
5556
1450
019b
cafe
3002
5556
1450
0205
cafe
3412
5556
1454
013e
cafe
380b
5556
1454
0181
cafe
3c1b
5556
1454
0119
cafe
2003
5556
1454
0216
cafe
2413
5556
1458
0237
cafe
280c
5556
1458
01a9
cafe
2c1c
5556
1458
01eb
cafe
3004
5556
1458
0164
cafe
3414
5556
145c
015d
cafe
380d
5556
145c
018e
cafe
3c1d
5556
145c
016d
cafe
2005
5556
145c
020d
cafe
2415
5556
1460
015f
cafe
280e
5556
1460
0195
cafe
2c1e
5556
1460
0186
cafe
3006
5556
1460
01c5
cafe
3416
5556
1464
0193
cafe
380f
5556
1464
01c2
cafe
3c1f
5556
1464
0105
cafe
2007
5556
1464
01f5
cafe
2417
5556
1468
00f7
cafe
2808
5556
1468
01a0
cafe
2c18
5556
1468
0215
cafe
3000
5556
1468
01b7
cafe
3410
5556
146c
017b
cafe
3809
5556
146c
0160
cafe
3c19
5556
146c
01b9
cafe
2001
5556
146c
01cc
cafe
2411
5556
1470
0184
cafe
280a
5556
1470
0208
cafe
2c1a
5556
1470
019a
cafe
3002
5556
1470
01fd
cafe
3412
-
5556
1474
0139
cafe
380b
5556
1474
0184
cafe
3c1b
5556
1474
0100
cafe
2003
5556
1474
0227
cafe
2413
5556
1478
023b
cafe
280c
5556
1478
019c
cafe
2c1c
5556
1478
01ff
cafe
3004
5556
1478
016e
cafe
3414
5556
147c
0171
cafe
380d
5556
147c
019f
cafe
3c1d
5556
147c
0174
cafe
2005
5556
147c
0213
cafe
2415
5556
1480
0160
cafe
280e
5556
1480
0197
cafe
2c1e
5556
1480
0170
cafe
3006
5556
1480
01d6
cafe
3416
5556
1484
0199
cafe
380f
5556
1484
01aa
cafe
3c1f
5556
1484
0103
cafe
2007
5556
1484
01fd
cafe
2417
5556
1488
00f2
cafe
2808
5556
1488
019d
cafe
2c18
5556
1488
0217
cafe
3000
5556
1488
01ac
cafe
3410
5556
148c
018a
cafe
3809
5556
148c
0151
cafe
3c19
5556
148c
01aa
cafe
2001
5556
148c
01bf
cafe
2411
5556
1490
016d
cafe
280a
5556
1490
01f7
cafe
2c1a
5556
1490
01a2
cafe
3002
5556
1490
0200
cafe
3412
5556
1494
0141
cafe
380b
5556
1494
0175
cafe
3c1b
5556
1494
0108
cafe
2003
5556
1494
022b
cafe
2413
5556
1498
0237
cafe
280c
5556
1498
01a3
cafe
2c1c
5556
1498
01ed
cafe
3004
5556
1498
0165
cafe
3414
5556
149c
0163
cafe
380d
5556
149c
01a5
cafe
3c1d
5556
149c
017a
cafe
2005
5556
149c
020e
cafe
2415
5556
14a0
0159
cafe
280e
5556
14a0
018e
cafe
2c1e
5556
14a0
0172
cafe
3006
5556
14a0
01bf
cafe
3416
5556
14a4
0194
cafe
380f
5556
14a4
01a1
cafe
3c1f
5556
14a4
0106
cafe
2007
5556
-
14a4
01f8
cafe
2417
5556
14a8
0100
cafe
2808
5556
14a8
019e
cafe
2c18
5556
14a8
0217
cafe
3000
5556
14a8
01ab
cafe
3410
5556
14ac
0176
cafe
3809
5556
14ac
0159
cafe
3c19
5556
14ac
01a3
cafe
2001
5556
14ac
01b5
cafe
2411
5556
14b0
0151
cafe
280a
5556
14b0
01db
cafe
2c1a
5556
14b0
019f
cafe
3002
5556
14b0
0211
cafe
3412
5556
14b4
013d
cafe
380b
5556
14b4
0194
cafe
3c1b
5556
14b4
0107
cafe
2003
5556
14b4
0228
cafe
2413
5556
14b8
0225
cafe
280c
5556
14b8
01aa
cafe
2c1c
5556
14b8
01e6
cafe
3004
5556
14b8
0164
cafe
3414
5556
14bc
0168
cafe
380d
5556
14bc
01aa
cafe
3c1d
5556
14bc
016e
cafe
2005
5556
14bc
021d
cafe
2415
5556
14c0
0179
cafe
280e
5556
14c0
01ab
cafe
2c1e
5556
14c0
0185
cafe
3006
5556
14c0
01c6
cafe
3416
5556
14c4
0195
cafe
380f
5556
14c4
01bd
cafe
3c1f
5556
14c4
010a
cafe
2007
5556
14c4
0206
cafe
2417
5556
14c8
0107
cafe
2808
5556
14c8
01af
cafe
2c18
5556
14c8
0214
cafe
3000
5556
14c8
01a7
cafe
3410
5556
14cc
0187
cafe
3809
5556
14cc
0152
cafe
3c19
5556
14cc
01bc
cafe
2001
5556
14cc
01c9
cafe
2411
5556
14d0
0171
cafe
280a
5556
14d0
01fb
cafe
2c1a
5556
14d0
0198
cafe
3002
5556
14d0
0219
cafe
3412
5556
14d4
014b
cafe
380b
5556
14d4
0190
cafe
3c1b
5556
14d4
0115
cafe
2003
5556
14d4
021c
cafe
2413
5556
14d8
0231
cafe
280c
5556
14d8
01a4
cafe
2c1c
5556
14d8
-
01e3
cafe
3004
5556
14d8
0171
cafe
3414
5556
14dc
0157
cafe
380d
5556
14dc
01a8
cafe
3c1d
5556
14dc
016c
cafe
2005
5556
14dc
021b
cafe
2415
5556
14e0
0169
cafe
280e
5556
14e0
0195
cafe
2c1e
5556
14e0
0181
cafe
3006
5556
14e0
01c4
cafe
3416
5556
14e4
01a1
cafe
380f
5556
14e4
01b2
cafe
3c1f
5556
14e4
00ff
cafe
2007
5556
14e4
01ed
cafe
2417
5556
14e8
00f8
cafe
2808
5556
14e8
01a8
cafe
2c18
5556
14e8
01ff
cafe
3000
5556
14e8
01b9
cafe
3410
5556
14ec
0181
cafe
3809
5556
14ec
0161
cafe
3c19
5556
14ec
01bf
cafe
2001
5556
14ec
01af
cafe
2411
5556
14f0
015f
cafe
280a
5556
14f0
01ea
cafe
2c1a
5556
14f0
01ae
cafe
3002
5556
14f0
01f0
cafe
3412
5556
14f4
012c
cafe
380b
5556
14f4
018e
cafe
3c1b
5556
14f4
010e
cafe
2003
5556
14f4
0229
cafe
2413
5556
14f8
0239
cafe
280c
5556
14f8
01b2
cafe
2c1c
5556
14f8
01f1
cafe
3004
5556
14f8
0185
cafe
3414
5556
14fc
0173
cafe
380d
5556
14fc
01aa
cafe
3c1d
5556
14fc
0189
cafe
2005
5556
14fc
021e
cafe
2415
5556
1500
016d
cafe
280e
5556
1500
0192
cafe
2c1e
5556
1500
0184
cafe
3006
5556
1500
01cf
cafe
3416
5556
1504
0197
cafe
380f
5556
1504
01ae
cafe
3c1f
5556
1504
0104
cafe
2007
5556
1504
01ef
cafe
2417
5556
1508
0106
cafe
2808
5556
1508
019f
cafe
2c18
5556
1508
020d
cafe
3000
5556
1508
01b5
cafe
3410
5556
150c
0181
cafe
3809
5556
150c
0152
-
cafe
3c19
5556
150c
01b9
cafe
2001
5556
150c
01b7
cafe
2411
5556
1510
0153
cafe
280a
5556
1510
01ee
cafe
2c1a
5556
1510
0199
cafe
3002
5556
1510
01ee
cafe
3412
5556
1514
0125
cafe
380b
5556
1514
01a1
cafe
3c1b
5556
1514
0109
cafe
2003
5556
1514
0219
cafe
2413
5556
1518
022e
cafe
280c
5556
1518
019b
cafe
2c1c
5556
1518
01da
cafe
3004
5556
1518
0187
cafe
3414
5556
151c
015b
cafe
380d
5556
151c
01b4
cafe
3c1d
5556
151c
018d
cafe
2005
5556
151c
0231
cafe
2415
5556
1520
0171
cafe
280e
5556
1520
019e
cafe
2c1e
5556
1520
0178
cafe
3006
5556
1520
01c2
cafe
3416
5556
1524
0191
cafe
380f
5556
1524
01b9
cafe
3c1f
5556
1524
0114
cafe
2007
5556
1524
01e8
cafe
2417
5556
1528
00ff
cafe
2808
5556
1528
01a8
cafe
2c18
5556
1528
0219
cafe
3000
5556
1528
01c4
cafe
3410
5556
152c
018e
cafe
3809
5556
152c
015d
cafe
3c19
5556
152c
01be
cafe
2001
5556
152c
01be
cafe
2411
5556
1530
0168
cafe
280a
5556
1530
01ed
cafe
2c1a
5556
1530
019d
cafe
3002
5556
1530
0200
cafe
3412
5556
1534
0130
cafe
380b
5556
1534
0190
cafe
3c1b
5556
1534
00f7
cafe
2003
5556
1534
021a
cafe
2413
5556
1538
0224
cafe
280c
5556
1538
01a3
cafe
2c1c
5556
1538
01f8
cafe
3004
5556
1538
0167
cafe
3414
5556
153c
0159
cafe
380d
5556
153c
0197
cafe
3c1d
5556
153c
0178
cafe
2005
5556
153c
0225
cafe
2415
5556
1540
015f
cafe
-
280e
5556
1540
01a3
cafe
2c1e
5556
1540
018c
cafe
3006
5556
1540
01c8
cafe
3416
5556
1544
018f
cafe
380f
5556
1544
01ca
cafe
3c1f
5556
1544
00ee
cafe
2007
5556
1544
01f8
cafe
2417
5556
1548
00fc
cafe
2808
5556
1548
01a3
cafe
2c18
5556
1548
0229
cafe
3000
5556
1548
01b5
cafe
3410
5556
154c
0181
cafe
3809
5556
154c
015f
cafe
3c19
5556
154c
01b6
cafe
2001
5556
154c
01b4
cafe
2411
5556
1550
0175
cafe
280a
5556
1550
01fd
cafe
2c1a
5556
1550
0198
cafe
3002
5556
1550
0200
cafe
3412
5556
1554
013e
cafe
380b
5556
1554
0193
cafe
3c1b
5556
1554
010a
cafe
2003
5556
1554
0234
cafe
2413
5556
1558
0213
cafe
280c
5556
1558
019f
cafe
2c1c
5556
1558
01ec
cafe
3004
5556
1558
0163
cafe
3414
5556
155c
015e
cafe
380d
5556
155c
0196
cafe
3c1d
5556
155c
0175
cafe
2005
5556
155c
0212
cafe
2415
5556
1560
0159
cafe
280e
5556
1560
0191
cafe
2c1e
5556
1560
0177
cafe
3006
5556
1560
01cf
cafe
3416
5556
1564
0188
cafe
380f
5556
1564
01c5
cafe
3c1f
5556
1564
0119
cafe
2007
5556
1564
01ef
cafe
2417
5556
1568
010b
cafe
2808
5556
1568
019f
cafe
2c18
5556
1568
0213
cafe
3000
5556
1568
01c0
cafe
3410
5556
156c
018c
cafe
3809
5556
156c
0444
cafe
3c19
5556
156c
04ac
cafe
2001
5556
156c
04ad
cafe
2411
5556
1570
0467
cafe
280a
5556
1570
08cb
cafe
2c1a
5556
1570
0885
cafe
3002
5556
1570
08d1
cafe
3412
-
5556
1574
07f7
cafe
380b
5556
1574
093c
cafe
3c1b
5556
1574
08c3
cafe
2003
5556
1574
09d1
cafe
2413
5556
1578
09f5
cafe
280c
5556
1578
09b7
cafe
2c1c
5556
1578
09ed
cafe
3004
5556
1578
0945
cafe
3414
5556
157c
0981
cafe
380d
5556
157c
09b8
cafe
3c1d
5556
157c
094b
cafe
2005
5556
157c
09f9
cafe
2415
5556
1580
0960
cafe
280e
5556
1580
09ab
cafe
2c1e
5556
1580
095b
cafe
3006
5556
1580
09ac
cafe
3416
5556
1584
097e
cafe
380f
5556
1584
0972
cafe
3c1f
5556
1584
08b3
cafe
2007
5556
1584
099c
cafe
2417
5556
1588
08b5
cafe
2808
5556
1588
0931
cafe
2c18
5556
1588
09cb
cafe
3000
5556
1588
0945
cafe
3410
5556
158c
091d
cafe
3809
5556
158c
08d1
cafe
3c19
5556
158c
0930
cafe
2001
5556
158c
093f
cafe
2411
5556
1590
08ea
cafe
280a
5556
1590
0969
cafe
2c1a
5556
1590
092a
cafe
3002
5556
1590
0957
cafe
3412
5556
1594
0894
cafe
380b
5556
1594
08f1
cafe
3c1b
5556
1594
0870
cafe
2003
5556
1594
0989
cafe
2413
5556
1598
09ac
cafe
280c
5556
1598
0915
cafe
2c1c
5556
1598
0962
cafe
3004
5556
1598
08c0
cafe
3414
5556
159c
08d7
cafe
380d
5556
159c
08eb
cafe
3c1d
5556
159c
08b5
cafe
2005
5556
159c
0952
cafe
2415
5556
15a0
08a6
cafe
280e
5556
15a0
08f4
cafe
2c1e
5556
15a0
08cc
cafe
3006
5556
15a0
0906
cafe
3416
5556
15a4
08ed
cafe
380f
5556
15a4
08ee
cafe
3c1f
5556
15a4
0833
cafe
2007
5556
-
15a4
090c
cafe
2417
5556
15a8
082d
cafe
2808
5556
15a8
08bf
cafe
2c18
5556
15a8
0942
cafe
3000
5556
15a8
08ae
cafe
3410
5556
15ac
08aa
cafe
3809
5556
15ac
085a
cafe
3c19
5556
15ac
08c6
cafe
2001
5556
15ac
08b5
cafe
2411
5556
15b0
0881
cafe
280a
5556
15b0
0910
cafe
2c1a
5556
15b0
08b2
cafe
3002
5556
15b0
08e3
cafe
3412
5556
15b4
082f
cafe
380b
5556
15b4
086a
cafe
3c1b
5556
15b4
07e5
cafe
2003
5556
15b4
08f5
cafe
2413
5556
15b8
093e
cafe
280c
5556
15b8
0870
cafe
2c1c
5556
15b8
08de
cafe
3004
5556
15b8
083b
cafe
3414
5556
15bc
0842
cafe
380d
5556
15bc
086d
cafe
3c1d
5556
15bc
0831
cafe
2005
5556
15bc
08e1
cafe
2415
5556
15c0
0826
cafe
280e
5556
15c0
0871
cafe
2c1e
5556
15c0
0852
cafe
3006
5556
15c0
086d
cafe
3416
5556
15c4
085e
cafe
380f
5556
15c4
084a
cafe
3c1f
5556
15c4
079c
cafe
2007
5556
15c4
0878
cafe
2417
5556
15c8
07a0
cafe
2808
5556
15c8
082a
cafe
2c18
5556
15c8
08b4
cafe
3000
5556
15c8
0836
cafe
3410
5556
15cc
0812
cafe
3809
5556
15cc
07d3
cafe
3c19
5556
15cc
085e
cafe
2001
5556
15cc
0845
cafe
2411
5556
15d0
07ff
cafe
280a
5556
15d0
0899
cafe
2c1a
5556
15d0
0833
cafe
3002
5556
15d0
087f
cafe
3412
5556
15d4
07d5
cafe
380b
5556
15d4
07fc
cafe
3c1b
5556
15d4
077b
cafe
2003
5556
15d4
0880
cafe
2413
5556
15d8
08d0
cafe
280c
5556
15d8
0815
cafe
2c1c
5556
15d8
-
0871
cafe
3004
5556
15d8
07bd
cafe
3414
5556
15dc
07e2
cafe
380d
5556
15dc
0809
cafe
3c1d
5556
15dc
07bd
cafe
2005
5556
15dc
085e
cafe
2415
5556
15e0
07b1
cafe
280e
5556
15e0
0802
cafe
2c1e
5556
15e0
07e3
cafe
3006
5556
15e0
07f6
cafe
3416
5556
15e4
07f9
cafe
380f
5556
15e4
07f7
cafe
3c1f
5556
15e4
072d
cafe
2007
5556
15e4
080d
cafe
2417
5556
15e8
072c
cafe
2808
5556
15e8
07ce
cafe
2c18
5556
15e8
0863
cafe
3000
5556
15e8
07c5
cafe
3410
5556
15ec
07bb
cafe
3809
5556
15ec
0775
cafe
3c19
5556
15ec
07d3
cafe
2001
5556
15ec
07d2
cafe
2411
5556
15f0
0790
cafe
280a
5556
15f0
081e
cafe
2c1a
5556
15f0
07b9
cafe
3002
5556
15f0
0811
cafe
3412
5556
15f4
074c
cafe
380b
5556
15f4
078b
cafe
3c1b
5556
15f4
0702
cafe
2003
5556
15f4
0807
cafe
2413
5556
15f8
085a
cafe
280c
5556
15f8
0797
cafe
2c1c
5556
15f8
0804
cafe
3004
5556
15f8
0741
cafe
3414
5556
15fc
075b
cafe
380d
5556
15fc
0785
cafe
3c1d
5556
15fc
0748
cafe
2005
5556
15fc
07ed
cafe
2415
5556
1600
073b
cafe
280e
5556
1600
077c
cafe
2c1e
5556
1600
076a
cafe
3006
5556
1600
0775
cafe
3416
5556
1604
0771
cafe
380f
5556
1604
0785
cafe
3c1f
5556
1604
06ba
cafe
2007
5556
1604
079f
cafe
2417
5556
1608
06ba
cafe
2808
5556
1608
0764
cafe
2c18
5556
1608
07e7
cafe
3000
5556
1608
0747
cafe
3410
5556
160c
0754
cafe
3809
5556
160c
071b
-
cafe
3c19
5556
160c
0785
cafe
2001
5556
160c
0753
cafe
2411
5556
1610
0725
cafe
280a
5556
1610
07c5
cafe
2c1a
5556
1610
075c
cafe
3002
5556
1610
07a8
cafe
3412
5556
1614
06eb
cafe
380b
5556
1614
0722
cafe
3c1b
5556
1614
0683
cafe
2003
5556
1614
0796
cafe
2413
5556
1618
07ed
cafe
280c
5556
1618
0717
cafe
2c1c
5556
1618
0790
cafe
3004
5556
1618
06d5
cafe
3414
5556
161c
06e5
cafe
380d
5556
161c
071e
cafe
3c1d
5556
161c
06c8
cafe
2005
5556
161c
0767
cafe
2415
5556
1620
06cc
cafe
280e
5556
1620
0720
cafe
2c1e
5556
1620
070a
cafe
3006
5556
1620
0709
cafe
3416
5556
1624
0713
cafe
380f
5556
1624
0727
cafe
3c1f
5556
1624
0645
cafe
2007
5556
1624
073c
cafe
2417
5556
1628
0645
cafe
2808
5556
1628
06ed
cafe
2c18
5556
1628
079a
cafe
3000
5556
1628
06df
cafe
3410
5556
162c
06f0
cafe
3809
5556
162c
06a8
cafe
3c19
5556
162c
070a
cafe
2001
5556
162c
06ee
cafe
2411
5556
1630
06cb
cafe
280a
5556
1630
0733
cafe
2c1a
5556
1630
06f5
cafe
3002
5556
1630
073b
cafe
3412
5556
1634
0678
cafe
380b
5556
1634
06b9
cafe
3c1b
5556
1634
0624
cafe
2003
5556
1634
0732
cafe
2413
5556
1638
0784
cafe
280c
5556
1638
06b9
cafe
2c1c
5556
1638
072b
cafe
3004
5556
1638
0676
cafe
3414
5556
163c
0672
cafe
380d
5556
163c
06da
cafe
3c1d
5556
163c
0679
cafe
2005
5556
163c
070b
cafe
2415
5556
1640
0677
cafe
-
280e
5556
1640
06de
cafe
2c1e
5556
1640
06a6
cafe
3006
5556
1640
06b0
cafe
3416
5556
1644
06c0
cafe
380f
5556
1644
06c5
cafe
3c1f
5556
1644
05e7
cafe
2007
5556
1644
06ed
cafe
2417
5556
1648
0602
cafe
2808
5556
1648
068c
cafe
2c18
5556
1648
0737
cafe
3000
5556
1648
067d
cafe
3410
5556
164c
067f
cafe
3809
5556
164c
0644
cafe
3c19
5556
164c
06af
cafe
2001
5556
164c
0683
cafe
2411
5556
1650
0665
cafe
280a
5556
1650
06ea
cafe
2c1a
5556
1650
0694
cafe
3002
5556
1650
06d6
cafe
3412
5556
1654
0623
cafe
380b
5556
1654
064a
cafe
3c1b
5556
1654
05c3
cafe
2003
5556
1654
06e0
cafe
2413
5556
1658
0739
cafe
280c
5556
1658
0661
cafe
2c1c
5556
1658
06be
cafe
3004
5556
1658
0602
cafe
3414
5556
165c
061a
cafe
380d
5556
165c
0656
cafe
3c1d
5556
165c
060d
cafe
2005
5556
165c
06b9
cafe
2415
5556
1660
0618
cafe
280e
5556
1660
066e
cafe
2c1e
5556
1660
0632
cafe
3006
5556
1660
0644
cafe
3416
5556
1664
0639
cafe
380f
5556
1664
0639
cafe
3c1f
5556
1664
056b
cafe
2007
5556
1664
0683
cafe
2417
5556
1668
0581
cafe
2808
5556
1668
062b
cafe
2c18
5556
1668
06ce
cafe
3000
5556
1668
060f
cafe
3410
5556
166c
062e
cafe
3809
5556
166c
05ee
cafe
3c19
5556
166c
0660
cafe
2001
5556
166c
062d
cafe
2411
5556
1670
0607
cafe
280a
5556
1670
068f
cafe
2c1a
5556
1670
062b
cafe
3002
5556
1670
0682
cafe
3412
-
5556
1674
05b5
cafe
380b
5556
1674
05ec
cafe
3c1b
5556
1674
0557
cafe
2003
5556
1674
0674
cafe
2413
5556
1678
06dc
cafe
280c
5556
1678
05fc
cafe
2c1c
5556
1678
065c
cafe
3004
5556
1678
05b3
cafe
3414
5556
167c
05ab
cafe
380d
5556
167c
060c
cafe
3c1d
5556
167c
05a3
cafe
2005
5556
167c
0658
cafe
2415
5556
1680
05b9
cafe
280e
5556
1680
0617
cafe
2c1e
5556
1680
05df
cafe
3006
5556
1680
05e8
cafe
3416
5556
1684
05f7
cafe
380f
5556
1684
0605
cafe
3c1f
5556
1684
051f
cafe
2007
5556
1684
062b
cafe
2417
5556
1688
054e
cafe
2808
5556
1688
05e0
cafe
2c18
5556
1688
0683
cafe
3000
5556
1688
05c6
cafe
3410
5556
168c
05d5
cafe
3809
5556
168c
0585
cafe
3c19
5556
168c
0603
cafe
2001
5556
168c
05cb
cafe
2411
5556
1690
05b4
cafe
280a
5556
1690
0633
cafe
2c1a
5556
1690
05db
cafe
3002
5556
1690
063b
cafe
3412
5556
1694
056a
cafe
380b
5556
1694
058e
cafe
3c1b
5556
1694
04fe
cafe
2003
5556
1694
0617
cafe
2413
5556
1698
066f
cafe
280c
5556
1698
059f
cafe
2c1c
5556
1698
0617
cafe
3004
5556
1698
0560
cafe
3414
5556
169c
0541
cafe
380d
5556
169c
05bf
cafe
3c1d
5556
169c
0550
cafe
2005
5556
169c
0611
cafe
2415
5556
16a0
0566
cafe
280e
5556
16a0
05c2
cafe
2c1e
5556
16a0
058d
cafe
3006
5556
16a0
058d
cafe
3416
5556
16a4
05a5
cafe
380f
5556
16a4
05b1
cafe
3c1f
5556
16a4
04bf
cafe
2007
5556
-
16a4
05ea
cafe
2417
5556
16a8
04fa
cafe
2808
5556
16a8
0599
cafe
2c18
5556
16a8
063e
cafe
3000
5556
16a8
055e
cafe
3410
5556
16ac
0593
cafe
3809
5556
16ac
0547
cafe
3c19
5556
16ac
05aa
cafe
2001
5556
16ac
0590
cafe
2411
5556
16b0
056d
cafe
280a
5556
16b0
05e2
cafe
2c1a
5556
16b0
058c
cafe
3002
5556
16b0
05db
cafe
3412
5556
16b4
0539
cafe
380b
5556
16b4
053c
cafe
3c1b
5556
16b4
04ad
cafe
2003
5556
16b4
05bf
cafe
2413
5556
16b8
063b
cafe
280c
5556
16b8
055a
cafe
2c1c
5556
16b8
05c5
cafe
3004
5556
16b8
0501
cafe
3414
5556
16bc
0503
cafe
380d
5556
16bc
0552
cafe
3c1d
5556
16bc
0510
cafe
2005
5556
16bc
05b4
cafe
2415
5556
16c0
04f2
cafe
280e
5556
16c0
0560
cafe
2c1e
5556
16c0
0534
cafe
3006
5556
16c0
052d
cafe
3416
5556
16c4
054c
cafe
380f
5556
16c4
054a
cafe
3c1f
5556
16c4
0471
cafe
2007
5556
16c4
058e
cafe
2417
5556
16c8
0498
cafe
2808
5556
16c8
0551
cafe
2c18
5556
16c8
05e2
cafe
3000
5556
16c8
0527
cafe
3410
5556
16cc
053f
cafe
3809
5556
16cc
04fe
cafe
3c19
5556
16cc
0553
cafe
2001
5556
16cc
0544
cafe
2411
5556
16d0
0513
cafe
280a
5556
16d0
05bf
cafe
2c1a
5556
16d0
0551
cafe
3002
5556
16d0
05a6
cafe
3412
5556
16d4
04e2
cafe
380b
5556
16d4
050b
cafe
3c1b
5556
16d4
0460
cafe
2003
5556
16d4
0589
cafe
2413
5556
16d8
0602
cafe
280c
5556
16d8
050b
cafe
2c1c
5556
16d8
-
0587
cafe
3004
5556
16d8
04c1
cafe
3414
5556
16dc
04be
cafe
380d
5556
16dc
051e
cafe
3c1d
5556
16dc
04c2
cafe
2005
5556
16dc
0593
cafe
2415
5556
16e0
04b7
cafe
280e
5556
16e0
0523
cafe
2c1e
5556
16e0
04e7
cafe
3006
5556
16e0
04f9
cafe
3416
5556
16e4
0515
cafe
380f
5556
16e4
0506
cafe
3c1f
5556
16e4
0439
cafe
2007
5556
16e4
0554
cafe
2417
5556
16e8
0450
cafe
2808
5556
16e8
0507
cafe
2c18
5556
16e8
05ae
cafe
3000
5556
16e8
04d6
cafe
3410
5556
16ec
04ee
cafe
3809
5556
16ec
04ac
cafe
3c19
5556
16ec
051c
cafe
2001
5556
16ec
0505
cafe
2411
5556
16f0
04c5
cafe
280a
5556
16f0
054b
cafe
2c1a
5556
16f0
04f6
cafe
3002
5556
16f0
0554
cafe
3412
5556
16f4
0476
cafe
380b
5556
16f4
04c1
cafe
3c1b
5556
16f4
042d
cafe
2003
5556
16f4
0539
cafe
2413
5556
16f8
05b1
cafe
280c
5556
16f8
04d0
cafe
2c1c
5556
16f8
052b
cafe
3004
5556
16f8
047d
cafe
3414
5556
16fc
0496
cafe
380d
5556
16fc
04da
cafe
3c1d
5556
16fc
047d
cafe
2005
5556
16fc
0530
cafe
2415
5556
1700
0491
cafe
280e
5556
1700
04eb
cafe
2c1e
5556
1700
04a0
cafe
3006
5556
1700
04c3
cafe
3416
5556
1704
04ce
cafe
380f
5556
1704
04c5
cafe
3c1f
5556
1704
03e9
cafe
2007
5556
1704
04ff
cafe
2417
5556
1708
041a
cafe
2808
5556
1708
04ba
cafe
2c18
5556
1708
055f
cafe
3000
5556
1708
0497
cafe
3410
5556
170c
04a9
cafe
3809
5556
170c
0472
-
cafe
3c19
5556
170c
04d8
cafe
2001
5556
170c
04ad
cafe
2411
5556
1710
047d
cafe
280a
5556
1710
0513
cafe
2c1a
5556
1710
04ab
cafe
3002
5556
1710
0502
cafe
3412
5556
1714
0442
cafe
380b
5556
1714
0470
cafe
3c1b
5556
1714
03d9
cafe
2003
5556
1714
0509
cafe
2413
5556
1718
0564
cafe
280c
5556
1718
0487
cafe
2c1c
5556
1718
04ee
cafe
3004
5556
1718
0440
cafe
3414
5556
171c
044a
cafe
380d
5556
171c
0494
cafe
3c1d
5556
171c
043f
cafe
2005
5556
171c
04ee
cafe
2415
5556
1720
0434
cafe
280e
5556
1720
04b0
cafe
2c1e
5556
1720
0462
cafe
3006
5556
1720
0481
cafe
3416
5556
1724
0490
cafe
380f
5556
1724
0495
cafe
3c1f
5556
1724
03ad
cafe
2007
5556
1724
04ba
cafe
2417
5556
1728
03d2
cafe
2808
5556
1728
0494
cafe
2c18
5556
1728
0531
cafe
3000
5556
1728
044b
cafe
3410
5556
172c
0482
cafe
3809
5556
172c
0427
cafe
3c19
5556
172c
04a3
cafe
2001
5556
172c
046f
cafe
2411
5556
1730
043f
cafe
280a
5556
1730
04d8
cafe
2c1a
5556
1730
0473
cafe
3002
5556
1730
04d8
cafe
3412
5556
1734
0405
cafe
380b
5556
1734
043e
cafe
3c1b
5556
1734
0394
cafe
2003
5556
1734
04d9
cafe
2413
5556
1738
053e
cafe
280c
5556
1738
045c
cafe
2c1c
5556
1738
04a8
cafe
3004
5556
1738
041d
cafe
3414
5556
173c
0415
cafe
380d
5556
173c
0463
cafe
3c1d
5556
173c
0417
cafe
2005
5556
173c
04ac
cafe
2415
5556
1740
040f
cafe
-
280e
5556
1740
0455
cafe
2c1e
5556
1740
0427
cafe
3006
5556
1740
043d
cafe
3416
5556
1744
043d
cafe
380f
5556
1744
041f
cafe
3c1f
5556
1744
037c
cafe
2007
5556
1744
0466
cafe
2417
5556
1748
0380
cafe
2808
5556
1748
0411
cafe
2c18
5556
1748
04cd
cafe
3000
5556
1748
0409
cafe
3410
5556
174c
03df
cafe
3809
5556
174c
03d4
cafe
3c19
5556
174c
0446
cafe
2001
5556
174c
0441
cafe
2411
5556
1750
03e0
cafe
280a
5556
1750
0490
cafe
2c1a
5556
1750
043a
cafe
3002
5556
1750
0498
cafe
3412
5556
1754
03a5
cafe
380b
5556
1754
0429
cafe
3c1b
5556
1754
036f
cafe
2003
5556
1754
049a
cafe
2413
5556
1758
050a
cafe
280c
5556
1758
044d
cafe
2c1c
5556
1758
0480
cafe
3004
5556
1758
03de
cafe
3414
5556
175c
03ef
cafe
380d
5556
175c
044d
cafe
3c1d
5556
175c
03cc
cafe
2005
5556
175c
0489
cafe
2415
5556
1760
03de
cafe
280e
5556
1760
044c
cafe
2c1e
5556
1760
03e1
cafe
3006
5556
1760
0416
cafe
3416
5556
1764
0435
cafe
380f
5556
1764
043e
cafe
3c1f
5556
1764
0345
cafe
2007
5556
1764
0453
cafe
2417
5556
1768
0367
cafe
2808
5556
1768
040e
cafe
2c18
5556
1768
04a9
cafe
3000
5556
1768
03f2
cafe
3410
5556
176c
03fb
cafe
3809
5556
176c
03c6
cafe
3c19
5556
176c
0416
cafe
2001
5556
176c
040f
cafe
2411
5556
1770
03d1
cafe
280a
5556
1770
044e
cafe
2c1a
5556
1770
03fa
cafe
3002
5556
1770
0463
cafe
3412
-
5556
1774
0393
cafe
380b
5556
1774
03ee
cafe
3c1b
5556
1774
032d
cafe
2003
5556
1774
0463
cafe
2413
5556
1778
04cd
cafe
280c
5556
1778
03d8
cafe
2c1c
5556
1778
0445
cafe
3004
5556
1778
03a1
cafe
3414
5556
177c
03a4
cafe
380d
5556
177c
03e8
cafe
3c1d
5556
177c
038f
cafe
2005
5556
177c
045f
cafe
2415
5556
1780
03ac
cafe
280e
5556
1780
0401
cafe
2c1e
5556
1780
03bd
cafe
3006
5556
1780
03d5
cafe
3416
5556
1784
03fb
cafe
380f
5556
1784
040f
cafe
3c1f
5556
1784
0303
cafe
2007
5556
1784
0433
cafe
2417
5556
1788
0323
cafe
2808
5556
1788
03d9
cafe
2c18
5556
1788
0480
cafe
3000
5556
1788
03b8
cafe
3410
5556
178c
03ca
cafe
3809
5556
178c
0386
cafe
3c19
5556
178c
03e0
cafe
2001
5556
178c
03d9
cafe
2411
5556
1790
039c
cafe
280a
5556
1790
041d
cafe
2c1a
5556
1790
03d6
cafe
3002
5556
1790
0429
cafe
3412
5556
1794
035f
cafe
380b
5556
1794
03bb
cafe
3c1b
5556
1794
02fe
cafe
2003
5556
1794
0436
cafe
2413
5556
1798
0479
cafe
280c
5556
1798
03c4
cafe
2c1c
5556
1798
0427
cafe
3004
5556
1798
0372
cafe
3414
5556
179c
0362
cafe
380d
5556
179c
03c4
cafe
3c1d
5556
179c
0366
cafe
2005
5556
179c
0436
cafe
2415
5556
17a0
0378
cafe
280e
5556
17a0
03d1
cafe
2c1e
5556
17a0
0389
cafe
3006
5556
17a0
03b1
cafe
3416
5556
17a4
03be
cafe
380f
5556
17a4
03d6
cafe
3c1f
5556
17a4
02d2
cafe
2007
5556
-
17a4
03f0
cafe
2417
5556
17a8
030d
cafe
2808
5556
17a8
03a9
cafe
2c18
5556
17a8
0451
cafe
3000
5556
17a8
0396
cafe
3410
5556
17ac
0395
cafe
3809
5556
17ac
035a
cafe
3c19
5556
17ac
03c0
cafe
2001
5556
17ac
03a2
cafe
2411
5556
17b0
0381
cafe
280a
5556
17b0
03f9
cafe
2c1a
5556
17b0
03a2
cafe
3002
5556
17b0
0405
cafe
3412
5556
17b4
032b
cafe
380b
5556
17b4
0397
cafe
3c1b
5556
17b4
02d9
cafe
2003
5556
17b4
0402
cafe
2413
5556
17b8
045f
cafe
280c
5556
17b8
037f
cafe
2c1c
5556
17b8
03f1
cafe
3004
5556
17b8
033d
cafe
3414
5556
17bc
0332
cafe
380d
5556
17bc
038b
cafe
3c1d
5556
17bc
0344
cafe
2005
5556
17bc
03f8
cafe
2415
5556
17c0
0341
cafe
280e
5556
17c0
03b1
cafe
2c1e
5556
17c0
0354
cafe
3006
5556
17c0
0382
cafe
3416
5556
17c4
0386
cafe
380f
5556
17c4
03a6
cafe
3c1f
5556
17c4
02ae
cafe
2007
5556
17c4
03be
cafe
2417
5556
17c8
02db
cafe
2808
5556
17c8
0373
cafe
2c18
5556
17c8
0420
cafe
3000
5556
17c8
0368
cafe
3410
5556
17cc
036b
cafe
3809
5556
17cc
0337
cafe
3c19
5556
17cc
03aa
cafe
2001
5556
17cc
037e
cafe
2411
5556
17d0
0344
cafe
280a
5556
17d0
03cd
cafe
2c1a
5556
17d0
0373
cafe
3002
5556
17d0
03c4
cafe
3412
5556
17d4
0307
cafe
380b
5556
17d4
034e
cafe
3c1b
5556
17d4
02af
cafe
2003
5556
17d4
03ca
cafe
2413
5556
17d8
0425
cafe
280c
5556
17d8
034d
cafe
2c1c
5556
17d8
-
03c1
cafe
3004
5556
17d8
0318
cafe
3414
5556
17dc
0306
cafe
380d
5556
17dc
037d
cafe
3c1d
5556
17dc
0313
cafe
2005
5556
17dc
03d6
cafe
2415
5556
17e0
0329
cafe
280e
5556
17e0
0384
cafe
2c1e
5556
17e0
0336
cafe
3006
5556
17e0
0364
cafe
3416
5556
17e4
0357
cafe
380f
5556
17e4
0396
cafe
3c1f
5556
17e4
0296
cafe
2007
5556
17e4
03ac
cafe
2417
5556
17e8
02b9
cafe
2808
5556
17e8
0357
cafe
2c18
5556
17e8
0400
cafe
3000
5556
17e8
0338
cafe
3410
5556
17ec
0338
cafe
3809
5556
17ec
0320
cafe
3c19
5556
17ec
037c
cafe
2001
5556
17ec
0342
cafe
2411
5556
17f0
0336
cafe
280a
5556
17f0
03cc
cafe
2c1a
5556
17f0
0365
cafe
3002
5556
17f0
03aa
cafe
3412
5556
17f4
02ea
cafe
380b
5556
17f4
0339
cafe
3c1b
5556
17f4
0280
cafe
2003
5556
17f4
03c6
cafe
2413
5556
17f8
041a
cafe
280c
5556
17f8
032b
cafe
2c1c
5556
17f8
0394
cafe
3004
5556
17f8
02e7
cafe
3414
5556
17fc
02d3
cafe
380d
5556
17fc
033d
cafe
3c1d
5556
17fc
02ee
cafe
2005
5556
17fc
039e
cafe
2415
5556
1800
02f1
cafe
280e
5556
1800
0336
cafe
2c1e
5556
1800
031a
cafe
3006
5556
1800
0326
cafe
3416
5556
1804
0327
cafe
380f
5556
1804
0332
cafe
3c1f
5556
1804
025d
cafe
2007
5556
1804
0371
cafe
2417
5556
1808
0287
cafe
2808
5556
1808
0337
cafe
2c18
5556
1808
03e5
cafe
3000
5556
1808
02ff
cafe
3410
5556
180c
0320
cafe
3809
5556
180c
02e1
-
cafe
3c19
5556
180c
0346
cafe
2001
5556
180c
0322
cafe
2411
5556
1810
0304
cafe
280a
5556
1810
0395
cafe
2c1a
5556
1810
0335
cafe
3002
5556
1810
037b
cafe
3412
5556
1814
02d6
cafe
380b
5556
1814
02f2
cafe
3c1b
5556
1814
0267
cafe
2003
5556
1814
0396
cafe
2413
5556
1818
03d0
cafe
280c
5556
1818
0319
cafe
2c1c
5556
1818
0377
cafe
3004
5556
1818
02e0
cafe
3414
5556
181c
02c2
cafe
380d
5556
181c
0321
cafe
3c1d
5556
181c
02c5
cafe
2005
5556
181c
037f
cafe
2415
5556
1820
02c4
cafe
280e
5556
1820
0328
cafe
2c1e
5556
1820
02ed
cafe
3006
5556
1820
0309
cafe
3416
5556
1824
0315
cafe
380f
5556
1824
0327
cafe
3c1f
5556
1824
0242
cafe
2007
5556
1824
035a
cafe
2417
5556
1828
0275
cafe
2808
5556
1828
030a
cafe
2c18
5556
1828
03c1
cafe
3000
5556
1828
02f6
cafe
3410
5556
182c
0306
cafe
3809
5556
182c
02c2
cafe
3c19
5556
182c
0335
cafe
2001
5556
182c
0314
cafe
2411
5556
1830
02e6
cafe
280a
5556
1830
037d
cafe
2c1a
5556
1830
030d
cafe
3002
5556
1830
0370
cafe
3412
5556
1834
02b7
cafe
380b
5556
1834
02e4
cafe
3c1b
5556
1834
0259
cafe
2003
5556
1834
036b
cafe
2413
5556
1838
03b8
cafe
280c
5556
1838
02f8
cafe
2c1c
5556
1838
0344
cafe
3004
5556
1838
02c9
cafe
3414
5556
183c
0299
cafe
380d
5556
183c
02f5
cafe
3c1d
5556
183c
02c6
cafe
2005
5556
183c
034f
cafe
2415
5556
1840
02aa
cafe
-
280e
5556
1840
0301
cafe
2c1e
5556
1840
02c2
cafe
3006
5556
1840
02ff
cafe
3416
5556
1844
02f7
cafe
380f
5556
1844
030d
cafe
3c1f
5556
1844
021f
cafe
2007
5556
1844
0332
cafe
2417
5556
1848
0233
cafe
2808
5556
1848
02f6
cafe
2c18
5556
1848
0385
cafe
3000
5556
1848
02cd
cafe
3410
5556
184c
02de
cafe
3809
5556
184c
02a2
cafe
3c19
5556
184c
02f6
cafe
2001
5556
184c
02f9
cafe
2411
5556
1850
02bf
cafe
280a
5556
1850
0344
cafe
2c1a
5556
1850
02e7
cafe
3002
5556
1850
0346
cafe
3412
5556
1854
0283
cafe
380b
5556
1854
02b7
cafe
3c1b
5556
1854
022d
cafe
2003
5556
1854
034d
cafe
2413
5556
1858
0388
cafe
280c
5556
1858
02d1
cafe
2c1c
5556
1858
0334
cafe
3004
5556
1858
0299
cafe
3414
5556
185c
027a
cafe
380d
5556
185c
02eb
cafe
3c1d
5556
185c
029e
cafe
2005
5556
185c
034a
cafe
2415
5556
1860
0299
cafe
280e
5556
1860
02fd
cafe
2c1e
5556
1860
02b7
cafe
3006
5556
1860
02ef
cafe
3416
5556
1864
02ec
cafe
380f
5556
1864
02df
cafe
3c1f
5556
1864
01fe
cafe
2007
5556
1864
0320
cafe
2417
5556
1868
022c
cafe
2808
5556
1868
02df
cafe
2c18
5556
1868
0367
cafe
3000
5556
1868
02b1
cafe
3410
5556
186c
02c7
cafe
3809
5556
186c
0285
cafe
3c19
5556
186c
02ee
cafe
2001
5556
186c
02bf
cafe
2411
5556
1870
029b
cafe
280a
5556
1870
0336
cafe
2c1a
5556
1870
02c8
cafe
3002
5556
1870
031f
cafe
3412
-
5556
1874
0260
cafe
380b
5556
1874
029f
cafe
3c1b
5556
1874
0203
cafe
2003
5556
1874
0347
cafe
2413
5556
1878
0376
cafe
280c
5556
1878
02bb
cafe
2c1c
5556
1878
0307
cafe
3004
5556
1878
028a
cafe
3414
5556
187c
0272
cafe
380d
5556
187c
02b5
cafe
3c1d
5556
187c
027d
cafe
2005
5556
187c
0324
cafe
2415
5556
1880
027d
cafe
280e
5556
1880
02d5
cafe
2c1e
5556
1880
027d
cafe
3006
5556
1880
02bc
cafe
3416
5556
1884
02c8
cafe
380f
5556
1884
02db
cafe
3c1f
5556
1884
01e9
cafe
2007
5556
1884
0305
cafe
2417
5556
1888
020b
cafe
2808
5556
1888
02bf
cafe
2c18
5556
1888
0346
cafe
3000
5556
1888
029b
cafe
3410
5556
188c
02a7
cafe
3809
5556
188c
0284
cafe
3c19
5556
188c
02c6
cafe
2001
5556
188c
02ac
cafe
2411
5556
1890
0288
cafe
280a
5556
1890
030b
cafe
2c1a
5556
1890
02c1
cafe
3002
5556
1890
0319
cafe
3412
5556
1894
0265
cafe
380b
5556
1894
029d
cafe
3c1b
5556
1894
01e6
cafe
2003
5556
1894
032e
cafe
2413
5556
1898
0358
cafe
280c
5556
1898
029f
cafe
2c1c
5556
1898
02fd
cafe
3004
5556
1898
0255
cafe
3414
5556
189c
0250
cafe
380d
5556
189c
02bd
cafe
3c1d
5556
189c
0254
cafe
2005
5556
189c
0305
cafe
2415
5556
18a0
025f
cafe
280e
5556
18a0
02b2
cafe
2c1e
5556
18a0
0274
cafe
3006
5556
18a0
02b3
cafe
3416
5556
18a4
02a8
cafe
380f
5556
18a4
02b8
cafe
3c1f
5556
18a4
01d0
cafe
2007
5556
-
18a4
02e2
cafe
2417
5556
18a8
01f2
cafe
2808
5556
18a8
029f
cafe
2c18
5556
18a8
0339
cafe
3000
5556
18a8
0280
cafe
3410
5556
18ac
0276
cafe
3809
5556
18ac
0255
cafe
3c19
5556
18ac
02b6
cafe
2001
5556
18ac
029d
cafe
2411
5556
18b0
026f
cafe
280a
5556
18b0
02fa
cafe
2c1a
5556
18b0
0289
cafe
3002
5556
18b0
02eb
cafe
3412
5556
18b4
0240
cafe
380b
5556
18b4
027e
cafe
3c1b
5556
18b4
01ef
cafe
2003
5556
18b4
031c
cafe
2413
5556
18b8
0341
cafe
280c
5556
18b8
027c
cafe
2c1c
5556
18b8
02e7
cafe
3004
5556
18b8
0245
cafe
3414
5556
18bc
023e
cafe
380d
5556
18bc
0286
cafe
3c1d
5556
18bc
0241
cafe
2005
5556
18bc
02f3
cafe
2415
5556
18c0
0248
cafe
280e
5556
18c0
0296
cafe
2c1e
5556
18c0
0263
cafe
3006
5556
18c0
029d
cafe
3416
5556
18c4
0285
cafe
380f
5556
18c4
02b2
cafe
3c1f
5556
18c4
01be
cafe
2007
5556
18c4
02dc
cafe
2417
5556
18c8
01e6
cafe
2808
5556
18c8
029b
cafe
2c18
5556
18c8
031b
cafe
3000
5556
18c8
025d
cafe
3410
5556
18cc
0273
cafe
3809
5556
18cc
023b
cafe
3c19
5556
18cc
02a1
cafe
2001
5556
18cc
026f
cafe
2411
5556
18d0
024f
cafe
280a
5556
18d0
02d8
cafe
2c1a
5556
18d0
0278
cafe
3002
5556
18d0
02c9
cafe
3412
5556
18d4
0222
cafe
380b
5556
18d4
025d
cafe
3c1b
5556
18d4
01ba
cafe
2003
5556
18d4
02f6
cafe
2413
5556
18d8
0321
cafe
280c
5556
18d8
0265
cafe
2c1c
5556
18d8
-
02df
cafe
3004
5556
18d8
022e
cafe
3414
5556
18dc
022f
cafe
380d
5556
18dc
028e
cafe
3c1d
5556
18dc
0224
cafe
2005
5556
18dc
02e6
cafe
2415
5556
18e0
0227
cafe
280e
5556
18e0
0273
cafe
2c1e
5556
18e0
0251
cafe
3006
5556
18e0
0285
cafe
3416
5556
18e4
0270
cafe
380f
5556
18e4
027d
cafe
3c1f
5556
18e4
0197
cafe
2007
5556
18e4
02ae
cafe
2417
5556
18e8
01ae
cafe
2808
5556
18e8
0269
cafe
2c18
5556
18e8
02fb
cafe
3000
5556
18e8
024a
cafe
3410
5556
18ec
0247
cafe
3809
5556
18ec
0228
cafe
3c19
5556
18ec
0282
cafe
2001
5556
18ec
0268
cafe
2411
5556
18f0
023b
cafe
280a
5556
18f0
02c9
cafe
2c1a
5556
18f0
0272
cafe
3002
5556
18f0
02bd
cafe
3412
5556
18f4
0203
cafe
380b
5556
18f4
0249
cafe
3c1b
5556
18f4
01b1
cafe
2003
5556
18f4
02ef
cafe
2413
5556
18f8
031f
cafe
280c
5556
18f8
026a
cafe
2c1c
5556
18f8
02c0
cafe
3004
5556
18f8
0216
cafe
3414
5556
18fc
0223
cafe
380d
5556
18fc
0278
cafe
3c1d
5556
18fc
021c
cafe
2005
5556
18fc
02e3
cafe
2415
5556
1900
0228
cafe
280e
5556
1900
0288
cafe
2c1e
5556
1900
023c
cafe
3006
5556
1900
027a
cafe
3416
5556
1904
0269
cafe
380f
5556
1904
0276
cafe
3c1f
5556
1904
0199
cafe
2007
5556
1904
02b2
cafe
2417
5556
1908
01ad
cafe
2808
5556
1908
026f
cafe
2c18
5556
1908
02f0
cafe
3000
5556
1908
023d
cafe
3410
5556
190c
0250
cafe
3809
5556
190c
0210
-
cafe
3c19
5556
190c
0276
cafe
2001
5556
190c
0259
cafe
2411
5556
1910
0233
cafe
280a
5556
1910
02bb
cafe
2c1a
5556
1910
0253
cafe
3002
5556
1910
02a0
cafe
3412
5556
1914
01f3
cafe
380b
5556
1914
022c
cafe
3c1b
5556
1914
019a
cafe
2003
5556
1914
02e0
cafe
2413
5556
1918
02f7
cafe
280c
5556
1918
0233
cafe
2c1c
5556
1918
02a0
cafe
3004
5556
1918
01fb
cafe
3414
5556
191c
01e8
cafe
380d
5556
191c
0244
cafe
3c1d
5556
191c
0215
cafe
2005
5556
191c
02bc
cafe
2415
5556
1920
01fe
cafe
280e
5556
1920
023d
cafe
2c1e
5556
1920
0218
cafe
3006
5556
1920
0258
cafe
3416
5556
1924
0233
cafe
380f
5556
1924
0255
cafe
3c1f
5556
1924
0182
cafe
2007
5556
1924
029d
cafe
2417
5556
1928
01b3
cafe
2808
5556
1928
025b
cafe
2c18
5556
1928
02dd
cafe
3000
5556
1928
023c
cafe
3410
5556
192c
023c
cafe
3809
5556
192c
0215
cafe
3c19
5556
192c
0278
cafe
2001
5556
192c
024c
cafe
2411
5556
1930
0227
cafe
280a
5556
1930
02aa
cafe
2c1a
5556
1930
023b
cafe
3002
5556
1930
02a5
cafe
3412
5556
1934
01e9
cafe
380b
5556
1934
0221
cafe
3c1b
5556
1934
0193
cafe
2003
5556
1934
02bf
cafe
2413
5556
1938
02f4
cafe
280c
5556
1938
0234
cafe
2c1c
5556
1938
028e
cafe
3004
5556
1938
020d
cafe
3414
5556
193c
01ed
cafe
380d
5556
193c
0225
cafe
3c1d
5556
193c
01fe
cafe
2005
5556
193c
02a1
cafe
2415
5556
1940
01e3
cafe
-
280e
5556
1940
0240
cafe
2c1e
5556
1940
0214
cafe
3006
5556
1940
0239
cafe
3416
5556
1944
0237
cafe
380f
5556
1944
0257
cafe
3c1f
5556
1944
0169
cafe
2007
5556
1944
028f
cafe
2417
5556
1948
018f
cafe
2808
5556
1948
0248
cafe
2c18
5556
1948
02c8
cafe
3000
5556
1948
0225
cafe
3410
5556
194c
021b
cafe
3809
5556
194c
01f5
cafe
3c19
5556
194c
0261
cafe
2001
5556
194c
0236
cafe
2411
5556
1950
0221
cafe
280a
5556
1950
029a
cafe
2c1a
5556
1950
0225
cafe
3002
5556
1950
0282
cafe
3412
5556
1954
01e1
cafe
380b
5556
1954
0221
cafe
3c1b
5556
1954
017d
cafe
2003
5556
1954
02ae
cafe
2413
5556
1958
02e7
cafe
280c
5556
1958
0223
cafe
2c1c
5556
1958
027d
cafe
3004
5556
1958
01e8
cafe
3414
5556
195c
01f0
cafe
380d
5556
195c
0223
cafe
3c1d
5556
195c
01ee
cafe
2005
5556
195c
02ad
cafe
2415
5556
1960
01ee
cafe
280e
5556
1960
0246
cafe
2c1e
5556
1960
01f3
cafe
3006
5556
1960
023a
cafe
3416
5556
1964
0229
cafe
380f
5556
1964
0248
cafe
3c1f
5556
1964
0162
cafe
2007
5556
1964
0282
cafe
2417
5556
1968
0181
cafe
2808
5556
1968
0233
cafe
2c18
5556
1968
02b0
cafe
3000
5556
1968
0217
cafe
3410
5556
196c
020d
cafe
3809
5556
196c
01db
cafe
3c19
5556
196c
024c
cafe
2001
5556
196c
0221
cafe
2411
5556
1970
01fb
cafe
280a
5556
1970
0274
cafe
2c1a
5556
1970
021f
cafe
3002
5556
1970
0276
cafe
3412
-
5556
1974
01bf
cafe
380b
5556
1974
0205
cafe
3c1b
5556
1974
0177
cafe
2003
5556
1974
0291
cafe
2413
5556
1978
02d1
cafe
280c
5556
1978
0214
cafe
2c1c
5556
1978
027c
cafe
3004
5556
1978
01d5
cafe
3414
5556
197c
01d2
cafe
380d
5556
197c
022d
cafe
3c1d
5556
197c
01e5
cafe
2005
5556
197c
0296
cafe
2415
5556
1980
01dc
cafe
280e
5556
1980
0247
cafe
2c1e
5556
1980
01ee
cafe
3006
5556
1980
024e
cafe
3416
5556
1984
0224
cafe
380f
5556
1984
0249
cafe
3c1f
5556
1984
0160
cafe
2007
5556
1984
0271
cafe
2417
5556
1988
017f
cafe
2808
5556
1988
0214
cafe
2c18
5556
1988
02a1
cafe
3000
5556
1988
0208
cafe
3410
5556
198c
01ff
cafe
3809
5556
198c
01e2
cafe
3c19
5556
198c
022f
cafe
2001
5556
198c
0229
cafe
2411
5556
1990
01fe
cafe
280a
5556
1990
0271
cafe
2c1a
5556
1990
0211
cafe
3002
5556
1990
0266
cafe
3412
5556
1994
01cb
cafe
380b
5556
1994
0209
cafe
3c1b
5556
1994
016d
cafe
2003
5556
1994
02a4
cafe
2413
5556
1998
02c3
cafe
280c
5556
1998
0216
cafe
2c1c
5556
1998
025d
cafe
3004
5556
1998
01c3
cafe
3414
5556
199c
01c6
cafe
380d
5556
199c
0206
cafe
3c1d
5556
199c
01dc
cafe
2005
5556
199c
027d
cafe
2415
5556
19a0
01c2
cafe
280e
5556
19a0
0213
cafe
2c1e
5556
19a0
01e2
cafe
3006
5556
19a0
0227
cafe
3416
5556
19a4
0205
cafe
380f
5556
19a4
0236
cafe
3c1f
5556
19a4
015f
cafe
2007
5556
-
19a4
024c
cafe
2417
5556
19a8
015c
cafe
2808
5556
19a8
020c
cafe
2c18
5556
19a8
029b
cafe
3000
5556
19a8
01ef
cafe
3410
5556
19ac
01ea
cafe
3809
5556
19ac
01d3
cafe
3c19
5556
19ac
021d
cafe
2001
5556
19ac
0208
cafe
2411
5556
19b0
01df
cafe
280a
5556
19b0
025a
cafe
2c1a
5556
19b0
01fe
cafe
3002
5556
19b0
026d
cafe
3412
5556
19b4
019f
cafe
380b
5556
19b4
01f3
cafe
3c1b
5556
19b4
015f
cafe
2003
5556
19b4
0299
cafe
2413
5556
19b8
02a7
cafe
280c
5556
19b8
01ea
cafe
2c1c
5556
19b8
024c
cafe
3004
5556
19b8
01b5
cafe
3414
5556
19bc
01b2
cafe
380d
5556
19bc
020d
cafe
3c1d
5556
19bc
01c6
cafe
2005
5556
19bc
0284
cafe
2415
5556
19c0
01bc
cafe
280e
5556
19c0
020d
cafe
2c1e
5556
19c0
01d3
cafe
3006
5556
19c0
021d
cafe
3416
5556
19c4
01fe
cafe
380f
5556
19c4
0233
cafe
3c1f
5556
19c4
014b
cafe
2007
5556
19c4
0252
cafe
2417
5556
19c8
014a
cafe
2808
5556
19c8
01ff
cafe
2c18
5556
19c8
0281
cafe
3000
5556
19c8
01f2
cafe
3410
5556
19cc
01d9
cafe
3809
5556
19cc
01d1
cafe
3c19
5556
19cc
0213
cafe
2001
5556
19cc
0203
cafe
2411
5556
19d0
01df
cafe
280a
5556
19d0
0259
cafe
2c1a
5556
19d0
01f0
cafe
3002
5556
19d0
024f
cafe
3412
5556
19d4
01af
cafe
380b
5556
19d4
01eb
cafe
3c1b
5556
19d4
0164
cafe
2003
5556
19d4
028c
cafe
2413
5556
19d8
02a2
cafe
280c
5556
19d8
01e9
cafe
2c1c
5556
19d8
-
024e
cafe
3004
5556
19d8
01b6
cafe
3414
5556
19dc
01b4
cafe
380d
5556
19dc
01ff
cafe
3c1d
5556
19dc
01bb
cafe
2005
5556
19dc
0262
cafe
2415
5556
19e0
01b6
cafe
280e
5556
19e0
01fb
cafe
2c1e
5556
19e0
01b9
cafe
3006
5556
19e0
0213
cafe
3416
5556
19e4
01f1
cafe
380f
5556
19e4
0215
cafe
3c1f
5556
19e4
0143
cafe
2007
5556
19e4
0242
cafe
2417
5556
19e8
014b
cafe
2808
5556
19e8
01f2
cafe
2c18
5556
19e8
028e
cafe
3000
5556
19e8
01dc
cafe
3410
5556
19ec
01de
cafe
3809
5556
19ec
01a4
cafe
3c19
5556
19ec
0208
cafe
2001
5556
19ec
0203
cafe
2411
5556
19f0
01c7
cafe
280a
5556
19f0
0249
cafe
2c1a
5556
19f0
01eb
cafe
3002
5556
19f0
024d
cafe
3412
5556
19f4
01a1
cafe
380b
5556
19f4
01ea
cafe
3c1b
5556
19f4
013d
cafe
2003
5556
19f4
026f
cafe
2413
5556
19f8
029e
cafe
280c
5556
19f8
01eb
cafe
2c1c
5556
19f8
0243
cafe
3004
5556
19f8
01a8
cafe
3414
5556
19fc
019f
cafe
380d
5556
19fc
01da
cafe
3c1d
5556
19fc
01b3
cafe
2005
5556
19fc
0269
cafe
2415
5556
1a00
01b1
cafe
280e
5556
1a00
01f8
cafe
2c1e
5556
1a00
01be
cafe
3006
5556
1a00
021d
cafe
3416
5556
1a04
01ed
cafe
380f
5556
1a04
021a
cafe
3c1f
5556
1a04
012e
cafe
2007
5556
1a04
0239
cafe
2417
5556
1a08
0149
cafe
2808
5556
1a08
01f2
cafe
2c18
5556
1a08
0269
cafe
3000
5556
1a08
01d9
cafe
3410
5556
1a0c
01ce
cafe
3809
5556
1a0c
01af
-
cafe
3c19
5556
1a0c
01fa
cafe
2001
5556
1a0c
01fe
cafe
2411
5556
1a10
01dd
cafe
280a
5556
1a10
025f
cafe
2c1a
5556
1a10
01ef
cafe
3002
5556
1a10
024f
cafe
3412
5556
1a14
018d
cafe
380b
5556
1a14
01d9
cafe
3c1b
5556
1a14
012b
cafe
2003
5556
1a14
026a
cafe
2413
5556
1a18
028f
cafe
280c
5556
1a18
01d9
cafe
2c1c
5556
1a18
0230
cafe
3004
5556
1a18
0196
cafe
3414
5556
1a1c
0191
cafe
380d
5556
1a1c
01cc
cafe
3c1d
5556
1a1c
01b7
cafe
2005
5556
1a1c
0259
cafe
2415
5556
1a20
01a5
cafe
280e
5556
1a20
01ea
cafe
2c1e
5556
1a20
01b4
cafe
3006
5556
1a20
0205
cafe
3416
5556
1a24
01c7
cafe
380f
5556
1a24
01f4
cafe
3c1f
5556
1a24
0126
cafe
2007
5556
1a24
0227
cafe
2417
5556
1a28
0136
cafe
2808
5556
1a28
01dc
cafe
2c18
5556
1a28
0273
cafe
3000
5556
1a28
01e2
cafe
3410
5556
1a2c
01c2
cafe
3809
5556
1a2c
01a4
cafe
3c19
5556
1a2c
01f7
cafe
2001
5556
1a2c
01f5
cafe
2411
5556
1a30
01b8
cafe
280a
5556
1a30
0243
cafe
2c1a
5556
1a30
01d4
cafe
3002
5556
1a30
0243
cafe
3412
5556
1a34
018e
cafe
380b
5556
1a34
01cc
cafe
3c1b
5556
1a34
0137
cafe
2003
5556
1a34
025d
cafe
2413
5556
1a38
0281
cafe
280c
5556
1a38
01e4
cafe
2c1c
5556
1a38
0228
cafe
3004
5556
1a38
01a2
cafe
3414
5556
1a3c
019a
cafe
380d
5556
1a3c
01b9
cafe
3c1d
5556
1a3c
01a3
cafe
2005
5556
1a3c
0242
cafe
2415
5556
1a40
0186
cafe
-
280e
5556
1a40
01e4
cafe
2c1e
5556
1a40
019b
cafe
3006
5556
1a40
01f6
cafe
3416
5556
1a44
01d7
cafe
380f
5556
1a44
01eb
cafe
3c1f
5556
1a44
0126
cafe
2007
5556
1a44
0233
cafe
2417
5556
1a48
0125
cafe
2808
5556
1a48
01e3
cafe
2c18
5556
1a48
0267
cafe
3000
5556
1a48
01cd
cafe
3410
5556
1a4c
01b6
cafe
3809
5556
1a4c
0189
cafe
3c19
5556
1a4c
01db
cafe
2001
5556
1a4c
01f5
cafe
2411
5556
1a50
01ab
cafe
280a
5556
1a50
0243
cafe
2c1a
5556
1a50
01be
cafe
3002
5556
1a50
0236
cafe
3412
5556
1a54
0185
cafe
380b
5556
1a54
01ba
cafe
3c1b
5556
1a54
0121
cafe
2003
5556
1a54
024f
cafe
2413
5556
1a58
0274
cafe
280c
5556
1a58
01d2
cafe
2c1c
5556
1a58
023d
cafe
3004
5556
1a58
018d
cafe
3414
5556
1a5c
017f
cafe
380d
5556
1a5c
01d6
cafe
3c1d
5556
1a5c
0197
cafe
2005
5556
1a5c
023e
cafe
2415
5556
1a60
0185
cafe
280e
5556
1a60
01d0
cafe
2c1e
5556
1a60
01a7
cafe
3006
5556
1a60
01fb
cafe
3416
5556
1a64
01ae
cafe
380f
5556
1a64
01eb
cafe
3c1f
5556
1a64
0128
cafe
2007
5556
1a64
0217
cafe
2417
5556
1a68
011b
cafe
2808
5556
1a68
01e0
cafe
2c18
5556
1a68
0251
cafe
3000
5556
1a68
01d2
cafe
3410
5556
1a6c
01b2
cafe
3809
5556
1a6c
018d
cafe
3c19
5556
1a6c
01df
cafe
2001
5556
1a6c
01ea
cafe
2411
5556
1a70
01ad
cafe
280a
5556
1a70
022f
cafe
2c1a
5556
1a70
01c3
cafe
3002
5556
1a70
0219
cafe
3412
-
5556
1a74
0172
cafe
380b
5556
1a74
019f
cafe
3c1b
5556
1a74
012e
cafe
2003
5556
1a74
0230
cafe
2413
5556
1a78
0272
cafe
280c
5556
1a78
01bb
cafe
2c1c
5556
1a78
020d
cafe
3004
5556
1a78
0191
cafe
3414
5556
1a7c
0169
cafe
380d
5556
1a7c
01b3
cafe
3c1d
5556
1a7c
0193
cafe
2005
5556
1a7c
0232
cafe
2415
5556
1a80
016b
cafe
280e
5556
1a80
01c7
cafe
2c1e
5556
1a80
0194
cafe
3006
5556
1a80
01e2
cafe
3416
5556
1a84
01b7
cafe
380f
5556
1a84
01fb
cafe
3c1f
5556
1a84
0119
cafe
2007
5556
1a84
0213
cafe
2417
5556
1a88
0130
cafe
2808
5556
1a88
01de
cafe
2c18
5556
1a88
024d
cafe
3000
5556
1a88
01c0
cafe
3410
5556
1a8c
01bc
cafe
3809
5556
1a8c
019c
cafe
3c19
5556
1a8c
01df
cafe
2001
5556
1a8c
01da
cafe
2411
5556
1a90
019d
cafe
280a
5556
1a90
022b
cafe
2c1a
5556
1a90
01ad
cafe
3002
5556
1a90
0224
cafe
3412
5556
1a94
0177
cafe
380b
5556
1a94
01c1
cafe
3c1b
5556
1a94
0121
cafe
2003
5556
1a94
0249
cafe
2413
5556
1a98
025d
cafe
280c
5556
1a98
01bd
cafe
2c1c
5556
1a98
021a
cafe
3004
5556
1a98
017c
cafe
3414
5556
1a9c
0178
cafe
380d
5556
1a9c
01bc
cafe
3c1d
5556
1a9c
018f
cafe
2005
5556
1a9c
0242
cafe
2415
5556
1aa0
0181
cafe
280e
5556
1aa0
01c7
cafe
2c1e
5556
1aa0
0195
cafe
3006
5556
1aa0
01f0
cafe
3416
5556
1aa4
01bd
cafe
380f
5556
1aa4
01ef
cafe
3c1f
5556
1aa4
012a
cafe
2007
5556
-
1aa4
0214
cafe
2417
5556
1aa8
0112
cafe
2808
5556
1aa8
01c7
cafe
2c18
5556
1aa8
024b
cafe
3000
5556
1aa8
01b1
cafe
3410
5556
1aac
0197
cafe
3809
5556
1aac
017c
cafe
3c19
5556
1aac
01c8
cafe
2001
5556
1aac
01d2
cafe
2411
5556
1ab0
0182
cafe
280a
5556
1ab0
0212
cafe
2c1a
5556
1ab0
01b3
cafe
3002
5556
1ab0
0206
cafe
3412
5556
1ab4
0160
cafe
380b
5556
1ab4
01b1
cafe
3c1b
5556
1ab4
0105
cafe
2003
5556
1ab4
0236
cafe
2413
5556
1ab8
025d
cafe
280c
5556
1ab8
01ad
cafe
2c1c
5556
1ab8
021d
cafe
3004
5556
1ab8
018b
cafe
3414
5556
1abc
0173
cafe
380d
5556
1abc
01af
cafe
3c1d
5556
1abc
0189
cafe
2005
5556
1abc
0239
cafe
2415
5556
1ac0
0171
cafe
280e
5556
1ac0
01ca
cafe
2c1e
5556
1ac0
019e
cafe
3006
5556
1ac0
01ec
cafe
3416
5556
1ac4
01aa
cafe
380f
5556
1ac4
01dd
cafe
3c1f
5556
1ac4
0104
cafe
2007
5556
1ac4
0204
cafe
2417
5556
1ac8
011d
cafe
2808
5556
1ac8
01be
cafe
2c18
5556
1ac8
023b
cafe
3000
5556
1ac8
01bb
cafe
3410
5556
1acc
0194
cafe
3809
5556
1acc
0174
cafe
3c19
5556
1acc
01d7
cafe
2001
5556
1acc
01e3
cafe
2411
5556
1ad0
018f
cafe
280a
5556
1ad0
0216
cafe
2c1a
5556
1ad0
01a0
cafe
3002
5556
1ad0
0211
cafe
3412
5556
1ad4
0152
cafe
380b
5556
1ad4
01a5
cafe
3c1b
5556
1ad4
0115
cafe
2003
5556
1ad4
0227
cafe
2413
5556
1ad8
025f
cafe
280c
5556
1ad8
01c5
cafe
2c1c
5556
1ad8
-
020d
cafe
3004
5556
1ad8
0181
cafe
3414
5556
1adc
0174
cafe
380d
5556
1adc
01ab
cafe
3c1d
5556
1adc
0179
cafe
2005
5556
1adc
0240
cafe
2415
5556
1ae0
0173
cafe
280e
5556
1ae0
01c6
cafe
2c1e
5556
1ae0
01a3
cafe
3006
5556
1ae0
01d2
cafe
3416
5556
1ae4
01a7
cafe
380f
5556
1ae4
01cb
cafe
3c1f
5556
1ae4
0110
cafe
2007
5556
1ae4
01f5
cafe
2417
5556
1ae8
011a
cafe
2808
5556
1ae8
01c1
cafe
2c18
5556
1ae8
0245
cafe
3000
5556
1ae8
019c
cafe
3410
5556
1aec
0186
cafe
3809
5556
1aec
0168
cafe
3c19
5556
1aec
01c5
cafe
2001
5556
1aec
01cc
cafe
2411
5556
1af0
0184
cafe
280a
5556
1af0
0224
cafe
2c1a
5556
1af0
01ac
cafe
3002
5556
1af0
021d
cafe
3412
5556
1af4
015e
cafe
380b
5556
1af4
019f
cafe
3c1b
5556
1af4
010b
cafe
2003
5556
1af4
0230
cafe
2413
5556
1af8
0247
cafe
280c
5556
1af8
01b6
cafe
2c1c
5556
1af8
0201
cafe
3004
5556
1af8
017a
cafe
3414
5556
1afc
0175
cafe
380d
5556
1afc
01a2
cafe
3c1d
5556
1afc
0174
cafe
2005
5556
1afc
0222
cafe
2415
5556
1b00
0167
cafe
280e
5556
1b00
01d1
cafe
2c1e
5556
1b00
0185
cafe
3006
5556
1b00
01dd
cafe
3416
5556
1b04
019f
cafe
380f
5556
1b04
01d1
cafe
3c1f
5556
1b04
0113
cafe
2007
5556
1b04
0207
cafe
2417
5556
1b08
0109
cafe
2808
5556
1b08
01af
cafe
2c18
5556
1b08
0241
cafe
3000
5556
1b08
01a6
cafe
3410
5556
1b0c
01a7
cafe
3809
5556
1b0c
0173
-
cafe
3c19
5556
1b0c
01b5
cafe
2001
5556
1b0c
01c6
cafe
2411
5556
1b10
0173
cafe
280a
5556
1b10
0224
cafe
2c1a
5556
1b10
01b6
cafe
3002
5556
1b10
020f
cafe
3412
5556
1b14
016d
cafe
380b
5556
1b14
0193
cafe
3c1b
5556
1b14
00f5
cafe
2003
5556
1b14
0224
cafe
2413
5556
1b18
0263
cafe
280c
5556
1b18
0196
cafe
2c1c
5556
1b18
01ff
cafe
3004
5556
1b18
0183
cafe
3414
5556
1b1c
0164
cafe
380d
5556
1b1c
01b6
cafe
3c1d
5556
1b1c
0187
cafe
2005
5556
1b1c
022d
cafe
2415
5556
1b20
0170
cafe
280e
5556
1b20
01c6
cafe
2c1e
5556
1b20
0177
cafe
3006
5556
1b20
01ca
cafe
3416
5556
1b24
019f
cafe
380f
5556
1b24
01c1
cafe
3c1f
5556
1b24
0112
cafe
2007
5556
1b24
01f9
cafe
2417
5556
1b28
00f7
cafe
2808
5556
1b28
01bb
cafe
2c18
5556
1b28
023e
cafe
3000
5556
1b28
01a6
cafe
3410
5556
1b2c
01a2
cafe
3809
5556
1b2c
017a
cafe
3c19
5556
1b2c
01cd
cafe
2001
5556
1b2c
01ac
cafe
2411
5556
1b30
0181
cafe
280a
5556
1b30
0216
cafe
2c1a
5556
1b30
01a3
cafe
3002
5556
1b30
0215
cafe
3412
5556
1b34
0159
cafe
380b
5556
1b34
01bb
cafe
3c1b
5556
1b34
00fe
cafe
2003
5556
1b34
022f
cafe
2413
5556
1b38
025c
cafe
280c
5556
1b38
01a3
cafe
2c1c
5556
1b38
01ec
cafe
3004
5556
1b38
0176
cafe
3414
5556
1b3c
0175
cafe
380d
5556
1b3c
019a
cafe
3c1d
5556
1b3c
0164
cafe
2005
5556
1b3c
0210
cafe
2415
5556
1b40
016e
cafe
-
